-23581.8209
-25821.97685
36796.89347
43451.7074
-1229.266478
-524.020563
2154.881
21357.92116
-11700.88977
-31228.41201
12540.65291
25593.2791
168.95295
9034.98883
11429.656
8080.7992
26865.2659
-12097.82911
-15625.07737
-49317.54881
-22157.3054
24748.88313
1058.5994
9236.30639
-10794.166
-8590.5033
-62997.208
-14503.68756
-22563.0279
18098.3938
-46742.3017
4181.19151
32736.62928
40506.8306
4379.64195
-9354.6793
3489.9785
-9552.86006
-5856.4734
1329.92978
-7240.085169
-17950.4741
-34998.0507
1597.2659
5241.38444
27333.3452
30223.5795
2969.7824
-36233.5333
-29134.7878
-35330.33511
15486.82971
29728.5283
37869.0544
60388.055
-2690.3041
8275.3157
-9551.4909
-13745.3346
-27852.2249
24190.184
-188.08673
26715.0932
44735.63737
144.1315
-19644.96007
-3201.384259
-25623.2175
4553.39239
20022.08566
7016.279
-353.15509
-23383.3238
-5540.938
651.34112
-23455.06469
8797.5009
-22333.3678
-36062.29327
22334.5856
5290.82
14204.026
-2785.1221
-26867.0644
34585.8666
-9225.751
-2927.19163
17751.8375
15700.1209
7780.7445
-742.56736
-40333.5731996
-8224.9259
32084.194403
-34334.3522
38497.57267
-1721.742473
-27508.9294
-5821.2063
-19032.7346
8886.1117
19456.13024
-13071.4426
2262.29274
26505.5091
-27990.95165
-28789.79037
-3844.45706
-30070.16343
-21287.20387
-2484.2313
-19459.7634
18994.7856
12899.9504
16040.91358
-16736.88481
19031.0184
10231.73148
13801.5303
-12480.10953
-24077.3289
-28998.3365
-9138.04393
-3990.25734
-13852.09707
-3757.9091
-18058.039
30804.8656
7026.5738
-42998.19726
531.02034
-54487.925592
40950.787
-8922.083115
-13223.6873
1312.273
-12593.5822
-7996.62781
-3667.1141
9112.9276
-19501.98386
5375.2218
7301.48577
-10377.3427
19630.7466
-11066.4396
-8152.0316
3759.4546
-2398.8618
41301.71577
6866.0275
-313.6578
-2194.51632
5281.705
15582.7964
-18785.11328
-36786.9208
-21238.00532
2951.9209
14015.53979
39655.6079
-1971.9021
-14437.27602
-11849.7154
-9702.8982
15620.94986
-23269.85647
751.4465
-24997.9128
-30434.6039
14336.98929
-14591.016007
-53308.5697
7170.3716
-14081.40635
25858.37193
-22087.36266
5407.74728
11461.57661
-3096.9817
-13213.44052
15260.4556
16497.6676
-15337.1423
-9312.7004
-11234.07427
-18151.4041
962.40219
-3191.30721
22688.9909
3840.5281
-4138.18426
1168.28242
33581.4852
-49323.5304
-25368.4117
7887.1937
-28092.76774
-10684.27864
19126.77585
33619.9399
19385.9406
9110.6591
6042.4457
-8383.1577
294.6523
9799.388
12227.06711
-29317.3075
-47378.22609
12452.2948
-39533.72657
-7683.49248
3113.8002
-14388.17603
11822.530619
-22860.0545
-6292.67894
24359.59331
-2800.50029
6244.38523
15005.0655
-28677.7344
9688.328
11052.735
-30285.386119
1614.72795
-536.74767
-431.51417
-43715.8093
-1191.4882
27644.16952
15807.9081
-27256.9335
-20077.53602
30190.9221
19970.08469
-9155.88008
-40.6336
16177.45691
40534.3851
-20212.0664
-22820.05198
-13065.2047
4840.21496
-7154.6516
-13969.84911
24083.8014
1149.9811
-18203.6142
-24115.91985
-21719.9708
8899.3669
17038.95621
28710.22322
18391.66539
11133.69738
-7693.861993
-14663.9044
30402.98673
18224.583321
34020.60962
27198.082672
34028.2243
-2832.4348
-5190.30345
46727.83109
-35963.5104
2492.1868
10014.0271
7060.2659
43037.5019
-14556.318038
-297.0199
19444.0499
-13347.7432
35108.0691
8958.466159
8751.90723
3998.532379
6.00656
8418.07431
-4589.64982
-21578.8308
4394.95937
-33655.8179
-7884.1235
3051.202
-36868.4895
-9358.12668
19580.931451
-14979.59316
-12498.7651
25665.5254
4387.3068
-41413.20998
-8057.70532
27338.10075
24134.67834
-33690.45812
-14792.57801
32624.10668
8254.72878
10409.83943
-31907.561094
373.47069
-13071.8422
10501.46379
33026.2094
16512.5691
-19913.7218
11895.24085
6371.619815
-21124.8665
10538.8175
21900.5126
-25015.03602
-23476.79932
-2916.3316
6086.85
13189.3449
28720.45849
-9763.5659
8990.63139
-26006.1829
10373.95006
13101.12503
4003.2636
11807.9238
-38913.46422
-25121.8044
-1023.0343
10743.85307
-18398.55453
2016.4834
-22462.1338
-8482.8817
-3457.2805
-14457.58257
-3172.47963
-1257.8195
7458.89929
15551.5186
-14546.1984
22289.490486
-1849.03893
10500.92088
39448.4486
24673.04179
2302.4411
