279.687
171.399
120.397
267.797
1643.29
3618.53
6031.54
502.378
25.6983
1426.31
-391.238
-1552.06
1686.26
1544.26
2041.91
2760.27
3631.14
2080.31
2702.35
-320.417
295.567
772.259
381.794
368.249
-1593.74
972.39
-885.764
344.632
403.32
349.808
219.478
-256.887
444.783
355.001
108.484
314.588
1349.64
-2174.01
-6552.78
-6356.4
-3948.01
-3232.3
-1500.11
-186.449
400.967
1232.02
1787.56
2687.97
4866.61
4433.75
3052.75
-952.527
-529.418
-558.594
227.356
256.073
1296.5
-2217.72
754.913
-655.648
-597.985
285.855
-270.389
337.3
-1482.44
-1245.25
-1398.37
-182.485
10.7078
2630.92
-1048.71
-3100.49
-3434.7
-146.875
-1374.16
-522.088
2043.89
375.145
2833.96
448.077
-2986.36
1075.85
4153.11
4042.75
2642.55
1773.23
3089.42
2490.27
1085.24
2034.83
1198.64
-181.203
-49.4784
-432.326
-11.1185
1593.58
5357.75
4044.81
1573.19
4873.16
1512.45
-682.637
-246.857
1046.38
1376.36
2229.89
936.81
6413.04
5011.55
8240.96
7467.34
5840.12
1721.49
4450.71
6070.46
9065.49
16589.3
8558.09
8269.91
922.544
1436.22
1465.79
871.861
1454.39
1667.03
4506.19
-35.9804
42.8621
418.929
488.686
667.392
585.112
591.795
571.022
3635.58
-1686.82
-1309.77
558.653
1234.9
6486.47
4393.12
457.102
-1765.26
-1489.48
331.879
-516.997
-499.526
619.334
-575.997
219.852
-1357.05
160.12
82.1907
2200.39
940.141
-2042.81
-1756.49
264.343
1592.58
3330.48
2836.93
1583.99
-623.441
-2772.53
-6444.48
-1722.36
-1189.4
-2784.92
-703.666
-946.928
130.995
192.445
-261.261
502.058
-4532.8
-1454.55
-144.025
1610.62
-2749.88
-6291.12
-3967.65
-3142.34
561.707
-657.308
30.6513
409.865
-586.735
531.291
3015.05
400.328
-1156.88
783.202
651.985
-31.0476
-344.965
55.6405
-848.962
-603.998
3306.35
375.242
522.078
158.32
587.494
298.445
294.116
-754.977
908.68
2097.32
1984.19
298.341
-609.265
-3257.98
-4327.1
-738.635
-615.404
-847.811
-13.6886
16.9674
6064.28
2793.82
163.552
1525.1
278.301
1932.1
-1178.45
-1380.49
-813.9
-314.208
338.924
-337.409
290.629
869.991
200.06
-2345.15
-2394.79
-620.016
-721.724
1112.68
-17.4372
934.741
551.237
-255.021
248.887
398.812
-288.618
-387.312
-586.311
1271.36
-375.721
1583.04
-978.561
-1405.61
-2004.62
-2931.01
-1180.2
387.828
-135.464
-1042.28
1588.25
-1060.84
-447.868
604.18
3588.69
4802.64
10296.9
8142.57
4041.52
5051.86
2081.25
85.0238
-584.632
-1934.54
-2235.45
1232.94
-669.174
2131.78
4063.48
3447.76
449.225
1756.8
1143.65
4589.19
1057.32
-2213.28
98.6751
97.4719
-2127.48
-3906.25
-169.939
595.752
-61.6499
-2080.47
863.875
-585.904
-984.513
-2123.97
-234.703
2296.1
1133.76
140.152
508.511
-980.28
-920.1
1007.94
-5254.74
54.6653
-290.4
-1109.24
285.721
-623.037
374.934
-98.0905
709.87
-1175.9
525.21
-1062.07
268.917
1370.66
-144.18
395.886
-417.947
-1241.42
876.989
-15.8337
-228.241
263.485
-312.629
314.013
776.973
536.504
-155.673
2723.76
-613.022
1212.32
-336.319
-285.444
-102.044
1138.29
-1063.45
-1002.51
-2779.18
147.323
924.099
985.735
37.155
1548.34
1194.97
4643.02
6576.51
2535.15
3652.66
3361.71
1090.08
533.761
1775.01
-1414.97
-2885.56
-2239.24
-3178.54
-4029.04
-347.758
796.608
1233.49
26.0798
2133.42
3682.07
691.672
1843.97
3218.62
4334.07
60.949
-117.588
-219.134
-1822.41
-2804.71
15.6171
560.396
-250.996
-76.4334
-646.568
-1953.39
1767.13
1946.82
1473.38
-318.345
47.0179
589.693
-1612.59
104.845
447.396
-1043.85
-1123.75
-1069.71
-783.529
-6012.86
-1673.79
-2873.11
-222.602
674.762
563.203
132.437
320.754
-138.826
-1844.79
-2138.93
-910.789
-374.562
-3350.19
-1535.41
3201.3
1557.3
1175.06
3899.33
1435.84
-2699.44
724.83
724.277
739.464
-849.879
-247.593
-1052.09
-747.781
375.826
1178.89
1162.68
1415.17
951.937
69.8661
616.155
216.03
-935.191
282.819
-1389.49
-1200.23
208.002
-1815.85
587.145
-822.137
2178.15
-3660
597.482
695.836
-395.874
-557.122
-1178.63
3375.51
3617.83
-4047.63
-2644.76
-3430.73
25.8239
1607.19
-426.095
175.84
2257.49
2755.49
1194.93
-313.512
-901.468
-1747.42
-1856.86
-2289.2
-975.924
391.672
2259.39
773.67
2232.51
-802.947
-820.655
87.1587
-120.685
9909.28
11776.8
16699.9
11959.6
3495.37
3186.28
9965.28
11928.4
16443.4
17841.2
15754.7
9110.91
3040.17
1759.81
-1447.2
-158.628
3390.94
6272.91
4479.72
208.141
-3961.97
-3366.93
-555.777
1974.84
-262.14
4053.7
3352.91
2785.49
167.987
-1760.89
1823.31
1948.19
991.6
-389.801
2078.75
1574.16
278.436
-1248.91
1177.28
331.294
238.137
1123.77
710.086
21.2253
-543.834
-1067.54
-1295.21
-751.589
-1937.31
1.15665
-2888.04
898.115
166.919
1339.39
1236.76
906.295
1841.96
323.673
2431.44
3572.92
1070.01
271.085
-574.612
-341.341
2192.47
470.993
4196.69
2519.53
-477.434
855.264
1343.69
-1451.27
-1374.33
359.914
-1082.35
-1275.52
49.6311
1914.75
2762.69
4756.19
6146.51
772.97
870.932
-2202.22
-1142.27
-1764.52
-2539.07
304.119
1783.83
72.0108
-1624.88
-3724.85
-830.423
-604.621
-895.516
-1416.73
3033.07
1050.95
7717.86
7111.07
2512.09
448.191
-1005.89
1463.31
976.755
990.147
621.538
713.295
2298.29
2816.9
1031.56
1575.82
-2053.9
-4640.12
-1367.1
454.299
-242.682
-1223.44
177.139
2455.3
-2706.23
-3757.61
2157.43
1439.48
-2591.32
-2289.35
3148.27
4055.73
2395.6
-606.833
3375.54
8689.15
9345.75
10256.7
10019.7
8217.5
594.141
-496.439
41.6622
-801.094
186.518
-213.931
-1855.98
-4432.33
-1604.8
335.018
-438.068
-2738.59
-266.602
1222.9
1479.33
722.647
-1918.19
-969.612
-1286.94
606.784
1698.3
-1188.5
-987.142
-145.543
260.167
125.198
4.94446
668.669
-874.484
-898.663
10.5128
-913.937
-288.149
317.449
-336.315
-2536.07
-55.832
-463.606
529.93
502.993
254.016
-481.835
-104.531
-2113.14
-803.385
-393.605
945.18
149.252
660.808
-179.745
1513.79
-2172.14
1713.43
15.6041
-971.868
1018.8
-1740.86
-719.185
5735.88
9228.27
11479.9
9736.3
4417.4
3335.78
960.224
829.973
-582.948
-2025.45
-901.807
763.857
5516.23
1183.36
-1076.6
1131.34
958.923
803.016
-14.0122
4036.23
-322.214
-68.0879
425.935
415.837
3245.95
2069.86
-227.903
585.03
-433.419
608.822
-629.327
361.427
-808.554
794.106
-218.868
-1184.42
-8.56311
-109.325
-357.643
830.82
-18.2101
3168.07
220.456
-1541.1
-1765.21
156.126
-60.0942
-883.025
635.755
-91.0286
304.701
-1498.05
809.063
-727.472
-2384.21
-3911.55
300.266
622.838
-1052.01
-53.6453
189.837
542.192
761.528
506.2
-834.909
3243.02
749.16
-154.153
845.98
4346.56
1957.04
1412.33
1509.3
-246.066
-1219.44
-1743.38
306.887
-423.63
4.54816
1022.39
1874.28
111.825
-713.702
2339.31
473.18
1741.91
-432.159
-564.508
948.237
1987.7
633.192
5193.31
9914.77
2367.36
-713.945
-176.151
579.989
-70.9925
-1031.21
-1462.42
-5767.33
526.062
793.16
392.156
1039.86
741.351
-45.6434
2772.56
1787.4
-1093.09
657.252
2118.27
-837.496
156.749
543.666
5402.9
8826.09
9616.29
4250.82
951.745
1336.06
2841.73
-3183.47
-2332.38
-311.222
398.111
-1923.79
-1296.11
-2332.06
-1812.5
335.809
163.916
-635.015
-1136.89
899.626
503.957
-1308.06
-1484.86
-2724.59
-459.384
2815.72
1498.16
3868.66
-2591.75
794.379
1528.84
537.906
298.951
998.756
630.025
685.704
-372.971
1604.05
-657.904
3038.36
9073.27
9707.36
11209.5
4075.38
-376.979
1180.41
1401.38
3516.04
-116.325
-668.89
-1147.81
1863.35
-102.223
-2945.42
-3008.38
-1213.81
-3621.13
-12126.6
-4727.64
-3124.09
-2336.53
-3593.87
-1668.67
2940.37
3324.66
4660.59
8291.6
8604.32
1469.76
2801.1
5945.57
8174.92
4760.38
2647.51
1163.52
-82.0733
-697.799
-990.585
-181.396
-561.099
2580.16
3405.47
3422.12
5370.51
9823.78
6738.69
10050.9
13538.8
1431.51
989.938
-748.957
2723.19
-1218.02
-1008.36
2608.36
5576.64
1833.09
-2720.44
-1339.78
172.639
1216.86
-379.468
-1023.96
1767.77
-65.7725
938.909
9.0358
-1034.21
-2622.38
-587.818
-56.7863
1277.62
584.933
-337.021
2621.75
1180
777.23
-681.444
-288.113
1175.13
447.636
2483.82
-1005.19
3321.96
3576.54
811.716
2206.37
1534.25
-1735.19
-108.822
-126.13
1279.42
179.615
-143.301
-333.339
783.5
-868.199
-249.718
247.415
-137.472
450.455
1622.28
-643.256
151.791
-149.637
-175.744
12.9114
-975.288
-194.593
1101.72
2367.24
-3586.01
-994.796
-2350.95
1215.44
242.97
1054.98
3083.73
3114.2
-752.088
3008.17
1575.75
3463.41
3912.52
5050.75
6781.39
3649.52
6868.48
8727.94
5254.35
7709.95
2569.38
6438.72
6761.53
3632.66
2185.59
-553.408
70.4225
200.951
-720.509
-237.074
-2782.63
-2442.26
-2050.88
-59.9095
256.706
885.715
-26.116
2465.11
4308.03
4081.01
-4684.95
278.15
3338.35
3156.72
2557.89
-1199.99
-960.307
-598.528
-2404.31
-1031.53
-213.091
-4505.66
-2308.39
-1535.67
-5252.38
1924.88
1183.04
-364.513
-418.35
776.168
724.137
-393.78
313.731
-553.083
2417.76
5854.49
6491.65
2498.42
5422.41
4317.86
1187.77
2607.75
8590.79
1183.04
1901.61
1222.65
-285.889
-714.108
-1069.24
-697.949
-1943.65
231.11
1283.68
-945.587
755.431
-1953.6
-76.5571
554.26
4969.8
2772.27
5182.39
575.423
1645.25
2866.79
-123.878
831.533
-939.547
-771.894
-1174.77
1262.46
1904.25
296.7
-1889.39
-5089.86
-5155.22
-6727.68
-4245.79
-169.572
-1100.06
-2568.09
-2901.88
-1456.03
-2247.14
-2095.97
736.752
-346.767
777.285
-116.574
-855.423
-4443.18
-3497.62
-1240.2
2753.14
-1948.28
-1879.11
-796.018
-1089.58
-454.837
1632.31
-202.97
801.034
1823.37
3624.48
2728.29
1694.64
3666.95
3313.83
2045.11
3992.8
448.616
72.8171
635.42
1799.94
-304.596
-119.48
863.205
828.52
950.633
-917.787
1094.54
-581.339
-1170.91
820.639
730.347
1491.15
1300.14
-1961.54
4230.27
3567.36
5318.35
8908.33
4481.2
1144.8
586.876
-970.329
691.781
238.311
-383.977
-3498.55
-421.833
-258.28
-1447.95
-1011.93
-371.887
1202.28
-486.067
-161.286
1464.85
1385.04
-255.317
2739.26
2266.41
-826.594
703.809
-1131.23
-2717.35
-2833.83
527.307
491.283
-893.869
695.875
914.618
303.135
79.5842
219.356
-1455.47
-302.109
-439.234
-347.426
-1083.55
-1262.69
620.698
1257.29
1163.12
573.05
903.885
1545.89
3864.16
421.271
3443.53
306.619
303.922
1288.81
931.236
-2049.63
859.291
377.854
1778.37
-110.665
907.719
364.281
-895.198
3332.7
3364.89
1593.46
2651.5
-630.976
-132.905
1241.7
1260.37
4473.07
2304.21
37.4572
599.508
246.792
411.348
4935.55
2835.42
6748.27
6927.88
3896.72
4143.17
3329.64
256.995
-38.4265
2317.97
2414.44
-953.497
-732.654
-1557.88
-1307.31
-246.91
148.321
-134.146
-690.488
373.698
-142.066
-996.9
-2687.59
-2247.11
173.232
-125.509
226.371
226.114
-2589.09
1374.19
1137.48
227.677
353.701
-76.8676
1490.71
3569.97
2105.84
1249.36
3546.76
4237.31
1561.81
-1065.2
532.054
-1255.83
442.435
259.388
729.127
-57.1459
1543.81
2865.89
2307.51
1986.95
-345.139
781.446
-660.463
1454.38
4006.97
4800.95
6869.8
5209.53
6286.72
2624.47
6943.26
5065.73
3594.45
3686.47
3872.03
3619.52
-3300.73
-5661.35
-519.446
626.464
1403.38
967.386
-591.093
1642.14
3268.57
2498.29
-108.979
749.911
-478.188
-725.79
-380.265
1737.66
384.44
-452.891
724.701
2909.39
2090.48
1943.83
409.369
603.34
2357.02
10210.9
6492.47
5563.75
4788.8
125.092
2471.49
663.144
655.155
-112.839
-835.388
-1123.59
71.9547
-508.279
-385.612
-2021.66
-736.882
-844.118
652.516
-1024.08
26.2669
1014.82
720.752
-452.768
1518.13
1454.42
2054.94
5377.77
4507.6
6622.73
1438.79
3816.44
2361.85
-729.391
3680.63
1889.59
994.788
1913.94
2050.8
623.267
269.225
-2243.13
805.395
-278.754
371.324
2454.02
1951.32
522.328
19.5848
-22.5163
-78.347
1736.86
-341.311
880.902
2487.09
586.901
-698.911
-102.289
692.033
1209.06
459.111
3267.05
-747.345
-254.079
-3528.21
-2421.49
78.8558
-1153.33
-2125.21
-3260.31
-2977.03
1161.9
879.826
376.241
-149.661
-66.0311
287.399
-451.147
905.027
-126.142
2247.34
1446.75
2631.52
4029.82
2262.83
-426.543
-63.9443
-3401.08
-396.934
-832.302
103.536
1589.29
1219.12
938.099
165.299
-115.977
1865.18
3802.91
-351.498
1796.96
5155.32
1580.53
1590.24
13665.3
7837.31
9451.08
10140.6
5960.31
1977.13
645.66
-2520.74
1280.49
2143
3972.53
3653.71
5753.55
4167.65
2933.05
-332.358
-1324.94
-1934.1
735.462
668.921
437.3
4738.04
4908.36
4279.41
622.913
-343.098
-815.32
-1254.45
577.583
373.709
-1473.64
-446.673
-188.401
2978.63
4887.7
1139.45
-220.55
2144.79
1545.36
953.238
-1401.04
1789.57
1313.43
1957.06
470.926
-1403.27
435.102
834.62
-1003.67
-2473.93
-2259.42
-684.79
-4133.06
477.81
-1217.85
864.344
-874.383
5823.88
1139.43
-1432.01
-287.747
212.131
-1043.65
76.4541
1827.46
-658.32
-1621.33
-1458.41
-2252.53
1617.46
-49.1355
-406.464
-662.111
443.921
560.763
-1398.18
-321.783
952.708
-790.601
1736.9
141.88
-2614.77
-2547.86
-2834.4
-2651.05
-1701.58
698.416
1068.55
2916.35
1503.4
705.313
453.104
251.355
376.234
646.934
894.393
1528.56
-2215.59
-4652.55
-1181.33
-876.108
861.187
693.547
-151.071
-838.812
-621.58
1247.56
1405.45
-218.927
4077.87
569.537
2295.34
2996.61
278.859
559.47
-1693.94
1719.58
155.719
-2240.61
-5585.02
-3613.64
-3725.76
-3485.41
-2575.9
-1623.93
-1513.66
-56.2533
683.709
-1089.95
-2371.12
-581.588
3413.53
3448.88
342.231
-258.391
-1302.38
237.653
409.636
-1462.06
-2072.5
137.756
3338.25
1760.54
-1819.58
-1917.99
-2782.39
-2880.95
-882.198
-288.049
1844.95
-931.051
-1318.99
-351.949
-593.917
672.895
756.969
-126.057
-1952.95
-185.858
531.459
237.322
686.54
6124.34
8251.86
444.618
1314.38
-78.1451
1004.75
1815.19
1925.68
2823.02
2092.7
9586.02
12704
13084.3
9381.99
4031.22
8305.49
2614.16
-111.544
748.699
929.548
147.689
876.478
-60.6913
-320.016
71.5333
431.63
-2658.25
-1713.14
-2884.63
-1597.28
-2327.08
-2863.27
-3549.13
-580.808
1323.02
701.198
-980.085
-3888.04
-3505.82
-3369.8
-2427.22
718.607
2971.3
-324.915
799.022
2814.19
1859.08
3038.05
-906.414
1549.88
-620.844
-1271.71
143.064
2151.5
1269.26
-823.673
4045.63
-1945.16
1605.68
1845.5
3435.48
1796.54
5659.32
4746.38
7266.11
9782.84
4664.59
5392.16
5263.02
6188.28
8116.09
3087.93
-1970.31
3360.11
4596.89
2997.92
2036.8
-2405.62
-841.625
4275.39
2652.96
2648.82
-475.835
2284.66
2843.96
1102.26
1187.29
-452.405
-1124.33
-829.481
-2065.32
-1794.49
-254.119
-2048.69
620.684
2972.16
7077.12
1709.37
3760.44
2762.79
4761.98
2770.13
-147.583
124.39
-2941.86
-1039.16
153.864
2180.06
2467.23
1680.15
1182.82
-690.517
-1432.88
-1133.63
371.788
-1232.8
173.738
2598
3621.06
7096.4
3227.95
-681.617
-1660.26
-1485.34
-1083.99
-272.015
262.494
2227.2
-475.891
-1047.53
375.801
618.21
433.934
-743.859
-1045.81
792.926
-768.081
1221.22
-1825.22
-937.765
73.3279
2331.97
4698.97
6258.7
2281.42
4382.63
-1574.71
-764.259
-400.137
-268.959
232.071
-89.581
-1892.11
1965.71
-1165.49
1894.02
1113.64
-851.123
436.249
-2164.62
1654.7
-1653.22
1170.84
-114.206
-1734.89
-2466.33
1059.05
24.3529
-980.29
-417.138
-1247.53
-755.898
-635.212
-3595.5
-1216.37
-5181.86
-3047.59
-3483.86
-6383.99
-5398.66
-5702.51
-5184.99
-1441.1
3066.24
1703.1
465.987
1376.15
2081.36
794.764
2068.19
-2270.39
1111.58
2197.02
326.785
140.371
-175.354
-270.588
-1997.11
545.215
418.949
-501.115
-1818.37
1078.24
-56.3755
-886.989
-361.344
1497.99
-744.738
-1714.55
-1902.99
-392.255
-632.041
-2207.07
-269.685
725.017
-607.527
2241.61
502.277
-231.028
-453.667
-1708.77
795.917
-872.119
1788.27
859.611
1414.66
-898.82
-449.79
802.067
657.374
-2537.85
-600.842
-396.59
1486.13
-449.463
-846.917
-1140.38
-173.572
990.502
-1130.62
1663.4
335.135
147.379
1695.23
657.187
36.2445
4804.61
591.165
4194.48
-222.479
7989.91
7738.89
6405.41
7231.81
2981.57
6787.56
3665.25
1646.95
-1610.62
-1785.07
-34.3556
160.49
-3970.7
-1981.36
-3034.93
-64.0219
554.883
-1238.4
320.837
1235.77
1039.87
126.652
-977.895
306.072
989.198
2400.55
-55.8918
1233.07
989.001
-575.936
-4271.99
-223.127
-85.7888
-652.79
-2105.23
-2385.28
-562.998
-1511.31
-186.831
2068.17
2624.19
4354.86
745.643
3839.3
-2567.69
3574.75
1724.71
-255.925
623.018
68.0856
-302.751
-6.90201
215.846
755.008
3362.15
663.229
-148.884
883.303
-0.957652
-7.70926
3069.72
476.95
-640.365
-1800.71
-2464.08
-5423.05
-3211.25
-3651.87
-413.898
13.3155
-481.255
-884.447
-25.4182
-1478.74
779.437
2507.45
2256.47
-590.528
-164.047
2350.68
185.726
420.872
1340.26
-346.827
76.9201
-1260.83
455.166
229.081
690.365
-1891.79
-673.848
86.4613
1275.69
502.804
1173.32
1526.88
1892.69
1227.04
-1035.27
458.832
-436.746
-482.537
-4345.57
66.394
-135.817
-994.468
70.0126
335.342
791.935
1463.58
300.853
1273.22
-208.644
-799.457
645.105
-931.255
260.685
-78.8381
-3968.81
-2746.21
438.795
-266.384
857.5
370.973
846.608
193.116
181.655
-380.071
2189.21
5947.81
5334.72
7348.81
6291.15
10759.1
12357.6
18790
23499.8
25745
15015
21228.6
12035.2
6309.23
607.379
2958.47
6924.14
7498.13
6114.77
1219.4
2719.79
282.823
301.225
-657.741
3032.01
1560.43
4852.7
2359.17
5210.82
4815.87
8973.08
5674.43
14070.1
13318.6
9205.33
9725.23
8239.85
2501.35
1378.37
1117.73
1646.39
1272.7
80.8935
-2844.83
-5271.26
-1058.36
-3982.89
-1313.35
-615.525
991.723
983.531
1075.87
-1765.45
-680.295
1914.34
1308.32
207.81
-661.007
407.031
-2158.42
-459.213
1027.45
-717.708
-225.529
-915.306
-3671.86
-865.372
567.409
413.184
348.304
3197.42
1945.97
3277.84
2964.35
2317
6281.3
8755.63
7908.25
1812.47
1785.52
774.266
-741.904
-1989.31
134.664
-515.372
353.189
-836.939
-839.642
688.59
-222.637
-415.891
3248.05
1246.52
803.423
1119.4
-1733.48
127.926
3373.38
3164.34
1603.91
2854.52
2575.4
3639.66
1852.72
57.568
-3272.1
-724.619
1354.39
364.07
1103.63
960.283
-994.052
-616.249
-2467.7
-698.078
221.69
-965.918
379.011
8416.65
6385.51
-901.32
367.539
-2137.98
-1521.07
599.525
1472.23
-1308.83
-1941.35
-623.668
988.786
365.15
820.886
1270.23
-1387.03
4382.5
3201.08
2270.97
908.159
7145.85
12838.8
7833.42
9663.16
8787.77
4257.09
1148.67
536.323
753.044
498.693
1016.87
-1059.39
-1380.54
-45.1992
-720.553
-2157.85
-3325.11
-3204.67
-5024.28
-2748.61
-253.241
-711.466
-105.122
919.873
85.532
1018.52
-262.239
-1309.29
-128.49
-2281.24
-6578.71
-6949.58
-4469.86
-1656.32
-168.618
-268.468
2057.52
6507.45
6459.26
2439.2
4871.42
2385.87
2748.47
450.915
1353.14
4109.63
5359.51
-21.8253
377.943
-112.47
-343.893
-4181.55
-983.718
-3447.44
-3926.85
-1018.18
1972.44
1926.87
7216.68
8779.48
1878.45
0.16678
1653
3688.82
3826.33
7487.43
5623.95
2004.33
-30.9247
-427.494
-1738.51
-956.007
-207.597
427.93
-1020.55
-1249.97
-167.57
-654.681
423.235
398.07
1369.28
-201.453
-713.8
1707.98
2621.76
3257.75
1999.45
1347.77
-299.5
1764.52
-1005.07
-419.23
-363.275
-594.858
221.497
-1037.88
-1946.57
-1175.76
-2836.96
-1179.37
278.105
801.311
588.074
-205.873
4521.95
3889.71
-826.8
-1251.67
708.068
514.551
-987.82
-613.312
1059.64
1096.67
1889.28
91.3912
-904.348
-1176.63
3774.6
-133.955
764.31
2368.24
5722.33
6017.76
4026.12
1443.32
-1035.91
1974.7
-288.953
74.7745
-276.373
-221.254
51.334
-2540.42
-3340.88
-6498.52
1753.56
-444.502
-2223.91
-1096.34
-2313.24
-765.677
-796.462
82.7286
1161.32
523.232
1472.46
-309.271
-367.028
941.392
494.961
-906.49
644.128
-152.133
-15.6646
-769.498
-2057.33
-1597.24
-1083.89
2422.29
1936.34
758.53
2182.84
-919.58
1648.43
4718.05
5278.42
7915.69
11567.8
5115.99
2761.14
271.223
-2356.62
-2651.28
-195.358
-924.268
-193.379
-280.326
-2535.79
-387.407
-553.132
26.2287
1031.5
55.8952
-328.184
142.458
-167.973
-309.125
-175.457
-330.19
85.0113
964.12
4486.33
3634.78
17.5767
-2155.45
-1305.03
-2491.18
-836.081
-50.9385
751.812
1104.38
-224.781
779.94
-452.818
-194.37
-866.963
782.607
-1333.62
-2097.82
-354.732
474.183
5902.77
1733.82
2248.92
-1017.28
5082.27
4119.89
1545.61
730.067
1357.59
5479.79
9120.05
-2040.85
-689.117
542.494
1125.37
2205.32
347.735
2676.25
2797.86
2927.03
1619.66
987.838
901.335
5570.5
-1852.43
-947.169
-959.862
-1192.68
-1222.87
-2102.34
-625.033
-1764.25
803.29
704.823
-535.493
-1828.85
2471.11
891.282
7917.41
6251.66
2649.97
3742.59
3980.05
3671.64
2959.88
4669.27
1743.49
-803.612
-3124.59
-475.077
2366.34
1674.55
-2313.59
-303.597
1555.05
2120.42
5850.33
3959.12
6298.6
6735.85
6775.74
3665.7
901.695
-875.75
939.584
1297.75
-886.593
1388.83
502.009
-81.8269
128.212
3238.52
11490.2
10045.4
3735.5
5480.01
11317.2
7969.6
4077.3
5070.02
5642.42
1645.93
-2189.07
-1448.83
594.141
2689.11
4438.13
82.0869
-4068.31
-4324.7
-4660.49
-1772.07
6489.5
3731.73
7048.88
3230.72
2480.62
7623.71
5748.55
2125.86
312.027
-545.581
-224.795
1730.07
-587.577
-129.803
-1712.58
1254.47
1107.69
2548.88
1150.42
978.062
282.267
-83.5873
228.239
383.626
763.323
946.935
922.606
951.32
3829.87
1841.54
-3165.66
-2279.57
-1572.7
-2929.2
-3001.61
-3154.11
641.471
-483.956
-539.876
-49.6968
-109.895
-485.604
-104.134
-1240.73
1736.25
-442.818
738.368
3903.88
4686.88
2882.57
3693.73
-232.345
1050.63
-85.4933
-144.497
553.458
8147.97
2492.35
5749.79
7373.68
1481.02
6066.96
5251.3
8971.37
1200.12
-83.5156
326.764
3230
956.831
-50.3648
2497.51
1681.23
936.182
581.76
-163.956
-23.2047
1493.03
2448.56
2829.44
3869.16
1244.03
-660.762
-2460.14
-71.2783
1108.55
3578.87
4149.12
3116.99
4832.69
3584.1
3092.07
1349.4
4065.59
1500.56
-764.967
-46.5916
991.791
-1089.8
2226.28
160.102
-640.314
818.533
147.886
-617.936
-779.068
-0.982307
-382.364
-1011.07
428.049
-123.399
-3816.28
-1648.89
1679.47
1059.29
-1532.57
132.099
205.051
-2406.69
-1305.67
251.608
-111.673
-943.543
736.277
877.101
3499.54
-323.706
19.7308
3090.73
-690.466
-1443.56
-2374.68
-2762.07
513.339
-470.166
563.699
527.232
-693.539
-1906.82
-185.429
-315.518
-530.191
-650.487
341.23
-2706.53
-4813.41
-843.828
1423.1
1248.15
-1727.4
735.69
454.888
-496.895
3209.82
-1153.46
-404.707
-1095.69
288.26
-1105.68
1237.82
3587.27
8490.18
6474.93
6405.67
2320
2569.48
-2157.78
-133.171
-1106.28
-1604.21
-5.79973
1025
-942.452
-654.65
783.067
-1463.17
-770.082
-1689.53
2889.92
-159.976
-79.4487
-1521.55
-1999.01
609.562
-1732.09
-306.713
179.607
2443.09
890.531
-1337.07
15.6795
-494.833
1004.18
-1330.27
211.135
50.2308
-369.084
-56.6218
-338.356
564.398
8.91763
-352.668
1086
1407.19
134.616
69.0511
768.336
-2407.09
1496.27
3844.6
1664.8
-2061.8
-4162.25
-43.0317
-2589.61
2712.02
1692.11
77.9276
-2535.68
-2401.1
2533.59
1415.46
1426.45
649.651
2015.42
-113.52
-955.851
-2535.94
-1898.4
-328.702
464.417
-620.621
-56.3418
889.373
-815.573
2749.26
3162.29
5031.02
4940.41
4920.76
5161.77
6261.31
3044.04
-546.593
3062.09
1327.73
1707.58
1553.22
2234.59
3507.1
504.045
1014.66
-672.53
180.725
-39.7755
-3145.36
-2337.46
-79.3483
3310.27
5662.16
6303.68
6286.59
9930.97
14366.9
5382
8390.46
8779.52
-2816.29
-1176.84
1294.11
3421.1
2267.8
1372.34
1668.45
3324.25
8372.34
2074.66
3174.97
9425.29
2189.69
5108.01
2584.66
1866.16
717.543
287.171
617.464
-865.952
-2339.72
-1197.49
-134.418
-194.653
-601.76
3763.59
4023.63
1703.95
8088.14
5203.37
7779.24
3502.44
-1201.08
-580.729
-1534
-134.51
812.1
5544.48
6819.22
2276.54
4459.44
-203.064
3609.27
4026.72
1228.16
1410.51
1358.72
-742.008
1805.07
-76.9822
228.302
-1057.34
277.36
67.0774
-4751.23
-242.535
-416.62
-1147.98
-3970.74
-2232.39
-53.15
-1477.75
-1758.55
2595.17
-547.194
67.2581
690.753
5389.47
3438.79
1406.03
4865.97
1094.49
2869.42
721.203
-507.232
268.607
-966.341
1685.89
4075.87
1451.96
1654.51
-97.0197
-760.932
-421.526
310.17
1118.06
2394.44
106.95
628.75
-1598.34
575.014
3203.61
5159.39
4627.39
2845.54
4313.73
4194.39
-1029.81
594.125
2084.71
4159.95
2278.57
2041.02
587.046
1028.81
304.841
-228.777
276.854
-1580.1
-3890.1
-3306.39
-3266.02
-2745.81
20.2041
-610.023
33.727
634.964
-407.203
-85.5878
-450.858
1091.65
934.194
3858.96
1960.56
3292.59
1563.73
7438.89
6367.41
-645.486
-1012.77
5701.9
5824.14
3075.68
647.127
1146.26
134.272
-2258.25
-2059.02
932.332
5620.54
5378.11
3754.3
3960.76
7014.94
2421.07
4440.7
5533.23
5726.22
9268.72
7308.56
3231.4
-263.311
852.451
-519.371
82.7408
1459.86
2133.28
-1559.44
-1118.54
814.522
179.405
-181.321
4319.62
2836.86
1247.44
-790.834
-2536.08
495.681
3637.03
68.8915
3808.55
1213.84
1378.36
706.338
226.854
789.251
-666.612
-1201.35
555.048
-1256.65
777.905
1627.76
748.632
-629.11
-301.463
671.801
-143.964
-1391.62
-4098.38
-2310.59
-644.232
666.245
2093.2
442.411
-2741.83
672.663
319.85
-1590.51
-1352.27
-357.753
-1229.15
-743.822
2709.9
896.726
-683.566
175.949
133.905
-1781.78
-2935.62
-683.439
161.781
1719.57
8238.95
-2897.21
637.384
-782.178
153.38
234.36
372.071
-344.094
-838.778
-968.226
-1057.36
3006.68
434.735
-255.201
-397.597
221.102
1378.57
615.193
1441.73
2238.16
6188.12
4495.3
6441.11
3393.71
4022.26
4038.11
2170.6
3059.62
1394.98
-257.139
-715.032
-1456
558.942
437.478
2033.65
1296.11
2026.01
2871.55
2512.53
1197.22
-66.2797
332.766
-671.262
1492.94
-96.5785
-4098.6
-1782.7
-1201.9
-793.628
-982.746
306.97
-335.073
442.154
1253.48
-1778.73
-2864.05
210.326
1300.83
1047.21
-2409.11
640.243
-2545.87
-2165.83
-1022.89
6092.5
3147.47
-1098.24
-490.677
-1267.51
-2896.53
-17.5734
1379.42
-3440.05
489.917
1321.45
1874.43
1743.49
2574.57
1647.19
1985.31
1035.09
2108.94
1732.81
18.7416
-536.068
3052.47
1590.55
941.461
-145.836
-2487.01
-8698.37
-282.353
-152.233
62.4516
2032.38
-2341.95
-1379.89
516.921
45.7546
-137.238
-350.461
-1852.5
911.624
2941.6
492.499
-5863.31
-3930.68
-2242.12
-3606.75
-666.23
-1258.72
668.973
-871.349
1381.41
2783.21
2084.33
-372.437
-1966.92
-5858.24
-1092.32
1220.71
-578.249
-753.7
983.756
1999.61
18.024
235.975
-235.834
1006.86
-1977.43
1063.16
1485.58
3681.45
2992.96
3442.52
4174.29
1454.45
2787.57
748.77
718.741
1773.27
375.768
-1469.76
-1770.36
587.914
-607.352
-2340.54
-1480.63
-747.191
447.643
-1216.19
-1199.91
1005.68
289.542
-616.453
1171.96
2613.54
919.532
-104.257
3.25201
-3082.17
70.539
-980.242
698.669
430.709
-992.157
-2024.78
-147.524
106.575
498.518
430.206
1285.97
2113.09
347.967
-591.524
48.1195
359.353
1008.58
645.791
-1.58378
2317.79
2675.54
-506.103
-3362.45
-3383.27
-2092.36
838.648
464.52
1731.57
1642.88
-185.796
-145.329
-297.357
839.057
-743.65
-250.901
-235.478
745.644
54.415
2488.34
-821.546
-140.249
526.797
-2833.24
-103.544
887.496
-639.096
-767.836
-448.519
-573.972
2518.28
7223.37
2560.4
1435.05
1901.22
30.2876
-469.818
-1210.27
-142.405
-3342.59
-1745.12
-1564.24
-670.583
-230.994
150.943
723.686
-576.351
1157.38
3832.42
8529.09
12026
8470.67
1256.22
2623.25
1319.64
3089.38
1563.23
-951.663
-1292.33
70.2064
-699.093
2254.62
177.431
822.883
763.66
-459.46
787.297
566.25
-608.918
-1035.65
1367.09
-3547.82
-2852.78
-1721.17
-158.965
-3193.28
-5718.59
-4328.52
532.106
2246.25
4612.79
5750.77
8000.62
11737.5
10445.9
12744.8
9418.26
4493.43
11099.7
9360.41
8545.26
16592.8
8537.19
7218.01
347.788
-808.746
1250.99
1362.96
-343.215
-583.207
-1762.6
887.189
635.237
276.746
1257.49
-658.763
422.032
-1333.98
-2003.33
-612.088
-290.528
-445.289
1102.6
152.79
-892.255
1534.58
1015.7
1894.74
-1282.74
366.432
-706.69
-46.3495
1084.23
-794.488
183.958
-153.676
-950.945
451.796
-722.685
-4050.36
-2497.47
-1819.46
-120.887
-147.805
-5326.26
-2360.86
-508.64
1475.21
457.317
-497.787
-159.509
500.134
3771.35
-106.968
-125.572
385.904
767.173
181.749
90.3237
408.924
2888.14
-1109.05
420.538
1824.13
3470.71
-39.5142
-1757.68
-1779.88
145.153
1140.07
737.332
954.244
-756.238
296.567
-594.591
-160.765
35.1061
2832.42
2931.18
-2411.24
320.761
-1649.68
-4196.04
-5238.65
-626.606
1823.26
-46.0151
1599.79
495.869
-605.569
-334.454
457.999
4277.63
2903.61
-789.689
2194.02
5177.71
9268.52
4010.72
4118.98
5884.47
3460.37
838.77
299.453
1086.55
2079.14
690.757
-579.253
-1418.42
-601.94
-1845
-282.123
737.734
468.075
-2938.44
-363.389
300.665
-1783.74
2433.81
5462.3
3432.89
1690.44
236.399
-840.594
841.357
-229.955
-1250.96
575.208
782.369
742.31
-1070.8
45.1046
1014.57
1047.15
2882.26
2875.68
1192.05
5605.61
5030.64
1309.22
2976.95
3330.66
339.092
171.757
-117.596
1308.55
1775.09
1780.42
-178.091
6155.78
4551.98
562.735
-832.761
-1710.12
1546.9
1583.62
-43.2306
2010.31
5951.92
17012.8
9724.16
6702.07
5851.97
12964.5
9717.82
3490.28
6848.98
3904
7312.91
10638.7
7222.33
2441.66
969.423
-163.111
74.9138
-825.052
-711.283
2613.15
2461.87
-3426.98
1063.56
4619.27
5558.66
-3942.08
-3651.37
-4569.29
-829.751
-3.43577
566.581
122.183
-909.716
-2068.68
374.926
-362.376
27.8365
-452.518
-1055.68
834.799
1171.87
1355.7
-3614.18
-3204.28
772.736
163.04
-2035.99
1946.87
935.136
3183.85
4393.35
4250.64
11384.6
3498.92
1328.03
-1367.29
-34.8355
-127.602
2078.8
10768.8
6617.7
5012.26
5924.66
4619.37
4310.79
3640.13
5186.54
6340.5
3795.34
2934.77
333.634
5072.36
3833.62
6282.76
12930
4508.91
3217.76
1146.94
2871.57
-791.021
1610.25
-2387.94
1009.71
1156.49
-1103.95
147.799
-4544.81
-3839.68
1704.56
1431.17
1463.93
1582.42
3986.55
2383.84
-328.624
-1085.07
-170.878
442.792
-629.427
2085
2285.98
270.776
-2151.46
-718.126
-510.112
-2197.9
-870.411
1479.52
830.667
1635.82
-940.906
-576.711
703.518
-202.773
-495.77
535.229
-2172.95
-262.466
-309.855
-45.3163
41.1676
-352.079
-1199.78
1202
1375.72
3643.97
3145.53
3950.71
3986.43
-920.116
1035.55
870.266
131.607
-198.677
2358.47
4777.88
-1400.83
826.361
6903.12
5823.02
4630.56
4165.31
4240.82
3722.86
1961.36
2768.82
587.07
-1326.19
189.17
-2175.38
-453.229
3379.01
1502.27
1158.74
911.913
-1563.79
674.991
1158.4
209.614
-321.18
1357.75
2012.59
764.483
1365.16
612.753
723.282
2387.68
3311.77
796.887
573.708
-1259.09
-1100.81
-347.738
-169.896
1203.02
413.855
5216.69
4605.52
7822.17
7603.52
15462
9649.92
10553.2
5001.29
6340.14
11594.4
2581.4
-753.094
-782.469
-2141.62
-2147.88
227.122
1126.12
4562.89
1051.94
4124.13
11725
6857.69
5225.63
6605.62
8310.69
7216.26
1714.81
3132.67
1211.76
-4583
-52.8889
-454.237
-285.86
534.491
-13.572
610.986
1547.52
350.305
114.915
1473.83
1418.68
-782.31
-574.985
-974.072
-12.5628
-1269.56
1980.94
866.944
1658.06
315.528
-1188.49
-309.188
-2402.2
-1286.13
-884.971
-188.271
-1286.47
670.347
109.973
759.872
-54.5148
451.649
-100.758
-586.845
-1385.46
3.31361
1044.6
-82.0899
381.067
-85.7021
-433.499
312.571
-1005.61
-2.0593
-455.866
3462.52
6663.72
-343.311
-1066.75
-238.347
2201.05
-1931.14
-1929.14
2520.25
2897.35
1893.45
-150.007
485.049
-1075.81
-2014.94
596.745
1510.07
1051.01
234.612
-402.509
-551.708
649.605
735.093
-1766.4
-403.682
-30.3897
-3433.26
-1699.67
-453.952
2305.76
264.144
-103.936
86.2875
1278.96
-146.437
-448.966
-1872.22
-220.883
-1164.18
757.414
389.244
959.854
-161.159
-159.139
-719.657
-283.177
-1296.05
-144.588
3003.02
-301.014
-244.166
322.051
-1066.62
678.139
249.033
-554.518
418.437
-2146.66
-1057.6
6731.73
6333.48
3502.23
7978.3
4606.68
-3028.9
507.083
1957.55
5843.87
8400.77
3473.58
5559.75
2952.32
7542.39
6932.47
8050.5
4921.27
4793.63
2873.95
1233.4
3038.29
-1347.05
180.953
1876.49
2598.24
5800.42
6974.72
8980.74
12233.5
3960.81
2739.09
5748.09
6660.96
9178.17
6417.73
1142.21
1384.97
5023.25
5216.13
585.821
386.921
-687.186
1958.65
3638.17
2294.34
-518.789
251.417
-1101.46
-1613.86
-1238.42
-1217.97
-158.301
429.468
-257.21
-2142.24
-2938.54
-51.2279
3241.2
7564.66
7000.66
7455.13
7400.17
3035.37
-1083.75
124.197
552.54
4840.88
2089.93
4536.81
3086.06
2860.61
3419.98
-78.7594
2513.79
4817.27
9532.14
3416.31
2299.94
8692.47
4964.65
1511.63
790.621
-713.081
-460.531
-1599.92
2093.99
3382.12
1492.29
-1613.35
-1734.45
-978.759
-1267.35
-1162.52
960.327
5082.09
2929.27
5312.99
745.299
-402.897
2021.45
-1671.53
-3826.27
571.771
-89.766
-6615.51
-639.353
-1093.15
1971.79
1849.45
2978.18
566.744
1348.48
-1723.24
-1913.14
-1387.03
-735.71
-320.439
-831.149
225.653
-517.443
-1698.55
-462.367
-1236.39
513.657
-463.926
-1113.74
1005.72
-87.2858
2614.65
-1017.05
-3872.32
-7409.41
-5814.04
-3506.59
26.7559
22.8023
-1048.5
-1220.26
-876.955
3134.55
-141.766
108.197
46.8792
14.9161
-849.876
-3226
-26.0867
460.738
-269.449
-3026.11
-1725.46
-532.652
-129.252
679.776
-1299.16
-772.821
916.736
-1588.49
-338.883
-114.143
3515.68
4200.11
-2472.41
-1970.18
1398.95
-1106.37
-69.5132
1122.74
1307.19
88.9688
1340.81
4826.03
4556.47
10078.1
6529.91
4917.04
5757.55
1224.84
1472.89
-100.391
83.9701
145.275
1636.6
1152.13
-919.524
-162.224
-359.553
-231.796
-1303.01
1947.5
-493.159
3188.12
2580.25
803.408
-549.285
-1709.96
-6237.96
-773.919
2632.41
-215.905
2155.66
-52.7649
-8106.78
-1125.28
-2188.08
-2178.42
-1345.08
-405.204
1516.46
9241.24
2318.56
-492.636
293.405
80.5339
-3553.85
1801.98
1160.64
-1686.5
965.576
-6382.9
-4665.39
-5436.8
-2714.56
958.152
2058.28
-1736.69
6724.37
6286.61
5075.58
7065.76
7305.75
3451.2
5888.11
1990.95
835.827
615.392
1746.21
-131.323
-61.8175
1647.48
-1888.73
-772.124
-396.824
328.417
-626.219
2753.69
-1367.14
1908.82
2017.13
3085.35
1959.01
3726.06
3266.31
2942.95
350.101
522.431
-403.267
222.155
1196.78
-276.781
1347.03
688.182
-3016.01
-2829.04
-1928.69
854.991
1111.6
424.283
1078.81
-1095.99
817.34
-172.181
1754.31
-1397.54
-5571.51
-4703
-782.943
1442.33
227.963
1007.94
-3017.81
-1928.48
-2482.36
-2121.31
-793.024
822.423
3624.86
5154.06
5666.75
9055.98
5030.61
12420.8
21921.9
14955.6
12594.3
9445.61
1838.08
-2132.08
-2647.73
-802.499
-2892.42
-69.1292
680.611
-1373.68
-497.852
935.048
-687.56
241.706
-1240.4
414.611
-2473.36
777.712
2248.51
1062.56
4754.19
1792.6
-251.607
-677.378
1219.06
59.5631
-3564.43
-3146.45
-2560.47
-329.819
3798.84
6639.6
5122.23
5724.56
9360.06
17877.6
13001.3
8436.77
2897.89
6551.11
679.234
236.236
202.27
411.287
2143.87
1654.02
1919.77
1568.43
4742.68
6906.87
2785.02
313.685
-842.3
480.571
429.357
336.859
621.074
4.8354
-321.296
2530.18
306.992
1485.06
-3776.85
-4852.34
385.436
-871.901
-3199.33
28.343
23.4207
-494.005
2347.54
5022.63
4142.66
7600.58
18805.8
9796.06
6090.48
1731.04
-260.772
-2263.3
269.059
2344.04
545.171
1020.23
1011.67
961.342
4286.16
3884.47
1637.93
1714.19
-168.139
-3564.71
-2034.13
-3.45105
-2255.07
-1651.75
-842.592
-304.199
1035.81
-159.193
2043.66
347.654
-1280.52
2170.01
1497.17
-922.052
747.834
1854.38
342.394
2157.95
5146.38
964.242
-2307.29
1766.43
-1121.16
-1956.19
2945.8
-108.614
197.318
-860.423
309.775
1191.43
4015.94
1660.48
5741.56
3417.43
3153.97
4453.29
4073.9
1135.8
-466.773
-199.572
-1855.24
-2230.96
-283.73
-126.104
-386.718
803.98
1024.29
89.4295
872.677
1703.59
1390.34
-1252.03
2301.98
2674.38
2462.61
-182.871
1784.82
634.854
-510.682
-848.028
-379.797
2756.25
2935.09
285.618
-979.25
1727.69
1352.19
110.684
804.874
944.472
1244.16
5605.04
8673.29
10412.3
12052.6
11325.2
8156.66
15134.9
6365.58
3300.78
3755.1
966.573
1368.54
1016.13
-359.397
-741.754
902.325
-323.686
-1425.4
1650.86
3470.18
2016.18
8346.33
6859.73
9132.84
15468.7
1433.27
-1167.29
1140.39
-284.672
-2254.84
-170.826
-309.29
1571.92
630.848
928.875
-31.2322
-51.9363
-353.657
-332.558
-550.977
-2396.9
-2427.65
-2761.36
-1651.89
-572.599
-640.292
-1135.72
-617.201
2558.11
3229.61
2437.31
935.438
735.325
896.163
4067.1
6617.49
11995.9
7120.1
3557.13
5637.37
5259.3
6027.49
9127.23
5426.33
858.086
-1629.85
-3043.88
-1324.01
-312.334
-503.189
248.185
2629.84
333.654
-257.803
56.1935
-898.677
-1212.59
-112.085
1458.81
1701.54
4304.31
1275.88
-622.489
2024.3
1477.38
2402.29
1376.91
-130.592
116.656
-124.819
-234.84
784.561
40.7512
1323.31
676.492
-66.1099
1797.6
-35.3694
1348.1
-476.354
2481.91
1262.63
-577.114
2667.8
2078.22
525.453
280.277
364.91
443.195
-1315.99
475.765
580.946
6761.33
4861.61
1417.71
-417.995
-1846.06
-1401.76
384.543
-725.059
604.801
-633.887
-3659.05
-4116.03
-4863.19
-2952.97
-3025.96
1911.45
1010.93
205.474
-451.231
805.481
1448.36
1693.5
888.753
214.834
-218.705
-2192.69
-76.8779
369.938
935.663
160.564
-498.043
-1013.75
-1887.14
-1847.58
1234.51
270.711
170.561
2324.82
1551.9
227.179
1294.43
-465.258
-1397.42
-705.293
2738.94
58.7978
344.354
-810.845
-788.295
-68.7441
-777.412
-1668.99
-378.039
1860.42
1113.18
-719.291
-1246.91
-626.116
-1807.83
2577.46
-1316.79
-465.16
1623.58
3899.36
3321.89
3715.3
8413.11
3229.83
5974.53
626.72
-891.711
-946.378
-276.648
-1340.06
-30.5421
-807.997
-327.485
287.202
1019.61
255.563
-431.548
232.238
208.645
1422.63
653.007
1056.72
274.583
-3166.37
-1750.1
-1128.41
-194.035
1078.47
-216.888
2159.96
729.572
-79.191
-3.00345
818.866
-535.654
4374.04
627.556
2063.63
2075.94
3163.93
3103.24
3737.1
2003.97
-543.515
-1533.41
1478.69
-305.808
1112.55
5001.8
3436.95
8557.61
10973.6
8361.87
7809.38
792.453
-2644.76
-5126.32
-1873.1
-2524.57
-727.09
206.086
269.194
-675.694
1291.43
-880.858
46.9611
1115.84
2380.35
1453.78
4713.06
12257.7
1903.02
138.451
-150.443
1056.85
246.335
-1351.57
310.214
1201.62
1070.11
-1166.63
-1712.71
-1101.29
1717.28
-4599.75
7269.4
2899.78
6045.33
7146.73
9195.39
9781.48
5976.29
1650.87
1343.26
-329.472
934.952
-90.9731
-267.037
-395.267
2406.67
6036.1
3219.76
2425.08
612.045
578.071
-401.019
5214.68
7388.09
19954.1
19166
17173.2
14456
15876.2
13252.2
21449.2
19194.2
6457.38
3211.85
356.674
966.511
461.053
-1755.75
-1508.17
2088.06
1849.76
2040.66
-616.427
19.1671
1013.46
1375.97
-731.037
-1593.28
-532.763
-896.504
-23.3147
192.182
40.0952
1861.78
353.476
1326.41
1964.41
1025.99
-286.117
-506.169
1955.2
319.488
2952.18
3673.71
4781.85
11696.7
6562.51
-643.482
-2082.54
801.328
1154.17
-926.025
-369.45
-213.195
220.244
-594.785
-186.312
2289.31
-1285.08
-51.4374
-1562.71
768.639
-10.8294
1346.22
242.588
-936.662
-1528.03
248.708
-1872.95
1221.49
1077.64
-818.934
-1026.91
3010.29
-3486.01
-967.163
-1.04408
369.057
7811.35
4677.08
3792.08
13250.5
8228.04
5879.16
8899.49
4287.36
4911.03
429.966
-533.787
164.645
-1192.58
1339.17
-319.989
163.168
-720.716
-2301.93
-1455.82
252.248
121.339
-58.7368
-831.836
-1011.69
-1210.56
72.7545
716.238
-1080.99
421.137
2168.02
27.2525
846.912
175.944
-377.416
680.255
2915.82
9091.53
1363.84
3401.05
3643.25
5186.01
3309.37
8334.86
6001.54
4459.32
4960.72
8994.79
5455.36
7697.2
9248.98
22200.3
16570.3
7979.1
2397.92
6120.3
5062.86
3307.81
2319.37
19.4426
-365.773
-1917.28
-1633.67
-496.528
-123.159
-545.322
160.334
14.2875
801.324
671.793
-1992.04
352.434
778.424
-249.821
-642.328
-788.602
-151.261
-295.239
471.301
-694.502
281.198
366.594
798.262
3216.7
1994.13
3748.5
3440.4
3907.16
2417.66
4210.12
881.712
-375.057
-881.717
2594.57
-22.8411
-5877.03
-5381.95
-1770.16
-1261.67
-1518.59
-2192.04
-1235.9
-2204.53
3126.34
-2323.79
-834.458
-189.934
2020.84
-1380.68
-128.127
839.914
-362.638
509.266
-444.644
4968.34
2398.09
1232.39
2418.88
1204.09
5327.95
2302.83
805.119
-1083.79
-781.685
1044.34
-1326.35
-2618.58
-1143.4
1170.73
610.397
-1034.92
140.74
-498.349
54.0033
-355.344
1043.06
-2896.5
-862.934
315.002
-210.915
-238.313
-2678.82
479.634
-194.789
150.711
-509.974
-824.818
-2262.32
1415.69
6073.29
9676.25
7739.47
5412.24
3514.15
6017.43
823.114
578.769
-1054.09
-870.763
-1633.55
739.458
-2740.81
-1675.62
-978.655
117.358
-1585.56
-816.404
1277.5
-1049.34
96.6628
-1028.11
1028.07
1783.46
2592.08
2000.75
627.985
-398.086
615.806
-2214.12
-2475.91
-2861.95
269.787
-1933.86
322.531
22.4377
17.9636
-2122.36
-3541.41
-2753.41
-1992.35
854.663
-1000.33
374.822
-355.894
1306
1073.71
495.579
-1043.64
652.423
1653.68
408.089
-1168.58
-516.129
-1423.37
-2036.94
-1857.62
-217.066
2747.39
3183.65
-1261.05
-1911.2
-422.821
4107.4
1388.72
-1169.48
-1559.92
730.163
3133.97
2782.02
1022.85
194.979
-304.373
-3035.72
-1063.14
1304.77
3231.71
465.559
1651.27
2885.6
867.502
-459.094
905.508
-103.271
56.6672
-207.24
241.752
338.568
1722.72
-2636.61
1267.72
767.66
5225.02
3191.13
3851.67
9678.58
3291.05
4993.95
1292.43
-192.524
2300.81
116.018
775.552
-331.118
-1788.73
551.662
-382.23
1637.54
-1358.07
-3683.74
-1773.58
-1116.68
-703.146
18.3947
1067.37
-1143.49
-1384.65
556.556
595.011
-1017.29
-899.42
-1713.45
-2599.84
432.053
-1399.99
-4103.89
-1917.22
-1420.22
392.893
-2005.72
-2105.44
-700.289
1566.13
810.527
494.177
86.3755
1053.5
-329.983
-328.445
837.74
1945.28
9644.35
9394.06
2128.97
954.246
-1467.77
-2354.83
-568.64
-660.094
630.296
-993.412
456.461
-1275.32
-2701.34
1448.56
-1063.47
2339.38
4143.05
7698.25
1226.25
1967.2
2205.33
-318.384
-902.161
108.338
-3031.96
-4057.24
-1041.14
-958.052
-360.241
1975.43
4679.44
6444.27
801.698
-476.874
-1116.82
-470.692
2590.01
2385.09
2050.15
1570.55
1099.12
3497.19
156.219
98.7925
1680.86
-583.642
-3705.89
-2808.82
-405.839
-306.653
1257.95
-770.244
-203.638
398.346
-32.4274
2174.98
2033.52
17.1449
-427.376
-524.199
-1348.18
-13.9595
1462.34
-995.01
-839.595
-4385.31
-2165.06
-460.708
524.094
-108.884
3199.9
5030.52
3811.21
3023.5
1336.89
1624.5
2298.3
811.535
-138.946
74.914
-392.913
1132.89
312.616
146.745
-171.245
-109.238
-582.387
83.8904
1729.51
396.168
2303.15
2050.25
6551.58
5335.34
3676.04
13233.4
5506.39
1566.71
112.236
3287.44
-288.5
-472.796
873.386
2259.37
1907.51
4248.93
3425.04
1376.41
-2881.07
876.636
-609.514
-407.912
-227.679
-1057.96
-190.657
1977.74
340.391
236.432
-223.05
-2098.7
1069.34
673.866
366.208
-422.441
398.971
-777.31
2349.77
-396.025
-321.045
-2105.75
-523.395
-1352.77
-507.525
-498.327
-98.3587
2299.1
1599.63
436.238
-30.3259
506.848
-137.75
-518.008
922.284
2891.95
1990.1
1816.35
391.151
-485.606
-1999.76
-808.763
1013.41
-319.773
1078.87
282.272
-84.1706
1598.48
10952.7
8651
3276.58
-506.148
1039.07
4638.18
1298.68
1280
1508.1
-1681.5
-2714.32
-2174.65
-1094.15
49.4519
4531.09
-605.81
-3097.93
-3094.17
1431.75
314.442
751.717
2477.16
1083.68
1243.69
-907.447
-667.291
557.943
-665.117
-1071.62
704.986
2374.21
978.513
679.275
2453.43
610.245
504.039
-515.109
-879.264
1772.68
969.073
52.0836
-24.2451
-1078.53
-474.878
-1064.98
-805.661
-2637.73
2472.46
1475.05
-10.295
245.13
762.838
1380.41
-1309.8
321.972
2556.69
3714.69
3434.04
8279.8
3163.28
1927.66
290.64
498.624
1055.76
-1115.33
2340.95
1954.18
2238.79
2932.48
-147.822
-917.392
1884.75
1897.44
148.742
-818.846
119.083
795.262
1124.45
3062.53
5896.81
4985.04
5495.77
1753.55
160.196
5221.54
4725.57
3526.41
-458.503
-92.6743
578.305
6065.22
6149.67
1432.83
-258.753
-403
3970.19
-238.437
-404.22
623.384
-802.25
-1327.18
-815.826
-1792.41
2197.03
464.67
885.927
436.957
498.352
-625.6
1044.81
832.413
3377.91
1512.06
-793.003
-2208.57
-864.268
-175.495
-1411.01
791.012
238.241
619.517
3471.12
2576.64
59.0805
1409.07
2817.22
-841.863
1568.8
1248.39
315.557
-1764.1
-1690.41
-1247.81
-1154.41
-4935.47
157.206
-3436.94
-88.9055
-137.247
-2243.02
215.1
-454.165
-169.359
-1133.72
-1140.77
154.431
-742.145
56.0717
-864.809
-4490.19
-5962.84
-4041.68
-1808.1
-3444.2
-5085.04
-1729.87
-693.477
891.841
3761.12
-331.386
1873.75
-1320.76
1095.14
6845.09
776.805
-308.505
-823.402
-1199.53
-310.427
-2239.22
553.147
-1496.86
-1094.32
827.074
142.652
-724.011
-976.276
-1344.78
-1459.36
-889.949
-710.754
1150.66
321.734
191.243
-233.45
-585.923
-2221.45
-2070.56
2231.66
1004.53
543.546
1347.78
-2067.08
3363.14
-3391.22
-1270.86
291.195
-201.528
-583.747
355.898
927.436
-211.695
1661.11
-750.354
909.961
-613.462
-831.719
-787.335
-96.728
1275.91
7107.02
1806.72
1398.88
427.167
-957.643
136.835
-2329.85
1833.42
-296.064
-2427.53
-329.544
-400.456
-1024.85
-767.415
-763.108
2418.78
6387.59
4734.96
3368.61
-184.804
-120.434
-2061.12
-808.869
-2299.21
-727.546
273.687
239.654
376.416
1253.39
2934.61
4478.73
12711.3
3994.08
4661.35
3549.09
19.5804
1757.59
1212.93
-1205.46
-949.662
792.359
1106.98
1832.49
835.713
1337.79
1772.22
426.626
223.868
-157.82
423.563
-777.678
-45.7573
-970.929
-257
2305.98
1035.28
-851.688
-427.949
2737.42
1379.94
-1614.17
-97.6177
-747.384
146.279
1489.63
6.42738
241.927
-3046.47
-2424.17
-1420.35
-1194.6
-418.586
-5108.53
278.7
-2269.11
118.357
9734.82
9836.66
13440.7
5718.7
5205.7
2095.15
1424.45
2217.81
4235
3848.81
3433.06
520.883
2347.42
2983.1
-3470.35
467.278
-3609.46
-4874.5
-2127.44
-1190.01
-1025.93
-157.978
-454.746
-431.545
446.36
2388.7
1255.78
6800.12
6810.74
1951.73
-3571.32
932.821
239.791
-1965.84
-1400.25
-49.9672
-1068.98
-1177.46
-1076.05
-294.898
2435.97
2714.83
-652.593
-86.6664
848.097
1092.92
1970.71
100.507
122.286
896.806
364.934
2029.18
-1044.73
1277.63
3240.92
5675.47
-142.649
-1247.48
-593.83
-1189.73
-1515.66
2323.6
2743.5
1013.21
4882.27
3136.26
3371.24
90.1847
-50.9085
310.106
-828.216
598.169
171.662
112.58
123.687
-20.1495
1874.21
165.097
-65.9258
1237.99
-606.313
-1071.97
130.129
-2634.04
-207.914
3481.9
2736.13
652.984
4050.37
6760.87
7494.78
5671.94
4713.72
376.998
-417.626
-1302.3
259.67
999.151
895.875
63.9244
875.957
17.9364
692.5
1116.44
353.52
2344.51
130.289
-59.6783
-465.846
-460.295
813.617
19.4208
-1356.81
-1896.91
-2835.74
-800.92
-402.655
-3882.1
-1320.48
668.327
2258.27
515.205
462.182
4639.64
-3482.68
-2329.22
-3541.5
-1486.94
26.9219
-597.491
-949.157
687.316
-685.702
960.816
632.948
-925.694
-2160.86
-2825.47
-309.673
-24.2337
-856.101
748.092
-969.031
-789.258
-1115.86
-1179.86
-992.045
83.6596
-1614.71
-59.7063
2319.82
-264.125
-1401.49
388.465
-1289.81
1107.8
824.06
710.064
3477.79
588.76
1260.23
1959.33
293.079
721.168
4067.4
1992.35
2180.14
-425.272
-1667.76
372.785
-487.681
-200.476
-849.169
1535.68
15.2281
-1080.1
-737.136
-2747.59
-4748.4
-1238.13
360.665
1039.24
3043.39
1620.7
835.518
11.2279
-1097.72
915.34
1055.84
-466.515
667.637
-1009.1
-634.406
1320.65
1482
2111.45
1060.62
3090.28
-975.859
-1967.05
-886.573
136.901
-172.188
-12.9575
582.085
2467.17
2810.97
-3426.86
-5400.93
-481.778
3754.61
6037.88
2635
-431.918
3863.61
1275.39
9155.64
7158.54
5457.25
3326.8
1691.68
308.246
-1119.15
-2834.19
-3001.52
-1584.87
980.571
594.668
1968.15
-842.052
-136.217
-2896.64
-191.827
2616.26
3314.98
-146.837
-1209.55
2504.85
4902.82
3097.67
2890.23
4287.28
5062.46
-1761.51
-3329.81
-1890.33
548.776
5251.5
6250.31
6102.1
1061.48
-117.968
137.728
-193.48
-1970.93
-3821.55
-4990.49
1898.41
2257.52
3131.42
2841.68
2113.74
5923.91
9437.93
10139
5281.87
9511.33
9866.9
3893.24
1285.32
1345.01
-684.349
952.425
5581.88
1443.77
3729.83
1130.9
1083.09
-545.832
-2742.42
115.905
-135.645
-1498.44
-1854.93
-11.834
-102.963
368.749
11849.9
9497.95
5380.6
491.817
5160.64
3032.11
2361.84
2671.37
687.478
-587.628
-1658.7
257.25
1619.62
2862.17
1181.23
933.35
1630.36
5701.25
6260.3
7951.49
5187.09
10007.1
6539.82
4694.44
6895.84
2688.42
568.828
-585.522
-1427.81
-854.542
-866.444
-646.805
710.068
-530.582
-604.11
-717.499
-1447.32
-14.7271
-1481.48
21.6934
-606.487
1002.64
1581.67
1819.62
-552.044
712.815
1301.03
970.409
359.01
118.871
19.6865
1789.16
1389.3
3391.68
-1256.49
-140.037
-227.426
-2354.39
-1222.25
-2882.87
-5006.52
-253.035
-3953.53
-1492.7
-1449.78
1083.42
1461.93
140.129
-4336.5
-2928.8
779.748
-1042.63
-1887.62
3922.85
4500.28
3911.59
5743.66
9297.73
15830
7971.18
1967.99
-687.732
-60.8273
3285.45
3229.3
1788.53
-344.031
-1474.05
-689.634
-884.051
3980.24
894.431
-992.083
153.586
8526.67
3429.38
8271.64
4749.48
3029.74
5013.57
5786.29
1033.74
1744.55
470.669
-1993.2
-2105.98
-1253.97
-1186.78
-242.324
761.628
108.166
-319.762
176.567
3466.65
-235.299
622.11
-441.372
-1473.87
-2126.76
-1137.35
-1717.55
-2576.7
-305.39
-4206.25
696.931
-165.171
-526.084
264.341
-4277.28
-329.911
-1423.91
-1181.37
1561.11
1168.17
-341.202
-918.512
1319.92
1541.63
-459.132
-1996.96
786.116
323.413
-738.704
-951.188
-287.99
1165.91
-602.16
-834.673
-953.528
285.683
-74.2286
-1003.96
-1896.17
116.898
35.4423
696.272
2022.51
54.8439
676.067
2254.86
-66.2692
638.542
4321.01
-900.811
1821.15
1952.18
1405.09
2981.84
2761.32
7638.61
8236.81
5886.82
1222.69
1194
1518.07
1553.59
306.483
-6270.91
-3907.2
-517.13
1059.09
1658.85
885.31
-1371.26
-446.022
1008.04
2681.44
3156.14
2680.01
1158.42
2824.17
4112.99
4689.43
9529.9
8535.74
4897.2
5432.85
1044.59
731.655
-2093.02
-1075.74
810.764
572.962
-158.782
1316.3
1619.53
319.889
-338.157
-994.901
-3237.63
-1065.93
-260.083
652.885
-691.827
-870.556
-104.671
781.405
2137.85
3171.24
2131.28
2894.98
1473.64
1778.99
9292.12
6415.04
10122.7
2741.1
4126.86
5514.39
3130.7
1197.12
-1743.25
-113.651
-1235.81
-2831.07
-2654.75
-1196.29
-424.019
-1033.03
578.169
856.645
447.61
1521.13
1998.42
-1178.69
-206.229
3060.87
2336.82
346.733
-1352.62
-830.154
-4593.44
-2970.34
-1486.11
209.737
1042.09
731.94
3303.98
2884.27
-723.084
729.663
-282.812
926.102
-1042.9
-475.219
533.553
3186.2
2887
1887.99
-298.522
-1156.91
-2945.18
-4590.57
-6605.89
-3481.44
-2077.22
1319.08
3577.64
1440.37
-196.506
-912.253
660.878
341.211
551.656
-149.783
1153.22
1513.43
1051.31
239.402
1100.67
4454.67
8572.21
4848.93
3828.3
693.627
431.539
-1153.33
-114.986
-253.609
369.881
-87.857
2228.28
-533.488
-652.98
-843.396
324.904
756.285
-617.476
-361.839
-2081.59
83.4074
-442.74
3296.63
80.5914
-379.876
-254.714
463.626
-310.246
-853.031
-676.38
149.596
1183.14
5089.74
5695.22
8868.95
1134.63
-916.755
-3603.55
-437.762
-1084.02
-1120.28
-964.884
-2807.94
-687.754
367.693
2446.75
1368.86
-1032.48
2118.12
392.242
1532.51
348.559
2561.01
6362.96
2223.84
4473.18
39.8403
5881.63
6461.62
5296.53
6747.16
2249.34
5161.61
12944
8366.06
10298.3
5244.08
3481.81
1785.22
-124.845
3121.25
2524.54
-2584.87
-974.216
4154.2
1037.8
-636.493
-1397.69
657.166
3205.26
3519.04
746.961
895.83
-229.048
-482.241
-650.733
2536.58
4789.6
2875.82
-2004.6
633.006
499.744
2038.72
4675.04
6237.67
1299.21
1820.49
-951.884
-1168.21
-121.898
-960.223
212.003
88.422
483.838
882.588
965.008
252.277
6397.4
3815.36
7949.42
8026.73
5873.24
12390.8
7879.92
6343.91
-374.843
412.155
-435.5
935.21
-1783.75
525.81
1030.25
1327.82
1741.15
1033.6
707.514
974.721
3825.92
6697.88
1556.71
-1680.11
-1199.64
-816.028
-1310.44
-2141.26
-7493.02
-1419.68
-176.37
-1353.96
-353.857
128.032
-945.788
52.6337
-1510.56
1039.84
1760.09
2197.94
3496.93
585.806
-1368.53
35.7796
1951.32
581.817
-1768.27
-2826.32
-3143.73
-1301.75
-3484.03
-1767.54
-1273.35
794.86
633.947
2102.23
1329.43
3251.82
613.701
1430.54
1723.27
-1478.74
2708.33
1523.37
3117.17
-807.708
86.353
-225.364
1794.87
1970.85
88.3266
-2025.12
-300.636
-928.828
2455.33
2300.47
-536.976
0.85459
-168.545
-1304.78
60.522
1058.65
2263.62
3726.76
1365.94
-146.864
2083.56
-481.884
680.147
1353.25
1741.53
-2397.34
2276.56
694.9
-1385.37
-1999.09
-1934.06
-374.832
-226.604
-228.056
-241.704
649.709
-292.466
-516.216
2642.9
2600.78
1184.13
356.703
1184.83
1226.32
1190.87
2201.64
1738.27
711.043
3256.81
1704.1
188.06
1390.42
-332.893
-602.865
215.653
-747.236
2008.89
1214.19
184.206
156.082
1285.09
1243.82
-35.8462
6.07198
-2343.92
817.677
-728.329
-1210.6
-1224.09
-2119.5
28.5912
-4.09115
-1152.61
-2005.61
-1300.65
-979.643
930.322
-2105.2
-572.126
-53.5612
-255.224
288.442
-4172.93
571.598
-904.369
190.202
1092.86
665.051
788.905
1357.75
-3008.1
-214.706
-1906.73
40.037
4262.98
4306.68
8061.55
4901.95
-124.823
1163.16
1678.07
-3079.15
-820.294
-32.6504
-2807.11
957.036
-977.436
1207.43
2548.61
2487.47
2293.24
-110.268
227.909
87.2703
-1839.26
-1210.42
-304.033
2.99217
-96.9823
5490.14
2564.36
2952.25
3749.68
4079.9
5892.09
9976.28
7902.38
15798.2
9631.18
4933.21
-1008.19
-1417.88
-2863.63
-3537.66
-179.441
-550.477
-667.553
163.944
-625.25
-1115.06
-1307.25
-3263.98
2130.34
64.9953
-209.097
-1644.26
1702.83
877.972
-2393.59
490.898
265.54
1090.02
1886.29
3020.91
2070.33
5878
5914.64
3984.53
471.936
2830.29
5388.52
10776.3
12340.7
26134
32493.7
21048.2
16624.3
7540.92
10285.6
2237.95
2127.32
6333.63
1176.1
725.474
-1234.63
-444.701
1723.77
-148.811
1166.23
3785.66
5941.35
3625.67
-1766.89
2559.09
3711.65
1431.37
-593.977
6451.28
12319.8
6571.93
7948.48
3991.15
1673.41
5416.88
2154.3
3665.16
3249.19
2716.43
4137.03
5195.72
6951.18
2761.65
1054.87
-296.671
493.844
1211.04
189.924
338.398
-5440.16
-3173.65
-7.59529
-265.792
-4141.74
-3161.71
1593.37
6254.4
5631.31
8174.01
11551.1
10399.4
8973.1
13399.7
10779
11576.9
2647.93
6661.36
4730.55
1134.32
1722.92
755.714
-54.7949
359.851
1882.43
1955.33
3495.76
3063.87
6286.26
3035.31
3211.46
1836.64
3159.77
3985.67
777.15
2286.45
834.252
1956.63
-990.194
-217.101
5675.49
7018.92
887.964
5278.92
1347.17
-1390.69
630.649
-2495.54
602.511
-656.107
3350.68
1242.46
-190.116
-226.469
-1256.55
-8108.03
-5172.34
-4053.12
-8342.52
-3074.17
-765.9
2157.76
6330.83
333.424
-17.032
-224.598
-247.042
-3302.74
193.233
355.705
-122.836
870.329
431.314
174.928
1298.29
606.814
3475.66
2720.27
-95.7906
1897.28
420.489
-2275.4
-603.409
-1649.67
-701.447
174.977
-120.471
1783.55
-1077.53
-686.518
146.587
117.631
24.4385
-572.186
-105.723
686.008
-118.276
776.942
2604.63
932.94
-1902.23
-1257.28
-1129.33
1849.31
347.43
-1354.27
1042.39
642.923
-849.145
318.977
-189.214
-1645.51
-593.158
140.942
735.711
-230.928
-259.423
-2801.46
-2238.81
26.5698
-2329.89
-2330.48
-1431.99
584.266
-564.436
-651.585
573.68
162.931
1416.51
1227.05
-45.6064
1281.75
1615.15
-575.986
-392.43
-1142.94
365.79
-763.926
1168.37
4341.77
10611.5
841.822
-2718.83
-152.982
-281.964
644.772
558.982
-495.366
-1227.56
75.6558
1703.41
475.877
1822.85
1480.97
900.188
-1367.41
-554.857
-1084.32
767.045
895.17
1131.4
494.415
1511.23
-454.723
502.076
-1159.84
247.183
747.443
897.473
-1160.02
582.994
-672.112
4885.34
9338.42
2810.91
1448.54
-91.2044
174.276
-330.487
2152.01
3054.86
4569.18
660.04
2379.48
148.474
-2131.82
-1624.93
418.035
1176.77
-1661.57
-63.5734
515.805
-203.763
699.339
-812.7
-1078.05
-702.661
-228.993
-1363.76
-1949.5
-1956.51
-3415.9
168.192
-446.984
1623.87
1844.95
893.961
1696.56
294.095
1925.22
478.187
1247.07
658.003
28.5511
565.864
849.023
754.005
1883.02
-364.719
-147.628
-512.184
647.446
-521.57
-803.498
111.721
788.817
-1651.15
-1483.39
-2585.02
-1804.91
-524.179
631.322
203.386
3678.58
4457.31
6647.33
5529.52
6893.8
2291.1
1576.64
-1701.39
-634.503
-50.7324
-614.81
-1391.37
-2110.11
-747.469
2326.63
650.527
434.89
1082.68
2438.84
-338.932
2079.96
1611.05
-3691.97
-2189.16
-2439.52
1243.9
-67.3605
432.437
182.285
-48.7636
-1145.44
-1063.12
-233.484
1478.61
-372.272
628.609
-702.411
3147.37
-138.346
-219.384
-1440.98
1472.28
1237.45
-821.329
-1342.54
-1633.02
1120.48
835.419
80.7212
-430.931
-217.97
1120.21
169.277
634.795
-464.311
30.1567
-59.4892
-685.861
1494.97
440.208
-100.607
3014.94
12258.2
21676.6
11993
12025.3
3733.26
-1321.19
5424.86
-1006.54
4418.56
3523.09
4303.68
-264.398
-279.397
-285.83
-1621.75
237.627
-1549.92
-352.313
712.004
-306.583
1875.56
3584.06
5705.21
4893.64
3339.53
-902.486
523.755
1029.78
1509.92
-2111.84
241.665
2039.93
-168.549
2450.9
2229.79
596.598
-1002.38
-1982.98
-298.36
1474.11
-271.745
156.277
466.42
42.0701
658.682
-830.168
1023.99
-835.951
-621.411
725.541
-36.0363
-526.271
183.353
-2264.41
-1263.06
-606.511
-1142.23
-4435.46
-4393
-3295.06
-591.83
-4414.61
-2780.89
-1306.07
-905.434
-1522.84
1252.12
2567.16
2227.55
1168.13
710.938
-314.673
-84.7916
136.849
-1834.8
-2104.77
-1959.47
1181.51
422.082
-184.345
-1714.35
1705.05
880.775
-372.86
947.134
-649.106
1243.1
96.9446
-222.91
-1020.5
1088.36
-172.014
-600.224
1307.39
4539.05
4022.18
9730.84
9196.97
20353.4
15285.4
15906.4
6736.96
2073.26
-115.474
564.55
1253.06
-430.05
-1250.07
732.043
78.5728
-2625.81
-2307.79
-7427.99
1436.25
1160.41
6668.62
2606.42
371.797
4378.6
8156.46
4284.25
9758.58
9136.36
5595.63
7935
6028.54
4011.73
310.857
-626.726
1244.56
-308.924
-502.431
-1786.4
-493.978
1028.32
733.976
667.62
3765.83
1088.39
4557.17
-1626.69
-984.953
-293.736
-4558.65
-3052.93
-96.9013
640.329
-629.793
-859.313
-4703.36
-4158.05
-4078.99
3904.47
10847.5
12058.2
10447.4
5493.27
2426.89
1526.53
3581.24
6010.9
1378.01
-1995.16
328.009
305.891
690.121
750.938
1040.22
414.552
-778.048
-2639
2518.26
3640.18
494.181
413.042
-555.741
3330.18
5669.81
4701.64
11337.8
14879.2
10325.2
7962.06
4778.98
2071.09
3195.93
1401.16
745.383
-346.066
3707.5
3011.51
1678.38
3938.65
2392.89
1271.54
-265.483
-1836.71
-111.502
1019.44
-1001.86
-3066.96
-938.994
-1891.72
-1816.79
425.048
-1040.02
-581.305
652.997
-783.795
-411.32
2.63416
4433.58
3566.58
6870.48
8549.9
4756.84
6418.3
2551.46
7360.92
9185.35
7809.09
7467.8
-1345.43
-368.429
-1207.25
-844.743
996.116
-556.648
1710.4
3543.57
1757.58
1358.29
-1873.78
-275.305
517.642
-474.342
357.391
-634.419
-914.292
-2662.98
-1021.46
1019.31
179.134
-314.181
-1535.47
-14.2354
-420.341
481.729
485.642
-410.11
-183.051
-30.1632
254.952
-572.609
2402.15
427.741
719.932
-5.83528
329.668
711.177
7534.36
6587.61
5213.23
1148.73
1771.44
3516.8
3952
4347.79
3170.38
2614.12
3346.89
-3680.35
-554.001
-273.35
95.0716
-68.2952
-1534.97
-997.902
-1272.04
-1519.02
-3396.34
-1051.84
1705.53
24.0265
-295.588
-243.708
143.106
-724.547
1073.05
590.457
-198.941
-88.9086
23.3882
-1447.99
-1897.39
753.682
424.778
-700.974
-637.763
-1157.33
1088.02
4513.76
4848.62
9906.12
7688.19
9625.34
12735.8
6847.95
67.2084
-1089.24
619.981
2478.95
7186.51
8644.8
18763.8
12932.6
8680.96
4377.23
5663.27
2236.54
2423.63
78.3277
665.667
-781.087
-82.6939
1694.18
-709.685
-1587.13
1407.7
-822.554
265.196
186.591
335.389
57.8865
-766.284
705.172
-2269.24
2375.76
80.5521
75.8478
875.36
-518.151
-285.449
-3691.97
-415.059
4205.69
2605.6
2267
248.545
-511.073
1244.33
654.317
445.647
838.953
-945.789
-309.977
-997.815
-35.0703
-356.308
-445.011
129.032
667.918
2408.08
6259.28
5492.2
3822.88
3341.47
5287.87
128.484
-860.073
1956.92
426.543
831.184
2094.7
301.305
-280.297
-1296.18
1770.35
-55.9628
611.341
-647.272
1358.18
143.882
1834.82
729.076
-747.879
-409.829
88.5587
1183.54
-1507.36
158.821
714.275
3052.92
1753.5
3594.21
2453.86
2218.4
-1645.15
3389.54
-208.495
1196.1
887.592
2295.07
4080.66
575.78
3672.58
210.829
8794.22
7645.3
3477.41
4905.58
7872.21
2621.79
-599.103
-1071.17
-2467.96
1933.76
4514.24
9300.59
7587.33
5988.91
12832.3
9637.73
11795.4
9276.58
7455.18
6014.3
7462.25
8125.31
4185.15
2816.54
950.386
-78.7221
917.986
403.308
-1064.87
1673.83
724.266
149.005
-228.301
-580.891
-792.873
616.908
974.337
1066.54
-895.703
-1135.62
-252.157
-335.511
-680.471
1621.87
122.816
1595.39
671.83
-467.552
-458.398
-613.912
-2142.16
-3011.67
-5910.78
-2243.38
722.196
-532.422
5146.48
8658.73
4631.24
1084.88
506.415
5361.4
5696.4
5927.67
2926.98
-2357.88
-355.714
1613.81
742.997
-1614.23
1569.84
2879.33
264.615
2369.72
-256.82
1360.65
2105.66
3141.68
-424.555
-174.875
-426.025
424.823
-121.212
-430.239
-2144.96
2926.4
-145.979
-1833.55
2602.23
-1182.22
-1359.76
-1740.54
2577.08
912.446
526.903
647.812
1190.36
71.1827
34.5229
2721.46
1370.82
-1367.64
-122.828
4948.98
2433.68
143.246
-1703.42
1025.92
169.797
933.949
7619.28
2289.34
-318.537
-34.0349
-800.291
214.327
-108.712
1313.21
-1625.82
-873.124
3266.02
340.796
-1387.8
-993.032
83.0891
-338.429
1064.52
60.6439
3336.24
1215.38
5636.17
1731.22
-451.482
375.469
-3613.05
-4119.93
-2698.51
563.518
-1615.69
-3434.94
-546.933
-428.793
-1859.57
-601.222
1081.33
564.085
2014.43
3017.23
1241.89
-871.885
434.369
49.1339
4483.35
-378.062
1667.09
2956.95
2173.82
3758.2
2034.7
661.679
3061.42
2718.33
989.338
-1534.83
-219.209
-116.252
-1168.85
91.8068
825.867
151.43
246.913
-313.383
348.179
244.722
-1105.44
-96.4674
222.442
-3003.59
-790.964
232.012
836.172
-336.845
-809.176
-786.715
-1726.87
-891.225
-129.018
-1074.45
-1598.41
-1227.59
367.716
1848.57
4069.46
3452.9
9020.71
9256.15
5146.42
1863.89
1019.03
408.999
459.276
6635.11
3087.93
2548.36
5074.69
801.612
2269.92
1738.73
3185.75
642.511
2861.64
479.741
1200.46
815.946
2127.26
1536.54
523.133
411.464
209.283
938.287
1849.35
607.401
-259.631
373.76
938.257
2970.32
1387.74
719.728
1114.96
-59.2381
923.102
483.277
1468.18
982.457
-1537.46
-133.515
-145.104
793.481
329.973
-1016.26
153.569
4.47143
1515.98
-448.922
-979.333
-2955.06
-1792.95
-1822.81
720.619
-217.928
-68.4776
-97.5992
1985.17
321.748
-459.833
-125.769
680.054
1122.08
1602.5
-2166.87
-552.318
1074.71
139.132
669.668
824.286
4905.01
7591.98
10276.3
10453
10775
4411.83
9519.49
5644.21
-1893.43
353.726
-2191.42
275.601
1309.99
-301.449
-1864.58
-1379.14
-461.685
815.229
263.194
283.803
-183.099
-502.164
-3152.38
-1945.51
-2783.21
-4509.31
-481.372
346.775
-2268.65
195.616
1208.95
202.496
175.404
-630.932
1414.89
-138.657
-1773.29
1178.02
-1996.95
-186.321
-2642.06
-1018.21
711.692
1586.48
1385.69
-168.827
1050.74
-428.299
610.791
-554.051
1313.36
602.977
1496.31
3406.11
6597.54
8463.94
11480.2
7327.94
10377.4
4047.55
3610.19
2104.27
-364.2
-2625.29
732.524
-611.15
94.8879
16.6027
-3219.38
-246.549
203.113
361.084
1171.46
1880.26
5175.18
-658.268
-1851.13
-1394.93
-312.786
-929.674
2351.73
-748.898
1219.75
3851.88
1787
1963.13
-90.8021
735.481
1577.65
910.744
76.3226
-2611.59
-717.322
-815.05
993.635
-15.0308
-1499.2
301.289
-652.965
-3051.39
-76.8224
4133.8
5533.62
5107.87
4785.96
4287.24
4556.03
4453.28
8316.23
16783.2
15010.9
19420.3
18775.4
9746.72
9171.49
9837.63
5153.41
3377.9
2219.68
5024.02
7124.13
5369.36
2283.12
589.263
-48.4947
1044.52
5054.74
732.547
-325.578
1988.05
6632.53
2826.74
-1040.62
2029.54
2982.91
813.04
-2866.99
-2462.38
736.445
2525.84
240.249
1384.65
3171.21
-1555.98
-2034.81
452.813
470.91
-131.286
1966.34
-114.751
528.403
1234.67
938.606
130.725
2193.11
3129.72
2495.4
4869.31
5009.71
623.291
1167.21
802.692
1500.09
-1593.82
3350.96
8050.94
3331.45
2484.11
2560.8
11938.4
4681.41
7878.7
11806.9
2376.31
1827.44
1711.05
-2541.04
-287.174
-2558.94
288.289
-659.744
1534.01
-571.237
-424.578
463.375
-590.219
-1147.98
-2811.08
-4875.07
-2474.89
-4205.94
859.805
1917.53
-447.201
-2014.7
-3436.84
42.9015
3618.22
4593.36
4669.14
8851.1
4052.83
7386.57
2230.21
3099.93
122.294
-7096.56
-1018.36
-1328.26
-5279.38
-4912.38
-2728.32
-1147.58
415.056
213.685
-266.883
1018.98
1965.3
1878.36
2815.03
5407.23
3639.47
855.05
1129.58
-43.4855
2186.98
1405.13
1194.32
516.684
930.3
-2008.36
175.56
1608.98
4641.08
3333.35
761.304
6825.47
4250.6
6353.56
1728.76
9482.77
10472.2
5721.53
4969.31
1039.57
1556.21
922.125
-65.2854
1214.93
-2305.03
-850.638
561.227
2822.95
2377.67
4947.56
5671.74
8230.86
4728.22
12841.4
16368.5
24702.5
14703.2
9342.87
6365.75
4946.56
6566.36
3050.75
2529.63
849.079
1206.07
755.506
4481.75
972.029
306.524
250.635
627.885
2724.29
-731.124
-329.961
3396.69
55.3173
2094.09
4470.17
2601.45
5831.21
4720.23
4242.73
4937.61
6103.81
1311.76
3006.18
1349.77
1147.27
58.9066
364.581
2337.42
3587.68
1380.88
3892.28
1667.11
-1024.15
-1494.49
-984.261
-6849.4
-2452.86
761.596
194.298
-305.15
-28.7028
-238.158
1143.94
1391.68
-344.867
-2425.91
-11.8302
837.114
271.228
-595.369
823.12
210.623
1119.73
230.88
822.278
-23.0871
-547.825
592.674
266.638
149.109
1217.65
-357.525
-956.151
683.81
1936.84
2172.79
2196.59
1958.79
4328.2
2678.94
2546.13
-620.181
-841.262
248.464
3925.79
4738.27
10768.9
7606.24
7383.95
843.388
1417.52
-318.723
-275.508
951.519
3722.93
-449.805
-407.714
154.775
2266.09
5589.21
7448.53
13481.4
7771.83
2282.68
130.381
375.509
740.304
-402.49
4.45234
943.125
-1231.24
-3341.42
1046.82
-328.032
-962.629
76.537
3581.82
-489.958
1219.61
-339.865
14.3955
1317.11
3100.64
114.307
-4510.8
375.188
1367.07
-443.598
-531.459
875.546
-70.6389
-2272.7
-3649.44
133.27
-1991.69
-1569.82
-558.81
1447.01
-911.812
-664.511
1968.48
2328.36
293.128
172.581
-315.682
-1814.63
-307.792
-779.086
-731.614
-957.141
-124.847
4869.7
4859.79
5507.82
6404.83
2480.71
-410.1
607.507
1117.5
916.251
2321.33
10.331
-3326.31
-1631.1
211.912
-4908.52
-4587.09
307.494
246.341
-486.471
-313.346
1657.4
-246.396
998.226
261.713
736.137
-1003.92
-3887.9
-947.94
-3043.83
-1551.28
-2813.56
-2435.77
349.084
-143.589
-896.952
392.852
1023.76
7835.81
6381.12
2330.49
6747
4459.74
5351.14
6643.96
10394.6
3523.48
1494.85
4022.32
-315.559
-2641.4
-1035.99
-943.294
-2044.5
-921.102
-2724.73
-1391.31
-1009.72
-49.2071
-497.74
301.654
-659.101
-2298.52
5925.75
9639.65
4052.05
1124.47
575.683
-661.484
-1468.77
1197.57
-1342.56
2048.65
2434.74
1388.36
1417.88
1228.98
-2217.39
-1371.3
4544.87
1926.83
9063.93
19982.2
14182.9
3563.81
1050.87
2085.84
1672.61
-304.585
1090.27
253.855
-4113.78
-1958.03
-3098.64
-622.068
-2130.45
-1811.17
-2107.11
-1297.52
727.121
-883.841
-2901.55
-2903.27
-1634.2
-1113.58
1121.97
-743.531
16.3483
-1700.11
-2192.13
-704.416
-138.118
-1322.21
701.113
934.968
1209.24
-254.356
863.602
4863.69
6205.03
9776.95
8138.29
9349.48
7193.93
7130.64
3130.6
3419.02
1510.31
-1030.13
-1693.66
-2646.39
-2419.08
-2985.42
-2714.54
-2026.22
-1032.02
-1937.81
-533.292
-2915.54
-852.491
241.079
3952.79
3907.21
1390.87
5782.71
8479.39
6860.4
5611.08
10430.9
3160.98
4467.84
3723.4
-1383.57
2175.42
393.764
6500.97
2404.7
3060.87
4463.88
4673.79
9051.52
10583.1
7496.78
1773.95
1107.05
3311.76
6620.31
13260.5
16621.2
18165.9
13894.9
5887.6
5898.36
4615.18
7397.72
7293.51
10245.3
8479.21
6217.06
9315.65
10511.5
12725.9
12045.2
6971.68
8830.02
7349.22
4412.6
933.909
-778.244
361.476
818.062
310.67
2224.53
7605.48
3448.04
3064.33
-1881.32
-1629.38
-1994.62
-3147.23
-2028.3
-1324.21
1181.86
269.187
-261.912
-413.818
-885.514
2144.15
2043.41
-69.8021
-99.7469
13.4595
-1707.05
-502.643
-2825.53
-5259.59
1801.4
-1115.52
-1044.78
2014.54
-864.321
2843.17
2285.47
797.365
1144.44
-1436.29
-1227.48
-2184.11
-881.187
-599.794
-1201.41
921.847
-622.486
-431.465
-449.302
1446.75
-194.946
-911.977
5564.15
5715.08
10379.2
7493.86
9851.95
12326.6
12219.5
9321.24
10570
8290.59
8065.57
6074.45
2548.25
4988.4
3346.78
427.004
1216.65
-851.168
-1463.23
-924.091
-2850.15
-803.998
364.805
1737.66
-3134.06
-4509.11
-2021.39
-288.856
-897.318
133.134
-318.544
-829.985
-3109.32
-69.8528
1345.94
2161.15
-4002.68
1214.03
2924.95
-253.292
-583.266
44.906
947.993
166.709
-739.71
-2122
-164.293
5173.94
3389.59
3674.1
4875.67
3866.49
9204.42
9443.92
13889.4
9766.33
4386.52
11857.8
8959.01
16880.5
10857.4
8395.56
2333.3
1590.22
1247.48
142.783
153.927
-1039.39
403.055
2296.7
1836.96
6341.66
13697.4
7330.12
5058.53
3064.1
4891.7
2084.52
258.87
1168.42
1064.13
-394.16
-1075.48
1514.99
2908.81
1537.48
1209.67
-1255.73
843.965
-610.087
397.503
250.664
-3432.09
-2576.39
-1589.72
-2050.22
-1345.41
-3523.05
-646.718
-980.879
3457.98
637.308
2315.24
701.333
-188.989
-548.632
-763.356
-2961.65
-407.615
-459.894
19.9994
-338.038
1415.39
544.224
-363.39
-572.284
-2494.77
-7529.99
-3080.76
-2809.09
-1857.96
-4900.59
-2113.13
-3183.59
-1437.76
1042.37
-774.053
75.1342
108.187
27.3356
101.822
2146.87
2396
2416.4
-1002.86
403.312
-2109.42
-290.176
3088.85
-1293.11
-1516.18
-3575.97
3305.37
8590.51
2679.89
1197.6
4319.96
2643.31
2792.03
-47.9795
-1142.32
-34.0389
309.669
252.645
-353.044
1460.44
3058.12
2739.52
3975.32
4127.58
7427.59
3160.5
1919
-613.094
393.51
1029.99
1368.27
949.985
1987.5
2447.09
6064.77
167.961
-392.807
1025.8
-419.166
14.8646
-598.147
-382.744
-1341.38
-3324.42
-1816.29
-111.586
-122.2
457.163
-2661.67
-499.981
-206.644
-1405.3
-1036.59
-2765.11
-1202.79
151.072
282.666
1234.68
1344.38
2267.07
-343.123
-1398.12
-1113.26
-364.652
-160.457
-1007.52
-363.471
613.082
1348.22
-5.64231
-81.1453
-810.95
-2620.45
7.80045
-2837.78
-2882.49
2084.96
-1269.11
-1310.66
37.6884
-430.103
-2035.36
112.657
1332.5
85.4588
-1580.31
2136.31
416.132
-293.756
-356.26
633.442
-744.455
149.744
2392.1
992.383
916.5
-1121.57
-436.277
-37.7408
429.23
3467.42
2967.26
-291.989
-18.3108
52.6585
581.07
-1811.5
-1980.59
-59.2085
3067.58
671.658
-980.585
-6597.24
-851.181
1639.68
1768.15
-248.723
-366.838
206.032
674.52
369.214
-906.065
774.185
-6273.28
-1219.9
-1222.34
-514.019
-251.424
-1127.5
-634.713
1314.93
-191.701
821.38
1891.54
78.6509
-1330.3
-1672.6
-249.167
896.374
1171.78
2080.82
1711.35
4045.95
-37.99
-649.915
570.054
-1044.79
-2081.26
-1290.18
550.651
1414.64
-2535.16
-1179.16
-534.272
1743.09
805.341
5724.18
4822.54
5710.41
2772.23
-1525.98
-296.486
223.361
-216.25
-2902.53
830.328
-690.537
-591.668
-226.129
1770.16
2578.57
963.733
8339.26
3100.69
1361.54
980.129
1039.95
-4232.73
3412.27
6181.04
2976.74
5384.06
7422.53
1714.88
839.714
-1337.96
-1230.91
358.867
-66.9455
596.675
-1522.05
-1732.35
-1008.26
-2045.03
115.319
-602.002
1091.47
433.351
-1464.41
-1435.48
-2170.1
-4083.72
-1144.3
2564.21
-153.334
580.62
-1668.13
34.9711
-1012.55
-21.8777
-955.716
846.526
-42.4459
-138.812
-214.818
478.338
425.383
1902.79
2674.29
4807.6
2526.67
1619.05
1955.09
5145.12
334.695
-981.376
2774.12
6585.04
164.463
-185.34
1675.74
614.29
308.532
4945.45
7331.77
-1526.93
-194.526
-211.458
271.507
2743.23
2716.77
782.222
2243.91
6813.11
7901.43
4619.29
4721.21
-70.2451
911.46
-137.947
-1258.99
-1094.66
-2158.74
-131.303
-2183.36
-872.141
526.563
438.25
-775.841
-1073.94
2284.07
2367.14
-463.33
1868.18
2978.64
-53.1681
3018.39
4781.9
6178.69
2105.48
-1628.06
508.667
1149.87
5676.04
4143.55
3180.18
2649.11
313.025
1179.2
1430.77
118.048
-108.556
293.467
-172.897
382.645
-333.151
312.564
-1720.59
-261.899
-987.068
898.626
-1654.09
-4934.34
-2116.4
-655.108
124.596
-660.163
-1583.7
564.263
-358.09
-1490.83
165.676
546.665
185.44
3403.16
-654.499
-909.438
1733.05
1382.36
10979
7276.09
9077.04
6478.53
11684.6
6705.58
4166.85
2915.61
1061.07
6279
6504.01
5543.96
3239.89
5151.63
-2242.9
687.326
351.747
-795.623
2125.67
2464.41
2234.05
-2525.67
-696.036
-1165.28
-5356.68
-3042.31
237.544
-4816.91
-1406.2
181.088
182.919
-722.759
313.272
635.464
539.676
5240.64
6207.4
5442.44
3666.21
4416.34
1756.58
1483.7
2559.35
1795.69
-55.8389
-643.129
-324.846
1082.05
-214.023
5844.65
4123.77
4598.18
775.401
-862.418
1182.2
886.07
251.588
-203.254
-511.847
-2992.86
-1599.78
957.343
951.908
2008.08
5445.56
8613.09
3166.86
2651.91
529.085
-269.311
-781.052
137.072
-1260.78
-919.882
-761.237
648.742
-618.23
735.966
816.214
2830.36
2232.5
6053.94
4230.26
7741.79
7459.52
3153.18
2314.68
1045.35
-1386.94
6512.33
3088.67
578.728
1559.71
-952.851
-361.05
-231.763
3245.87
749.103
-1854.32
-1103.12
-833.605
-985.475
-620.442
-1151.55
-699.896
1653.9
2920.91
1131.23
573.026
-856.27
-299.882
-713.454
364.397
1976.87
1697.28
1896.88
-1948.98
1101.98
571.047
762.915
1841.55
626.369
683.536
-813.564
-1993.93
203.4
2230.77
5561.7
5827.69
3588.3
1825.98
1306.85
-71.7726
555.458
1679.92
-106.367
2768.41
-28.1483
975.046
200.59
59.3469
-1130.41
-498.862
-3407.02
1255.97
3556.43
1065.22
452.318
2595.73
654.862
957.686
-352.663
834.698
220.072
277.381
195.681
937.507
-46.1325
-484.206
-1050.12
-268.545
-1200.41
-3713.24
178.217
2817.73
613.856
374.92
461.281
2455.27
3412.48
3474.51
3061.08
4516.99
5358.48
6958.6
5486.82
8724.38
3934.79
4322.41
3172.11
-1143.94
-4042.07
503.582
222.124
-40.9591
-446.243
-27.1077
272.716
669.368
-19.5987
-1104.44
-1861.82
-451.067
-305.606
591.243
-39.2631
-2159.3
-548.613
1757.04
541.806
2678.24
3922.72
5066.37
5954.43
7889.19
9116.34
9198.41
5901.29
2880.06
3448.81
2320.62
1181.09
-1592.12
977.782
-1095.72
-220.534
-1733.68
-3694.3
-1524.4
1496.67
3800.17
9491.37
6788.33
-1569.41
-946.446
40.7164
1213.35
2552.64
1400.56
2684.67
-955.565
2447.39
1090.84
-1447.81
-2486.87
320.257
-77.7116
1060.33
854.06
1722.83
-5.50611
195.076
1121.8
2966.57
1063.61
4537.04
8974.58
11913.2
9499.81
11103.6
9185.85
5383.08
3068.83
-3603.59
1846.46
693.988
922.317
1404.36
3353.79
3291.17
1311.67
1123.69
-518.006
-580.863
-540.577
2722.25
1766.27
1272.86
1859.46
638.72
593.283
1014.39
1711.07
793.599
1888.29
-2488.01
1819.7
103.306
-63.181
442.752
-1112.33
-610.762
-4644.61
-78.1006
-139.403
-137.652
419.517
1138.61
956.191
4545.94
445.231
-673.779
2786.06
3240.3
1250.87
275.138
-333.61
1342.38
1906.5
-743.986
895.351
-795.759
-166.582
79.6299
-381.172
506.503
2208.11
-1095.51
1551.63
1436.89
-988.966
3285.81
-936.614
-1328.57
941.947
201.808
423.028
754.565
4829.74
2331.21
642.686
2704.43
3893.05
6052.47
3374.16
6324.96
11305.3
10992.9
9322.39
11991.4
6997.95
4904.02
268.408
32.1185
-2123.03
-2128.44
-138.636
875.924
2231.97
1204.41
-674.702
532.52
591.454
-1619.22
252.929
387.004
4908.21
5423.06
4525.39
3243.47
3134.27
3270.48
1960.77
558.149
-2247.53
216.158
852.641
-2303.45
-1894.37
3065.34
1392.69
490.952
-600.259
1945.55
1010.8
6043.07
3234.31
5037.76
891.377
-2634.19
-3211.69
312.673
-550.396
-141.785
-198.899
370.079
-1045.87
379.545
-1695.86
-2819.07
464.669
86.5854
-4813.35
1415.79
-1655.84
710.356
-134.018
-2211.1
703.636
-1158.86
-1430.88
-1760.16
-1595.36
-89.5653
800.951
1112.96
690.528
-1772.72
-1369.26
3103.31
11076.1
12969.7
10760.5
5762.41
6086.99
163.878
400.478
258.369
139.871
2526.89
2619.91
3656.23
2672.47
-911.377
-1369.94
-1805.01
-550.341
1142.53
2662.93
3465.94
3948.17
-334.381
1891.61
7570.04
11368.6
14211.9
16419.5
15369.8
12317.1
9378.52
4513.03
4348.8
-66.7927
2028.34
752.475
-867.444
-3364.98
805.996
-1889.03
-137.14
-1595.8
-1836.56
-2601.44
-550.914
942.597
1202.51
4949.97
5338.92
5775.73
2486.63
796.137
-102.507
2068.32
-1153.28
1670.85
1.91167
136.702
-671.385
-2881.2
-4433.62
-336.828
154.187
437.968
1656.75
2385.98
1500.14
-662.826
-2912.66
1759.01
1384.22
121.019
-859.756
-389.236
423.386
-503.35
721.457
658.918
-3185.18
-415.293
116.327
1029.23
889.648
4800.25
2319.12
7799.18
2204.67
-797.219
567.064
-208.51
-1480.79
307.002
181.693
-1280.74
-1554.59
-165.056
-262.307
73.7727
-2043.82
945.225
2161.47
647.889
168.854
3465.55
290.472
-199.242
725.061
366.246
911.089
4010.71
346.059
-1193.13
3043.26
1151.96
2260.15
2450.02
576.219
835.722
86.862
-3084.68
-543.007
-479.509
-498.077
1442.95
-322.401
1000.63
65.7027
729.514
2156.72
1383.67
2988.51
5372.7
7431.71
3599.3
2991.24
3753.69
653.54
-1971.84
-1582.47
-1262.67
144.351
3000.88
572.735
901.743
275.584
3124.9
5636.54
7509.12
3974.33
-349.438
-1986.31
-1087.65
-1021.54
468.865
-283.537
-214.318
-158.859
557.794
2696.01
2732.01
1036.22
2802.14
3721.03
5060.67
-2559.09
3001.47
3221.24
5209.69
3110.26
4053.03
2145.96
1336.99
730.01
-759.31
1271.03
3923.27
-280.072
-2543.37
-6334.78
947.078
-1098.69
555.194
958.894
2067.13
746.587
487.372
-2481.32
-436.151
-239.169
-1245.43
-977.514
1258.84
735.97
-235.886
-762.262
-2226.01
-2910.9
-3888
1947.58
-211.738
141.859
-2048.23
-126.332
203.411
286.013
84.0614
103.343
-108.976
-12.1754
1807.61
1461.58
2746.35
2007.66
-2419.89
-2380.09
-1305.65
1618.24
-274.992
-39.4696
-727.133
1402.3
1617.52
-404.951
-1471.23
-83.7599
-1805.02
-465.809
308.582
219.759
-409.496
1741.54
2495.17
1290.36
2110.02
1882.83
2421.46
2627.33
151.563
344.699
4982.78
5790.1
1942.86
-625.297
1060.92
296.291
2079.57
843.935
1889.09
1782.72
3628.67
-2510.98
-1132.2
600.536
-261.222
-168.266
2562.61
2278.58
2296.68
-463.752
-632.434
503.616
231.196
-152.824
1024.84
352.731
2906.69
2141.62
-2169.24
-3086.48
1081.95
-1137.23
184.622
-302.091
82.1638
353.909
-926.138
-1825.19
523.689
316.182
650.618
-2122.01
602.711
2161.61
1678.46
3457.41
5440.12
1078.7
854.41
-787.43
226.652
3199.69
4405.67
5041.31
760.422
-799.982
1069.44
737.088
1645.56
2445.49
2170.27
356.344
208.352
1137.02
3216.59
7766.07
12048.9
11609
3471.85
3346.13
1388.82
1663.2
1539.16
879.329
-417.355
3370.75
4745.92
3427.05
2940.13
5301.46
4405.68
4724.85
603.065
1824.25
3281.86
2148.39
642.222
-807.806
485.024
1031.23
-6.68008
1459.48
2212.48
3679.23
2143.84
1719.32
-878.455
-181.962
-635.498
568.336
-680.414
-670.312
-141.848
1891.38
3584.61
3782.08
2876.6
4905.22
321.345
160.021
736.697
41.0021
-1203.65
29.0198
445.026
1704.69
4898.96
2706.38
337.229
-201.307
-4058.13
-124.256
1717.02
4924.73
4749.9
-835.388
272.4
968.555
11.3939
45.6507
278.705
286.031
343.445
1576.41
2712.55
2549.69
182.174
337.741
-2340.09
-5055.85
-1577.64
-861.106
111.976
201.907
-1540.23
2364.72
505.724
-337.665
-49.0042
306.883
405.782
-230.348
124.799
1454.46
602.354
-734.336
2709.21
1358.42
2262.12
2796.17
1860.35
-235.964
-941.97
755.266
2896.08
-1073.48
-149.755
4502.7
2520.53
-1035.57
-3303.64
-819.448
-23.2165
388.773
451.702
1927.47
4142.56
3071.34
551.248
78.1882
484.852
1850.1
-859.266
1604.4
4759.08
9015.12
11215.3
18227.4
18881.1
8585.18
5891.91
1210.52
1048.67
224.886
610.056
607.966
-2428.39
-2428.26
-1444.12
1689.43
6376.75
4129.9
4510.03
857.753
2134.59
2550.2
1116.99
-678.434
1079.89
96.4574
-326.409
-5234.71
-4799.01
-530.944
-166.263
380.337
731.765
-2088.32
1022.55
-1726.65
1321.83
1529.3
-146.196
-1046.05
2344.13
4761.1
-1104.86
-2612.55
-90.2313
-975.507
527.891
-1266.54
-2277.03
-5797.58
-13.2602
-1944.5
314.925
2400.04
2721.52
1862.95
-2100.13
2388.28
-305.051
5314.96
9846.18
7582.55
4874.77
1785.15
1124.52
4109.97
2178.86
1793.76
832.768
509.15
445.597
1118.97
-500.02
181.245
-184.668
1600.29
-5739.75
-1194.71
-8989.06
-709.782
-1035.89
-2796.44
-76.5486
-1489.12
-449.489
-4508.11
4776.24
616.847
-79.0951
-1480.65
1384.41
1032.23
-760.341
445.567
563.567
-379.945
-1611.37
90.3142
171.323
-960.029
-909.034
-743.596
-2148.05
-2665.62
-5820.22
-2488.69
3865.1
2723
1323.23
829.192
-1176.16
1758.47
59.6233
2753.05
3647.29
4401.56
2088.28
-594.806
463.653
2932.36
530.964
1092.49
681.386
2082.38
746.825
-477.786
260.405
1108.91
-1052.07
650.583
1540.6
2156.5
3581.67
2460.03
2692.73
-423.445
4816.26
3808.93
4878.9
6047.09
3681.42
2982.14
2644.75
-1021.57
-1691.95
-882.124
-2768.34
-2214.75
-2619.99
-3445.74
-1.11625
1363.63
211.289
-1360.84
-487.227
-194.598
1773.23
-187.824
453.094
-165.645
-953.253
-2721.8
1438.42
1331.6
-1046.7
-865.635
2264.02
633.719
-895.158
210.619
1642.36
1243.94
4164.82
2866.85
5679.34
6759.88
3075.26
4.23842
5915.95
13299.2
6780.98
1914.9
1290.6
708.289
-491.257
-2251.9
-5510.16
-4820.35
-1194.11
-172.722
-504.702
-633.81
75.8494
372.371
481.966
327.496
1251.91
1219.81
1078.03
-1434.88
-1255.15
522.431
-303.087
-1796.09
-87.9751
367.935
-999.675
-361.368
-2836.3
985.9
2699.3
2814.4
5907.34
8351.87
4844.63
4908.97
31.3764
2514.64
1176.34
-646.194
2712.19
4833.22
7174.24
9267.19
9538.06
14144.6
22239.9
10620.1
15485.6
22839.7
19164.9
19795.6
10397.5
14470.5
15353.3
6142.01
617.12
1789.64
1567.11
164.936
-2658.79
-5275.66
1316.76
-411.41
2067.2
686.348
-2626.1
-1231.89
1819.51
1216.27
4121.17
6513.65
1781.04
1117.67
-936.119
185.692
3803.61
1010.56
-360.884
808.544
589.573
1701.3
1690.64
694.407
461.192
452.594
100.682
-239.073
-409.646
2031.57
3990.41
-120.576
-125.43
-884.75
-2160.14
-3520.04
400.553
3869.23
2447.1
-203.707
-833.759
623.901
-603.884
329.861
623.449
392.346
384.246
-2658.3
19.5369
9917.18
6935.36
15213.1
8753.68
11088.5
12100.7
362.928
-1594.92
199.319
855.06
-945.363
-2855.15
-960.045
440.531
3173.15
6984.7
2287.99
9391.14
-303.492
-3800
-1927.07
-2385.97
-441.893
-471.064
457.363
525.67
-1333.47
3228.18
1789.96
-2845.63
-3031.15
-1709.42
-3422.24
1612.05
-964.285
736.346
-16.7204
156.445
-119.728
567.238
2638
667.139
-621.113
-159.51
-2274.38
-630.282
-1395.82
-592.902
-355.407
1173.02
-2826.18
-1484.81
-193.426
1932.46
378.767
-1454.26
480.748
1704.64
827.764
902.141
1078.29
-56.7981
473.421
196.669
267.871
1642.88
442.395
-470.643
-1569.64
-1741.51
-1178.89
-28.6221
372.178
3618.37
54.9449
3322.22
4404.09
3274.6
4924.57
3772.14
1908.66
-485.956
-426.099
772.888
1444.65
1025.08
197.323
-2908.42
-69.6336
-1196.07
-2165.44
-594.318
-397.152
82.0281
1299.03
298.09
4368.19
1049.28
4630.59
690.021
-1367.64
-237.417
1432.83
-367.861
465.529
-438.729
-1036.56
101.231
-430.786
722.451
-243.682
-1176.19
-506.176
-1123.6
-80.483
1493.28
-137.145
-224.906
-352.632
-669.968
1752.33
2283.75
-1405.04
2352.32
2093.06
2.12411
1140.2
3211.65
626.847
1423
-415.514
4656.52
3404.91
1940.26
-69.1977
131.056
1043.72
539.728
3315.89
3163.67
888.556
115.699
374.799
563.348
2164.31
-770.486
2795.95
1032.94
118.343
175.396
-550.37
-176.654
633.012
2115.99
166.999
167.401
491.558
-656.154
-939.752
-761.366
1214.56
593.566
-221.023
-663.159
1478.15
-363.275
862.165
1027.87
2442.6
1278.86
-122.103
221.295
1567.05
3764.14
1658.61
-629.729
521.231
-1046.76
-186.413
729.745
-79.9484
-46.3631
-626.31
-311.557
2463.09
612.735
-810.243
-559.948
-901.845
-382.647
1180.73
2307.21
402.441
433.025
-634.674
3968.01
2842.53
-2647.43
802.888
-291.401
747.996
-2768.82
-2194.48
-1621
-294.928
322.891
-317.81
-1177.85
-188.998
-193.742
-178.827
-899.616
713.273
6724.65
3949.96
3204.74
4679.16
6226.35
-539.712
-925.907
-939.937
-72.0077
-544.984
948.21
315.214
1387.81
2236.34
4744.88
5063.06
7061.38
8540.45
8855.34
9608.29
4036.89
2805.3
1669.88
5069.76
5598.82
2927.98
2863.34
1759.03
5012.59
5444.87
12056.6
632.686
3416.55
5107.39
6201.94
5590.39
-2465.03
-27.6141
-957.968
-142.81
2798.69
992.86
-4177.2
-699.695
406.862
891.651
180.413
-1081.28
103.241
-245.753
-249.036
1.4578
-1747.08
187.681
-667.37
12.8785
1149.29
-867.401
237.654
-1870.66
546.424
1674.54
4200.7
2556.51
3868.84
1150.78
-1047.09
690.187
412.181
-2307.22
-1979.43
-4196.6
-5637.8
-3388.67
971.247
671.143
2079.14
4135.58
9031.92
3638.84
-711.712
-358.827
1752.4
1658.37
1573.06
4499.47
7445.74
527.824
-1234.83
-675.358
-872.683
-2640.11
-2108.99
266.501
528.516
-1240.15
-1141.94
-661.84
-196.57
765.272
1085.08
3172.21
6660.37
4675.74
3142.54
1045.69
1874.74
3061.73
1478.98
930.312
-593.661
40.4395
-29.024
44.6998
-405.249
-558.152
69.894
1797.07
3175.71
2632.91
5336.65
1694.52
-797.567
-1287.06
-1838.41
1095.7
4576.8
11809.6
10691.2
9360.27
790.217
-3326.96
-5302.4
-4960.13
-3355.27
-3906.1
-4837.6
-2048.51
1303.05
574.732
3918.95
514.959
-790.502
507.143
1355.75
141.304
-346.8
-890.257
1247.65
913.475
-1035.33
-3454.53
-829.565
-1052.12
1524.09
738.063
1333.56
-204.949
802.824
1398.71
-1038.09
-422.058
1215.86
3542.83
-245.983
-2384.25
-2438.59
-698.969
-1006.8
2020.28
6948.65
5477.78
-1325.36
-1407.01
-1305.79
198.646
87.2655
-909.99
1147.29
-1486.03
-447.146
-1007.72
-171.894
2093.85
9809.95
5879.57
10712.1
11148.2
9382.01
8207.7
2962.5
2998.45
4688.81
5270.84
4506.25
3208.15
1661.63
-2854.16
3432.73
8750.92
1835.23
178.043
1033.46
-1767.02
509.029
-2299.64
-3499.16
-1160.57
-3081.95
1870.14
-8116.39
-4937.71
-6764.82
-5800.93
-1823.93
-1637.2
67.0589
-1040.02
845.063
-1344
490.271
-706.598
703.209
72.885
-190.883
-796.036
-2496.71
-6113.43
-2274.81
135.355
461.159
444.001
446.315
-38.9784
51.9777
-4.89357
-2290.13
-926.248
-772.461
-397.52
786.113
-935.106
-122.696
-560.752
67.5367
1438.27
98.0326
-918.706
481.376
-158.337
-2556.74
-1831.47
-250.552
453.137
373.034
-147.64
-1078.75
-4677.99
-3525.24
-3762.6
-1339.6
471.906
1791.9
-251.227
930.192
-1054.48
-288.652
-757.613
334.131
1797.05
559.71
-380.856
22.9744
1644.72
44.2529
-22.9235
325.343
1170.5
-31.3863
1583.62
97.1152
-629.51
3801.31
557.135
-197.651
575.529
547.419
-192.793
409.261
-646.529
-762.374
-781.653
1293.23
19.89
1.37366
-360.308
982.853
2740.02
1442.62
367.643
1056.84
-1135.04
246.305
-514.315
202.04
-722.862
2594.04
-1478.45
1887.11
-1156.43
-2025.28
-3993.69
-3816.15
-1778.96
-47.9184
-1132.37
154.86
-137.015
-1025.13
940.188
-84.219
466.69
-898.602
-970.515
1493.79
651.299
1348.5
4464.78
2853.03
3509.92
4491.22
6242.01
3213.37
9481.45
13885.3
15079.4
7080.71
4827.86
9335.47
8946.61
3278.31
1312.93
5692.85
2993.29
4008.55
2552.5
2791.03
240.227
1820.08
-905.087
-954.101
-2321.23
-1975.08
-315.606
134.571
-167.791
13.4956
-394.495
-496.602
302.321
1206.01
7786.29
3907.07
997.712
-561.629
-1398.84
-1155.47
1219.23
303.014
355.82
586.793
-2073.75
-1895.29
1890.4
3496.23
7951.11
3342.12
6708.92
12313.4
19379.5
20501
17629
13619.8
9409.84
10487.7
3302.25
3105.39
-1645.39
-5133.26
1521.02
6298.31
6788.49
5154.64
3551.61
321.751
998.071
-823.854
-1462.91
-963.278
-864.886
-774.083
1176.87
3054.86
1836.73
4290.17
1483.31
-20.0747
2887.81
214.429
-823.584
-78.5846
969.785
2899.73
1750.31
2727.7
-502.084
-919.42
-1161.71
-469.442
67.115
-434.929
1213.18
2668.03
2703.5
-1293.15
1484.31
1095.68
-1076.99
-1249.66
1848.53
55.53
-284.274
63.8856
-2736.5
-965.265
-249.21
165.757
-1419.05
774.431
3770.05
6826.88
7691.1
7758.58
9551.59
5179.75
1797.37
2912.25
1698.97
56.3063
-626.923
281.222
-596.077
-2361.13
261.188
269.916
1594.2
537.842
-1196.52
-555.884
-2775.21
-3202.58
-2769
333.527
1116.49
331.883
926.503
1548.96
2163.32
7408.4
1123.32
-5369.09
-4540.18
-211.528
-49.6736
-714.454
-447.373
567.82
-138.552
1029.65
167.732
1850.34
-1477.38
2483.83
4516.24
640.189
1349.36
-2847.01
-4013.07
-113.831
-680.426
-2067.03
-791.534
-1730.73
-5545.55
-3276.24
291.407
3524.41
2101.38
3236.15
-1182.39
3575.98
9485.24
8296.12
5065.08
3621.54
4665.28
3748.21
811.263
451.079
-1527.38
955.154
-183.037
-1461.43
657.021
6498.02
5428.17
8170.38
5704.84
3203.95
-762.044
-1357.3
-229.762
-654.826
-1775.29
1181.81
-277.225
243.54
1402.64
-824.938
-3467.98
-1458.4
-834.822
-1213
-235.472
1444.43
324.117
-2050.22
-641.735
1555.2
360.88
1911.48
-384.458
992.253
-880.034
181.518
1732.16
5603.93
4325.92
1668.48
434.197
567.956
2380.85
1274.04
-2896.93
