-96.8785326
126.2873593
28.0984396
102.1763868
-35.68621698
95.105166
-41.9036992
17.5407039
7.920353
-84.649587
49.20972246
-40.8979215
84.927586
125.150052564
178.852701
15.971423
-55.248734
-130.4956889
5.258741
-85.08754
-7.28149982
-65.40148
-89.188021
-94.305005
-21.801142
21.029254
-150.4061214
-97.125741
-94.6076531
-50.780481
41.93385842
114.47953329
-42.3070285
-87.250981
24.392865
-36.179051
7.272768
-26.870162
-168.662829
11.52477
-79.8006525
-29.3598357
-63.592525
62.2069313
-18.985807
-18.661983
18.3265329
2.8281858
60.13799677
72.5703998
-40.7965029
151.741475
-35.8052903
-21.57127186
-48.3569171
99.0562046
29.289688
-9.8315144
-1.06765681
-25.1364595
-31.9723793
26.8877946
-91.466582
-54.309687
-33.1331912
-78.096232981
139.59698578
87.6623066
11.0615571
-76.9021626
20.680922
57.0952018
-59.6155
-75.162072
28.0254282
-123.4121773
-84.6382467
34.1650256
39.2959264
-41.204816
199.2796932
-50.8865934
-46.175813
-107.8849826
7.7768105
120.2566835
-38.9430277
186.567947
105.4373796
-59.207142
107.243155
27.723879
9.5718242
-23.0469029
21.5950654
62.6754934
61.4414169
-58.8070826
-90.1800788
-26.5972814
10.770138
3.756114
39.248743
-51.351237
-45.98117076
-26.5340834
99.741303
-186.061551
12.1798281
-44.0316088
-117.873312
-35.26277185
87.719019
64.791411
183.07007812
64.730324
67.7883598
19.6041769
-61.9038007
-22.48303351
-29.264781
41.6977845
98.6171249
7.1750587
80.3440283
8.68338292
-67.9512876
149.1907038
-22.9459052
-32.890402
59.129658
64.8635179
-29.2843116
-26.2347023
82.887538
128.50754778
-50.412709
61.5864664
-18.4848965
83.46768819
-30.24854
-25.8594868
41.0758567
-151.513303
82.833036
20.1639906
85.9325963
69.355584
83.63442
-64.994354
-48.2421762
-34.0147673
-100.1733755
-53.9690355
7.0452047
-28.174076
66.208159
37.9403398
-106.1020228
106.69734917
58.860769
32.5580026
10.5917495
0.445514
2.7130237
149.8369538
132.95226614
-72.7206684
94.7418605
66.371926
-10.5816763
15.794498
-14.8572578
17.0491619
118.1514584
-1.1754243
-19.927506
123.7431611
-8.2493386
72.69380327
-54.192044
74.0202674
-95.6110194
10.019294
-10.4096836
-74.02169602
-118.670068
88.086936
55.1986275
79.890061
-27.3766791
48.037793
12.509713
-22.687732
-36.144951
-9.370274
-67.31897446
72.5085715
59.4010177
-65.7380617
90.9672813
16.0982177
22.304485
0.886872
-55.9046939
29.0612284
12.8809261
110.5407238
28.6260414
-15.942945
-46.9796063
-87.572236
-161.037545
-45.24002782
-20.1242331
-12.50254339
44.706607
-218.461395
52.638546
107.612189
-91.383457
64.18016094
-44.24360594
34.25792078
-30.7051228
-12.65664544
86.8423421
-128.89
-54.34455587
13.0429709
21.3456271
109.4473504
-56.354175226
51.4317495
-29.1580483
50.3217244
-35.6750577
161.7525343
-61.5958595
24.0666999
2.732771
-54.924812
-104.741927
-23.596252
72.9927434
-0.319627
-6.7177259
9.607106
-0.702723
91.7979118
