2.97674735038e+14
3.2594349648e+14
3.12870090756e+14
3.75544884392e+14
3.57522831616e+14
3.1838584444e+14
3.3618212288e+14
2.90276262014e+14
3.5607124702e+14
2.88352415008e+14
2.73663548194e+14
3.28578261802e+14
2.54340314042e+14
4.1319389819e+14
3.53767143666e+14
4.78891683284e+14
3.69039312162e+14
3.837284349e+14
3.3134880442e+14
2.6062835244e+14
3.6481709668e+14
3.511274467e+14
2.84645025722e+14
4.1895138294e+14
2.9769481722e+14
3.13787488384e+14
3.18077401512e+14
3.1305387982e+14
2.782754646e+14
4.27892844102e+14
3.0181422748e+14
2.9505636157e+14
3.37944192706e+14
3.1745489324e+14
2.91598956694e+14
4.0780741784e+14
4.70121366716e+14
3.4037546372e+14
3.5254802338e+14
2.8666523628e+14
3.5592300402e+14
3.2446749464e+14
3.6892374258e+14
3.48932395296e+14
3.2541278898e+14
2.7929251517e+14
2.84939232766e+14
3.2803392178e+14
3.5896917394e+14
3.1914075104e+14
2.52397896634e+14
2.51131835452e+14
2.80007817672e+14
3.1403583e+14
3.55322532996e+14
3.7982192482e+14
3.0528032122e+14
4.3097680038e+14
4.01932163408e+14
2.8372038735e+14
4.3032681678e+14
3.2148892522e+14
3.59786640202e+14
2.8962923566e+14
2.78361526966e+14
3.04459932592e+14
2.8760076927e+14
2.729163759e+14
3.3195605746e+14
3.4501241082e+14
2.7128974738e+14
2.67356029284e+14
3.40626855816e+14
3.78217493744e+14
3.3275842388e+14
2.9516440726e+14
2.99852188038e+14
3.03157616044e+14
2.6774597276e+14
3.5127228216e+14
4.26556396974e+14
2.5744152346e+14
2.7733863614e+14
3.7646989752e+14
3.3565111419e+14
3.09126846682e+14
2.4382769214e+14
3.0921449962e+14
3.362991441e+14
3.07718368654e+14
3.5113107204e+14
2.65261607074e+14
3.19616376402e+14
3.25049413994e+14
2.6816258564e+14
3.20929200654e+14
2.8429151646e+14
3.13019540254e+14
3.3562066412e+14
3.6789928606e+14
3.2113943654e+14
3.3324477892e+14
3.1656709174e+14
3.4280567226e+14
3.8456740875e+14
3.01443098338e+14
3.340999874e+14
3.8289679416e+14
3.09213143946e+14
3.32831562932e+14
2.56454728884e+14
2.9104301732e+14
3.20563973218e+14
3.57290490368e+14
3.20576086e+14
2.5574888926e+14
3.56423631286e+14
3.83924330422e+14
2.85759747002e+14
3.2017831772e+14
2.8327369164e+14
3.5160262856e+14
4.3519308954e+14
3.48920892168e+14
3.8808300058e+14
3.571022207e+14
3.2674139156e+14
3.574012944e+14
4.0071828036e+14
2.97849701064e+14
2.3390556844e+14
3.4974994686e+14
3.35175092632e+14
3.3257279442e+14
3.857369697e+14
3.2544062462e+14
2.62566082368e+14
3.3708936082e+14
2.91418349346e+14
3.0410501634e+14
3.27648908916e+14
2.77840273832e+14
2.67304475886e+14
3.92761800026e+14
2.87017314172e+14
4.1865036828e+14
2.96079613994e+14
3.154248638e+14
2.96869281598e+14
3.3383804744e+14
2.95493778186e+14
3.15084932804e+14
2.7627373792e+14
3.04111657852e+14
2.9236475128e+14
3.657908439e+14
2.6823640882e+14
2.9084138094e+14
2.97914722668e+14
2.995942466e+14
3.2196754072e+14
3.03544170694e+14
2.4937234298e+14
3.190836143e+14
3.58502230178e+14
3.27929690132e+14
3.731902925e+14
2.7814567964e+14
3.028751753e+14
2.5604720923e+14
2.78635294414e+14
2.9067330083e+14
2.8879362132e+14
3.382380612e+14
2.6030848485e+14
3.83634455618e+14
3.291742653e+14
2.8504272318e+14
3.15643918112e+14
3.6042605216e+14
3.25302627314e+14
2.86229331678e+14
3.032691465e+14
2.88825538096e+14
3.8060649334e+14
3.04701647028e+14
2.79383192332e+14
3.6580591087e+14
3.358043705e+14
2.8865814518e+14
3.0106095152e+14
3.5394721046e+14
3.38696986342e+14
3.5298402148e+14
2.35277490088e+14
3.6203677616e+14
3.67592659088e+14
3.47241564472e+14
3.66319832944e+14
2.746629943e+14
3.27386991858e+14
2.96260628706e+14
3.0676354737e+14
3.607773551e+14
3.22502105504e+14
3.5616264125e+14
3.26818204914e+14
3.96602371328e+14
3.1036377122e+14
3.23196335936e+14
3.8212402976e+14
3.161014465e+14
3.258376295e+14
2.63054812732e+14
3.42101637008e+14
3.32366473944e+14
3.1722551306e+14
3.2218437739e+14
3.4607149158e+14
4.1634866296e+14
2.4346550194e+14
2.59744670418e+14
3.5929926474e+14
3.042703887e+14
2.9070983862e+14
3.30922049936e+14
3.5049023062e+14
3.4802527102e+14
2.7366883004e+14
2.85241330424e+14
3.1245613476e+14
3.4896402586e+14
3.25951242436e+14
3.2083409818e+14
2.70379271348e+14
2.88840811382e+14
3.33319079286e+14
4.0787422468e+14
2.82187246562e+14
3.29181202296e+14
3.12771886244e+14
3.42537498748e+14
3.4208634256e+14
2.99286395212e+14
2.71072663524e+14
3.19567726666e+14
3.7820287612e+14
3.1174526306e+14
3.1180863644e+14
3.5811290426e+14
3.17270398632e+14
2.9738869564e+14
3.09705349822e+14
2.8973006978e+14
3.40466869398e+14
3.20831563954e+14
3.05056365712e+14
3.7027614126e+14
4.04482306e+14
2.682495476e+14
2.59372473494e+14
3.0847311708e+14
2.6767161267e+14
3.493879624e+14
3.6936497461e+14
3.13658331324e+14
3.21785384458e+14
3.057531286e+14
3.4949681758e+14
3.2347913214e+14
3.5218133422e+14
2.4738941108e+14
2.95713260466e+14
3.59525063768e+14
3.3676836751e+14
3.4487062594e+14
2.763680233e+14
2.9814448534e+14
3.01564874068e+14
2.919101949e+14
3.50725597292e+14
2.8063421782e+14
3.0390146804e+14
2.8028921218e+14
2.9344327878e+14
3.78610429054e+14
3.7819620506e+14
3.30563156058e+14
3.15058415794e+14
2.9032096778e+14
3.53142282528e+14
2.4546751504e+14
2.90484984714e+14
3.77942048674e+14
3.3213239996e+14
3.2489114102e+14
3.1308119172e+14
2.9646741466e+14
3.094809024e+14
3.6926988382e+14
2.9419508372e+14
3.2188937606e+14
3.0393540054e+14
2.70198463756e+14
3.3159211092e+14
3.3351885862e+14
3.08301428704e+14
3.12193585946e+14
3.42050486704e+14
2.6389338216e+14
2.8807791768e+14
3.59001090554e+14
2.894221486e+14
3.1750700778e+14
3.4899953682e+14
2.5653039496e+14
3.47080651344e+14
2.99763748504e+14
3.2245192298e+14
4.1729356094e+14
3.08634538296e+14
3.7969873182e+14
2.75144010868e+14
3.69894014264e+14
2.84914129128e+14
2.6487296236e+14
3.1114458962e+14
3.0642423993e+14
3.2478380392e+14
2.6006870722e+14
3.0389174734e+14
3.1920710538e+14
2.9494999738e+14
3.891056639e+14
2.65086823682e+14
3.0913256102e+14
3.16626213612e+14
2.7235034076e+14
3.1547298804e+14
3.0622920433e+14
3.7745744258e+14
2.630847374e+14
3.74688765234e+14
3.0540941122e+14
3.18544449482e+14
3.26404733876e+14
3.1286166326e+14
2.64127178274e+14
2.7800076364e+14
2.8789819304e+14
3.11953916286e+14
3.65535751406e+14
3.137731123e+14
2.9024906306e+14
3.5672568972e+14
3.35995268958e+14
2.9303962066e+14
3.5996965456e+14
3.9274633729e+14
2.88863361444e+14
2.7768372948e+14
3.5791383244e+14
3.3862395616e+14
3.0157557228e+14
3.55553282408e+14
2.982513641e+14
3.30830832068e+14
2.79134356282e+14
3.0589400796e+14
2.9637671884e+14
3.42244011412e+14
2.94415070634e+14
3.2062026052e+14
3.1861961e+14
3.4081811733e+14
3.15021436768e+14
3.49806327208e+14
3.15183740518e+14
4.0303570384e+14
4.0430884232e+14
3.6354888999e+14
3.1207287208e+14
2.66158752404e+14
2.56066054206e+14
3.49712583726e+14
4.02182631282e+14
2.823400095e+14
2.90562534964e+14
3.539516685e+14
2.7476650302e+14
2.58021076974e+14
2.6963266807e+14
3.2883833116e+14
3.0159647984e+14
4.16785904804e+14
3.22696410118e+14
3.15192844676e+14
3.4046961192e+14
3.2685038166e+14
3.2223576166e+14
2.9692963005e+14
3.512746682e+14
2.77013652876e+14
3.49890248592e+14
3.06163350806e+14
3.6059551536e+14
3.8586733956e+14
4.76922022384e+14
3.5073436268e+14
3.11073661306e+14
3.1090067494e+14
3.3798760141e+14
4.1564685918e+14
3.0289738005e+14
3.129791623e+14
3.4788754794e+14
2.9792644294e+14
3.7107002528e+14
3.2356230306e+14
3.2842001754e+14
2.67433474136e+14
3.67794479118e+14
2.61893763304e+14
3.64764695754e+14
3.6523793777e+14
2.8670607416e+14
3.9896006282e+14
2.63066259734e+14
4.12069849526e+14
3.0122328364e+14
3.4600139644e+14
2.9710465036e+14
2.85752660682e+14
3.43260430922e+14
3.72440287256e+14
3.15222738826e+14
3.02045841306e+14
3.0096268558e+14
3.925305453e+14
3.91821833274e+14
3.56155364908e+14
2.7725867172e+14
2.9932957242e+14
3.49281362522e+14
2.88984624964e+14
3.27387057106e+14
3.158226735e+14
2.668230447e+14
3.08051337326e+14
3.02457672746e+14
2.9045640778e+14
3.29811448934e+14
3.4359864093e+14
3.2860904632e+14
2.71605247774e+14
2.59750441872e+14
3.37177738256e+14
3.46292906342e+14
3.0269264956e+14
2.9530053242e+14
3.2850792375e+14
4.43067571e+14
3.3070278202e+14
2.6307886382e+14
2.95390651916e+14
2.9818876776e+14
3.5252689606e+14
2.73268239922e+14
3.17238905574e+14
3.007864978e+14
3.1750709602e+14
3.6410280168e+14
3.00549293988e+14
3.05280788642e+14
3.2739306336e+14
3.26689265802e+14
2.95818344872e+14
3.71143853e+14
2.9095876624e+14
3.5311559182e+14
4.09942773594e+14
3.45157528532e+14
3.00789375776e+14
3.81789574494e+14
3.7454488236e+14
2.8939693931e+14
4.2197841254e+14
3.3685167784e+14
3.67758439894e+14
3.27998464512e+14
3.0383162136e+14
2.47320486932e+14
3.0180514534e+14
3.44628663722e+14
3.0726872054e+14
3.24089151108e+14
3.22993890814e+14
3.84200824486e+14
3.281048471e+14
3.115602196e+14
3.1719978798e+14
2.95326886352e+14
3.66308480544e+14
2.5569798426e+14
2.89390973166e+14
2.84797127148e+14
3.38172231524e+14
3.0910472539e+14
3.1188922434e+14
2.94427768584e+14
3.4602102108e+14
3.22032772e+14
3.270466784e+14
3.11739714318e+14
2.6171259113e+14
3.4187626668e+14
3.5434201092e+14
3.6304918444e+14
2.9948246552e+14
3.3241917632e+14
2.98324208622e+14
3.26333535204e+14
4.9720895985e+14
2.8036097774e+14
3.3591162582e+14
3.24011527268e+14
2.628957789e+14
3.06459028744e+14
2.97188129642e+14
2.72575382794e+14
3.5954878533e+14
3.7736728996e+14
3.4778394728e+14
3.30717350876e+14
2.94525436731e+14
3.17460679688e+14
4.45603771624e+14
3.24931287396e+14
3.5720335228e+14
3.2726574198e+14
3.0901290036e+14
2.84018482064e+14
3.66264164982e+14
3.22363517372e+14
2.8503007888e+14
2.90637977304e+14
2.92614691632e+14
3.7218287708e+14
3.990765931e+14
3.28767010476e+14
3.18037637018e+14
3.7502301744e+14
3.646356937e+14
2.99753620304e+14
3.479068385e+14
2.8461984348e+14
3.8452976343e+14
2.89903006664e+14
3.33986807024e+14
3.28430705536e+14
3.328023456e+14
3.4324166956e+14
3.1597680764e+14
3.4209520814e+14
3.37317421802e+14
3.428664563e+14
3.1016263986e+14
3.7729540944e+14
2.93142477958e+14
3.2639846892e+14
2.90007449122e+14
3.4336752043e+14
3.1274437156e+14
3.5329015256e+14
3.1898743138e+14
2.5092896636e+14
2.95557265898e+14
3.5791985339e+14
3.5257367318e+14
3.5971319004e+14
2.59949982882e+14
3.2646070248e+14
3.615115391e+14
2.68625032028e+14
3.3915369553e+14
3.1767828302e+14
2.58459457102e+14
2.9017285826e+14
3.3593631436e+14
3.18030238116e+14
3.5347361981e+14
3.15939030198e+14
2.87125490288e+14
3.34451173032e+14
2.6471960944e+14
3.32997546852e+14
3.53878577004e+14
3.23511629e+14
3.13484405656e+14
2.93249463702e+14
3.6971767994e+14
3.3074387159e+14
4.14306805224e+14
3.4993571696e+14
2.96861016988e+14
2.81205503902e+14
2.55721148322e+14
3.36891590146e+14
3.1480831792e+14
2.99761239004e+14
3.6953511578e+14
3.593243421e+14
3.2236394086e+14
3.6922680902e+14
2.904052396e+14
2.76446764514e+14
3.0077691502e+14
3.21860345932e+14
3.15477199094e+14
3.3476065119e+14
3.10805004248e+14
3.59035808934e+14
2.82813007e+14
3.65605534572e+14
3.257482919e+14
2.808489433e+14
2.7141391648e+14
3.0995874841e+14
2.7458385121e+14
4.32210986e+14
3.5799870758e+14
2.502206962e+14
3.7641580196e+14
3.05075371628e+14
3.3883262784e+14
3.7072684498e+14
2.80895939702e+14
3.104794436e+14
3.3653646552e+14
2.95065856924e+14
