3.9184182062e+14
3.28873154954e+14
3.51700071716e+14
3.8124345187e+14
3.41944738106e+14
2.93036587764e+14
3.7209015228e+14
3.041979405e+14
4.2908416472e+14
3.7351243275e+14
3.2771558606e+14
3.83788438166e+14
2.679244631e+14
4.91992139e+14
3.6229089284e+14
4.03132204026e+14
3.5746173722e+14
3.88207266714e+14
3.43492652744e+14
3.1450019899e+14
3.5909497864e+14
4.1182993186e+14
3.4839844674e+14
4.5819759446e+14
2.9928704264e+14
4.28440547442e+14
3.51011833238e+14
3.727526592e+14
3.0318017008e+14
4.63975354914e+14
4.34877639584e+14
3.18874477678e+14
3.1685791926e+14
3.80576587446e+14
3.136832809e+14
3.93860359232e+14
4.3657024844e+14
3.1039699596e+14
3.0237209818e+14
2.88529911136e+14
3.75874482056e+14
3.51026523634e+14
3.752421639e+14
3.73009138752e+14
3.9703552252e+14
3.4194874226e+14
3.09298220586e+14
4.26054440576e+14
3.6889062278e+14
3.5431964214e+14
3.56942697994e+14
2.981318179e+14
2.55919768564e+14
3.37230841792e+14
3.35039719628e+14
3.96165039628e+14
4.06371066572e+14
4.015649473e+14
4.7603851586e+14
2.785627283e+14
3.8737311684e+14
3.4089180804e+14
3.29810509772e+14
2.9445664348e+14
3.7495725138e+14
3.0095671282e+14
3.267421467e+14
3.23109584e+14
3.75696560448e+14
3.85222464484e+14
3.6554622166e+14
3.20337444174e+14
3.80168990088e+14
3.72551003944e+14
4.02674125468e+14
2.9086445118e+14
3.38183417912e+14
3.4378708962e+14
2.86186801854e+14
3.5569325734e+14
4.1633007058e+14
3.0831298306e+14
3.15050535618e+14
3.24680964166e+14
3.7554535447e+14
3.96402893768e+14
3.302670955e+14
2.81254985454e+14
3.33128858828e+14
3.5348055622e+14
3.64908094494e+14
3.65391654538e+14
4.3126071602e+14
2.91086202042e+14
2.7118987686e+14
3.7525627358e+14
3.2011147668e+14
3.500032711e+14
3.3700324098e+14
3.238301857e+14
3.1834549996e+14
4.09345249654e+14
3.3491176206e+14
3.8175651804e+14
4.19044241508e+14
3.02455649866e+14
3.37204574672e+14
4.00213416972e+14
4.06587028866e+14
3.1722011554e+14
2.3407609986e+14
3.3283543962e+14
3.3259851161e+14
4.6869957724e+14
3.5346061953e+14
2.92472600634e+14
4.3515189416e+14
3.1022443512e+14
3.5088917362e+14
3.32119884674e+14
3.23107997538e+14
4.715931925e+14
4.6463094254e+14
4.1519215024e+14
3.9869799926e+14
4.1056579266e+14
3.987539153e+14
4.2753053326e+14
3.82202539442e+14
3.41965039742e+14
2.7091172294e+14
2.9549070302e+14
4.01577184812e+14
3.6186507252e+14
3.85652080112e+14
3.141477698e+14
2.68685040828e+14
3.6973914898e+14
3.06993674432e+14
2.9267609164e+14
3.7459471601e+14
3.34972409856e+14
3.1006716222e+14
3.4062239358e+14
3.2903754956e+14
3.7905468703e+14
3.50140810544e+14
2.69181827118e+14
3.25775715316e+14
3.60300793702e+14
3.0785789692e+14
3.9450527832e+14
3.7868343168e+14
3.2432941082e+14
3.2505294522e+14
3.016339199e+14
3.4064440162e+14
2.802949304e+14
4.41211274092e+14
3.1114284272e+14
3.4040764994e+14
2.9502876468e+14
3.4166231096e+14
3.8023217991e+14
4.2972640804e+14
3.82319925396e+14
3.6560917718e+14
2.738872846e+14
3.58029303042e+14
2.9940539978e+14
3.5032921074e+14
3.2528704984e+14
3.7912602386e+14
3.6751629965e+14
3.268283291e+14
3.57325424426e+14
3.925412654e+14
3.3474161598e+14
3.10631656638e+14
3.98613116544e+14
3.43609527008e+14
2.76821459938e+14
2.844587745e+14
3.30658525014e+14
4.8415105014e+14
3.2083570018e+14
2.9602974298e+14
3.43707525954e+14
3.1421561486e+14
2.9925420304e+14
3.7518044446e+14
4.17018925212e+14
3.08313296394e+14
3.9121226922e+14
2.7946530952e+14
4.50779053918e+14
4.09093744726e+14
3.63531220246e+14
3.68694293408e+14
3.5740876678e+14
3.4814117206e+14
3.15067453182e+14
4.3560522754e+14
3.3517125755e+14
4.09567014328e+14
3.9466181404e+14
3.2381208922e+14
4.60690672132e+14
3.8321138795e+14
2.764736867e+14
3.6227222072e+14
3.3716560372e+14
4.0550122551e+14
2.64435200022e+14
3.39386327094e+14
2.9930681414e+14
3.91454901568e+14
3.9444840038e+14
5.0587994354e+14
3.7301674722e+14
3.053978181e+14
3.36475363078e+14
4.89359094514e+14
3.43092529928e+14
2.95947666864e+14
3.09452349e+14
4.34510999414e+14
2.89869726042e+14
3.89402911292e+14
2.8436871944e+14
3.7489258056e+14
3.2255368458e+14
3.50829339654e+14
3.5649203882e+14
3.1979350638e+14
3.93843228796e+14
3.32334292886e+14
3.5229472328e+14
2.9257832127e+14
2.88015288906e+14
3.44101333952e+14
3.71882798968e+14
3.79314785302e+14
3.370259442e+14
2.9111228554e+14
2.5144648467e+14
3.27494081644e+14
3.1019120216e+14
4.17179849744e+14
3.7782595484e+14
2.86314261496e+14
4.2039340729e+14
3.3587324244e+14
2.90137566612e+14
3.13244811434e+14
3.81537532218e+14
2.81675980478e+14
3.8948123954e+14
4.28814088534e+14
2.73386439292e+14
3.25413222854e+14
3.5578492964e+14
2.75387779616e+14
3.6989949838e+14
3.7921816296e+14
3.81709626466e+14
3.22589108852e+14
3.3014743379e+14
4.3735489949e+14
3.45675948886e+14
4.4732292812e+14
3.0840493108e+14
2.757337639e+14
3.74267931236e+14
4.33084088762e+14
3.238225847e+14
3.3867744933e+14
3.5392406889e+14
2.85049544292e+14
4.04410985482e+14
3.21520856882e+14
2.86447668778e+14
2.6715529914e+14
3.2133664728e+14
3.32771725e+14
4.1259116606e+14
3.69228077836e+14
3.14774539154e+14
4.11214727678e+14
2.904465711e+14
4.00817834326e+14
2.2618891084e+14
3.52223725654e+14
3.5623033064e+14
3.18965660446e+14
3.46417371178e+14
2.9796950306e+14
3.3506654968e+14
3.4469365972e+14
3.7876866736e+14
3.429536152e+14
3.24690995558e+14
3.0937820204e+14
3.761357295e+14
4.0695649032e+14
3.34842348746e+14
3.3397284494e+14
3.35502935772e+14
3.710376131e+14
3.7375688994e+14
3.27889273544e+14
3.8921268752e+14
4.2523763182e+14
4.937465253e+14
3.9775399084e+14
2.59121336834e+14
3.949370553e+14
3.81037443432e+14
3.9187223352e+14
3.60821195264e+14
2.791139122e+14
4.84344566394e+14
2.93423184678e+14
3.4474485986e+14
2.57334245338e+14
3.03268633036e+14
3.1938353348e+14
3.4107629046e+14
4.1384182392e+14
3.4522444766e+14
3.72853471184e+14
3.85916478586e+14
2.97546582208e+14
4.20883822608e+14
3.43561007176e+14
3.1952123582e+14
3.65195989874e+14
3.0063513732e+14
3.54513267068e+14
3.1330169898e+14
4.50379560164e+14
2.52586112486e+14
4.05188612288e+14
5.22999120546e+14
2.8430622106e+14
3.2655490706e+14
3.11878115188e+14
2.92787472872e+14
3.3920113084e+14
3.7305709225e+14
2.99633400702e+14
3.72918937428e+14
2.9933730296e+14
3.354990398e+14
3.6060226206e+14
3.22079307992e+14
3.9611204644e+14
3.71634929132e+14
3.8494772504e+14
3.21369792252e+14
2.88543316924e+14
3.81817747316e+14
3.46933977048e+14
3.7013036482e+14
3.39349895712e+14
4.14446200192e+14
3.4506061202e+14
3.3122108096e+14
3.3303438667e+14
3.3183592902e+14
3.917266193e+14
3.43437537866e+14
3.17624435486e+14
3.97772531952e+14
4.042692133e+14
3.25463545548e+14
4.38990210158e+14
3.96857033822e+14
4.2337828572e+14
3.8929770536e+14
3.7345166674e+14
3.43272116972e+14
3.494989497e+14
3.72687399916e+14
3.63782748056e+14
4.01763735834e+14
3.0022125432e+14
3.83552910966e+14
3.38190672994e+14
2.87987409856e+14
3.6388637308e+14
2.93621320924e+14
3.6812212334e+14
3.51477157462e+14
3.7355432686e+14
3.32996217678e+14
4.5484291286e+14
4.53267387036e+14
3.8790869365e+14
3.3085306056e+14
3.57904466546e+14
4.74835343204e+14
3.81407733538e+14
3.9074481336e+14
3.76175996982e+14
3.3011310938e+14
4.096946855e+14
5.3227831384e+14
4.1331213274e+14
3.82840360742e+14
3.05267219642e+14
4.022314148e+14
3.7729814356e+14
3.7441778418e+14
3.1556351544e+14
3.42908861538e+14
3.461500245e+14
3.7809944654e+14
3.73093949e+14
3.9652775862e+14
3.682272504e+14
3.52054968268e+14
3.3314395234e+14
3.9209324682e+14
3.6437605788e+14
3.58088006934e+14
3.790338257e+14
3.09011778412e+14
3.929510881e+14
3.8512074732e+14
3.29435266154e+14
4.23907040454e+14
3.74408529762e+14
2.95033659522e+14
3.3143908914e+14
2.94600796264e+14
3.50113867512e+14
2.8649269244e+14
6.2277709368e+14
3.46661619386e+14
3.806906658e+14
3.0304755903e+14
3.17442762172e+14
3.9319071006e+14
3.286942543e+14
3.3639233126e+14
3.8066467912e+14
3.01804809924e+14
4.0060628222e+14
3.3271246154e+14
4.09888771792e+14
3.19711029602e+14
3.331878739e+14
4.874761822e+14
3.77192860678e+14
2.95039607376e+14
4.69938461588e+14
4.1974822218e+14
3.877140351e+14
3.26667440022e+14
3.15512046538e+14
4.595585056e+14
3.3261788883e+14
2.988841311e+14
3.4416863614e+14
3.354109895e+14
3.8222495374e+14
2.71175465234e+14
3.419965059e+14
3.3047027878e+14
2.8587393356e+14
3.60303243452e+14
3.82980405774e+14
3.88455994008e+14
3.5267111716e+14
3.7949279088e+14
3.44382915704e+14
3.9023978374e+14
2.7594659296e+14
3.7552847936e+14
4.132855104e+14
4.04127322016e+14
3.70365420044e+14
3.29856700254e+14
3.8329245851e+14
3.22577737808e+14
3.28121690932e+14
4.2563027328e+14
3.7172726154e+14
3.4962138856e+14
2.6866983234e+14
2.89359864934e+14
3.03763710396e+14
4.1583832848e+14
3.9582627444e+14
3.740570933e+14
3.38138649276e+14
3.36006923842e+14
3.12379960606e+14
3.3371489646e+14
3.38800983228e+14
3.6503303644e+14
3.85616354282e+14
3.0462238378e+14
4.1646245302e+14
3.71612543834e+14
3.5117360974e+14
3.5681374897e+14
3.3012157398e+14
2.7401856828e+14
3.2687488286e+14
3.44400003782e+14
3.4195419632e+14
3.49564120696e+14
2.82162625208e+14
3.4409481385e+14
2.99417099332e+14
3.6062916088e+14
3.18363881228e+14
3.9282245654e+14
3.30973011632e+14
3.06433580812e+14
5.18134162386e+14
3.1192561333e+14
3.50340107554e+14
3.42632984668e+14
2.7145167578e+14
3.83913462168e+14
2.94812731566e+14
3.17136102344e+14
3.96353513364e+14
3.0005233614e+14
3.16184651584e+14
3.31268164362e+14
2.50745119066e+14
3.7261608962e+14
4.0931410916e+14
4.26856468132e+14
4.39974310652e+14
3.5506522449e+14
3.32279571786e+14
3.3804264676e+14
3.2719205934e+14
3.0284948288e+14
3.55744474628e+14
3.1899090232e+14
3.5033535602e+14
4.03768188076e+14
3.6480335018e+14
3.56772179926e+14
2.95481646716e+14
3.3881424508e+14
3.818514387e+14
3.5725803402e+14
4.384512553e+14
2.93316086784e+14
3.31581103634e+14
3.31547448458e+14
2.665443645e+14
3.3011006512e+14
4.3906661166e+14
3.86931181856e+14
3.5096137604e+14
3.4841943466e+14
3.7042285858e+14
3.84305038016e+14
3.414047086e+14
3.55509366594e+14
3.2021244406e+14
3.45498465774e+14
3.18301040832e+14
3.20303189484e+14
3.7691113976e+14
3.0601946212e+14
3.5999061666e+14
2.8307816264e+14
3.0142168244e+14
3.0303538427e+14
3.4153848624e+14
4.4448753126e+14
2.7743804575e+14
4.530760719e+14
4.41829011378e+14
2.8836905476e+14
4.22182774378e+14
3.39290840646e+14
3.14311665114e+14
3.1008881688e+14
3.27865873326e+14
3.585621017e+14
3.5697852434e+14
3.93691633946e+14
3.62813827468e+14
3.78964955288e+14
3.8086771002e+14
3.2498837656e+14
3.9802298396e+14
2.9926339636e+14
3.3314650094e+14
3.573426865e+14
3.4889472352e+14
3.3472470298e+14
4.54381795794e+14
3.30543084564e+14
2.84843815102e+14
2.6683929822e+14
2.82329063344e+14
3.41736342208e+14
3.3300348554e+14
3.13429192178e+14
3.7029386176e+14
4.20623832e+14
3.604706247e+14
4.0881966668e+14
3.5101051296e+14
3.39953952678e+14
3.5641667504e+14
3.132716102e+14
4.3442852082e+14
3.17834172424e+14
3.2529888842e+14
3.2527464868e+14
3.14154212028e+14
3.7146595604e+14
2.999742989e+14
2.84619936716e+14
3.4018520536e+14
3.66936085714e+14
3.16062747582e+14
4.2497403566e+14
3.5639417436e+14
3.3503492598e+14
3.4321466842e+14
3.93788932124e+14
3.5602553146e+14
3.1858964386e+14
2.85896683396e+14
3.0069247876e+14
3.6687001594e+14
2.88956324674e+14
