4.434327265e+14
5.2955873148e+14
5.05867179906e+14
4.63377394992e+14
4.79684237144e+14
4.0014775936e+14
4.9880023932e+14
4.1158479892e+14
5.31322824846e+14
5.6332275384e+14
4.71891270222e+14
4.51763224392e+14
4.0658678692e+14
5.99792183024e+14
4.727876978e+14
6.02943770284e+14
5.3879076294e+14
5.9531093126e+14
4.6100607546e+14
3.4818733536e+14
5.7100263464e+14
5.63400803118e+14
5.201707478e+14
6.878317277e+14
4.2880943778e+14
6.21307169694e+14
4.83847059164e+14
5.33764488448e+14
3.5871625894e+14
6.184609824e+14
5.1818237834e+14
4.09775585848e+14
4.5003286692e+14
4.85751463752e+14
5.02331085028e+14
6.2201653764e+14
5.4775008294e+14
4.8622144836e+14
4.25729537386e+14
4.94122270678e+14
5.80777846236e+14
5.3268751244e+14
5.5565263098e+14
5.21327482222e+14
5.436962746e+14
4.672972034e+14
3.7109710808e+14
5.6492679702e+14
5.6374181069e+14
5.2343951852e+14
3.95529295576e+14
3.69989466316e+14
3.02370502516e+14
4.42905024096e+14
4.9724936904e+14
4.8162068438e+14
5.1951941885e+14
5.1810380324e+14
5.0041879344e+14
4.5494199565e+14
6.0857464542e+14
5.3489440608e+14
6.08292184932e+14
3.7486622282e+14
3.8450823246e+14
3.67690419748e+14
4.74155554054e+14
4.2033042175e+14
5.8268737531e+14
4.6486292654e+14
4.280667893e+14
4.7061458798e+14
6.03918594788e+14
4.05292872056e+14
5.7471281974e+14
4.012558196e+14
4.7083014606e+14
5.05354235452e+14
4.7639314952e+14
4.66249552228e+14
5.3922350234e+14
4.56615788868e+14
4.0513143358e+14
4.3733914898e+14
6.6341948615e+14
5.98072320328e+14
4.44598244704e+14
3.8797166239e+14
5.3825776072e+14
3.860481766e+14
5.26818592042e+14
4.7440742034e+14
6.05767344998e+14
3.5094585158e+14
3.5318114314e+14
5.8174388194e+14
4.7969983362e+14
5.45235368816e+14
3.8851994904e+14
4.8416823508e+14
4.0225532124e+14
5.39065991538e+14
5.521834271e+14
5.42509517746e+14
5.7094881338e+14
4.5988634968e+14
4.43024230042e+14
5.20296003918e+14
4.65609640242e+14
5.0914232544e+14
2.9543348636e+14
4.308366677e+14
4.59227772646e+14
6.27296132666e+14
4.7363202428e+14
3.57107716738e+14
4.9988359144e+14
4.16942990536e+14
4.1474140104e+14
4.71023478672e+14
4.28299155122e+14
6.45325668878e+14
5.6546407764e+14
4.28404761736e+14
5.4725325072e+14
5.2083378504e+14
4.52167438298e+14
6.24498388466e+14
6.1212704273e+14
4.18309494306e+14
3.5130873444e+14
4.06178298258e+14
5.26390742388e+14
4.9516144668e+14
5.1108698932e+14
4.96503066028e+14
3.64721441732e+14
5.24685523304e+14
4.7888576018e+14
3.91222697332e+14
4.99664064006e+14
5.11503865778e+14
4.5695875002e+14
4.716492317e+14
4.87687824376e+14
6.0946742432e+14
4.7432283576e+14
3.49634944566e+14
4.5994264529e+14
4.8441446784e+14
4.22356102856e+14
5.1338747128e+14
4.5157625192e+14
4.89877401184e+14
4.42943861244e+14
4.4279841564e+14
4.99747864054e+14
3.69767898092e+14
5.331107274e+14
5.0978501036e+14
5.0419847638e+14
4.2463640738e+14
3.86756437678e+14
5.677125366e+14
5.5572525638e+14
5.7811399982e+14
5.9306807558e+14
3.3658026666e+14
5.60690636232e+14
3.8133315743e+14
4.40060097102e+14
4.50846642742e+14
4.9131811346e+14
5.38408633152e+14
4.35592307066e+14
4.54152842714e+14
5.70572347012e+14
4.3489507266e+14
3.9275963744e+14
5.06110828692e+14
4.6167314413e+14
4.87112485706e+14
3.73037732326e+14
3.86060374846e+14
4.948296543e+14
4.734007308e+14
4.0834855135e+14
5.1273832616e+14
4.42227863374e+14
4.15300460528e+14
5.0542168956e+14
5.93379339642e+14
4.75392394092e+14
5.0169845402e+14
3.96866929456e+14
6.2296749428e+14
5.38042439758e+14
5.44412641882e+14
5.62035611558e+14
4.5589770084e+14
4.37991758554e+14
4.2758485921e+14
5.1500036862e+14
4.32989251606e+14
7.28518928432e+14
4.86404093018e+14
4.39453035096e+14
5.53204589378e+14
5.4778480178e+14
4.81998762392e+14
5.6734035e+14
4.7644506974e+14
5.49222635476e+14
3.39462877864e+14
5.5387574578e+14
3.87946419386e+14
5.74788967256e+14
5.43094312e+14
7.36492501666e+14
5.32681184644e+14
3.68547503628e+14
4.24262714024e+14
7.5685492596e+14
4.27441310568e+14
4.04335975182e+14
4.3800447364e+14
5.75019650216e+14
4.30355118588e+14
5.2264318874e+14
3.4633212116e+14
5.284847936e+14
4.42762109112e+14
3.88637680242e+14
4.61368070734e+14
4.5860083056e+14
5.2779594332e+14
4.3183260086e+14
4.66791331284e+14
4.14130086484e+14
4.2327401198e+14
3.91572081836e+14
4.0950669215e+14
5.06120213022e+14
4.9086834688e+14
3.7831020162e+14
3.96293011554e+14
4.1363323908e+14
4.4336113628e+14
6.100736585e+14
5.9683799244e+14
3.816634173e+14
5.7968360074e+14
4.10996089968e+14
3.5489109362e+14
4.90985502294e+14
5.48138748432e+14
4.14353383464e+14
5.3471513802e+14
5.8946895614e+14
3.5843323669e+14
4.61847878622e+14
4.2705866568e+14
3.1214196233e+14
5.29340973128e+14
5.80800472962e+14
4.97601154554e+14
4.21363934704e+14
4.5320184522e+14
6.02969383528e+14
4.720574723e+14
6.1352971384e+14
5.3579645548e+14
4.3284817006e+14
4.96320755702e+14
5.4610827126e+14
4.51844620938e+14
5.2629046016e+14
4.8636375692e+14
4.56793426676e+14
4.8744348038e+14
5.19080175674e+14
3.6941566348e+14
3.6314714518e+14
4.74219662122e+14
5.52689583312e+14
5.3556200476e+14
4.80199021944e+14
4.7550969161e+14
5.0375083336e+14
3.7193494316e+14
5.5867972572e+14
3.27324813748e+14
4.67528919698e+14
5.27784684786e+14
4.839105134e+14
4.5172689388e+14
3.795813613e+14
4.2278773548e+14
5.5023251748e+14
5.72265416298e+14
6.049417376e+14
4.39151153736e+14
4.31120337512e+14
5.30106389904e+14
6.12387947468e+14
5.75610530386e+14
3.81204632576e+14
5.1716955534e+14
4.2939461102e+14
5.274610402e+14
3.780728277e+14
4.6989994539e+14
5.50728388454e+14
5.98750234576e+14
4.72195575418e+14
3.705778597e+14
5.75753642296e+14
6.64196557024e+14
4.77476839718e+14
5.38118689848e+14
4.73585756582e+14
6.25700088808e+14
3.6992038456e+14
4.78487643388e+14
4.08932556272e+14
3.3150542504e+14
4.91976684068e+14
4.5171735194e+14
5.09335924718e+14
4.3860543912e+14
5.40847732168e+14
5.24585074046e+14
3.43092200702e+14
5.22314125302e+14
4.6801776325e+14
4.16773298966e+14
4.74127929448e+14
4.0599083928e+14
4.82741916468e+14
3.8496724058e+14
5.87641557678e+14
3.7843285912e+14
5.523563413e+14
6.87816588172e+14
3.959360533e+14
4.32797350168e+14
4.5534826936e+14
3.59099280722e+14
4.6473671868e+14
4.3373435552e+14
4.21173180958e+14
5.2617404296e+14
4.3438036946e+14
4.7903680782e+14
4.64712239822e+14
4.04429797512e+14
5.2075818772e+14
4.632307053e+14
5.5766696336e+14
4.149997913e+14
5.7041977728e+14
5.295136178e+14
5.19783456024e+14
5.65860580206e+14
3.8140599986e+14
4.6363350216e+14
4.83816762162e+14
4.71879302616e+14
4.1776207648e+14
4.6374505436e+14
4.907041022e+14
4.8932290752e+14
4.9303676258e+14
6.2228181986e+14
5.5962967234e+14
4.4316916728e+14
5.9547957702e+14
5.64644759862e+14
7.0565525278e+14
5.9120513655e+14
5.589078493e+14
4.3306438072e+14
4.59921293856e+14
6.84654798124e+14
5.18137126652e+14
5.58495448086e+14
4.59631511968e+14
4.85794540014e+14
5.5372660092e+14
4.1403073664e+14
5.05576907088e+14
3.6734215378e+14
6.1680137321e+14
4.3219506976e+14
5.0881579022e+14
5.45440386882e+14
7.22154320182e+14
6.2699156306e+14
5.474146721e+14
4.76091032218e+14
4.169875811e+14
6.44305501268e+14
4.80503425024e+14
4.96381197558e+14
5.2293140509e+14
4.69611396022e+14
5.6673016032e+14
7.26010945096e+14
5.2409812306e+14
4.7442090795e+14
4.11608013984e+14
5.5276773594e+14
5.5612996015e+14
4.85200861934e+14
4.5992542936e+14
3.7766472832e+14
4.34739177068e+14
4.7230117444e+14
4.7076372801e+14
4.4892348692e+14
5.3597246388e+14
4.5247006463e+14
4.8895453116e+14
4.9047655252e+14
4.71902470024e+14
4.2934120985e+14
6.36402720286e+14
3.7058579764e+14
6.1790636368e+14
5.4230720264e+14
5.2120291978e+14
4.6794320269e+14
4.38702924572e+14
4.01981553358e+14
4.52983416842e+14
3.7541030538e+14
4.27707436596e+14
4.5774088628e+14
8.1009276794e+14
4.3416331152e+14
5.3109556614e+14
4.37047265852e+14
4.0010212416e+14
5.81924337864e+14
3.7742791832e+14
4.508457125e+14
5.8544274858e+14
4.2323925268e+14
5.3061521374e+14
5.0303916514e+14
5.21498739326e+14
5.0895330316e+14
4.557182945e+14
5.8536547142e+14
4.5507391982e+14
4.0787808134e+14
6.65888483926e+14
4.3635111342e+14
5.23778874482e+14
4.5666418854e+14
4.26720846776e+14
7.0432788856e+14
6.9844591048e+14
4.143309417e+14
5.70305438024e+14
4.44192571266e+14
5.98047732008e+14
3.78346541406e+14
4.788872653e+14
4.0532209532e+14
5.0979653606e+14
4.29292082194e+14
4.858189086e+14
5.01578436764e+14
4.7518188052e+14
5.306772752e+14
4.39218763192e+14
4.887051765e+14
4.0192517478e+14
4.4873539842e+14
4.96379648024e+14
5.11385817832e+14
4.2577177165e+14
6.41072752136e+14
5.3783972291e+14
3.69076031598e+14
4.4094053608e+14
5.48927530314e+14
4.8991769526e+14
5.26909375058e+14
3.64704922998e+14
4.3916394942e+14
3.90654334796e+14
5.7254772704e+14
5.46555450262e+14
4.2429058564e+14
4.84339601028e+14
5.9363358696e+14
4.6872091692e+14
4.98980784048e+14
4.88987427472e+14
4.4806093588e+14
6.1788523818e+14
3.84965988182e+14
5.1856997634e+14
4.9325241276e+14
4.5403761793e+14
4.67238726522e+14
4.76429634096e+14
3.7462215522e+14
4.81905048734e+14
5.2516244948e+14
5.36853723632e+14
4.9947584758e+14
3.64743171054e+14
5.1932234604e+14
3.7730547996e+14
5.719802899e+14
5.45574691612e+14
5.12117195206e+14
5.71226184436e+14
4.09722279752e+14
6.6217097935e+14
4.55669877406e+14
5.200632482e+14
4.83957265016e+14
3.57958706276e+14
4.08838600722e+14
4.23876613434e+14
4.7347000716e+14
5.2593217054e+14
4.6191736106e+14
4.8108498082e+14
4.43286049156e+14
2.92211548378e+14
5.2892674932e+14
5.6446776472e+14
6.3759705829e+14
4.84200656916e+14
6.1494169128e+14
4.9914806916e+14
5.3190682448e+14
4.39268999972e+14
4.93627187764e+14
5.97733351204e+14
5.372635028e+14
4.4039551596e+14
4.7072097472e+14
4.79817560316e+14
4.48715723038e+14
3.4695183076e+14
4.6733096664e+14
6.0840026755e+14
4.25633859866e+14
5.78933331792e+14
4.02230717138e+14
4.7319863878e+14
4.00560809176e+14
4.2339627207e+14
4.0430227666e+14
5.5286331098e+14
5.38310166266e+14
4.41292357e+14
4.6911001974e+14
5.16023219854e+14
5.5045446704e+14
4.89658291352e+14
4.304706035e+14
4.02746205004e+14
5.81331391136e+14
4.9799824148e+14
4.211141494e+14
4.855166794e+14
4.37444658284e+14
5.1147407596e+14
4.033813568e+14
3.8088993102e+14
4.997137301e+14
5.32352496858e+14
5.56550603136e+14
3.90747576882e+14
5.1149822442e+14
5.77481984908e+14
3.6853029886e+14
5.3641206005e+14
4.4274000086e+14
5.61588988752e+14
4.2553275715e+14
4.81298171466e+14
5.1392718844e+14
3.89801846074e+14
5.54536568e+14
4.90815139752e+14
5.0583074676e+14
5.76314729742e+14
4.3043167224e+14
4.89289341778e+14
4.78077716482e+14
4.4435863248e+14
4.02467534592e+14
5.8688916896e+14
5.0874904438e+14
5.8505046128e+14
4.30941605186e+14
3.5085493582e+14
4.0563567658e+14
3.3367260098e+14
5.750625733e+14
4.4940649402e+14
3.8964665412e+14
5.186422149e+14
5.23738758706e+14
4.3567204396e+14
5.7662288511e+14
5.116630492e+14
4.47051975174e+14
4.21734065516e+14
3.6644001382e+14
5.1661810514e+14
4.70814997203e+14
4.1166777476e+14
4.46407675358e+14
4.237836356e+14
5.60229228388e+14
4.3559706956e+14
4.48806939366e+14
5.37022716222e+14
4.19150368976e+14
4.8921705904e+14
6.92155527446e+14
5.47337793888e+14
5.23728565526e+14
4.8366540766e+14
5.1773960278e+14
4.62934296326e+14
4.92930176588e+14
4.1290856702e+14
4.9789165804e+14
4.9407734536e+14
4.50370151362e+14
