-12.9664588
-16.2982848
40.71711606
-34.1592726
-1.7181573
29.7697657
5.49473828
-10.612677
-4.0733849
1.0073509
-20.917753
-2.25924705
2.5475149
-35.9820591
6.2064775
19.3915885
-37.0728619
-17.2982155
4.61630725
42.9975196
-26.7397552
30.69975152
-14.729616692
25.7650778
8.4962688
-2.85658956
15.7741512
23.2207949
-5.7058811
28.4464386
59.41018296
10.910819127
-13.393095
15.50204
-17.748955
-13.2620402
-19.0172608
23.96696174
15.1862159
-10.4781292
-17.916017
21.17889544
-5.2269427
-6.8036769
12.1813354
36.1981478
14.5294481
16.38105949
-56.83472
14.9653036
-29.5864415
42.764629499
-26.6074727
-14.6584996
2.5343639
-28.2722159
-10.311986437
3.6575607
41.2136568
-35.62775812
19.8217631
1.8873758
-9.04495272
-3.48651161
9.7528238
-22.440107
11.30085467
15.4863535
3.221323
35.1170894
21.9728544
-86.5221994
-34.2801241
10.7160091
6.9330453
11.4366362
1.5512796
15.6523598
3.71745511
-31.2942665
-41.57095128
41.6449039
23.4634417
1.0377459
18.3255427
-15.9275507
-7.0200661
3.2372607
5.0016561
-3.162873
-38.08440671
26.5656302
30.0356051
-17.6953352
40.99391805
-43.1263477
-41.5638921
-6.1621366
-1.498523
6.4018968
18.67892181
-31.87362693
18.631911
-9.5943449
-36.533872
12.5157408
-20.7976577
-20.4418077
13.068914349
-5.6870243
9.57749143
14.7684257
22.78534697
36.57248695
-16.42712356
34.6924198
-3.4777034
-35.36167101
35.8404013
13.997676
17.03426564
-9.48688148
-45.5881069
9.63278019
20.2420581
-39.5746692
24.7325018
9.2987609
-17.9638215
-2.5424742
8.7891763
22.9468851
-28.107586
-47.9181008
23.216111
3.7884694
-5.401032
20.1699989
-8.21226541
-11.6082033
63.3418877
-31.4224606
4.6661963
-24.0802529
-5.9038475
33.0668943
-7.3407545
-12.39571262
3.9237969
8.3930878
-32.224871
26.9425162
34.0664225
-4.4185087
-19.2518723
21.53892029
-12.4577586
24.184654
1.28698519
-6.0636627
-8.134291
3.51646721
82.3816176
19.1414093
26.55575724
-11.15961671
-11.2789097
-21.9505323
-45.20871677
-17.5506247
13.74192546
9.2167133
-10.12646618
-17.0088473
-17.1176561
14.8565218
-25.0737347
-17.7848241
-13.7211262
35.81308169
-7.489973
8.335539
-3.31737267
-11.5956297
55.18430069
-6.4989491
30.2186198
-0.9041771
16.14160927
-8.41903083
17.4049721
33.08135418
17.2241491
-24.8401488
1.1406604
25.15899002
14.855038
-4.7158651
-5.2083242
6.7933191
-19.243782415
48.5484672
-33.6686141647
12.8887763
-8.5195201
42.760756
-11.3933589
44.95057059
-1.8716523
-10.5777655
38.7811937
34.95473928
-11.8680351
0.6634627
-26.88512604
-23.05897216
26.26080951
8.48445415
4.2072165
17.3513199
-24.5015758
-6.8498515
8.05884112
12.9646642
-5.08514321
-18.2653502
44.2737904
-3.40217623
-2.784344
-20.089217
2.06410701
16.3920857
-16.9691237
-7.9693304
-35.1404549
-7.1185274
10.5404037
38.1727455
-1.7485357
-16.00659731
6.6832097
-1.9204091
14.47360719
12.3556344
11.5263439
-9.2090425
41.4888751
-16.8996504
-17.1531152
-18.67467662
