-0.9148175
-2.557927452
-2.1063654
8.4626008
-0.0242707
-9.99726
-9.8026856
-21.006835
9.52395864
7.6368503
-23.9112958
-32.90363483
12.2886871
38.73916809
5.4386095
-0.1249937
-2.2191561
12.95195845
16.2489583
24.9509934
-4.2163249
5.2143052
46.9977874
-14.1549554
-5.5478081
-9.0802755
-12.3394274
-0.1262735
-2.9855147
-31.6173969
31.341032
-1.9719576
-10.1004702
-2.5349285
9.02398491
-26.87865431
15.8963499
21.998315
50.5987054
-6.8921063
-26.84070166
-17.5873114
10.9614117
-31.4028496
-34.87007
20.14585855
9.1758288
22.5176918
7.7737771
-8.78730649
-1.3562816
-15.4135183
-41.0086556
42.8083647
-46.1935849
-10.846987
9.0728933
16.0171608
18.521056379
13.0343841
30.11218787
-17.37057231
-9.5064958
28.95041
-34.38875234
30.1048244
-0.23975361
-51.976426
-18.29484359
-18.741186
-32.2793257
0.00297446999999
-1.9065183
14.1138627
36.82462871
-15.43349732
8.4872935
22.005857
-16.27705156
-14.3438806
-18.9677603
37.8392692
20.2311549
10.8153971
-22.58474261
8.8209821
20.376316658
-4.4880754
9.891758857
-33.226706538
-0.5988746
16.221137971
-25.1356416
1.4601961
-28.51071151
-7.5770804
-4.64795122
5.2208918
-23.7848599
-18.74670279
2.90994119
12.4805929
-20.282188
51.8109625
20.792394
-7.83039357
-55.0674462
57.4444421
1.4408362
1.8359445
5.8543714
-36.6977503
-21.0003248
-13.9051835
-9.6584844
-2.9090501
-19.3305883
-16.0238972
-0.317607859
-39.9266388
29.00777995
-6.1428209
-32.5885401
1.5547154
-10.9451462
1.6837702
30.5004202
11.2213129
30.7047869
28.30218749
-2.2440702
46.1822409
13.6878349
-3.00092974
-5.9343079
21.3913094
0.775802
-14.6965748
-39.0390886
6.9147041
24.0894546
-0.5884561
-20.42678817
34.94199395
16.799102
-38.0791696
-10.3100512
-23.66393328
5.53810812
-34.1656956
-23.1267417
-17.8607113
22.91763798
8.8184579
-18.9485894
-53.55341405
28.67781059
-34.3196209
19.72802086
-4.55737168
25.9738657
-3.4246696
49.39933
5.0329619
-40.6335868
-16.1708451
-38.4964424
38.0564894
-25.45865105
-4.3230236
19.775186
-25.19132428
8.7436013
-4.3963321
36.5776381
25.73879445
36.065036927
-38.5796343
14.1633166
25.8345491
7.4153528
-18.31325579
-13.366544
-23.070551
-37.03073847
17.6731109
-17.80044
-6.7285625
4.9141526
-12.25644078
-14.61814023
36.761716
-22.5408093
9.17510429
-39.6150583
-36.25059463
31.83825047
23.1913133
24.087735
-0.4137451
34.7292671
-6.9543046
-16.2427634
8.5354905
13.4150312
42.7421701
14.999563543
-33.4991285
8.63315908
2.70400199
42.73458073
38.349754
-33.6636057
45.2543168
-4.417371781
-49.6797737
23.52696687
-14.0062106
9.2619305
-24.0905543
15.1191795
-10.7727821
3.88933077
-11.96898848
-15.2634973
-29.4248991
-16.0054727
11.4055593
-35.6736066
-10.1824235
-16.7290273
-2.47050354
22.57108837
13.6176439
-21.8681248
26.5215527
-18.94740941
9.24512633
-36.6671355
-13.7170115
34.817985
24.5753763
41.92261679
25.0792437
13.2998969
-0.84061099
26.6879397
-39.036443703
5.528925
-20.8329187
