360335821.5
64801750.0
-443604860.0
-3550273.0
-101410570.0
570389944.0
522757600.0
-911927700.0
4905305200.0
12224532000.0
461755048.0
-2408776101.2
-176478876.0
-100041421.0
-201643570.0
41811129.0
29061267.0
-165152903.0
-2903027000.0
-454341329.0
87094440.0
-350742136.0
92626811.0
261949628.0
60532840.0
538038457.22
184463470.0
-164019310.0
442367011.0
1138194057.0
203979737.0
34725090.0
-1221023400.0
86952530.5
-229908129.0
125696620.0
-9373999.0
301399561.0
-136233935.0
-928388450.0
-1256615700.0
-531292330.0
40749932.0
-464845020.0
47483871.0
1329892700.0
2896405500.0
1192172940.0
1978257470.0
212070610.0
75861711.4
-185991740.0
3927786316.0
1434830270.0
1323373900.0
-1550167860.0
214626978.0
279174626.7
497947250.0
212480180.0
139617500.0
151806500.0
-31648840.0
291238362.4
1930777000.0
-12365720.0
-614516880.0
277196802.4
1373759464.0
1333899300.0
2325344790.0
-89877330.1
-296762520.0
-324629450.0
-313360800.0
-383215255.0
58119745.0
-167865428.0
-424514580.0
-4149764600.0
-392291190.0
-1130458400.0
-723327333.0
-350180900.0
-208168457.0
108266800.0
-743237170.0
-628706484.0
-97307814.0
-631872040.0
64595148.9
261440186.0
-337775310.0
-755254440.0
-621773890.0
-476180710.0
667597430.0
-496281160.0
2637934400.0
462351416.0
-1022637080.0
-803170090.0
3657090.0
427229570.0
282853820.0
-46415199.46
-2078710.0
95908680.0
180027050.0
194650280.0
166594600.0
223024850.0
-71446901.0
-394294080.0
680945018.0
195976325.4
67361954.0
693396550.0
84540532.0
-459240619.8
65561620.0
55390600.0
126262000.0
2236672190.0
863421597.0
6090796.0
-301886325.0
-503574540.0
428456893.0
-55804649.0
178946406.0
291214360.0
111122037.0
111162584.0
239270.0
-94638230.0
374368720.0
74617522.0
-41440600.0
678061180.0
94320908.0
102101454.0
285687100.0
135122450.0
519277186.6
2569209490.0
10865310.0
29031953.0
-750214560.0
-5776901610.0
-822547789.0
1984303500.0
540438250.0
164695138.0
272269040.0
512149680.0
536331490.0
1361335851.0
-122992280.0
611281540.0
-86600370.0
107410407.0
324055770.0
54786377.0
-727784240.0
-349069670.0
225645127.0
-96844154.0
7443220.0
-700149200.0
114233359.0
-69774775.0
989738732.0
622912500.0
-9464435.6
-178916570.0
62064730.0
711830700.0
204939649.0
-475401700.0
23622490.0
83906323.641
11157710.0
62407651.0
870347280.0
-1940687100.0
-462990840.0
39138300.0
-1554384050.0
-1332746500.0
636470196.0
541840210.0
676734340.0
1790349300.0
54171890.0
77664620.0
160130409.0
-208188000.0
-219487880.0
-1007210140.0
74339815.0
659785000.0
-688579730.0
311391546.0
39864043.0
274165960.0
71011570.0
69981960.0
-1346079090.0
-112119179.0
-68591172.0
-412404100.0
-1386823100.0
-1894541710.0
-27975414.0
717888270.0
1081322700.0
414995794.0
-520132300.0
-1911067450.0
-27926522.0
759402094.0
165517300.0
534358200.0
526184270.0
94686034.0
-796415755.0
125560590.0
-379311253.0
118860809.0
92846365.0
408204732.0
362242990.0
-971858000.0
-706753020.0
182695997.0
-44652680.0
530077980.0
-22714515.7
-324878022.0
-577297810.0
-196570050.0
180334800.0
3088110080.0
101529172.0
-71202200.0
-228251205.0
-24880450.0
936543090.0
300685940.0
-19922244.0
32602600.0
645123610.0
497085332.0
-540601530.0
-18627730.0
280764340.0
191814350.0
1353954300.0
268863336.0
66067610.0
1631419080.0
409718780.0
115471080.0
-129134700.0
209106530.0
-473160190.0
-301781400.0
458350490.0
382822345.0
1267664640.0
25506414.0
-45399309.0
159265350.0
217379780.0
1791505310.0
397815760.0
-166515614.7
-349052299.0
-131379467.0
477728650.0
1016576653.0
909637950.0
-118467462.0
-112935077.0
-93667350.0
2872620100.0
680195100.0
-299503345.0
42559470.0
142232729.0
-108684100.0
-454512990.0
290731196.3
1855255200.0
338151610.0
855255630.0
301660410.0
2196890100.0
-336473660.0
526888670.0
-886399114.0
-3036631600.0
-749262680.0
-44064113.0
51990775.0
-107490166.0
-75458190.0
375790670.0
27845121.0
226278400.0
-32505502.7
337675560.0
-29493644.0
-322018630.0
147253562.0
-266677079.0
-215033259.0
150166759.0
317055580.0
583335140.0
309571730.0
-84321327.0
-405385150.0
-180947091.5
-230123850.0
79460901.0
-106165000.0
-75321760.0
-512666950.0
-1186304810.0
845029910.0
-258212240.0
1041910340.0
-18294906.0
26911611.0
-64293384.0
-48446966.0
45916430.0
-6494832.0
-445805329.0
19961792.4
291340786.0
-275051690.0
1164427330.0
-39645806.0
918874720.0
-444207160.0
189901488.0
-567028480.0
22985770.0
-13605470.0
42796077.0
-151515443.0
-433503992.0
-71110563.8
-48547594.0
-56115887.0
1058223530.0
43143584.0
23870297.0
10485826.3
9055325.0
34035190.0
119385905.0
513021830.0
661596100.0
109189750.0
963546670.0
1201965990.0
265570050.0
581592546.0
-182255240.0
453580260.0
126989509.0
-39458966.7
-885627550.0
407689142.0
546690000.0
416312250.0
-14875922.0
271691660.0
-386140080.0
182630294.0
-9719770.0
-533332230.0
-342135170.0
1027207490.0
490281170.0
-1091860375.0
-180845080.0
-1307296980.0
3083596100.0
5049992700.0
931762200.0
-1662843200.0
-567770630.0
-309627930.0
1477111870.0
89710610.0
34253378.0
-273476922.6
592169610.0
-533798740.0
-168033140.0
214195081.0
-54056578.0
57725674.0
114274604.0
-90421010.0
-263951200.0
717410810.0
110059550.0
-192845250.0
180469700.0
892861050.0
340040680.0
-105134250.0
592891148.0
270883835.0
4918137700.0
503755507.0
-310232520.0
-3426805259.2
-106186834.0
90455666.0
99926033.87
207583069.0
-48790870.0
193545970.0
371022590.0
-358079414.2
-350342865.0
-544421500.0
252832204.0
-14861246.0
-129631.0
384567500.0
107705243.4
391140980.0
590620200.0
-223188990.0
67865920.0
-63492080.0
-859449640.0
-2650181890.0
398089600.0
1412997300.0
-1259454000.0
-476279750.0
-45583710.0
704706070.0
-219799833.0
263438170.0
1282041000.0
1277694800.0
704461000.0
-223452390.0
70934970.0
132654165.0
-144773871.3
-594759761.0
-371403550.0
2022536800.0
1250889620.0
704473400.0
-274671300.0
-214126550.0
-8243794.0
-99349620.0
498179300.0
999958533.0
1197445797.0
-652381040.0
-44263438.0
-183597990.0
-60149320.0
192959390.0
-1813623100.0
-940028138.0
164136780.0
163720170.0
-1539214030.0
-547299757.0
-332005040.0
111910352.0
419666380.0
843856300.0
42973220.0
-807352200.0
-13861409.7
-120320848.0
-78261691.7
-202690440.0
-274264060.0
-2433373300.0
-1576559850.0
-92320843.0
1296501000.0
134905014.8
-660202961.0
-2722665900.0
-1293956110.0
616932940.0
282634500.0
-134038960.0
-60578770.0
-92060530.0
-187747287.0
-106521780.0
-192119999.1
-427329670.0
-935432440.0
302474179.0
-39341670.0
4053158000.0
1559360450.0
-1025624730.0
3432035800.0
451768180.0
579141430.0
42446170.0
685010587.1
163367192.0
1125823900.0
457158510.0
-121914460.0
727501900.0
887702700.0
-649117046.0
-1324797670.0
-58902842.0
287918740.0
-1697226910.0
6042260900.0
1539401820.0
-388290167.0
-5621447.0
-689018623.2
-129851200.0
759806010.0
-361670680.0
-2548904800.0
-1375413160.0
245220650.0
1239028850.0
-27399110.0
488943310.0
620629890.0
545856780.0
-73707320.0
484128880.0
1514208150.0
3900555920.0
184265821.0
-278757010.0
-253134135.0
51275589.0
775931487.0
-145203100.0
154479746.29
717979017.8
1633545400.0
858289000.0
3352773300.0
779436350.0
63166750.0
-925558500.0
-193494890.0
-31244098.0
241969666.0
-119359275.0
-72698133.0
-114137180.0
-629816290.0
235315497.0
-361968260.0
298309000.0
-188691515.7
79445430.0
1142750771.0
-2372824990.0
149058700.0
3532901800.0
1001435590.0
161571166.0
-114841530.0
104695635.1
66860985.6
728011810.0
-569118630.0
-610135510.0
-34065636.0
-221509715.0
1380376320.1
749727950.0
-2322905100.0
1127177890.0
-296211360.0
-26609540.0
-158467880.0
-557878430.0
825584004.0
-239214470.0
220001780.0
83824520.0
159991467.0
605655923.0
356968258.0
40281651.0
972066829.0
370416752.0
324465886.0
-67144580.0
76786398.0
-671166710.0
-136092961.0
-781935920.0
-452530720.0
239910444.0
654702068.0
1457791830.0
4418902000.0
528330384.0
347813776.0
515546310.0
1976074330.0
-35358292.0
395353030.0
359628610.0
-1294476320.0
-168015840.0
601953390.0
-22028235.0
-97328210.0
-299982447.0
-210379240.0
-208242067.0
-64059682.8
1528501400.0
553936306.0
768651400.0
-189626030.0
404623590.0
226526095.0
-259913500.0
-579937130.0
1216635700.0
1625115750.0
733388700.0
903390208.0
-464048024.0
-115784220.0
33040910.0
-1549531050.0
-1777045130.0
22387500.0
-285251540.0
111381088.0
68060280.0
86065800.0
-124492450.0
-91058727.0
217058380.0
2137217200.0
293901530.0
-93781644.0
16400319.0
-64715513.0
909320760.0
34390358.0
-31929477.4
133637801.0
-103894790.0
386451520.0
445179590.0
42560381.0
16517660.0
188800580.0
-223475950.0
64646740.0
3523901.0
544914774.0
-433038790.0
160951570.0
56436139.0
30379158.0
-107029370.0
274901511.0
9713157200.0
6617996200.0
89758315.4
-87337333.0
-13261912.0
154505990.0
-97119838.3
48715040.0
16575229.0
-517368230.0
-206611960.0
-341770040.0
720254500.0
-597243120.0
-77276280.0
-46692460.0
-909161680.0
-23640730.0
181176730.0
4524874.0
444029990.0
-119677256.0
-38772333.0
-2513261100.0
-3936046267.0
95108300.0
62726000.0
-606130467.0
-71220668.69
727039190.0
1153791900.0
288601140.0
742418677.0
-24148510.0
-124323990.9
-32881656.0
-117795480.0
259878100.0
490736590.0
-387055320.0
-411117500.0
-162713530.0
-245752950.0
-96705250.0
114428103.0
1605348730.0
937667160.0
19181510.0
-813782774.0
-1039333452.0
918899180.0
422314100.0
-181695255.0
876887440.0
-551593452.0
-886507690.0
-226245790.0
569369211.0
-570740719.0
-321755466.0
-766378600.0
536487770.0
-49928080.0
731662760.0
552407307.0
18719716.0
-144488260.0
-183932670.0
-523757470.0
-1267375600.0
-858288250.0
-1286701600.0
-148174760.0
2090009359.0
-1651813012.0
-269013225.0
-497124260.0
-1135377810.0
1152929600.0
-50443760.0
-1248536040.0
56143365.0
97837806.0
-205136744.2
-1377430920.0
228550.0
-68722060.0
66695128.0
724749167.0
41730590.2
-136764317.0
69504810.0
46501359.0
-37130324.0
-1364550520.0
-1334463220.0
-257165640.0
116633610.0
639435790.0
964165.0
1196741533.0
637167980.0
216632217.0
-652577500.0
969410.0
756782500.0
-59456700.0
25890390.0
-306371685.0
-114851330.0
-21203070.0
19519692.0
-16883295.0
22365167.0
-267650151.0
141526170.0
779810290.0
87085124.0
-103466400.0
-333261443.0
-215180885.0
255777923.0
11635471.0
-118253920.0
-327476324.0
-50877381.0
-253629290.0
-43082320.0
-1831321040.0
173052570.0
-132217386.0
-71213995.0
-158392130.6
1806566164.0
805985105.0
87826365.0
76539570.0
-224960820.0
1222873299.0
407591272.0
12616450300.0
-162624210.0
-1415875220.0
-174977065.0
-175539860.0
-524586678.0
179977681.0
588127490.0
1270207860.0
-439503080.0
-662286843.0
-1419086700.0
-59716500.0
-245747190.0
-170574912.1
-51290153.9
-1931161100.0
-3086746490.0
-2416769260.0
-335163783.0
128678330.0
-406920610.0
-278568980.0
-1818302620.0
-66625813.0
-718866418.0
73972400.0
696817820.0
682296133.0
-57298660.0
-593136000.0
-592808699.0
-66303337.0
86316961.6
-17726640.0
190849640.0
-24592853.0
49438650.0
921936960.0
-85388500.0
-102351860.0
191593740.0
-72193880.0
-102873110.0
133534140.0
241110350.0
-241530170.0
176556171.0
-114354600.0
544872859.0
-186623210.0
179319646.0
-338145495.0
-885105500.0
73003590.0
-202024760.0
-934633910.0
-531414233.8
100525550.0
143783161.0
-1077822409.4
-2659138600.0
-114043581.0
-228612420.0
-2395292064.0
-5738437900.0
-1416567376.0
-1391188190.0
177037625.0
321736190.0
-102467565.0
129460450.0
92473980.0
-192704377.0
-699980730.0
377849700.0
-729348020.0
310075528.0
1022873880.0
13136230000.0
3516292800.0
-2477600050.0
-100352150.0
95897584.0
132520320.0
-77365690.0
190721490.0
-698360900.0
-73317695.0
-78652840.0
10016935.0
-4064786.0
-350403030.0
1351297700.0
-1401034759.0
139191630.0
-180216823.0
-1449505050.0
196287645.0
-593075695.7
-1714290460.0
-204057640.0
-198661570.0
-16804981.0
-270621670.0
15309192.4
-53243753.7
-140264930.0
-68231050.0
278400779.0
38094193.0
182404190.0
-255013527.0
279850340.0
34777965.0
-40488950.0
151602250.0
311838466.0
32855960.0
-25129730.0
-47691345.1
104501096.0
-125116776.0
750276900.0
-215851090.0
104118704.0
67090650.0
377129180.0
50752245.0
-228579233.1
251821949.0
73012338.0
-312574503.0
-853375400.0
915864000.0
119821260.0
119048801.0
481136367.0
170636756.0
1056933280.0
1431575540.0
-20265257.0
-146522940.0
162221542.0
2766178600.0
-213788295.0
1353960005.0
750972510.0
404427070.0
-59516540.0
-62947490.0
203775170.0
316768850.0
-237827070.0
259530340.0
-62188954.0
-141761020.0
196742304.0
1265971046.0
3088987200.0
803240140.0
-923761480.0
-1254305410.0
955084610.0
-59850979.0
-85216000.0
77296385.0
-26246931.0
81053383.0
38215960.0
-126361394.0
