1338.68
2571.41
1340.45
5938.2
7778.32
3633.15
1561.51
7452.43
4522.83
3342.96
3466.25
2938.69
3936.02
9399.87
10067.6
6692.3
-1131.45
2987.55
-82.2079
-1948.23
-1304.02
8258.6
175.688
689.096
1796.24
1919.29
1745.05
6322.6
2709.44
3699.95
3466.68
2111.23
-1299.03
1657.93
7443.79
8354.57
7262.57
-2152.09
644.031
4545.28
2842.91
21.3788
596.685
9963.08
7798.78
11331.7
7143.02
10743.4
14061.8
17032.8
6976.27
13467.1
5894.29
1584.76
9463.03
4914.32
17708.8
12194.4
14558.2
10571
6139.75
10999
2288.31
5037.71
1634.75
-8165.34
1301.98
-3315.22
-1053.52
-1751.97
2538.54
10392.9
10822.6
11177.2
5660.66
6793.62
5121.58
1407.94
6088.46
7549.99
4361.91
7192.32
9648.95
15607.7
24078.3
25161.4
38312.4
27492
28715.9
7805.1
-3358.27
551.141
8108.63
10321.4
8010.78
1415.47
-1800.86
6485.12
8130.78
13323.3
17755.5
16157.6
12425
6802.84
3775.48
3046.65
8275.08
6734.44
5553.31
-5855.12
3273.92
787.09
-1555.31
6758.56
4925.11
17159.1
34412.2
10798.7
11201
14178.4
16402.7
19729.1
13599.7
9282.89
799.938
2861.79
-320.172
-224.134
4920.63
961.467
-431.136
4208.89
2290.82
688.409
6293.05
3511.57
8602.04
3219
4020
5723.16
14355.6
13556.7
11250.7
5836.52
4401.56
3012.27
3750.18
-340.35
1982.58
3088.46
4918.19
4760.49
5804.57
7977.44
12507.3
6669.59
14918.4
9777.86
8017.96
4740.77
10517.7
5405.23
4723.78
-2294.95
387.398
-1273.44
1330.16
2466.7
7287.07
9958.36
1543.74
6486.48
7790.76
3892.68
-320.437
1313.25
2278.11
443.53
3128.87
6915.88
2998.13
-771.646
-188.98
-3768.62
5048.66
7271.28
5008.87
7190.1
6615.78
5196.34
2936
1480.89
6059.81
3391.05
-684.763
-750.514
-1505.98
1747.25
2177.43
-1529.85
5282.83
366.328
1837.68
8306.87
13755.2
17342.1
24200
39340.8
25795.6
21779.8
12702.7
16080.6
13453.2
-54.3803
317.674
1989.87
2262.44
5340.96
5244.85
12088.7
5981.09
9411.71
8827.78
3478.03
7804.68
1979.36
10489.8
7808.42
9919.96
13539
14577.3
7745.16
3660.11
1093.06
-432.155
2721.96
-2899.88
4638.88
687.959
4115.39
14455
5359.51
7746.02
252.66
6859.8
10644
10252.3
11111.4
4668.48
4015.32
-2961.04
702.571
1596.14
3031.94
2947.83
3553.49
739.538
7681.35
10826.7
7238.85
12969.3
16369.3
14376.7
10241.5
2909.5
971.682
5559.03
4426.31
4127.8
3281.35
8988.77
9013.3
21424.5
28791.8
17545.6
12110.4
4918.43
8733.32
3878.44
4961.88
3323.17
703.025
1654.06
1046.61
4750.15
231.266
3759.86
18419.4
7437.32
9283.93
3479.05
4595.06
2283.08
2850.71
1964.8
163.796
-417.188
1483.93
12662.1
6736.77
3150.09
-1408.7
166.39
2965.68
14791.6
13473.7
15140.1
20533.3
567.29
212.512
6204.74
10393.7
3804
7626.87
4819.59
3181.79
1556.14
9126
11939.9
7001.98
6166.12
5119.87
3701.09
5757.1
5749.09
-2749.45
1488.06
3379.61
2416.31
4647.69
911.967
761.423
381.291
545.53
869.307
1749.28
1801.75
5037.44
2297.84
6717.68
2018.55
426.515
-3491.69
-1996.54
-1227.47
-3159.71
-312.172
1688.21
7868.2
13672.6
2670.98
3542.95
2072.66
2651.4
1529.04
5880.53
2911.82
394.66
2908.99
5549.08
-489.287
78.881
-692.635
2303.23
1423.46
-875.562
3418.89
14199.5
7504.11
10728.5
3315.01
5504.57
920.983
8130.79
15542.5
13321.4
20837.2
15637.5
12501.3
9799.64
7981.08
-319.201
1192.36
10922.3
8166.84
9138.24
6924.06
5083.71
2164.81
5251.61
11022.9
5137.77
-167.233
3278.75
8442.34
3234.34
1362.48
-1010.66
5075.14
4528.18
-4077.71
3881.02
9625.29
-93.5981
-2116.41
648.736
7309.03
5606.07
9326.75
7459.03
5396.76
-391.217
-6649.93
-5017.72
-5520.55
-2292.63
3695.26
3208.79
1110.83
2388.32
7322.4
21644.6
29282.8
13226.9
17562.6
13261.3
9603.74
24242.2
16182.3
6210.27
35663.2
36382.2
17428.6
5746.69
3173.67
10130.3
-73.6103
1471.11
11662.1
5928.81
3392.08
251.256
7300.6
3186.19
145.506
3702.57
11131.4
25816.4
22692.7
21572.6
6565.62
10481.7
1997.56
3792.54
-1153.45
5368.29
4678.67
9741.33
2507.94
4968.29
384.211
3201.58
2062.84
4086.46
3447.55
2057.36
7832.63
12182.5
6664.31
6841.98
9747.28
8740.41
9313.4
2234.92
11091.2
-1891.88
-393.42
3415.85
-497.759
6457.38
2997.71
-1860.69
2681.83
6451.14
-2510.46
-1232.35
-1139.44
12738.7
13302.6
7354.92
11712.4
13722.9
2797.67
8989.75
11713.7
6113.25
8719.48
22577.1
10264.3
1904.29
5416.72
9255.87
8190.49
21310.9
13544.7
13071
12897.1
13239.6
8611.32
1170.45
5638.65
7416.4
12291.4
9551.06
9809.67
4301.38
7890.81
2350.52
2331.89
5524.59
1719.83
-534.815
-183.248
4352.92
3722.92
1055.93
-2763.88
2216.91
-840.048
2079
-2453.53
-2076.07
12947.8
-484.997
2612.59
269.796
9697.17
3637.86
15834.5
16843.4
24134.7
6087.7
-641.438
5602.85
5672.76
3937.41
-1929.38
4391.92
8859.54
10886
16811
14873.5
11872.2
9828.54
5006.24
6432.08
3317.76
3470.42
12504.8
11547
19979.5
22046.3
26085.2
17768.6
6321.08
5636.84
2137.88
221.06
6413.86
4843.28
11912.5
14649.7
26185.3
13795.4
5249.7
3356.65
2720.85
-2992.04
-1105.41
-1626.46
-3152.59
5247.36
12638.5
8272.64
8564.24
2087.41
1879.8
2652.35
651.799
-361.946
-170.264
417.591
821.093
6418.54
4104.14
634.605
3217.89
4530.41
102.048
467.55
1470.14
-1356.2
-1352.35
-86.6121
6208.67
2975.71
7587.23
17647.3
17456.7
24833
8051.52
2204.12
-4283.75
-512.981
298.585
1896.22
1761.41
2157.17
83.2013
2885.08
9045.44
-1075.77
-1422.8
-945.326
4429.45
3147.74
14478.9
11556.7
9190.99
4249.94
5234.91
3894.58
2814.04
1306.66
-2321.27
2472.09
2378.32
2437.22
4254.68
923.942
2158.13
7515.78
13481
9036.16
-1314.67
1781.94
867.368
5809.06
4970.53
8958.98
7638.82
12582.9
8990.8
6552.04
1486.45
10389.5
4250.51
2248.72
4075.23
-5322.7
1001.2
516.299
49.2437
6254.67
3318.21
4021.4
2209.71
-1610.88
5875.04
19162
15905.3
17801.3
13015.4
9357.7
-409.11
-2234.31
-1552.48
594.391
-1077.86
6627.65
5192.07
4397.23
2337.36
2509.01
4559.98
9948.76
1913.55
3267.72
3658.64
8716.31
24357.2
17208.6
7410.35
1770.38
2769.79
1644.91
737.988
4114.49
648.823
9961.8
11725.1
-2048.54
-1568.87
-370.408
6020.48
781.169
-272.143
-1737.16
4452.11
4135.58
10290.4
5268.01
2137.98
395.528
2408.13
7601.55
111.45
1617.53
647.778
-4452.36
6884.83
4416.78
11224.9
1642.41
-2979.98
1444.45
-1381.37
2814.51
8537.74
1920.86
3403.85
15460.8
14620
8538.27
9567.72
4193.79
6983.6
4812.62
13.914
0.0548251
10960.5
4621.02
4258.88
1182.26
1958.71
1893.28
3528.93
2378.81
8923.64
8821.7
5244.07
2659.58
-556.174
-1572.32
-4303.88
7229.88
10990.2
15785.7
5423.49
7628.9
2425.74
-2742.1
-2295.58
2600.98
-338.33
3921.28
-611.991
981.492
2528.33
9613.08
6982.15
-454.638
1513.2
-1470.82
2462.83
1118.76
5796.26
5012.88
20843.1
16345.1
8350.87
5388.04
3038.06
409.977
-5077.6
645.225
3395.81
-547.851
2870.78
1447.06
2304.1
3977.05
8460.21
7821.05
4595.15
4596.7
3465.6
2900.31
-3880.38
-419.934
-840.194
1828.72
6973.36
16915.6
10871.4
10387
16844.4
7332.47
6930.23
4932.92
7012.64
12027.3
4548.31
-157.416
2746.15
7025.18
15931.4
3928.96
1006.78
-3470.18
1158.76
-1179.1
791.889
2082.44
5349
7117.2
2939.83
6313.56
10548.5
14595.9
13703.2
12460.4
15238.2
11361.2
-557.954
757.365
3067.05
806.082
904.588
-1807.15
1613.35
491.296
-1312.18
-383.733
5483.14
6739.31
17785.6
14258.5
8239.67
11644.4
5004.32
13887.7
8045.92
10072.1
16186.5
9485.76
10589.2
12857.5
12672.6
6845.93
5419.47
5299.74
5029.73
4332.32
6764.89
1265.83
-697.178
2474.28
10378.1
5234.84
20852.5
21857.4
14689.5
14869.6
11367.1
18597.4
21431.9
31773.7
12472.3
9655.54
10730.3
14733.9
10587.3
14945.4
2679.91
794.329
2469.78
-5883.19
-122.996
6078.2
-4714.41
5541.18
-533.473
-1290.56
82.1839
-2731.27
-1612.28
3407.22
986.227
4895.67
7823.39
1014.77
299.874
-497.204
813.661
-879.134
324.349
2111.02
-572.797
2572.16
286.965
-2336.99
-1069.18
-487.035
2830.62
3687.25
1930.59
1554.63
512.504
-505.253
-6711.33
6732.14
6999.79
10011
9093.44
12438.2
15086.9
23634.8
11575.4
4400.68
10166.9
14780.9
41404
25313.5
17139.1
17823.9
3190.62
2831.2
2658.32
5387.94
-1767.45
-797.152
646.87
409.016
-905.027
5646.8
6093.73
8091.71
15503.8
7612.98
351.704
5181.2
2405.65
9277.59
7380.65
7888.72
11164.2
10559.9
10556.2
3287.45
7429.53
11463.9
10267.3
7957.75
3715.56
-1345.53
97.5803
2640.45
3714.51
17098.2
17845.6
15812.2
8265.7
4624.31
1795.99
3420.91
1253.2
2996.57
2521.88
4500.94
-505.72
11412.8
6352.33
5305.22
5601.04
10599.8
3889.15
7795.34
10787.1
9481.37
9595.39
2245.64
-1073.6
1686.24
3002.35
-352.958
275.201
617.874
2130.37
10053.2
2250.42
2979.11
3451.97
5284.74
8030.43
17488.8
19736.9
12031.7
7766.93
3171.6
4674.5
10287.7
3222.55
5592.69
2161.26
2151.75
7379.84
5796.13
11894.8
22936.2
7319.55
-482.805
-1956.45
4621.42
8354.87
13493
14253
7047.37
2582.18
538.984
4526.26
2742.29
7482.1
8498.38
10393.4
1889.88
13024.5
9558.9
8860.4
7895.69
-1280.13
2846.17
5838.4
1911.59
1726.62
5542.49
12797.4
8157.4
9740.72
7186.95
7542.4
3203.32
6409.08
4868.98
5635.95
86.1692
3116.54
-1728.57
-555.112
-883.421
2828.09
-1130.98
-494.844
2251.01
1415.86
-718.809
83.124
206.654
2236.06
9339.82
9889.25
8264.68
3556.31
-3026.58
5244.11
12548.1
15068.8
20613.2
15400.8
15808.2
5727.8
9559.6
11993.3
5384.45
1151.82
7299.46
2970.21
13989.2
18760.7
17108.5
6955.33
5931.46
12725.3
13570
12711.7
18517.2
20444.2
9482.02
7576.66
4775.92
9650.9
1200.59
3037.63
326.891
554.855
-328.491
3411.08
-191.021
3402.28
888.257
8459.94
9356.84
14922.1
15314.6
9770.75
5974.07
3820.74
6021.65
4434.58
2568.92
4932.73
4926.98
741.892
2478.63
-3787.07
1432.79
617.033
-3295.46
-179.203
3576.17
589.633
3559.66
16337.1
12656.6
13210.2
18256.3
16045.4
14176.4
5669.99
3992.47
6076.5
600.684
9337.96
14358.9
11568.8
5466.82
10450.3
8825.07
1392.99
713.849
875.756
3220.25
2279.19
4584.69
3197.21
5206.36
5324.64
1681.88
7726.3
188.108
6192.1
1334.79
-3341.86
-778.248
-3.10965
15027.6
4977.95
10652.3
4349.92
5744.6
5420.27
2528.62
2643.86
6268.39
12454.9
5533.09
5405.87
-556.721
4902.34
266.252
4415.79
2998.01
10358.8
9062.08
15963.1
13645.3
18481.1
34124.7
25441.4
23227.2
11030.9
14181
13766
11084.5
10243.2
7785.08
18607.9
10310.6
9592.44
8469.06
9473.66
7928.99
6620.5
8815.36
4956.83
6319.76
7813.44
10959.1
7020.66
3428.71
7744.31
6895.79
130.683
6406.61
2406.85
-198.67
2443.95
-45.1693
832.791
9942.44
554.776
2262.26
1127.77
5103.64
11945
11186
15594.9
6767.33
3071.55
704.19
3373.33
8340.16
3546.45
9660.75
7648.9
7437.17
11646.4
-1723.55
1742.44
-2053.4
-2459.75
-54.2689
2486.88
7415.12
5958.2
3491.49
9799.94
12394.8
16630.8
34838.4
25062.6
16367.2
18610.9
16891.6
4033.7
430.672
498.936
1323.01
1881.97
5653.93
6938.22
15015.7
16331.3
8057.84
6293.6
-366.711
1011.89
7723.77
4582.45
-683.659
7196.34
6624.47
3902.35
19818
20951.9
15744
15710.7
10122.3
16273.1
24994.4
12051.5
7500.67
6986.32
7188.79
1500.43
-1610.84
-1496.26
-1406.32
3087.18
4785.12
12036.2
12320.4
9815.46
6165.07
4350.06
7956.01
10522.6
12349.4
26216
21692.1
22810.2
15796.6
10576.1
5566.5
822.575
234.271
-2054.76
598.252
-122.08
2035.34
429.419
-290.597
-1488.64
6862.13
4804.21
-1739.72
-2212.59
-4186.3
754.752
186.296
-2275.57
2613.77
1379.39
-734.89
2915.47
-542.614
6840.57
3568.74
733.782
5871.97
5505.71
443.95
13139.6
4246.83
-2630.73
-793.11
2853.54
-1063.44
-729.969
-506.391
791.91
-1853.7
-4524.99
-6472.45
2103.86
10443.9
15843.3
10721.7
4532.57
7881.45
12350.3
7101.84
25985.5
19174.4
11209.1
9873.76
7206.03
3926.82
2608.08
194.583
12598.4
12726.1
6366.55
1012.21
4347.24
7676.76
5323.81
11178.7
3318.54
6298.66
7502.37
7261.99
3147.39
3929.16
3714.15
5652.11
11243.4
10186.3
17497.5
4492.92
2836.32
6169.26
1660.27
2313.35
2726.09
5779.94
4200.44
1771.07
556.005
1977.47
5569.76
7768.97
9806.96
6095.78
4979.04
10633.5
4417.9
3740.47
736.884
-1456.96
5019.41
-866.212
5130.55
-1424.03
3503.99
809.12
5300.3
-2172.24
-322.888
-174.703
2640.4
-1685.29
2456.57
4849.8
5988.65
3839.69
1351.63
5660.37
4036.98
916.104
2707.63
1156.51
3255.5
8094.3
18195.1
4062.6
10235.6
9058.53
3313.93
5263.1
7989.82
2907.07
7337.51
1822.85
955.416
1086.08
-394.104
7176.6
8857.05
14338.6
15789.9
11549.2
12897.9
13757.4
6716.7
13157.6
27564.3
21629
11753.2
9583.94
3505.58
4636.87
3477.39
1563.86
5789.81
2841.75
6690.17
1626.54
3551.6
4654.12
6608.02
7861.2
7732.38
2910.76
4061.43
15780
11466.9
13740.2
12454.2
16408.7
21648.1
5420.08
668.518
7078.58
1469.4
6983.4
3548.78
6023.44
-483.516
4421.04
4350.5
-786.255
-1274.96
-22.1024
-4479.54
-6885.3
-140.539
-470.244
3183.62
13009.9
10900.4
3584.23
3902.44
1803.01
-1942.16
1773.36
-376.079
3217.19
-1760.09
16781.7
38517.9
24196.2
18658.2
5075.95
9868.03
14357.5
11942.9
6460.19
1305.17
1012.43
1891.98
4361.21
7499.87
4015.44
305.921
-1971.02
1304.53
-2874.76
4369.53
2056.16
9256.64
11613.2
5697.74
2621.46
6685.75
2605.44
5368.9
8699.96
595.034
116.314
10296.7
9260.18
5423.4
3660.28
7358.89
4613.99
971.637
8114.53
17514.4
18247.7
11265.4
8156.34
7571.54
15493.9
13422.7
12637.9
4313.01
1548.35
6297.69
5068.03
12908.2
7789.69
3957.07
5277.81
5468.25
3390.41
8392.16
12152
4251.96
10926.8
10107.2
14086.1
7248.34
4752.89
19182.7
5538.19
1010.65
4646.38
2552.66
3653.34
5764.16
1930.9
9104.21
-3653.94
3584.38
932.284
400.169
1360.46
77.7345
3694.76
9799.66
7562.59
6025.04
3932.81
-1890.08
1556.37
2031.49
-755.991
-2195.49
4204.18
4887.56
6804.2
1563.48
2427.24
-935.325
2471.61
4050.41
12859.7
18062.1
9709.42
3514.41
2434.59
2412.75
6673.54
10878.3
3224.07
3942.07
9419.93
6493.04
2962.36
8360.49
6072.25
1705.74
-5254.38
-2753.08
997.596
4141.51
1016.33
6799.29
5037.33
10094.4
3805.73
5726.95
5145.38
4757.77
10654.5
5605.95
3787.81
5807.23
10431.9
4899.57
3057.73
-191.091
6612.37
11791.3
1590.76
10610.9
10088.9
12113.9
19433.5
29591
21706.4
10580.4
9385.6
16331.1
2737.13
3656.92
9280.1
1524.37
2956.25
678.283
3403.14
7164.95
11472.7
8267.02
14996.6
13992.3
4896.23
3070.92
5911.22
12691.9
10109.5
12820.9
24438.9
14908.3
18069
9747.49
13051
9498.91
6224.37
584.873
4553.74
17468.6
7413.09
13835.7
8595.46
6732.12
12492.6
16439
10880.7
8084.15
4789.59
4412.46
2936.35
2928.88
2293.28
12832.6
6954.67
3326.62
-1349.2
4366.11
3859.74
2910.87
2369.1
-693.868
1758.82
-535.038
-2039.23
3221.47
94.0072
4088.79
4677.42
3224.03
1084.34
9502.97
7248.51
8121.25
14205.9
14605.3
10340.3
7853.93
7511.05
14772.7
18056.6
14687.9
28423.4
11042.2
6317.35
4248.64
1580.75
4043.37
5502.18
11353.6
13205.9
12530.3
3612.46
4571.58
5297.08
12975.8
6807.37
3020.85
4873.72
11762.4
22337.6
30673.1
32375.6
19351.6
7649.01
-121.446
4256.39
1303.28
6405.19
2332.72
2842.48
1987.84
1987.18
4506.53
8792.95
2897.84
1465.66
-843.401
-2781.7
2333.88
1569.72
6694.33
6572.28
12774.4
12490
6142.63
4257.05
3875.34
1360.81
953.955
-250.553
-607.043
-4371.48
-305.42
2441.82
4284.65
8051.14
13789.9
5791.92
7150.83
4202.12
1250.57
5001.23
1941.57
1759.61
4903.43
3654.41
12444
6466.75
10905.5
5377.27
7060.19
4507.07
10374.8
7174.55
1966.11
1988.29
1272.04
4947.8
1029.15
2231.19
1670.89
2927.71
11224.2
8252.25
5006.58
10077.5
4429.23
6501.66
1825.35
914.586
1953.18
-530.829
4045.41
3026.34
6040.9
7897.82
-2106.3
1695.82
-770.826
2560.25
3736.07
11833.9
8256.18
1836.95
552.249
3835.7
1515.79
598.975
-42.7692
4856.45
10099.9
14674.5
-133.336
21418.7
16840.7
10387.1
5469.98
-719.784
10882.9
7387.91
10993.7
7836.9
4031.24
2465.9
-842.647
-1821.97
8941.4
-596.619
-276.218
3744.06
3250.51
-1440.22
314.006
1004.6
2522.18
9189.39
5150.09
5805.02
4111.4
3902.16
2952.02
6725.8
3406.78
2792.08
1259.44
2747.42
850.897
-866.56
-811.086
3091.21
359.548
5017.67
9222.11
10431.1
7843.55
-2590.03
3961.94
12225.9
8966.94
11332.4
7447.74
2338.24
7976.4
1228.45
-3512.22
3874.61
3679.23
2279.9
-216.104
7748.01
6185.89
4024.52
2045.82
2438.88
5160.24
5302.9
9711.24
3167.08
15601.3
10661.4
2795.67
4544.45
1297.65
552.134
313.179
1653.48
4431.02
7306.74
7729.52
10774.2
7408.83
6510.34
7647.89
2844.41
599.975
12245.3
9044.56
1255.71
-3139.48
-923.522
5173.04
16634.8
12534.6
10233.3
16383.2
4367.88
2923.62
2399.04
4278.34
6523.34
4789.48
8179.97
5369.07
6890.22
6274.53
804.217
524.904
6249.66
4061.54
5547.55
2115.62
348.754
-48.0746
-339.594
5317.17
5919.7
13957.8
20901.8
23923.8
15070.5
23195.7
2737.82
3547.93
11262.5
5778.68
4894.03
2180.46
-7217.38
-2837.4
6480.53
15068.1
7749.05
937.022
-669.081
3753.61
-475.317
1804.7
-2997.14
-895.937
6570.34
539.39
3833.15
7414.12
1545.34
-1900.1
3415.06
2189.83
714.404
9937.59
4702.98
5678.87
1881.91
-1626.05
-5067.17
-486.938
-1410.23
39.2867
-984.7
4437.39
5989.4
4432.47
5810.36
-938.65
1231.89
9674.1
4822.87
-490.751
-1839.45
-2451.41
-648.301
4201.08
4365.67
6232.72
7973.49
12532.6
-953.169
1580.69
-232.014
1218.17
-395.384
2872.44
-757.194
592.437
-1575.51
-1147.01
3284.52
5737.15
10119.5
6766.25
9265.52
1633.84
7098.06
-219.663
-85.9758
6844.45
5090.83
7815.9
829.452
9598.12
11351.5
11861.5
12751.7
10141.4
-1133.15
-1159.22
6713.66
5840.01
9651.73
11147.4
9338.38
13653.5
2826.58
12623.4
3030.6
3226.89
4638.21
6042.93
7436.68
-229.974
-1421.1
13226.8
16513.8
18338.8
6124.79
7920.27
1586.97
3961.99
239.326
-8732.44
5552.94
3103.44
5405.35
10523.1
8321.6
7715.14
16387.1
8442.66
13218.2
7411.01
7307.63
15189.9
16937.6
9846.16
15538.6
26735.3
16681.4
6712.99
5011.25
8588.19
7672.65
7563.88
158.874
-1971.65
212.763
819.174
3648.62
-103.244
-18.2958
2554.43
6939.13
6627.58
2728.86
1470.67
-526.075
1635.95
15585.2
18507.8
-349.382
7578.85
16166.1
24281.4
8489.74
10845.1
-370.658
6767.74
6870.22
14959.6
4184.46
6763.43
4096
15160.4
12216.7
6874.62
10710.9
5363.33
9798.99
6380.37
6127.95
15500.9
23965.5
16876.8
15342.7
11124
17120.1
29236.8
29688.6
15478.7
4279.79
6783.43
-956.791
-2783.53
-1991.69
1465.58
10287.8
14269.2
1436.26
5831.95
6401.65
3214.75
2231.95
1069.25
4569.01
15254.7
6315.21
4920.12
12627.7
8131.66
7925.68
11538.4
20259.8
10084.1
30077.4
5458.39
6975.4
6674.13
10663.3
6980.7
4644.77
1387.14
1429.22
6720.27
12894.4
17860.7
29364
17433.9
5825.04
4235.15
-1451.13
201.638
4709.1
-2991.91
5627.46
-260.722
209.814
1266.86
5843.99
-2161.99
721.124
3906.81
3246.99
1621.81
5072.95
9979.23
17957.4
8842.43
9310.5
3437.78
9181.28
10033
1515.48
1040.96
7782.24
6452.51
13492
4567.05
1292.7
7823.66
-1174.24
2609.35
1177.5
3409.95
-1300.52
6113.46
3347
3166.91
9644.13
10672.9
11260
11950.6
2946.83
-1764.91
-160.642
-149.667
1692.35
1897
4525.08
-1034.56
4214.13
3555.84
2666.8
2572.25
3211.34
2035.48
4466
313.088
673.991
9694.09
2497.26
18106.1
9611.66
12837.9
2979.34
18475.1
5675
5593.57
6988.49
23382.1
30135.9
14414.7
10240.7
7606.07
6458.72
16121
21328.7
12377.3
10049.2
2336.44
2909.27
7461.02
5688.74
1609.87
7333.81
6380.05
-791.709
6783.55
6824.96
11168.1
7342.58
1025.78
1785.34
4487.16
2536.37
7528.17
845.25
5259.72
13092.2
23776.4
29172.3
13108.4
16205.4
12775.6
18368.8
13662.7
10418.8
5778.22
10353.6
6144.46
4844.99
5938.12
371.317
2337.53
-510.573
-2716.42
1555.44
3610.19
-340.333
8208.4
9561.38
6107.83
5454.29
2660.01
10845.7
17704.7
2041.88
-389.134
1449.55
1790.05
540.597
730.589
4232.19
5104.65
-33.6102
9854.38
13969.4
13229.5
12144.5
21364.6
25195.5
4873.8
3878.88
-62.797
4399.18
5308.81
3372.42
350.952
9576.85
11110.3
12179.9
14490.2
17694.1
22138.8
26690.7
15438.5
3786.1
5318.64
1825.14
2975.9
907.324
654.234
5340.97
2870.98
4.93557
-722.606
1277.42
1845.64
3268.38
3405.72
2946.03
2174.62
930.887
1083.34
5243.43
2686.98
5570.64
5730.53
5754.58
15421.8
7950.12
2911.75
-221.508
-1649.42
-937.906
1596.18
5895.68
6148.14
6080.65
-1468.7
991.427
2178.88
1855.82
2882.64
1570.44
5080.66
10659.9
2753.3
1257.28
21944.6
17318.3
1923.99
5290.73
-1663.38
168.687
4855.31
1212.1
-1163.43
2156.59
7718.4
8926.29
2561.89
10465
10605.1
4142.35
5924.84
6491.53
5340.51
3681.07
7335.99
4369.8
525.637
-1857.09
1227.06
750.039
2075.38
5306.28
-1004.21
125.105
127.57
2060.58
2304.19
2877.75
2526.58
4286.61
5181.59
3881.81
605.995
1371.64
528.729
5195.19
4204.81
5039.06
11910.6
14428.9
8005.32
7179.46
8965.1
7737.8
4177.57
12107.9
6893.16
6607.01
849.548
3455.52
1508.43
4223.35
382.405
-979.783
-1772.13
2994.64
682.386
1579.35
4496.07
12496.2
16183.7
26184.5
32618.1
30420.1
20546.2
9099.17
6871.8
7548.5
1855.01
-1282.43
1980.62
5639.25
794.967
419.931
-1445.69
-2370.32
-3428.55
701.956
3004.33
5925.98
8193.73
-1968.28
9344.46
5545.7
4635.11
2450.17
931.647
4101.45
5597.06
4962.48
5861.63
15443.2
13520
10859.7
8710.99
143.701
3761.6
20225
24048.1
6969.76
12408.9
8436.63
8885.67
2280.17
-157.314
-2773
1639.92
4535.68
5120.66
2951.23
1562.81
5011.96
5532.32
2895.52
5476.86
20204.8
26803.1
13770.5
17379.5
10839.4
11998.3
8042.61
2012.97
4003.23
2645.33
10409.4
2190.92
-209.659
5167.76
4631.12
15671.8
19525.2
26316.8
2666.75
6659.16
5751.35
5531.31
4925.87
7602.56
17861.7
2385.8
6340.62
8924.59
13707.5
15673.2
16734.1
17208.5
29848.4
12942.5
6424.94
3324.2
4998.1
3204.92
1039.75
1389.47
1655.59
3661.65
1522.43
835.102
4547.46
5670.18
1419.94
3055.51
2754.58
1417.98
-1780.11
5159.27
-154.171
-1299.67
-168.195
9625.86
2189.31
9465.56
7023.73
10498.2
8943.06
6194.19
20942
8336.39
11375.5
9620.06
4173.68
1448.85
-506.475
6297.13
13941.8
7161.08
7611.75
8840.46
21419
21120.3
10066.4
7701.71
3189.43
1760.64
937.325
3940.13
18069
5884.92
15230.7
5815.53
11773.8
4349.03
11418
11759.4
14485.6
13840.9
3996.41
6294.13
9448.09
10496.7
23672.1
37807.9
32378.1
29240.5
14312.8
20430.7
3197.38
9828.24
19416.8
18559.4
10473.7
1427.15
882.554
-1052.13
5203.53
-3661.62
7142.82
-3186.76
-1795.74
60.1811
-2139.99
-3821.4
2660.97
5801.06
13350.1
19399.4
27782.5
21234.9
12901.9
15663.6
24420.6
17068.5
4981.09
1857.1
-1005.32
1714.15
-3581.21
8308.66
996.523
-1191.96
550.617
-435.352
3467.92
2730.12
15088.3
14291.8
31693.9
34052
13033.9
15094.3
13582.4
19641.6
19925.5
15216.7
7703.26
7302.71
4235.61
416.543
-1229.86
6628.53
-4063.43
1152.03
3468.91
4338.92
7403.97
10738.9
10799.4
7449.28
1305.71
720.784
5774.66
4874.31
10021.6
5066.69
-853.006
-1165.16
4948.69
4538.27
1307.36
-2918.13
1466.36
2914.5
1544.6
1450.91
-1124.63
4109.01
6651.19
9609.85
1875.68
1752.38
10932.2
5004.49
4101.39
2552.7
8368.35
-1987.63
-390.117
4126.64
275.31
2527.79
2195.58
9610.21
13246.4
1869.53
654.141
1754.73
4927.68
-76.3043
3768.09
3310.13
6450.03
2635.39
887.432
12462
11295.8
4679.72
4876.52
2788.78
5058.86
8142.77
-1245.71
1075.03
-38.1542
1026.72
3803.03
972.149
1923.15
-1816.84
-1516.16
-3241.5
-2139.41
3795.07
3858.89
3871.38
3110.39
630.697
12043.6
10366.4
3711.62
15883.4
11456.8
15699
20945.7
21677.1
15101.2
1006.67
11804.9
21602.3
11447
-3250.36
2874.52
5571.67
7679.49
12072.2
20734.8
24791.4
39610.9
31733.3
17968.8
18500.1
21344.9
21214.1
17881
7303.22
1073.18
1422.8
-737.033
825.311
2005.48
2707.36
4402.98
-346.435
1096.48
615.178
6825.92
1872.22
9639.25
14990.8
10196.6
9463.05
2453.99
8621.5
7969.16
7283.25
1331.62
586.666
-1146.87
4546.45
-1802.8
9398.89
4702.96
6286.98
4786.8
5026.29
2142.19
9121.36
9959.45
4831.79
3533.46
6120.69
22202.1
2603.05
30.6655
-745.015
2126.72
1781.45
531.672
7291.08
4296.2
15160.9
5245.27
5838.48
2077.08
178.62
-1850.21
5769.77
8629.13
2972.67
3342.19
2027.09
4037.22
938.01
-748.028
-1871.29
6192.72
3336.18
1337.21
-3789.84
4639.41
5763.72
3335.21
6801.37
13966.1
-477.276
-507.19
-752.201
-2144.39
-3295.54
-136.224
1366.84
-513.881
5822.45
8135.93
4475.21
4086.35
5768.02
3543.33
2935.79
7716.47
867.123
2005.04
4540.04
5713.36
4507.93
1681.61
2141.35
2241.03
-2892.04
3225.11
4512.86
1042.98
5131.36
2724.13
6582.24
3047.5
-3692.76
-1773.01
1298.78
1978.38
-1430.56
1414.26
4971.96
-1902.05
1600.09
3150.77
7331.14
1059.08
10356.1
6048.2
1388.03
6504.33
1756.57
654.017
379.356
2618.66
1415.59
7461.32
7508.12
4273.39
10550.5
17794.9
15835.4
11872.8
7380.3
3559.47
7353.4
3798.25
-523.273
-2767.26
-335.391
1436.33
3536.58
4370.62
3365.84
-4728.05
4348.53
-1092.54
6357.06
8880.72
11896.3
2338.85
2376.19
-1324.53
1447.18
243.227
5807.95
-3665.41
-802.323
5459.35
12254.6
5451.17
12108
17942.6
32384.6
15050.8
4336.56
3650.91
-548.557
5767.8
377.547
-300.354
-1048.85
2771.34
1364.76
3785.59
2230.54
11775.5
12362.9
12572.3
1087.48
4841.09
2543.69
3259.06
-6405.15
55.087
1490.61
3366.24
9869.93
14998.2
37641
30009.5
20963.3
9537.64
4401.81
808.368
3223.4
4109.63
2425.88
2102.8
97.0316
-1681.47
-3491.48
67.6191
2009.79
5611.63
5782.59
15000.6
19228.6
11683.4
10318.4
15811.2
17649
6317.41
6412.08
935.058
2374.37
-1425.74
-3199.5
3136.83
9757.35
5268.72
4220.63
5496.35
2572.82
1368.1
15205.4
4925.43
4887.19
4452.3
2964.41
-857.128
4083.94
5028.89
5740.35
7917.32
7926.19
16660.2
5242.38
3078.61
187.775
-4954.57
-3026.94
-2702.76
-2123.92
-1283.49
3418.85
7248.02
-824.516
5741.32
7744.43
5906.2
12041.9
10322.4
1709.73
318.682
4096.42
20595.2
10693.7
10145.1
11410.9
6455.38
15908.5
13303.5
2700.25
2673.98
3621.97
501.079
4145.08
3122.51
-772.682
2293.52
10011.1
1785.73
4190.3
-566.697
2510.67
7649.11
17286.6
21832.8
16020.4
6589.46
8783.04
5724.92
-2043.01
-5517.74
-4731.79
1034.52
1489.76
3055.51
2811.84
4770.86
1122.7
15029.3
7982.98
7772.56
19058.6
18417
11350.4
5768.51
1365.33
-54.3009
5577.11
16796.6
4114.35
7350.91
12801.1
16434.5
7781.68
5259.19
6561.97
5320.14
3668.8
-3998.48
981.783
-1244.11
-2043.23
10838.1
18321.3
14091.6
9476.93
8220.01
17093.9
16905.2
9474.99
8180.22
2149.92
2739.17
8571.05
5434.15
4360.87
1643.39
-937.187
3254.5
6923.52
918.17
3605.74
4067.39
761.455
-826.414
9482.47
2926.12
2590.21
1280.59
-278
785.226
5279.88
-2139.78
3322.09
2436.77
10229.5
3690.13
2446.71
2685.28
4087.18
5856.23
13705
16510.5
10272.7
4152.32
2306.07
3750.14
11083.7
6935.36
14330.5
13851.7
16377.5
19463.8
10593.9
-718.824
1135.05
1387.28
7069.17
3849.86
20655.7
18881.9
13358.7
8484.07
13868.5
6458.43
7489.01
5752.1
8314.57
5828.8
3176.58
-5683.8
-3978.07
7876.89
20016.6
27295.1
18614.4
16661
20162.2
32278.5
13572.8
17239.9
12553.1
1547.04
7942.31
7035.62
14384.2
9818.14
13602.8
7020.11
13889.1
25951.3
22218.7
9371.54
4021.83
6546.44
5451.48
5881.23
1416.66
-1307.44
4013.63
1403.11
-724.923
4540.15
4335.11
5121.29
1698.64
2279.39
4545.12
6203.47
7165.78
4065.5
-1736.64
-3001.97
2234.47
-332.157
616.919
1196.19
8071.21
8255.84
5978.11
1516.4
5177.45
-434.387
-5732.82
1007.43
3060.89
1736.13
1825.33
2640.38
11074
12887.1
4077.95
3189.77
859.833
3704.29
1202.89
8893.69
3680.27
3485.24
11640.5
27684.7
29901
24235.4
10094.4
-65.7656
8888.62
24142
11070.7
3823.97
4519.93
1186.78
-3724.86
-803.535
-793.731
3259.45
5842.08
7645.78
12627.5
5977.02
5011.82
3110.75
7457.98
3296.06
14587.4
9641.22
13157.1
11150.4
1418.02
1823.23
-2468.82
-4951.83
2454.83
1002.53
-452.28
10980.8
9391.56
8126.36
9585.88
4899.46
4005.47
4237.57
-1518.62
2458.29
268.175
4175.13
6217.73
8828.13
8638.14
2555.73
4155.54
2410.29
4144.13
6337.07
3362.24
4544.13
3261.97
4436.1
9552.63
9486.29
-1852.97
-3532.44
-490.955
2341.75
7671.39
10871.5
6823.81
1678.66
3637.18
265.888
251.488
1000.64
-594.813
983.39
1046.79
67.9577
353.803
4720.65
3925.52
3701.85
13922
9465.18
8642.45
620.97
3003.8
1424.88
-1816.36
543.148
-4321.58
6011.55
434.439
543.675
1199.34
5464.87
341.245
83.9199
3050.08
4286.29
3059.49
9221.13
-1491.95
5044.48
-2494.4
-2851.87
1217.31
6116.51
8783.47
8935.41
15411.7
8993.28
15653.6
4218.68
-872.862
1660.89
-1398.84
1050.2
4436.15
13114.3
19033.3
12648.6
4567.38
-959.769
1829.96
3454.18
7428.73
18009.1
3366.11
5151.85
2835.25
4416.43
3991.11
8497.54
6582.16
7631.02
1150.47
2639.3
1784.64
8472.46
5546.47
12451
13114.2
10981.9
9855.5
14062.6
15482.9
6959.21
5489.93
7034.4
12980.9
11886.8
15229.2
9541.89
9945.71
3592.7
-107.269
2735.51
7.90883
1920.35
5771.14
-3472.1
1525.34
464.894
-2107.17
5004.31
-2389.95
13872.6
4744.35
359.24
-934.948
2507.9
1438.18
327.663
-2982.26
-1873.58
3259.46
2952.11
4652.74
13852.4
2098.14
3130.6
-1830.49
753.505
3605.48
3125.94
4333.82
8615.34
6668.63
3303.88
1356.86
1351.25
-710.563
-1482.17
3449.96
133.495
6856.9
1728.71
3799.14
7277.91
7776.77
8006.89
5842.94
4934.93
2687.47
-3710.32
4277.97
-2634.15
-1545.29
3812.99
13035.4
9960.31
6008.86
4735.82
8478.69
1020.34
217.665
16577.2
4419.67
4686.06
732.587
4270.43
8210.63
7290.39
5299.89
1493.56
-1747.61
2346.04
-621.089
-33.6321
4387.48
5660.26
6760.22
14644.1
14912.6
18806
25026.5
5391.87
13949.5
7303.92
4246.33
4346.3
3256.08
4358.44
10270.3
9226.72
18060.3
16312.3
11419.3
11364.2
5584.52
6995.16
18819.8
5468.93
519.182
-1086.99
-140.637
5170.41
-21.5977
3575.87
3443.52
14636.2
2096.68
1665.99
7613.94
8571.69
14308
10294.8
8851.38
8074.28
5357.02
6392.48
10389.7
10764.2
5351.84
18984.4
13688.5
21015.4
16507.5
12937.2
23137
18911.2
13583.4
7225.23
10739.2
4669.62
4306.58
-1487.45
1117.19
1191.42
4023
16170.8
12423.8
1817.15
1064.44
-2747.95
3895.75
-143.488
-591.788
4379.23
1129.32
-1260.19
1284.72
3873.84
-297.923
-1082.14
4102.76
492.238
3178.59
1820.33
1414.44
2547.72
8182.23
11790
10471
8471.46
3196.82
4341.75
297.312
727.154
3994.15
457.101
3614.38
11214.9
12770.1
3240.49
4520.9
-243.349
3074.49
3548.09
-2689.64
21.8437
2235.62
4480.73
5525.59
-700.382
-2238.04
373.487
1305.49
-6758.77
-724.847
4826.9
9647.9
17540.8
22799.8
12896.5
19035.3
19748.9
12842.3
11102.7
8719.17
5731.85
4443.5
6446.94
3690.29
19344.8
9018.62
6994.73
10704.1
6937.02
3183.65
8977.89
3788.82
-1732.32
-284.247
2712.29
3854.15
11415.4
7287.55
2277.74
2093.97
3068.04
876.067
9966.17
3035.89
2725.88
-62.4523
1755.23
-1111.21
3401.46
5948.22
1719.67
-488.473
7776.77
3998.37
12090.5
-2449.96
-1963.15
1417.55
1356.47
6451.22
4119.53
5296.18
7481.11
11023.7
1707.77
1031.47
3573.1
4590.73
3553.66
9732.6
3881.38
980.183
3697
6383.01
7135.79
6750.94
155.015
-662.778
-1683.51
8048.33
21140.7
17681.2
13675.9
18037.4
9593.58
11540.1
4841.6
5919.21
7277.32
14325.6
9224.56
1611.76
7458.12
2667.06
4946.68
6220.92
6120.03
2972.14
9611.39
5039.67
8962.16
4375.41
10531.4
4459.64
5312.04
10018.5
11418.2
5060.77
1181.79
2156.86
7466.4
6958.23
21111.9
10266
3590.64
5697.74
9095.66
2352.94
5417.15
-229.741
8633.35
7838.15
7895.75
3221.76
9976.31
19494
9658
605.17
14771
9852.53
6546.95
9980.22
9144.87
6154.01
3539.7
1345.69
5574.52
2265.2
6212.84
1924.46
3661.63
6396.11
-1883.69
7452.12
-1528.64
-3951.16
1128.36
1243
2768.87
-2591.69
-2538.98
4274.93
2914.63
5213.65
1252.79
2452.92
3008.53
2935.93
2816.02
-1583.39
-1069.14
3362.34
1640.5
9162.84
9013.18
15561.6
19712.3
5210.57
85.3413
820.396
12686.6
8531.66
4289.42
9022.75
9807.25
6546.54
2957.81
6319.09
-308.413
1555.76
5358.35
9548.5
5841.29
2550.05
1282.36
791.097
-2950.01
873.794
5751.42
4451
599.883
-936.649
284.534
2809.5
5269.26
3112.17
9345.99
8850.14
3979.46
8891.27
6049.52
3165.42
-130.526
-1872.08
-810.88
1226.28
-150.475
-471.033
-2331.67
7669.3
1940.31
8915.74
6495.13
13610.9
6446.64
4449.96
5456.71
2476.06
13164.5
359.963
-2388.28
2210.63
6129.9
6415.16
4417.36
1668.5
478.938
607.068
14788.9
833.759
118.096
-3609.29
5226.33
-6593.14
-677.44
2198.11
-2002.51
4029.87
527.736
-484.992
6387.95
-335.374
471.521
1363.38
-1002.24
2959.4
3537.75
3260.83
215.839
8912.64
12900.9
9745.51
5276.62
-1202.81
748.381
4908.9
7593.8
8408.64
5073.3
-840.877
1238.54
6185.92
3870.81
-824.818
-98.8951
676.889
-5335.18
-1563.54
15.0329
2717.89
5043.25
-854.738
5133.81
3988.28
14078.8
410.742
2066.28
-6117.99
-3080.98
-2081.91
1465.49
-298.862
6349.05
-3600.33
8179.69
12332.2
22774.6
19391.8
14896.6
9112.35
1504.36
-1835.4
2979.11
4414.91
14326
14601.8
7869.78
1406.61
6704.43
-2384.05
66.1593
4408.99
265.217
1469.04
1055.92
12749
9631.44
4002.83
2078.02
2552.95
-3071.29
1636.94
-467.128
-226.258
302.776
-3159.59
2553.08
883.13
1685.64
3382.37
4749.95
7677.15
1265.95
-2462.12
1089.49
360.621
-4530.2
914.204
8075.44
2589.28
346.7
382.602
3240.69
10128
11785.2
2197.87
2559.34
9268.04
10987.7
5820.87
8553.03
6727.11
1429.78
3394.55
486.658
-2111.04
3032.04
2316.55
-523.215
10234.9
3306.42
1009.79
6760.31
7356.38
9106.87
15240
5252.09
8584.16
2013.37
8874.63
16017.7
25999
19246.5
9395.79
9917.13
13507.2
11156.6
12497.9
11168.2
26213
16559.2
16716.9
9424.55
7002.33
7639.92
7381.64
10508
5711.97
6783.46
10060
3008.87
-121.236
6506.88
13803.5
9295.33
2324.9
1845.3
1339.79
2057.94
-59.9045
1328.62
4481.79
8047.17
4917.1
2518.4
3336.82
2909.33
3732.59
4815.28
3433.74
7926.29
2654.92
8594.57
3343.36
-108.906
1251.66
8423.58
12565
3873.04
6321.53
4571.84
-4124.29
-3054.48
3010.35
23212.7
23595.5
14733.1
17252.7
13911
13267.1
8124.47
2258.35
-2765.09
477.176
8420.79
-974.397
1007.61
4542.11
4998.23
-1333.71
442.722
-7903.2
3060.78
4590.42
6699.57
5870.41
6362.67
3325.74
3543.07
7909.55
8520.88
1429.91
12212.5
15621.7
5008.01
8430.15
4645.94
8196.51
615.817
6260.95
12251.9
5995.37
-576.415
118.454
2385.03
5011.25
3200.49
2636.62
4600.85
-396.346
3717.79
4603.53
8267.87
12672.1
6970.8
30915.7
12139.2
7615.77
4682.58
365.359
7542.14
-366.572
-361.936
-4426.1
325.042
-764.672
3397.52
83.7656
10758.5
2784.92
10231.5
2393.39
9545.83
24181.1
23152.7
14953.6
11894.3
5540.11
12346.9
2067.47
13202.2
8647.95
3292.13
3864.96
-1820.23
1794.01
-2398.36
3193.36
1589.8
10354.1
7460.56
2343.42
3550.79
3986.15
4923.89
5423.16
6476.09
5148.3
4426.08
5171.55
3970.49
197.363
2763.74
533.292
2508.68
7693.88
9261.4
1564.03
-949.956
3072.27
3882.83
-90.6933
384.848
8137.09
1549.8
2863.76
3811.92
6852.42
1479.9
16380.4
19853.7
31514.7
19436.8
9228.72
14762
9925.78
7749.71
3200.59
9451.67
3585.22
-1081.16
5061.96
-6860.07
1583.63
1469.34
4996.86
2576.35
4952.69
9475.03
23346.1
20477.4
23112.5
17441.9
25699
16129.6
21453.9
9876.39
5645.28
7284.85
3936.53
10684.7
10208.8
7463.44
5483.25
-1083.61
9377.66
4455.78
8357.2
5424.69
4056.21
486.359
636.229
6565.26
9343.46
6578.79
-1054.67
2819.68
1344.06
5645.75
10417.1
1826.43
4203.06
6583.69
3062.64
2619.27
-1115.23
528.403
2272.91
9482.69
5211.42
2446.17
-1254.55
-2754.48
4782.41
7219.76
9984.56
5464.74
7062.29
3438.47
4470.25
6274.84
27055.8
28689.7
33923.6
18600.6
7599.46
9623.23
13223.7
16254.5
10876.1
11399.7
10649.6
8145.55
12837
15006.5
14274.4
7143.83
8583.36
10806.8
8311.93
3399.08
3646.46
-1527.61
3969.83
7118.17
5026.07
5087.32
3424.26
2654.15
7080.92
-10.4028
4746.48
1532.18
5615.77
2154.01
-1698.65
14368.2
10962.2
6942.06
10638.5
14346.6
5926.98
6973.41
2938.06
1867.14
-369.858
-602.658
659.838
5588.09
1705.24
6035.88
3944.26
5895.98
5848.8
6230.69
6748.24
6166.1
5662.56
8118.91
7537.63
5865.19
5095.76
685.089
1839.15
-2139
-3088.12
2138.87
6652.55
14830.7
14966.5
2692.09
9357.16
62.5261
1355.22
2892.71
1934.46
2622.1
-753.859
-2994.45
-2033.69
6219.31
7680.81
13054.1
5550.48
3637.75
-1540.43
2244.16
1759.5
3426.27
-2455.32
1755
-3937.38
-510.762
9715.9
8684.14
20241.9
24824.6
17831.2
15817.1
640.088
210.777
6040.7
5696.76
3903.77
432.907
8507.57
1279.01
-1968.54
750.986
1242.7
2452.95
1859.95
2840.36
5068.09
3681.48
-2983.81
-1502.73
2409.13
7243.46
3313.53
-3709.39
5016.22
7094.94
8254.47
12665.5
14252.6
12065.3
9915.12
10127.6
5146.89
-1203.65
1899.74
4677.39
-1572.28
2781.82
-1779.79
9010.54
9816.66
5347.22
14819.1
8405.75
-3045.26
-2970.28
1153.51
8717.75
3234.51
13415.7
5478.04
-921.568
-2832.26
3126.05
3704.88
6944.49
900.619
2795.06
22459.7
14476.8
19970.3
10193.4
11054.1
10124
4833.01
5604.79
679.088
-574.333
-468.826
-1122.42
7068.81
11956
4202.63
8951.11
2190.48
10903.1
10999.5
14274.1
12073
7404.69
12363
2676.69
219.895
2262.49
-3720.97
-1247.2
-1059.31
3030.32
4112.61
-674.68
-5104.34
748.396
-56.925
1387.06
3750.02
3869.08
-1528.38
-1490.75
4753.83
745.005
-418.45
1193.74
-561.585
-106.045
1744.23
4822.71
2930.65
16857.5
12594.9
13810.7
19630.9
24669.9
17402.6
24302.1
20975.4
6953.97
5861.61
5136.58
2006.27
3914.07
6785.78
6379.55
9502.97
8958.23
11734.4
7517.35
11750.6
9120.72
8361.34
15252.1
10803.6
14164.6
22927.1
24668.6
17961.3
17588.1
9768.73
1458.76
6134.16
17279.2
7221.14
735.889
335.559
-1923.03
3884.8
13683.4
10449.7
17050
12358.7
12053.4
12995.6
7004.22
3661.55
-4196.13
5625.17
6667.93
6933.21
9788.91
10474.2
7473.66
2589.62
-1.55294
9924.15
8404.72
4920.47
4200.42
-548.976
2528.43
-440.761
7470.1
7449.44
11196.3
3373.34
157.182
5063.41
4381.32
145.74
8178.65
11245.2
25389.9
26431.4
22012.3
16784.9
10325.7
8362.66
13112.8
8514.9
2877.1
2953.81
21413.4
31246.9
23506.4
11120.8
8934.9
16161.2
1451.66
6531.47
17328.8
5146.89
-737.222
-2794.2
3525.27
3676.39
-1189.81
2499.71
3437.94
8433.3
9531.53
1662.8
751.295
10595.9
17198.1
11068.3
10711.3
9231.88
7000.18
10193.5
12592.4
12831.1
175.52
-1271.87
7911.19
8318.62
4975.37
-3375.11
170.479
-654.568
2796.91
1509.19
4778.26
12964.2
7950.12
1309.89
5166.95
7757
8872.48
4132.47
4638.94
1421.58
5368.03
2183.33
-411.749
-3300.07
-3969.39
-342.647
-4072.01
-2992.94
-2961.82
-1860.85
7435.08
6527.27
8599.1
10458.4
5644
4981.19
1868.95
1679.23
2864.2
3942.62
1407.38
3972.48
728.611
2422.51
4180.74
6454.62
8815.48
13782.7
7434.14
5403.32
16753.6
35146.8
19168.7
24421.9
12556.5
4148.76
315.185
-512.872
2952.07
-277.103
13.8714
336.454
-703.457
1826.13
-2153.22
358.239
6278.27
1521.92
6651.92
425.45
-1171.59
1081.4
2012.8
1096.99
3323.15
49.1299
218.055
-1205.25
-1239.78
9076.78
9861.24
8430.9
2162.76
9579.73
7051.81
7431.59
21573.8
21232.4
16327.5
21012.1
15452.6
12123
22677.4
11431.7
22147.9
34144.2
20376
6700.29
8643.85
7360.66
5614.76
5606.89
1975.9
7356.3
9651.33
13281.7
20470.7
2161.68
5764.75
78.6856
-2374.14
2426.76
4251.74
7080.36
3939.11
4912.79
-1846.87
-2348.07
4695.21
-1144.2
2564.9
500.339
3723.58
5749.82
16183.5
20903.9
12385.9
-577.849
-3.90642
-4648.08
-2446.32
2298.62
4530.01
2564.02
4277.34
16032.1
10930
5691.61
8411.87
8850.09
9105.81
5461.73
2003.78
-138.452
3447.85
-3799.45
4733.66
3890.13
13069
3468.64
5227.24
2614.68
3609.62
10723.8
9544.45
-1570.62
-24.5444
2321.99
8261.56
14006.3
-1777.3
-1108.16
1674.85
4243.58
13021.9
11466.8
5684.13
1304.4
3860.68
9857.92
16837.4
8722.53
15069
18392.3
13198.7
7489.71
5984.31
-1638.84
3957.52
-1672.16
-2307.94
418.446
4723.85
4551.62
1798.03
6483.14
14901.9
7565.12
-649.77
1821.88
-1656.54
2463.59
816.199
829.149
-819.772
208.567
1955.35
1784.61
-409.094
-280.956
2609.98
1919.37
5022.72
7007.88
17767.7
21685.6
25999.1
15617.2
6110.3
6534.12
-716.16
1691.74
8294.91
23280.7
33528.1
11539.9
4819.16
468.459
-365.721
7033.23
2889.7
2439.9
-426.504
-3580.51
468.493
3330.24
3401.4
5369.87
5245.15
9442.78
7858.03
5989.52
2639.41
10895.4
12034.8
15111.5
15169.8
6219.22
-3306.23
8992.85
5019.09
11535.8
14375.9
1716.34
3835.17
4689.07
6005.37
-2506.66
-2142.3
-1144.46
695.748
2307.45
4321
11396
5213.14
2985.9
5540.96
5084.73
4817.65
16147.4
15350.8
22675.7
22366.1
37772.4
45928.1
26632.7
31840.7
15409.3
1647.8
4306.58
1758.52
3938.22
9659.52
16944.2
20402.8
14501.9
14832
12697.2
18776.7
16619.2
5337.96
10900.8
15258.2
9646.24
25131.7
22117.3
23148.4
36767.1
35341.5
36886.1
39593.9
26499.5
14887.8
14787.2
17984.1
27703.3
35220
16776.8
18437.4
15194.4
18065
10529.1
7318.54
-257.756
179.196
27.992
4139.7
5583.41
15878
4303.39
14866.7
14500.5
4152.35
1367.86
12644.6
12827.6
4328.75
1945.76
2378.56
-207.797
1553.65
2688.89
940.069
2866.81
3505.53
3343.97
-58.1797
3105.21
14554.4
15612.9
4797.52
-893.324
-1597.1
-5035.74
1338.42
-637.528
1859.67
153.505
1096.04
14324.6
7170.03
1602.5
-1153.38
10562.3
1321.23
3870.67
-438.616
-1122.74
3770.9
10289.8
6995.68
11387
14480.5
10678.3
8615.22
5400.85
427.462
709.614
-3020.5
-2811.09
5447.29
372.43
1230.74
798.298
167.01
74.5678
7173.62
20375.6
22249.6
10675.8
5649.88
12615.6
6679.28
11447.8
13799.1
1627.12
12747.9
27331.7
16405.8
15682.3
2121.44
1029.62
-154.456
-4668.92
664.892
6484.09
11537.8
23926.2
18104.9
13573
4955.7
46.4267
4769.56
25196
14911.3
9968.26
5131.18
12292.4
9147.21
2716.87
7957.76
6448.68
4356.48
13479.8
19560.4
14934.6
18301.6
4327.63
6167.69
4773.61
6978.75
9228.3
8414.97
4318.19
7021.89
6330.4
7459.11
4339.27
11002.3
19665.5
7375.73
-2178
-784.204
19346.3
17573.7
16163.4
7083.68
3656.08
3641.41
5051.79
16311.4
16323.4
7608.18
1489.47
-1241.05
-684.114
4741.62
1660.85
-720.712
2257.3
11312
12753.5
6087.88
1900.24
6135.95
8448.37
10221.4
4334.68
9242.64
13888.6
16451.4
5050.55
8128.02
9768.18
15674
7747.69
10815.7
8338.51
3356.83
4098.06
903.821
5684.76
1714.75
536.47
4529.78
3729.92
1071.71
1998.82
1219.94
2979.12
-887.528
6347.78
13182.7
4904.73
413.523
5545.59
4220.13
7097.53
7558.86
9011.72
5341.43
3702.27
6288.82
-439.01
5939.32
-885.494
572.478
980.317
2635.98
1772.71
-2410.1
-399.733
-2749.86
3480.49
9141.15
10213.6
1272.97
3345.3
1599.5
879.752
4064.29
7143.19
10421
4914.59
-521.932
3591.84
3878.72
3650.28
4414.74
-1491.83
-769.439
2667.92
1651.43
-717.45
5231.21
4164.72
5957.51
2512.25
5092.46
9753.66
5497.71
7397.25
11870.1
4466.62
6812.26
7539.88
10898
-164.461
1445.17
2908.29
214.844
1638.17
2158.18
6825.38
30236.4
16370.8
18487.7
8551.22
10762.2
6752.7
7001.64
10057.1
15117.6
-2242.15
339.755
177.643
2551.83
2995.34
6916.34
404.813
-4226.23
1907.19
721.994
-872.326
2000.43
-261.27
1585.01
-254.581
1700.05
3506.91
-75.7843
-174.629
-273.556
-2171.55
7301.81
1016.8
12060.2
2075.75
4910.14
1908.58
4271.46
-1416.94
4248.58
-321.211
2465.79
1994.53
-1010.64
-1787.44
-626.084
4422.07
5022
8428.38
6722.25
5983.21
7872.7
10775.2
8326.89
13226.4
34137.2
21225.5
25879.6
31342.7
16462
16553.8
16681.3
15327.3
606.434
1534.04
10020.5
4334.64
7335.88
6342.84
3078.2
621.586
10041.7
9631.23
2000.29
5921.97
477.955
3318.48
2053.37
7968.09
3977.74
-1029.28
-518.468
-4435.14
4134.07
15653.6
4851.75
5063.18
2733.11
-292.914
3770.44
4632.14
-1111
-2006.58
9359.67
2474.7
5991.7
2312.11
10832.3
18081.6
15971.1
11191.1
8892.99
4656.6
9213.52
7015.05
306.203
5822.91
2953.36
3156.25
3141.74
2180.26
2527.78
2013.81
-3334.46
3320.68
9481.35
3647.1
-670.692
1852.62
2756.75
2489.83
3819.37
275.647
4551.79
-3935.05
11066.3
25191.3
29525.6
23701.1
34446
20237.8
15783.1
20319.3
7265.43
11610.6
718.384
713.149
4286.52
4556.91
15802.2
17117.4
5156.41
13189.1
18197
13586.5
12743.7
3184.69
824.701
647.665
-2007.78
-683.332
11645.2
12999.9
8134.27
9829.05
12022.9
14406
14595.6
9915.35
7292.24
24062.3
29553.6
23129.1
19857.6
7002.54
5339.37
2529.72
7216.28
10294
20464.7
15692.2
7396.42
17256.4
32598.1
30823.4
25168.3
34527.9
21671.1
18315.3
16739
8747.66
7216.69
20019.6
22949.6
36598
22320.9
18822.9
6686.91
11121.2
1329.32
2324.5
-1354.34
-3303.55
-1848.47
2796.28
7368.41
5426.04
8270.02
10332.4
11041
747.813
9317.04
4602.34
1909.91
2591.49
2319.23
13401.9
2822.17
11949.7
-110.635
3703.01
-2179.97
4462.56
2087.37
712.825
7289.52
12168.8
21533.1
10153.3
23336.1
16402
11894.8
8874.71
190.861
3589.17
884.888
9188.63
10376.6
6087.06
3524.27
-1079.21
-1053.39
8732.34
21312.6
27488.8
34196.6
6655.79
-335.928
-3603.99
-738.978
697.786
8607.34
2265.11
2291.3
3798.31
2179.02
12631.3
6766.23
1040.29
1714.21
6885.89
3083.26
5249.69
17895
20273.3
15643.5
12705.7
9919.18
441.118
1659.67
471.434
-3046.3
1487.17
3612.93
12953.8
3386.45
5266.3
1200.24
-135.759
1130.92
2138.63
3693.04
1160.42
1738.45
11004.9
7531.11
14200.2
13650.8
10918.2
9322.98
3249.44
-357.02
1090.62
9187.92
18309.6
21609.6
10235.4
14547.1
5903.73
5673.85
5685.58
7456.59
8851.65
24315.8
28381.9
15454.8
6961.15
7115
8971.92
5258.12
2122.65
1046.28
-436.929
1360.75
5756.8
15422.2
7008.65
7271.19
153.148
14923.3
-3031.89
2531.92
10612.8
5234.81
-1703.92
1502.72
6627.16
12871.8
5120.54
12108.2
11708.7
12461.9
11445.8
6339.46
11782.6
6727.05
4697.35
5599.76
655.609
7853.83
10293.7
4130.59
5101.85
4476.82
6884.27
14596.1
10859.4
12851.6
12919.1
5894.83
9055.63
1307.26
11344.8
6226.21
7973.08
9514.52
5773.86
1423.95
3615.49
1463.36
5799.3
1716.27
-436.2
3683.36
-247.906
5066.73
12593.6
-2520.36
1127.59
-1547.83
4361.06
7015.89
8802.01
7530.69
1795.05
5693.17
-1705.56
1494.45
556.726
-5260.78
2395.88
3646.59
-3065.73
4075.6
4248.38
-12.8747
7769.53
-1062.24
-258.262
1599.75
3754.75
-1273.05
-1522.4
4900.12
3587.53
1375.16
899.05
163.581
-2710.99
1279.09
3970.73
3076.11
5019.01
5456.11
10521.9
5450.34
13847.1
4757.26
9542.2
10410.7
4130.98
-570.62
763.578
-2043.96
-4215.74
2526.9
1352.79
2882.28
6974.15
1398.48
4492.16
1996.82
2092.63
6183.84
6319.32
9744.43
3689.09
9778.1
13447
15397.6
17112.2
7511.95
1848.26
1254.24
4651.44
-557.687
702.435
-1881.58
-184.515
-3400.13
518.731
-902.423
-78.49
5463.02
4184.5
4688.43
2538.92
1306.52
1325.11
-2820.31
206.743
-443.455
6577.28
15581.9
6274.07
10342.5
1416.16
3693.38
8167.22
7539
4595.57
5523.22
4487.35
-5322.69
2122.61
3921.29
3447.98
15429
14179.7
8018.78
2692.08
9009.57
5342.86
6637.78
2354.55
109.168
-1009.4
524.933
-1810.41
1092.36
229.471
17946.3
10371.7
5453.62
6946.01
7473.22
4822.53
3382.05
6465.11
-2094.39
1948.45
-2067.84
1375.64
2919.94
2589.94
217.425
7936.07
3031.01
1615.37
-1286.72
18.2954
-1160.75
5477.5
10321.2
5943.52
3177.62
5822.87
7283.76
-2609.81
-2732.23
3718.72
12213.4
17307
8475.58
5118.47
23993.9
-108.983
150.709
2291.98
3730.79
-523.195
-556.238
694.978
373.324
-749.106
-2825.21
-127.625
2544.21
4822.76
9867.98
3805.44
4041.09
4550.38
801.79
-1536.99
107.324
8624.79
4578.9
4564.54
-5481.5
-916.375
5455.77
2454.93
6143.55
4300.79
2363.89
6472.42
2922.17
4347.73
490.063
-1483.81
4117.13
3255.95
2424.49
357.83
2194.31
2851.66
1429.84
-579.93
-4120.28
842.785
1924.26
6754.91
4378.65
7497.8
4505.36
4318.21
1374.24
248.406
-616.73
-2777.41
2320.19
-281.739
3.92398
4479.97
1373.29
9648.19
8292.79
13738.7
17571.9
5379.9
4882.22
8163.45
8784.76
13517.1
688.906
-1644.94
3692.03
5394.1
4108.36
269.745
-332.492
-2146.68
667.446
882.085
-262.71
25.8684
1443.01
2699.58
6720.77
1435.82
1179.21
2687.23
7737.92
15186
16972.3
7894.92
7725.21
3717.33
1858.4
604.201
3675.4
4714.69
-1480.23
3667.33
10347.1
3490.46
2645.55
4327.79
6767.85
13056
2061.89
2354.94
-4374.53
5036.49
2244.08
-585.774
-1204.52
5251.22
14353.3
15536.4
5951.8
8684.61
11654.5
8208.66
2498.64
5693.3
4862.35
11684.3
9940.26
4369.29
6631.81
2876.19
403.733
1303.9
4152.93
4194.89
15297.8
3256.65
2444.66
6363.68
-20.4545
5181.8
4319.23
4587.27
11794.3
6669.23
18047.7
16506.9
14367.7
9073.01
13257.1
7946.29
11111.6
-198.246
15718.7
15012.7
15607.7
17373.6
22626.5
31790.1
21159.3
17203.6
10389.6
10276.5
14235.2
12200
19767.7
15842.9
17298.9
5125.08
-1810.58
-839.496
1807.2
8606.73
8755.21
16010.6
4668.44
7780.32
7640.63
4126.15
16830.7
21696.4
21729.1
20904.9
12674.1
16929.2
5053.07
9544.66
4901.75
8279.96
6191.89
9289.56
12494.4
12271.5
11774.6
14944.8
15762.7
11800.6
8752.56
7481.9
6007.24
2827.29
3857.96
-1042.92
-1776.86
-1410.41
-188.091
5429.29
6603.45
902.841
3842.07
5498.28
5424.17
5117.51
6004.97
10417.9
5393.88
7806.43
-1067.36
-292.504
2856.85
7894.48
960.975
8844.49
13008.3
15421.3
1709.52
3012.11
7186.27
6607.9
7581.51
3492.9
3039.21
-1165.12
3441.9
243.791
4090.76
2322.35
1196.8
-92.4849
5679.6
691.733
2680.91
16839.3
4276.88
4062.23
6554.59
5487.03
4574.92
3235.31
10176.8
10118.4
11487.8
14273
23521.6
16268.9
7186.41
13674.3
11422.6
3315.21
14371.8
30269.6
13392.4
4750.17
4831.69
2594.1
2793.69
2791.98
1999.8
3095.16
5192.64
6464.09
13582.2
10117.8
3005.65
2864.94
2869.35
3236.54
-851.101
5250.18
1897.27
10341.9
9510.03
5521.28
12166.7
17046.6
26465.2
25906.9
11486.5
7700.77
5152.47
1365.6
4658.89
8428.61
8161.93
17140
16128.3
6853.78
9172.43
6323.93
8256.83
4661.73
18413.8
16285.8
13331.2
10517.8
4448.45
1728.21
-292.789
1651.58
1620.28
14459.5
21606.7
13856
12823.2
21255.5
11276.3
15092.6
10712.9
12189.7
12508
12049.7
11741
10278.4
18056
13956.2
22283.1
22442.7
28117.1
13514.5
8803.51
11153.9
6509.89
19599.4
8624.53
3963.43
2716.43
2833.08
9484.7
7682.46
10269.6
6008.89
7802.21
5175.06
680.465
-964.308
3984.43
1115.23
3042.03
4244.44
9791.06
1574.81
7993.44
16487.6
16702.1
24263.3
30792.5
20193.2
11660.6
3879.69
3352.7
-280.409
2082.07
2360.79
4807.79
-1641.53
4137.74
8865.57
1870.33
1065.09
-412.397
4609.48
-2745.49
36.4406
-17.9096
3087.95
2406.19
3993.24
3247.05
-817.826
661.221
2516.51
345.899
-461.658
2160.52
2866.72
16.2742
1954.1
-531.262
1935.66
10991.6
16214.2
5319.11
9708.17
11247.3
21414.7
8018.61
-449.877
18764.8
8857.05
10.7549
-3042.83
-3193.4
3657.27
1934.67
890.183
8763.62
5232.16
-224.558
-846.438
1302.08
-592.876
3390.21
4534.09
7530.93
13943.1
7738.63
5204.51
4744.05
12727.1
9856.72
8677.24
15262.7
24503.5
11205.9
4321.97
-918.676
1176.06
-1384.81
-3258.88
1724.33
6560.45
1359.86
5152.9
7185.27
7927.73
11379.6
4112.94
-615.213
1749.37
650.823
3988.25
5308.46
14302.6
5167.98
5463.22
2268.71
10168.4
19395.3
3185.28
581.514
9922.55
11268.2
20030.7
22381.3
11757.3
2213.45
-2138.73
-2518.45
-36.848
650.605
1426.21
4723.73
903.916
1232.62
7.73233
2937.81
660.425
4612.37
5721.2
9907.37
-450.917
2900.64
1009.67
2459.16
10267.8
10311.5
7331.09
8178
3517.38
8823.25
19044.4
6870.75
8313.61
6379.13
2106.4
-261.253
5573.35
6838.3
11455.5
1386.19
-208.71
3186.97
4002.46
1644.53
968.438
2071.91
2432.97
10678.5
16584
11891.9
6754.2
4629.93
9361.79
10636
-3192.57
2994.35
-31.9217
3729.42
6297.92
-1897.03
375.873
815.093
2354.06
406.011
4852.52
10624.8
4737.11
12712
2184.24
-87.8481
2346.05
-223.06
9646.37
9371.84
5557.58
2775.73
4264.34
1702.85
592.351
-300.666
272.59
4921.61
1515.21
639.634
4970.71
4309.33
2177.32
5593.65
-1762.21
391.68
15991.1
7635.67
14936.2
8842.45
5138.96
9738.79
6133.13
12929.6
10381.6
11313.7
10163.8
11799.8
3671.99
4128.42
7405.01
10117.8
5655.98
12023.5
9454.56
3438.54
-516.945
5975.2
4680.43
4073.92
614.704
12148.5
13100.1
1855.67
3143.4
4292.31
12096.8
5945.04
4155.2
2798.57
7734.18
12470.9
7387.68
4360.99
-679.132
1204.4
4359.66
10027.5
6804.59
6582.49
10314
1412.63
160.938
1233.57
12384.1
8664.34
13571.7
10118
5184.47
5081.42
11029.7
11248
14869.2
28478.4
20973.6
12356
11965.8
12696.1
3873.8
-119.47
-7310.88
-2889.49
4809
-4381.27
252.999
4763.79
2182.22
8443.29
6891.34
13249.7
12070.4
6309.82
700.276
-5158.11
-183.056
-2807.66
4646.32
8405.74
9344.82
16819.3
21014.8
27134.6
23655.6
20882.9
4582.73
11692.2
9871.74
7720.37
44.0024
2139.49
-1190.69
3162.48
4972.89
6147.38
128.647
5761.36
11289.9
9899.5
14682.8
16978.6
1699.72
7119.88
16601.3
3253.98
3092.74
855.144
3576.49
15287
10407.8
6232.7
9249.71
7155.99
8133.18
21240.8
3504.01
6665.06
771.501
2205.89
6252.69
232.016
1428.46
13283.6
2512.57
4873.3
6072.6
-537.838
211.274
4972.91
8368.16
3886.45
4150.44
450.41
-6509.24
1944.28
5941.94
7852.4
-393.156
906.355
2941.12
1615.2
2928.88
7253.27
10251.4
2964.83
3356.1
8709.9
10609.6
8181.03
5871
1570.34
1979.15
458.202
-89.0053
6475.17
2706.82
8608.15
15838.2
20278.5
3165.21
-2473.32
-1745.22
2386.97
2185.14
7138.44
1401.98
7979.09
2987.44
-1723.14
2064.62
1899.83
6405.9
4511.56
1464.7
2988.9
3507.41
1761.1
2389.7
1621.64
3036.63
3772.13
-107.911
-3209.68
-3026.21
932.979
5410.15
11145.6
24416.4
17819.5
6441.06
14999.9
12803.5
15272.9
19770.9
24620.6
32000.2
23447.3
15823.5
10598.4
7618.75
3876.32
9199.25
10612.9
24244.8
16948.5
9310.15
6585.16
8453.43
6359.22
3688.06
6124.16
2060.15
2930.38
5903.48
3577.46
1986.08
2120.83
1286.59
281.658
6134.89
1772.83
-2413
1110.77
1718.4
4113.13
5359.47
5969.28
6384.26
2909.2
-420.986
1637.52
-3870.33
1282.04
7286.94
1097.48
604.976
69.1325
2963.46
-2602.08
865.588
1600.19
9528.06
13069.3
7052.42
6141.85
12400
923.933
-3498.66
7845.81
-826.922
2741.89
4620.98
1812.65
3384.16
-836.142
3750.15
5220.93
4484.03
-1240.16
2761.51
-310.414
4447.98
29544.9
8009.8
24829.7
9812.72
1340.51
5153.63
6236.32
3098.32
8078.5
21925
12883.2
14952.4
12050.2
6612.53
8609.61
7723.95
4486.66
18202.7
26081.8
8508.57
7602.03
13955.9
13278.6
5997.99
7343.08
8948.05
16463.3
5683.82
12345.6
20080.9
9109.64
12836.4
9285.38
2936.18
-250.285
3249.31
1220.6
453.406
1591.39
-365.109
2157.39
346.188
6603.76
1108.96
6824.53
10678.6
6827.83
3122.85
3869.1
1483.21
1232.57
-1453.01
1125.22
4456.74
11275.4
6429.36
5973.24
3158.6
1200.75
2971.69
5931.33
3734.15
3932.16
612.586
7213.31
1783.34
4852.49
9364.45
9711.8
3679.72
-2101.64
-1998.5
-22.3721
-3622.15
2949.18
1530.79
-589.575
-236.037
-1454.43
-1399.16
-1040.24
-2711.5
2690.91
2997.28
1474.54
3935
7532.39
248.183
2791.23
3332.05
13261.8
4949.31
1154.97
2225.38
5063.07
1929.69
4604.9
806.509
7860.19
257.707
8431.02
8397.12
8111.69
-543.604
7713.4
1171.38
7181.47
5657.14
13749.1
16347.3
5222.53
11352.8
32215.1
11147
13042.6
1142.57
5398.37
931.931
-411.904
498.651
-610.979
-1453.61
-1128.19
1910.4
-819.804
3064.71
4401.58
4764.44
1695.57
1336.38
5412.13
10460.4
2493.31
1234.7
6103.72
6444.28
15314.9
9708.7
13028.4
2212.06
13164.6
10676.5
12303.4
15780.1
13050
14447.7
30203.4
43976.7
12306
14775.3
6561.59
6805.39
7522.01
-330.329
7338.53
16188.3
18044.7
31546
34821
8801.85
7156.67
12872.5
18894.8
15710.7
12809.1
6774.24
1079.17
5983.36
2179.79
1733.94
3163.5
4330.97
-289.533
222.73
1378.24
1639.02
-1608.57
-589.768
1187.5
1347.83
3300.42
2889.76
1838.44
7538.55
1595.27
-2231.59
547.292
-6177.42
868.17
4276.75
1371.64
4170.07
3133.93
-150.491
2450.92
2617.41
6236.84
1141.17
1071.91
4088.63
1576.65
7183.86
14214.4
4719.89
5860.12
2160.64
13113.4
20365
21228.3
10659.8
6968.53
2216.19
2541.09
-1171.38
5180.95
5025.69
3972.54
11632.1
1623.8
-1065.71
-4516.25
-959.13
-2154.14
1639.92
2125.74
-830.814
4486.33
7311.44
3279.25
1706.94
6923.65
-1199.33
2366.68
8160.15
13454.4
5174.42
-169.244
8829.19
7195.97
8761.79
12485.7
9613.5
15324.7
580.642
4532.55
11652.9
20759.3
8121.12
7157.84
4653.01
7128.38
12442.2
16509.9
15660.5
18232.2
6391
6037.47
9861.48
15504.6
8083.45
-2333.93
-4138.16
-2561.6
359.511
1749.42
-958.317
977.924
7309.29
-1241.06
4449.14
17810.7
585.446
5687.97
816.427
2543.84
6337.08
3346.25
3097.91
38.4522
3478.78
2822.88
-589.76
-2290.81
3611.42
2975.04
2141.53
9405.4
10159.8
8635.83
11047.6
10925.8
-2146.09
-1544.14
4633.33
3748.56
8174.32
13529.8
16882.5
10996
5303.35
5715.63
2412.02
12091.7
10050.7
-117.417
13912
20580.4
26461
12926.6
17247.3
13685.3
4908.11
4865.45
12516.3
13242.5
7409.76
15298.9
14260
25166.6
13448.8
9254.17
3919.57
1139.53
15590.4
8320.07
-2173.88
-2753.59
-603.556
2420.35
3311.82
139.643
2545.95
2177.61
-441.397
5174.68
-3082.57
5820.12
1401.26
4346.17
20436
7753.81
11643.9
19938.7
3876.94
3189.19
5667.96
8493.28
4431.36
7620.24
11041.4
6360.79
16508.2
10483.2
5974.08
5405.64
1128.33
2457.1
1262.04
2262.77
4192.6
7320.49
-1702.6
-1074.16
-2471.35
-480.592
2078.41
6352.3
6946.84
1026.72
172.554
-884.011
-658.991
496.896
-1067.45
-1448.75
-108.305
4161.15
-619.843
2520.93
2265.58
3195.86
-1277.35
794.465
404.38
3888.31
5454.76
6601.82
6776.55
-2463.84
-1005.76
3597.56
13661.7
11945.9
13652.6
13887.9
262.063
488.681
2660.36
-1952.85
-3889.45
20.2285
1976.93
7810.54
-5589.97
-121.412
8327.73
3424.23
2053.01
1164.36
1979.68
2787.16
746.603
167.195
-2591.29
-878.722
-2337.17
3347.96
1056.71
306.103
1658.03
6856.95
8158.68
11166.2
11311.9
4758.38
3400.85
1524.57
-732.785
2090.06
-202.665
-161.002
5984.78
434.731
730.224
474.736
9734.84
12900.6
-281.306
2103.16
12058.4
4107.58
4527.31
953.462
1329.96
5720.82
7551.8
-672.239
3254.53
-429.293
-366.051
1183.32
2757.09
-3147.28
2890.42
5124.46
4640.69
5930.09
-1024.39
-3067.36
2486.54
1275.35
561.038
7045.89
17024.6
10981.3
5255.91
1219.99
7954.66
11953.9
14725.5
19181.6
20032.7
22442.3
13399.7
-451.274
128.321
-1030.79
2888.86
613.191
1115.31
-465.279
-52.4498
-6267.93
-81.7725
4239.98
7483.89
977.036
6259.84
8578.13
31609.8
24606.2
15593.1
4815.12
6380.74
5009.09
10854.4
-3061.14
-910.68
3230.94
2955.81
4490.42
7635.14
3421.66
3893.19
-2214.64
2071.61
-1938.76
-1399.83
-103.538
1484.96
4919.24
4329.58
2516.22
14405.4
4259.87
6624.51
2864.38
11815.5
14368
15367.4
9191.18
4720.02
1409.49
1477.83
6925.77
6496.23
13635.3
5651.44
13635.4
12136.5
14489.7
7324.49
-3188.3
442.772
1868.34
-290.823
3373.37
-81.8317
1435.92
3649.45
1354.89
-916.515
3038.45
1749.27
2410.6
1435.72
34.2051
-3481.61
-899.758
-4409.41
947.16
4574.5
4758.94
602.538
729.945
-596.439
5130.93
3627.89
5484.12
1832.2
8513.72
8777.28
4531.11
8637.73
9208.6
8161.3
153.546
1176.61
-2154.7
599.738
285.245
1596.01
2568.4
-1901.69
-2070.82
-757.278
2370.22
5889.78
11244.3
7886.6
6248.25
7347.41
12395
9382.19
3496.15
8511.54
7688.87
5037.4
-5164.7
11542.6
5156.97
10798
6832.89
1397.41
9799.24
12897.5
16216.9
18840
6665.87
6540
12389.9
4689.52
-1024.96
-917.105
-1349
734.319
6568.62
11511.9
8700.95
4913.69
-1173.81
12371.5
6409.82
6385.77
3599.18
2562.5
7265.92
819.209
3687.32
4413.09
10264.6
14662.3
5659.88
2240.23
3711
3498.58
9722.59
7726.67
11991.6
4490.29
5051.05
2221.75
-2157.59
2884
-151.75
-352.493
1122.77
-1847
-1513.37
1556.85
868.445
1714.31
6656.04
13026.6
1554.62
3603.32
3815.27
-288.315
2801.94
4390.24
1226.23
4529.22
6161.21
2007.51
6344.29
14097.2
7935.96
10581.9
11903.5
12424.4
14020.4
2517.67
10395.2
12960.2
14080.7
13711.2
7786.12
7266.31
3892.97
10265.9
7410.84
4723
9049.35
4207.9
-2361.87
-555.929
2185.69
7023.84
12594.9
8799.93
3847.52
-1731.62
852.348
7133.14
7588.64
10974.3
8363.87
8089.97
6408.84
20445.5
17423.9
14876.5
4055.7
5513.21
3786.01
1048.71
-2967.76
1074.2
-2201.84
-2810.91
-1084.41
-338.762
1712.35
998.794
-296.715
-684.99
4098.54
115.816
3527.6
3137.06
6137.66
12393
18116.6
16246.8
20296.7
20042.7
9056.55
2465.1
-891.292
4873.76
1931.8
7092.31
17166.7
9813.25
6773.15
1855.47
5137.57
3649.79
5256.86
1891.52
-1534.12
3142.55
2778.14
-4290.88
556.823
3418.76
-105.965
-2483.3
-1961.89
1962.74
-135.102
4965.39
369.973
4483.31
-1342.65
-1907.65
-2207.06
-1636.84
589.54
2380.24
3035.83
4194.08
3019.61
3797.73
7363.94
737.779
-1967.21
883.633
2207.39
2709.65
862.794
1102.76
220.133
-2270.73
5526.03
846.436
1245.52
2964.49
8365.24
8886.44
905.536
2069.77
3624.83
2717.85
6601.13
3357.23
-201.707
-639.728
-3597.26
4186.15
3992.7
3770.99
-1449.17
-2525.42
3595.02
-686.476
-646.297
2028.01
5873.02
4383.6
2825.1
4490.85
4120.22
4862.24
17789
8273.75
15775
23895.4
22117.2
25310
14500.5
20858.3
28366.2
18545
13710.7
8380.85
1337.03
4872.64
-655.381
2103.72
-658.141
2794.17
3114.59
18804.4
14476.9
5540.93
3458.82
2073.39
-159.288
-360.911
-1727.78
2481.98
6788.55
16078.3
1648.37
3565.19
2239.9
2180.38
4659.63
2445.61
12047.9
11212
13805.9
10299.3
10794.7
7252.93
4037.1
-1066.4
1040.51
8775.9
13953.2
5456.57
2630.77
1356.96
2443.9
199.633
-834.526
2225.52
5301.32
2202.11
-309.9
554.684
8056.64
9835.86
8515.3
6773.24
1416
3150.42
5129.89
6088.99
7118.1
6735.73
4650.91
4783.59
-2412.34
2508.37
6082.99
6804.92
24220.6
13320.9
16267.9
14054.6
1288.8
-1517.46
-1388.34
2855.01
5759.57
1549.49
2429.4
4389.97
6546.26
10651.2
6909.32
13279
19656
12225.6
24514.5
18813.6
12965.6
15901.2
29894.8
25146.6
18853.8
9246.01
9967.91
10214.9
12234.5
5976.14
1553.61
1477.12
589.869
42.7737
3330.97
756.837
-4157.24
5466.2
8261.44
6251.46
2928.81
1805.61
18114.3
15900.4
6182.58
-354.679
1667.37
-4679.03
-6178.51
4755.73
7056.66
4688.61
5955.21
9168.66
14911.8
13127.2
13550.3
8944.83
426.029
-2438.99
4983.81
-1075.42
-425.289
2798.87
2420.85
4774.32
2909.84
2592
-82.7036
2074.79
2852.64
3286.19
831.661
3431.79
2343.39
-499.932
-3244.1
3262.7
11480.6
9733.38
-1855.14
-1471.16
2289.85
1365.9
14289.9
13711.2
790.718
-3112.71
12754.5
10006.6
26239.9
15304.6
11146.3
4396.07
5868.72
8536.58
8222.39
-482.853
-545.865
-771.207
1626.06
2916.29
-1057.34
-978.588
462.26
1988.99
-350.926
3201.41
-3216.78
531.247
3602.65
5819.53
15738.4
12562.2
2540.55
418.28
-530.687
3040.3
7879.98
8240.7
2854.22
236.173
3471.72
2917.68
249.756
1713.64
1201.61
5812.75
8388.78
15391.9
4995.9
1632.67
508.824
-2668.98
-321.203
-780.648
-1237.39
-3693.18
1104.04
6568.14
2024.78
6703.41
4779.5
8183.62
736.735
1032.38
6760.77
11037.4
13305
7915.01
5566.01
3024.9
-97.2452
2905.13
3204.85
-751.699
2183.65
543.798
3261.65
2785.06
-80.6536
-1953.82
-988.884
-2947.3
7033.92
14776.2
10457.4
10466.1
4914.7
4974.23
11422
11611.1
3605.65
8077.45
5405.74
12423.9
10438.3
15946.8
19024.1
25712.4
28964
20158.6
6642.08
4017.99
2286.52
2748.17
970.886
-3176.83
1577.12
-916.655
3061.95
10585.4
9211.48
-42.8743
-2897.25
-3149.44
-1435.19
2334.55
740.073
1313.19
3167.13
16476.5
12901.1
9641.78
6306.02
16872.7
13028.3
4385.87
9895.59
2676.58
3365.54
3572.68
5315.46
-1343.39
2159.28
3544.07
5784.56
271.634
9982.95
10901.6
7189.65
9314.14
2808.54
2687.84
8723.68
4104.49
7025.27
6327.9
3064.65
1288.58
-2572.12
-1553.93
-12.4832
-792.563
1500.06
5072.53
2940.51
2480.71
1470.29
1038.46
-1191.28
-356.229
62.4366
1959.39
2372.29
-661.804
-175.992
4536.61
2502.5
5135.49
5229.83
12774.8
12745.5
6892.56
7937.82
19520.9
15432
19269.6
14971.2
7330.74
7008.03
12205.3
14993.1
9134.53
8121.55
4191.81
1200.03
2382.72
6642.87
-504.393
5276.19
2222.78
10265
10393.2
13590.3
5956.7
4194.67
3400.66
8934.88
6684.13
4310.67
14082.4
7076.66
14539.4
7449.61
6581.54
3131.95
1283.59
3509.69
-2420.56
-2005.35
2456.6
7674.94
6340.43
9534.34
2721.31
3124.63
5234.88
-3474.73
711.431
2993.49
10008.5
19423.7
16667.3
14927.8
10841.7
8713.15
13629.2
9618.74
4041.48
3352.04
6218.46
5663.51
17516.8
14506.3
1485.81
6327.85
12380.2
12308.5
16655.2
23839.1
20847.1
21545.3
13877
4197.69
1673.92
13531.5
14536.5
14109.7
12159
10253.9
7443.46
-2011.85
-362.087
1139.61
3805.38
1162.88
930.139
-1328.62
1438.12
224.332
6054.6
2370.58
2351.11
2379.15
9923.18
12296
15173.2
5888.29
489.48
2368.22
-337.517
-69.925
1912.32
3065.88
708.55
1724.05
619.021
9618.92
6858.4
6688.26
8029.72
6503.64
6115.51
2955.84
-3919.58
-2948.17
3946.92
2347.68
4018.1
6453.06
5519
2071.72
2399.79
3116.07
2218.03
2715.81
14447.5
15625.9
9593.5
3980.99
1931.02
1399.36
2453.15
3091.64
5964.96
2894.8
1856.11
-195.329
6013.9
3195.7
-226.109
3581.76
5746.54
4723.43
5419.43
3812.51
8261.67
13406.2
9383.85
301.842
3543.55
6490.64
10041.9
4805.99
5722.53
-8.06479
7534.28
14366.6
3589.18
10239.5
429.88
-1092.22
-766.404
-27.9685
-925.968
2821.59
1200.94
49.1957
-3359.51
285.04
-201.837
-504.174
5658.28
15189.4
18733.9
18823
11965.4
13629.2
17121.6
14606.3
20891.2
14695.4
13124
13673.4
17507
8274.48
16227.6
16158.7
14511.2
11886.8
7312.74
4077.93
6041.64
6125.42
13505.7
15421.1
20110.2
7879.82
-1971.81
5925.08
16620.6
11737.5
12454
20328.9
20014.3
22717.3
18141.7
14630.8
9279.93
5345.29
12418.9
2994.58
15181.7
17672.8
16890.7
12946.1
1634.26
4729.55
2720.79
5715.53
5394.59
12849.5
19763.3
22.0491
2065.02
1742.58
4837.3
-1731.31
4221.77
7769.03
4222.89
5074.06
-342.944
-2529.64
2176.95
2749.75
3973.56
363.318
6566.4
4424.5
6359.84
3933.62
484.859
1113.62
1290.01
-354
-1735.38
-817.846
2325.53
10132
10333.7
-358.465
-4400.54
728.578
2866.03
2500.17
12740.5
17673.4
12576
6612.7
1107.01
4909.39
16503.7
12436.1
7836.77
20241.3
4691.86
3444.29
4266.87
3148.09
3858.49
2234.04
6416.23
3150.51
3994.69
3598.85
2811.16
12736
7970.41
7138.3
3614.2
9447.07
3921.53
4599.84
8155.83
860.93
107.418
8615.53
8021.39
9950.48
3911.4
2493.9
263.589
-150.155
555.592
1320.31
3527.42
2820.51
3333.1
-205.182
1343.76
15912.3
4157.49
3724.81
7172.04
2152.86
-822.317
1182.78
3421.14
150.297
-5029.12
-595.792
4988.52
7480.61
9563.35
2098.49
-3066.57
-1936.83
278.692
1413.79
1971.42
5060.1
2059.07
2045.06
2184.63
2899.19
3530.57
2384.71
5922.95
130.845
3944.39
1909.83
4602.51
8760.08
2576.65
3767.35
6057.53
10743
19345.3
17966.2
10116.3
5315.55
-442.436
3599.73
1535.23
4516.67
370.667
4959.64
13890.8
27870.4
10513.7
2433.69
-161.428
234.884
1659.07
2258.32
3710.51
9478.15
2370.04
-4519.79
4911.3
7755.48
8984.2
9201.07
2078.44
4722.56
2916.74
526.242
8111.55
16324.5
2175.75
1275.12
5686.79
-1331.38
3845.2
3419.4
-69.2868
844.598
-3186.88
4168.63
9776.34
8113.91
12647.5
14741.5
19416.1
12649.5
12434.7
15428.8
12832
14520.4
15265.6
455.525
3036.94
3982.24
5583.28
3792.3
4603.96
5862.27
1811.37
7446.11
750.995
4370.31
5485.49
1057.89
-1494.09
-2975.5
392.12
3137.69
2611.89
1443.06
2916.47
-1704.82
1728.61
3376.66
7018.47
9831.97
14196
12290.1
9131.05
5670.22
5052.59
5059.03
364.741
2671.23
8319.2
3752.49
-4055.57
-1881.89
-226.067
2664.49
-2850.1
273.969
-1481.3
-4344.88
4675.38
5342.14
9091.12
7369.92
4969.45
10731.3
9771.47
15289
553.195
3975.45
4166.48
3015.16
10141
11639
9552.76
6071.06
2583.18
-173.042
3029.94
12187.4
9922.14
8561.06
1173.99
4955.47
5807.53
7660.6
7535.08
5816.88
5727.86
4341.75
-396.749
-2763.22
407.641
7583.52
-2983.92
2930.45
6228.7
8389.59
11934.5
-3060.99
1122.89
1432.23
-3456.65
3963.84
1125.37
1595.83
8756.39
8964.48
9316.23
8824.63
8699.24
8532.54
8165.11
4027.43
10785
7889.57
101.126
-994.893
1027.59
8127.28
7058.64
-1360.41
1938.33
493.334
2092.52
8307.13
661.479
1265.8
3321.25
13.4321
-2121.33
1180.19
-2896.06
6725.63
-2168.06
-1785.98
327.854
2107.17
-1440.1
3295.78
7957.99
3850.68
1959.42
346.919
1910.63
1236.87
4249.43
1210.32
6714.34
11413.2
7057.98
6166.31
255.452
6865.98
1572.27
5776.88
16458.4
5510.84
15265.1
4314.91
10771.7
3125.46
1161.36
-2339.04
-3497.79
-603.619
2646.16
6081.14
7674.29
10038.8
9076.75
10237.3
17640.2
6926.16
-1041.52
21250.3
19411.9
16310.9
14841.7
14053.2
12024
23050.8
13243.1
12504.3
4299.06
4940.94
7225.57
7470.48
6402.22
968.07
5593.09
4018.39
4577.83
2996.34
3550.73
395.184
1000.07
-4663.92
466.518
2736.71
6441.9
10814.8
8315.72
4461.17
5015.75
4974.65
12087.9
4855.09
10159.9
4454.55
-605.11
-1396.17
6337.26
4242.97
1496.21
651.422
568.299
2725.85
368.286
754.975
-954.815
-2994.5
5308.83
3764.26
3363.44
699.317
-48.5647
2367.06
4726.03
9193.04
13875.2
5331.87
11698.5
6488.26
7907.39
1691.71
15467.6
17329.1
6960.54
5203.9
4941.28
365.469
9358.75
538.02
2136.46
-1019.34
969.626
2944.55
10364.4
7291.38
1901.57
-4298.67
-3608.06
1206.26
928.634
2908.63
1338.26
-665.093
-300.979
-4403.15
4832.03
9119.27
2480.21
7931.79
7656.11
3459.1
703.011
7224.73
8082.46
12842.5
11977.1
10208.9
3372.32
658.372
1945.59
3157.44
4528.08
2490.86
5093.42
1949.26
5511.37
2463.65
1186.64
-2664.2
3174.24
-1201.23
12945.9
18246.9
9143.08
16238.6
17706.7
18336
16259
13296.1
1985.92
-5888.43
-881.421
8073.01
972.124
-2187.34
5086.79
8640.51
4913.34
4980.43
1975.5
17681.1
21266.7
26597.9
24749
12090.8
16545.5
18309.3
6630.86
7207.23
3581.31
4963.42
2365.92
1066.22
1357.18
-743.031
-1593.34
301.013
1296.19
1624.32
3084.76
1653.69
4670.21
3675.3
1713.75
7980.57
991.92
1455.5
2768.52
3751.62
10071.2
6440.62
5188.41
8053.02
2582.75
2631.69
2646.65
13123
17445.3
9295.37
11821.4
2785.28
-392.766
648.297
2280.61
15725.6
24733.7
26276.3
6927.49
3410.48
2267.45
5132.01
3366.63
2434.26
2069.62
-1431.42
5653.67
6623.17
8701.98
9576.89
15529.1
17388.9
24335.9
28207.7
12391.5
10822.7
10798.6
8410.8
957.452
-1666.09
2632.39
5699.33
11150.3
9556.11
2573.54
2647.16
509.848
3564.55
751.97
-491.021
4494.34
11794.1
6896.58
15410
13102.2
17646.8
13880.9
2438.5
-1176.36
3236.93
4983.6
1741.21
5092.56
2851.47
-1066.54
4209.96
9163.92
9014.93
9315.2
15298.7
6773.55
-1825.1
600.625
3237.83
-2762.74
-3294.85
-886.06
9987.37
155.061
2681.92
2055.33
2737.87
5712.33
2250.09
779.847
-1338.7
3028.2
5981.94
-1263.23
-1479.21
-1632.76
-6920.42
354.885
-945.505
-3911.51
3397.76
599.234
798.92
3366.82
4298.67
-337.866
802.548
6455.69
8407.31
8229.28
9627.83
5225.82
597.764
-751.299
1482.92
9547.03
5128.17
4594.51
4155.22
1335.48
508.984
1076.15
5972.67
2376.03
-4832.69
-2654.46
2351.4
3379.41
3107.11
1567.38
-1042.31
2232.62
-779.433
1064.79
12804.1
13113.8
7469.66
7617.69
12391.3
14551.5
6720.97
4101.97
8145.89
11129.5
5312.89
-372.077
4479.73
13796.7
23425.5
16036.5
6713.58
3866.17
503.263
-541.785
-3131.16
2537.68
11324.7
15000.1
15955.1
13060.4
3726.56
1195.98
4404.63
650.579
7013.83
6334.11
5991.79
9257.79
19857.4
9132.14
7873.43
2438.76
3155.76
7829.33
5432.37
14326.4
14166.8
10022.8
19543.2
26436.6
27181
21206.1
12722.3
6801.59
-589.675
-1299.17
793.594
4708.26
8887.35
1647.06
1355.52
1621.2
4262.96
6812.01
2158.66
-3240.72
-3222.86
-1891.24
-506.872
2735.56
7172.97
7675.25
3132.05
1421.28
3782.64
2269.91
3168.16
1818.21
-1686.96
-1635.36
2111.4
3433.74
9181.88
-2842.91
-1256.36
-1221.28
-343.513
4595.48
-1507.65
4654.19
8993.53
15771.1
24817.8
25823.4
18552.6
18935.7
13538
4486.74
2640.91
9100.86
3534.75
-552.481
3344.61
3295.34
1364.34
516.093
5592.68
8141.64
10199.6
17400.8
29989.4
18630.8
13067.6
12454.2
11659.7
13784.8
12988.1
2294.75
4466.06
2810.74
4496.83
6148.25
7851.93
13102
11825
7676.65
-958.049
-1010.83
2029.53
12277.8
2347.23
7498.98
4787.37
1576.54
8715.48
6074.72
2577.81
1826.77
-980.382
4181.52
10993.8
15398.4
10865.9
10393.1
4742.86
5929.2
1590.2
2099.48
14919.1
13251.6
16571.4
6719.35
4755.34
6105.41
3362.58
10748.7
10857.8
7931.41
9826.03
104.773
2191.21
4952.18
7435.75
7010.54
7167.15
7805.4
5943.68
3920.23
3459.48
1974.26
12097.1
5743.11
992.282
2847.29
2850.24
3296.51
891.315
-731.6
3842.29
2579.21
8908.55
5984.36
593.515
3957.12
2578.87
1277.57
7141.27
9038.67
12282.2
5616.67
954.849
1177.67
-1545.73
-2930.75
-4596.73
4505.4
-474.614
3149.92
3821.53
3791.45
1800.47
894.66
680.746
-1240.46
3254.69
10121.6
9969.3
19615.4
17916.4
10765.3
4297.96
6586.65
6232.45
11692.5
328.721
857.9
2418.4
-3047.66
257.298
3003.28
-2071.36
4777.55
5386.62
8445.78
10974.7
12109.8
6497.11
-82.111
2041.35
233.088
-1040.89
6650.97
6564.98
-227.219
2569.83
8887.3
8933.63
10347.9
11847.2
17384.7
11239.1
6549.33
3587.58
6996.25
4419.12
3789.15
5803.25
4382.07
6915.2
14200.3
11963.9
8838.87
987.705
4936.98
11667.8
15117.7
9050.25
6409.72
640.873
3833.25
-4971.53
2822.92
13506.8
12613
11083.2
953.635
1362.83
1680.26
2360.28
79.3489
5536.01
3102.76
2501.15
1686.74
-1673.46
4790.5
2767.45
-1262.15
4699.83
8440.46
1665.5
-353.389
1576.74
4384.18
1204.08
5142.98
3238.82
-595.574
2660.57
-849.361
3077.03
4760.57
3985.23
2881.7
4082.78
825.402
5628.21
5945.54
5028.05
5910.2
7911.85
4459.99
11479.3
12459.5
13484.2
5801.96
12124.7
2583.17
5993.36
-105.367
2469.23
8245.73
-314.943
8950.57
15607.7
22190.1
27614.6
12990.9
13863.8
9773.43
9834.28
4729.55
1745.68
7402.48
6232.32
497.711
7873.45
5451.26
995.246
9815.36
7578.54
4730.9
7461.86
3068.1
3342.55
2124.53
12241.5
11618.6
22767.8
11669.7
8993.06
4107.26
4510.52
1882.46
-5575.32
-1518.37
892.879
10019.8
13690.3
2104.67
-2363.56
-976.009
226.026
2210.1
5085.11
11750.2
11726
23714.7
8909.4
17407.4
29519.2
17699.1
7189.18
11366.3
16769
6275.77
28163.3
10509.1
15849.5
14339.1
22148.1
5295.3
2265.02
3188.96
4866.34
16693.1
27741.7
27113.2
27448.8
11349.4
11958.1
10589.8
5297.96
2806.11
6428.21
6954.29
6361.95
5978.7
7484.55
4335.62
2875.92
2027.26
3547.39
6958.73
10914.3
11496.4
12851.7
4462.14
5584.23
5170.33
948.402
2592.23
3276.44
-1444.68
3557.06
689.503
-443.31
4544.17
5138.66
6647.2
16232.4
21246.2
36695
14543
14926.7
9143.41
10781.7
11155.8
12417.3
7700.46
4574.37
9783.42
15666.1
18855.2
18490.6
10624.8
8615.72
1517.05
1452.97
5913.16
1923.94
6364.64
2230.35
6303.59
14516.5
6227.67
7097.55
9193.9
10937.4
11578.4
8227.79
5122.45
5528.36
2543.94
2149.57
3440.42
4213.4
10095.9
10069.2
12438.2
14230
14676.5
10500.2
14218.6
24627.2
18583.8
15289.8
20084.1
9716.42
7253.37
-3178.77
3322.97
3835.42
3197.5
7164.34
2203.03
6863
3976.2
13428.2
18379.7
15386.2
19873.5
23386.3
52049.1
52935.2
26681.2
25764.4
32668.5
27747.4
14772.4
8847.34
20765.8
15300.6
16284.2
29092.5
37761.3
22027.2
15557.4
23453.9
21730.6
7345.77
4193.66
5866.06
-1625.26
-1451.66
-4408.14
9247.65
1754.6
3894.47
3783.54
3436.97
3167.52
6667.63
1904.54
9969.48
10232.4
3209.3
3297.89
4775.89
3576.06
-1877.45
3473.24
-2348.41
-429.76
3166.9
1082.5
2515.55
-2345.62
-1126.61
-1586.72
4556.14
12481.8
3166.78
3750.29
4645.95
2770.48
593.853
1165.54
4943.93
11672.7
17949.7
14684.4
21501.7
11211.2
10847.8
4076.79
9775.49
2549.74
4962.46
1732.16
12358.5
11225.3
16642.3
19610
15558.9
8915.29
1301.87
3167.18
10332.6
12444
7502.11
10090.6
14953
22923.1
22356.5
16341.9
5556.45
2765.52
2361.13
14383.8
18031.8
18156.8
14614.2
6983.3
778.418
7194.22
21536.7
18777.1
5901.48
4829.84
16902.3
424.649
-1179.77
14945.1
15076.7
19009.7
12056.5
12292.8
245.101
968.118
4990.6
-291.786
2109.17
7486.41
11883.3
20974.2
11264.4
8121.34
699.113
5531.45
2693.02
6426.78
6848.21
2718.19
1073.14
3612.18
6683.59
12282.2
17790.8
16798.7
6722.19
6829.22
6773.87
2796.4
8765.74
7740.4
1096.65
1582.5
2752.45
3749.1
2047.89
7233.55
4825.11
4648.43
3311.52
3509.9
-270.986
-2750.19
-1086.5
-851.716
-128.127
2806.4
8372.25
15594.7
785.376
4409.24
2641.17
5463.16
2272.8
8540.25
-163.236
8453.15
2648.7
4171.21
10574.3
12536.6
5615.59
6029.41
5552.29
13282.4
6092.74
2070.63
3309.64
-1978.29
6562.84
5213.52
7018.14
10240.4
2794.2
8781.64
7717.33
10944.8
5979.37
5238.62
3919.9
1282.43
2962.18
4579.54
2834.27
1490.49
1634.71
-305.706
-2588.82
-1519.9
3448.77
8578.24
8673.02
9854.52
523.888
8026.6
12620.5
16481.4
12777.9
9004.02
16022.2
13397.6
5531.83
5187.71
-1466.73
-1062.01
230.48
225.703
4071.94
-2292.91
2580.61
10424.5
9065.62
6534.67
6121.15
-1375.82
2090.16
602.618
5439.64
2030.9
6141.38
-312.505
5640.99
13671.7
8958.1
-2349.77
11967.2
10748.1
3568.29
5941.66
3617.86
5825.85
8509.54
1900.27
8341.58
136.139
2111.68
229.821
9060.95
8185.41
11787.8
6586.37
9276.97
4035.03
4089.02
16405.6
17903.9
24780.9
20903.5
19690.5
4646.02
-1584.59
3318.6
4497.34
4619.87
2600.92
104.422
3469.2
11179.9
4763.37
10946.5
6152.82
11217
13040.4
4783.34
7261.61
3925.02
2199.29
1752.1
10714
6479.66
-101.854
5178.79
4569.19
1604.54
1018.47
1735.75
831.167
4818
4339.8
8991.42
11174.5
4869.3
615.072
-766
3171.9
9252.42
3485.91
7379.87
-271.173
-396.286
16.0582
620.932
85.9104
-1558.09
2124.73
-2180.85
3372.39
-2219.91
8960.89
3939.71
11123.6
11881.2
8885.76
18881.6
14093.4
16477.1
6174.21
11052.8
6772.99
12669.7
9259.8
8361.86
8893.54
8861.14
1822.99
744.81
2796.27
5806.66
2110.75
1000.41
5233.16
3695.96
9329.07
3623.54
3911.38
11705.5
7714.78
19411.4
8954.19
17248.1
2288.53
-665.919
2281.23
-1803.78
-1216.62
207.835
-2412.66
-1156.8
-2777.48
1973.45
4551.69
3395.84
19550.8
14360.5
7064.12
10138.3
9627.26
7734.59
4515.31
6105.84
281.762
1724.79
8222.88
12575.1
9244.88
-332.859
-246.115
-126.416
-3409.17
55.7753
11908.4
5056.87
11528.6
-5056.53
-5130.51
-2295.02
-659.549
6899.34
7327.27
12497.6
13042.2
9099.94
588.625
-1005.66
2277.16
11328.5
7157.53
12388.3
6643.28
12110.6
2818.57
-557.062
415.146
9346.35
2750.44
5068.95
5568.04
3803.24
10359.5
7086.78
-1752.06
785.406
1643.14
-1115.74
1770.59
207.193
-2616.81
3341.04
4403.99
2612.21
9569.63
17996
11392.3
4850.96
11497.8
7815.03
6272.25
1539.24
9421.05
12577.2
6954.8
10323.2
6545.7
7827.05
16386.8
13400.5
5817.96
10710.7
7877.51
5351.07
14490.7
13270.6
4289.31
-1586.87
4000.4
4493.65
4233.03
3714.33
4443.17
1321.76
5033.35
5995.03
1935.55
2970.68
1826.11
7767.04
18370.7
19796.8
23999.9
22621
13168.4
4708.72
4024.39
1931.88
15760.3
11048.9
6586.81
24734.4
19667.5
18391.3
10715.6
3015.17
10355.8
10324.2
5953.66
16104.9
10846.3
-1564.76
6867.31
19227.1
11731.8
12005.6
6539.6
11932.7
8794.41
3850.34
5474.67
2110.27
-1203.21
1898.05
4911.62
-1412.32
-1912.65
-1107.21
-2629.77
-174.177
-301.684
-104.248
2541.05
6774.24
6364.3
3245.45
270.37
6218.84
5920.97
6842.58
11051.2
15406.6
15895.9
16998.7
9268.24
1600.07
3374.76
9145.69
3035.16
11701.7
10357.9
11033.1
1264.12
2177.8
4984.99
7416.09
9366.08
-1396.28
258.05
2228.8
10481.7
17305.3
14652
4629.49
4349.7
772.845
4847.16
14214
5875.17
4819.5
5778.29
4502.34
7005.49
7084.87
1180.15
1641.63
946.362
4445.13
-1917.31
958.017
994.708
-830.249
3093.33
240.614
3862.57
2200.7
458.906
-2330.85
3794.55
271.687
3730.95
4690.16
2940.88
5451.87
8395.88
11573.9
11005.4
15194.6
11683.8
205.65
-643.891
957.748
5369.05
1999.16
1453.58
7848.25
3699.42
367.023
11599.4
20410.1
22446.2
17694.1
5894.47
1803.52
7819.25
5362.21
5627.97
3179.02
5685.77
-1681.87
877.96
318.376
-280.955
4552.64
4021.75
5222.44
5307.33
5540.04
17481.7
18731.8
8665.18
12712
12071
1720.29
3043.48
5406.33
17929.1
2865.19
15391.2
9164.71
8360.35
10946.4
6891.15
1322.13
194.705
-400.824
4718.04
6772.84
1521.42
2162.35
1176.64
1711.27
2158.38
5665.38
-2310.06
830.751
6606.72
6038.33
6483.09
6682.32
5225.17
6564.04
16292.8
7163.51
4308.37
8130.99
8648.49
-2258.63
1962.35
-2464.15
-2634.09
1961.85
6285.53
4480.89
6470.48
6401.75
22211.8
10790.5
16417.3
2270.78
1625.34
-2508.12
1712.29
6302.72
2160.82
-2151.85
-2.56514
-3611.67
943.559
8313.42
4591.41
2161.8
7028.55
13530.4
9024.25
18434.6
6778.35
6270.16
-352.266
-7386.49
-1851.01
-2926.58
-2460.3
1571.02
-2011.8
4464.44
4421.42
224.674
879.32
2640.82
3637.5
9679
2141.36
10946
7531.01
6419.36
3777.84
3042.46
7366.04
9448.08
6214.68
16134.2
8708.72
5183.24
6519.84
11065.5
6929.01
6962.23
173.495
755.413
1454.27
-1207.56
-1014.08
2376.65
-960.519
1887.59
1171.12
20.6753
5288.13
-3503.37
-343.257
3560.8
2064.33
6263.99
6876.52
4613.11
709.639
4274.78
-2757.82
7230.39
5275.46
7381.35
1506.45
-106.775
4168.03
2520.38
-573.951
56.7662
356.351
1880.68
3078.44
4541.71
616.149
4217.39
7347.91
-269.978
-883.549
-981.135
-2273.98
1260.17
1133.78
8055.76
14951.8
12808.7
775.74
3468.48
2622.15
11151.1
13828.6
8270.63
14758.5
9227.2
12228
5949.79
6903.85
1966.62
7651.59
-2238.88
7527.7
10725.6
15110.6
10753
12665.6
2246.35
7911.54
20023.7
14193.9
5732.94
331.952
2126.1
-1429.75
4242.98
6656.28
4429.27
-794.563
-6508.98
-3072.4
2128.84
7429.14
18392.1
17176.8
6549.69
330.759
2954.94
1866.26
2371
4848.15
6992.53
4499.42
4910.78
8896.02
5894.56
15582.2
15517.7
17343.9
14859.6
12583.1
21894.1
27038
10803.3
12565.2
21421
9190.43
-505.298
2456.32
-1443.64
8257.75
-807.803
2781.18
-888.675
6084.95
5440.16
3849.72
15560
26379.7
13540.7
6336.14
4890.63
16949.9
14382.9
12379.9
12188.3
11786.1
4715.93
3207.34
-1229.37
5144.42
600.449
2164.38
4952.19
473.533
374.617
59.6051
1422.19
6131.5
644.349
15092.5
8503.82
14579.5
8085.4
19807.5
12559
11817.9
18762.3
13645
6551.01
5097.63
6639.53
9721.41
18014.5
33430
10936.3
13859.1
13979.4
2425.19
4503.9
7034.57
11294.9
3688.82
1933.22
8235.02
4735.12
12803.1
8250.74
4687.41
4264.97
2428.45
2520.23
12187.2
14684.5
1654.27
2851.34
10868.8
15086.5
15776.7
21186.3
9490.39
1076.59
-4439.93
7626.03
2127.75
3806.61
5975.16
8524.18
8531.63
9929.28
11568.8
6092.72
4838.41
2495.51
3528.18
4671.78
8397.41
14777.9
9103.22
11565.5
14022.8
7058.73
14478.6
39951
30155.3
34920.7
23043.1
11692.5
3082.42
11109.2
13600
25495.5
22123.9
16828.6
18681.8
12655.4
2745.98
-948.762
-541.728
3445.81
6149.52
2782.33
488.979
-1005.09
-393.99
2639.28
7194.71
3959.19
9176.9
4228.9
16234.6
15731.5
15783.9
7521.37
16429.3
15491.7
6712.32
2775.49
5973.79
9490.75
3940.5
7252.44
5395.74
1082.39
2934.47
4266.56
5517.42
5541.5
12512.8
13081.4
11074.4
15073.5
6059.66
7822.01
5285.19
3764.43
6681.19
2399.98
643.415
3817.2
2530.41
5292.57
5033.22
-1383.94
20.7333
-2836
-3825.79
4463.54
-1502.21
-1919.54
1211.81
6245.85
6631.69
5997.43
10368.1
9064.63
4954.79
1610.01
7039.63
6816.24
615.857
9082.33
8246.04
4850.25
6515.5
3061.03
14641.2
12480.4
5176.81
-3004.86
6095.25
11026.9
13072
7816.73
6369.06
2937.29
2858.32
3437.21
10765
25335
37208.8
27256.9
14869.1
3502.6
920.881
-103.885
-2599.11
-5920.34
-2614.96
2014.45
-268.692
12734.7
6535.53
14283.4
19551.6
10557.5
11351.9
15857.8
7560.65
11679.1
4316.31
7132.17
4615.75
917.668
3623.66
532.5
-1074.26
5234.19
8820.13
11995.3
9573.53
15967.5
8342.04
4944.06
3233.88
6114.66
-161.39
1373.2
3287.58
2324.98
5918.81
12850
971.896
5649.91
20433.9
9929.76
17033.4
21958
580.192
-379.486
-742.591
105.84
-2021.33
4805.51
561.123
1965.04
8857.72
11664
21419.6
10980.2
8907.4
14084.4
17445.4
16159
11581.5
11789.6
6010.39
12349.2
14016.2
10826
3301.79
1902.77
2461.53
-871.427
4074.01
5522.27
2616.23
413.336
8096.57
5935.66
-617.599
4585.08
6862.15
775.248
-446.945
127.33
-673.921
685.653
10768.3
2096.71
1522.13
3812.2
3248.58
-303.689
2815.5
2490.06
2739.28
7738
5715.7
11403.1
19242.1
13954.4
2113.18
-2015.12
-1506.91
4628.82
12261.5
8728.23
16534
16596.2
14635.3
10007.5
8073.19
1427.66
5705.57
7205.23
7253.7
-1460.52
-1361.05
-846.86
-246.318
10022.4
10812.6
14653.7
18135.9
23308.4
17518.1
13007
23952.4
21314.4
15128.5
13245.2
7725.9
12310.7
1274.26
2553.76
-2827.9
6762.45
13834.3
15292.1
-3790.74
16677.9
9708.83
3705.62
-1080.46
3522.74
6903.9
6894.38
6205.48
7909.8
21455.5
5347.05
10852.1
21880.8
8836.33
18874.5
18762.7
14405.5
4921.99
2959.68
9985.59
23026.4
14524.7
6036.47
10782.5
4496.6
2282.3
5475.92
6461.55
5012.22
5059.57
2874.97
4260.33
330.789
6946.92
140.108
338.085
111.357
3575.3
233.646
2386.22
2905.12
-562.745
-3082.69
15095.3
20322.8
22486.8
3646.03
8837.07
8559.58
7593.24
945.31
6162.82
5242.96
6633.96
-2136.43
8473.43
-76.4752
6409.7
1334.29
471.152
1331.81
86.5255
-2021.6
1774.85
-568.917
-6363.37
4248.28
2975.59
4246.38
7528.05
5135.54
-967.742
5586.34
10904.2
21492
18400.5
20274.2
19402.6
5131.54
11333.2
13794.9
24238.8
16913
19107.4
30653.2
33540.3
27458.2
12513.3
6755.99
1687.86
3275.2
-4042.91
4878.81
1695.61
1001.02
-521.22
6689.37
3831.65
1329.36
973.831
1843.94
-799.69
-874.983
-4791.6
1495.25
1763.03
9887.32
3486.82
7157.72
10257.9
8060.03
534.865
3419.93
8214.5
1326.12
-3480.52
3083.13
5772.7
5975.36
4152.74
3141.72
9303.16
14573.1
12151
15214.1
6441.2
-2452.24
-635.209
10724.8
5464.93
7537.98
3214.04
13495.3
18580.5
15057.8
12392.4
18271.8
14337.8
12603.5
18167.8
10081.2
33213.4
34065.2
40095.3
31139
33660.2
48786.2
27764.8
2128.62
21141.1
16612.6
22161.3
8048.57
12586.7
12782.4
7937.54
6372.47
12375.5
13744.5
14596.6
11310.7
1487.86
-493.12
-1792.39
676.912
1375.12
-724.885
-1995.63
-2866.03
-3539.88
-254.351
3406.99
166.573
-20.675
591.298
1117
325.215
135.771
2710.47
2942.37
1978.54
-1626.6
648.224
5302.72
4443.73
