1.95922e+06
1.63932e+06
1.85128e+06
2.21953e+06
2.15879e+06
2.59065e+06
2.79569e+06
2.38464e+06
2.23291e+06
1.81737e+06
1.56244e+06
1.48682e+06
1.57296e+06
1.33094e+06
1.19799e+06
1.55212e+06
1.55377e+06
1.75116e+06
1.72012e+06
1.72456e+06
1.77343e+06
1.43571e+06
1.56982e+06
1.40784e+06
1.47626e+06
1.26865e+06
1.12899e+06
1.20446e+06
1.02558e+06
586978
658649
637072
847363
904822
998578
975955
730897
501626
437228
218791
163721
184227
111816
51923.3
115991
258041
366314
478536
390572
341608
234590
322682
266981
386734
493340
489657
485162
505611
353770
474790
352632
452270
350309
266532
137402
141484
57930.6
30335.7
-1065.14
45421.8
6449.02
-31543.7
12629.2
10215.5
-4193.33
32562.7
56867.8
74923.4
61748.4
-35153.5
-35801.7
-6738.9
19866.6
-5754.31
-7890.26
-5241.27
-8539.03
11156.7
77115.8
67750.1
81510.2
315676
232627
148628
237876
176059
359428
110230
153091
136042
100535
57804.4
104868
101088
32415.8
106517
119113
66660.8
-18761
10134.9
2538.09
19792
-35095.8
1504.05
-9641.73
-12415.9
-12557.4
479.872
-27.2094
10020.5
-40407.1
-14375.8
49984.8
4085.71
32627.3
3593.84
-2412.89
-41285
-16304.8
-35932.2
-1889.14
-5221.56
8915.35
-11719.4
5758.83
43575.8
102703
104300
152403
126930
178417
161023
83414.8
-2400.75
-14742.4
-423.86
46358.6
5409.81
46552.9
-15912.8
57185.2
12235.8
-11275.7
-15205.3
45640.5
49235.6
25454.8
51918.4
41177.1
44653.3
112828
155044
176547
156051
115695
337594
399764
246452
245087
80044.7
-15925.2
-56891.2
5146.24
-10041
-43841
-7313.29
105858
223081
88487.8
188764
74799.6
16521.9
29325.5
-157.174
71051.9
17539.5
34896
-35677.4
-28953.3
-49898.4
33116.5
36080
205972
440788
249630
387622
758962
592994
861534
1.0573e+06
1.2819e+06
1.15771e+06
957529
1.31378e+06
975186
1.02434e+06
1.19123e+06
827251
806913
1.09641e+06
1.09978e+06
1.08139e+06
1.03556e+06
1.33832e+06
1.35873e+06
1.19113e+06
1.27741e+06
1.05607e+06
1.10673e+06
1.04423e+06
903989
843909
877857
1.00945e+06
1.2664e+06
1.23289e+06
956239
624539
878750
910959
911611
1.28249e+06
1.37662e+06
915068
590111
492644
419689
432337
559596
511500
824464
554121
427619
422488
313889
144172
111475
165543
173858
242969
236663
176350
127224
34277.3
22283
12324
-8599.77
-34214
24966.9
57822.4
16528.1
22603
6993.87
-27515.3
-18076.2
32974.4
5866.69
-36071.6
498.656
6352.63
-13326.7
-28651.2
-11860.5
26036.8
-40061.3
-20595.3
4611.42
22679.5
63654.4
41845
11082.7
4899.85
6517.17
-432.799
-894.167
-680.575
19783
-2537.42
-20994
-5115.53
-4719.78
6056.78
55806.5
88699.6
24671.7
32443
-17282.2
-39095.2
-7513.07
57952.2
103821
49044.4
47126.3
89681.8
83268.1
68203.6
16158.4
14721.3
10948.3
23306
8824.22
978.619
43006.6
84370.9
38375.2
43416.7
-22224.1
-18450.9
-33983.2
-40264.2
71877.5
198161
378066
625309
520314
548417
304825
185150
443564
424425
235086
451864
395084
209777
347752
188477
423776
358774
431438
373940
397412
641782
660458
614155
711101
736455
599679
982411
1.04912e+06
1.19898e+06
1.08531e+06
889820
903932
888297
879176
1.02458e+06
798576
629925
459894
292038
280151
524689
377358
371183
275675
195634
98501
59336.7
37063.8
3195.5
-2236.61
48704.3
41590.8
114198
46152.7
96725.8
153045
71638.4
136868
253482
227960
163075
184790
123297
44553.3
93785.3
3276.03
-812.537
4527.99
77066.3
81921
158387
21203.2
74125.5
114308
-18807.7
-52166.2
8382.55
130471
138968
25767.2
53397.5
62274.3
23546.7
91137.9
33492.6
12489.5
-33883.9
-23911.5
-57669
-167212
-141142
24035.4
-13646.9
147984
61000.3
22915.1
-17358.8
79140.6
62738.5
52705.9
18565.6
-8444.43
-8596.47
85996.9
70999.4
129003
142670
131751
147857
96309.5
16747.6
-14964.1
38094.2
35471.4
80489.4
99039.7
94711.9
84415.7
113444
14278
71752.4
166770
192792
110911
41306.5
64738.5
62045.9
128608
73173.1
28447.9
1829.59
9973.39
31476.1
-53503.5
6119.09
177557
161283
224252
253500
307839
304058
422983
284113
488966
362117
187313
210072
181522
269366
306213
300542
322531
265168
268886
325231
371277
424384
791947
863509
814219
664968
647251
779752
841038
644762
567023
549897
386506
107433
113527
192890
118823
126058
18137.4
23009
12129.6
16047.1
7370.65
-5774.97
-9405.67
-11854.9
-11317.1
-46481.9
-108836
21882.7
32692
8442.6
-1313.05
-823.311
26062.6
8157.37
10498.3
9949.38
-4165.49
-584.12
-24381.4
-17273.4
35234.2
-13665.7
-3992.72
24660.6
-63485.4
-74350.1
-34044.7
-8454.07
-50771.3
89332.2
31204.5
24192
102442
-19191.2
-41531.8
-61385.4
-17918.5
-10775.9
42822.6
-81782.8
-10774
-19143
-76314.9
-30180
-1204.66
-7144.49
-2176.47
-47875.3
-9589.85
-6252.95
-11338.1
1706.41
57503.9
73749
46210.5
46211.6
14210.8
15800.4
12124.1
-4815.97
31978
33109.7
3179.01
-6078.15
-14798.4
-12220.8
-859.394
14470
10.1584
3357.31
3583.66
30302.8
20503.9
36914.7
-1019.9
-1789
2658.12
4305.45
-23587.7
-52736.6
-36220.7
-38061.1
-7143.16
18382.2
-2833.87
-108.534
-6732.35
43010.8
21515.7
51767.9
82412.9
40855.7
56127.7
12723.3
-11639.8
-36986.8
58962.2
12811
1910.51
-32250.8
-58634.1
24123.5
-4720.45
11937.3
-1995.68
3810.59
338.184
-3819.1
-14075.1
-68657.7
-24184.7
-38073.8
10250.5
-3777.89
2355.67
15930.6
6767.19
48206.1
117509
75220.2
175901
298655
599038
727317
846061
758780
684412
959755
895078
948433
923112
1.05819e+06
1.15847e+06
1.28918e+06
1.02036e+06
1.29207e+06
1.00877e+06
1.05573e+06
1.28624e+06
1.34706e+06
1.32021e+06
1.25064e+06
1.47085e+06
1.76918e+06
1.54583e+06
1.41214e+06
1.43714e+06
1.22663e+06
1.11291e+06
781204
782681
823133
553401
539004
520103
578401
712214
830670
519069
446262
609389
513246
459862
1.11308e+06
617272
550976
501503
748004
549705
302354
227557
193447
22478
50601.1
38730.7
31773.3
277.164
31406.4
9581.85
23255.4
-44508.5
-15646.9
-30356
42961
31841
-16541.3
4742.18
11122.7
22040.3
-9076.43
15273.9
13968.9
-36580.4
-59489
-72350.6
-4994.69
57061.5
70669.7
70606.6
97590
69934.2
123057
109914
179124
228855
309174
79561.1
155698
179494
210700
168565
199027
208626
153477
228424
241044
266436
79018.7
-4562
-1342.35
6272.54
54854
176436
12815.5
39876.3
225490
83896.9
-8642.11
226158
246406
266199
432593
635114
604351
478083
410640
192486
120977
97749.5
228816
233639
128019
66765
110112
130118
144475
145770
103023
52137.9
141403
228725
69858.3
-17436.1
157530
124377
97202.6
84027.9
61455.9
94160
35355.2
41320.2
84081.4
126380
497200
459166
755092
847957
726409
1.02158e+06
906680
833054
592459
996121
876364
886895
769376
747048
823469
643057
871956
606792
482390
516765
310700
280745
277335
374983
409098
442980
398232
421177
417695
535979
430507
412655
292947
155692
320511
13883
16132.3
-73001.3
-119784
-77370.8
-8500.69
-15527.2
14310.1
1673.6
33731.8
-12387.9
7920.85
4393.08
195534
182054
255200
406382
198855
363205
277345
306588
641229
806166
918561
535498
500008
653628
621603
709465
740817
782553
624807
513980
531153
468006
109720
99579.1
142835
269172
206134
225307
83650.6
105930
162572
244107
192144
149845
354086
425987
620094
723460
730624
869597
1.07266e+06
1.13185e+06
1.05232e+06
1.078e+06
1.19115e+06
712862
1.0477e+06
1.14943e+06
1.21571e+06
1.05692e+06
663415
641558
604128
672649
583459
773365
1.19856e+06
1.52265e+06
1.26207e+06
1.37262e+06
1.24031e+06
1.19626e+06
1.19272e+06
1.35918e+06
1.19317e+06
886674
799094
943996
1.74888e+06
1.86376e+06
1.99273e+06
1.58843e+06
1.0838e+06
1.34179e+06
1.1968e+06
1.14212e+06
725783
878615
765666
1.04958e+06
1.17374e+06
1.34257e+06
1.53137e+06
1.33442e+06
1.02367e+06
1.5183e+06
1.25413e+06
1.40912e+06
1.34342e+06
1.24602e+06
1.25262e+06
1.10438e+06
1.06516e+06
1.31262e+06
1.07393e+06
1.00127e+06
864182
884305
639806
698663
1.15095e+06
1.03654e+06
1.25343e+06
1.01447e+06
1.17532e+06
1.31763e+06
1.66551e+06
1.65964e+06
1.70649e+06
1.95e+06
1.55434e+06
1.64834e+06
1.52987e+06
917165
1.2557e+06
899631
720009
835988
861641
1.09269e+06
1.10037e+06
989002
1.20293e+06
1.21668e+06
1.0378e+06
901642
1.12546e+06
1.16362e+06
730184
562517
682807
775209
942080
896862
1.01843e+06
1.02726e+06
957087
853943
948289
806093
543900
705966
933421
899513
897613
887234
736471
756595
497409
1.09771e+06
1.1378e+06
861074
632333
762173
563700
898450
817984
1.12496e+06
1.16711e+06
1.01961e+06
795507
1.14445e+06
1.35473e+06
1.19586e+06
1.43396e+06
1.41031e+06
1.63308e+06
1.55798e+06
1.78063e+06
2.25456e+06
2.55699e+06
2.41386e+06
1.94367e+06
1.95471e+06
1.99156e+06
1.96334e+06
2.20802e+06
2.21663e+06
1.59239e+06
1.44736e+06
1.16235e+06
1.31265e+06
1.35874e+06
1.54987e+06
1.58923e+06
1.37041e+06
1.4988e+06
1.67629e+06
1.40187e+06
1.85956e+06
2.01573e+06
1.94232e+06
1.94252e+06
2.1492e+06
2.22614e+06
2.64426e+06
2.85404e+06
2.68599e+06
2.4668e+06
2.48237e+06
2.19588e+06
1.96319e+06
1.75581e+06
1.70478e+06
1.50499e+06
1.25485e+06
1.01867e+06
802667
749230
466289
530634
274153
257977
296650
241292
219527
397952
315284
556367
385785
363682
591335
423511
269125
376216
250389
353315
363821
109158
149344
164686
17286.2
149961
161737
221594
264669
356878
407200
622486
861716
891858
469139
448930
427644
337296
200988
73137.4
8658.32
6589.08
339.73
-4957.79
-34431.3
-15740.4
-42447.5
-63098
4106.88
-17503
-70804.8
-63645.6
17520.4
5727.14
15208.4
13025.5
-2734
-4117.21
-31347.9
-15647.6
14260.7
521.392
38514.6
51193.3
46937.2
27302
38860.6
-27252.3
-33807.4
-85033.3
-159207
2911.05
20321.3
14100.4
-9204.65
15475.3
-5295.33
1317.01
1898.03
-18116.9
8413.21
-6980.64
-3410.59
-54919.2
-64324.3
-30704.3
-9628.77
11245.9
-12077
-24106.3
-7385.9
-16559.4
-17212
28272.5
41619.4
196527
91304.6
207452
74904.4
98606.2
60734.3
52414.4
29866.7
38403.2
108040
81036.1
164389
181041
260040
79116.8
22966.1
34952.1
-19206.5
45001.7
88254.8
213714
277626
445331
321561
298678
357061
513126
510925
613155
623691
710641
718324
900280
769146
599142
903073
614500
523651
218475
457181
535563
637338
452653
582679
664740
914704
984614
777572
1.02781e+06
801751
704407
515414
718296
762749
759414
677367
603678
252267
479287
442597
661914
644525
495051
428725
538144
527080
358800
237374
121821
126585
65261.5
216.58
51115
9033.7
-9534.94
30143.4
-5986.65
2625.36
29538.7
81.3629
23641.2
40083.2
20867.3
-2961.55
12086.9
3594.68
-3905.52
624.052
-39699.7
15340.1
92310.6
254035
325261
363629
430185
623844
827667
826260
594816
462382
424830
575952
770966
678736
739989
523062
680455
528896
532493
543768
256517
512575
403694
371559
254375
356877
284830
345474
390333
354053
490127
431305
477350
444186
245332
196501
326156
471029
585846
511504
466375
583681
627512
1.04829e+06
792743
593270
538404
491081
424785
332158
232644
204068
197641
226233
218479
321700
441363
473785
466693
433859
240365
101245
138304
163106
74050.5
72774.7
93205.3
112297
169132
413086
791495
979698
933022
645481
983291
1.24788e+06
1.4385e+06
1.46151e+06
1.64481e+06
1.07581e+06
1.09529e+06
1.25096e+06
1.12515e+06
928456
1.16066e+06
962727
819619
839543
1.06054e+06
1.53645e+06
1.76708e+06
1.67242e+06
1.29031e+06
883023
695288
617542
442491
241951
392475
252707
160350
412590
482215
776416
503481
623031
538442
489123
371493
508164
771120
641817
861673
1.17549e+06
1.02744e+06
867571
672148
547295
274429
4784.25
188901
90422.8
304119
231505
437830
433758
644893
959258
587196
715413
684356
846988
603966
591481
447203
542818
579878
633808
647606
333607
305625
147707
92854.7
42260.8
38581.6
28767.8
71182.7
80270.3
118290
235832
175505
154127
102479
103541
135127
25745
57651.8
160736
36966.1
-5963.85
36475
46763.4
20694.8
2108.18
52248.5
-15120.4
-7125.29
-134856
20068.5
36860.7
51083.9
22554.7
11482.6
-20319.4
-7008.88
-18345.1
-18243.8
63782.1
-48637
-7046.36
103787
126050
56107.1
110324
144190
92274.6
17705.2
-12511.6
38164
-11441.4
32077.7
137187
284857
362257
185435
271899
337870
268246
316214
202836
82870.4
173335
63810.9
64292.8
-2455.41
10563.9
4221.71
15403.4
-772.087
54704.4
109106
351923
196257
59903.8
42439.1
47397.3
167037
296153
403140
293904
317260
133277
115104
35308.1
138209
20779.8
65417.8
63774.6
21866.7
17770.2
-4010.3
-35598.7
68812.7
29730.8
77.9733
-10598.8
-708.877
6647.47
-427.998
-4205.04
6187.45
-37122.2
8776.35
-14442.4
-11387.1
-59074
5093.13
-524.825
43663.1
-14865.1
-32579.4
13562.1
10929
-19673.4
-48236.4
-36835.1
-38827.4
-8074.4
-13337.9
74779.4
44543.2
35910.1
48733.4
-12043.8
-23857.8
-2996.97
-19362.1
-7353.79
-13471.9
4863.81
-16343.3
-11024.2
-9805.1
11979.6
-60296.2
-13954.3
-2144.58
3469.88
11482.3
-9940.65
-45187.8
51349.8
45497.6
10237.2
-20441.4
-11985.3
-3583.66
-37683.4
-24410.1
-7085.5
-2541.78
3250.43
-20046.4
-21296.5
-27170.3
5669.48
-30849.4
-20485.1
-8775.78
-34315.5
-21152.7
-14814.8
-46572.2
-65215.9
-58857.7
-18007.2
-15032.1
46785.6
34871.8
212260
104806
246955
221629
97705.9
163605
284698
305462
586797
522494
456309
547779
565551
861398
867238
938317
813830
913930
836022
1.06146e+06
1.01098e+06
1.25209e+06
966141
804266
632500
520491
468683
512888
351707
377783
530082
569692
563123
450843
507251
174286
18344.6
-29382.8
-751.066
51808.1
77767
259617
173090
153104
260760
357547
361838
584222
443264
256124
249268
456842
322020
327793
298331
583307
818134
406014
335112
273455
361344
271169
94196.5
254130
351114
330025
354292
349403
151941
29799.5
-31274.6
-13058.1
-17680.8
-49988
-62900.3
-52744.2
-78225.3
22538.7
18473.4
-17102.6
-337.919
-1799.89
-22582.6
33847.4
22315.1
14344
-32950.6
-36468.4
-53064.5
-2060.87
-11100.2
4186.01
3232.86
-7993.67
3914.68
9027.41
-1206.27
-10041
-20055
-3438.31
-126.588
-19755.8
-36622.6
-31786.8
38783
-16740.8
-6302.57
7697.71
50578.8
65936.4
229245
124114
197170
233903
479958
483688
447725
573449
716059
340830
199666
233173
212277
171587
352455
611664
688537
304260
164902
213977
195690
260569
460350
368477
366267
186880
239718
261849
186900
247760
519683
265701
378462
508653
660938
792213
713647
560809
562195
872942
662472
453712
405658
458247
505788
637496
423640
441809
107547
92404.5
164503
129189
77811.8
55811.6
67809.9
10391.1
46836.7
31341.2
17730
-28232.8
-22446.5
-29597.9
-18105
5787.83
173584
138980
250477
209678
198493
105905
30322.2
55799.5
288233
193310
343534
230226
197470
32839.3
30395.4
20910.7
44037.5
25897.7
31912.8
3770.18
-5427.88
-24628.4
-7353.3
8967.2
42381
1945.41
-1125.14
-13160
-9822.47
8698.4
-12732.4
6936.62
-8597.7
3295.45
-17165
-40352.4
-13873.6
-19598.3
54957.7
231987
166043
236800
281593
454321
475794
351565
531582
572639
529112
449745
503201
577301
652451
641544
586990
495447
769120
585096
431125
450508
683257
891696
509721
461511
736547
699067
543707
257014
183551
181753
199469
133230
116338
60961.3
73969.4
187760
200046
206377
236106
405951
359804
216091
254183
360955
281966
349119
313881
304005
186693
94156.9
-9269.97
120479
280147
520380
554715
620554
236533
116948
170120
139779
198913
86241.9
140591
82328
20214.9
3788.37
83363.8
150463
422346
319706
442527
284202
313396
245437
358003
294513
429752
448504
682424
620135
791999
1.00236e+06
843467
691940
608223
422333
288642
308577
353678
312213
394656
415625
443168
411767
301386
159805
82974.5
49826.7
217798
153740
96323.1
117754
270332
277371
219939
512161
249182
414628
348878
378557
325632
262043
188128
150753
63811.5
60166
87517.8
49922.9
79095.1
162534
144787
272019
321338
174654
246935
188854
243801
170098
123249
-24343
13840.4
25174.3
-44841
-12645.9
-449.059
-13501.9
36629.7
30580.3
12601.3
39651.2
25331.2
-1704.38
-20642.3
-6871.76
9529.25
14088.2
2483.82
-8591.37
11591.8
76115.6
93537.7
20508.7
86749.2
51362.5
-37172.8
-69025.1
14276.6
-6018.69
35611.4
123446
225257
263837
125103
38050.7
37792.6
2772.76
291705
381597
338985
316933
383195
301683
113920
136161
22770.2
14761.4
-14851.9
88091
89848.3
92444
112588
58105.9
90252
149806
282763
525150
632763
587334
508469
423241
291463
356435
277841
293304
291558
112227
53304.9
55071
-2937.1
-7669.58
18504.8
16947.4
34555.1
-7246.97
-5922.02
17168.7
14015.1
633.573
6664.39
12299.6
20993.5
27855.8
2420.84
-12979.6
-38851.8
-26801
22433.6
12043.6
-43379.8
-21965
61007.9
102930
62678.4
117212
173578
96351.4
42019.9
49353.8
37552.2
11956.3
5250.82
41795.5
-4509.4
-221.052
-36817.1
-36306.9
19031.7
14251.9
11053.5
337.322
5680.73
9260.43
62831
11267.7
151536
196851
106972
398901
518366
403892
420220
314440
435703
335192
377291
578609
475275
527333
552049
501806
965859
927789
1.17565e+06
1.01154e+06
1.41717e+06
1.10683e+06
1.1616e+06
1.01523e+06
1.03953e+06
1.29788e+06
1.37421e+06
1.52489e+06
1.47161e+06
1.48824e+06
2.45359e+06
2.08733e+06
2.24841e+06
1.76845e+06
1.47976e+06
1.4806e+06
2.01492e+06
2.02083e+06
2.27092e+06
1.56591e+06
1.71571e+06
1.53851e+06
2.2006e+06
2.29026e+06
2.01988e+06
1.7632e+06
2.09238e+06
2.82159e+06
3.00345e+06
2.84904e+06
2.85483e+06
2.73246e+06
2.51952e+06
2.48641e+06
2.22468e+06
2.08494e+06
2.17087e+06
2.24127e+06
1.9305e+06
1.92166e+06
1.41196e+06
1.50214e+06
1.50204e+06
1.24075e+06
1.45742e+06
1.49833e+06
1.69082e+06
1.45344e+06
1.19981e+06
1.09946e+06
1.2893e+06
1.3862e+06
1.41791e+06
1.12121e+06
969590
1.00845e+06
700360
404640
426443
153230
139543
50184.6
21348.2
1916.06
25663.3
22173.4
-19535.2
-48505.3
116387
137395
34906.3
26051.3
-23822.2
5723.94
9016.89
17006.3
-287.453
-49265.4
1951.75
-30854.3
-1378.43
14628.4
-865.581
3550.45
-10396.4
-24215.5
-45045.9
51775.2
39277.5
-55806.3
85298.3
56919.5
21848.3
154101
332416
405745
380005
444602
230785
268069
224492
366913
233664
170256
255713
343246
371667
180272
14175.4
51496.9
50011.4
49484.7
37442.9
46415
3038.26
77923
95644.6
115580
365155
180321
206475
156926
58570
224463
109914
136143
68813.6
54197.9
119457
98077
97746.7
141879
178434
267735
142518
177668
170106
165588
277151
191672
173963
89245.2
58334.3
30152.9
-8405.35
-6570.99
10573.4
-26045
-93318.7
24252.5
38340.9
70350.2
237787
185260
205991
72058.8
213806
503277
806996
934488
916394
1.03416e+06
1.26125e+06
1.40478e+06
1.96574e+06
1.64589e+06
1.64565e+06
2.06684e+06
1.99183e+06
2.15971e+06
1.62836e+06
1.7174e+06
1.33609e+06
992999
755132
919776
608189
585168
747785
508147
446711
559868
292936
102080
69292
142693
319810
366051
272996
145526
38799.8
-16249.4
21826
70870.4
108487
33387.7
-15299.8
-33648
-17591.3
-40201.6
-12644
-3085.46
-25342.8
-18790.8
-2392.41
-46847.6
-31773.1
-11823.4
41439.1
11458.2
43136.9
74962.9
157789
229776
148251
118828
40616.1
128173
181517
406480
223940
255654
236174
103812
41795
42762.2
15717.2
-47273.1
-45627.4
3139.11
41878.6
-28483.8
-18648.2
-30261.1
-70555.3
-50207.8
4827.18
55261.3
-30789.9
-95121.5
-21622.8
-52802.7
-48599.8
-5556.96
2440.03
-23670.9
-17311.1
-17405.1
6577.18
44678.1
-12209.7
-4026.46
-20880.4
-20657.7
29322.2
40542.8
-31704.3
9980.14
46262.8
32978.6
14045.4
41584
237755
24627.8
72768.6
-31096.9
54395.3
162010
109722
90417
-31291.7
-138868
-39191.7
-24274.9
7924.53
-7015.54
15176.6
31379.9
-19167.8
-52343.3
-4902.3
-5382
30646.7
82868.4
127537
48726.8
114886
277184
241360
382206
360100
351478
138719
139868
35069.7
4462.51
-919.631
26084.2
33178.3
5050.33
-15997.8
28861.2
48934.5
35452.5
-356.827
11486.4
-10394.2
21795.8
16059.5
66997.9
100506
-4714.69
73835.4
44689.6
111469
211427
77773.5
39295.7
115442
130143
46155.4
63329.7
94538.3
114595
122198
105607
36199.7
16253.3
-20695.4
-8006.21
19200.4
11120
58213.1
45387
21333.1
-21132.1
-14317.9
-75937.1
-99829.6
86133.7
138602
118844
90589
80238.6
127232
232099
305667
274124
343045
275350
212703
133768
105027
214639
249257
93476.3
169989
97166.3
65908.4
199082
220462
345382
368545
259558
223380
263525
425222
672562
1.02772e+06
1.00266e+06
1.20539e+06
1.47495e+06
1.57432e+06
1.66155e+06
1.09284e+06
1.18006e+06
700348
427883
337647
422438
483771
815228
718623
955782
415830
305249
248117
186079
156151
43216.6
123689
152831
231989
203973
283571
243138
428148
391880
317140
466532
364067
329633
350437
410105
356039
269866
149895
189194
175739
180093
119491
122602
133240
139855
178113
109923
135297
252140
315424
242148
296281
279331
93086.6
-11094.1
-12287
-63989.6
-59799.1
-8279.54
-9729.4
-11459.2
-14533.5
4409.31
18085.7
4358.95
-2902.4
7478.52
-18367.7
-5618.45
37922.1
4644.35
29803.6
-6277.88
-8867.27
5307.47
-47990.9
-32970.2
-3460.46
106733
56176.7
15596.3
21904.2
2680.44
10509.8
-22437.9
-5589.09
25129.7
5545.07
25660.2
-14835.3
-13693.4
20107.1
-48891.8
-26237.8
69736.7
232795
230163
293947
298610
248077
217968
321913
221377
296265
465788
505048
649868
673605
605056
767239
762805
817728
950542
725488
479129
336080
246322
194226
165913
145167
51633.5
113752
90181.2
102638
172180
186536
194344
224451
314373
320214
284780
513702
276103
388472
-9991.49
-9757.02
17591.3
514.426
48128.9
92116.2
106396
281222
202663
306502
159767
121221
86819.4
25493.8
14442.8
-36987.5
49368.7
19826.9
-55566
-6772.71
62724.4
74432.2
42702
31230.8
-360.106
-31163.3
42654.9
-35963.4
29335.1
11070.5
8539.72
92010.1
27731.7
-16593.9
-78550.8
34079
151445
149280
216124
238245
407712
363207
286298
92979.2
-8902.32
-12690.6
19010.2
94897.6
126126
173560
37957.9
10508.1
32373.4
106015
55862.3
-6940.45
13249.5
-1343.55
29422
42224
176454
245390
177042
193072
284759
195803
298854
169195
85905.9
31247.3
172304
212370
217326
179578
69775.9
50934.1
18370.2
4015.08
108662
-22030.6
21443.5
49603.4
9487.43
11332
15982.6
13051.6
19136.6
51198.4
91635.4
36274.5
63172.9
76193.3
50051.1
-65558.9
-42931.8
35788.4
43956.2
50359.9
28032.8
162288
194892
301372
369669
497015
496508
315566
323842
388945
154911
59274.8
27426
20426.6
-13515
-12950.7
15744.7
65895.3
138013
85015.9
90629.9
40745.1
-31075.3
54645.1
86617.2
102434
71760.2
319100
322898
453324
473754
403306
210540
139197
222666
221684
173554
173068
80104.7
66156.8
46092.5
-16490.1
-18935.1
10523.7
-44039.7
5036.35
95704.7
192720
128304
172851
402796
478128
494704
622877
559829
670401
910752
1.56691e+06
1.69835e+06
1.80922e+06
2.24748e+06
2.30686e+06
2.04893e+06
2.18914e+06
1.87621e+06
2.01339e+06
1.94982e+06
1.63001e+06
1.58807e+06
1.12847e+06
1.57985e+06
1.21212e+06
976544
876098
582640
742566
765891
668000
415519
314773
258861
75351.5
25402
-73902.8
31559.4
73347.8
174746
503521
591721
588317
382190
249708
234604
257209
163972
149925
98125.7
68436.6
22773.9
22275.2
-5894.48
-705.942
12571.2
-20136.3
2629.61
-38844.2
16049.2
3036.93
85416.1
206695
280564
188613
164218
44776.7
148831
184039
94920.4
86044.8
110439
183547
48220
245562
363195
475404
404890
432204
627517
722521
1.06637e+06
863046
837055
1.12032e+06
982177
1.37636e+06
1.53932e+06
1.86352e+06
1.28033e+06
1.11559e+06
899765
982630
975976
711883
878190
1.39128e+06
1.22156e+06
1.3605e+06
1.00759e+06
963051
718675
894297
868651
673719
678208
526213
412121
523423
242955
201492
392518
656785
545600
788900
885465
1.34652e+06
1.25642e+06
1.00329e+06
1.36686e+06
1.50849e+06
1.89268e+06
1.4841e+06
1.55429e+06
1.53986e+06
1.18923e+06
1.38687e+06
1.1289e+06
1.33615e+06
1.7042e+06
1.47932e+06
1.595e+06
1.72917e+06
1.35638e+06
985830
1.06622e+06
871104
637464
764570
833728
1.27366e+06
979469
1.42041e+06
1.21385e+06
1.40895e+06
1.3243e+06
996504
1.12232e+06
806105
794897
578887
814764
763825
1.00305e+06
930846
1.36273e+06
1.52433e+06
1.53676e+06
1.87757e+06
2.0355e+06
1.64793e+06
1.87094e+06
2.16802e+06
2.10042e+06
1.83192e+06
1.41416e+06
1.13636e+06
1.06622e+06
1.28413e+06
1.31603e+06
1.43244e+06
1.52985e+06
1.42425e+06
1.02507e+06
1.09024e+06
1.52948e+06
1.39474e+06
1.14613e+06
1.03871e+06
863267
736939
574977
822833
894037
929217
1.40547e+06
1.60487e+06
1.89057e+06
1.58658e+06
1.35156e+06
1.48093e+06
1.737e+06
1.94146e+06
1.86696e+06
1.71123e+06
1.27343e+06
1.78688e+06
1.84631e+06
1.33822e+06
1.17623e+06
1.25861e+06
1.10188e+06
1.63032e+06
1.32405e+06
1.13715e+06
963911
844117
734116
731446
424914
779257
713460
448455
378809
508892
686436
763970
928150
830877
792920
752566
661382
680994
688550
715334
635183
621831
711240
510878
509529
482291
540917
535583
414383
326258
269040
172476
79965.9
23888.4
19145.8
71231
74228.8
22898.3
16867.4
66136.6
111634
173486
246229
512366
338731
634288
883260
915377
1.08652e+06
1.24699e+06
1.58336e+06
1.74217e+06
1.41106e+06
1.10492e+06
1.01377e+06
724342
540927
545981
414230
319501
451704
374098
409168
356854
347279
373243
325372
338126
206921
139047
394897
678403
886783
907794
793610
1.07004e+06
1.06768e+06
1.1078e+06
600995
675632
588841
510690
454430
1.02947e+06
651361
333415
351080
322581
253931
111524
82913.2
47424.9
23114.2
72868.9
120642
271447
513915
649328
683069
658488
632181
277778
278733
373077
410616
599550
595771
372409
424160
380359
545313
548273
493999
560838
539222
565170
896575
895978
968009
856356
568013
292290
513597
921310
1.1491e+06
1.02791e+06
774100
754604
738478
798575
675591
782978
928556
958022
603312
392966
391532
454045
403238
373507
793447
1.12455e+06
1.09445e+06
1.01191e+06
828919
696279
439124
248114
261808
78755.3
8153.29
11767.8
2004.99
29404
11390.8
13122.1
65093.8
54113.4
39380.3
21717.7
-99433.8
-86799.5
-51809.5
-13042.9
99684.9
-9031.78
-23448.1
-12517.1
43906.4
57984.2
80966.9
277059
245582
246927
248552
132536
194289
203956
224278
299755
340939
230240
296995
126067
179460
86811.3
24051.3
7596.45
12898.7
3492.83
12407
-70316.6
-18164.5
24485.8
64636
10505
14094.4
21744.2
52034.1
99556.1
-36331.7
-9208.84
-6969.34
8865.97
18169.6
3459.95
50776.3
15177.3
33646.6
11814.2
43613.2
191801
172380
232763
184317
238662
309574
199709
325834
178039
259956
183656
202940
35231.2
83694.8
140275
66685
39907.4
107916
121259
122208
69966.2
149666
99957.9
183068
320754
328415
268692
198367
221862
267437
277991
281140
271748
462784
390893
477389
403573
691973
984787
1.1712e+06
1.12058e+06
1.39539e+06
1.60749e+06
1.89422e+06
2.02307e+06
2.25002e+06
2.34823e+06
1.90722e+06
2.25078e+06
2.71442e+06
2.39022e+06
1.74881e+06
1.32744e+06
1.02093e+06
1.10816e+06
1.40799e+06
1.34455e+06
1.23351e+06
894513
401152
263824
287428
514045
479052
612398
720698
591213
428406
243158
178846
76469.2
78708.1
46108.8
19059.9
53623.2
77238.4
52894.8
92109.4
95129.9
3006.63
6063.66
74634.8
60191.6
144090
207603
198534
111685
130542
276717
371139
434311
499574
635996
389227
390936
418493
597442
585030
687573
648790
706518
746432
515297
400025
329763
569165
541603
494258
561658
403012
273982
302538
132295
102163
247440
252444
349903
269597
112067
270310
465557
466360
359051
263719
516155
553478
942591
761367
1.38228e+06
1.69299e+06
1.9943e+06
1.9197e+06
1.56815e+06
1.52013e+06
1.29015e+06
1.2693e+06
1.44246e+06
838161
526582
355740
356642
222740
105462
154258
257969
67982.5
94918
182014
340488
455261
310456
156554
149664
260323
184968
143609
276148
220534
257447
137813
95440.4
93618.4
4910.32
68859.1
-13204.8
-16811.8
-30917.4
-7953.17
21862.4
28796.1
22791.2
-45111.2
-24887.2
2721.9
-16158.8
-10454.1
-53779.8
-25203.3
-19440.7
9052.74
-11466.3
-54356.2
-164242
-73568.3
-59440.2
-39464.3
-4682.8
-20715.1
522.687
19800.9
52699.3
96753.1
67682.2
74847.8
30048.3
75473.4
7570.1
43989.2
159239
161308
256846
232686
142803
174036
234651
280126
120575
328890
301955
268487
234778
353541
468574
670885
768266
640455
502618
367813
258948
424890
428508
486656
539710
327129
216641
187705
55711.8
44237.8
303153
160638
104259
280780
731471
686859
616238
776028
363581
339771
351770
442563
351694
253249
211622
216387
290435
334787
474515
386251
396045
598998
380960
296868
221963
367032
406350
481138
785658
406923
662699
694193
847722
827199
1.04916e+06
821292
784063
972070
594655
561444
680110
713343
717468
929976
1.14054e+06
1.48427e+06
1.4843e+06
1.43611e+06
1.25057e+06
1.25671e+06
720873
576449
525070
563606
743974
1.0666e+06
855133
1.03844e+06
917517
1.36171e+06
1.41096e+06
1.38193e+06
1.5101e+06
1.43432e+06
1.92822e+06
1.80384e+06
1.66068e+06
1.70445e+06
1.8961e+06
1.89436e+06
1.40845e+06
1.2999e+06
1.1053e+06
1.21598e+06
927679
1.38412e+06
1.34611e+06
1.13575e+06
1.13303e+06
1.06274e+06
1.30835e+06
1.48735e+06
1.21717e+06
873167
459652
333079
321571
351437
147462
57083.4
209683
198020
92289.5
17910.3
82879.1
82592.8
57564.6
-6055.69
-5938.64
-8415.37
553.368
12459.3
16052.3
31260.9
53624.5
68714.7
11121.6
36667.5
-4790.29
31484.8
47301.6
51530.2
12472.6
-1305.85
-7151.79
1973.73
-29066.6
-24221.7
-11073.4
1989.37
8908.04
34926.4
-4012.75
-11441.5
15855.3
-24774.3
-82181.4
-49074.1
-16746.5
-6083.49
-1539.53
-28257.5
-14119
-70986.6
-16217.7
59772.3
43870.6
29447.4
26063.6
30912.7
-7661.76
-3856.27
-1106.97
20597
-47.4649
2053.01
41468.4
114160
94189.1
88347.6
116614
38187.5
47521.9
94658.7
166280
217857
66346.5
28562.5
52460.9
98949.8
115094
147234
101138
141822
140450
161885
163692
200884
266978
395192
498936
716086
777351
493011
473284
790883
757852
677073
658773
468561
279528
189236
199499
53005.8
192054
61345.8
120769
57862.5
-419.606
35561.9
42852.3
75850.1
49118.8
-18080.9
16496.9
90577.2
131594
115912
40819.7
-20535.8
-6134.87
-4149.77
-10949.9
68281.9
124932
181047
226452
225169
245505
219690
444388
259310
132463
117320
209538
89510.1
110239
153748
210948
268072
535210
545153
719513
456725
495314
711191
458473
626389
965247
970352
848586
601355
740894
844824
941476
823308
1.14422e+06
1.16436e+06
1.00741e+06
749414
749088
862354
725823
812996
407548
361999
480657
771064
638056
510941
600549
655197
535635
836784
835070
574796
778641
477727
674253
924340
1.14523e+06
1.17112e+06
1.33986e+06
1.3701e+06
1.07943e+06
1.08027e+06
1.03025e+06
1.03478e+06
750749
613398
622343
332045
473328
502948
492052
284328
631419
367533
393663
350386
374668
512646
422309
369109
232428
191232
395903
273462
439874
718115
404785
320117
320566
641411
738612
731946
702713
530018
497653
330722
342157
356846
283724
80493.3
90296.7
168342
129610
221411
96906.8
143440
88607.4
6884.86
-7488.99
-14884.1
-50235
-416.33
18472
38938
22722.6
56427.6
129142
47696.9
64491.5
165573
105035
160055
197334
113075
153411
88911.5
88207.8
105574
8570.11
56555
101649
70378.2
163232
279497
476626
432931
182498
23632
205231
64044.8
138068
178008
198438
203755
79719
190198
496692
725952
843041
510583
888646
760545
660481
649333
581076
535338
435506
598340
470904
534627
352462
547156
570239
662315
542591
182450
20063
66856.6
-6164.86
31597.6
6115.08
-75884.2
-52077.1
-101613
19918.6
-587.895
98497.5
86505.3
32462.3
127.473
-6001.3
-76302.2
-93165.2
-117401
657.538
-16157
12235.3
14859.7
-32478.8
3665.82
-17968
-3400.43
39615.5
82854.8
119391
69897
48994.8
112389
21744.8
60997.9
-22066.4
665.3
-4627.41
41218.9
84926.2
-35704.6
-36033.5
96500.3
131182
21440.6
32781.8
68620.6
5129.17
-44749.6
95355.8
43927.4
114327
2482.72
-14761.7
8048.18
13448.6
16479.4
-14389
-14817.2
-5146.24
4313.29
-36693.2
41344.4
18681.1
-43653.4
-3169.8
-29112.9
6682.13
-16586.6
7509.49
-24605.3
-15553.9
-24329.7
3030.75
15553.1
3971.96
5049.54
28294.8
-21602.1
8054.87
-24679.2
6996.5
12911.3
-18885.3
102205
212273
256329
67570.6
51685.4
-80154.2
-55681.5
4270.66
16287.2
6765.99
38504.7
11794.8
75284.7
84520.2
48624.6
100901
153520
61080.5
22035.8
-6891.23
-32389.5
-57844.1
-49449
-31604.9
15823.7
-10005.2
-38306.4
-29385.5
-22024.8
29749.4
38215.8
7484.02
19423.9
-18570.6
-22405.4
-14555
-8374.82
-15577.8
-9336.34
-108245
-54872.6
-125558
-25040.5
28595.9
162585
70873.1
161257
102352
109617
39672.1
31972.1
-416.359
-11075.1
-28758.9
-17410.8
-25519.9
9947.23
-21025.6
24982
40320.4
78987.4
47465.4
-63.0275
32775.3
24914.6
44211.6
91321.9
163886
103913
26193
46504.9
104989
28116.8
23393
42573.9
13279
-3696.97
3460.33
623.679
2365.73
-30008.5
-1666.39
-4024.49
2184.3
-1049.93
-24495.4
-95636.4
13865.8
-34067.3
6294.44
-30928.6
-1050.28
21079
31332.8
-11708.9
-67415.7
31125.3
140209
104347
164896
199955
89314.9
53487.8
-7385.68
8015.82
-7855.42
-12563.7
-105680
-31479.8
-100781
-53637.7
-15808.9
-19958.9
-10418.4
-36214.2
-40333.4
-19142.6
-20393.2
-17761.2
-10206.4
106503
206104
97343.4
70762.3
206378
112128
263845
351826
219721
332594
553799
529346
789202
820926
798603
282997
255241
217600
554709
406258
356252
85098.3
95909.1
61607.5
99949.9
66236.4
-41115.4
-20688.7
-7575.42
111816
105080
123993
211569
81066.3
164148
370920
99977.1
36070.8
-605.629
53076.6
22700.6
17331.3
3735.11
-832.727
-16381.9
36804.5
54327.6
125246
109580
25818.5
-7797.76
16183.9
13942.4
60143.8
15751.4
16701.3
-198.649
-4761.76
1204.09
24660.7
87132
25422
18491.5
51000.6
26589.5
7071.81
12694.3
-11405.2
-60679.4
-18788.2
2822.27
22233.8
26766.2
104810
13428.6
61916.4
121900
39784.5
27121.2
47994.5
142864
113626
19025.4
4307.05
21200.9
-2076.34
23112.6
-12923.6
-54949.5
-25783.4
-4692.23
-13872.5
-25060.8
4523.58
24271.7
23914.6
6976.96
20629.9
27623.5
35262.9
334281
313169
548414
478603
708446
342022
231452
66968.2
60282.7
62154.9
59117.4
-24710.7
-28035.5
-39482.7
6440.48
-5263
65251
62807.9
933.894
8841.64
-1347.45
-32544.3
403.703
-31093
-1552.79
4593.71
-29423.9
1946.23
-16506.1
1124.96
-9108.79
271.308
11821.6
11241.4
49292.2
117630
154527
93255.8
57869.9
63681.6
193552
319020
480803
451820
430014
443128
218985
287439
160908
183338
287220
214616
224940
324427
395900
372347
272163
278602
159599
80528.9
213282
324893
199421
192152
239739
121172
18638.2
12604
-32894.9
-22919
-39422.5
-97310.9
-73754.6
-35779.9
-16967.8
-37266.8
4748.39
50982.5
-2080.54
26767.4
4755.53
-16041.2
-6388.51
1726.99
23097.9
4523.28
-8012.47
22428.1
45192.5
-3521.52
-31340.5
-57436.8
-22894.7
-6415.11
-7537.51
-53185.7
-42599.6
-41681.7
41776.2
-28285.7
108747
165529
159270
166453
34278.7
69118.3
-8336.82
-44138.9
-37862.2
-100721
-18041.3
-38674
-6090.07
5112.15
21399.8
4434.18
104103
160767
142875
10754.7
-58889
16169.3
-23648.4
59445.2
16121.4
6508.99
5910.67
-35586.2
-19188.4
-38262.4
-3755.99
-10028.3
-14577.3
-2513.34
-489.784
-3078.18
35555.3
84145.9
53338.9
16690.2
122285
83416.2
110645
100777
53661.3
165871
99597.3
248011
388016
398203
192117
183481
231765
340412
165973
256485
132981
195012
72469.4
125159
166404
244798
231497
359855
499544
452416
332912
323766
469453
754780
534106
362914
227016
69777.3
115848
208041
96030.1
122051
111067
41093.9
-14541.1
465.73
-42470.9
-43531
6243.97
-5617.93
-9703.94
-43722.2
-36027.8
4456.09
132401
341154
331571
365279
390576
288464
166564
112173
54950.6
75569.2
31394.8
57036.8
50347.3
-327.053
-16245.8
-17394.2
103821
199470
217652
467336
660824
620171
565592
593834
737442
750393
951981
920817
799232
1.24404e+06
1.48614e+06
1.28058e+06
1.50544e+06
1.55256e+06
2.00574e+06
2.13597e+06
1.96324e+06
2.03489e+06
1.86661e+06
2.09584e+06
2.34535e+06
2.31213e+06
2.17068e+06
2.0674e+06
2.67507e+06
2.04961e+06
1.81317e+06
2.42478e+06
2.87958e+06
2.72551e+06
2.38123e+06
3.05689e+06
3.37147e+06
2.94477e+06
2.73347e+06
3.31454e+06
3.19018e+06
3.25006e+06
3.32639e+06
3.41954e+06
3.8498e+06
3.5379e+06
3.84231e+06
4.08014e+06
4.08458e+06
3.59294e+06
3.55471e+06
3.73877e+06
4.14377e+06
3.27394e+06
3.08982e+06
2.86344e+06
3.33762e+06
3.12144e+06
2.63668e+06
3.18076e+06
3.54363e+06
3.75004e+06
4.29364e+06
4.07509e+06
4.34565e+06
3.62624e+06
3.76388e+06
3.73867e+06
2.40402e+06
2.07418e+06
2.00989e+06
2.11548e+06
1.49631e+06
1.59827e+06
1.54099e+06
1.73933e+06
1.63199e+06
1.55488e+06
1.52042e+06
1.50202e+06
2.02369e+06
1.72259e+06
1.55213e+06
1.97e+06
1.79029e+06
2.17981e+06
1.77508e+06
2.05775e+06
2.54428e+06
2.19938e+06
2.54302e+06
2.54715e+06
2.47192e+06
2.13377e+06
1.89596e+06
1.92713e+06
1.89456e+06
1.934e+06
1.52965e+06
1.93152e+06
2.02468e+06
1.50953e+06
1.76867e+06
1.63781e+06
1.61448e+06
1.53974e+06
1.77588e+06
2.36514e+06
2.33767e+06
2.06471e+06
2.44252e+06
1.46201e+06
1.64062e+06
1.78916e+06
1.97607e+06
1.57007e+06
1.71856e+06
2.02951e+06
1.84145e+06
2.05945e+06
1.94067e+06
1.37666e+06
1.1678e+06
1.08628e+06
1.25979e+06
1.22728e+06
1.96117e+06
2.02358e+06
2.4091e+06
1.83929e+06
1.45577e+06
1.19156e+06
1.06418e+06
749576
596427
654640
847292
810836
867509
695438
912598
707595
555620
970151
930632
776003
598694
506406
269027
108288
2109.79
80135.7
68935.1
124382
57289.6
143712
94541.7
127172
234784
293304
2864.81
21593.2
163013
140901
74304.4
47464.3
96681.7
268735
227707
312181
296288
273349
148465
108350
151430
245482
251707
522507
797352
626069
548375
399204
283061
359110
389305
590711
376709
427465
260815
193494
345259
252714
292075
409174
490351
696752
798497
615934
484021
463960
266527
108206
70171.1
47711.7
33029.6
13907
63124.6
55104.6
67787.3
79252.3
9343.42
143108
191217
27607.7
42163.9
4576.61
319485
304549
356822
323916
398854
544407
665550
848952
826898
472479
325061
276199
403794
662791
905580
1.09382e+06
953397
815112
1.1351e+06
1.0924e+06
857054
871598
914528
920522
990979
1.12439e+06
946823
892369
899627
1.05284e+06
1.21115e+06
1.17526e+06
1.01205e+06
1.27974e+06
1.50863e+06
1.85409e+06
2.30775e+06
2.41003e+06
2.04684e+06
1.77648e+06
2.04793e+06
2.57875e+06
2.40901e+06
2.09363e+06
1.78966e+06
1.75972e+06
1.62047e+06
1.60657e+06
1.39562e+06
1.22088e+06
1.27609e+06
1.41558e+06
1.45388e+06
1.16774e+06
889900
811489
714607
687777
799307
740243
710107
673881
698744
545805
736931
774305
578810
409092
282993
221481
243867
239012
350236
518591
652697
883597
1.05507e+06
1.21976e+06
1.05649e+06
969433
803326
796964
570310
608325
495035
448908
366634
536287
707897
542998
812397
882776
910452
932736
729143
268609
206370
68518.4
-11927.3
13397.7
8667.24
-2685.85
6206.65
-2561.78
462.322
17062.8
17494.9
21295.9
-35068.2
-13445.2
2503.37
-9193.89
49006
64423.6
-14486.1
51752
36282.9
31332.7
23032.3
63865.7
83313.3
134028
219832
139707
98215.4
118584
167794
92571.6
168739
320276
222137
221724
172095
53701
232326
114528
96396.5
22278
-334.44
-20619.7
31121.3
176570
202568
348198
239540
149308
37865.7
129048
43370
79740.8
157477
375980
555192
593795
645117
849345
559301
465919
336377
474691
408410
448400
673820
650508
782123
784795
564719
656250
487434
421984
705844
895521
703747
536666
783545
684440
924358
862719
1.0531e+06
1.4025e+06
960647
936799
881863
1.14273e+06
1.26333e+06
1.69471e+06
1.46583e+06
1.05751e+06
1.14858e+06
890586
864848
909751
822505
1.24584e+06
1.36019e+06
1.69426e+06
1.56476e+06
1.61573e+06
2.10688e+06
1.77484e+06
1.71754e+06
1.73333e+06
1.25914e+06
934978
914185
1.00762e+06
1.41473e+06
1.83423e+06
1.7211e+06
1.4563e+06
1.74015e+06
1.46197e+06
881523
556757
283593
207554
182536
59991.5
96796.5
59313.3
16113.8
141766
337772
411082
350237
400001
1.08132e+06
1.08132e+06
1.03476e+06
712044
739498
594275
414036
375745
491665
599917
800622
484641
640032
547910
413769
360578
355640
468843
259953
435749
119810
31470.3
-6727.25
-47894.3
-57663.3
-83.0052
8106.96
24910.1
-8036.17
15639.6
-518.541
-7782.81
-273.338
-68708.7
-39632.3
-21108.4
-7092.59
-19592.3
-7548.7
-60388.2
-44898.6
152808
214728
455335
547344
546060
398813
565424
769783
947851
742909
751068
671153
893376
690960
681946
858033
786803
822524
644207
579432
361453
215580
211133
231315
33212.7
29342.8
291386
461668
425747
429024
441486
665084
366215
301127
527232
709628
801324
760364
595343
473446
404270
562286
352343
300323
306495
513090
745056
637469
824976
453477
465289
867557
673022
584434
529490
652882
1.03894e+06
851629
1.01703e+06
922327
986723
931217
819799
691493
638757
474841
512572
502316
646690
911481
1.09403e+06
777559
1.16338e+06
1.24277e+06
1.51834e+06
2.01204e+06
1.86399e+06
2.0059e+06
2.36705e+06
2.40548e+06
1.79302e+06
2.3727e+06
2.79117e+06
2.62104e+06
1.99036e+06
1.84222e+06
1.91316e+06
1.83664e+06
1.7867e+06
1.70455e+06
1.63437e+06
1.71986e+06
1.38095e+06
1.32702e+06
1.18428e+06
1.23958e+06
1.16682e+06
815969
575695
395338
570342
519997
745150
789198
971014
941599
1.15772e+06
1.03935e+06
1.28797e+06
1.07609e+06
1.0948e+06
1.02056e+06
944016
1.24042e+06
1.44133e+06
1.4626e+06
1.14633e+06
1.41894e+06
767776
822753
486263
560778
728336
562231
666366
713741
470465
386297
318620
422427
470518
463574
630235
494647
571119
656323
851866
981855
735236
587030
764697
859056
663635
534578
476098
635946
757621
651465
783325
907691
767273
849576
731277
681635
738206
559427
448465
509790
803925
978905
795064
711103
1.0244e+06
1.45763e+06
2.09394e+06
1.56704e+06
1.44774e+06
1.61876e+06
2.30411e+06
1.96461e+06
1.60125e+06
1.20258e+06
1.25929e+06
1.2291e+06
1.27573e+06
1.29143e+06
1.18319e+06
1.27123e+06
1.18616e+06
1.04769e+06
1.20582e+06
1.2916e+06
1.15022e+06
989930
1.17237e+06
1.14449e+06
1.00208e+06
866360
995898
1.03333e+06
1.02068e+06
755942
1.27793e+06
1.44158e+06
1.26343e+06
1.2563e+06
2.04553e+06
2.05738e+06
2.20355e+06
2.72948e+06
2.57876e+06
2.85352e+06
2.72632e+06
1.77362e+06
1.40619e+06
1.8813e+06
1.65689e+06
1.7991e+06
1.98833e+06
2.39367e+06
2.43169e+06
2.06869e+06
1.90207e+06
2.16432e+06
1.43547e+06
1.082e+06
1.07685e+06
930938
838451
561280
1.01591e+06
764965
626866
716182
650720
396371
546601
539796
505296
591525
566499
560983
716010
732704
810971
1.00235e+06
852181
781815
777591
556310
689640
737518
527342
758389
1.15323e+06
1.27708e+06
1.09912e+06
971666
1.07863e+06
1.19437e+06
790450
984277
600692
548058
521570
486637
359393
598381
495467
922432
623121
529988
534922
433935
518588
474882
381344
626824
762415
988115
859055
755098
696052
581794
471672
434258
569263
510213
474884
596150
571872
570645
388633
415856
361743
67060.2
82044.1
665.044
17189.4
19872.4
56772.7
180190
126448
69539.9
221013
52144.9
-4996.66
52829.2
55139
-355.482
5459.84
-69478.9
-86346.8
-25431.4
-8674.52
-2074.2
9502.05
50256.7
123392
87190.7
3232.93
-14785.8
-10573.8
13402.7
110283
157716
177556
3167.12
1161.73
-2742.65
5329.88
58081.1
66763.8
3033.94
29943.5
109485
103957
96078.1
99933.3
258565
190268
139802
185756
245599
174443
33183.4
37386.4
113972
62964.4
115264
154302
90501.6
81816.8
8008.56
33533.1
110.238
-12133.2
-8521.73
240.983
16765.7
363.164
479.348
1192.15
5993.96
-19963.7
-5835.55
-4584.86
27843.3
30178.6
132900
139602
182298
189619
184121
147793
177220
217712
349906
486543
663107
584674
311058
66115.7
75667
87251.8
1605.24
35211.3
13314.8
6837.21
28275.6
-13451.9
43054.7
43362.6
114492
166335
39103.4
60753.5
4390.65
-76296.1
44339.5
140372
171260
152676
118271
-17466.7
-100925
-9504.5
-28913.9
-4268.02
-466.139
29448.4
-5169.21
140612
274136
226249
141216
142201
72456.7
71484.4
-61213.6
-7087.56
-4858.57
35390
70782.5
137255
10159
-12841.9
-30410.3
-57595.6
-42786.5
-53410.3
-45267.8
-23984.7
-33090.8
516.175
7598.63
179.463
-3962.66
3599.65
-3541.99
15471.1
-4569.01
43277.9
-33742.1
-36567.7
-4541.2
8353.78
-5097.71
115801
-16663.5
-3497.05
-14403.1
11053.7
3266.84
20038.3
109585
53296
120180
124982
4112.91
6621.32
-2218.1
35606.9
23100.9
-5409.2
-10396.9
6335.17
-33773.3
-52278.6
12557.3
-7536.22
2906.13
31429.5
41875
47719.6
107766
202470
157033
57955.9
42757.2
7309.02
33141.7
4840.73
3156.85
4240.15
8241.8
-5370.21
-39249.9
-11747.7
-15658.5
-64983.4
-46432.7
-29708.9
3495.96
5916.38
-18868.4
9665.1
17152
-20952.4
-24635.1
4280.04
-7309.04
6692.25
-2995.01
-27222.8
-15582
-11324
-11668
6085.02
118849
179866
156903
134049
33825.8
22861.1
-15266.7
-36557.4
-13621.2
-1227.94
-21513.6
-5261.55
3568.39
-22320
82851.8
83708.1
-34570.3
16973.7
-847.801
113.815
-11806
36551.5
32379.3
30639.9
-14373.3
-64105.4
-21958
7275.41
27438.3
445.148
4749.09
3960.78
41791
125916
51328
73310.1
-13816.7
76293.9
-1073.99
-3571.5
-10317.6
-5338.85
9425.95
48116.5
68267.7
-13901
-459.634
-6918.96
-28142.6
14475.7
589.909
-17980.2
71198.1
12267.9
22825
-12391.8
-52532.2
-1497.62
5534.87
12152.7
-22396.7
14404.2
161498
327544
432659
383995
258878
328759
206309
184171
118813
35493
26560.1
36135
79260.2
79878.7
138826
120249
71301.3
120271
155845
259462
359595
237347
361768
325775
56839.4
32276.1
-5405.24
-9117.81
20784.3
35064.8
66688.4
62251.4
8928.78
45187.3
107145
155895
38817
88.922
-32455.9
17676.5
17958.9
70452.8
60370.8
105881
65184.6
50168.9
132824
50735
28047.7
21562.4
60182.1
43800.2
64089
43399.9
141219
131312
195434
215185
190180
223442
316373
153060
174696
152512
71400.5
19667.5
19406.1
-11093.5
8948.2
11026.9
-1762.31
16653.1
4458.65
-31490.9
25020.7
-39186.4
111755
224543
185743
323283
195179
-8452.58
72066.1
143026
55148.4
37155
-908.759
15780.4
23555
-23735.6
-15783.3
-33247.5
27196.5
44052.2
73283.3
22689.2
10096.1
40167.2
26550.9
-1050.31
127160
57180
48219.5
193008
245233
-6935.99
144188
120960
139408
103491
162683
124772
356123
349064
694274
687910
637892
506490
534394
386615
319484
37428.2
126569
181071
285728
322664
324642
289407
369407
949704
710012
518733
594380
734114
545250
728849
971734
1.08744e+06
992856
822761
722747
775409
290388
220421
79555.2
136740
190615
210149
284135
273291
280306
384370
406127
455954
777070
987759
988132
515163
519091
370952
368712
441785
438812
488851
244151
445685
585688
1.05129e+06
936448
943861
882641
671701
853876
722505
730752
879437
861932
979731
815155
972195
930792
794713
711985
567929
472155
511912
447764
731857
976108
1.1347e+06
1.09385e+06
807198
528137
546013
232100
236894
237544
470771
605165
601217
563275
610284
661456
803280
1.06867e+06
1.0017e+06
1.02255e+06
1.00778e+06
791011
1.23481e+06
1.18816e+06
1.08085e+06
1.14068e+06
977818
1.09144e+06
1.14836e+06
1.10765e+06
1.07716e+06
1.10749e+06
1.06483e+06
1.19128e+06
1.04195e+06
817875
800170
948419
961102
985164
568899
708902
698256
595247
544523
433509
428354
481975
387099
409150
334416
394688
379321
369879
226800
222850
189795
172944
81512.1
80201.5
30213.4
163806
89497.2
163918
199523
166708
116306
209540
354118
205603
167033
233557
389821
316297
264695
238133
200584
243377
87644.5
113132
112537
222164
304498
248689
149920
152202
212858
192873
95612.5
96906.2
72290.5
131540
129291
238163
228878
167741
385490
472876
621334
440884
821312
1.04054e+06
1.18323e+06
1.17637e+06
1.15906e+06
1.74522e+06
1.0471e+06
1.32336e+06
1.11581e+06
760432
891286
1.2148e+06
961905
710742
618541
622429
623659
703731
1.04928e+06
1.10214e+06
1.1459e+06
1.35171e+06
915706
1.19792e+06
1.29227e+06
1.28919e+06
1.27861e+06
1.17278e+06
1.1384e+06
829060
721085
407842
633358
786037
604521
846151
440555
402522
269991
471486
477246
510538
654497
646851
536225
504068
490955
341548
338121
368228
301894
165630
221009
190737
106723
159178
292744
381292
389952
441624
400327
399321
527483
595442
680555
648581
690097
595055
602541
583050
410190
322955
395780
359300
457205
243067
333268
336539
491313
624770
668894
758956
754665
979373
1.33471e+06
1.49188e+06
1.62657e+06
2.01373e+06
2.37912e+06
2.28558e+06
2.65625e+06
2.79556e+06
1.91027e+06
1.81172e+06
1.46843e+06
1.81313e+06
1.82551e+06
2.3134e+06
2.17014e+06
2.0023e+06
1.63262e+06
1.59824e+06
1.33275e+06
1.67202e+06
1.93625e+06
1.9366e+06
1.63621e+06
1.61547e+06
1.54442e+06
1.03533e+06
1.11511e+06
991155
560613
589442
357075
200082
271613
252314
638853
516933
656364
670635
568113
336260
418177
353953
338128
184109
230719
156901
172128
125772
-56611.8
-30048.3
38838.2
52036.8
190710
45622.1
-3998.33
-32348.5
-32442.1
-26374.9
12110.9
-21634.1
-19690
-1375.9
36699.4
-925.871
27668.3
6234.43
22744.7
-4320.72
-5387.15
-70707.1
-24465.8
30500.1
29735.2
47236.5
-19189.9
2646.77
8527.45
22331.2
30011.5
67255.2
1427.31
5651.23
-9302.74
-8262.76
-24228
-2160.04
-41633.7
-108354
-70255.9
-10330.3
5511.24
-3665.62
2462.22
25765.7
466.258
49989.6
63215.9
59345.4
84313.5
98731.8
33389.6
63967.1
80529.4
114727
177474
302851
470055
523168
511883
469288
706928
816438
857233
877980
490188
288536
223299
256495
246002
38959.2
180437
323103
491397
630271
587660
747062
929450
729861
998780
615001
504586
487586
445536
372452
309461
230353
102138
30984.5
66797.6
87554.1
139301
266692
287253
329284
210941
26122.6
2805.24
-5557.75
83042.7
180912
153551
161576
244965
270518
204998
189638
84799.6
193984
180682
34152.4
69687.8
88355.3
20619.4
52675.7
121304
134169
348734
275271
275454
275206
490843
345241
101410
127966
2536.89
89002.9
202493
365507
106934
3586.9
111802
72819.2
11265.2
121733
24271.7
74673.4
256517
215698
372741
372058
276532
345345
281350
42088.6
-7093.55
-11364.8
106695
246843
163418
9479.65
-26374.3
-32804.7
-37632.3
7910.43
-20840.8
4689.72
80821.3
234780
238050
251055
447829
148701
83769.6
290214
490873
503000
205726
263694
281177
384209
180021
36239.1
108961
131261
205424
183997
110966
138471
83167.3
-4484.33
-28371.6
-69032.5
-30869.4
-53482.6
-3526.72
-12098.9
-7396.8
-2630.57
-270.088
-1493.79
-12542.1
1243.56
18840.4
56997
95247.1
98191.7
209838
81498.8
22264.2
4394.29
-1713.48
28793
-27073
1582.36
41872.2
39959.6
26613.7
9640.14
15024.4
9702.87
77506.7
-19179.7
-2597.66
5812.77
7156.94
114294
56474
-19625.5
-16229.6
-23285.3
-6686.87
-21284.8
22670.7
37304.8
61944.3
-22206.7
110700
1987.14
105045
164241
163957
180304
113005
131225
155903
267633
192288
186475
238471
263232
325396
644629
652028
346104
293878
286219
424942
220557
83691.8
18304.3
-68994.8
-79268.9
-31067.1
-4434.28
-797.991
19544.1
60121.8
2246.02
34631.7
73262.4
-22367.8
5032.77
61241.6
24421
93280.9
177820
173312
106145
165260
144325
131444
42807
25904.4
90675.5
82736.6
139525
28488.3
64533.3
95756.1
40219.6
40160.6
97951.8
107235
113894
180141
177078
109645
65506.1
212277
182662
129603
176036
271956
396412
237756
136386
325150
428936
515222
290918
408217
225155
30252
155394
221160
117541
307962
85462.8
303289
445271
515408
719949
1.06834e+06
964906
641200
404771
327826
354011
397947
439442
530355
603121
680468
568702
344524
549036
687878
1.02476e+06
1.19896e+06
1.6013e+06
948856
881629
1.0606e+06
764802
454652
628088
672760
744180
515108
401276
567017
529597
617742
656959
644228
518860
807685
1.0165e+06
825621
1.43853e+06
1.12609e+06
971592
1.01564e+06
857175
657121
560355
611985
605086
706462
1.00455e+06
1.27025e+06
1.28557e+06
1.18111e+06
1.14156e+06
814650
571939
726073
636199
568133
500968
554575
534175
232087
285369
315172
260496
256553
170032
384401
385966
386013
275091
301238
300991
325651
261066
195367
181621
180890
21416.6
-24643.9
9080.96
468.607
-13671.3
-59147.3
-53577.7
-29419.4
-27837.5
-15594.7
49917.6
11386.9
-1568.69
-30990.2
-22553
-7142.84
17819.3
21217.6
-16321.6
6385.62
68821.8
35861
-5956.16
-5796.74
-16453.7
-2525.37
-75308.3
136111
-7818.6
71260.5
-23848.5
17924.7
65916.5
69213.3
45931.2
7317.29
-22311.7
20463.9
94475.7
163268
40192.5
40319.5
-12125.4
-25746.8
-21004.7
1290.5
-47219.2
-70410.9
-17468.8
82483.3
51704.4
52972.4
150966
182723
165496
128611
156267
82913.2
113343
138340
40315.9
9485.53
26397.9
48764
-10272.8
5832.81
-859.585
-16620.4
1823.33
-23644.3
-52040.9
4019.53
783.375
29331.5
1802.69
-41691.4
-28529.5
-27045.9
25824.3
28620.8
79029.9
198181
95227.3
22340.2
93079.8
92930
154909
73445.2
-15728.8
18981.3
1984.44
19851.4
-19960.6
-1393.94
12585.4
-222.447
14177.2
-3496.02
-6942.54
60380
158028
252999
112740
28062.1
11802.7
-13980.9
-43919.7
-23025.7
-6804.48
-27923.5
17154.6
11286
31548.1
123037
33134.6
22836.7
-23777.6
6168.68
652.978
-47529.1
-32668.3
-42822
-31238.6
3589.63
41850.6
24721.7
29071.3
41012.4
214125
268724
215680
320374
350257
362197
391056
108502
174440
126760
19778.4
100159
93569.9
136790
61959.6
-5386.75
-13436.5
61634.6
72280.2
-50369
-34944.3
-82346.9
-71507
-16773.1
10415.7
-10445.3
-37553.8
-45767.5
16020.8
1688.98
-7144.76
-5553.73
-43794.2
31099
-14739.2
-34691.1
-22094.5
-6510.64
-31631.8
-12602.9
13957.9
183.94
2308.77
37798.2
130558
184467
147326
186197
389235
301151
288197
463555
355385
258366
557168
795642
586121
575464
495596
369367
233621
132623
19037.8
-15371.1
10154.7
92678.7
179796
53092.4
-25093.7
-48983.5
-13709.5
-12570.2
49269.6
48663.1
-76883.7
34531.8
-37874.4
-13919.5
-7254.8
-23527.2
-124355
-74300.2
34021.8
4385.99
17206.9
-3813.73
-4976.84
-20343.3
-2149.47
-13671.5
114552
236833
35320.4
60191.2
69668
27888.3
47054.6
115956
91227
235789
151086
106119
35072.1
45139.5
62409.1
846.527
97978.9
72608.1
37225.1
118705
86569.4
-80285.4
-45298.4
18098.2
-38045.5
16761.2
50004.3
109167
84355.8
204.414
-17308
-41093.9
-19880.4
-29377.4
1077.74
9757.13
86285.8
38426.8
11095.7
-2734.58
-13598.6
-8342.43
196575
329854
222781
316452
246798
235652
207667
233058
239888
277660
194295
175835
201804
193295
104329
70029.7
11188.8
105410
165417
76998.4
120063
181622
92303.8
137707
233107
154288
70137.3
-7067.42
17454
17967.3
41752.3
2914.35
-16991.9
-14223.1
-17727.2
-19648.2
-12548.4
-8422.88
-80998.1
-130502
-41999.4
-40173.3
-70828.3
-21210.1
-22154.8
-30746.6
883.587
-187.859
79503.2
45031
127832
256266
267587
120823
30354.6
67071.5
16350.5
163730
325579
285837
203954
391657
226780
249967
209072
101104
51762.5
67542
34365.5
185499
67341.2
61322.6
13634.7
37087.6
-17568.9
-66307.6
-9214.89
-15555.2
-5021.32
-3623.66
16685.5
9111.73
-31852
4716.18
-20442
121218
133153
146491
56996.6
39198.1
55735.9
3685.8
-10842.6
75932.3
2669.49
-60195.7
17038.5
57213.1
87238.1
103306
135784
126083
46244.3
132.37
18623.4
-21055.2
23828.7
-475.98
-25663.1
-64069.7
8484.11
-190.797
-15911.6
-29195.8
-52603.5
10189.2
-7700.41
-4630.97
-7207.41
22543.6
12890.2
-12255.7
-37078.3
-34924.6
-17202.4
-18034.9
-11385.5
14311.2
4779.21
-207.455
-7112.91
10353.1
101401
25646.2
63658.9
103334
164257
49777.4
215378
230719
234243
123757
276291
212940
127865
200626
302690
399061
462906
525033
264253
74696.5
134027
127085
64552.2
116240
-6360.36
25939.1
-9301.85
35251.8
17361.7
5163.36
14996.2
-1850.3
39246.5
26403.1
37481.6
108809
100783
121244
172097
218904
471237
847162
725951
591031
505308
619604
1.2407e+06
1.50379e+06
1.14077e+06
1.14602e+06
1.49079e+06
1.77195e+06
1.50587e+06
1.6915e+06
1.39233e+06
1.6669e+06
1.56548e+06
1.78185e+06
1.6698e+06
1.51059e+06
1.37092e+06
1.09328e+06
1.00271e+06
987515
1.15743e+06
901505
806632
782749
518624
598434
449230
640063
788629
670391
717515
569347
689718
644033
718315
654129
290032
471314
387516
521315
749491
940865
756920
746493
668926
392409
355772
384753
505722
791266
574685
387166
884406
930581
986773
1.01951e+06
677574
454726
280526
107205
55934.5
132162
290027
195635
258163
178670
74786.7
36656.4
12187.9
-8881.4
4887.26
55555.6
15129
15419.1
61350.6
147370
138405
117199
133940
147322
171097
196434
237627
206807
328483
92395.6
227985
223535
102740
141534
29237.3
-23963.5
46195.3
28484.5
20677.5
-16861.6
-6473.65
-16832.9
-70269.1
-6179.45
18608.3
76057
9079.53
58528.7
-8153.94
43709
123570
163668
18149.4
357681
245846
209400
354526
743223
493964
567044
343081
475709
404425
369755
327924
167210
132821
86066.9
12715
-27569.9
34544.2
-45690.9
-22702.6
-47608.1
91250.3
-12828.8
72529.7
76099.4
59035.5
38927.8
49838.1
29231.7
60185.1
-14103.8
-14886.9
-2521.56
8128.34
1335.78
-11481.9
-2633.58
-44933.4
73156.9
111390
51392.3
18015.2
209663
399138
544081
440647
564407
900701
1.10591e+06
993977
723157
525730
743282
405874
355965
177501
-3186.65
90568.3
18718.6
109678
186492
141830
103213
199537
160305
114762
250380
306774
537901
472772
429477
411613
599392
509254
611990
535727
287431
115541
122311
69777.8
31273.4
983.011
-16373.1
11243.7
-50824.5
-14020.5
21097.4
-77913.7
-43621
-73067.2
29765.1
22274.4
3608.42
21287.3
-10057.8
-54035.5
-64286.3
-36563.5
-12687.8
-5142.23
-9515.21
-16722.8
5742.73
70354.3
113187
-8526
-7340.94
-15226.7
-24343.3
-17371.2
2107.71
-12810.9
3631.73
77856.8
115092
135122
143402
80093.4
135135
393319
323148
321787
580825
519936
409174
276455
347077
487398
440523
252804
434147
467587
746764
714481
773276
857645
926946
866467
491585
460111
364851
575044
350724
518592
591240
420866
367125
475417
503995
519941
630787
1.00791e+06
1.02308e+06
756938
818109
965818
710241
627098
728585
682615
470090
463485
687429
613467
618122
343961
189176
185827
43258.3
113283
136014
243981
246876
203562
275986
335112
341034
298477
198222
36777.2
121613
117882
68451.7
16531.6
-50844.6
-97019.4
-61879.3
-8555.44
23036.6
11387
-46213.8
-51984.5
1331.81
-6697.39
-10121.2
-12113.4
-4721.06
14252.5
273.712
7882.22
9756.79
17440.3
12014.8
20743.3
11242.1
-1973.52
-52124.4
-29301.4
17146.5
-16686.5
-22341
94.3878
-22412
-3088.87
-21561.9
-1800.6
-4333.12
28539
26745.2
24927.8
-10914.1
-64495.5
-58608.4
-4696.02
21831.9
1741.76
-4853.35
-27660.5
-3522.21
-23356.6
7267.55
118246
86858.4
54532
125045
276260
477146
253937
204254
287910
468050
423225
480542
512043
306591
279661
243681
301475
113489
61774.9
17359.8
-99.8762
19440.8
79859.6
107744
2927.36
6805.84
647.069
-35846.6
-34802.9
3617.79
-24111.3
474.625
4451.72
-28229.1
-13485.5
-23362.6
-23142.9
30806.6
80533.2
121263
224171
247081
214263
201083
244015
199142
152259
194938
150468
76011.8
157651
124956
167070
220152
186632
163512
74796
194668
237174
144941
48862.8
89019.5
95578.8
33689
-71082.4
3547.21
-8074.62
163.388
4934.72
-1480.55
-2078.92
-60926.3
-636.331
23138.5
29301
-25980.4
-65822.9
-75398.7
-17310.3
-36099.9
53153.8
112181
109461
71115.6
121354
141774
218645
98287.4
55979.2
111415
96716.6
42197.3
22096.6
33465.8
52597.6
106090
35485.3
70211.4
97742.5
96738.2
78225.5
94225
172249
22052.2
16564.8
343.118
46697.9
-1882.8
-4443.55
8401.23
21201.2
-14460.1
-49883
-18493.4
-20562.9
-3589.83
51609.5
51024.2
229627
328368
176026
164015
257401
124161
118741
13278.5
24589.1
-38335.4
-59435.3
56505.6
124252
209923
146647
82139.6
-4539.53
30627.5
-6969.39
13228.2
32161.9
-40453
28086.1
30496.2
-19231.1
-28415.2
-8641.02
-20555.2
4380.01
5558.78
-4486.01
5838.58
15917.5
9209.98
17105.9
-3860.38
53950.7
-25121.6
-16778.1
-35897.1
-26827.2
13921.2
19508.5
30422.8
70636.1
153778
304726
262560
183839
124789
127194
207844
245143
299426
234878
229424
328238
247992
217165
268383
315414
400309
456706
331265
489108
466482
358182
413143
183660
252343
387134
325796
474676
677266
759153
740338
1.00437e+06
856243
927882
518718
296990
137537
154695
271603
548809
527060
479345
514494
469416
584333
354847
309071
309076
368984
425699
350023
392785
390827
588780
164059
65972.3
39533.7
57826.1
139834
90224.7
188679
38852.2
161034
149827
131415
215159
130621
12404.5
18296.7
9231.65
10035.2
4554.41
23358.6
30653.3
52883.4
143868
112626
251273
308200
194313
188832
45076.4
39369.9
81228.7
205006
61367
27723.2
57544.5
66398.6
225528
285675
345582
247107
292684
475308
627563
817693
884737
729860
776773
745418
705666
341878
212659
426109
396791
143020
123585
26118.9
103945
150139
247347
424947
284887
222685
220534
87848.6
64965.5
139001
148712
139037
38516.7
81862.6
70322.4
37870.1
47215.4
132973
91190.8
40512.2
99042.8
123514
119963
241294
271675
429660
530993
291407
504625
405459
263735
342330
220080
403896
445576
619142
632036
439346
677206
768068
715473
762764
1.13864e+06
1.41927e+06
1.36272e+06
1.25779e+06
1.27003e+06
1.15747e+06
1.54661e+06
1.19777e+06
1.26473e+06
1.3129e+06
1.02878e+06
1.05784e+06
966945
700217
611540
548941
681767
635781
694920
922440
929460
808762
829406
634589
747693
648543
543997
528437
680972
581402
674773
393208
396542
364611
389849
298766
401515
265283
268521
164481
197058
159830
287606
352576
344638
251272
130099
129878
114214
40352.3
36174.3
-19522.8
-66499.8
-35211.3
-56609.5
-7534.3
29409.2
4526.74
-16080.6
25413.5
-14370.6
2601.38
27262.8
21587.3
-20475.6
-26572.6
-79969.9
-7977.29
14244.3
-131.192
9758.94
-5829.98
92868.7
200223
110624
150755
281719
426776
251991
205544
237693
86417.9
40219
86017.9
109885
134751
196956
252214
173445
282066
281782
286391
223075
166329
146015
238131
263244
112417
124654
99770.3
-12746
93347.7
128528
101301
-9395.26
-40788.1
-18982.1
7992.05
-2741.42
6921.42
27776.7
41.8228
-10175
11168.4
-21765.3
935.787
1906.7
70.3705
-7655.25
10337.7
35699.6
79150.7
153966
256312
476545
513004
211462
376705
487774
448385
226812
175589
87647.4
145436
223069
173161
283068
113498
69618.2
38404.9
66873.3
210806
251322
203740
218102
179581
71473.8
40376.4
97032.6
97618.8
118997
166743
113362
56856.5
96149.5
30023.2
-2483.98
-44855.2
-43018.6
-5821.05
-23775.3
-36845.5
-27882.3
-22514.4
4667.59
-21185.7
-3779.25
-339.55
-29553.1
45367.4
209076
276971
223314
418295
275313
289964
311411
380805
560756
366275
304801
205606
271252
405446
240681
222165
340311
198234
88471.2
4117.35
13615.7
76542.1
112664
431280
303366
285151
336414
381954
357989
477474
374596
343213
448096
252085
219599
213983
66242.7
-992.704
30267.2
165034
264195
259472
291918
440444
650797
430938
503285
698457
583945
289452
175594
98196.5
32422.2
37800.9
158391
266606
244516
418619
421855
454004
377519
288135
206414
281443
428881
336526
449664
424176
462685
512358
1.03575e+06
860021
833476
700885
587378
759404
551442
752019
451437
530488
526112
492501
793948
797019
983673
1.1126e+06
1.32081e+06
1.40505e+06
1.37495e+06
1.45872e+06
1.38221e+06
1.19823e+06
1.28016e+06
1.19968e+06
933725
311429
357546
369562
326793
497490
291032
246524
499066
455119
452174
505402
326507
587718
626996
579304
500368
323035
248671
329006
605565
750457
551374
675856
739434
996872
1.13236e+06
1.21439e+06
1.27813e+06
1.41925e+06
1.18005e+06
1.42312e+06
1.34559e+06
1.28738e+06
1.152e+06
1.49998e+06
1.34275e+06
1.61688e+06
1.65497e+06
1.72678e+06
1.78627e+06
2.2376e+06
2.41147e+06
1.92652e+06
1.80547e+06
1.51226e+06
1.11867e+06
797130
452359
334090
509811
472365
717877
659848
707359
483092
416464
327241
189237
295661
473662
413864
492533
521696
469695
429312
422767
390257
605711
512864
315872
245876
215415
111125
117092
146343
203246
172871
91178.5
69929.1
150829
184869
450606
340061
322984
320786
384051
338406
292373
302693
369197
340574
495408
360170
353703
333954
564304
702997
692501
516049
422516
281402
197800
181360
86294.8
195584
158217
241759
467015
777845
577481
864161
839692
864034
802448
854021
678778
800947
876209
840253
652766
529278
570563
738433
998935
748489
524067
754321
787308
808400
484226
798437
641034
344735
273345
183982
192199
117202
142082
32199.4
83192.4
28837.9
-2901.12
49858.9
-8322.82
19110.3
-18293.2
-16661.2
-41415.3
-14786.7
24392.7
85217.1
27240.6
13902.8
-14265.3
-4063.31
-12980.8
-13389.5
31248.4
23605.4
2465.25
-1691.83
644.318
44076.6
108188
22505.7
-2326.9
-42078.1
-20723.8
60874.2
19307.1
-9130.67
-452.159
-2319.54
-51926.1
13043.2
29121.2
93442.5
58057.3
12665.5
126617
142530
57269.4
183002
346193
434731
451723
220127
268567
469751
278669
368535
318932
270822
178178
96927.5
-9123.17
26786.8
73498.7
-12022.9
124197
103729
72049.9
7843.81
-1015.53
-10490.4
-1813.62
114001
43404.6
109823
95683.5
114369
183372
133527
131529
216476
122254
11436.9
226389
142631
67456
103670
122640
53440
34436.7
76842.6
116967
52743.6
-13907
-29491.3
-40698.3
-46924.5
-47516.6
-30056.6
39381.9
24598.3
125547
82865.6
65228.2
2626.76
23571.6
236068
175642
174397
54624.8
80243.7
98001.2
57412.6
139584
115451
54387.9
24440.5
6617.4
18768.7
119798
125149
51247.2
52833.6
-6384.82
7579.89
-12303.5
-743.344
-30583.6
130625
112420
105536
55674.5
29239.7
7666.82
-3198.39
-23897.2
8372.62
11733.7
61787.7
48041.3
4657.74
-13065.9
-21365.5
6837.14
8933.75
9647.37
2728.56
38734.8
19470.4
48364
49882.2
13111.9
55098.7
79397.1
38303.9
22989.7
19060.1
113546
184900
156634
91934
8265.06
23014.6
-51463.8
-46458.2
-87259.2
5306.53
-55806.6
-129233
-35313.8
-17170.7
-19217.9
-4344.15
16711.3
35631.8
4560.03
-153.855
2928.48
20513.7
125157
76218.6
37238.8
2863.19
5565.6
36918.9
21367.2
178425
226017
156212
165734
205687
445780
609238
363694
352948
307054
250521
384621
515312
286121
541903
281097
288673
363242
301929
311157
330465
398871
603738
696999
458189
290262
189580
77050.1
184524
264885
238418
223310
176565
95313.9
62060.5
46286.3
40387.9
20495
-27532.8
13633.2
-18854.3
-5398.18
57695
-7510.54
77729.2
74515.8
103043
232291
337801
304378
479643
433741
342350
221015
138707
-32806.4
51921.4
129551
77292.5
131684
86973.9
192751
231194
176428
234826
469768
704089
492940
770891
1.10387e+06
965323
973797
1.09425e+06
962702
1.44346e+06
1.24176e+06
1.37362e+06
1.32016e+06
1.07532e+06
798653
493348
254508
386662
271381
319224
267764
203729
316624
392127
267071
234088
165372
245276
81534.3
44165.6
125876
57287.2
58716
4761.22
14897.2
-630.016
88436.4
114560
76684.4
107684
108954
143664
85458.7
145360
152485
127298
88743.7
76621.7
111303
85999
110339
20860.2
-16770.8
1302.33
40614.2
22534.6
34758.7
56169.6
153982
310833
519164
425999
408726
526284
376495
412140
370267
259485
132569
88335.5
61448.8
-41274.5
33423.7
30578.7
127901
81921.5
-24710.1
145950
221807
108334
101583
257879
296424
374095
520011
321041
251826
356965
273003
220778
110938
50575.2
21508.8
51293.5
29566
47172.6
73174.2
24494.5
-19294
46361.5
97042.2
84171.9
-33977.5
15502.3
88652.9
259204
360853
400243
473294
879049
1.13301e+06
1.0081e+06
738757
598643
503047
437423
404387
204653
203069
9078.11
7826.43
-5065.68
-71029.9
-88750.6
-60622.2
-52473.2
-40245.8
104702
96400.2
173088
347041
179371
29988
99294.4
42776.3
7812.27
-19524.1
9646.48
-4812.58
1846.86
-13656.2
-31150.2
-7540.93
16156.1
6281.05
-19613.3
-6984.76
2686.35
31228.1
13246.9
34931.1
25108.4
70600.1
203299
232134
342754
233553
67044.3
182235
223237
2706.98
-38605.9
886.044
-16157.1
5108.34
31793.1
52870
34975.1
87071.6
47171.9
3496.76
-24293.2
-53599.6
-33595.9
-21866.8
-28610
98562.5
45513.1
17657.8
-3024.73
-2460.73
-18247.5
-48213.6
-12563.1
18222.4
599.97
-26300
5343.02
27551.3
-10149.2
22748.5
-538.253
-36768.8
-19882.3
-22097.1
1550.73
4681.7
31990.5
19877.2
60770.3
28212.6
37304
68223.8
57251.8
39736
17783.5
-5763.31
16662.4
69615
74216.8
108383
85721.6
128625
267083
258013
407147
507464
440937
532212
662634
694977
774792
613682
646646
503668
389863
518958
521877
409274
289205
415614
505552
227784
257099
131421
151859
195581
169827
82461.8
114788
139193
327812
334812
291238
113811
153585
197009
282811
226214
200148
295719
130485
220662
136494
390355
289140
373454
304601
162937
68495.5
11962.6
6611.71
37371.9
58644.8
21617.5
10873.6
-7863.69
47123.2
142556
215616
301774
328167
208931
142549
100201
23201.1
-7259.49
6778.93
-31519.6
-11095.5
5292.38
9038.64
-32483
39994.1
56831.8
104673
-31141.5
78872.3
122635
195187
180978
246922
381579
334892
537136
394321
310085
409920
354492
460129
593125
537142
298652
64290.6
58920.7
36103.6
305.918
-49560.3
-123556
-40798.4
-58172.3
-7898.14
8509.12
-6297.37
-23535.4
11025
-10169.3
-16939.4
10038.6
-751.946
-23992.7
9584.19
113918
123631
164890
208745
143150
64743.9
64709.9
133864
64610.8
155585
148027
53696.1
113149
83025.6
119396
139662
160777
202782
91626
130850
37411.9
16054.5
72644.8
36315.4
47845.6
9618.19
-34992.8
2087.31
1580.01
50596.2
82903.6
30154.2
58666
268647
157080
100178
202594
75060.9
22057.7
52535.5
15976.7
-1019.2
74621.8
29761
76319.5
46451.2
40858.5
8027.69
5042.92
81651.5
246955
110583
-13025.8
11268.1
25145.7
-12557.8
-49272.6
-6761.62
-3930.65
47404.6
89569.8
140410
41878.8
-10442
23220.3
-23322.8
113112
-6999.86
-4482.47
60116.2
114314
121270
59214.2
72564.1
79908.3
-13415.4
-14033.9
-7570.96
-22431.9
-16999.6
-11599.2
-54762.3
-76086
-122043
-16115.9
64437.9
121395
374930
557706
602194
518801
293541
335549
397071
699100
635225
744056
505236
601549
765881
433170
492841
352496
328714
462688
455781
682159
643820
864696
673141
911622
1.09215e+06
974329
1.02799e+06
1.15414e+06
1.28706e+06
1.29742e+06
1.03204e+06
1.26752e+06
1.23439e+06
929181
1.35205e+06
1.74858e+06
1.92898e+06
2.01464e+06
1.76059e+06
1.57836e+06
1.5054e+06
1.36433e+06
1.17433e+06
827108
464530
219290
114374
242837
319688
343965
292506
289590
478539
521829
413564
410515
725027
676491
665034
586196
222434
90755.1
110986
135891
135821
65048
116970
267691
203351
219491
113008
86706.3
99602.8
139559
108415
30274.7
-56792.6
-120412
37083.7
171814
292437
252127
306626
284539
186102
142816
284158
322378
403263
257131
145524
224939
138237
232719
249091
155570
27773.6
-45860.1
16663.4
12455.6
2582.54
54829.5
28617.5
45085.6
68747.3
96986.4
64288.6
106613
192770
186916
180712
265685
282463
293692
208369
153999
171006
205766
144672
425518
522141
352732
601772
294070
504892
392337
650852
461795
365940
369478
464237
380904
328388
351426
462168
579845
599331
649335
782016
1.10123e+06
1.10661e+06
1.18565e+06
1.51291e+06
1.48806e+06
1.60732e+06
1.58758e+06
1.8748e+06
1.69728e+06
1.9962e+06
2.04833e+06
1.85059e+06
1.84623e+06
2.06255e+06
2.06363e+06
2.09268e+06
2.37802e+06
2.44161e+06
2.38999e+06
2.52367e+06
2.44339e+06
2.69726e+06
2.73362e+06
2.60365e+06
2.39422e+06
2.26386e+06
2.65885e+06
3.39882e+06
2.86737e+06
2.45376e+06
2.51511e+06
1.93249e+06
1.78029e+06
1.33957e+06
1.23109e+06
1.49634e+06
872952
1.10929e+06
1.18804e+06
1.11549e+06
1.26652e+06
1.54425e+06
1.51355e+06
1.23492e+06
958915
975931
1.02495e+06
761659
752857
891494
552564
465744
374208
425131
762816
529671
391214
397642
250600
368891
431544
470802
419179
245376
143378
193532
230634
141463
363789
246118
292614
203575
533334
603283
470865
432318
270232
250460
63430.6
13341.4
-46101.2
-1304.52
-14564.8
54754.5
23165.7
-2438.6
-3671.31
-5729.5
-10305
48890.2
175588
174715
255464
205221
168636
82788.1
134263
8163.3
65122.5
17315.7
-7707.44
-26930.9
-20404.9
-29603.2
-31865.2
18637.3
22512.8
46936.6
42463.2
48841.7
52122
14582.4
10114.5
78016.3
88488.8
52134.6
117952
137622
255688
89318.7
193856
294352
154869
222462
25324
-13358
-13408.3
48835.4
23841.4
-25940.4
47284.3
-3246.83
-9000.69
-48687.6
-23952.8
23090.4
125411
165378
46209.4
-2350.17
11798.5
-714.519
116.995
-2442.4
32938.7
113671
138937
238672
175592
302877
302588
130687
268494
303177
211350
287066
254034
210573
41720.6
78752
222137
438303
103592
334548
508920
677746
964757
1.5995e+06
1.67791e+06
1.57981e+06
1.6898e+06
1.46114e+06
1.04193e+06
865733
913328
1.23838e+06
1.65713e+06
1.31231e+06
1.10595e+06
1.12063e+06
883359
1.09385e+06
985512
865746
879021
1.11645e+06
1.42698e+06
1.28503e+06
1.6922e+06
1.57957e+06
1.58132e+06
1.62749e+06
1.48065e+06
1.52356e+06
1.30497e+06
1.43252e+06
1.68667e+06
1.67957e+06
1.52991e+06
1.53203e+06
1.19532e+06
1.23622e+06
1.24937e+06
1.05521e+06
1.01697e+06
764770
617746
694110
990389
1.35182e+06
1.34804e+06
799763
712173
527703
868518
653934
405154
341597
402816
431919
601814
729188
469127
557519
270733
404481
216657
352165
259947
157892
94413.4
104587
195698
310327
366361
300370
279138
430129
322993
137870
50486.4
-22821
26520.9
-2250.77
-8847.88
-12281.1
-44219.2
34374.5
4333.84
16228.1
27689.2
76875.1
50651.4
38760.9
42914
64867.8
68981.1
50838.1
-1360.16
10810.3
4617.87
-5902.35
7846.61
-13171.9
-26824.4
69529.2
-2408.09
184141
376285
357305
285455
193077
210512
203277
201396
319040
193131
277081
226372
227005
112523
135453
82535
92684.6
46466.2
4835.8
26108.9
27848.7
-3449.32
-6070.48
-5365.04
-2886.31
6160.66
402.151
3306.27
190967
361209
228362
132504
83603.7
237684
436696
440266
589975
334843
118142
79520.5
77972.8
30490.9
63396.6
242777
199058
278644
159319
294857
232963
46953.3
52954.7
80551.1
-2213.06
-9255.43
-8106.91
199101
136230
177212
171685
154897
220552
119141
104886
61399.8
-17475.9
-1335.48
3185.53
3523.25
2472.32
-23707.2
-3510.87
19524.2
142731
45369.3
73427.8
70461.5
145333
89790.9
83537.8
113059
90356.5
226967
120524
108324
84677.3
21894.6
-3388.33
65847.5
23321.7
19321.5
8473.76
26179
67759.8
165252
187893
154606
285845
248102
209198
45089.1
503579
321134
536671
547245
419225
543347
652193
526653
245256
393669
294727
429563
560179
895113
829644
708154
791895
777224
901985
696557
675990
1.03879e+06
808354
695766
322365
385795
454731
749867
810259
998825
1.03762e+06
779490
629512
662548
823743
710220
989627
1.13822e+06
1.13575e+06
878384
543173
655427
559228
445560
387405
335591
182653
161608
329109
388634
416882
523251
642923
811320
1.25817e+06
1.28088e+06
1.39457e+06
1.21066e+06
1.04544e+06
710187
779564
764195
981765
1.15777e+06
1.14554e+06
1.26532e+06
930196
888478
771119
665013
823389
621688
447809
385025
445587
339244
417311
665709
543091
798453
447998
396096
723151
390475
241595
332828
525119
420562
214917
125378
191589
94575.6
-9515.26
-47858.9
-40270
-11711.7
-41048.7
-6682.23
-35843.2
67961.2
22381.3
66134.7
-5483.31
-10822.1
63250.2
48656.9
28391.2
28404.4
47164.1
-566.797
-32112
-9776.8
-9155.65
8239.58
61460.4
128221
241429
84902.3
33847
199155
195716
79380.9
25546.8
80959.7
-19058.7
-6545.49
-9667.06
43538.4
157657
105400
213236
153632
14154.4
29228.4
133263
59734.4
-16041
30497.4
51539.4
22936.1
-56536.2
-35587
-51258.2
21087.4
7973.6
7449.36
-43348
-17773.7
-12343.5
21128
-11761
-2310.97
-10792.9
-2579.39
16766.7
15663.7
54585.3
12385.4
-28042.3
53923.5
23705.6
98960
217199
326439
385217
341428
386494
232380
71818.7
-15145.4
-15760.6
-33664
-26337.4
25146.5
13566
68104.1
89979.2
166258
106766
53251.4
-48376.1
40819.5
-18327.5
-132719
-46343.5
6838.11
51466.7
76362.6
-31098.2
-1800.83
-49929.8
-11786.2
-129467
-35082.8
-24032
4480.4
-48710.4
27739.2
48395.2
62520.3
169833
151749
122199
173027
162848
175984
218933
139771
284686
224938
183174
56047.8
71254.8
104704
126626
172303
537545
277317
294618
421875
324045
353733
459349
368049
412798
291888
488239
329474
419769
238114
324651
337313
217925
149028
109644
167897
235982
381296
271384
532629
604372
769655
745042
520492
519933
453070
374590
261904
356505
573685
740641
569052
407491
374531
365087
654728
675252
350527
299834
405334
226100
315306
492176
477857
460812
213400
201200
117096
14458.3
5006.1
-4059.19
-10187.7
-24060.9
-25242.5
-51962.5
16258.7
12879.1
66066.8
81704.4
137135
71029.6
-8971.21
6719.8
-17452.3
32616.2
-25385.5
-1405.6
-13110.2
10210.3
-9486.51
70155
230315
84676
114801
-12500.7
5959.69
-12258.6
-4060.47
23712.5
12752.2
43882.2
29444.6
36298.7
61498.2
103966
129699
-15182.1
31491.7
-45255.5
-6779.3
-16125.1
-38222
-7607.65
27347.2
-16209.7
-35341.1
-50127.5
-1429.7
42032.5
60398.8
85407.5
10224.9
92937.3
119119
293985
187672
164159
41555.9
34825
-13964.3
-51427.1
3721.19
16779.4
76175.5
139791
80664.2
156671
172883
108354
30775.1
33928.9
25046.2
31748.8
54165.1
6358.25
62694.3
27081.2
11662.9
94406.9
78744.1
237706
130604
320951
325363
421964
225812
238870
209688
270972
219459
93627.1
276269
243648
98073.5
220626
217670
202078
38672.7
70748.6
37131.2
160067
166527
337035
405263
335079
399065
352101
445189
356638
287447
297345
336251
188527
322131
110716
194265
318292
223443
103409
28083
29609.4
23027.5
52248.5
33557.7
15918.3
26504.4
9697.5
-17847.3
-705.781
-2878.36
-22849.4
-12343.1
-35610.3
-3243.3
3520.04
23875.2
2023.69
26256.1
-11920.8
-5889.87
-25606.7
-10107.7
1627.96
1018.99
17053.9
-9874.56
-18611.7
-8674.15
-15382.5
7200.95
9459.17
6703.71
21809.5
-34449.3
55177.8
168606
276957
259055
175955
173359
107687
171468
302993
340039
190012
355056
284539
193226
210265
481857
481702
255588
179702
171044
301972
236879
80223.8
128702
171991
62301.1
63285.2
93482.5
18016.9
23475.5
127023
52335.1
22155.2
17942
1059.59
23378.3
18574.6
38593.9
25178.9
1300.5
27842.3
32024
55173.5
105221
45749.2
-42737.9
15727.2
68306.1
40652.9
-2618.13
-13915.7
-6395.51
-2852.95
4135.13
5186.08
107986
54947.3
59958.7
355.878
5227.07
-22537.4
-29818.9
-64016.9
-131911
57049
161527
268912
439427
419783
622494
785157
652245
313797
362641
294974
270551
525830
633887
854241
965563
626646
382786
268872
389896
339180
177198
261759
272111
320379
454055
448181
394897
742665
689757
623834
708473
376275
331326
469674
272325
340672
567782
785178
510093
443779
507373
735149
641886
504935
702325
767123
850185
724138
614102
594076
535340
364391
382405
531053
376382
368639
240858
128734
46004.9
-6329.99
-30690.6
-35612.2
16862.5
-20161.2
-5570.63
-29846.6
1949.66
-16327.1
-2840.81
-16528.8
-23351.2
-6554.53
5870.69
-22520.1
-18922.4
-112916
36629.9
8042.53
-29266.6
3711.49
-20543.2
-9782.66
-21607.4
-7559.12
15263.8
11148
-10863.6
-8372.95
-37269.3
-2834.37
22259.7
53803.9
-1934.62
36373.9
44409.2
88324.1
120441
42693.9
4789.28
13767.2
-11329.4
6478.98
19250.5
-2823.57
-18908.7
4955.09
17045.2
86058.7
87450.8
200594
77997.1
89649.3
99183.2
142635
6781.98
49117.5
38594.1
76028.2
76482.1
59990.6
151616
63990.6
165245
219614
263203
353153
458098
534885
336820
362012
436476
673830
589012
566179
549905
745197
700764
1.21674e+06
1.24445e+06
1.39444e+06
1.54023e+06
1.15046e+06
745856
635447
590139
298078
406242
576105
686927
766255
679106
789050
629347
559830
740462
888894
1.00289e+06
1.24333e+06
1.65609e+06
2.13559e+06
2.15103e+06
1.74122e+06
1.64827e+06
1.57965e+06
1.44443e+06
1.93232e+06
1.46065e+06
1.73483e+06
1.69933e+06
1.8489e+06
1.19887e+06
933925
772740
934061
1.11984e+06
1.05712e+06
773043
1.04135e+06
1.0558e+06
683307
821738
754926
697467
497493
412660
319172
454427
518661
537933
646262
491060
601335
596742
835777
900211
749119
743334
577243
446105
453076
218594
235836
319527
296530
253637
68548.2
-7107.75
-11936.8
82848.6
158113
349096
398678
430138
386558
454720
343840
356915
354790
63164.2
21394.3
-6160.01
12814.5
32896.2
-53653.8
-5825.77
8874.43
57961.2
39062.2
-22364.6
21764.3
-29239.6
2918.2
96149.4
92230.6
79692.3
59274.8
201550
154496
320133
124209
207003
243043
115769
58056.7
-4956.03
50817.9
25863.4
59684
-3654.25
76459.6
122813
142207
242296
210939
181313
206141
7320.42
-49315.4
194.161
5098.02
2365.99
9971.86
-5443.12
-11928.3
-18251.9
-14032.7
-18266.9
1628.23
15093.3
2946.5
-132.257
44967.4
32670.7
25994.2
104239
190586
116550
58560.3
12013.5
-6223.25
22609.3
-17237.4
-2786.89
15413.7
91816.3
152574
187250
191830
271928
235419
359782
195914
93857.2
87676.4
147711
165845
163457
-2247.46
-8287.57
6492.7
-24905.1
-10382.6
-18510.3
19631.3
9860.25
19774.3
39981.2
86098.9
22527.9
-19922.3
-71558.7
-44730.3
23945.5
10422.1
-9317.55
-19102.2
1240.08
10083.5
-37086.5
-66146.4
-18300.1
83202.1
63362.1
61175.2
27331.3
60045
219208
298849
281517
374040
330764
177780
39920.7
80618.8
59618
38562.1
112873
121802
112393
173284
144920
277078
409629
532731
564083
712655
615363
607558
550674
487028
507611
719799
511280
430935
573559
472669
357395
347378
524319
368217
486433
458049
352268
279402
177579
194624
500540
993670
951799
1.01203e+06
969085
1.20076e+06
1.42549e+06
1.55004e+06
1.06145e+06
701301
296072
442453
759553
666852
321503
475850
458874
230197
219405
110471
26256.8
113038
186048
260866
449538
244511
295530
180770
259770
221699
319824
230990
64239.3
-62279.2
-61209.2
-20532
-40211.4
20877.9
10056.1
1308.53
-34688.5
-30839.7
17442.7
7787.81
-11464
5793.54
-21100.4
-1884.2
-42829.9
23557.8
92592.5
319403
210451
224778
291190
405656
279564
415168
405131
592291
409837
470718
317260
462623
523615
614214
1.00824e+06
941547
793440
618481
1.2899e+06
1.86107e+06
1.94025e+06
1.66606e+06
1.61383e+06
1.5386e+06
1.09608e+06
843639
619079
733581
601331
541664
704456
638673
356845
373126
576833
651210
496099
774705
681908
516429
429004
652510
530135
568753
717228
639948
669068
532790
361788
486237
329441
496207
577996
720179
490677
309979
316520
257714
286205
301305
331866
427187
605471
940113
859928
807080
992837
505489
129535
148664
134174
132797
88404.4
133446
105047
69744.5
-35973.8
-24790.8
-61172
455.348
3652.01
21084.9
-1904.73
-3982.53
-53587.7
4979.64
4768.74
23637.5
124462
172660
80296.6
84047
59628.5
39348.9
24303.4
-41656.8
73412.3
190477
364783
261136
302353
131674
21784.2
-59617.1
51269.8
15780.9
3518.51
-2031.15
-8438.12
18056.2
128664
63722.4
45039.6
-24630.2
-36055.1
-48753.8
23121.3
9402.64
58827.2
124408
263597
381133
201516
259930
135461
162133
45457.8
24143.2
-14351.2
11796.3
38202
70379.1
88450.8
93342.2
108061
169971
147403
356449
391722
663344
514104
637198
884513
793097
717777
515375
444630
379160
504508
418509
298468
227110
343300
99288
-19856.4
91596.8
18694.9
53028.3
-39588.4
46986
-48.1204
18848.4
67631.1
27325.7
29435.8
90163.6
50359.9
-12707.9
-43609.6
-17225.8
-3245.69
-21153.1
-45141.5
49379.8
84742.9
134391
-9341.54
57819
92491.8
108830
38348.7
101844
168854
178243
171258
133337
102842
122429
55269.7
33723.7
61362.2
45804.1
8746.27
92783
32221.5
74930.1
149709
218920
137569
141870
92934.7
-5175.23
58612.2
100449
249008
259575
279794
313344
244985
277486
177033
116061
61627.1
19395
20445.9
113293
264011
341302
131075
22564.4
18407
74524.6
23145.1
42447.5
120698
45525.6
-13269.4
-29074
44725.7
55437.5
7968.66
3615.42
33599.3
5403.99
-15598.4
-18184.7
6864.97
11971.8
-5946.34
-6408.7
-15910.7
11693.2
689.196
6153.86
-4577.3
-15289
-67679.6
149012
304357
222323
126088
114783
179330
273258
601277
614837
506907
923692
992631
962984
1.31859e+06
1.17777e+06
743258
935114
1.10692e+06
1.03076e+06
970025
1.59945e+06
1.49952e+06
1.50513e+06
1.41559e+06
1.16706e+06
1.33906e+06
1.48814e+06
1.5893e+06
1.27944e+06
970186
1.09182e+06
1.33133e+06
1.58403e+06
1.35687e+06
1.59696e+06
1.45613e+06
1.43193e+06
1.46871e+06
1.47794e+06
1.55553e+06
1.6723e+06
1.88949e+06
1.63682e+06
1.45145e+06
1.27263e+06
1.49381e+06
1.43273e+06
1.56387e+06
1.65983e+06
1.35502e+06
1.21176e+06
1.24731e+06
1.18458e+06
1.29321e+06
1.03849e+06
827076
765051
790855
352433
319102
303686
250778
289998
231589
281091
451243
620232
880958
1.14163e+06
973691
841029
665064
748629
448069
454089
665942
381506
293555
446951
268701
419883
270747
387839
112556
203018
192927
341645
325754
461368
440326
485707
568995
467530
289318
206419
361220
207508
264241
219626
89455.1
39663
50173.9
9122.53
46526.6
34673.3
-7115.12
-125.001
45439.5
16859.1
20755.3
661.983
-104184
-19022.7
2204.34
-7306.15
-27956.9
-74624.2
-48174.1
-29796.8
3936.57
31301.1
78037.3
-37036.3
-31625.3
-39881.8
-15721.2
-60363.4
-46307.7
-9300.18
-36646.6
-1640.11
-29225.7
2144.12
-21466.6
-31871.3
-14808
-11624.5
89728
153998
77227.1
21030.7
13217.9
5382.7
-42065.4
-70115.5
-23048.9
-3674.45
48098.8
91180.5
11956.6
776.644
39046.5
26612.9
52944.2
99398.1
-2261.02
-16827.8
-1242.14
1112.07
55789.5
122962
134894
131710
110781
62493.1
-10966.6
-63318.6
-21590.3
-13681.8
-29744.7
-31172.7
-35078.8
-24696.3
43406.7
75020.3
137495
69889.5
-4932.84
