-1.306e+06
-1.35018e+07
1.81847e+07
1.20099e+07
-5.16551e+06
-3.84505e+06
-4.43151e+06
-5.65281e+07
-4.61369e+06
3.4779e+07
2.36773e+07
1.11733e+08
1.88884e+07
1.30725e+07
2.75358e+07
1.654e+07
2.53247e+08
9.54683e+07
9.07302e+07
7.71573e+07
1.63487e+07
5.77998e+07
-1.0523e+07
-1.8245e+08
-1.61526e+07
3.0398e+06
-9.77171e+07
-5.51706e+06
-5.45271e+06
-6.64781e+06
-1.09205e+07
7.28249e+07
-2.00395e+08
-2.10776e+07
-8.43491e+07
-82050.6
4.53774e+06
606868
-8.61733e+06
1.22192e+07
3.27905e+07
-4.20376e+07
1.83417e+07
-8.10297e+07
-7.73303e+07
-6.44131e+06
-5.31376e+06
-3.58237e+06
-2.03415e+07
-1.33747e+06
-2.36775e+06
3.63067e+07
-5.46179e+07
2.55117e+07
-5.83578e+06
5.87968e+07
-3.52895e+07
-1.58358e+08
-1.15674e+08
-5.12086e+07
-6.74847e+07
-5.95289e+07
-5.5984e+07
-6.52764e+06
-3.20778e+07
7.98835e+07
5.97086e+07
3.66711e+07
4.09113e+07
4.20402e+06
4.57755e+07
7.70347e+07
-1.38985e+06
3.07659e+06
1.25423e+07
1.96373e+07
3.9017e+07
-5.89446e+07
3.59569e+07
-1.57894e+07
3.26162e+07
1.64975e+07
5.85318e+07
7.11985e+06
-6.65324e+06
6.19475e+07
5.12703e+06
-1.99468e+06
1.66966e+07
7.02679e+07
4.35592e+07
-4.10866e+07
-3.1174e+06
2.80652e+07
2.82451e+07
-1.53543e+07
4.25184e+07
7.17268e+07
8.6279e+06
2.20425e+08
-3.35186e+07
4.38488e+07
1.28561e+07
862700
367383
1.2453e+07
1.04654e+07
-2.55832e+07
-8.98323e+07
4.98675e+07
-1.03349e+07
-2.16421e+07
-3.02994e+06
6.15318e+06
-1.07649e+07
-2.03731e+07
1.78337e+06
1.08408e+07
2.16068e+06
-2.3029e+07
7.35981e+06
-4.41085e+06
-6.50273e+07
-3.87196e+07
-2.35832e+08
-9.69588e+07
-9.84436e+07
-6.29464e+07
-8.3026e+07
-1.16166e+07
-4.32936e+07
2.29066e+08
2.05025e+08
-2.06233e+06
1.68885e+08
5.63858e+07
-1.30327e+07
4.44006e+06
8.22454e+06
9.66764e+06
-1.61862e+07
-4.56567e+07
-9.27655e+07
9.10023e+06
-3.58637e+06
-3.7497e+07
1.31411e+08
5.31721e+07
5.66975e+06
-2.10182e+07
1.97655e+07
4.93498e+07
1.21351e+08
-9.34532e+06
6.62225e+07
1.00264e+07
1.60235e+07
-3.29933e+06
-5.47518e+07
8.09002e+07
2.83666e+07
9.01183e+07
6.59605e+07
1.3588e+08
7.36167e+07
6.79315e+07
1.14351e+08
1.44895e+08
5.79174e+07
7.54078e+07
2.05589e+08
1.09096e+08
3.17997e+08
2.0828e+07
1.30969e+07
-7.40096e+07
1.61786e+07
5.57566e+07
1.30193e+07
-1.38179e+07
2.0108e+06
7.38075e+07
1.36296e+08
1.75328e+08
1.53657e+08
5.14963e+07
2.22171e+07
-2.56025e+06
-5.77836e+06
2.03582e+07
5.91898e+07
-6.35937e+06
3.68383e+06
6.59563e+07
5.01346e+07
-2.82695e+07
-5.54675e+07
4.1866e+07
5.31246e+07
3.22274e+07
3.74101e+07
1.47578e+07
2.06164e+07
1.95859e+07
1.03245e+07
-2.29017e+07
-1.2033e+07
1.22883e+07
1.49885e+07
-8.97248e+07
-9.83279e+06
-2.13641e+07
-4.97151e+07
1.55269e+06
9.98262e+06
1.69323e+07
5.19666e+07
1.52227e+07
2.97871e+06
4.91968e+07
-1.25735e+07
-8.7388e+06
-1.73424e+06
1.07172e+07
840703
894872
1.49385e+07
2.87338e+06
1.02905e+07
5.69313e+07
1.69654e+07
-8.92803e+06
129224
-1.72676e+06
2.01155e+06
-7.00147e+06
1.21821e+08
1.00812e+08
1.90346e+07
-7.50363e+07
-8.52375e+06
-9.43585e+06
-3.71156e+07
2.40898e+07
5.27507e+07
-2.79514e+07
3.38709e+06
-7.70845e+06
-5.02435e+07
-9.00192e+07
-1.57884e+07
2.32981e+07
3.64989e+07
796766
6.51473e+06
7.62937e+06
2.86309e+07
1.5915e+06
-5.995e+06
-3.55729e+07
-6.70411e+06
9.05886e+07
6.66497e+07
-1.0916e+08
1.84026e+07
-8.99009e+06
8.32982e+06
5.22772e+07
6.3454e+06
-3.89265e+07
-2.06058e+07
-2.85951e+06
2.11574e+07
-4.69583e+06
2.50191e+06
-169091
-7.35118e+07
-1.25351e+07
-1.0221e+07
4.43134e+06
-1.59844e+07
1.24459e+07
-2.71127e+07
-3.23534e+07
-4.68285e+07
-2.24143e+07
-1.69869e+08
-8.36312e+07
-1.91425e+08
-1.49271e+08
-5.37255e+07
-1.69511e+08
-7.97107e+07
-1.01542e+07
-6.52408e+06
-6.43212e+06
8.31717e+06
-1.20657e+08
-6.00521e+07
-1.38057e+08
-4.22598e+07
3.99872e+06
-1.03653e+07
-2.28903e+07
-1.13862e+07
-5.51073e+07
6.3205e+06
4.24395e+07
1.16661e+08
5.60845e+06
2.70806e+07
2.35225e+07
2.72469e+07
3.30849e+07
-1.24792e+06
1.83238e+08
-7.79974e+07
-7.64515e+06
-4.98235e+07
6.76777e+06
-1.62418e+06
4.70498e+06
-1.01254e+08
2.63321e+07
1.73399e+07
7.06486e+07
1.18145e+07
2.9519e+07
1.58213e+07
-9.86177e+07
-2.48109e+08
-2.97244e+08
-4.3913e+08
-2.65525e+08
-2.62114e+07
3.7876e+07
9.68835e+06
4.73774e+07
1.70482e+07
3.49307e+07
3.05045e+06
-3.91493e+07
405657
9.61688e+06
1.02455e+07
-2.46045e+07
-3.43674e+07
-8.88447e+06
-1.28154e+07
2.53266e+07
-8.77257e+07
-5.3952e+07
-4.68272e+07
-4.93615e+07
1.52482e+07
-2.31271e+07
2.69164e+06
1.3883e+06
-1.45381e+07
-560369
-4.20171e+07
2.88356e+07
4.84984e+07
-1.30297e+07
5.57574e+06
2.42717e+07
4.54795e+07
2.76453e+07
-2.45029e+07
-3.11832e+07
7.72952e+06
-1.81743e+06
-1.65515e+07
-7.2554e+06
-7.66369e+06
1.05399e+06
1.05443e+07
2.59036e+07
-6.71612e+06
-8.94085e+06
-2.8659e+07
-2.29227e+07
-1.55305e+07
-9.09453e+07
-1.08845e+07
-3.37925e+07
8.71566e+06
9.92504e+06
4.98666e+07
3.54829e+07
4.76375e+07
-2.2117e+07
4.11941e+06
-6.56245e+06
464413
2.9725e+07
7.35514e+06
-8.99368e+06
1.11511e+07
7.84179e+06
1.7554e+07
1.9816e+07
1.79514e+07
1.37563e+07
-1.49746e+06
1.21908e+07
-5.56547e+07
-8.41314e+07
-1.3067e+07
-3.79842e+07
2.31513e+06
-9.41577e+07
2.95421e+06
-5.42111e+06
9.13817e+06
4.75524e+07
4.11686e+07
2.38881e+08
2.14888e+08
8.82782e+07
1.82551e+08
2.6066e+06
2.79775e+07
-4.58341e+06
3.44438e+06
4.34674e+07
1.91012e+06
-1.23868e+07
-1.2622e+07
1.14269e+07
1.25868e+07
-1.18564e+07
1.21382e+07
1.64245e+07
8.18132e+06
-1.63704e+08
-1.63e+07
-1.88568e+07
-5.45963e+06
6.09658e+07
5.99555e+07
-6.16969e+07
-6.2183e+07
1.01582e+07
-1.6211e+07
1.6012e+07
-1.85487e+08
5.43229e+08
7.668e+07
1.76092e+07
4.54834e+07
5.25639e+07
9.78959e+07
-1.20703e+08
4.32226e+07
-4.89436e+07
-5.94667e+07
-1.94941e+07
-3.97213e+08
3.97143e+06
-1.34587e+06
-1.09703e+08
-5.21694e+07
7.20039e+06
5.12705e+07
4.21658e+07
2.9803e+07
3.10171e+07
-1.14095e+06
1.38863e+07
-3.36873e+07
-2.25996e+06
3.15985e+07
9.09348e+06
2.02565e+07
1.04521e+07
2.23963e+07
3.26699e+07
-4.35795e+06
-6.60765e+06
1.61933e+08
3.5318e+07
-2.32535e+07
-1.22568e+07
-8.72093e+07
-3.76964e+07
1.64574e+06
-4.42716e+06
-1.94798e+06
2.49577e+07
1.6743e+07
-8.70685e+07
-2.23297e+07
-8.77894e+07
4.29412e+07
-492849
-7.51891e+06
-1.34646e+07
-3.78981e+07
-3.57363e+07
3.78273e+06
1.21157e+07
-3.49224e+06
1.19684e+07
8.15473e+07
1.59602e+07
-1.28221e+07
4.09043e+07
5.23471e+07
1.40442e+08
-541529
5.0606e+06
-2.23793e+06
-2.91057e+07
-4.34583e+07
1.42589e+07
-595297
6.62568e+06
-6.45828e+07
-1.2718e+07
-2.64375e+07
1.52209e+07
2.58657e+07
-8.33385e+06
4.41018e+06
7.0025e+06
-1.86606e+06
-6.89288e+07
3.9244e+07
7.48478e+07
1.31265e+07
5.2538e+07
1.77134e+07
3.77961e+07
-1.74437e+08
6.194e+07
-3.18717e+07
-2.16695e+07
-5.7692e+07
-1.23565e+07
5.80452e+07
1.47849e+06
2.07479e+08
3.85615e+08
1.11269e+08
5.6872e+07
3.00166e+06
3.70398e+06
-1.59128e+07
4.71284e+07
5.85743e+07
1.12837e+07
2.49128e+06
-8.009e+06
-358277
-2.85061e+06
1.12513e+07
4.87262e+08
5.37327e+07
-4.48685e+07
-1.50652e+07
-9.72971e+07
-5.49795e+07
-4.93635e+07
-2.60487e+08
-9.06263e+07
-4.02473e+07
-1.05977e+08
-1.46569e+08
-2.87869e+07
-1.44039e+06
-1.04798e+08
-1.93285e+07
1.07524e+08
2.82815e+08
1.86123e+07
1.77231e+07
-2.47549e+07
3.89833e+07
4.28898e+07
-1.38057e+06
-1.43348e+07
8.57982e+06
1.59397e+07
2.44098e+07
-2.1991e+06
-1.3298e+08
-7.70256e+06
-8.5244e+06
-1.39758e+07
3.14768e+06
1.88366e+07
6.22986e+07
1.24692e+08
1.76101e+07
1.53103e+07
-2.87442e+07
1.35639e+07
2.14234e+08
-6.45179e+07
5.17629e+06
-4.21316e+07
5.69818e+07
6.33275e+06
1.95202e+07
-4.42668e+06
-2.64852e+06
-1.24588e+07
-3.42333e+06
9.92931e+06
3.77093e+07
1.18804e+07
-9.48995e+06
1.86599e+06
-2.66313e+07
-2.58408e+06
1.69917e+07
-3.15908e+07
-1.57076e+07
-3.26027e+06
-8.31821e+07
2.32251e+07
-1.66277e+07
2.89497e+06
1.68967e+07
-4.16284e+06
1.16226e+08
5.32788e+07
-3.75446e+07
-8.97208e+06
-1.56083e+07
2.0976e+07
-4.96897e+07
-6.61718e+07
-1.04621e+07
6.37649e+07
-2.70304e+07
2.95784e+07
7.44764e+07
2.66872e+08
3.28912e+08
3.55317e+08
1.66348e+08
2.91564e+08
1.47783e+08
6.30179e+07
1.33187e+08
-2.43025e+07
3.02222e+07
-2.9338e+07
-5.29168e+06
-5.50147e+07
-1.05175e+08
2.67706e+07
-3.33599e+07
8.90969e+06
1.07378e+07
2.56502e+07
5.68096e+07
5.8588e+07
3.44147e+07
5.71122e+06
3.15805e+07
5.66822e+06
2.29658e+07
-6.85825e+06
5.58308e+06
-2.65913e+06
5.74198e+06
-1.07784e+07
907658
5.10959e+06
-3.93534e+07
-2.00152e+07
-3.16961e+07
1.63161e+07
2.14833e+07
-2.6587e+07
-7.91168e+06
1.07088e+06
-7.3654e+06
-1.76631e+06
-1.03367e+07
2.15737e+07
-1.07559e+08
-2.18189e+07
6.71781e+06
398886
1.28037e+07
523980
-2.44374e+07
2.46631e+06
4.75867e+07
3.84857e+07
2.13497e+07
4.89879e+06
1.77645e+06
1.84606e+07
-6.43876e+06
7.72564e+06
4.30955e+06
1.28523e+07
2.44188e+07
-4.92255e+07
1.84729e+06
1.32846e+07
1.11328e+07
6.66488e+07
1.29751e+07
-6.94694e+07
-8.66747e+07
5.70139e+07
-2.85558e+07
7.07188e+07
1.0382e+08
1.06271e+08
9.51855e+07
2.17676e+08
5.28289e+07
8.81813e+06
-1.32306e+07
7.11459e+06
-1.69516e+07
4.6891e+06
4.7772e+06
-2.70707e+07
-4.23906e+07
-2.32756e+07
-7.991e+07
9.83945e+06
4.54447e+07
1.29876e+07
6.40953e+07
1.47163e+06
7.01556e+06
2.56443e+07
-1.62226e+07
-9.24174e+07
5.93172e+06
-3.7306e+07
-2.72646e+07
-5.5536e+07
-2.83525e+08
-2.22366e+07
3.388e+06
1.35524e+07
1.57702e+07
7.24432e+07
2.34116e+07
1.95935e+07
4.25429e+07
-1.47716e+07
6.14981e+06
5.89217e+07
764520
3.6409e+07
-4.49213e+07
-3.46648e+06
3.22412e+07
1.0488e+07
-6.99424e+06
6.06779e+06
-2.00018e+06
-2.2206e+07
4.89465e+06
-9.44676e+07
-1.41297e+07
964730
1.04116e+07
-9.5682e+07
4.13048e+08
-7.45929e+06
1.03783e+06
-7.70301e+07
-9.10639e+07
-2.01541e+07
-7.1639e+07
-3.06457e+07
1.81356e+07
1.04259e+07
-1.86822e+06
2.83375e+07
3.17212e+06
-1.30335e+08
-3.48499e+08
-2.02293e+08
-1.21292e+08
-4.58367e+07
-2.53387e+07
-5.0726e+06
4.77958e+07
-4.25457e+07
1.61236e+07
1.38078e+07
5.85202e+07
2.88277e+07
-6.86804e+06
1.23847e+07
-192494
-8.05715e+07
-6.03703e+07
-6.17164e+06
-3.94093e+06
2.98739e+06
2.30581e+06
1.25964e+07
2.22077e+07
9.83119e+06
1.27692e+06
-9.63297e+06
-1.33745e+06
1.01716e+07
1.24452e+08
4.50777e+07
-2.91618e+07
-1.0969e+07
-1.14578e+07
290346
2.58246e+06
-1.05007e+07
-1.07276e+08
-1.14288e+08
-8.59632e+07
-1.60651e+08
-5.1131e+06
-1.3744e+07
7.35177e+06
-1.01481e+07
-1.92199e+06
1.51968e+07
4.27303e+06
-1.73104e+06
1.021e+08
1.41538e+07
1.9466e+07
-5.80075e+07
-7.81788e+07
-9.68311e+07
-1.07631e+08
-1.26779e+07
-1.486e+07
-1.95469e+07
1.95161e+07
3.62097e+07
-1.71526e+07
2.36338e+06
-4.39519e+06
-9.58461e+06
2.42639e+07
3.17026e+06
2.16804e+06
-9.69459e+07
7.33523e+06
1.26373e+08
-1.86367e+06
-1.99658e+07
1.71962e+07
-1.29474e+07
-4.66514e+07
1.75518e+07
1.46864e+07
-662651
5.1457e+07
3.52153e+06
1.68798e+07
-5.4716e+07
2.54361e+07
-26059.6
-1.75604e+07
-95922.6
-5.44732e+07
-2.13635e+07
6.3408e+06
1.12738e+07
2.17445e+07
5.88801e+06
-1.24817e+07
1.97899e+07
1.28186e+07
3.36502e+07
-75170.1
3.07404e+07
-2.50024e+07
-2.47092e+06
-7.1574e+06
2.40467e+06
-9.65415e+06
-3.09611e+06
-8.0473e+07
-4.56619e+07
-6.32253e+07
9.94286e+06
4.05661e+07
-9.40008e+07
-1.86865e+07
2.16684e+07
1.31155e+07
5.796e+07
1.81529e+07
1.54514e+07
1.19537e+07
-1.34939e+07
-7.74788e+06
-1.99376e+06
-3.25051e+07
-4.75478e+07
-1.14227e+08
-3.72724e+07
1.02661e+07
-8.63033e+06
-1.50083e+07
6.25412e+06
974480
-1.21161e+07
-3.43575e+07
199664
1.05632e+07
-3.58913e+07
3.60621e+07
2.83027e+08
1.37305e+08
4.66267e+07
-3.77718e+06
5.45165e+07
3.51657e+07
-5.20802e+06
-2.16801e+07
-1.74211e+06
-3.00161e+07
-5.16366e+06
-1.96387e+07
-1.00725e+07
-2.01019e+07
-1.19601e+06
1.68106e+06
1.07135e+07
-2.4716e+07
6.26729e+06
-81834
-210685
892876
1.42763e+07
-1.46146e+06
1.07326e+07
-4.26987e+07
-8.10254e+06
4.93519e+06
-6.46503e+06
-5.54481e+06
-9.02282e+06
-6.6256e+07
-1.02412e+07
-1.69908e+06
-1.11691e+07
-7.298e+07
-3.00003e+07
-2.00974e+07
-5.37308e+06
-2.56794e+07
-3.05424e+07
-1.84082e+06
-2.53402e+07
-3.06605e+06
-2.03328e+07
5.22634e+06
1.32302e+07
2.29817e+07
1.73018e+07
2.39718e+08
3.14188e+08
2.1399e+07
-9.36242e+06
3.02278e+07
1.26448e+07
-4.31872e+07
-7.30445e+07
8.50204e+07
-1.80537e+08
-1.54305e+07
-3.60508e+06
-2.54404e+07
-5.13041e+07
-1.09363e+08
-1.71792e+07
-2.74685e+06
7.62291e+07
9.86609e+06
1.36959e+07
1.31735e+07
-3.44492e+06
-1.08739e+07
-1.0603e+07
-456042
-3.3226e+06
5.03219e+06
1.7451e+07
1.57707e+07
3.44431e+07
4.42742e+07
1.38745e+07
-59147.7
-1.97241e+06
-2.65796e+07
-2.50527e+07
-6.51667e+07
-8.80117e+07
-2.86039e+07
-7.68827e+07
-5.29934e+08
-3.1722e+08
-2.27238e+08
-2.46977e+07
1.04219e+07
2.13608e+08
2.56018e+07
-8.34541e+06
-1.19706e+07
-1.46191e+07
158243
3.31618e+07
-4.70941e+07
-5.20006e+07
-2.57344e+07
-1.53239e+06
-1.4106e+07
-6.48117e+06
2.687e+07
-3.17036e+06
-9.5622e+07
1.1493e+07
4.94371e+07
2.94647e+07
-6.47752e+06
-1.40782e+07
-1.46635e+06
1.15225e+07
-1.74434e+06
-1.22345e+07
-1.82682e+07
1.91177e+07
-1.48531e+07
1.95893e+06
-1.51222e+06
2.60013e+06
1.37223e+07
-3.66231e+07
9.59104e+07
8.19793e+07
-1.39604e+06
2.53343e+07
1.43118e+07
1.10073e+07
3.21718e+07
6.28766e+06
1.85376e+06
5.12728e+06
1.65706e+07
1.61452e+08
2.21709e+06
-984971
-2.61512e+06
-9.05036e+06
-2.57533e+07
-6.08329e+06
-1.74901e+07
-4.58476e+06
-790814
-1.25197e+07
-5.55698e+07
-5.84914e+07
-2.20225e+06
2.95721e+07
6.91846e+06
-1.95554e+07
-5.66302e+07
1.19241e+06
5.67832e+06
1.36295e+07
6.60673e+06
2.65256e+07
-1.31667e+07
3.58516e+07
-6.34692e+06
1.31828e+07
1.10151e+07
-4.19661e+06
-4.60253e+07
612531
-1.84676e+06
2.23683e+06
-3.31182e+06
3.1233e+07
6.09928e+07
8.56872e+07
-1.44789e+07
6.85756e+06
9.45621e+06
6.35281e+07
1.18322e+08
8.83995e+06
599594
4.33312e+07
1.42256e+07
2.13763e+07
-3.827e+06
-8.2319e+06
-1.53992e+07
-9.99109e+06
-278422
1.03472e+07
2.72462e+07
5.62759e+07
7.29653e+07
1.27038e+07
-1.1817e+07
9.96976e+06
1.15482e+08
7.8718e+06
2.39374e+08
-6.27953e+06
2.03911e+07
-6.86699e+06
2.15272e+07
-1.16864e+07
-5.19567e+06
2.74491e+07
1.43498e+07
6.77403e+06
-3.03312e+06
-8.7564e+06
3.17293e+07
-2.49536e+06
898158
3.32916e+06
-410466
2.01112e+08
-1.81798e+07
6.45042e+07
-1.63535e+07
1.34511e+07
1.86385e+07
1.3631e+07
-3.52553e+07
658129
-7.13353e+06
-8.79364e+06
-1.25621e+07
-1.05202e+08
-2.53388e+08
-1.71423e+08
-1.11166e+08
-3.62102e+07
-9.7749e+06
1.01314e+07
-2.86244e+06
9.38633e+06
2.75382e+07
3.36598e+07
-5.3687e+06
-1.36506e+07
-3.34884e+07
-1.56966e+08
7.47797e+07
2.44109e+07
1.04241e+06
-4.35045e+07
-3.45654e+06
-7.30919e+07
-5.93744e+07
839361
1.67298e+07
-1.45766e+07
-7.37366e+06
-1.36588e+07
-7.49943e+06
-2.30742e+07
3.99158e+07
-1.23928e+07
-1.60013e+07
-2.68054e+07
4.0286e+07
1.46605e+06
2.92074e+06
-1.2025e+07
1.15115e+07
-5.0683e+07
-1.78724e+07
-1.2447e+08
2.00939e+07
1.57643e+07
1.19744e+07
-2.01872e+07
-9.5873e+07
-1.10864e+08
-1.04806e+06
-1.55752e+08
-4.2206e+06
5.62326e+07
-6.85778e+07
-3.9323e+07
-4.31439e+07
-3.47266e+07
-4.30167e+07
-3.85805e+07
1.10702e+07
3.11463e+07
1.69273e+07
4.13707e+07
1.42847e+07
-2.60605e+06
1.28953e+07
-1.0472e+07
5.47549e+07
1.00538e+07
3.53928e+06
1.58395e+07
-3.37506e+06
-2.56445e+07
-1.63545e+07
-1.83113e+07
-695014
-9.02001e+06
-7.187e+07
1.52114e+07
-3.25884e+06
-2.76296e+07
-1.88138e+06
-1.74287e+07
-9.69774e+06
-3.48627e+06
1.35495e+07
-1.45858e+06
4.96171e+06
1.31562e+08
3.71451e+08
1.33082e+08
1.34502e+08
-2.46993e+07
2.492e+06
2.03618e+06
1.06726e+07
1.80826e+07
-7.46247e+06
-3.6462e+07
5.896e+06
-5.42032e+06
-4.3923e+06
-3.6134e+07
5.69282e+06
818849
-5.53331e+07
-1.16699e+07
5.24227e+06
-2.15303e+07
-3.94286e+07
-6.95734e+07
4.53798e+06
-1.56698e+07
2.69358e+07
-4.29927e+07
2.44122e+07
3.53628e+07
-1.24931e+07
1.15115e+07
-9.26544e+06
-1.45727e+06
715535
4.18941e+06
6.7232e+07
-1.57758e+06
1.07498e+07
-1.29054e+07
3.72832e+06
2.53458e+07
3.68738e+07
2.0181e+08
-1.06805e+07
2.15744e+07
-3.17787e+07
1.70042e+07
7.95534e+07
2.54276e+07
3.57146e+06
-1.17516e+07
-2.09308e+07
542551
-1.3789e+07
-5.68551e+07
1.01311e+08
-9.43856e+07
-2.68425e+08
-4.42022e+08
-1.21523e+08
-5.45944e+07
3.85086e+06
2.0187e+07
2.38852e+07
-2.45996e+07
-1.0684e+06
3.38037e+07
1.8302e+07
3.81662e+06
2.12543e+07
1.65555e+07
6.12586e+07
-1.02859e+07
6.07906e+07
-1.34006e+07
1.07992e+08
3.43443e+07
7.31804e+06
1.61533e+06
-1.23584e+06
3.43641e+07
1.10842e+06
2.49976e+06
9.81115e+06
-1.35778e+08
2.08403e+07
-6.95392e+07
7.59115e+07
9.73865e+06
3.87584e+07
5.79048e+06
2.23907e+07
-6.8503e+06
2.45955e+07
2.11657e+06
9.52157e+06
7.97669e+07
6.05623e+07
-1.05327e+07
-1.31313e+07
5.23612e+06
-7.73272e+06
1.50579e+07
8.30191e+07
6.60672e+07
-1.54462e+07
-4.69326e+07
-1.07813e+06
1.24829e+07
-2.56502e+07
1.17942e+07
-1.8015e+07
-8.71606e+06
5.16957e+07
2.42737e+07
2.63629e+07
4.78676e+07
3.82151e+07
6.29651e+07
3.43966e+07
2.26701e+07
1.30702e+07
8.97861e+06
4.30308e+07
4.47226e+07
3.27715e+07
6.8993e+07
1.02006e+08
2.31602e+08
5.69591e+08
3.28298e+08
5.80302e+08
3.21335e+08
2.41603e+07
1.46923e+07
1.79555e+07
-2.40128e+07
-2.40363e+07
-1.47271e+08
-2.56002e+08
-2.62205e+08
-3.16142e+08
-1.96253e+08
-2.14345e+08
-3.2316e+07
2.17218e+07
7.30077e+06
-1.4313e+07
-2.65188e+07
3.80584e+06
3.75991e+06
-5.12741e+06
-7.02583e+07
-3.42044e+07
-7.08437e+06
-2.52498e+08
-1.85002e+07
5.611e+07
1.15635e+08
-4.0959e+06
3.86074e+06
-5.42508e+06
-2.68218e+07
2.48857e+06
-3.2269e+07
-8.68351e+08
-1.5238e+08
-2.16866e+08
-3.72445e+07
-1.47999e+07
-7.71567e+06
171988
-6.81857e+07
5.96287e+07
-1.32906e+08
-8.01686e+07
-2.97695e+07
-1.90105e+07
-452206
-1.18274e+07
-4.58255e+07
3.20978e+07
-8.70414e+06
-5.44058e+06
3.91939e+07
2.60448e+06
4.65474e+06
-4.2076e+07
-8.99811e+07
-1.00033e+07
-9.81344e+07
2.91462e+07
8.13493e+07
-2.33345e+07
3.1872e+07
-1.17997e+06
-2.02299e+07
-8.13576e+07
-5.50945e+07
-5.10351e+07
-3.56886e+07
-4.05063e+07
9.10122e+07
4.46354e+07
4.41521e+07
1.78987e+08
-2.06194e+06
1.21581e+07
5.90505e+06
-1.53048e+07
-7.89906e+06
-943830
-5.05787e+06
-2.60122e+06
668015
-785566
-7.30695e+06
-2.78204e+07
-2.31762e+07
-281196
-7.02808e+07
-1.55254e+08
-3.84161e+07
-1.02798e+08
-2.19382e+07
-1.07812e+07
7.5965e+06
-4.1639e+07
-2.16875e+07
-6.0291e+07
-3.14e+07
-4.82953e+06
-758388
5.00786e+06
5.74847e+06
1.70288e+07
5.44339e+06
3.15416e+06
-3.85657e+06
622918
-4.81566e+07
-2.40029e+07
2.65451e+07
-2.78203e+06
8.75183e+06
-5.31728e+06
365270
6.74365e+07
1.56256e+07
7.64018e+06
6.90935e+06
-69823.1
-5.99894e+06
-2.2478e+07
-6.18822e+06
-1.89707e+07
-3.40833e+06
-2.10379e+07
8.84004e+06
-1.28344e+07
-1.96072e+07
1.13392e+07
4.04454e+07
-1.00577e+08
5.42752e+07
1.49689e+07
473450
-1.87865e+07
5.43331e+06
1.26037e+06
-4.03917e+06
502671
-2.42784e+07
-1.4171e+07
-1.55934e+07
-364304
6.49151e+06
-9.03256e+06
4.91531e+06
-7.6817e+07
-2.33657e+07
7.07342e+06
-3.89931e+08
-8.72798e+07
-1.13233e+08
-1.62257e+08
2.77494e+07
2.4432e+07
6.03019e+07
1.53757e+07
-3.84189e+06
-1.32677e+07
-1.3207e+07
-4.57926e+07
-1.69077e+08
-8.14782e+07
-5.30089e+07
1.644e+07
-2.60989e+07
3.42514e+07
-3.60407e+06
3.58439e+07
-6.42169e+06
-1.70822e+07
2.01178e+07
2.11112e+07
1.49143e+06
912674
1.60778e+06
-1.27864e+07
-1.41128e+07
-3.37647e+07
-4.19998e+07
147915
3.81638e+06
-5.45467e+07
-1.54835e+07
-1.16221e+07
-1.32092e+06
-1.17116e+08
-6.50248e+06
2.66763e+07
1.22132e+07
1.08697e+08
1.40803e+07
-9.56578e+06
-1.02689e+07
-1.28568e+07
-2.60864e+07
-2.26938e+07
-7.60213e+06
-1.09743e+07
-5.95497e+07
-1.99883e+07
-5.26244e+06
2.56064e+07
-1.01344e+07
2.28099e+06
6.65286e+06
-5.43374e+07
-3.37012e+06
-5.78929e+06
-2.30451e+07
-3.9403e+06
-2.20657e+07
-974638
3.87115e+07
5.43286e+06
1.16932e+07
-1.60766e+07
-2.6234e+07
-6.05084e+07
8.7519e+06
-1.5139e+07
-2.49128e+08
-1.00191e+08
1.47583e+07
1.3343e+07
-1.15632e+07
-1.47458e+07
-2.27544e+07
-9.86012e+06
-1.69909e+07
1.74753e+06
-1.51201e+07
-479859
-1.61929e+07
1.63421e+07
-7.2743e+06
1.88323e+07
-3.03243e+07
-3.43936e+07
-4.19539e+07
1.75364e+07
4.61292e+07
1.45739e+07
-3.28336e+06
1.64376e+06
-1.41661e+07
-1.57348e+06
-3.84545e+06
-5.1732e+07
-5.70198e+06
-1.3124e+07
-7.11192e+06
-4.7409e+07
-2.23913e+07
-2.91178e+07
1.55248e+08
-1.64655e+07
-4.67127e+06
-8.09485e+07
-4.72537e+07
2.71165e+07
-8.87532e+07
-2.71646e+07
8.8918e+06
9.9742e+06
-4.30784e+06
9.82139e+06
2.09875e+06
-6.86874e+07
6.69836e+06
-1.342e+08
-1.85669e+07
-2.48002e+07
-3.07051e+06
-4.61784e+06
-4.08802e+07
-887344
3.83729e+07
1.90964e+07
1.34525e+07
7.75529e+07
-1.00177e+07
-3.63661e+07
-9.73294e+06
-9.96126e+06
-2.28343e+07
-2.24612e+07
-2.34608e+07
8.32134e+06
1.52237e+07
-7.61658e+06
1.15282e+07
4.0483e+07
3.86151e+07
2.6362e+08
3.58575e+07
8.85611e+07
2.03883e+07
4.00476e+08
3.83579e+08
1.35807e+07
2.02732e+07
-3.59916e+07
-4.10958e+07
-1.07517e+07
-7.21089e+06
-6.6496e+06
-262276
1.26661e+07
5.8774e+06
6.20844e+06
1.73383e+06
-1.31345e+08
-5.63569e+07
5.56494e+07
8.4819e+07
4.97873e+07
2.3096e+07
9.32231e+06
1.95288e+07
-1.31882e+07
5.1708e+07
2.07364e+07
3.29108e+08
4.17451e+07
-2.38315e+06
2.01016e+06
-3.28473e+07
-6.16367e+06
-2.09359e+07
-7.31341e+07
1.2801e+07
-1.90687e+07
-2.82216e+07
-7.32798e+07
-1.25753e+08
-7.30811e+07
-8.43563e+07
-3.39304e+08
-1.91233e+07
-1.29119e+07
-7.18356e+06
5.17604e+07
-1.05794e+07
-5.24002e+07
-3.73913e+07
-2.55329e+07
-2.3736e+07
3.10827e+07
2.44924e+07
3.55894e+07
-4.1889e+07
-1.66202e+07
1.94859e+07
1.41671e+07
-3.8596e+07
-7.08852e+06
8.45622e+06
-9.27952e+06
3.19179e+06
-3.65183e+07
-1.64702e+06
-2.46942e+07
-7.24763e+07
-6.93921e+07
-3.41685e+07
-6.66126e+07
5.1986e+07
2.42792e+06
-4.13422e+07
4.85603e+07
2.28247e+07
-2.83425e+07
999431
-1.12054e+07
-3.32713e+07
-1.12037e+07
3.06452e+06
9.53146e+06
2.33709e+07
-7.93979e+06
-2.57567e+07
-1.13229e+07
6.08986e+07
-1.31966e+07
-2.87574e+06
-6.55295e+06
-3.8569e+07
-6.67311e+06
-5.83251e+07
-8.71009e+07
-463287
-6.3132e+07
-1.11464e+07
-1.16844e+08
-2.0234e+07
-1.58153e+06
-2.18674e+07
-5.64503e+06
-3.84737e+07
2.50937e+07
-8.04753e+07
-7.6034e+07
-1.01865e+07
-5.95703e+07
-1.00212e+08
-3.28077e+07
-1.99224e+07
-4.29666e+06
1.06363e+07
-1.42549e+07
1.38438e+07
2.58964e+08
2.17081e+06
4.00413e+07
5.33449e+07
1.46696e+07
-5.24552e+07
-5.41868e+06
5.25979e+06
1.95485e+07
1.31381e+07
3.89873e+07
2.42896e+07
2.51562e+07
-2.39545e+07
4.90244e+07
1.47324e+08
1.58213e+07
9.02353e+06
-4.74768e+06
-1.73017e+06
3.6734e+06
7.0291e+07
1.03559e+08
6.98821e+06
-1.80842e+07
970055
-6.55433e+06
-3.78783e+07
-4.25222e+07
-1.85925e+07
-2.32428e+08
-8.31533e+07
-9.16954e+07
-4.54692e+07
-3.27412e+07
1.45357e+08
2.12839e+08
1.0586e+07
5.29731e+07
3.20662e+07
4.50029e+07
2.033e+07
3.24068e+07
-7.13694e+07
-6.64973e+06
-1.71708e+07
-1.02165e+08
-1.19284e+08
-9.60931e+07
-2.71036e+07
-6.95297e+06
-742187
9.21373e+06
2.62732e+07
-8.56092e+06
314528
9.3171e+07
7.60393e+07
1.0167e+08
1.38576e+07
1.79654e+07
-2.92206e+07
6.02852e+07
-1.08105e+07
-7.70561e+06
4.07349e+07
-1.31277e+06
-8.05767e+06
-1.38009e+07
-6.74114e+07
-8.99845e+06
-3.23072e+06
-2.08696e+07
-4.10475e+06
2.05717e+06
1.10173e+06
-4.73895e+06
-6.91255e+06
-184442
1.38156e+07
1.05969e+07
-7.04213e+07
2.40033e+06
-1.74739e+08
2.1017e+07
7.11176e+07
-163428
1.66272e+08
235286
-4.07059e+06
2.28407e+08
5.5367e+07
2.316e+07
2.71136e+07
-2.51558e+07
6.55113e+07
8.10755e+06
-4.56566e+07
66639.5
1.64621e+07
-2.1072e+06
2.75077e+07
6.9812e+07
4.13099e+07
2.78079e+07
5.52398e+07
1.58615e+07
-50740.7
-1.03823e+07
-1.84027e+08
-7.70995e+07
-4.67803e+07
-3.11608e+07
-1.42239e+06
-1.04007e+07
-2.54176e+07
3.70451e+07
7.25963e+07
1.83971e+08
1.43401e+07
2.77885e+07
-1.48006e+07
8.33699e+06
5.26928e+06
4.66827e+07
2.52131e+07
2.40087e+07
5.57436e+06
-6.88034e+06
3.09221e+07
2.63666e+07
2.53198e+07
-94841.7
2.7698e+07
2.8062e+08
9.50327e+07
1.92111e+07
-1.79802e+07
-4.08928e+07
-3.36731e+07
5.44914e+06
-4.81382e+06
-2.91999e+07
693650
1.11549e+07
9.52078e+06
-1.08886e+07
-1.2481e+06
-1.86089e+06
-1.43624e+07
1.18269e+07
-2.19368e+07
3.43e+07
4.87651e+07
4.23498e+07
3.35372e+08
9.99299e+07
1.53897e+08
1.29309e+08
-1.75442e+07
-3.98269e+07
-2.92148e+07
161816
825112
3.13153e+07
3.87908e+06
-2.53052e+08
-1.65159e+07
-220820
3.11999e+07
1.3487e+08
5.12359e+07
6.56153e+06
5.13746e+07
1.12128e+08
-8.22118e+07
-5.1549e+07
2.26182e+07
3.57081e+06
394821
-1.48542e+06
-1.93423e+07
-2.38599e+07
-1.97458e+07
-6.3654e+07
-9.59202e+06
-6.94384e+07
9.4703e+06
6.74623e+07
2.68387e+07
-1.9551e+07
2.8179e+07
-1.41043e+07
-1.14591e+07
-1.12221e+07
-5.66765e+07
3.81953e+07
2.01462e+07
2.95265e+07
5.59237e+07
1.89618e+07
6.51038e+07
1.1026e+07
-1.6133e+07
-3.86519e+06
-3.67206e+06
-1.92942e+06
-2.41154e+07
1.57861e+07
-150280
9.09982e+06
1.84233e+07
6.02345e+06
-4.43537e+06
-5.30591e+07
-1.25381e+07
-1.18381e+06
6.63927e+06
-9.97441e+06
-1.903e+06
3.49374e+07
6.79673e+06
1.83525e+07
-4.07422e+07
-2.87159e+07
5.91412e+06
4.33703e+07
2.23384e+07
-3.91582e+06
-1.7546e+06
-1.39686e+07
-8.62839e+06
1.78165e+07
-1.99451e+06
4.34118e+07
-1.33999e+07
4.14999e+07
-6.76889e+07
-5.14038e+07
1.39991e+08
1.51975e+08
2.83025e+07
7.02809e+07
2.9382e+07
-4.15338e+06
1.554e+07
8.68158e+06
2.43768e+07
6.29792e+06
1.16782e+07
1.84884e+07
1.85086e+08
-4.2229e+07
4.34686e+07
4.48944e+07
7.16178e+07
1.36793e+08
-6.56384e+08
4.39631e+07
5.47404e+07
-5.82315e+07
-691751
2.09564e+06
2.15071e+06
2.35313e+07
1.08442e+07
6.55528e+07
1.48448e+08
1.85819e+08
2.25333e+08
1.22464e+08
3.57551e+07
1.10819e+07
-5.29984e+06
4.32808e+07
8.58942e+07
7.58092e+07
4.60744e+07
7.06217e+06
-7.19056e+07
-4.4252e+07
-3.32262e+07
-650222
8.03243e+06
9.89889e+07
1.10407e+08
6.00405e+06
1.48647e+07
-4.64032e+07
8.46573e+06
-1.11902e+07
-2.77651e+06
5.05236e+07
3.72856e+07
2.67076e+07
2.29549e+08
9.77934e+06
1.47753e+08
6.83643e+07
1.13058e+07
2.13651e+07
8.35524e+07
-1.75289e+06
-1.26433e+07
66239.2
-7.12367e+07
-1.57729e+08
-4.61299e+08
-3.68393e+08
-2.10836e+08
-2.28025e+08
-1.4102e+08
-7.45147e+07
-8.46352e+07
-1.06277e+08
-1.57154e+08
-3.37319e+07
-4.12376e+07
-5.90657e+07
-7.64648e+06
-785170
-2.83288e+07
-1.7722e+07
-8.03398e+06
-1.23264e+07
2.05985e+07
2.72864e+07
-5.91338e+06
2.45899e+07
1.26934e+07
7.82168e+06
-7.24299e+07
-1.44176e+07
-3.9926e+06
1.36968e+07
-3.89831e+07
2.0174e+07
-3.08693e+08
-3.43206e+07
-5.12664e+07
-5.9465e+07
-2.30745e+07
-6.23941e+06
-1.28937e+08
5.11938e+06
-1.1092e+07
-9.73855e+07
-1.80248e+07
3.31617e+07
5.26228e+07
7.47144e+07
1.04338e+08
-7.80434e+07
-1.66413e+08
-1.19309e+08
-6.28507e+07
-5.37537e+06
5.6447e+06
-9.45997e+06
6.35845e+07
1.62465e+08
1.53808e+07
-9.89299e+06
8.00114e+07
-1.60586e+07
6.91293e+07
8.19448e+07
2.08651e+07
-1.13702e+07
5.72384e+07
7.93867e+06
-1.64737e+08
-3.21462e+07
1.50443e+07
-1.96976e+07
6.77394e+07
-7.80256e+06
-2.81032e+07
-7.30377e+06
-3.35481e+07
-5.37576e+07
4.64099e+06
1.55726e+07
5.81398e+07
-1.48243e+08
2.8172e+07
1.12414e+08
1.35473e+07
-3.38649e+07
-1.98099e+08
-5.8515e+07
-1.96993e+08
-6.88675e+07
1.25568e+06
3.824e+07
-8.82259e+06
-5.77272e+06
-9.2471e+06
1.676e+07
-4.29333e+06
-4.09657e+06
-858971
3.15115e+06
-2.40468e+07
1.10901e+07
-4.42658e+06
2.76555e+07
6.1046e+07
2.90705e+06
4.33829e+06
-9.16704e+06
6.07405e+07
1.11288e+08
2.60922e+07
3.92367e+06
-4.59012e+07
-3.87668e+06
-4.22612e+06
-4.32255e+06
441411
-5.2955e+07
-2.32301e+07
-6.44645e+06
-9.66877e+06
8.53517e+06
-795781
-9.54674e+07
-4.12813e+06
-9.32101e+06
-170854
-3.17815e+07
-3.28247e+07
-9.98308e+07
-2.45757e+07
3.50383e+07
2.63066e+06
350162
5.60726e+07
1.88081e+06
-3.09237e+07
675741
1.36708e+07
1.23914e+08
1.70249e+08
7.60207e+07
-3.1013e+07
-2.32827e+06
-1.97967e+07
-3.47246e+06
1.38856e+07
-1.89515e+07
2.71898e+07
-6.37928e+06
-1.47823e+07
-3.46654e+06
-9.82817e+07
-7.79943e+07
-3.42401e+07
3.58664e+07
-3.15087e+07
-8.46486e+07
1.05303e+07
7.06421e+07
3.73331e+07
1.15895e+06
3.45463e+06
1.44358e+06
1.65439e+07
4.66527e+07
3.53072e+07
-1.44249e+07
7.669e+06
-1.06248e+07
2.79247e+06
-4.52971e+06
-2.85482e+06
-5.39866e+07
-8.68519e+07
-5.25277e+07
-1.64081e+07
-4.02676e+07
3.38902e+07
9.28256e+06
-1.11614e+08
-5.26693e+08
1.24401e+07
2.65599e+07
1.89729e+07
3.058e+07
2.89278e+07
-1.87718e+07
5.50187e+06
1.36703e+07
-1.53047e+07
1.11132e+07
8.46288e+06
-1.20191e+07
2.82501e+07
2.89766e+07
-7.33765e+07
-1.74041e+07
1.34357e+07
2.60986e+06
6.43138e+06
-1.445e+07
-158467
1.88993e+06
3.77128e+07
-2.76434e+07
3.03315e+07
3.65622e+06
5.91029e+06
221458
1.25551e+07
-9.30433e+06
3.99908e+06
-6.55243e+06
-3.96406e+07
-7.76269e+07
2.67049e+07
-8.61399e+06
-4.79402e+06
3.21888e+07
1.19464e+07
3.92836e+07
9.13236e+07
8.44901e+07
5.50637e+07
2.57215e+07
-3.48588e+07
3.23911e+07
3.42902e+07
-3.30118e+07
6.29528e+07
-4.45872e+07
-2.82734e+07
-1.01365e+08
-7.30774e+07
-2.92888e+07
-1.75152e+08
-8.39628e+07
-2.17834e+07
-7.09469e+07
-3.19402e+07
-1.9289e+06
1.1545e+06
-3.35483e+07
54288
-4.44216e+06
4.42097e+06
-1.85814e+06
-5.00824e+07
6.80352e+07
-5.51733e+07
-7.36969e+07
3.2967e+07
-7.2526e+06
-2.46765e+06
2.221e+07
5.66853e+06
-1.00527e+07
-6.93862e+06
1.03704e+07
1.21884e+07
315837
1.26166e+08
6.41411e+06
3.62225e+07
2.73403e+07
2.05235e+07
-3.11063e+06
4.2589e+07
3.02441e+08
3.09189e+08
5.4118e+07
3.82483e+07
1.36309e+07
1.90789e+07
-2.99663e+07
-441263
3.75739e+06
2.53775e+07
8.11136e+06
211005
5.22832e+07
3.57494e+07
3.6285e+07
1.52295e+08
1.59966e+07
2.1148e+06
-6.32934e+07
-2.56123e+08
-9.84861e+07
-7.84111e+08
1.43282e+08
1.54765e+08
6.52132e+08
-1.86477e+08
-1.09166e+08
9.54944e+06
4.28543e+07
-1.0698e+07
-1.0395e+07
-2.76967e+07
4.86783e+07
1.01557e+07
-1.45938e+06
-2.38246e+07
-6.61002e+07
5.99825e+06
4.08788e+07
4.71504e+06
-1.12708e+08
-1.84278e+06
-1.87641e+07
-1.07993e+07
4.26204e+06
2.64136e+07
7.50077e+07
1.17281e+07
1.41154e+07
1.54231e+07
-2.51709e+06
-6.47792e+06
-6.8461e+06
-3.44193e+06
-1.7251e+07
5.20677e+06
5.83855e+06
-5.87827e+06
-1.44066e+08
1.40634e+07
1.91139e+06
2.02657e+07
4.1596e+07
4.32051e+07
-1.40446e+07
5.77523e+06
-3.10824e+07
-6.06648e+07
-2.7533e+07
-1.67676e+08
-8.4459e+06
-2.91384e+07
-5.19337e+06
-9.23855e+07
-2.0434e+07
-7.96165e+07
-1.52094e+08
-2.15353e+07
-1.99305e+08
-2.62364e+07
1.06707e+07
3.23456e+06
-6.22291e+07
-3.88967e+07
3.66923e+07
7.80847e+07
1.00337e+08
2.20852e+08
3.35106e+08
3.5543e+07
1.57675e+08
6.19241e+06
2.13796e+06
-597960
-2.35652e+07
-7.06225e+06
-2.36246e+06
-3.29054e+07
1.77135e+07
3.5119e+06
201393
-1.17173e+07
1.55044e+07
9.96789e+07
-1.35465e+07
-3.67386e+06
-1.55542e+07
-2.269e+08
-2.13712e+08
-1.34391e+08
1.74208e+07
-1.88e+07
-4.65027e+07
-6.75745e+07
-3.83178e+06
7.09049e+06
-1.14246e+07
1.71239e+07
5.03196e+07
2.09264e+07
-541361
2.41407e+07
7.83555e+07
4.78231e+07
2.65789e+07
3.65265e+07
9.42113e+06
-1.79202e+07
3.53194e+07
-43911.7
1.25922e+08
1.28571e+08
-2.27156e+07
1.10682e+08
2.42061e+08
9.01012e+07
3.77764e+07
1.14288e+07
1.99535e+08
1.22445e+08
4.94702e+08
1.06935e+08
9.66068e+07
1.64748e+08
1.12643e+07
-5.45154e+07
1.17882e+07
-6.69006e+06
-1.19965e+08
-3.37881e+07
-8.43561e+06
-1.08064e+08
-1.01872e+06
-1.02068e+07
-3.72605e+07
-7.62243e+06
1.89772e+07
1.08266e+07
-4.70613e+06
-9.90764e+06
1.04304e+07
-2.86778e+07
-1.36502e+07
2.89649e+07
3.25085e+07
5.61445e+07
4.26818e+07
-3.731e+07
-6.31205e+06
5.08381e+06
-1.35638e+07
3.67125e+07
4.88115e+06
-9.47607e+06
1.16192e+07
-7.9973e+06
-1.01836e+09
-1.45123e+08
-1.35904e+08
-4.67858e+07
6.7715e+07
-9.12695e+06
-3.80278e+06
1.20634e+07
3.3241e+06
-1.14698e+07
5.10441e+06
1.58495e+07
-2.44439e+07
-3.37086e+07
2.43451e+07
-5.04297e+07
1.65571e+07
-1.90053e+06
6.74772e+06
2.75819e+07
664907
1.11072e+07
1.33274e+07
1.63181e+07
2.446e+06
-2.6647e+06
-7.95131e+06
-5.26359e+06
-184881
7.46239e+07
1.97644e+07
2.30081e+07
4.31355e+07
5.27473e+07
9.73415e+06
-6.71245e+06
1.23349e+07
9.79768e+06
-4.95774e+07
-2.1301e+06
604421
-1.64015e+07
-5.40674e+07
-1.25006e+08
2.47856e+07
-1.73158e+07
-1.51557e+08
-3.21835e+08
-1.48667e+08
-2.41564e+08
-1.22694e+08
-1.16762e+08
-7.46858e+07
-1.90802e+08
-2.37718e+07
1.82311e+07
1.29578e+08
7.87312e+07
1.63933e+08
7.46426e+06
1.90365e+07
7.97921e+07
1.22958e+07
1.6161e+07
1.30463e+07
-5.8348e+07
1.64844e+07
1.50312e+08
3.62063e+08
7.46966e+07
-6.96873e+07
-1.69732e+07
1.25523e+07
9.68848e+07
5.37399e+07
7.68034e+07
-1.06899e+07
-1.26411e+07
-2.23922e+07
-2.07594e+07
-4.40066e+07
-4.15542e+06
-1.48548e+07
-4.71693e+07
-7.64499e+06
1.01905e+07
-1.75793e+07
-1.51191e+07
-2.15236e+06
8.34892e+07
1.74225e+07
3.34461e+07
-2.1642e+07
-1.11598e+08
4.27413e+07
-2.39791e+07
-6.06699e+06
-2.57089e+07
2.49473e+07
2.55088e+07
-5.06078e+06
-2.39801e+07
-1.65251e+07
9.64936e+06
7.71831e+06
-4.101e+07
-8.56481e+07
2.04928e+07
-2.37264e+07
-4.1542e+06
-4.97936e+07
-4.41758e+07
8.92739e+07
7.44225e+06
3.20508e+06
-3.70433e+07
-1.05314e+08
-3.47254e+08
-8.56804e+07
4.34146e+07
476676
1.69483e+08
3.53517e+07
-2.20561e+07
-2.61258e+07
-9.96285e+07
-3.22715e+07
-2.69558e+07
-1.98066e+06
-7.09935e+06
-1.38986e+07
1.35722e+06
-1.69772e+06
-3.9706e+07
-4.49198e+07
-5.28133e+07
-8.87805e+06
5.723e+06
1.4319e+07
2.21072e+07
8.12822e+07
4.32613e+07
2.86071e+07
-2.01254e+07
1.30079e+06
-2.33985e+06
-2.89232e+07
-2.32287e+07
-2.80972e+06
7.56166e+06
-709151
-4.36039e+07
-3.19047e+07
-1.7616e+07
-134554
8.84318e+06
1.2447e+07
-7.36783e+07
-5.76075e+07
2.73994e+08
-4.18302e+07
-1.01494e+08
-6.15165e+07
-1.84454e+06
4.74623e+07
-869168
-5.31495e+06
1.66318e+07
8.78376e+07
1.4463e+08
1.75644e+08
-2.14042e+07
5.90924e+07
-5.15366e+06
-2.39218e+07
-1.00897e+07
1.46445e+07
1.13238e+07
406160
-1.56896e+07
2.97264e+06
-3.15926e+07
-7.02252e+07
-5.44096e+07
-2.12459e+07
1.34618e+07
-1.45625e+07
-2.928e+06
1.39838e+07
4.78672e+06
-1.94122e+07
-1.58478e+07
-8.51427e+07
-1.15991e+08
-6.15135e+06
-1.53116e+06
-8.99716e+06
-1.96912e+07
-6.80915e+06
-2.20523e+07
-4.59872e+07
-1.03256e+08
-2.35631e+07
-2.10274e+08
689888
1.43321e+07
1.05943e+07
1.40277e+07
-2.14782e+07
1.87976e+06
2.04896e+07
-6.82677e+06
5.71228e+07
-3.98522e+07
-2.67515e+07
-7.50999e+06
-8.87833e+06
1.36836e+07
-8.56458e+07
-4.54455e+07
-6.94504e+07
-4.07042e+08
-3.78397e+08
-3.21576e+07
-2.1668e+07
8.03481e+06
-2.91109e+07
-1.83067e+07
-5.11439e+07
-6.21302e+06
-9.57881e+06
2.07364e+06
-7.39876e+06
-5.4095e+06
-2.86578e+07
-1.47541e+08
-5.90013e+07
-9.507e+07
3.52275e+07
-1.74794e+06
-1.59243e+07
-7.71544e+06
-2.65326e+06
-3.38395e+06
-1.50588e+07
3.79747e+07
-2.31323e+06
1.15347e+07
-1.55379e+07
1.03891e+07
-9.35277e+06
-2.78305e+06
5.13403e+06
957602
5.78385e+06
5.32408e+06
-7.37707e+07
-3.09244e+06
8.79898e+06
-2.89177e+07
2.49153e+07
1.45059e+07
8.99381e+06
9.77253e+06
5.0506e+07
-5.35305e+06
-2.57276e+07
-3.73309e+07
4.45334e+06
3.83736e+06
877675
-6.76854e+06
-1.83916e+08
-2.14332e+07
-6.34204e+07
-6.29948e+06
-1.05207e+08
-2.5683e+07
1.65985e+08
-5.30837e+07
-4.69198e+07
8.87424e+06
2.86711e+07
2.00337e+07
-9.52868e+06
-1.27643e+07
1.97934e+07
-3.53221e+06
6.55931e+06
-3.8462e+07
5.44382e+06
-3.56872e+07
1.01653e+07
1.42275e+07
-1.82571e+07
1.78093e+08
-2.15217e+07
3.60666e+06
4.96314e+07
-3.40297e+07
-3.0007e+07
-537145
3.07149e+06
5.95559e+06
-445948
-6.32766e+06
6.8479e+07
3.19558e+07
2.41312e+07
-9.35338e+06
-1.15766e+08
-3.31951e+07
-6.50224e+07
-5.79694e+08
-4.77462e+07
3.60091e+07
-3.33512e+07
-2.73116e+08
-4.50243e+07
2.55535e+07
1.05791e+08
1.87717e+08
-5.16045e+08
3.88582e+07
-1.87559e+07
-1.48339e+07
1.01246e+07
9.64403e+06
-4.31708e+07
-9.26962e+06
3.70243e+06
6.79666e+07
4.75382e+07
3.08215e+08
1.56813e+08
-2.42652e+07
3.20444e+07
3.35821e+07
-3.51254e+07
-2.47493e+07
2.99013e+07
-5.45053e+06
-5.63446e+06
-1.56687e+07
86928.1
1.377e+07
1.97747e+07
1.23583e+08
4.79354e+07
-1.32394e+07
-3.90197e+06
-6.13419e+07
1.29255e+07
6.30907e+06
-7.09687e+06
3.48917e+06
-3.51802e+06
-1.73372e+06
5.64475e+06
-190346
2.71988e+06
-7.46875e+06
-1.07901e+07
-1.12902e+08
-2.51575e+07
-1.13551e+08
-2.95722e+07
-1.37485e+07
-4.18646e+07
-748595
-2.00474e+07
-3.62878e+07
-2.06501e+07
-4.72766e+07
-1.58931e+08
-1.15837e+07
-8.15664e+06
-5.00307e+07
-2.25286e+07
-2.03358e+07
-1.39015e+07
-2.44599e+07
-5.07479e+07
-2.84013e+06
-3.00899e+07
-7.79259e+07
-9.38758e+06
1.9158e+07
8.99241e+06
7.91876e+06
-1.30958e+06
4.87346e+07
5.95967e+07
9.23929e+07
-5.7726e+07
-2.14464e+08
-1.30097e+08
-1.28045e+08
-4.09012e+06
6.20316e+06
-2.09947e+07
-4.08706e+07
-1.40569e+07
9.93681e+06
277672
2.36995e+07
-373170
-9.21638e+07
-5.61179e+07
-1.10348e+08
-7.69106e+07
8.37686e+07
-1.62819e+07
4.38847e+07
4.75868e+07
4.41402e+07
1.16596e+08
-2.52069e+07
-3.12846e+07
-427087
1.10955e+08
2.63844e+08
6.92251e+07
-5.72197e+07
5.42092e+07
6.45964e+07
1.59336e+08
7.41145e+07
1.1973e+07
-1.28786e+06
-8.82663e+06
3.10145e+07
2.0835e+07
-5.7217e+07
-7.64744e+06
-1.11486e+07
-2.50572e+07
7.92864e+06
-2.92808e+07
-2.30656e+07
-49774.8
-9.86653e+06
-2.4384e+07
-4.24503e+07
-9.63102e+07
-7.84265e+07
-2.82504e+07
-1.38664e+08
-1.80817e+07
-2.75198e+06
3.30048e+07
3.96208e+06
482649
-152946
8.49526e+06
3.27624e+07
-4.08955e+07
4.4145e+07
1.01814e+08
4.07636e+07
2.4159e+07
1.12392e+08
2.49927e+07
-3.47927e+06
1.62962e+07
2.72334e+06
2.93646e+07
-1.85517e+07
1.50696e+07
-3.60522e+07
537589
-1.14463e+07
1.3521e+07
-6.17805e+06
-2.10952e+07
-4.75874e+07
-7.80751e+06
1.45576e+07
-2.71264e+07
-9.28832e+07
-4.50158e+07
3.42586e+07
-4.92327e+07
-6.2071e+07
9.45826e+06
3.72902e+06
-1.71455e+06
-4.7604e+06
-250637
3.8899e+06
-2.56106e+06
-6.01641e+06
-5.31772e+06
-566708
1.6985e+06
7.03791e+06
3.35825e+07
2.35055e+08
1.53701e+07
5.80517e+06
2.4239e+07
-8.9522e+06
2.60085e+07
-8.92748e+06
-191678
-1.82674e+07
-1.67282e+07
-1.92833e+07
9.99236e+06
1.44693e+07
-1.13732e+07
-1.08407e+07
3.20974e+07
-902861
3.22238e+07
1.39162e+07
3.53828e+07
1.8368e+07
4.12101e+06
8.22053e+06
-1.03597e+06
-6.9861e+07
-1.09526e+06
-2.90072e+07
-7.1475e+07
2.0867e+07
2.00495e+07
1.00894e+08
-4.27514e+07
-3.69928e+07
-2.06116e+06
3.45014e+06
3.52036e+06
8.83418e+06
7.85396e+07
2.56762e+07
-941130
2.39148e+07
5.72037e+06
2.45305e+07
7.58018e+07
660210
-3.25205e+08
-4.54382e+07
4.34422e+06
-7.34531e+06
-2.01508e+07
-2.11629e+06
6.68796e+07
2.05891e+06
6.34142e+06
-3.55289e+07
-1.37592e+08
-6.16321e+06
2.59982e+06
-1.6013e+07
-5.64639e+07
-3.17674e+07
-2.0596e+07
659776
-1.36765e+07
-2.39615e+07
-1.56541e+07
-8.0526e+07
-3.71441e+07
1.12799e+08
1.38836e+08
-1.15256e+07
-1.60992e+07
1.19296e+07
8.82581e+06
-1.87663e+07
-1.25495e+06
-2.95927e+07
-8.08425e+07
-1.33011e+07
-1.15573e+08
-3.754e+07
8.6982e+06
-1.05445e+07
6.51751e+07
2.04867e+07
2.54959e+07
1.61805e+07
-1.97714e+07
3.56075e+07
3.68608e+07
1.43593e+07
-1.87706e+06
1.06883e+07
1.58449e+07
503942
255492
-1.90169e+07
-4.12777e+06
3.29881e+06
1.71379e+07
-8.90289e+06
-6.30492e+07
5.76181e+06
-1.7186e+07
-2.44463e+07
1.08374e+07
1.4583e+07
575537
4.72722e+07
1.36555e+08
2.1097e+08
9.54019e+07
3.63373e+07
-1.45363e+07
4.6555e+06
4.78578e+06
1.20563e+08
3.85172e+07
3.35956e+07
-1.24037e+08
-1.99731e+08
-5.94527e+07
2.4227e+07
-1.92916e+07
-6.22552e+06
-7.99216e+06
8.14351e+06
-6.97326e+06
6.49438e+07
5.35242e+06
2.63208e+08
9.24741e+07
4.97669e+07
-2.22358e+06
3.89312e+06
-4.66697e+06
-4.21146e+07
-2.07468e+07
7.74735e+06
2.50253e+06
1.32888e+06
-2.85987e+07
2.64865e+07
-3.03788e+07
-2.99368e+06
4.07531e+08
1.30444e+08
1.16641e+08
1.96577e+07
8.3086e+06
9.9851e+06
2.52856e+07
4.39327e+07
2.73865e+07
1.01192e+08
-4.69116e+06
-4.24942e+07
1.5652e+07
1.16174e+07
-1.06556e+08
-1.47368e+07
4.26741e+07
2.29006e+07
1.31955e+07
7.18685e+07
-3.98849e+06
1.42755e+07
2.49521e+07
5.03942e+07
1.77371e+06
1.10816e+08
-3.12397e+07
6.24361e+07
2.32358e+07
-6.987e+07
3.06174e+07
-1.24297e+07
2.58161e+07
3.17581e+07
4.41501e+08
1.2941e+07
1.05001e+07
-3.55177e+07
-1.96532e+06
-4.10696e+06
2.5126e+06
-3.82394e+06
-5.178e+06
-20449.8
-2.54049e+06
1.2792e+07
-1.08037e+07
-5.62543e+06
-5.18142e+06
-3.06586e+07
-1.3905e+08
-2.90217e+07
-4.48657e+07
1.55812e+07
1.05363e+07
-1.6937e+07
1.01399e+07
-6.08649e+07
-3.75922e+07
1.42397e+07
1.27159e+08
2.66786e+07
3.71691e+06
4.4106e+06
1.89747e+06
-1.1239e+07
-5.7781e+07
-5.95205e+06
-1.86592e+07
2.19962e+07
2.69941e+07
-7.49389e+07
-2.26664e+07
9.47361e+06
-1.99518e+07
7.6353e+07
-1.10204e+07
2.71752e+07
1.4288e+08
9.756e+07
1.57037e+08
4.51751e+07
6.18236e+06
2.2737e+07
2.16688e+08
4.76619e+07
1.52733e+08
2.65766e+08
9.02715e+07
1.06228e+07
-4.13115e+08
-9.04224e+07
-9.12728e+07
1.04605e+07
-1.64803e+08
-9.29009e+07
-1.25883e+08
-7.62085e+06
-1.69467e+07
1.67175e+07
1.10503e+07
5.41874e+07
-7.41747e+06
-3.34472e+06
7.13387e+06
3.30329e+08
3.50041e+07
-140994
-3.46141e+06
2.9123e+07
-1.80619e+07
1.54411e+06
-1.47921e+07
1.80166e+06
-3.943e+07
1.82357e+07
5.85387e+07
3.69379e+07
-3.2663e+07
3.0329e+06
6.32754e+06
-9.75626e+06
-1.61524e+07
-5.50639e+07
-1.39414e+08
-6.8846e+07
-9.74999e+08
-5.00214e+07
1.74933e+08
6.11244e+07
3.02899e+08
3.44746e+07
1.60241e+07
-2.46837e+07
6.5535e+06
4.74262e+07
-2.94028e+07
-5.98326e+07
-1.99151e+08
-1.05183e+07
7.37925e+06
-3.44348e+07
-9.43642e+06
9.29435e+06
-5.8104e+06
4.97785e+06
-6.80676e+06
3.81958e+06
-599159
2.65416e+07
1.28279e+08
3.49106e+07
-3.78828e+07
-4.8551e+07
-6.72937e+07
9.36447e+06
3.80559e+06
-2.63514e+07
4.28571e+06
6.08402e+06
-8.39391e+07
-3.66112e+06
-1.65979e+07
2.19563e+07
6.05436e+06
2.11814e+08
-1.78541e+06
-1.10133e+07
1.55149e+07
3.82447e+06
-2.09269e+07
-3.87622e+07
673227
-6.8156e+06
-4.39829e+06
8.79412e+06
4.84491e+06
1.05984e+07
4.59487e+06
-2.33625e+07
-1.00675e+08
-8.67186e+06
1.44147e+08
7.46876e+07
2.05891e+07
1.51392e+07
-1.90981e+07
3.06798e+07
5.19245e+07
1.67595e+07
8.17349e+06
887176
3.28352e+06
-4.11422e+07
1.15097e+07
2.42864e+07
3.5663e+07
9.3515e+06
-6.65471e+07
9.48175e+07
5.26278e+07
-2.73661e+06
-4.25362e+07
-4.11985e+07
-1.62471e+07
-4.13369e+07
2.223e+07
-1.8954e+08
-1.05156e+07
-6.5206e+06
353021
-2.88849e+07
-2.9806e+07
-3.08057e+07
-1.09989e+07
-1.59401e+07
-4.47541e+06
1.17963e+07
5.40707e+06
2.70647e+06
9.62611e+06
-3.83101e+07
8.41963e+07
8.78975e+06
-2.76987e+07
2.10247e+06
1.93567e+07
5.27612e+07
2.07718e+08
4.82231e+07
-1.00071e+08
-8.13832e+07
8.01058e+07
-1.22627e+07
8.19604e+07
-7.31547e+07
2.63754e+06
-2.98701e+07
2.4787e+07
-6.07456e+06
-4.18194e+07
-2.63e+08
-2.49534e+07
1.6065e+07
79588.2
9.23638e+06
-2.10997e+06
-3.79352e+07
-2.52459e+07
5.59847e+06
-2.1376e+07
-5.61916e+07
4.45557e+07
-2.12946e+07
9.12593e+07
8.1829e+07
-2.92216e+06
3.02128e+06
-4.00608e+07
2.89454e+06
2.83473e+08
1.90987e+07
2.18139e+06
-7.4185e+07
5.80276e+06
-5.78832e+06
-8.0069e+07
1.48075e+07
4.94739e+07
1.48541e+07
4.3204e+07
1.89781e+08
6.58669e+08
8.24139e+07
5.71578e+07
4.37302e+07
3.52709e+07
6.23218e+07
1.52772e+07
4.19042e+07
-9.74496e+06
-2.12924e+08
-3.18737e+08
-6.6876e+07
-7.71947e+07
-6.81228e+07
-2.83471e+07
-2.27349e+06
7.37311e+07
4.55057e+07
3.98762e+07
6.84085e+07
1.31367e+08
8.43855e+07
-3.09397e+07
-3.5832e+06
659546
1.63463e+07
9.63537e+06
-1.18544e+06
3.98575e+07
9.50414e+06
1.57654e+07
2.50535e+08
-1.32871e+06
8.41636e+07
3.76209e+07
-8.40855e+07
2.36639e+07
6.82746e+07
5.12177e+07
-8.75174e+07
-4.85647e+07
957.789
-1.54274e+07
1.3639e+07
2.1013e+07
5.49513e+06
3.27369e+06
-1.62328e+07
2.17665e+07
-5.97744e+06
-3.80072e+07
-3.41726e+07
-9.14649e+06
-4.13276e+07
8.39456e+06
5.77177e+06
3.05467e+06
1.69757e+07
1.11811e+07
-1.10272e+07
-6.41946e+06
-1.57372e+07
-2.69223e+06
-5.89645e+07
-4.3285e+06
-1.87276e+07
191398
1.37408e+07
1.60607e+07
-9.98729e+07
-3.28965e+06
-364862
2.57686e+07
2.0016e+07
1.27547e+07
3.3035e+06
-4.24639e+06
-7.95957e+07
-2.00403e+07
-2.36478e+07
7.10871e+06
2.84455e+08
1.26335e+08
1.2408e+07
-1.49581e+06
3.47942e+06
3.93469e+06
6.04729e+06
-1.08713e+08
-1.3034e+07
-5.06931e+07
-3.25183e+07
-2.06791e+07
1.20538e+07
-2.42957e+06
-2.19175e+06
5.04288e+07
-1.27684e+07
4.74283e+07
8.26854e+07
-7.41029e+07
-4.72011e+07
-1.32368e+07
1.71873e+07
2.41987e+07
-1.87606e+07
7.17181e+06
4.02649e+07
-2.75743e+06
2.41293e+07
1.97074e+07
1.22738e+07
-2.53313e+07
1.46661e+06
1.00039e+08
2.84155e+08
3.44833e+08
9.71324e+06
-1.29982e+07
-8.68935e+06
-5.67351e+07
1.03971e+07
-1.38785e+06
1.40352e+06
1.20572e+08
7.13496e+07
3.07697e+07
1.23028e+07
-577379
5.53321e+06
6.50699e+06
1.84592e+07
2.93271e+07
-4.13599e+07
-421275
-3.43038e+07
-2.28055e+07
1.36523e+07
-8.03426e+06
-618945
8.56008e+06
-6.63458e+07
8.47277e+06
3.26688e+07
1.77913e+07
-6.28104e+06
4.11503e+07
1.91637e+07
1.28859e+07
1.44876e+07
2.31109e+06
-8.39333e+06
-5.4663e+06
66863
5.09302e+07
-1.40298e+08
-3.51341e+08
-7.23057e+07
-2.29295e+07
-3.54344e+07
-3.53631e+07
-1.21118e+08
4.4913e+06
4.53755e+06
1.02723e+07
5.33445e+07
1.99751e+07
1.24123e+08
9.05983e+07
3.16014e+07
2.21537e+06
3.82353e+07
3.70566e+07
-1.46131e+06
4.75018e+07
1.15601e+06
1.19882e+08
-1.23266e+07
2.23577e+07
6.91688e+07
1.16726e+08
2.78752e+08
2.62889e+08
6.23498e+08
6.53123e+07
2.2538e+07
3.95868e+07
-430550
-2.59587e+07
-4.89891e+06
-8.1476e+07
-4.76945e+07
-3.10725e+07
9.50178e+06
-8.55545e+06
-1.52501e+07
-2.87573e+07
1.14419e+08
3.0657e+07
-6.40812e+06
-7.1989e+07
-1.13807e+07
5.11978e+07
-4.43481e+07
-785946
-1.08691e+08
-1.49744e+07
-1.59268e+07
1.10651e+08
4.51817e+07
1.01422e+08
2.54508e+08
2.03779e+08
-1.32605e+08
-7.4928e+07
-1.95134e+08
-1.15165e+08
-2.6055e+08
-7.69828e+07
3.82037e+06
-2.48619e+07
1.28745e+07
82069.5
-2.51163e+07
-9.16452e+06
-8.04618e+07
-1.98309e+07
-4.58169e+07
-2.47903e+07
-8.44167e+07
2.037e+07
-5.55141e+07
-8.43367e+06
-1.46746e+07
1.25556e+07
2.1105e+07
3.19362e+07
8.82641e+07
2.95604e+08
7.0772e+07
3.37148e+07
1.62451e+07
1.70711e+06
3.68278e+06
1.65189e+07
1.18815e+07
-5.81028e+06
6.26643e+06
4.81997e+07
6.44021e+07
3.22781e+07
2.55329e+07
-4.30212e+07
-5.5072e+07
-7.40298e+07
-1.68145e+07
-3.27372e+07
-1.45292e+07
-3.63281e+07
-1.0801e+07
2.75572e+07
-3.63476e+06
1.63751e+07
1.57724e+08
5.58086e+07
8.5473e+07
1.10763e+08
-4.09537e+06
1.66502e+08
1.86984e+08
1.30914e+07
4.39604e+06
1.12893e+08
9.19076e+07
1.58788e+08
2.17586e+08
1.1815e+08
3.59427e+08
1.53591e+07
1.01537e+08
6.2701e+07
-7.06145e+07
1.91213e+08
3.93247e+07
-1.92643e+08
-1.83761e+08
-9.4835e+07
-1.79434e+07
1.40968e+07
1.59795e+06
6.24208e+07
-2.68918e+07
4.4282e+07
6.88617e+07
2.24062e+08
3.73531e+07
8.02995e+07
9.21356e+06
1.32763e+08
6.80079e+07
4.30343e+07
1.21863e+07
1.06841e+08
1.18152e+08
1.07698e+08
7.56546e+06
1.74268e+07
-3.68684e+07
-1.25644e+07
5.0194e+07
6.24548e+07
1.72799e+07
2.41404e+07
5.07569e+07
1.42604e+07
-4.34925e+06
-6.76901e+07
-2.53646e+07
-1.04652e+06
3.4259e+06
6.24623e+06
5.46904e+07
1.3327e+08
-5.97986e+06
6.2374e+07
6.57934e+06
1.52946e+07
6.40367e+07
2.34736e+07
-4.37303e+07
-7.31708e+06
-1.51147e+07
-1.0881e+07
-6.1949e+07
-1.51958e+08
-1.47906e+08
-1.84853e+07
-1.44231e+07
3.0967e+06
1.24599e+07
-5.24089e+07
-7.9807e+07
-1.26446e+08
-2.364e+08
-9.24697e+07
-2.54813e+07
-1.00067e+08
5.34384e+06
-4.25197e+07
-1.36868e+08
1.55323e+07
-2.06075e+07
9.43154e+06
-7.02456e+06
2.44735e+06
3.59242e+06
5.76116e+07
-3.78696e+07
2.11592e+07
-2.07695e+07
-3.76298e+08
-3.64323e+08
-2.0712e+08
-5.08613e+07
5.76124e+07
5.30267e+07
3.48266e+07
3.03003e+08
-2.64097e+07
1.1864e+07
-1.38469e+06
9.43445e+07
2.63351e+07
7.52146e+06
6.32837e+07
-1.29647e+07
-3.55522e+07
1.46791e+06
-9.0984e+06
8.85482e+06
1.05064e+07
3.89106e+07
3.80505e+07
-3.60803e+06
-2.54125e+07
1.65744e+07
8.73426e+07
1.52469e+07
5.8906e+07
1.3522e+08
1.07156e+08
1.88149e+07
-8.43117e+06
-2.82433e+07
-9.72845e+06
-1.80365e+07
-3.13407e+07
-3.68815e+07
9.65407e+07
7.54676e+06
-3.84498e+07
-2.53248e+07
-6.77402e+06
-1.45813e+08
-3.21366e+07
-2.60407e+08
-2.84877e+07
-854081
1.34295e+08
1.31875e+07
-4.48304e+06
1.01273e+07
-852267
-7.17283e+06
7.79656e+06
-1.00787e+07
1.77227e+06
4.96924e+07
-1.32008e+07
8.04077e+06
1.44911e+07
-1.71515e+06
-5.48414e+06
183660
3.60575e+07
9.88173e+06
-3.80008e+06
-2.04849e+06
4.10309e+06
1.15547e+07
3.24448e+07
1.93151e+06
-8.30127e+06
6.77416e+06
-3.53353e+07
-1.02107e+07
3.78303e+06
852315
-362488
-4.00111e+06
4.2436e+06
-1.55214e+08
-3.42528e+06
1.63187e+07
-1.19347e+06
3.11217e+06
2.42872e+07
-1.0434e+07
-3.49499e+07
-1.70986e+07
-4.01461e+06
-5.21481e+07
-3.01838e+07
-1.56919e+08
-1.19748e+08
-8.10532e+07
-3.08926e+07
-2.00051e+07
-3.21997e+06
-1.06066e+07
1.14467e+08
4.2431e+07
9.31074e+07
1.41928e+08
6.63638e+07
1.3423e+08
2.94577e+08
-1.91524e+08
-1.43984e+07
5.52206e+06
-6334.36
7.7421e+07
-1.33809e+07
5.87107e+06
3.16478e+06
3.20868e+06
-1.58249e+07
1.22748e+06
-3.55714e+06
2.37994e+07
1.59305e+06
-9.8877e+06
1.3344e+06
3.51143e+06
6.41682e+06
1.36977e+06
8.36261e+07
799119
-1.06867e+07
-776316
2.77902e+07
1.62796e+07
8.81356e+07
4.85005e+06
588665
-3.05739e+06
1.16619e+07
-4.43363e+07
4.32213e+06
3.45468e+07
1.74323e+07
1.31389e+08
-6.27278e+06
-1.87053e+07
-5.82181e+07
-768976
1.58582e+07
3.78792e+07
1.94841e+07
-7.13205e+07
-1.94537e+07
5.48772e+07
-1.07626e+07
6.74794e+07
9.53149e+07
1.9767e+07
-1.19742e+07
5.49297e+07
2.46763e+07
-3.28631e+07
-7.6941e+06
-1.38034e+07
-3.80218e+07
-4.56652e+06
-1.94143e+07
-2.48456e+08
-2.18616e+08
288191
1.21649e+08
1.82366e+07
5.76118e+07
-2.62793e+07
-3.47407e+07
-6.33868e+07
-1.74472e+08
-4.86854e+07
-8.60362e+07
-6.94225e+07
-8.89704e+07
-4.3055e+07
-6.09402e+07
1.1532e+07
2.33122e+07
1.45596e+07
2.08081e+07
8.59222e+07
6.82336e+07
4.47292e+07
5.33531e+07
1.68639e+08
1.50298e+07
3.7731e+06
3.6489e+07
8.25408e+07
-4.06393e+06
-5.29012e+07
-4.85398e+07
-3.76393e+07
4.65686e+07
-8.62774e+06
-3.60865e+07
-1.18766e+08
-2.8325e+08
-1.74972e+08
-3.98545e+07
-1.57243e+07
-2.09695e+07
-5.07059e+06
1.30565e+07
4.81968e+07
8.40817e+06
-833003
-1.12845e+06
4.75198e+07
6.13246e+07
1.91778e+07
-1.65371e+08
-2.8801e+07
3.6981e+06
1.45255e+07
1.3915e+08
-8.57684e+06
-1.69436e+06
5.18295e+06
-3.8649e+07
9.03497e+06
3.20814e+07
-4.20595e+06
-4.7036e+06
5.35496e+06
-1.40104e+07
4.37692e+07
855402
3.82129e+06
1.3351e+07
-4.67722e+06
-6.95517e+07
-1.27098e+06
-7.78266e+07
-4.9462e+07
-1.37949e+07
5.79106e+07
-1.57276e+07
4.19978e+08
3.39543e+07
-7.16988e+07
-2.07727e+07
2.95772e+07
1.4521e+06
8.51337e+06
5.63687e+07
1.14029e+06
4.33901e+07
-7.35776e+06
4.62441e+07
4.95697e+06
-2.07253e+06
96487.7
1.01337e+07
-679235
-1.42332e+07
4.03688e+07
4.67283e+07
1.43624e+06
9.1151e+06
1.79225e+07
1.53755e+07
1.05732e+07
-3.52265e+06
-1.91228e+07
3.17098e+06
-2.63357e+07
-3.45037e+07
1.27248e+08
3.14216e+07
3.33517e+07
-4.76633e+06
-2.39764e+07
338779
-1.32788e+08
-996357
2.27037e+07
-1.75762e+06
-2.01205e+07
-5.91241e+06
-1.06729e+07
-1.3182e+07
3.91918e+06
-66927.8
-5.58006e+06
7.89178e+06
-3.35346e+06
-4.40256e+07
-9.5543e+06
-1.15531e+07
-6.50398e+07
-1.77198e+07
-9.14496e+07
-1.45746e+07
-4.13924e+07
-5.86302e+08
-3.99684e+07
-3.04388e+07
-7.91919e+07
-2.67141e+07
-5.10688e+07
-1.06358e+08
-2.05725e+07
-1.04433e+08
-7.04856e+07
1.78176e+08
5.30769e+07
1.75548e+06
-3.83768e+07
-3.73772e+07
-6.25072e+07
-7.6466e+06
-1.65992e+06
1.39012e+07
2.13543e+07
6.94715e+06
-1.15735e+07
-960042
8.49863e+06
-1.05273e+06
8.24489e+07
6.27845e+07
9.804e+06
2.11462e+08
6.31123e+06
48479.9
-7.20003e+06
-1.1926e+07
-4.72608e+07
6.29147e+07
9.05956e+07
4.46414e+08
8.59449e+08
1.59897e+08
1.88363e+08
5.93792e+07
1.69907e+08
1.11106e+08
-2.58025e+07
1.84876e+07
-5.50546e+06
4.77467e+07
6.99755e+06
-4.99412e+06
-3.29927e+07
6.77209e+06
-1.60143e+06
2.1945e+06
5.14747e+06
-1.13682e+08
-1.6266e+08
-5.74414e+06
-1.15815e+07
2.67742e+07
5.86964e+06
8.41469e+06
-5.42847e+06
5.90822e+06
1.1312e+07
-1.78501e+07
-8.08284e+06
1.75667e+07
1.20071e+07
2.88929e+06
-4.41101e+07
-1.45521e+07
-9.19737e+07
-6.14733e+07
-4.64197e+07
-8.52589e+07
-1.32131e+07
1.28915e+07
-3.5808e+06
3.61466e+06
-3.28629e+06
2.22047e+07
8.3669e+07
3.61521e+06
-1.64266e+07
4.1837e+07
-4.25554e+07
-9.66292e+07
-1.83689e+08
-4.93359e+07
-2.21812e+07
1.49828e+08
-3.2352e+07
-1.27246e+07
-6.60739e+07
6.46627e+07
-3.37951e+07
-5.30358e+07
-6.78006e+07
2.05906e+07
1.29499e+07
2.84437e+07
1.09188e+07
554462
648216
-1.17606e+07
-7.08721e+07
-6.10442e+06
2.23279e+06
-3.28884e+06
151088
-3.99989e+07
-8.27093e+06
-6.12132e+06
1.32198e+08
3.39203e+07
6.50098e+07
6.25744e+07
-3.34021e+06
3.43101e+06
-1.86192e+07
1.8862e+07
5.33507e+07
7.9699e+07
3.36174e+07
-1.51733e+07
1.01038e+07
1.98901e+06
-8.86065e+06
-211762
-7.21547e+07
-3.16426e+07
-1.09159e+07
-5.47826e+06
-1.18193e+07
4.02001e+06
4.116e+07
-149259
-1.0473e+07
-1.54312e+07
438211
4.38633e+06
4.96988e+06
-9.39143e+06
4.17093e+07
4.29926e+07
1.99915e+06
-1.43738e+08
2.48335e+07
-9.53652e+07
5.22325e+06
3.4839e+07
1.15572e+08
1.25246e+08
1.93334e+08
5.8305e+07
-2.5633e+08
3.63176e+07
6.2678e+07
-9.04735e+06
8.01327e+07
-6.47188e+06
2.55134e+07
3.98685e+07
-4.20318e+07
-2.51928e+08
-3.42027e+08
-1.17058e+08
-1.07864e+07
1.33101e+07
-2.02489e+07
-6.51907e+06
-1.47545e+07
1.70714e+07
-1.11419e+07
-1.94141e+07
6.63632e+06
1.45405e+06
-2.10976e+07
4.35813e+06
-1.20195e+07
1.49543e+07
-8.34971e+06
-8.64736e+07
-1.57427e+07
-5.68538e+07
-1.20742e+06
-2.36672e+06
6.35531e+06
938542
-1.03132e+07
3.99075e+07
3.55193e+06
1.18732e+07
5.38282e+06
1.81939e+07
-2.97815e+07
-6.77319e+06
-2.27884e+08
5.28281e+06
-5.06021e+07
-7.64793e+07
-2.04319e+07
-1.8591e+07
-5.06956e+07
1.44731e+07
1.22802e+07
1.8734e+06
1.54179e+06
-1.69002e+07
-7.19141e+06
-8.49185e+06
-2.4653e+08
-8.14262e+06
-3.83228e+07
-6.94367e+06
4.2133e+07
9.90933e+07
4.60338e+07
1.29418e+07
4.52941e+07
5.41242e+06
-8.69643e+06
2.88563e+07
1.87351e+07
1.18937e+07
1.07569e+08
1.76875e+08
2.83942e+07
2.54569e+07
2.24937e+07
1.50327e+07
-1.90376e+06
5.88021e+06
1.79987e+06
-2.75098e+07
-1.22309e+07
6.24302e+06
2.5851e+06
3.77319e+06
-6.47553e+06
4.43578e+07
1.35396e+07
-1.22652e+07
-3.19653e+06
-5.83173e+06
-2.58997e+06
-9.53261e+06
1.44933e+07
5.90193e+06
4.05656e+07
2.84151e+07
-6.1084e+06
-2.69344e+07
1.65319e+07
-5.38001e+07
1.6007e+07
2.42165e+07
1.23584e+07
2.86302e+07
-1.47637e+08
-2.44514e+07
-4.39875e+07
-8.63679e+07
1.1533e+06
-2.97497e+07
-7.55661e+06
-8.35815e+06
-4.72252e+07
-2.22165e+07
-5.46728e+07
5.00003e+06
-1.37868e+06
2.10615e+08
4.68869e+07
4.1371e+07
4.67476e+06
1.99409e+07
-1.79892e+07
-1.28417e+07
-1.30203e+08
-1.03787e+08
6.3484e+07
1.53031e+08
-1.95392e+08
-2.71405e+07
1.16878e+08
2.25441e+07
1.90543e+07
1.01855e+08
1.29993e+07
-8.36477e+06
-2.91021e+07
-2.84347e+08
3.64728e+06
1.08757e+07
-7.99354e+06
1.05123e+07
-1.6257e+06
-446852
-1.47722e+07
6.95809e+06
1.49746e+07
1.89961e+07
4.03266e+07
2.27579e+07
1.78812e+07
7.39453e+07
1.24798e+07
2.82223e+08
3.2943e+07
-9.23687e+06
2.9293e+06
-2.77201e+06
2.37759e+07
6.35902e+07
8.14172e+07
-1.99584e+08
6.01409e+07
2.05721e+07
9.13996e+06
8.59809e+06
4.22526e+07
1.49537e+07
9.81544e+06
3.45792e+07
1.35672e+07
-2.27963e+07
3.77293e+06
3.46342e+07
2.77571e+07
1.86719e+07
8.60788e+06
457703
-6.16595e+07
-3.5766e+07
-6.64775e+07
-6.25543e+07
-1.19316e+07
-8.74634e+06
246397
-2.72865e+07
4.18078e+07
2.01977e+07
-1.7479e+07
-8.8086e+06
8.37928e+06
8.38124e+07
1.28031e+07
1.141e+08
7.08282e+07
6.27402e+07
1.37637e+07
-3.98392e+06
1.5341e+07
-1.277e+08
-6.29187e+07
-1.78976e+07
-2.47158e+07
-1.44029e+08
-2.13992e+08
-1.05409e+08
-1.21606e+08
-8.25397e+06
-1.41773e+07
6.09645e+06
4.04837e+07
4.2807e+06
1.63255e+07
-2.02821e+06
-3.96032e+07
-1.99547e+07
-3.07183e+06
-5.30924e+07
-4.73849e+07
9.3079e+06
-8.56957e+06
-3.13679e+07
3.57594e+07
-1.46573e+07
-7.02855e+07
2.05743e+06
-2.4073e+07
65199.6
1.08832e+07
-1.10526e+07
5.77925e+07
9.57955e+07
1.08254e+08
-1.11547e+07
-5.73679e+07
-5.5787e+07
-3.62498e+07
2.90304e+07
2.76142e+07
2.74735e+06
3.39944e+07
3.08875e+07
-1.43992e+07
-3.90374e+07
-7.25301e+06
7.70324e+06
-4.37638e+07
6.67707e+06
3.4406e+07
456712
-7.39649e+06
1.33192e+07
1.12883e+07
-3.46262e+07
6.07168e+06
2.55622e+06
2.50863e+07
2.82629e+08
-1.25175e+06
-4.27542e+07
3.41093e+07
-1.36816e+07
1.20841e+07
8.96198e+07
-5.34027e+06
-6.32259e+06
-8.19066e+06
4.5694e+06
-6.66266e+06
-1.87671e+07
-2.70607e+07
-6.952e+06
-8.06399e+06
5.26933e+07
3.25653e+07
-4.19484e+07
7.81418e+07
-7.11862e+06
1.72553e+07
3.02218e+07
-1.93531e+07
-5.14059e+07
-9.05251e+07
-6.41329e+06
2.66922e+06
-4.4753e+06
-928280
3.52083e+06
4.72941e+07
7.53785e+07
1.72127e+07
3.81303e+07
8.23405e+06
-4.3499e+06
-5.80141e+06
-2.43174e+06
-5.79061e+06
-1.66368e+08
-2.83166e+08
-4.05818e+07
-1.32932e+07
-1.81032e+07
-5.97934e+07
-8.76634e+07
-2.36839e+07
-1.68959e+07
-3.48664e+06
-5.72988e+07
-3.34301e+07
2.34976e+06
-2.09462e+07
6.84746e+06
-1.61513e+06
-2.5081e+07
-3.73286e+07
-1.24183e+07
1.90404e+06
1.16222e+07
4.32362e+06
2.28886e+06
8.49644e+06
8.48615e+06
139698
-1.01133e+06
6.97136e+06
3.70785e+07
1.09875e+06
1.39789e+07
5.73153e+07
-5.77266e+07
-83105.4
-4.57909e+07
-2.85983e+06
4.05109e+07
-7.98125e+06
2.03007e+06
-2.85811e+07
-1.09563e+07
1.18995e+07
-1.59777e+07
-1.42992e+07
373061
5.16557e+07
-2.28671e+08
-1.62175e+08
-2.1856e+08
-1.47433e+08
2.77629e+07
-1.85271e+07
-3.61982e+07
4.99368e+07
6.253e+07
3.86603e+07
7.01142e+07
2.45846e+07
-2.08355e+07
-5.53547e+06
-2.33108e+07
-8.46563e+06
-1.43848e+07
5.60724e+07
2.52561e+07
1.13085e+08
1.03577e+08
1.89425e+06
-1.2193e+06
441020
-4.19166e+06
4.85942e+06
2.51679e+06
-5.16503e+07
-7.67178e+06
-2.75486e+07
-4.1319e+07
-2.77128e+07
-3.55677e+07
-4.51509e+07
-1.27425e+08
-5.7574e+07
-3.98487e+08
-6.01516e+06
7.72681e+07
4.38536e+07
-7.74341e+06
-2.67207e+06
-5.78593e+07
-4.11594e+06
-2.99591e+06
-5.98958e+07
-9.44551e+06
8.00783e+06
2.056e+07
3.44034e+07
7.95876e+06
1.879e+07
-3.44849e+06
-2.50865e+06
1.7779e+06
-604771
2.33535e+06
-1.99955e+06
3.76931e+06
4.94813e+06
1.67153e+06
-2.25829e+07
-8.25197e+06
-2.6861e+07
1.22648e+08
-7.92812e+07
3.17459e+06
-3.28083e+06
2.58049e+07
4.5243e+06
1.5317e+06
-2.21943e+06
3.30048e+06
1.89029e+07
1.43939e+07
-5.07271e+06
1.19486e+07
-2.92429e+06
-1.2252e+07
2.02145e+07
-2.95543e+07
2.86212e+07
-5.26657e+07
3.99372e+06
-8.93507e+06
3.14546e+07
1.71414e+08
2.24338e+08
2.97501e+07
1.17603e+08
2.357e+08
3.10338e+07
5.61409e+07
5.6884e+07
-1.04073e+08
-5.72362e+06
6.50118e+06
4.71734e+07
1.01517e+07
-2.41206e+07
2.76996e+07
3.16384e+07
2.44285e+07
-2.27878e+06
7.77304e+07
2.72742e+07
2.12165e+07
1.64671e+07
7.41328e+07
-6.3389e+07
7.33491e+07
-1.07028e+08
-1.09915e+07
3.32609e+07
-9.50465e+07
-5.46954e+07
-2.49378e+08
-1.64951e+08
-1.12712e+08
-3.18795e+07
2.95836e+07
-4.743e+06
-9.11697e+06
4.77826e+06
9.28664e+06
-3.53045e+07
-8.2729e+06
3.52113e+07
1.76168e+07
6.16802e+06
3.11693e+07
-6.6407e+06
-3.00062e+07
-2.31856e+06
-5.69782e+06
7.51487e+06
3.64305e+07
9.20438e+06
9.0061e+06
-1.38544e+07
-1.77858e+07
1.21067e+07
4.47638e+06
1.60347e+07
-2.05811e+07
4.33067e+06
3.92617e+07
3.91572e+07
1.77241e+07
5.77436e+06
4.1286e+06
4.51688e+06
4.33799e+06
-9.65875e+06
3.24826e+07
-3.79964e+07
-5.7706e+07
-1.41588e+08
-9.49066e+07
2.61928e+07
5.64225e+06
-2.84501e+07
-2.50787e+07
-7.48399e+07
-2.51748e+07
4.65207e+06
-7.58708e+07
993857
-3.87697e+07
-1.90064e+06
-1.98812e+07
-3.81278e+07
-3.47035e+07
-8.6241e+06
-6.96995e+07
-2.44294e+08
-1.52604e+08
-2.07839e+08
-3.80835e+06
-1.2401e+07
-1.79702e+07
1.97696e+07
5.43191e+06
7.76785e+06
178999
3.91149e+06
-6.03254e+06
3.38662e+06
-2.27854e+07
-6.76477e+07
-6.01364e+06
5.68089e+07
1.35336e+07
3.38575e+07
1.06222e+07
-8.47413e+07
-1.38852e+06
-6.64159e+07
-2.04469e+07
-9.07078e+06
-1.12083e+07
-5.93209e+07
-2.80538e+07
-1.52095e+07
1.8778e+07
-1.11543e+07
-3.61689e+07
-18910
-9.11461e+06
-5.81677e+06
1.57846e+07
-37242.7
1.34118e+07
-6.20757e+06
-6.86098e+07
1.85345e+07
2.3916e+08
-2.16249e+07
8.8203e+07
2.20862e+07
1.72764e+07
-3.48837e+07
-1.17547e+08
-798301
-6.62076e+07
-2.90879e+07
-1.2887e+07
4.3998e+06
5.46834e+07
-1.47884e+07
-1.9378e+07
6.75595e+07
1.24389e+07
2.67923e+07
6.45305e+06
4.40627e+07
-1.50879e+08
-2.79907e+07
-8.70684e+06
-1.23746e+07
2.14302e+07
2.57539e+07
1.40473e+08
2.78347e+07
1.09014e+07
1.07126e+08
-3.165e+07
-8.49519e+06
-4.68545e+06
-1.0715e+07
7.79431e+06
-2.31811e+07
-2.30165e+07
-5.61532e+07
-4.43018e+07
5.50894e+07
310280
6.98159e+06
-734689
2.17394e+06
802618
-2.50937e+06
-8.91692e+06
-584683
2.64923e+06
1.13238e+07
1.00595e+07
-1.78106e+07
2.83879e+07
-7.62397e+06
-2.17548e+07
-2.79794e+07
-1.80037e+07
-1.12186e+08
182376
-9.50293e+06
-4.28627e+06
561250
1.64609e+07
-2.06311e+07
-4.37726e+07
6.71669e+07
3.43371e+07
3.03963e+07
-3.9299e+06
8.13707e+07
7.75838e+06
4.99505e+07
3.00867e+06
-1.02493e+07
-445847
10160
-9.12719e+07
-1.01847e+07
-1.84375e+07
-2.528e+07
2.43791e+07
-4.19757e+07
-4.61523e+06
1.60931e+07
-3.43411e+07
2.28913e+07
695044
-1.86423e+07
1.35681e+08
2.62806e+07
-9.6433e+07
-5.87621e+08
-3.00249e+08
-7.59112e+07
-1.28979e+08
-2.18373e+07
3.88026e+06
1.8379e+06
2.71508e+07
-6.63138e+07
920801
-6.10209e+07
-1.6986e+07
-5.86393e+06
-6.4044e+06
-6.33249e+07
5.50389e+07
8.58565e+06
-6.38655e+06
8.09245e+06
-1.69372e+06
-2.11114e+07
-7.23025e+07
-1.35447e+07
-4.47915e+07
-1.6932e+07
-1.03666e+08
4.18556e+06
-4.02482e+07
-1.54275e+07
4.92209e+06
-1.57178e+07
-1.39712e+07
1.00229e+07
-7.15697e+06
-1.29459e+07
-3.71808e+07
-8.27947e+06
-2.74815e+07
3.90583e+07
-2.90293e+07
6.58492e+06
-1.39229e+07
4.73421e+07
1.37053e+08
3.98054e+07
4.6689e+06
4.317e+06
4.78469e+07
-6.04627e+07
-2.1561e+07
8.25155e+06
-8.23867e+06
-2.80537e+06
-3.40376e+06
-1.55723e+07
2.58935e+07
3.89883e+07
1.00125e+06
3.15885e+07
6.59181e+07
1.56932e+08
-1.499e+07
2.22053e+08
7.85801e+08
4.95451e+08
3.34635e+07
1.63478e+06
4.16282e+07
4.44808e+07
1.42742e+08
2.1144e+08
-4.49155e+06
983371
-5.10229e+06
-1.79202e+07
-1.16944e+07
-1.11866e+07
-3.25942e+07
1.74154e+06
8.14667e+06
5.65235e+07
2.3287e+07
-8.16906e+06
3.7362e+07
-2.76846e+07
-1.03125e+08
5.92492e+06
6.85223e+07
1.28656e+07
9.82645e+06
6.59581e+06
-1.70187e+06
-9.27826e+07
-1.2254e+08
-1.37434e+08
