3487.55
3665.26
-28.053
170.833
2551.25
159.348
2374.51
2163.01
1370.76
1381.61
2838.93
5426.87
4573.44
535.222
189.97
537.044
2176.2
64.5871
2641.38
784.289
2375.91
652.587
292.473
7821.28
417.057
536.674
-517.039
2084.93
2270.33
3419.58
1055.69
5230.5
5846.96
1156.16
448.751
2594.16
3868.55
5610.14
8427.66
211.196
203.586
1574.33
120.837
2714.42
2918.26
198.849
913.79
402.328
3284.46
1473.03
1379.04
1720.12
2234.33
1043.98
3948.42
859.511
613.382
1203.29
5253.96
1136.77
568.225
-12.5576
6625.15
1337.64
689.046
7100.13
2463.01
3686.9
2587.04
10594.8
956.229
976.654
1553.71
841.347
2459.62
2867.74
2118.2
143.426
2101.89
1661.26
6417.85
2060.49
87.7024
2524.51
808.678
4086.35
9161.41
2152.65
986.09
14154.2
5908.19
11026.4
3429.44
2348.52
400.999
2511.22
901.785
8367.56
846.879
7074.97
-50.4885
3543.24
413.858
7981.27
362.055
3437.21
3199.86
2594.83
722.439
3605.17
2329.27
2174.91
-131.579
3503.21
3162.44
4491.52
904.341
2580.89
813.608
3511.1
4306.35
8163.8
659.479
3899.49
637.637
-36.9449
2347.32
10895.1
4822.22
4413.24
-379.385
1831.4
5255.95
4145.65
4675.43
2159.66
1021.67
658.994
-369.33
511.237
2516.35
-615.833
2704.55
3135.84
1275.64
3212.8
2241.07
4693.63
2151.37
-129.614
368.023
728.331
6154.56
1733
2297.49
13.1355
396.521
288.977
4690.48
2733.94
1885.14
-18.0674
7408.64
5088.26
1306.5
2981.56
2656.2
2789.59
3695.45
3724.44
1188.88
1588.49
8522.92
1647.82
1327.14
2758.01
1861.11
685.086
4843.9
7892.5
887.153
1058.9
3329.12
-247.877
203.798
2794.01
645.572
1388.85
323.706
107.671
6120.58
2251.36
1844.09
72.6928
-67.9582
580.508
2763.21
7363.45
1149.52
1476.44
1279.28
4587.91
-7.35786
2276.72
5125.93
3356.33
2082.13
2212.39
1730.34
3713.43
2763.56
269.349
1175.78
2881.32
6993.96
142.622
705.872
453.392
414.641
1968.42
2047.25
402.083
218.675
3170.38
7411.45
1802.08
1283.81
4963.67
3445.48
567.943
1678.97
1128.59
328.093
2999.1
2335.87
4015.07
206.936
1015.78
381.106
440.627
3392.6
868.275
4404.28
-326.07
848.099
-1.18508
594.486
1300.48
824.805
284.248
1167.33
997.023
1370.43
9697.66
7129.56
2617.79
390.028
5047.18
2760.56
2103.81
8740.98
1495.16
825.357
-356.508
1466.56
9664.32
9306.7
1062.7
5710.37
833.809
3518.58
1637.82
1914.44
-97.4836
1404.79
-88.3128
750.928
6790.79
6196.71
3396.3
57.1386
7268.24
3223.04
6564.19
12877.4
2829.37
1463.19
6110.19
74.0378
673.077
695.128
1016.88
5364.6
1226.81
3672.6
3295.52
5014.76
-142.329
606.996
298.362
5008.65
9547.78
5977.08
1085.18
279.699
125.651
5705.46
1156.41
1063.6
1486.53
1154.61
405.822
3165.18
6682.5
4834.52
2025.54
3505.67
1254.27
1285.11
3364.65
1621.77
3719.93
1493.17
664.299
857.256
1514.37
7451.06
2337.52
-456.543
6039.71
2024.11
4823.19
2099.69
3749.23
1464.88
1772.03
1220.56
3129.48
2066.03
-214.175
2043.66
-345.693
672.204
224.524
1154.8
2297.59
5010.88
5315.35
229.013
1449.98
10167.7
4349.45
866.083
3407.07
2002.43
461.22
1031.84
3495.07
2628.21
1779.75
1239.76
400.408
7685.12
1411.88
244.177
1522
1121.85
1408.81
2354.28
101.249
825.315
8309.82
4598.24
929.603
5212.47
5942.04
9655.43
3298.11
3184.58
7764.19
1185.28
1467.11
1663.83
2463.55
2947.96
5527.58
4699.12
1264.44
3865.35
2596.95
221.186
4392.43
-368.435
1273.45
-38.2201
2209.25
12273.5
13319.1
728.836
1394.13
4140.64
2079.6
2371.17
653.241
614.692
5242.11
403.083
464.767
5574.36
655.324
3060.13
119.751
-403.976
1284.43
2288.85
585.102
1666.56
2512.31
2235.53
5100.03
1971.3
5039.82
4860.21
519.708
9565.53
9403.18
4550.43
3551.13
1890.47
2058.9
65.6137
1666.99
192.908
5961.04
9611.66
1511.52
1524.25
1343.05
1107.23
6253.53
2913.32
235.109
2342.95
1785.72
1844.9
176.288
3101.98
1459.44
4567.81
209.443
1430.74
1741.08
1281.55
8317.71
1266.62
620.132
7149.63
43.639
1776.18
5771.36
1191.19
2682.87
4145.59
535.077
1020.85
2010.88
3867.85
1281.77
8785.32
3985.5
1525.83
1049.17
305.949
684.719
561.631
3421.21
12104
1066.69
2677.72
4457.6
5288.16
2183.44
630.283
4455.06
2035.33
3782.27
679.861
117.911
1032.25
1620.03
5907.58
1012.28
794.97
1731.3
1521.82
486.621
3465.5
1721.56
2724.36
605.052
2247.91
1497.82
-193.799
1236.1
496.348
864.626
1131.4
1533.56
76.0204
3130
7645.43
1925.86
1645.37
2152.28
2107.3
10048.9
1297.12
879.505
316.27
-339.265
636.819
1498.15
4948.85
-191.507
2864.17
669.595
8253.18
1981.83
5.13966
1210.23
1199.78
3011.71
1262.65
504.419
1012.74
1692.9
1587.29
7598.93
10664.5
3557.88
2483.56
4625.97
4588.27
198.052
2221.14
4606.91
2588.13
1408.81
-533.804
5344.47
6244.83
570.573
2494.3
695.529
2587.79
570.257
1982.18
6931.7
835.702
352.86
6415.76
1674.07
1304.15
1578.62
582.187
2389.33
3743.64
2638.16
5179.19
823.438
868.425
1560.22
1310.83
1033.82
1572.55
164.748
5138.71
1672.97
2150.94
2076.69
681.622
4026.99
709.415
-261.042
-414.188
1388.66
-99.2034
1143.9
3258.62
838.354
7148.31
3557.53
3668.66
975.86
4647.77
79.8957
2800.11
875.662
4080.83
1241.37
480.193
932.739
3107.3
3949.09
274.343
2090.64
3927.54
3597.09
2610.1
2152.76
6804.27
2078.52
1393.77
902.377
433.411
105.054
-553.272
17230.1
4785.41
1170.1
2549.13
3091.58
14704.7
1460.93
3724.68
6034.81
-250.26
2457.44
1913.81
-132.33
1317.4
344.778
2637.38
2184.07
2186.07
1426.37
4835.99
-383.072
9164.46
851.396
5527.54
6279.42
1161.17
7933.98
453.317
-100.474
61.4365
1398.7
4083.56
3512.46
835.653
789.93
415.934
970.682
2495.22
2937.28
2368.93
3009.57
1799.26
208.075
4694.26
4498.59
2415.13
891.302
1082.5
588.422
655.675
873.636
934.917
594.261
5466.95
4401.74
560.363
13231.1
3871.46
816.802
1430.9
1480.76
1807.47
898.796
557.915
1368.97
5634.86
5670.48
3515.71
2649.75
280.111
550.995
1565.18
1627.37
2545.77
707.839
4951.57
424.82
269.167
2901.57
2231.84
-542.25
848.82
7933.58
3615.09
479.619
-302.716
2529.85
534.836
5756.75
4040.83
2367.87
1679.64
793.416
2309.47
1895.87
650.523
5081.37
4527.14
976.451
17630.6
3644.1
3910.19
3420.05
8855.29
578.087
345.531
6758.33
481.552
104.044
284.34
4964.81
1671.08
1992.56
1666.85
969.839
19.2718
470.161
6556.02
10973.3
1882.75
-404.604
917.911
3126.46
3014.45
1918.9
-760.347
3953.9
1722.9
2424.98
876.323
2978.33
211.038
-294.59
10354.2
723.424
181.585
5422.9
5889.55
1534.57
2099.94
1996.04
1403.61
135.931
3237.41
755.06
1715.72
60.2627
15169.9
844.811
9997.47
1085.92
8032.7
76.6849
481.435
488.699
6709.13
845.769
8688.52
1478.38
1135.82
1869.47
1041.99
4603.92
1951.79
1517.3
3982.65
6749.54
3305.01
8986.1
194.504
-98.5509
821.698
6281.03
289.017
808.651
4290.87
1043.62
-268.444
8942.55
805.298
350.254
106.792
13850.2
4396.53
849.024
665.245
0.980161
1605.62
9541.75
1949.5
2681.28
1167.74
2887.01
7864.81
3699.16
7289.54
3679.82
658.819
5856.73
6101.89
1072.49
1452.4
356.198
133.885
2001.43
5988.13
-894.831
539.069
920.777
1177.61
8469.38
-85.2522
892.504
9122.85
762.307
6717.18
-19.4195
878.798
4228.58
4970.14
7195.46
-488.673
5260.03
1594.61
3416.29
62.5619
1555.04
7491.03
14571.7
5988.12
580.544
6589.97
-35.4782
607.609
110.499
1023.66
2006.51
635.341
1413.26
1100.78
5290.35
2900.32
755.594
603.502
5333.96
10713.6
2021.01
-69.0839
2417.98
4383.67
3518.66
2907.08
-13.7615
325.333
1979.11
10210.2
3531.64
2750.25
1376.69
4417.68
1549.4
6933.85
1877.37
8695.38
1369.69
1036.9
2419.14
969.677
1134.66
1087.45
2683.28
4662.15
190.737
753.938
1569.69
1491.35
1522.21
-249.18
4789.59
2593.42
2659.25
2343.9
677.103
8363.85
2037.57
1244.68
1678.27
3286.01
1269.51
6411.35
-349.499
438.945
9910.62
882.537
1364.88
4527.14
143.267
380.162
336.751
6321.86
162.771
1515.32
4338.23
1162.82
525.838
1614.31
-55.442
1063.43
1449.51
3468.04
10484.6
1183.28
44.0278
1084.55
2716.99
1905.18
4455.67
-252.162
486.332
1065.87
842.529
-110.387
3084.36
7760.81
-648.114
501.229
289.194
-457.833
6690.59
549.369
3240.58
7503.23
111.035
1066.71
5879.86
41.3037
5311.28
6361.34
739.653
-110.766
768.313
3218.95
959.603
5476.43
10520.7
1017.69
440.815
1479.53
3085.89
-280.833
1637.42
3951.85
708.998
801.12
9414.15
4467.9
1906.31
212.836
1505.43
1343.99
8314.12
320.858
82.1608
14686.8
-104.538
336.609
1058.89
1967.74
3111.83
-51.6557
770.581
4050.95
989.542
718.726
2090.44
343.62
15531.5
3277.93
-162.398
704.603
890.384
19271
6024.86
12099.9
969.808
503.166
708.035
971.222
2551.06
2774.78
-261.186
1303.71
736.406
2680.15
709.557
-209.645
1674.49
-54.8937
6342.56
3773.57
265.978
8621.82
455.034
951.546
4211.66
5628.3
814.519
4767.94
3590.81
5639.18
242.848
4325.18
7966.31
15575
4064.86
1515.89
321.383
4293.15
3176.78
1193.19
907.73
4949.85
3571.05
1852.23
17.6551
2053.95
8333.97
19777.4
14751.2
-33.7544
-404.999
1886.74
23010.2
1237.56
89.911
2377.8
525.382
188.265
1489.9
2955.89
667.927
1739.02
4411.6
1028.74
744.901
3483.94
2679.11
1431.77
151.221
984.648
-251.859
5099.23
329.03
635.034
102.434
1313.54
3333.13
149.082
2575.59
2445.73
1171.43
549.571
107.258
3435.28
6508.14
11283.6
1324.77
3643.27
835.26
2509.77
2716.88
-279.332
1781.88
1568.69
792.541
1249.82
682.044
13762.3
229.147
1419.47
1800.69
19.9706
211.131
7685.22
2317.81
6806.07
15351.2
9000.24
1778.65
2008.97
1247.43
3962.91
1071.03
-75.0282
3283.42
1241.44
908.131
1140.69
1248.58
317.954
3233.93
5559.71
1353.41
5164.23
524.884
470.612
6503.83
2641.28
4175.69
8568.91
1567.18
635.272
2119.57
2163.55
2942.17
216.728
10793.9
-260.303
145.518
404.23
72.6895
-441.97
12684.2
10672.1
1174.07
3194.7
3551.33
427.538
600.414
229.749
4491.21
762.475
5071.78
1553.98
1725.44
3216.24
4240.89
4262.86
2162.4
1041.03
7803.92
4644.27
3312.03
145.825
9407.15
1748.84
-56.9654
80.7378
2322.86
707.425
1381.33
1227.91
-447.767
2320.89
2263.69
1344.52
358.542
-3.82259
1815.71
2807.54
1617.4
12152.6
1946.33
4309.22
7201.62
6048.25
-405.234
3071
2682.75
1451.21
3500
1691.55
1989.35
3048.63
5330.89
659.862
12445.4
3434.6
4419.1
20944.7
798.897
1849.06
1080.99
1790.82
1368.83
2219.79
670.39
-493.061
1113.78
2592.44
2301.76
1467.21
-41.7908
480.344
2208.51
468.382
4638.05
1457.53
4185.79
377.95
2501.45
213.272
1396.62
575.52
1931.55
5333.06
274.706
1492.32
9.63773
5896.12
5547.32
6649.41
84.2826
6938.92
870.059
1106.75
1226.95
84.8562
3882.52
2157.84
1044.5
7428.61
1994.62
130.78
1255.84
1719.84
20223.5
1440.85
542.171
85.4351
3.57679
8341.11
1313.48
18052.2
4215.04
2768.93
2775.49
-621.003
2736.1
1413.2
2910.09
6485.35
2602.23
11562.2
3015.53
904.843
1538.74
-399.347
4746.3
4079.28
3658.74
7615.95
8373.03
2991.29
-362.654
1968.47
3026.34
3029.73
5557.65
689.756
-715.455
278.047
254.617
2181.96
11185.8
1155.47
4908.04
2021.9
5491.04
1963.58
2934.27
195.381
2605.34
2748.18
4502.24
591.577
4264.81
434.397
668.154
1168
1348.33
306.512
457.586
222.602
1965.31
888.927
-457.743
6915.61
412.117
3457.47
12165.1
5583.41
1592.36
2906.12
1360.84
3238.55
638.048
-128.89
1006.59
428.235
-189.174
1091.67
5918.15
1364.18
1184.73
2421.25
1961.23
1980.9
-43.1489
758.452
2361.33
1202.1
1687.42
5316.15
4213.14
13101.4
1951.1
1649.44
299.939
4732.65
2402.64
1589.64
4726.41
71.3008
1247.64
1488.61
2790.53
2300.44
529.952
1543.99
4162.62
4914.24
2207.5
1272.69
17.003
793.483
4324.56
6643.33
703.03
5039.65
317.627
-313.608
3003.57
2158.18
1393.47
3280.33
2913.46
2231.59
200.06
128.981
8582.17
7942.94
5156.99
14796.5
12311.2
816.219
79.7339
446.694
1314.23
2708.81
564.663
4195.34
2063.03
-197.94
-279.905
1172.56
3818.24
184.985
7044.19
4618.76
5713.84
1092.23
157.492
1579.33
96.113
1993.37
3355.93
3341.74
10202.4
1366.57
2835.29
8035.5
6447.68
8379.79
3770.9
1280.97
6172.85
2163.46
6506.63
924.548
2158.47
777.432
4878.23
4207.42
782.115
797.049
4707.16
4347.71
621.74
5753.01
2533.63
39.0735
4034.41
1104.28
11151
2166.51
2788.62
2405.86
907.163
8655.51
1264.46
4847.6
-404.54
-320.2
2942.23
-318.19
1402.14
5751.5
-289.327
1598.68
1496.24
3422.55
257.544
7938.57
4423.5
1633.36
1569.12
2474.29
7783.36
190.924
107.447
92.477
1322.17
371.594
1002.77
8930.23
1090.79
835.492
4495.45
387.419
1572.65
10826.6
1084.17
557.422
3952.98
4266.64
746.369
2501.47
1583.88
1808
200.189
4628.85
2040.76
1961.42
1418.79
-126.819
1021.55
1673.04
1462.51
5163.8
1230.9
507.1
1322.98
636.715
536.414
84.5996
1847.63
3281.52
-422.522
7258.78
5796.79
-284.565
3039.21
3031.49
693.082
4167.12
653.603
5089.52
7076.93
907.624
1251.75
664.291
2492.47
3594.15
795.733
5381.78
7416.57
950.646
24.0235
1089
-50.062
4207.37
968.157
592.506
2491.6
3917.33
911.491
3476.01
6619.77
3783.39
2084.72
-759.873
348.448
1109.37
5134.94
511.417
7841.38
5857.22
2959.19
3654.2
1394.92
1343.23
4192.73
1240.58
2876.35
1238.41
1929.06
825.15
3477.64
852.726
-78.812
2971.45
463.075
394.775
599.028
1735.34
844.243
16210.2
3026.57
778.525
3315.26
5117.99
-286.166
3364.57
10695
1546.12
-190.484
3942.13
1818.18
8093.62
5030.29
59.3545
2043.6
89.1397
7928.43
891.694
500.549
4516.71
2.10882
2884
424.664
723.445
849.619
1517.14
2819.59
7266.82
227.09
3908.19
7128.02
7466.99
5715.79
6.82932
2089.95
4928.24
-118.287
661.686
1816.41
238.029
212.994
616.356
1790.81
-139.934
26.5839
564.542
5604.17
2794.37
5796.94
2855.84
61.5911
1663.06
362.993
5476.33
824.766
-113.66
153.79
4285.73
7400.66
4928.9
1052.96
-70.6822
1574.29
2852.84
3088.97
-195.754
73.7158
1061.91
2244.38
3171.95
2123.42
2739.39
2205.13
456.267
1184.45
1898.91
11608
7492.71
1511.03
4991.83
749.624
113.239
-16.4661
-69.1849
2367.06
5193.2
4556.6
2643.47
10882.6
1302.5
9057.5
7215.14
2295.58
1843.71
3922.99
2102.5
1739.19
3730.29
664.182
5638.3
2372.71
1046.97
808.665
622.109
536.093
13189.4
2027.26
2956.75
-307.509
3990.18
1010.93
531.721
-725.534
1824.47
2305.96
4025.01
542.712
159.204
278.946
1180.87
-106.273
610.163
1612.73
4579.74
503.574
2727.48
2966.95
3061.59
1328.53
1376.3
-230.349
3171.03
494.832
190.44
2287.14
1925.89
2517.73
1772.77
5674.97
866.724
5464.01
1639.43
-306.167
3517.11
5147.61
580.757
1324.97
3087.89
1059.58
2749.22
4346.38
-79.357
1372.34
218.401
484.822
1189.41
2024.83
2898.06
6121.43
330.563
4100.33
791.838
257.746
-251.804
1804.37
724.154
1621.3
363.663
3776.64
-20.0147
6136.05
13.942
505.951
2474.97
294.864
2317.7
1561.87
3432.41
1019.8
417.502
5107.95
510.673
155.748
2289.33
3650.23
4650.88
3289.97
195.836
2762.64
2244.23
2594.32
1125.24
92.221
979.725
1023.44
4855.86
2366.9
418.25
4221.39
714.71
112.475
992.822
1796.68
1917.14
1580.96
446.777
2199.52
4391.61
2304.48
2450.68
2865.7
4899.71
1801.96
-124.812
757.747
439.476
2039.24
505.289
5024.43
1914.25
882.719
-119.2
8156.36
4070.24
1261.33
1508.28
239.593
853.279
9325.31
17077.4
1901.03
2498.9
506.864
1021.74
545.002
255.832
1901.1
353.753
6255.33
627.718
826.507
-57.1249
786.206
-118.007
3974.65
5793.89
1005.12
7664.19
1821.81
3074.46
2525.16
82.18
678.4
835.527
2407.44
-16.7361
1175.13
3340.33
3543.21
1196.94
-340.994
430.978
2015.39
1730.4
4975.25
2121.11
1017.53
582.128
745.848
824.914
3936.88
4612.47
3834.89
-630.6
1496.58
1785.29
15703
1768.7
4570.26
1026.22
1854.32
1841.43
876.16
1035.3
257.013
6246.37
890.269
575.657
2324.08
3548.84
3643.97
-41.7248
1273.84
1226.68
5099.82
3388.43
1155.71
10398.3
2270.12
6599.6
5000.51
1597.49
672.983
1380.2
455.803
724.774
6133.35
-281.895
2563.06
5922.48
7793.39
1078.3
971.088
3459.18
1098.05
1152.65
1266.18
1542.82
90.995
1001.03
1665.33
4207.75
2316.3
1078.28
4048.28
2557.65
5981.93
929.252
3985.53
2822.1
395.175
2155.64
732.27
610.214
213.885
1398.97
2516.43
3754.55
2100.52
865.162
2614.34
937.982
6525.57
7847.91
1279.92
1393.25
356.955
64.4804
3658.66
4480.37
13073.5
1517.94
3764.28
215.271
591.11
439.644
1866.83
110.535
-592.142
254.35
-527.636
162.931
256.82
1162.95
13099.1
826.12
237.431
619.632
4597.17
4062.93
1559.37
13254.1
7312.92
448.577
2712.1
569.307
1430.65
247.146
2481.39
7618.16
1141.43
1620.35
3585.98
1523.22
897.947
1436.59
566.043
1213.06
1106.95
-367.939
772.159
6971.22
1958.5
3389.83
1621.74
903.946
3146.88
2778.31
3512.15
1328.49
899.715
4779.21
201.864
5303.71
905.085
2329.74
1526.85
425.44
73.4899
371.873
1805.69
3632.19
79.1609
9134.77
1176.97
1122.23
2919.44
3367.84
954.901
1051.78
762.196
2574.59
1908.04
5201.94
1798.26
11538.3
2318.82
1267.56
6690.67
-243.937
8391.31
5391.63
1992.82
553.454
5189.48
192.675
1793.87
10929.6
2302.52
6118.53
8272.13
3545.88
3223.34
1708.84
776.256
1957.87
3573.97
3358.14
-247.674
-118.012
357.2
1991.91
1137.65
515.73
3387.92
255.476
-200.574
1307.71
578.443
1252.88
2509.54
93.3472
999.352
160.337
3000.94
-694.2
13665.1
246.766
2350.53
1435.95
996.781
5924.94
-11.088
911.85
1041.82
18565.3
12665.4
154.125
1537.18
14065.3
2129.31
1975.58
1019.73
722.955
4018.87
1055.73
-778.321
1014.04
2025.37
5316.14
523.959
1120.4
2561.63
1817.26
2690.46
6561.25
1968.9
1078.08
-25.5183
2790.02
6570.89
-288.984
180.766
-37.509
318.437
3743.05
5184.05
2346.46
381.935
4.18799
424.905
341.719
8418.07
3088.72
338.486
1773.95
7601.69
6489.87
652.436
7055.44
417.136
801.203
1781.41
2202.22
2601.62
1644.31
489.864
-155.027
5647.12
4005.46
1262.6
2567.38
1711.38
3934.35
760.014
892.113
9351.27
4071.64
3252.24
1994.63
221.735
2111.26
10634
1082.59
6555.46
893.74
3950.39
941.362
2794.9
197.061
1878.72
440.084
573.066
3159.19
490.347
-55.4861
1472.26
3387.37
1780.32
-29.7746
2170.53
2178.62
5257.18
1480.08
1130.78
2037
3883.96
4.46707
2188.2
324.352
1766.96
-277.596
-826.316
7580.4
-238.617
442.332
6948.81
683.436
1558.47
1807.49
7741.14
1233.52
343.074
421.29
668.49
718.705
4557.22
4229.36
3315.25
1280.62
3267.35
1349.38
1481.61
2128.33
173.552
10508.5
-47.2382
409.709
1154.12
895.753
1100.52
11387.9
565.439
629.598
629.443
1512.92
555.51
559.055
1201.54
6527.55
6685.9
6207.34
3722.77
5104.69
3222.41
2294.76
-264.463
813.127
4127.29
1286.64
1653.23
858.483
539.018
2073.39
432.41
766.168
3230.95
8755.69
458.293
852.211
317.73
641.157
2870.35
747.142
236.883
1308.46
3192.36
3361.74
1614.82
499.173
1824.53
2163.62
1286.67
2928.19
65.1445
803.183
10618.8
983.971
1965.54
7475.9
236.309
3680.11
3722.54
3887.7
2169.5
-96.6238
1019.4
2162.28
262.358
226.929
381.809
4137.42
452.432
335.002
1263.64
8226.28
5373.67
8249.55
3312.94
4971.97
1325.68
7415.42
1548.14
5638.09
-273.286
1228.74
4984.82
287.324
1208.31
724.495
662.21
1447.29
-151.796
664.774
1912.61
4816.6
214.137
-22.3068
2349.7
257.3
-39.9335
-118.847
578.757
4906.61
5198.56
-326.33
966.769
-12.3375
1348.98
2193.4
668.995
1186.4
2248.47
1837.02
3829.55
89.4344
3782.43
5517.57
-780.812
1146.23
4071.96
7928.06
3408.4
968.626
1484.42
2369.8
576.468
574.504
2459.26
1830.57
1323.58
414.975
4588.29
6107.5
1813.6
550.569
718.378
1661.85
4902.41
722.822
62.2304
625.403
775.277
7160.7
3808.03
1054.07
1384.36
150.67
4756.47
-141.068
220.012
839.369
605.739
2013.04
953.019
-578.234
2402.9
775.033
-637.922
5292.06
247.641
1379.3
1483.33
3228.04
2514.49
689.507
3711.03
1797.66
1017.19
358.613
4621.91
654.09
4760.97
6326.99
764.538
728.873
4289.58
6250.69
536.552
5566.22
909.813
85.5959
3746.72
42180.6
698.371
2327.71
1930.53
617.197
1938.2
-23.2346
105.719
10160
3225.74
221.033
607.504
6985.29
1827.71
624.975
394.278
645.223
673.381
3908.22
3847.51
395.032
1642.48
2590.58
11.0981
1123.91
672.478
1315.62
6145.67
4600.18
434.675
-606.155
432.622
351.077
996.751
1099.5
5666.47
1970.88
187.7
-138.669
2901.72
5025.47
-381.248
2348.62
-62.0046
-496.816
985.413
4100.32
6004.77
445.192
726.531
1647.67
4673.99
3326.3
5505.87
1814.78
872.498
12271.2
391.745
3378.65
534.948
1366.37
4047.57
1884.73
551.843
413.757
214.829
4574.26
335.02
3982.89
2154.04
151.328
-558.658
4582.95
1239.39
1912.47
4987.69
3878.23
981.662
697.898
11166
26235.7
3492.49
-769.625
3719.96
2176.18
1237.12
-230.847
6711.01
2044.05
910.976
-513.918
1771.82
300.192
-200.652
2872.77
1845.46
3387.15
3038.53
2954.06
7268.39
1683.7
6406.94
8221.93
543.089
8248.09
2716.44
4142.71
1875.27
2996.22
1868.87
798.977
5179.64
97.316
171.057
2444.98
2215.71
835.204
4419.5
743.312
15202.8
4223.2
2909.93
140.694
4271.12
562.476
4744.16
5726.38
-173.137
-58.1785
1200.63
969.379
4254.19
13283.1
2175.41
14.5524
2819.93
798.819
4994.26
1716.97
1265.4
1341.46
572.14
2330.81
401.62
856.13
2108.18
5827.34
-559.704
1808.84
2063.2
4420.86
414.945
688.675
-451.02
4423.64
2109.01
390.915
201.404
3916.92
482.784
2488.49
87.9502
2018.61
534.705
2605.11
2580.63
9666.2
782.61
262.534
-148.677
5027.58
2922.81
412.897
92.881
-222.956
3161.47
41.8992
29.2744
4700.54
1371.54
201.042
428.252
2014.12
-510.734
2772.29
2795.1
11207.8
2800.66
2709.71
1348.6
1796.26
1794.91
208.023
6741.52
2580.81
419.674
1504.12
3108.36
2837.7
1350.83
1148.82
764.809
-106.947
12440.8
10106.4
3772.99
917.833
3094.04
6225.02
5497.31
907.099
730.967
2389.02
3811.86
8604.42
527.141
-164.655
1064.96
262.586
958.124
-391.691
269.625
2654.74
1372.42
1019.64
2540.94
291.522
1025.3
3231.29
12597.9
761.478
3272.79
3314.5
906.684
4026.43
4329.28
3579.25
2074.12
1902.92
2799.27
4275.03
-44.8014
1339.54
222.435
1677.13
1197.78
-227.056
-8.22392
118.006
250.59
1366.74
1010.1
84.8118
895.244
1234.11
1177.91
-269.338
830.704
2353.76
1343.1
13401.1
516.593
3236.53
2865.29
1589.83
187.421
2723.74
7486.5
4845.76
259.242
738.63
3254.62
1544.92
2489.14
2571.97
1243.58
2878.2
209.312
1030.47
578.337
988.311
5434.38
334.473
4200.9
2123.86
1993.59
626.071
930.984
4084.03
1089.13
253.402
657.569
560.734
489.161
876.341
2781.51
-458.753
1194.22
-48.159
769.526
12423.8
436.819
1756.52
4937.87
2661.92
1542.34
8094.19
-296.245
6224.09
7767.93
2812.89
1553.41
6039.15
-96.4481
37.4703
-44.6994
5418.45
3658.46
10992.1
1083.93
-148.87
3627.19
2585.53
698.567
534.962
347.497
829.296
3193.98
66.4779
2976.18
3424.78
2340.66
-51.7581
1347.95
564.021
2846.59
640.896
3563.76
12338.4
67.3389
704.709
260.062
712.724
1005.55
435.275
2750.8
3109.56
103.406
2619.41
1545.6
1416.41
1298.98
2438.06
2436.36
585.544
2614.31
474.117
3573.2
5223.39
657.195
30.7437
3440.64
5947.69
-313.678
223.015
3997.39
2044.85
1855.89
776.104
3533.64
-918.211
404.2
708.523
772.661
2491.97
-389.496
1246.77
-88.8452
223.497
767.855
3672.23
8781.4
3821.58
115.582
589.257
1728.83
2734.02
1740.76
132.255
186.737
2373.69
7583.65
655.428
2615.97
1444.31
2115.44
3112.91
4924.05
2260.81
1207.07
-797.697
859.586
121.199
195.756
2801.52
722.919
2175.12
2908.4
1477.04
433.835
5351.26
6541.42
8639.7
1201.18
577.186
1451.57
2265.09
428.324
2033.98
317.994
5859.67
727.146
118.023
2445.25
2361.34
60.9786
10494.4
708.875
3943.07
129.195
3063.66
70.3077
285.445
889.453
1762.38
3629.67
2162.27
70.9391
1007.45
937.424
1846.36
1472.82
1205.74
7588.54
-1422.96
2447.17
3014.04
1614.3
1297.75
1435.38
715.305
1310.93
587.109
145.239
6335.7
671.171
65.5135
14818.4
4202.85
2920.92
336.98
6090.81
2489.24
4595.29
4789.46
953.252
299.265
3893.52
417.487
8114.69
1805.89
3712.72
1802.11
442.354
458.648
1505.17
9940.54
6004.28
5063.52
71.6261
3663.75
1142.43
1050.23
3563.24
920.989
3430.43
-4.84324
2418.17
542.617
-92.1993
6238.33
691.992
-50.5859
74.288
2928.85
186.058
2342.47
10968.8
6712.09
2557.86
2373.45
2592.94
1503.22
781.638
2554.13
5586.89
2831.73
1288.69
1491.1
1425.55
1308.7
1245.28
534.76
107.692
2232.45
1603.36
6.72508
4515.33
2516.66
596.385
242.892
1134.41
3963.35
8509.29
305.429
602.504
7100.24
3639.47
5694.39
771.867
4211.79
2734.09
2542.4
5685.91
2054.55
3444.54
1375.86
11053.3
638.563
1057.57
1770.99
2284.8
4138.97
552.455
2836.28
2077.56
298.878
-52.0314
3053.39
358.884
669.594
2657.63
5456.48
2242.12
2012.99
5605.98
486.028
521.21
118.31
6940.6
3517.32
-40.1843
577.42
-280.559
-529.358
2372.82
196.138
6332.4
1196.71
1765.51
1456.69
7192.51
3242.39
268.075
728.856
2547.22
182.589
3283.56
2448.23
637.274
3085.64
-145.137
1816.85
12088.4
6261.95
1457.64
895.314
-278.546
248.767
10045.2
5956.1
12716.8
6851.73
3120.09
1396.6
2938.17
-174.461
-98.8569
2655.63
315.84
1455.46
606.188
1104.68
3748.99
2659.71
2295.52
384.006
2835.42
1915.63
1493.3
468.524
1430.71
5101.03
-30.9608
5279.11
941.919
7365.77
164.734
2308.29
2818.86
1208.64
964.641
4526.46
7573
1663.07
757.605
713.958
519.496
3282.03
4221.67
5126.39
1046.28
12.2945
1844.68
2550.16
2205.07
1599.23
738.046
64.3591
398.99
705.698
2602.43
6507.66
3138.15
1069.11
815.807
1262.93
1081.24
736.852
-138.549
2164.13
8714.33
1289.27
402.142
4049.65
578.077
7211.57
3180.16
2532.58
1127.2
1149.85
3889.39
8099.04
1197.72
5663.41
3667.27
1646.99
2080.41
3667.67
596.375
4997.67
6348.11
3912.73
1280.94
2906.5
2469.68
2904.99
1121.94
3197.36
971.106
1714.74
32.9312
2304.37
2787.47
6628.55
7268.76
32.5561
3021.59
6484.24
-5.46205
7700.49
5913.08
4485.34
-199.795
2182.12
-84.4305
4431.18
825.734
10106.9
-31.313
819.879
1073.7
2301.06
8889.38
909.272
472.398
2677.06
1958.76
2757.74
5823.72
-444.789
1633.16
1897.06
11605
238.912
3258.7
6244.05
20572.8
710.001
-42.9541
2664.52
-1082.35
947.521
570.496
4610.98
4426.76
1689.32
2552.42
510.371
3841.6
2319.09
1183.53
4650.4
1466.39
6515.96
244.371
2454.05
4111.22
2887.94
369.273
1221.71
6022.87
555.601
-160.729
2763.49
531.951
670.531
1422.58
7654.94
2457.63
-42.4319
8131.8
114.542
458.371
1457.56
3766.85
1214.98
350.147
6060.57
1372.98
336.415
1719.36
1952.55
201.084
1467.61
3991.25
7614.5
7466.92
5468.84
2644.02
404.518
795.269
793.868
1090.15
5489.25
-238.291
784.964
3426.84
1431.25
513.535
1.89649
2225.67
10252.3
238.35
4656.28
4509.91
2955.87
704.703
146.217
1983.55
5854.69
581.735
6136.23
4949.59
611.94
4326.09
55.2591
2785.66
3957.17
602.405
166.411
385.028
1581.75
3714.69
1888.48
2239.19
576.184
3830.2
1067.8
602.769
405.382
8099.88
1593.97
4383.51
10029.5
4617.66
813.284
430.231
1016.81
2175.94
1650.1
-264.804
1514.74
753.738
1020.42
1290.37
2438.67
3613.69
672.797
995.465
1513.47
692.686
1127.89
2103.72
678.64
7074.45
3922.76
43.9077
247.07
1687.46
2733.35
1186.01
816.429
275.304
5832.47
1869.69
142.475
426.688
609.666
327.75
3474.9
1658.42
2084.19
-431.623
528.922
4794.72
-224.974
7464.85
-181.668
10075.5
2437.61
8457.47
3056.78
0.612696
8.47428
4652.42
7727.39
5395.37
22317.6
7861.18
4958.25
-109.668
1651.29
1625.46
235.058
1058.92
10583.1
10300.5
856.592
2379.42
-397.681
1490.54
566.11
195.508
3686.76
6367.81
2359.49
7154.3
-203.825
1172.02
918.59
-157.571
3000.49
-60.2277
258.463
2056.49
4063.87
1257.82
1938.24
2666.47
542.105
1887.16
-159.341
672.927
174.491
3597.63
3.89903
1210.58
613.976
575.913
8660.79
1029.74
3914.95
3456.34
21097.7
10981.5
6485.38
1352.62
10477.5
1518.91
437.112
3390.94
1022.09
1585.08
1218.82
2719.72
1656.96
3267.75
434.935
8530.38
16733.5
1917.18
11990
3541.96
4729.38
2435.39
2428.82
775.397
5108.89
228.22
2181.09
2102.17
4875.62
3353.13
3687.06
3627.82
4091.26
-294.248
8501.55
8958.91
12772.8
1028.21
3865.53
5222.75
3194.39
1415.91
3581.63
1617.96
752.618
7321.51
4276.38
1129.43
68.0157
2542.55
2263.75
-1016.1
301.519
3869.59
3632.11
758.386
2926.76
4881.57
3452.18
2222.75
4566.59
1728
267.033
2233.92
730.232
230.752
1291.43
-510.721
520.05
2254.79
491.039
3249.9
5580.68
72.2975
2576.34
1632.86
4428
272.827
-62.6199
2689.14
1782.81
5599.23
2945.62
2900.52
7651.47
1566.17
645.612
211.722
4094.88
6482.06
1678.46
764.534
2044.19
2070.06
591.204
605.554
667.777
21194.9
6038.01
3555.79
732.884
1863.57
4864.38
2217.75
834.149
1470.38
2503.46
-19.884
3970.02
988.573
418.148
1808.66
18361.8
11330.7
1913.59
566.792
3791.73
1913.73
3473.31
3161.29
670.979
-0.876846
9509.3
1888
872.361
6273.26
752.608
663.71
8732.88
993.147
280.063
-719.13
956.054
244.697
1346.39
5068.12
1240.71
1225.5
7286.65
1810.31
543.005
1268.97
636.78
4817.11
877.643
278.138
1605.31
1696.52
2840.94
2529.48
929.814
2000.24
-172.576
5019.87
5787.09
10.7032
2472.4
1408.28
1180.88
214.287
1731.73
6049.16
6215.81
2156.98
4220.7
1529.2
3757.07
94.8234
2371.4
1916.23
12130.3
2060.48
14987.9
394.21
7561.77
1932.33
-219.751
4277
437.4
631.465
3479.37
950.808
807.433
1217.52
2653.57
8545.17
4925.33
990.877
2062.12
553.752
1391.37
921.892
151.814
3126.92
6093.15
3425.38
583.373
14.465
3246.5
4079.53
1290.17
-46.6884
10074.4
5199.82
790.2
3967.32
2403.42
594.647
996.465
6976.06
-36.7743
2806.51
1135.03
362.291
1566.72
1052.54
875.711
1688.63
11312.2
5473.49
1187.95
1134.99
1575.19
2074.99
6978.02
818.278
1327.63
1472.31
-103.072
14711.2
5407.91
3140.54
2965.47
2131.28
280.706
133.388
340.339
2032.51
2859.15
-595.399
153.212
-58.1549
2817.48
786.573
202.833
812.332
3808.76
10361.1
1390.43
1505.54
-716.185
4583.53
3663.5
644.706
881.601
635.764
261.795
2750.45
6743.86
-9.61168
2669.56
1119.38
6145.44
4769.64
1602.17
10400.1
1395.96
5516.59
-30.2691
8668.71
2412.21
1643.48
1733.1
1933.41
1886.62
-409.693
4452.1
67.3695
2055.52
6159.1
712.77
1990.49
870.357
16127.5
40703.2
11375
2282.58
13252.2
9770.74
846.072
848.878
565.144
-258.111
6026.95
1335.79
2818.13
742.363
5855.34
-220.681
-544.852
1891.65
3612.34
-202.349
1893.22
1918.65
5941.34
3018.9
-170.852
3579.23
1528.41
1590.63
6143.08
3159.53
3431.74
6563.93
722.728
4918.32
5356.55
1020.09
683.912
404.824
10542.8
3824.16
2738.56
1181.42
1659.05
3709.77
10093.4
315.019
552.678
-454.783
-84.371
81.8137
16983.6
1188.22
2968.57
1131.86
1745.41
170.789
2036.59
542.999
2424.81
3469.45
1485.87
7923.88
4967.32
698.674
2143.39
355.108
3288.1
914.253
517.889
-104.855
624.211
82.1558
1753.79
92.9541
595.534
366.985
1185.49
11515
2680.93
2516.35
554.816
2612.62
2077.75
12365.7
2562.13
3420.22
2131.07
2566.13
10290.3
803.555
1725.11
-325.532
-72.88
546.88
2584.71
3102.67
3316.83
2180.02
6066.6
652.261
108.772
7499.73
1186.66
3396.56
3251.66
2252.49
2389.58
438.336
544.178
7237.02
3046.46
1947.16
2334.81
385.51
8686.54
3279.15
3208
231.039
1798.5
575.422
-41.2895
862.087
12.6298
482.781
3861.93
1568.81
3391.29
60.8947
254.545
3876.82
3174.32
537.661
1774.13
4230.77
-237.884
8192.6
2381.93
110.587
2124.34
2334.7
1436.98
6484.79
9473.56
3061.81
100.128
3891.32
1852.58
8184.76
1450.64
5.68968
-1063.38
2480.53
3138.6
183.234
-433.769
359.657
8897.59
1784.25
1089.01
1678.18
569.69
2146.09
4155.93
2442.93
1228.37
5968.48
9023.21
9344.95
2200.92
4949.65
472.576
67.4664
920.163
427.471
644.335
881.338
210.306
2328.51
1462.23
-379.818
368.874
707.468
1334.93
551.701
3412.77
2319.89
30.3599
2014.96
455.784
393.478
5108.88
4458.55
13474
5338
1743.49
1862.81
4277.81
6202.47
2437.98
5411.72
1874.13
222.062
474.515
2438.38
1698.48
4845.44
1812.69
1440.81
5976.47
1854.4
717.792
485.079
2317.33
1039.52
1441.1
2364.28
922.156
134.266
4559.04
5446.15
732.922
433.363
-31.297
2154.88
3576.72
787.37
1422.69
-278.211
219.039
296.402
515.9
523.096
1279.9
1298.84
-344.244
6001.83
703.927
402.974
2051.88
32.0832
1566.46
-461.288
3768.83
358.481
886.227
2049.08
2049.07
3021.43
4877.31
1386.99
16.8473
1367.29
3798.6
1559.59
15434.5
288.386
2273.19
1607.32
4540.9
329.411
112.99
1366.83
1463.62
942.914
3377.09
171.859
2532.64
2083.82
-13.1765
5165.96
6827.48
18.7388
2708.69
1064.22
92.0386
7579.12
1.58899
799.372
505.201
12186.6
-142.925
16.0952
1498.91
1326.84
2337.51
3533.38
263.757
3039.14
2613.46
1075.25
4595.11
2920.67
5770.26
1414.06
2582.7
499.227
288.26
3543.69
2152.69
1701.5
9219.22
6361.46
220.582
-4.50645
3006.55
443.73
1454.03
1112.16
8218.27
7329.42
1611.74
5747.74
19.2879
4128.87
3219.69
324.867
2384.07
8232.01
1468.57
434.485
203.294
2275.36
372.11
1768.13
1112.33
3206.71
3237.42
4913.07
8561.7
3662.86
841.503
7618.72
4944.56
9150.19
4302.8
2880.27
5339.88
457.049
3606.71
1997.28
579.427
8666.34
15489.5
2357.15
2183.72
1309.72
696.162
4151.91
7719.47
1482.74
1061.05
4398.19
-398.656
2434.75
983.252
1539.67
2495.27
1422.06
-280.496
1811.31
2132.51
3338.03
241.766
1371.29
2446.2
-237.627
2251.02
160.474
-239.826
1750.41
4757.52
5909.26
-221.652
3292.7
1968.64
-512.216
2779.85
1230.95
1203.01
11524.4
2395.73
-361.082
2365.01
939.418
177.845
2508.29
4045.14
2911.39
4653.94
1298.98
954.151
367.071
1240.18
5579.11
313.699
-155.298
9267.34
869.641
2728.14
355.984
63.4606
935.564
12779.9
608.366
818.427
6054.6
1130.48
12884.7
3227.65
1641.59
510.71
6580.86
1361.57
1883.49
2104.16
12963.2
6258.05
1167.45
2898.99
1256.87
1997.97
841.011
6831.8
2043.26
3296.65
3386.38
1147.74
304.771
1863.51
551.277
520.423
5069.9
791.066
327.724
303.859
6137.4
2136.13
4146.2
3663.16
6704.55
437.858
903.932
-79.03
2424.07
11954.4
1066.53
1696.19
827.23
1209.93
4003.51
834.01
322.465
344.814
2680.64
132.46
3304.33
-66.1758
3447.25
7104.87
1155.05
579.129
2347.43
-728.695
4349.41
1723.63
14046.6
1148.47
6788.49
1087.9
4765.23
1767.45
545.853
282.112
12229.4
2349.26
740.603
-465.314
4887.86
657.113
1505.41
-191.224
130.137
427.095
2871.4
776.112
922.232
2856.45
4434.74
2936.03
-43.1408
2837.07
5750.49
915.352
818.765
10.4842
2925.56
154.514
5511.06
817.171
4062.26
124.986
8534.8
2555.7
652.676
1480.01
1504.34
1599.11
1645.32
2300.37
1396.88
332.518
1679.87
600.612
581.045
2142.28
4910.09
3308.97
3240.83
115.737
3297.09
500.609
755.197
936.611
2851
12537.4
190.582
7156.96
3606.19
5039.81
1297.44
1567
5180.16
283.112
209.494
1039.57
2014.55
5546.69
31.3545
752.172
133.944
3058.27
1673.11
234.422
955.358
1306.18
1511.27
2571.07
672.037
5996.48
365.164
-3.73282
2432.98
349.617
1993.04
4356.06
-470.641
7789.89
6949.19
2874.74
3570.21
-322.972
1791.91
-192.512
714.834
250.1
892.677
2956.16
471.091
916.198
5833.18
5180.62
4650.31
-182.234
512.88
1271.39
823.69
8545.04
741.653
1114.31
1484.22
1776.26
3403.55
5640.21
4396.24
2302.25
4516.41
2561.57
638.99
2778.71
6904.66
2445.69
407.982
2731.64
-591.778
-361.085
2984.98
106.427
-27.0565
4525.27
101.429
1673.56
1622.44
7203.23
2548.58
14.2939
2751.45
2788.13
340.56
2351.12
1074.97
5828.88
1956.71
10601.3
10564.7
3552.96
20806.4
4879.3
2128.26
3484.19
4622.6
5017.35
427.403
1855.62
1268.33
632.307
1737.85
6708.85
-752.55
1449.7
93.1529
7130.97
5257.42
5945.87
9948.41
755.619
1799.56
4393.43
3855.91
2525.53
-670.334
-59.6642
4915.77
830.963
8032.46
4765.38
3669.99
542.161
1382.31
402.051
-97.7888
11982.8
9354.35
8726
1592.08
783.495
1217.41
421.788
285.528
1322.64
1422.71
1097.38
571.923
1431.19
548.602
703.249
3607.29
581.271
342.319
3312.71
934.07
524.157
2064.16
1141.76
1846.53
851.737
4347.9
-348.676
-333.749
4389.84
5491.53
1357.03
4821.18
439.07
163.803
545.749
761.884
659.587
3582.4
3370.32
678.494
1673.42
1759.31
2602.18
1691.1
593.743
736.376
410.829
184.568
1702.4
338.405
6979.24
4953.8
1534.27
161.193
-108.117
506.885
856.578
1854.39
67.7564
14315.5
482.179
-702.876
3130.45
1426.77
1911.96
2287.02
730.603
2413.88
6148.57
278.527
241.772
2206.09
3231.09
2313
1885.56
3155.47
534.426
485.19
1860.6
1602.05
9657.11
3047.29
3416.61
757.919
468.904
1534.95
4804.13
926.18
8152.03
1238.34
3452.9
1387.49
10528.1
1074.26
211.201
-628.346
880.625
694.056
1339.18
1529.57
2913.4
696.728
3383.95
2530.98
763.122
2383.23
691.841
2562.32
1908.76
2232.57
-317.399
1711.61
733.486
3746.58
838.013
444.258
-170.15
2845.23
380.708
-34.9231
2781.4
3139.05
2116.75
1607.36
2101.65
18.6684
1371.81
6699.74
2055.05
88.7168
21907.7
554.035
-294.432
1185.6
6437.46
554.494
10935.6
7.76917
19.5473
154.745
1617.91
8836.68
2192.58
2117.02
597.748
-93.0833
5262.29
6246.42
236.603
368.104
5936.38
1548.96
2025.55
3163.92
1437.18
1388.53
1840.48
927.738
989.877
5310.78
9542.06
5743.19
9064.32
1722.81
2334.32
1960
1157.32
4766.28
121.956
2531.69
1005.88
-75.7072
112.596
-569.172
2526.99
2726.49
3202.58
2205.83
1441.73
1849.87
54.5343
1198.16
-715.677
1076.24
958.052
-192.04
1283.95
872.796
4406.9
1012.57
12842.7
2322.41
402.185
580.75
2987.7
2341.26
-500.363
4532.65
1518.79
615.549
4123.43
6382.19
6041.49
170.064
3162.74
896.307
1004.9
321.982
6816.56
1173.5
4201.9
925.49
-264.928
1075.91
3562.44
6039.21
1223.04
108.769
1008.52
-50.689
4757.69
837.853
455.048
1764.19
2725.59
-458.149
1570.88
-401.02
1613.61
699.991
1853.58
1827.61
195.777
9616.93
-109.905
1280.12
2198.63
28496.7
2400.2
2180.04
5710.75
4872.6
726.038
-424.695
2285.93
937.137
7455.68
4883.87
1074.58
4067.26
1029.63
445.09
360.341
529.107
6590.96
5705
2152.96
928.652
6453.44
542.222
2164.49
1862.56
2634.79
1034.4
2691.91
989.374
1928.83
232.013
3994.15
2396.41
1555.43
382.016
1006.53
643.997
8099.67
99.0433
701.151
3998.99
5810.02
5325.95
509.44
3070.83
789.489
2307.35
3856.31
149.207
390.272
4983.1
3018.89
2095.53
639.492
107.931
5069.43
6755.61
917.42
149.288
1069.97
91.5915
4503.87
766.773
2091.15
168.48
13249.5
2639.12
4817.96
2781.03
5828.24
352.009
5263.05
3506.65
14542.6
-685.264
39.4556
8278.19
1094.87
659.3
837.189
1168.19
6970.53
1620.35
2812.44
14409.4
454.385
16285.7
2116.56
1476.28
73.6645
414.534
5042.63
1911.31
235.331
3066.22
1156.37
6617.36
7236.72
10895.8
1617.31
765.892
463.595
-449.467
184.778
492.206
1253.86
125.237
149.594
221.38
4937.39
11102.1
2330.8
-229.153
7556.44
4603.5
691.99
709.431
150.397
431.524
8745.03
5361.74
5370.22
1420.08
2084.68
156.381
5818.29
-71.1926
626.63
3045.31
1880.32
-59.6513
1641.33
4647.14
2497.73
699.29
135.074
-73.4454
2337.1
12573.4
-692.695
2251.65
1923.01
6184.15
2982.21
3247.28
2059.75
214.398
240.448
4142.5
4148.08
9640.37
2839.39
4181.47
3158.99
2149.71
3827.79
4511.86
412.327
5696.81
1282.47
210.095
503.74
4578.07
3247.21
4922.01
3570.14
13648.7
962.302
3995.78
-696.064
8345.5
243.633
3015.82
3101.01
3826.32
389.487
909.705
2346.44
555.886
40.5354
48.822
1580.96
7215.48
2181.73
6989.23
279.505
304.276
1433.54
431.38
5805.12
-127.915
2589.83
888.979
2613
1304.04
2018.47
1207.31
139.928
1816.79
195.381
415.977
995.444
5468.3
3697.05
186.23
2195.65
268.264
2416.84
6120.69
-12.998
439.097
5911.9
2791.02
-61.3206
-129.662
4974.79
1783.39
4647.61
1134.23
4804.5
2552.78
3674.55
-298.487
1140.67
268.632
-31.1872
670.921
119.433
4344.76
123.614
1302.41
13461.6
5934.37
-207.257
1120.98
375.102
1247.96
2397.33
913.984
1961.23
-243.425
354.802
4659.2
2895.85
2164.09
541.536
5265.33
123.922
1610.25
2378.42
2269.85
640.079
888.652
2671.13
677.391
3291.4
6800.81
422.64
187.521
400.919
7796.98
1616.08
1908.53
1239.69
2751.31
1172.66
3027.17
5695.54
2384.03
11408.5
4469.05
1155.31
4060.27
958.564
2513.69
1258.69
2226.86
-162.097
8329.06
1755.92
633.667
-86.8515
-410.561
4.75282
1950.02
2250.15
-228.562
1517.34
1314.58
4317.75
2076.36
952.232
2103.68
678.179
1667.22
3538.35
326.175
177.348
3260.43
2946.25
6618.09
1539.14
2028.02
65.9002
787.771
2385.2
3750.8
3051.01
823.278
41.1205
4252.75
1208.65
-402.679
185.507
6002.51
973.697
2389.68
5057.55
1718.53
301.134
1189.61
-60.9618
154.02
2138.61
-237.344
43.0993
2642.55
3311.18
640.3
6102.35
4897.54
214.873
410.527
513.383
-37.8803
545.421
2685.93
2898.92
4765.28
1155.01
1133.87
9533.14
1616.4
7617.11
3685.86
3101.06
3147.64
474.416
5057.95
5035.24
1157.93
64.9312
1463.4
511.397
2145.5
2392.08
-99.7292
183.789
1313.42
-302.841
3565.46
5623.41
850.285
2054.83
2249.42
3205.38
161.784
2937.66
3221.15
7596.11
1343.21
1821.42
2041.59
304.923
531.799
-39.3627
2591.68
6550.42
4285.5
-421.012
1351.61
1582.29
232.238
78.8447
871.452
2631.85
1991.91
1871.14
1390.66
6489.12
91.2614
1620.84
3067
4882.81
1781.33
1301.93
2453.66
788.6
934.785
962.32
2987.29
3721.26
4239.02
216.274
299.485
10463
3448.96
4195.09
270.705
869.921
2672.71
1019.46
466.717
13104.7
48.3438
1764.26
1024.21
6896.17
4112.41
1693.82
1149.83
128.725
7724.11
7096.57
2939.03
3415.41
2771.77
994.086
5572.62
-102.189
2134
1565.97
13723.6
155.547
4445.32
787.258
1728.23
342.849
627.688
581.046
-40.4055
4043.18
1050.69
6527
5522.13
341.907
1360.07
2632.89
454.509
1515.6
-147.546
570.169
1879.09
1745.69
262.889
1940.47
9276.68
3633.18
2328.93
2651.93
415.678
809.227
767.7
392.561
1811.17
4293.95
1592.33
912.373
3287.4
3912.68
3070.37
2900.17
-387.286
754.351
444.026
1460.24
3472.36
3455.25
177.724
-108.357
86.3225
1093.64
1359.83
52.0268
160.678
4027.05
2573.81
280.923
1693.38
1630.77
3449.25
2232.93
4273.56
574.516
11458
3939.05
1894.53
981.863
1316.19
-949.834
2971.15
3314.7
385.473
1546.6
2848.26
-60.4413
1598.51
1559.6
798.973
511.32
2046.79
416.388
10805
-24.4641
3149.81
9564.53
9410.82
687.405
2234.13
2970.87
7739.36
3818.53
2385.74
569.881
802.977
2753.38
517.137
4894.06
338.03
553.709
219.601
4053
2501.05
1668.31
1552.42
3264.68
3000.82
949.285
-110.161
1414.79
2069.22
549.098
1207.22
373.387
3194.93
4042.06
288.71
650.741
2393.08
1742.26
9297.34
2018.35
716.577
449.994
2516.32
216.524
-115.227
1890.99
979.416
55.7883
790.557
5131.53
4495.68
854.941
844.617
3462.97
652.434
1121.24
806.317
431.173
1626.19
2098.08
2252.29
2176.13
5838.11
4704.7
213.662
2396.27
786.477
2691.4
826.107
1426.49
9427.06
7339.53
1638.87
567.652
870.846
871.674
4276.13
7710.73
11604.5
-179.566
3720.19
-1.66183
620.725
2787.27
1325.58
876.681
6411.38
3924.05
702.009
7535.85
1598.97
414.037
478.978
-187.712
949.915
14054.9
1298.51
2804.4
476.394
-114.49
5365.65
2229.63
13932.7
894.525
1096.52
3434.24
-47.9341
1557.84
9754.06
1217.34
1786.93
224.144
605.674
6486.44
4392.66
2914.04
-89.2612
1338.37
1205.63
2783.33
2789.8
4964.2
506.839
32.9915
5117.89
2184.77
1176.92
3940.34
3177.62
9252.74
1528.81
2233.12
3514.31
4004.54
218.648
499.654
851.332
1730.94
3175.24
767.766
292.513
1016.51
8551.23
1506.62
842.263
1679.29
1570.22
6609.22
4376.61
3558.4
1722.43
7822.83
4010.68
4514.24
272.563
31.332
2862.55
3908
1591.61
4427.28
217.575
622.724
218.373
335.192
656.793
531.685
465.033
2517.32
313.505
9605.59
3263.12
2801.55
1003.94
842.352
1388.62
75.325
-69.3416
1313.36
1950.15
6124.38
2588.56
2497.13
804.37
1002.84
1302.24
748.554
-597.729
1380.84
2531.29
2951.64
769.106
4596.16
723.81
2491.49
408.839
1450.96
801.089
-105.664
182.881
5314.25
838.663
167.807
1597.84
3680.74
1453.97
1543.82
2002.33
5170.96
9512.54
1728.3
8049.89
5998.93
1577.86
1662.95
-540.887
2426.49
-265.602
458.103
7511.35
5759.59
12235.9
1102.6
298.508
4074.24
2051.32
2824.95
3829.47
2762.74
2096.66
4456.46
864.933
1421.03
772.47
1994.92
6312.45
2223.97
3327.96
7664.33
589.479
1927.39
-466.406
3466.95
3374.56
686.818
-206.416
-274.884
838.728
8637.3
4264.58
276.132
7488.42
406.333
1617.88
3556.73
19.4694
2798.82
704.422
41.3284
3145.64
-261.741
3267.25
13304.1
2131.06
4541.29
4008.64
-10.0368
4473.09
2659.92
2293
567.946
3087.23
2184.03
14111.1
4310.46
180.954
-91.9866
467.366
3731.86
8232.76
859.447
733
811.606
5167.78
783.16
1025.27
1078.51
6682.56
2738.95
167.79
738.019
854.854
-81.2211
5212.22
4469.08
1073.26
136.207
4882.14
264.512
161.171
46.9688
5138.13
1613.61
2251.22
246.143
-348.632
3338.23
1690.14
1723.27
2773.15
14672.6
4288.83
1731.95
258.456
-533.23
449.513
720.467
4992.24
-318.192
508.966
3011.82
404.601
993.555
6247.9
1130.95
1560.12
10222.6
794.722
1240.87
4588.59
2233.45
690.797
4897.84
1227.74
404.295
3763.61
2366.78
-373.586
1842.67
1709.24
878.592
8569.99
-27.9486
4115.88
425.542
-104.36
2512.05
8901.33
-182.29
882.974
4822.41
1189.88
842.157
-724.845
4349.14
697.231
4564.9
14963.4
2576.92
1864.15
1341.47
687.479
791.484
5654.62
526.335
1366.69
4626.54
1485.84
4757.33
2075.02
530.301
860.729
7372.26
2056.54
36.88
2027.02
2375.94
2254.28
4525.49
-409.352
487.106
2633.79
426.958
288.247
2232.18
427.022
1962.42
1785.05
1330.02
11801
5084.52
3941.65
3311.53
1740.75
11820.1
619.749
837.977
-96.6675
-345.469
1351.27
3391.65
2011.38
3602.14
-166.419
4962.59
3415.26
7213.34
6439.57
289.303
6593.98
5786.56
-560.467
638.954
5499.13
1709.79
1408.53
246.388
155.163
620.166
1962.61
7817.97
991.208
3030.76
427.796
234.895
-39.8769
621.33
441.121
-38.6276
5953.39
1152.3
4501.14
712.789
890.278
3696
511.47
7810.13
1186.67
759.581
1635.08
2761.87
6185.91
1542.43
1259.28
984.146
5575.62
2091.21
5173.58
2240.69
2458.96
1325.65
1316.94
2879.75
1953.62
7300.63
3804.13
3029.58
1137.17
2968.79
918.37
74.2279
9119.1
1120.38
579.226
305.936
956.22
485.069
1949.84
504.951
2000.59
247.903
191.014
1430.47
70.6455
210.623
1183.2
524.385
2625.37
6175.48
1041.19
2359.84
2141.67
1216.26
1359.39
3747.32
441.667
2451.05
6162.42
625.725
694.092
672.023
2941.75
436.277
12111.6
6963.64
2029.87
4085.42
3397.94
2258.8
1629.96
5627.26
9276.08
11475.9
1852.93
511.645
1258.01
2575.38
1213.92
8883.1
760.367
329.135
3366.12
5146.66
576.244
4103.77
5636.8
1132.32
2916.78
-41.8783
1.70224
243.405
1806.09
4218.42
1894.3
5541.76
2181.76
443.772
2288.05
1147.87
2266.24
915.275
2791.22
11348
610.166
1756.6
10724
487.918
222.699
2053.44
4100.81
336.294
4000.84
4235.33
1302.49
952.219
5077.1
4169.99
7026.66
564.276
2339.5
2673.92
920.363
713.003
2012.26
1974.63
7416.28
1860.45
580.692
2779.55
1987.28
5433.62
279.866
840.819
2155.59
27167.2
3400.89
442.584
3192.5
688.29
1665.58
3189.8
2287.79
-44.0144
3100.06
723.108
1113.96
778.959
6752.48
-223.562
1547.35
833.536
7913.56
584.933
1482.92
699.156
-427.957
788.563
6608.44
1562.74
198.777
191.849
47.8279
3830.34
952.715
15805.1
1769.04
890.092
2087.16
-84.0351
610.187
440.73
3105.51
4524.95
789.534
1938.76
181.312
-58.8197
3688.99
165.347
2628.02
9741.23
755.925
8098.43
4593.45
1578.88
980.75
1515.97
857.656
1078.55
1334.71
755.184
1134.58
2732.86
2516.62
3418.11
1367.12
1237.23
727.286
3201.38
1348.31
723.299
4282.54
1928.88
3466.06
-224.359
3707.7
1079.97
564.184
663.498
1481.39
2861.16
132.224
2315.34
680.784
2416.4
1524.7
2048.94
2123.73
1771.38
167.788
5586.18
1922.16
1073.02
4168.35
2438.45
1915.78
-282.367
342.164
1333.21
1055.5
2500.96
-384.28
914.382
6478.8
-31.7415
625.972
4212.85
3033.55
376.016
2733.98
764.769
459.213
111.844
2921.53
637.429
208.113
3871.71
4650.81
1081.82
446.72
-193.126
4785.54
6198.23
4593.02
242.416
854.738
-221.741
344.279
77.3016
260.655
8189.06
3703.28
424.594
8001.36
3960.28
21180.2
4931.15
1057.73
1308.57
1486.42
116.243
1794.49
2792.37
1425.83
1058.28
175.787
3823.64
1790.1
285.026
-279.501
1458.81
142.342
2419.53
1458.28
482.462
2407.6
520.641
514.082
486.408
11985
4543.67
318.306
3195.56
406.883
564.876
2197.88
2630.52
1067.34
283.636
1362.12
749.999
2368.19
4431.97
1973.28
1514.94
2825.97
2885.51
285.28
13072
4561.17
400.956
480.299
3032.57
3756.11
686.23
12550.1
546.182
7140.8
520.726
1340.84
1278.02
857.045
3117.13
3192.86
3743.14
1132.02
975.663
1008.38
407.185
-275.6
3095.25
1559.45
2826.15
146.959
3210.43
7779.75
308.922
397.353
11516.3
2385.88
6112.66
2707.97
2536.91
406.098
860.173
2038.92
6654.13
3670.05
288.529
401.267
141.733
2235.31
728.415
1113.13
5753.29
310.979
2880.82
691.669
2899.83
1715.08
2077.33
3467.46
2848.06
-322.18
3080.69
870.995
-425.033
4676.74
1207.11
1296.34
2199.15
2985.54
764.209
879.052
1180.4
4520.85
14848.5
41.9457
4657.43
1658.49
3673.27
4859.75
8678.77
3697.84
3663.26
818.332
5534.4
393.46
266.493
100.661
-197.583
1242.79
1124.52
4954.79
1343.03
10.366
550.517
5984.86
12712.8
785.378
-53.168
1874.56
4930.98
6424.2
4233.41
2458.58
-301.008
5316.88
5128.28
1773.87
119.142
5021.42
692.401
2859.78
611.663
2034.33
3196.8
3711.05
291.715
2139.39
1128.69
204.505
335.967
824.367
1687.69
621.321
3002.23
364.861
220.949
237.682
158.607
3397.91
9677.27
2596.6
1994.39
1933.52
5260.48
1131.17
10606.9
1915.68
226.049
7527.67
535.034
1598.23
5033.85
558.949
114.669
1129.56
6093.75
2864.36
6.937
944.619
-961.966
5771.95
497.15
7738.71
1106.13
3640.91
259.951
1986.77
592.3
-112.702
4848.86
4881.87
1766.38
10110.6
1791.66
479.354
1162.86
4202.23
6502.67
3634.87
-290.768
6808.54
1126.53
8157.54
4479.9
93.2215
105.687
1831.31
1341.03
158.166
12983.8
486.181
73.2594
3310.33
212.624
10473.2
1516.61
4069.73
567.528
1489.46
5119.48
-126.959
6304.55
1231.91
527.5
974.807
152.155
18424.8
2954.15
6900.6
2240.81
761.879
153.281
1868.53
3026.73
3857.88
690.476
5332.5
5431.69
3438.98
426.012
-44.4458
184.032
6948.14
1590.01
1111.61
254.768
2660.94
4601.35
11262
542.413
950.114
-39.8405
880.671
2943.15
419.926
153.335
1540.93
1490.77
49.6673
2644.06
3898.46
4658.36
1138.88
8400.4
318.913
-167.301
2716.04
-396.278
1893.04
728.791
220.554
10379.1
1793.28
-580.322
1792.81
400.898
7208.29
-453.614
92.5788
768.249
-56.8263
2010.43
1361.89
1656.2
618.435
1706.12
5104.83
-246.357
1601.87
2324.07
384.802
-470.519
231.651
56.6511
13462.5
2866.49
1340.44
2179.79
705.866
117.097
1012.07
728.249
4318.19
218.63
-378.286
114.491
1767.77
256.974
144.801
633.495
1209.13
589.151
1210.69
1602.93
1109.11
1297.33
9918.78
517.189
3320.83
-120.951
5986.05
7943.33
443.115
2123.21
2349.94
3874.03
16030.3
203.703
2679.94
782.482
872.691
4444.16
83.4325
1553.75
2736.2
1749.29
5429.3
-491.396
9802.94
10687.4
425.085
2825.25
5642.12
6083.11
1896.71
256.486
10047.5
1417.82
3414.37
5497.82
-200.57
1007.48
1105.37
-298.601
4820.9
3040.98
53.4501
805.263
2437.56
4323.87
629.321
5412.66
1154.01
6152.79
1192.9
1855.35
2221.73
1299.84
332.023
1150.63
8329.4
4331.45
815.124
-13.1182
456.21
722.193
7749.81
2797.87
-228.018
4619.33
3542.11
8938.48
1658.94
1692.22
21347.2
2845.96
4911.07
168.273
769.35
-1115.14
3101.46
224.006
720.704
2587.49
1750.22
3042.3
697.664
1888.4
3117.29
1904.81
4514.29
1261.44
645.651
1677.7
569.048
4258.22
2605.19
793.181
5135.07
3992.94
2006.41
539.14
3660.59
1983.29
1263.37
6685.25
13770.9
10358.7
2083.12
-252.594
813.158
-256.813
672.613
530.209
4181.38
661.871
615.45
3204.89
-44.58
19070.7
1686.32
4652.55
2325.87
90.6876
117.368
4925.67
5512.22
619.311
2268.32
447.129
9685
3225.39
5192.05
300.352
879.088
516.87
2469.22
389.765
-1.35783
1473.53
943.612
1066.83
3470.26
547.75
921.966
30421.2
1754.11
-489.456
184.556
948.138
1669.85
2484.62
611.618
62.9429
4039.32
389.821
4523.77
1236.5
582.454
-311.545
6718.98
-236.395
1967.08
2512.67
2996.98
6121.18
8226.59
1435.03
5181.91
722.971
868.489
513.089
615.936
591.744
2944.45
-1.3776
428.605
3192
1931.57
-964.105
14389.7
4607.98
2197.23
502.376
1080.13
973.028
570.744
2504.88
661.605
-210.814
12436.1
49.4698
944.843
56.1086
2492
150.466
3317.27
1245.65
1933.32
3487.8
902.389
1029.58
1954.64
1968.07
560.772
6439.53
4989.82
-374.251
252.41
2231.67
1112.89
-143.545
763.068
5878.01
2620.07
627.228
8722.54
1148.51
3096.7
860.252
1046.81
1367.95
3341.05
2104.08
4722.28
9433.98
3500.25
4078.99
1628.54
5908.98
1746.16
1965.11
2323.7
6153.11
1681.73
757.396
174.911
3534.62
586.198
-343.829
2288.47
1011.28
1874.87
468.46
3603.08
4953.57
4421.51
111.296
-184.52
4516.47
1548.3
-147.295
244.767
1448.95
1778.56
-749.019
3398.05
4154.68
-134.661
1465.75
2461.22
4350.84
2769.67
3328.97
3242.52
2990.75
2548.26
466.257
3794.61
3288.27
3931.51
906.31
15.6289
3358.37
368.099
244.676
412.211
6859.86
1144.99
2222.48
1728.28
6446.65
311.524
3120.77
236.41
2863.93
2154.42
1376.18
918.364
2095.59
1220.83
-74.5314
8757.23
4772.94
1465.57
13925.7
1766.54
2990.99
301.367
4817.12
2343.96
891.396
5109.7
3187.22
517.633
6517.56
1815.57
2810.85
-191.112
2385.09
339.633
10210.4
794.181
274.326
1400.52
740.878
452.658
882.375
1100.17
2533.29
2615.36
3673.15
311.962
309.869
-83.8159
1036.88
10410.1
2862.43
1247.32
1281.43
401.505
63.5127
77.5682
9895.29
4737.25
4696.3
6461.78
1621.01
2705.96
414.014
3836.64
12334
1264.44
4887.37
348.071
2037.69
1716.43
4845.26
213.639
336.824
1405.74
3116.15
886.004
691.407
2954.94
2348.17
2406.15
601.278
1079.22
11478.8
2324.91
211.141
1868.77
234.285
372.971
7196.75
680.29
7690.72
794.767
1864.44
624.983
5312.01
300.345
609.887
4673.36
1312.19
-424.224
-24.5398
2347.04
4048.5
6937.94
5144.79
7249.33
6858.61
466.42
2032.43
961.461
706.896
1870.98
2194.43
167.888
1468.45
395.62
1008.03
2547.38
3192.65
4591.33
124.496
4121.08
2166.65
2581.3
1105.71
1079.85
2777.29
259.262
3065.3
2563.56
384.987
81.538
249.158
714.259
2479.17
4537.45
2003.95
1978.62
7592.8
466.832
1939.25
3058.04
1291.8
11433.1
4442.73
86.5408
-175.251
2840.76
1203.28
7663.27
6557.27
1132.31
70.5517
1249.5
2488.53
7160.54
3669.77
2245.46
3253.27
3257.82
2197.39
3094
1881.59
1260.44
388.336
-87.6361
3617.03
3397.57
-135.387
1188.59
1051.92
-337.742
327.449
2821.4
546.563
3639.75
6715.35
1740.06
5297.58
2427.02
2536.72
1472.91
12680.2
7115.17
1403.68
764.791
-609.983
2656.5
10641.8
11659.1
5443.47
3079
6770.51
6673.73
655.325
3974.92
2155.07
1130.89
3519.18
541.405
3211.33
225.06
6121.7
580.813
-612.154
-185.782
707.189
15614.7
1740.44
58.6773
2272.87
2520.5
852.767
3184.49
-176.879
1606.4
615.024
-337.829
781.676
2083.01
872.272
146.465
339.095
-44.4377
3092.62
1019.84
1044.15
1593.97
2946.82
5244.11
1004.19
3400.29
1198.89
5939.71
-223.428
1339.47
585.243
3121.16
10019.5
1645.03
40.6999
1111.91
6048.98
449.937
3994.26
4687.77
857.631
2496.71
1583.16
3515.07
3214.69
12264.6
2783.05
4002.52
449.99
9718.58
-836.306
3911.47
8958.17
4898.66
2651.45
6921.56
3709.53
2679.46
3526.74
678.07
8646.41
1004.48
5598.89
2834.2
873.092
-159.655
953.162
2981.35
3184.95
-487.154
8030.75
2072.92
1441.95
3648.76
938.253
-369.449
26284.8
1402.07
2005.94
5330.23
4723.86
2168.77
240.097
14629.3
8972.58
9855.22
-18.8278
138.672
2062.78
1958.49
1436.79
2227.97
1697.1
1875.1
1389.04
15524.9
404.14
135.963
344.937
243.247
3648.88
5960.89
531.889
455.229
3386.34
553.809
846.538
4502.63
6113.15
5462.15
1729.63
2070.46
1489.13
4122.24
7601.13
8760.37
3200.06
964.076
235.179
-762.367
474.876
1742.8
6603.74
-605.31
2268.81
3056.57
3943.14
1494.96
4015.62
2114.8
706.726
429.562
117.268
3277.65
4381
482.609
4795.8
-470.283
861.766
1088.99
955.937
1383.9
1155.66
5633.3
5794.4
723.7
741.919
4306.5
2280.99
4042.39
955.551
237.932
-212.714
2457.77
2026.9
7921.63
132.82
110.239
3180.74
85.1997
2887.82
1397.64
1230.97
453.034
369.105
290.413
1096.8
1926.62
387.396
5829.38
558.351
44.4321
841.953
151.766
-156.311
-85.4188
3485.13
2150.57
1336.23
2416.4
3697.88
2456.11
838.83
2844.43
1198.07
112.924
1914.51
1493.44
56.2436
3292.73
478.199
272.469
4370.8
839.031
962.757
4149.74
1008.63
-921.353
2530.68
1276.5
3682.85
260.922
1107.22
1922.03
3110.93
423.38
2133.05
122.243
3283.44
248.625
3447.49
-5.72487
-379.083
4876.71
595.211
981.362
3808.81
3104.91
1291.05
-88.1693
518.874
2733.04
237.186
563.096
4689.14
1569.17
2697.43
423.682
2773.67
4610.97
1019.16
3146.12
121.764
12921
5576.89
741.329
78.4631
13091.3
1495.54
13774.4
5367.22
4007.29
7766.22
1160.5
298.243
2070.36
2637.81
99.2822
-108.065
-599.126
374.871
7187.52
944.601
2511.53
1060.87
5067.04
2983.1
4773.69
370.554
215.896
999.677
1121.15
1031.47
14136.1
4188.71
424.46
432.808
234.785
474.663
4359.88
969.972
3825.43
-752.402
2767.68
427.427
3460.37
1334.01
-237.542
868.823
1067.6
527.185
1666.71
2329.8
1883.64
1452.8
-398.81
1276.2
-4.30863
1762.17
290.896
525.286
6989.76
1972.22
2500.63
663.141
507.796
3302.38
372.14
3950.49
5683.26
1018.81
51.4909
-400.629
334.375
2452.88
702.626
373.713
70.2826
-128.089
252.659
2543.52
1516.47
861.24
3294.89
2175.13
-39.8811
1026.03
2608.74
206.726
750.576
706.456
1453.54
546.338
1538.58
5573.93
-47.3133
569.712
2337.52
-36.6253
4216.75
1872.56
2542.51
2231.51
1279.67
1847.74
-247.95
5910.22
1621.9
154.785
1177.67
2634.82
4902.01
158.336
1425.41
61.1555
866.966
5233.27
2308.74
2711.57
304.334
1814.83
1883.06
199.825
9309
2169.47
6807.03
1362.3
856.83
2855.98
341.981
2625.93
449.518
1726.04
570.035
1134.86
1345.21
35.4944
2933.54
-164.44
1493.94
719.964
5827.95
2770.36
392.642
1518.89
-394.218
-174.426
237.43
510.489
-296.249
6788.96
1810.66
1433.13
2257.87
2208.6
959.173
1083.11
162.659
3184.16
268.906
1405.3
2977.76
1868.93
970.871
1517.6
859.47
3722.44
4068.25
-1.56359
-394.352
1538.25
1129.98
1895.34
10729.5
4844.4
6131
800.172
6075.88
2044.07
1020.51
536.303
181.761
7824.06
696.16
899.878
1595.38
248.189
3466.21
2870.46
1351.6
9.40437
844.834
1697.63
1575.69
3243.64
1805.18
346.305
6279.83
10805
3377.62
852.776
3800.27
4076.78
2289.79
1165.74
893.58
3484.18
1659.27
1453.57
2564.61
1046.84
301.646
1405.35
636.179
2773.52
237.359
2700.85
9585.9
5144.49
2295.49
915.3
417.041
-6.46827
2037.96
335.061
855.816
2795.92
182.689
2236.94
2656.99
345.189
1121.28
2092.8
1115.8
1689.42
3054.4
4090.97
23012.8
4916.13
186.088
748.18
-206.161
5687.9
5708.39
5315.17
-95.0743
2409.26
2482.39
-490.216
53.265
1119.83
666.652
1474.41
2103.01
4275.03
2270.43
-933.609
339.045
1723.56
19118.1
1756.13
2179.67
3886.24
2667.37
4094.29
4010.11
23.1639
320.614
1707.08
479.705
51.9702
6694.19
1911.74
3771.68
190.762
2243.61
-218.861
509.587
846.349
125.712
8207.66
8748.82
733.326
1069.68
-61.7484
1317.84
2180.13
531.5
661.859
162.492
1726.78
1918.11
1452.94
5147.74
1478.72
2482.23
1194.54
2779.06
5272.85
4708.38
563.237
725.854
577.112
2554.32
196.709
4233.28
26.9006
3017.13
1711.09
5978.91
4867.95
2619.92
5903.71
5251.98
1139.12
1518.95
3229.33
5309.07
4034.93
570.176
234.295
2414.11
600.759
21649
1988.24
431.429
10721
3127.52
2894.96
1010.89
2816.75
-32.7983
1465.97
1560.81
422.998
6216.38
5510.57
5419.8
3.91813
1650.16
261.075
2556.1
2474.16
-77.0953
9271.71
1843.31
3677.49
-262.642
2014.3
111.877
1261.08
3065.61
1347.62
264.623
1664.84
549.055
1713.82
790.581
1747.7
559.047
2899.29
264.197
209.958
2231.95
5062.32
6323.81
-92.0851
2247.66
16547.7
1431.13
6298.87
1872.69
591.264
6253.2
3677.48
3912.47
-26.31
1521.82
1558.43
4021.32
163.199
1092.7
5049.63
2993.3
1688.28
1071.16
1646.34
3527.05
2460.27
5276.18
417.655
408.48
8.84289
1809.87
337.979
1417.98
4182.49
2570.97
5464.15
6106.26
1025.28
4430.26
702.598
1701.3
789.892
5560.3
12471
4861.23
624.696
1900.8
593.026
10808.6
503.416
1059.21
597.681
459.495
3790.77
14207.1
776.35
5549.17
4515.68
1729.39
1361
-171.265
2317.71
797.716
695.603
1015.31
1301.93
3387.23
5763.7
129.576
17959.7
525.227
1425.74
2625.97
644.719
857.366
799.947
44.2347
1458.72
3237.15
2001.47
134.342
3357.97
1869
6136.28
3711.95
4564.16
1605.39
566.838
1988.45
197.095
86.0494
357.236
7313.75
2722.3
1163.62
3954.99
2289.27
4101.43
1503.15
1143.24
382.33
936.774
2438.56
1167.4
1657.01
1762.21
141.205
1643.38
1883.77
1357.41
2894.03
321.535
973.509
6628.02
1646.53
3905.22
194.732
680.004
4157.88
3484.03
13808.7
508.45
354.887
2503.91
184.715
1129.38
902.141
167.001
3874.82
585.427
4601.37
2695.97
3525.7
4657.1
811.471
270.272
2410.93
6742.76
-10.6027
539.636
5321.86
2392.86
2538.73
943.945
2683.37
7843.85
1088.63
679.896
2591.93
1543.99
1723.15
4459.51
7271.37
-112.716
298.017
9575.46
821.659
5124.46
2976.67
2121.28
615.946
4362.94
2389.93
2473.44
2618.71
1524.42
4496.19
-192.711
257.222
4849.21
3778.91
2037.08
2139.4
521.349
2924.71
1040.05
3883.63
795.741
16339.6
3525.72
986.8
-38.7668
539.931
196.949
3719.05
109.513
393.309
1520.2
2734.66
2145.17
21.1435
5274.61
1149.57
2068.02
18.2557
1878.14
2702.59
2158.31
2038.28
948.954
1993.92
8025.65
1990.96
1300.63
1141.47
6444.42
1979.09
1579.7
214.374
457.207
224.151
5904.31
4647.25
272.774
2062
-284.101
1757.44
1906.36
2749.91
576.846
4063.2
3535.72
5283.07
2720.82
211.292
3129.81
1263.61
1556.44
6849.41
886.103
5429.32
234.714
3911.19
1491.99
1143.76
8317.57
515.201
1180.64
8213.03
1259.66
-93.1246
3326.04
4977.48
778.493
265.287
903.404
9422.47
1570.01
1007.59
1317.88
320.594
4163.38
311.153
6382.27
4259.03
6234.19
355.526
567.586
-132.156
885.8
3023.08
318.42
1089.63
153.988
2820.61
-145.656
1101.92
1415.12
2298.22
6724.64
1047.59
3080.36
4465.6
3524.46
2315.42
-192.23
3013.06
2163.02
3362.82
2084.66
13958.7
1300.71
2964.43
4082.15
3289.11
4959.68
2054.37
9373.14
4951.62
2376.45
83.5543
2981.97
527.353
2496.82
184.411
401.883
3120.41
1673.93
-342.589
547.62
1254.9
-428.936
91.0745
2844.89
177.368
-112.151
2543.83
1157.87
895.9
642.797
4969.04
1953.96
11189.6
902.792
484.447
-294.666
479.443
3585.01
146.934
508.061
927.694
765.197
14122.2
235.029
-597.079
5630.09
11511.7
3411.07
424.655
417.204
3151.16
727.26
1154.96
1592.13
2399.74
2862.53
149.999
1045.81
2736.41
917.253
1843.13
99.4865
3450.03
648.298
8767.15
2306.81
997.715
384.61
352.638
4558.67
12284.2
3717.05
5755.92
1184.91
254.139
-6.68925
4844.94
6948.23
843.325
1799.63
2237.09
4222.96
5585.3
1228.26
1872.13
19.9679
5292.07
4989.36
1198.91
2891.78
693.581
1813.5
2739.16
1400.03
309.646
2007.07
2331.97
1950.33
1819.57
3504.61
647.016
6321.48
8706.92
1871.07
1511.73
3256.4
12249.1
510.532
24945.7
870.286
2638.31
1893.84
-35.2887
378.853
-203.057
2184.28
5232.95
2568.08
662.191
1261.46
1241.53
11507.1
180.712
216.426
161.456
614.965
4691.1
5891.28
4287.36
9177.41
2332.63
7632.56
1965.73
5577.91
-309.739
-405.871
677.863
2866.71
-643.83
-279.398
3470.18
3698.3
851.962
1219.44
1444.52
1194.87
-104.559
1170.25
406.223
1142.93
581.165
1265.21
2238.54
3729.28
614.18
3732.79
1797.48
1441.62
3194.75
3555.79
7442.09
206.588
856.642
3023.84
193.148
36.0753
1041.3
5108.17
253.488
1111.84
82.1707
-39.5024
448.642
2734.8
1218.28
6736.32
8479.16
-58.7014
4663.44
3288.8
3026.62
1184.31
609.415
1734.77
1590.28
4022.95
4029.36
1487.53
663.23
5367.4
4044.88
520.468
421.767
4729.47
5395.65
1800.58
5285.86
173.052
1282.63
701.802
3738.51
1708.2
1383.17
0.186534
-111.354
3533.24
2322.43
3353.2
1558.96
1451.26
693.296
272.208
1541.07
1632.59
221.26
-423.862
2785.1
1857.47
3952.76
1401.86
110.882
7125.64
1926.3
2312.77
2673.01
5142.47
-577.608
11575.2
1859.34
685.685
6916.92
1413.18
2500.56
1163.63
188.191
3154.87
1131.78
11517.4
431.245
224.622
-102.708
608.176
408.201
2373.23
-349.01
1375.63
18575.2
7518.77
4182.24
511.437
1408.16
1135.22
1124.1
4218.43
1074.52
195.047
2010.07
367.126
297.328
3571.14
4173.77
591.832
2449.07
304.855
2932.92
2126.59
143.909
2143.55
6703.18
12190.9
3746.59
3.19395
2900.72
918.495
3710.44
1892.26
1927.9
-185.675
616.609
3592.44
503.405
1936.12
-109.563
582.369
1297.35
-381.124
4978.1
409.399
1259.44
1572.86
2290.28
2620.97
3163.14
4887.41
836.657
199.444
3398.82
2108.11
4354.24
2342.74
7668.62
3640.64
4593.94
1137.17
418.015
1358.22
5705.64
3578.23
2744.94
1804.43
4257.21
-48.9773
656.584
2197.48
621.204
10219.7
480.572
1030.79
2275.11
1174.55
3310.06
2962.57
4915.38
3751.26
6540.41
3051.59
1189.35
5788.64
2177.18
728.389
1268.58
1271.41
634.969
1431.94
1743.39
570.37
115.047
1129.1
11196
297.451
489.161
515.226
994.63
434.313
406.441
1568.33
910.6
3689.22
441.434
-45.7915
419.638
1724.54
-60.2941
5774.62
920.505
2526.44
4072.38
5125.35
1556.77
1126.78
-2.0484
12277.7
4895.56
575.999
2647.18
676.244
467.749
1997.74
2193.2
9459.21
2041.82
4662.96
4148.17
15369.3
2718.5
3539.25
7169.31
114.611
2294.07
737.317
712.382
505.917
1581.6
1472.44
4246.24
20348.3
1752.22
2648.1
1561.01
514.354
4828.87
7398.69
2834.62
2750.61
112.703
5182.65
2675.2
381.623
1582.24
956.228
386.642
-62.7354
573.956
6606
1042.56
579.789
2752
2653.36
3831.89
1724.64
1386.85
617.516
437.591
13468.9
2043.69
9731.38
1074.72
3055.87
1875.18
1074.36
5217.97
7086.88
2664.88
40737.9
15926.8
6733.01
2034.42
2964.66
1626.97
-350.354
7314.74
1393.98
714.117
8352.14
629.795
625.636
4147.96
724.283
2492.28
90.7142
631.819
4849.42
4232.72
5793.27
1469.28
183.483
1944.72
5374.62
1589.69
904.316
7153.64
4492.31
7023.49
3955.15
677.911
4939.49
11305.5
3956.93
670.527
5580.55
8371.78
5615.82
6450.84
4984.66
131.587
2189.44
347.978
-447.816
1780.57
4620.6
2861.63
1358.69
2472.2
67.0369
2557.26
6194.82
2555.2
-463.738
10424.1
1530.31
142.527
376.322
1635.77
7127.26
2301.97
1668.53
976.606
2336.43
2226.62
2081.01
6767.99
3797.17
4735.64
3664.81
2053.27
533.565
1306.16
2043.17
707.804
579.883
399.59
3248.46
943.532
1250.13
7600.71
9344.88
2243.72
866.336
2379.4
1557.16
1498.94
7199.35
6390.02
4206.47
4457.01
8984.33
580.85
968.067
1037.44
3256.6
969.149
2697.07
988.203
1970.78
3996.87
1060.94
791.09
49.3796
1874
2253.58
1776.59
11260.6
4195.57
10222.9
96.4295
-167.322
777.34
5438.36
4218.27
302.595
875.807
1464.18
-295.122
5953.56
1678.28
-83.3472
9687.05
372.413
2640.15
518.873
1813.42
606.668
2445.44
3125.7
964.865
-400.334
413.795
1289.62
1551.83
246.191
1005.47
2340.77
335.422
2052.23
1626.51
285.271
1621.18
-547.057
8602.22
796.698
-63.9829
781.993
865.368
1803.56
2431.66
441.916
3723.69
2397.17
770.13
603.747
1674.55
1409.76
12002.4
-132.89
5031.6
-609.325
4699.95
-83.8805
2977.1
977.74
11781.8
12832.6
-39.3726
73.9279
307.086
1143.27
1432.29
6062.73
503.12
193.683
1720.88
624.847
5632.62
2642.54
1410.42
10027.1
3182.99
234.661
665.575
1497.4
2907.94
56.2402
8669.17
5411.39
-567.512
1939.93
490.74
6708.7
1162.68
4440.15
2314.7
360.639
729.821
2492.58
253.411
931.696
2401.59
280.241
-135.231
7327.69
5908.44
11565.5
-341.766
14224
1687.58
1528.54
104.036
-30.4078
899.36
597.456
3143.62
3502.48
7192.52
1699.87
1185.05
1827.08
2394.71
92.2364
5207.81
3582.41
2100.6
3702.13
5913.54
4689.17
5110.16
341.476
3905.07
215.723
2737.92
942.484
1557.42
2936.48
1970.36
6264.99
1241.48
5549.42
5099.55
-350.803
607.92
1332.81
11730.2
426.085
3119.27
217.481
1972.67
-15.4277
801.318
2831.32
-203.582
951.023
2043.54
4263.06
4125.34
1001.21
493.726
4480.86
7267
52.3197
3441.03
447.705
474.458
1804.14
252.094
5983.76
1393.08
2173.58
2152.21
1182.65
2987.44
2291.37
1631.4
1289.62
-408.643
912.213
3369.03
2201.98
2545.98
5928.73
767.496
976.246
1979.91
1911.41
356.066
8987.07
756.782
13649.4
82.282
903.97
4329.41
1545.74
2199.65
3893.74
638.806
537.04
12915
17.1401
6409.72
2320.67
1203.89
6836.53
88.0475
461.399
167.878
7562.73
1705.25
1010.09
5856.93
1206.44
340.937
1067.6
849.648
1677.24
1353.58
7476.03
1462.65
535.616
4991.07
6903.19
4150.79
1039.1
4583.27
6886.16
2048.76
1622.12
1199.78
1225.95
563.362
2126.35
1437.36
5631.18
1944.17
508.134
1762.85
498.47
2587.34
1997.9
2069.4
649.715
2743.67
-310.974
1376.78
260.942
65.7868
4805.81
2684.37
3694.82
11601.5
3226.62
1529.34
2593.85
6467.64
130.113
3774.82
4517.66
1597.98
2235.79
70.8536
1463.31
-152.255
1752.79
303.348
14330.3
404.822
13066.7
2362.45
-268.801
507.336
10913.9
904.228
641.362
655.688
1955.27
4588.43
1166.58
5213.53
589.042
1015.25
12824.6
570.282
682.398
994.705
2403.09
202.23
10926.6
-35.8203
8617.04
1490.24
4548.75
1612.46
4734.49
-221.477
1223.58
1155.64
1286.28
3229.02
-305.637
1202.18
1308.68
730.543
2836.91
-326.987
1727.82
1282.17
3741.01
20399.4
323.249
3313.32
1077.69
784.513
6816.54
2984.41
609.151
8773.88
1017.45
1403.19
204.924
10422.7
6251.68
2804.79
416.994
5611.28
221.562
428.166
380.015
172.55
1490.63
8419.82
574.571
7732.01
5622.43
6983.94
3725.62
5423.12
1262.26
4553.78
866.133
-64.4962
3758.79
1338.84
1358.69
1428.35
1703.43
598.509
1478.56
1277.59
2764.55
5783.33
2943.63
-339.276
1128.93
8017.39
1828.53
969.647
956.556
144.203
47.9204
1288.25
2074.39
3637.64
-886.952
2788.67
6243.07
-475.742
6.13558
4312.48
5592.16
-109.37
536.271
1594.48
2047.68
1050.58
4051.74
725.325
1665.06
4547.25
1090.98
4104.41
3758.53
377.047
260.097
457.208
778.29
3377.88
1759.57
596.313
-290.34
2387.45
-63.1442
-881.57
2077.71
3847.67
2465.87
4637.96
1461.27
691.248
5095.02
1597.16
-224.97
1564.16
1617.74
1391.64
4876.17
1001.58
9088.12
1425.9
15955.4
2560.64
2556.74
463.077
1769.94
18520.7
202.712
570.251
1769.94
2447.84
3980.94
2527.8
385.167
834.482
897.406
2444.45
413.601
4441.63
674.427
11211.9
1336.59
-388.156
69.2119
1914.01
845.371
2063.49
16302.4
1849.51
3937.07
1418.85
268.357
4460.23
845.871
1848.6
1193.35
379.554
60.5143
1791.8
-153.76
2347.86
-143.216
1529.08
-164.79
6718.9
-242.963
59.3236
1117.15
1460.05
443.783
498.874
2364.02
1276.75
-144.918
340.476
102.598
6555.96
582.467
-106.519
1210.49
33.7276
7560.32
3010.53
-117.782
3093.03
2892.63
2357.14
-300.444
466.229
725.279
1877.15
1734.91
1870.42
10631.8
730.716
1095.93
-106.725
2510.66
1220.38
96.1247
969.021
10720.3
2215.12
446.245
3078.38
5194.88
742.411
2130.41
1079.58
4194.59
3243.56
68.6062
325.886
3750.97
15945.4
1433.93
3884.74
4431.39
6581.11
1244.31
434.195
6618.51
4383.65
1811.2
337.877
655.627
681.136
19583.5
3962.29
2685.46
6249.22
953.917
1941.16
512.254
2900.22
8248.17
3805.24
4996.74
16.8704
1646.25
211.572
1516.86
12402.8
3869.81
1032.08
54.142
5297.04
600.654
338.31
488.764
-466.161
9558.08
4293.86
322.795
4595.95
-195.94
4614.76
1383.23
2024.06
6830.31
3750.85
2760.23
733.116
1381.32
1076.52
13769.5
3459.97
850.358
3104.28
7.05668
1914.85
3223.42
1448.8
7021.38
7924.3
-325.298
9199.43
4803.46
735.858
825.273
3176.68
2039.39
574.807
2845.87
2185.89
1485.87
762.61
9630.9
482.754
-131.469
1572.37
1234.24
1630.31
865.15
5859.48
1668.06
262.923
3484.85
2999.14
601.687
1491.79
2650.64
651.527
5523.4
1087.1
1604.97
840.947
104.735
600.854
1979.49
3797.27
576.288
973.384
7537.73
1736.07
5361.86
2107.92
636.876
2450.7
2782.56
2241.75
1155.15
355.463
3355.14
192.586
772.473
537.93
968.979
5269.04
99.8076
643.445
194.898
11928.9
-370.629
5134.13
502.326
5357.36
2108.49
3201.89
1679.09
3699.82
137.624
2694.61
6583.22
136.686
778.02
8201.06
1748.7
2642.79
4486.32
1589.73
5454.85
4593.03
317.883
1192.67
233.409
2038.45
1078.28
42.7059
1171.09
1311.12
4267.97
1612.05
3745.63
22253.8
2120.57
818.102
5084.92
2906.97
2734.4
6536.52
6012.86
1043.61
1833.33
1410.27
1311.99
4900.69
1712.15
2205.13
420.729
3557.3
2657.06
1710.89
2156.92
541.823
45.2747
1727.31
2163.02
8064.48
10022.2
3168.63
5737.6
1389.97
1021.38
3373.66
2143.65
94.0562
467.177
-187.017
152.355
690.269
-423.286
2672.71
1289.85
2326.62
1411.61
2418.22
1771.13
6409.09
2770.08
2783.19
3180.8
2767.97
3542.71
1480.82
947.013
906.335
252.417
1099.91
931.334
12457
2510.09
1143.33
4836.09
1523.53
184.875
1930.02
4038.97
559.374
5392.34
1289.32
20.8438
2555.65
1817.93
3301.59
4763.76
2195.32
3999.4
666.019
125.514
1777.61
1337.47
1529.02
4168.41
218.116
531.766
16685.4
2757.29
1247.02
2281.08
3214.86
1931.8
3240.93
2336.27
1028.66
1198.99
2669.49
1930.7
3356.96
768.756
7611.49
787.566
41.7218
3349.66
1380.79
1261.53
2101.31
49.0117
1802.94
49.2398
4696.47
287.635
3129.84
1480.05
-135.164
6005.87
10828.4
-9.87159
492.157
2840.44
640.617
390.722
1431.17
894.456
7239.3
-247.404
10633.5
3027.04
10581.1
1649.98
-95.7433
1484.7
3223.74
369.396
6344.39
1159.71
3597.59
4347.7
207.565
179.435
863.805
736.271
1204.11
619.134
889.878
4144.74
3437.69
1554.89
4600.51
1259.95
909.335
1536.03
1058.7
9861.17
1450.75
3354.06
832.809
2089.74
1139.74
7237.34
5065.5
1302.23
4667.7
996.28
4108.85
5014.9
844.328
-199.761
9981.98
2675.9
1085.25
10768.9
4346.41
5180.54
251.283
2049.27
5881.74
5084.52
3592.36
-31.2608
1407.28
3349.79
923.094
505.638
656.099
-25.2148
8871.47
8755.28
187.713
2550.89
-132.882
1697.53
6128.02
469.422
489.21
3661.56
1225.35
3107.42
3638.85
16373.1
3865.76
1141.7
10201.4
5213.52
10471.1
10056.3
727.107
1731.12
3096.27
3282.08
5559.84
2262.07
1580.27
173.213
5737.36
3050.97
3172.79
1478.53
-45.1
-522.666
-85.0447
5922.73
351.991
-143.49
1394.72
1731.17
2146.09
498.654
545.92
5672.83
4645.94
6358.4
2354.94
815.311
14605.9
4066.88
29.1649
3336.76
-57.0723
3365.63
-93.3017
80.9163
6369.19
1403.22
5251.75
444.11
2364.64
467.259
2751.9
74.0623
4282.04
799.999
46.3981
-196.596
348.576
777.256
8037.18
2848.39
10397.8
598.058
1947.2
374.712
2237.43
1306.42
1787.6
641.818
364.19
44.728
938.501
5948.43
756.565
863.83
2622.95
5369.33
3342.45
3874.52
1974.48
2682.25
11350.4
1662.7
2424.14
-202.719
5610.17
10251.7
1451.76
6301.11
5433.19
266.779
7298.36
2811.1
54.4269
4318.61
930.602
3374.74
1156.52
422.051
2663.88
450.939
6406.74
1964.4
-106.556
2033.77
5616.84
1564.4
3279
12976.7
9831.16
942.167
7376.7
1376.54
1178.4
6304.66
50.2789
644.868
1229.55
1094.5
1281.27
2188.86
2319.03
6151.07
-293.144
3469.01
8346.86
1661.56
118.863
-468.632
3508.92
472.583
283.44
4677.34
9881.73
538.334
1719.25
1813.89
1667.24
1126.54
528.72
4504.6
689.74
1059.28
154.759
2291.08
3964.51
1400.69
88.45
6313.01
5060.49
4892.45
1113.3
3363.5
-319.038
483.755
6258.84
7179.91
543.594
1940.66
1352.2
900.679
4720.71
2960.62
1926.71
1650.17
-291.111
358.921
630.074
2911.8
-55.4791
8136.25
563.41
5418.98
944.482
9174.04
994.163
2118.73
1787.48
5.56513
942.686
1458.93
-116.963
224.005
4879.46
5571.78
-185.13
1170.26
213.475
5394.5
3767.98
4026.46
1972.95
2545.2
609.958
1038.86
5922.29
1046.84
2970.06
423.433
3052.99
1102.88
1092.65
394.496
653.803
1702.52
1400.05
462.803
972.503
464.459
308.581
369.793
5801.9
750.269
4816.12
113.554
3776.55
82.1127
354.117
-611.165
481.346
5715.91
145.683
8415.48
2068.68
4809.97
918.935
209.614
1248.05
-153.473
1560.53
191.792
1176
-152.025
2083.23
12170.4
-173.305
6721.53
718.887
9302.5
1607.59
-452.459
358.061
3753.47
2102.45
568.551
3155.99
1216.28
479.345
2527.95
2321.19
2778
545.412
913.576
439.247
-136.336
589.296
4003.39
2000.33
347.327
7003.77
8337.72
16222.2
1624.91
5512.61
2353.48
49.5137
402.854
-110.436
247.371
1334.86
4713.98
2034.71
5519.22
5512.61
2275.22
1782.54
2136.66
3120.98
476.896
533.514
5069.82
6499.08
4018.19
258.95
6162.59
2477.63
4516.07
-290.82
5571.44
563.238
421.315
1137.66
46.8594
497.654
6800.09
447.474
13223.9
2815.31
347.994
1210
434.179
714.68
132.084
529.163
4495.99
410.531
463.432
4548.34
316.545
-437.067
3988.84
1786.45
450.464
2189.42
5371.79
784.518
2997.17
6019.67
570.81
3709.57
3182.84
2927.54
6862.23
5896.03
2966
5478.83
1644.27
1178.02
3821.53
3104.72
7127.66
355.074
6169.4
3925.97
294.956
510.496
1870.71
2219.71
2064.55
1210.81
1747.67
-73.9531
15300.9
10591.7
2149.6
1392.69
1450.06
800.048
6925.26
6418.48
3641.04
337.087
560.419
1378.22
1908.45
5084.63
542.336
5859.94
3735.58
2555.73
607.441
4228.75
196.464
2100.59
3459.31
1096.19
2418.08
2681.89
908.833
4374.31
12300.1
367.106
1742.37
2339.13
2534.34
3381.05
17445.5
80.0491
1004.38
516.917
841.623
1073.06
1844.66
1659
6417.37
1295.44
4855.02
1783.42
4697.48
2172.17
1546.46
6207.71
904.998
2132.7
2220.24
7791.39
1015.78
1869.13
536.283
2123.36
1421.9
2571.01
3139.44
3497.39
1757.91
2016.35
1687.64
-124.349
3021.63
9262.08
1680.39
694.828
985.328
3046.76
5640.73
399.903
47.1156
1835.42
116.139
182.366
8847.92
1449.78
7504
2755.15
2066.3
-50.5309
1912.33
2563.93
404.152
3593.3
1675.75
773.848
2980.18
5162.66
238.606
1367.72
-550.383
2788.96
359.731
9215.93
3114.5
850.109
18703.1
5921.11
3095.62
5877.48
1005.01
4860.64
13624.6
2945.4
1508.85
324.965
-29.399
5199.69
4777.57
1046.42
1799.26
977.803
570.354
2079.91
978.068
1584.7
12977.1
137.597
3148
857.369
594.731
1834.53
2217.62
-27.5634
3565.05
5490.07
674.833
2372.51
686.103
1698.78
-115.225
624.719
2037.39
962.824
3463
957.219
1552.64
1630.45
-14.6438
495.91
6042.15
1242.66
1142.6
5470.44
2403.62
19314.3
1472.08
1117.68
944.934
1728.17
12972.7
65.1364
490.626
4774.92
2155.65
1410.61
1008.27
3761.48
1049.18
388.373
6524.43
1474.88
42.0227
1869.04
10827.2
4802.15
6969.24
4080.13
1499.22
5664.58
1236.16
1166.62
4784.92
515.925
1233.13
5244.68
1794.1
339.034
4438.47
1382.53
2424.64
729.333
2959.32
188.433
2815.78
2470.28
1393.78
1971.83
1987.23
1009.37
1636.35
1840.42
1728.66
681.133
963.132
638.831
-367.509
2376.24
2529.64
2177.67
715.533
1223.4
865.104
2280.27
155.195
3040.12
3308.49
4542.13
116.4
6856.07
2359.78
3493.36
2133.15
338.019
6532.62
1752.88
2383.05
-111.11
2661.9
1659.92
654.526
293.235
-502.785
621.728
6492.66
146.542
1068.37
1227.47
-210.34
185.387
8593.91
5710.41
-142.642
4139.7
1841.7
2085.27
4884.69
1151.62
885.15
1640.16
263.059
1146.27
2250.62
2490.57
816.073
839.422
766.379
2540.75
683.504
9117.19
3617.29
2530.8
1121.18
1619.39
633.242
3225.88
-294.941
129.078
3280.24
1504.4
773.919
5004.12
32.2512
-35.3727
65.9906
1198.98
-82.7606
2144.78
1400.08
-655.954
720.321
536.289
297.105
4745.28
4939.75
5697.01
1384.05
13027.4
2528.89
4397.24
2382.26
845.567
17.2439
-37.0324
836.955
4262.29
1649.18
12612.7
81.4537
2147.39
758.22
3936.48
5152.42
171.016
4378.35
1356.11
824.944
4713.67
-855.535
-118.752
2091
639.109
638.367
-196.234
873.699
568.713
2052.79
2143.98
372.106
4330.29
937.067
2111.37
15676.5
4040.78
1186.31
540.987
1008.04
284.047
1682.63
11.3968
-107.948
2050.58
-957.422
6230.77
2123.54
-73.3449
12011.6
2766.34
2383.29
955.003
1938.14
2139.88
1106.49
700.068
2685.75
588.128
1388.05
3692.25
517.851
1051.68
1936.15
5446.59
3167.62
2770.46
5356.72
10997.1
10278.1
5682.6
-460.987
3407.68
4291.04
44.5792
-15.2647
2626.56
1849.76
127.342
5872.91
533.945
2129.87
1007.07
10727.2
17376.4
2299.22
1523.37
1259.91
6237.58
1045.15
-70.1481
1053.82
-443.354
3204.34
-287.95
11310.1
4259.56
10350.6
531.741
108.106
13510.5
4081.71
5076
2139.02
2678.88
6263.25
1161.22
1419.52
506.917
861.301
48.7647
525.439
7636.2
4086.78
10699.1
852.989
2793.84
11790
13248.7
13529.3
4666.23
2246.63
2119.3
758.34
702.413
1188.64
-769.568
75.6387
1256.1
11241.3
2554.44
-431.452
1334.74
718.771
2560.46
990.653
7353.02
5255.72
12613.9
12434.1
904.748
2669.09
5707.03
178.183
1048.88
2388.88
2397.02
840.976
694.114
746.932
3790.84
639.128
432.737
3017.39
4403.24
464.164
6983.8
1931.12
-110.025
2944.87
1424.01
2847.68
1806.13
359.751
10164.7
-233.017
204.662
1150.48
119.169
4943.32
1266.01
1877.71
4391.99
9779.5
543.527
58.3936
4272.93
7327.14
118.461
6661.51
4557.45
377.952
160.815
2379.81
5755.87
196.702
503.697
584.555
1328.43
2807.29
1830.7
1990.88
1014.45
204.138
818.843
4338.25
4748.38
233.334
693.296
2234.39
2739.74
4458.53
2053.27
391.023
454.444
3116.11
4768.67
2364.94
1563.12
2641.78
1263.91
586.117
269.37
207.289
904.322
75.3872
1788.41
-57.8165
1805.72
126.219
870.42
335.304
1009.11
1313.42
2081.76
771.687
1533.84
3367.4
680.245
439.083
3867.35
1940.62
7137.7
340.854
3001.17
1513.37
707.006
2933.27
225.405
1638.97
1275.36
2129
2049.93
1430.56
3861.85
474.885
4925.26
1628.63
3146.7
7501.7
1215.86
7014.72
8963.31
213.963
15076.1
1563.16
10412.8
2446.79
2554
5877.21
238.924
7121.85
2000.86
3309.26
600.985
8012.24
3655.79
3220.73
730.441
1109.76
2257.63
2634.55
264.489
1278.76
396.886
2514.85
1478.19
875.728
5540.36
-66.4569
1970.93
1827.86
563.521
4323.09
78.1893
1354.71
1665.33
1666.75
3918.41
2445.51
-126.412
-243.585
11890.1
250.465
4110.52
495.027
349.299
217.879
2480
6096.49
424.899
741.636
1924.54
3677.89
6212.44
38.8549
287.618
1077.78
9346.94
1733.81
3267.66
1082.89
4311.36
1762.12
501.69
1100.19
1773.63
3243.74
4171.42
2616.86
1211.18
1884.68
-95.0623
723.938
-17.709
1506.38
1027.38
290.448
541.278
690.159
2069.95
10489.9
2023.1
269.882
1615.77
229.75
2476.92
12568
14457.7
2350.39
786.971
6192.11
5037.74
1878.76
-197.474
466.295
455.997
1044.79
1155.8
5002.41
2920.53
1342.54
592.391
2563.19
620.005
3807.2
1419.4
4922.97
550.699
1351.93
1078.66
2093.19
412.217
-620.153
691.595
-595.331
896.154
1306.18
270.16
6002.78
4147.1
3396.31
88.4251
-77.5237
4025.96
48.3302
-64.9233
603.343
1133.18
418.831
5965.86
173.867
447.078
860.556
1798.18
9933.04
6559.6
5625.35
1602.18
1692.16
720.506
2374.35
639.484
540.739
4034.28
-79.6246
2104.36
1738.63
2045.51
904.935
1635.82
3004.25
2145.06
5836.84
7213.77
86.196
249.608
1017.74
2366.13
1457.25
3753.47
13235.2
4593.93
941.25
-382.244
5577.05
4225.02
4.29274
10958.9
4179.46
2936.78
-204.595
-713.01
433.868
3815.88
5087.75
1647.49
1098.21
933.86
487.451
2466.71
461.713
1194.9
701.042
5850.88
1248.42
1109.01
3947.74
2290.23
3623.14
8310.1
795.849
970.618
2521.77
1673.31
3310.86
725.497
1267.12
9645.38
1342.95
2762.84
-572.188
4194.99
1712.41
2447.18
3766.59
637.88
6005.59
1205.33
1921.25
202.108
198.517
148.52
8790.05
7479.45
1651.8
211.225
1548.6
2770.61
9950.2
4464.99
13657.4
-186.789
284.06
1017.72
2537.59
2720.86
-111.745
28.5251
1621.33
5246.8
7051
7550.52
42.0073
1554.15
1238.2
8400.05
684.848
4593.37
3903.95
-122.49
5366.2
9566.34
4957.29
4605.32
4639.33
775.204
2533.26
2358.79
1659.13
-432.189
14284.5
551.805
6317.77
4466.36
4955.76
1553.62
-206.628
1353.52
3940.92
9305.6
207.76
4054.03
1396.41
186.294
713.4
318.324
4608.03
1352.34
1393.11
5072.09
832.71
1614.4
1037.57
2504.86
3465.51
338.97
3440.86
1527.28
59.6609
507.009
786.403
4213.62
1661.28
258.659
237.118
3014.84
650.099
274.268
491.086
570.076
9047.77
1828.38
1679.85
8946.89
297.751
1980.4
820.779
2036.61
3693.75
1968.84
2272.57
-368.977
1595.77
301.296
1160.08
6367.32
275.779
6297.22
16190
919.366
11278.1
517.309
2.48575
841.764
472.722
471.441
1055.83
4387.45
6178.67
2309.77
1212.19
6567.77
3442.64
561.846
10384
-971.812
410.11
892.948
6216.35
9720.33
4030.36
23.2183
3893.83
-43.8495
941.32
281.834
2541.09
507.291
2443.7
1055.74
1055.27
2547.72
3158.31
3903.08
595.007
1962.82
3642.14
188.266
-1030.62
673.344
68.9666
3345.94
551.485
1443.73
2863.18
2055.19
3634.48
292.494
1056.83
198.826
593.803
2037.54
3773.58
368.305
213.249
2615.44
5261.2
4693.2
346.647
1411.01
3976.72
8841.54
10121.8
7602.59
6913.62
1690.98
-196.987
8992.21
664.843
412.681
922.45
1882.43
1133.14
2941.94
713.48
8389.96
840.954
516.011
7414.37
3150.69
3365.27
9679.91
1538.41
2197.15
1081.12
483.24
2389.69
980.126
6456.49
1759.83
2965.98
2867.69
423.891
11888
1253.01
1573.1
1206.4
11964.4
1330.7
1940.35
3831.12
6502.84
1987.11
5407.06
989.04
3179.79
-543.599
-129.433
8.20493
540.127
1554.02
1.70028
198.006
1605.36
3478.79
1811.4
1210.01
1192.25
4165.87
1200.39
3929.05
2336.21
2232.24
1299.3
1020.09
-109.266
1779.92
2421.07
1438.23
2527.3
1684.18
6717.11
2038.28
514.277
517.094
2710.88
-79.1522
196.805
3853.48
3002.32
145.338
2719.61
-84.5347
1860.98
2285.83
13651.3
449.612
3920.47
1659.22
3199.16
4323.6
4593.55
243.037
1305.12
-209.495
54.0187
324.621
11102.5
7582.79
2234.72
1309.84
10136.4
30.229
