-66264.1
-10833.3
-90118.8
-28564.9
580859.0
-221023.0
65058.7
411051.0
-1963.76
-27904.0
57604.6
29228.4
-140298.0
276800.0
-614743.0
189999.0
171106.0
-110176.0
-177262.0
-124896.0
103359.0
219553.0
-137724.0
-36743.9
-35122.0
-389474.0
58191.5
53752.9
121973.0
3001.87
152194.0
73493.4
669001.0
-23917.8
-875331.0
36991.4
515882.0
-150628.0
-565209.0
-45364.3
284620.0
-473893.0
35689.1
-101787.0
-4701.42
1201080.0
-96176.2
-24735.9
322448.0
446441.0
-192908.0
-11992.0
124697.0
-116087.0
-291719.0
58499.1
203268.0
-57942.7
-378863.0
166352.0
-25960.2
258747.0
-27467.6
-77625.5
-65708.9
-90350.0
-57541.9
-374274.0
-301093.0
589238.0
29190.8
-86391.5
-41724.8
-227717.0
-62727.2
-6204.3
407912.0
173061.0
-313406.0
-102906.0
72223.4
230842.0
226383.0
-100049.0
58162.2
-6676.68
-7437.87
150292.0
-183656.0
-226896.0
384014.0
23910.1
-196.595
41122.5
-46234.5
44735.4
1513.84
31866.7
-138048.0
819221.0
220065.0
53561.0
99472.3
-508268.0
-491035.0
-100925.0
85320.4
-42313.1
-239104.0
116441.0
-41722.3
152590.0
-58043.4
-12699.2
-10356.4
-29206.5
12539.7
6635.13
18958.4
-14035.4
1527.56
281140.0
437123.0
276972.0
-16552.8
-1187650.0
-303867.0
111176.0
-10709.7
-85521.3
104860.0
115622.0
968929.0
381623.0
286744.0
24567.6
33340.9
-151144.0
-381840.0
-238620.0
-91070.8
437341.0
26766.3
246903.0
-752666.0
112157.0
-153485.0
11570.8
-105787.0
-179879.0
1806.02
-29950.4
259654.0
-77213.6
-105838.0
40246.2
10775.1
-23625.3
-47864.6
-92500.4
-570526.0
-62193.0
-159104.0
95218.6
-63313.9
164866.0
-231929.0
-11017.9
25392.2
-164123.0
13394.5
400864.0
-46057.1
-64362.2
-175023.0
-43281.6
-127400.0
-301159.0
-10962.5
107820.0
-126448.0
12686.3
-36623.8
-31946.4
-93555.4
-42778.3
16927.0
158903.0
-226571.0
127972.0
-582472.0
-28568.7
641780.0
-50914.0
27557.4
27415.6
-21020.2
22673.5
-63713.7
69434.4
48995.6
200961.0
-32148.2
165726.0
-271104.0
25910.2
-172052.0
416421.0
214573.0
-8434.03
-164543.0
-3150.06
60622.3
-112312.0
76911.4
265204.0
93393.0
-342666.0
-168037.0
-142623.0
-120546.0
-11157.3
-15759.6
-151543.0
-317668.0
-36208.6
219212.0
-41918.0
-262734.0
-401314.0
12526.1
66648.6
-581190.0
-10831.8
-109997.0
16079.6
528710.0
99826.5
101064.0
-378325.0
-102603.0
225032.0
7263.99
63854.7
7829.87
-449886.0
-16974.3
125359.0
85610.8
-40811.1
252296.0
555419.0
-7593.78
486560.0
-232208.0
319262.0
62572.6
-212229.0
-47954.5
483189.0
-539958.0
738.701
-64753.7
19967.9
72639.7
-1396.78
74272.0
48224.5
90588.6
551690.0
-282955.0
-2336780.0
374518.0
-33024.2
27688.8
45376.8
47342.8
-292887.0
-797565.0
77065.3
25246.6
-99540.8
62959.3
76660.5
-26346.3
38124.7
137159.0
-866.734
290861.0
-42626.0
212905.0
-78191.2
1340.21
-65955.5
-181680.0
252985.0
61364.6
35146.1
-75814.8
127247.0
234720.0
-32126.0
-231070.0
80838.7
-166290.0
-62600.7
-13078.7
60427.9
91021.5
-58599.7
14001.0
199757.0
114359.0
836956.0
-24331.0
-57748.6
-17893.0
-129532.0
168949.0
-93976.8
26459.6
357376.0
438822.0
38850.2
41020.0
153971.0
-341277.0
-387750.0
928120.0
67685.3
178315.0
-952200.0
-25658.8
37330.3
-84449.5
-94919.1
272977.0
-44437.7
403745.0
-53304.1
41223.4
130.601
85172.7
212529.0
-180439.0
158119.0
1572.4
114563.0
-92034.0
168847.0
343528.0
56831.0
-63032.2
62520.3
-56068.2
-21682.0
-295451.0
-345326.0
-68210.4
8611.42
101424.0
-441480.0
42544.9
2198.08
188335.0
-47390.1
-276588.0
-33333.6
84549.8
-23086.5
-522892.0
66316.0
-143205.0
219876.0
-15830.6
-174796.0
148796.0
839993.0
45243.6
-50247.8
-107726.0
-101871.0
75706.6
94100.8
136739.0
105368.0
-27097.0
19252.7
29649.0
-14902.5
86820.8
-153237.0
-4019.11
-133165.0
-527495.0
-710439.0
-61557.9
-72835.9
-96584.2
44379.0
-161414.0
-211737.0
-522087.0
-32411.6
-645927.0
491522.0
-108142.0
-6547.28
36959.0
-164093.0
-62413.4
280561.0
-60025.9
24783.0
-197007.0
160832.0
-137480.0
-3546.8
22858.4
72443.0
867.229
-171263.0
687208.0
276317.0
-450815.0
290881.0
79614.8
270350.0
70459.4
333790.0
165244.0
-168574.0
-13050.5
305987.0
-242800.0
183739.0
-215436.0
67615.9
-608412.0
301684.0
309831.0
464058.0
-74898.7
-143371.0
-230.536
468059.0
56442.4
20560.7
-319900.0
-33615.7
-632176.0
30265.0
-36685.4
-397150.0
378627.0
-2633.53
164094.0
62359.9
649416.0
25745.8
11818.9
-224475.0
20656.2
-152982.0
58675.1
70710.7
-60181.1
-339030.0
-192863.0
-227535.0
-8452.3
-10538.1
-5935.36
788016.0
-1195420.0
-344996.0
174685.0
29874.1
71240.9
53910.7
22820.9
-391148.0
-180440.0
-35744.0
-106579.0
-471498.0
9971.16
-102392.0
-829216.0
19199.6
158993.0
-52005.5
66994.1
-25636.8
-126149.0
-33878.4
-155243.0
-227111.0
-23257.3
-28916.4
-82947.6
5168.89
-307543.0
107222.0
27316.4
40256.1
110215.0
-440310.0
-181547.0
-142430.0
-299998.0
-524518.0
28453.8
-128547.0
40056.6
380888.0
-135061.0
25490.6
-66316.4
-140646.0
-142359.0
110052.0
125789.0
169896.0
-6938.03
26993.0
-286247.0
496421.0
30527.2
18534.7
-164439.0
13930.5
-9755.34
704674.0
-190182.0
-1008580.0
-358120.0
422582.0
34228.0
-6198.95
-207450.0
-278948.0
-356805.0
49488.3
-195847.0
199910.0
78288.4
-134490.0
-1270380.0
6795.98
-3323.01
100148.0
911906.0
-219798.0
364372.0
52262.6
241512.0
344421.0
77727.6
-10374.3
288569.0
252149.0
81852.3
-85020.7
381800.0
90803.1
89041.1
-68616.2
-41034.6
-225392.0
-157579.0
-305785.0
156698.0
-448186.0
-1052120.0
69388.2
371614.0
-113499.0
-426484.0
95151.5
6328.48
101324.0
-21490.9
90308.3
-161962.0
31374.7
-3763.05
14589.0
415462.0
112768.0
103810.0
-184450.0
-203950.0
-145270.0
366009.0
-50849.5
24154.2
-145632.0
15410.4
98249.2
85262.9
-358168.0
-605918.0
175328.0
269036.0
98423.0
314555.0
24987.5
-361674.0
304396.0
-26419.7
-110660.0
-41300.1
-304859.0
-156776.0
-564147.0
-8279.59
73737.8
44653.8
-44745.3
17230.3
113403.0
47260.5
-272999.0
-530246.0
464605.0
-75752.5
-33618.1
-55713.7
100798.0
309691.0
-25842.5
-53515.9
136551.0
108361.0
-91219.2
137109.0
13917.2
5972.43
-4885.55
108865.0
19195.4
348010.0
-144766.0
-77400.5
-98439.4
-19808.9
-70092.6
226809.0
95688.5
168354.0
-135858.0
-59066.9
-168258.0
252039.0
47636.7
60372.4
354331.0
-41967.3
98788.5
214498.0
861715.0
328723.0
30196.0
-86976.1
59087.0
-258919.0
-107763.0
-111400.0
143248.0
98390.5
-24319.6
96670.7
-98336.2
86802.3
642558.0
65160.3
545154.0
501605.0
13754.5
-41138.4
-23998.2
-43923.1
36745.2
400710.0
-648534.0
-71474.4
-2278.54
27571.9
-441891.0
327727.0
27922.2
-450117.0
-918762.0
6515.31
-141134.0
17049.9
104414.0
-180792.0
-123674.0
-123845.0
-83049.8
240876.0
-86182.4
81257.5
-319503.0
-112385.0
106267.0
220479.0
-43998.5
-8670.17
179092.0
-17680.4
-169246.0
112245.0
47255.7
-19209.4
737.527
585134.0
270843.0
79692.1
38375.8
-89968.8
-32455.0
-109243.0
-74574.2
-194302.0
64542.1
-373131.0
56822.8
35590.6
183762.0
28457.8
-66516.1
-50594.3
44781.4
-274.405
-40314.6
-32882.5
-109547.0
-669132.0
46227.9
101620.0
81247.0
64839.8
-145825.0
934095.0
227398.0
-27728.9
-391747.0
229775.0
70934.8
-100639.0
-137546.0
70836.2
-38779.0
42837.4
134760.0
5388.21
7528.33
-134796.0
-191983.0
51419.3
-6637.74
44997.9
-192624.0
18337.3
140348.0
1200410.0
155580.0
24688.3
-14494.4
205853.0
455473.0
-130001.0
41131.8
372136.0
-33775.1
10810.7
76596.4
-327166.0
-118751.0
30577.0
-69286.5
9884.58
-163076.0
-72878.3
-97946.6
726742.0
-11706.2
18204.0
68919.9
150233.0
-25859.2
-434536.0
37192.5
4003.93
135923.0
-184410.0
-1295.58
-215076.0
-22376.8
104940.0
124373.0
171437.0
175661.0
-81029.1
272527.0
-823734.0
-20805.1
289694.0
-162200.0
550791.0
-67235.8
174825.0
63563.4
550464.0
-117107.0
-789224.0
46709.1
74348.6
-6777.83
279710.0
22199.1
-182488.0
-67912.8
8113.54
288230.0
-815625.0
403402.0
166112.0
-21091.2
-21613.6
77741.9
-4657.86
14217.9
-12886.1
-77799.4
-648462.0
36035.4
-260187.0
224022.0
18291.7
67480.1
-214209.0
-43373.4
886728.0
-551228.0
334554.0
119586.0
339663.0
68681.9
-44834.9
-13977.2
-108813.0
-138009.0
151501.0
-162553.0
576479.0
146761.0
31006.0
-181488.0
582699.0
52737.4
731461.0
3969.64
-8322.55
-136947.0
-55569.6
281367.0
-10077.1
-216963.0
40119.0
187081.0
101468.0
-182984.0
184764.0
-219825.0
-49918.1
-123303.0
-67101.3
-1120440.0
250856.0
495352.0
102413.0
-115175.0
104795.0
-31793.2
-98649.9
-92126.4
-195684.0
432052.0
-82479.3
-200828.0
547847.0
125629.0
-306536.0
151863.0
101672.0
-255953.0
36136.0
-45340.1
-64561.3
77453.7
32132.7
72881.2
184949.0
-87189.5
-216139.0
-223142.0
79063.0
259075.0
179984.0
154429.0
-116031.0
37143.7
144239.0
8614.83
-14398.7
-127892.0
-832337.0
301559.0
-156847.0
15668.1
-141910.0
26032.9
68346.3
276413.0
146746.0
-126943.0
27771.6
-88211.8
-85695.5
291048.0
-198.325
23434.8
-224968.0
28878.7
137752.0
167231.0
-375726.0
-12455.1
-577293.0
-34864.6
156517.0
64593.0
-114007.0
13989.8
65685.9
-30001.1
262447.0
120574.0
443662.0
228268.0
41762.5
7998.02
-132410.0
87304.9
-56961.4
-1917.24
24521.5
-2287.33
207295.0
-131788.0
156691.0
352243.0
17108.4
-30230.9
-987982.0
-73327.3
-820799.0
-77789.0
107511.0
167962.0
-99317.1
26307.7
167045.0
63418.1
-2297.17
26882.5
834503.0
-233535.0
31882.2
232353.0
29037.2
12735.5
-453251.0
4760.27
-64385.4
-115260.0
-484465.0
353943.0
-29255.5
22483.9
-203478.0
-267085.0
-261487.0
-409355.0
-68137.6
3027.41
-55352.5
148355.0
33242.8
29118.1
172778.0
349110.0
-117353.0
-70411.8
24955.5
42238.6
293066.0
734445.0
-15743.5
485089.0
-97813.7
-339004.0
-34668.4
-738416.0
-45772.3
36612.6
130203.0
-282475.0
125037.0
-203458.0
-121969.0
-533998.0
30257.5
-57039.2
126084.0
1053.28
-71283.9
38946.2
-145750.0
94695.3
31639.9
-188197.0
-110960.0
-246980.0
34114.0
41667.8
68584.9
-222567.0
-215631.0
263875.0
102141.0
-94021.3
63731.7
262606.0
-71597.6
89595.2
121532.0
30601.2
267822.0
5564.7
-67030.3
-62481.9
-8553.83
421630.0
1834.1
135006.0
-160422.0
-125497.0
80739.8
-361206.0
-69129.3
-131489.0
144373.0
-450677.0
12052.2
-144490.0
75669.3
-53703.6
23411.9
56512.9
198828.0
284407.0
284590.0
-166889.0
-377167.0
7470.32
-1550.03
-145255.0
-85096.8
74902.8
-95909.8
54948.0
-105185.0
8517.13
-326991.0
-351912.0
-128981.0
60760.0
-54167.0
81933.0
-115813.0
-22458.7
61830.8
146701.0
195335.0
-271986.0
228215.0
-119912.0
-238765.0
-163150.0
-278452.0
366335.0
-392283.0
63907.0
414415.0
-133644.0
-8084.6
35388.5
-220511.0
423659.0
-86097.7
-102778.0
-58892.8
-448901.0
-4448.88
-55245.9
-15857.8
21427.4
-45996.5
-62738.0
114976.0
-30828.0
44749.0
-95368.5
33861.4
592826.0
25502.2
-261202.0
107525.0
-333191.0
-16336.8
82711.7
-55271.8
8420.25
59068.6
14017.4
116963.0
-100551.0
-340327.0
-734829.0
54403.3
-47653.4
-157207.0
169299.0
60092.1
-85503.0
25599.5
-233873.0
-137595.0
-331713.0
211826.0
-100512.0
5026.65
-59382.1
331970.0
35014.0
-40402.8
257714.0
-200483.0
-124567.0
613872.0
193499.0
-45291.8
84106.5
-135222.0
-59646.8
22846.1
-65110.4
-82585.6
-139027.0
48932.1
56164.9
43126.0
235124.0
116946.0
-65378.9
471591.0
-32127.0
-82311.7
-101312.0
6181.28
288533.0
-32907.6
82503.3
414656.0
68139.6
-61321.4
-40201.0
142394.0
-16874.9
-197781.0
11846.8
-154478.0
369135.0
263666.0
-1965.07
-19478.2
45694.9
3495.67
2131.59
258587.0
27532.2
-120864.0
121482.0
4103.51
-62389.7
-67828.8
857.15
93675.7
107339.0
92638.3
297174.0
-75972.4
290824.0
-64200.7
-17070.2
-741251.0
-100909.0
28391.7
-162437.0
-149168.0
-49459.5
19235.7
99682.7
182744.0
285881.0
-104648.0
40553.1
232953.0
95271.3
-357445.0
433009.0
388.155
150397.0
325173.0
-45449.2
114089.0
549188.0
150143.0
15291.8
-33068.5
-37879.7
-33417.4
195090.0
-10701.5
-147535.0
9554.21
141267.0
51614.9
1551.57
87758.2
-84469.9
901296.0
466414.0
364634.0
8133.56
-465130.0
-122530.0
101673.0
-62312.6
-43515.4
113868.0
536593.0
-47418.0
-397147.0
120331.0
-336340.0
-151445.0
-100681.0
-65059.0
-32701.4
-178422.0
-107266.0
-66565.2
-6534.36
-426786.0
-195447.0
-74953.0
-322843.0
-129731.0
-304385.0
48065.2
423888.0
-201084.0
50082.1
34906.9
62363.7
151804.0
172454.0
-200865.0
27738.0
-99581.0
94555.0
21987.6
-10394.0
94184.2
247822.0
-35925.7
-83768.4
54628.5
36660.0
-12615.6
-32904.0
-134519.0
-335485.0
43817.4
574986.0
174710.0
-435379.0
-29834.0
-152338.0
-43250.3
21037.3
29010.2
-26590.9
-76390.9
-219126.0
62450.5
141443.0
95879.7
131844.0
-146346.0
-252996.0
-1676050.0
-2227280.0
-114616.0
184377.0
84499.2
106721.0
712876.0
128624.0
90054.3
172576.0
162329.0
271689.0
-893521.0
610929.0
55429.8
123863.0
-13791.7
227238.0
-421583.0
-38507.5
275909.0
-91851.4
-1415.98
-235259.0
174738.0
179402.0
-97478.3
88112.1
168661.0
-120842.0
-477649.0
613303.0
4568.57
32874.6
-66435.2
-96306.7
-56170.4
-200214.0
194298.0
-256187.0
77317.2
34424.7
764904.0
164459.0
-306796.0
219044.0
189031.0
-210854.0
-58268.2
-207356.0
-15305.7
-33656.7
-254857.0
61780.2
638714.0
-3551.91
174096.0
-11697.8
-1110480.0
-14975.0
9133.74
101545.0
261381.0
293242.0
1932390.0
281241.0
152949.0
23549.8
-249419.0
36370.6
111589.0
59322.8
304825.0
220515.0
-54520.1
142575.0
356148.0
36905.4
18168.0
-367394.0
-230854.0
168400.0
-43414.1
-291172.0
125451.0
-123839.0
398153.0
-9279.89
71948.1
-22352.9
58421.5
-93623.5
-267602.0
158829.0
-285494.0
-15752.9
33078.1
-2075.71
-135958.0
-81721.7
-133889.0
448097.0
-105906.0
248392.0
180882.0
164600.0
610770.0
-8670.94
-24755.7
-6008.43
-75609.1
178480.0
159743.0
-152116.0
-23041.5
97188.7
60195.4
-130839.0
-140036.0
-823040.0
22867.8
58016.1
115323.0
2070.14
16600.2
-148862.0
275165.0
-90999.4
450438.0
793090.0
286355.0
-42382.0
-7965.0
-50941.0
-15375.3
703869.0
35989.4
61706.9
270106.0
78090.0
-1195960.0
-17936.8
43295.3
-103735.0
-11484.2
-10352.6
135460.0
185153.0
-290191.0
74798.4
-455076.0
81618.2
-4957.53
204147.0
17197.2
60277.0
34477.1
31561.2
270801.0
82044.2
79806.9
183446.0
287633.0
-190721.0
-250462.0
-102223.0
104564.0
-36983.7
421460.0
-249176.0
49168.8
-49634.4
27817.5
158810.0
326755.0
88309.9
283110.0
213452.0
41163.3
30185.8
-71103.8
-78756.5
186810.0
-3415.9
32200.1
5182.04
-232663.0
-20421.8
25689.7
-217963.0
59727.0
138842.0
65869.5
-319018.0
124236.0
20194.9
13965.6
32163.0
-594011.0
-125176.0
-125812.0
68877.3
133491.0
233608.0
4285.74
29723.4
61936.5
92414.0
-36077.7
-9397.54
129738.0
-86306.1
71596.1
-1770.7
-182584.0
-350122.0
-161400.0
-305490.0
-249863.0
140769.0
251003.0
-216136.0
97685.4
-115693.0
-38320.9
-170899.0
3038.76
-9967.75
-131279.0
157226.0
44580.2
-29235.7
-4073.77
241165.0
-70441.7
16100.3
251207.0
-245406.0
141461.0
-40168.0
329961.0
75337.6
49964.0
161125.0
-13136.8
107995.0
3609.23
-315839.0
33577.8
-178047.0
-34173.8
81850.7
-8657.33
-90435.9
41344.6
-114122.0
457939.0
82454.4
75064.2
-204496.0
488119.0
154335.0
-33950.7
-119.346
-48044.0
-87593.1
-482267.0
-171741.0
-440429.0
-88217.3
56149.4
-272914.0
-159259.0
-125839.0
32731.8
920626.0
-29873.5
-7124.23
-63442.3
114835.0
69004.5
-315497.0
6476.29
257018.0
-267332.0
75045.3
-12011.9
25035.1
793297.0
3595.92
-35314.7
39248.8
-147266.0
-48182.1
114723.0
-31775.7
-30718.9
422198.0
67595.0
-126139.0
809722.0
-356498.0
-76092.1
3041.61
-3840.47
105898.0
88819.7
-183418.0
-261735.0
-66505.1
7661.29
58460.1
-302050.0
-5721.22
76735.2
253363.0
413292.0
56700.0
-134202.0
-37670.5
-331738.0
-171204.0
-188573.0
209552.0
-55835.6
137895.0
-614220.0
490063.0
-149360.0
91968.6
-352759.0
-97857.7
18964.1
352476.0
34867.3
60563.2
-76986.4
-264138.0
130070.0
525526.0
305403.0
222072.0
-34054.0
590451.0
81258.9
-96430.9
-53572.0
-152343.0
-125795.0
47986.3
-46402.4
89346.2
97321.4
-248792.0
256548.0
456777.0
-53967.7
29628.7
-58352.0
-38191.2
-36083.3
22223.0
-81954.2
-23375.9
78269.4
235406.0
-962.592
123065.0
-56581.8
-171052.0
-56920.6
-516547.0
-70002.8
-315845.0
-276230.0
79266.5
157524.0
24466.4
-329149.0
115870.0
13125.9
1247500.0
734081.0
-22117.1
297659.0
-47146.6
-313335.0
-97050.9
-446949.0
-204353.0
206366.0
-188836.0
51066.0
-331343.0
1817.51
-331869.0
-50060.9
184479.0
-19966.7
54781.6
109558.0
-25086.2
40982.9
752.494
-49244.6
22710.9
124810.0
-23014.1
11901.6
13826.9
499950.0
613607.0
129017.0
-377471.0
35301.7
-36710.4
7410.72
-31408.2
-89114.6
-17076.7
-129424.0
1081.0
43231.6
257115.0
303027.0
-31298.0
136917.0
-15417.2
-95554.1
295228.0
77997.7
61564.0
-34753.0
136370.0
132813.0
-181250.0
9383.25
-439453.0
-59073.0
-224300.0
222366.0
53907.9
573686.0
29234.7
117176.0
-87380.8
-287151.0
-173709.0
262411.0
-90456.0
831495.0
48144.2
150115.0
37794.1
203431.0
-257806.0
209322.0
2128270.0
220952.0
-44588.3
15966.9
-59615.2
108876.0
-7203.91
-81912.9
21791.7
-58960.0
18654.3
267514.0
-68410.0
-87253.9
-59220.5
675957.0
29143.4
22658.1
-106104.0
6252.64
141015.0
-468509.0
-97572.4
-22238.2
156917.0
-199146.0
43904.7
-16045.2
130077.0
250759.0
95743.2
-81998.2
93429.7
427805.0
233227.0
90834.2
145950.0
-162877.0
695111.0
81941.7
237133.0
145027.0
-246556.0
64071.2
232740.0
73389.4
22887.2
-37021.3
-395632.0
-328506.0
35580.4
74411.2
-18329.6
8787.27
-85907.8
9599.61
-172117.0
42660.2
-264460.0
77229.4
-5760.94
-51100.3
-694540.0
-282276.0
80436.7
-21918.1
1521.16
-62970.9
-154823.0
-21903.1
-178844.0
-874905.0
35451.1
-111459.0
-804400.0
-84760.9
-196611.0
541562.0
-245342.0
-88152.0
-61439.2
-15676.8
21710.4
-48072.0
-253862.0
-269449.0
221787.0
-86945.7
326698.0
320647.0
-99408.2
7260.7
-38757.4
245444.0
-38732.8
-159533.0
59663.0
-111462.0
207844.0
31595.1
71788.8
-431773.0
59063.0
-19683.5
-171297.0
-285516.0
-53949.5
164911.0
231904.0
-113984.0
-133199.0
30959.1
381320.0
10907.0
-117879.0
255071.0
376057.0
-71549.4
-44430.8
-1713100.0
-263259.0
15886.9
194583.0
-47549.2
25493.2
10219.1
-55466.6
-380028.0
92643.2
10888.8
170823.0
10977.1
-145181.0
-59455.2
-42453.3
-166061.0
7553.13
157785.0
-314361.0
-358554.0
-17807.1
-24419.3
-919029.0
-150521.0
-63398.5
85707.8
-37999.8
371793.0
123793.0
-22320.8
30396.1
-23643.1
1158000.0
11129.8
-383346.0
-33086.2
-169241.0
62948.4
207139.0
-105395.0
15500.2
208617.0
-307308.0
-1614.16
-180973.0
-31143.3
-85144.7
-276682.0
351588.0
-263793.0
-123032.0
174630.0
-161714.0
8222.95
10915.9
31257.8
10727.5
77619.2
71966.9
-10382.0
-2299.97
-56746.0
-79176.6
51318.2
113433.0
-24482.7
187687.0
-523196.0
19784.9
109564.0
-20776.3
42542.8
66135.3
6692.67
-149271.0
300031.0
89510.3
-400437.0
-58511.1
-36042.8
-37980.1
-169938.0
-453176.0
-189590.0
-70595.3
-30845.1
-200817.0
54830.2
133955.0
436597.0
-16198.0
126106.0
-217472.0
-97314.0
785936.0
105150.0
194877.0
107704.0
-388235.0
616944.0
173057.0
675826.0
100904.0
-14238.5
125382.0
8372.63
202740.0
676982.0
-1239.71
-708336.0
304992.0
-227571.0
-42468.2
-26341.2
73644.5
-27258.1
69676.5
-93703.3
4005.76
-71350.5
143037.0
10112.0
356612.0
-82554.1
-144221.0
-61890.0
-40107.6
-57709.8
125436.0
-754976.0
67535.4
190739.0
36366.7
-68653.8
-139186.0
17626.2
136545.0
-232479.0
-413323.0
87735.4
-111151.0
-139530.0
-76749.4
70270.7
140350.0
1376960.0
-24404.1
114096.0
-22979.7
16835.1
-64390.9
183617.0
-210368.0
-49006.8
-45777.0
-127145.0
96245.6
-16555.8
-25019.9
335081.0
8454.4
131747.0
56678.0
-7549.22
13366.0
-255520.0
89898.7
-142328.0
-57172.7
290515.0
188655.0
-48132.7
-123243.0
-141235.0
-29354.4
-144895.0
-292480.0
-30306.5
80875.8
-318169.0
213843.0
-45165.2
24412.6
127311.0
-144493.0
-308228.0
-38737.3
-1287580.0
215060.0
-311320.0
-118959.0
592249.0
-35446.2
-20210.8
106838.0
-28859.4
-495104.0
-73173.7
208146.0
-69310.2
44128.4
269495.0
9857.67
232989.0
-233860.0
-63696.0
-301906.0
-495606.0
326146.0
224236.0
37324.6
-163417.0
22321.5
-805581.0
-48774.4
21342.4
48673.6
-36711.8
-57278.7
49015.3
331889.0
-425995.0
-80830.4
-125971.0
219889.0
-24703.9
246216.0
17303.6
-44426.7
-114742.0
-564521.0
-29860.2
-277460.0
-360405.0
147018.0
23082.3
-120083.0
-114058.0
-39445.1
-62349.5
-163938.0
-39433.4
-397330.0
603474.0
-58741.9
19227.3
-195078.0
-488145.0
-560712.0
-49411.9
125044.0
-196855.0
-262141.0
23491.2
-385497.0
-63812.3
-18977.6
-61384.7
147786.0
232551.0
38408.4
101160.0
172062.0
-89209.7
-518139.0
170431.0
117488.0
-32373.6
-10392.9
220031.0
-62821.9
-119147.0
-626356.0
29981.0
-7572.07
-71590.9
9904.58
-352898.0
221007.0
175772.0
-160643.0
644637.0
76024.4
-55002.9
-83132.2
-22265.4
-200716.0
-358675.0
188449.0
-27107.8
10137.6
-168260.0
933589.0
92802.1
-172478.0
-38846.0
243612.0
358807.0
70077.9
145516.0
68755.6
-187575.0
83985.3
-10367.2
103753.0
421762.0
-98226.2
-46622.4
94601.3
342313.0
-6828.29
-16301.0
-82184.2
-16719.6
-248606.0
105608.0
-238322.0
-84259.5
-152536.0
-343175.0
3868.45
-88201.7
-686821.0
-12469.1
385096.0
-32597.2
-52754.4
97522.0
-210215.0
518626.0
-7261.32
-111412.0
-159545.0
134793.0
-335125.0
88218.9
55582.6
17867.5
34568.2
47892.2
14025.9
-28958.4
-3282.13
58528.3
178004.0
-24028.4
-517674.0
-865264.0
238733.0
99062.0
-148805.0
61144.0
-70848.2
97546.7
26844.4
-206144.0
-259685.0
-683027.0
-10541.4
-151933.0
-102417.0
-233425.0
134682.0
-198187.0
631928.0
38325.4
-81469.5
575469.0
8014.21
98090.0
-275557.0
-26275.9
-386780.0
-19940.1
-53287.9
7774.11
-12840.8
119227.0
-432677.0
-22400.1
-52916.1
-350148.0
-741566.0
43676.0
235110.0
53393.7
-49660.7
1887.7
-104114.0
-276164.0
156663.0
-205006.0
144541.0
-9753.59
-20086.5
145117.0
-36958.8
66764.8
95095.5
253417.0
193879.0
-496036.0
150802.0
-44641.8
-11211.7
-248072.0
292112.0
-49.2628
-53348.2
-149224.0
-66644.6
426340.0
-22616.8
-191639.0
-314264.0
-69967.1
66406.3
-79930.1
125390.0
14199.0
-123771.0
-58383.5
-18713.1
137272.0
317488.0
-125343.0
70534.1
-102988.0
-2543.48
-46209.3
-49768.1
-5943.3
-31594.2
19969.5
15761.5
215789.0
7597.69
99403.2
33641.4
39233.9
-340153.0
-236757.0
218491.0
156017.0
240276.0
47434.2
227995.0
-251895.0
-450704.0
-408458.0
-26823.3
1422970.0
15688.4
31972.2
-22483.1
-71765.6
26666.4
-69376.6
-111498.0
-49671.1
51305.2
180594.0
-145150.0
-18621.6
-114828.0
188679.0
269163.0
-12244.0
187375.0
-493702.0
-6390.07
-348410.0
-167902.0
-62247.9
-680170.0
-138088.0
355117.0
105393.0
192541.0
-369922.0
19055.0
-10409.9
20325.3
80441.3
9288.57
21547.2
104644.0
-347386.0
-553814.0
-69098.0
-229664.0
-304603.0
-154640.0
15266.4
336696.0
297549.0
60786.0
20658.6
-374827.0
303551.0
-182100.0
114074.0
184677.0
44815.5
-176715.0
-417250.0
66366.3
931154.0
16160.8
189793.0
115080.0
-288810.0
266599.0
171802.0
245887.0
-165418.0
30827.2
14560.9
215106.0
-225500.0
25641.6
378895.0
26335.5
-172192.0
142931.0
-99038.0
-438492.0
43583.0
6173.44
-6811.34
-675220.0
-77471.6
-48456.0
-161263.0
-49042.1
130389.0
107983.0
119002.0
332721.0
16369.3
-140052.0
135038.0
608051.0
71325.5
538907.0
-69273.8
93755.1
106488.0
100112.0
-202027.0
168076.0
-893368.0
357635.0
-12522.5
136188.0
368219.0
-186896.0
-472125.0
224047.0
143296.0
132714.0
81584.8
27113.9
627.67
-338985.0
126711.0
-5510.69
95421.6
32782.7
55845.2
-196866.0
-5025.0
141468.0
-96071.0
643.047
-62650.9
142838.0
-24480.6
23065.5
-9718.88
89102.3
131594.0
-236837.0
126061.0
-267902.0
-50039.7
-168859.0
345247.0
74985.4
-73518.3
131525.0
-614907.0
82511.1
-51623.6
-670099.0
-142578.0
-163198.0
323821.0
-411254.0
4102.67
-57168.0
-121304.0
-176967.0
-1043670.0
241846.0
8663.16
106223.0
59843.2
246763.0
43327.2
-706.55
86625.3
160817.0
-264044.0
75890.6
205974.0
-263359.0
257159.0
-185654.0
-78318.9
-43603.3
234314.0
13401.1
-19728.0
43458.2
-401989.0
-104511.0
-6650.62
34555.9
-136069.0
10152.7
-36260.1
-106485.0
-72108.0
44988.7
-170897.0
-35017.5
64677.7
-78876.4
-206797.0
89882.0
812.019
38151.2
74289.7
11421.7
-134833.0
449468.0
262535.0
-63944.1
-25606.0
161337.0
-211851.0
180483.0
169587.0
258524.0
181946.0
-200953.0
288486.0
-54779.5
245886.0
451104.0
-22692.1
327858.0
-2782.03
657824.0
83117.9
-15751.1
-183799.0
5634.15
34119.1
318661.0
-41540.1
71241.2
22281.9
235062.0
-1153.76
-236436.0
131534.0
384896.0
-28209.9
-2087.82
-111916.0
-99859.6
-77492.5
16827.6
126304.0
102904.0
112150.0
-181522.0
-253725.0
-41702.8
-57571.9
-58153.9
-59028.2
-107898.0
54846.1
-18346.0
-73556.0
-319725.0
-313417.0
421199.0
183191.0
-20849.4
250625.0
91710.1
-40020.4
-232364.0
-4408.53
-66300.1
-187091.0
-15687.8
-301493.0
168095.0
-81263.5
571648.0
111175.0
526089.0
35558.0
-185937.0
176823.0
-59390.9
17494.0
-216943.0
-114253.0
10731.0
-78585.8
264.307
-6002.99
31050.9
134573.0
-74924.3
-100061.0
110021.0
10102.2
-42231.5
325056.0
-12935.5
76574.3
438094.0
-79969.7
282090.0
57692.7
47765.2
-815890.0
-40760.6
-456965.0
378257.0
-204323.0
68690.7
114316.0
-10506.2
-86286.7
1722.67
36341.0
-66666.7
903175.0
21730.2
42804.0
4850.52
-275623.0
-46294.6
224975.0
-202787.0
92287.5
-40837.6
215083.0
-105591.0
115885.0
-324391.0
-51005.5
100459.0
-18729.7
171373.0
-225737.0
-140842.0
294211.0
232845.0
303202.0
994809.0
-104038.0
-407558.0
122966.0
-74990.3
-10068.2
-77871.1
-5149.43
-362349.0
-235070.0
34682.9
-160873.0
629990.0
-387166.0
-53770.5
-6440.76
1142.05
-154618.0
340667.0
181025.0
104488.0
-227066.0
308342.0
-78212.4
45545.9
123447.0
254074.0
36057.5
-38606.1
35036.8
49760.1
-37041.3
25027.7
306747.0
-170303.0
93739.9
85408.4
-81291.5
-10810.2
-45216.2
284067.0
160570.0
2461.17
-574667.0
-122785.0
162756.0
-417099.0
-780868.0
-96483.9
-188727.0
112043.0
-69474.6
127442.0
-134373.0
11464.0
65890.1
84908.2
44029.7
221869.0
-209219.0
-80833.4
119250.0
226282.0
116866.0
39338.1
188020.0
61868.5
19046.2
-30661.5
-64018.7
711288.0
115578.0
-20095.7
-70793.9
125579.0
20745.2
209723.0
152944.0
-131407.0
64931.1
13975.9
-26209.8
300900.0
-70464.2
111846.0
23634.4
58626.7
-89864.1
199640.0
110632.0
-2389.21
-76947.4
152978.0
348522.0
83857.2
321296.0
341984.0
-29498.0
-49792.0
304487.0
329883.0
-4644.75
142702.0
61604.7
-52906.8
87055.6
81771.6
9270.21
-308816.0
-177518.0
16908.6
30622.7
131316.0
236708.0
1339.83
313300.0
-68751.5
661176.0
-65572.1
303365.0
483388.0
-113707.0
203105.0
44291.3
312406.0
771153.0
235357.0
329245.0
10580.4
134545.0
4565.76
-224660.0
99843.4
160385.0
-251332.0
-2933.11
137217.0
-125210.0
-243055.0
113.924
-365611.0
-22716.2
132300.0
124607.0
50610.6
-27686.1
-11181.5
17733.3
-2227.2
-20241.8
6453.63
108991.0
35200.8
259990.0
372826.0
-2747.59
-116660.0
141282.0
-182661.0
31194.2
238276.0
42484.9
-16909.4
-463107.0
-700065.0
-7423.48
-59070.2
-23060.5
-42819.7
519329.0
-334369.0
243089.0
31612.1
-110234.0
-197814.0
146829.0
-61971.6
69455.1
-172010.0
-171591.0
-27499.3
29568.0
51608.7
172060.0
-30076.9
649301.0
374602.0
-18549.8
-25660.4
-56942.3
-117775.0
-77261.2
-405837.0
-100198.0
35420.5
208633.0
-28337.0
106519.0
37821.4
27595.0
291380.0
-642165.0
56539.1
336379.0
347368.0
-452849.0
12556.0
-1355.2
-17975.8
12412.9
-95386.5
165537.0
329.222
32005.9
-199301.0
-308874.0
-91498.1
31961.1
86387.6
154442.0
32281.4
-646379.0
180523.0
-14833.9
-73533.8
1110010.0
-38646.2
175037.0
544146.0
-184465.0
-94587.8
292807.0
415039.0
-10122.5
-54236.3
96475.1
22000.9
-69068.1
-14660.6
138464.0
-71369.4
-118763.0
-51013.7
13694.2
130951.0
222342.0
-175671.0
-179852.0
-6996.87
34332.0
-81407.2
187487.0
-28202.5
-229503.0
-155773.0
-154086.0
-16351.2
-137744.0
13390.8
262054.0
331835.0
72559.1
121238.0
84644.3
209149.0
24044.9
12485.4
168867.0
-355751.0
80594.3
-12512.5
-203851.0
-94447.8
-177725.0
-110903.0
-21739.1
-89244.2
94710.0
49529.1
-277633.0
362579.0
96146.6
77993.1
67159.6
-13665.9
188559.0
-95023.7
-123763.0
671567.0
-131995.0
107810.0
-93184.5
-307643.0
475561.0
87097.3
64487.2
-335026.0
-164312.0
484070.0
98254.7
178226.0
26114.2
98591.2
-658378.0
-137021.0
15022.1
15015.0
-23169.9
16127.8
-250765.0
-43106.8
92695.1
-287579.0
85434.7
273659.0
-378086.0
149140.0
318179.0
-76829.0
172066.0
-4145.45
52004.8
-209312.0
-98911.0
19413.7
17243.9
278283.0
255748.0
-204600.0
100752.0
-58579.8
-275935.0
-440092.0
-308161.0
-19910.7
-32823.1
189839.0
16497.8
-222549.0
-64639.2
151317.0
24067.1
-93726.0
13889.5
-201559.0
273531.0
117485.0
25705.2
-260097.0
69726.4
27304.2
-39379.2
-412049.0
29755.4
-396297.0
-132675.0
-13128.1
-417567.0
-9361.96
306998.0
-301819.0
40907.2
-162631.0
-344977.0
-103181.0
-121302.0
95644.8
188058.0
749976.0
392730.0
307048.0
-75969.8
102203.0
-73933.2
102104.0
32665.5
202638.0
15736.1
54954.0
51438.1
-175562.0
219379.0
6142.02
32413.7
-151722.0
224360.0
-55239.3
-121099.0
963835.0
117300.0
-4939.35
-8304.78
-5736.05
170881.0
-37958.7
20214.8
134934.0
-304390.0
136098.0
221109.0
333014.0
-309637.0
13074.0
226931.0
-490.973
-72960.2
-108437.0
-34205.3
160858.0
268285.0
87638.4
-776676.0
106660.0
-380967.0
-81715.7
34677.5
439431.0
195023.0
201195.0
-51251.7
-435469.0
65224.3
248406.0
596935.0
107298.0
-145533.0
-240428.0
-250357.0
-286590.0
356767.0
572791.0
-44644.7
253502.0
157038.0
-59868.7
-375807.0
27353.8
-106569.0
149533.0
-255873.0
66835.0
-135506.0
-40020.8
-77086.3
-29327.8
-92737.1
-16041.8
-31548.7
-125289.0
-107765.0
-281026.0
182922.0
4468.15
24799.1
-100654.0
-26235.3
-568731.0
-36590.5
-131764.0
-344588.0
66640.7
135235.0
-6919.24
-53172.1
-37680.5
137868.0
288204.0
-14869.5
-288625.0
-380465.0
-269434.0
-560357.0
-89663.6
-626590.0
39943.6
71943.1
229890.0
10733.1
74847.4
-77491.4
-10629.2
-814545.0
-15262.6
-142244.0
-63016.7
6883.14
174573.0
58751.7
-222293.0
-161562.0
377997.0
75615.0
-43091.1
-716680.0
-35949.1
-111211.0
580197.0
-69389.2
164139.0
199740.0
-622524.0
-94220.1
214309.0
-52850.4
7804.11
-4294.09
-97454.9
15946.0
-2044.82
10467.1
9739.45
19560.3
597476.0
-21074.4
-1195110.0
-6413.32
162183.0
11843.8
-92233.9
-74799.1
117531.0
-198697.0
-76499.6
-80541.0
54948.7
32989.6
264420.0
51410.3
55604.6
-174178.0
212448.0
-42758.4
202271.0
175845.0
-41381.7
45847.4
-17166.2
225936.0
-144000.0
-239009.0
-89003.5
20036.0
-57542.9
-21740.8
24307.0
-40489.2
12100.1
-757.644
377300.0
-38387.5
59221.1
-131324.0
110998.0
47338.5
18455.0
332599.0
-749662.0
93964.7
-28816.6
-93027.7
17975.0
-245790.0
-86241.9
5982.17
116252.0
22204.4
-195685.0
85073.7
443167.0
26358.5
232835.0
273222.0
326291.0
140479.0
-71337.0
-425215.0
416659.0
61647.5
-136794.0
220220.0
-5367.25
35967.6
-272762.0
-206819.0
-106421.0
-204193.0
-33189.6
-79798.7
171601.0
143140.0
-498075.0
166893.0
-58595.6
69517.5
-47434.4
89172.5
-85708.5
78089.7
-46557.2
44757.9
-92969.4
249354.0
-123050.0
12263.4
-181406.0
-132216.0
-124506.0
-80922.2
219706.0
313418.0
-179949.0
-536506.0
61049.0
144948.0
-150717.0
282127.0
43586.2
66411.7
-482004.0
-99812.1
-974885.0
-52124.4
81569.3
-104225.0
1139470.0
-305307.0
335093.0
-162480.0
-17740.9
-774967.0
74212.0
275875.0
-50998.3
-307220.0
54009.7
1164750.0
212667.0
-158603.0
52563.4
4694.84
92317.6
523.01
21946.7
386614.0
-67445.3
153243.0
131750.0
444201.0
8378.35
-154739.0
-11115.3
710181.0
86722.2
-40799.4
88977.0
-313057.0
-52853.9
309841.0
-475994.0
337382.0
-388861.0
-38694.0
-199128.0
240006.0
123232.0
-427558.0
26209.1
-83086.8
-186399.0
26892.9
-12048.1
298669.0
-376628.0
6185.21
-35815.4
25892.3
-161976.0
-113739.0
-8839.68
-60457.4
194855.0
-118042.0
-396278.0
11858.0
-47533.5
339374.0
105258.0
-76955.0
72675.7
11846.3
-172871.0
41708.7
81537.2
31391.3
-34243.8
48905.3
20346.0
-7286.33
55415.2
136756.0
47044.3
114315.0
544294.0
30413.1
-57315.0
-105354.0
-171955.0
-267970.0
56655.6
297872.0
147390.0
675382.0
202715.0
92397.2
-174091.0
-101305.0
-409548.0
-304741.0
22445.2
116790.0
-124864.0
82940.8
31455.6
-95397.3
145475.0
-238904.0
-432177.0
360261.0
-89951.2
-10617.4
192212.0
81029.8
-344528.0
23759.3
-1959.18
-535772.0
190880.0
30710.4
28840.5
31454.8
175995.0
-242929.0
-140942.0
568385.0
156259.0
37882.8
86218.4
-53219.4
664877.0
173135.0
-155736.0
92483.7
192480.0
-725585.0
-45785.7
244601.0
-81283.9
-235924.0
71690.1
-326261.0
-188281.0
-9516.07
-215514.0
-82726.7
-99715.9
272745.0
-44725.4
-24773.4
-12570.8
-441629.0
2150.37
-52364.2
303985.0
-168893.0
269973.0
95924.3
-287321.0
196846.0
133165.0
368033.0
241926.0
64362.8
-33442.3
156481.0
288646.0
948798.0
-22244.9
33739.3
-36643.2
88121.4
-54785.2
276006.0
53478.0
-35955.9
-55639.9
906462.0
116325.0
60375.7
11300.0
-1154.81
-37432.3
78920.8
-27951.9
70773.6
-162471.0
33310.4
92664.0
18735.5
-33456.8
-684767.0
-169335.0
47304.2
-73204.1
-212152.0
-84817.0
410355.0
-99919.4
64717.7
9678.69
-76799.8
23418.3
69406.9
-386995.0
20859.9
480334.0
-38348.1
118561.0
80151.4
-10038.5
-2378.52
-23294.5
-211998.0
-7513.02
260055.0
-337714.0
32257.1
193617.0
635737.0
109687.0
-211119.0
69176.6
28883.3
-13178.2
56028.3
90994.1
-13675.6
99926.4
44316.5
-319285.0
353387.0
-74957.9
168020.0
-503433.0
-27195.3
29122.6
32793.3
4650.2
-214081.0
-226492.0
-128113.0
187260.0
202963.0
-151454.0
15699.8
-103937.0
62806.2
-540661.0
22403.3
-52002.1
-47486.8
-46837.9
-239976.0
-425202.0
158176.0
3923.1
-5997.44
-31116.9
41751.1
42246.8
-330698.0
13512.1
-166170.0
82719.8
114464.0
-41986.7
293354.0
125981.0
861.406
-78466.4
-247901.0
20287.4
480410.0
56343.5
47192.4
-37742.0
165962.0
117309.0
-242111.0
-1238810.0
-351554.0
755743.0
-130420.0
-101119.0
79846.2
-26926.1
53059.8
-147291.0
373667.0
-95355.4
48514.1
20287.3
-10896.7
27846.8
-143745.0
192511.0
69393.4
10099.5
86168.0
196091.0
133850.0
6524.53
71563.3
-40304.3
-115268.0
-107179.0
117448.0
44428.9
89301.1
48064.1
149394.0
77323.9
-206861.0
-33411.0
29764.1
156711.0
-10950.6
-209115.0
-54652.3
-26668.5
37865.5
262180.0
-74941.4
74070.4
935933.0
-75653.6
157263.0
53014.1
-26820.4
-35558.9
-248804.0
-228742.0
9528.66
454325.0
-345990.0
200554.0
390301.0
-54165.0
-108586.0
17468.3
73029.7
127946.0
116117.0
-276622.0
37286.3
13423.4
319083.0
17255.6
86965.3
24211.4
20286.2
-93135.4
136239.0
188568.0
-104827.0
-11096.2
155320.0
12565.9
-125997.0
367603.0
278707.0
-19172.5
633962.0
228643.0
459825.0
65415.4
278500.0
147558.0
5883.39
-7741.62
63295.3
365829.0
346140.0
158055.0
-338529.0
-12490.3
-120826.0
158552.0
-453218.0
332966.0
197102.0
-126029.0
-133067.0
469068.0
33191.5
-417794.0
-510995.0
343110.0
38194.5
-98015.5
101923.0
-42101.0
-38150.1
-11930.1
-656609.0
477694.0
56788.5
168205.0
93553.7
28788.3
-44951.2
-3852.22
-30396.2
201690.0
75234.9
5280.14
194299.0
13005.5
-524331.0
262882.0
-115923.0
-157757.0
-4474.51
-294161.0
-4544.97
-150190.0
-46482.4
45265.9
-88606.1
276833.0
-10144.1
10652.2
210602.0
218445.0
-709762.0
217520.0
110643.0
-216925.0
77707.1
-57558.1
38424.5
538633.0
-241588.0
-89724.1
40804.3
-63336.2
38910.7
416073.0
162093.0
191938.0
157244.0
230479.0
16991.5
56692.9
-433060.0
-121439.0
-308168.0
-215409.0
460797.0
68485.8
109835.0
-227063.0
-564111.0
-60339.0
-165291.0
17377.1
70549.8
-74786.1
181813.0
-5822.46
72416.1
54830.4
78964.3
1172620.0
187026.0
-790641.0
-247250.0
183510.0
-65905.1
51495.1
13413.4
86408.3
388176.0
146112.0
89234.8
196658.0
309140.0
-55696.4
19948.1
9317.88
232228.0
6962.7
153472.0
-125289.0
99071.8
-57702.9
1630040.0
-62746.9
7461.41
93549.8
171041.0
-20978.8
-24053.3
89456.8
333635.0
182202.0
-394476.0
2349.32
-83415.7
-20314.9
-153566.0
183595.0
74348.1
356386.0
-150637.0
72714.6
200664.0
-213430.0
-128278.0
-213059.0
-356701.0
-240344.0
1260.48
-345920.0
69190.2
-23197.9
416592.0
-319267.0
22849.8
-79413.6
94228.1
-610194.0
-5642.49
210575.0
47374.8
-16489.9
-811138.0
70937.4
-22819.8
-422832.0
429887.0
164881.0
31883.8
-38325.2
256593.0
46208.8
-50794.4
-92143.8
11217.3
-459551.0
-103635.0
-164451.0
-748323.0
-231186.0
223949.0
789494.0
-15169.6
-380651.0
27691.8
327311.0
85898.2
41471.2
-18500.1
-707549.0
392516.0
85752.0
344784.0
-157683.0
-259794.0
99986.4
99403.3
-9666.49
-167951.0
-126232.0
103661.0
-60311.7
494834.0
-56238.3
-397400.0
100605.0
156166.0
78220.5
-215317.0
4877.85
-55199.8
-549024.0
-98817.7
-223507.0
-224776.0
15007.8
528496.0
251344.0
132262.0
-87571.8
19113.6
39728.3
39201.6
17132.9
36522.5
254580.0
380984.0
-237151.0
276929.0
10736.3
37689.5
-36882.7
119525.0
217016.0
81618.6
-143681.0
121031.0
86714.2
67677.2
87990.6
-17077.2
-333572.0
-157572.0
57767.7
18762.8
-2557.76
362438.0
-135866.0
-1532.03
-157751.0
110350.0
42609.2
256612.0
28039.1
-194016.0
104712.0
5192.31
178633.0
44728.8
-110240.0
121194.0
42557.1
39486.7
723650.0
-23103.7
-50920.9
153515.0
-73231.1
15588.6
-427724.0
114070.0
30063.8
117000.0
-127611.0
-9448.29
-7187.46
-722721.0
-3203.13
109493.0
-671205.0
-104949.0
119929.0
-151647.0
125316.0
279656.0
-495033.0
-84541.7
12667.3
-255753.0
519969.0
37483.4
342972.0
121524.0
-74937.6
-275373.0
61460.9
36233.3
93917.0
-95107.4
319803.0
186831.0
644354.0
-119404.0
79528.0
93342.0
-304771.0
86850.5
-8280.01
-853754.0
64375.9
-43984.6
-70381.1
-100053.0
51835.4
362863.0
74243.7
-231350.0
49639.5
-125113.0
301476.0
-303479.0
-218467.0
173151.0
-234599.0
69160.7
-34244.6
32653.7
166634.0
45754.2
45595.6
2589.09
371885.0
36582.0
-910980.0
716465.0
-200052.0
-90764.9
149349.0
-164814.0
34516.5
158321.0
-264909.0
-172327.0
-20170.0
9515.84
-68999.1
63261.1
-40500.0
8631.78
25691.4
51904.4
-98971.5
-799.447
-3893.99
26560.5
-206913.0
-53161.3
394319.0
10711.6
-23454.3
-55696.4
-164685.0
-230865.0
-6942.53
88493.9
304541.0
-58999.8
-211001.0
105040.0
40880.7
-533709.0
-19750.1
-87600.6
70277.0
288609.0
169884.0
-89324.0
123988.0
-357781.0
243961.0
154549.0
-52607.8
20019.1
54657.8
10011.4
-54093.7
-78089.3
-323628.0
-403419.0
-532850.0
83810.2
986803.0
-94416.5
-63809.1
-167003.0
-224486.0
-342813.0
25777.6
-50215.9
-23113.5
-55432.1
112245.0
159485.0
97769.7
54790.9
368355.0
-30662.5
-47461.6
-114294.0
273467.0
-159375.0
234279.0
-25193.6
-42796.7
75687.1
292765.0
79638.8
26419.6
110355.0
-192189.0
-301873.0
496317.0
181593.0
-28800.6
-2976.61
-105722.0
-14424.6
110408.0
197691.0
-54382.1
-47058.3
-87499.5
-213816.0
-146504.0
-98368.9
77693.9
-58087.7
-19218.0
21741.9
157788.0
-253563.0
16403.0
-69970.0
-35653.8
119212.0
-774130.0
201534.0
-27080.0
374910.0
44894.8
-14150.7
163424.0
34529.6
128333.0
398283.0
-26984.1
35455.5
49917.0
143403.0
-64560.7
125279.0
35835.1
-76368.3
-134971.0
-80959.2
34799.4
165098.0
83138.1
-59541.7
-61538.9
-64961.6
54053.7
87037.5
53465.2
-24663.8
-120263.0
64197.4
-20481.9
19875.1
-122174.0
-67999.8
-5575.4
-7322.6
-156531.0
-49751.6
-47795.6
131513.0
80258.1
-190603.0
-294570.0
-201077.0
31313.9
343673.0
633334.0
-155963.0
7791.82
-399275.0
-590930.0
64759.7
167032.0
92509.6
3657.25
59221.3
225801.0
-336276.0
-183647.0
-103912.0
-61653.1
-20928.3
741512.0
-462506.0
67877.0
363134.0
195921.0
-131009.0
379212.0
-11199.8
19738.6
-302271.0
21177.0
-31622.9
-41593.4
323131.0
-327714.0
329866.0
388239.0
40757.8
-40842.8
56728.6
-150006.0
107994.0
36129.9
-61883.5
-142230.0
-204705.0
-208239.0
386894.0
-20971.0
167070.0
49688.8
-61493.5
413615.0
-284459.0
26892.3
64241.2
-732084.0
61197.3
-9751.07
27619.2
-379874.0
96628.6
-59319.3
-35559.2
159040.0
65967.3
137830.0
104568.0
23128.9
-527075.0
-36372.5
-226290.0
-138113.0
272111.0
427904.0
109545.0
-589382.0
147402.0
-52530.5
-255722.0
19113.6
125957.0
87956.2
-109403.0
23719.4
-495757.0
5791.94
22866.1
9166.44
124666.0
68995.4
-391168.0
-745074.0
-135503.0
-4158.44
132864.0
-312542.0
89496.3
10943.3
-83491.0
-139154.0
-91503.9
-161588.0
57783.4
-36008.2
-442931.0
12772.0
-40157.7
-3374.26
-135968.0
-43626.4
560496.0
-7404.15
-18954.0
29130.8
14471.0
-83603.3
215718.0
208715.0
-12014.0
309445.0
-105761.0
-398113.0
26763.1
283943.0
-200247.0
474812.0
-41193.8
-743841.0
-164580.0
-178630.0
-216649.0
-14383.2
467823.0
-5620.9
94501.6
10991.0
289345.0
44111.1
158702.0
-68054.9
198658.0
131147.0
3978.43
16962.4
-45406.3
1680.54
81888.8
-522.96
-39779.3
282850.0
-327387.0
-1014450.0
35986.3
-7868.03
-278790.0
-161640.0
-139397.0
31969.5
-67697.9
573475.0
-36793.2
-245582.0
-7029.6
104191.0
-118969.0
-180382.0
-61305.8
-28506.1
391703.0
208305.0
185084.0
-55487.8
-14510.5
-129243.0
24050.6
-733044.0
-112090.0
-20412.7
-11601.1
-53984.5
93386.6
-75326.3
87871.9
-55032.0
-38197.0
-587411.0
-492663.0
-87110.5
-268623.0
68419.8
-163744.0
-192843.0
155804.0
291391.0
668.995
-167212.0
73469.6
-82039.8
142812.0
-303767.0
351419.0
-20940.3
220683.0
-377234.0
243044.0
-530034.0
-5970.87
-801443.0
50086.4
-58357.8
559078.0
383397.0
-76902.6
30721.3
-1132660.0
-51718.5
59338.0
-125007.0
248846.0
-115395.0
630947.0
135533.0
-119925.0
24891.2
-213782.0
466609.0
421346.0
-90837.2
400285.0
130432.0
-53248.5
103931.0
55716.4
-4590.28
-176940.0
-30630.2
214570.0
-173547.0
-11040.2
-321688.0
454748.0
34323.2
-34314.1
-37978.3
57646.6
271214.0
587499.0
77257.4
59240.5
-162672.0
-138640.0
99399.8
-42590.1
1027830.0
126415.0
-30378.6
-33672.7
456109.0
32107.3
-134204.0
-3036.51
-215220.0
1238620.0
82939.3
327314.0
138685.0
-146553.0
613562.0
192549.0
30724.0
20960.0
-763905.0
-226486.0
154591.0
-6804.06
-697785.0
1622.68
-53870.5
246934.0
-53682.2
-6685.41
-13159.0
17212.3
241570.0
100972.0
44546.2
51.2317
-76754.3
-87331.6
157434.0
-181302.0
-435024.0
-22065.0
-43474.3
-231459.0
79917.6
-535601.0
272984.0
-144920.0
250292.0
95220.7
-93216.4
-310831.0
79790.5
74835.5
-78547.7
20142.7
126593.0
85608.7
289951.0
131639.0
105825.0
384732.0
-90672.5
368431.0
240081.0
-73574.2
120101.0
30113.4
-36692.3
629700.0
-313093.0
872432.0
-147615.0
-1049280.0
588854.0
190162.0
145619.0
448469.0
-146445.0
340757.0
75103.4
1159.27
51518.7
69228.3
-173101.0
-238141.0
1363.17
30362.2
-485452.0
-57166.5
-80466.1
-220232.0
-73774.2
1733.65
-16327.4
-23164.1
-779271.0
-79623.0
-25961.6
-87953.3
-69186.5
-193126.0
105039.0
701532.0
-74965.9
2375.89
308503.0
-71676.9
-138353.0
-132262.0
81890.1
-10312.5
-101925.0
-276598.0
119477.0
-177803.0
-184446.0
368759.0
1156780.0
-501157.0
-57085.3
169957.0
200752.0
55903.1
123799.0
-19767.5
-275312.0
-347758.0
453885.0
-84123.8
31821.5
176216.0
-635347.0
80334.2
67786.3
149606.0
47826.3
-128655.0
68029.7
72704.2
35445.1
-227597.0
-362615.0
-80918.0
-269976.0
60747.2
525281.0
12093.0
131042.0
-379873.0
-88022.6
184265.0
53415.5
-5387.23
112670.0
40864.1
6940.83
-198244.0
-119010.0
17768.8
-5117.04
-26441.2
-231026.0
-37658.1
-56644.9
530575.0
16917.4
-55887.2
-761566.0
56832.5
33555.1
-75878.5
-48960.2
-264239.0
90391.6
82828.3
-632342.0
-221185.0
-20193.1
-21602.4
19880.4
-225332.0
29714.4
-87156.6
-93951.6
-172921.0
-191639.0
32794.4
141840.0
24989.7
175638.0
10198.8
83499.2
-74631.7
47151.6
-72501.7
-33726.1
16476.0
434644.0
545456.0
402994.0
-266508.0
-200837.0
103071.0
85831.4
352170.0
181086.0
26955.0
-163292.0
-129265.0
-295096.0
20525.6
90517.7
-67004.7
-20042.8
-5639.61
44857.2
-2152.89
18173.9
-155795.0
252795.0
141951.0
137572.0
113723.0
-23090.4
-140121.0
-164284.0
-255876.0
330227.0
158666.0
264364.0
-74827.7
-37374.0
-96438.8
361035.0
11317.6
12876.1
81629.2
-330443.0
284856.0
-73037.1
143109.0
-146988.0
47354.5
14418.2
310945.0
-44588.0
134702.0
358036.0
-138166.0
103611.0
888746.0
-182032.0
136017.0
-168026.0
-80681.6
123301.0
57674.0
7679.55
221530.0
-29709.4
-257941.0
114474.0
-83201.0
278525.0
50637.8
86243.1
60186.3
156610.0
100135.0
-5930.33
-281820.0
115109.0
-28822.4
366325.0
63997.8
-452962.0
-6267.87
-122103.0
-64976.4
4209.3
29971.1
-439143.0
468254.0
462772.0
23069.9
160811.0
-114165.0
57216.1
-25558.0
118116.0
245949.0
51893.4
94670.1
-72173.8
-26995.2
127072.0
157503.0
-19195.6
27398.6
36582.8
-26043.5
-144366.0
61799.1
-111980.0
-244364.0
-86970.1
-73162.9
-605204.0
-220971.0
54715.2
137969.0
-5835.71
-38973.0
353918.0
-14117.8
1154.2
290371.0
1419180.0
-123302.0
303732.0
-142150.0
-63278.5
-17160.2
-43097.6
-16395.7
91358.1
18173.4
352820.0
-35023.4
262282.0
-500362.0
58686.6
-53634.1
-87868.8
-48382.9
27823.0
-86439.0
1664450.0
273840.0
81753.4
105209.0
202028.0
-126327.0
-38940.0
-33474.4
-30630.2
-382255.0
27204.9
-528261.0
-386912.0
290790.0
116721.0
-100156.0
-74742.4
-34213.4
1379570.0
13241.8
-497690.0
-104373.0
137349.0
48520.1
-157975.0
253174.0
219091.0
-311595.0
28215.7
-846171.0
-305628.0
67238.5
171960.0
-253052.0
172852.0
148849.0
133861.0
-201033.0
-271918.0
157040.0
293961.0
409809.0
201004.0
50666.0
123973.0
5626.4
229126.0
29264.4
-37192.7
-25345.5
-202792.0
-189085.0
-776685.0
110889.0
100868.0
-251682.0
40779.9
-471128.0
298031.0
-296294.0
314087.0
-68112.3
10472.1
69193.7
373929.0
-59280.9
-213323.0
201467.0
38629.3
232774.0
43468.1
-49460.6
-26905.5
257900.0
179413.0
-7251.9
-13082.0
32849.6
-100313.0
-319781.0
-14114.1
-10290.8
-727513.0
417665.0
-96609.4
99318.3
-51279.0
-74147.3
40544.0
-147807.0
43894.1
-233722.0
236915.0
-122948.0
-251130.0
-68815.5
-299310.0
208928.0
537440.0
-54214.1
318162.0
13176.2
-72748.3
342727.0
87903.2
-17324.3
-82168.9
-25177.3
91798.6
92763.6
115007.0
233946.0
-150398.0
129256.0
70067.6
37640.2
-418251.0
-18366.1
19400.2
-34074.0
364931.0
65762.2
-112286.0
-59363.6
-90676.9
33564.5
-240411.0
67898.0
-28469.5
98339.3
-53849.8
-219300.0
-47671.8
-125346.0
-556267.0
-96883.4
165461.0
68935.9
-96569.6
11342.1
-42035.1
-113298.0
-167185.0
180278.0
-271283.0
45638.4
13403.9
310761.0
264180.0
-77365.4
-2205.34
-20072.4
41481.4
-101627.0
4889.51
458980.0
169324.0
-84395.2
-209881.0
-273830.0
-369804.0
-249015.0
42869.2
131875.0
-103673.0
242617.0
140553.0
-3134.54
-101263.0
-134789.0
-480333.0
-36786.4
-426295.0
11201.5
-449775.0
-5161.41
64303.6
53511.0
-309396.0
449116.0
33536.7
-130469.0
-161819.0
-415327.0
436456.0
-163784.0
14887.4
-274941.0
-187211.0
293772.0
-78962.4
-2287.02
-30380.2
-82412.0
87775.3
27410.6
-26125.3
-218371.0
-5697.94
-48687.4
13269.5
-164523.0
-313262.0
-384973.0
-81250.1
49945.6
104615.0
156067.0
-520468.0
-7401.31
-68456.9
111961.0
-15696.9
489051.0
-38103.5
-83373.6
-65829.5
-17417.1
-192822.0
60751.0
-85083.0
421702.0
-33861.8
-24895.2
188523.0
-2214.77
-169586.0
10513.5
-149438.0
44975.7
324719.0
-46360.2
-77010.7
-34724.9
273878.0
284850.0
-319431.0
-304587.0
-58137.6
32205.7
-150312.0
-233280.0
-2627.0
-156676.0
-124354.0
550661.0
-224152.0
-29503.7
1330040.0
-91993.6
-411016.0
83165.6
16941.9
230846.0
176919.0
391467.0
14171.0
-111450.0
-3486.6
-45570.0
-20618.5
-73699.3
-330976.0
-209657.0
-4264.55
1534670.0
-560729.0
-158272.0
-347451.0
37878.0
165806.0
-100001.0
50135.5
-41328.3
17816.5
66829.3
-39218.5
18455.6
6379.33
1031.43
269797.0
-11922.1
-766219.0
-163919.0
63157.9
9853.82
29319.5
317251.0
-469462.0
-123249.0
33652.9
528198.0
186473.0
-135625.0
55352.1
-129162.0
-272113.0
21691.0
-252752.0
96221.4
370251.0
417969.0
42342.8
293611.0
34291.9
534986.0
95305.1
-40146.5
450749.0
-19907.3
-82198.3
-6407.74
-113742.0
-378989.0
-207192.0
-655157.0
-623091.0
47543.2
1234070.0
42885.3
569047.0
654143.0
209853.0
-268669.0
265931.0
-243211.0
203048.0
-27626.3
-342272.0
-29805.1
-242704.0
37811.2
-11592.7
-533030.0
-34488.1
-29076.1
85992.1
-1105140.0
-2110.9
-36429.6
-408051.0
-116228.0
-499827.0
-123271.0
140775.0
97860.2
-158075.0
186400.0
-76546.5
-99384.4
61115.2
-217679.0
104424.0
86830.4
-65508.8
111559.0
18390.3
17611.4
-335123.0
28187.1
295635.0
-112823.0
-1514.26
-48591.6
-751123.0
5848.1
-55288.9
-133825.0
31242.7
123553.0
182472.0
-286378.0
-17507.4
41749.5
-345442.0
69018.3
70569.3
741103.0
-57175.2
132466.0
37785.9
420.978
50967.8
303335.0
408715.0
245963.0
-36953.3
-73272.9
-54186.4
-2103.61
153172.0
105435.0
-26141.3
-343378.0
-240516.0
729647.0
164833.0
37938.4
95098.8
-15955.5
-322998.0
-2942.35
108562.0
-215726.0
-81035.6
57846.5
329975.0
-387447.0
6957.65
19969.9
69038.0
-48932.6
-22351.3
87931.1
-4609.37
-34598.2
-116559.0
-24064.8
15640.2
-116558.0
-89349.0
6710.27
-229717.0
-27522.9
-122919.0
-191516.0
-164518.0
165015.0
-103734.0
134317.0
257770.0
10317.3
-198068.0
-24245.7
423416.0
-481714.0
283118.0
-132650.0
230117.0
-362815.0
-4375.88
31084.6
-128561.0
224478.0
-295383.0
-213551.0
223844.0
-23466.5
-12632.1
225182.0
53060.2
265195.0
117773.0
211118.0
-68398.6
169948.0
-163876.0
133535.0
173974.0
122663.0
395419.0
68101.0
377924.0
144693.0
-116335.0
-101329.0
86933.3
16301.7
134300.0
-119934.0
-27660.9
165112.0
-41446.7
159532.0
7787.33
237235.0
20788.1
105684.0
-115573.0
-51489.7
-486.782
-18894.1
130422.0
400595.0
-40897.1
-395124.0
280834.0
-20306.8
40233.1
27031.1
41933.9
470520.0
151046.0
273666.0
73653.1
309593.0
84071.1
-88760.0
47425.9
-101145.0
-44180.1
-18567.3
5828.67
14013.0
-547576.0
-83624.0
311247.0
19834.0
21216.4
106356.0
121525.0
-259997.0
325153.0
167994.0
3732.23
126987.0
-4353.64
-56391.5
-95256.5
41020.7
227169.0
141519.0
34542.9
-44223.4
113736.0
-30155.4
-183315.0
-231923.0
-284251.0
-172917.0
-238702.0
-77494.7
-166334.0
-124998.0
-86461.1
148758.0
-16128.3
195077.0
-62504.1
1017060.0
-49294.8
-616117.0
-82251.8
-122252.0
76515.0
-15924.9
-304080.0
78418.6
-137250.0
-258555.0
-435846.0
170779.0
-42111.3
-149130.0
-67914.8
-571674.0
-18646.8
-350839.0
6125.05
16347.7
6113.02
-216300.0
-86372.9
237601.0
-133567.0
20169.4
-48668.3
-56791.3
174174.0
-3491.28
-161347.0
4634.69
-54634.2
69902.7
-27578.6
566960.0
6345.31
195741.0
-37541.9
126757.0
394488.0
729776.0
-400780.0
-43285.2
-49300.1
-157993.0
165269.0
22154.8
-182025.0
-146021.0
106477.0
200080.0
-439947.0
-42422.3
85956.6
-71758.9
-72955.9
308915.0
-703138.0
-29902.5
-76099.8
-185728.0
-73447.5
-43909.9
-132825.0
-181764.0
-49188.8
614264.0
371608.0
20426.7
-154380.0
-114767.0
155277.0
485022.0
279122.0
28864.1
-261381.0
116737.0
14974.3
206717.0
-90601.2
176160.0
32335.3
-27893.9
142239.0
268990.0
54872.5
-148857.0
-220434.0
137740.0
-195601.0
136399.0
911334.0
6849.95
69777.2
-28218.8
-244530.0
-59273.9
-44452.5
-139698.0
101421.0
32152.0
152221.0
156483.0
402370.0
-324307.0
-325541.0
157726.0
-37346.4
916.037
185686.0
-244799.0
573941.0
-63355.4
427144.0
147341.0
170396.0
26426.2
444211.0
-26646.1
92382.5
212189.0
-139050.0
-120372.0
-434114.0
92619.1
89558.4
16931.5
-258449.0
23298.3
-95620.8
108029.0
-171540.0
-45605.9
-401065.0
-3412.33
-65618.1
287813.0
16814.8
72709.2
-78621.5
-31194.6
210749.0
-73988.0
703808.0
-48552.0
-71427.0
-420267.0
169897.0
28188.7
-42691.3
84249.0
299630.0
35579.3
34544.6
-23025.3
167640.0
241996.0
-17161.4
102014.0
-82520.1
126433.0
-17363.7
222508.0
127007.0
-11623.8
-587887.0
-654775.0
264367.0
-127842.0
-177464.0
36181.3
74389.2
-16965.1
26093.1
243544.0
11543.1
-166109.0
16454.6
188357.0
353421.0
1494020.0
581640.0
164751.0
321256.0
-23625.7
-320021.0
-475177.0
-352935.0
-31305.0
116791.0
128354.0
20894.4
465865.0
128451.0
183793.0
23334.8
-6464.81
-653254.0
37147.7
7107.0
434548.0
440590.0
250621.0
-395428.0
-28422.0
-320068.0
-21005.3
-350884.0
-207527.0
19589.2
18218.9
439287.0
-272311.0
-36516.9
50791.6
48375.8
170212.0
18296.4
-82637.2
-82736.3
-73796.7
5869.43
-82602.8
148503.0
587875.0
15558.1
-98594.4
37702.1
98272.9
-365601.0
50832.9
-375976.0
81236.9
29836.1
21725.3
500.126
-111810.0
-153804.0
138933.0
13205.4
146833.0
-270982.0
202436.0
25097.5
-52124.9
246209.0
30930.0
45061.3
27268.6
187961.0
782389.0
119238.0
227723.0
-427452.0
-53857.8
9279.56
22131.3
-32799.0
50085.9
239824.0
43846.6
-46180.8
43773.6
257165.0
-630276.0
-28050.6
100534.0
57693.8
26315.9
-51173.9
379093.0
-476717.0
13288.3
-133698.0
-15726.6
232053.0
200996.0
540406.0
45235.7
16469.1
-5105.74
137523.0
-452846.0
-342630.0
355845.0
300947.0
233896.0
194326.0
-230419.0
1151420.0
183233.0
-98451.6
-78756.1
-431125.0
72499.4
-42948.7
95569.6
-11393.5
-462811.0
-172305.0
352152.0
-135374.0
-691819.0
-36101.9
593227.0
171794.0
169449.0
-545920.0
56270.8
26457.7
-5033.82
413944.0
1774.02
93839.6
91682.2
-59154.5
-982665.0
-115414.0
-774655.0
-208804.0
16079.3
-262485.0
-641147.0
-306564.0
-300512.0
101337.0
-95595.3
-110591.0
50282.6
-266414.0
-276603.0
-227082.0
451819.0
-772419.0
-53141.6
-22904.7
4382.91
-147906.0
-95953.3
-270106.0
-81459.6
-187606.0
-171076.0
67316.0
18570.3
-45845.0
96758.1
6109.2
72153.6
-776721.0
-117441.0
134509.0
452724.0
-69896.1
-354796.0
-11893.4
-111832.0
51963.8
-10912.5
-97870.1
-194.64
-228776.0
81206.6
-102540.0
354339.0
143842.0
273197.0
-289529.0
-232299.0
50173.7
95075.4
140983.0
-55184.7
657973.0
-33425.0
-9979.1
-111077.0
-276087.0
-103773.0
248911.0
49475.8
53294.7
-81917.1
-242524.0
-57703.6
46125.0
-42857.9
-70614.1
235164.0
199945.0
1901.13
68382.2
-118739.0
-20017.3
40343.5
128042.0
31876.2
-673040.0
-37149.6
-91777.5
55808.6
-22484.2
-218327.0
317758.0
57956.2
-93384.3
-275622.0
-49368.6
113351.0
1308100.0
-201034.0
-26050.2
-72215.6
13457.0
14999.4
8256.19
190927.0
21645.9
-53749.3
78754.6
85668.8
65963.9
20104.0
216524.0
2274.9
18635.8
-281820.0
-110664.0
-116180.0
381709.0
17228.4
-229138.0
612.68
-60096.4
742813.0
323065.0
27126.3
404517.0
35757.1
11098.7
-62477.3
106842.0
1131840.0
218372.0
-170487.0
-45847.6
-43389.4
79790.2
-57740.4
100072.0
-20259.6
-172568.0
-840554.0
-70899.8
-867851.0
-142284.0
390926.0
150288.0
123189.0
49054.5
12915.6
-128407.0
54887.4
-123915.0
-12072.4
243622.0
105510.0
46383.1
325391.0
-359922.0
18596.3
-47958.4
-262913.0
-39655.9
6553.87
-219079.0
28876.9
-77357.9
-430863.0
263487.0
31713.8
-125455.0
-25908.6
-134393.0
997.462
-221700.0
-212899.0
-136189.0
-53062.3
155316.0
13802.1
-70674.5
-284957.0
362837.0
112026.0
-35613.3
-87128.4
-895584.0
-177747.0
121349.0
41378.4
447164.0
47712.7
20694.5
-55393.5
103214.0
-166514.0
-24614.7
14091.7
-121850.0
-707129.0
72516.5
464072.0
308781.0
155925.0
207567.0
-34139.9
258564.0
264113.0
174228.0
-82012.1
150761.0
-10311.7
-179543.0
-449228.0
64590.2
368666.0
-66931.0
-111697.0
-138891.0
37284.5
135051.0
302170.0
49027.2
6358.25
-132402.0
58237.4
-225971.0
1069870.0
245118.0
-9776.71
94406.9
-78089.4
-12018.9
-284240.0
-97869.4
-3118.2
-70162.7
-129515.0
88442.4
-172587.0
92106.0
22161.0
244033.0
-20959.8
-144125.0
-95698.5
-37011.5
-1242.43
6138.81
543507.0
-336843.0
94286.3
-18507.1
89066.0
537273.0
122270.0
189608.0
-337194.0
131798.0
-333374.0
346777.0
130163.0
-115825.0
189444.0
-18869.3
435480.0
-268720.0
-247488.0
-106023.0
19282.8
-97909.0
18387.2
-45066.6
-9750.32
-460915.0
-26806.3
-58531.7
111282.0
-87746.0
28014.3
122142.0
90391.0
185109.0
248222.0
-525414.0
198314.0
-64460.8
1051650.0
-10611.2
282641.0
-19709.8
165324.0
16055.8
-176452.0
-236259.0
-33411.6
41948.7
-151092.0
-112343.0
11089.6
142659.0
-109483.0
-25264.8
12449.6
-75655.3
91119.4
73842.0
-696557.0
74753.7
115351.0
8081.68
-49386.5
30397.3
110378.0
7396.65
-82600.0
104448.0
-56893.9
-64304.2
21593.1
90838.7
-638310.0
-21848.6
95002.4
-40290.7
267781.0
419362.0
-2411.57
-7855.26
643935.0
443089.0
-143176.0
262546.0
77186.5
-773149.0
44756.6
4105.22
-106301.0
143922.0
-84040.8
101.726
-37941.5
31485.1
-219882.0
75426.0
-85835.0
241508.0
76404.3
122228.0
123040.0
-281588.0
-70413.6
375179.0
-242267.0
-290798.0
132495.0
-18737.1
184294.0
227355.0
-67077.8
85990.0
-179565.0
-275907.0
5955.88
959172.0
63239.3
111078.0
-67572.8
-19559.7
-42789.5
-119061.0
-272193.0
-24888.6
229910.0
441007.0
-493734.0
-99601.7
-79699.9
-18554.3
-748144.0
-297821.0
-345319.0
-178810.0
133860.0
43114.7
21634.6
-68198.1
242341.0
-75147.8
36792.9
2285.36
201371.0
208351.0
-234821.0
-499975.0
-38309.2
407734.0
-525711.0
-10620.7
-17910.7
-116184.0
-129321.0
-102255.0
177083.0
-40525.9
-5559.29
-193481.0
-358453.0
190925.0
-1466.84
225910.0
10621.9
-106226.0
-446414.0
35411.3
-150904.0
109072.0
-143737.0
-145737.0
4772.63
41676.8
192894.0
1771.13
-175550.0
101631.0
-107409.0
-28371.8
9383.89
200846.0
-1949.22
94288.5
119911.0
-66136.6
53563.9
-443070.0
-105812.0
-282170.0
43561.9
-119753.0
5018.16
184479.0
189366.0
-78791.7
255569.0
46603.8
-192849.0
47247.5
-40973.4
-402771.0
-125354.0
-325710.0
114535.0
-35019.7
-391226.0
-220309.0
-4099.19
244441.0
-126762.0
9460.6
-55372.7
-861771.0
-83773.3
-82057.5
719998.0
-115465.0
-60380.7
-217143.0
-41301.6
-2734.3
-70996.2
286011.0
-34671.0
37649.9
-92699.4
-171513.0
32168.0
205869.0
122643.0
-422625.0
164973.0
-18734.8
-39755.4
-12975.7
353769.0
75214.3
158754.0
10089.4
-63195.8
-332798.0
-7381.17
-74768.6
4536.35
-336771.0
-446435.0
516078.0
112535.0
269279.0
101255.0
-349686.0
112984.0
281687.0
-251807.0
586054.0
-128598.0
-15577.5
-45913.6
290207.0
3003.28
-51290.8
-103446.0
196722.0
-55146.8
-265763.0
101827.0
-148509.0
24322.0
-187836.0
47127.9
29025.8
-93159.2
-342919.0
55225.4
130816.0
254611.0
444298.0
14217.3
-166310.0
-400114.0
87776.8
725853.0
526555.0
1754590.0
312405.0
35313.7
-47897.8
-14845.3
181258.0
-141428.0
54940.2
-145498.0
-30149.1
-146845.0
-14114.6
99786.2
-164446.0
176247.0
18605.3
237710.0
717148.0
538102.0
61466.6
-70515.1
45674.2
91467.2
-54424.1
217075.0
-60197.4
-64176.1
64873.5
77518.1
-912214.0
-10107.3
168999.0
442689.0
-241820.0
-56891.3
70435.6
-88031.1
-112824.0
13410.6
-8486.85
80993.6
12674.9
-71561.3
10682.6
63812.1
10618.8
156196.0
-42269.8
-10795.7
112883.0
79470.9
-61904.4
-26246.4
-203925.0
-447565.0
26289.4
68454.8
-5445.1
269388.0
-238229.0
-97995.1
55079.8
166714.0
66332.9
-89808.4
-58648.9
22837.4
85610.4
49187.4
-123228.0
15642.7
-76986.6
237392.0
-299389.0
-135134.0
468916.0
37109.2
-580746.0
190060.0
46016.8
36352.9
23231.8
83608.8
287913.0
89934.7
481842.0
-417633.0
-60054.0
-468230.0
18076.3
5482.72
-17513.6
62772.4
65161.7
122008.0
-10950.3
-234223.0
128804.0
3968.47
-229683.0
310074.0
-66116.3
-161212.0
-26169.5
-219590.0
-201674.0
24825.8
-53932.7
105857.0
-97988.7
51655.4
332012.0
-98594.3
4103.56
-335521.0
-135436.0
154380.0
6341.07
-73945.2
-228177.0
-152872.0
4559.22
172980.0
-19005.6
112572.0
-234054.0
291513.0
-496861.0
-95859.9
-228090.0
-40889.3
61746.8
10282.6
-221098.0
-385181.0
16767.5
-392265.0
-71551.1
117342.0
-87794.1
-185903.0
252028.0
-189725.0
285852.0
42754.9
-100517.0
118875.0
-6190.66
397383.0
-399.047
-192312.0
-63110.7
19776.9
-68223.8
78510.3
-200744.0
-21999.6
272778.0
438543.0
238138.0
130962.0
196862.0
-27505.4
-302686.0
75844.4
230817.0
36873.9
-29607.9
-607334.0
136981.0
295509.0
78482.7
-79672.3
626401.0
-23217.9
94020.0
197225.0
-43917.5
288441.0
-118834.0
173825.0
-45086.7
203827.0
-213371.0
-771337.0
-31142.4
86257.9
-125221.0
-149391.0
103928.0
-414293.0
16570.3
92986.0
-324573.0
-34368.9
-177203.0
-144907.0
-51207.7
-177872.0
152098.0
11026.7
89081.9
92467.2
41902.6
-72875.7
376007.0
211700.0
323344.0
-40925.8
45863.7
114078.0
69039.3
-6686.5
-127380.0
315256.0
-776838.0
-16202.0
-212296.0
-61953.1
-817455.0
-811394.0
617938.0
-43676.6
-664739.0
203929.0
168781.0
-5897.81
-165879.0
-530301.0
17149.3
49002.9
394745.0
-109842.0
-49718.3
-81321.6
-76308.8
449341.0
-51304.5
93013.8
-49280.6
40554.2
-370839.0
185204.0
-36951.1
-112491.0
66284.6
-2197.43
105380.0
-413657.0
209957.0
190335.0
54412.2
-35320.9
-227807.0
-471314.0
210803.0
84055.5
-46375.6
-145724.0
220142.0
29906.4
-602.486
55130.6
-62612.1
-18575.6
-10877.9
202711.0
-421026.0
-122958.0
86031.9
-121008.0
-198797.0
-207397.0
-79856.0
620054.0
225996.0
718.727
36470.7
69118.7
23301.1
270565.0
-298820.0
31698.6
61317.1
-666829.0
-154427.0
-133057.0
106491.0
25193.6
146073.0
424702.0
-77800.8
-85551.9
-211661.0
176198.0
15691.5
-599090.0
-230205.0
236737.0
209623.0
819423.0
443889.0
348112.0
-80119.0
-71851.2
22801.8
60337.7
-20784.3
274640.0
4528.27
243679.0
25698.2
-80634.4
-413595.0
158465.0
-43206.9
-211067.0
-804200.0
394332.0
67335.9
76913.5
95908.4
-132575.0
271236.0
59916.8
247038.0
-410830.0
128815.0
68864.0
-877.028
-151647.0
157007.0
124027.0
-228117.0
-8534.19
201275.0
-119617.0
10498.7
-78082.7
160681.0
-7384.05
271628.0
-444937.0
-701644.0
-317219.0
-156348.0
-8844.85
517919.0
30226.4
12858.1
114761.0
-274483.0
-239252.0
-328639.0
-3460.46
266118.0
-31250.0
121562.0
-182268.0
47562.6
-51811.7
-90547.2
-40591.3
526134.0
442175.0
140301.0
339892.0
41095.9
18352.5
325398.0
-257.921
15501.8
-287964.0
-76704.8
-35500.9
18130.2
18838.7
155275.0
-114802.0
-15556.5
-87648.1
-42539.2
-169135.0
45698.7
-565444.0
-610689.0
-39444.0
-63039.0
-36193.6
321373.0
-5494.03
-88075.1
124804.0
756820.0
187981.0
-12215.7
59277.9
-78467.7
23295.0
202489.0
720034.0
208166.0
130052.0
74532.4
-121332.0
106558.0
-407417.0
148382.0
177594.0
87961.0
-557605.0
92710.7
-232041.0
168671.0
-275795.0
-84928.4
-172432.0
80067.5
-327318.0
126369.0
19737.1
-307913.0
-181619.0
336199.0
41878.0
207490.0
-16082.0
-213907.0
291067.0
125343.0
74090.7
40343.7
121978.0
125567.0
142877.0
-136913.0
2046.79
107207.0
138583.0
-74513.8
-54272.6
15089.4
-48639.3
4359.82
355987.0
474257.0
-39553.9
54735.3
-57974.2
-431344.0
497053.0
-413197.0
53605.4
1685.31
-181311.0
296093.0
41718.1
-249646.0
-50809.1
-624318.0
-1638.6
-74168.0
-163022.0
67852.9
93210.6
473924.0
-26374.7
330229.0
44367.6
11580.0
130657.0
-437554.0
-99333.0
1002660.0
840301.0
-734750.0
207535.0
-265115.0
-138387.0
53079.8
-21229.6
123124.0
-508395.0
322507.0
90999.5
-190670.0
11756.6
461848.0
704226.0
-80448.8
109236.0
84619.0
215866.0
-367625.0
481535.0
13270.3
-203611.0
566858.0
8579.78
-90278.2
-60989.5
-413534.0
56994.6
34356.2
174418.0
315283.0
-47050.6
73359.4
54286.1
390306.0
160390.0
310210.0
81394.5
-8964.01
-36308.3
46755.7
-36762.6
-56605.3
21346.2
28927.0
-45682.6
-171214.0
5901.51
81477.4
59807.4
26499.6
-111587.0
72275.4
38065.7
-373389.0
24748.2
-35257.6
-340465.0
14410.9
-465725.0
185114.0
-47682.9
454034.0
-111499.0
471041.0
46207.5
-28351.4
-468776.0
55257.7
-140394.0
97431.1
203264.0
510426.0
36491.5
214240.0
169173.0
65737.8
48105.7
392918.0
-1917.44
-344304.0
80521.0
786883.0
119821.0
185239.0
14801.7
658161.0
316566.0
-22561.3
-146041.0
208027.0
857192.0
204697.0
-75763.9
370556.0
140885.0
-404002.0
81120.9
-16983.3
-68789.7
-133523.0
-103905.0
2026.22
153920.0
-337987.0
34457.3
30143.3
88777.4
-266919.0
-484125.0
310851.0
140662.0
-578136.0
727502.0
-14300.4
416.687
76735.5
-14042.6
868962.0
57377.3
342521.0
-158774.0
65133.3
-56722.4
-31199.2
25251.1
224559.0
126565.0
63283.1
46989.7
80211.9
-229428.0
83029.4
135388.0
-146512.0
104099.0
-312.122
89329.9
148175.0
-131822.0
-102679.0
-237109.0
-219246.0
-53055.0
-357232.0
16116.1
-300488.0
327687.0
14500.5
47787.4
-45819.2
-20000.8
-339124.0
30562.4
-35331.0
28161.3
138498.0
203607.0
-112653.0
-209251.0
-69167.4
76199.1
130922.0
132840.0
-152479.0
-25916.6
-59890.7
-179393.0
-25969.8
32938.9
-63156.1
-44189.5
70181.3
-173029.0
121081.0
-138607.0
-17216.9
45477.9
-32887.1
292421.0
175985.0
686532.0
321158.0
-314365.0
129098.0
97259.3
158794.0
-421468.0
-330147.0
-170056.0
23660.3
-29346.0
-172014.0
240892.0
-20061.2
35533.3
-232147.0
803376.0
268341.0
230352.0
-10092.7
547852.0
-67546.9
153078.0
327276.0
11389.8
120764.0
22753.7
-271414.0
288119.0
174765.0
148958.0
-10354.3
345340.0
-381631.0
-133069.0
-61005.6
73938.3
113103.0
-50766.0
-154402.0
4057.0
1455.54
196582.0
-193469.0
-161307.0
-88867.7
-38239.1
229369.0
-492574.0
-15378.0
888.742
39437.3
67087.0
767103.0
7059.44
-311855.0
131735.0
104667.0
135522.0
-36707.1
10515.8
-33251.9
-373145.0
-37111.8
18728.9
142450.0
-118406.0
166339.0
-14412.5
-94185.7
233107.0
98967.5
-131875.0
-12656.0
-234194.0
200412.0
13337.8
99193.3
155759.0
-40585.1
-7857.24
83853.7
217034.0
-39977.5
-61719.2
-260248.0
249586.0
152898.0
86459.3
577534.0
119616.0
152198.0
205255.0
34932.4
-41057.1
133268.0
-129507.0
-176505.0
134087.0
211702.0
-78385.9
-22790.9
-53700.6
-28454.1
78868.5
-86803.2
251137.0
334430.0
-126820.0
7812.02
-1222570.0
-367894.0
580474.0
-6603.63
120348.0
48318.4
545397.0
-226275.0
-50356.8
45018.0
33972.0
73170.5
63416.9
-101358.0
634470.0
159283.0
-145023.0
-963691.0
-207495.0
-533837.0
17010.9
-118808.0
75572.0
-181776.0
26114.8
-2635.25
-253889.0
42264.0
-159644.0
-116277.0
-151938.0
-327838.0
-76402.1
-104286.0
-345666.0
100848.0
-75376.1
348495.0
228025.0
-179383.0
-110097.0
21432.4
101914.0
-22765.9
-28652.4
14461.4
128748.0
36948.8
172900.0
-475935.0
32612.0
37818.6
169996.0
-263383.0
104761.0
532557.0
-116885.0
83963.9
166670.0
126677.0
78183.5
-160233.0
352582.0
11924.8
-115977.0
97118.2
429990.0
239539.0
85093.6
234076.0
120994.0
-277741.0
20327.2
-31954.5
-22965.9
66890.4
-36340.8
40874.6
14409.7
245324.0
-44368.8
6673.0
66434.0
-217081.0
7412.08
-131627.0
-69495.8
-57142.7
235587.0
-43759.9
-95504.1
87776.5
971.058
118742.0
53930.9
-24744.7
-171905.0
-190621.0
4320.59
13330.1
-220503.0
-154366.0
39070.3
18544.8
-139813.0
-65982.5
170140.0
-61270.0
4059.69
-26370.9
-72387.4
267548.0
-24969.7
-72718.2
-96562.4
421808.0
-105012.0
172017.0
46627.2
22448.3
-23717.1
-22846.4
99070.7
-14101.6
142620.0
-717660.0
23698.8
284817.0
-37640.7
-53071.0
-104677.0
355651.0
85126.7
2171.03
-681316.0
-514461.0
-124136.0
65722.1
466967.0
188431.0
-189193.0
105772.0
147080.0
-129469.0
-289509.0
367856.0
-36632.6
119277.0
77408.7
28396.1
18535.4
187242.0
452059.0
-29556.6
-64977.8
-20047.8
417099.0
584053.0
208664.0
92143.8
-127247.0
39344.3
-100024.0
192695.0
-10519.7
-156546.0
286607.0
-16882.3
18373.1
353594.0
55434.4
109559.0
824974.0
-102675.0
46680.2
80595.4
52508.8
-780292.0
-202016.0
30367.3
11893.3
-247181.0
250236.0
-69470.1
-182359.0
52107.2
-73609.7
18194.2
-264642.0
-599282.0
-137354.0
530887.0
814958.0
-4062.86
-698766.0
-5804.97
184556.0
54067.6
149935.0
114944.0
57459.6
-36160.1
81086.1
276182.0
-41101.1
-11668.7
-7504.28
75836.2
24198.2
-403635.0
-109362.0
342486.0
-432333.0
291002.0
340633.0
-14999.6
50938.2
-181397.0
-410787.0
-35137.4
-15246.0
-105851.0
-38821.2
68522.4
245403.0
18976.4
33882.8
-410190.0
-6390.36
131431.0
-365828.0
179455.0
-491618.0
-30976.3
-90424.4
-607498.0
75673.3
-202355.0
-26703.7
60664.5
306381.0
174153.0
-29898.0
223618.0
132745.0
128240.0
166741.0
35313.6
76422.1
2440.9
32892.4
-161148.0
14724.9
-466079.0
-498041.0
83680.8
79150.0
305120.0
48382.5
-100525.0
79299.0
-327601.0
-184625.0
26437.0
1448440.0
25965.7
-36783.4
536.677
-125514.0
-35122.6
-314261.0
239709.0
-35830.8
145012.0
49454.2
-481409.0
31093.5
-67240.5
54865.8
-127468.0
44479.0
-135576.0
-440218.0
1003830.0
-4424.42
22390.4
33555.3
80332.8
-72549.6
2865.44
108452.0
-261814.0
57198.4
26544.7
53239.6
44292.0
367722.0
83756.2
37390.4
117998.0
-84144.5
-45651.4
-185971.0
73490.1
25373.1
-201105.0
629329.0
-29099.1
181352.0
105105.0
139520.0
18952.0
154487.0
-72108.7
-347756.0
-169976.0
-108016.0
28095.8
-27357.0
-11496.3
20944.7
-175381.0
320167.0
164004.0
-187173.0
-101130.0
58395.3
-21308.4
127623.0
57251.7
400662.0
159444.0
164398.0
-68420.3
-32577.1
-480219.0
-242687.0
-42744.6
-48659.3
-152623.0
-238517.0
3707.62
103116.0
-244610.0
355243.0
253637.0
-125589.0
-110952.0
-126899.0
4639.56
-104177.0
-11036.9
355444.0
-128386.0
-6490.5
-184281.0
147108.0
7241.19
-543738.0
-21076.4
-95068.5
162013.0
-13419.3
-57037.4
-204443.0
47688.6
-68989.3
273367.0
220543.0
-56883.0
-110473.0
75971.7
41970.6
78440.1
-280201.0
93929.3
-20362.6
1023530.0
-19031.5
-721184.0
-26350.9
32520.3
543552.0
-87210.2
32159.1
21607.6
-23447.7
-40550.8
413062.0
-184527.0
42327.0
352707.0
106221.0
2245.06
92968.4
192006.0
142296.0
54250.0
363427.0
721626.0
-274490.0
127840.0
-370842.0
53173.4
45224.7
113831.0
-250893.0
648228.0
3524.21
280772.0
-25326.0
-28864.7
-11266.6
52131.3
186973.0
229818.0
61457.2
-325364.0
-16872.8
-173945.0
239473.0
-119678.0
-143136.0
209989.0
399392.0
4213.25
-10295.4
85581.0
13694.6
72368.5
96096.5
-362162.0
-1208.96
-218003.0
95454.2
9839.25
21100.6
-1170560.0
-209778.0
-243039.0
-180415.0
-332231.0
-169375.0
127336.0
110477.0
49685.5
57310.5
14693.8
-20167.0
-152109.0
27116.5
145269.0
-46638.7
137936.0
1082760.0
113548.0
531558.0
45391.0
-5321.16
-12135.3
-277219.0
-131848.0
-202058.0
-54405.6
906081.0
331294.0
-156490.0
-307294.0
156401.0
299453.0
17540.1
629664.0
261539.0
-487.292
44111.1
33277.8
21754.2
-9806.62
23617.8
32242.9
-119728.0
-202588.0
158874.0
34089.3
-212466.0
-9073.39
265446.0
115053.0
-47382.7
216615.0
-89471.1
135533.0
165810.0
263727.0
77583.2
165816.0
56054.3
62866.5
-337098.0
10338.1
-64824.3
37391.3
-176683.0
-109029.0
83840.0
-74146.7
112274.0
-29539.6
266957.0
-48186.5
-102644.0
-24311.8
-121289.0
-324326.0
-432493.0
-49385.2
-247206.0
-36160.0
31812.1
92280.0
-48192.9
208771.0
128325.0
3976.08
122336.0
70583.0
78346.0
-97930.1
24748.5
595788.0
128943.0
108992.0
-107155.0
16443.7
-718289.0
172781.0
156368.0
-191707.0
7490.5
-151528.0
-31160.4
-98842.5
21375.4
49062.5
-169935.0
-43012.5
-588511.0
12265.4
-61422.0
19175.2
-506604.0
29627.2
-47893.5
-65902.9
-277712.0
202138.0
4841.7
-129075.0
-168567.0
-42913.9
-83758.3
208745.0
-671623.0
49810.4
-10179.1
-244907.0
-370330.0
-30290.8
164562.0
-130029.0
125428.0
92239.9
-104798.0
98636.7
106508.0
54654.3
230438.0
-21773.6
-142043.0
-578038.0
-40579.6
-89269.8
-226869.0
68384.6
-23782.7
109808.0
-125028.0
-125988.0
-69201.5
32735.9
-94256.2
70924.5
-101489.0
-55550.0
-71526.7
335306.0
-308317.0
-2473.43
50606.7
41579.3
37483.1
-43385.8
387486.0
-66719.5
113505.0
99968.1
-593.246
-136352.0
-232881.0
-214106.0
62776.6
-154823.0
-99411.4
550059.0
-7675.17
-612103.0
75117.2
-154922.0
75281.2
-7985.7
-322253.0
-35977.2
115496.0
-276512.0
66308.3
220693.0
61029.4
-22030.4
136598.0
-1604.16
42289.6
10501.6
23555.5
706952.0
101776.0
133593.0
123899.0
80691.9
-78300.4
25398.2
-151686.0
126504.0
124533.0
-369303.0
-77065.7
47244.2
351307.0
99178.6
17353.4
-469459.0
57314.3
41257.7
204329.0
500513.0
-125053.0
-609253.0
-40204.9
194687.0
-263288.0
117902.0
4402.89
-395012.0
167051.0
26934.7
8996.79
-72159.5
-62809.4
-79264.5
-56471.3
-581513.0
59276.5
-493338.0
56416.3
-75424.4
110759.0
447596.0
-941449.0
2738.97
158567.0
-90189.9
-269599.0
-304806.0
-117837.0
-41377.8
-183351.0
-518414.0
407807.0
-494899.0
97733.9
210413.0
-208979.0
254661.0
66230.1
-672197.0
-42913.7
39506.3
25495.9
-48546.8
126770.0
-80648.3
-171710.0
-4149.04
-171937.0
146984.0
-162314.0
71954.5
-19802.6
17110.3
-115304.0
-3763.74
-224639.0
-55245.7
38194.5
105045.0
88477.7
-2139.95
-95011.2
410256.0
-198067.0
-4014.57
30921.1
-342682.0
184323.0
169144.0
-2669.29
-81664.0
-101032.0
142880.0
-47369.3
90523.8
107240.0
-217230.0
83370.1
-184788.0
44032.7
70226.9
467551.0
164500.0
77810.1
-257298.0
-247589.0
-110408.0
-366177.0
-260219.0
-50528.0
4093.29
-35985.2
-164952.0
93656.2
43006.3
-109155.0
56057.5
394789.0
196258.0
194443.0
-979.462
193346.0
410507.0
601237.0
-289050.0
152011.0
202439.0
179630.0
131675.0
12784.5
-146864.0
111136.0
-862522.0
-164606.0
21284.3
-43378.5
-521129.0
117748.0
56702.2
-17256.6
-327687.0
15237.8
122143.0
384519.0
-51906.6
136183.0
47859.6
-112120.0
-72679.2
64045.0
303307.0
-156125.0
45646.9
-15700.5
-67979.7
427166.0
-162055.0
-31948.2
-145253.0
-65834.1
-138781.0
3449.64
-35473.8
43540.9
-147064.0
-516642.0
370873.0
-177466.0
-48615.3
-72445.9
-42442.6
-49620.9
-22886.8
138648.0
-351553.0
59239.0
-764490.0
-21575.3
-141798.0
112213.0
61261.4
80901.8
18770.7
982127.0
256761.0
-38210.7
-125219.0
-67613.3
-236617.0
11759.4
-30631.0
-27805.8
115257.0
-19240.7
-620535.0
171261.0
21779.1
10033.8
130088.0
54275.1
90327.5
-155439.0
386032.0
-153061.0
9239.23
-64354.4
52744.0
61883.4
-225526.0
81464.7
641931.0
148678.0
-54283.4
-34020.5
2087.82
-23695.7
-35215.8
-56473.4
25302.9
427436.0
15628.0
112459.0
-90006.8
-250935.0
40078.5
7628.31
-555159.0
-139504.0
-134301.0
-6898.98
331224.0
-179088.0
338507.0
12185.7
-361513.0
-2478.6
132585.0
31099.2
-48554.5
273900.0
-6274.89
452986.0
-300444.0
-156817.0
-209845.0
-141621.0
90746.7
-155293.0
-358740.0
-31483.3
-149975.0
12264.8
707977.0
-277909.0
216403.0
17605.6
-457958.0
-7185.87
-1258440.0
28278.2
-32884.1
21606.6
634812.0
-88939.0
18717.3
-539526.0
98052.4
632981.0
47611.8
215054.0
21054.6
249302.0
-328400.0
147429.0
-218919.0
31574.4
22766.0
260923.0
-357088.0
-154864.0
-25181.4
-70034.3
-150948.0
292507.0
71725.4
328702.0
-282104.0
-453400.0
-390796.0
370003.0
73212.6
-82164.5
75080.5
28540.8
-70296.2
21716.3
-376907.0
65605.3
-83762.8
-19980.9
29638.9
167245.0
175413.0
-201475.0
-22221.1
-203945.0
-211192.0
36364.9
674699.0
2901.33
167293.0
347235.0
652014.0
-208842.0
76048.6
-117472.0
120288.0
45851.7
-227944.0
77969.3
266768.0
-42639.6
65214.9
121282.0
80371.3
-404921.0
-314831.0
6524.73
-446810.0
-103371.0
-285353.0
154944.0
-81581.7
-82894.1
-154361.0
-92700.1
139635.0
-339700.0
170479.0
19069.7
61264.6
53458.7
107909.0
16861.6
-3956.23
-101898.0
-177613.0
-95141.6
-906998.0
-213227.0
-162077.0
-186877.0
-389264.0
109569.0
-76421.1
325151.0
-203983.0
-131836.0
-269620.0
-71915.5
97802.3
-10953.3
188274.0
-47346.4
579310.0
36994.6
-64256.1
311970.0
-59307.5
-117491.0
587269.0
137467.0
87046.3
-316764.0
-139409.0
-316807.0
-138783.0
-42213.7
33336.2
61655.7
27192.6
-195632.0
9208.43
13578.6
-177800.0
193036.0
-78130.4
-456380.0
170473.0
212508.0
-302784.0
-1484.7
-123627.0
-361124.0
-344379.0
150019.0
83933.6
61114.5
13602.0
-235479.0
-13238.5
-399467.0
-437312.0
-178787.0
-126372.0
39215.4
318629.0
39264.6
-62823.8
12240.8
-17025.0
103298.0
32141.9
458723.0
19497.0
112165.0
136550.0
-97751.6
-10359.9
-47634.2
-55253.2
335.421
47428.0
-45281.1
-490965.0
-253666.0
129297.0
54816.1
91594.1
16926.0
37811.2
-49759.8
-40690.9
7617.59
-58737.2
-161167.0
3523.74
-20868.9
-312421.0
-85111.1
-172016.0
137755.0
-156864.0
16846.0
33483.5
-15302.7
-151885.0
-504299.0
107677.0
57962.9
-301349.0
116274.0
-22350.3
-34749.6
127344.0
-193401.0
202330.0
-177787.0
-24761.3
-106130.0
46151.3
-12410.4
-140596.0
416639.0
289679.0
-125846.0
71658.9
118941.0
-116543.0
-243298.0
-119724.0
19655.9
147117.0
-306316.0
-8195.51
-251204.0
-277439.0
-43322.0
-217196.0
-126886.0
-78363.3
147966.0
-23184.3
119773.0
216647.0
-72590.3
-103543.0
-30737.5
14801.6
194623.0
702.021
52219.6
-164901.0
-15765.7
-202169.0
694148.0
-105883.0
-176558.0
76889.0
-171441.0
-160203.0
98821.3
509972.0
180798.0
181284.0
266298.0
-34686.7
-120745.0
23409.7
-28391.5
193725.0
-166849.0
148837.0
154955.0
-377269.0
86141.9
518152.0
162751.0
41588.4
828059.0
171944.0
185172.0
-144759.0
23343.0
39322.5
-141834.0
193274.0
29281.7
107378.0
202916.0
213398.0
-443087.0
-84613.5
-166977.0
42985.3
361726.0
31965.1
2705.97
180066.0
185403.0
-406087.0
71268.8
-207737.0
36997.0
68753.8
7560.5
-226769.0
-88036.5
22776.7
-7357.4
-249821.0
-4279.65
916515.0
-285992.0
11202.2
-58933.3
30576.2
58378.3
-170774.0
69332.2
-72616.8
10504.8
136014.0
77307.3
-1277170.0
-185007.0
-277784.0
-627.76
173187.0
39961.0
116391.0
196785.0
55912.4
558695.0
-375805.0
-116263.0
-286594.0
65820.5
-140485.0
-49607.3
4830.73
-91751.3
-122130.0
68740.3
131571.0
-46404.8
-46588.1
-489755.0
297051.0
75822.7
-19453.8
-222015.0
13353.7
104950.0
5034.68
-50056.7
568143.0
-22170.6
-63572.5
-47786.7
121923.0
568323.0
154355.0
-2307.6
5221.2
-41220.1
14539.9
88820.2
81691.8
64175.5
206592.0
133501.0
-176035.0
-200303.0
108155.0
119676.0
-78915.1
-206495.0
-357732.0
47482.5
132039.0
74080.6
292920.0
44756.2
13017.3
114097.0
101743.0
92595.8
-259193.0
173181.0
225008.0
610500.0
21040.2
-601397.0
-79039.9
-51873.8
27270.8
26228.2
97300.6
11691.8
492636.0
-29992.9
-24106.9
-163360.0
39100.7
-193018.0
206524.0
-37520.8
85822.6
92006.2
-138294.0
-303115.0
-178535.0
33820.7
234892.0
38261.3
-223768.0
42333.8
-65164.5
-19771.3
42589.2
-485.202
-18432.8
-168150.0
71008.1
194154.0
34322.1
224796.0
237384.0
-61531.6
10196.8
-4672.05
-916030.0
-94187.8
418159.0
159527.0
-33159.9
-36580.1
181436.0
-101279.0
-119212.0
-66503.9
-109749.0
-17459.0
41430.8
-404543.0
418056.0
-982.186
142522.0
20535.0
245412.0
442047.0
105634.0
43583.6
-57641.2
58476.7
223120.0
1512780.0
-17902.7
-17240.5
174603.0
10818.5
-56801.6
-222969.0
-134769.0
696742.0
-250513.0
-231118.0
91573.6
63799.4
12290.0
60968.2
219900.0
182914.0
-249199.0
276466.0
-145026.0
4372.23
23876.2
66262.5
-35498.4
637965.0
19538.4
-555954.0
135775.0
-36456.2
-22191.2
-169247.0
-16224.5
96131.1
-78158.0
92543.7
-111688.0
-2599.78
-37319.3
358376.0
189381.0
130985.0
130778.0
991548.0
-32557.9
-42462.6
7507.91
630506.0
-131946.0
-165892.0
3156.32
-143295.0
443931.0
-171309.0
146427.0
174546.0
23697.2
27872.4
-30831.2
-187129.0
-25221.0
-488171.0
261158.0
-758477.0
34955.7
68741.4
216938.0
-1687550.0
771929.0
241474.0
-20472.1
-52314.9
-51625.4
-149802.0
-365974.0
-53630.2
741945.0
43801.3
-379898.0
2996.39
-62383.1
184950.0
-33765.5
-269181.0
27337.0
16105.6
-77219.8
100847.0
-24660.7
-927415.0
10369.4
57199.2
-131309.0
104178.0
-265618.0
-385580.0
200940.0
-31418.8
-34641.1
-56607.1
41563.9
18041.9
53661.0
8168.17
212341.0
817722.0
-443920.0
-591175.0
-103774.0
-82015.6
-94374.2
30953.1
-120274.0
709111.0
-21838.5
273414.0
-158580.0
-39651.5
-47579.0
64032.7
68182.5
-117084.0
22967.2
18625.0
66096.2
13068.2
-118444.0
58130.4
-177425.0
18917.5
554011.0
-31261.6
-1802.9
115083.0
-13971.6
398174.0
-47637.0
26033.2
-211721.0
-129836.0
-109481.0
399070.0
85123.2
-88361.6
-6998.43
949925.0
-124499.0
-447249.0
-790331.0
-18080.4
-21368.0
-88207.0
-366042.0
-53302.6
-98517.3
-23820.9
194900.0
227113.0
-19459.0
82705.8
251258.0
-72855.2
-52851.0
143534.0
297857.0
162401.0
-44840.9
-68435.3
-10451.6
54842.6
148023.0
318705.0
-17764.3
304649.0
-142479.0
-146718.0
-193881.0
546061.0
840.409
39653.7
-11146.7
-14669.2
139636.0
21550.6
-214139.0
-28223.8
728430.0
273085.0
71564.1
-285333.0
46872.5
-14879.4
-131978.0
51116.5
-58632.2
68260.4
-6729.56
2127.84
-317151.0
345224.0
182836.0
-62165.2
-33716.0
469.19
134371.0
-218742.0
983.347
-193047.0
320113.0
686568.0
465152.0
-11142.3
110023.0
-87481.7
-34441.4
-535307.0
22490.3
300433.0
7352.72
36387.2
-351612.0
-11355.3
360375.0
-64753.6
37401.4
-112541.0
403162.0
35670.2
34658.8
-168011.0
56619.3
-746358.0
105121.0
56735.3
48127.7
119592.0
112559.0
-50482.3
-14817.5
8558.17
-8762.34
-183663.0
-26506.6
-98108.8
-195502.0
-63527.5
-79626.4
34179.4
-63076.2
137034.0
-50579.7
151763.0
47625.9
-3125.99
-165280.0
1360.22
-14468.9
77431.0
2894.81
-58425.7
-56703.3
101063.0
66456.7
-75881.3
-309959.0
3986.27
45451.0
-4076.48
119931.0
27058.0
-87166.2
4882.8
211194.0
-60160.7
-77201.4
164232.0
-102748.0
96184.6
164894.0
74312.4
186012.0
29736.4
-56924.4
-343650.0
424074.0
207422.0
249252.0
340587.0
-65147.9
103634.0
-45679.3
-43075.7
75884.8
-23342.5
-110873.0
-85759.1
5016.05
-458371.0
-66109.9
4522.0
2988.58
-153644.0
57433.7
-253200.0
-102093.0
-210818.0
-81153.7
-189375.0
-227850.0
-427837.0
-30792.5
-7972.32
396869.0
143781.0
3876.72
316190.0
62451.6
-29677.7
-18617.4
34587.8
-910008.0
92240.0
-7958.01
25278.6
-29925.0
-29446.8
-63233.9
2954.69
-9657.9
139058.0
41957.8
-155221.0
-154911.0
455687.0
64620.0
57084.0
-74652.3
371239.0
844465.0
163864.0
113981.0
-207360.0
-220244.0
-148389.0
-94865.6
175135.0
728326.0
-142569.0
163178.0
125379.0
-94024.8
-22826.5
-283518.0
201132.0
-1081580.0
183238.0
82437.7
582968.0
95416.7
28510.8
63457.1
58293.5
717.287
-149374.0
74308.5
233180.0
-54137.5
-39550.7
96430.7
-72653.4
12797.4
25368.8
-325399.0
157680.0
-98241.8
21103.8
-203468.0
-32191.0
107569.0
227088.0
13778.3
50046.9
-38698.0
-180413.0
-215274.0
15267.9
-142496.0
10389.6
248891.0
42794.5
355856.0
-62434.8
-820977.0
230465.0
-195580.0
-132079.0
908006.0
-5330.62
-485865.0
-23251.8
-314922.0
-1075.63
-405137.0
93630.3
3594.74
181430.0
-12574.5
-170532.0
-175624.0
137743.0
139628.0
19106.9
107850.0
309645.0
-10217.7
165504.0
-147375.0
176064.0
-16913.3
-117578.0
-57984.2
-24238.1
92538.0
81716.0
-103005.0
61736.7
22202.4
-240290.0
-69259.5
-287874.0
-341492.0
-407921.0
-183979.0
-9115.47
-159513.0
-1412090.0
-44861.7
-203290.0
471870.0
217131.0
235797.0
84335.9
66856.2
325648.0
433170.0
54164.3
127207.0
-77796.7
86900.9
37897.1
116570.0
-90308.1
-114554.0
-494162.0
-120496.0
135759.0
-319468.0
-324679.0
10907.4
214602.0
57495.4
-51828.0
-78020.8
221382.0
-170250.0
233533.0
885330.0
21685.2
-63518.6
-23387.5
-58484.7
-112374.0
34257.5
-185802.0
-56560.8
-32288.5
-767085.0
-357512.0
-151408.0
-6485.41
11120.0
76820.4
88756.8
-77462.1
-56321.7
-44242.1
-158369.0
-1009110.0
170662.0
35710.5
605094.0
52650.2
-17614.4
70231.0
197701.0
119949.0
-42475.3
33949.1
205884.0
-185721.0
281915.0
126219.0
-150557.0
345295.0
77422.2
66832.0
-344796.0
-4677.65
1296100.0
-31137.6
81828.0
72760.7
-39641.1
143481.0
-14144.3
126822.0
38146.3
-137120.0
-262.187
-130630.0
-33813.5
-115759.0
-85745.2
14714.2
29321.9
-929274.0
-168364.0
-31728.6
-330743.0
90026.2
-186890.0
132326.0
-154278.0
345728.0
-67244.0
213747.0
34150.7
49543.8
293646.0
87206.3
17321.8
237111.0
-59961.4
-16123.3
19738.7
-65700.3
-17671.9
-235584.0
44246.2
1339040.0
59941.0
25913.5
367587.0
100761.0
-158163.0
-167298.0
145684.0
279368.0
170381.0
20584.1
-505859.0
148206.0
78096.9
205868.0
-710330.0
264729.0
87394.5
70924.6
57904.5
-2278.34
392704.0
-89651.5
23937.0
-188546.0
198389.0
-28625.5
-39884.1
-50148.7
714368.0
-47564.7
-28407.5
24743.7
-281074.0
28090.6
-173364.0
-140751.0
-174856.0
70744.5
246459.0
427549.0
-25357.2
-41725.1
32931.5
22713.3
29746.8
-28898.5
122535.0
-6399.34
-58548.6
129857.0
20751.9
131181.0
26803.3
-2357.15
-115096.0
-560647.0
169600.0
319996.0
541895.0
-804431.0
-28942.3
37787.4
297741.0
26393.4
124476.0
8422.55
-70031.7
-37669.3
128588.0
-670698.0
-421693.0
-47682.2
87197.1
239152.0
-42759.5
25824.2
-154306.0
629134.0
-437737.0
576033.0
-52405.7
93536.8
-54405.5
24741.8
-519802.0
-1450.14
16057.4
-26386.5
34472.6
-40962.9
71628.9
-121744.0
-230791.0
93081.4
54923.3
38135.2
197554.0
16392.7
-469383.0
-15403.1
-16531.6
-191750.0
-261361.0
-459772.0
40051.2
-1622930.0
-43114.4
263797.0
-123633.0
-15185.9
-455814.0
-103933.0
-51153.9
-467737.0
183636.0
-116419.0
77479.5
-7642.74
55545.4
-7661.49
301336.0
-76782.9
15690.8
5808.51
-71027.6
-43842.7
106754.0
-369865.0
209002.0
-32076.4
-366794.0
-60227.7
127855.0
-31922.9
12278.4
22864.4
-101546.0
-360004.0
-176227.0
70956.4
418646.0
21273.2
-265689.0
274563.0
-245592.0
-378042.0
443616.0
59239.0
86448.2
293157.0
59656.3
7770.26
-251631.0
21672.5
-95579.8
-38927.2
-14714.0
362633.0
3280.84
-233743.0
81643.2
-227384.0
-56627.6
-10687.1
-137881.0
-298538.0
-940753.0
-138639.0
149486.0
-266408.0
-46576.2
-10619.9
45750.4
-169917.0
-82165.7
205941.0
10184.8
40272.2
-535.579
-83426.4
128653.0
99114.8
-91298.2
81920.8
124158.0
10751.2
-362145.0
-571840.0
-628867.0
-369102.0
-104996.0
598595.0
466179.0
256754.0
9229.37
-97309.7
-143769.0
128707.0
24010.9
17828.9
5779.71
-617490.0
-81738.6
88542.0
15633.1
-216306.0
-179751.0
402154.0
335842.0
-54260.5
-82504.5
-126098.0
114342.0
992322.0
248354.0
150635.0
-103019.0
-211347.0
55720.1
-810338.0
-513882.0
-3138.48
-104439.0
342222.0
90739.6
29131.5
861947.0
512977.0
345063.0
97215.8
24903.6
47158.6
607043.0
-64899.9
170267.0
148566.0
236874.0
94680.0
-42330.7
44710.8
141207.0
133122.0
216202.0
-60385.8
-109218.0
-90582.0
-13922.7
-15169.5
-126810.0
95822.8
379546.0
-64047.9
8452.93
43323.2
1014540.0
238476.0
144956.0
-293395.0
-73919.5
-76106.8
209955.0
31395.7
108488.0
-113859.0
18499.2
55293.7
-500516.0
-176804.0
41473.4
-163144.0
272137.0
-317115.0
-89797.2
-30836.0
199897.0
172185.0
-30968.8
-216427.0
6545.8
121730.0
-203190.0
-161278.0
-297919.0
73399.9
-221140.0
-88150.5
720240.0
72878.3
-306406.0
15139.3
-200342.0
31418.9
-188028.0
200871.0
-191685.0
-21907.1
-199223.0
19406.1
-216008.0
-14210.8
-448598.0
78502.5
-193456.0
472738.0
-7676.42
-194962.0
-117559.0
65251.3
-22741.9
-110321.0
-20236.3
-54953.6
-226867.0
183175.0
-304100.0
-71263.2
-74153.5
459869.0
-12451.2
292123.0
-450427.0
21443.4
-266151.0
-706436.0
-77702.7
33946.7
16008.1
100006.0
-10195.6
-234575.0
-31583.6
-84850.9
8555.33
175617.0
-134704.0
-63323.4
159599.0
-509524.0
2006.14
-179488.0
-116153.0
35558.4
146254.0
-650334.0
43710.4
-813.602
37289.8
194215.0
-39083.7
-22249.7
195253.0
28525.2
70295.4
118971.0
-69303.1
-169311.0
52815.9
233110.0
-109647.0
46750.3
121519.0
-61435.0
-20866.8
-124067.0
285840.0
-14885.2
-114062.0
7861.69
-370.058
72707.5
-6916.51
105418.0
-272381.0
370357.0
41744.8
-106380.0
80859.5
189784.0
397.387
-54710.4
-129431.0
-446976.0
18164.2
81337.7
-82883.8
75305.3
472587.0
-57643.6
-53490.2
40113.0
-201579.0
75400.5
196819.0
56095.3
45936.2
-318108.0
-327124.0
241129.0
771033.0
251089.0
-15614.8
-44508.1
-314142.0
-803911.0
631537.0
-126733.0
-32668.9
-156558.0
-343896.0
-27474.9
-130014.0
-173850.0
89264.7
143207.0
202268.0
162978.0
-134970.0
336429.0
-5214.25
51414.3
-239397.0
-471216.0
-53614.8
-448927.0
-50969.1
62324.7
165790.0
-128364.0
-394467.0
-112572.0
-79945.9
20820.3
116639.0
103336.0
363488.0
486580.0
46980.4
310100.0
236378.0
-36922.2
314200.0
-54862.7
22248.8
163778.0
233588.0
16218.7
-479280.0
51134.9
185196.0
-65132.6
30468.0
-182622.0
-138051.0
143469.0
-32133.6
-3772.01
126221.0
30529.1
-227135.0
268124.0
-44770.8
140377.0
10532.2
260681.0
-287044.0
-128739.0
129293.0
206640.0
-96966.2
527944.0
-20400.2
127518.0
139581.0
66519.8
102669.0
-98035.9
-354960.0
-122783.0
89354.9
48490.1
303370.0
-15259.3
304785.0
-182641.0
-49256.1
-38185.7
-7938.04
-521340.0
-24892.7
13467.0
28349.3
-103188.0
-352414.0
194930.0
-33288.5
5189.87
-97740.2
218999.0
42477.7
417753.0
223321.0
205828.0
130774.0
5051.23
-214658.0
-51945.0
-8695.56
735897.0
34876.8
511557.0
40495.3
-50879.2
413185.0
-4687.69
-340713.0
-433463.0
-89547.9
19176.5
176496.0
65150.1
-90666.1
-319913.0
138646.0
-50649.2
-146507.0
-48690.1
-808351.0
-28897.2
-37085.4
-197784.0
-942.123
33571.3
118125.0
-240273.0
-89222.5
180182.0
74712.5
-235601.0
76473.9
-1151.45
-31782.9
6801.32
354488.0
-24062.1
-93030.1
109716.0
-61897.4
55929.5
-29590.7
-258347.0
-53746.8
330563.0
-25212.2
167703.0
12959.7
-583379.0
-318658.0
-251506.0
329607.0
29436.1
97919.2
-245080.0
-103057.0
81694.2
-33653.2
46807.3
14823.5
35799.9
-280631.0
-273567.0
268141.0
-92043.4
140855.0
209702.0
4402.79
-3573.96
137677.0
-11559.8
-35902.9
54842.6
147212.0
259335.0
142520.0
-94301.3
-22426.6
-198368.0
-96593.8
25196.0
58881.3
-283730.0
-279437.0
-587415.0
-307351.0
-96126.9
-34371.0
308754.0
-366626.0
114454.0
52280.8
-96693.4
100915.0
158375.0
-122800.0
464203.0
453970.0
24947.6
19406.9
-38860.9
-61009.1
-208706.0
12124.4
-58601.6
-19701.7
167354.0
21969.5
13459.2
-278994.0
15632.8
282937.0
27172.4
-31555.6
141566.0
144992.0
-20342.5
-47985.9
243068.0
67958.9
61033.6
147973.0
115799.0
-588769.0
-129437.0
95997.3
298843.0
-13582.9
32870.8
-115948.0
188140.0
-2294.29
-128678.0
21911.0
-132849.0
39976.0
-870.975
6304.73
300652.0
110139.0
-373667.0
28472.7
-70055.8
51062.8
263091.0
-169926.0
-80142.1
864427.0
-31815.8
124220.0
247781.0
12083.8
-36770.6
-273989.0
-102968.0
-320974.0
50019.7
-109143.0
-270021.0
-66492.8
248733.0
20432.9
-6069.77
-68350.4
-391736.0
-28525.4
9685.47
61764.7
127823.0
-26930.1
196281.0
75440.5
-195696.0
-38759.6
-18480.8
-162694.0
-44888.8
-707945.0
32609.5
167637.0
85581.8
108040.0
-140629.0
-529853.0
157644.0
3850.39
-137487.0
-215752.0
25785.3
397903.0
517925.0
49746.4
80531.7
-144469.0
34290.0
-210400.0
12844.8
65452.5
-108223.0
-25142.2
82524.9
18747.9
197941.0
234741.0
243538.0
25392.7
236124.0
190997.0
-23434.7
84559.0
193423.0
38226.3
23175.5
-181028.0
14850.2
-122763.0
-14315.1
458620.0
-347884.0
226501.0
112215.0
-65815.9
76244.4
-53731.2
112895.0
-41778.1
28476.0
-25448.4
128569.0
-7028.93
149034.0
-193581.0
-288367.0
237192.0
-135183.0
-203571.0
97663.4
-292012.0
-188432.0
-86969.7
81722.7
-59113.0
-13421.1
33884.0
-77431.6
51786.8
-35286.1
109553.0
392483.0
8763.04
182066.0
-431851.0
-64259.1
4383.09
172741.0
-96107.6
-20711.4
265420.0
-345085.0
130475.0
-9336.01
199969.0
-145772.0
-90994.3
-109673.0
54901.5
47156.1
-262873.0
655922.0
-17008.8
221840.0
279886.0
-178083.0
-629943.0
23965.0
332962.0
124459.0
-213678.0
-108747.0
223631.0
42883.8
78046.7
-86792.5
133124.0
116227.0
113672.0
344234.0
137392.0
-17755.0
-45589.4
93719.1
-204680.0
165850.0
-4083.57
-325084.0
-59520.6
1453.89
-28024.1
-23330.0
-25576.7
55921.1
57485.7
134727.0
452672.0
-115471.0
10658.0
-8661.36
43865.2
-143950.0
-171486.0
151178.0
-28850.8
70730.7
-132901.0
-241531.0
-5400.46
35559.3
94232.9
-204022.0
-65231.4
496635.0
47901.6
158070.0
137749.0
81666.1
-80834.3
-185564.0
446679.0
-51143.1
-117536.0
254520.0
31666.6
35322.0
196168.0
209718.0
216200.0
-549026.0
-66208.0
-304862.0
-132896.0
-54994.7
55426.6
154510.0
307726.0
-126882.0
17419.6
-65886.7
635499.0
-144701.0
-105721.0
599534.0
-11968.3
-82104.9
-46992.6
-225208.0
20905.3
159570.0
56790.1
8312.5
200063.0
-11460.0
26776.2
7218.87
65953.0
-92036.7
7688.26
-1694050.0
-12232.5
130164.0
110699.0
-406837.0
140025.0
-58489.8
270606.0
96841.3
241218.0
155872.0
-168602.0
-37117.1
-68640.8
43536.6
-193227.0
-43630.3
128462.0
92836.2
391911.0
297103.0
78887.7
45200.4
98123.5
-28670.1
-33080.4
-93869.4
-89838.1
108268.0
48030.2
3379.64
-66783.9
263957.0
-174630.0
42872.8
83634.9
16531.8
-108239.0
-48871.1
113083.0
309875.0
-99288.7
-32855.3
-75962.9
-932867.0
-15230.2
-151901.0
785423.0
26403.4
816311.0
230241.0
-229097.0
136331.0
-205073.0
-288109.0
531255.0
22513.8
55899.5
402032.0
-420129.0
-24052.5
15164.0
214727.0
-183325.0
-182886.0
-240510.0
29457.6
23930.2
-55115.4
-89949.3
32713.0
-34367.1
16284.2
467575.0
-160829.0
-167288.0
-161744.0
-185189.0
-96630.7
-65880.0
179551.0
-41847.8
40989.2
-188524.0
-475222.0
29556.3
868721.0
-45000.9
-208354.0
-268889.0
169349.0
-69183.5
-225235.0
274836.0
-337529.0
2059.74
-143535.0
-128400.0
-144868.0
-385579.0
-82376.1
169686.0
21742.5
-35657.0
5081.19
-163922.0
58423.2
-171382.0
226490.0
420.446
-82470.0
-90138.0
16398.2
-18589.8
27266.0
131636.0
-126181.0
4654.91
-302980.0
-277128.0
48494.5
23437.0
70937.4
31909.4
197618.0
-707966.0
-138540.0
-56597.0
495431.0
193952.0
-61991.2
-131361.0
106536.0
150929.0
-14719.3
-280358.0
-531249.0
8183.42
85026.4
-212280.0
-130685.0
50136.3
-118512.0
-190072.0
-15053.4
43883.4
193729.0
277714.0
-281317.0
62005.8
-805.633
-15863.1
-195219.0
143320.0
-637503.0
-94592.2
34529.6
340332.0
-67735.0
18877.6
342004.0
197673.0
28525.1
-91338.3
-178354.0
66203.1
-36150.5
27036.4
-128806.0
551467.0
-35643.8
111116.0
-18575.7
-1135350.0
-29909.9
197230.0
256091.0
116487.0
416968.0
-3287.69
104027.0
142250.0
24984.4
103755.0
240997.0
132885.0
816095.0
91679.1
-162507.0
-40637.0
270504.0
-16671.9
48322.7
130857.0
269318.0
-63946.4
-276434.0
-77320.5
90420.6
99074.7
18628.5
9283.29
-48401.7
103021.0
15427.2
487617.0
83839.1
172093.0
251888.0
-50953.2
-16829.0
56886.5
13262.9
-92611.8
101511.0
42828.3
-253289.0
-7925.73
70629.2
198304.0
86926.4
116358.0
286731.0
-37048.3
-12123.4
111884.0
94479.8
-296018.0
447174.0
70510.0
77683.6
-124696.0
-65130.0
7050.66
-29596.7
-172177.0
103657.0
-178237.0
81771.7
-7847.43
-143261.0
153077.0
22595.2
200010.0
1556.86
23693.4
207920.0
-99974.3
-9229.35
113871.0
37750.1
-39843.5
171391.0
-271630.0
-31149.6
-218219.0
108662.0
-12811.3
148675.0
261820.0
-465021.0
247823.0
273260.0
-118814.0
-83681.9
-176769.0
326685.0
-19251.1
75314.4
114058.0
-59475.7
421337.0
-89344.9
-477596.0
-396581.0
72539.1
179701.0
-19256.3
43588.3
-432629.0
-23767.7
-33580.9
-116224.0
-145634.0
-48411.7
-213499.0
-358607.0
-779701.0
217407.0
225442.0
-348694.0
-116606.0
-25277.7
61166.4
69086.2
91546.9
71634.2
530688.0
8457.39
-86593.6
-27938.0
-128628.0
367339.0
234254.0
-143297.0
13001.8
-7396.33
87056.0
57955.2
-67697.9
657103.0
106577.0
-27378.7
-196808.0
602003.0
99271.9
84691.2
117511.0
-226130.0
-16497.4
108058.0
-28270.0
357755.0
-317358.0
-6331.65
7754.43
94148.4
69030.9
-5122.61
14924.6
38534.8
53214.4
171117.0
73997.9
-76599.7
17161.4
84631.0
199416.0
-33181.1
-311661.0
-346348.0
-499595.0
-730676.0
128037.0
5694.52
-38827.5
216473.0
317976.0
-64735.3
-78594.0
-784540.0
3265.1
135652.0
