-61224.6
13600.3
-23874.6
-10955.8
-53293.1
-310337.0
-10952.3
238576.0
-88855.0
-7210.69
26768.5
20678.8
-78992.0
211544.0
-176351.0
118311.0
145479.0
146985.0
-150968.0
-31909.5
-135539.0
304230.0
-120205.0
-4098.74
-102608.0
-74364.4
16682.0
53134.6
11824.8
19126.3
-67915.0
53333.5
-156156.0
-104267.0
-4527.89
-12309.4
162045.0
-86008.3
-313302.0
9900.4
133042.0
-426004.0
37726.8
32000.0
7175.96
695742.0
-28023.7
-19586.2
363752.0
66972.2
-59534.7
31033.4
110985.0
-23320.3
-195132.0
16790.7
-18057.8
-34058.0
8438.79
92126.2
-14974.3
192955.0
64920.1
-50411.9
75219.3
-141614.0
-39261.1
-325122.0
-166265.0
372258.0
-66019.1
-1937.34
5697.31
94983.4
24057.9
241.655
-8763.84
97206.6
-253292.0
-9402.74
59284.1
-58827.5
15330.5
55798.1
-144228.0
-18950.7
12057.3
125806.0
45548.0
-259540.0
-68007.0
22434.2
2413.11
20653.9
-29581.1
6945.14
38374.3
-57109.3
-41721.8
717846.0
114712.0
37038.1
17029.1
-252938.0
-204041.0
112397.0
36402.7
-31898.0
-113409.0
-35809.9
-33785.1
18829.5
-55806.3
40630.8
-7645.83
-25385.6
-11769.2
48160.0
-13115.7
-11120.8
45743.7
205309.0
167836.0
113689.0
-81647.6
-652037.0
-35148.4
3571.12
-6985.84
-9654.83
111280.0
80850.3
536706.0
200996.0
102437.0
46926.3
-3151.84
34053.7
-91467.6
-77355.6
-45512.5
-221153.0
37110.5
207524.0
-231034.0
21628.2
-213362.0
-13732.4
-62887.3
-69775.2
109244.0
-50232.3
39444.1
-43124.4
-32282.7
15903.3
-115706.0
-46932.9
35662.4
182035.0
3526.31
25275.9
16297.4
-10343.3
-512.003
47384.6
-189060.0
46884.6
-11190.8
-7939.98
89961.8
328275.0
42949.9
-120994.0
177987.0
-80769.8
-72196.6
-194279.0
-24380.1
21274.6
-86677.3
3386.81
-128530.0
-34222.0
10187.7
-45732.9
20609.2
255412.0
-183296.0
53032.3
125315.0
102304.0
233758.0
-57722.7
34616.1
9227.96
-13783.9
-65807.9
-45428.9
20811.5
8916.54
235713.0
4148.15
-29194.3
-82054.2
-49260.8
-152907.0
82296.8
59412.2
-15796.9
-180449.0
-25185.2
-6088.98
-101652.0
11348.9
80374.5
41264.9
-141645.0
-66329.7
-17549.6
-68313.4
25760.1
35905.6
-128265.0
-233482.0
-76872.3
23563.0
19595.2
-117091.0
-73600.6
51680.7
100507.0
-31300.0
22853.1
-81276.8
-19590.5
303768.0
-86547.0
71421.1
-200922.0
-98909.6
46797.6
90248.9
24895.5
-22445.1
70315.2
-19348.9
146052.0
50046.2
-35071.7
153902.0
359458.0
-320684.0
-48704.3
8764.1
255738.0
-84008.0
-180598.0
-44639.6
237957.0
-415994.0
-31236.0
-29170.9
53966.7
16350.6
-20546.0
97383.6
24841.4
7650.94
346745.0
-94440.4
-1343110.0
-12471.0
62283.3
1813.88
-65623.4
58894.3
-133001.0
-419021.0
52271.8
4737.21
-20215.0
41145.9
1002.79
-104830.0
109472.0
113338.0
7916.51
158281.0
64393.3
8542.03
97813.0
8565.03
-55669.7
-95899.2
201405.0
48198.4
-41041.9
-50928.4
-33113.2
-8496.69
16445.1
-50712.3
63709.8
-143765.0
-34923.8
-30550.8
18237.2
3858.52
-32306.7
18961.4
-21198.2
-46570.7
483739.0
-1961.53
-19595.8
5114.33
-205643.0
100203.0
-86427.9
-212298.0
290582.0
309593.0
-54873.1
29132.5
41954.7
-10511.7
124449.0
229648.0
20922.5
-98575.7
90935.7
8338.93
55822.7
-7149.34
4906.82
332171.0
-27863.2
225759.0
112242.0
-36691.0
20866.7
-16953.8
192255.0
-98772.1
183174.0
11560.2
24100.9
-114449.0
53619.7
275038.0
-23213.7
78163.5
-150384.0
78476.0
-19761.7
-115364.0
-234571.0
-93483.2
-1341.3
111378.0
-1783.54
75234.0
-21825.1
107099.0
-104999.0
70137.2
-23206.7
7781.57
34361.8
-218072.0
28123.0
-104598.0
-24544.0
4457.9
-150659.0
114961.0
428225.0
-16124.7
21453.7
-100704.0
-94406.5
-7495.52
73231.2
-58342.6
30507.0
8299.0
-71211.7
-33954.8
19253.2
78054.0
10260.6
27036.4
56286.4
-187659.0
-471611.0
-16073.2
-10354.5
-123117.0
4405.23
-72592.5
-74732.2
-89181.0
88257.2
-320300.0
-81759.5
-84884.4
399.909
12784.6
-21285.9
38162.4
155129.0
-8869.64
22696.7
-164134.0
174021.0
165696.0
15708.1
30026.9
2563.66
-10671.2
-161183.0
278812.0
209400.0
-14728.4
-21673.6
68707.5
45870.5
-30397.3
38601.2
-3443.48
93078.9
4746.01
206614.0
-219179.0
144608.0
22174.4
44654.1
550.121
11445.3
-52608.5
351337.0
-17863.8
-45404.5
-56311.6
313718.0
77043.0
-13769.4
-129751.0
18203.1
-63707.2
25964.4
-19616.3
-90798.8
-276129.0
-66014.7
105402.0
6811.71
91501.5
18471.0
-138666.0
-284236.0
-10120.2
50366.1
3523.03
57128.7
-43490.6
-17265.4
-76583.9
-195549.0
-22201.3
-29441.8
26805.7
515179.0
-489965.0
-240815.0
98496.3
-3791.92
55531.2
6889.39
14020.0
-175819.0
-41113.3
11212.7
-72905.2
-445374.0
-4989.47
19535.4
-262787.0
-20687.3
161787.0
10266.3
-96564.5
-31848.3
-93080.4
12987.2
-173319.0
5153.44
-25478.4
55863.5
-98897.1
17650.0
-97335.6
59816.4
33883.1
-12807.6
93092.9
-159081.0
-108712.0
-64913.3
-307412.0
-372016.0
22500.1
-163031.0
222523.0
137506.0
102355.0
-49915.7
-4419.15
-47698.6
-64566.4
88108.2
12346.5
65261.6
-8512.06
40186.8
-119137.0
-113149.0
33895.1
-46437.3
-97720.4
-50574.4
56309.7
213552.0
-134468.0
-703052.0
-139658.0
77494.7
67568.6
9939.65
-92848.0
-204869.0
-186704.0
-24193.7
-120466.0
68930.1
81296.9
-37308.7
52357.3
17773.9
-12169.1
72941.4
-51751.6
-156283.0
98267.1
30207.5
210871.0
147867.0
-32258.8
-17592.6
171147.0
106653.0
62204.0
-71720.5
183239.0
76735.0
53123.7
21636.5
-48316.0
-140805.0
-89915.7
-271703.0
-68673.0
-139684.0
662811.0
48883.1
114049.0
-89231.4
-196526.0
51987.1
29514.0
25187.7
-7337.7
49450.8
37864.3
2987.8
-14133.2
9381.02
134718.0
67855.4
25345.9
-28720.3
-32509.6
-110858.0
180937.0
2677.68
9160.36
41952.0
-16977.1
-14253.7
5476.82
-184690.0
3667.46
78704.7
38979.7
57107.0
151813.0
-6392.04
-244255.0
-143433.0
3235.51
-99775.0
-97263.1
82206.9
-111078.0
-8821.39
3087.57
82140.6
-6393.31
-23398.3
22609.8
-138927.0
179531.0
-88759.0
-94130.5
91080.4
-59483.1
40807.7
-81944.6
-23977.3
180658.0
-27573.9
-3978.72
26946.0
17134.4
-42475.4
106670.0
-9379.0
8359.8
65299.7
61132.9
-3129.38
-35363.1
43438.9
-16703.7
-55239.6
-66982.0
-49786.6
149925.0
66052.0
-127326.0
-19194.7
-11501.8
34036.3
79652.8
6089.46
49264.6
268701.0
63129.2
78216.7
-12491.0
474108.0
195014.0
-30987.5
-73028.2
35273.1
-67877.5
-93511.8
-87528.6
226870.0
54038.3
-46881.3
16178.8
-61308.9
71375.7
-262843.0
65127.1
305098.0
-25789.2
2548.78
105704.0
-39035.2
-60521.7
29922.7
163226.0
-320851.0
76238.7
146826.0
61475.9
-272000.0
152329.0
7202.67
-357814.0
-284978.0
-12122.1
-87135.5
12658.7
47693.7
-104765.0
-69497.7
-137683.0
-85322.2
45596.7
-25295.3
-43877.1
-208699.0
34981.7
13194.6
-16732.7
-56201.4
10551.5
67384.7
10111.5
-116260.0
14987.9
-70076.7
-20318.1
-73375.6
330447.0
304793.0
51892.8
-5654.86
-108222.0
27245.6
-30631.3
-54024.4
-145208.0
10033.7
-130212.0
67603.5
-14014.7
148102.0
-39308.5
79994.4
-22106.7
33905.9
963.766
-42545.4
26905.7
37722.4
-442856.0
22392.6
17347.3
20634.2
50659.9
-7611.64
733620.0
-109674.0
-19367.6
-59910.6
186735.0
61562.2
-1636.21
-135262.0
43333.0
-23846.3
66762.5
120725.0
7927.58
-24376.0
-32313.4
-32284.7
-42620.8
-2892.65
41722.1
-97234.7
10690.3
66959.9
1090070.0
126051.0
-9507.79
100906.0
182684.0
21098.3
-36413.8
-24158.5
-127829.0
-7401.64
-9590.74
36298.4
-142479.0
13152.6
-7212.93
-53914.8
15410.1
-102357.0
-142972.0
-33018.3
354052.0
2492.99
34460.5
-394.396
117901.0
4968.77
-153939.0
23883.8
38214.2
153635.0
-28504.7
18089.9
-142711.0
-30939.2
55252.5
151545.0
-8336.21
-167607.0
115623.0
207456.0
-8512.26
21064.5
-32991.3
-66017.6
377812.0
115.185
82666.2
67093.7
316749.0
-58598.4
-36696.3
23217.9
-5063.94
56145.1
149376.0
35754.1
-93621.9
-30409.1
64698.5
229851.0
-479723.0
145412.0
99745.7
19117.4
108993.0
35361.3
-24685.9
-12718.4
18767.2
-23031.2
-261828.0
-43678.9
-243806.0
-247911.0
31014.3
-108052.0
-146923.0
-256631.0
418957.0
-145976.0
217812.0
46234.9
-16968.5
-23504.7
-24325.1
-17455.8
-40283.1
-92583.1
-9361.47
-20064.9
146239.0
52665.4
-35468.3
-71552.0
-24648.7
50732.9
13103.7
-1302.04
-36571.0
-39819.4
-7118.02
151019.0
-13616.7
-70702.6
13071.4
64235.3
104515.0
8587.18
33236.7
-68594.1
-47291.2
-89823.2
-81614.1
-550676.0
108775.0
98818.0
-167433.0
47408.9
31729.6
-18422.6
-74556.4
-34076.7
-133666.0
138102.0
5681.19
-153040.0
201202.0
105806.0
-204627.0
143408.0
51267.2
-215516.0
25413.4
-39090.7
-59832.5
55147.6
-2137.06
40573.0
207017.0
-62171.0
-120524.0
174353.0
125536.0
240511.0
75281.6
188782.0
2019.91
9809.75
-28729.5
26051.4
12220.7
-26729.9
-284053.0
-8412.29
-54798.4
-40724.8
-105452.0
75766.2
20457.5
175336.0
-153327.0
-89808.0
67747.7
437391.0
-38496.1
206787.0
-2542.16
-31298.8
-115666.0
41273.9
537.829
80983.5
-100176.0
46065.0
-384185.0
-12733.0
41397.0
14787.0
-83323.2
7944.96
40163.1
-60401.6
253512.0
-44153.0
429856.0
131700.0
87830.6
57774.2
-99179.1
19127.2
-30932.4
35753.2
-432916.0
1743.51
164937.0
-119140.0
18044.7
322451.0
-11552.6
-126602.0
-578972.0
-49969.7
92540.6
33311.4
87311.4
-15616.2
-57233.1
82963.0
192600.0
1407.61
-23792.2
-10489.0
443474.0
-44793.0
-38435.9
-37626.0
7927.22
4056.94
-303566.0
39502.6
-39193.9
-139258.0
-176485.0
37579.7
60311.0
-14651.0
55456.9
-90351.1
-202715.0
-314561.0
-121908.0
14561.4
19639.0
-14219.7
36020.0
8935.66
87575.5
239891.0
-62473.9
-49151.7
28362.7
-78827.8
16593.0
424356.0
-7075.34
495299.0
75756.9
-180713.0
6742.24
-394082.0
-15245.4
-21881.2
-64421.0
103554.0
77525.1
-143535.0
-768.893
-80050.3
33632.0
-36081.4
28938.1
55580.9
-27845.9
-55687.0
-128980.0
64312.5
13207.6
-352118.0
-86175.9
5712.68
63037.1
17091.6
74527.2
-12037.0
5814.68
38055.8
70071.2
59778.6
126224.0
285118.0
-25827.4
-74012.3
32787.3
-11996.5
26951.8
-37206.5
-81494.2
21216.8
-9393.61
412020.0
-8229.15
190649.0
-123344.0
-39017.7
-11259.5
-94274.8
-38198.4
42481.1
-10744.1
-73209.2
13815.9
-196306.0
106360.0
-9338.48
7304.41
108512.0
-203691.0
122897.0
-61398.5
92883.2
-64366.3
6400.21
6828.46
1363.0
-73372.4
16506.9
-132128.0
54534.8
-118456.0
10287.3
-186504.0
-253165.0
-19255.3
87399.0
-72748.0
51245.4
1239.95
-37165.3
248305.0
-49070.4
178788.0
-45667.4
-181704.0
-51456.1
-221651.0
-90717.1
27905.7
177814.0
159652.0
36448.4
147474.0
-94370.2
41429.6
176877.0
-164241.0
230085.0
-25824.9
-65992.3
-13991.5
-173705.0
-32489.3
-11470.9
-694.485
22532.4
-69081.7
-62481.6
-12068.4
-65902.8
56098.7
-170150.0
104158.0
129085.0
30567.0
86602.9
96735.9
-53497.6
15091.3
53232.8
-38898.9
-42213.8
-13498.7
12845.3
119539.0
-32656.5
-157141.0
-652843.0
20850.0
55713.9
-76039.4
65959.7
103133.0
-41674.5
70944.4
-264414.0
26562.6
-265962.0
221264.0
-90232.2
-2820.4
40313.0
271878.0
13865.9
20313.9
10848.7
-176744.0
81475.8
176479.0
73501.0
93610.0
7368.83
-42043.6
-59295.2
17680.0
-56529.9
-59398.6
-148778.0
-7690.29
27622.6
-53026.2
31298.3
51853.1
141632.0
96347.5
7166.99
-25981.9
49617.8
-106630.0
-6932.52
48694.0
-42731.8
504561.0
22758.4
-27459.4
-714.606
-60789.1
-48590.4
-39493.5
17379.6
-23973.2
261476.0
-9850.1
17187.6
-1461.64
-1599.03
12451.4
4513.55
34257.5
-15128.0
-71163.3
243863.0
-5009.34
-82004.9
92966.3
-43405.5
51117.4
34696.9
94016.4
116512.0
13180.6
246634.0
20516.5
-69285.3
-256726.0
18140.4
-5270.15
-316441.0
-107489.0
-52707.3
-39721.3
-6345.65
-64828.1
73987.7
-57405.6
29467.4
242118.0
30936.0
-240977.0
62018.4
-2847.94
-47459.0
-120653.0
35590.8
82727.4
460687.0
-27886.6
-202576.0
-72032.8
-27656.1
-39046.5
98732.9
6689.45
56616.6
-49498.1
105547.0
-35431.3
28371.4
127977.0
54688.0
390083.0
65164.5
279600.0
2276.14
-155830.0
-93457.3
39595.0
-127904.0
-64276.3
67111.6
186740.0
-29849.3
63394.6
107561.0
-189394.0
124920.0
-27799.6
-74612.0
-69300.0
-132269.0
-27439.0
7395.67
14112.1
-90825.3
-49961.4
-58788.5
-60203.6
14966.9
-104592.0
76476.7
259398.0
-151998.0
84023.6
56789.6
18521.1
82389.6
134155.0
-179292.0
40796.8
-11280.3
58553.0
24837.7
-82365.7
88085.6
157220.0
-268.921
50855.7
44956.8
1425.9
-13528.7
25032.2
31666.2
134563.0
92445.8
253390.0
50000.1
-279734.0
-20171.6
-56036.6
-132768.0
-126492.0
-13705.8
21767.5
14079.7
-102202.0
43640.7
-563.383
108075.0
-148728.0
24822.6
-135074.0
-937694.0
-1479240.0
-157502.0
62725.3
167601.0
98421.4
362503.0
29681.9
16831.7
61876.2
95774.6
14991.6
-559837.0
272002.0
11947.9
63198.8
60730.0
18988.1
-278899.0
-48865.5
210248.0
-67312.8
-4445.75
34951.8
139396.0
126286.0
-233661.0
-15806.1
11837.0
-20237.0
-343821.0
84045.8
22272.3
-29401.8
-94345.2
-22307.7
-58962.4
-42477.0
124710.0
-131666.0
53778.6
48528.6
676935.0
148927.0
65451.8
140887.0
52850.9
-139268.0
8538.96
-15578.8
-26916.2
-12305.2
-197033.0
-35067.1
3984.71
-2588.61
142571.0
-44781.7
-264230.0
-13923.1
12647.8
11925.8
94225.3
100113.0
532320.0
-40782.8
259638.0
24269.9
-145021.0
66310.8
89336.0
7204.23
242525.0
-140851.0
25122.2
198278.0
-265379.0
57249.4
-7285.5
143655.0
-174554.0
-28945.5
3324.86
-18065.7
26295.3
-99020.7
20796.0
42532.0
-86413.7
48043.3
33030.4
-76905.4
-110459.0
156178.0
-109540.0
40656.9
8686.55
-106099.0
-136716.0
-43557.6
-72087.9
270902.0
-60276.0
153571.0
-116553.0
155646.0
4080.91
-53801.2
-51074.0
-17854.7
-38714.8
161555.0
98089.5
-78795.8
-71683.2
52629.0
-131968.0
-51548.0
42393.0
-769654.0
-31482.0
4603.81
18353.6
-46537.9
5818.39
-102726.0
-210677.0
31149.5
318928.0
481108.0
197475.0
-88448.0
-69277.9
-25998.0
-10397.8
391546.0
22989.5
96507.1
127135.0
2537.05
-1043200.0
-31246.2
-132.921
70835.4
-51331.0
31287.5
85933.2
21807.9
114393.0
17538.0
-28212.1
30131.2
-45326.1
143069.0
124880.0
-18991.9
74221.3
-43865.3
146521.0
-6151.74
51892.3
66343.5
43739.4
-245754.0
-154662.0
-47407.7
14424.3
-46698.6
-107902.0
-57973.2
17690.6
-19126.0
53821.5
118224.0
56983.2
-30274.6
-73820.3
123815.0
55001.5
26962.8
-6316.99
28515.0
36180.2
-11264.8
15190.3
7571.57
-66925.4
56406.1
25361.5
-98296.0
17402.3
-144967.0
-17958.2
-145809.0
59043.3
26790.3
27427.0
10450.3
-331731.0
1831.66
-33415.1
-70147.3
39981.4
185505.0
11694.0
122942.0
124160.0
56945.4
6728.89
26025.1
-174959.0
-66947.8
35118.6
5069.92
-60893.2
-267260.0
-147520.0
-162981.0
-169617.0
243143.0
-9092.67
-124523.0
-8065.11
-12650.3
41126.3
18727.5
81516.0
54530.1
-33840.5
49455.7
2401.49
-13758.5
-16502.2
80140.0
-89295.7
-167893.0
148487.0
-179855.0
14217.7
9634.98
-169941.0
-26147.5
16217.0
116562.0
-38607.7
51636.4
74568.3
-128333.0
11806.0
-93116.4
163358.0
-57431.9
13778.9
105343.0
23506.5
32919.7
75767.7
-72222.5
-526.242
-127832.0
146932.0
93358.2
-27499.5
-60589.7
-22973.5
-44871.5
-158648.0
-95391.5
-365108.0
-35322.3
25096.3
-193810.0
49285.7
-40113.3
36151.8
534883.0
-102151.0
-10612.5
2431.04
113716.0
22598.0
-154914.0
35346.8
57091.9
36729.9
-49446.3
-65990.3
49016.0
195407.0
-4663.79
-6986.1
25911.1
-126757.0
-17122.1
95112.0
1003.81
-57210.8
331280.0
49361.7
-80060.6
652648.0
-230922.0
-62896.6
16994.3
1942.21
41848.7
33036.2
6430.89
-76017.5
-23994.8
3430.14
30073.2
-93833.1
-9943.21
1039.76
174687.0
67644.6
81173.5
-52590.7
18491.7
34128.6
-73241.7
-65243.5
116957.0
-70171.9
-76957.4
120680.0
-366431.0
-25880.8
11268.9
-263277.0
-137664.0
-20717.0
321006.0
-64927.9
15616.0
57138.4
122440.0
106036.0
431360.0
26114.3
-48904.0
4042.21
-335475.0
57162.8
-66447.9
8658.08
-55611.4
-88516.6
5700.1
13137.7
-324844.0
103709.0
-37455.6
137216.0
401635.0
-39941.0
-22263.4
-98212.3
74811.4
19739.3
7330.9
29644.1
15286.3
1249.03
155394.0
-20218.9
-4277.11
12844.0
-41167.4
-82750.9
-128880.0
15158.2
-92986.6
16281.5
75768.4
51719.7
43245.0
-285924.0
63772.0
50606.5
228077.0
400827.0
-360294.0
277889.0
-53683.2
-115896.0
-6548.49
-246662.0
-110124.0
128451.0
-100270.0
52032.4
-100365.0
5663.66
-107753.0
-52620.3
168679.0
-4136.73
57218.2
83637.6
-39107.2
9088.79
-31252.0
136862.0
17396.2
87583.9
16070.3
-10282.5
-59861.9
338777.0
65915.7
25627.4
-195950.0
11272.4
-37422.1
10997.7
-5369.19
-61583.9
-65198.6
38689.7
21987.1
50529.7
-86280.7
29995.7
5143.65
41679.1
17754.6
-40542.0
99241.3
-13093.6
66901.2
-28686.0
-46399.1
18583.5
30244.3
-60023.4
-183633.0
-47615.1
-89640.5
94011.8
4083.98
57336.8
-19648.8
-32655.5
-162959.0
-231920.0
124599.0
131720.0
-119107.0
458185.0
41840.5
52530.0
15043.4
-27058.2
-75396.2
-12202.4
1233490.0
128563.0
91797.1
77484.9
-47912.2
5985.53
-972.901
-91428.9
16321.8
2911.31
-16819.6
-8103.74
30999.0
-32588.0
-196835.0
239580.0
158143.0
8179.96
-24352.2
70075.4
142807.0
-128716.0
-30021.5
98011.4
167086.0
-13604.5
7613.0
-18831.9
79872.3
116796.0
-39929.6
-74108.1
93060.0
317996.0
92425.1
43301.4
165297.0
-154058.0
361808.0
-29085.8
191274.0
-16819.8
-119987.0
4430.69
51626.1
-73441.6
51517.4
-34688.4
-353800.0
-226929.0
20505.4
13848.9
-49654.4
15484.6
-12260.0
12975.9
-26472.6
70381.6
99084.3
17931.4
-21109.9
49746.3
-605013.0
189129.0
40608.9
-99517.7
28899.5
-73460.4
-80616.8
64975.2
-115748.0
-266817.0
-17697.6
-140225.0
-325379.0
-50180.0
-8155.1
296221.0
51756.0
-31942.6
18657.9
28129.3
30701.8
-7218.65
-75760.0
116463.0
200825.0
-60129.7
221409.0
286256.0
27552.7
-130.171
-104481.0
101273.0
-14462.9
72113.7
12757.0
72632.1
88628.0
82659.0
70741.4
62219.3
31672.9
-45783.0
-39723.7
-242147.0
-52461.6
126895.0
5054.46
103653.0
-16504.6
-72955.1
30292.8
-11283.8
-67077.3
91694.0
60284.6
-9656.7
16428.5
-339051.0
-176424.0
14611.0
105656.0
-7647.67
-41410.5
-66342.1
-73933.0
-177351.0
-143174.0
38232.8
142997.0
-19645.2
25822.2
-16554.7
8699.82
-142431.0
34779.2
27813.1
-126806.0
-25103.5
-13620.0
-2764.24
96174.8
12044.3
-18280.3
48808.6
52983.2
237675.0
34983.4
-31403.1
-33448.4
-22016.6
613406.0
2434.63
-417764.0
-11711.7
-81305.7
-15463.0
90463.5
-40610.2
-628.063
136503.0
-76687.2
-16247.5
-81925.1
6197.47
-72825.4
-187885.0
24554.2
-232777.0
-44772.0
97037.0
-10198.7
-25143.0
53163.7
2824.29
33188.3
-5884.44
71888.1
-73993.9
-15109.6
-53547.8
-69748.4
10635.7
66990.4
400.098
53409.0
-351906.0
36011.8
22913.9
2540.91
-1085.23
49401.2
-13166.8
-106567.0
227700.0
114263.0
-162583.0
-132596.0
-23062.4
-30852.1
-137266.0
79833.3
60622.3
-36655.5
-34020.4
-126394.0
47074.2
-48199.2
263785.0
-128130.0
163148.0
-97665.1
-144875.0
-212243.0
43276.2
160062.0
59720.6
-110703.0
444123.0
157924.0
290241.0
-49874.0
-23612.6
42839.9
15770.0
45545.8
-41121.0
-15541.5
159265.0
265274.0
-81667.0
-12691.4
-10241.8
73338.8
36688.1
-31306.8
-56440.4
22206.9
24408.5
111398.0
-134447.0
386795.0
-70995.5
-26896.7
38599.4
22909.4
33704.2
113109.0
-630029.0
-10389.4
148002.0
77169.6
10667.6
-118191.0
6745.75
13924.3
-142793.0
-303534.0
112245.0
-73964.0
-264006.0
-104962.0
25328.7
140762.0
686398.0
-16055.4
38949.6
-7026.78
9020.67
-35717.7
-2995.84
-57260.8
-89728.3
-14774.6
4893.92
73713.8
-25142.9
-44830.4
163442.0
30542.1
98522.7
32169.8
-23061.4
-45923.1
-120481.0
-47695.3
-94464.6
-39940.5
227289.0
159107.0
15948.2
-98253.1
-94588.5
-23969.5
81513.5
3680.0
76018.0
22389.4
-240130.0
124182.0
-13849.6
120604.0
15252.6
4088.97
-177640.0
-139098.0
-529389.0
139411.0
-52284.0
-87035.6
542859.0
-56133.9
10056.0
-26205.8
-49981.2
-186651.0
3756.44
146942.0
-61745.3
74179.3
159219.0
-3089.53
173166.0
-52977.2
48635.9
-200143.0
-264258.0
56329.6
64270.0
18923.3
-105008.0
-4395.39
-133653.0
-35678.4
15311.6
53175.6
-22239.3
61918.8
46629.8
148464.0
-110777.0
-71231.2
-138673.0
56265.9
-55122.9
58432.5
17576.9
995.757
-71777.0
57017.8
35817.6
-70774.6
-237551.0
79247.0
36551.7
-53388.8
-99290.5
-27125.5
4405.08
-91141.2
-62883.5
-171796.0
316854.0
-32111.6
73444.8
-221955.0
-94000.8
-448397.0
91984.2
100530.0
-115433.0
23853.0
-94665.0
-386989.0
-58454.8
46730.3
-14297.6
-40049.9
-37821.3
20372.7
18962.5
189994.0
-69575.4
-263809.0
185.73
70699.0
-159381.0
91934.1
-102736.0
-37004.9
23908.4
-91377.9
-8238.43
-6362.3
-36084.3
14587.0
-294153.0
89603.8
-34648.5
-39340.1
-16581.3
4628.99
18339.2
-78305.2
-33713.6
-53331.9
-218839.0
84472.4
-55693.7
5035.16
33473.9
-34260.3
-94878.0
-6265.79
22028.4
130658.0
-75341.2
65589.2
97833.3
3178.22
-98172.6
53435.6
-24689.0
11778.6
78451.1
89439.8
6819.81
13744.5
13806.3
-45246.9
-30032.9
-122941.0
-1692.88
-195779.0
17484.7
-200298.0
-14167.1
-50544.0
-134533.0
24773.4
-24020.6
94913.9
17723.1
218595.0
10785.5
-28864.7
-18340.6
-167804.0
238172.0
-55800.0
142674.0
-20513.1
157297.0
-203022.0
35817.5
-173240.0
27635.3
-36826.1
23015.0
21816.3
-26046.6
-45087.7
59574.3
59328.4
-9418.52
-415776.0
-249933.0
-150866.0
7576.88
-117734.0
51938.5
-28718.9
45976.1
38033.2
-158283.0
-81845.5
7683.18
-26738.5
-54623.0
-61978.9
-145921.0
162972.0
-29974.4
360790.0
66756.7
-102825.0
259767.0
18708.7
-246783.0
-114026.0
-26595.2
-591213.0
51600.9
-3970.52
457040.0
-71630.3
77271.1
-389610.0
-17121.2
-6189.18
-65385.3
-125103.0
-51158.5
83038.0
72173.1
-75418.4
38258.8
-48413.5
-63730.2
30590.0
-171209.0
-26814.6
80643.9
-2846.21
7545.98
98207.6
54149.7
113032.0
134774.0
128224.0
-369895.0
102895.0
-135210.0
-40732.2
120140.0
175534.0
27742.5
25590.1
39222.8
-40669.8
243286.0
18665.6
-117555.0
-117034.0
21.777
10883.9
-40637.3
-71285.3
3717.87
104729.0
-79068.8
-62314.8
126188.0
94236.3
-148973.0
4945.87
8131.9
-140513.0
-17334.8
77841.4
81675.4
16558.3
-5423.21
18924.8
173661.0
-5214.71
26249.0
-58661.0
-78526.5
-182509.0
-119041.0
-27849.9
-25205.5
120073.0
-1989.88
25166.7
-76198.1
43254.7
-189789.0
12009.6
824304.0
26941.9
-43060.7
-17815.9
-3863.25
-23465.2
-4645.58
-40155.5
-54545.3
44289.1
80698.5
-139943.0
-13706.9
-95021.8
121664.0
226799.0
5847.64
141589.0
37522.3
17586.3
-149304.0
160479.0
7233.21
22598.7
55581.2
50537.2
3053.22
64114.0
19840.5
47126.8
47182.6
34082.7
72344.1
32715.9
25040.4
121014.0
-17354.8
-563983.0
-123320.0
-187006.0
-22008.0
-94933.8
-20155.2
177794.0
248389.0
-30900.8
-10354.6
-296348.0
-31292.2
-96253.6
57467.1
48877.1
17815.0
-36207.6
-253814.0
9316.93
581291.0
19068.7
18091.9
-25864.7
-75791.5
104728.0
115059.0
73214.9
7284.66
-7549.52
-27722.8
4569.56
-127206.0
-8971.83
306218.0
-30393.2
47053.8
-75848.9
-77124.5
72037.8
-35180.5
25582.5
-23412.0
-306634.0
25610.2
-95649.7
-81628.0
-24098.8
46932.5
95804.8
-24981.0
180633.0
76284.4
-8199.79
79405.7
456196.0
-4991.68
89996.4
-19463.2
127958.0
3953.42
19987.4
216929.0
86407.4
-848596.0
344113.0
-20393.8
-81435.0
-248700.0
24515.5
-128471.0
120908.0
55555.3
16446.0
16028.1
-13786.6
6486.98
-128571.0
90869.0
12616.7
15359.3
10065.7
28339.6
-2419.99
-15705.9
-66575.5
115019.0
-68915.0
-7047.94
71101.8
60824.1
13885.5
-73201.2
19011.9
1232.87
-109760.0
101306.0
-104768.0
-131271.0
-59959.5
-92035.2
62004.5
-8292.85
21735.2
-192134.0
87739.6
8283.14
-468942.0
-39959.3
-32180.7
175557.0
163442.0
77420.9
28321.5
-91325.9
-292151.0
-211776.0
118537.0
35646.2
19333.1
56849.3
174806.0
34524.0
13707.2
27262.2
65240.3
-62995.1
55784.4
184161.0
-256159.0
155882.0
-39129.4
-58635.5
14086.5
15849.4
15250.2
-25767.2
-37622.3
-268390.0
32429.4
9295.2
26589.4
-86418.0
13403.2
10386.2
-45703.1
-54920.0
26620.2
-146647.0
18252.0
16946.9
-77178.9
37879.7
14933.4
69524.4
48299.3
51626.2
-12397.2
-121444.0
183471.0
-27327.4
16702.0
-216069.0
182714.0
-125882.0
39730.8
194937.0
83421.7
83642.9
-24112.2
144632.0
-137733.0
72964.6
205591.0
-80894.8
192272.0
72219.6
-24865.0
-73413.2
11083.6
-89437.1
-18783.1
4643.22
-350247.0
-1454.46
20490.7
42979.3
146211.0
207027.0
-66424.1
35809.5
72568.8
70743.0
-8449.45
-7524.17
7196.05
-21631.8
38114.7
106112.0
26315.5
114341.0
-164629.0
-144505.0
-34304.5
-4791.1
-15315.6
-46996.2
-64621.0
72193.1
-9308.16
-44771.3
-160899.0
-232357.0
-101612.0
113489.0
-23225.5
-28446.9
100036.0
-4530.38
-208165.0
-11276.2
-78788.8
-42948.8
40600.9
-186378.0
88662.7
50936.9
207067.0
15446.1
82897.1
-29898.6
-139596.0
109079.0
-24607.6
-91168.0
-160518.0
-119858.0
-7346.67
-28580.8
35525.4
-35020.0
12105.3
83636.4
-45402.7
87009.1
56221.6
41033.4
40415.0
-9256.84
-9458.93
65251.2
-16846.5
-23214.7
100400.0
-17377.8
77699.2
-112638.0
-39023.7
-207119.0
-92661.1
-39506.2
-49190.3
56661.3
30205.9
-14594.6
-139.906
32256.9
89862.5
231464.0
1757.1
-13534.7
12983.3
-188551.0
28783.5
-18283.5
-1276.99
43965.4
-151891.0
175007.0
19758.3
46676.4
79120.2
-49900.4
83752.6
59497.7
-21322.6
70033.5
-3788.24
174438.0
44727.4
129537.0
761811.0
-35825.3
-205481.0
90603.3
-18328.7
-19807.5
-17238.6
8957.23
-275639.0
-141281.0
104501.0
8558.48
475780.0
-343492.0
-2665.75
-38042.5
14571.7
69668.3
198681.0
2862.68
129954.0
110004.0
84064.3
145511.0
-14842.7
48441.6
143738.0
-7380.62
27374.3
8398.31
37156.6
-30339.6
2770.01
-120536.0
-156699.0
26019.0
7259.58
35933.6
-59179.1
-21636.0
75023.8
62736.2
7961.31
-81427.6
48831.3
58373.7
-165824.0
-222739.0
-29581.0
-95834.7
71853.6
16937.5
4067.4
-23733.8
24670.0
-7311.02
34542.0
-41751.4
126796.0
-155054.0
-83880.8
-43431.2
152800.0
88141.3
-4903.14
133092.0
1146.34
29312.2
-74176.2
13705.7
582242.0
138928.0
-19744.6
-81156.3
64643.0
-13685.8
93384.0
186346.0
-10648.4
30902.5
-16416.3
-49750.9
313139.0
49031.2
120154.0
-22219.3
34140.6
56717.4
-42417.5
79338.4
-913.773
-26249.8
-66507.3
162976.0
-38957.8
233269.0
171467.0
-19900.9
5683.53
275423.0
96728.2
-68888.9
16220.8
128290.0
-49647.1
49875.6
59682.8
-5372.45
-78241.3
-11773.0
5285.45
17962.5
-562604.0
120287.0
7516.23
45442.0
-68673.8
341282.0
81136.0
192656.0
203355.0
-34138.9
85509.7
-20479.5
240323.0
467807.0
197990.0
98326.7
609.736
38781.0
-28729.8
-248954.0
16016.7
-229218.0
-104780.0
-8905.93
-61515.9
-43342.1
-7553.06
4440.31
-92727.9
14081.3
13623.6
134718.0
41088.8
2740.21
-17563.0
33324.5
-20342.8
27326.7
27788.2
64942.4
33055.6
159731.0
142582.0
2388.83
39751.5
136344.0
-190944.0
-77345.7
-158893.0
39498.5
-27534.5
-153216.0
-256564.0
-52208.0
-36930.8
26465.3
-911.072
463849.0
-155679.0
-54257.6
18978.2
49002.7
-9524.42
59572.8
7590.25
-14781.1
-117007.0
-85615.5
-27455.5
-28694.7
32371.2
92110.4
-57382.8
442901.0
190048.0
-62634.9
-45475.5
-27977.6
-56148.0
-27813.5
-147582.0
-59465.7
6531.45
242023.0
17734.5
82994.3
14826.1
23731.1
54996.4
-306527.0
-28993.3
94417.6
-139339.0
-177732.0
2696.88
-25285.1
-11541.5
-3649.86
-93269.6
48648.2
105229.0
15653.6
-148190.0
-19921.5
51413.1
64485.3
57890.3
130150.0
17262.0
-274005.0
136480.0
109487.0
-41683.1
-399975.0
26338.2
34164.9
270970.0
-172551.0
75241.4
23788.9
151735.0
15874.0
63762.0
37165.2
9887.73
-26305.1
-59914.3
39849.6
-40307.9
-52160.2
-484.004
9046.7
175567.0
114732.0
-37448.6
-25929.7
27245.0
-7424.53
-64654.7
76410.0
61438.3
-42538.6
-32580.6
-64611.8
24906.7
-13262.4
-106.743
201444.0
81117.3
-62313.8
47655.8
69060.9
-37869.4
-337194.0
-5500.58
-4675.66
64776.5
-13264.0
-863.274
-85913.7
-38704.2
-42309.8
-7524.99
-49056.4
-33184.6
90543.6
-105324.0
-57769.6
-215036.0
17584.3
-12361.7
43857.6
8169.57
134655.0
-22751.2
-74340.1
370892.0
-119588.0
49522.8
-72243.9
-107340.0
460023.0
50912.7
147433.0
15935.1
-50605.0
-132656.0
28435.3
36438.8
10022.1
65968.2
109480.0
-84944.9
255.84
-73116.5
-32555.8
-77282.1
-31630.2
10057.2
78694.8
-83963.9
2710.58
65060.9
-21597.8
25538.1
23750.1
7968.22
184635.0
-19887.1
32612.3
-157896.0
-33482.7
-30423.2
-41763.4
-52876.3
167466.0
13190.7
37037.3
-52363.2
-177107.0
-26913.3
-69005.1
51071.5
-24383.0
193269.0
13148.4
-159877.0
-28273.3
62382.3
20223.4
28689.4
68615.6
-59656.6
-12622.2
36210.8
2005.97
-227044.0
19395.0
-14175.1
-126267.0
-190634.0
13160.7
-78821.3
-86796.6
14806.9
-220789.0
-95810.4
143943.0
-154363.0
56873.9
36892.6
-113673.0
-56058.8
106730.0
-33348.9
-3379.93
-32782.8
142574.0
429050.0
57027.0
19381.4
23170.1
-57780.0
-45745.3
53512.5
-120604.0
19882.3
54952.4
-117178.0
84905.4
93505.4
-4300.94
-101752.0
36096.2
-3260.84
77283.8
758374.0
99793.6
15930.0
-7572.8
-411.078
128762.0
38902.4
3811.03
60996.8
-5285.22
-185454.0
-200478.0
172585.0
-270388.0
14135.3
-25613.1
5207.61
-62565.7
-97133.8
7372.25
188506.0
149333.0
51203.4
-403608.0
31258.0
-217974.0
-134963.0
-95452.5
298173.0
261251.0
108951.0
-79875.2
-260028.0
108743.0
88845.7
214264.0
93295.7
71889.4
-123257.0
18988.1
-111026.0
157029.0
287089.0
-7095.89
79135.5
29445.5
-87650.9
-207465.0
7631.03
54508.0
35506.9
-121052.0
145249.0
-110150.0
180208.0
-90470.2
-2261.14
-29786.0
-23084.1
3089.1
-36991.2
-115788.0
316833.0
-18791.1
-105270.0
10084.5
-140121.0
2525.62
155596.0
-398.152
-142760.0
-252765.0
-9604.96
-53785.7
26737.2
58891.2
149618.0
33757.2
171105.0
-59995.7
-145396.0
-99298.0
-225126.0
-297556.0
8693.11
-399144.0
-110804.0
51095.5
8132.02
16993.1
34349.7
837.161
-44750.4
-449249.0
12778.9
-16708.5
28451.6
46473.3
97752.1
36702.9
-76303.9
-117671.0
205739.0
164122.0
-94029.5
-318994.0
-9538.36
-216093.0
345509.0
-2670.27
-137458.0
-83964.5
-274510.0
25352.3
98401.0
13910.6
38607.5
-13533.3
-64924.3
42758.1
-42120.3
-16058.2
73.8227
42986.5
-280592.0
17375.8
-384065.0
-11964.4
88480.7
370391.0
-5598.44
-91334.8
8898.35
29316.4
-84607.1
-28444.1
-26394.1
-1467.88
-169745.0
5614.93
5279.99
49822.4
176500.0
22057.0
165557.0
3693.15
12919.9
7276.84
-37627.2
-74117.1
36855.0
-61695.3
19158.1
-35464.5
-9942.37
-3596.82
18427.7
-30194.6
-10272.7
-10066.5
223926.0
-4780.91
167579.0
-79024.7
86408.9
36431.6
-2781.52
165303.0
75839.1
-61447.9
-18011.4
-3064.17
-36563.2
-40548.9
167247.0
12993.6
-73303.4
8704.62
-149486.0
23971.1
215132.0
22846.3
170644.0
70874.0
285397.0
93486.9
-42042.0
-300810.0
104083.0
-104621.0
2182.82
-55397.5
35547.3
-29442.4
-195003.0
-138574.0
-20598.5
-52109.3
29858.5
175900.0
-186629.0
147320.0
-225583.0
13690.8
-27317.1
-61122.9
15739.2
20537.3
-46671.7
80169.5
-85166.2
73386.4
-114763.0
200824.0
-143127.0
-7897.4
-137075.0
48477.0
-7195.0
-47364.5
130624.0
207442.0
-160977.0
29459.2
-30507.9
15509.0
-109760.0
127523.0
-31396.4
60946.0
-404785.0
-9256.42
-148269.0
-22762.8
49471.9
-74223.6
94300.1
30886.6
203490.0
-127207.0
-80495.4
-459230.0
-27932.5
-30460.1
-30925.9
31196.9
-48365.3
497373.0
172067.0
-127371.0
11426.5
10838.1
72625.6
6030.05
-38062.4
-118724.0
-17663.8
118288.0
-69481.3
241150.0
-5450.32
-11532.0
-2954.72
418843.0
41067.9
-20588.2
1570.83
-4360.81
-120802.0
168624.0
-344492.0
-87936.2
-103950.0
-82702.5
-158726.0
9889.67
71597.6
-134417.0
-13262.5
-19102.3
-117520.0
15657.2
-21752.7
130047.0
-245530.0
-1784.8
-39046.8
-14261.6
-107810.0
-5439.24
-34815.8
-105238.0
-9388.76
-205795.0
-553798.0
-24977.3
18070.9
147764.0
-69100.4
11113.8
-38391.0
3697.9
-143701.0
14691.8
99976.9
55093.6
253360.0
52890.2
46125.2
521.234
-27886.8
136644.0
1622.55
41279.3
-17322.0
37223.6
-27212.0
38480.6
-74499.3
-230581.0
-170204.0
150661.0
65089.9
100562.0
149889.0
-48234.2
-47111.2
18783.8
-184910.0
-9092.42
-37301.9
57522.0
-161375.0
18174.5
-74370.2
-50124.9
115542.0
100495.0
167125.0
179578.0
-30325.1
25380.5
-34901.0
36993.8
-269491.0
35087.6
16567.1
-40485.2
45737.4
-59164.1
-99244.1
10410.7
104502.0
-96376.8
-116842.0
175763.0
141727.0
31390.6
25743.5
-29674.0
215990.0
117667.0
-155798.0
-57376.7
78304.3
-654919.0
-17186.5
165953.0
-90703.8
-109384.0
129430.0
-234220.0
-119963.0
-1391.76
-47147.2
-73746.8
-23415.0
201177.0
-19647.2
-42739.1
-12373.0
-49502.7
-29966.0
-34886.9
243923.0
-67119.4
-42581.9
-71686.3
-54331.2
57096.2
-6384.69
36443.1
-62272.0
43304.1
-27820.3
78925.1
232383.0
537025.0
-15330.1
13943.1
-40019.3
7365.51
9260.87
90955.4
6115.87
1907.32
90099.4
431455.0
77886.7
14991.8
38584.0
-22673.7
16050.6
42000.7
-37693.5
58922.4
-101993.0
12608.4
44180.8
24559.2
-2721.61
-139632.0
-124082.0
-29541.7
-18811.5
-147669.0
28814.7
247900.0
42925.6
283.014
18204.1
14767.8
45473.6
35711.9
-195757.0
-138364.0
67303.4
37365.5
62843.9
39911.3
14973.2
-14546.0
-91703.1
-24294.0
15901.6
249384.0
68972.3
3673.97
114763.0
-47291.3
75123.0
-42344.2
46703.5
11348.5
-22795.7
-20415.8
-15430.8
-18004.4
20316.7
-51742.0
-198575.0
387018.0
38625.4
29494.3
-313952.0
89495.9
23815.3
-18642.8
-5519.32
-53156.5
-121014.0
-49068.9
-101431.0
116121.0
13312.5
-2407.13
-12807.2
29310.3
-256079.0
52310.8
-128868.0
-15563.7
-17887.2
-134177.0
-186979.0
4458.07
-22308.8
487.895
-16194.0
-28703.8
28400.7
-168487.0
39606.5
90092.4
-153469.0
112602.0
-19849.8
111840.0
139707.0
-2903.02
-28317.7
-288773.0
-18039.3
324013.0
-25819.6
23726.3
-2125.29
98605.2
17115.5
-99060.3
-479391.0
30505.1
388595.0
73573.3
-113831.0
-30045.8
57165.2
-17590.8
356126.0
185376.0
-8136.18
18447.4
125197.0
179088.0
9177.08
-117702.0
111337.0
33596.5
-7514.62
-55690.6
7235.31
87330.2
-58881.7
17250.9
-30041.5
-85254.8
-20321.9
109708.0
104420.0
77522.8
10127.0
89956.2
29935.3
-29441.8
-20620.7
26565.4
-30980.4
1759.3
-125300.0
-25705.5
65895.8
26908.7
78805.1
-51081.1
54552.5
365566.0
-44142.7
32354.6
26090.2
-31767.6
12250.3
-151038.0
53465.4
27390.4
168168.0
-239435.0
77035.5
41987.1
-15073.5
-90758.0
46104.5
-39069.3
39870.9
206718.0
85385.9
6175.98
-656.096
167876.0
-57086.6
20209.3
-57873.9
24063.0
-84999.0
135642.0
175334.0
-19066.9
13252.7
256365.0
19961.1
-19417.1
120174.0
123011.0
-65502.9
305257.0
136211.0
216655.0
36324.8
165987.0
168630.0
-38294.4
34252.9
47400.9
101554.0
309703.0
23745.4
-264733.0
-5275.98
49096.5
3692.33
-361715.0
219315.0
242519.0
-54956.3
-121517.0
283237.0
7319.81
-243513.0
-188663.0
99555.1
29969.2
-31303.8
-2732.91
6632.77
59993.7
-28137.2
-398437.0
373172.0
-4845.03
94179.5
54219.7
129224.0
-65620.3
19868.0
103408.0
-119256.0
49010.1
41428.2
181755.0
-2827.54
-341201.0
29054.8
-13381.3
-105236.0
71416.5
-177901.0
10260.9
-34814.6
-22425.8
-51239.9
-50751.0
-49357.9
251.145
1770.38
191294.0
443467.0
-194983.0
43123.9
46185.2
-123953.0
-33630.4
76687.9
31786.9
468368.0
-120384.0
-60305.8
-866.89
-109046.0
51350.3
275445.0
56360.6
104835.0
47799.1
84722.6
10900.0
-5709.08
-89636.0
-45173.4
-92470.8
-92681.1
82394.9
39199.1
-93866.8
-155617.0
-303067.0
12227.2
-156059.0
29360.8
15456.5
-59995.4
123627.0
-17949.4
-1495.27
-49551.7
45820.1
744519.0
72542.9
-506512.0
51581.4
-95875.4
40360.2
51383.8
-17265.0
87185.7
152627.0
54881.3
165255.0
77055.4
86386.6
26504.3
36937.4
7499.82
77342.2
8880.1
-117925.0
-125797.0
-13551.0
937.541
809610.0
-35522.2
63920.9
-68289.4
-50536.9
3795.52
16785.0
-104948.0
116151.0
165072.0
-3829.06
-25912.6
26135.8
-18141.7
40229.6
121062.0
61646.8
-56514.3
-143190.0
129255.0
107692.0
-139581.0
-32098.3
-101512.0
-269906.0
-83538.4
404.527
-50644.8
74331.3
20713.5
172618.0
-158402.0
29823.6
-49994.8
15400.8
-99714.5
20562.0
-50449.3
52110.6
-12890.6
-199313.0
391285.0
-5684.81
74427.8
206812.0
142645.0
46302.6
51306.2
200285.0
-109756.0
-19581.1
-102491.0
12298.4
-386937.0
-21793.0
1186.91
-302486.0
-84861.5
329267.0
63904.6
127928.0
48829.8
4730.43
163180.0
96151.7
-9553.4
-5363.52
-241064.0
86495.7
66848.9
144459.0
-83526.3
119276.0
2776.57
35100.6
5153.39
7887.64
-16574.9
20740.1
47961.4
-39039.0
-58819.5
-348983.0
53537.8
130349.0
-10797.8
-125254.0
-7941.06
-190411.0
-307174.0
-68482.6
-219572.0
-239257.0
-49992.7
312513.0
4002.77
-86432.9
-21885.1
94739.4
43746.5
40101.3
22001.6
-40943.9
-26454.8
126665.0
31903.2
9034.3
11020.5
25527.7
-27701.2
71490.6
194394.0
53815.9
-44724.0
-175697.0
45963.8
-92240.4
45650.6
4441.61
-216709.0
-102714.0
67076.5
-7906.47
-102686.0
231625.0
57494.5
30278.1
-95700.4
-34946.6
36944.3
-17879.9
-199600.0
-65139.3
-35620.9
-4639.78
114846.0
56518.2
-58598.7
11896.0
5764.56
-8649.6
33597.6
-99527.0
2442.17
131115.0
-43406.7
57609.1
-398904.0
-49110.6
25623.7
-16884.0
81944.3
70204.1
62582.9
-54708.2
7737.51
103944.0
-179441.0
-31721.7
-70420.3
1268.55
11921.0
-63609.6
-44830.7
-98194.5
4989.68
-56412.5
414751.0
2661.03
171522.0
90208.1
5082.1
60272.5
59595.9
-19004.5
-5272.1
-64016.7
26416.4
178966.0
159928.0
69541.1
91512.5
60513.2
-229875.0
80492.4
-50063.7
-419509.0
-28683.0
-67763.3
-43018.0
-93569.5
43725.5
243257.0
-173301.0
-82499.4
1916.47
35063.8
237606.0
-134318.0
-126164.0
79079.7
37227.9
-13720.3
-59337.2
16110.6
-31202.9
-4462.23
71087.8
-21927.5
125657.0
43093.7
-440255.0
28842.1
-94173.2
-49130.8
156063.0
-26016.9
-21990.2
190284.0
-82288.7
-118182.0
-24697.9
30319.8
12576.6
10670.8
-40182.6
-423.622
64462.7
84428.9
-88321.7
13904.7
-28475.4
11986.0
436060.0
-32024.8
251815.0
12099.5
-10115.1
-40978.3
-121216.0
-55813.1
57212.0
29184.0
20875.1
-51106.1
16741.9
55478.2
126416.0
-285782.0
-30016.1
-40276.7
-6435.82
-176833.0
69542.8
-45386.3
102761.0
30170.2
217771.0
8141.49
24540.7
-56535.9
71148.0
-42241.1
-31980.5
-54509.1
-162805.0
165382.0
-296455.0
34355.5
208733.0
-44104.5
-21331.0
-188648.0
29294.4
-68070.2
31883.9
-57412.3
754.89
675497.0
118579.0
64815.6
117551.0
13933.6
95550.1
4337.54
-26957.2
-9893.94
105741.0
52098.8
82352.8
80280.0
-8278.11
25238.4
-2204.46
55216.7
-56408.1
19280.9
-190793.0
-321052.0
-41585.2
200014.0
-2812.08
23867.6
-89805.2
-32229.5
-1147.45
160927.0
7620.05
102222.0
-31629.3
-126112.0
-133460.0
-114630.0
76161.4
-20676.4
-12980.7
-70806.7
-40445.0
-19085.1
-14020.6
-100868.0
-83042.7
79686.0
-404396.0
-188799.0
-12513.0
170521.0
-1736.66
-10524.3
99710.0
34146.1
75733.5
194897.0
-4015.82
-13875.1
12849.4
55469.7
-37495.6
122561.0
27968.7
-66628.4
-95104.0
-119942.0
42080.2
67043.6
-23262.9
-2835.57
-44230.6
-37466.7
80953.2
589.947
40208.1
-40950.8
29608.1
-20308.6
-69711.5
-70865.6
22746.2
-50075.5
-20686.8
21533.9
-136215.0
-39176.7
2903.28
-52700.3
66146.5
-94054.9
-183754.0
-74946.0
41740.2
135522.0
108527.0
76436.8
-16839.0
-65733.1
-546332.0
38592.6
18745.1
45962.4
10923.0
6527.47
132909.0
-188497.0
-89483.5
146784.0
-21365.4
-16086.1
49095.2
-205917.0
29635.3
76066.1
-167224.0
-82915.6
77840.1
-6294.11
16775.7
-153617.0
-65726.6
-10064.6
-28692.9
-71912.2
-229041.0
1671.51
-40036.4
-6583.56
-35525.8
44844.7
-45769.9
-41939.2
5375.4
-7960.39
-143338.0
-101079.0
-120406.0
223244.0
-16631.7
121107.0
79022.2
-9267.22
279349.0
-195726.0
-171827.0
36091.4
-158100.0
-52228.9
-20757.6
23301.1
-299303.0
59315.2
-27227.0
-13756.3
50557.8
48562.6
94668.9
-88347.4
-55818.7
-285665.0
-23576.9
-121181.0
127889.0
141125.0
182949.0
68055.3
-249275.0
122510.0
-47805.3
-14451.4
-20379.1
134350.0
-8587.56
-11268.8
106425.0
31640.3
1381.34
48078.4
6217.08
24080.1
13383.8
-357757.0
-623726.0
-77475.4
32714.3
75029.8
55617.7
-50196.6
29607.6
-73823.9
-38627.8
-17875.4
-14695.6
31116.9
-37435.3
-384962.0
4399.5
-14938.3
-52117.3
-68169.6
-17518.6
89038.4
-22667.1
-2802.47
11749.3
53815.2
-54580.6
-130143.0
221557.0
-1071.32
141303.0
-24264.5
19283.7
13652.5
151644.0
-124284.0
229242.0
-8399.24
224209.0
-107045.0
-110263.0
-148693.0
-8246.83
223869.0
-7257.38
28270.0
4718.94
103015.0
24442.4
125789.0
-42396.6
40411.3
-57064.6
16750.1
16294.9
49201.2
11170.7
12971.5
4987.32
65982.9
46401.6
-204562.0
-176300.0
11484.2
-3442.21
-161264.0
-117047.0
-81485.4
-23579.4
-71762.0
-229266.0
3115.49
-113155.0
-14259.4
13766.5
-68628.3
20131.6
-38253.5
55183.3
179596.0
138688.0
-78204.8
-32088.2
28967.2
-89843.5
-42072.2
-256827.0
-34810.5
101797.0
7366.57
-30604.7
7092.47
-10074.6
12763.9
-76257.9
53484.0
-347630.0
-414020.0
-97626.9
-279910.0
53561.4
4543.65
13163.1
-40871.9
236514.0
8475.8
-59235.9
-33083.7
-67646.4
323370.0
-111642.0
200632.0
28314.4
192848.0
-33882.7
-7971.83
-232181.0
56649.2
-454210.0
-81181.4
5699.02
-171750.0
233031.0
-144832.0
44464.6
-578853.0
-23702.5
201287.0
-129409.0
99135.8
-36947.8
111083.0
-22052.3
26917.2
-122201.0
-86495.2
-82703.3
59712.8
-28212.9
183127.0
18395.3
38684.4
18836.7
-46042.1
5360.71
-52054.3
-29734.3
74371.3
-123882.0
60571.9
-188557.0
194395.0
46230.0
-6962.02
-64009.5
40805.0
138182.0
300217.0
18352.8
95207.6
-127029.0
-110105.0
59057.5
-27777.9
214772.0
-36873.0
-32473.0
-10696.7
231591.0
121326.0
36789.6
-47431.0
-60786.3
262899.0
65369.7
-19007.0
-62117.9
-28444.0
163179.0
85329.7
42297.6
2904.48
-114295.0
-199799.0
11200.4
20181.5
-302351.0
-26548.6
-16156.5
299378.0
-159502.0
521.153
-69368.7
42370.3
38238.4
25422.5
36765.6
-806.514
-56082.7
-81429.8
105117.0
-109847.0
-125665.0
-17457.8
-64572.7
-142955.0
38905.2
-177868.0
84378.7
-94990.3
159458.0
96109.1
79913.8
-65553.1
186909.0
35171.0
4025.91
-65106.3
62880.3
104989.0
148427.0
68893.0
11505.7
74435.1
18288.4
15837.7
142674.0
55842.4
-77784.0
-86041.7
-9436.9
355784.0
-55006.8
393381.0
-86368.5
-523069.0
-67177.3
114034.0
176520.0
390682.0
-156546.0
-85362.4
31914.8
14617.0
71490.2
41060.2
-64775.0
114634.0
5103.47
15689.3
30837.4
23788.4
199679.0
89810.9
-134270.0
8374.55
16350.7
6056.54
-213816.0
-20600.6
-22133.3
-99245.8
88376.0
-177917.0
20839.1
559088.0
-27854.6
-7854.44
-118311.0
34068.9
-23164.9
53074.0
21492.0
-43731.8
-22188.0
-162060.0
-75574.6
-30067.3
39074.6
101046.0
849017.0
-72025.5
-54604.2
273884.0
38595.8
10848.1
64779.0
98541.3
-91520.4
-183629.0
91710.4
55836.2
-188583.0
113214.0
-582060.0
9370.07
57363.1
171546.0
20650.9
-10540.0
44275.1
20241.5
13839.4
-178792.0
63319.6
-42797.9
8134.42
28392.9
312101.0
2987.49
-18690.6
-319180.0
-104969.0
51354.4
13504.0
-1942.57
42542.2
31490.2
41021.5
-111662.0
-31881.2
-34892.1
-64117.8
11049.9
-121978.0
48049.0
6244.64
113941.0
10514.0
-14570.1
106580.0
38162.0
-68165.0
-24629.0
-3878.87
-18619.3
86472.1
-28856.9
291377.0
295239.0
5655.58
-6559.2
32254.4
-152284.0
-93126.5
-139782.0
42203.1
-6431.12
-114523.0
-2126.35
18103.6
74040.1
30085.2
-1645.9
-141281.0
37715.4
31522.4
-27232.7
-13752.7
78876.6
199824.0
51452.5
150085.0
-64644.1
-35205.6
52860.5
-6732.05
107840.0
10732.8
125576.0
372064.0
-87924.1
-319788.0
20509.6
59589.9
34772.2
19287.5
5559.7
-15933.8
-8983.55
-10448.0
-113049.0
-40513.6
100710.0
28926.0
14068.9
-28116.5
23253.4
-94662.2
6823.89
142095.0
124844.0
144531.0
1743.47
76017.5
-61461.4
176829.0
14472.7
26121.4
-54896.5
-201284.0
-290723.0
-52389.3
31204.0
-72909.5
65538.7
-8777.82
196289.0
51812.4
48845.1
243956.0
-277023.0
-64764.9
454440.0
-79555.4
140595.0
-88082.4
40688.4
2168.56
54292.6
21046.9
167825.0
-9596.67
-184929.0
51887.4
52363.2
62041.7
19528.0
-116477.0
9814.56
77241.3
68053.6
105681.0
-114945.0
117381.0
-42693.0
228734.0
15783.7
-25523.6
11037.9
-76704.3
-51305.9
-32628.4
13670.1
76746.9
117835.0
233507.0
74598.4
242079.0
-73252.9
212987.0
-23189.9
67320.4
260612.0
30025.7
-91284.5
-122699.0
40695.7
94920.2
49568.4
53281.8
-41406.0
137920.0
7202.1
-53727.2
-58612.6
6.56727
91322.0
-114568.0
59204.6
-527699.0
-27390.5
43618.4
152084.0
81353.4
-27663.1
4210.54
-26432.5
2895.99
47581.0
722335.0
-58172.7
80575.9
-142885.0
-27533.1
-32921.8
-28608.6
4760.71
57562.7
-62314.7
107557.0
145267.0
92562.2
-407134.0
24381.3
-54800.3
-131246.0
-31271.2
30825.3
-91013.8
586538.0
27686.6
-52370.5
50468.0
74113.3
-54177.7
-31507.3
-23860.2
-47299.7
-116513.0
66693.8
-292510.0
-195959.0
243385.0
103204.0
-50118.3
-11108.9
-33754.7
911519.0
-10453.1
-91459.2
11948.8
153691.0
-4315.27
99437.8
86165.7
246793.0
-11134.8
-12166.4
-258171.0
-117405.0
-50570.5
328690.0
-198233.0
-53648.5
96960.2
70681.0
-189240.0
-127273.0
213687.0
252058.0
-97639.2
68583.5
33095.2
58816.0
4992.4
39018.5
27781.8
-25958.4
14954.6
-127464.0
-20230.7
-313001.0
-254189.0
-88171.2
-165691.0
-30233.1
-187673.0
234372.0
-342641.0
-16808.4
-33046.8
-9289.32
75574.3
41109.8
-4284.08
-4444.55
-38665.7
-2099.88
-43193.2
55825.9
-24947.9
-21110.8
66931.0
161517.0
30497.6
-14793.5
30853.1
-100445.0
-53976.2
24819.1
-15437.2
-331661.0
-304715.0
-11893.2
-68981.4
-22468.3
-26498.8
-58788.7
-70189.6
-9017.3
-217064.0
152322.0
32931.2
144290.0
-26283.6
96614.2
133178.0
-46334.5
-5675.51
116618.0
-2324.76
-23798.3
226552.0
56390.1
-150385.0
-8965.75
-30786.6
86575.9
70484.8
108135.0
-55024.8
-116885.0
21443.9
-9798.46
-35505.7
-227331.0
1452.51
-73944.8
-24131.5
212809.0
14125.6
-25853.8
36566.1
16434.3
88170.0
80054.2
61187.1
16668.0
102713.0
-59586.0
-123170.0
3567.18
-64822.0
-8750.13
-136102.0
-71233.2
114858.0
-105557.0
-5607.24
-28532.9
70543.0
-4517.97
-4553.69
282226.0
14289.8
-32310.4
292977.0
-28676.0
-7187.18
-11182.9
17361.2
12346.6
-62406.4
-75397.7
140506.0
22720.1
6019.28
-258950.0
-158630.0
-234743.0
-275225.0
7162.01
71470.8
-88980.7
23637.2
106754.0
-25577.1
-147556.0
-95245.4
-106391.0
19163.0
-295935.0
-9234.31
-308600.0
-41711.3
-60100.2
-47160.5
179431.0
182687.0
41053.9
-14170.3
-101153.0
-237952.0
127979.0
-36914.3
-10904.6
13589.9
-103011.0
109815.0
-124480.0
-15997.7
-26696.4
-42950.9
67898.9
-18283.7
-23445.5
74711.0
13082.5
7291.41
1890.48
-125348.0
-81856.2
-287749.0
48145.8
-92121.0
85966.1
4695.51
-421891.0
-4370.26
-43156.1
74609.1
-21040.0
345188.0
-44854.2
-76648.7
-6352.29
-64437.5
-110311.0
38626.8
113416.0
328684.0
-34742.7
-1644.14
74856.8
-21333.9
-66046.9
43791.1
-68556.7
-146690.0
166357.0
-3276.15
160206.0
-109512.0
221699.0
2920.54
-219750.0
-173320.0
-6740.84
15967.6
-56705.9
-223392.0
15121.3
43085.1
-10777.9
124484.0
-160268.0
-56990.2
1287870.0
138670.0
-170043.0
95167.6
-37613.3
-56653.1
6243.58
107906.0
0.0388981
32016.5
-5386.53
-1463.81
-52299.0
113901.0
-355607.0
-139145.0
98745.4
-136347.0
-433861.0
13078.2
-13043.2
-12965.1
97187.6
19413.5
-255078.0
-23818.6
-1418.02
58272.6
-68039.7
43627.7
135424.0
54485.4
52497.3
-5711.75
-458447.0
-97600.7
44560.6
-106364.0
32244.2
139941.0
-297458.0
-39100.0
-5728.28
277133.0
-164851.0
4775.31
47721.4
19094.6
-93064.7
3768.14
-291303.0
-105439.0
111569.0
271510.0
-46768.5
146342.0
18970.7
219634.0
88850.1
-14150.7
186065.0
-18881.5
-55008.9
-14580.9
-195429.0
-158659.0
-145025.0
-126291.0
-500824.0
36084.8
862184.0
34176.6
486102.0
395608.0
169128.0
-242457.0
-54042.8
-112451.0
124687.0
5854.25
-355682.0
17682.8
-211161.0
27307.5
52879.5
-137228.0
-104182.0
-3860.36
43096.2
-934317.0
89655.4
-13838.1
48959.6
-24381.4
-185287.0
-1974.12
117660.0
83105.7
-43278.8
96356.2
-29034.1
-55082.6
-11616.9
-135548.0
-18873.4
110284.0
-45098.5
232621.0
-6636.21
65951.5
-150769.0
12329.1
-211354.0
-97377.5
10112.9
-76644.0
-482165.0
-26882.7
69676.3
-61255.6
-28781.7
28201.4
151350.0
-158935.0
14572.4
35721.1
-57739.1
4376.44
35108.6
585517.0
-93482.7
98165.6
-18644.7
29484.9
-118574.0
79356.5
-244786.0
198482.0
-31565.6
-38066.5
-21986.9
3939.08
216658.0
111953.0
69708.8
-19465.9
-110920.0
129138.0
125896.0
161439.0
-38337.3
3449.57
137963.0
-15772.4
49758.6
-126939.0
-56604.6
1368.18
176063.0
-361157.0
-160589.0
-5890.86
29828.2
-46993.9
8221.92
62077.9
1678.08
-63132.1
-57672.5
-8784.6
-5865.59
-85689.2
-100148.0
-12387.1
-113945.0
46362.8
-70999.0
-135084.0
-41634.8
-43198.0
-37074.1
84756.1
146234.0
3512.73
-67879.2
-35305.8
121700.0
40343.6
-119557.0
-97442.5
32010.3
-236495.0
98984.5
11635.2
-76755.5
69251.4
-249003.0
-123253.0
-107883.0
2610.01
9240.82
38414.9
64169.9
296527.0
44136.6
36465.7
-15072.9
59015.1
46348.1
-14389.7
120712.0
3983.11
84848.9
51272.8
102894.0
80209.2
-74604.8
-24993.8
105377.0
6823.33
137266.0
80787.9
-34615.1
-32539.7
-37234.9
89555.9
-71520.5
269509.0
-81850.8
23329.0
-92283.1
-74683.3
-22376.3
-32135.6
3902.25
338107.0
-58323.2
-73443.5
5773.6
-1852.52
-11442.8
61205.5
10882.0
375574.0
133566.0
76792.0
43568.5
11764.4
-17736.0
-70922.2
54531.2
-44176.0
-8360.3
-4220.84
93172.4
-1139.6
289304.0
-49436.4
-20129.2
63115.5
51291.4
100515.0
118933.0
-161976.0
-28441.4
7613.92
17294.5
6994.64
11649.0
-15016.7
-26232.1
1619.9
235367.0
19552.3
25700.0
-15721.0
-23114.7
-23284.4
-44213.4
-93216.2
-234146.0
4120.31
-30820.2
4974.28
-69690.6
18326.7
-76311.1
101391.0
79315.6
1099.5
-31800.3
444038.0
25332.9
-363856.0
-132578.0
-65434.6
58615.6
-6771.51
-238734.0
39306.1
-164133.0
113820.0
-245414.0
39732.7
32667.7
-6656.45
-54974.1
67346.2
-7454.29
-243714.0
27694.5
-38282.6
10891.7
-129595.0
-37462.3
55897.8
-69321.2
-7775.55
-70563.0
-21942.6
78384.0
-4465.86
-103471.0
13640.5
77257.1
30181.4
52035.2
532721.0
22872.1
32066.8
-23855.4
-41324.1
167822.0
353174.0
-193139.0
-76192.6
-16838.2
-112309.0
35814.7
45192.8
-90986.8
115836.0
115002.0
87097.1
-379709.0
7384.88
-53316.9
-28888.6
-958.595
4069.85
-346975.0
-6076.93
-72816.9
-65285.3
-98207.2
-18268.1
-45858.2
57829.2
-57173.4
-35403.1
78560.2
-9657.17
-45056.8
97784.0
-39712.3
188863.0
107854.0
154703.0
-80539.0
48608.6
52975.8
130865.0
75091.7
66991.9
5155.98
23650.3
3345.44
37551.8
-26658.3
-108576.0
-69498.0
129257.0
119867.0
-1156.74
-342502.0
-3175.39
6641.2
-55544.3
-53003.8
-36195.1
-207022.0
11390.9
-82034.3
14515.3
51919.6
124670.0
107038.0
95681.7
-79072.2
193063.0
-19768.8
-80996.3
-158328.0
-13949.6
54985.4
-89349.5
93071.8
-80284.0
112214.0
-52894.8
189955.0
-40243.8
18409.2
119862.0
-24469.3
-172203.0
-26789.8
50348.9
93831.5
-39194.2
-223914.0
-13733.1
-41456.2
72405.6
-69113.8
-17547.1
114729.0
-183001.0
-39217.6
98308.6
53593.5
66169.2
55067.0
-14364.3
185601.0
135769.0
72578.1
47170.9
-80124.0
-269129.0
72250.5
47987.1
-61923.1
40642.3
61959.7
11347.8
30373.7
2617.26
85424.6
-40952.7
-63457.9
26578.5
-24353.6
170089.0
-7547.29
171229.0
125996.0
40736.9
-33870.8
-184734.0
174575.0
-173019.0
-55858.6
75010.3
58562.1
1807.08
18652.2
5265.93
46.3667
-120198.0
-3234.44
42489.8
234155.0
642868.0
203687.0
75062.1
134575.0
-1761.04
-149447.0
-150751.0
-165180.0
-33814.8
-24022.0
2591.22
32978.1
84963.3
152186.0
129475.0
-34752.1
20561.0
-267480.0
37379.6
57232.5
186325.0
155896.0
250254.0
-186807.0
1411.44
30480.9
-53093.8
-137010.0
-37590.2
-44656.3
-45150.0
262634.0
-199527.0
-25682.1
39058.4
64670.5
13774.5
-45565.6
-55978.0
3101.46
1247.23
77053.9
-118682.0
92264.3
210222.0
23449.9
-24847.6
7214.2
105469.0
-185772.0
9675.83
-26313.3
43785.7
71953.4
57759.7
223438.0
-82959.2
-43918.0
241091.0
23397.4
51706.8
-102702.0
194505.0
4597.09
-9690.78
-129407.0
12712.4
52530.9
-24279.5
117547.0
645511.0
70647.6
60818.9
-312351.0
-34256.9
20180.1
-10749.8
-40463.2
-60673.7
63934.9
8750.17
172151.0
45843.2
78567.2
-405283.0
13724.4
66319.3
-12605.1
961.566
-5498.44
181820.0
76062.1
36615.0
-7286.97
12721.2
93696.2
43438.1
348576.0
207992.0
-76940.7
64844.7
133047.0
-383861.0
-204570.0
158419.0
219224.0
147960.0
102310.0
-20966.9
708127.0
66254.3
-107959.0
-34908.2
141873.0
-40968.7
11978.9
204678.0
24185.1
107541.0
-56876.3
317255.0
-72108.2
-265359.0
47357.7
35933.3
27608.9
57407.9
-494229.0
15671.2
16906.4
-35963.4
261852.0
3614.9
112285.0
94763.9
-73046.5
-855609.0
33172.2
-80928.8
-120022.0
45344.8
-93501.8
43888.7
66998.6
25202.8
115417.0
-118999.0
-81487.4
-156156.0
-27375.5
-284222.0
-204925.0
107669.0
-423214.0
-80092.2
52546.1
-22310.7
-90698.9
102362.0
-163739.0
130690.0
-127152.0
-12049.5
12097.8
-10143.9
-157168.0
46971.8
-4830.88
97476.4
-192718.0
-82067.5
-149334.0
123614.0
53139.8
-265663.0
-1017.41
-88787.4
95899.6
500.967
-45975.1
5853.01
42499.0
4216.09
-176278.0
174229.0
81874.3
188466.0
-181391.0
96568.1
85841.7
66125.5
19714.3
73592.5
322136.0
-14893.2
-10417.5
-13747.3
-42.1523
-107591.0
-40317.5
18988.3
69031.2
-72299.2
-31209.1
-80359.2
51493.6
-57078.8
-20616.1
-188580.0
-144849.0
29423.2
42404.8
-6981.87
-9301.08
-21591.3
23283.6
35416.7
-572940.0
-4030.53
35779.5
-36566.8
928.925
-3215.98
-5929.09
19218.9
-67102.7
-280977.0
57725.9
82914.9
1092890.0
-104556.0
-29738.4
-5676.85
6253.06
-19939.9
109543.0
-91069.5
7723.63
-45494.1
18443.4
19216.3
-81667.6
-51696.9
108267.0
-86545.6
-6605.85
72132.2
-37197.5
-11302.0
85658.5
-23409.3
-221559.0
1246.2
-47431.6
420259.0
190918.0
13990.8
230173.0
7662.89
7231.57
104562.0
16203.0
715262.0
101021.0
-114728.0
-31292.5
-58273.9
-6618.16
106053.0
-22713.0
19531.5
-184908.0
-325949.0
-31957.3
43120.2
6884.52
330204.0
86397.0
91342.8
29731.4
-15081.6
-478.658
98188.1
26890.8
-11065.1
136212.0
29027.1
86265.1
118306.0
-286527.0
-62919.4
-27513.0
-35399.5
-55672.0
39629.3
-150916.0
589.307
-134194.0
-83126.6
97919.0
-23970.9
-67998.9
53191.2
-86762.1
40817.0
-90692.2
80734.0
-181900.0
-24217.1
72011.7
-74029.0
-58247.3
-345307.0
176618.0
82397.0
-11925.4
-22067.7
-737220.0
28.0646
-15380.4
37367.8
40010.2
24569.2
-78.1872
8277.7
-12137.2
-103934.0
-57631.5
59608.1
1948.87
-9562.12
52818.8
209428.0
-73836.6
87867.8
119766.0
34895.3
-114047.0
227481.0
34931.2
-38658.3
-59858.8
10080.2
-98869.4
141274.0
67862.0
310291.0
-48933.8
-76113.9
-39773.1
10096.4
-20632.9
186329.0
-44666.8
1806.39
17882.0
41438.9
6743.47
-31897.3
81939.6
-28537.2
99302.0
-31986.7
55366.6
-182139.0
-43934.7
140923.0
34218.4
11964.6
-60428.1
-64075.9
-47077.9
-15065.4
-240988.0
2274.75
-97086.0
-72066.6
-20531.3
-3059.45
27511.1
478387.0
-49153.0
38227.7
68644.1
67001.2
503835.0
49003.7
213180.0
-89767.2
11548.3
-186692.0
29865.5
-37761.8
-109594.0
-109493.0
74648.0
513178.0
-136038.0
-330623.0
-93125.0
78923.8
-48310.7
51067.0
12581.7
-4715.6
-503968.0
-21649.4
22345.7
67740.1
43852.9
-70181.9
-31037.2
65642.5
8207.5
200953.0
-95042.5
229597.0
-49930.1
600299.0
-73889.3
128746.0
-43489.9
47740.1
55311.4
-239461.0
-35626.7
-66158.7
78147.8
70071.1
-31845.7
15595.2
-119308.0
-26541.2
-16205.1
-28183.0
-68569.0
36203.5
32115.9
-197198.0
21447.5
-2658.32
-138963.0
5384.92
-1911.53
16199.8
-54064.4
9277.17
94781.0
108969.0
-7431.51
33658.4
61696.3
-175339.0
-16726.8
31633.5
-34963.6
238319.0
134936.0
71707.7
6316.72
348814.0
96100.6
-39036.0
-27205.9
921.055
-555853.0
7510.65
-13506.7
-42843.5
55156.1
27267.5
13204.9
-96915.1
-20936.6
-95076.8
24556.0
25055.5
77944.8
125700.0
85474.7
225772.0
-94364.2
-16420.8
300628.0
-77279.8
-214279.0
53198.9
-18009.0
-64476.2
124378.0
-87778.7
-52053.0
-210489.0
-54028.3
-20931.9
641694.0
125050.0
43948.6
-129357.0
-28645.8
-54056.8
-22372.4
-202134.0
-9324.6
-53800.9
13649.9
293816.0
-36320.6
-31271.8
294350.0
-311633.0
-194017.0
-39600.9
100007.0
58745.5
-8559.47
-1877.31
3865.51
28588.2
55943.7
-62094.5
-5275.31
306722.0
174437.0
-174562.0
79299.1
-14545.5
320923.0
-268002.0
-85820.7
49438.7
-74393.1
-313027.0
-110263.0
-127365.0
114932.0
20360.1
23292.8
-194524.0
432.551
-12788.0
124910.0
-33236.2
-34122.2
-185376.0
59160.6
-133196.0
63312.0
-106426.0
-41389.8
-1834.25
23953.1
43006.8
25952.5
-175928.0
44114.5
-59135.8
30160.7
43173.2
206998.0
48859.4
88586.6
-19894.2
-32868.3
70040.6
-215057.0
-128839.0
-133409.0
42774.4
-95556.5
4758.33
35200.3
30479.5
-23681.4
287742.0
43979.3
8143.27
14566.5
-69208.6
-207100.0
-43167.5
-235791.0
52876.4
-13073.2
45926.2
-57721.0
-7845.22
104610.0
21652.8
21380.2
-33303.3
-386602.0
-74449.5
-78596.5
619175.0
-237474.0
20098.6
-119273.0
-30643.6
46176.4
-2652.44
169102.0
43680.1
29517.6
-34219.4
-63115.1
86930.1
209429.0
-47542.7
99251.7
12235.0
10679.1
20465.7
-5176.54
106850.0
15428.5
-44377.4
-2976.44
-8766.37
-62160.8
-5451.03
-6998.55
-8247.42
54412.7
-306234.0
149130.0
35194.7
175240.0
9698.17
-112643.0
-61364.9
134838.0
-104324.0
339801.0
41069.0
-21776.4
-75437.1
121926.0
49908.7
4712.54
177337.0
113990.0
-42187.2
-155101.0
11431.4
-40556.4
-59571.6
-74436.3
59452.5
109667.0
-52525.6
-169340.0
-24508.4
-3075.51
96212.3
416949.0
-4113.87
15051.5
-158755.0
11682.3
549067.0
256385.0
-376040.0
300134.0
46582.5
-22033.8
-51412.9
-130546.0
-110781.0
76523.8
-206229.0
-61335.9
19930.1
10304.7
32165.7
14561.6
-20548.3
-10772.7
92578.2
252189.0
387926.0
66845.2
-9171.78
-48003.0
80509.1
-15538.8
35088.5
29903.5
25797.5
35152.5
-17022.2
-307830.0
-88687.9
70228.6
186117.0
8275.55
-49967.9
-3445.92
-34599.6
-14664.7
79942.6
-21629.9
-694.566
25236.3
-37038.8
17139.3
8476.08
12412.4
-90885.8
-116980.0
30002.7
-62849.2
-131115.0
-22991.9
-8502.81
-261731.0
-365025.0
14153.0
-956.932
6259.1
42498.8
167318.0
-75214.1
21647.5
128793.0
43676.1
-25106.4
-28178.3
-7814.3
-102241.0
-4456.37
-12317.0
14232.9
25528.2
55777.9
-145348.0
241917.0
101273.0
-29341.0
-15563.3
91703.5
53039.1
42734.7
97503.3
88145.6
220596.0
69841.5
37208.6
-302811.0
-36472.6
-103960.0
-36569.4
12304.0
-7531.83
63649.1
51091.5
15286.7
-4765.24
-154669.0
125966.0
-14898.1
-13812.7
-40564.5
-71765.8
100394.0
72581.3
10202.1
-185698.0
18128.2
-49775.4
32084.0
-29499.2
57727.0
41909.6
-4698.5
-35883.9
-275583.0
64628.7
108285.0
25247.3
-12062.6
-24184.2
-9608.52
28113.2
4376.78
11932.4
-5719.98
-57049.4
127970.0
-338789.0
25093.6
-25828.6
-33240.8
-22644.1
-26076.6
-258879.0
133895.0
-2361.57
-208864.0
-54721.9
125410.0
-89963.1
-83665.6
93837.8
-53207.7
13461.3
-4480.87
-24902.0
42857.0
-12539.3
220030.0
-90067.9
-150068.0
-41017.0
-12955.3
-66938.3
-48185.9
-49278.4
178997.0
79094.2
82419.6
10905.9
122840.0
-16257.9
-135515.0
-79238.7
37422.4
51377.7
57475.5
-8748.18
38038.5
48596.1
122973.0
64288.6
13667.9
394459.0
234689.0
-13899.0
192745.0
35454.3
120098.0
69037.2
114065.0
-21789.8
202974.0
-163486.0
-193649.0
13266.4
59136.7
-98657.3
81258.4
1037.52
-195688.0
-13690.3
-157438.0
133846.0
-27851.6
-120880.0
50301.5
-30699.5
-10535.3
53291.0
67716.9
-89942.5
74890.5
84405.6
-54485.2
204409.0
-150151.0
286460.0
6393.96
10124.6
34988.0
-7335.14
9863.2
-53637.5
-12639.8
-231719.0
12160.4
-140287.0
-43219.5
-258362.0
99759.7
332192.0
-74794.3
-215259.0
59334.2
102096.0
-13306.8
17469.6
-229314.0
2247.24
-14861.1
127387.0
-96305.1
-56363.1
-45618.4
-17610.0
305471.0
4966.75
99792.8
-47939.0
22015.3
-345977.0
121165.0
41034.9
-44568.9
12465.2
140087.0
52153.6
1660.33
92877.2
52177.7
11940.7
53076.3
59949.0
-81142.6
185849.0
62877.7
-56249.6
-74740.3
-172701.0
7669.54
-15342.0
30630.8
-26222.8
-36063.2
-31225.2
132343.0
78018.0
-29018.6
-6191.92
49607.9
-128073.0
95407.0
44137.5
343197.0
124577.0
8617.86
48366.6
67201.2
24798.6
-11608.7
129063.0
11509.4
-2341.68
-307407.0
-14432.8
-138533.0
-147149.0
-21830.9
22054.5
252789.0
-3226.3
-54648.4
31305.9
99219.1
31672.4
-233080.0
-257490.0
-187434.0
103894.0
395474.0
250905.0
300856.0
-37107.5
-61845.3
8481.45
8536.11
-18471.4
53775.0
37066.3
108489.0
130159.0
-61309.7
-200821.0
114258.0
-25550.2
-51149.3
-432262.0
242046.0
11942.4
-6654.62
154536.0
-94483.2
25392.6
15534.8
187131.0
-246471.0
81100.4
90.827
-45316.4
-121631.0
-117763.0
76266.4
88734.0
23568.2
83913.0
-79936.2
2926.77
-70455.1
2115.85
-30177.5
124506.0
-68132.0
-606158.0
26004.2
-43616.0
7314.75
510431.0
-17739.3
437.567
74739.9
63611.9
49088.4
-118680.0
-5950.16
114138.0
-21130.4
124932.0
-63864.6
-143782.0
-103237.0
-64729.1
-88727.8
-306317.0
347633.0
-49712.1
191451.0
-32894.7
-32900.6
9484.25
-6609.14
-5546.97
-128559.0
6395.15
-19835.4
37919.4
-24917.6
-38599.6
-19667.6
-34058.4
-52751.3
-47733.7
-101524.0
1846.68
-298538.0
-44511.9
-54098.7
-14542.0
-6648.61
-58708.9
94109.0
-54376.2
173101.0
426486.0
178915.0
7036.54
30021.5
-31073.5
12891.6
89302.8
373639.0
168791.0
-51077.3
90155.4
-89634.1
93438.4
-216243.0
175745.0
-61856.3
-15625.6
-337692.0
3720.59
-107067.0
116636.0
2456.74
49155.4
-26319.1
-117682.0
-164999.0
113985.0
31433.2
23097.0
-145490.0
-1318.95
62431.6
13446.8
-110641.0
-205133.0
222791.0
18334.6
94945.8
15387.9
174614.0
-8816.76
133796.0
-31154.3
-57206.7
37144.6
126596.0
31497.5
19468.5
40478.3
-19024.9
-6752.92
131288.0
18845.1
-132184.0
-7180.51
-20877.7
-224432.0
43705.1
131976.0
59019.8
-11075.8
-150657.0
98149.4
138419.0
118530.0
40916.4
-418287.0
-4276.15
-55521.2
-43251.3
62966.1
61185.8
258536.0
55851.3
130630.0
-33078.5
-53699.8
23753.6
-176563.0
83068.8
771784.0
631111.0
-154752.0
151636.0
-151823.0
-189984.0
-540.644
-84533.1
-21804.2
-236807.0
57382.8
91822.5
-103774.0
26638.2
-25871.8
704280.0
23708.5
-18560.5
23730.7
140152.0
-220399.0
186464.0
14746.2
-102188.0
240156.0
21972.2
-86898.6
-9202.74
-270453.0
-31179.6
11049.5
33373.5
186901.0
80341.8
19315.2
19668.5
-228729.0
172810.0
224198.0
8000.26
16614.7
15011.5
49692.8
-18437.8
78685.0
-55265.9
25679.8
-49854.2
-122191.0
-13168.7
-50905.9
70807.5
-55743.0
-98499.9
43604.7
2591.37
-330880.0
30334.3
-86396.2
52488.6
-5639.74
-100728.0
59627.8
-44136.1
284917.0
-20129.9
88682.2
-6490.53
1590.13
-200481.0
31383.4
-71901.0
141554.0
49946.0
493552.0
32862.0
164827.0
-64959.4
-64344.6
-100520.0
310972.0
-14249.0
-298592.0
53234.1
175901.0
-20524.8
111900.0
4094.11
-320649.0
113909.0
-31842.1
-24161.9
75329.2
401321.0
107058.0
13082.4
166667.0
136653.0
-161252.0
31432.0
-68332.8
-50613.3
-32435.9
-21639.5
5298.24
127053.0
70224.5
-19254.5
-13294.8
-37127.6
-109823.0
-161321.0
205167.0
132686.0
-86779.3
42238.6
69980.2
67196.9
52296.7
-7428.73
582236.0
34683.3
261387.0
-122356.0
-24068.8
1261.67
-14210.1
-7465.08
154756.0
-7429.91
104733.0
906.791
17701.9
-64316.7
21256.6
48631.1
-169963.0
134446.0
11136.6
102808.0
120903.0
-47427.9
-93668.7
55091.5
-90942.0
-43216.6
-123891.0
125052.0
-103646.0
136068.0
-18613.2
30125.3
122.532
1763.92
-222469.0
2008.6
-11169.9
170480.0
-88393.0
121708.0
-163330.0
-212949.0
-49437.0
39520.7
131747.0
15660.5
-113023.0
-67526.7
-24767.5
163472.0
-17879.9
15355.6
22637.6
-27841.3
-98142.7
-16493.1
118822.0
-28722.8
1768.69
-82860.4
2575.12
-96269.2
205025.0
-210598.0
120588.0
-163048.0
-31545.3
53030.8
73727.5
-60654.5
-60908.1
-58715.9
38680.8
26702.0
61863.0
83922.0
13887.5
101069.0
26028.1
594860.0
12358.3
124601.0
-21282.6
65314.6
6531.77
50402.7
253618.0
-26555.2
107404.0
16607.3
-81790.4
32443.5
-43217.7
-66479.6
15555.8
123766.0
-89432.2
-68010.9
26871.3
125019.0
18887.2
94078.2
-59870.8
69205.6
47950.2
81851.5
28368.1
-8771.29
-20718.2
-14617.2
209117.0
-442198.0
-155006.0
134257.0
-1663.61
60112.9
-57696.5
2261.03
-99781.1
111133.0
128452.0
243834.0
-23899.6
1775.37
-39060.4
-252155.0
-2625.72
8952.05
154276.0
-71871.1
27029.5
-7916.88
23823.5
287041.0
49465.5
64862.9
14593.8
-149281.0
214545.0
-64347.0
104334.0
127881.0
-56845.5
11760.6
123106.0
-33598.5
85115.6
-29677.0
-125680.0
78285.8
233013.0
3998.01
261265.0
61605.5
107328.0
169490.0
-10434.6
-141795.0
70697.0
-77334.7
-94350.8
27038.8
70106.2
337745.0
-47975.1
18762.8
1580.74
92771.1
-23109.1
53532.2
235036.0
-110876.0
49870.0
-857994.0
-85092.2
92943.8
-12242.2
52002.6
6933.03
307469.0
-70507.6
29810.1
144069.0
8589.79
68014.2
845.89
-123124.0
99346.0
88342.6
-124682.0
-373231.0
-86064.6
-299777.0
-55409.1
-214351.0
49612.9
-111934.0
-51568.2
-1911.31
4300.85
22762.0
-73838.3
147539.0
-123670.0
-159377.0
-6969.29
78197.3
-181420.0
70145.3
26665.6
184114.0
128296.0
19538.4
-98133.6
15705.4
40311.9
-47196.9
4567.69
93380.9
153731.0
44029.9
96502.0
-144552.0
30542.2
-46356.4
109696.0
-25900.0
107598.0
480728.0
5210.39
74132.3
-129084.0
56696.3
30619.4
-158021.0
110570.0
14504.8
-38128.2
117822.0
441658.0
157223.0
-19063.3
176327.0
69702.7
-994.693
-6606.16
-43010.6
-4608.48
48244.0
53766.1
1071.2
18587.0
-43746.7
48454.7
1544.37
35198.5
46581.4
-46028.3
-35521.1
-68294.9
-79142.8
100904.0
14932.1
-41795.0
-58110.2
-16800.8
21440.9
19686.4
-27528.0
-138938.0
19711.0
90910.5
16230.1
-7772.25
60129.9
11078.0
5436.38
-45300.4
-43053.7
143415.0
-41699.0
13516.4
-41343.0
195268.0
149472.0
-44303.7
75111.5
-46270.1
196659.0
-56953.2
-87961.9
32620.4
2406.64
4151.82
-45839.0
62730.8
-7506.07
28760.4
-267304.0
29175.6
83834.4
7270.61
-15813.6
-3112.09
146147.0
61981.5
-4448.63
-242722.0
-265063.0
-35318.3
16908.0
398621.0
59909.0
381321.0
50303.1
41841.7
-24724.5
-197492.0
-172933.0
-30891.6
125391.0
9771.14
44655.8
12534.0
45931.7
365306.0
-17722.1
-48230.7
-57700.8
368577.0
-27913.8
75546.6
6243.86
-71148.5
4407.73
124867.0
168992.0
132188.0
-27273.2
260561.0
-15367.2
-4410.79
206834.0
-53143.2
84413.1
65611.3
-64242.4
49239.5
-9636.47
-67981.0
-112810.0
-28954.2
13619.8
74952.4
-118686.0
66790.0
39765.3
-3828.27
38549.7
-64239.7
8626.49
-32986.8
-460835.0
-107589.0
14054.6
424222.0
-14551.2
396019.0
3696.85
132780.0
-95581.1
38011.5
89390.0
63669.6
-34951.7
58282.8
-86467.5
-19199.3
-14217.1
-36055.9
-3028.57
-27863.7
-132834.0
-67507.3
90558.6
92760.5
96394.8
114210.0
2570.51
-96987.3
-48141.5
-301380.0
65471.9
3098.46
-54053.3
552.453
37955.5
112350.0
-20489.6
32917.3
-315552.0
-133362.0
-24664.9
-76590.1
203630.0
-128900.0
-67399.2
132693.0
-413295.0
-37215.9
-140904.0
-32433.2
57929.8
191675.0
94808.6
17065.7
111693.0
65322.1
122891.0
15774.9
29811.7
33109.7
31001.6
44780.5
-133413.0
-32151.5
-161849.0
-174720.0
77384.4
85599.9
239280.0
9376.35
-64453.8
52488.8
-137477.0
-101896.0
24602.0
-332159.0
-718.627
-11848.7
21986.3
139047.0
-25541.0
-63525.8
96364.5
4269.77
90479.2
59924.0
16232.0
10903.2
-8839.88
-35656.2
-115976.0
-25438.6
-57848.8
-229336.0
487820.0
33239.1
21096.1
56257.7
73017.9
-36076.2
-15695.1
76674.8
-57714.5
10269.6
-44633.1
-7452.45
111508.0
153810.0
6948.47
119350.0
75083.9
40213.8
-10710.1
31751.9
46768.1
26653.3
-60325.4
357382.0
-29312.0
-12143.7
-99524.8
144113.0
33700.0
75314.1
-37851.0
-133213.0
-49599.1
240075.0
7644.6
-424.335
1648.5
-1752.05
-28421.5
206156.0
100326.0
-143141.0
-59999.8
21038.3
18101.3
64999.4
76570.8
173064.0
-22995.6
185862.0
9746.24
-1579.15
-89739.3
-112665.0
-37729.3
-18414.2
-147102.0
-105395.0
-131089.0
31891.7
-174195.0
41674.5
239885.0
-87989.3
-109875.0
-106538.0
57491.3
21590.7
-7569.53
195457.0
17170.3
-32992.3
-63958.2
103237.0
4842.83
-343150.0
16565.1
-29117.6
16090.2
-15108.2
-1717.72
6456.11
29913.5
-69264.4
221827.0
63593.7
-18963.6
-118759.0
13870.9
8461.3
22810.2
-38891.7
596.627
-71409.1
250784.0
-14740.1
-119495.0
80145.6
-61860.0
50350.4
-135606.0
86104.0
25434.2
-11259.7
-43329.7
93056.9
-125771.0
17560.5
-33419.4
34191.4
3499.59
48703.6
124376.0
36471.3
191434.0
169311.0
32408.5
-97236.3
125883.0
-310882.0
111418.0
35674.2
-72448.7
-177947.0
103582.0
58171.6
20178.3
-3099.82
37093.9
-2757.96
-50776.3
142639.0
53936.1
-38739.5
-214330.0
44342.9
-82007.0
152363.0
-43206.3
344603.0
293679.0
188789.0
11547.1
16722.6
31312.7
-1279.23
24411.5
29685.2
-42632.2
-24171.4
-20740.9
53846.2
4775.78
96725.1
-819155.0
-134414.0
-158893.0
-95454.3
17092.7
6094.72
-52126.1
77631.6
36281.3
99874.2
49732.6
-27475.8
-49146.4
44485.7
195636.0
-28714.8
61422.3
456664.0
3549.96
219190.0
81688.1
2174.11
125991.0
-115937.0
52878.7
-143968.0
-8821.2
269675.0
-32355.4
-26877.0
-119886.0
161452.0
131992.0
3976.09
288406.0
39455.1
-2317.08
42961.5
57327.5
190775.0
-165152.0
11198.6
-130995.0
26782.9
-189244.0
65851.7
25473.6
-8521.07
-17858.2
152382.0
-166922.0
-20836.5
138921.0
25411.2
230738.0
50986.6
251713.0
-51582.6
23193.9
2658.13
-24043.2
10110.5
40606.7
9097.6
17150.6
-75828.4
42742.1
61779.9
-107768.0
5463.38
-15182.6
218657.0
-16022.7
-87367.2
-9924.33
75922.0
-170709.0
30190.6
4944.19
-143422.0
-31319.9
28419.7
34214.3
-56210.1
138515.0
72551.3
-12091.6
20691.5
-133095.0
3744.85
-137689.0
11091.6
307921.0
-158339.0
94399.4
-65066.4
20353.0
-254743.0
93780.2
-30601.3
-139047.0
-1556.19
-2218.93
-43620.3
-80902.5
55891.6
-53965.7
76061.0
-3836.67
216957.0
1877.12
-80428.1
36814.3
-501556.0
-11704.9
-32140.0
-102035.0
-109411.0
191908.0
-26256.7
-8667.5
-83445.5
-19490.7
18610.3
-13525.6
-278643.0
12659.6
-11186.6
40111.6
159765.0
45057.1
367381.0
-81747.6
113755.0
19543.3
-17605.7
59553.4
178127.0
1174.06
-18984.6
-21874.8
-60997.5
-345881.0
-30064.1
-16500.4
56952.1
110188.0
812.571
38777.4
-265249.0
-97601.9
-42521.7
27217.6
-70732.4
69937.3
-117462.0
-30146.2
-7645.97
116516.0
-83981.4
-8964.05
37725.4
17952.4
20398.9
-44972.9
267346.0
-37923.5
89476.1
71791.9
-9424.05
-113728.0
5978.32
-20033.1
70016.7
-69467.8
-87588.7
399711.0
42195.2
-106953.0
138025.0
172819.0
81827.0
-10838.1
-228797.0
-5421.47
-65262.5
-111892.0
237585.0
1769.37
-41474.1
-37265.9
165143.0
20686.0
16246.5
-15520.6
-7548.12
-36219.5
26496.9
170091.0
63449.6
14081.6
-35687.0
9879.98
-82900.2
-18616.8
39290.7
-114198.0
-76202.4
-70902.3
228781.0
141822.0
17965.3
-115314.0
106868.0
33114.7
62312.3
118398.0
-26485.6
-325534.0
-6571.36
-100790.0
-102590.0
8629.72
-4421.23
170671.0
90984.9
93229.6
9900.19
73036.1
-44567.0
-57089.5
-7951.81
-396791.0
262718.0
-475856.0
34175.1
-48335.1
72029.6
281284.0
-707145.0
88004.5
-5302.0
-45223.8
-63095.6
-195831.0
-12608.5
-47935.2
-20111.7
-352545.0
144402.0
-236294.0
1.2346
-104836.0
-104259.0
252427.0
6518.65
246308.0
25109.8
68292.2
35339.0
-29399.7
4242.83
-59268.1
-86035.7
44492.0
106441.0
62847.6
-134086.0
-27536.1
-27735.2
-49142.0
-30787.5
-66876.9
-92436.3
-13210.6
-89503.4
-2828.36
54853.4
-16629.7
63020.6
233642.0
52080.6
-17797.5
-108134.0
-265572.0
183864.0
396009.0
14602.4
-30475.5
-77434.8
62524.9
-32011.8
16080.6
101850.0
-189628.0
52847.6
-76981.4
49509.5
31030.6
133476.0
115539.0
-18636.5
36840.9
-125122.0
-19527.6
-60447.7
65625.6
-18077.6
-16621.7
3830.58
47384.0
56176.9
28211.6
26992.0
41250.8
84214.3
87698.3
73329.5
7897.42
58949.2
72524.7
334609.0
-97959.7
3435.31
184360.0
-9326.88
43793.6
39779.0
-58904.7
-239037.0
-672561.0
25709.2
25877.6
-6234.74
-151254.0
100306.0
9263.5
7568.22
433603.0
-12640.5
-21640.0
248890.0
38324.8
19882.0
35017.0
-28458.8
-10945.1
57005.8
221752.0
-134908.0
44059.5
193948.0
-32599.1
180667.0
-55560.1
-7927.23
-4683.12
70290.0
-127727.0
-11907.5
-756.763
54600.2
-75204.8
-424987.0
112012.0
-107132.0
5197.33
-28744.5
-26631.1
-14222.7
9000.85
90217.7
-207696.0
121850.0
-374765.0
26118.1
79689.2
110634.0
60650.4
115167.0
16726.0
547160.0
144110.0
-26977.2
-81032.7
54914.8
-92642.9
40666.3
-77331.8
-31841.4
-51782.5
-31000.1
-394545.0
141747.0
19349.0
50123.7
85864.7
-3316.98
37389.0
-46515.6
117296.0
-87094.0
-15918.4
-42370.3
109458.0
-629.181
-147376.0
60167.3
178987.0
33777.0
91415.0
-55095.1
52103.9
32486.1
-55783.5
-41863.0
15807.2
123629.0
18291.5
-47653.1
-26086.7
-91425.3
33281.0
24311.9
-550594.0
-117942.0
-53873.6
-23282.4
215029.0
12503.1
-1754.75
56486.7
174300.0
-21369.2
74441.1
15868.2
7719.04
16501.6
587.575
316313.0
-39237.0
-121679.0
-103432.0
-27917.3
19614.9
-102939.0
157036.0
-19948.3
21807.2
14077.1
193970.0
-315046.0
77390.6
-11977.4
-271547.0
9793.25
-306220.0
5377.16
-58143.5
37681.3
490569.0
76828.6
793.254
-217181.0
133028.0
10058.7
57529.7
33361.6
-11913.8
99199.6
6517.88
36231.3
-235837.0
16080.6
16170.7
107766.0
-260179.0
-56389.4
55250.7
-11601.4
-99772.9
-38788.3
64738.7
157437.0
40498.4
-104168.0
-376468.0
47251.4
17858.2
-19596.9
-30093.6
30886.9
-44014.6
35478.9
-109216.0
1284.56
965.471
16387.6
-20893.7
93755.5
72021.5
69129.4
-25210.8
-62501.0
-105979.0
30597.6
-35406.4
-1739.55
56443.8
-105746.0
25481.5
-138894.0
-54283.8
-33596.4
35724.4
9842.89
-204240.0
64605.1
174125.0
-7471.45
15059.3
94838.6
2829.16
-220591.0
-103344.0
30690.4
-371068.0
-32010.1
31594.3
-12328.1
-31034.6
-21850.1
6093.8
32078.1
17030.6
13671.2
15841.3
-60267.8
72256.0
37004.9
132616.0
17788.8
181357.0
-123959.0
153091.0
-65732.3
-158502.0
-123885.0
-36772.3
71222.8
62172.6
91741.2
-20106.4
-78390.2
-2040.04
-110034.0
-286241.0
21078.6
25064.2
-22659.6
85610.8
-13121.3
111579.0
23311.7
-53360.8
174508.0
47974.8
-77364.2
259357.0
107828.0
-41539.6
4053.66
-112288.0
-238244.0
-70911.3
-76973.2
166322.0
55926.8
-5941.25
-78842.0
-59147.1
-48029.0
-138789.0
182067.0
4105.63
-316284.0
131408.0
103334.0
-140165.0
-5842.22
-78407.2
355956.0
-117549.0
42309.4
80995.3
-10039.2
62449.2
-51392.5
6528.82
-411614.0
137275.0
3141.14
12836.3
-365.718
87621.4
-26756.4
-4998.89
23348.6
-19346.0
-59529.3
-47267.3
269675.0
-1736.59
72311.8
26540.1
-61357.5
13777.6
44034.2
-2807.05
-28970.1
-11635.5
-4576.63
-124676.0
-216813.0
108105.0
12677.0
40755.2
-41023.1
39054.4
-18235.2
-53027.2
4924.33
-26620.3
-134938.0
-2590.96
-49968.0
-156838.0
108774.0
-17518.9
90386.1
-89477.2
-6973.3
54738.8
6192.08
-57575.3
190602.0
-194169.0
14016.0
-41439.3
111882.0
-14082.3
128396.0
12234.3
-204259.0
116056.0
-153789.0
-10442.8
26568.8
30345.4
-7035.62
-11172.6
182604.0
-19254.5
-71119.5
54861.5
5959.82
-91809.0
-219948.0
14573.1
29136.6
113295.0
29755.8
2102.68
-38570.3
-305876.0
-69575.9
-90879.1
-91484.4
-12315.2
14692.7
4388.28
76814.9
108290.0
-48207.1
27918.6
14480.2
-12368.7
-158088.0
36817.1
-66011.2
-2974.53
-41928.9
-110777.0
272485.0
-96427.6
-106019.0
74395.1
121521.0
-80133.8
4767.47
447465.0
6760.33
124534.0
-125124.0
4225.6
-55239.2
19339.6
5247.06
119307.0
-15484.2
100090.0
72985.8
-79208.9
119981.0
-68357.8
-62239.9
45373.1
375551.0
-4285.59
106393.0
-86836.8
-281526.0
156100.0
-73072.2
121000.0
26865.7
17651.5
62341.8
317223.0
-213851.0
-101023.0
7721.62
25127.7
203147.0
60709.0
-34455.1
141333.0
116523.0
-319054.0
53791.2
134654.0
-26520.7
65647.5
18271.1
-88582.4
-99236.8
-40114.7
10064.1
44236.2
-40057.9
99240.3
63147.3
-254903.0
-7442.36
6056.66
1023.75
-107905.0
-62336.1
-36722.8
8328.74
132707.0
-17407.0
-927505.0
-93632.1
-61662.4
8264.89
114215.0
23011.3
193944.0
89174.7
-63441.7
90266.5
-88746.1
-54883.1
-107674.0
-121834.0
-98043.7
-67044.1
-116272.0
-79156.4
-30746.1
40224.2
24196.5
-45381.3
-55399.5
-391142.0
-113298.0
-49171.5
62305.7
26370.5
-221819.0
-138792.0
-10558.7
-75838.1
-101327.0
-20298.8
-17978.4
28412.7
-75280.7
-341066.0
-40640.6
-74614.0
-16635.4
-56579.3
-8566.84
10077.3
29784.5
-73529.6
91713.0
50328.1
-3815.52
-171083.0
-19594.1
41917.2
-21282.0
-215177.0
-334357.0
3448.07
109092.0
37923.7
327706.0
25057.6
24380.3
-61747.7
42589.9
65976.1
-241469.0
-6438.13
123015.0
219287.0
11899.1
-377414.0
-31399.3
-86036.3
-46495.7
-90365.7
46553.6
-35402.4
222604.0
-19731.1
105143.0
-142170.0
27509.7
-79312.1
-126592.0
40741.0
17403.0
36359.6
-11495.3
-50513.7
-43891.8
9451.87
80701.9
16472.3
-92388.8
52893.8
-73244.4
-189540.0
246810.0
413.296
38618.1
44547.9
570.229
65869.4
11340.2
-121039.0
174169.0
61747.0
16711.3
-18654.4
221099.0
-87870.6
346480.0
119537.0
-67861.8
-22443.7
-32010.9
-29181.3
-66435.9
-52946.1
7496.15
-34702.6
114203.0
-216038.0
300923.0
6225.08
-4208.1
-21083.5
-56975.2
2387.49
-27665.5
-20560.5
7214.16
86954.2
-27851.2
600026.0
-28421.5
-26750.0
6173.29
18304.0
-48698.6
-3668.57
128131.0
6745.71
-148726.0
-1225.82
60040.7
38812.5
17973.7
-38561.7
-100224.0
161519.0
-58370.7
90006.1
-49967.9
212.393
39425.3
104793.0
-24175.7
603978.0
-36039.8
-258651.0
-69865.3
-8685.9
-10477.3
-137173.0
-37455.7
49306.9
-21881.8
150433.0
526.859
34755.5
-51288.5
99906.8
134438.0
51067.0
131520.0
50324.0
-7297.31
-8812.82
-32051.6
137466.0
-36955.7
-92723.6
-6196.3
-66646.7
-64196.1
-169490.0
128302.0
4777.34
-45009.9
22997.2
-171.584
83232.4
78.0023
-383955.0
167551.0
-210989.0
-18550.4
60516.5
-82215.9
-247309.0
458862.0
95948.9
33944.1
-64937.3
65228.0
-113908.0
-117944.0
15730.8
495599.0
-51320.4
-193613.0
165303.0
-45586.7
230090.0
-18086.7
-53100.2
19569.8
-211.338
13019.6
87587.3
-20745.1
-558618.0
-26624.3
-186707.0
10.6737
76508.8
-72405.9
-104484.0
51958.1
25838.4
9581.73
-29649.4
27231.5
-12478.3
-37185.4
43973.0
-12578.9
641670.0
167842.0
-414568.0
20346.7
-90240.0
-91217.2
-13430.7
-80093.2
299949.0
-54055.4
341673.0
-132764.0
-102250.0
3964.55
21825.8
5220.62
-18539.6
2572.64
4545.88
60979.7
20259.9
-94335.4
52665.8
9322.64
5042.17
116866.0
4892.48
-45231.3
-9521.62
-16468.0
151734.0
-47374.2
1299.14
-73514.2
-11908.3
-113555.0
221816.0
79530.3
55422.0
-20490.0
456356.0
-92160.5
-247858.0
-87791.8
-7645.65
-31493.1
24963.1
76846.4
-229691.0
-36900.0
-24458.1
125933.0
-63758.7
-25166.3
67250.9
92960.3
-66700.7
-46877.2
62347.1
151480.0
66933.3
-31722.2
68453.8
-19310.7
65528.4
2857.59
133955.0
50035.0
605121.0
-119704.0
-110894.0
54812.3
177175.0
55946.2
-11665.7
79155.7
-12188.5
17996.7
50474.5
-21120.0
52737.7
486038.0
19455.5
81580.4
-239340.0
25519.3
-18049.6
-33699.8
38609.5
17594.7
60379.3
69981.7
-42464.4
-270858.0
195556.0
88541.5
-3295.82
-12378.5
21952.3
38868.3
-65665.0
1591.18
-24363.6
103549.0
146831.0
154447.0
-18724.5
-24252.4
-94684.5
-65933.1
36334.1
14056.6
138031.0
2352.07
33062.4
-32538.9
78334.7
48490.1
-25039.4
-44936.5
10161.1
84819.6
-99726.8
-7591.37
-174416.0
106451.0
-134044.0
46034.1
-3711.74
-5498.94
19431.6
-34032.2
-16617.0
-28436.0
-20061.4
66290.3
48006.8
49655.0
-56960.9
-72252.9
40170.5
-1012.61
34218.0
-64755.3
-28302.1
-36613.4
-42021.5
4115.51
22277.1
-19255.9
-47197.9
-13352.9
24667.8
-15572.7
-111659.0
-6147.7
89414.5
67008.6
14775.1
-112956.0
12383.2
13748.6
-1448.57
-84352.1
30047.4
-19138.9
-90332.9
-63466.1
-26541.5
17503.6
97961.7
-90499.8
123259.0
52471.8
105856.0
-161785.0
44045.4
-85034.6
-207732.0
196235.0
72446.6
149565.0
-33435.3
-70968.2
84720.8
-53054.2
-25823.0
61804.7
-27113.0
-42337.6
-53451.3
-4591.23
-335257.0
-141677.0
-81865.7
-7297.07
38249.6
-4325.13
-145660.0
-98598.1
130762.0
-36093.5
-43924.8
-94811.0
-233507.0
-37214.3
-49131.3
220962.0
121246.0
9823.45
169828.0
10984.9
-125920.0
-33893.3
7906.91
-414987.0
-45407.8
7005.37
39197.5
12255.3
6125.78
-80077.4
27079.9
18126.0
33126.9
45359.3
60613.3
-4347.9
-88852.1
46860.1
-7790.14
96792.8
29037.5
204523.0
-60369.7
18686.6
24820.3
-126268.0
-102008.0
-40226.7
42642.7
424163.0
-141853.0
-91615.6
-25990.8
-104175.0
-18235.8
-342177.0
94560.7
-710597.0
-66527.5
-6754.21
337821.0
-64323.6
-62843.5
76628.8
30698.3
5575.98
13218.7
-3099.85
111313.0
72752.3
-16757.0
54576.6
-84731.4
141064.0
-39957.9
-172892.0
120809.0
-91948.7
4518.53
-94993.2
49772.9
48196.8
109258.0
33984.9
-58874.1
-5143.69
-35264.2
53135.2
49827.5
-77611.4
76438.1
165926.0
36926.5
261374.0
-23411.6
-162276.0
269765.0
-101536.0
75131.6
560404.0
-12705.3
-254707.0
9225.89
-242502.0
19572.1
-205543.0
-17724.0
24661.2
152072.0
-38972.8
-35585.2
-159210.0
105754.0
-199563.0
31164.5
-37194.6
-47308.5
-29766.4
-54714.5
-38668.3
141581.0
392.434
79679.0
-47636.3
-165001.0
-78333.8
30657.6
-86644.8
20121.5
22070.9
-224969.0
-46030.5
-117689.0
-168574.0
-177175.0
-181922.0
15355.4
2556.14
-821690.0
-28941.6
22817.6
493613.0
155561.0
46332.7
82291.8
58558.1
244626.0
230845.0
51587.0
1358.53
-61051.7
114591.0
36555.7
55152.3
72489.9
-50061.7
-106447.0
-8288.6
79936.7
-56095.5
140273.0
-3471.43
-16149.8
70065.8
-38171.7
-2285.37
86414.5
19722.9
154561.0
597802.0
9465.01
-57250.5
-4983.48
173578.0
34378.0
23899.9
104878.0
23316.8
23652.9
-55790.2
93850.2
-127212.0
-26908.8
-2999.89
-8005.43
54278.0
-154085.0
-70297.2
-12597.4
-144215.0
-537439.0
202162.0
-17277.5
613750.0
111363.0
24083.6
-13449.8
180689.0
110730.0
41705.1
-16178.5
-94866.8
-1745.7
87089.0
-73934.6
-96701.6
218630.0
35624.7
74993.2
-220002.0
-3395.47
15509.1
-17366.5
27789.7
-14500.0
19981.9
132308.0
-8923.43
86290.8
30587.2
-32771.2
-30145.9
-63807.7
-50412.3
-54021.3
-164114.0
-15217.9
3959.18
-264640.0
-44214.4
-99942.5
-50992.3
-5232.43
11460.2
26370.2
-15242.5
49123.4
-30652.2
115193.0
24608.3
-124829.0
-153433.0
70597.4
60338.3
98731.7
30324.9
37897.2
-78826.1
-2331.92
-99243.0
-18223.0
58378.6
636396.0
18491.2
5480.12
125459.0
67142.4
-73950.9
-42761.6
60116.1
217846.0
135233.0
10482.3
-112238.0
97732.1
-83074.0
155821.0
-101436.0
-7649.66
60717.1
71519.9
18991.1
16330.0
316354.0
-10724.5
16022.9
65974.1
-17799.0
-33470.4
-26763.6
-35497.2
118741.0
7746.83
-86867.8
62388.1
52962.8
-55551.1
-146848.0
-18110.4
-107833.0
-26219.8
177499.0
290670.0
9898.29
-82989.9
56457.6
-61468.4
-50699.6
27895.9
63021.5
-25829.8
-48400.3
133950.0
62496.8
84831.7
40330.7
-22722.2
-68328.2
-410110.0
-1636.84
140063.0
239969.0
-464141.0
57127.7
-159.053
115555.0
38961.8
-6772.25
-68962.2
-34167.9
-7767.0
50907.8
-368032.0
-92006.6
-82932.3
42325.8
61006.2
34340.5
16751.6
-76309.0
410088.0
5993.8
121454.0
-1720.61
93458.4
59100.9
20349.0
-109256.0
31505.3
1466.86
16663.2
73815.4
-108374.0
12815.9
-145184.0
-17471.9
-42635.9
-20989.1
-65.72
-57570.6
4148.42
76079.6
-128834.0
-76386.4
-134004.0
113575.0
-161455.0
4764.53
-1055190.0
247614.0
181868.0
39140.4
-11324.9
-344612.0
11347.5
30571.8
-171689.0
39974.7
65141.2
28158.8
-14059.5
35320.7
-2338.2
91545.4
68828.5
-3401.79
30749.2
-42572.8
-24725.9
-20250.7
-211214.0
95372.1
-22210.3
-201730.0
-65840.7
127390.0
10522.2
15115.0
-18923.8
45808.7
45825.0
6717.54
-8635.35
-28492.3
49458.0
-69710.7
175835.0
-103224.0
-61708.4
247616.0
8356.49
22431.4
-11653.2
23317.3
20359.9
-185077.0
67794.4
-107595.0
135.675
-47547.8
491553.0
12958.9
-181658.0
-38374.4
-90767.8
-26666.7
-51024.2
-146172.0
-23423.0
-573340.0
-97841.1
-28789.1
-250220.0
-20801.7
33316.4
108367.0
-149827.0
-19128.7
122135.0
14608.0
12897.6
59742.3
14659.2
36181.8
8251.95
-37717.5
27162.5
6333.03
-13385.9
-205062.0
-156938.0
-173189.0
-32091.0
-105688.0
303151.0
407803.0
68531.1
114291.0
-64802.1
-108960.0
-2452.84
2756.3
-152985.0
-17736.8
-270190.0
-1767.36
-30914.9
-7868.37
-102527.0
-73811.8
91282.7
144168.0
-9563.38
-14807.2
-91463.8
94155.9
490477.0
-94210.6
101377.0
-84122.0
-96113.3
-3309.66
-416039.0
-308093.0
-46948.0
-24324.3
145894.0
-34583.4
29180.7
189045.0
-93801.7
283297.0
4105.21
-14531.6
35791.9
305232.0
-37510.6
92012.8
111221.0
43340.5
-15209.2
-37911.9
-22392.7
-12236.5
-3782.34
73312.5
-54593.4
-72540.9
-185347.0
157891.0
-2867.99
-74110.4
-88816.3
121543.0
-26212.3
9408.76
26604.5
497840.0
108035.0
61186.7
163873.0
-62599.3
23745.6
112099.0
14308.5
-22372.4
86032.5
-3358.52
42748.6
-317261.0
8963.75
63153.1
-37320.6
39510.5
-255194.0
4709.25
-27372.5
108334.0
72888.6
-17721.5
-83529.8
17606.7
26741.4
-128852.0
-164746.0
-98239.3
-59445.6
-193037.0
16296.2
632050.0
-230.738
-303288.0
35029.4
-101365.0
-18329.0
-134673.0
145569.0
20106.2
-9626.87
-59239.2
28390.0
-45099.7
7836.75
29561.7
42434.1
-169596.0
140117.0
5179.13
-54456.9
26363.3
5354.12
86530.0
-31504.2
-13770.4
-53526.5
-151270.0
-29202.3
-117550.0
24225.3
-11374.8
346012.0
-19659.8
60854.8
-232568.0
58371.3
48114.4
-86963.5
-3569.42
-6178.27
9893.94
-10238.2
-10246.3
-112903.0
1271.7
-14287.7
17945.2
6744.34
66992.6
-66775.3
117145.0
-348513.0
22931.9
-38976.4
-108327.0
57778.7
59412.8
-48194.6
77516.6
-14918.3
5919.84
50334.1
26366.6
33351.3
98162.3
187256.0
99327.9
83074.0
32023.2
22951.3
-26261.4
94816.5
-55268.5
29688.2
15047.4
246049.0
-4970.78
-50732.0
221712.0
-38299.3
146518.0
23396.2
-21962.8
-38832.8
-12999.2
63729.8
-11238.1
28555.3
22051.3
-104955.0
41801.7
-152487.0
-49343.6
61962.7
-31756.1
-259939.0
5593.49
91011.1
42655.2
49486.5
286751.0
-84788.8
-19066.9
88720.2
-15058.9
60423.7
147218.0
-134281.0
24912.6
160385.0
-285545.0
-38414.1
-63261.5
216842.0
-2273.99
-6494.86
-114718.0
-477170.0
391110.0
-23079.4
-56263.5
-33726.3
-166045.0
-44228.7
-69132.8
-87978.6
17753.8
79121.9
143464.0
-45413.5
-65468.5
141784.0
23435.1
-31402.9
-159499.0
-130900.0
-66138.4
-95814.5
5671.75
40383.6
70922.2
-119682.0
-336298.0
-41780.0
-69913.7
-42894.5
70900.2
16990.8
252368.0
386373.0
297714.0
147197.0
177349.0
-6448.9
405592.0
-45812.2
-29793.9
156747.0
127733.0
2864.66
3469.38
71370.6
245927.0
-5147.25
6736.37
25004.0
-98622.3
117864.0
-117612.0
7339.02
-28715.4
46569.8
57877.0
-70022.3
-127650.0
61483.9
-20306.2
173526.0
-146013.0
-48305.7
160112.0
124759.0
-81775.9
228085.0
-106517.0
137528.0
-96674.0
142490.0
8989.19
-16970.0
-110257.0
-33424.8
62044.8
-56792.6
30242.5
-1996.09
17894.9
-61900.9
-16550.0
-34703.2
9781.33
2283.88
-84339.0
32627.6
42612.1
-86132.1
-92479.4
94060.8
-21488.9
7358.18
26196.7
35431.7
-21722.1
-5470.98
-33702.3
36538.5
74596.7
53807.4
-134467.0
21100.0
-3416.91
504099.0
34288.6
318023.0
28750.2
-40527.3
279307.0
-6075.11
104826.0
-290034.0
21724.5
76843.7
78956.8
24000.5
-857.173
-146462.0
103183.0
64012.5
-147625.0
-66701.9
-252673.0
20646.5
15403.8
-110153.0
55963.9
72342.2
76011.8
-187099.0
46602.9
1433.69
38400.2
38873.9
30982.4
-35900.4
8988.13
8823.63
-88967.3
9801.91
-93561.4
-96324.0
-37824.3
-7253.77
-28696.7
-29947.3
-74691.9
225059.0
-24333.2
83214.8
65036.7
-109983.0
17627.5
-72724.4
146434.0
18945.0
47745.0
76925.2
-79197.3
287393.0
-1925.44
16066.0
-30307.1
17077.3
-73488.7
-86434.2
94687.0
-4227.41
49157.6
85501.7
6565.17
4541.02
140784.0
48038.7
-20426.6
16655.7
-21043.7
66.4854
61445.6
-30536.6
-16196.3
-45075.0
46473.6
20000.6
35039.3
-156519.0
-158635.0
60107.1
83816.5
-57857.4
19822.1
84324.1
-190216.0
51930.9
-58685.8
38506.2
16775.5
-22794.5
-59340.5
225775.0
165602.0
4959.32
3949.33
38709.1
7872.39
-86723.0
25570.1
-105897.0
18926.0
81235.8
2753.78
39822.0
-151265.0
-2014.47
1733.12
-20478.9
3364.31
140299.0
165744.0
26747.7
-48429.9
193390.0
-3709.1
-35708.4
60766.4
39605.1
-333321.0
10781.0
57918.2
211679.0
-65357.8
60086.6
-37360.4
57496.8
-6911.74
-149732.0
45442.2
-75998.8
-17168.8
37061.8
16450.6
-127045.0
57912.3
-24813.8
33056.7
-96383.0
-60132.2
19497.8
56221.6
-102512.0
434425.0
-48511.0
29085.6
220324.0
12627.3
189096.0
-190322.0
-22280.6
-129842.0
24214.2
236544.0
-72822.8
-50935.5
93500.0
18940.6
29714.4
-50252.2
163214.0
9768.45
5393.11
41165.8
-227708.0
-274.774
-20539.6
32518.5
-53537.1
-1514.4
-30847.7
-157388.0
-66357.2
-211270.0
17263.2
-10800.5
166839.0
194640.0
-84812.4
-189154.0
34245.8
12631.3
91650.6
-88480.8
32793.2
206244.0
563825.0
53023.8
81300.7
51262.8
-8509.01
49130.5
-12469.8
45793.4
-35514.5
-7674.56
66902.6
35181.4
109070.0
-104440.0
168214.0
-24383.9
-103974.0
39075.5
17779.4
71689.3
169836.0
-42703.4
36056.2
-36613.8
75909.8
-126607.0
21738.2
-94054.9
27229.8
-11501.5
38256.9
-5802.98
17465.7
-39798.6
-94943.4
-19863.6
12953.1
-72108.6
42376.2
25819.4
-80160.8
-179841.0
58820.7
73899.7
-155303.0
-77131.3
25786.8
-164966.0
-88017.4
-100731.0
-6823.04
5940.28
-25026.2
22841.9
-97257.0
45992.5
-50373.3
-507021.0
164868.0
31672.8
142392.0
-124508.0
-53467.4
35466.6
82429.9
-45923.4
-214441.0
-231802.0
-126025.0
89295.0
5656.8
-12274.9
22979.2
11444.5
-3131.66
85605.0
-30695.5
-173076.0
458149.0
-13471.5
239178.0
300707.0
-127137.0
35361.9
-5668.26
96304.3
-168470.0
-39534.5
-46121.1
127094.0
56525.2
-36955.3
-40011.2
31683.3
99325.7
-198908.0
142861.0
99024.5
-30397.9
-47064.5
-45766.7
-177218.0
159979.0
-7641.82
-95623.1
-15786.4
158.141
-3984.05
-3396.71
3064.92
33456.3
65332.0
70506.5
-189692.0
80377.1
-5460.53
-48349.0
61344.1
-112083.0
-180947.0
36625.9
-18020.3
17834.9
12707.4
-18145.6
-8631.12
16396.3
70311.6
98512.7
-125699.0
-301100.0
12617.7
101864.0
-47290.0
-8261.48
-54389.3
-87359.0
138123.0
-22743.5
-50501.8
-6874.64
234971.0
-40102.7
112732.0
27086.0
-111075.0
-131512.0
-5353.46
-213072.0
-73099.3
-49029.7
-14433.9
8050.95
-124498.0
73511.0
-18431.7
13882.9
428664.0
-52496.3
-73373.3
133566.0
32309.0
-93015.3
59021.9
-61060.5
25164.7
74543.4
24790.8
2185.85
-70662.6
7280.51
-106992.0
7328.55
29338.2
-7656.72
72031.6
-352939.0
-8689.94
125676.0
62331.5
-129593.0
78127.1
4041.92
-6939.77
2858.48
120388.0
153701.0
-53379.3
-24499.8
-84265.8
-14793.1
-151739.0
6121.93
-13457.8
136406.0
-123968.0
214383.0
37289.1
-102843.0
-54921.0
112222.0
-19778.2
-54823.0
-20448.7
3310.69
91263.6
4808.39
-82241.8
20047.5
-7382.7
65963.9
-3755.9
4181.27
-69273.9
-49460.8
58932.0
28758.7
-63110.0
-22000.6
-67130.8
-443618.0
-8615.07
-51518.7
249509.0
29178.2
672222.0
96599.8
-82100.7
85475.1
-120103.0
-127574.0
79009.1
-65278.8
39940.6
310375.0
-129260.0
-3876.38
-10054.7
18207.4
-88157.3
-104805.0
-35627.4
-3557.01
27292.8
16655.9
39284.0
19413.6
-3991.45
24164.8
155558.0
-62965.5
-10440.3
-126855.0
-100208.0
-58541.6
-4166.89
152100.0
-3749.68
-8892.95
-84201.0
-46625.4
-2760.61
494609.0
-25536.0
-85415.1
80081.0
161615.0
-51337.2
-154936.0
251071.0
-24897.2
-23666.6
-95139.3
-74320.7
-26209.2
-305647.0
-66118.2
92215.2
-51020.6
531.626
19405.5
-129459.0
-23821.3
-115562.0
66936.9
9278.86
-16423.2
-44577.3
46420.5
70632.1
-12163.1
30256.1
21128.9
1605.14
-117602.0
223873.0
6766.63
35234.4
-50428.3
39138.9
235044.0
-450545.0
-8893.59
19131.5
421226.0
48617.1
166050.0
-87646.6
45021.2
110318.0
55605.7
-215773.0
-88348.9
-6140.82
-51195.8
-200321.0
-127866.0
-27611.2
-38889.3
-41655.3
11084.2
41073.8
122273.0
338536.0
81993.9
-41009.8
-22153.9
-11601.5
-183226.0
113123.0
-487253.0
-97200.3
-84697.8
83515.7
-71615.9
-83936.3
102808.0
149689.0
21751.1
-51535.8
-209462.0
-3010.74
-3402.92
77534.2
-173803.0
143026.0
-5279.93
92737.6
-38773.1
65179.1
-5966.91
104253.0
-13652.4
35598.0
226222.0
-17531.4
53224.8
32948.7
-5737.65
49803.2
133416.0
12839.0
169081.0
-22257.3
-91727.1
-10200.3
347142.0
3299.17
-21676.7
47898.9
121408.0
-32672.4
74179.9
21243.7
70855.1
152875.0
14749.8
23315.6
-26642.2
-1995.91
30887.7
341547.0
113337.0
41939.3
230257.0
11588.7
-47169.1
21331.0
38685.6
-56151.8
71375.6
-18509.8
-56030.6
8782.65
102541.0
89708.4
52347.3
-56667.6
312822.0
-12804.8
29343.5
111791.0
35048.3
-84761.8
342819.0
7712.4
50492.2
-72982.9
-77138.5
-30440.1
63276.3
-325643.0
4266.79
11305.3
16267.8
-39242.6
-147790.0
158461.0
9477.66
-45328.2
-9668.54
68244.2
163685.0
-105687.0
-5041.4
106515.0
-2685.22
-75279.1
25151.7
-189000.0
-11706.7
38484.2
19499.2
-6393.02
-45948.9
334579.0
-295737.0
7650.79
234380.0
-42921.2
-45356.3
-176583.0
236988.0
27427.0
-31080.5
-10157.0
12590.5
169833.0
16655.9
-156980.0
64249.4
15940.6
40238.9
25630.4
37946.6
-337956.0
46340.7
-49519.1
54769.8
12218.0
-42140.1
-218282.0
-63904.1
-146627.0
1913.95
-30388.2
57958.7
-131760.0
-21184.3
39143.7
13383.4
63891.5
281030.0
91634.5
4412.69
-50401.4
20753.5
5571.32
180931.0
273628.0
-65757.3
9761.23
49436.4
4571.72
-169924.0
6596.15
-54485.3
2302.13
-25957.5
-222977.0
134013.0
59542.4
101565.0
94531.4
143152.0
10095.3
4041.26
-15418.3
-140572.0
-235499.0
-1836.3
-11561.6
14979.2
53977.7
-38997.8
24754.5
88389.9
35792.6
-45131.8
58078.5
9493.81
-16898.5
52266.3
-81468.0
5879.59
-251972.0
-38187.2
-393211.0
-269460.0
8408.77
5759.74
45037.5
102889.0
-146197.0
-71251.4
-11410.3
-726115.0
13481.4
-11196.5
