88.184522
15.63531355
52.4794571
-143.86996
15.8810194
28.6146628
45.351778
202.687169
-95.633537
139.4045003
-138.949198
140.434855
100.6865865
-16.735582
-36.0455786
-166.140904
260.772823
83.83209078
-170.5516429
-191.498718
145.776736
35.833104
-100.95621908
-122.9548301
-80.882529
56.32812
-21.9778531
13.711001
6.1571075
-34.621499
-52.9844734
160.658536
26.079408
-93.341563
-227.9393561
53.996741
-72.2061497
-24.1940943
-42.64633022
51.50308694
220.3674699
94.3643478
86.55488978
11.094594
95.401546
-47.2505779
-23.417194
-256.056551
-77.587946
77.6181003
-168.789441403
76.733515
71.460857
-139.974653
-125.8697141
-92.3361991
128.890987
-272.2003135
-64.5633103
-353.768286
-243.5275534
48.85860879
208.5491542
-224.089654
190.768666
-8.657686
87.101571
166.3925673
-270.811397
-50.488499
101.39829
-151.436826
177.99773
81.212026
166.6894794
156.262403
-211.317569
-135.054739
-230.1947476
-155.1282714
76.3175721
102.482325
155.386582
-127.6619724
-3.113395
-217.8750917
36.1786207
136.9466078
-47.1443375
61.852886
-257.0355014
142.489826
-65.44151064
-0.3128803
87.2670804
108.1879661
54.608068
180.374921
106.7350526
136.70812708
-31.39656346
-173.140321
28.432022
84.312259389
-26.518331
43.6701972
48.212604
-132.29181725
384.216324
77.64563
136.434989
-37.2209875
-66.879508
-96.358768
-98.6049317
-72.438916
-3.833425
382.036817
34.0025342
79.657765
37.8071909
-19.928294
40.551288
-136.0460238
18.080069
-93.9294811
95.089236
-0.000277099999998
39.5625788
108.4956178
-50.094063
240.35513
97.4624246
-45.451053
87.7988354
-132.48269938
-105.7132157
119.744481
-227.040376
165.3220273
-78.07911
128.5909071
38.4208224
-5.737077
-62.1106369
-41.399989
106.6897175
-68.244431
81.732675
-199.220472
-175.804145
-173.0575823
50.108756
-144.213956
-243.5650984
-112.0250895
277.5984849
-54.00928
-34.8614637
41.876377
254.857539
54.0287365
-146.3277341
-183.8032517
60.814207
107.9918797
-124.6632909
16.8162027
22.2864502
-79.3610528
134.4522083
19.3391939
203.648058
-278.0979723
19.19068907
157.915673
-95.8375934
-100.31869
83.030519
90.5862144
-16.826001
240.084978
-84.632008
-87.062966
-70.202394
-74.832476
-39.3812828
-298.872568
29.599858
-118.1332937
-182.825294
68.3875866
-191.8655626
61.0429726
67.195712
-41.1711
-192.2033984
-14.048298
90.625092
-113.2946162
252.4900956
-71.649495
-8.353849
-41.3284868
-182.379998
-160.6977603
10.9983057
-207.303968
-24.423472
-66.254983
-133.1239889
184.657964
53.021142
41.572442
-49.4854757
141.5168121
-109.0605418
115.236678
-0.546849
-115.9954633
-82.196302
279.751565
-41.933516
201.596139
9.280554
-32.80788
110.977087
153.844764
-95.26371
-210.421117
-5.773603
-30.282535
-52.4104844
104.76161
126.387075
12.730642
-89.339967
222.467973
5.38509
101.71097
319.1657109
-69.768642
-104.4667341
142.794717
127.3420179
60.793711
21.4183179
26.509713
119.2802015
-42.765047
-58.1641656
-94.8008569
-173.8397031
-58.179198
-13.200127
-100.619544
144.552166
-61.6984933
72.568037
-51.35933
-270.810906
201.5633093
-134.3764239
-72.444876
56.909759
-69.7580219
-47.0554418
154.648156
55.288787
-44.5363755
-148.8163048
108.5987957
-39.0979555
-87.5590055
99.1011178
-295.525737
154.549802
66.3978631
-234.304463
-19.725339
-96.1285147
54.185425
16.6836582
30.1553586
17.5560368
-7.517998
-89.240435
-36.60553
145.6810924
-106.90127103
-29.70856
-164.546651
-219.9508316
69.331406
-12.5875722203
369.454338
73.1707293
-191.445814
124.173345
219.9061106
26.263806
-197.830371
175.0835135
201.045266
-4.360497616
22.1105
-55.6884709
-47.6501024
142.6519201
126.985378
-270.66214
61.061227
117.642164
112.924669
-155.857265
-36.438862
62.5331755
43.8388988
19.305111
25.6671346
197.277643
-128.12876845
-116.091261
-116.7470003
35.669837
11.983769
-32.583766
-52.2912336
48.0920321
-28.25525203
-7.321738
-76.574167
219.1615863
-34.3966343
71.916446
-18.0951165
7.753865
15.0639352
-55.75860528
125.1616373
-36.046013
-29.61176866
-120.818488
-90.771357
242.227914
-175.784689
237.030304
11.170603
-8.4320389
19.723391
-38.354388
-66.0708548
-164.312201
-329.430204
175.387658
126.994555
63.228972
-212.0503614
102.3957782
-32.5030663
228.0678739
-88.923382
-48.890176
124.3129202
132.985018
23.3226049
-240.273712
19.921445
-50.3037
40.789074
-108.171886
-140.255772
-5.7142138
178.8211847
9.806517
-22.50595
-100.326138
105.6614501
-139.4060951
-76.500495
93.661652
102.5430236
83.9682798
54.935234
-128.332143
69.9198322
-125.064145
294.0376616
300.878897
212.064591
23.966619
-3.655638
-10.4919444
187.2740737
2.04529
155.376629
243.7049613
49.1421849
267.3347589
1.438332
9.204914
86.8063817
-66.8580863
-328.910624
-40.302019
25.521229
49.30545
-247.9193935
-14.496523
-30.5135232
160.5481984
137.06503543
-192.3136374
-38.473197
-156.8734182
-15.711326
293.574814
-110.248709
-11.064465
55.402108377
4.709045
32.3344279
-247.548172
131.89563673
136.917683
64.41396317
85.867713
-62.007024
27.9284065
-76.4839847
77.9777994
81.000966458
-63.84586006
99.2372493
27.385186
96.6071965
155.4834246
-159.388397
67.661416
366.152868
19.537837
-20.824414
2.48725965
-88.2050056
-118.9475415
84.6329087
-130.4101021
-88.5387999
10.434244
8.76562
74.1921924
-12.09515172
251.52580906
-9.693754
-164.220777
-57.8742911
54.211524
-40.597922
-103.753617
-23.914445
-161.006031
25.4363477
21.049547
126.746509
-31.88432799
-70.769967
90.954947
-150.066995
173.181612
-452.947179
-133.190749
169.5335097
-328.8335032
63.157322
-0.01584
-104.683548
252.9351312
-31.024079
45.2196231
-106.601924
128.103378
-95.589147
-89.858778
-75.450394
223.547801
-102.525104
-217.53176
-29.65585242
-65.3229738
-97.461693
205.5163887
20.8477099
-215.6656756
14.1709805
-77.6724372
-20.70672793
146.2755146
-133.644533
-72.790399
64.192916
25.1529219
-128.4857353
15.45102
212.4976133
123.97622206
-42.9963023
193.267238
-30.348201
68.335947
-167.653672
-117.867094
-122.33267257
237.99170391
9.935264
54.987339
143.325411
32.7744742
-242.639193
225.692142
102.1300808
-60.784112
-69.833001
78.238456
-181.34218
147.0897265
18.4462115
-5.452652
230.717349
-70.2259839
-41.033915
-259.957625
18.894869
-165.5805034
34.1277558
-60.677082
18.627533
-103.087788
-6.928651
-190.055157
99.25822007
45.1513351
105.7236525
-47.389404
-104.805279
-33.6828164
212.8812807
141.149346
-118.722367
70.4836069
47.551645
