307.071892
311.987814
552.583791
322.03591382
356.756779
548.9765948
0.591872
106.9963855
413.7675077
241.569293
543.9099561
125.1079705
142.094947
115.1382073
259.34844055
422.7748509
266.2908205
218.213299
253.368689
35.6026438
265.812959
277.26771566
371.442726
363.1698574
520.3855381
401.1841355
292.588189
303.718837878
269.3243458
125.674507
280.2131365
352.45643
471.815088
101.5912877
337.868845
320.781065
426.1268621
254.800788
331.3200521
398.809022
309.995587
208.934893
212.4030452
333.3950163
103.203797
326.4223343
491.0937595
461.384904
296.8174937
380.347252
487.102713
154.121999
200.312577
162.247815
223.2532657
195.3785393
313.2876803
572.86427
426.849181
551.48513956
235.5690464
547.51313047
394.47534
95.083647
224.34672
347.780409
176.2485972
143.478585
493.541127
159.886208
613.102694
242.006018
530.624705
253.0359838
213.318702
275.816882
475.0682053
272.379111
401.477076
386.246301
219.758145
264.230553
138.8556291
225.8009373
333.650554
371.11240536
251.07235
205.0129444
322.6564334
402.397579
479.6940562
455.9184772
322.4637173
500.582568
150.939034
429.612277
217.944197
319.699881
409.283643
62.302598
385.265922
384.34431711
523.216901
316.0624221
376.075617
242.41155016
79.5807378
343.0325404
520.9074423
581.0375796
166.453082
219.132117
178.5139418
441.295364
430.2373411
472.236286
163.0993351
66.5624248
211.0179236
302.909946
149.1007647
483.9796908
502.5834119
287.710797
98.954571
229.113786
311.211743
304.124349
50.0568964
298.705911
324.845283
268.8898339
289.879474
323.552816
69.492184
64.600315
365.4785322
301.249256
219.878849
298.261582
127.9963209
200.397928
331.957988
344.531918
360.284871
206.143254
297.530919
481.676318
585.922209
464.711823
264.2923216
440.9761053
166.89644
238.0731543
184.0111287
190.231726
328.6462982
250.246733
225.586884
454.3879586
578.535521
404.093836
321.6685172
414.4341456
186.451037
270.5473339
296.3720526
531.455266
176.005261
346.9869774
442.7318081
296.4858036
475.0962444
458.9979947
174.780333
417.9751176
306.61003
397.93696
523.22797
345.184295
470.5638258
294.1773454
345.41038979
108.2549397
345.0780047
518.669267
179.583672
304.979008
439.636973
288.98247791
422.8961642
127.541742
332.342514
318.3039536
297.67408
224.7154636
100.5936871
341.5064886
105.6296434
395.7425247
238.295741
255.95884495
110.0447081
447.484874
119.34589
181.86456573
333.391339
149.83838
293.077918
466.9365817
116.011011
348.6510112
276.0352467
307.573139
337.1873894
297.1109442
310.530222
300.2736126
466.606318
457.884159
322.132236
305.1591903
388.6039863
272.954555
258.1056007
359.425196
352.37324
386.3916298
406.3939854
177.7077291
59.752394
270.2947479
408.0545377
379.7966506
193.259058
337.94174
386.334868
357.795865
244.665956
649.4299306
444.7256871
47.0545299
295.699290776
349.0967645
317.6665043
326.50031
131.853691
137.3308873
315.13146
368.5539982
385.9412567
193.003775
418.3909133
145.45528
167.221071
372.071178
445.649181
213.281507
148.754249
357.469109
135.5569089
260.243237
497.521969
265.379951
461.852193
330.73129155
188.878439
368.938109
370.9469173
372.716456
420.316174
32.56753
342.238481
275.768633
325.42671035
87.874378
439.38106228
165.1848606
233.298238
198.680545
446.117315
344.5402031
417.477019
350.093147
153.1178107
375.674544
348.0870201
218.700074869
166.219066
399.796343
293.354522
216.936568
427.0390083
326.3003089
412.942775
320.2238772
385.415117
589.961715
14.088395
526.556336
234.5394292
282.347258
343.3260052
544.730639
301.610408
511.445087
439.284734
388.3733035
364.294405
207.0087338
336.4907952
286.3500743
284.138468
134.685517
373.7352145
463.715359
309.8963033
391.9192977
441.69078
206.2197282
265.34475205
209.592462
456.335452
453.3172425
194.4329843
458.56909479
285.4015442
233.573796
150.1221887
218.731364
350.193285
290.471567
202.178045
155.0643821
345.589919
343.4313901
725.9753931
377.6085564
221.342957
441.72947
495.915808
393.30622
486.039537
248.47088
396.05716
290.818503
263.5171434
476.041013
159.154493
420.218591
311.2486443
501.3613132
489.9775934
425.341598
316.152567
66.2752719
134.556525
284.3112696
156.0390391
427.481766
326.87724
151.431827
243.6732395
273.5941445
195.40082
283.9171023
225.537311
315.002626
386.124503
205.3150856
280.7090434
252.086948
437.8852925
665.333328
307.811388
208.419735
301.613604
491.1695159
287.999468
324.989373
573.319838
565.088645
350.133433
115.76693
230.7587
458.780904
283.476234
90.915432
564.915887
436.871677
371.7225452
151.503495
262.262282
305.5284
410.3951911
322.527826
556.523212
130.9113
272.7600989
275.159386
171.719816
352.0696618
254.5365614
213.327839
314.9333696
260.699243
262.694872
187.447783
280.0359034
165.2859177
338.9659008
463.932324
318.712963
486.2921713
257.349108
493.046822
190.0476333
573.6321242
562.343277
322.7918244
334.151241
389.446829
378.55307
400.6417224
368.085064
372.155292
370.432047
264.2031379
446.2808388
6.5407908
379.971247
334.254175
500.73410121
256.418201
270.740092
200.8465061
326.26780219
293.3034528
414.6025496
201.0244912
243.03779
185.1869507
177.51315
176.5078421
238.803649
229.335304
186.4876354
392.7180288
357.1702118
413.4882632
294.245188
203.842123
224.8172
341.31926073
342.8968294
400.1800945
492.43014005
123.1839776
241.3938231
418.0113491
110.731266
177.626382
454.7492937
312.3399469
210.762487
252.3315216
531.9824444
291.702817
355.703808
289.25437
280.9702653
348.4076104
502.509958
373.449085
454.935456
341.582562
419.2002547
293.59555
269.1414808
422.84686142
183.238253
284.2937774
438.94303999
400.1943464
77.36592355
438.3376897
43.439429
198.7681862
192.7927421
145.508188
297.64947
349.7478461
357.1590231
337.9683706
292.690759
301.179634
102.602221
316.472533
487.6908264
236.371883
375.85844445
328.556787
52.7350636
340.149272
516.659991
520.32963
80.447956
406.597255
343.7381958
542.5964397
102.042635
233.5102631
4.191566
181.5653187
344.9206136
289.0060226
210.9038814
369.809006
439.837691
574.6109721
131.474643
276.7916988
439.318528
327.2630853
441.888365
631.9986549
267.274579
314.2675925
427.1676056
386.388345
405.956602
449.356995
482.0200478
291.9299427
452.0593644
225.5247334
189.246885
421.7335675
-1.0033611
335.4262636
256.924175
599.349105
183.460373
141.8439349
197.3660913
407.363029
551.4649268
398.708894
383.9159615
85.4830494
