74.7718836
68.259526
-2.230749
-2.269124
-19.4780175
-50.6594242
-0.2580975
74.140398
-84.229321
-28.0579206
-302.093583
111.221487
306.51493375
-66.837128
48.341858
72.195084
297.4480539
62.768612
-30.386437
-385.040041
174.3002441
-18.3637061
-56.3622807
-65.767979
16.296447
-47.3437098
70.3455464
119.178336
26.4247923
77.1975053
59.113723
148.64785
8.884363
-132.1322137
-188.154519
-41.525214
-21.809151
86.627418
11.1473947
127.753605
-100.2946158
-113.824638
-69.400358
-51.566141
238.7556964
40.54567
147.11505221
-93.673561
10.98902925
36.834196
65.6454824
-41.400314
98.463747
-168.692047
14.1990843
-14.225164
117.87215
-263.9354125
-112.838681
-248.987278
-174.438473
-39.769406
188.8189455
46.3233444
410.217199
28.8549179
-25.6030104
319.2909157
-17.7371353
63.9111012
47.4150816
-152.139199
231.200233
29.563877
133.7165203
132.44799
-165.052955
165.797087
-238.1038878
63.8326189
208.023852
166.16586
175.110758
-121.372707
-153.69719
-56.998257
111.949283
-65.5980613
-118.103229
219.587593
-338.3456365
136.288681
-72.902461
-5.055516
313.655707
-16.161062
89.605738
171.0148981
126.8498633
175.273354
84.916742
-44.9708785
48.7378774
-83.7692167
-144.7029569
-56.724862
64.1254032
33.537419
163.232762
26.474807
-32.090707
-23.304329
-206.494191
-78.2214387
81.345532
25.719657
35.92224
197.8593314
-127.6370909
82.25745
-115.2098998
-52.364522
10.405824
45.077276
-47.765905
115.964806
43.0503408
106.823836
105.548288
66.241933
138.183586
18.7264412
176.844228
-111.559994
-39.234468
-51.0374256
128.301747
-27.588854
-13.571627
207.1658226
12.7164786
105.0936908
-86.744804
-0.616406
39.536115
-33.137244
177.687091
-55.327018
116.714157
-104.052527
25.4385838
-97.84075961
-0.974576
-100.4736796
-127.788406
-41.8098244
-28.7893005
80.2500064
-67.4017367
17.7453861
177.426664
-77.3579126
-192.823373
-134.327708
-116.2993335
139.3617023
-82.493181
124.276491
-25.450599
88.6848686
181.371862
73.8286351
-22.587408
-230.80357269
-85.1339779
417.808748
-143.96606
83.064603
-156.89004
-105.426972
-96.9036881
12.924064
-99.0234457
94.5026173
52.1698724
-164.9021032
93.3915
-51.8632883
-77.982622
45.2304
-93.652846
-45.936095
1.015704
-7.4727457
173.04051
-221.981141
-82.4997835
76.8841069
196.726088
-33.122045
24.152824
-98.110842
27.5302498
74.879775
-74.115262
-152.8547658
70.2436738
-185.320132
-123.4792598
135.176365
-151.956807
68.264312
-87.335442
-17.562616
77.3814264
-12.4326371
65.4714682
57.521238
-86.12975599
-212.425297
157.4584927
107.74106
-56.4644822
24.077184
-67.8503107
77.32756
114.3455421
34.3130764
98.476806
-175.761164
7.312878
202.710397
-109.94792955
-65.464808
41.20914728
128.7842189
-21.606227
46.525303
-84.280773
-21.403692
275.5294052
-84.1967593
109.510433
195.2534299
55.703151
151.077213
16.8320529
118.4104112
75.7513128
-194.5260739
-187.398004
37.743758281
-24.9600905
143.756893
-18.3796388
56.6083221
58.269741
155.461307
167.537909
122.434523
-131.9618629
50.2528795
-137.3695371
81.046677
90.546379
-68.905601
251.7093789
18.8224106
-8.730443
-108.803257
-26.5606326
59.826648
-287.919162
128.2109357
87.642969
-158.78111861
-99.341993
31.2291382
-116.10304312
147.153241
23.086772
-193.089251
162.1201134
101.390213
144.7364327
111.059302
-95.647381
-67.913447
166.2637074
-187.872463
-214.5975705
-271.8366523
-11.1432186
114.921229
7.442697
227.1018576
-110.64485
-158.239976
-109.8940534
225.8604182
27.1991144
-205.544852
28.392423
213.623177
-74.115786
80.1532095
85.0606586
200.9354573
49.24859
-72.361399
-210.4818602
28.5561078
85.0826052
-13.341229
-291.085349
13.162185
11.594581
-77.9585407
-6.278826
105.151093
-95.017101
50.80013
-101.782785
-163.897852
29.023459
172.256247
11.6185248
31.061134
-36.407488
223.733241
-84.56211512
-204.5610865
-76.0927855
100.100778
38.641769
81.1654019
-102.191409
62.030308
-355.136278
62.0736567
-90.376505
121.044733
-107.755799
-42.137442
66.4808607
-89.01974674
217.500669
20.400401
-48.681488
-9.573997
44.0191574
-292.750256
-93.8508247
15.321726
50.518284
47.776512
141.1732349
105.4165111
11.2706721
53.71554389
338.443683
-86.55411139
100.0772822
-98.588716
191.209453
149.142114
-49.131079
52.604161
-81.9930086
-61.9860583
0.64250853
-63.3792126
69.9452281
64.004463
20.7944011
-205.7086532
-204.1033057
-68.299505
69.453182
5.461823
47.034735
41.0975989
234.167416
-24.5232087
61.097677
5.320409
-95.8014328
194.280814
215.7478558
30.834049
-98.5453389
-54.717256
158.922815
210.6873129
44.9980698
21.3994291
234.8169164
92.019381
31.842472
-53.4473039
164.404786
60.859261
56.9202233
-314.75791
-179.974381
-170.19815901
77.376354
-41.119388
50.5831865
140.788601
-2.3679501
-96.677707
-146.7903077
-39.1402084
-117.2055855
111.8699334
388.0648189
158.0070124
-14.760049
95.5703083
118.6146015
68.3092293
229.052141
207.48202
121.1456963
85.6555503
82.8036089
206.027302
78.665176
60.212007
49.8493366
212.9508848
-209.3738959
78.334533
194.027848
5.740222
-70.26797186
-125.170254
12.4991658
84.484257
14.125785
93.084761
-148.6549208
-8.1604267
53.477478
190.0709481
-8.626771
-61.728043
66.6866972
7.386481
89.722682
-153.550436
152.5577094
-48.581096
30.0230008
-226.026552
67.056594
-65.111441
-70.715561
36.0832845
29.287423
135.745933
-76.66360232
38.921662
-100.61478
-132.0714291
91.4463651
-25.597707
114.775177
-118.8337687
56.225314
74.123601
-194.787734
75.557551
-5.656193
-14.1120482
91.921399
-38.438431
-71.243106
-132.318419
17.112196
-16.729672
56.9786847
91.3006833
160.657679
-26.33493097
55.4161205
-89.5114963
47.801085
21.73597
112.2518314
-49.780097
-59.9925412
-54.1408571
-159.2682339
164.1848759
26.429337
-170.54215
180.0647081
139.5758324
96.4116372
-281.021737
-180.5863383
-189.9017254
12.7551656
-77.137165
35.9761547
80.1127634
232.205669
-50.863861
-20.219171
-6.286019
196.5774641
-28.904466
83.4481038
-32.63501054
-197.5032181
-252.205701
-31.41156467
68.4593566
100.9705166
-89.7715695
35.008196
92.118535
36.378674
-27.5915438
-149.022842
180.782316
5.8273686
-90.508509
-78.0391531
-28.35403826
-80.4694482
17.0424273
-230.0989187
314.999913
-102.6772577
-80.79319
4.6256939
189.911275
148.0968427
342.78953
-22.74908
130.3601616
65.02826232
298.149524
83.065426
-167.65049841
162.468977
120.814811
