1287.4844392
1878.982615
1651.8883
1438.8889493
1519.837298
1268.7035825
1457.5991175
1342.880181
1612.83517
1315.619689
1476.033839
1491.746965
1445.5709
1319.7541597
1519.5143566
1517.72261154
1697.273323
1397.436758
1408.5707244
1315.716522
1664.865809
1419.147508
1509.4110146
1608.933493
1599.127471
1334.19916
1588.974836
1575.6641288
1616.496933
1313.686623
1589.4168948
1732.730805
1473.070184
1194.3487166
1660.01685
1424.129728
1731.011097
1418.4445541
1459.292907
1595.546971
1380.093605
1460.192582
1551.687845
1449.01605
1391.010796
1322.5202036
1478.888838
1523.840384
1385.4488542
1493.11289
1538.040073
1283.698624
1413.17511
1545.555149
1442.525452
1365.863538
1547.0017655
1555.000933
1639.813901
1740.738148
1378.366486
1537.949824
1518.2156374
1561.0354528
1315.794392
1365.277913
1353.3581346
1369.3607522
1393.5009323
1535.410435
1605.938315
1510.026396
1467.4281784
1352.825099
1547.8567693
1507.20029
1879.222029
1333.9371231
1442.932708
1450.6139198
1476.1713959
1382.2306294
1419.2008833
1493.813717
1463.276875
1606.062624
1526.82765382
1556.4228806
1380.657619
1662.796502
1557.41573
1682.2888811
1465.718462
1574.7727875
1378.26563
1528.9763258
1533.473361
1619.017911
1523.831213
1271.600712
1622.2850728
1456.1226655
1620.509845
1447.911209
1407.7605317
1690.668773
1507.261472
1367.616006
1787.452109
1543.5551103
1449.4231884
1249.7203396
1671.348583
1540.5804988
1616.513848
1812.749435
1351.19401226
1485.2098114
1251.543688
1675.230224
1395.883299
1824.357822
1647.163949
1413.5492999
1287.066604
1413.248966
1549.733795
1418.5265321
1525.066681
1561.6655789
1515.938569
1396.0693247
1457.2690363
1446.548755
1308.667663
1496.7994435
1456.285708
1613.62859
1484.6032358
1513.544034
1359.066949
1438.438319
1648.246421
1288.391058
1637.3504003
1407.731262
1629.100029
1620.202269
1525.553697
1542.2551563
1479.574815
1457.3975096
1625.106125
1682.924363
1527.940091
1317.789995
1454.646703
1249.6136919
1407.659526
1439.225655
1635.1777315
1636.580233
1709.304838
1519.74442
1543.6515654
1336.163357
1386.316004
1527.779963
1485.099422
1500.342951
1667.15058772
1429.7613607
1440.6283251
1693.711003
1369.151341
1577.359995
1483.7551447
1424.936879
1647.178803
1464.739467
1588.792425
1556.461063
1673.6990921
1288.493017
1616.297052
1508.549102
1677.686391
1459.19703
1621.788681
1309.051448
1574.3345468
1204.6850826
1362.8554805
1383.2486911
1327.33653
1581.19835235
1476.334321
1269.2267366
1255.190062
1398.135804
1368.260572
1530.75710711
1338.05283926
1543.830376
1513.682396
1526.8113798
1473.232847
1470.6314965
1556.845963
1549.400884
1381.638093
1889.5271886
1399.4231444
1366.999898
1413.414642
1279.030007
1469.8087174
1548.3954912
1703.464724
1360.234527
1557.559316
1505.68246531
1600.192795
1646.387137
1646.16259
1601.2966335
1599.4687521
1663.132941
1511.544791
1320.002682
1164.5906184
1416.169539
1495.482571
1426.129064
1270.961065
1615.73896
1536.9036852
1546.1728568
1510.918961
1662.949493
1344.745991
1420.278387
1380.145836
1446.72768078
1250.181718
1483.402118
1389.714841
1415.747851
1612.0030838
1491.1587683
1225.912709
1223.699722
1613.976328
1305.979292
1265.559242
1624.4058445
1552.643209
1354.832496
1580.349109
1584.0757552
1356.390917
1498.286299
1620.5131
1425.298686
1589.7761899
1461.284157
1404.0480014
1611.8738078
1496.763518
1553.607733
1539.706586
1141.2884532
1426.999663
1526.69294
1388.553021
1555.686286
1643.7594978
1469.16169
1484.810306
1631.56875
1485.302024
1320.066245
1683.997034
1350.074846
1514.4887229
1482.2679802
1636.830953
1361.884271
1392.4470169
1468.129848
1337.441833
1396.0499039
1495.590354
1644.387482
1565.8840698
1578.3660128
1545.1111632
1627.7290543
1357.073378
1616.6640847
1479.87530522
1632.158047
1501.0415539
1475.136258
1390.3661269
1668.503763
1566.9538387
1553.533557
1464.870658
1408.573266
1435.138162
1461.128263
1505.404811
1481.0100461
1648.173046
1523.607493
1334.706774
1378.3898222
1634.4855676
1448.325827
1534.196235
1468.79228436
1484.99409
1622.041327
1571.606506
1733.240331
1371.3826
1276.47181
1502.385756
1394.08725
1478.480561
1637.3226281
1426.7525752
1426.9066999
1596.7160906
1497.559991
1807.135924
1525.5057358
1411.2710237
1660.48947
1527.4331832
1370.417637
1576.664991
1325.7870565
1647.809149
1465.533402
1514.8968423
1570.8143907
1129.991633
1442.8691468
1510.805033
1688.820885
1657.667912
1727.87219
1660.161278
1424.168411
1428.484683
1519.856534
1306.982036
1696.6020729
1221.18037
1318.6214808
1551.6624231
1469.43456
1406.267186
1547.6108494
1206.650442
1583.63203
1586.8158035
1582.07041
1530.379968
1331.2280981
1686.528997
1569.8879884
1852.101989
1458.75405708
1389.823161
1618.282993
1664.874016
1504.7772787
1664.046242
1589.7352643
1548.907839
1531.3224913
1350.834889
1410.700318
1426.985356
1586.6916586
1697.765079
1570.8248897
1575.206581
1206.986592
1327.031227
1337.9382008
1424.720775
1497.124901
1525.4591899
1476.707661
1603.735554
1368.833558
1470.120665
1535.953957
1471.298095
1566.86601294
1693.425401
1526.7779865
1455.40398991
1273.6614139
1392.157578
1468.4613867
1442.544804
1588.822107
1388.458633
1848.456065
1493.7283932
1640.403905
1426.0387821
1573.946271
1473.180854
1449.712247
1559.740133
1582.6725005
1357.017984
1480.151252
1522.465938
1569.313252
1651.998562
1473.569023
1608.2474096
1121.295052
1574.3497935
1417.6963971
1554.130516
1526.658311
1400.820585
1496.591645
1504.856983
1471.96369
1423.897582
1345.8152065
1490.80424588
1386.26885598
1385.483857
1454.30247
1365.2753063
1530.795476
1431.138389
1605.106115
1430.95039
1428.540264
1341.3461418
1455.127253
1434.137929
1440.7258806
1428.787137
1583.5668343
1533.1154623
1509.575709
1539.8342202
1557.313542
1507.958282
1624.2205262
1511.5122117
1604.81764
1408.4838284
1462.927225
1475.4847428
1647.713974
1728.272376
1417.435755
1442.090472
1377.662643
1694.3643755
1309.0189665
1386.381603
1601.470617
1613.33595014
1456.9494121
1466.760758
1589.620959
1254.2615
1324.2077057
1648.999539
1538.189989
1332.057978
1548.160844
1674.0414902
1501.524489
1606.181298
1273.85814544
1321.452383
1437.9751088
1574.71389
1436.466414
1462.5388485
1306.3548644
1568.8183948
1539.9129117
1399.508304
1612.5798642
1540.3176308
1601.189905
1442.9409323
1477.18969
1633.87092
1642.1277591
1466.16494
1555.103297
1504.2787711
1686.028081
1275.805428
1462.662676
1509.718834
1489.529266
1453.474381
1688.476189
1283.548324
1377.659537
1339.218804
1498.2844471
1458.8124487
1399.3329971
1685.48102
1357.664421
1374.0919677
1655.213213
1584.3412235
1466.344868
1731.4077081
1575.1481301
1607.6663458
1628.8148929
1750.7370109
1097.542035
1836.503141
1367.084314
1359.298895
1573.779406
1399.725951
1505.838022
1403.6165921
1684.473625
1464.562113
1417.270779
1319.5483054
1630.849401
1604.6535345
1596.153452
1653.670321
1410.441141
