4493.31
-4231.25
-1541.72
818.915
-4795.24
-15051.6
2478.65
-10021.7
-13033.6
6231.79
16511.3
10451.5
961.468
-3732.81
-7775.61
-9419.35
-1897.49
-2989.76
-4427.78
-2277.88
-2490.16
-4231.51
-10758.4
4792.2
-6713.31
3770.34
2742.16
1562.68
10506.3
1956.09
-1334.97
2297.05
-11482
490.978
-3135.29
904.444
-519.664
-4455.91
-1494.85
8257.32
58.2803
688.725
2721.55
-3944.88
7490.05
-12578.3
-3817.08
1791.49
2081.55
-1421.63
9291.94
-6190.84
-1202.89
5618.97
9427.34
-3656.62
2680.47
-3439.25
6023.91
969.083
-8518.11
135.084
4366.11
6804.16
11153.5
1751.28
-7149.3
-1277
4160.21
5365.43
-3430.21
4247.71
-197.349
3773.68
-7798.32
-1324.98
4191.55
-6021.66
5846.45
-7599.44
-2459.21
-2787.17
8121.02
10407.7
1038.22
-1000.38
1915.15
9321.22
5210.71
-844.31
515.677
-4619.04
-3045.66
-2792.64
3798.76
-7107.81
9142.53
7118.96
-12937.7
-836.646
948.344
-3169.47
3437.96
-2214.41
2435.83
6681.6
13951.1
-1752.54
7097.91
-3280.14
2942.03
122.477
6861.87
1107.93
330.505
-1526.82
2335.08
3156.33
-1233.46
-6437.92
5093.3
7368.5
2102.18
695.167
3093.22
4332.23
-7379.94
1140.46
-1932.46
-7804.16
116.249
-7401.89
-5782.57
-3672.02
5482.9
-2482.05
13523.7
572.765
-15894.9
-13073.7
-3099.44
5473.24
7953.39
9399.46
-2043.09
-1687.43
937.266
4888.02
-1996.37
-2038.67
6449.61
-1226.95
8668.07
-1218.44
3910.38
1059.57
2877.47
-1165.07
-424.527
-5257.3
-1692.8
-1045.75
12045
625.633
1001.07
1910.18
-1935.82
-3547.19
8487.44
12830.1
-3647.33
3023.17
3315.79
-11330.6
-549.518
-4981.58
6418.73
-8295.88
-1375.41
-864.075
4601.2
-5007.38
-3712.32
-5242.58
-3714.99
6656.51
-2059.52
-2899.79
4078.06
-11827.5
7407.95
4442.06
1577.77
14443.9
7383.45
2908.63
9855.32
-328.579
2949.66
1081.12
-4837.59
-919.887
-17327.4
2354.89
-2877.3
3464.08
-9147.71
-1677.17
2897.04
5593.43
5703.44
6485.67
11493.3
4420.14
4.33976
3466.97
11334.9
4605.66
30110.4
167.855
1155.79
774.853
-8693.33
-3824.01
4997.48
-1787.22
6589.11
-1132.28
6105.37
708.491
-5445.63
552.747
1319.37
8061.1
-1549.32
6094.27
-13824.6
-14817.3
-11819.6
564.769
3769.52
4624.45
187.196
-15646.6
1735.08
12389.5
-6187.68
-7951.21
1618
2692.61
5519.76
-295.22
-14978.3
-2443.61
-7260.78
971.419
3565.89
4072.79
4323.82
1633.68
7403.81
7117.04
1426.97
6377.61
-9517.35
-8707.19
3458.78
4777.13
-12.0149
-3899.09
-29.5516
469.244
5096.28
4592.08
4117.56
2716.21
-2794.55
3472.89
-7103.4
-39.1156
8684.91
-4172.88
-4970.11
2287.31
-8902.28
4048.37
9165.31
-1187.33
-2181.29
6985.37
-2186.32
-2882.27
-1459.7
-823.588
11629.8
-1587.48
1736.44
6797.71
-611.451
4394.96
4537.7
-897.486
-5081.61
-9628.72
-3310.86
21050
10536.1
13421.6
-411.403
1230.94
-1705.86
-1773.45
4022.36
183.083
2541.95
-6397.76
-5155.25
-4114.9
-7503.64
1895.34
1462.22
-4393.05
-7774.39
9905.64
271.209
-3623.46
-1801.48
9150.09
-1740.68
432.166
13228.4
4140.88
-1070.5
-689.899
10998
7587.33
2132.23
-9588.26
405.223
4544.5
-1359.72
516.589
-6713.82
-1662.46
3412.37
3881.57
-5482.19
-2944.23
3290.82
806.303
-1027.12
3862.38
4233.61
-9714.23
-9155.96
-1952.69
-4818.34
2878.8
1641.98
-2013.55
-5515.41
4588.94
-4247.69
3769.08
-5855.04
7093.06
-8686.68
283.326
-2937.17
-8438.58
3410.65
2922.21
7052.74
-3724.23
-4812.72
3601.55
3274.19
-1656.33
-442.386
-1165.82
10875.7
12434.8
-8177.07
12706.9
-3120.7
-439.797
3511.02
-4754.17
1770.38
-5948.61
3478.86
-2768.33
7209.68
-5770.82
5375.88
-3133.28
11782.2
-4249.71
-124.553
-6360.84
-785.279
-736.754
6891.55
4232.45
-1537.52
7317.59
-5319.94
2511.66
10206.4
287.987
-7365.7
-2096.08
571.312
-3910.8
-15531.7
-9916.07
-41.1538
-2274.56
-4127.64
-2034.61
5163.34
-16311.4
-11975.9
3374.17
-310.115
8500.97
-4210.01
-6835.53
-4095.78
5849.67
4406.04
5536.19
4981.02
-11204.7
-8154.14
-2908.43
-11644.6
1897.22
871.108
-2865.72
-5699.88
-801.315
12696.4
12334.5
-6449.9
-2261.42
14244.5
-2190.59
846.954
11686.7
1730.54
2941.34
13169.6
8011.14
4322.01
10860.5
9335.97
-4661.68
-449.335
-10813.6
1749.45
469.901
-2373.7
6759.74
1069.34
5237.29
-3451.35
784.118
-4706.49
9671.49
2498.3
673.732
-926.089
17411.4
5779.23
991.587
3983.46
-4055.58
970.383
-4408.65
3542.16
3683.42
-6055.05
-1138.22
6144.43
-3295.75
1458.49
8909.88
-1427.21
195.184
-149.432
-9294.45
7961.55
-8951.76
4168.66
-10788.6
5533.46
9988.99
1716.31
-114.422
-3276.08
979.039
322.364
-2536.15
-7840.37
-4725.51
2581.07
-11276.6
-190.134
-2598.71
2894.29
9109.18
7082.52
-3759.34
-97.655
-5439.92
1645.49
-199.273
10533.7
6494.35
7851.98
-8957.84
-7635.15
1671.45
2515.26
-3629.23
-2258.4
-3687.61
-7109.23
-6205.49
3016.82
-1218.68
5622.46
8904.65
3046.22
6173.91
-1752.5
2261.36
-12388.1
1589.08
8615.02
1505.22
5574.84
-4516.81
2965.57
-495.17
10535.8
6014.85
2789.86
1459.82
-3331.8
1553.7
730.399
8128.44
9743.56
6412.73
-7914.81
14066.7
-4684.18
-5221.7
7811.06
-5805.46
-783.658
4039.58
-6103.89
3636.92
-3357.91
814.771
1285.07
3749
10466.8
2143.12
538.076
6206.49
922.794
-3121.5
-5831.34
-2524.32
7684.8
-454.991
5855.13
-1495.1
-2506.06
1472.21
-8418.61
1385.86
614.131
5587.93
11401.4
3948.85
10042.9
5777.91
4885.35
5153.34
8067.67
1292.43
16103.8
6444.18
-7075.32
-2939.84
-5297.51
-8098.22
-2949.66
-589.717
4028.79
-4578.27
-895.364
2420.73
-2537.85
5266.32
-4398.95
-2667.95
10200.9
-1828.21
-921.561
2573.47
-2819.12
5362.07
4263.19
5733.97
5169.86
3938.05
1939.72
7844.25
17444.1
-1632.75
6296.14
9311.42
-5226.54
4637.9
3112.55
-3397.73
-4874.45
-6880.44
-9021.79
-2974.91
2692.88
-4816.07
-1770.15
15951
-2361.12
-828.774
5258.14
-222.202
-2121.73
-5899.25
-1223.55
-7056.53
-1369.65
3011.48
-9546.63
-4704.18
3080.9
1676.51
-6310.9
5401.69
3092.62
43.513
7461.94
-4002.63
3962.12
-7612.01
-3924.21
2457.42
5686.04
-6423.54
-406.084
-228.624
11324.7
7138.18
-3243.25
2889.79
10817.9
-11329.5
-5237.42
3239.25
-7283.42
-3747.26
-8819.72
6062.2
5770.11
-8072.28
-9418.26
-5827.9
10202.4
-42.7362
-9372.87
4294.99
-5158.82
9955.45
-7528.25
-3879.03
12457.7
-767.917
4552.81
3870.99
9250.68
220.376
275.548
-3019.72
315.386
1401.13
159.322
1672.07
5248.08
8286.86
2772.38
2251.04
9754.16
4339.76
3167.68
10413.6
-3673.76
-4217.88
21107.3
-3415.51
2441.32
-5424.19
7272.21
-5358.8
-1753.06
19529.6
-3068.46
6732.87
1928.48
2346.67
-8200
1512.13
-13569.9
1931.59
19194.9
-7805.17
5184.79
2907.33
4052.8
2082.6
-274.192
-4276.95
-5205.89
5574.44
3338.72
1901.83
-1009.15
2457.07
8830.95
3917.05
-3152.53
15317.9
1760.16
-6102.88
-5672.33
9072.22
2353.92
3211.53
-513.811
1174.82
7911.12
-2896.93
-721.689
-3085.28
-8639.43
-5073.55
-3098.94
2967.51
1470.57
-306.629
-6229.34
11426.9
2897.01
-1558.84
14871.9
12949.6
-4660.96
1483.9
-4340.14
4495.36
6711.77
-7318.61
424.335
-3191.41
-7737.5
-1549.81
-3358.66
5039.11
-2859.98
-5211.65
844.228
3800.2
3814.51
-498.883
7771.9
-3215.09
4405.84
-7069.44
-6923.39
-4343.79
13931.6
-3733.34
3134.5
-9595.19
-2732.69
-4333.41
-1617.88
10071.6
7963.88
8427.45
2717.27
5367.03
4086.05
-1174.34
-5618.62
7746.47
3546.63
2194.87
2694.36
-3173.9
14038.7
3489.16
7133.56
-3086.14
-4647.92
214.969
8091.27
1831.7
4579.9
-1286.6
-8774.35
127.818
-1653.16
1406.49
-4230.36
3518.8
-7212.59
-677.42
2396.76
12637.3
-5160.05
1180.95
3104.02
-1606.92
-5238.14
1027.61
-4991.25
4387.06
-5496.06
6998.5
1307.79
-4892.07
-437.847
3211.03
7513.86
9889.43
7436.45
-2175.06
6335.53
5046.31
1442.48
-2326.71
2052.98
376.965
-6091.36
-2373.76
-7650.22
1678.4
-2227.38
-7794.45
-1946.56
-962.249
-1204.72
4348.27
-1222.34
5472.94
2058.18
3266.11
1029.11
-9785.53
-3884.74
2090.3
-3364.85
-4721.01
3522.81
1858.47
-794.185
336.41
1403.92
-650.149
4091.54
1809.55
2310.4
1587.39
1956.35
-369.735
2334.7
-2521.08
5236.89
-2820.37
-13.6348
-6421.43
3884.53
-3672.23
2617.24
-6282.99
-3614.33
1622.06
26488.8
8943.27
-1138.76
-1405.47
-395.916
7248.5
1584.26
3486.9
-2905.56
988.622
119.865
561.455
-9012.17
-6876.73
-2478.02
-4514.56
-2842.52
-1977.71
-280.157
5588.78
-7383.62
9401.25
4560.68
13017.5
2021.14
-11826
-3810.87
872.399
-3734.58
5115.49
-4317.98
-1691.33
1594.82
-7682.22
6711.23
745.675
11639.1
-259.989
8814.56
-2118.45
2473.86
3251.96
-1774.49
2900.29
3447.77
6748.38
-1893.05
-7452.23
1680.19
4387.81
917.26
840.81
19659.8
-131.3
-1049.45
-2426.01
10016
9529.38
1452.99
4218.32
-2339.88
10042.6
-6125.77
-914.521
3440.41
-678.457
2859.33
-8613.62
-1344.46
524.161
-765.757
-5950.24
896.291
16315.6
9389.02
-5920.19
981.197
9522.16
24937.7
-289.606
1718.16
-1320.68
3607.68
-1572.31
-2033.79
-3523.18
-5341.06
-5571.57
905.736
2524.68
2582.84
781.707
970.884
-2244.61
5956.64
3930.92
