2.42383164944e+11
2.6061143082e+11
2.56597700602e+11
2.8108751392e+11
2.3898459714e+11
2.46667061668e+11
2.41800230113e+11
2.33449898671e+11
2.55840403738e+11
2.51492909395e+11
2.33299884289e+11
2.43128304622e+11
2.26912140415e+11
2.66766565159e+11
2.42512249285e+11
2.42778086384e+11
2.32591796203e+11
2.36991057978e+11
2.38015505143e+11
2.59440842584e+11
2.18104666584e+11
2.57793023976e+11
2.57696114568e+11
2.42890798685e+11
2.39983125482e+11
2.52186405683e+11
2.69089582158e+11
2.46993330218e+11
2.67945278405e+11
2.30350975917e+11
2.37196241247e+11
2.44474157068e+11
2.39897517759e+11
2.1938251477e+11
2.2257899866e+11
2.30498007175e+11
2.72807871646e+11
2.42855984638e+11
2.29529628833e+11
2.64108376086e+11
2.26072659832e+11
2.49422167535e+11
2.47761892034e+11
2.8428231173e+11
2.71440495653e+11
2.6222553938e+11
2.15740566124e+11
2.5011214827e+11
2.56568354784e+11
2.56094965616e+11
2.44286779274e+11
2.62582440072e+11
2.5269412461e+11
2.24492627819e+11
2.48827622413e+11
2.44618167402e+11
2.31995491491e+11
2.52969341174e+11
2.58774841079e+11
2.74048300207e+11
2.0396072969e+11
2.35551812371e+11
2.29435265401e+11
2.43627255555e+11
2.35361925332e+11
2.43489258904e+11
2.3562847625e+11
2.15147599691e+11
2.04073321297e+11
2.35196815343e+11
2.80670901746e+11
2.44558438864e+11
2.34372457886e+11
2.50573370906e+11
2.35009884801e+11
2.6187954088e+11
2.37466684555e+11
2.51811077691e+11
2.65664700507e+11
2.79866722448e+11
2.496662458e+11
2.33266709099e+11
2.468655155e+11
2.53375723159e+11
2.41305166658e+11
2.35590747123e+11
2.35864345344e+11
2.66883231846e+11
2.39454712749e+11
2.10311508647e+11
2.25389712055e+11
2.52306549521e+11
2.4116072706e+11
2.17663795365e+11
2.24669980253e+11
2.3600153927e+11
2.48809351718e+11
2.48305000557e+11
2.56473398318e+11
2.89255732373e+11
