5351588279.3
-2123487175.8
-1306758938.3
2397651618.3
-2805020925.2
2547662313.2
3040419694.06
1751271004.9
14082755830.1
9234404532.9
-859714113.1
3709230977.26
9487115478.15
-4974136342.27
9912938626.8
3937857998.4
1865678518.28
1108548307.6
10583012687.9
-2396304369.3
7671469718.6
5053377522.8
6144628214.0
3052598405.9
7876238215.26
-952101543.9
13286705456.3
2122843496.22
-647616153.3
7207506444.2
-1606861418.4
11844856088.1
-1638155375.4
6204003210.12
5924733237.2
-2748469254.55
559481137.87
698941130.7
11765080234.4
5160364146.8
2983498311.6
5390690019.2
5790732845.69
8523691963.6
14747980525.0
9323912739.2
-2516214463.4
2516880409.2
8567137085.3
5958671088.9
3656846996.79
-1011595835.8
10273596213.8
2269986532.5
3621815170.3
7516661140.9
2104954081.1
-7578005.7
10646354917.6
-4551098519.7
1185051919.2
-251213782.4
6489400172.14
7656280007.4
3136369867.76
3962212077.01
9793947343.17
5533388561.47
3163588719.7
623289162.6
15242930245.6
5031355012.8
-5698145916.0
17239211143.7
-2784175959.86
-4760739985.3
470704891.3
2388459968.4
7432750618.2
11452236588.0
6468009077.4
9514038002.7
-12003188.3
-1333110494.5
8238807182.08
5241904342.1
1043004745.75
5190825449.4
4945067566.8
-9499533499.12
3106748903.4
-2137713591.65
-889164036.89
-676219678.1
723981542.9
6418281831.8
9511841679.1
-5902134637.3
10448136491.7
14913135449.2
