-4883.86
-21989.2
47791.9
184833
170483
92131.6
128773
-5196.03
75588.3
-81638.7
221067
177221
530592
-126404
127210
-409325
80317
225554
-160891
234829
-80006.1
-712461
-328256
-113778
19848.9
-419490
-17348.6
196050
100825
209343
-296895
-106338
-178202
-36190.3
-30739.1
-70452
-35771.6
101566
-236613
-22865.4
202357
57577.3
97935.5
40247.6
-37919.3
-53304.3
92340.4
125988
217072
-326814
109039
378283
527232
376538
294790
263006
390520
350797
47655.5
114223
376552
152660
-26411.4
-82123.1
65270.3
-49525.8
197755
-104634
156948
-89602.4
-279548
-184815
-293112
-361977
-76735.7
-36647
84846.5
-95718.7
62453.1
23.7316
-797785
-224591
-41565
-144994
-310895
-214598
104473
-136006
57629.6
132641
172842
163765
350115
599014
-514353
-199044
11594.5
14267.5
281891
87891
-345922
132226
-389446
-421625
-1.89094e+06
-530835
-6661.27
-976988
-217757
-2849.65
76126.8
320651
543938
-13687.8
-299474
-499824
-139943
-88161.9
-1591.1
130039
261587
124893
245354
125053
83242
-303635
-20849.3
177474
-14528.5
-321276
-56222.7
42856.5
74301.8
122183
-227776
-471458
-219826
-5882
6976.95
79001
-111646
-1818.03
26048.4
18805
-50646.7
69842.3
-257076
-57265.6
-26222.4
20469.8
207071
852586
-254235
-136263
7948.37
49664.6
-162940
-6430.5
-179626
-181317
-170023
-526108
-224244
419752
-48078.9
14408
67433.6
-10039.3
112234
146188
318624
192065
89155
784982
497062
1.3482e+06
445767
546180
134073
-216258
-189080
-504143
-82221.8
14124.2
166546
189886
404090
21421.2
187125
224349
-85957.7
200964
817267
444995
159138
-45276.5
-72197.2
-71042.6
145358
628810
49582.6
-177159
268800
-188707
-57548.5
-135897
-71342.5
-141398
-111324
-32097.2
658375
-129342
-76721.3
-133654
-54444.4
82649
49833.5
57458
-152403
-14596
126838
-289022
-120063
-890842
1.4627e+06
-425547
485527
503904
740968
1.89703e+06
1.11681e+06
749133
852032
322096
535059
302117
560953
34830.3
-148236
85903.3
59647.2
261182
-27254.3
4562.77
251451
151763
180787
-349626
-77269.5
-145577
457422
1.86179e+06
2.51353e+06
3.41437e+06
1.84102e+06
1.3857e+06
761343
832602
723908
882094
410934
347198
138071
82851
667231
281696
-269314
-200392
38756.5
123487
-27312
369716
1.01915e+06
189864
811308
668067
235054
589992
538259
427434
237490
146721
133595
44899.8
1.03404e+06
1.16079e+06
999199
710365
65232.5
208486
357333
121965
-209314
735435
350129
901991
124238
112532
-119648
-48037.4
-793.469
-130217
75220.5
334817
895711
1.67281e+06
1.49006e+06
2.03438e+06
1.36233e+06
1.29775e+06
1.89375e+06
601583
62641.3
189124
281214
325038
234139
-191820
82098.5
-145539
-156717
62789.1
111369
-20953.6
23588.1
-143150
19978.8
122264
445507
835507
92185.9
-20977.7
101080
-156701
110467
16324.3
-78585.3
143253
297862
152208
179829
1.25325e+06
-211597
-978729
-101403
42507.5
189453
109550
774298
499371
102694
32827.2
54060.2
-165643
-261768
6233.58
413847
1.47595e+06
1.15167e+06
554231
472090
280020
473214
334652
937783
2.55448e+06
1.56848e+06
962620
546331
-110632
-355092
259587
84225.8
73806.4
340889
465312
781125
1.1441e+06
2.07386e+06
1.82213e+06
2.26244e+06
1.57742e+06
896382
404256
142685
7724.53
-23041.8
96211.8
46738.9
154661
351374
459294
305383
18765.3
537324
90003.2
487715
1.45052e+06
965397
121506
-115837
155128
158703
-590028
-362271
-104975
-51327.2
342202
5506.12
-220924
-27416.2
-56771.1
21388.7
-73952.9
77055.1
-34266.8
-106519
113436
726754
612263
460669
93378.5
267748
-328822
-286426
-40312.1
-341856
-394703
-299085
-206983
7463.2
-37870.2
-199801
-231764
-126154
-267468
-33502.9
-274412
82655.8
-16320.9
142388
-186451
-129595
-202423
-140778
44724.8
254334
-321029
-71437.1
-121570
-92283.8
-137064
-32864.6
-110969
997.4
411077
-134249
-4606.75
-24945.9
-337651
-446977
-371188
-137334
-187708
-247957
265776
428050
-390544
263906
99704
-149932
-323457
38834.7
-314547
291438
284239
52075.7
235170
295648
173089
-73698.9
-48785.9
47515.6
-81932.5
-71973.1
-53199.4
12332.2
-61385.7
-143173
-51999.5
17982.6
-29213.1
-37293
-90144.2
57845.5
232073
90761.4
171547
667278
279479
-63140.5
58227.9
-197882
-84551.1
-59423.2
-4838.11
44350
87032.5
50534.1
32148.4
-459616
-178412
384592
177914
77306.4
284391
-434393
-338888
106295
113113
-23276.1
867047
170448
253927
197610
407160
163117
143381
711391
610031
238736
584093
734046
522803
120929
142878
-77251.1
-4478.73
-76439.6
-462435
-41982.4
-15551.1
36709.5
724482
6358.18
106415
-277649
-203848
30417.5
203768
-64057.9
-1.00174e+06
-885784
-159779
5521.66
478407
108629
-70634.4
-197519
-107422
-61687.3
15748.2
55139.7
266102
-221850
-144888
-365128
-215728
8824.93
5239.62
-351681
-22620
316773
179371
420226
733942
326021
322897
361942
136118
603071
-72638.5
111635
140882
-12394.4
-243342
-135481
251201
300066
631576
697748
1.69737e+06
936101
128204
400042
346210
141589
-227614
-171881
233286
171284
487323
132542
48888.6
-25468.2
286560
279048
508364
1.34436e+06
380961
251465
101615
77246.1
72474.2
352737
567796
1.53429e+06
1.28256e+06
868538
727769
749003
1.13411e+06
839985
1.17161e+06
845448
497443
209979
778743
591648
220574
657848
1.2492e+06
2.42681e+06
2.4879e+06
2.26134e+06
2.57584e+06
3.31018e+06
4.07974e+06
4.34692e+06
2.28492e+06
2.01592e+06
2.30981e+06
1.92467e+06
1.98103e+06
1.88345e+06
1.08157e+06
2.56622e+06
3.56402e+06
2.31555e+06
739147
1.47483e+06
1.68748e+06
2.90584e+06
1.74709e+06
3.53178e+06
2.0142e+06
816373
1.12057e+06
921669
2.16103e+06
-659827
-141116
707640
394055
305272
324824
147250
109000
328337
-139882
89023.6
196691
87318.1
68317
297515
21990.7
-105304
-61226.7
135661
421441
463869
473528
325878
49054.3
221164
317168
175925
309412
-183843
11230.3
-229654
-1228.08
-66188
-2809.08
17721.3
-62498.9
-24576.4
211334
306639
345119
-167700
-195361
-132091
43533.3
425341
494471
71554.4
964480
748327
1.11194e+06
1.55751e+06
1.52681e+06
844148
470299
9470.09
536851
1.34759e+06
1.60735e+06
861957
317503
1.95178e+06
730211
1.02217e+06
692346
586259
809537
850633
928191
970264
896461
103512
-323601
2.0541e+06
2.21771e+06
3.86229e+06
2.14926e+06
3.4809e+06
2.50611e+06
4.23718e+06
4.30086e+06
2.66196e+06
4.19542e+06
2.77464e+06
1.57043e+06
1.6055e+06
1.60855e+06
1.07254e+06
650937
-51735
911693
391153
770462
347925
509105
259966
130941
278209
693041
918934
658395
464238
218673
1.94639e+06
1.19502e+06
734310
668834
1.30566e+06
2.78355e+06
859274
1.08588e+06
792709
424340
186569
646445
954505
1.55363e+06
1.44042e+06
1.17289e+06
818749
1.24267e+06
1.41085e+06
1.02324e+06
1.79302e+06
3.51575e+06
1.13337e+06
489749
912072
496095
720926
878652
355392
401694
-51585.4
-334875
300746
-18311.5
-141513
-229227
15732
6884.94
-15705.2
4906.42
5501.23
64001
-398230
-207732
-54202.7
51324.6
15064.2
-500156
-314727
-32661.7
13483.9
203689
138324
169489
227902
-6100.36
-267306
-713852
-1.63084e+06
-1.19978e+06
-567325
-966483
-110857
-20839.9
156313
-1725.35
525270
33767.4
260919
73486.4
123188
-110563
158768
68694.6
-22657.8
125481
273529
1.33533e+06
2.27874e+06
1.04599e+06
584487
549458
337074
-34019.1
190681
18869.6
52890.8
-659635
-26554.8
-784425
-135283
-517123
-834027
-387231
-425962
399055
1.3263e+06
900330
1.31091e+06
1.40367e+06
1.16852e+06
787477
714446
846510
233352
39468.3
118324
392310
944412
831740
286811
91995.4
-51552.3
-87594.5
-14243.2
67067.5
183419
114483
192192
1.58826e+06
845423
1.15421e+06
1.36879e+06
1.29654e+06
531377
524563
324378
845129
1.50051e+06
1.22797e+06
272344
411945
500737
1.65464e+06
1.51035e+06
945459
462582
1.13297e+06
479450
285224
-344878
47527.7
2488.38
116969
378717
327265
623072
1.9727e+06
3.56593e+06
3.00837e+06
1.77094e+06
1.43464e+06
275157
-24885.8
-212297
89588.6
38683.4
17642.5
-37494
-229042
-147260
-62839.8
116724
395710
238602
251523
105353
263483
1.12398e+06
892969
827296
920034
266456
224946
-200107
-106676
-28100.3
-522.576
545561
640495
117279
214690
45461.1
157141
224690
357975
773145
92889.2
797488
35761.5
-98437.2
-492865
313455
-63499.8
-102980
478341
997326
260496
240895
428955
1.28355e+06
1.75738e+06
3.41864e+06
3.34586e+06
2.97126e+06
1.3142e+06
278295
-130311
95020.5
330669
259462
583998
368297
161927
110917
139385
1.16969e+06
303125
215996
281826
136813
-299410
-155820
205343
101706
160547
42107.4
211593
7123.38
-113460
93282.3
29715
-179802
-73236.8
-291566
-210158
23633.5
186365
150968
340319
154851
556514
1.76499e+06
1.18993e+06
1.57366e+06
127568
314804
1.12617e+06
1.4829e+06
828384
665290
1.05737e+06
2.73777e+06
1.62189e+06
1.16487e+06
400393
-26675.4
381626
799019
651436
194037
-129207
-65790.6
-357932
-212868
-257518
-209709
115539
-219529
158112
429285
243850
759609
1.80036e+06
1.28376e+06
911462
744544
2.31182e+06
1.44071e+06
1.27049e+06
3.10847e+06
1.73055e+06
4.47207e+06
2.50241e+06
1.71065e+06
1.02086e+06
1.22975e+06
1.36927e+06
662538
149496
238396
-17935.2
808419
2.11909e+06
1.53455e+06
819010
430464
197871
601019
308407
290140
177211
1.19145e+06
978528
399711
122964
-884865
-536687
43626
5352.08
-751505
488328
-272070
107328
-15963.1
85857.3
87717.1
-286271
-1.63636e+06
-708815
-122801
233960
1.03037e+06
3.22301e+06
569869
747687
1.99283e+06
877905
1.07768e+06
149396
537918
-62226.8
656270
469503
388959
719791
1.14345e+06
657866
363615
431312
727391
1.41423e+06
1.97883e+06
321393
-4519.92
144014
-249739
184056
173153
-232042
359052
369618
118431
715496
2.03076e+06
201272
584569
1.80415e+06
952732
197459
420044
36999.9
-26961.2
-69000.1
-545189
-387450
-130011
109470
693704
406850
5132.51
18036
278467
68608.4
-76615.2
66818
6508.98
112134
-438616
-237522
179355
98702.8
263355
154486
236806
185291
204632
421102
325177
-25916
63874
-25037.4
-46842.8
159800
43377.8
300596
303698
71534.4
-47488.4
33211.6
83005.4
-33311.6
63242.3
25929.4
-75489.1
25833
96239.6
-18904.9
198505
-130699
140760
41188.3
254345
315687
498243
746194
105378
199235
254720
70965.5
48160.3
73424.3
533758
516800
255234
-255367
-371211
31876.1
24144.8
316820
-75630.8
-174186
-26850.8
-582962
-215387
561857
320680
406371
241936
392254
65263.3
1.05031e+06
-255369
-426439
-457169
-441011
-1.17096e+06
-1.91897e+06
-332772
-67401.1
-206405
188229
280909
323903
221808
-59793
-356946
-1.00273e+06
-774599
-709422
-333493
858679
530693
-66315.7
257518
298154
357631
106364
-123101
-417583
-620784
203700
552955
225908
120897
98288.5
93725.7
77112.7
-76230.6
-199179
-166716
34919.7
-18380.8
66856.3
246183
737857
677201
1.35187e+06
1.36813e+06
2.83943e+06
3.17636e+06
1.77118e+06
1.05624e+06
396192
1.85345e+06
2.82682e+06
1.68599e+06
1.34957e+06
1.32624e+06
309280
703701
558527
293651
1.08142e+06
830568
1.27283e+06
1.64658e+06
1.54856e+06
784195
-38855.5
153943
251835
451108
278245
287542
275496
343007
214445
794274
197359
748284
239629
397797
500435
344473
175163
-209309
83831
-189697
146422
-84989
-76385.4
-27910
106693
96298.4
-148634
341132
-258630
-322774
-801735
942602
429611
-598028
69011.9
-137695
388545
229892
1325.09
75252.5
203341
906483
83201.4
-76657.4
-228145
21964.4
43425.5
-168632
-55982.4
-25717.2
34058.5
-60.7369
-4681.87
-37799.5
-55803.9
136378
-202932
-3588.03
487688
-720.259
-21782.1
94477.6
36827.2
-146192
176253
72183.5
505999
-9931.97
110515
68702.2
454712
386450
1.2274e+06
2.07245e+06
1.79991e+06
1.36961e+06
1.15165e+06
937726
410120
431494
471515
611931
813081
684820
527873
491968
274273
99693.8
153143
184146
865.117
220958
7165.93
-34417.8
-132624
-211071
-906329
-1.02992e+06
-81012.8
-263762
-86441.2
-48488.7
-12832.8
55920.9
-263347
-88834.7
89276
181478
113675
-223156
98424.7
462271
211022
298164
516980
3.24841e+06
3.47068e+06
2.51744e+06
1.44548e+06
1.45003e+06
568786
270621
1.66567e+06
2.16435e+06
2.98089e+06
3.44232e+06
2.74645e+06
3.3733e+06
6.68528e+06
9.04644e+06
4.7477e+06
4.38732e+06
3.13414e+06
2.57749e+06
1.4268e+06
1.9984e+06
1.73575e+06
2.64447e+06
3.38694e+06
1.51681e+06
1.04301e+06
3.03721e+06
1.61631e+06
711953
1.13024e+06
1.45672e+06
1.23923e+06
-581014
-210314
-57818.1
162324
-315508
-252001
99266.4
34951.7
-560190
-305186
-491328
-326409
-94589.8
-53898.8
-53244.4
-102299
-97836.3
69174.6
372429
37615.8
44085.5
-837501
-200199
-40954.9
-39340.8
-361640
58005.5
641994
688067
148039
1.1596e+06
873120
632402
965171
240207
1.37375e+06
937195
1.40782e+06
1.04624e+06
1.00793e+06
162399
1.59687e+06
298069
661855
574988
2.12712e+06
1.5503e+06
634456
140313
134983
-101465
-428397
32880.5
-197700
-241293
527034
149968
-206729
333909
-31768.7
299874
-54794.5
86844
601185
254507
1.15237e+06
1.07534e+06
2.85067e+06
3.06744e+06
1.39025e+06
461283
694947
-39928
147200
94592.2
92010.7
85155.9
298905
452589
220188
-349978
10017.6
-18358.5
-39840.9
-60650.5
3918.29
-17632.4
-125020
166738
418264
138027
201507
578738
1.25914e+06
2.61993e+06
1.3728e+06
2.11997e+06
2.08751e+06
2.8121e+06
3.51044e+06
4.02935e+06
3.77041e+06
4.82286e+06
6.36804e+06
4.07553e+06
4.06829e+06
5.08162e+06
2.72522e+06
1.58588e+06
1.12992e+06
2.00368e+06
4.43211e+06
1.43245e+06
1.75098e+06
1.27488e+06
1.28358e+06
96593.3
248184
305307
88685.5
186063
-38211.7
-4518.19
-48180.3
-3120.87
-6161.56
76827.4
-63572.5
-74382.8
19521.9
-5165.08
-243580
-13650.6
-156601
237686
59325.1
-447812
-274444
1.03986e+06
1.23361e+06
534200
807407
46064.3
1.60575e+06
692064
966498
728662
514107
771973
442314
286034
353040
19563.9
564111
79267.6
232236
134712
24313.6
37376.7
66618.4
182704
106891
269938
197743
596073
407114
273120
294637
402291
242109
-29211.4
280507
213340
459975
994228
2.58696e+06
3.37677e+06
3.71164e+06
2.53503e+06
2.23052e+06
2.58857e+06
1.6817e+06
1.74967e+06
1.66753e+06
803793
1.06438e+06
1.11236e+06
837993
949299
891506
831440
135164
236413
623144
890819
1.22696e+06
888456
284503
-348898
294387
-134485
210235
1.02425e+06
531810
58835.6
57879.7
-683533
34859.2
-11275.2
18972.8
-84276
75151.3
118637
152329
-550507
432298
136892
291941
144773
36021.9
19477.4
-55023
108276
-66914.6
-93299
-2688.46
-252249
201968
-44389.2
-49699.8
-103693
173236
86716.9
100435
1.07965e+06
1.06706e+06
987442
69775.9
-13882.3
269880
295913
270990
221587
24740.1
105357
246776
51288.5
80243.7
186531
-406068
-356868
-26093.5
-2296.16
212480
115222
149835
102275
20584.8
-196142
-466145
153853
251195
546501
52886.2
-238789
-198934
-725345
-328092
96105.3
222686
127071
157484
58135.5
-384768
-448672
-265414
-130408
-171252
-21655.1
-159956
-207211
49562.5
289339
622381
1.51266e+06
629233
708245
1.56918e+06
800473
1.54544e+06
1.43718e+06
528872
223027
120029
134735
307117
436322
82239.1
-653552
-176675
244235
696291
374051
754686
606564
597120
841508
1.0767e+06
383975
643090
485718
603735
-4385.59
-86362.1
23763.8
73380.6
11491.5
336040
232418
59541
325273
470135
-388689
472835
545308
-470137
-336677
846514
378421
-657109
-250628
-78480.2
1.23689e+06
651167
856866
436186
409436
361054
343047
220482
-492211
76298.2
43490.1
27759.3
309144
-123621
-103884
366164
211250
-170409
-130570
363905
373570
-91275.6
302800
4458.95
-2630.67
390340
969794
1.22377e+06
813613
380573
211042
102724
427167
191428
39265.8
-45728.2
83463.7
334961
15475.7
414034
148224
-39388.4
-187046
-69374.5
690094
456402
969974
968634
157141
265557
429620
75698.5
-88279.3
-34939.9
-55407.7
-878.43
24041.7
59435.6
13455.7
-23239.8
550584
-127119
-349411
301310
1.32935e+06
88814.9
177154
213518
249343
605308
527938
861183
3.30786e+06
1.43617e+06
1.27035e+06
992665
521104
4.36808e+06
2.34428e+06
1.29903e+06
848099
425669
337296
588683
501858
304447
647804
-84445.5
134167
-13298.6
-52066
-8393.07
-205886
-164795
-157583
-345420
274563
524461
117661
973410
776458
1.28238e+06
1.58935e+06
1.25948e+06
429031
462852
801698
671398
613655
878309
489278
272224
755622
445889
1.0525e+06
176182
-163181
28660.9
14247.7
-273061
107301
-66201.8
-385160
-273979
-56352.6
39002.6
74943.3
-115333
-82500.9
-14038.8
184064
82854
98044.7
64512.2
44844.5
290632
-44006.3
428913
274259
31975.3
275082
86026.1
95042.1
455369
155809
94740.6
-19618.8
-537385
126618
687415
785873
916660
517867
86499.3
-165205
-267394
82359.6
-203643
-17213.9
336199
368476
-572114
600912
426447
208114
258342
195643
131252
196958
266172
96791
-88.6335
-169979
-32509.5
-1296.06
451835
387415
411807
464327
94976.7
298465
-812333
159713
-707432
-674337
-891539
-589203
-29270.5
559508
235420
228001
937290
542334
633035
1.08496e+06
2.08734e+06
307249
624577
966153
1.36846e+06
1.85087e+06
844621
860736
1.77077e+06
1.13462e+06
957325
-152233
-11328.9
480799
954639
492640
626232
131958
32212.6
-333590
-374528
-38278.6
-232885
300997
148720
19512.1
-21945.3
298821
110777
-158189
99450
-110083
160749
-187504
169290
183080
35727.7
10395.3
32081.2
-42166.9
120387
165490
319585
255656
573304
592349
368847
47161.7
-120790
-40621.7
-223129
256201
904944
232410
837863
1.19262e+06
1.46079e+06
1.41828e+06
1.95435e+06
1.41803e+06
4.14738e+06
3.21678e+06
1.64356e+06
1.45262e+06
1.14185e+06
1.32287e+06
701593
742276
4.02102e+06
2.4521e+06
1.16292e+06
912013
910440
706241
447094
101407
-72061.6
206900
29721.5
44598.6
14624.5
-49489.7
-33512.9
3756.93
31515.7
3798.29
92078.1
-67856.1
-633573
125558
353190
-65199.8
-87684.3
23315
45535
-126932
-258832
-262772
-60480.6
-38668.5
-167387
79592.9
224276
-43566.8
332653
335489
206645
198331
402518
1.78402e+06
2.37985e+06
3.30298e+06
3.38677e+06
4.28914e+06
6.80441e+06
5.22761e+06
6.33238e+06
7.3784e+06
5.48214e+06
3.96119e+06
7.5762e+06
5.93021e+06
4.66776e+06
4.94295e+06
3.5413e+06
3.93173e+06
2.08588e+06
1.47116e+06
1.01325e+06
1.28895e+06
2.50338e+06
1.80078e+06
733816
721203
1.22991e+06
625959
1.76777e+06
2.40533e+06
1.23249e+06
2.11119e+06
855854
3.14817e+06
1.60544e+06
2.05808e+06
2.05967e+06
2.80969e+06
2.04773e+06
737415
871209
941361
547085
174121
131713
359317
262923
121984
-49637.7
-324710
-307001
-285374
-36908.6
-47530.1
-199194
-244229
-106102
-85675.9
-178666
-36392.5
222848
110992
-196167
67154.4
61291.2
32658.9
16006.1
87573.5
575514
90194.6
62969.9
-201785
-125348
187446
154791
-168100
2857.76
80077.7
1905.09
-153032
25230.4
985747
3.06557e+06
4.33682e+06
897078
445513
119284
-611656
-266310
-91584.1
61707.2
645.307
52643.2
-12781.8
89057.9
109794
546348
-109965
-16912.6
60829.1
127163
186220
381601
330149
332590
161833
81712.4
299657
16443.2
248480
6602.1
-45881.6
-23486
-123094
-222748
-413984
-793804
-23452.2
367930
601628
484177
147617
369440
137901
-299180
-31024.8
-142009
92066.3
-4161.71
-137543
316613
-521413
-1.20516e+06
-270991
-324175
-2595.34
-148233
434355
168371
328101
551441
315268
313309
1.0747e+06
324242
29606.7
221537
387236
792162
853060
371632
637846
217377
534954
302260
162816
141443
-52174
19371.2
112222
132961
-37410.3
-150047
-186108
-232306
-176470
-507862
-329684
-553803
-643157
185513
-736324
-499117
-578487
91175.9
155555
-61537.1
-394234
-160385
-112919
-87058.5
-29310.3
-209570
-29161.2
-14436.1
-32445
-546339
-679248
1.62331e+06
1.42828e+06
278358
347667
254526
-285741
463804
239346
-189121
149301
54030.5
55677.2
-73826.5
-48173.6
-146495
-187602
-94592
275436
582555
313859
-24336.1
65785.8
-135060
-315302
519276
304242
183036
114835
171155
56612.6
127646
94390.9
-36399.4
-129816
-214268
171398
114966
28868
85383.6
-181729
468458
2.29374e+06
492644
469751
933803
675808
641352
76902.3
258780
328029
302061
46193.6
175542
87543.1
-91011.7
-407033
-165848
62748.2
-372628
-706820
-312411
346655
591589
199812
235767
-864111
490474
625657
256509
78345.7
-270805
-214971
446147
372855
-153028
-155188
-366506
273435
-233159
161968
-65272.5
169069
159731
271532
231238
506285
855225
538919
78507.9
127826
20078.5
842.421
-541969
77256.8
93105.9
-86504.3
338334
156955
188927
873209
560257
1.0993e+06
157152
272898
547086
343037
187791
665697
1.07908e+06
848849
857569
745148
297849
209187
-71622.2
151781
-78132.2
751001
269678
-197938
371447
1.38238e+06
1.79209e+06
621021
1.35973e+06
728265
-127757
-130314
-80689.4
35697.5
219782
68927.1
40142.5
339844
602539
893998
657956
1.11441e+06
614708
21440
44138.6
41100.2
-25579.1
-19017.8
53637.7
158710
61317.3
140178
155248
-111660
30398.3
-573210
-195656
-297030
456800
-247681
-213590
35376.3
58616.2
-189143
-84575.3
105932
191376
616379
3.5355e+06
4.8504e+06
3.01537e+06
1.68592e+06
2.60374e+06
3.67355e+06
1.44185e+06
573864
-1.04605e+06
174231
457875
258993
386752
917212
557046
471992
383944
200047
353019
353497
124505
68203.4
580540
324557
78093.1
85798.2
316456
121778
492609
1.1512e+06
1.19075e+06
160040
623307
1.27723e+06
416703
1.08176e+06
1.81302e+06
1.19938e+06
220176
467163
516230
870903
505108
266360
123123
-9715.33
12296.5
-115003
-66559.5
25425.3
-283000
278114
337157
406120
-19327
60463.1
-32216.2
867289
7341.86
177991
315146
285049
208948
306729
121362
289839
745008
456417
-148.107
100712
-97133.7
303447
-647415
-782192
186107
205530
1.09597e+06
1.46139e+06
750758
204245
88625.9
156569
463868
633094
546356
16764.3
827551
263066
95307.2
283198
1.15489e+06
752071
1.4855e+06
2.62026e+06
1.67157e+06
1.14617e+06
613652
459186
238260
1.02906e+06
1.09259e+06
512042
559854
656501
309818
544847
1.14339e+06
947314
1.2083e+06
308499
-16327.3
-567993
-203487
-120792
-405516
-204444
-9235.66
168502
200644
-71314.9
206925
-24227.3
228755
-226681
-513757
-50322.2
39501.7
-110054
-20339.2
25261.7
86012.6
116889
-18689.4
280623
260525
484366
403072
176436
146247
138623
261640
287089
210064
-194596
222890
835441
728941
30067.3
-291948
136965
-10695
380782
-383754
84590.6
-52974.8
-102785
-109729
-88250.4
31280.1
-60772.2
-192432
-140653
-11045.4
132620
232706
179530
915571
4414.43
-61504.5
462505
197882
-12443
-191481
-55543
87341.2
514795
167568
85293.6
-10114.1
-95162.1
-401824
144167
10115.1
255669
-19046.2
-27316.1
74163.7
9041.95
227156
-114426
-66618.6
-162372
-102980
-45786.3
-10929.3
-33353.8
-268072
-236240
-194792
42202.8
2961.77
-72311.2
46381.6
116541
208463
390174
905765
672206
813866
522957
399185
894947
1.04985e+06
729507
355606
415350
208981
-283475
-118000
-72237.7
486782
981342
262765
-201709
-165244
-42346.5
118071
517614
508462
310337
37169.5
136048
162401
-230922
26745.1
-830992
455005
829735
57470.1
33713.3
-213608
-121131
167540
-543932
-189170
-55629
297481
380906
277635
628458
494650
416903
343002
260898
305867
244276
339062
1.42522e+06
1.28832e+06
834442
722126
-46563.2
756208
163160
469433
463672
-585620
279745
43962.9
-113428
348499
1.28501e+06
1.66675e+06
3.3281e+06
735191
1.14245e+06
969395
-20806.1
113127
-483.906
9965.92
-163270
9314.41
31217.1
143340
-302439
-162529
-283826
-102817
-129650
-130629
135916
-127814
-59491.6
339385
786697
732267
1.02623e+06
2.32927e+06
1.57009e+06
1.27892e+06
234982
328018
327859
335225
268430
548659
1.17998e+06
757298
1.95071e+06
2.07503e+06
1.63872e+06
573058
45489.7
-13611.1
221820
107440
97622.1
189852
-55951.6
45865.3
260441
360885
228955
140750
72004.1
42899.8
30457
818756
1.38526e+06
2.00838e+06
2.79811e+06
2.1895e+06
2.19031e+06
4.22353e+06
5.50114e+06
4.3737e+06
3.06015e+06
2.98352e+06
2.541e+06
1.20742e+06
1.06096e+06
488961
188798
265488
-159164
73368.9
440930
422196
272055
313276
202421
-62404.2
1.16588e+06
544796
-393541
262079
95666.9
378629
-294386
-76090.9
-67648.9
-137344
-105985
-159983
-4060.67
8402.58
-7957.37
-318456
-183728
-69559.4
211002
110570
65187.1
318828
662240
517512
352702
640922
305317
167607
234042
64404.7
230163
145928
-88298.4
-214062
664503
176988
493589
754248
956300
1.27722e+06
550054
1.06658e+06
1.38785e+06
3.42335e+06
6.15636e+06
3.65864e+06
2.22997e+06
3.72453e+06
2.52931e+06
1.78036e+06
833522
790522
213727
430953
155058
187270
-61527.8
131541
35842.1
-33918.5
135550
-1873.94
-32533.8
-142662
-138149
-73082.4
-177257
-216473
-58627.3
-12866.9
-185950
36546.7
-19106.4
-56448.5
-186357
-141466
253908
-197101
138819
253105
487279
776595
638438
988149
845046
731488
538645
330387
171306
555988
299751
274812
266394
704717
436762
732359
144150
67876.3
-210918
-516616
-493231
-643065
-486859
-279371
-175695
-46699.3
483175
593105
464678
702107
758989
2.94459e+06
1.84251e+06
1.37814e+06
2.3752e+06
753646
1.75944e+06
1.19376e+06
834571
952906
1.76191e+06
1.24563e+06
1.56778e+06
2.71982e+06
2.28769e+06
2.10763e+06
945994
1.12061e+06
1.28467e+06
469785
673211
375525
997683
244195
317511
525604
529889
150782
311214
348691
-209812
389972
358761
319371
218843
430789
1.57234e+06
1.00869e+06
1.12005e+06
582235
1.08879e+06
1.52041e+06
869261
1.05205e+06
997281
760722
990286
532590
1.23749e+06
2.67373e+06
279943
697578
1.58968e+06
1.93059e+06
3.31653e+06
4.90797e+06
4.55201e+06
2.97233e+06
2.01493e+06
760864
1.06277e+06
737800
1.57599e+06
2.18361e+06
2.36152e+06
1.13424e+06
1.44597e+06
405873
347362
53915.5
172266
70359.7
-41458.5
-132162
186428
-44843.8
75648.1
-56154.7
251298
-99081.5
-18105.1
-1.49904e+06
62590.3
-265935
196350
435051
641611
496601
141438
506729
208352
331297
18178.2
178050
301979
423923
202068
-181470
-766557
187432
102390
644414
527150
529852
101621
82887.3
30020.4
-117596
-28390.6
325993
103165
138079
33037.7
334181
-266958
-540417
-354564
447093
43454.6
3188.6
-425846
107287
-201052
-356650
-9736.45
-68907.8
-647400
-194606
-276949
-56664.4
-32509.9
-369515
-54975.9
-115772
213808
272870
243414
43708.5
330657
677676
695247
1.01196e+06
286335
71037.3
104334
-216233
-921113
-294110
-23650.1
-104580
-41428.6
112437
589809
205606
357885
506039
212325
196966
-115903
33561.3
400248
-8029.87
374374
522783
1.13039e+06
1.08324e+06
597245
960777
107307
705268
821139
575333
203488
4178.16
81460
239139
-23186.2
-59203.5
156853
343438
-399549
181373
-56000
878603
335157
66274.6
799116
88568.4
14979.3
47393.3
14879.3
193872
97780
-55059.9
-24737.1
-92129.6
302217
-38811.1
-240775
-55560
-27838.9
834152
1.90211e+06
3.02613e+06
2.15939e+06
1.27476e+06
1.29101e+06
373364
244950
286939
64311.4
983654
2.42053e+06
2.64488e+06
2.01164e+06
2.41324e+06
1.26627e+06
837343
805197
1.33458e+06
960602
655518
1.02318e+06
517223
807255
344066
464249
664373
287226
162544
21237.1
25242.2
-121007
38444.3
83124.3
37014.6
70818.3
-48746.3
-29526.5
273926
629194
1.89818e+06
4.16259e+06
5.59899e+06
3.49756e+06
3.58721e+06
2.72063e+06
936916
649959
1.87007e+06
1.39414e+06
-70239.5
234243
1.36733e+06
1.30152e+06
969797
376972
92044.6
525511
283277
841318
576834
1.36093e+06
1.42824e+06
1.51496e+06
830678
-76920.8
391741
-432161
-593873
1.3882e+06
974768
247958
725193
444982
802703
691423
188076
596633
478932
2.31183e+06
555249
469312
310232
649340
1.0368e+06
1.38726e+06
205483
63999
184073
365970
139552
116482
335778
152179
76739.4
652884
48909.9
-23186.3
17675.3
-163906
-122190
6866.99
78247.2
229858
-54663.6
-130016
-185428
67280
177936
-16567.8
497988
707972
777792
1.03301e+06
237457
660624
591125
91772.7
399366
638438
-5936.69
-46118.9
313964
173379
170874
178473
-220319
118536
101327
248025
171646
466471
185344
480625
231604
-594878
-986267
-1.21796e+06
-672497
-306356
-757098
-287445
-47088.7
211662
324737
159656
123874
679577
541928
275828
519655
920589
1.05621e+06
1.01442e+06
742526
1.50426e+06
1.34574e+06
3.4837e+06
2.90969e+06
2.22038e+06
527073
295370
343047
-228132
437332
96961.9
105671
130922
-12461.1
-289325
163627
-22219
128724
-46536.9
-96675.9
-530860
-309241
210199
307919
-38099.2
163064
-258126
-54448.8
407493
485847
460173
1.31994e+06
606278
363938
442613
-59212.2
644954
124626
264050
1.80332e+06
1.87064e+06
772421
813568
740163
999634
707002
544087
327924
542246
29559.4
203251
-13778.6
-69680.1
56212.4
124622
-19982.2
88060.4
120719
-108307
-172812
-97784.8
-117759
47069.1
768704
547779
625710
665303
936557
389100
479484
1.09161e+06
463799
450622
450967
1.12165e+06
1.26397e+06
1.16531e+06
743409
1.10859e+06
3.34894e+06
2.92264e+06
1.96374e+06
1.5428e+06
2.80873e+06
1.39311e+06
730062
1.59767e+06
453456
658730
184203
541007
-225180
1.71608e+06
3.84772e+06
1.69166e+06
757436
545511
407693
351788
339874
-360901
-2129.62
-215243
-183436
-167481
-181136
3445.56
197977
19786.8
34067.2
25586.4
131662
641632
282246
172532
475803
369915
322243
1.37912e+06
2.05434e+06
1.25413e+06
750090
21168.2
42612.1
659396
674479
684857
757200
1.99708e+06
1.31246e+06
1.90853e+06
2.86556e+06
1.0335e+06
660968
247572
619189
1.78496e+06
656206
383150
698877
626292
2.03105e+06
3.35105e+06
2.68839e+06
2.43315e+06
930181
782556
413167
276620
88911.6
511249
409108
1.15331e+06
239040
83412.3
1.96785e+06
1.18674e+06
418038
626063
777367
527888
157361
141397
85186.7
182736
443584
239452
27134.2
138632
58359.6
259564
251332
-116935
-18196.6
60894.4
-124198
104948
-2442.17
117179
22899.3
30058.5
-6710.39
-59709.3
-24525
-89462.7
-102034
149381
93735.8
388449
-93787.2
-195880
-442185
-1.13298e+06
-912449
-281636
-91537.3
218836
864836
807880
502222
631308
766274
647221
36897.7
-189493
-30022.6
16782
-175639
172675
-238452
37171.1
173200
-58671.3
67554.2
-12758
-33791.8
-8097.96
116220
49747.8
80155.1
-64694.4
58018.5
-9418.47
-537093
-760917
-872996
-592523
-650108
-257846
-321574
43346.9
-19513.1
-11237.1
-49545.7
-416239
-102769
-247103
-193940
-625327
-526452
-1.20566e+06
96038.4
468426
871609
2.93866e+06
773497
981160
1.09469e+06
514276
1.10107e+06
914979
382710
497098
133753
168709
222262
138269
-26316.5
225637
42098.1
1581.21
234903
131260
-16232.4
-155375
-67456.6
-36797.6
-54073.4
-595335
-168310
-73350.6
-1087.97
-97756.1
321045
860533
1.99104e+06
1.3149e+06
1.6346e+06
493527
905468
980831
1.03775e+06
1.05008e+06
362276
250660
-27467.8
-88101.2
-46886.4
190701
103096
549897
91732.9
-97391.5
65750.3
71147.7
298119
384913
479191
2.2357e+06
926435
761170
686627
507072
-35331.6
-199229
126569
1.50239e+06
1.27848e+06
446365
602868
252425
706316
1.15362e+06
830271
2.1958e+06
1.1076e+06
130951
1.08888e+06
3.67961e+06
3.41603e+06
2.82968e+06
3.39081e+06
3.46005e+06
2.73667e+06
581229
743410
382693
244718
1.0446e+06
389945
1.24503e+06
1.56699e+06
506669
1.01137e+06
943518
425804
416452
511451
429293
404888
709506
251995
221962
102485
-436358
-98144.2
-506291
-296069
73893.5
446932
249722
201230
348108
646101
635549
135732
569260
621422
-184027
-857975
228942
-873486
775237
303509
945471
5.20125e+06
3.45799e+06
1.32471e+06
689480
750038
720222
285143
-40824.6
142720
594347
377397
243018
192759
1.72701e+06
682748
707851
766844
1.20979e+06
2.40351e+06
1.14636e+06
1.31583e+06
145871
1.03848e+06
39905.8
1.3979e+06
3.02348e+06
919691
578599
667128
1.66417e+06
730547
837142
524899
281539
263868
134206
385913
-97615.1
-206666
943520
-333017
-266363
-173755
719213
290938
122728
47331.4
151994
39756.8
93009.6
-4906
293055
191485
66992.1
114915
198350
-57196.4
-387268
-1.13177e+06
-1.71871e+06
-199056
-197236
2.38977e+06
-338108
101414
-60381
-306881
486907
179990
-13343.9
-204721
128957
-133350
-47452
-42799.5
2831.48
456176
268537
156633
72027.6
27313.8
161885
102408
122016
15980.2
-329445
-388623
-452244
58532
194138
-64708
28964.2
209770
165626
93491.6
-39589.2
76797.1
114174
55411.2
190488
143924
49722.3
112494
80607.2
93939.5
-31167.7
-111769
-72163.7
-71882.7
-82327
-95867
-408075
172553
326540
276392
432383
624336
818020
1.58778e+06
1.21217e+06
2.07747e+06
1.68295e+06
2.41442e+06
1.27498e+06
1.79411e+06
2.25543e+06
997356
701871
539809
-80013.7
-128748
185424
295633
187603
-1.14261e+06
-489244
-435555
-286995
-112357
-393407
200777
268857
114560
794906
-408900
-707073
-175537
-461815
366100
257312
-661977
-771175
-159426
327911
260629
1.17843e+06
810362
563204
1.11875e+06
1.24871e+06
1.29139e+06
1.12071e+06
343988
272615
53442.5
198650
61525.7
244761
620455
321040
746910
-71118.3
9321.68
-6512.33
131773
92615.8
133433
57508.3
110645
594232
157582
-520840
-131307
90269.7
463471
310619
1.42403e+06
277016
940070
913753
2.85047e+06
1.51851e+06
856386
1.39572e+06
996682
503395
-225862
-150805
482780
-241712
-437998
-596169
16929.8
301948
131724
1.18843e+06
1.74897e+06
559955
863579
439639
705798
1.67413e+06
1.93918e+06
1.16471e+06
468440
497993
229126
-43480.1
-126567
-134263
373457
436141
908105
44265
5293.87
-36427.5
42804.6
-67115
-58971.4
-16524.9
-237936
-4497.1
-65009.3
263931
272632
450034
545843
884479
189401
87923.5
-395662
69135.5
-103989
-309839
-379294
247837
-142993
-8461.33
81694.7
-144446
-10264
37822.9
536589
256820
92609
85259.1
195712
463533
210812
141954
6418.97
-58707.8
-104200
3821.94
16230.7
58236
15826.1
-6771.23
-285393
-66713.8
25527.6
-88938.2
34709.9
24565
-277397
-104065
-96752.8
-152395
-384746
-607212
40478.4
40000.9
13104
26718.7
-40904.7
-238130
-131017
-52165.3
49008.7
61557.5
391156
169566
348868
768205
327913
102262
409499
253415
92607.6
-709571
-29511.7
250998
288283
-31138.5
193157
361786
525787
622192
1.12432e+06
1.37241e+06
1.35626e+06
395894
1.18668e+06
1.35201e+06
1.33524e+06
1.51185e+06
1.07954e+06
337128
390717
159190
629415
370952
2.17275e+06
669288
785127
475278
827261
993569
878327
407213
-105869
1.1778e+06
1.37406e+06
2.2565e+06
2.38578e+06
102992
330823
372968
383997
1.46908e+06
761775
772747
63742.2
421496
382160
7813.21
-61116.6
8105.65
34642.1
-45812.8
111678
-79093.7
-119725
128677
258694
-994930
-26220.5
2.09081e+06
1.27639e+06
1.40957e+06
891865
559386
29289.6
503494
121360
19333.3
103250
-73086.3
80027.8
29911.9
-56504
98507
19247.3
-146808
-158967
-23152.9
-95027.4
15488.1
-691296
-939361
-858291
-7934.96
-203622
-652062
-259435
-167307
-130006
-94669.2
168221
223808
358337
-195848
412938
-534999
745351
-255822
244130
1.48453e+06
825631
807185
427021
1.28298e+06
1.47272e+06
524133
724090
1.72311e+06
3.26438e+06
1.51446e+06
996744
756827
748040
1.03388e+06
512663
718695
625505
459893
-169882
348899
-113368
367933
781964
1.10365e+06
841338
315009
29506.8
268554
17961.8
-62558.1
14514.3
-45886.3
112494
139915
-134855
-89962
-270297
-138204
68751
159548
523882
394368
424289
1.07855e+06
683607
1.78069e+06
2.64494e+06
1.42933e+06
-121795
388924
446619
818892
620720
825076
131619
143710
-1.36094e+06
1.19751e+06
3.76369e+06
2.5865e+06
813895
256771
106758
2.04464e+06
2.31433e+06
2.59537e+06
1.02692e+06
1.113e+06
-129371
300824
620847
847453
615438
108379
39494.4
-8963.59
-100723
308206
730444
339367
212894
59099.9
553858
99273
-140844
226957
406046
1.27417e+06
1.00724e+06
658657
156446
198387
-224134
-1.17876e+06
-285472
-351196
-103963
134272
177853
90856.7
167760
497256
358360
84944.5
96886.8
235722
178606
747037
484450
251263
358839
393831
34469.8
-158428
452831
942020
655653
649084
325162
1.62906e+06
1.01179e+06
103354
228062
-61068.2
-18962.6
364413
528519
616446
57866.3
117791
569771
1.02132e+06
996553
2.01055e+06
2.57699e+06
2.02122e+06
555258
360544
-297422
787488
942350
1.75802e+06
1.45077e+06
1.69306e+06
605770
136529
98964.8
108284
592960
-39098.6
44876.9
11111.3
-25408.7
-323.701
-30568.2
-59965.5
-9216.12
-40131.6
102408
360920
44943.1
-149994
-84188.6
-13693.8
151972
-118339
-114033
-3591.38
44801.8
60986.7
405272
136589
56826.3
38107.4
295973
-975.013
-41562.7
139845
-124520
35344.8
39608.2
-23300.8
-43454.1
-4377.7
-37440.5
101614
-335169
-133070
122740
18588.7
105599
-106814
-34766.2
129385
-89739.6
64381.8
-74010.1
57777.7
77783.8
138170
52168.7
35579.4
-22530.7
380698
-85018.1
49566.3
84690.5
-40450.5
21313.7
-13344.2
-128910
-143237
52032.2
15148.2
157527
-83366
141360
142606
300896
229773
27689.4
-20666.4
-377418
193469
793814
92152.3
-415629
25183.6
-25999.7
-12626
-82228.2
-638155
-643425
-243599
-674335
171684
404233
226756
753758
-15918.1
-342671
-234690
-91674.5
46068.9
244735
-1660.81
83750.9
164817
-318223
124810
327346
-94775.3
-66394.1
576142
944074
1.74025e+06
1.11229e+06
511166
748050
448499
226114
-6840.1
95528.5
64050.5
188908
96299.3
-181601
-466799
100583
180688
9245.09
-140695
-134402
49504.3
53883.5
112155
43056.4
-48993.6
-19165.5
78153.8
-13929.7
67114
789406
213882
253654
317517
308744
25773.6
183050
-252661
-248542
-804997
-404347
-16005.5
-517.742
-213799
-173603
57020.2
-51952.1
146325
265080
1458.75
-112213
42090
-475226
116837
57626.1
374532
-144092
66710.6
477401
138131
108763
91593.1
112766
10220.4
163782
-142840
-163760
220736
-85852.8
128260
441988
132958
67417.8
585738
255098
363674
1.99421e+06
3.24271e+06
2.86303e+06
1.64585e+06
1.20338e+06
1.20152e+06
257947
525792
164269
689947
-68580.4
-72600.6
-356107
-957591
-290055
-1.04635e+06
-341757
382584
7478.77
176187
867438
1.35412e+06
2.46215e+06
1.97487e+06
2.45437e+06
6.12502e+06
3.29642e+06
2.89226e+06
1.59506e+06
570832
400586
316175
-50540.6
-5511.52
127664
19979.4
-90648.3
-33274.8
-17178.9
49985.4
365585
534624
78260.2
629807
659886
456485
114087
82405
243793
-77557.3
129906
232752
224333
334014
-28753.3
-242538
-94457.2
-93180.3
673285
-668836
666536
1.00001e+06
516156
2.55176e+06
1.418e+06
3.76291e+06
2.42922e+06
2.63643e+06
1.79527e+06
2.42502e+06
3.32588e+06
2.84994e+06
3.36083e+06
2.09277e+06
1.17791e+06
1.36242e+06
651144
990454
627394
1.41494e+06
2.20442e+06
1.53118e+06
1.09204e+06
356680
1.93123e+06
3.0962e+06
1.77697e+06
2.0765e+06
2.20913e+06
5.73062e+06
5.42691e+06
9.29929e+06
5.18361e+06
1.38906e+06
644336
1.16636e+06
2.14176e+06
1.88607e+06
939280
271762
559716
445280
554243
421145
245615
498425
48557
88160
-591421
-551949
-276499
-61186.5
114017
199431
12419
578087
415623
274737
1.07623e+06
889828
588985
554446
183502
28033.7
98144.6
358903
323058
229303
655656
154329
182622
28635.9
335437
666682
321591
104210
511663
172594
1.2348e+06
1.47434e+06
998761
-674074
-667775
-216921
-8058.66
120179
612104
32884.2
205318
-85379.5
233086
97101.6
-37844.1
-208904
-95109.2
128310
-130884
-129808
-176079
-321463
-162094
-117076
112119
88309.5
-107952
-293331
-203157
178815
-105400
-211504
-4345.89
101749
-296568
254914
-170596
262783
86904.9
1.07292e+06
464981
16606.1
223808
-3411.45
354046
84873.1
-17999.4
-109528
17334.3
262281
51871.3
98586.2
242661
-61544.3
327450
19660
170014
547310
452369
-242452
-179719
49310
49980
109330
59578
-256794
-402364
-38573.3
87355.9
95343.2
129214
268301
131168
-199290
-111525
110671
729851
-174335
-161646
-310449
97142.4
-190214
-182270
-142658
35270.1
198773
185649
-4548.34
67043.5
358771
892469
463858
125311
545470
240302
485743
607884
271689
-42976.1
17889.6
103239
-52683
50335.3
433281
591747
1.31751e+06
713485
1.4477e+06
976834
796927
222363
1.37891e+06
-408700
243445
213244
1.35975e+06
1.80897e+06
2.28273e+06
392921
732903
-69723
404122
33757.8
-34370.4
1.29558e+06
796824
-179677
-589125
1.61583e+06
1.41346e+06
1.04168e+06
79477.2
1.22301e+06
242785
333707
89662.9
455788
132345
209709
136198
49753.9
-86979.9
72368.8
41710
361742
150800
69439.8
17902.2
527293
62299.8
225861
516668
1.29488e+06
467150
903677
95334.6
42620.5
-109553
92150.1
-207477
7492.38
171887
-54652.5
98407.8
42265.2
-159439
-685368
-92364.5
-297678
-64713.8
560453
-124300
-470924
-843998
89920.4
-44059.7
528.49
333065
1.05147e+06
426382
89368.6
-171632
-518542
-162885
-145099
-154525
4150.99
-28013.3
-10553.4
-120821
-82323.4
-99412.8
-38703.8
-50048.8
-96040.2
-152462
-7616.89
-195769
-13718.1
-45502.2
-153130
-29397.7
-84706.8
-240209
-54781.7
-40343.4
258793
745682
-194785
-118886
-59751.9
-556.62
207022
234147
114505
-135046
-222851
-366836
136406
95728.7
-6562.9
-16406.1
211408
213007
-9843.06
-219369
-273278
-34707.3
124122
1.13068e+06
83629.5
-191327
145.69
758504
403582
258298
-235422
127349
-1.03799e+06
-2.60386e+06
-1.99076e+06
-1.17026e+06
1.01661e+06
721255
151107
78529.3
1.09015e+06
1.03668e+06
150071
273931
71394.2
92503.1
403897
113456
31272.7
383708
-84721.6
19200
374539
204324
424253
124509
23106.2
922640
1.26351e+06
1.83216e+06
895727
1.01604e+06
414844
69869.5
82505.2
59582.2
-314553
332440
-521506
-577916
35399.8
142927
2.0172e+06
848845
518097
543757
803179
1.06943e+06
656706
631842
811444
535591
836081
574856
1.25177e+06
599911
1.04083e+06
284475
1.14179e+06
1.92845e+06
2.70335e+06
3.37392e+06
5.28561e+06
4.85801e+06
3.02287e+06
4.05212e+06
1.2801e+06
1.43243e+06
2.02177e+06
2.53705e+06
1.80663e+06
3.73605e+06
3.1581e+06
2.33891e+06
2.73531e+06
4.70808e+06
3.78398e+06
2.10926e+06
1.38309e+06
22655.3
127166
87973.3
-60499.6
49629.6
-126438
-243718
-72092.3
13723.7
43627.5
198955
478793
884682
892929
527277
267854
-404040
-394227
-107689
19884.7
250957
280403
-141819
235878
-197481
559313
-349285
126558
23413.6
27201.5
-322424
351897
-119813
-574990
-560725
-924758
-385115
-831146
-558567
-153588
-357361
-565111
350804
46399.1
83482.2
1.71037e+06
2.17903e+06
2.60695e+06
3.12495e+06
1.37151e+06
1.26291e+06
735178
770485
581021
404331
238999
-214533
-198187
-116346
-9769.71
34185.7
-28616
-94881.9
433444
-131730
612403
661783
195446
543155
527560
622504
-104833
410431
290169
1.06917e+06
1.17793e+06
1.60867e+06
1.43068e+06
1.36828e+06
968370
1.46509e+06
1.35331e+06
1.42925e+06
849183
807987
158933
168717
440293
411306
276790
-298765
-213307
478300
1.23607e+06
2.63591e+06
1.50366e+06
188049
767689
392520
311384
209539
417008
100887
213536
999021
282915
164822
152903
108012
394994
-8202.89
-43022.9
103851
-254838
192054
90992.3
-12936.5
-7622.25
158047
49603.3
231534
-108609
-574240
212271
494596
-45093.9
75907.1
405927
241548
572850
360998
82893.1
135955
78480.4
512225
1.36078e+06
1.73774e+06
1.57368e+06
3.40958e+06
1.63785e+06
2.18231e+06
933122
470704
-40734.2
332639
-132983
232047
176735
333652
339354
381954
984517
-15492.8
-35827.8
78437.9
315774
-156595
3630.21
-7699.49
80504
436674
-297339
56974.8
68564
216615
30263.6
-29868.1
-21879.6
53924.7
305583
104776
-178100
321751
-53494.2
186537
639531
457884
360624
3876.77
16068.8
407434
145965
150984
-145691
-118900
-481943
-177538
354406
248865
-184675
-93369.8
142588
364371
1.12621e+06
277551
43602.8
-209925
-42382.4
144553
-1.23571e+06
-422293
39361.3
406209
1.15142e+06
717513
1.40489e+06
1.83818e+06
1.12822e+06
1.03198e+06
483838
720829
668174
847934
2.38569e+06
2.91835e+06
3.18224e+06
1.4185e+06
1.1256e+06
218592
509252
133834
358163
801.432
134135
87207.7
373343
979560
987284
2.27742e+06
4.31373e+06
5.16416e+06
5.17958e+06
