-7252.71
-23107.8
-24781.5
406909
509791
204983
64634.3
120273
98964.1
55274.6
226841
164949
154302
60807.6
181145
-236351
11408.9
37921.5
-41398.1
78477.2
-214093
-511268
-355865
224104
12769.8
551666
297933
432931
163922
42893.8
224318
223847
484819
105925
-55087.4
-30457.6
-38115.5
-140848
-349788
17483.3
414778
34299.6
-6707.2
28148.9
-14187.5
-66019.4
50693.7
273462
121751
-372762
-26401.5
1.29365e+06
607185
543306
387714
-355056
359823
436219
105935
194333
205169
-129222
70401.4
-55000.7
-97590.4
27092.9
408064
265029
411089
412071
-251940
-379912
-61405.6
-402625
-73159.3
166350
58639
-5499.65
-712968
-1.03865e+06
-560783
-64469.3
171629
7463.43
74208.2
-34018.4
-404487
-15351.6
-91825.2
49838.9
227298
59587.3
407217
500555
808939
462015
885985
51719.1
47759
172031
-354615
47928
-42977.1
90969.4
-1.1019e+06
-419260
-73982.4
-646043
-156328
128303
125004
447727
159509
-84208.9
-21011
-481091
-278373
125215
189205
229138
719239
246169
80576.8
12669.1
-55650.2
150066
-234801
-147243
-275309
-277296
-678473
-128195
-222070
-64074
-394151
-173984
-442976
-131842
186209
-154233
-51655.2
-1231.94
7685.77
54262.4
-51716.5
-143168
-94075.3
32589.1
-44274.2
-41596
-26539.5
29664.1
-227629
128355
-65509.1
-34756.4
-8579.11
-142386
-255170
-931.033
3801.03
-144958
-101885
-593000
62411.8
83038.6
-73314
68962.2
80356.1
144800
95257
-84614.2
-226523
-310020
139974
498921
529011
740631
-55806.4
-309904
70961.8
-909696
195346
57680.3
229820
482507
171506
147761
75689.4
-279985
-310914
254558
-359007
-935257
-812385
-66288.2
-172773
-38565
-59642.1
15270.2
78375.4
-169877
874154
612325
173987
329158
-310601
-61700
-50555.8
-104996
624874
133191
-57497
-137556
127503
42869.1
-151662
-257204
301793
586601
278007
581034
351424
513057
2.98592e+06
403914
505026
761844
370442
883458
381565
594316
987317
285433
319145
76391.9
177433
-103737
-83747.8
24569.8
30265.3
-145322
61194.5
47520.3
358331
37023.8
-247757
-208712
-57535.3
-22573.1
411447
1.48871e+06
1.76065e+06
1.88138e+06
1.40494e+06
625690
455605
-69418
76498.5
344421
433147
250114
580821
-24077.8
208397
183296
-114875
-81131.9
-192810
-55089.3
-309079
-611293
-371309
72832
298985
717932
94292.7
673959
47126.2
-337317
-430973
263481
106785
83938.2
416964
725900
1.17199e+06
1.10191e+06
90415.7
327267
166390
-18790.8
460001
1.17972e+06
896139
105807
155421
71317.7
194534
318532
176413
61466.3
-1173.34
398460
463330
793580
922124
1.47571e+06
1.76851e+06
1.62008e+06
1.44281e+06
615301
-21424.1
-22664.9
162214
325608
-17692.6
673732
-57847.3
-52915.8
62450.2
244238
65046.2
11061.2
-54160.2
-32498.9
-147544
-88267.1
351330
356640
-64649.1
288313
27696.4
-135316
-99310.8
-10806.4
51284.1
-31852.2
65755.3
-150884
62888.4
532886
98289.3
29903.3
-98353.4
93472.1
114327
32700.4
109250
-11940.9
-7531.52
71271
-28195.8
-545878
-406844
11612.4
402859
1.52163e+06
1.22059e+06
401856
518811
761616
1.00331e+06
220917
796530
1.23891e+06
893811
1.11146e+06
571796
-528289
-727113
-46634.8
5382.04
64928.2
-352183
64467
625001
-472277
218729
475502
560261
1.08328e+06
140216
286579
22405
-10002.9
105604
86328.8
79787
51033.4
269931
406635
253568
270576
310906
217984
351784
1.15437e+06
1.04848e+06
310543
-81896.5
-306809
-253768
-339217
-37394.4
-75363.1
117981
251229
-144500
-211247
-451545
29896.6
33153.2
32708.5
61124.3
-47241
-115662
-126912
770476
800170
460637
463195
273242
88751.5
3274.81
-79252.6
-385980
-105378
-296415
-41125.3
71727.7
-45097.9
-135728
-385664
-23104.2
-37028.1
-13476.4
-306063
24997.9
115159
-149702
197278
-304988
-254604
-79011.4
50878.5
114185
304796
-57952.7
8101.19
-74474.3
-277976
19336.9
-84821.9
-49619.4
-405831
-31676.6
-107629
-292997
-84901.2
-143627
155260
-101747
-218119
-254126
-75695.8
685491
171330
279750
-41521.2
-35919
52682.4
-79842.3
8923.74
-157132
-8996.99
199928
197352
213116
-78231
-412770
-134701
-114908
-91681.5
-40048.9
4799.8
-84100.3
-132504
-224215
-27609.9
-14496.6
-39434.3
16198.3
223135
96489.3
389375
272352
414733
693830
370035
55709.3
369597
-129546
-54092.7
282994
-389788
-11911.1
48952.4
-486109
-990362
-580363
-164692
196992
-90907.8
263645
41230.9
-204663
-614191
-166222
-247399
-161413
409827
26918.9
-495520
386011
174546
302217
360339
633566
848177
962645
643947
189280
12085
-194180
-125312
-252112
-118780
-131388
-330536
-106039
-113173
73925.6
733625
342867
48281
-421953
-134602
-30686.8
-146838
-190476
-1.45611e+06
-1.19972e+06
-362501
-139902
193057
91459
-268147
21171.5
-141021
-373.583
58830.5
333861
-46720.4
65892.8
147556
-94217.8
-229591
175627
4361.58
-409921
-264526
227352
354073
211699
495240
122428
332743
647846
901732
228323
52162
211342
186473
-8870.7
-129691
76209.9
92177.8
218124
-14914.1
-128635
177030
104927
-101711
392683
278956
-133960
-290714
-274437
131434
521868
320566
65152.1
-170134
18546.3
-404967
154274
503061
1.89387e+06
716707
837246
48732.6
93018.6
65444.7
113558
438801
1.30225e+06
1.39746e+06
920825
578744
905685
941213
662286
1.30599e+06
637589
237231
228090
376389
139107
-21798.6
521965
1.1833e+06
273543
713963
1.73377e+06
1.72353e+06
3.07469e+06
3.76557e+06
3.99474e+06
2.30868e+06
2.27946e+06
2.38558e+06
1.04373e+06
388299
2.54095e+06
1.71213e+06
2.33034e+06
3.33644e+06
1.51282e+06
453337
1.66964e+06
1.98265e+06
3.21626e+06
2.92883e+06
2.33338e+06
2.01989e+06
273127
-550005
149723
2.80831e+06
331162
-122972
-124229
269233
639657
-313911
-160221
86565.3
336279
595911
697722
463929
304698
869361
700440
264098
-25039.8
87461.7
110892
396900
630586
729996
163276
219804
-296961
-493510
-108247
-499563
-453782
-116084
-2578.85
-59188.5
-10452.7
64647.3
41433.8
64141.8
-218193
49649.8
-126813
-51664.1
-119048
-24937.1
-341109
260048
623112
-251322
-626943
291468
981317
792198
710609
932885
587479
454955
254635
792012
839339
1.65228e+06
1.27931e+06
580937
431193
-238288
684752
273442
-123237
520533
197578
518188
-51862
-118082
303878
483653
3.00521e+06
2.32875e+06
2.70172e+06
1.82535e+06
3.18724e+06
1.98151e+06
3.49062e+06
4.56014e+06
2.53776e+06
3.30377e+06
3.44944e+06
1.36343e+06
1.81402e+06
1.72364e+06
1.35254e+06
1.08965e+06
1.24923e+06
1.56284e+06
460538
846324
656059
243121
538161
757343
135644
331562
317233
970414
1.47613e+06
1.5411e+06
1.97388e+06
1.03159e+06
701672
781579
1.34614e+06
2.65124e+06
946221
1.28539e+06
749971
177136
-48284.3
656128
1.12641e+06
1.28306e+06
624967
98859.7
971305
1.24312e+06
1.4833e+06
1.10927e+06
1.74113e+06
2.61118e+06
918955
720007
1.09333e+06
618205
795443
728243
411812
142994
-125975
-257189
239716
165637
-7034.34
-59845.9
49663.8
6515.95
41737.3
10361.9
118643
158518
-147263
-127264
-193601
-24609
14680
-42792.1
-144759
-158488
330839
130410
111471
112635
27717.8
232630
-341066
-809680
-1.63769e+06
-2.39844e+06
-698090
-696225
24618.6
68730.6
7537.24
-306470
-252960
-308792
-211684
14465.5
41053
-17577.1
119856
92867.1
74151.9
-111701
335678
897416
2.01796e+06
517538
731201
885800
610977
514997
101912
47509.6
225611
294054
307115
-580745
-1.41069e+06
-184125
-300326
-254564
-854340
6669.58
-207335
-192129
503919
101890
824898
257200
792973
586713
78451.4
354850
578276
296975
803526
917140
79999.9
-63269.7
-20798.7
-55942.3
-144243
119808
117348
45023.7
95052.9
839743
315029
243639
1.35484e+06
1.42432e+06
933658
945628
1.45763e+06
1.72681e+06
1.19522e+06
1.62631e+06
421217
523968
538596
1.20459e+06
1.34233e+06
668451
-71433.1
1.21138e+06
189889
194707
305917
-106900
-312039
-420483
339277
423181
330602
1.32888e+06
4.00505e+06
3.74798e+06
2.0596e+06
1.56285e+06
373506
40378
-107066
114644
40192.8
-150801
-104533
128141
-40319.4
-126675
-230833
-464866
-534316
93535.4
65849.1
-85002.3
561339
870145
298347
216394
271239
-98184.8
30974.3
-210505
78316.5
428835
690700
676994
63864.2
254987
-37476.9
66080.1
34937.6
224891
335863
460256
228178
-47216.7
183257
-269344
146084
66612.3
32069
-102368
-188563
66204.4
217699
194907
1.26547e+06
534699
3.55463e+06
2.73377e+06
1.55659e+06
883853
151626
232974
-8110.2
270455
142331
864136
257221
-81253.7
277070
196991
189541
343582
165626
258300
5959.19
-62111
134293
79614.1
40060.4
234478
-74060.9
-92928.8
-369422
-23762.9
-70883
63227.3
-107927
-164038
-329762
-159094
-1.31675e+06
-286953
-109457
241998
-75590.9
654284
2.25375e+06
1.69188e+06
1.17008e+06
440808
754318
1.33327e+06
1.17173e+06
658649
404600
1.60398e+06
1.52814e+06
918189
772098
568720
-7985.22
369576
220993
-266317
-36763.2
-411794
-418169
-370624
-330030
-165439
-33201
-182682
-60261.6
-194066
290478
412704
560190
1.45596e+06
1.31674e+06
1.11322e+06
631956
2.04361e+06
1.40219e+06
1.41995e+06
2.5615e+06
1.75133e+06
3.69236e+06
1.98661e+06
1.81911e+06
580028
37270.6
810736
412855
5763.38
70714.4
363403
736761
2.56859e+06
1.47026e+06
964250
464486
360727
339745
351620
316819
699664
2.08744e+06
1.05629e+06
693526
214446
-484580
-625053
-70583
445166
-569337
-545759
-37290.5
11239.9
-391530
-20796.4
-751082
-905562
-117187
116431
-46924.2
-79396.4
-579691
-253037
-614867
8123.3
-150848
102060
519923
2588.64
114661
-39744.7
392126
208345
704086
1.0146e+06
824006
454691
52879.5
25258.3
-866226
-1.65135e+06
-679603
-550502
-664197
-599391
313837
126006
126659
84833.2
-22136.8
-536080
-620252
7721.25
211040
907887
1.44517e+06
145494
-931990
14784.8
406640
59246.3
10233
-230830
-115408
-6649.01
390186
324666
473562
266346
-251147
-352693
-344394
117949
-92229
-542492
-610418
-477420
-468503
-108759
130949
9564.14
110533
59332
574767
195058
516266
203356
59822.3
65809.2
17202.4
-83701.7
-73616.9
135187
312992
100556
340866
-63091.5
99179.4
30728.9
-68882.1
-80846.8
35730.6
-14512.9
-95885
-8866.83
64459.5
-93655.5
-108212
-75203.9
-39994.8
32264.7
86500
322504
268923
703098
370025
109445
280156
69711.1
-23735.6
-9879.01
250772
179804
415852
-939737
-451229
-17589.3
-7397.15
110453
16070.2
-37961.3
-110455
-76092.8
-11472.3
647510
1.31392e+06
862281
229420
164242
258338
-366927
-776896
-259293
71185.1
-10378.4
-911687
142719
588879
205339
84745.2
82560.9
206885
13987.9
117887
-195095
-745175
-942490
-480177
-450205
45792.7
1.38156e+06
139942
148099
39161
-139010
38865.7
57022.4
-344775
-690819
-149278
151702
487674
269440
154461
152758
152540
50903.9
-85057.7
-285156
-62662.1
68312
124232
72005.8
524635
611988
744469
1.72257e+06
2.9841e+06
2.63484e+06
3.18817e+06
992114
735744
-199648
1.06994e+06
2.55544e+06
561190
886008
1.21423e+06
173802
772258
525701
-15957.9
-357762
920708
683313
-148519
-78742.1
589752
599934
332688
560098
480900
481568
248514
192519
390698
329329
952766
275193
-130718
432100
435934
602268
147697
320947
302620
-140351
-140220
288336
-29405.2
-161350
-241189
39291
-126950
-193185
-518583
-563464
-648161
-798442
153496
553532
543490
352753
15399.5
349828
141382
-329462
-115515
-148517
12534.6
154070
-105720
-148208
-16162.2
-287281
34804.9
-35570
78267.6
8356.77
13055.3
-28716.4
31626.8
-151939
-6092.15
-18819.9
160950
264741
40846.3
-13806.4
103310
70273
-118110
-152720
-299415
79295
115595
64361.5
165480
363534
424676
1.42514e+06
1.92603e+06
1.90499e+06
1.40689e+06
1.11342e+06
1.15241e+06
224647
375407
177043
171356
298407
-17095.8
-107657
222919
70414.5
9583.11
262811
358807
-3220.29
137761
70638.3
-93949
-136670
-358457
-940777
-859092
-64606.7
-485830
-122266
-77730.7
-45977.1
224107
-342871
-109886
-21019.1
64527.8
161075
276538
-123285
-11673
50877.2
-21812.3
800179
1.39346e+06
1.61214e+06
1.87818e+06
968705
1.23687e+06
491775
238532
9461.2
-258642
1.58367e+06
3.01829e+06
2.16264e+06
2.61882e+06
3.29331e+06
4.72215e+06
331398
1.26587e+06
1.72175e+06
1.72266e+06
1.72335e+06
2.14339e+06
1.28976e+06
2.2621e+06
2.71435e+06
1.45986e+06
1.02477e+06
2.7016e+06
1.15506e+06
507275
263461
596104
1.81955e+06
657159
54430.2
-160535
-303616
-492567
-169732
112026
-98385.6
-877972
-213435
-574707
-849408
-303610
-51513.7
-67654
-357667
-20086.1
343798
-75592.4
219228
48067.4
141451
164473
31492.7
155304
202407
65345
434305
-33530.5
-30529
475410
153949
759041
705079
927023
1.21902e+06
-417892
621693
785307
1.29243e+06
512629
888400
35740.2
350849
-276835
398871
68036.5
896597
630106
-136457
-554880
-642459
-285566
18399.4
-679936
120277
-64721
85046.8
-61405.6
-424032
245330
-16135.3
308476
861506
2.34925e+06
467153
-186670
-1.12453e+06
917553
1.62695e+06
404025
53250.8
210267
96774.5
38778.5
81312.2
26674.4
158090
-63584.6
-355167
73560.9
32558.5
-132261
5356.94
-14834.6
21882.6
6858.76
279741
286443
352616
151333
43026.9
179506
1.30651e+06
1.76314e+06
938001
1.76655e+06
1.81533e+06
2.91011e+06
2.32302e+06
3.07161e+06
2.30975e+06
5.80157e+06
5.67543e+06
3.84414e+06
3.73291e+06
3.94919e+06
2.28835e+06
1.72994e+06
1.20595e+06
2.51323e+06
4.14543e+06
2.35568e+06
1.37132e+06
489215
215602
178816
186280
365845
108149
155231
-109400
74881.1
29577.2
57289.6
-12436.2
-168089
-41093.4
112076
24219
-72423
-8017.09
-100640
-253096
-50692.8
-10436.3
-414365
-700282
132421
817884
481078
311483
-75465.1
1.15666e+06
446605
600604
777062
1.07801e+06
290600
-181393
1646.23
-263545
-24007.1
95946.7
153938
282475
-175069
-1824.47
54175.6
45401.9
416142
113874
162558
80875.7
53964.1
349913
-439849
-135699
219557
-58937.7
-226511
74150.5
260043
404665
1.58115e+06
2.711e+06
1.65405e+06
2.16893e+06
2.21293e+06
1.73991e+06
1.90104e+06
1.24472e+06
862322
979648
646966
1.03512e+06
319962
1.08035e+06
1.4311e+06
871536
441099
108386
-66269.3
428642
-470842
-551010
1.24269e+06
1.00069e+06
32609.4
276277
52327.5
167686
416602
285196
-169841
232054
226519
481530
-2788.07
10234.3
-18333.5
77518.8
45972.2
-126049
-687034
649388
24485.3
-193830
331666
105598
-74816.5
-27018.9
-129471
-248419
-95380.4
-56433.3
-246455
-39764.4
11542.3
-20149.7
-133730
144548
242447
92059.8
902308
1.33367e+06
908546
-45108.5
-90792.8
129239
-46956.5
93485.2
-42153.4
-192317
74108.3
114035
-11208.7
1306.56
-89314.8
-344439
389446
-245247
-538881
-941152
-832762
158859
-182537
-352183
-389962
-657154
153680
41517.5
287911
70557.6
-134774
-59212.3
-512777
-250291
-213990
120460
154079
55688.7
64074.9
-97028.4
-295098
-131530
-52287.3
-299404
-386900
-59744.7
-127145
61786.2
438195
487377
972039
918923
176075
236604
1.07011e+06
827263
748229
418021
381098
448271
541073
506926
212264
-165382
-602843
-1.43021e+06
-517052
154504
167438
404260
-596172
-1.70017e+06
-565200
-873026
-374790
496828
332247
163358
146880
-88385.7
-25065.5
35917.2
772401
263140
-230178
-15567.2
-189522
284046
678447
608641
24470.6
-648175
-356092
-115782
-534244
-999827
-721631
398057
642795
801995
940277
381593
406300
329129
345866
62789.8
114123
41836.8
-271931
-195332
37485.8
-43719.4
-24014
69810.4
-53147.8
-201759
5754.88
267050
357485
247407
-278602
-14690.1
-47645.6
285481
908824
1.13441e+06
618180
108239
-87417.7
65423
45814.8
508495
-151628
-114704
-37609.2
329475
229067
-174674
151394
56752.7
-158044
-49091.1
92984.7
172071
-107516
-685495
-437300
206573
51442.8
-293164
103538
-5092.99
-66822.5
-51022.6
-19539.6
41982.9
-115916
249916
288475
-59345
104319
1.2001e+06
554894
298842
354636
590847
345982
745584
520315
786182
2.79172e+06
2.02323e+06
388098
45347.1
36657.4
753516
1.52801e+06
1.18119e+06
1.13781e+06
624757
310114
481764
404855
65251.5
713033
92356.2
-33961.8
-175639
-201924
-173726
1.03384e+06
322274
287138
203161
295017
-571356
-294031
408228
781055
3.91103e+06
2.75373e+06
1.26263e+06
57870.9
270946
636199
621958
702130
593846
92110.6
480653
595087
34503.1
147340
169552
51123.1
-25313.4
-89587.8
-188903
-93023.3
-264072
83556
-31442.3
163089
276532
94208.5
20130.7
-316669
-597349
-302632
-211973
-12762.7
-52760.2
-47639
-115089
62332
314834
262500
370084
164728
203108
430224
60703.5
169079
18242.9
43293.6
-295587
-319433
-411230
146379
1.03979e+06
514391
-197276
-221767
-140140
-11085.2
-203734
-213613
-964203
-77962.1
-1.02704e+06
138945
-13463.7
194241
189995
134751
110268
184326
204268
51703.4
10981.5
80217.8
35705.2
128127
120012
68635.3
-87099.4
-105128
-772443
-1.01859e+06
-1.26829e+06
-741151
-256658
-212929
-953483
-802684
-1.17847e+06
-355683
2472.29
207308
1.30449e+06
-108160
-15724.6
520851
-459901
-396320
160250
-96093.4
93108.8
671126
532394
1.06612e+06
1.59294e+06
1.67115e+06
1.39978e+06
415512
561743
240443
644923
-9516.52
369551
20994.3
82926.8
-113787
98528.4
-361854
-714055
67070
173254
125994
31847.3
464264
120690
73010.5
-22266.6
-104747
51784.1
156162
-305897
169622
-5062.22
-88612.8
-142904
26008.7
265367
212004
307431
-53099.8
487992
399326
302525
437949
320082
112857
-58141.2
220560
825637
254828
1.07791e+06
748564
1.31964e+06
874234
641574
715954
1.98809e+06
951885
763617
652256
334986
602416
795706
1.30438e+06
3.00088e+06
1.65188e+06
1.31774e+06
1.66485e+06
1.2283e+06
337158
951928
16851.1
-46978.1
146512
15063.3
-70918.8
-123138
12915.6
8335.39
2814.9
-38131.5
-290002
-465662
-365924
-236218
160696
308534
-27962.6
-33280.9
22767.3
-261321
24889.3
-186934
-290700
-142669
-42458.3
-363476
287622
1.02602e+06
126421
339283
356262
32570.7
47615.5
12334.2
1.81707e+06
2.6179e+06
3.20089e+06
3.29575e+06
3.47666e+06
2.05478e+06
1.13816e+06
2.24028e+06
5.29962e+06
4.02337e+06
2.78027e+06
5.65043e+06
5.02744e+06
4.6312e+06
6.46698e+06
5.14306e+06
3.7904e+06
2.23304e+06
1.56862e+06
1.46741e+06
1.68392e+06
2.57675e+06
1.47739e+06
594663
595293
391790
-74791.1
1.13281e+06
1.93673e+06
1.04478e+06
1.99691e+06
985326
2.59569e+06
1.51126e+06
1.99575e+06
1.68509e+06
1.54473e+06
1.13289e+06
601805
453545
1.16967e+06
809373
259027
226688
-53852.5
51317.6
94107.2
45220.1
-254418
-343441
-62209.9
-181310
-48644.4
-272157
-202141
-186546
-87475.4
-342248
-49440.2
286105
-20994.6
27687.8
-22523.5
-74070
-113660
-21454.4
89479.2
68778.2
28721.6
21437
-21466.6
93754.2
-97533.9
-255925
-247606
-260007
-29150.8
-11955
-79072.1
306517
819119
2.17901e+06
3.3814e+06
190589
219060
-75814.2
-376564
-100664
-50005.6
28702.1
-5891.69
26303.9
-9457.76
68209.9
391525
662546
-7101.35
-52434.6
-91686.2
110222
319037
95772.5
49897.9
329143
439838
99803
163619
153415
11586.5
-16390.1
-137230
45360.3
34904.5
-116471
-414950
-330246
-562781
-428146
-255155
-512432
-1.95155e+06
-228920
184329
-273417
-206743
-275778
-59745.3
-9194.42
-78901.9
-734408
-44268.7
-190523
-55475.9
-12113
52291.8
86763.6
123451
271600
297523
453590
732692
356600
426191
409555
102464
123728
113613
649071
253605
-33745
-2025.91
596822
509365
367398
291945
215539
178647
32286.6
259529
106654
-8601.75
-62773.1
-309736
-36182.2
-628180
-623627
-434794
-410731
-414760
-849510
-1.84435e+06
-56819.4
179278
367753
199327
-1668.73
-144426
-160327
-218460
-28210.7
-87812.2
-160102
-31837.8
154050
-195591
-878623
87706.3
-941270
-439989
-19166.4
-12780.6
281348
-936832
208007
155645
467108
217125
-91134.6
173009
-32929.4
100531
95931.3
28446.6
-162212
-95117.2
-185672
155508
-156118
-174593
-408464
-68818.5
323185
151034
-16967.3
-35497.4
-1378.02
78206.2
142146
109938
-122512
77932
-175115
110646
21860
117873
-85825.2
-617956
-210686
-221757
50955.5
376395
463448
352794
645644
-21438.3
22206.5
-36623.5
72144.8
-220353
59443.3
-11309.1
-495089
-184847
-445709
-353532
-545254
-324645
-294344
451220
610133
164811
317992
-579689
-624543
-180874
272553
129877
-116823
15076.2
227297
-492196
-640486
-581198
-393144
-207719
310145
108912
248750
126814
342336
529103
-8520.4
-124402
351634
487366
150061
150117
-36813
-45889.9
-110334
-210736
-59906.7
-192547
141202
119139
134721
640863
416199
765357
-26776.5
-59563.3
630958
404115
172629
746343
1.09673e+06
1.09933e+06
467966
420118
-116369
297322
1.08403e+06
333762
440470
514548
-144311
20551.6
628469
2.04804e+06
1.01891e+06
1.33554e+06
1.6747e+06
207059
355200
169665
597206
79052.5
11458.9
257640
297522
402058
500594
1.39959e+06
1.60643e+06
1.16442e+06
774968
891708
70645
213170
344751
163630
305058
-15206.2
102989
233576
513281
-16621.1
163911
-379912
-180671
-57592.7
-22318.7
-385907
44502
205035
-39295.5
-405619
-21473.8
253884
633836
589197
755715
2.41579e+06
2.18813e+06
817470
1.83826e+06
1.84886e+06
85981.7
-450503
-460766
600320
-126134
-610623
-383486
138201
173778
57153
37243.9
-105086
239555
378125
102765
46879.4
1.07214e+06
297785
-170284
8066.65
149983
37372.7
101615
154928
127000
735012
664270
1.08538e+06
311885
916779
1.42873e+06
543652
343096
509153
316140
634379
532503
170231
461760
151986
77627.6
49813.3
67435.4
38713.8
15285.4
-784362
-718614
-332882
-144465
168583
-18357.8
655239
361822
272322
239748
310024
118851
369567
317055
437621
841229
-64682
334106
379248
23033.9
-74829.1
-672858
-530905
451320
1.24253e+06
1.78766e+06
84644.4
300422
-139174
163848
745473
951807
-219016
108795
-17762.7
422943
-189684
-5340.58
153401
220092
519264
1.13601e+06
2.1785e+06
1.0118e+06
462539
855379
448288
81602.7
998785
802625
430120
526186
562180
152708
333490
1.32708e+06
546435
1.33482e+06
84637.9
243576
195212
-505709
-140268
85575.2
-65284.2
-11947.5
-92920.1
-155220
47354.4
484339
100372
-6089.56
-21845.9
-631946
-141914
225513
63651.9
-3969.65
31074
20918.5
84821.3
3506.74
-78179.8
-168850
-138899
-583754
-233604
-97616.7
-69157.5
-739328
13561
-354052
268829
10582.1
-947119
734097
482587
-43733
-544241
922550
188027
-130984
263440
-389140
-39132.8
-62124.9
-9089.32
-26734.2
-45397
-146746
-153509
-149623
7718.08
62345.5
8264.63
603724
159995
76093.8
-13027.2
-106387
-88088.5
177190
-70973.8
350365
644407
137750
-47285.6
24063.2
63096.1
46918.5
-48274.2
106655
164700
-56483.9
-115353
24692.1
80955.3
-38119.7
-109393
-68352.3
-187284
-239746
83992.8
-159173
-50699.2
-67639.4
-602038
-977334
-90216.1
-90309.8
-124581
-175614
-241384
375123
291389
210405
-6731.83
-117223
-318269
-378252
12553.5
-22738.4
453507
-237902
27024.1
270554
104163
136191
462654
405969
567826
207660
-106128
-102998
56199.7
525446
373715
640495
-320399
110968
48855.6
98486.5
-356775
60484
519389
921922
61018.7
-172150
-418645
-176955
-104115
-14910.4
245278
-43367.4
-360584
-252075
223339
32316.6
677789
1.05852e+06
387851
20068.3
-139907
-175541
-55777.9
200624
241644
830150
297458
391619
352896
610978
364286
254627
705814
-78134.4
293263
99076
519431
297038
441675
1.61655e+06
1.24907e+06
-1.18074e+06
-285509
-384937
30084.5
27718.1
16106.4
-122283
-495877
-760723
-364404
-79823.1
-152803
-259260
-301834
-231380
-243873
-269688
101224
-33104.9
7863.5
-119630
342896
-295097
739574
1.60182e+06
963633
1.34332e+06
643155
399539
187087
220558
-162475
183330
441894
814267
1.20676e+06
2.0543e+06
1.34373e+06
518476
207120
231291
126053
-60400.4
164974
231975
152199
145933
50915.4
189392
105469
217416
-132193
-97054.7
-33167
564705
1.66909e+06
2.16108e+06
2.66023e+06
1.48985e+06
2.22918e+06
3.3719e+06
5.75828e+06
4.09149e+06
2.73219e+06
2.36922e+06
1.75576e+06
1.5863e+06
1.22872e+06
320753
291831
311066
385629
28414.5
582859
655788
293645
149767
451654
487040
514406
172851
-141985
200522
-296722
-124951
-65489.6
-59592.2
16399
58218.5
-275591
-296758
-16886.5
-95411.3
-127819
76101.2
2763.95
289040
-18826.6
-39063.2
-62126.3
-77415
253760
441697
260531
424432
336369
-15912.9
64820.5
-51627
114696
52546.8
-69862
-605985
-1.13028e+06
-57545.6
-217895
133070
653594
1.09946e+06
1.14436e+06
194657
-511672
476998
1.17533e+06
2.21566e+06
1.08015e+06
1.34853e+06
1.97139e+06
1.34209e+06
574951
987486
160516
373334
132159
-80840.4
83747.8
50931.2
103931
75582
6531.04
-9208.6
-25254.7
-88822.3
-37668.1
122998
-138539
-226342
21357.7
24072.1
-85149.1
-783833
-151451
-185316
-70765
-96471.1
-197054
-124669
-1468.18
262177
940485
829503
999331
215014
1.67275e+06
1.14852e+06
440133
342237
141941
-30408.5
-133248
-7816.94
78732.5
132837
315813
757301
35724.9
33331.7
-83143.3
307836
-115096
469338
410764
393442
62240.5
52467
584797
542771
159781
1.00163e+06
873608
967179
2.50322e+06
2.06333e+06
1.99726e+06
1.09981e+06
1.91295e+06
611095
387992
1.32292e+06
2.75745e+06
1.38908e+06
2.32227e+06
3.39968e+06
2.24162e+06
2.44323e+06
1.2469e+06
1.05447e+06
864986
594322
336912
1.21897e+06
954285
576427
485688
401683
267158
291895
362270
470091
154861
1.13444e+06
453114
98946.6
41558.4
390276
1.64115e+06
1.07013e+06
1.13518e+06
875876
858431
1.00277e+06
887467
1.04533e+06
912194
892512
1.07605e+06
301998
937497
2.23882e+06
567113
248818
-1.33214e+06
-1.5348e+06
-594557
2.49771e+06
4.32331e+06
2.6958e+06
918424
613932
855952
832816
1.78972e+06
2.4452e+06
1.54792e+06
615264
-389332
134244
-236571
48937.9
-22734.6
82824.5
192300
274189
254507
54154.3
-72330.3
-63487.6
193663
-137296
-57213.4
-309103
-194108
-183819
157858
548764
620437
925595
1.19468e+06
315086
122965
134739
26706.6
335743
326437
-100098
-350849
-439430
-1.19157e+06
-136732
1.27711e+06
714300
641654
451090
-31009.6
-18448.3
-14785.9
-119312
-64751.4
146828
33516.5
81178.5
208823
-474386
-509898
-398370
-690308
-493358
-825078
-144974
440686
3732.49
-25875.5
198179
-1.17766e+06
-490165
-843684
-203654
-403712
-456318
-103323
-177528
-408072
-8143.77
42244
126498
-134634
131784
164574
164632
465897
711765
202379
252233
-142450
-284473
-941094
-509791
-71270.3
-50576.9
40475.7
26095.4
287767
933759
-13852.1
-316073
75217.2
39313.7
-36865
54789.6
216066
786099
845380
781931
1.36435e+06
1.02027e+06
947750
1.9872e+06
2.55385e+06
925373
1.06933e+06
860304
114106
15789.8
84166.8
69476.9
64811.7
406053
195231
775678
-33492
200515
160090
718113
88683
-249342
220751
-528661
-132422
12388.3
-215752
-137131
-71442.5
-83713.5
-13160.8
-29275.3
-132563
-67447.9
-40332.6
168235
74238.6
833431
842178
1.01026e+06
551865
1.24222e+06
699499
152300
373905
411134
162754
1.1658e+06
1.50062e+06
1.79985e+06
1.55754e+06
1.05646e+06
1.0916e+06
565778
774904
1.09245e+06
2.61745e+06
132615
465998
298594
106295
50422.4
283924
745363
129304
166233
62692.6
-49264.1
-79727.1
-46750
80724.4
152309
-18206.6
-58677.4
89463.9
413738
1.20923e+06
1.77153e+06
3.5127e+06
4.46036e+06
2.1184e+06
2.32079e+06
1.38388e+06
1.16504e+06
755644
1.74356e+06
1.30467e+06
467691
1.12393e+06
1.67681e+06
984288
1.0949e+06
636441
-66607.8
472478
337765
853185
1.23865e+06
2.61477e+06
1.07313e+06
293235
-138484
348682
1.85602e+06
790372
-50432.1
133406
173590
-305405
98688.3
191517
488221
205498
188331
412240
491880
-44520.8
-1.02453e+06
-734311
-17058.9
155682
-89539.1
-5007.31
430603
12172
135944
251465
-161583
145817
61781.5
62902.4
-27847.5
318978
21670.6
4610.44
13501.2
-249250
-45835.9
-4326.08
-54283
73344.7
130687
444948
559535
993492
1.40216e+06
1.42106e+06
1.45892e+06
568285
1.14369e+06
75115.5
67960
156750
361462
539734
1.41008e+06
677093
863931
335435
370806
-193744
-179748
14198.3
-1483.45
327477
150389
293857
117365
152062
142209
169975
150927
-353720
-1.26252e+06
-1.02177e+06
-267782
-209420
-197759
22089.5
191302
262188
372743
107088
168611
519803
408165
183599
393447
6784.77
-297582
-106641
-834573
-397221
743154
2.33924e+06
2.02981e+06
460279
447039
-116311
418943
249825
-162029
-303211
-2490.82
-1977.14
34017.6
23442.5
-107400
-142400
66356.9
803687
82319.6
-355737
-371913
-180635
-280714
-435820
-232045
-701892
-304187
-60768.5
-478739
-339854
79683
16545.7
-369674
285758
-39371.2
-106189
344688
367038
190232
966009
933247
628745
467297
544241
586434
382390
72073.8
384691
-136723
-312476
-663034
-362893
-67433.1
98745.2
-76214.2
5968.62
136957
-188684
-366580
-153991
-69480.1
183653
916856
528052
834800
238978
1.15671e+06
332728
986535
1.51613e+06
537383
294389
695284
661182
683039
1.20002e+06
565602
1.24884e+06
4.25647e+06
1.58595e+06
1.62601e+06
997870
2.28493e+06
708058
175945
1.1438e+06
607164
600221
-371834
262195
-844559
380769
2.11348e+06
1.4596e+06
247888
831514
-54632.5
382831
-465320
32453.8
193811
-37923.2
-63290.9
-249345
-206027
-205766
-396665
-36155
-162735
-79961.1
82960.4
738213
641987
512439
-837230
268389
357403
934221
579593
1.0383e+06
1.29621e+06
-136733
-648258
673885
791188
487432
302229
1.3749e+06
1.01457e+06
1.67321e+06
3.27857e+06
1.35102e+06
1.24299e+06
410132
581235
1.59966e+06
596183
105453
780150
697327
1.59907e+06
2.00587e+06
3.18089e+06
5.23833e+06
2.09645e+06
947431
340726
363005
60428.4
366523
122112
671208
136842
182751
988329
731301
770959
744953
594945
374311
120005
6612.06
-90215.2
102398
233806
305468
132953
47285.2
-25808.8
1451.77
-181682
-124813
-40946.1
69368.6
-99823.3
-205874
32456.6
-2180.77
33743.9
108880
52333.7
79168.5
-21909.4
-53897.3
11044.4
-306246
128409
184484
-341466
-460135
-814052
-1.10699e+06
-951447
-303252
-339881
-165466
202415
372109
166879
1.0779e+06
1.01546e+06
343770
97666.3
-357223
-294893
-38574.2
-57514
-168491
-157440
-34246
154407
-257838
-155854
-185757
-101644
30897.9
-83198.9
-10079.3
-41429.5
44557.1
171798
281257
-497847
-484787
-236006
576781
-102766
-501767
-187653
-74528.1
20737.5
23536.9
-146834
-200850
-258169
-281745
-73689.4
-164777
-573091
-1.18909e+06
-209194
249174
844189
2.43438e+06
255835
1.16656e+06
846057
51192.2
1.08503e+06
61932.6
353613
126754
69155.6
188016
90601
495068
146143
106378
4187.87
-123925
-7337
91699.4
-7170.38
-97885
-116775
8477.79
-330223
115346
-272989
-203089
-28002.3
100885
227856
511892
681814
1.24145e+06
1.74589e+06
382264
877257
522102
1.16868e+06
1.03343e+06
70422.3
195751
-41733.4
-72747
-115442
-219943
-14955.6
2918.65
-111693
7674.62
-38707.2
86447.9
15608.1
212412
1.08367e+06
2.0225e+06
1.2115e+06
709440
325486
565458
114105
224003
148344
42366.2
-391486
-411242
198156
593079
555127
932182
1.13148e+06
2.63757e+06
2.36466e+06
1.04541e+06
2.44219e+06
3.07961e+06
2.50167e+06
2.56215e+06
2.30519e+06
2.16382e+06
53106.3
508997
880924
281195
-30334.6
1.14536e+06
1.56981e+06
1.286e+06
696910
414759
251014
384076
285602
233448
152684
-180765
158718
199546
215707
-258029
-308663
-1.31025e+06
-142369
-934498
-168047
-278086
143380
-386286
-479771
72052
391866
-209278
1.21928e+06
791411
518946
-218371
-170522
171264
-308531
648051
1.0082e+06
2.04325e+06
4.23371e+06
2.04201e+06
864714
444739
826027
606739
207286
138229
127365
397482
41595.7
194587
-30256.3
745081
768339
484623
585967
843802
1.71948e+06
904921
1.27604e+06
942184
1.45608e+06
1.22166e+06
1.13001e+06
1.66784e+06
555772
-133673
391592
18410.6
409316
402224
488810
423147
-83320.1
-349962
-899623
261098
-86242.3
-594413
-1.30754e+06
-49534.6
-308305
181033
107655
204783
161600
-41493.8
88890
24104.5
12429.6
78320.3
119070
200106
101337
152683
-64457.4
26920.5
-1.20855e+06
-1.22342e+06
14083.6
734096
808245
-1.36444e+06
-56363.5
-500692
-474741
-24700.8
-99302.2
-60498.3
-21902.3
-192397
-170612
8277.72
-31117.8
-119059
84348
858117
1467.28
-56109.2
297109
-275341
-233143
-117386
-111076
15661.2
-187233
-133098
66344.7
-18825.5
-30300.8
59601.5
7479.25
137934
18511.3
-7202.35
8212.72
47703.4
-1682.13
-191456
75658.7
20797.8
-19216.1
-137296
63470.2
-31821.3
-73030.7
-82275.2
-166775
-116962
65466.7
-69937.7
-143347
-1.01251e+06
1.00191e+06
1.11469e+06
600146
365361
749283
1.19107e+06
1.66844e+06
2.12982e+06
1.7224e+06
1.21964e+06
1.1348e+06
813647
855691
906410
147163
-189797
450736
86470.3
138664
-167654
-1.35611e+06
-230999
-616914
-627773
-411877
-404592
-174757
-815985
232093
454488
-397608
-70746.6
-49282.9
95376
1.19249e+06
-551255
-1.76294e+06
-1.05759e+06
97240.5
-169872
-136913
-102014
700514
1.05039e+06
827073
852807
-18912.6
-282094
-37836.1
235488
-193708
97841.5
75773.8
429622
391379
224143
-27826.6
126570
-144410
-71037.9
-27920.8
944.361
63712.9
159452
71136.9
-25333.5
94927.9
-95153.9
-2.02418e+06
-528489
145822
259471
1.11453e+06
394214
-1.31655e+06
-165106
-81781.5
831003
342348
356768
1.76535e+06
1.09088e+06
-1.55324e+06
-268069
-534405
-168417
-553110
-970845
-231506
295421
488345
933219
1.70702e+06
279806
704636
432968
959964
1.76648e+06
1.56409e+06
82043
175496
140031
-38571.1
-91925.8
305093
-289375
-17974.3
-275018
-62963.7
-1.34134e+06
-887542
-493500
-318929
-83716.7
-247747
-151265
-330743
9950.25
-452144
-244968
-390657
210180
433968
766976
434777
-217459
-196161
-217536
10145
-322640
-351811
63305.9
261512
127300
67587.6
-204184
56688.8
337.712
245138
-249705
-154551
-139533
312510
10231.4
-36627.9
-160079
-279923
-118017
70503.3
68567.1
67148.9
-22469
-9100.48
48639.5
-13847
-132808
-84163.4
-168231
16756.3
-47431.2
-400188
-64131.3
44392.2
-107876
-174652
233445
165972
-78741.4
9130.93
-501.421
-216897
-138236
-261068
-15754.2
135727
129025
136167
-111775
378900
971827
344044
386065
469750
73146.7
-172311
-413028
1628.76
140864
-152684
157738
98787
68585.7
229891
798994
903160
1.32375e+06
1.27882e+06
398082
473541
1.23433e+06
1.42958e+06
1.70501e+06
1.34705e+06
189823
44609.9
217188
1.66065e+06
630078
1.64128e+06
964122
157530
167467
-14983.5
952954
858641
449191
867929
1.2987e+06
835774
389653
878995
-603240
-331262
57122.7
-41401.2
854695
-28986
285245
4825.92
236098
314119
-8836.24
-80932.7
-26821.9
49444
-46114
-138132
-40285.8
-75405.9
-135198
-394403
-1.30336e+06
-52112.8
-980908
-570176
1.32977e+06
225307
-114351
-167130
212839
72686.5
38933.6
41336.3
-35853.3
14930.7
-17398.6
-40766.4
-70267.8
-47208
-7994.62
122890
34160.9
-54118.5
64405.4
-1.00036e+06
-1.35563e+06
-1.08873e+06
-242369
-447990
-682378
21125.7
150870
-508.285
13590.2
24310.1
267779
579806
1.07165e+06
1.82975e+06
838904
1.86947e+06
541696
45516.9
-315157
-2147.06
728310
758730
2.31443e+06
1.7598e+06
772208
695560
1.53326e+06
2.48076e+06
1.64422e+06
1.04308e+06
532406
902858
1.11161e+06
-23203.2
-781296
-340936
-592239
101973
-477455
249668
460392
293824
568654
149847
209124
-338898
-408121
-258842
-220997
241654
154630
-36886.3
-86927.4
-140933
-101833
202508
97219.1
35657.5
-16655.8
269811
81743.5
287305
369867
466937
2.28999e+06
2.07284e+06
1.50718e+06
869707
1.17351e+06
1.55597e+06
1.32717e+06
1.00723e+06
1.23652e+06
1.5088e+06
2.59242e+06
1.26696e+06
-225740
1.13359e+06
1.29086e+06
-1.14124e+06
-50298.7
50913.8
1.11355e+06
1.9505e+06
2.40813e+06
747585
317636
410318
221068
398864
745932
131593
-18827.4
-15216.1
17426.7
353177
307739
657162
-70059.3
38643.3
-300615
-227777
-31776.1
-119208
312759
686744
959372
848365
483988
210667
221315
256837
-692461
-630608
-888613
38198.8
157828
-58341.6
-152985
130369
110506
112178
75549.3
98071.7
-191783
-33892.7
528645
172088
2107.05
49935.3
521414
135434
125120
519189
726696
680320
658445
991945
560755
-228799
-111186
394528
157374
104156
123754
77052.2
-36010.8
411678
20041.6
52498
731100
1.50891e+06
1.85403e+06
1.87787e+06
1.40272e+06
-303095
-153452
-464266
160766
-36122.1
910694
2.22492e+06
1.87144e+06
549863
-162230
-64770.5
87879.8
91541.2
-107864
405604
297153
32668.2
-40964.3
48410.9
-17398.9
-58374.8
-96179.6
-74777
291163
-133698
33785
167858
-64779.5
-12214.8
-66678.5
-16522.2
-4609.48
-26774.5
-96430.4
-255098
-26821.5
112063
15210.9
175623
-3517.15
-26570.7
-6521.04
-103349
-7716.54
128414
229149
11624.5
68565.6
-27630.1
6337.33
-162423
-378071
-488055
-77632.4
11302.5
141859
-12850.7
137912
-61880.8
-265690
-145888
-17741.3
100378
403751
-33322.2
-44909.3
-87554.2
41884.6
-116893
-68747.6
-101240
91518.5
122089
-38387.4
-56177.3
20961.9
94574
110595
52382.4
219607
464838
373103
361890
320208
323455
259924
167815
-59792
-308323
-1.6535e+06
-2.06557e+06
56147.7
217987
316567
-66145.4
-95429.9
-480262
-220719
-767864
-109490
-75981.6
370637
562518
425495
-379686
-760522
-34160.5
31570.6
-86992.6
-76902.3
9359.12
351998
79101.4
142541
132338
635896
43496.9
387465
911644
2.0223e+06
1.0841e+06
585787
283828
207427
433773
57083.4
148745
40834.1
312746
47655.4
164749
657222
258860
663220
-129372
-210765
-315675
-26786
331808
-39522.1
-278735
35569.9
84878.5
41135
19736.7
79476.1
378637
-389645
263693
541167
138961
210217
137383
334725
-781915
-1.83246e+06
-617021
-1.2497e+06
-290431
78493.6
9574.79
-132761
-226197
-359721
84587.2
-69355.6
-132210
-742948
-1.48607e+06
-847241
-799609
-807284
-137990
-277411
-429944
76987.8
-69475.7
-218937
-36285.9
-145280
-178294
-79179.2
74026.3
-101514
100669
-213681
50101.9
259547
70404
605214
531910
579896
1.28315e+06
1.17881e+06
2.49643e+06
829237
542880
975006
165974
616986
82207.1
113622
-150058
-92876.4
-337682
-773954
-132483
-1.51737e+06
-481273
-181051
-127448
27497.1
217740
219386
1.19457e+06
1.4673e+06
1.64203e+06
5.60973e+06
3.00538e+06
2.94981e+06
1.64829e+06
387073
304339
52702.2
320519
20838.6
430312
144806
-42102.3
12430.6
-99000.7
17659.9
484326
702772
48535.6
-472702
596076
723827
29851.6
119996
-21378.9
29536.8
-61383.8
373924
130085
-119740
-53335.3
-189251
127618
-95639.4
665916
165370
1.16838e+06
855111
1.26932e+06
3.20489e+06
1.31391e+06
2.58742e+06
1.33172e+06
1.58765e+06
1.70952e+06
2.86711e+06
3.37318e+06
2.23717e+06
2.14866e+06
1.98999e+06
989598
1.02707e+06
659783
908275
844641
1.209e+06
1.61601e+06
1.34017e+06
1.09494e+06
572894
1.23823e+06
2.40448e+06
1.73546e+06
2.24012e+06
2.32185e+06
4.42316e+06
3.9814e+06
5.50828e+06
3.6348e+06
-393788
121327
305325
1.75721e+06
1.58081e+06
1.0349e+06
500151
912135
524111
462693
329226
763437
732022
164466
45415.5
-509345
-155043
-184277
138869
139948
90600.8
144033
393487
-72860.7
-144391
354011
529127
404817
566370
806290
437346
-41441.8
228832
470202
485845
291070
179760
84141.2
70678.5
137076
496323
537451
403427
183631
60423.6
637601
411513
729006
-531476
-72966.8
-394819
-109982
-38145.8
712786
582700
1.70553e+06
94898.9
46706.6
67353.1
20792.4
-464393
-129171
-269048
-404999
-741561
-917820
-343463
-287757
91674.8
183608
141777
-1278.17
738796
12527.2
-35333.9
-214516
-378100
-168003
-189575
-78442.7
-270016
467068
-104037
516487
1.27061e+06
-189492
459350
389729
-493051
27915.4
-25153.2
-281473
101446
-67423.6
149369
215673
189193
300369
164677
269621
-113016
-73933.8
-29591
-319115
-351531
-796167
-497962
-76113.3
-108050
81590.6
-209832
240219
127384
280715
61182.6
-28089.7
106148
-99991.3
-479102
-98277.2
142536
146163
-378476
29319.5
-286796
404892
-187817
-112041
-239771
33549.6
72344.7
243050
340272
783034
663328
440807
73770.5
165234
731034
403257
528854
294634
67240.3
122713
23048.5
11014.3
-208885
-175007
95336
723988
782709
1.93749e+06
1.72261e+06
1.03479e+06
428346
260575
191968
-132791
604394
-14878.5
964002
1.17844e+06
835380
1.54381e+06
528925
159779
-84437.7
-135679
155663
713433
1.2104e+06
3.94294e+06
1.50885e+06
2.28887e+06
842516
-475645
-40594.8
106238
99774.1
253643
129999
312169
-82273.4
98638.8
147134
108914
-58380.1
26474.3
95987.7
508872
333703
24373.9
133088
379024
416628
105434
44319.9
686125
260716
-389203
409712
58732.9
128577
177889
-521722
-34500.1
34052.4
-14376.8
-190201
-124107
-387913
-1.14185e+06
-1.15013e+06
-528178
-299411
314322
635160
-709852
-797476
-78369.9
-39083.2
-126705
-45035.1
211486
-74934
-13936.5
184437
-265938
35254.1
-20879.2
-93348.2
-1712.23
-55705.7
-105097
-243497
-150844
-199227
-68330.8
-14360.8
-100801
132450
-36710.9
-156602
-22034.7
-33023.2
138770
29145.6
230166
-26306.7
12341.9
-85485.4
61396
530698
-302564
-126714
18127.1
-57413.3
-17155
501924
123139
305064
-78108.4
244390
64902.7
-283783
17458.5
-2242.27
226814
208730
-118845
12544.5
208705
-37690
-43441
790525
-388816
118469
211086
444156
173382
30028.4
-443837
-105466
-2.31362e+06
-2.99237e+06
-2.94678e+06
-1.19843e+06
-686769
771180
183584
660281
526073
1.00278e+06
96480.1
132214
-119841
-148354
255096
169942
-113864
-604949
147124
869864
1.15349e+06
44157
-68103.3
335002
-26036.5
876669
1.2245e+06
1.63791e+06
1.02507e+06
541656
317167
69025.4
92022.7
157606
98281
410836
-63118.6
402426
999873
439992
1.27022e+06
803885
767862
767831
204992
606288
68340.6
186090
184958
548854
746610
432780
972552
854000
1.0709e+06
252132
1.65234e+06
1.98663e+06
1.82884e+06
1.35424e+06
3.87545e+06
4.86424e+06
2.21306e+06
2.3417e+06
304525
686163
1.71655e+06
2.58948e+06
1.85974e+06
2.47526e+06
4.13101e+06
3.07828e+06
2.17292e+06
1.19698e+06
1.48997e+06
830596
584636
85409.2
283902
42089.2
5371.15
-49608.8
-100365
-12569.2
-105519
8327.63
170273
132585
348429
893295
644504
263440
-471373
710762
-141138
-77547.3
-71192.5
263269
100507
-88962
347535
-243177
454948
-280092
107066
34365.6
27573.4
-164649
-192818
-580029
-1.45219e+06
-1.04799e+06
-516281
-1.42853e+06
-2.23638e+06
-2.47098e+06
-539374
-265950
-676922
393110
221143
388059
1.77976e+06
1.5231e+06
1.8257e+06
625353
1.87252e+06
948065
371662
628177
574822
-7308.35
64027.2
-653346
-263450
-208133
-23394.4
80063.4
-55406
134685
164647
-316489
-549934
852263
133626
551575
564502
283684
109136
1950.45
180714
442506
797895
209660
763479
1.33229e+06
1.02846e+06
1.2417e+06
1.46301e+06
1.82829e+06
1.07578e+06
911915
494991
72406
256495
51891
455699
44539.7
362016
967143
1.46477e+06
2.30587e+06
512574
562844
869919
-217145
-419030
272996
271722
241202
215266
897137
101852
9351.21
106596
377020
500463
5221.6
-168243
375180
322914
120039
-48513.1
17067.2
56577.1
161125
-75208.4
818868
-294412
-711763
-158737
144809
200488
195517
204171
-100439
131869
359282
109000
101236
55407.3
571856
1.59369e+06
1.33869e+06
1.53207e+06
3.47551e+06
1.78901e+06
927761
-247769
78435.6
-62513.9
126210
99983.8
84610.7
119602
347517
238827
256023
755613
169758
-160197
-75441.7
-578566
-737424
-181404
74999.4
-247738
-195744
-105426
105695
-90491
-95939.9
-286594
-108016
134144
130297
318707
-161904
-825696
-284150
-189394
-411714
515531
341083
472804
466307
218162
368541
125157
349870
91546.6
-196450
-50278.3
92335.7
405470
119298
-123051
-159671
250642
49014.1
189624
585783
45311.7
59519
224338
-308231
-1.50495e+06
-276470
250679
-24597.6
693303
1.1705e+06
1.29228e+06
1.01948e+06
1.45106e+06
1.43898e+06
666853
453137
534963
778149
2.17632e+06
2.47692e+06
2.01704e+06
1.43079e+06
983812
247598
686205
165660
228773
7411.57
-45977.7
75959.6
453964
1.01757e+06
698884
3.0652e+06
3.83923e+06
5.40617e+06
5.53189e+06
