206.747
2683.41
-4162.55
-2332.54
2696.68
2677.38
3173.33
962.661
1422.22
11.4715
3769.63
5574.57
17043.5
10059.8
20286.4
21103.5
13532.1
16909
14960.4
24641
28986.7
32874.6
27144.1
10088.4
1979.09
1924.67
10193.6
5711.45
5008.68
13405.3
4174.67
1663.32
-3009.19
-9351.79
-19340.3
-13616.1
-15475.1
-7430.32
-8332.04
-3051.22
475.612
8924.95
12270.8
11881
16425.9
9769.07
10467
4483.84
5902.87
41.2464
166.708
3789.97
-1501.24
-5393.62
-5707.32
-2285.07
-853.238
4630.41
-326.255
15598.9
8504.18
12622
19826.5
17088.6
14678.4
7081.92
3667.67
2539.17
2001.61
-3159.86
-7303.85
-8238.09
-4296.97
-7661.48
-3417.8
-4765.3
-5316.42
-973.577
-385.296
-6831.2
-3242.8
-3408.2
-7374.4
-4938.08
-7390.4
-4744.33
-7135.53
-4506.46
-4462.19
-8173.35
-6791.28
-5585.24
-6324.25
5888.48
-4615
-3281.81
-7867.19
-2993.94
-4874.67
-9287.44
-6092.6
-4502.87
-8974.03
-12189.2
-9326.59
-11372.9
-10469.7
-3945.29
-6228.07
-7968.38
918.998
-1307.39
-147.925
12966.7
11875.9
9884.43
16050.6
26857.2
16322.9
19318.8
19973.2
15851.8
17144.9
11819.3
14582.9
2497.82
7551.01
9631.33
7799.86
3325.61
-1809.94
7219.13
7594.82
-1807.59
-528.705
4911.85
6493.33
3757
8839.09
2712.36
6165.48
7048.58
-5644.45
-17092
-12036.3
-13066.3
-10681.8
2990.88
4411.03
10513.8
8442.9
6968.06
539.365
8187.82
1202.7
-747.827
6877.35
16246
16783.9
12874.4
13713.9
8647.42
12814.5
7924.96
4868.63
3111.13
112.909
7823.09
7439.85
9720.15
6231.39
2375.41
6214.3
6386.57
5452.05
17238.9
3787.11
4311.72
717.591
-4290.72
-5149.7
1935.59
-4409.33
-2097.98
2174.43
6872.3
3386.71
5238.03
9582.21
18128.7
15212.1
478.056
-2723.48
-4205.85
-12705.9
-16495.3
-11713
-14967.2
-14785.8
-16974
-17559
-13504.7
-18801.1
-23882.2
-26259
-18207.9
-15445.8
-20179.7
-15327.6
-13820.3
-17444.5
-19621.5
-16191.2
-25012.9
-16113.7
-11090.3
-4826.14
3636.35
-1881.74
-4559.78
-11420.4
-1841.14
-2775.56
-7143.01
208.889
-1499.15
1329.17
-422.784
1423.09
-3034.83
-2974.37
-5550.95
-4680.19
-4027.18
-636.755
-416.423
8068.13
840.575
-9782.84
266.169
-7568.03
-11274.6
-15364.1
-12337.6
-13833.4
-14862.9
-7573.73
-3633.45
-1059.42
3473.92
6919.72
8623.13
12133.2
-1251.76
467.416
1176.75
-3836.02
2910.03
-1948.9
-15925.1
-17670.7
-19051.2
-22372
-21819.9
-21434.5
-16739.7
-12102.1
-15500.2
-8685.39
-8821.42
-11594.9
-7756.58
-8168.81
-9263.79
-9802.76
-7280.6
-5384.89
-5767.18
-6497.44
-1283.61
-4418.86
1595.2
695.416
329.601
2200.75
268.746
2464.25
4469.87
526.928
-920.588
-7544.35
-4459.86
-1718.48
-1305.75
-1342.43
-3711.21
-4758.83
-2634.69
-3120.06
-2814.14
5278.28
9609.88
23283.8
19036.3
22233.6
24621.3
12767.5
9401.67
19771.6
16475.2
30663.5
31259.4
22601.1
18159.2
6654.5
7829.09
3645.28
4357.37
4090.17
3397.4
11137.1
8277.87
5852.59
9340.32
4464.73
-1597.34
-8146.73
-10346.2
-21238.4
-21202.2
-13359.4
-13459.2
-7211.42
-4955.28
1181.7
-1750.14
-8309.18
-3525.28
-6111.41
-5283.03
-4820.52
-5049.47
-3486.11
-1479.83
-9182.68
-13197.9
-9571.73
-15215.9
-12553.3
-10522.4
-14724.1
-16669.5
-12081.7
-11565.1
-12550.5
-7721.52
-2649.04
9311.91
10406.2
5490.98
646.816
-1746.66
-2484.51
-4817.78
-3737.76
-4152.7
-4654.29
-6750.37
-2734.4
-4007.36
-4275.68
-380.12
-1735.79
-9482.67
-2388.78
-1830.86
-3712.14
-4583.81
-11357.3
-10399.7
-11698.7
-11188.7
-14591.5
-18003.7
-12184.4
-3640.25
-6805.15
-4070.6
-10649.8
-10447.8
-7253.43
-6749.57
-10830.2
-11880.1
-13236
-9019.8
-9765.77
-6256.86
-6405.27
-220.452
1869.28
1627.23
4742.56
-184.661
-9528.82
-5479.22
6387.81
12366.5
10124.5
19292.1
6462.96
12638.5
963.116
3247.13
1880.01
5163.36
13202.6
4688.43
9853.12
11335.5
7365.4
12624.8
4864.34
1010.63
4180.08
6408.52
11685
20370
24285.7
23662.3
16767
9360.31
-2086.57
-10279.8
-16736.3
-15926.9
-10195.6
-2337.27
2661.87
2546.53
-89.3828
721.834
-10163.7
-10434.6
-1078.49
906.937
-1730.58
-1098.14
6067.7
3008.12
1798.61
6403.24
5902.31
7746.51
-1559.75
1013.16
-1878.08
-17482.1
-14385
-17339.5
-9286.84
947.873
1953.39
15275
9115.95
24918.4
53513.4
52049.5
55718.6
62750.4
50973.6
50728.3
31489
22836.1
16987.2
534.839
2422.94
5506.07
5055.06
5524.64
3703.44
1326.32
2679.06
7652.32
15278.3
11747.5
6463.05
5406.24
14703.6
10117.8
11342.9
7173.42
13642.7
14798.4
13797.7
9459.11
4376.64
1442.12
3941.49
-100.651
2837.53
-810.237
3876.13
2206.85
-6840.85
-5208.39
-2781.55
-3466.71
-5159.7
-4709.35
1950.95
3827.64
1196.01
-4875.79
2997.92
5407.95
3262.44
4416.24
4566.49
10417.4
4878.62
14582.6
11020.3
27298.2
18475
29136.9
18768.6
18982
32968.2
54134.8
68393.2
88547.7
76112.8
69104.2
77829.1
83482.2
77899.7
59740.2
49830
38881.6
48591.2
38535.6
49251.3
58786
76645.4
96274.7
102543
87339.6
75107.9
55390.8
45355.2
49723.2
39352.9
45599
25328
55190.5
34049.8
49125.6
27506.4
37552.6
27220.2
41135
37339.8
39499.1
31353.5
17638.9
19386.2
13990.3
14335.6
19466.6
27178.3
27165.6
17016.2
18474.1
31995.8
37429.6
32465.2
40724.7
45010.6
36714.9
54096.5
74607.4
67743.3
88759.4
90544.5
74401.2
74044.5
54284.2
41339.3
32359.1
9802.37
11619.6
25516.7
15144
21542.7
31843.7
29583.2
33736.4
22701
18609
31112.8
25614.6
21159.8
11705.9
14025.9
7502.39
5585.59
6510.83
11750.3
13520.5
13183.8
26870.5
32897.3
34555.4
32881.8
37022.6
25856.6
21631.1
12630.6
17304.6
3986.64
-1802.95
-6323.66
-4753.97
11326.7
6209.46
3827.92
5655.26
14107.3
17062.6
9396.83
2482.85
11733.2
5315.34
7596.97
712.777
-2252.56
-6579.62
-15165.5
-14427.7
-13610.9
-4255.73
3037.87
9222.05
4962.01
12653.5
6348.78
693.256
10120.5
16085.5
16400.3
14504.1
17964.3
27828.1
21853.5
15244.7
17933.6
12067
19571.8
20358.5
27861.8
15832.8
23047.4
32755.7
37676
43538
46819.3
46465
43823.7
39958
42159.5
59731.3
54442.9
43571.9
34673
32026.2
22291.2
14357.1
20913.1
21904.5
22095.9
13546.5
16962.2
18565.6
19145.7
18965.5
16164
17046
12793.3
12351.4
2020.57
1046.11
535.825
-5228.56
1174.85
2838.21
5986.91
18390.1
8061.54
-1202.58
-5544.36
-3863.18
-6498.74
-2748.94
-733.365
12.6418
-1213.25
4689.83
-999.388
2004.32
3725.9
6096.61
11927.4
12045.1
12018.1
11927
17119.4
9322.8
22684.2
17272.7
14357.3
16172.7
23472.3
18381.6
25373.9
37048.2
30600.9
25498.7
25810.5
46836.5
45939.3
40793.1
46039
44884.2
43302.1
31712.9
24426.1
21802.8
5599.99
10458.6
11540.4
10185.1
642.841
1815.82
3894.77
-250.099
-3292.13
-2802.83
-1471.14
346.723
-5153.05
-9808.65
-11790.6
-15169
-8200.08
-23010.1
-22088.1
-17448.3
-22122.1
-14676.4
-19163
-16221.5
-11278.9
-3951.83
-7083.37
319.995
-303.673
-9478.56
-11046.5
-8091.59
-7959.37
-7687.61
3233.82
-1327.54
-4052.52
-518.688
469.016
-2265.69
-1754.77
-1218.94
-3047.96
5281.25
-719.958
8632.46
2006.88
235.339
-488.434
8768.56
9607.27
-3499.11
1401.99
3461.24
-1604.63
11091.2
16105.9
17453.7
21762.3
9814.26
22692.5
24483.1
21350.5
18096.1
30208
25312.4
26776.3
30851.5
33997
47664.4
58923.4
52790
56501
52978.7
45255.9
42767.5
54813.4
48926.8
49927.1
55089
33875.1
33116.2
29043.9
19746
12469.9
25434.7
22935.4
22454.6
17666.4
21006.5
3604.02
16061.4
13884.1
19241.4
11780.2
8467.5
6683.93
3846.32
1855.58
-373.016
-2565.09
457.409
-5404.47
-2074.06
-730.075
-3262.96
-4917.96
-4196.28
-988.675
-3970.74
1019.91
-3288.85
2906
3678.49
7903.08
2244.06
83.9943
-1098.21
3954.66
7815.19
-673.432
4749.14
-1247.72
3991.47
-2798.86
-9717.22
-5008.38
-7446.59
-8768.98
-5844.66
-5541.27
-1606.13
-3055.76
-1139.31
-6890.53
-349.843
-3840.97
-9394.19
-1161.72
569.387
8466.23
901.625
2516.21
280.447
8731.08
8093.82
2295.43
4231.23
9407.96
527.93
9457.07
863.255
42.2139
-3318.08
-1883.06
-4668.15
2493.02
1155.21
-358.163
-9287.57
-7598.84
844.585
-11780.3
-11464.9
-17223.2
-11623.1
-9816.19
-4544.13
956.263
4530.57
-2984.05
-2775.66
-14825.4
-5371.19
-966.404
-4221.83
760.424
4588.43
6737.59
2998.27
-540.395
6329.65
11612.8
10679.2
10811.9
3624.04
8659.32
15893.1
14456
6363.18
4486.96
1054.58
-2302.68
1859.05
-3134.3
-5359.21
-2527.2
-6070.94
-881.333
5597.17
5297.74
-362.257
-5122.42
-5743.19
-2655.64
-1791.67
-55.6475
-4557.71
-4042.27
-3939.14
1291.71
-1782.23
-1669.04
11536.1
18234.9
19776.2
11161.3
5357.84
5788.73
3028.49
-231.221
1730.88
6014.81
5432.38
-843.62
5892.02
-1407.51
4264.33
3152.34
-3772.94
-1530.98
-66.368
2805.7
-5464.71
-7072.66
-6184.88
-5582.18
-7345.3
-4542.62
-6394.87
-525.151
-5029.76
-9290.82
-11746.4
-22280
-13069.5
-18873.5
-13103.6
-3795.62
-9851.74
-4411.88
-2637.05
-2561.15
-3304.16
-2573.66
-4830.87
-7152.84
-14690.6
-12165.1
-11694.2
-11915.7
-17184.4
-15836.4
-23074.8
-32785.7
-29824.7
-27435.9
-22920.5
-28463.7
-22760.6
-17335.6
-12185.4
-7367.7
-10646.3
-12532.2
-15497.7
-9903.87
-4114.56
-6274.26
-4733.95
-7196.78
-2994.7
1392.98
3708.32
5977.39
10864.2
8665.61
12838.2
16132.5
9243.35
7400.33
12417.2
-1391.69
2259.58
-2788.33
-3028.38
-6119.35
-10882.1
-12220.3
-12865
-17373.2
-12030.5
-12367.4
-14305.5
-22874
-23880.7
-20386.8
-14053.8
-9420.91
-6971.47
1639.94
3975.02
10683.8
6072.34
11902.7
13008.8
7714.79
-2636.31
-15454.1
-19966.1
-19438
-14989.1
-17089.8
-15052.7
-13189.7
-9593.43
-6506.03
-7414.26
-9654.95
-10854.5
-10157
-11.2938
896.545
2561.88
956.378
-4889.22
-8360.93
-3903.5
-6844.66
-2145.68
-9292.64
2020.76
-41.6326
6716.59
4280.32
4905.39
-5124.88
-9737.08
-16079.7
-8717.27
-14965.3
-8440.12
-5802.68
-3749.59
-8045.15
2293.95
496.256
552.13
6638.84
5140.74
11343.9
1845.18
-3906.26
-3611.85
-4217.65
-6969.29
-10762
-5863.04
-5448.42
-21906.8
-33966.6
-31239.1
-22515
-13786.3
-19961.4
-24827.8
-18016.4
-13611.5
-16286.8
-20916.8
-26557.6
-28101.4
-27084
-20791.4
-22290.2
-22424.8
-21043.5
-19238.7
-16697.3
-18325.4
-15322.4
-13781.1
-18293.7
-12201
2643.67
-5457.14
-8095.35
-4185.62
-9500.16
-2326.75
-5529.73
-5875.55
-7969.69
-6570.32
-5872.58
-6641.07
-12634
-20650.6
-18514.6
-15551.5
2352.99
11816.2
27764.8
23942.9
22832.8
25085.8
17463.8
22744.9
23017
35331.8
22054.4
20824.8
23320.3
22732.2
17674
7043.54
445.155
-1625.31
-4098.21
-1121.82
-2119.56
-7781.49
-6184.96
-6542.66
-9401.35
-152.568
1540.16
731.218
-1545.5
-495.208
-608.326
1545.64
-2051
-1844.37
-10194.3
-7460.18
-10762.4
-8778.69
-2551.69
-2057.61
-13874.5
-14483.4
-12207.9
-5110.5
-13151.7
-20571.2
-22543.1
-26620.5
-22636.3
-17213.1
-17814.4
-16063.8
-22676.4
-23443.6
-26331.9
-25088.4
-27759.2
-22189.5
-25966.7
-37097.3
-35313.8
-30091.7
-26234.3
-23994.9
-19537.1
-14643.6
-12720.4
-18888.6
-22089.2
-24443.5
-20076.1
-22008.4
-26062.1
-22608.3
-20930.6
-26603.9
-29120.7
-37337.9
-26096
-17788.2
-16896.1
-23696.2
-30298.2
-29669.9
-26306.2
-30229.7
-23801.2
-14475.7
-13044.2
-13591.4
-22366.4
-11918.3
-26813.6
-16242.3
-11613.9
-7611.22
-2214.26
6599.26
9183.38
3939.84
5118.69
-1673.63
-4176.7
-2225.49
-4682.5
-10470
-6734.58
-9169.13
-11210.3
-5389.27
4612.78
10736.4
7412.68
8236.96
4890.55
-1810.05
3430.55
5212.72
1501.2
5153.19
3320.78
-1778.47
-994.628
-1247.03
-4941.14
-7274.26
-4436.35
-1010.69
3194.62
5651.15
3500.05
5921.36
13980.5
10890.3
2980.16
-2214.44
-7122.78
-3235.12
-7222.05
-1509.17
-3527.47
-2608.21
927.763
765.534
-658.168
-1176.89
-4446.89
-7721.98
-12621.5
-16075.3
-12142.9
-2746.99
1869.22
-915.841
431.393
-745.415
-2051.57
-4145.7
-3959.04
-11202.8
-11059.3
-13200.6
-8023.92
-9618.71
-3451.85
-3955.64
-1775.32
-351.093
-3254.65
-5727.82
-8823.19
-12479.7
-13357.5
-17523.4
-25903.7
-20264.1
-22258.9
-24345.4
-21316.2
-22731.6
-16205.6
-19407.2
-16381.5
-18228.3
-14124.6
-18516.6
-19398
-18585.8
-10404.1
-5138.14
-1632.01
5029.04
4755.28
-1694.12
-403.42
4576.76
10687
9878.61
-3447.12
-10624.7
-19445.7
-8670.05
-5058.33
-3658.22
-3793.01
-3685.94
-4681.04
-6356.98
-11762.2
-13699.1
-6475.07
5323.42
1603.65
-3113.07
7689.23
-924.199
2124.09
-13214.3
-5186.1
-18232.3
-19806.6
-21752.6
-16649.4
-18102.7
-15714.1
-23282.4
-30229.3
-32960.1
-25351.5
-27011.7
-34413.4
-41071.3
-27024.2
-21526.5
-11244.1
-13166.6
-13973.1
-10497.3
-9920.58
-10799.2
-14859.8
-11267.3
-4141.5
-711.869
-786.213
-252.597
855.133
1183.09
1448.03
4909.7
2391.76
-4753.5
-3867.88
4943.5
4848.57
-1241.55
10.9831
738.28
6379.62
5950.66
-4165.19
-7430.9
-1522
-399.337
-5848.7
-4469.01
-7090.49
-2067.65
-3372.53
-580.757
-2181.88
-2121.22
-2344.75
-1866.31
-2112.6
2691.52
5000.15
11202.3
7909.66
6146.9
3352.54
8021.78
8837.99
16687.3
5696.37
6822.31
7698.72
15761
20250.4
13986.8
22089
15395.2
11686.6
2900.33
3953.17
-4117.05
-5365.88
-4533.91
-11173.2
-11380.7
-10476.2
-18002.1
-22668.4
-18946.1
-17992.3
-14817.8
-21013.3
-26510.8
-24926.8
-26659.4
-23963.7
-20590.5
-16436.8
-22968
-23380
-17765.5
-14312.4
-19561.9
-7200.16
-1762.11
-18728.4
-7754.31
-4885.35
-6900.27
-15047.1
-11615
-14871.1
-6183.83
-13042.6
-17683.1
-15275.2
-16983.3
-18143.9
-7643.95
-2618.51
-1877.48
7656.63
27475.3
40571.1
50931.8
51651.6
51841.6
57326.4
40716.2
40807.1
46838
50289.8
58314.7
58915.1
39224.1
32019.2
25385.3
42717.8
46177.6
66443.5
75952.1
73279.3
64540.8
70853.4
84003.7
81495.3
95623.1
76035.4
87586.1
92134.7
86362.4
90657.5
78875.3
62233.5
53722.4
60514.1
50773.9
39177.9
36145.2
17317.7
14848.8
7465.14
15351
17395.5
15807.2
10181.7
4337.72
1363.66
306.484
14895.2
16845.7
18429.6
18165.1
26261
21673.3
23323.3
23673.9
20858.1
23477.5
17328.1
16058.7
16114.3
12511.5
10048.7
13062.8
16725.9
10837.1
6329.48
1246.08
12836.7
16892.1
16917.4
31864
39928.4
51517.8
64519.4
55127.3
24469.6
7669.18
12396.4
18537.3
10825.6
17465.2
27185
29411.1
19720.7
19992.3
29814.4
29217.5
37910
22060.9
17899.3
-3894.29
4756.77
-10400.7
-7380.23
10904.3
5054.37
17761.4
4085.45
-15780.1
-11856.5
-13439.8
-1493.93
5964.78
4913.41
2952.29
1437.56
10663.2
34320.6
38005.1
30823.8
31412.6
26623.2
26729.7
22862.3
38169
40122.8
54904.9
54693.1
40424.8
32942.1
25081.1
4348.11
5583.03
11614.9
11385.4
13601.7
21872.9
24861.8
30837
27576.4
29669.3
25791.3
28528.8
25614.3
15450.6
22739.2
7377.64
622.358
-5744.55
-4661.78
-6823.49
-8760.81
-11572
-9287.42
-8669.23
-11400.9
-7404.76
-7477.17
-13911.2
-3895.12
-5964.21
-9616.46
-9068.61
-1711.67
-6348.98
526.163
-4811.37
-2098.61
-14694.7
-20207
-18985.3
-13774.6
-14495.4
-18211.7
-24489
-17621.4
-21621.4
-9555.55
-8126.44
-14328.7
-13427.7
-15139.7
-14967.9
-10404.3
-8388.67
-8879.33
-5336.56
-3033.7
-1716.08
6328.96
7710.73
7587.96
8145.23
15415.7
3049.03
-4664
-5454.14
-6740.86
-5843.96
-419.95
6474.11
6824.52
9478.3
10945
22792.9
14615.8
6871.47
21313.5
39821.9
37188.1
18803.2
8401.44
4922.6
3159.26
756.773
-6409.95
-4947.99
1608.96
7416.19
4241.14
1922.93
6408.16
7049.55
2423.61
3130.27
1143.52
2061.35
1848.3
7940.9
3523.26
2755.73
-2209.28
6703.02
17139.5
24186.3
16909.2
12906.3
12220.4
12366.7
10064.3
13819.7
22856.9
22795.7
29233.1
37276.3
27391.2
17177.3
26245.7
35501.5
32499
32025.8
21519.7
6291.19
10440.5
-145.413
4180.11
13428.7
7161.59
9336.41
6118.59
31662
22936.1
14886.7
20138.3
25900.3
24187
19052.2
7992.64
6552.62
11531.9
-5705.3
-2529.51
-7854.91
-12577.3
-9775.58
-11686.7
-19358.7
-13393
-3208.74
5094.68
5578.44
5048.25
-8637.13
835.729
356.897
-2023.3
6726.26
1605.19
9728.22
16729.2
34893.3
41530.3
21332.8
27217.6
20893.6
13838.1
14525.5
11153.5
7778.08
17.0453
1840
-3334.94
-1017.65
-4784.52
-3869.2
-1649.73
9.0171
-4693.15
-1488.74
-1510.57
1003.87
-6041.31
-6992.81
-5532.96
-6421.62
-8528.86
-5832.91
-2632.41
-11783.2
-12385.5
-14156.4
-15679
-12114.3
-10589.6
-17923.2
-9530.19
-6704.57
-5349.64
-780.189
594.311
2558.65
3505.64
730.785
2103.43
3771.77
1562.37
-5215.54
-11077.7
-7865.44
4461.87
-502.908
2905.5
-8229.02
-12780.6
-6246.98
-7798.14
-4802.42
2600.85
838.519
9243.09
4301.77
12816.8
11436.8
15526.1
10663.2
14465.9
14362.8
16955.9
10745.9
12582.8
16335.2
10118.2
14090.8
15299.7
13633.4
7423.03
13099.5
21805.8
18531.2
33742.8
43179.1
23807.2
27511.8
23073.7
18015.1
23678.5
43460.8
35532.6
32198.2
31513.3
26731.3
33423.1
51941.4
58012.8
62032.2
54967.7
51219.1
56619.6
51959.9
32814.9
30800.3
39278.6
37404
27512.3
36619.3
36339
30212.8
29643.1
35171.4
40938.5
37111.8
60580.4
75440.2
58458
64729.1
80381
67757.5
45151.7
51892.7
48099.1
44663.3
26796.8
27951
32504.8
25630
21169.8
21369.5
29624.5
40069
40113.2
28856.6
14114.7
8393.26
8277.2
1722.72
-3195.34
-4400.59
-11509.7
-3275.89
-971.566
5460.6
7820.19
4236.9
-4177.54
-6196.71
-3824.65
-1266.25
-8358.29
-12300.3
-11521.1
-12224
-15528.1
-12113
-10099.8
-71.7255
9809.21
-2847.56
-140.696
-8100.48
-7279.29
-14647.9
-16198.7
-12800.1
-18984.4
-18575.8
-15416
-21828.6
-24477.1
-30641.8
-25850.9
-34382.9
-23704.3
-23797.3
-25072
-16143.6
578.014
17110.9
15957.3
11876.8
1725.66
6080.37
4350.7
890.391
-4131.67
-4400.61
11889.7
18606.5
27444.6
24728.1
25758.2
25184.6
31303.9
26096.4
28193.2
26350.7
25971
33855.8
22648.3
22947
31812.1
30149.6
26654.1
25216.3
27186.2
29053.4
35615.1
20281.7
15144.6
2210.71
2597.19
-7408.35
6023.24
10063.6
3911.86
190.32
-944.975
-6085.01
-4093.4
-2163.65
1729.73
-390.491
206.618
1744.25
3047.18
-2165.84
3661.75
5341.51
5288.6
-2640.76
-3795.26
-6211.32
616.606
1966.51
-1684.43
574.509
-514.949
16.3771
-371.96
-3805.34
-13025
-7667.62
-736.608
-1060.53
5677.09
2759.48
2728.38
-2482.77
2490.08
-3718.37
-6839.9
-3337.03
896.853
355.864
-1382.09
-1531.15
-8461.47
-18351.8
-19812
-12392.3
-9409.64
-10066.8
-4317.39
-2616.34
-11243.5
-3554.58
-2389.64
-863.961
-3132.02
-1430.64
-3218.31
-10468.5
-9010.14
-7586.4
-10741.6
-13213.9
-13937.4
-11621
-6407.28
-5353.27
-14450.2
-17841.3
-18719.8
-31171.8
-24196.5
-22714.6
-24270.9
-17794.8
-19747.2
-17715
-12715.7
-17996
-15897.7
-11894
-9241.15
-7695.54
-7291.58
-2137.6
4579.79
-1375.53
-7936.75
-6601.73
-389.651
-2511.88
-5735.11
-5711.51
-641.477
-6709.62
-6638.58
-8073.19
632.519
2946.78
-5683.37
-7719.53
-9604.73
-10149.4
-12718.5
-14679
-12898.9
-11344.4
-5276.05
-8621.87
-862.729
-13041.1
-8105.05
-10688.8
-10684.1
-8477.28
-9062.31
-18100.5
-9861.13
-2459.41
-8248.03
-14415.9
-14910.1
-14595.7
-9139.33
-11465.9
2759.22
-718.843
7298.75
7147.32
9039.02
13773.9
22870.8
22396.6
22010.8
30799.9
15667.8
31330.7
24811.9
5184.79
-3481.76
-6823.39
-5715.87
-6185.06
-6489.75
-9504.13
28.1334
-4061.82
-393.223
9423.37
14874.2
18420.4
19526.9
17767.8
15178.3
2949.02
18369.7
24683.6
19481.3
25909.5
22172.4
28682.4
15188.7
21280.8
22855
39474.7
46859.3
65219
61016.2
71877.2
65637.1
54905.3
51599.1
35386.6
44109.2
27039.8
14656.3
19842
38854.2
42970.9
43282.6
51155.4
47256.5
54055.8
65505.4
46690.4
40530.1
34387.8
21771.8
33137.4
35100.8
23393.6
24025.3
24109.9
29182.8
35987.4
36031
47607
36690.9
10563.7
12760.9
24569.2
22703
15288.2
12484.5
7030.69
5826.37
-3174.4
-4047.64
5698.97
7368.94
4423.29
2686.38
4676.78
-282.448
-1560.62
-1924.19
539.433
-3177.46
-8268.61
-1653.34
-3328.8
3936.82
3077.98
-2839.06
-10085.3
-9540.38
-7789.27
-8644.09
-1339.7
-3426.18
-3185.59
1420.53
4253.94
9286.82
8192.17
-4665.96
13148
14243
7716.83
3727.95
5988.45
8874.73
6311.23
1279.21
-1019.29
-1369.67
-8158.28
257.877
3687.68
-1235.67
5668.07
-6112.44
-8883.95
-20051
-10019.4
1549.01
2705.81
134.546
-13681
-11522.9
-5862.03
3564.38
7234.38
3555.91
547.397
-7929.13
-5563.12
-10107.4
-17975
-17486.6
-11670.3
-12070.6
-15967.1
-10498
-13561.6
-10297.2
-8065.08
-7684.9
-7218.04
-13180.8
-4406.54
4547.84
8276.13
4730.31
3220.64
702.086
1299.04
2657.98
13956.1
6778.31
9499.93
7351.39
15447.3
13659.4
5894.03
-91.4183
7902.78
9036.29
18661.7
6023.14
9816.01
11192.7
14684.1
7704.26
10827.2
13651.1
13096.9
13759.4
16046.8
18613.7
15539.1
13429.7
12045.7
13067.3
18424.5
13916.4
6316.3
10195.2
4586.78
7237.23
16880
8606.63
2822.16
5096.82
3057.85
1678.23
6097.87
15021.7
12577.4
9262.28
8120.57
-1732.81
-4628.35
2549.18
2492.92
8103.16
-1405.72
-2195.98
-12291.9
-6153.36
-5099.79
-14156.8
-6789.5
-8946.26
-7257.79
-8958.61
-13900.1
-13588.1
-5487.1
-1576.26
7736.58
4562.72
-1475.17
-1723.65
2476.61
3505.14
4322.84
8524.09
9729.93
9591.83
8427.96
6425.43
3410.35
1875.99
-1401.68
308.598
-349.331
1553.17
-724.553
-4563.32
-1930.99
-819.122
-241.604
-4858.87
-4809.95
-2381.35
-1923
-966.454
-3217.83
4398.66
2516.12
987.197
-8596.22
-12305.1
-2364.81
-1741.5
1758.7
-1951.79
-6558.79
-7375.01
-740.954
-6614.79
-7334.07
-103.554
1429.62
802.539
650.465
-2030.96
3827.22
12635.8
12229.6
3311.89
-3374.11
-5983.97
-6446.81
-11392.4
-1905.15
-6662.64
-3721.64
-2742.92
-3317.09
-1262.86
-2366.42
-640.463
-12333.1
-10472.4
-6459.83
-1432.88
207.818
-1538.45
-8714.5
-11384.7
-14034.9
-13868.9
-3459.5
-7796.6
-12886.5
-10463.9
-9135.98
-7172.64
-4117.69
-11618.5
-11650.3
-9800.07
-2710.3
-10958.3
-5590.79
-9427.66
-4655.21
-4866.16
-15496.2
-22607.5
-19361
-12630.4
-4881.85
3143.78
-5124.9
-4475.37
1364.27
7700.77
-201.795
3967.05
1394.62
8907.48
10505.2
12011.3
10812.4
10289.7
4679.73
2085.76
498.421
-1503.32
-5312.95
-6790.66
-7877.81
-7065.42
-4452.81
9440.35
-6092.6
5589.24
-4194.91
-10255
-5189.67
754.266
176.968
-5199.5
-14893.8
-14702.9
-13568.8
-8253.27
-9254.04
-6389.6
-5777.89
-13509.5
-14019.3
-17284.1
-15064.6
-4533.34
-4085.82
-11752.7
-11709.1
-14282.5
-10935.9
-15259.2
-18912.1
-20839.6
-13006.1
-20620.1
-12196.4
-13314.1
-4192.34
-6280.56
-684.719
-1155.26
7338.01
2640.24
4195.67
-5357.03
-4644.07
4474.77
9109.95
4547.16
2123.77
20068.6
24090.1
24296.1
29662.2
27684.9
22008.3
11773.2
12000.6
27822.2
23638.9
22773.9
3540.3
2354.66
8318.9
9124.47
-153.953
-557.949
-5271.89
-5772.93
-2775.56
-5472.57
-2923.97
-4262.9
5490.96
2864.41
13160.9
14713.4
9308.58
17406.9
16386.8
24223
18140.3
26592.4
16225.8
18382.4
8804.75
16257.6
13094.4
8244.76
5780.74
-877.62
-7019.2
-10802.8
-19152.6
-17777.5
-16931.1
-22351.3
-19660.5
-13840.6
-14335.6
-17533.3
-17882.1
-22318.7
-13489.3
-21754.8
-16431.9
-11850.2
-22535.3
-14186.4
-17279.1
-12492.7
-18130.7
-23958.1
-20698.7
-20112.4
-23703.1
-28406.7
-27730.3
-25109.5
-28473.9
-16004.7
-10285.3
-6893.33
4687.42
9297.83
6549.71
12957
19709.6
9920.51
5310.17
17922.1
19812.6
15524.9
9068.79
11462.2
13852.4
6368.18
2776.06
-6377.94
-3197.08
-4196.06
-7670.73
6975.26
1457.08
12163.8
-1964.24
1093.56
-6070.96
1246.74
-5159.52
-8463.54
-7087.54
-6639.43
-5468.85
-17022.8
-31084.1
-12989.2
-7821.63
-8805.73
-10832
2996.8
3945.23
2773.17
-3908.75
-10368.8
-7951.71
-5819.42
-10862.2
-4420.56
-8052.7
-9592.29
1380.28
-783.652
2138.86
4022.61
140.447
-4460.73
3900.49
-14539.9
-11101.5
-7904
-2764.64
-4689.87
-4884.73
-4631.89
-7082.94
-3122.29
-15692.7
-11922.6
-9900.93
-12764.1
-14181.5
-11318.2
-4916.56
-435.067
-5133.37
-7558.38
-4646.63
-5156.73
-5200.91
-3055.26
-5630.72
-8437.76
-16059.5
-3583.56
-6386.52
-1465.26
1815.88
3067.06
2496.19
9349.88
12335.1
13437.1
7653.46
16303.6
9366.7
1916.57
2420.61
1089.57
-2428.7
-5512.82
-938.734
1825.08
2608.55
-505.713
6170.94
7873.16
16967.9
21193.9
17049.8
17838.1
22085.8
7657.24
7945.87
3965.98
9201.78
8058.72
15098.6
14573.7
6045.3
7126.91
45.5329
5830.28
8027.48
5268.42
8943.34
11185.2
13415.6
17568.8
25056.9
39251.9
36896.1
31891.4
24935.5
16258.2
31652.5
53417.6
51761.9
57317.1
46707.6
57107
28263
14547.5
12429.1
4918.67
13832.8
-11730.7
-17195.5
-8257.4
-15236
-2103.88
-7564.48
1965.26
7841.77
2615.98
-996.916
2036.21
-3302.77
-7742.27
-10317.5
-17214.6
-20582.1
-23471.3
-16405.3
-19635.5
-19513.9
-9014.16
-8149.61
-2549.49
-1991.56
3448.15
-3949.3
-4402.07
309.523
7917.28
11849.2
7071.8
8176.54
3665.93
12207.2
1135.62
4112.09
2791.29
12462.1
6801.35
6246.3
8664.61
-3259.79
-6637.44
-7646.93
-12545.7
-5283.79
-5138.72
-4072.46
-8649.14
-17972
-16192.6
-17661.2
-17280.3
-8270.52
-8582.79
-9767.54
-10391.7
-10565.4
-10280.4
-7491.3
120.737
-931.061
2883.7
659.766
7577.26
3868.53
-579.498
1443.68
-603.166
1888.16
-1021.07
-2839.01
-4452.38
-8100.13
-6995.94
-241.834
-658.762
-6320.57
-6013.62
-7429.39
-7267.44
-6499.15
-4666.38
-8735.7
-11561.3
-7177.84
-12671.3
-9832.51
-9198.83
-22165.6
-14614.7
-10083.4
-9173.24
6408.01
11085.8
3811.18
12273.4
12681.6
10918.5
5141.16
9005.03
2487.59
-1139.19
-270.889
2085.73
-698.212
-666.347
-2075.72
-2357.75
427.995
-2116.49
-973.246
4013.77
2301.84
3664.58
6089.84
4534.75
1430.2
254.376
-4560.1
859.218
-6655.31
-8861.69
-4723.83
-8739.14
-1243.37
-5577.6
-8022.92
-6739.18
5501.06
3405.81
7225.09
6321.15
-2152.57
-8388.59
-8400.54
-10100.7
-13849.6
-11507.3
-11118.6
-4389.12
-8277.62
-3191.86
540.326
-3942.7
-5685.89
-2700.57
-968.763
-7822.24
-9089.68
1460.31
6368.3
5689.73
4252.86
7918.05
4195.64
4102.75
-518.708
-3158.91
-6775.32
-5196.84
-6364.1
-353.38
-699.836
2286.77
-677.648
-7102.68
-3195.78
-872.152
-611.435
-2319.09
-9011.64
-11705.9
-5455.21
-4458.69
-8019.35
-2830.38
-8844.79
-7688.22
-9225.68
-9513.91
-12163
-12760.5
-10721.9
-8466.23
-16189.8
-12814.2
-4739.74
-2420.54
-5689.4
1136.21
-5850.18
-2226.83
18638.8
22107.2
9170.68
14511.8
4418.04
7374.8
-3639.59
-2671.31
-16607.6
-8219.85
-9678.51
-15074.7
-7118.88
-6939.07
-7034.4
5356.7
29.9817
-4720.34
-2423.1
-12193.7
-5639.29
-12622.8
-15063.8
-2709.03
234.208
14959.3
-3172.38
-2769.52
-4320.71
972.127
4498.52
-4581.68
-3068.08
-8024.26
-7255.26
3645.97
-1062.32
-1060.74
3670.45
6202.88
106.608
-925.478
764.518
-4811.67
-17252.8
-10773.1
-9587.39
-8292.85
-7621.26
-9874.66
-12818.8
-10045.9
-22808
-17866.7
-13495
-10868.7
-13944.4
-13301.1
124.265
-9162.64
-8200.2
-6233.62
-4440.44
-8554.38
-13986.8
-14232.2
-9224.21
-11759.5
-17590.6
-19236.2
-20481.5
-8943.84
-17467.8
-15257.9
-24058.5
-13966.9
-18131
3721.48
792.747
-4200.57
-8995.33
7093.23
-10801.4
-7589.21
6695.68
4491.37
-1203.74
-16040.3
-16274.1
-18600.5
-29964
-33095.2
-27004.9
-36890.1
-27140.5
-7972.63
-108.478
-17918.3
-15651.3
-18918
-9846.35
-3357.52
3828.54
10755.2
7426.69
2865.98
17710.7
7185.83
7732.96
2747.73
13009.7
10104.6
17626.2
24042.4
24070
36116
32283.8
25929.1
21293.7
16463.1
21311.7
22720
29334.1
25434.2
13626
-3752.63
-10217.6
1334.08
6989.66
1392.13
143.538
-338.555
-2034.84
5595.13
3753.08
5400.08
2980.34
-2177.49
-2015.03
-4937.7
4147.61
3659.68
2327.13
-5764.45
-9184.94
-4709.78
2878.48
6092.8
-1300.04
-3098.29
-9816.66
-13251.3
-4423.5
-3831.35
-6691.66
-9482.32
-7470.3
-328.252
-576.803
2457.39
-2423.13
488.189
10769.5
-8529.78
-84.4672
-1289.93
-149.868
-4941.18
10566.7
10507.6
-322.065
5246.59
6543.89
3038.49
10337
1250.36
25824.8
20929.2
17869
31225.7
18079.9
30011.8
22056.1
15862
11565.7
11401.8
11810.5
12639.3
837.586
3447.26
10744
8273.09
6270.09
7316.21
4516.55
-4062.28
1968.02
2287.18
-6343.91
-3296.38
-6384.53
-3670.04
-15.5834
7773.55
8425.84
28307
42878.2
46096.5
37167.6
56721.2
69599.7
64272.3
79467.7
94140.7
91332
62799.1
56220.1
53056.1
42550.9
51019.3
65976.1
60955.3
67862.8
63136.9
60804.4
73513.3
85196.3
88787.5
97306.6
106647
85389.4
88527.3
78190.2
55195.5
46237.6
44353.4
35246.1
37842.3
39005.5
27804.9
24629.2
17131.7
12456.3
19875
22238.9
37380.5
36184.9
40487.7
19702.4
13684.8
18825
20824.7
10770.3
7675.08
7286.06
15480.2
18322
9326.21
11241.3
42569.1
24929
37863.5
22163.5
37822.8
22834.4
7932.58
9515.88
18437.7
18025.4
21632.4
11027.1
8295.56
3270.6
6186.87
1151
3738.04
17387
398.517
12849.9
25533.8
31759
28792.1
33459.6
20634.1
17575
27955.9
31441.2
28915.5
36427.2
16051.4
10199.6
19771.4
11613.9
6113.69
1028.93
-1154.68
-3293.83
1762.43
4107.52
2474.29
-10472.6
-23049.6
-18345
-25635.5
-19229.4
-15038.1
-14218.7
-8316.34
-5533.51
12914.6
15870.2
13344.4
4020.21
-1832.96
-3882.75
-3703.65
-3782.54
-728.525
417.162
-288.929
14157.4
19654.6
9005.74
1697.9
5304.52
13490.5
29715.2
43603.4
54793.9
51439.8
48990.9
55508.3
56589.7
58407.3
44906.1
52294.7
48346.3
62806.1
89128.1
101513
120640
119466
114641
111828
103687
84209.4
77190.4
73060.1
80152
65142.6
46659.8
40973.9
40451.2
46354.4
45033
44362.2
43066.1
37917.1
34220.3
31884.8
43143.8
28567.3
17770.2
2716.79
11319.1
5187.37
8166.42
9395.12
5913.34
6337.58
402.137
-159.857
-1148.64
1881.38
8703.03
5661.75
14226.4
7658.96
5948.27
-2738.69
-1998.37
-69.7102
13255.6
7626.89
-353.197
-1552.76
-1448.35
-5861.38
-10553
-10208.7
-16267.3
-18549.2
-14938.1
-2860.19
-3325.31
1066.58
783.762
-1979.13
-917.544
-8259.25
-77.872
1862.49
5708.86
9952.44
2710.84
-2361.73
-5531.73
-9677.08
-8545.72
-8286.73
-4719.66
1082.83
9019.63
7123.92
3895.15
5017.39
7511.87
9140.92
12133.2
7018.97
12159.9
5101.7
8986.77
4005.79
-7662.43
-16360.5
-12301.7
-16589.8
-16217
-20232.6
-24910.5
-21375.2
-18648.7
-19076.4
-16917.9
-13332.3
-16822.7
-4829.78
-8524.63
-3925.05
-7623.24
-14047.6
-11289.8
-8817.21
-8425.41
-8934.69
-7129.22
-6818.48
-4710.33
-6468.34
-4891.45
3929.68
-3982.94
-6340.27
5177.29
2213.78
-5512.32
-4290.64
-1164.74
1663.02
-9330.79
-3167.59
920.756
-9389.05
-6576.34
186.211
-7445.57
-7907.42
-9951.41
-9270.63
-226.16
-7957.96
-2165.79
-3720.85
-7953.03
-8554.89
-14083.1
-22841.8
-23798.8
-13316.1
-7991.27
4578.06
-6506.76
8319.4
-2544.63
5810.29
1039.16
2003.75
5215.74
3000.71
11851.5
16074.7
5345.79
11605.5
-2009.37
1940.96
-441.353
-2012.69
11318.6
6099.41
-1661.5
746.448
475.122
1791.77
-10656.6
-10013.5
-357.279
2421.23
8248
13062
23550.6
23780
31403.3
31467.4
33626.7
45272.3
36526.5
34303
25868
37177.3
19802.2
25493.1
30177.3
20463.7
36558.2
52268.3
58820.1
65978
61419.4
42707.4
38430.3
59724.1
48410.2
49301.5
32297.9
19836.4
18412.7
20960.9
22963.2
12194.4
43728.3
29466.6
22204.4
5960.98
-5012.49
-15539.7
-6874.21
-7181.64
-13201.3
-11935.7
-11725.6
-22811.5
-16865.2
-11012.5
-7079.14
-570.137
-1305.77
7564.39
-5436.07
-848.875
-5745.2
-10240
-21375.9
-25687.8
-23810.4
-28208.8
-24244.7
-16375.1
-17114.7
-18892
-19040.7
-11672.6
-8989.44
-5860.46
-11364.2
-18720.2
-16207.5
-14194.9
-8568.85
-16066.3
-27740.4
-19270.9
-16726.8
-13324.1
-20976.5
-20737.3
-19163.1
-12333.1
-20454.3
-29615
-20139.4
-23763.2
-19204.3
-32490.6
-27170.2
-25164.4
-22386.9
-15088.9
-11310.4
-14266.1
-10472.4
-3031.12
6442.56
10537.7
12816.8
22000.6
22741.9
12525.2
14129.8
5532.07
-4587.49
-18706.6
-6330.84
-3644.45
-6679.79
-12769.4
-4575.44
-9813.26
-8155.22
-10539
-7985.26
-15128.1
-14854.5
-15519.2
-21486.3
-17073.4
-14389.6
-7938.57
-12665
-9238.91
-4100.83
4009.34
4854.23
8424.77
9003.67
5936.41
764.188
-1121.17
-4755.43
437.152
-7235.05
-5540.4
-4991
4830.81
-1970
-7677.23
-2971.24
-5504.21
-5802.95
653.811
9981.7
8566.5
8545.54
10795.6
3641.53
-1152.07
-4108.48
-6824.81
543.957
-1556.94
2545.27
7840.86
8631.02
8063.81
8808.51
5275.28
4779.69
2749.9
-2931.27
-807.374
-2914.27
2184.03
4901.54
5980.24
1900.92
-1944.41
-4382.13
34.5412
1596.5
5731.84
-2068.63
296.651
-6117.22
-11479.8
-12186.3
-5005.11
-13138.5
-22623.6
-30010.9
-31105.7
-34492.8
-29694.9
-24295.2
-26947.7
-26024.9
-23767.9
-26089.1
-20452.1
-23578.1
-20179.6
-28946.5
-22597.5
1746.77
-1497.28
-7508.74
4037.15
-7616.1
-12725.1
-19049.8
-26205.1
-33505.2
-36845.9
-35128.9
-36635.3
-38520.9
-40975.9
-31864
-24191.6
-23929.5
-19790.4
-10562.5
-8601.22
-14407.2
-31827.1
-33352.1
-28152.9
-18558.9
-25247.3
-32527.8
-26305.5
-17433.1
-13194.4
-24802.1
-31360.8
-33140.7
-28966.8
-17002.1
-19105.7
-13619.1
-11912.2
-11142.9
-10773.4
-10746.3
-6312.94
-6194.75
-8628.13
-7251.54
-17332
-12273
-14278.6
-16377.3
-7606.93
-4312.16
-3483.04
-7783.54
-5907.8
-9739.66
-3977.93
-4435.66
960.747
-4800.57
-895.565
-295.125
-16.9202
-2803.17
-700.426
-3467.78
-1170.9
624.632
-1658.87
-3790.46
-2908.1
-5367.59
-5850.72
-3733.43
151.089
-1600.27
225.793
144.797
-1756.57
733.787
-720.39
2073.53
506.644
2434.81
7620.31
6031.15
7334.68
11027
260.574
8967.8
5441.91
-1895.73
-773.98
4579.16
13570.1
13129.6
24511
26474.4
27404.2
21161.8
14268.8
23060.4
32443.2
49293.6
41244.6
32100.8
32744.7
33447.1
17597
20475.2
9568.23
9795.29
8663.45
12798.5
3529.88
-2042.42
2644.59
-346.98
101.508
1556.38
1307.76
-479.655
-1825.86
-5262.79
-3140.69
-5064.88
-4844.5
-3354.49
-2904.57
-6908.15
-1021.63
1031.43
6753.99
995.384
-8183.81
-4407.07
1325.72
3293.78
-887.285
1698.86
2424.32
-10743.3
-11816.8
-6509.73
-11687.4
-8212.02
-14482.6
-22867.5
-22905
-18437.6
-17633.8
-21228.5
-22229.4
-15176.9
-18669.1
-20818.6
-19412.7
-18896.1
-14751.1
-14459.9
-14629.1
-9816
-7138.38
-11597.4
-8742.32
-9947.43
-6128.58
-8631.17
-6701.2
-8124.1
-11296.5
-12108.9
-4730.54
-8517.94
-5425.3
-4126.01
-3349.44
-1500.37
-1779.82
5767.15
-7410.2
-16224.2
-27866.8
-30764.8
-18458.8
-21771.4
-20036.1
-23580.4
-20739.2
-15262.3
-14085.2
-12493.3
-9889.19
-16070.7
-14101.7
-18180.8
-15276.5
-5369.94
-675.54
-4889.03
-9379.97
-9385.09
-5109.97
-9352.46
-9481.21
-6804.14
1777.31
-3842.3
-2377.74
-7333.8
-3823.94
-7769.35
-83.8824
-6289.82
-4102.36
-2549.2
-3248.84
-9181.98
-4513.84
8840.01
574.405
2391.96
-3199.68
1515.68
1845.66
-4240.99
-6676.37
-5800.18
1026.46
-5970.49
-1806.37
8895.78
10697.6
13506.8
19517.2
6857.13
16612.4
16144.4
20180.5
7257.75
4104.59
6758.44
-3281.91
-3069.06
-1665.44
399.677
3439.78
-4704.7
-2359.23
-2507.74
-5308.85
-7199.36
-3211.52
5302.6
11404.3
5887.62
1999.71
3292.37
-4011.66
-4763.63
-642.544
-8.08509
-447.63
7229.43
8324.03
5015.32
-4304.22
-4178.29
-826.538
-4478.58
-8635.04
-11588
-10372.1
-8188.22
-9835.43
-7064.34
-11284.8
-11078.4
-18220.6
-16300.1
-18175.8
-14014.4
-9868.7
4929.19
-154.645
-683.339
4391.53
1335.03
2031.82
2383.73
-287.23
2867.82
-412.743
1028.49
7066.14
4752.94
5880.64
8816.69
9603.75
7432
4718.58
2193.96
2489.13
7964.67
8851.36
7530.35
8495.8
3522.83
7643.76
12745.1
9611.58
16045.1
17923.5
15324.8
22649.3
16946.3
5038.79
5575.74
5752.46
6365.24
2625.72
11094.1
10315.4
340.338
-4822.7
-7515.23
-13401.5
-6557.28
-6279.38
-1798.73
-1698.79
4192.61
4635.56
9082.34
8578.79
5823.43
-3856.91
175.136
-743.327
897.461
-1669.04
-704.905
-6464.35
-2813.41
-825.662
-2764.04
-1098.78
2180.6
8376.03
10810.6
885.207
3950.14
1791.79
-838.036
5246.52
7232.54
-2528.7
3278.15
3425.82
8762.89
4733.69
3169.82
10279.4
8184.68
3382.12
10590.1
9860.95
9083.98
3808.21
18785.8
3346.4
9484.88
4858.27
217.966
-4637.78
-11691.9
-1198.73
-3424.74
-7162.84
-7921.37
-7975.48
-4524.67
-6884.57
-8673.11
-10138.6
2298.46
3065.28
18241.7
14393.1
4332.58
11338.9
16475.9
20592.6
31894.3
29086.3
28247.9
31010.4
28440.8
27383.6
19424.7
8908.63
10074.9
15194.5
22427.8
16387.6
1243.64
-751.054
4034.77
-2447.55
-3189.5
-7153.59
-3777.83
-8425.11
-2786.02
-7950.04
-875.769
-5453.44
-2124.3
-3869.07
-745.725
-4959.28
-4975.44
-6509.25
-8287.5
-6445.54
-4547.33
2822.05
-2690.37
-5074.2
-8461.58
-6508.52
-4782.84
2051.66
4314.27
-7302.56
-4264.12
-4072.34
-9153.32
-8105.15
-1470.74
2673.58
-2599.43
-4568.36
-6963.37
-2533.84
16164.9
15558.6
13780.8
14110.7
3968.19
-3029.61
2640.12
8610.48
6830.18
13484.7
5144.54
3218.27
3452.32
6892.02
17359.8
12493.3
3835.18
6823.73
7374.58
3500.78
3016.06
342.441
-10798.6
-6980.98
-2420.39
-4265.57
3291.59
14377.2
6506.79
9817.11
13501.5
18892.2
14412.7
5278.81
1048.46
-1424.47
-5559.05
-17924.9
-27456.4
-27957.6
-20437.2
-21466.8
-17618.7
-16875.3
-11388.3
-11861.4
-12701.6
-12214.9
-9932.16
-8195.24
-7955.45
-10912.8
-8042.28
-5736.48
-7847.49
-6831.57
-7228.49
-5926.84
-10874.5
-7709.45
1454.32
-6950.52
-13745.2
-13328.9
-12382.1
-11518.3
-3613.09
4386.76
3314.25
2628.42
-4111.51
-6869.38
6176.5
-316.785
5397.53
4598.58
24.6541
-27.7241
2650.81
-2064.55
10154.7
10519.9
19575.7
21021.6
23092.5
19364.6
6730.98
9640.98
2030.89
-990.015
3868.05
258.815
3909.6
6092.91
8456.14
8016
4728.12
-267.824
6103.63
5544.26
15786.6
11423.4
18451.5
14555.6
11264.5
13625.5
10464.5
19220.1
15450.3
13764.4
9142.6
6435.56
5040.27
3926.31
5983.52
13916.2
23326.7
13476.4
9966.3
19016.9
15256.3
17445
8553.47
-3836.2
-483.053
-422.993
-4872.24
-2308.43
-3341.6
3559.47
-5220.17
-8396.43
-10426.1
-19530.9
-18077.2
-16422.9
-20988.3
-18599.1
-19359.1
-17029.4
-16759.1
-21333.1
-17946.4
-11363.7
-7959.1
-3565.92
-5227.74
-3347.02
2364.69
204.961
3173.21
12380
16147.7
20369.5
16178
20395.5
20922.1
10760.4
7660.06
16087.5
29879.1
26373.4
16088.5
29522.5
19536.2
22298.1
9982.54
2522.89
7882.57
4227.81
6521.43
3386.17
-7448.32
-1843.49
7620.73
5871.28
13660.7
22906.6
27258.9
23167.3
34028.4
49495.9
40448.8
42760.3
34793.2
19805.2
21578.4
12701.3
21231.7
27523.6
28732.7
27211.3
28540.3
20691.1
20546.3
18444.2
17329.2
37927.2
35504.3
33758.6
34366.1
34977.5
26016.1
21584.2
20043.5
25560.8
31900.5
25787.1
13007
7414.89
10468.9
2159.77
-1828.79
-2935.93
-2287.4
-8653.52
-7710.14
-5422.98
-2349.79
-3266.02
-5030.32
-5876.54
1400.03
3812.33
3214.15
1201.74
2428
-91.8119
-1058.65
-6273.82
978.122
7839.77
3411.29
-1060.24
-3571.56
-3638.2
-4494.23
-4551.07
-3294.39
-1592.79
-2647.19
-1318.61
-111.637
-6934.22
-5629.51
-4466.63
-1058.42
-2927.98
-2454.69
-2824.93
-6723.77
-1551.17
-4530.74
-5121.42
-4548.33
-5395.88
-316.497
-3760.26
-3850.21
-800.991
1316.82
-6071.31
-2854.74
-4445.2
-2764.06
3459.54
5018.02
4549.45
10442
12680.9
20158.5
31766.3
34056.2
16415.8
25478.4
22837.9
5133.07
2678.87
3340.39
9361.42
4221.39
1603.74
4687.03
4903.96
7707.75
20565
25709.2
26126.6
31219.4
32076.5
34256.9
39692.3
33741.1
33423
38344.3
12480.1
13874.2
11765.8
-114.71
3708.08
-6032.89
-11277.9
-8252.51
-4685.79
-5189.45
-6539.82
-8119.71
-9802.16
-6964.44
-7252.48
-11068.4
-7137.23
-2427.63
-1835.93
166.891
3315.2
6559.74
7357.79
6828.9
5905.09
-786.288
-2729.3
-4612.38
-9460.69
-16405.4
-7921.21
-1822.7
312.323
6824.78
1283.12
-117.493
-7987.97
-15053.3
-12564.2
-11890.9
-17559.5
-16158.1
-15423.4
-6274.98
-8447.41
-1141.58
-3786.82
1737.62
3573.12
9967.45
8645.69
2342.37
10004
10518.4
-2972.2
-580.585
-2639.09
823.874
1321.4
-7532.48
-8456.03
-1214.69
-4941.19
-9083.71
-8745.41
9432.62
-2743.86
-5443.68
3375.53
7109.72
19994.6
30112.6
21404.6
19355.3
13102.1
12456.1
10898
12246.6
12571.2
12549.2
8248.64
1392.52
1589.92
6797.83
6942.04
16204
13486.6
11611.4
8225.33
6132.72
2192.75
2773.94
2927.62
17763.7
20063
24034.1
21617.4
19848.8
12763.9
10802.4
4146.52
-4966.14
5398.42
11934.8
20038.4
27539.5
19342.2
15021.7
26397.1
27278.2
33117.6
37539.5
42133.2
49369.7
34732.1
15401.6
25857.2
37802.2
41409.4
24066.2
25179.8
13291.6
13374.3
12601.5
12342.1
11161.5
9391.19
12567.1
30952.3
27932.8
30111.6
34648.3
36243.7
27422
25587
27724.6
26024.1
49101.9
48959.6
45232.9
46904
40043
41770.1
32669
30552.9
23993.9
25638.9
29458.2
37046.1
44134.6
43730.6
39809.5
47721.5
53992.1
59956.5
57409.6
37746.6
38984.8
38179.1
36194.5
26163.1
17480.1
10165.8
18574.8
13438.4
22013
20688.3
11645.1
10406.3
12813.1
11714.9
9069.54
4786.19
6695.07
4554.48
621.461
6635.37
4262.59
2432
3078.33
2257.44
2568.2
1750.56
7763.94
5263.35
3501.05
4334.41
4137.15
3501.59
2649.13
1654.38
-1618.87
-1951.73
-3544.43
-4456.38
1638.26
1520.8
-351.671
-5858.41
-4049.88
-7985.06
-6901.05
-2641.92
1398.54
3191.1
-388.538
-3135.96
-5296.04
-2430.72
-1941.07
-6600
-1853.86
-4493.55
-92.0013
-496.425
-3221
-7528.63
-12485.9
-8234.94
-4657.83
-4510.16
282.242
1146.07
1900.74
882.18
-5768.66
5651.68
7689.18
21923.3
25439.1
34771
37398.9
15112.5
-555.097
640.997
-2771.17
-1117.22
3331.31
-5221.06
900.511
1575.85
8259.97
-740.804
3061.49
3289.46
6258.73
6318.47
10310
18960.2
26931.1
15844.5
14082.5
15813.8
16157.1
22707.7
25409.9
12134.7
11695.7
6695.02
4244.94
14375.5
13098.3
4033.72
24341.6
17153.4
22387.6
21851.5
26104.6
19323.9
9952.3
3175.4
4739.27
12919.6
12419.1
16293.5
10534.2
7340.45
19297.6
22768.5
13369.5
17793.3
18462.8
19741.6
35672.6
37561.9
30996
33005.7
33693.1
20915
21656
18299
15901.8
29125.1
15498.1
12195.5
12995.8
16044.6
-3180.42
-6697.17
-3449.64
-3679.7
-11086.7
-659.47
5728.9
-267.151
2156.41
1201.95
1468.35
-2800.15
-8581.68
-9451.93
-1353.28
-2928.51
-4798.36
-9046.98
-9710.88
-10711
-4880.37
-9096.97
-4540.96
-2833.56
-6379.33
-5902.15
-2352.9
1110.62
-3688.07
-1949.29
2592.42
10638.3
3559.58
-4375.92
-13709.7
-11172.5
-7287.15
-4543.08
-8710.25
-7909.51
-9533.86
-4170.38
-5463.61
-11571.7
-8253.94
6661.7
1482.33
-2276.04
-6092.78
-3933.66
-1015.62
3765.36
2573.91
-1845.73
-2588.72
-5088.25
-6843.3
-4396.05
-5825.53
-10024.4
-4511.68
-2836.63
-6856.75
-12231
-11230.1
-10008.5
-12616.8
-9226.66
-8846.81
-4972.82
-3715.47
2550.56
3779.09
16267.2
11698
8173.91
9612.08
7968.98
7869.99
8607.48
2130.4
6223.4
676.762
2823.57
-1125.02
-1443.12
5295.81
3382.13
-7639.95
-7488.02
-988.585
-8127.4
-5035.27
3702.2
7011.97
22557.7
10034.6
7695.51
17465.8
11483.1
5396.18
8892.38
9750.44
4546.95
902.151
4156.94
4364.55
2258.86
7939.34
-1770.58
-1675.15
-3127.24
-6974.46
-14782.1
-20476.1
-3964.51
-9363.18
-6676.19
-1702.5
6355.76
19316.8
31517.8
25127.9
24644.8
34806.1
27747.2
32494.1
37793.2
34439.4
24477.8
34759.1
7550.42
3608.42
3383.18
-631.563
1200.05
-3474.18
-16235.1
-12258.1
-10690.8
-23201.2
-21213.3
-15700
-10933
-2305.7
-304.761
16896.3
16582.9
17061.4
22657.4
28161.9
28314.1
19123
16622.3
24233.8
13972.9
20315.1
26376.5
23404
14661.3
38918.7
46643.5
45339.5
52575.9
49607.5
61027.7
57318.8
57901
51473.8
42348.2
55053.6
51365
73740.9
81110.5
87453.1
92102.9
104417
116468
109050
103395
78424.8
72085.7
51463
60079
54627.2
45654.6
45173.5
30373.7
39714.2
57199.5
48456.6
50798
36773.8
43305.9
39577.3
45686.3
66884.3
71525.1
71569
70709.4
47978.2
71432.1
56340.3
56679.6
47762.5
65652.7
61873.1
40358.2
25973
11214.5
9021.48
10947.6
7199.75
10680.9
8881.39
8533.6
10713.3
2845.32
2315.27
6017.7
8170.55
13542.2
19736.6
19221.6
9945.56
5374.48
18494.7
34600.4
43387.5
40126.9
42953.5
50783.7
35698.1
25265
8493.29
5051.87
5909.23
8151.15
6870.22
6824.57
4308.86
774.249
3652.46
-2216.03
7000.54
13198.4
13549.2
5791
4879.34
1022.28
1747.99
7207.95
12124
15263.6
9975.36
17783
15170
19258.3
17699.6
9003.47
16952.3
29508
44678.8
45888.8
37665.9
26746.8
25551.2
31487.5
31146.5
25856.6
23333.7
16312.9
15709.5
13031
5365.72
7030.28
15350.7
16182.9
6980.5
11647.5
10766.9
14607
2068.17
-58.3856
-2395.28
10250.6
-10626.8
-15530.9
-20931.2
-28444.2
-27975
-19223.9
-13115.8
-18524.9
-9944.02
-21116
-868.351
-10706.5
446.172
2286.73
8182.14
5843.95
915.744
6341.07
-4821.3
7051.19
116.057
3606.43
4878.38
-11325.6
-8471.75
-9083.39
-2302.18
-3106.34
-6432.74
-14686.1
-9423.53
-16576
-21162.6
-17793.5
-13111.2
-8143.81
-8107.51
-3080.51
-7696.67
-9207.28
-7750.33
-15215.4
-4398.22
-2693.28
-10278.7
-11600.8
-6551.13
-5489.91
-5856.34
-7964.79
-5626.02
-6321.44
1121.14
-253.081
-2513.32
-6833.21
-6659.57
1017.73
2475.69
10797.2
6794.11
1222.86
-3741.43
-8839.6
-10322.2
-8171.31
-7760.89
-6725.78
-6973.57
-3780.44
-12681.8
-15921.2
-13671
-20156.7
-23123.2
-19471.6
-16832.2
-16853.4
-14418.4
-13255.4
-15184.3
-21582.8
-19349.2
-11831.5
-19198.9
-28905.3
-26563.4
-21585.4
-22467.1
-18270.1
-25004.8
-13902.1
-11518.6
-10104.7
-1490.05
-8559.95
-7107.53
-6248.15
-5328.44
-9547.41
-8181.02
-12114.2
-12639.3
-9577.4
-8098
396.314
4155.92
134.474
-3274.49
8410.44
4960.15
4175.21
529.239
-2073.68
10176.5
12384.9
20119.4
33105.2
34569.7
35524.6
35203.7
29104.6
30461
33232
34296.8
34509
35632.5
30402.6
26840.4
22244.6
12686.9
12235
9398.28
11120.2
16447.1
16685.9
28537.4
15157
8996.21
19072.6
17023.7
15812.6
7955.87
8270.59
7897.1
9657.26
14217.3
23665.5
24360
23636.7
18123.2
15149
9537.03
-1187.95
7478.76
12803
3573.78
14315.2
23019.3
22344.8
34080.7
25791.4
24729.3
27423.8
27500.7
15204.9
20740.6
19252.6
9166.66
7412.1
10088.2
15694.8
21277.5
3542.72
6687.27
3596.92
-2504.97
-2250.74
-938.276
155.254
2858.43
3838.52
19838.7
17961.1
28552.6
35707.1
37830.4
46462.1
48345.3
50468.9
54789.3
48032
49907.6
44493.5
35255.8
44676.1
54628.2
49613.5
45488
29267.7
25519
14671.7
10708.2
8782.36
1935.29
2712.69
-4242.55
8298.26
8299.64
3481.62
-2293.94
5374.07
5598.57
-2464.14
-11325.8
-10830.6
-7282.47
-5056.57
1331.75
-9990.31
-10195.3
-13693.1
-13605.7
-6735.47
4785.92
13372.8
16541
22630.8
24682.2
21247.6
20331.6
18902.4
19615.7
23081.4
6222.54
-2953.27
-7770.1
1829.83
-2861.86
-4243.1
2767.85
122.183
2615.59
13237.5
2815.8
8116.44
5555.81
12346.8
10817.7
14896.8
7244.76
4742.35
9260.54
-2248.53
-2179.99
4975.48
-3090.66
-7737.75
-14847.9
-19855.4
-15987.3
-9653.76
-15886.6
-24342.5
-18513.9
-17343.2
-14469.3
-9368.89
-9921.87
-17221.2
-9481.47
-11388.9
-4980.16
-9040.45
-1804.03
2702.78
4049.79
7162.29
8953.91
12694.8
10531.7
15141.2
17933.8
15801.1
19077
12081.5
30981.4
30694.8
26509.6
22730.8
19753.3
21342.9
22293.2
18086.2
20630.1
22479.6
19637.6
19283.6
5589.5
7393.61
25981.4
26148.9
24800.5
7379.59
6655.64
-3280.21
-1103.81
-8603.15
-16950.8
-11126
-3023.51
382.084
274.123
-2286.76
-6570.52
-4403.66
-2824.44
-2842.99
-6004.19
-1408.92
2627.73
9326.48
11016.7
-1931.25
-1314.83
-7403.85
-7339.12
-9690.46
-8043.39
-13160.1
-11151.9
-8073.82
-6039.63
-10986.4
-5212.99
-1735.42
-10118.1
418.011
-3949.4
5875.22
2164.28
12187
12999.3
10276.3
14638.4
17421.6
8384.54
8425.81
4223.97
617.287
521.847
6575.17
5994.84
7805.52
8126.43
5900.52
3964.76
2710.55
1362.5
5312.47
1577.66
-2675.13
-6284.76
-2588.21
1359.71
4861.39
-564.924
3169.92
2854.72
-3285.66
5204.26
5485.16
4746.68
-5723.98
-3085.88
-636.691
-12858.3
2604.52
950.705
-9919.24
-11689.9
-6616.34
-2801.97
1537.54
4886.14
2845.35
4141.59
-3579.72
-3270.04
3755.55
20669.4
22007.1
17916.3
22281.6
25898.1
12753.2
12128.9
2956.25
4800.97
-3144.92
-10549.9
-7320.24
-7629.27
-13058.7
-9077.58
-1103.26
2187.72
8104.7
7720.24
2582.16
3403.11
-3138.87
-1347.05
-2924.59
-3951.76
-1423.29
-450.081
-2581.12
-7963.44
-5804.28
-2443.54
487.528
2494.9
-235.395
3675.52
-3199.31
-2831.64
1925.77
-5788
-5092.05
5609.02
-1281.3
-7578.91
-964.745
-6360.03
-6045.72
-4134.57
-4091.52
-1362.14
-2923.33
-4297.51
-4420.45
-5980.66
-15400.9
-19555.4
-19275.9
-18242.2
-23120.1
-35025.6
-30270.3
-33251.7
-37214.8
-36876.7
-30044.4
-33072.7
-30050.3
-31737.6
-37254.8
-34365.9
-32784.3
-24184.1
-22523
-36402.4
-34999.4
-35420.8
-31057.3
-12776
-959.513
-9739.93
-12333.5
-23811.8
-27253.1
-24014.3
-24943.4
-19302.9
-19827.2
-15244.5
-17260.4
4315.61
10730.5
8719.01
14697.5
690.295
10327.6
1896.97
948.696
6564.83
25826.9
11319.8
21679
6801.75
18658.1
12306.8
2582.69
18450.2
27771.3
28000.8
27021.8
25367.7
21894.3
18366.3
25933.9
13349.7
2615
-6836.66
-13509.9
-810.422
13141.1
8359.79
16839.6
-8174.58
-9204.64
-5588.89
-3009.49
3430.04
11584.2
6577.25
10574.7
-3105.8
2744.98
-5163.95
-8979.25
1544.87
3252.62
-1051.97
6991.84
12870.5
5764.46
1319.41
3861.01
1090.05
9825.95
10269.9
13526.7
18545.9
14814.9
15010.6
17704.1
15518.5
-894.721
-2465.51
-7005.71
-17083.1
-14228.1
-23986.5
-15572.7
-20401.5
-18979.3
-7124.03
-5069.26
-8819.54
-3244.87
-13787
-16968.5
-10418.2
286.475
5840.33
13951.3
25310.8
14066.6
7051.87
2572.73
15860.7
12262.1
14442.4
2050.12
-8651.4
-17201.5
-13790
-14540.6
-22808.9
-16581.3
-18938.3
-32606.9
-33586.4
-22689.5
-26071.8
-20423
-23600.1
-18126.8
-15761.5
-12238.3
-8093.61
-6267.07
3514.66
9901.65
1492
7752.96
4455.3
2845.29
5255.05
3808.72
7908.94
15925.3
9455.55
2512.63
1668.37
1790.54
266.364
-7527.8
3684.5
-11247.9
-14585.5
-15846
-14566.1
-13271.3
-19360.6
-21483.4
-18953.5
-24323.9
-11922.4
-17695.6
-17125
-10374.5
-12424.1
-1286.09
-429.237
-4217.89
-9946.53
-441.272
-8858.63
-20734.8
-11207.8
4057.52
-3545.85
-14064.3
-12161.5
-15960.9
-14173.8
-4251.71
-1462.53
2725.77
-1186.61
-2471.83
2496.19
2086.81
8176.17
4033.69
8723.85
-1084.91
11602
11035.9
11284.9
5206.31
5320.76
1735.05
-196.595
-463.813
-998.159
1093.71
1006.01
5275.06
2306.1
-3463.86
-315.238
2008.3
6144.85
2483.64
-1231.69
-6103.39
-6536.79
-3347.3
-7853.68
-12318.2
-9981.87
-9317.8
-7160.76
-4253.17
-441.011
2768.97
9711.6
8385.8
6593.09
15150.8
17577.1
9401.03
4202.31
9496.58
11944.1
125.478
1317.74
-3010.56
8775.59
1884.36
-2699.71
-2785.45
-284.7
285.009
-644.655
-4718.31
-7370.79
-6663.21
-5396.61
-7593.4
-7364.18
-6517.99
-4256.79
-8030.61
-5422.33
-8925.07
-5630.1
-11042.8
-15256.3
-8769.09
-8010.37
-10031.2
-9403.24
-5292.16
-6821.99
-7371.4
-5527.43
-5982.44
-1954.98
-6287.85
-11161.3
-12215.4
-14449.8
-19886.3
-30325.2
-34674.4
-37185.7
-34331.2
-35177.4
-29036.4
-23142.2
-15178.3
-7426.28
-11995.8
-8182.43
-6616.12
8722.24
-7337.6
-5650.39
-1932.31
1805.26
3210.68
4747.09
9397.86
5624.09
12570.2
13490.4
10470.3
-458.388
-1214.93
-903.804
1844.46
5250.79
10853.3
28515.5
9742.38
10279.9
-4954.77
-6702.98
6285.16
-812.594
-12627.8
-11168.4
-17651.4
-27463.2
-32612.6
-33529.2
-25468.4
-18858.1
-20060.9
-8220.83
-15253.6
-15175.9
-12884.8
-24545
-18052.2
-9131.02
-17859.4
-18075.1
-16734
-27753.3
-18619.8
-29687.5
-22231.2
-22729.8
-12323.9
-13601.9
-10130
-20072.8
-13046.7
-15909.5
-20746
-17390.5
-17814.3
-20532.7
-21735.1
-11503.6
-2130.45
13868.3
13627.2
9848.51
2437.72
9819.96
-130.265
7874.43
2267.09
24200.2
7125.79
2209.22
1601.08
-81.5761
6845.61
7012.69
-716.199
3187.67
1830.43
-4799.07
4143.65
-1218.7
-2775.95
-5672.4
-11909.9
-11657.2
-10090.9
-3159.35
-4806.49
3472.37
15263.1
8008.02
21569.8
22302.9
17178.8
8700.1
11891.6
9498.33
9224.81
7262.14
-3696.42
-3631.03
-1321.41
-1683.24
-3494.87
-4890.71
614.842
4888.77
3221.93
1131.42
5600.74
13483
14020.5
4865.94
6978.17
8556.52
486.985
3769.45
4141.08
3082.18
1775.69
1632.39
844.39
5423.2
1398.94
4472.74
1519.48
4544.97
10284.4
21061.8
19427.2
20529.9
16664.8
22081.8
24254.6
31155.7
25548.9
8976.05
8349.8
19797.9
19674.6
19126.9
13881.9
23719.1
14453.7
9028.18
4859.11
2472.56
3468.78
-152.212
-4975.25
-12672.6
-7990.18
-7678.48
-3959.53
-125.39
1701.86
-2015.88
4899.77
2821.48
1125.37
4509.85
15537.6
17308.8
14076.5
16128.1
19619.2
10956.8
13643.3
14287.8
6399.05
10834.2
11238.6
12745.6
20550.5
19984
-476.652
2980.08
-7580.67
-8451.45
-10465.9
-5231.53
-12310.2
-17493.4
-9505.4
3945.14
4972.59
3819.59
11731.3
10360.9
12495
17938.6
11612.4
3511.88
-2316.76
-10309.4
-11478.2
-10384.3
-6561.15
-10327.7
-10393.7
-7358.55
1665.14
-6468.53
-3768.37
-9809.55
-12754.2
-11553.3
-2991.26
-13809.5
-8058.47
-11100.2
-8784.23
-6343.49
-1199.83
-2062.19
-1469.55
-4846.83
-6198.94
-6413.28
-16249.7
-7009.72
-1942.48
-11801.9
-9768.37
-12867.6
-12993.1
-4208.72
-6978.04
-10323.7
-3982.84
-8756.69
-9413.08
-5958.57
-10267.9
-8291.3
-2143.28
-5998.85
4951.14
26607.5
23161.8
19133.5
9655.93
3475.86
12225.9
11277.5
8228.06
5904.46
296.116
4149.1
270.092
3903.33
831.389
2766.87
-4394.87
2584.35
-3483.47
-6845.68
-5112.42
-5110.29
5532.68
14810.7
9194.84
2058.26
10131.1
10960.8
10710.8
1851.78
-1986.47
177.173
-8469.05
-3688.9
-12051.7
-9802.17
-13395.6
-15358.5
-23578.4
-19074.5
-9635.12
6755.06
-1603.11
-10992.7
-8204.84
-7118.92
-13698.2
-23872.6
-38450.5
-34382.5
-21450.2
-26552.2
-21177.3
-8326.48
-10670.8
-22194.8
-22632.1
-10592.2
-3583.27
-3754.54
-1088.24
-1814.97
-1840.69
-3128.44
-1442.58
-8156.55
-15135.8
-10002.6
-4742.4
-5352.89
-9906.07
-9568.81
-6684.97
-4550.13
-4014.06
-4988.58
4833.3
3094.79
10540.5
3241.3
-265.604
-8518.63
-4701.95
-15099.1
-12239.4
-5258.8
-9664.92
-16063
-6248.96
-6786.32
1961.79
26164.8
40836
41275.7
49249.8
64807.9
73773.9
59245
45345.4
40369.3
35106.8
34433.4
36977.2
26647.3
27246.1
23957.2
34326
27052.7
21208
11456
23995.6
21179.9
4700.58
5460.77
-2075.64
8951.86
17713.1
25729.6
19797.2
12719.2
3705.27
4252.88
258.018
1971.3
-5777.87
-4060.31
4224.78
-3928.29
4668.79
5258.66
-129.276
645.295
-2678.16
82.988
-2549.7
1768.65
155.004
-2019.66
-3248.26
-7011.03
-335.506
-6953.35
-5598.16
-12886.6
-24321.9
-27852.1
-23563.3
-17721.5
-19999.7
-17703.5
-21062.4
-29167.4
-26970.1
-23400
-20222.8
-18434
-16838.2
-23234.6
-29436.2
-24921.8
-20862.2
-15043.4
-11965.3
-6368.85
-9693.21
-17128.3
-8127.86
-5390.04
-1652.35
-33.0604
-1195.48
-3853.51
-3387.19
-911.231
1382.12
3249.24
-289.422
5452.5
5742.29
11029.4
10468.3
5528.38
-1590.76
489.517
-4426.8
-3865.46
-5452.02
-12128.2
-13931.5
-8824.02
-14703.6
-14934.2
-10921.9
-3919.23
-7070.62
12137
16631.7
19077.8
20129.8
27981.5
31809.7
6556.83
720.856
9880.7
-439.042
-14287.1
-14764.9
-18192.5
-17966.5
-4460.8
-8683.72
-8439.31
-4407.74
-6607.06
-528.587
-1823.75
-511.545
27.1725
2501.42
-1955.58
1177.26
-3461.91
-1517.33
-4038.87
-2387.63
673.823
-693.203
248.331
-1891.52
827.035
-3271.13
1242.19
-2044.63
-947.271
-2641.4
-5720.46
3894.57
-880.904
-1329.63
-1612.53
-7338.4
-3436.44
217.491
1143.54
-2310.32
-7650.72
-14228.2
-10141.7
-5544.83
-11105.4
-8774.26
-7911.87
-5844.48
-14673.2
-16836.9
-12728.9
-8214.7
-15162.3
-6669.06
-2376.86
-588.972
6897.82
2293.81
-1504.32
-4750.71
-8153.21
-8834.92
-13165.9
-8627.12
-7266.35
-8752.44
-5342.22
-2769.95
-4792.35
-14493.4
-21762.6
-19057.6
-24878.5
-16413.7
-1302.48
-2784.45
-17725.4
-10382.1
-12037.1
-7589.02
-10112.3
2503.62
9609.25
7051.69
15019.1
15717.2
17156.3
16692.4
13284.9
8356.37
1203.65
20516.1
16973.6
3858.83
12831
12075.2
5859.92
2220.79
-1603.69
1747.97
8255.58
18231.9
33990.8
38083.3
45523.2
18243.8
19994
902.384
-57.91
4516.37
-1937.68
10655.3
7804.9
6471.96
5934.05
-1600.91
4323.09
-5200.3
-16489.8
-21842.7
-31195.4
-26372.2
-44278
-38844
-32822.7
-39604.7
-48240.1
-38333.8
-34187.8
-31403.8
-27097.8
-27298.9
-31008.9
-38526.6
-35963.5
-33071.7
-25991.6
-30770.2
-41569.1
-46075.9
-38225.5
-32337.6
-35464.1
-48179.8
-43619.2
-44249
-36275.1
-30062.2
-34840.2
-42609.3
-50518.9
-44335.8
-47714.6
-40273.8
-41727.2
-54476.2
-48152.8
-46252
-52339.2
-49768.9
-40179.4
-38015.1
-38934
-39452.7
-31174.6
-26285.5
-26805
-48310.9
-42765.5
-42623.6
-39528.5
-44664
-43596.1
-36661.5
-31083.4
-30724.8
-29968.5
-23749.4
-22258.1
-19208.8
-13683.1
-16587.4
-15587
-12891.7
3059.19
25665.7
6617.5
17465.7
36369
45734.9
39424.4
26893.3
27782.5
36755.2
43084.2
49648.2
53362.3
30936.7
18995.7
21641.8
17794
16178.6
14967.8
16202.5
24630.5
48712.4
35804.3
25588.9
16530.7
30167.6
40032.5
36506.5
44849.1
21900.7
12978.8
28659.7
15204.2
10512.7
4271.48
-1308.75
4851.46
2212.83
1155.85
2896.37
440.161
3291.08
-5349.97
-8687.3
-5454.42
-2808.68
2483.2
7049.38
5999.51
-4834.93
-14632.5
-13460.8
-11855.1
-13450.5
-20664.8
-32164.3
-16235.7
-30259
-31704.4
-17136.1
-19259.5
-22287
-18531.6
-6125.93
-6693.16
-5910.57
-10856.8
-10651.6
-12968.3
-8321.23
-9655.32
-5585.88
471.65
6060.66
-1452.22
-1408.21
2244.52
4117.75
957.916
5520.22
6497.12
351.319
-2088.12
-8199.79
-3470.03
-4593.57
-5047.84
-11331.2
-13254.1
-13466.8
-17523.8
-7405.87
-7605.59
-2404.09
-407.411
-1038.15
-3965.92
-4189.25
-3691.37
-5881.89
-867.548
-7035.89
-11638.8
-4217.68
-9850.92
-12930.6
-17473.3
-11474.1
-6779.85
-12754.4
-12051.2
-12166.8
-8948.95
-9079.37
-9783.64
-8983.53
-7083.22
-11412.6
-13073.4
-12471.3
-19162.7
-11236.5
-2527.22
-731.479
-5882.48
-6224.18
-4617.52
-2771.75
-4050.68
2985.28
-1532.65
591.436
-6115.89
-759.439
405.136
10259.7
-4080.74
-2516.74
-4550.51
-3353.61
-2709.81
-4018.01
-7813.57
-13763.6
4491.55
6265.79
4276.02
-5880.3
-7050.41
-10454.8
-7049.85
-12353
-19553.1
-17488.7
-19002.6
-20080.2
-15586.5
-10383.7
2455.53
1048.28
-8875.14
-15202.4
-17461.3
-9345.55
-1211.9
1838.69
-880.978
-2133.87
-2887.29
-4950.02
-5374.72
-4102.29
-3942.06
-691.193
1123.16
-13.9245
3882.22
7494.66
17142.2
9796.62
4677.63
-353.527
-4001.54
2125.91
5434.06
22512.9
19354.9
6060.95
1639.38
295.935
-71.2849
2868.2
-6308.32
-12101.2
-12830.4
-13602.4
-9757.97
-13152.3
-4972
-249.961
3839.2
3888.95
2297.42
-742.904
975.072
11407
8271.41
7812.73
6020.13
-15.8961
6742.9
8357.94
2444.46
8648.25
10875.1
4755.93
6979.64
11136.8
1955.51
844.131
3701.84
-3800.24
3067.71
-2353.89
1561.11
4260.47
2897.91
4915.44
8932.06
-110.125
4628.52
6660.72
4303.55
-316.069
4994
-331.662
-2791.77
-7640.17
-11886.7
-16892.7
-9857.55
-10698.3
-17590.4
-16258.5
-15252.9
-18141.5
-16003.6
-20385.6
-24738.3
-23206.6
-24392.7
-10828.9
-14897.4
-8637.04
73.9999
5188.81
10548.6
13481.3
14408.8
20312
10582.2
9279.48
3927.79
-654.462
10296.6
9302.28
12263.4
7444.99
230.668
-1870.29
-8178.98
-6278.2
-10449.1
-12921.5
-10418.6
-13713
-7884.65
-5202.52
-4501.89
-10086.1
-9843.72
-6861.64
-5917.95
-11008.6
-8036.93
-8662.08
-9446.42
-11356.3
-10642.7
-9997.71
-8540.55
-6399.07
-9604.52
-10153.7
-6156.23
-3688.77
3389.72
9187.85
12324.4
19412.5
25523
6212.82
-1186.65
-4259.31
-3511.03
-5277.98
-6309.88
-8088.68
-10156.3
-11539.6
-9714.35
-9281.46
-12782.5
-12937.1
-8627.33
-4222.3
936.936
5224.17
-6725.69
-23162.7
-24781.7
-31991.2
-24847.8
-21225.9
-23584.9
-13986.9
-5268.23
-4036.43
1472.83
1397.7
-2417.67
-640.235
5441.61
-4241.67
4440.28
6518.62
10820
6708.28
1038.55
9312.76
3809.52
-90.6232
-5941.62
-6025.68
581.284
-3738.35
-10656.9
-7102.33
-7380.06
-5257.47
-9549.49
4634.21
6758.59
3475
-6288.91
3760.88
6566.92
3104.3
-2266.34
-8790.46
-9196.44
1501.54
3464.8
14827.5
21333.3
25029.5
24916.6
17054.8
13380.5
11112.1
6328.32
4672.07
-1721.27
978.492
10603
14418.9
10911.6
14411.5
28673.4
22086.8
18900.9
13906.6
12004.9
5062.41
9961.93
6362.35
9583.47
2938.83
9678.22
1735.19
2403.35
-130.667
1164.01
1091.73
2311.99
-1707.38
-327.056
1167.8
-4898.24
-2609.71
-5481.54
-8177.88
-11591.7
-9079.07
-12685
-5564.49
-4188.4
-5312.57
-6348.41
-8665.41
-8230.82
8605.39
7657.03
1071.98
4990.38
802.283
-2072.11
-3994.65
-6682.82
-13187.4
-7378.6
-16882.9
-24109.5
-34808.3
-37682.4
-36879.7
-40956.1
-27009.2
-24615.6
-32042.9
-32444.9
-37899
-24984.2
-29479.4
-29846.4
-18049.4
-20916.3
-17178
-14550.3
-23317.3
-39012
-38278.1
-41861.9
-33169.1
-31835.3
-31733.1
-31968.5
-30612.3
-30004.5
-26304.1
-20040.3
-28136.7
-25193.4
-25567.2
-20422.6
-16184.4
-20736
-17117.7
-9858
-6979.57
-7706.91
-5991.3
-8611.65
-12754
-22733.8
-16243.4
-24277.1
-8834.86
-8707.52
-8393.86
-23094.2
-20191.3
-23879.5
-25932.1
-30938
-29227.9
-38015.3
-24115.6
-29114.5
-24532.4
-18408.7
-21142.2
-15826.4
-14535.5
-16686.3
-9240.52
-5189.78
-7333.79
-13294.5
-11831
-6607.73
-5024.49
429.908
-1433.71
-1437.06
-2840.06
-4827.39
-4686.7
-6692.87
-2418.78
-2403.28
3938.81
-11699.6
-7513.43
-7179.06
-4416.08
-11656.3
-10410.5
-7941.57
-5095.46
-2061.91
-1470.52
-10468.8
-13087.2
-11125.4
-11354.5
-7429.6
-6781.17
-7819.99
-19136.1
-13011
-21786.2
-13152.1
-12657.1
-6085.09
2375.46
10105.6
7865.93
-1827.99
6468.05
1928.98
3408.96
16968.5
14160.9
27396.2
31954.8
27624.9
35422.9
41904
36788.3
41517.4
26226
33611.9
50905.8
33954.3
35032.5
35862.6
46839.4
27057.4
22152.4
8151.79
5186.75
7945.27
5089.41
805.291
7339.99
-2019.59
-1211.07
-5609.33
-1245.43
218.693
3120.44
11358.8
12663
6498.54
11687.3
13731.2
16915.9
17911.2
18231.7
7852.51
20816
16878.6
14216
17573
10532.9
14916.6
16377.2
22554.3
4942.13
6774.44
10027.2
20770.5
18485.7
12589.4
9229.74
2163.79
7562.18
9206.64
1363.63
9669.74
1885.66
6990.79
9113.02
13206.2
14469
15059.2
18961.6
18827.5
10645.2
19278.3
11855.9
20875.9
18275.3
14234.1
15072.5
10576.7
13676.4
20947.4
12370
19290.7
18763
14535.6
12918.3
18372.3
13530.4
14196.9
6536.1
3093.61
7096.68
413.911
-4668.85
-697.152
2676.95
8160.64
7974.36
9782.68
7837.1
573.309
140.201
-2959.73
-6395.06
-13562.1
-3355.33
3878.45
226.371
3187.37
5711.28
5665.48
2746.56
188.931
-692.144
-4725.03
2985.77
2042.53
2526.54
8945.46
7047.92
3391.59
-6718.87
-8902.55
-9062.25
-4121.73
-7597.06
-12225.6
-7877.08
-6254.72
-4029.98
-5518.96
-5418.08
-1978.44
497.477
-2157.16
-6704.78
-964.335
-6173
1148.8
1678.97
13000.3
15566.1
3558.13
14498.9
12778.5
3524.19
-1558.94
-1551.87
7117.63
4097.21
-2932.27
7120.17
4469.82
3633.99
3952.64
6881.25
1341.51
298.889
4804.04
-5760.87
-4599.12
-9044.39
-8166.42
-7912.47
-508.169
5382.57
-1038.06
7067.75
-2457.68
3550.47
574.366
3431.39
1232.79
-6564.68
-1808.8
-3735.02
-4775.38
-5104.82
-6122.78
-3075.68
-3211.74
-3094.68
-136.21
-9642.11
-6235.19
-3668.62
-2905.55
-2818.29
-7634.34
-3932.45
127.118
-2663.5
-3883.64
-4209.38
-9433.76
-3968.42
6914.72
506.265
-2700.32
4684.3
8639.54
11429.9
6442.71
8778.18
18260.2
28477.9
35224.3
37817.7
44773.5
44778.1
30425.3
23399.1
26853.5
31358.4
37476.9
29595.1
21120.4
19901.8
2841.82
342.974
-443.907
-7117.32
-11587.7
5020.35
6175.74
5667.34
-1468.95
-11493.3
-18724
-14216.7
-4064.65
9534.35
-2225.07
777.549
4857.04
-5395.74
-4395.94
9819.84
7784.55
-4015.78
-1638.4
-483.448
17938.8
19325.4
33826.3
48340.9
29122.5
16618.3
8242.04
12574.3
11674.1
18299
12892
17025
33365.7
25114
28879.6
35683.6
28067.4
38587.4
41156.1
17655.1
10206
8634.48
4517.95
-10803.3
-12994.2
-10588
-19619.2
-15694.2
-14474.8
-12404
-13713.7
-4639.72
-9383.16
3481.18
-1785.78
-5723.44
-5755.3
-6528.22
-12303.7
-14502
-4938.26
-8517.56
-5214.6
-2360.58
565.493
-3106.35
5162.33
3067.67
2026.9
9706.74
6754.2
7223.52
13421
9866.67
-182.21
325.247
-161.935
4296.98
9606.27
5036.35
4772.56
2766.24
979.403
3595.59
10166.4
9302.12
3810.31
-1007.32
-1018.96
4049.61
2645.02
-6591.34
-9708.95
-12275.5
-13287.9
-482.404
4763.09
3140.6
9305
5203.36
1580.22
-6189.98
-13128.9
-8620.39
-11234.1
-4515.45
-9907.1
-4098.15
-1749.66
-10767.2
-11649.7
-7948.43
-2221.14
-1848.47
-5507.48
-2208.35
-1947.22
-1542.14
-4392.25
-4985.24
-5829.59
-11159.8
-5895.86
-6280.57
-7818.62
-706.521
-2123.95
-2836.35
2609.12
3693.36
3879.28
7435.35
10969.7
3416.24
3433.85
7873.43
5744.63
1391.64
2511.32
6580.39
9086.44
12011.4
13280.8
22930.5
9081.32
9909.97
11193.2
18412.6
13178.1
12605.4
4066.45
-3931.9
-4249.58
-4119.31
-4966.61
-4770.48
-815.168
-4919.8
-3175.35
-4344
-4262.87
-5510.65
-5972.89
-6246.55
-4877.6
-7323
-8421.22
-3548.2
-1856.35
-2750.12
-4467.67
-2033.45
-3995.06
-3800.7
3.80625
1317.4
-2121.22
-3652.59
-3055.68
-6250.17
-6894.65
-1688.28
-3982.39
107.615
2971.95
1187.79
4565.57
1401.19
-3510.9
-3901.87
-3637.9
3222.85
-2313.53
-1738.66
528.088
-975.7
-2494.52
-4983.18
-2153
-2643.02
-576.592
2582.31
148.436
-3252.97
1784.6
4208.46
7960.97
6877.23
3001.97
-3694.6
-3095.38
534.299
4854.56
3394.45
904.533
-2886.2
-6005.7
-4135.26
-380.783
-1875.56
1342.66
7050.57
15436.6
16069.4
22970.4
24668.2
24661
30328.2
17970.2
16112.9
22550.7
16238.7
15711.7
19497.7
17863.5
9026.86
2174.97
-6719.12
-13281.2
-19342.6
-24016.7
-22359.7
-19323.9
-14775.6
-18572.1
-18215.2
-16275.4
-18865.2
-11254.5
-1702.86
-1908.89
4634.71
9966.22
9269.25
7647.78
7225.93
5083.8
690.995
-1910.47
-14764.2
-14108
-9489.31
-15128.4
-16065.9
-18484.9
-14372.9
-13142.4
-12759.6
-15711.5
-5706.52
-14933.3
-9989.92
-10444.3
-17755.3
-16966.5
-15794.2
-13579.5
-14586.1
-12385.2
-15939
-22098
-27084.5
-30423.3
-39051.5
-30137.2
-16272.3
-6344.72
-4744.77
-12606.9
-8589.37
-6751.44
-6399.83
-8565.8
-8547.69
-1795.73
5793.92
1534.29
-3607.68
3321.38
-4330.55
-2595.03
-781.563
-2041.79
-1589.5
488.797
11361.2
5596.84
12893.5
15663.8
14116.9
16897.2
7514.96
-6323.96
-5336.41
-8693.62
-1711.48
-8378.03
-3961.37
-2031.09
2596.87
12827
14021.3
11845.5
13714.9
15011.1
8781.62
7742.48
5815.26
-4807.65
-5045.81
-7018.37
-7476.57
-3165.19
-10569.2
-19884.2
-23162.6
-24894.2
-15709
-19057.9
-16222.1
-23340.7
-16992.9
-23598.3
-25425.8
-18312.8
-23005.4
-19333.1
-5371.87
-3057.3
-2423.66
719.068
1941.24
2261.68
663.554
-593.68
1833.34
472.188
2534
17207.2
15139.4
6712.56
14407.1
22479
25730.6
18186.3
27099.9
34585.5
34442.5
36180.3
36829.9
22692.6
31945.6
25530.9
26074.6
22696.1
33647.4
31612.8
22423.9
28271.4
29635.7
45420.2
42915.2
31686.6
40650.4
29325.8
35777
34101.5
36477
40312.8
44135
48998.9
55380.7
50820.1
52072.1
64529
70462.8
77225.8
80847.1
61843.5
74174.3
69910.4
57133
55744.6
52948.7
41614.6
41923.6
60095.2
61331.7
69291.3
48938.8
40252.1
32857.1
37399
42540.9
43503.4
46371.1
40603.8
41706.3
41667.6
35564.2
26240
27368.8
17193.3
7705.88
24258.2
16816
4834.83
-2009.21
-10226.1
-16894.1
-8448.91
-10165.7
-11064.6
-4330.2
-7919.94
-12096.7
-14382.3
-25748.2
-24373.3
-23100.5
-17358
-19446.1
-36361.2
-29009.8
-23137.3
-32363.3
-37415.2
-25781.8
-32098.8
-30127.1
-31423.8
-23536.2
-13745.3
-23263.6
-20398
-19075.6
-17265.9
-14780.3
-18433.4
-13925.2
-10322.9
-5517.27
-4654.68
-6615.31
-8976.84
-1280.67
6296.63
6063.79
2301.85
-6131.98
-2998.76
-6151.5
-8611.22
-9134.77
-6437.14
-5115.76
3467.99
-5248.91
-7033.55
-13084.1
-11484.5
-17183.8
-9398.12
-3913.01
-7016.39
-6440.97
-13047.3
-9839.67
-9852.56
-5408.53
-9020.76
-8438.71
-9092.8
-7234.18
-8278.55
2776.81
9894.47
14456.1
5160.7
-11680.5
-9889.35
-11989
-12775.7
-9104.48
-16229.8
-12348.7
-18041.8
-9909.85
-3592.6
-3934.39
-18768.5
-19777.7
-23044.3
-18849.2
-17246.1
-16817.1
-16039.6
-35801.1
-24640.4
-15402.8
-18799.6
-11354.2
-19162.5
-27612.9
-27307.2
-23888.2
-22582.9
-11772.3
-10134.3
-3985.69
-9377.98
-2807.55
-8135.76
-15176.9
-19459.1
-22990.5
-32494.8
-17242.5
-22858.1
-12119.4
-14299.9
-13647.3
-16183.9
-7875.06
-7593.36
-6687.5
-18248.4
-17415.7
-10474.1
-16375.2
-17756.3
-8958.29
-15848.7
-14292.2
-10292.9
-10663.3
-8351.72
-11125.8
-11732.9
-8766.66
-15804.6
-5506.4
-4897.66
12760.1
14645.1
4766.75
-12938.5
-12141.4
-4395.52
583.729
-4798.99
1399.69
-4534.89
2173.22
-1024.43
-324.769
-2403.88
-11010
-8020.01
-13467.1
-14263.1
-6054.4
-4931.51
-9099.53
4449.69
12113.6
2499.25
490.17
-3973.25
402.099
7943.68
17002
13526.4
15511.7
3991.86
12479.3
10618.1
12533.3
9176.92
4199.13
6394.13
8150.76
22462.4
20327.6
15271.2
22138.2
19453.7
24037.1
17045.4
15706.7
11199.5
8191.56
139.796
1966.93
2997.72
2146.45
-1048.83
5422.06
6540.6
12161.2
21274.9
10542.9
5315.62
-14030.2
-18625.9
-17261.3
-21925.9
-2089.16
6581.1
1951.54
980.745
-3432.24
-5305.38
-4672.42
-5274.24
-3654.32
-6127.19
-6100.19
-9912.22
-3546.37
-4292.78
2537.03
3867.65
-670.517
1503.26
1706.48
5811.87
5618.63
-7222.78
-1939.07
3132.75
-5290.35
1736.74
3034.96
-3706.02
4302.51
-7766.9
-2537.72
-10637.2
-3724.37
-7170.9
-11133.6
-13531
-8045.22
4356.05
-697.155
3447.6
3653.57
-2847.9
13953
5528.12
2101.46
1139.8
-2140.47
247.22
-4394.68
115.537
-5978.97
388.601
7563.58
12527.6
8348.8
7277.38
1162.58
-3086.85
3360.72
1406.71
-980.991
3077.92
-1029.45
2414.96
3015.14
10944.3
8829.35
10364.3
12978.3
10907.8
21346.3
9386.44
12419.8
13045.2
13644.1
21374.2
11461.9
18606.7
10971.1
10315.2
8448.5
3329
331.576
-1755.71
11563.7
17094.6
21412.9
907.359
11641.3
11721.9
12330
7751.11
3506.21
1770.12
799.778
-3851.13
-3222.24
8824.44
4039.89
2604.94
8100.2
5223.58
18422.2
10787.8
26857
12450.4
8932.67
17246
17605.2
19023.3
16473.6
19448.2
20279.6
5635.69
921.545
18721.4
31599.7
27304.8
3022.93
9776.37
19040.4
18695.2
22235.6
23367.4
28711.7
32793.6
18543.7
12454.9
23783.1
18078.4
18983.2
18337.3
14083.4
-2180.07
-8314.89
-4502.12
619.064
14375.1
12670.7
6284.88
8586.8
5971.77
11480.2
7691.23
2172.11
19229.8
32002.4
18498
23328.6
15937.9
19313.5
24020.3
11469.3
10020.1
-1764.97
5009.38
7032.7
10223.3
5602.49
5161.4
-2968.06
6311.88
13291.2
1904.1
4993
2828.75
8847.78
22083.5
13748.2
22997.1
15785.9
9476.46
15964.2
17846.3
20600.1
26546.1
27695.8
28196.5
14687.1
16068.5
15032
26155.6
28056.5
20821.3
14449.1
15664.7
9061.73
14295.8
20969.8
25324.5
23499.1
13777.5
4547.29
9036.2
2346.73
-16.7718
-4798.77
-8356.59
-4890.75
2980.93
-6976.38
-9792.52
-8987.21
-16717.1
-25482.3
-19508.8
-20644.1
-12985.3
-13504.2
-14059.6
-16011.4
-16635.1
-25645.9
-18678.3
-17264.3
-14075.7
-10570.7
388.057
-13382.5
-251.447
1995.89
-71.1679
142.891
-594.851
10446.1
16439.4
6667.5
12907
9353.15
1391.62
4152.96
-2048.73
8430.69
2410.43
6591.64
6854.97
14770.7
16745.7
6295.43
9590.99
25509.1
24690.4
18229.2
15135.7
11745.9
8342.72
9093.53
9215.18
4544.23
1283.16
-77.8177
323.251
-2451.05
-7751.22
-11167.7
-11488.3
-13795.5
-7395.37
-3825.76
-6068.87
-6477.51
-1463.75
4444
8154.61
9311.22
4696.74
-6716.98
-7137.86
-1306.19
-5582.74
-6564.81
-7538.95
-11258.3
-14920.5
-10856.9
-6413.88
-19391.3
-14520.5
-9268.05
-6132.72
-9859.69
-15097.5
-10427.5
-12724.9
-14822
-10452.3
-15188.9
-12759
-11563.8
-8524.83
-9523.44
-5044.77
-2390.84
-3626.09
971.773
3691.19
5019.29
5284.68
-3057.97
-2029.93
-6476.06
-1514.7
979.683
-2649.26
-2250.97
349.891
-3917.85
-4607.34
-1617.17
-6445.94
-3471.06
-10618.8
-20326.9
-10564
-7487.75
-8577.69
-9451.07
1896.66
-7573.4
-8595.18
-2759.47
4492.75
1969.37
8498.51
16275.2
12731.5
7239.55
3493.27
4667.41
7258.87
6798.48
6706.58
14709.2
14236.6
21200.4
20988.8
14208
15068.4
9590.22
11929.8
6769.13
8801.52
1127.21
-2157.78
-4337.58
-4696.83
-5953.52
-4629.98
-14295.1
-15941.7
-10248.1
-17453.1
-14606.9
-10724.8
-16690.1
-9302.13
-1224.63
-9496.64
-8329.95
-6819.6
-8202.01
-7692.8
-6666.39
-4855.88
-5145
-11465.8
-11190
-4486.01
6484.41
7283.29
-6368.28
1706
-734.776
4879.06
2419.77
10025.2
14291.6
15545.9
15937
19754.9
29342
29786.8
23460.2
32984.6
28260.7
39388.1
27140.6
29351.7
21830.1
31555.3
21203.5
18893.1
24775.5
20861.6
11647.2
13748.7
7413.95
16155.5
10912.2
30010.8
33341.4
42763.9
47453.4
56732.6
38461.5
29117.8
31347.4
24422.5
44348.1
55707.3
60664.7
51795.8
52392.8
33600.3
41671
26839.9
38633.6
44893.1
51341.9
34615.8
41216.8
33495.3
52113.3
36185.6
31952
45845.4
39906.5
31828.1
13567.8
1948.73
-1590.46
-688.201
7477.58
4371.93
4320.59
4091.67
-3083.78
-222.64
955.7
3980.76
5298.57
1912.01
-2096.06
-2724.64
-21.7496
5347.05
8094.03
6072.28
6433.53
-661.519
2506.84
3390.35
-301.148
293.48
-692.249
-1867.11
-4456.19
-1557.16
-873.292
3338.59
678.375
-2858.87
-920.576
5236.23
3932.57
100.483
2937.91
2561.34
2087.13
3385.03
-254.442
-532.162
-2555.5
-3716.56
-4922.08
-5465.48
-8641.85
-7546.88
-3269.9
-478.193
-83.4638
-2115.07
-4085.23
-2848.67
1033.01
1006.45
2212.66
1448.91
-2495.04
-4450.11
3943.41
1672.57
2485.74
873.858
-2019.1
-4195.06
-187.019
4103.41
2505.66
-5142.55
889.34
970.443
-1722.47
-2546.7
-4237.98
-70.983
4215.87
-2063.07
-2215.9
-8479.35
-5429.62
-1568.07
-3958.92
-9048.2
-7564.05
-6078.65
2705.27
6444.65
2585.56
-5383.88
-1193.36
549.461
-7929.94
-7167.01
-6895.94
-1479.78
1751.32
-2588.85
-4783.55
-11249.3
-10248.6
-3324.29
-7598.04
-9401.84
-10673.6
-8246.24
-8100.3
-10990
-6229.46
3980.42
1621.14
12942.2
13578.9
18012.5
18274
14118.4
17066.8
8559.66
852.288
7442.92
6312.24
8791.48
647.817
8711.66
5284.07
3191.91
9273.31
4240.58
613.383
1019.88
4032.72
1891.74
3479.73
1823.85
10097.9
8647.49
15348.9
9443.91
19399.4
33526.3
35641.7
31976.5
32973.9
46145.5
38762
33668.4
32303.3
31985.4
57090.6
48072
66243.2
79824.6
74178.8
89111.9
69165.4
43237.4
49615.5
52994.2
48805.3
50806.1
58633.6
64271.1
58192.1
65791.8
58444.8
80449.6
89416.7
84990.4
68558.7
78834.8
70885.7
77199.4
86969.5
82586.2
64620.9
69425.9
47076.8
45050
42539.5
59501.5
47874.3
58379
74907.1
69364.4
72933.5
102723
87850
63004.4
67363.3
64086.7
43105.7
20047.7
7507.69
-7388.83
-8482.18
-8179.46
-5106.99
-3746.56
-7014.61
-15486.5
-24602.9
-19970.3
-8191.84
-8260.24
-13114.3
-9718.64
-7805.49
-17057.3
-18742.3
-10372.2
-12796.9
-11656.3
-9976.82
-3841.62
-560.215
-1313.23
511.271
666.898
2935.72
2173.16
6494.79
5198.47
-279.06
-5956.91
-4641.86
-6432.65
-3115.72
-5188.98
-2435.63
-11333.5
-12426
-16849.1
-17274.9
-10828
-10604.7
-13844.4
-8470.35
-14036.2
-18065.4
-11426.1
-11253
-7223.44
-13067.6
-6959.42
-7459.6
-1151.39
-10399.5
-10196.6
-5130.25
-10811.7
-13927.3
-27147.6
-27041
-17887.5
-10179.3
-12765.7
-10925.1
-17460.2
-9636.33
-10526.3
-8854.22
-13609.2
-10128.1
-7649.13
-1429.05
-8273.17
-12943.8
-12754.2
-22976.7
-24348.2
-11833.5
-7959.8
-8090.54
-8921.55
-15284.9
-14036.4
-9806.63
-3626.04
-747.194
-1038.95
276.308
-2194.21
-2982.68
-4059.23
-5648.36
-7618
-512.945
3234.04
-2356.55
-2858.58
-5677.51
-11330.9
-8063.42
-8981.99
-6264.13
2650.3
2929.96
10002.2
9499.75
6238.8
3670.75
7063.12
9283.06
4595.73
595.161
808.857
-2720.81
-2889.99
-1200.89
4722.51
6733.07
4837.36
5008.38
5730.86
1841.2
1513.85
3805.17
4498.16
354.034
442.011
6670.42
-4255.29
-5688.02
-10688.8
-5050.21
-9127.04
-11238.1
-3775.2
-6364.8
-5000.75
-4931.32
-6432.74
-4015.32
-6940.24
-8057.97
-767.434
1344.68
5949.86
424.507
-1581.16
-4303.55
-843.378
-2972.7
-3562.71
-8542.76
-12425.8
-12305.2
-8571.66
-5688.12
-19982.5
-19366.7
-15828.5
-12344.1
-16056.7
-17661.6
-13843.2
-17655.3
-20468.2
-22717.2
-23349.9
-26532.8
-23063.1
-14177.2
-18652.9
-17513.3
-11323.3
-10354.9
-10970.9
-11958.9
-2917.83
9324.22
21785.5
14375.2
21178.9
29337.8
25590.2
14147.9
11584.4
7003
7078.77
9001.7
7630.2
10803.8
7906.63
3422.83
20153.6
25993.2
37050.7
40065.8
36316.6
27862.4
43516.6
17969.4
18420.3
29191
40895.5
50384.3
39591.9
27538.1
28071.7
24319.5
32407.9
17678.5
22748.3
13194.2
20698.8
33539.4
40337.3
48980.6
33229.9
26939.6
20021.8
34709.8
27003.2
28108.7
25618.3
25746.7
13909.6
6659.45
2875.3
12521.5
6544.13
10253
16607
23223.7
13413
27415.8
14402.6
22421.5
30442.5
30318.3
28294.5
37150.9
33458.5
42454.2
21255.1
24721.8
34236.1
25368.3
27414
18065.4
13290.8
41.5438
822.318
-5429.15
-9978.58
-13095.2
-11761
-17431.9
-10263.4
-10914
-17046.1
-4533.71
-3308.49
-10718.6
-7956.26
-6988.72
-8244.57
-1716.77
-2861.99
-3471.43
1389.77
2972.79
-391.482
-4979.69
-5826.2
-4732.89
-5683.33
-9739.98
-15518.5
-8282.82
-8000.59
-7377.49
-3380.17
-5329.26
-4106.16
3778.09
1899.17
12557.3
17267.9
23198.6
16812.7
18552.8
11824.1
1634.68
-11161.4
-7587.79
-10616.5
-10890.2
-5743.25
-10527.7
-2250.11
-2719.97
2513.85
3353.59
10647.5
10456.8
4179.1
14443.7
16817.7
-232.417
3419.95
1091.22
-785.016
-2257.24
-620.415
-532.092
1711.45
6221.41
10664.8
5288.93
6689.96
20078.1
21453.1
32176.9
50075.7
56010.9
82527.9
67512.3
69983.8
59528.6
56251.3
64238.8
48302.8
53896.2
48373.9
42945.2
30109.7
26351.6
33282.1
59353.5
72928
58270.9
69219.3
92412.7
112207
107236
110430
128263
127732
140388
135301
109282
123862
126196
133594
123098
129073
124026
114857
101636
83305.1
81450.6
83844.5
93261.2
93201.6
89394.5
58632.3
69133.4
57124.6
51538.8
68882.8
61114
69165.8
85270.8
109004
88160.2
96452.4
78932.2
71363.2
61440.2
50323.7
46759.3
38008
39804.3
48086.9
69734.2
49808.6
38845.4
47943.8
51872.1
73278.2
92542.8
95207.3
71069.6
75916.9
83693
70364.5
69509.7
56840.5
33838.6
31702.4
31125.8
43641.6
43554.1
48773.8
58833.9
63530.7
60491.2
58572.2
44239.7
45029.8
46955.4
68370.5
72121
58758.2
45819.6
43150.6
35682.8
52485.1
37871.8
29014.9
22179.8
28375.2
18243.3
9346.39
5331.11
5739.8
6653.16
-6613.82
-3699.04
337.581
-2235.32
-2193.55
423.564
-3411.18
-3522.34
-14003.7
-14718.8
-16709.1
334.67
-15395.4
-8023.11
-20617.9
-13552.8
-12499.4
-22942.6
-23100.8
-19116.8
-15113.9
-13039.2
-15650.1
-19031.5
-18373
-12414.5
-16657.8
-9035.02
-3545.33
-127.658
4105.35
-368.96
7227.38
5685.85
-4391.59
-112.092
-710
3102.39
-1510.22
-7489
-2317.09
3441.77
-1994.91
8080.78
16917.2
20759
15062.7
22806.6
28956.4
38977.1
23578.4
48441.8
42454.3
40641
55656
48774.8
35867.4
32995.4
34038
18784.1
17323.6
22987.9
17186.9
10770.2
13239.9
14693.7
26930.5
23953.4
11197
17879.6
11268.8
14563
14576.6
14643.7
13136
3875.74
-876.056
6532.06
21471.4
28966.7
13157.5
13795.9
19835.1
10703.2
14268.4
12400.6
9944.04
11413.9
11106.1
1949.53
-1054.59
-9634.34
5525.58
5728.45
-3788.94
-5346.29
-6329.91
-2226.42
1770.15
55.1098
-11630.9
-15796.8
-14571.7
-17201.1
-17134.8
-19411.1
-15348.6
-11874.4
-8807.44
-9863.45
-10834
-5070.8
-7854.15
-7604.54
-6933.31
-4736.34
1667.93
-4051.57
-8675.62
-4016.19
-6260.53
-15332.8
-13629
-10288.7
-17536.5
-8753.44
-6134.41
-7048.21
-3398.85
-5556.6
2077.76
-111.135
7392.14
5658.54
5105.48
6391.36
-608.497
1248.97
-4258.28
-6224.45
-7400.24
-3851.73
3523.07
-677.02
7026.76
9125.14
1855.16
2281.15
3974.88
-6783.34
-11845.8
-879.126
-2350.38
69.5894
-8003.55
-14737.6
-4260.28
-9905.31
-9440.19
-5994.29
-1345.24
-8851.89
-1039.86
3182.75
6498.08
-5697.43
-3274.42
-985.218
-3701.4
-6672.49
-7687.08
-2625.29
-11791.5
-8069.35
-17737.4
-13082.4
-7517.32
-5798.35
-8990.69
-608.461
-1121.33
3256.9
-1211.86
2865.55
3866.42
-3461.28
1472.87
-5951.58
-7133.34
-11779
-15397.9
-8966.27
-6969.73
-5181.51
-7313.48
-8294.05
-10714.5
-7459.7
-2049.36
-6681.78
-7489.01
-5350.93
-7656.39
-1762.97
1646.63
5591.15
5773.02
14291.9
14779.8
19776.5
20279.4
17057.9
13776.4
10838.2
3728.32
6636.3
17931.4
22589.5
25564.3
32686.6
35126.6
35832.8
29984.4
38064.7
25867.1
25627.9
19765
26739.5
31217.2
57767.7
76403.7
71807.6
72530.1
82512.3
77069.7
61380.2
38285.8
39672.2
31687.5
20229.1
12219
10588.3
13599.2
13066.6
15219.4
16390.1
19091.9
29913.3
23278.1
24694.9
23340
-2071.03
4843.83
12491
13474.1
18837.7
22757.1
29613.2
28980.7
19531.2
24743.1
26365.5
16490.6
9115.76
3493.39
-226.761
3438.31
8627.23
-2235.34
-6494.7
-3230.16
-4631.87
2751.73
411.363
6088.84
7080.15
6013.4
1574.73
4855.55
11677.8
2079.92
773.036
-924.682
3213.66
10186.7
11481.7
14346.6
7003.34
14848.7
21498.8
15766.9
26739.6
13808.8
25598.9
35119.4
36116.9
56434.7
61588.5
65060.8
63091.2
53914.2
68097
68436.7
47773.9
44898.1
33055.8
33825.9
36432.9
34240.6
28276.3
41215.9
33408.2
33968.5
41426.7
45535.6
32191.3
31485.6
33400.9
43967.8
42483.7
27990.9
22337.4
11381.4
5462.34
8583.64
7772.05
12071.9
13893.7
12691.3
3192.41
12556.6
31272.3
24036.4
22941.5
12770.3
11603.8
12490
7687.62
1471.26
1072.04
-10551
-6486.51
-5680.72
-7754.46
-3707.78
-10684.7
-9268.57
-6056.69
-2707.05
-3369.89
-7835.99
223.902
-2296.25
-4817.84
-10824.5
-4494.91
-1861.55
-912.254
2609.73
5249.98
5267.42
3554.65
-6052.07
-2482.29
-4003.79
-11018.2
-11323.8
-407.938
-4267.28
-11382.2
-7901.67
-5477.39
-12202.7
-11079.3
-12302.2
-8403.77
-5553.59
-3409.1
-913.892
2319.32
1585.64
988.163
-3574.04
1371.21
981.223
16809.5
16959.5
9053.46
3313.78
5943.82
6699.25
7202.09
-997.4
-4472.26
3170.82
7186.61
13257.6
6630.7
6039.03
7656.05
6970.65
11594.5
12342.8
7339.93
7221.3
12948.2
6336.88
12685.5
3249.29
813.655
3835.62
8353.49
5665.03
15396.1
18257.6
8082.04
8068.49
30560.2
29118.9
33826
32127.9
17286.2
23257.6
26768.8
20423.5
22666.6
27878.5
34349.7
36595.9
29613.1
25976.3
36519.2
46371.6
38777
34727.4
18854.1
15878.6
21021.3
33728.8
25579.5
27622.2
20027.8
18380.6
21462.9
33497.3
36206.4
42466.7
49831.1
34682.7
31642.1
30172
31274.3
19102
23710
32015.3
42663.1
26665.1
23362.2
17735.4
21609.4
22947.5
17848.4
16076.1
13021.3
14373.2
9244.13
530.003
-830.324
-2119.42
5571.97
-3753.25
-5626.86
-6682.45
-4313.18
205.556
10362
8542.49
11280.8
10229
7452.89
4825.47
12323.3
11528.6
22251.6
18040.4
11155.2
9547.6
1925.49
-4890.57
-2788.65
-2572.93
56.6229
-5863.34
-3247.11
-8389.7
-9795.55
-5775.21
-7076.17
-7061.83
-6504.39
-4872.28
-1708.79
-5847.96
1706.26
5162.72
10790.6
16559.1
17745.2
14497.6
11824
8096.77
18728.1
8361.61
1902.51
6043.34
5260.15
1701.71
510.705
6764.76
9887.95
6910.32
3810.66
4771.36
-492.105
-1056.95
10181.9
3738.76
11946.1
14498
3443.34
-958.871
-11480.1
-16939.1
-13900.6
-11824.1
-16484.7
-10953.9
-11172.8
-8961.73
-9779.82
4036.97
2869.52
-1214.46
-82.9731
-1369.71
-7811.32
-14933.4
-14425.6
-9182.61
-5727.26
-3569.85
-924.095
-1351.02
-248.848
-4858.01
-1344.28
-3400.59
-6397.92
-9957.05
-10390.5
-5843.57
743.133
5999.71
2389.63
3514.26
-3682.64
-3839.33
-7924.44
-3672.01
-1009.71
-305.468
-6108.66
2510.32
5817.92
4285.21
8386.54
13761.4
8105.97
4978.09
1694.59
462.543
-8524.96
-3311.29
-2844.33
-2728.93
-897.315
3282.51
2777.28
6314.09
741.827
15.7243
8083.82
-192.307
2920.81
8094.83
2296.78
-397.3
2306.61
150
-3709.4
2300.36
8553.6
9096.66
11682.7
23943.8
21626.9
15518.2
27348.4
37474.1
32740.6
40235.6
34199.7
20048.6
15076.9
18812.8
22405.7
15077.2
17209
8050.25
7707.95
5552.93
4379.58
10479.9
5020.6
8339.11
-1123.61
2234.68
18034.9
12646
11652.9
21007.4
25023.3
19689.7
34997.2
31503.8
31105.7
18481.4
37868.7
39574.1
45796.3
37964.6
25853.3
24757.2
30006.5
26257.1
26494.4
30575.5
19765.6
24556.1
33878.5
25516.6
25457.4
20919.7
1957.02
-4297.46
-2888.73
4194.39
13241.4
5342.24
692.03
801.65
12163.9
12389.9
26788.5
35445.5
28412.9
54164.8
64057.9
69484.1
67015.3
73368.6
56102.6
62714.1
68809.6
58847.4
62587.3
53571.2
51494.9
50227.1
67970.7
51891.3
32545.2
28962.6
43482.2
41659.3
39864.1
42164.8
19256.5
10860.5
9329.15
13492.7
1466.23
5923.61
38.8541
-4066.15
-13845.7
-12441.6
-5438.89
-2412.22
321.197
3875.39
5386.86
916.317
3095.79
-3548.26
293.923
-964.683
-533.303
-1450.75
-3048
614.312
8022.68
7496.83
13440.4
-2691.99
2785.67
6732.88
4773.62
971.906
2749.78
2029.45
-1088.18
-10481.5
-11765
-2880.97
-3265.47
-4341.51
-8010.14
-4414.15
-11361.2
-5104.97
-3828.32
-5296.98
-2864.12
-9616.25
-11765.6
-10992
-12261.6
-21965
-18134.9
-14739.3
-12215.4
-11146.7
-4580.66
2430.19
-4335.5
4156.82
20273.5
4071.99
5506.21
-6938.53
-9710.55
-17863
-15609.5
-20658.1
-12067.1
-4677.03
-10532
-14270.8
-12704
-16197
-25755.3
-21486.9
-7003.19
-6495.24
1411.06
555.349
-1645.25
-3138.41
-2517.95
8387.92
1607.4
10387.9
14291.3
18231
17537.9
11274.9
5043.04
281.743
8326.88
6317.97
210.655
50.075
7517.89
9564.58
4647.7
5959.96
5313.42
2630.87
3244.43
-162.139
-2371.12
737.467
2530.41
-2230.4
-9527.51
-7862.95
-10064.6
-13020.5
-9995.54
-5371.66
-3372.02
-6438.8
-4862.7
-3591.65
-365.737
2669.29
-224.574
-99.1201
4397.74
886.113
628.747
-113.854
-314.672
326.964
1054.27
3516.51
6400.75
6295.64
3321.02
8448.68
9127.07
4226.19
-53.6475
5446.44
5773.45
2870.13
-4791.42
-1937.35
-1736.07
3794.15
-2651.13
-8574.2
-9538.76
-10231.9
-7919.83
-11004.5
-5304.39
-10062.5
-6604.49
-11782.1
-11058.1
-11450.3
-12026.8
-12018.5
-11013.3
-9829.53
-9115.49
-6114.39
-2500.58
-1888.19
-6023.44
-14553.5
-26547.2
-13090.5
-973.201
433.127
9545.9
9480.34
-802.238
-5915.94
-1140.51
13541.8
10409
11599.6
8749.28
17861.7
24089.7
18199.3
319.316
2160.38
-7882.95
-12890.8
-7157.67
-11205.5
-14587.1
-19181.1
-12573.2
-15173.2
-21495.4
-26222
-40191.2
-32139
-32332.5
-28323.4
-26424.2
-26004
-20865.7
-5575.07
-3571.66
-11306.3
-10908.7
-3704.72
-7708.52
-7913.32
-6632.45
-13504.6
-14556.7
-3916.08
-3637.31
-2138.23
-7485.56
2987.26
-9570.67
-5617.89
-2546.06
-977.661
-3790.65
-4029.82
-521.046
-3784.38
162.831
-9275.57
-10229.8
-11763.3
-8605.14
-13180.1
-17502.6
-8853.63
-10763
-15175
-15323
-6814.64
-3903.88
-1391.67
-8718.05
-10877
-4053.18
-10032.3
-7502.87
-7157.21
-3513.3
-8998.53
-12687
-17575.9
-11158.8
-1359
813.289
-1225.59
4790.63
3124.36
9443.16
6455.8
-3257.64
-7448.64
-9068.55
-2102.58
-1762.64
323.866
-8048.16
-16630.9
-19554.1
-19627.4
-21767.6
-24851
-25707.6
-25956
-32317.8
-30313.2
-26462.9
-26631.1
-23877.1
-26258.9
-18567.3
-28180.9
-31181.3
-28501.8
-16901.5
-20079.5
-22377.9
-15154.9
-2313.48
5508.65
-1657.71
-8456.02
-14331.3
-8144.85
-9693.2
-12553.9
-18798.1
-12736.8
-8498.34
-12316.4
-15880.5
-11182.2
-4350.79
-7412.58
-5654.39
-8885.95
-7682.16
-1380.05
-1872.17
3200.22
-1109.21
4678.2
986.424
2171.28
2311.96
4579.92
1677.63
-2306.54
2637.62
279.463
3319.39
-4471.73
-3992.19
5548.41
13083.3
9681.01
7778.88
13825.2
13558
18651.8
15180.2
18676.6
13976.3
11166.6
5414.81
6926.81
8116.03
8581.23
9030.55
206.379
201.236
349.789
5368.65
1771.75
6996.43
6189.78
-476.516
-5164.87
-7268.8
-8583.75
1700.04
2088.3
-2241.8
3966.95
9098.24
9767.35
7267.99
1587.91
5500.55
-1612.08
10013.2
31696.9
29502.6
18467.4
24263.2
21968.2
22655.8
17450.2
15285.7
9822.77
4310.73
-751.483
121.044
-508.353
-826.053
-1310.12
3790.01
14472.4
18510.1
23596.5
22669.7
34979.9
37201.7
28221
23776.1
28372.3
21016.1
26241.1
10517.6
9429.04
2321.76
3122.52
330.8
4522.63
-3391.51
-9264.13
-5503.51
-14538.3
-19285.9
-21792.6
-17436.6
-7675.2
-9385.06
-2772.37
3330.41
3150.79
8645.17
-4441.24
-3814.93
-1380.31
94.1279
-1720.49
-1422.09
4534.25
-1925.46
-2400.18
-2854.03
1752.3
-10908.3
-6218.15
-1305.24
2096.34
1901.68
-5660.64
-3842.74
-1172.21
-3520.07
1869.24
-685.907
-2475.43
1307.26
-2057.55
-1301.25
-3137.59
-1524.71
-791.531
12158.2
17024.3
18344.9
11031.8
1350.25
9524.65
-197.857
11211.1
21951.3
30361.2
22763.6
14774.3
15030.4
8694.57
9331.22
15609.1
21824.4
16534.8
11820
18893.9
12532.8
27046.1
22158.8
11653.9
8211.15
9636.65
2646.72
-2159.43
-4819.08
-8272.46
-8973.19
-4309.36
-8140.9
-5053.55
-3683.03
-3189.75
-1601.21
1188.33
-694.941
-6874.89
-9287.47
-18401.4
-12739.8
-7300.05
-3898.82
-6420.95
-550.548
-8064.99
-4974.67
274.788
-1283.47
-1887.94
-7346.23
-1170.19
2844.3
-10944.6
-6350.17
-256.954
-555.088
-2025.49
-5535.91
-6005.03
710.769
107.52
21.2036
7923.61
11566.8
14024.8
6289.76
4772.86
3097.35
-331.387
4078.52
11930.8
12563.5
10000.3
7285.22
8846.59
3535.34
5325.95
-2915.38
-5565.83
-9741.47
-8286.58
-11432.6
-9073.77
-4848.53
4462.51
410.726
4446.58
-867.562
1543.05
-214.319
-4036.79
-4939.1
918.354
-1546.65
67.3086
-5039.11
-6655.97
-4660.63
7394.42
6992.54
2142.06
7055.2
4624.95
1584.31
653.309
6917.5
8864.35
6707.44
11192.3
5912.54
17277.8
7893.4
3929.8
2935.51
-4362.55
9087.54
6780.06
4722.17
10380.3
8303.88
5961.17
6160.3
-2624.6
-7081.67
-14780.4
-9388.69
-12277
-6966.1
-9264.37
-3908.6
-8550.05
-9762.47
-8421.14
-10655
-10389.7
-4461.86
-5644.93
-14963.6
-11415.4
-7246.22
-9206.88
-13832.2
-9210.99
-6563.63
5708.29
14437.2
11375.8
11473
11935.7
3843.44
9844.09
12206.7
2838.26
2474.17
7925.7
7522.51
14277.1
14394.7
14617.1
15452.9
11527.7
10850.2
7287.85
7998.49
2154.53
8230.79
12003.2
10711.8
13786.3
24568.7
17287.6
