-521.43
-609.373
-1789.74
-3129.13
1451.64
-1810.4
837.675
293.284
710.886
1851.25
2358.16
5129.58
15919.1
7948.29
11316.3
20306.6
22755.1
20879.7
25841.4
31197.3
33897.4
45944
37835.7
23840.8
11183.2
15278.1
20677.7
18636.3
7611.38
12987.1
5726.28
9007.55
3358.49
-5485.41
-12728.5
-11445
-20593.5
-17562.3
-7662.19
-2547.78
4097.34
13485
14429.6
14630.3
13855.6
11290.7
11990
9432.22
13853.1
18956.8
20531.5
16902.9
17022.5
5355.52
7493.05
4580.91
10325.3
14100.3
5925.38
13551.8
5217.55
6047.85
5521.53
4565.05
7840.83
2469.05
-5233.57
-7476
225.264
-3708.82
-9380.21
-7411.3
-5505.01
-1603.51
-4440.38
-3924.43
-4339.38
-1953.22
-1908.76
2369.48
411.588
1729.12
5984.88
-1394.52
-3303.49
-1565.69
-3892.2
-8241.63
-5653.93
-10021.7
-4872.33
-4998.73
-3280.46
2554.54
-8657.42
-6352.69
-11500.6
-9790.68
-10727
-9558.64
-6787.72
-7021.42
-12232.9
-5464.74
-7325.27
-1574.46
3901.56
5809.75
5931.11
4145.21
9215.69
6578.87
7694.59
12815.8
9484.16
11783.6
19312.7
31417.4
17057.5
19273.5
24004.7
15232.3
18490.4
16728.6
19044.8
-506.43
7811.44
1425.55
5758.29
1022.36
1839.65
9513.24
11665.2
3390.3
1751.58
4278.08
7587.3
4355.74
2946.45
-16.965
6927.92
1998.04
-17333.3
-29752
-25784.6
-18247.6
-11400.6
5837.42
14989.4
9935.15
421.527
349.885
-4794.65
2256.92
-115.014
-18.6522
8868.46
17819.8
18149.3
16904.8
20607.3
14850.5
13674.7
9113.11
4441.81
8902.37
5939.44
13917.5
9209.29
9465.93
5887.43
8403.08
10102.9
3990.14
-1532.2
14974.3
2232.42
3351.46
5269.84
1778.87
-2467.14
-1325.22
-6875.07
-2609.34
-681.799
2870.41
2154.34
3142.18
5306.54
7432.04
4830.84
-1059.76
-6258
-4874.82
-11264.5
-12610.2
-8668.91
-7708.66
-6111.68
-4871.82
-11881.5
-11471.5
-10033.8
-8837.88
-11389
-3984.94
-4689.74
-6485.93
695.687
-3147.09
-3901.08
-6641.79
-5412.86
-9038.82
-1910.48
-4909.48
-4868.8
100.097
3173.19
-1826.44
-5186.93
-3482.7
-6369.79
-6522.78
-9098.08
-9663.5
-2417.66
530.164
-959.735
705.484
1137.44
-962.838
-2464.49
-1200.64
-2083.08
-4389.62
-4140.57
-9903.96
-9545.29
-7153.14
-11605.1
-8084.62
-13966.8
-7760.21
-11077.9
-10549.5
-7944.38
1104.9
3426.18
6425.4
4437.12
7695.27
1838.86
1466.99
8792.19
4936.56
674.071
2805.03
4036.62
-6819.27
-12686.8
-14947.7
-6970.19
-13518
-14006.5
-13270.6
-10403.5
-9884.42
-11151.7
-7814.83
-9469.08
-8267.19
-7831.68
-12636.1
-7724.42
-6933.61
-1716.43
-338.339
430.377
1543.77
2617.71
2822.5
2421.3
7193.02
1708.7
-159.048
948.44
-2615.77
-989.838
1095.52
3058.61
859.706
2991.14
3716.3
1977.75
-4532.77
-10357
-2067.23
-1959.59
-336.014
8094.98
16364.1
18815.7
9689.46
17563.2
15126.5
15561.2
16085.7
18019.1
15001.1
29317.4
26439.3
15901
16488.2
11119.7
6650.97
7397.08
6717.93
6260
4662.11
10743.2
12329.6
9273.18
13742.7
15346.4
3852.76
-916.889
-8738.22
-20527.3
-19541.3
-16502.7
-19899
-15431.8
-5586.98
1809.64
-1877.9
-2101.49
1395.33
1657.13
1659.61
76.438
2000.48
4968.87
-2428.72
-4041.8
-7199.48
-10374.8
-9322.26
-4559.47
-10875.1
-9721.7
-20752.8
-10335.3
-11706.1
-12055.4
-10720.2
-7017.48
4363.13
5423.78
555.388
633.926
-1419.96
-2694.09
-4899.69
-187.809
32.7601
-713.208
-2526.05
-1721.19
2142.2
1676.8
213.105
448.042
-482.045
7334.72
7636.55
-907.723
-4681.69
-11740
-12342.5
-14787.3
-18716.2
-14914.4
-22257.1
-25682.7
-22572.4
-17716
-9639.87
-14270
-23816.5
-14563.8
-10485.8
-12997.8
-10023.2
-5108.33
-8704.73
-6188.01
-4889.04
1474.82
4078.32
3982.9
1493.93
4893.62
-7885.72
-12813.8
-6162.24
-5080.95
2622.08
-175.972
-712.529
-1319.62
8586.27
60.1048
2996.37
2181.15
10733.4
9801.97
292.434
9719.53
12967.7
16295.2
12306.8
8716.44
16612.6
19696.8
17463.3
14806
15008.5
13903.6
15410.9
9838.97
6828.3
-1517.73
-11100.5
-12890.6
-10249
-785.086
-2012.04
4091.51
1353.86
-121.747
79.0068
-2272.98
-187.389
2908.82
4667.86
5419.9
12379.1
8363.11
7005.67
6209.56
8682.3
13991.1
11753.9
4826.81
-241.139
-4373.08
-11863.5
-11803.9
-13465
-10430
-2951.03
1566.23
16830
14318.6
27089.7
50354.4
48516.2
52870.9
58577
50504.4
45506
30926.7
15987.9
10510.4
7281.09
4807.35
6414.81
5572.91
5615.49
1716.97
6968.32
7357.86
7324.19
6453.93
10264.1
6806.91
6364.13
10272.7
5903.91
9691.95
6566.88
16464.2
18010
15184.7
10555.4
3809.48
-324.51
5715.57
2396.91
1371.34
3094.72
750.336
5033.47
3110.35
117.327
757.712
-495.308
-1652.9
-875.236
891.999
1348.15
4693.62
7581.63
6756.62
4091.63
7367.48
5986.66
10121.9
17711
12625.8
25639.3
13865.6
28414.1
14882.6
27946.6
22707.4
29569
38195.6
58333.6
68250.5
81812
67430.4
69002.4
78353.2
79374.7
73971.7
62004.9
52346.5
46794.2
57156.6
47884.9
69677.2
73610
91636.7
106962
116565
105608
94122.9
81677.5
75510.2
72197.6
61745
71171.7
56749.3
77183.7
52222.2
62347.2
38308.4
51420.1
44349
50185.3
45790.7
48629.6
36580.2
24693.4
29793.4
26994.4
24765
23865.3
31374.8
28995.5
22697.3
32551.1
41637.5
49106.2
46457.9
50829.4
57824.2
39948
54269.5
76783.1
75384.4
93319.1
95248.1
82424.2
75605.5
57403.7
44002.6
33939.9
13000.7
16206
31797.6
14873.7
20597.6
30799.3
27458.1
39833.3
26707.9
21650.2
32306.3
32089.9
25462
17854.3
16851.4
12738.5
19449.3
10089.4
15608.7
14470.7
11861.5
23751.4
27543.2
27107.6
32005
43175.5
21335.8
19176.8
2934.81
7948.82
-1258.96
-8853.54
-15314
-7670.35
-823.801
1625.84
-2906.7
5099.81
11407.4
11659.7
6169.67
-440.971
11594.1
7159.77
7264.9
3273.67
1557.48
-6111.22
-3011.28
-17173.6
-9915.19
-1169.12
2013.78
5235.92
-599.364
18160.8
6708.22
-1310.82
11728.7
20973.2
16847.8
10871.6
10859.3
21010.2
27934.1
25418.2
30642.1
22426.5
25725.5
30469.8
32175
20844.4
26884.2
31099.3
33933.4
41241.3
45779.2
49543.5
49788.9
45131.1
44932.5
61151.4
57672.3
45848.4
35480.2
26740.6
20084.9
12929
19583.4
20282
22464.8
14329.9
17578.6
15085.3
18850.5
22181.5
19680
19048.4
9623.22
14022.5
269.455
-1096.24
9.3677
3072.68
7994.99
2779.73
4896.57
340.998
-4904.63
-4727.32
-11198
-9550.82
-8206.37
1118.07
265.326
3229.64
861.582
3541.49
3091.75
3274.98
5779.63
5189.75
13635.3
15331.6
9382.2
13112.3
19660.2
12589
24595.5
17791.7
13953.8
17647.9
24966.2
19258.7
29244.3
35480.3
33612.8
28792
26808.4
50761.9
47427.8
40710.5
44849.5
46196.1
43538.8
33776.9
23272.8
17398.6
-2266.5
4167.84
7877.22
7598.56
1069.97
-1533.64
3100.7
2097.16
-2017.37
-2090.55
386.803
5269.67
-2348.66
-3599.48
-5403.87
-4700.28
-6261.6
-12209.2
-5059.87
1256.21
-5433.39
1857.02
-1671.11
-3462.31
-5023.21
1862.57
4808.91
3645
-1082.26
-5122.82
-3906.41
1382.1
-725.079
390.437
6280.94
3312.67
2087.16
1274.91
2223.22
-1993.08
-553.487
505.864
-1636.96
8904.41
2357.05
12047
2354.72
9158.44
7463.15
2193.79
7592.29
7991.43
5429.84
-2092.12
-619.304
9275.55
17046.8
24578.1
25751.3
10014.7
28477.2
23591.4
22536.8
26344.2
36913.2
29248.8
30029.7
35676.9
40081.2
53841.7
62499.6
60136.7
65740.9
61998.6
51379.8
48442.7
58179.7
54606.1
55181.6
67833.7
45860.9
41843.8
37883.9
30809.1
22421.7
38395.3
38284
32086.6
25997.8
30552.8
19134.2
20494.2
18185
18106.8
12931.9
15501.6
13862.2
7231.34
8988.5
1979.44
1034.21
953.788
-6797.84
-6718.86
-4509.95
-6465.14
-8573.83
-9187.84
-10.7924
354.842
2603.94
-3892.24
-3671.37
446.972
2257.15
-1198.97
-2579.47
-346.541
3989.77
5338.55
266.125
2826.57
2613.26
32.9638
-3945.63
-8342.86
-5655.63
-2007.31
-8504.2
-4285.24
-5295.18
2781.85
-7395.58
668.499
-2630.78
-717.353
-4669.98
-10351.8
-2452.48
4678.4
12228.7
8559.19
510.329
-720.188
6787.14
7839.65
-1346.84
-2683.01
6322.1
-8472.23
7362.45
2355.74
-2381
-5517.57
-7351.32
-8636.45
-5419.69
-2373.98
-6969.83
-13334.1
-13164.5
-2553.2
-14411.5
-8317.49
-9453.53
-6051.02
1944.28
5701.43
11930.2
13577.2
4683.85
8668.94
111.824
4582.97
9062.6
3207.53
5439.08
6772.06
4551.78
8724.8
10127.6
5160.2
14018.3
15417.6
18212.6
11124.8
16766.9
27599.8
19503.9
12459.9
12046.1
6677.31
122.055
-657.429
89.8597
-8808.58
3302.22
143.354
337.308
6941.14
-178.297
-1352.72
-5723.63
-2329.21
591.402
5462.23
-17.9334
-3036.33
-721.829
-524.562
-2661.78
3983.34
11104.8
8679.28
12701.8
14902.8
15637.3
10872.6
4414.06
3042.66
-4223.23
672.183
3350.52
4052.27
-3817.25
-2381.06
-2849.18
2246.58
81.806
-3005.16
-6622.28
1850.13
-1858.24
1208.2
-2522.95
-11579.2
-8359.18
-1520.33
-5326.83
-4187.48
-6741.98
-10147.7
-14997.8
-15638
-20469.2
-14503.6
-18365.7
-17970.3
-2344.81
-2775.97
-3678.43
63.3909
-8765.85
-11595.1
-1887.99
-7464.95
-11333.6
-14563.5
-11016.1
-5730.05
-11094
-14023.3
-17763.8
-19798.2
-34036.3
-23396.9
-19941.3
-13553
-12050.6
-6221.57
-9873.83
-10572.7
-4316.51
-3807.62
-7232.26
-4609.12
-5335.61
-5087.72
1126.47
-3875
-4669.64
-289.553
1631.59
-895.094
4018.38
11464.5
5128.74
8744.24
13827.2
5896.08
3285.94
7756.78
-2858.2
1501.09
-3347.66
-5909.47
-9747.44
-8496.75
-6656.89
-17874.3
-16476.3
-7097.59
-11935.2
-4767.79
-12856.1
-12510.3
-6924.28
-1177.31
-4563.37
4746.33
6180.11
5316.89
6877.12
10748.6
10006
22727.5
9854.15
3460.96
-10804.8
-14564
-12895.6
-16582.3
-13145.6
-12586.2
-11141.2
-5711.46
-4164.49
-8185.95
-676.428
-6303.61
-8893.24
3949.46
2294.28
6726.54
2737.3
-977.221
-5017.1
-3231.05
-4736.12
-3754.84
-378.191
-1205.45
-2548.41
7239.61
8993.58
4454.37
369.547
-8503.46
-4558.43
-2925.97
-3191.6
-4872.4
2299.61
6195.2
642.486
6257.14
6112.89
6088.12
9227.25
13986.5
18903.8
11783.8
1863.85
737.298
-855.187
-1512.07
-1495.35
6991.19
7012.66
-277.541
-10719.6
-14985.3
-11233.6
-6698.24
-4825.92
-8283.16
-8254.11
-2501.17
-2340.19
-15328.4
-22627.7
-26243.9
-20766.1
-8839.78
-16755.8
-14760.5
-15167.4
-23107
-10798.8
-14611.6
-7531.84
-2693.06
-13035.6
-9636.8
2268.36
-2610.73
-3217.46
-5411.67
-6250.1
-1908.33
-3534.1
-2563.52
-5708.92
-4150.98
-3270.88
-2455.57
-3140.02
-4143.01
-2930.03
-1193.26
14233.6
18961.6
33941.8
33866.8
29775.6
33693.2
20098.3
21579.5
22583.5
38159.1
21063.7
25538.4
20516.7
20613.6
16399.3
10055.9
13686.5
8459.14
7751.91
10537.1
6280.41
1832.86
689.46
-643.165
-685.096
3824.39
288.188
-7305.33
-4626.09
-2026.36
709.35
1778.43
5934.53
6742.45
4329.73
1036.76
-8784.73
151.674
-899.683
5590.67
1815.86
-8234.42
-4003.92
-6432.87
-7625.58
-8521.08
-10498.5
-9465.57
-11449.4
-9888.99
-12695.5
-9289.99
-12132
-15953.1
-12225
-23265.7
-13909.9
-10380.8
-11989.5
-14536.9
-15160
-15097
-19508.7
-13952.6
-6455.23
-5805.37
-11289.8
-13475.3
-10477.2
-10635.3
-9444.47
-15045.4
-14535.3
-14814.2
-13025.4
-18918.8
-10778.9
-22235.1
-11592.3
-14549.4
-12465.3
-13375.4
-19141.9
-23509.7
-18620.2
-15717.4
-13706.1
-10665.4
-8844.25
-14623.6
-17441.5
-16129.1
-18748.3
-9936.07
-3771.76
1689.85
5362.43
3640.03
4676.62
3525.48
-1612.72
-1725.89
-3129.12
-4238.09
1551.55
-434.596
-155.209
322.89
-4402.81
-2772.51
1174.22
7287.49
9076.37
10671.8
8260.09
5352.64
4800.53
-887.172
5524.03
5231.38
-1721.07
1666.08
2476.26
964.092
-5017.09
-746.398
-4474.17
-2053
11753.6
10474.2
6520.06
8685.63
18104
13986
5761.43
-1632.41
-635.655
-3680.9
-4487.85
1138.88
1343.13
2359.22
-1140.6
947.572
-4842.8
-3262.64
-4161.77
-10098.5
-14183.6
-14379.9
-15342.4
-5882.68
1363.17
2147.87
811.269
1068.94
-2796.31
-7649.95
-7125.92
-11859.9
-12019
-14065.2
-14098
-9047.98
-5390.45
-7722.87
-9434.16
-6853.39
-10398.5
-14656.9
-18867.6
-24156.6
-25343.9
-33111.2
-52312.6
-34707.1
-24124.2
-26614.9
-20958.5
-22998
-27214.9
-25799.8
-19427.5
-28101.6
-22983.3
-31769.5
-24473.8
-22388.4
-14305.7
-7670.18
-1041.35
7537.3
6860.73
-2815.58
-4163.04
1629.38
2439.96
291.951
-5115.3
-10523.2
-13358.6
-7612.75
-6767.85
-3244.52
-776.578
-3466.77
-6147.48
-1127.41
-9403.32
-7841.5
3152.33
18050.9
12807.7
8403.52
19720.4
8285.43
5423.88
-5733.16
-127.069
-8081.06
-9517.78
-10103.6
-6715.88
-9357.96
-9369.41
-12652.7
-20685.6
-24975.3
-22759.1
-18253.9
-26670.7
-29612.8
-23104.3
-10971
523.362
-6917.67
-5789.77
-7745.44
-5175.5
-5580.89
-12095.3
-7207.17
-5469.2
-2273
-2814.63
403.308
-392.626
-1695.7
-1348.86
3773.71
-670.895
-5763.43
-3579.14
3837.4
959.15
-3409.51
-1362.52
-3620.04
4287.61
-2400.3
3773.23
-3724.38
-1815.93
-921.786
-9976.6
-9049.62
-6277.12
2493.3
398.759
728.166
-1097.35
-1404.57
-1190.05
-1417.27
-1264.32
1505.51
-141.999
5979.18
784.23
904.922
1278.49
3560
7528.33
3855.96
-1468.78
5869.1
5122.94
14389.7
17212.2
4365.06
9813.05
14762.5
7434.37
9800.51
7911.33
7084.73
7528.94
-82.3443
-3006.59
-6063.21
-2575.64
-2458.42
-9859.65
-11359.7
-9387.24
-6065.92
-9784.46
-8612.81
-5401.05
-5437.29
-10762.2
-5617.39
1501.14
-4600.1
43.8305
10354.3
4624.73
9424.84
9639.56
16638.3
-900.733
10071.9
4539.64
919.848
-2937.68
2584.97
-4377.07
2109.6
2482.71
-2849.13
-1827.74
1720.29
1074.81
11748.4
16929.7
10632.3
16176.1
32742.3
44995.8
54429.6
55967
48185.5
68135.7
53890.2
49750.2
55601
58156.6
74636.9
68778.7
49018.7
32910.3
24210.3
41934.5
44003.2
69262.2
79666.6
66270.7
65796.5
70695.8
84543.7
87941.1
96776.5
78873.2
86544.5
94223.7
85532.9
93810.4
85231.9
66293.1
61527.4
62885
42070.2
35896.2
36298.7
18380
17796.2
12009.1
25498.6
26402.4
24147.8
14066.8
15650.1
15643
13568.5
17659
18218
25750.4
19318.9
22100.9
21105.5
23371.9
22407.9
24158.9
30944.7
13196.9
10442.5
15829.6
16107.1
3956.25
9062.44
4763.11
8847.91
2309
3139.45
18247
23242.5
22068.5
32975.4
35937.3
49425.4
64077.9
58980.2
34209.1
25050
25833.8
30497.3
9468.86
15716.5
20841.1
33685.1
17478.6
15846.1
27864.5
27197.4
38042.7
16298.3
10485.7
-11291.9
1181.28
-16961.7
-12170
10134.8
9342.08
18625.1
8180.4
-8256.33
-11051.4
-11573.9
-5102.21
6001.39
-1128.34
-75.9595
-1062.18
-2626.3
15968.3
19797.7
21500.4
21244.8
17430.8
21535.7
20006.9
30561.6
32669.5
45955.4
48129.1
33034.7
29115.2
25354.6
8876.11
12012.7
15717.7
12766.2
14023
25338.5
32373.1
35428.8
27506
32432.6
26178.2
29323.2
24628.6
18520.2
22306.8
8198.34
2901.12
4660.36
1012.95
-2866.9
-8387.83
-11266.8
-5928.4
-6584.17
-13846.3
-6992.51
-6458.07
-7456.12
-2070.57
-1584.64
-1968.07
-5729
184.288
-996.454
-1249
8222.89
6112.18
-5197.89
-13135.1
-8293.5
-6482.04
-10204.5
-12860.8
-22662.8
-20954.1
-23079.6
-12813.3
-8912.1
-8110.26
-5804.54
-7123.96
-8931.66
-6447.75
-4747.12
-3690.36
-1862.96
794.783
1837.49
4655.92
2953.8
4546
10836.4
15576.1
3056.57
1747.93
-1196.21
-8243.45
-10447
-8520.25
-3222.13
-4126.28
277.891
9124.69
17512.1
3097.5
-6442.27
12890.9
31280.1
26922.9
9552.74
-2723.28
-1326.35
2083.26
-4300.68
-7216.09
-552.896
-6869.82
3623.32
8535.93
17052.4
13453.3
17738.2
11766.2
8734.46
4169.05
5401.52
14038.5
19975.9
14767.1
12056.2
7377.1
12438.2
17749.4
30139.3
23916
18152.3
19504.3
25202.2
18241.1
22310.6
28341.9
32989.1
41657.7
45216.1
35261.5
27292.5
35129.4
48446
39409.3
40901.5
31480.4
17256.3
24174.2
18843.9
17212.4
21309.7
18090.4
17260.3
12267.8
31202.1
16155
18998.1
25372.1
29768.3
31531.1
25988.6
19649.4
16556.3
28287.5
17550.4
11894
3825.5
548.023
349.962
-905.695
-2181.33
-36.5441
6902.29
13305.5
7303.92
4378.3
-2396.23
3293.5
1640.76
552.386
-307.304
717.588
8030.53
17181.5
44010.1
46437.7
33755.7
32855.8
25739.1
14898.8
12438.3
15677.1
12229
1212.06
5691.07
494.767
-27.5159
-2027.52
-1548.6
-1362.34
2727.2
-1709.81
-3690.78
1550.96
4015.52
5650.75
5010.07
6951.94
-337.302
-4848.52
-3994.32
-614.682
-11632.1
-13217.9
-11325.9
-14167.9
-5662.66
-7990.2
-15917.7
-13014.2
-6600.59
-3108.77
-103.829
1307.25
975.19
2015.54
5367.81
2344.24
2016.15
4698.46
-1246.86
1253.46
5727.7
15549.6
4735.51
1840.76
-1399.44
-3328.72
2190.95
-1251.63
-1307.41
3053.01
2637.24
9210.6
6834.99
22625
19867.9
21114.9
21496.2
20873.8
16129.7
22225.9
13345.5
23418.7
24827.8
19791.1
26244.2
22867.5
16257.9
14762.6
31347.3
36285
37672.9
41727
51005.9
30899.5
39506.9
24996.5
21182.3
28432.1
48282.9
45270.8
42251.7
32349.6
23417.5
30455.8
48757.2
54406.7
58951.2
47884.1
50529.9
52866.8
49300.3
35385.6
32964.5
34268.9
31707.4
24336.9
33247.6
33939.1
29489
28069.7
34255.5
34918.2
33882.9
60650
70337.9
58150.7
55756
70044
57321.4
39954.8
48673.3
40561.3
35689.5
26260.9
27278.5
29556.5
24578.4
20181.8
19146
26356.8
39008.2
38516.7
37544
21321
17156.4
13774
7515.83
-946.331
-1942.83
-9746.37
-265.604
4202.15
9359.74
9085.48
9836.22
3864.36
-4207.15
-2273.1
-3838.56
-5733.23
-10068.5
-10592.8
-3466.76
-6834.94
-3091.2
-7504.59
-4103.3
-3505.35
-15114.6
-5169.35
-14255.1
-9195.11
-19917.3
-20959.2
-20996
-27664.6
-25402.1
-27982.8
-31389
-36044.1
-48490.6
-39284.6
-51461.8
-34885.3
-29468.6
-27388.4
-24860.4
-10795
15482.9
22907.6
15500.9
8034.14
4210.61
3242.43
4543.6
-2811.88
-364.106
11111
18230
25867.8
21357.7
28982.3
21839.5
27114.9
25304.5
27719.6
20860.6
24864.1
35825.6
29462.5
20930.6
33224.7
34225.3
30857
29991.3
33355.1
29265.4
33435.5
15954.5
10078.7
404.767
-310.361
-9052.39
-1041.73
11162.1
1768.18
-987.341
-2027.03
-10376.3
-6554.05
-5458.09
-4663.44
-2541.35
-9590.51
-4516.15
-1518.13
-2739.82
99.8721
-804.844
1278.97
-2320.05
25.7612
-2594.24
-4802.38
-3895.79
-351.699
3678.1
-1725.14
-2791.34
-6730.81
-9396.47
-14301.3
-7958.32
-3243.01
-3421.59
-2848.53
-3931.41
-1204.92
-9085.8
2814.67
-5254.97
-11368.5
-15262.5
-12554
-8616.99
-4390.17
-10707.4
-11878.3
-19209.3
-22422.8
-12922.3
-5897.5
-2759.34
-1757.04
-4525.38
-3145.95
-1626.53
-1374.04
-2167.95
-529.11
-2140.69
-1466.91
-11182.3
-4586.46
-6234.54
-10193.3
-9077.66
-11862
-13887.8
-5190.8
-10888.6
-13527.1
-11911.9
-9755.74
-11988
-14807.6
-9747.9
-17518.1
-12812.5
-16404.2
-14942.8
-10295.3
-13196.8
-7926.47
-7810.79
-603.627
-2654.83
572.028
1741.83
-403.864
-3016.62
-209.699
-2266.83
1271.66
6689.99
82.2127
1620.3
7860.32
3732.9
3801.34
5420.52
5999.7
5138.55
-674.482
-3891.6
-6873.51
-1285.18
-4776.06
-2302.29
-3396.73
6976.98
11258.5
7190.3
5618.2
-2760.82
1926.65
-6312.9
-5994.07
-4632.73
-5724.43
-14054
4480.96
9808.75
9496.55
-837.751
1168.96
-4431.34
242.853
7383.13
13101.9
5107.84
10486.4
-3126.01
-5451.21
6323.01
13612.6
17304
20126.7
27332.3
12955.8
35462.1
24608.7
612.55
-3339.18
-3528.93
-5761.73
-3126.69
-2916.71
9462.22
16996.6
11069.8
10761.9
19299.1
20991.5
18042.7
15424.9
12019.6
16172.3
5204.35
23472.6
28569.5
26017.5
30595.5
21406.6
33905.8
22685.1
24797.7
32195.8
44708.8
58302.3
75152.5
67472
81611.1
74423.5
67631.7
65358.8
46817.2
51148.2
40274
26814.4
35603.4
49341.1
44846
51361.1
57007.1
54014.3
58010.7
66921.5
43442.6
29618
33577.9
26085
37520
38980.4
23876.2
25526.8
24600.3
31310
36796.2
38343.6
47576.1
41358.1
11719.5
22047.3
30470.8
35461.9
28125
19967.2
16422.2
12104
7512.3
4928.25
3116.59
3962.74
-3666.74
-755.271
1736.99
6265
-372.743
-977.231
2305.96
-3840.63
-10968.4
-4496.22
-7405.67
-7284.35
-7075.23
-18380.2
-20369.4
-24599.5
-22417.4
-27444.3
-12749.3
-17692.2
-16386.4
-5031.47
-408.3
13628.9
7436.18
2871.78
12044.2
2559.71
1023.95
-1742.21
517.548
2062.23
1235.6
4599.68
3765.16
3404.13
706.001
2905.38
3457.11
1383.55
-1457.36
-10058.4
-14513.6
-16513.5
-3331.16
-2542.22
-2337.91
70.5154
-11249.6
-8408.59
-4342.97
1640.13
7301.2
7544.07
4601.95
-1557.24
-2006.37
-1166.99
-831.613
-3380.76
-3592.17
-2028.47
-2971.9
2033.14
-1786.04
3085.98
6192.74
2329.26
4904.2
4773.14
7742.34
4892.83
4404.14
203.254
4360.83
1154.78
628.731
3246.62
12048.2
7004.72
6585.17
11459.7
11471.3
9592.04
3169.09
1227.57
5577.63
8205.97
15085.1
4617.23
5187.99
2210.1
7301.61
696.949
7754.89
8267
6519.4
6597.42
10486.8
14568.2
19801.2
15035.4
19132.7
28583.5
34291.5
21220
13732.4
11658.4
9232.86
10164.3
11349.8
8496.52
70.7676
1234.79
1444.67
-2964.52
2084.83
13272.3
8277.59
10890.8
2880.48
-4735.31
-6889.74
-3462.4
-8110.33
-5044.95
-7690.05
-6091.15
-25229.7
-11248.1
-11406.2
-18339.7
-8377.16
-8328.22
-8367.58
-9562.04
-11167.9
-10267.3
-3675.95
-3025.82
3025.82
2202.18
1523.92
2365.66
2127.91
4226.62
737.424
7710.71
10120.7
12323.7
6881.08
4178.82
3942.36
2562.28
1366.26
-1225.88
-2182.01
-2832.96
2490.72
-1096.41
-1697.23
-2398.47
-170.201
3881.09
2108.7
-5501.97
-4148.69
-798.554
-1686.83
4706.84
127.744
1562.73
-4600.66
-3193.06
-919.108
-1398.55
1605.76
381.791
418.725
-7787.22
-4903.01
-6483.7
1751.95
6076.23
-366.703
830.011
547.309
-891.811
9349.84
5301.76
7301.38
4136.14
-1882.25
-12853.8
-12905.8
-14961.6
-14851.9
-15085
-3979.08
-8857.7
-3472.8
3304.75
-761.986
-2238.56
-11766.6
-9167.43
-7963.69
-11003.5
-9752.21
-9216.58
-5099.26
-3939.23
-4236.47
-1726.99
2998.14
-2104.56
-5249.55
-6634.23
-4455.16
-4829.85
5186.34
-1251.36
-5842.99
185.516
1663.94
-3200.27
1948.96
4312.6
10280.3
3356.82
-4001.33
-5660.59
243.361
-1180.92
6144.83
13699.4
10694.6
2503.27
7492.79
9238.87
1441.92
4107.7
-1092.29
10726.5
8887.11
10587.1
5650.41
5197.89
3533.96
7178.78
10844.5
6537.2
7848.43
20634.5
19727.2
21662.4
15848.2
23309.8
6874.58
19427.7
12682.9
4856.5
5092.41
6277.72
6923.95
265.815
-3303.54
-6408.14
-6358.69
-4966.89
-1934.17
-4218.16
-5554.39
-2768.66
-7268.14
-6032.35
-2590.47
5318.78
12810.1
3534.94
-5500.72
-8767.16
-1432.49
-9065.36
-4679.7
-10318.8
-6719.89
-2445.78
-590.698
-2702.98
4631.13
9044.02
9878.18
8525.84
9902.69
6808.92
9596.43
512.729
-1779.7
3367.86
10974.3
1949.91
4302.12
9084.23
16085.4
20564.4
25065.3
23576.8
20198.6
11072.2
10483.5
24671.9
16916.8
10675.7
-1463.7
702.756
2930.49
5040.23
-3529.38
-463.502
-6981.39
-7560.41
-8444.57
-12363.1
-7415.59
-1811.07
-4521.51
-1219.92
10408
14447.3
9804.93
22122.1
15631.3
26444.2
19654.7
25974.2
16410.6
15135.9
10715.5
18858.2
12852.1
14604.9
6888.68
-412.968
-4809.51
767.047
-6801.35
-4208.36
-4872.4
-4223.67
-368.273
2493.45
5153.9
4898.84
2056.97
1240.93
3662.95
-3464.12
487.739
1010.83
2227.25
10257.8
5364.09
8192.36
3676.24
-65.6696
977.604
2529.74
93.2007
1075.19
-5826.69
-3792.38
-5532.93
6172.57
5468.94
4808.58
15716.3
18314.5
15475.7
17386.2
25298.9
20923.2
16500.5
29262.9
29021.1
28861.8
17250.1
21305.1
26350.5
29247.1
22659.6
25777.1
27341.2
14069.6
14105.5
21894
15967.2
31704.2
17443.2
16491.1
7071.47
10241
12171.4
4221.43
-2075.56
-2255.85
808.997
-7603.73
-11610.5
-67.1565
-3555.35
691.181
-4050.23
4908.76
8838.43
7330.97
-140.85
-5421.29
-1062.88
1691.8
-289.539
1669.45
240.411
1443.46
13369.3
10876.4
8364.7
6625.25
4872.35
-457.567
6804.51
-11008.2
-8249.3
-5538.9
-1462.35
-3017.33
3854.41
7822.67
6778.74
8536.64
-7352.58
4013.22
-1113.33
-1747.54
-2375.65
-279.507
-3308.05
-74.4117
-1471.45
-3955.1
48.0272
-1170.55
1355.69
-189.442
-9006.01
-8437.22
-17185.5
-6787.05
-5758.59
-149.363
528.865
2857.37
5560.81
8971.46
10088.9
9034.34
11057
8419.63
3737.43
1635.6
77.6788
-686.744
-1478.64
-589.204
-1939.26
-450.709
2124.06
-4983.19
5169.24
6277.31
8674.32
10716.2
16783.4
13395.4
15639.7
4466.51
7492.96
3438.44
10949.6
8176.47
8770.65
15803
12623.7
8294.06
4232.97
10883.2
15267.7
7422.44
9443.18
10260.7
12726.6
16095.3
24409.7
33145.5
34156.5
32447.1
23756.2
15812.1
29963.4
53628.8
48216.4
51361
41479.2
55626.8
23464.5
10609.7
4065.8
-14613.6
-4200.79
-33586.8
-49060.1
-37828.4
-34845.3
-20307.4
-24833.6
-11580.6
1406.65
-2550.03
-4140.47
3576.47
-4200.29
-6340
-7468.76
-15723.1
-24212.7
-32787.3
-29702.1
-25060.7
-27354.2
-12902.7
-11743.8
-5385.49
-347.772
7866.53
2954.02
1876.96
7541.05
8599.92
17069.6
10657.2
6543.84
8888.69
15638.3
7908.25
5845.07
4015.41
13311
11233
10382.1
10431.6
4592.53
3177.92
8217.21
3702.61
782.238
-7430.58
-1379.57
-1018.92
-5765.66
1709.55
2895.22
12592.4
6588.62
4682.53
-307.45
3080.31
-5428.9
1772.41
-2810.01
-1676.87
-1175.08
-629.964
-3118.68
1707.3
1662.77
1112.35
1354.53
-778.216
-3193.79
-10680.5
-12539.3
-13353.6
-9782.42
-17342.4
-8961
-8033.09
-10335.6
-7536.35
-6646.53
-11295.8
-9425.33
-9401.68
-13738.6
-22262.2
-17503.6
-22677.4
-19476.8
-19639.5
-33815
-24557.2
-19531.2
-14607.7
-2400.14
-4284.9
-6699.97
1278.92
10544
11608.9
7103.12
3014.04
-2153.65
-2788.5
173.93
-2914.27
-1134.85
-8622.84
-7996.44
-9086.17
2315.79
-43.7769
-936.122
-2164.22
1896.13
214.306
4635.09
5762.28
1926.5
400.155
-3428.3
-1224.5
967.886
-4333.71
-5923.01
-7802.39
-3296.62
-3079.69
-11196.7
-1058.66
6282.76
7540.59
7628.9
10871.8
11520.7
129.749
-3983.41
522.594
-3814.66
-5590.75
-5723.88
-3232.05
-2657.39
4311
3613.39
3347.3
2560.38
468.883
-2392.35
-809.83
424.077
2431.37
5582.16
6193.75
7927.95
4104
3872.37
-3160.57
-7134.24
-5977.82
-12225.6
-10726.8
-7204.16
-6289.92
-6382.81
-11138.2
-7215.93
-10451.3
-8087.83
-1500.52
-613.206
-3963.49
-11162.8
-12649
-7957.66
1055.73
-7041.96
-3394.92
-5442.35
-4038.51
-7665.77
-8742.77
-11157.7
-9210.71
-10748.3
-4775.14
-8084.65
-4759.24
-5247.37
-2491.96
-1831.03
5839.37
-947.215
2494.02
15124.6
18201.6
5117.93
8797.93
204.507
5635.14
-1095.85
-471.395
-6806.09
-11485.1
-5757.41
-9764.26
-4184.58
4846.71
1671.29
9406.7
277.154
-5073.57
-2160.12
-8719.51
-2363.64
-18679.2
-21889.5
-7301.11
-2079.27
7071.91
-8550.35
-7713.02
-6901.26
-7938.29
-1096.67
-12140
-16948
-19557.7
-16089.8
-7913.23
-5201.26
-2720.21
-2100.03
7156.09
8856.35
-830.432
2752.22
-2028.86
-17576
-10921.4
-14764.6
-12947.1
-5808.59
-7764.8
-15097.2
-12287.3
-26712.6
-20986.5
-7524.43
-10632.5
-7579.39
-10404.1
-7022.84
-7634.05
-4468.77
3044.64
-962.395
-10466.6
-22626.7
-18783.9
-6750.77
-10591.9
-9485.9
-16210.3
-21208.6
-11769.8
-11256.6
-10781.7
-7591.42
-4567.49
-2905.9
11485.9
11923
9002.36
4663.69
16412.6
6917.17
10598.8
22270
27824.6
16703.1
2575.46
2414.95
40.9728
-10085.1
-13644.1
-2333.23
-9247.78
-8533.37
3619.58
8563.44
-2646.36
-4053.54
3763.68
5558.69
8139.94
16218.4
23686.8
15079.7
9471.84
12160.8
9439.97
9041.13
5530.65
18048.6
15478.6
24099
32846.6
28812.3
39506.7
34043
33450
27475.1
21536.8
26494.4
28056.1
38035.1
28809.6
15309.5
947.46
-25.3399
10181.8
14146.3
6934.5
8916.85
1993.59
1113.01
7992.81
3597.1
4012.23
2206.91
2665.77
6813.03
166.371
4351.66
4259.26
9929.33
4783.67
-5693.85
-5649.15
1041.63
1763.81
-93.0844
635.517
-1834.35
3215
1779.04
4451.89
13.2361
2180.09
-5710.47
-3528.2
-1536.35
-4639.55
-11070.8
-9328.08
-1556.98
-12625.7
-2217.9
-3801.21
-8852.16
-12597.9
2343.27
5229.22
-3879.57
4180.13
4710.58
841.138
8462.59
-2368.05
19022.8
21064.3
16574
24200
19670
29452.6
19665.2
15080
8384.24
8298.9
10195
7921.56
-2490.9
7187.44
18223
12108.8
7697.8
3038.51
5148.53
-723.089
3496.56
-3356.02
-13845
-11541.1
-8910.83
-6146.5
-1669.45
3207.89
6134.05
27187.3
37330.3
39905.8
35905
54095.4
61834.9
61012.5
77655.7
94321.9
87974.5
66935.4
58688.1
51661.2
45909.7
57903.2
70329.2
61599.9
67155.3
62152.6
61283.4
73385.5
82729.9
84150
91781.5
111890
83923.3
89431.9
83093.7
56522.7
45494.6
47387.4
41374.4
40752
38874.3
24918.9
20570.5
18868.6
13663.9
17346.4
26894.5
44273.8
40312.5
39301.8
18548.6
12066.6
15840.6
22829.7
16825
15973.2
11094.8
16152.7
18440.6
11987.5
13128.9
33169.6
25736.4
38302.6
21443.1
34737.2
28116.1
3383.5
8759.65
25353.8
19975.1
23580
16771.6
15751.4
14184.3
13481
14775.9
20436.2
32937.1
18727.1
26921.2
28827.7
33652.1
33293.1
33552.9
21777.2
23432.5
26098.7
27013
25509.7
29790
14618.6
7790.5
12907.6
12752
2881.33
2304.25
5168.18
2124.73
4831.16
-2831.05
-13996.7
-12884.1
-16078.4
-12857.1
-11952.2
-6963.73
-4911.11
7434.63
8094.18
1597.16
18799.3
14377.6
18313.3
15950.9
4803.74
1333.94
6230.6
7591.93
4214.18
6824.78
9623.95
15037.1
17653.5
12015.9
3576.73
4033.36
17072.5
28993.1
46110.1
56857.1
56152.5
50024.9
56011.7
59648.8
57156.5
41751.1
51260
48053.7
61427.7
90779.4
103241
121900
119010
121717
115749
107784
87536.9
76927.6
76189.1
80239.4
68031.8
47662.4
43242.7
41408.6
44375.1
47391.9
49066.7
51153
44630.4
37017.9
33795.1
40943.1
28879.3
20778.4
9034.75
17445.8
7884.11
7115.09
4144.37
2989.11
1401.57
-737.719
3049.71
5735.74
5675.59
10834.7
9061.29
16591.2
14263.4
11454.9
10261
9190.78
11577.1
15168.2
17027.8
19476.5
18695.5
17364.9
20282.4
3932.56
2142.04
-16945.1
-17245.1
-18906.2
-12064.5
-4166.49
5074.65
2370.24
-2250.56
-3257.19
-13069
-4027.38
2538.69
5313.76
6486.84
2769.35
-4592.5
-229.284
-5274.8
-10629.5
-951.204
-1929.29
-782.17
9641.85
14351.9
9296.31
8204.13
6643.8
10290.1
11509.2
7844.9
11035.1
10043.9
9333.37
2814.25
-6286.78
-8386.56
-7421.05
-9688.07
-9098.2
-3029.02
1228.07
974.835
2224.86
-7982.73
-6794.76
-10723.3
-11512.9
-6838.63
-5250.45
-1634.54
-738.528
-3939.75
-5236.97
-4513.29
792.304
-9435.6
-8156.08
-6186.53
-2897.19
33.7029
-1853.1
5009.31
-464.511
-1258.58
4106.09
3570
1338.28
3170.53
4249.58
12782.6
3551.98
2261.99
7870.18
2899.22
1084.78
3636.89
3002.95
334.172
-3.16526
37.0118
6515.96
1832.14
-2325.72
-4142.84
-4872.56
-8336.32
-10105.3
-7365.11
-8254.75
-3099.58
613.513
5557.62
3879.04
16346.9
10152.8
11216.7
3354.6
9486.27
8269.46
9641.24
20063.4
11609.6
4591.86
7160.3
-3510.51
5084.65
245.051
8026.49
15407
8353.26
4797.2
8245.31
10271.1
11335.3
3943.61
10308.1
19815.1
17045.5
13221.7
17716.2
26887.4
28840.1
28220
31312.7
34627.7
47562.3
43705.9
33771.1
28817.5
35631.6
22387.2
21815.2
24378.4
22556.1
39300
53826.2
56550.8
63597.7
56189
45623.8
41518.3
57937.3
47173.5
52904.7
40350.2
25316.2
26020.7
25457.6
25367.1
14508.6
43144.9
27706.4
23274.8
14098.2
8045.02
-9937.18
3535.21
3583.98
-4928.41
-953.105
-2649.57
-5801.52
-8895.9
-1101.23
-5043.19
4354.01
8824.46
9898.17
4471.24
6138.3
2437.01
-703.683
-8128.94
-11863.6
-10902.4
-16266.1
-10282.9
-9994.64
-5036.4
4346.38
4398.36
745.891
-2764.68
1874.93
-1901.26
-5139.73
-10349
-9116.71
-6473.3
-6308.57
-10098.7
-4948.35
-3622.22
1535.68
797.255
-5523.15
-381.598
406.213
-4765.74
-6048.46
2419.43
-2171.36
-12615.3
-12812.4
-13357.2
-16120.5
-20459.7
-13487.3
-5442.81
-7887.84
844.944
4222.32
6244
8788.74
7550.04
13132.4
12482.1
5220.52
6529.38
6634.54
-809.473
-11326.2
-3794.85
-4909.75
-8301.67
-7146.27
-2753.41
-2315.39
5125.47
-1859.96
821.572
-2710.07
-4799.65
1132.57
-8820.6
-7259.35
-3678.87
-4020.66
-8178.22
-428.403
1782.45
2816.51
3703.6
5412.25
-914.671
-7381.46
-2735.48
-1749.72
-1291.76
58.0735
-10714
-4459.32
51.3981
2764.11
-1207.55
-2962.52
-1304.68
894.978
-4555.04
-1787.06
1596.17
7630.41
1526.16
2016.01
3259.15
-2515.84
-10756.9
-21757
-3428.78
-9461.47
-1777.96
2667.48
4252.83
6913.32
5482.05
-289.41
4005.23
5866.75
7005.35
3565.04
3422.69
440.656
6879.4
2523.01
1971.99
1445.56
-3863.36
4244.88
11817.8
14437.4
10455.7
7748.3
-1397.61
-4812.33
-6413.57
-2229.82
-7351.55
-12034.1
-18018.7
-19638
-17711.8
-14534.2
-12213.8
-8435.53
-6996.98
-8377.06
-9254.88
-2040.8
-9174.14
-4170.63
-4441.08
-1301.92
20587.5
12548.6
7811.6
8182.98
1144.46
-4293
-9808.49
-14631.5
-17226.9
-20822.1
-17806.6
-16294
-12675.1
-6508.34
-11635
-17267.5
-20159.4
-8987.44
-5466.8
-6760.1
-7213.26
-22110.2
-21806.7
-21130
-14554.7
-11904.8
-25420.5
-20876.7
-15575.9
-14964
-25603.6
-29047.8
-22932.1
-21054
-18444.9
-23021.3
-17515.6
-8774.07
-9053.09
-2335.11
-5417.57
-2867.48
-1659.98
-120.286
-5194.98
-13171.2
-8758.97
-6928.13
-7607.1
-4937.46
-2551.1
-2192.88
-419.15
286.722
-3764.75
4058.9
13553.4
6769.46
319.139
5222.44
3461.85
3915.05
137.986
1838.75
-1679.88
2037.67
1672.72
5682.67
12250.9
4225.92
6618.25
10210
1063.82
7442.17
6039.45
60.4991
6745.18
2919.43
5429.23
5108.58
5257.16
7423.98
11845.1
16688.4
12147.6
1141.14
6283.64
5049.38
15034.7
16134.5
12307.8
12527.9
18872.5
21608.2
17347.5
32878.8
35438.2
31564.2
26544.5
17977.4
27309.8
32686.8
49247.6
40088.8
19336.2
18847.3
23420.3
13851.9
9444.88
3874.91
2889.15
9152.58
14845.3
2902.29
877.497
4213.56
-154.037
8841.15
5698.77
348.447
1152.54
-705.573
-581.238
-4357.32
-2497.65
-1110.64
-1550.77
-1562.38
-67.0551
-1278.3
2553.81
4855.9
2023.54
-90.4239
4315.76
10047.6
8635.73
7534.73
8844.74
2208.94
-3626.56
-13867.3
-11506
-2507.59
-5287.93
-3667.79
-6877.52
-17530.8
-11672.5
-13755.8
-6741.42
-3983.53
3615.04
-2428.49
-8813.94
-9884.42
-14333.8
-10874.1
-13039.9
-10431.4
-7458.36
-823.601
-324.358
-2301.01
-4364.74
-5897.22
-9944.6
-4340.04
-11825.1
-7182.65
-1993.26
-2968.32
-14947
-5366.95
-4220.23
-3320.92
-448.828
-5847.49
-1280.59
-12760.2
-19519.3
-26474.5
-30747.9
-18893.2
-17817.1
-18023
-20693
-14080.6
-11519.3
-11336.8
-11901.2
-7898.52
-8941.61
-14319.4
-15042
-3516.55
-2955.78
-503.897
-5012.11
-8433.54
-4884.74
-7620.77
-6177.32
-4242.15
-2650.42
-2638.71
-3745.72
1330.82
-8445.28
-3014.09
-7378.64
-6026.76
-7792.55
-5782.9
-4722.29
-4504.88
-12918.5
2305.91
8464.07
-646.269
340.467
-1842.98
166.026
-3078.66
-7455
-8768.34
-7025.73
-3853.26
-5305.09
1527.2
14968.6
22412.1
28949.9
25840.2
10838.1
9052.55
3041.41
8149.14
10299.1
6877.59
15537
-384.317
237.915
-466.189
-1117.85
-3802.61
-12722.9
-8761.82
-12000.5
-10048.7
-11399.6
-6378.2
2797.81
1620.58
55.6287
-2616.3
2115.94
1005.32
6979.97
2472.48
-1189.13
6030.31
11480
10778.4
4325.7
-9654.57
-800.684
-2675.39
-9021.91
-12682.9
-15659.6
-15085.5
-10333
-19267.7
-13070.1
-10603
-14453.5
-7713.96
-19238
-27299
-20796.4
-8341.4
-177.534
-2538.42
-6172.49
1721.24
-710.845
2588.47
-754.016
-2596.47
-4049.38
-4169.66
-2902.73
-3321.36
5896.25
924.652
9268.29
7967.15
7562.99
6887.87
10856.9
8381.38
10957.5
9774.57
12084.6
12274.9
7050.06
1931.29
10471.7
17198
20276.1
20995.8
16398.5
21711.4
12365.6
3338.91
8367.41
7332.72
3548.57
-2776.62
6006.06
5218.15
245.93
-4171.3
-8842.15
-2928.19
-336.544
-2294.62
1321.41
-382.57
-508.297
4641.37
5911.25
5992.42
6923.63
-4848.58
-1823.42
960.378
264.505
1509.41
-1703.22
359.674
-6836.32
-2659.52
-7871.36
2413.33
-917.809
3018.07
9338.13
-291.78
1380.92
-212.131
1521.6
2884.07
4466.68
3883.66
8387.01
5464.48
1116.52
4985.4
1211.45
1576.95
-2052.48
-1400.86
6376.33
8745.54
8874.04
5684.07
17236.6
195.995
6247.12
1991.19
-1053.88
-3598.09
-9670.8
-4455.88
1052.2
1161.33
-1378.58
1087.45
-359.012
-1777.03
-3547.88
-626.975
7662.52
8139.78
16598.9
16512.4
5345.77
9359.79
9850.52
18135.3
36663.5
32819.9
41006.9
41112.6
29336.8
28931.8
25127.3
9873.16
14476
18725.1
22940.8
13105.8
2152.88
1147.95
-4594.59
-5234.59
-9336.8
-7387.01
-5099.22
-8729.73
-7675.57
-14847
-2539.25
-8884.2
-8551.8
-6342.62
-2673.26
-7672.7
-14608.3
-5279.66
-9490.39
-8830.44
-6957
-5523.39
-3325.23
-2661.93
-6062.96
-5048.67
-8487.94
-3789.74
-3056.48
-18829.9
-9007.34
-4990.55
-10542.9
-11396.4
-7261.44
-6459.12
-6350.97
-9547.23
-17460.5
-4898.69
16533.1
21072.5
20955
19419.1
11268.5
6490.5
18174.3
17661.9
19677.2
16482.7
13945
17179.2
15407.8
18999.4
24541.9
15999.7
2666.53
5628.7
4599.61
6466.63
8448.39
9928.03
6407.54
10416.5
10702.1
10619.3
11123.5
17723
7539.37
11808.8
15151.4
21479.3
15223.4
5358.74
1607.93
2913.08
-2472.4
-15137.6
-21247
-28650.5
-24821.3
-22213.2
-16469.8
-14716.1
-10010.4
-6960.91
-2796.1
-3067.61
-5148.28
-4563.35
-6156.61
-5831.66
-10635.1
-5279.32
-9088.79
-5389.52
-6716.75
-9898.64
-20013
-16588
-3221.93
-6406.03
-3910.44
-888.531
1646.54
1517.69
-597.769
5093.52
8379.04
16229.8
10054.6
-505.431
6505.81
2166.54
5557.54
2359.57
-7462.04
-6393.86
-1199.92
-1264.69
4351
12530.2
20303
15934.4
15399.3
14280.8
6437.79
3569.45
-835.599
-4960.39
10.8255
-2364.46
-2013.16
3527.84
7493.53
6930.05
971.014
2230.02
5020.56
6416.31
13816.1
10910.5
15638.9
13281.2
15854.4
18190.9
10366.7
12588.5
9149.7
10573.3
4299.6
4194.37
7554.24
4542.22
5289.02
8228.64
14361.4
1351.6
4127.19
10723.5
14320.8
8079.34
1964.12
-2767.02
-913.429
468.618
-3880.55
84.9625
4675.15
3261.97
559.574
1106.23
-1706.37
-8642.42
-11210.8
-12645.2
-18339.7
-11998.3
-13988.5
-10804.3
-8188.78
-18787.8
-12664.3
-9868.83
-6402.96
-1716.14
-3624.82
2260.38
4671.72
4905.46
4697.45
12754.5
20828.9
25049.7
21046.2
18493.1
15171.4
10616.9
6680.56
22167.4
31106.2
24800.8
20124.6
31152.8
17315.7
20858.7
6383.51
-2176.68
7456.92
10473.1
4446.95
-5358.19
-10695.6
-854.131
7209.95
6423.79
12334.6
16557.5
21528.1
15844.8
26479.5
38132.5
32158.5
39824
25453.1
13692.7
16190.3
6760.44
20815.5
21494.3
29753
24638.7
25188.5
24533.2
30765.6
26071.3
20083
42742.6
36150.7
32147.2
37463.7
38349.5
26410.3
22284.4
19037.1
20304.2
24572
22000.2
6998.26
4032.16
6726.02
-5103.71
-6299.87
-3163.63
-821.111
-6139.24
1024.62
-434.105
-6351.09
-2156.43
-1246.74
-5383.34
-2096.02
-1154.92
-2511.34
-905.995
1239.94
6461.78
7453.26
-1412.06
3404.71
3838.39
-674.566
1010.8
2016.93
-3753.95
-522.7
-546.538
2057.2
-4804.42
4289.11
-2711.12
1864.38
-1013.37
-2464.1
3346.18
1265.23
-639.703
-1121.08
-4089.84
-5002.56
1596.24
-1206.83
625.06
-366.414
-2354.17
-2174.17
-7624.89
-6418.99
-9708.76
-17980
-17148.4
-8978.47
-7856.46
-11312.4
-3050.29
-211.707
1775.68
16280.1
20295
24469.9
32336.5
34839.5
14104.8
21629.3
20000.6
-3381.03
1662.39
-2310.62
2501.71
-7868.95
-2463.99
-3414.09
10070.7
5769.16
16524.1
27060.2
27485.9
27774.4
28225.7
29757.9
35718.4
32193
27905.1
30577.2
15326.2
14759.5
16554.7
12439.1
11447.8
1604.87
-7720.61
-4490.31
-2164.22
-8148.51
-5376.83
-9662.54
-6237.97
2977.67
3415.18
2123.42
2739.25
304.75
-6589.21
-2936.12
5531.72
1022.75
655.529
-1093.07
981.862
-5017.97
-8818.04
-7704.13
-13223.8
-25858.6
-10559.8
-4322.86
-218.457
8710.28
1383.52
-3448.93
-5845.81
-14836.1
-17499.7
-15345.5
-22101
-21000.2
-16397.9
-7008.48
-10707.9
-1220.08
5324.2
5763.82
4747.95
10990.9
16990.8
5376.06
7148.49
11779.2
1851.31
2838.99
-205.107
4872.95
4577.6
-5704.56
-4615.08
1277.53
-4145.82
-1656.86
-6219.64
3990.99
-4735.48
-8944.5
5162.16
12015.7
24879.1
34231.9
23476.9
23719.4
12139.3
16865.6
12757.8
12144.8
8332.73
9340.26
8193.72
2236.99
1547.81
5461.63
10374.7
12853.3
11276.6
12178.3
7722.62
2220.78
-2760.75
-1636.29
-6759.27
16144.1
13410.5
22682.5
18637.8
13011.2
4638.98
8566.87
-3877.27
-7907.09
-770.116
11881.1
20471.3
25923.2
14902.3
9913.18
21385.3
26918.6
32005.3
36315.4
46515.5
49260.8
34192.3
13390.8
25002.9
37437.5
43109.8
27295.5
27319.8
17877.6
9856.71
12332.8
9270.32
10828.2
16761.6
20882.3
36869.2
29998.1
27117.3
32377.3
33175.8
31293.4
29365.2
26659.7
28921.2
46944.4
48191.3
45706.1
39315.7
35620.7
41715.5
30551
23384.8
16004.8
22111
28946
38830.7
49480.9
37724
36710
52018.6
63484.9
62788
60226.7
44755.6
43190.5
41753.7
38446.8
28053.4
16374.9
12577.9
24051.4
23581.1
28035.9
33938.9
25637.3
22493.7
21143
11022.8
15504
9263.72
7438.87
5827.48
2848.64
10157.1
3423.97
-72.5902
3037.43
614.385
920.255
2441.06
868.642
2499.41
-2554.31
163.556
2239.54
4292.44
1106.25
-47.2327
-1088.31
1432.57
1766.3
1979.68
437.024
1129.18
-2343.4
-5157.07
1315.56
-1093.51
-3279.06
2729.24
3739.34
3216.07
2332.47
-8939.19
-7601.73
2281.27
12617
7246.52
10417.8
6470.24
8478.06
8205.12
-2907.57
-5173.84
-18193.5
-17784.3
-11876
-3615.64
4710.57
-4962.76
-7662.9
-6396.02
-14535.2
-9267.9
1203.5
12604.2
15283.5
25534.9
34629.2
12971.9
-5604.11
-5884.64
-7017
-8572.23
-1304.62
-9057.61
-1518.96
2937.97
4685
-693.374
3450.84
5578.38
2673.22
9671.86
6722.35
16157.1
20351.2
15705.3
6217.7
15254.3
12301.9
13235.1
17969.7
10295.1
12784.6
8191.45
9492.94
15319.8
13722.4
3409.72
21169
16221.3
18936.8
15354.7
25060.2
20844.3
6233.68
-464.655
3323.91
2849.06
396.155
5741.07
370.561
741.347
15014.8
17202.4
10532.5
16269
18809.3
21970.1
36119.5
36035.2
28420.5
33909.4
37518.7
26354.7
24859.7
16860.7
10313.1
19314.8
3687.04
5282.19
12854.3
14215.2
-904.163
2707.45
-1942.71
-19701.2
-31302.5
-16957.9
-6758.9
-4658.23
950.607
-300.011
-2651.39
-5990.14
-12133.3
-12284.8
-12831.1
-13107.3
-16163.8
-18925.9
-17278.6
-15901.7
-11031.1
-14270.9
-14306.5
-15030
-12662.6
-5936.58
-2244.85
-1903.68
-5359.82
-3187.16
3654.81
11070.1
7694.35
1119.47
-9191.97
-9719.8
-5308.2
-2892.73
-4645.19
-5806.54
-12795.3
3486.37
6381.84
4436.5
5769.59
11425.7
3636.29
-2932.82
-4153.71
-1051.09
1583.26
3028.85
6067.8
1202.78
-5307.66
-6282.26
-10698
-9389.63
-10190.7
-12400.7
-769.161
-4679.04
-6533.32
-12873.2
-10904.9
-3146.25
-9570.64
-3361.81
-8482.22
-10009
-11839.5
412.068
5753.2
9659.71
13388.9
14304.5
19508.7
5825.36
4229.01
4340.69
6796.2
4541.51
4797.43
7625.83
-2564.41
-718.152
9060.48
5640.8
-4170.96
-3259.56
585.558
-8040.72
-6728.61
232.237
13911
19979.1
7667.77
5077.8
11661.1
6663.21
-3010.01
-1121.75
6375.91
7569.41
-642.258
-4082.95
-7833.16
-8448.15
-8414.58
-7912.44
1176.57
783.219
-3942.85
-11027.5
-19598.2
-2422.16
-5917.58
-2952.61
346.896
8506.21
26257.8
34890.8
27078.3
28433
35739.5
34108.9
39573.6
48299.6
49065.6
49790.1
51171
26576.4
20716.6
15317
16184.9
7759.27
-1738.44
-7173.39
-4306.44
-3271.33
-18326.2
-17962.1
-10880.1
-4600.39
8335.87
5215.39
18661.4
19373.5
19558.3
19566.4
23590.8
27836.9
21693.2
14690.7
23156.7
13951.2
23607.7
26229.1
23834.2
16131.8
36572.3
39913.5
38650.6
45732.1
47956.5
65923.4
63688.9
63181.3
54053.4
43430.2
55845.5
56066.9
76240.2
86159.1
93344.3
92196.3
102437
114135
101774
95127.8
74289.8
64023
51872.5
62391.5
54142.6
44446.7
41212.7
25252.6
40651.3
57497.5
51686.1
53096.1
40480.8
47194.6
42764.6
50183
75437.2
76572.6
69545.5
74889.9
48119.2
75645.7
63764.7
63187
54290.4
69963.7
64130.4
45248.8
26458.3
18065.5
16450.2
16514.1
6954.74
15332.1
18818.2
14838
19741.6
10860.9
9727.65
13778.6
12001.7
22150.5
30889.3
25250.9
16871.5
15909.6
18707.9
31385.4
41353.7
32116.9
36169
39730
31428.6
20554.2
13846.4
3400.68
3464.74
518.588
4996.15
9638.75
514.615
-3694.02
2419.05
-3468.06
117.178
5680.86
8339.69
8996.38
7883.85
6853.36
7926.98
7612.67
11455.5
13690.8
12438.4
16185.4
16449.4
12792.6
14754.7
2811.45
10908.4
27812.8
48119.6
38164.3
39106.9
23821.4
19478.2
23594.1
21580.2
12801.6
12303.9
5610.28
6524.51
11579.4
-4421.84
-4885.2
2609.63
-3345.18
-5308.79
-3465.12
-3245.31
-1513.16
-12782
-12546.2
-25312.7
-7238.83
-23787
-32153.5
-43320.6
-48540
-56229.6
-38152.8
-35105.5
-39655.1
-36538.3
-43795.1
-17462.5
-24025.1
-8920.2
1784.79
5448.98
3835.87
-1091.85
4828.67
-4040.36
6603.13
-1156.43
262.216
-444.147
-22574.8
-18750.4
-20176.4
-8795.51
-8729.85
-9870.36
-15584.2
-14548
-22655.5
-30168.9
-26279.5
-23160.8
-11677.1
-15600.1
-11780.6
-17280.1
-9912.61
-13911.1
-21673.3
-13857.2
-14638.1
-18521.1
-18902.6
-15030
-9619.06
-13748.6
-10970.2
-10575.9
-4222.86
5695.48
1601.8
3848.18
-6793.42
-5556.36
-3794.17
-884.287
2292.21
-3344.73
-1564.33
-6274.62
-11859.5
-8569.73
-6933.87
-4138.17
-9339.83
-6705.46
-806.702
-12522.6
-11589.7
-14362.8
-13121.7
-12846.6
-4692.64
-7304.3
-10880
-10844.4
-4147.39
-2419.36
-13687.8
-7806.92
177.634
-3155.11
-7186.26
-4845.67
-2390.99
2662.21
-2240.56
-9081.55
-6227.67
-5383.67
-958.554
1710.05
-1769.06
-480.337
-1402.75
-6752.27
-8874.11
-1548.29
-1479.25
-5646.96
-1195.46
-3242.86
-2710.53
2544.01
1516.53
3601.77
8101.94
7108.8
3518.73
3268.67
-966.697
9736.32
12928.8
20393
29332
30474.7
37906.4
35159.7
35623.2
31939.5
30926.2
33208.4
36080.9
37833.8
39386
31258.3
25673
17370.6
12191.5
14192.7
16229.5
21266.4
17651.7
26818.3
14785.9
14904.3
22694.7
14119.6
4856.99
4472.27
6108.14
8705.04
16059.8
19635
25019.4
22425.1
25257.9
8568.15
4342.13
4240.81
-7671.64
5208.02
7986.91
-5408.9
11716.9
24899
22091.1
38924.7
29739.5
32784.4
38522.4
36894.6
17460.2
27686.3
22567.1
12726.9
8836.82
15146.1
22149.3
29747.3
8654.44
13806
15945.3
3490.37
5731.97
2543.07
6450.31
4395.38
11026.4
23348.4
21129.7
23371.4
29046.5
32471.2
41281.7
36849.7
42198.4
42462.3
43842.5
46498
48416.2
40027
50456.4
59401.4
57118
44284.5
30561.8
25646
21897
13644.7
13225.9
5894.84
3526.93
3593.4
11369.3
11828.9
9992.46
-1170.86
6164.32
6664.22
11568.4
6237.24
10272.5
-748.833
6762.95
6307.14
-3349.98
-4263.16
-7078.37
-19230.2
-7459.75
5779.44
8476.62
15603.9
22756.4
22402.9
26050.6
26711.1
24526.5
21719.8
23424.3
7034.06
3500.41
-1627.55
-299.796
-3829.82
-4116.95
6044.77
1457.05
2717.3
15072.2
6873.83
3775.03
2756.34
10217.5
9548.01
12521.5
6540.06
3266.4
8489.36
-4515.88
-2352.81
-5456.6
-14484.3
-14455.6
-19881.9
-17934.8
-15774.3
-12883.7
-9711.16
-9493.48
-11310.4
-8676.99
-6145.16
-7442.7
-2573.71
-10475.2
-4733.96
-7692.37
-2933.16
1144.54
2869.4
5119.4
3797.9
7545.6
2650.2
9077.09
15369.8
14773.4
18868.1
20422.5
20560.6
10383.3
25840
26886.6
21386.1
18041.3
24012.5
24575.3
18308.4
21588.5
21567.7
20863.8
17548.8
18145.6
6234.34
9773.74
27531
21351.7
17117.5
6511.63
8140.73
696.645
-4164.61
-3936.67
-13091.4
-8010.2
-1355.8
-3364.93
-6132.3
-6212.79
-3220.92
-3422.89
-1166.8
-517.614
-3957.45
-605.143
5105.58
8700.36
5986.88
930.25
3168.45
-2199.67
616.463
-3876.99
-1948.77
3305.03
-8237.47
-3429.28
-3455.7
-1426.72
1770.33
4314.26
1654.56
4125.55
-8566.13
-1481.71
-1845.75
4825.33
10055.2
4674.08
9670.99
12532.3
16282.4
19604.3
11124.7
5848.27
6491.59
4508.74
6941.62
11076
19307
14079.8
8503.28
5806.71
5282.04
10773.2
4168.47
3568.21
-1205.56
-419.884
-789.77
9146.67
-1229.26
6740.18
1146.41
1083.38
4978.06
4666.8
3037.02
-12138.4
-9112.8
-2578.79
-15397.1
-925.387
-1762.07
-10740.2
-17461.4
-9460.41
-16825.3
-3240.48
-6213.8
236.421
928.012
-5671.15
-9450.25
-5836.28
12691.7
11576.8
11561.4
21140.7
19990.6
13832.9
12024.9
11319.3
7329.78
-956.663
-12186.1
-8253.46
-495.108
-3938.2
-4470.35
-3057.06
3525.85
5055.32
5859.84
3688.94
3458.56
-3673.4
-5853.78
-4769.32
-5299.65
-110.742
-1610.3
-3870.79
-6086.71
6369.3
4294.58
-1321.47
-1047.04
-1424.79
-2919.37
-14.6401
-55.2033
894.145
-5770.97
2567.99
8698.65
2220.23
-3525.55
-4019.63
-7657.37
-6394.59
-2196.69
-4400.04
-3072.69
-2479.15
-7702.89
-6642.52
-11415.2
-19084.7
-21612.8
-12496.6
-7381.15
-23281.8
-24436.7
-23434.9
-21613.7
-23358.4
-23703.6
-18693.2
-19031.5
-10759.3
-14453.9
-15864.2
-19706.3
-24912.7
-18091.2
-14741.8
-23691
-14082.2
-14230.4
-15535.2
57.3868
2026.72
-1057.85
-2951.35
-7499.94
-11405.9
-9163.16
-13355.1
-633.883
-6922.75
3652.55
2027.36
27652.3
31798.3
26009.6
23665.4
8172.39
15652.2
3864.93
3210.84
18829.1
32069.6
21874.8
28418.7
17581.8
33483.1
25946.5
12900.9
33791.2
42075.7
38626.9
42174.1
34092.4
30636.4
33064.9
48264.4
32934.9
22240.8
15647.3
6701.04
12979.8
30833.8
24858.4
37740.9
12570.7
14133
7582.55
8076.85
14741.5
21135.8
20887.8
22184.7
6713.85
2828.41
2072.14
3156.49
13701.8
17111.5
18252.4
21989.3
25677.2
21816.4
13559.5
25620.9
12645.4
15452.7
11253.5
14622.4
17382
15394.9
10533.3
13406.7
926.559
-4880.88
437.854
-5018.17
-7679.84
-5868.87
-7443
132.139
-947.968
-4457.4
7433.3
10710.4
6816.46
11471.4
-621.343
6213.11
13923.8
13763.8
11457.3
20559.4
23468.5
15213
13914
7618.2
10050
12469.4
22225
11662.6
5408.87
4511.6
1069.6
-7410.05
-8520.17
-8578.03
-11462.8
-12206.2
-8046.83
-10894.5
-11606.8
-7083.38
-4387.37
-7862.47
-6707.94
-1237.29
595.48
4028.35
10093.9
12847.3
5641.77
7000.73
899.033
7492.23
5911.97
2528.97
4077.2
12386.6
6536.64
2585.54
3031.72
1629.97
2999.5
-1294.56
8811.75
-5172.23
-5192.64
-9311.09
-9515.28
-8030.35
-12327
-9465.16
-13934.7
-10703.6
-672.317
-5876.95
-8246.36
171.483
-1754.78
7433.54
6505.83
5665.68
-1565.05
7029.01
-4785.41
-9369.36
-4917.21
5071.97
-445.773
-3774.14
-2971.77
-8623.03
-10845.9
2201.5
4051.04
1677.86
-3414.04
-389.259
-729.909
-4973.74
4069.19
8848.08
10077.6
6650.16
6882.65
2761.09
4793.08
-1181.7
4837.49
7509.98
3563.9
3317.29
1078.99
5584.98
6708.5
7413.5
2499.79
126.138
-532.173
-4534.83
-1651.4
757.136
-2438.88
-5192.94
-5044.11
-8592.09
-5747.42
-5765.12
-4396.23
-1607.1
-3655.36
3066.75
6220.28
1615.1
9883.68
7183.27
3752.41
11014.8
9882.28
8416.01
5567.06
7262.32
13049.2
-4681.27
-785.026
-3248.91
3836.07
968.864
5773.42
2198.64
7767.13
8662.34
3043.61
-5009.45
-3569.95
-6493.46
-6591.2
-7911.55
-12808
-8006.83
1759.35
-1716.97
-2804.25
5434.02
-1790.8
4367.98
2321.9
4897.74
-3376.61
-1122.98
-5388.81
-4716.99
-3984.25
-4769.36
-630.071
-4267.69
-4913.34
-4799.13
-7932.67
-5109.66
-5828.29
-9284.29
-13685.5
-16978.7
-19590.9
-20822.6
-20267.7
-9911.55
-5783.94
-3829.2
2575.62
-888.278
626.376
3019.3
12417.8
672.04
3156.24
4517.47
1511.6
-3649.28
2749.05
7821.43
2375.41
11817.8
15626.3
8870.56
7370.81
14619.8
12837.4
17723.9
22123.4
19493.6
39061.6
19072.3
21647.1
5945.7
2728.88
10538.3
7907.89
4663.5
3634.53
-6019.03
-15176.4
-26210.1
-26283.5
-14690.2
-8012.12
-12344.7
-1455.02
-4518.58
-6603.81
-1981.58
-12275.9
-7663.57
-4583.11
-9984.44
-12732.5
-10495.4
-14904.8
-8599.62
-11035.6
-11359
-15290.2
-9836.09
-5926.96
-5055.91
-16383.2
-9836.59
-11533.3
-16087.1
-11576.6
-11221.5
-13208.7
-12135.7
1686.32
4255.68
15304.8
11083
11319.4
12694.3
17378.3
3674.67
12239.9
6221.94
21843.4
4821.13
-66.749
4136.06
361.603
3388.43
2198.64
-1161.26
2455.25
3685.25
-598.591
1273.77
-3128.45
-3030.09
-2752.08
-7662.67
-2839.38
-8134.65
-4009.03
-687.083
10456.4
15039.8
9707.42
24963.7
30969.9
18430.6
17840.3
13442
10416.9
10087.7
8638.34
-5797.66
-3195.96
612.529
-112.943
1504.2
1781.21
1085.03
3557.35
1473.44
-1.50505
5409.6
5045.85
13282.2
8011.91
13636
15194
8216.92
6989.36
8227.71
3020.66
2577.46
973.387
4468.4
6492.52
2934.4
6477.59
-1027.88
3225.01
3519.47
11165.2
11630.8
17620.5
15763.5
18848.8
18733.1
20811.5
19872
8719.34
7407.79
8746.63
14533.1
11582.4
6484.5
6907.18
3398.12
-412.966
3030.79
-764.954
2417.49
3118.9
-3012.27
-9397.77
-10693.7
-11838.4
-3281.3
1438.15
1140.6
-5647.51
-1856.57
-2005.49
1964.23
7427.48
18924.6
19962.6
10367.4
15500.7
17634.9
6619.85
6395.19
10835.4
8967.15
9877.92
9937.81
15648.6
24319.4
13379.3
3644.54
7378.14
5142.58
9733.93
4845.31
11286.6
5846.64
6949.11
9006.93
19945.5
13509.6
7581.49
13448.6
19083
20496.5
23518.2
24052.7
21695.1
24506.1
18016.6
22365.1
16499.7
20805.1
3812.5
-1115.52
-921.999
11587.1
6839.5
5761.52
-978.552
-6120.36
-3802.95
3792.34
-3569.51
-1719.43
-4318.02
4052.19
2259.05
-2155.94
1646.31
-1183.38
5266.41
353.733
-2250.17
-2358.86
701.588
9225.94
-1335.38
300.626
-3144.43
-3502.13
2184.63
-1620.22
-2390.81
3475.26
2672.54
-410.062
848.743
4838.97
55.3012
1317.05
1718.55
6291.77
20007.6
17097.5
12892.6
4295.38
2378.99
762.092
3713.09
-238.585
2815.23
-4191.95
168.388
-1838.17
3938.85
-45.0268
2874.82
-918.556
1498.51
-5481.71
-4634.86
-9974.26
-5749.33
4969.52
15001.8
11349.5
5314.68
10495.6
17797.2
20521.6
12646.1
13023.1
6393.85
6037.43
4264.05
4068.74
-856.823
-4419.79
-6700.91
-9331.59
-11589
-1821.08
12562.8
7805.54
385.828
-1657.39
-2700.37
-6620.35
-17186.9
-25153.7
-25593.5
-11338.5
-13729.5
-8749.79
2764
-4231.88
-2973.84
-7755.65
-3690.18
4468
-661.773
552.73
-1339.48
452.304
756.147
2094.62
-4574.82
-24029.3
-16252.1
-14643.6
-14560.6
-22493.7
-12106.8
-8112.76
-3524.06
-4221.18
-2522.13
552.721
1342.27
9262.36
5449.21
5592.43
-1111.02
-4458.45
-10262.2
-11226.6
-4280.39
-7596.81
-11376.1
1882.51
125.77
-476.795
20052.5
31585.8
35263.4
44566.6
59324.8
71845.4
65519
44623.8
39617.9
36478.8
35258.5
35070.1
26372.2
26113.7
22314
30733.3
30764.4
24329.9
10066.8
23350.8
30486.2
19154.7
13754.2
10075.3
9876.27
12996.4
17759.7
15708.3
11951.9
8529.74
5082.61
53.3165
-1464.42
-8475.69
-3971.33
-1946.06
-1969.93
1082.24
2014.34
-279.868
3269.36
-1289.75
-1235.31
-134.674
1932.43
-2168.45
-5033.54
-7331.84
-11944.6
-4292.18
-6716.34
-9430.71
-14187
-24784.2
-32253.3
-34236.3
-25223.1
-14826.7
-15756.9
-13332.4
-10390.8
-13729.4
-10479.8
-12676.7
-14223.9
-8561.71
-14308.4
-22134.2
-18576.6
-17905.8
-13142
-8288.77
-6008.64
-9111.03
-10100.4
-5730.36
-2213.12
2453.73
805.202
1050.05
3226.23
1483.3
4389.57
2283.58
3282.25
5363.48
7873.38
9388.45
8502.17
9693.43
5057.66
1360.44
3891.43
264.076
2917.97
2708.29
-4208.58
-2766.68
-1205.96
-1583.81
-9531.11
-9370.91
-3301.31
-7054.27
7701.71
11347.5
13167.2
12907.5
21518.6
19115.9
4357.27
2952.44
10748
3521.46
-7767.45
-9246.25
-11870.7
-11326.1
-7241.34
-6279.86
-10152.2
-9732.37
-9454.21
-11135.1
-12980.9
-6389.24
-6921.9
-5379.5
-10242.2
-2609.64
-13799.1
-8738.34
-5183.59
-3379.17
-5058.59
-5374.83
-1979.43
-7040.15
-4455.06
-2352.58
-965.244
6028.34
-167.182
-6482.68
-4219.5
-6388.79
-2761.22
1398.25
2547.94
-3870.62
-1009.44
-804.331
-236.212
-2415.55
-17773.8
-26591.5
-14402.2
-12936.9
-15811
-16315.5
-4956.24
-3781.13
-12027.6
-11559
-13498.5
-7917.62
-9471.85
-8058.56
-5014.22
-5753.45
4441.17
-598.444
-2272.71
-1539.18
-11718.5
-5365.62
-8421.74
-10838.5
-5818.32
-7055.56
-8184.29
-3409.27
-6426.37
-13173.7
-17664.5
-4409.99
-17680
-5295.25
5744.88
1556.65
-5056.14
-5836.35
809.368
2756.25
5975.74
135.701
11078.3
9800.93
12219.7
14385.5
12134.6
8951.9
7820.28
17972.9
6223.79
20676.1
16263
8511.2
14628.6
18721.9
19230.8
8562.87
8280.03
17458.8
22483.7
30924.6
48473
57033.9
61624.3
30287.8
27792.6
15325.9
9913.39
13652.5
9032.49
20388.7
15791
14498.6
17924.6
13296.8
22001.2
23368.3
10073.6
1323.56
-4486.07
1848.41
-11112.9
-7169.54
3753.71
-2685.23
-8122.31
-8449.62
-9147.6
-12751.6
-7552.75
-11691.6
-12397.7
-25107.3
-24484.5
-13498.7
-239.511
-5498.32
-7287.84
-9270.65
-2659.02
-5054.47
-14281.4
-14472.4
-10471.8
-12004.3
-11763.9
-7296.57
2622.94
-3831.22
-3408.16
-1006.74
-2664.12
-5715.96
-10408.8
-9902.63
-19248.4
-16470.5
-21992.3
-24655.6
-22701.2
-17930.1
-18643.9
-17879.5
-18240.3
-9197.25
-13772.3
-24438.9
-24391
-23675.5
-20902.7
-25519.2
-24628.2
-20894.3
-13464.5
-14190.9
-18001
-15556.8
-14678.5
-4421.58
-4342.55
-7439.12
-6977.96
-2420.29
12148.3
20891.5
6285.64
14477.3
30872.7
39769.8
38568.1
24150.2
36366.6
43845
53255.5
51992.3
55349.3
34516.8
22864.7
23443
21129.1
19439.1
14757.6
22601.2
29782.9
44010.2
41285.6
26333.1
15352
29809
39841.7
47204.6
60103
35107.2
23668.7
30872.9
23089.9
17697.2
14614.6
5175.84
8154.39
10821.2
2712.35
5723
6338.87
7759.89
3470.92
479.294
-2610.24
-619.52
-2649.31
5389.88
6705.45
-2232.36
-291.018
72.7453
-1358.02
-239.305
-4798.75
-7762.25
-3987.42
-10343.1
-20150
-7470.23
-7466.13
-15626.7
-10877.5
-486.655
-1945.91
-2323.86
2230.46
3892.85
-1139.91
-3546.29
-133.38
2239.52
-272.418
6440.75
1399.78
-3043.29
7617.13
2050.29
2587.32
4141.04
2205.29
2611.86
2320.16
-3882.43
-4674.38
-4960.05
-4813.33
-16547.8
-11498.4
-15456.5
-17843.6
-8147.97
-7207.19
-757.447
-4009.05
-827.867
3169.64
-1524.28
-489.38
6312.69
10676.3
5783.35
6531.99
8054.74
2990.52
-4951.14
-4799.05
-879.261
-2072.92
-6685.22
-4952.91
-2500.5
-633.351
3331.35
-1520.27
1316.56
200.93
-4816.39
-6219.39
-6251.16
-14069.8
-5570.79
2032.06
2023.73
-4459.06
-9253.69
-3063.14
-1132.06
-3556.03
3999.37
5523.77
1663.65
-3625.22
2158.97
3901.69
10538.6
7949.9
4781.27
4475.32
7046.1
13085.6
12059.4
6685.23
1560.48
9848.2
15867
11697.3
1179.33
4255.85
1352.87
8277.26
1579.51
-5804.39
-7096.62
-5310.52
-2041.71
1945.6
-127.282
-6038.13
-1333.22
1856.61
-8537.86
-17458.8
-6981.09
-1776.26
2568.04
7116.92
8441.46
8263.14
1830.83
3152.88
-342.083
-2677.37
-5616.85
-616.755
-7828.26
-2563.43
8044.79
17241.6
16038.4
5645.31
-2681.46
-4835.86
-248.254
3580.64
7566.18
3506.47
-841.499
-1935.04
-288.65
-1973.28
-1018.33
-680.332
-8510.06
-13007.2
-12323.1
-6127.13
-11186.8
-8426.15
-1737.46
252.882
2274.15
1281.13
375.887
3344.56
13502.6
4205.58
6054.26
4998.36
-755.326
6040.83
8746.48
6330.02
11588.3
9449.9
2469.86
6639.86
12414.6
4117.92
1198.19
4246.28
210.777
5479.49
-366.615
696.331
4268.2
5047.22
14299.4
16640.2
19237.4
18261.6
17008.8
10120.7
-1055.33
-1551.3
-2501.9
-4516.31
-7008.67
-16815.5
-16892.3
-6955.18
-10612.7
-11375.2
-18423.7
-11829.5
-14019.3
-12145.2
-15725.2
-16275.1
-14526.6
-13587.3
-7548.92
-6224.05
-4346.02
5937.96
13870.3
12631.1
17883.6
13970.1
13962.9
5073.32
5164.69
6892.05
7089.46
6013.7
3867.4
3003.74
4673.61
5465.25
421.031
7729
2185.09
1006.17
3577.72
307.504
2157.58
-808.687
-1390.69
150.262
-4348.26
-7120.21
-6453.77
-7712.01
-12007.2
-10287.9
-12255.4
-7285.68
-10182.2
-10124.1
-7537.57
-1944.24
-1472.89
6199.91
-4337.78
-2527.81
-1099.51
9633.94
17882.9
16983.1
22042.3
28522.3
16206.4
7253.8
4135.04
2543.57
4744.22
611.433
-13311.9
-5276.82
-4733.69
-2119.27
-177.989
-372.905
61.7336
2430.57
9045.7
8444.91
10016.9
5161.24
2811.65
2619.42
-7144.39
-20649.3
-14414.4
-10785.5
-10497.1
1581.43
-738.448
6914.76
5253.47
2376.56
5875.06
6554.13
4604.82
7614.11
11203.8
15946.3
13500.1
12874.9
9409.03
1683.86
4147.39
2044.47
237.293
1864.64
-3325.69
-5004.32
73.1426
1192.26
-1477.14
542.647
8008.95
5902.57
1740.54
-3782.05
862.571
7573.48
8076.12
1570.24
266.208
-4385.26
9961.77
15196.8
25278.9
22584.5
28466.1
31530.6
22072.2
17407.6
12512.4
9303.74
1493.96
-846.141
-4727.29
1692.66
8526.53
6899.53
12187.8
22292.7
19182.4
10112.7
8882.39
4617.24
-345.091
9044.32
5346.63
8626.07
4534.2
6486.53
2282.71
623.45
5147.15
1759.05
-2015.99
-204.972
328.802
526.506
1260.84
-653.169
-3129.85
-6916.71
-7889.58
-6001.08
-5127.42
-2711.53
-3039.9
-3040.68
-4393.15
-6084.56
-7804.86
2284.7
8468.72
16053.1
9953.19
7040.72
2209.28
2347.27
230.694
-3434.81
-4840.85
-2869.33
-10359.3
-21377.2
-38531.4
-37323.1
-44658.7
-52501
-36185.6
-24159.5
-36797.2
-29734.2
-23291.8
-12648.4
-12315.8
-5303.22
-191.21
1788.96
-2871.96
-6116.68
-6669.19
-8943.41
-13011.9
-9734.69
-8364.14
-8418.87
-4256.37
-7366.5
-5758.41
-6864.39
-7977.77
-7161.91
-9513.56
-4700.02
-2297.68
-5478.83
255.325
-3485.56
-2089.37
-423.354
6602.1
7576.85
16728.5
16110.8
14968.9
2317.31
6862.22
-95.1522
11567.7
135.043
1572.1
-2584.25
-8710.68
-8889.66
-9147.91
-5425.42
-4027.83
-12002.3
-6479.54
-3915.85
-6220.69
-9180.95
-8118.42
-5793.44
-4941.87
-4784.08
-220.79
-1988.33
-2960.5
-2302.15
171.122
-6962.58
-6692.5
-4429.76
-3960.19
-3352.95
-4553.25
1449.06
1585.24
-2335.48
-1636.39
-45.7496
-2158.85
-2154.49
-4230.2
-7299.25
-1362.3
-14106
-13329.7
-19842.1
-18140.3
-14879.1
-17909.6
-31805.3
-36112.3
-27573.2
-18637.2
-9206.89
-14205.1
-12553.2
-26090.9
-22799.6
-29810
-14363.8
-20313.3
-16800.7
-8941.41
-328.731
3514.1
-4998.18
1921.13
-2374.49
4989.74
16242.2
14559.9
27485.3
30408.3
28398.1
36963.6
41525.9
36064.5
42491.9
28011.8
30592.7
42660.9
35088.2
39005
38702.6
40615.2
31543.7
27881.9
15812.1
10531.3
5964.49
6581.89
6214.02
4613.31
579.638
3463.67
1797.58
1826.61
2509.58
5801.69
8041.75
13305
7293.95
6627.39
11917.8
16394.2
18856.6
15321.2
8929.04
20013.6
17724.4
16873.1
22226.7
18119.1
16908
18545.5
19317.4
6503.72
7907.33
9719.54
21007.6
19486.3
16877.8
8251.97
5293.23
7915.46
9929.9
6802.67
10373.3
2926.76
5441.22
14088.1
18449.6
17731.1
18603.1
24399.8
24203.6
18222.7
22817.8
15198.9
24561.4
19384.2
11256.5
7798.82
9396.92
9961.55
18413.1
7286.02
17615.7
18350.9
17999.6
12192.8
18823.5
11978
15363.1
13689
6948.41
11525.7
8297.35
-1805.58
3225.63
2809.11
13108.7
11851.6
17085.6
8897.56
8300
7853.87
2161.67
-8679.97
-11264
-9242.06
564.55
3495.6
-1167.29
181.95
-1594.44
-960.759
4217.67
5368.17
2143.74
438.032
684.295
66.0641
3162.97
8662.37
12668.6
542.719
2880.7
-5070.61
1396.94
717.722
-6597
1796.63
-1407.85
-2000.32
-2203.48
1869.83
4318.65
2839.62
7531.63
8471.49
2804.79
-11846
-2269.2
2064.89
5525.66
9250.87
1054.14
11226.8
2794.87
-6634.28
-17649
-14937.4
-4251.18
-1789.52
-8116.91
-2.75166
-3032.84
-6525.66
-4141.22
-1471.57
73.0141
-3016.93
-322.809
-8037.8
3468.54
-1267.28
-1983.06
-2857.32
2252.73
6271.66
-2940.57
1292.51
1876.18
9544.01
9790.08
10264
6848.13
538.253
-952.013
-585.977
-3056.98
-6442.33
-9286.46
-5711.49
-6073.57
-9059.95
-7511.84
-11052.1
-9048.25
-3243.18
-1731.21
-3410.5
-969.951
-3717.83
-1627.2
-2758.67
-2687.49
-2719.41
-4478.46
227.142
9612.75
4348.82
2147.45
5568.57
11052.7
10290.3
7041.85
9393.45
21713.7
29048.5
36857.6
35562
41449.3
45538.9
28949.8
22060.9
22609.3
29053.7
33068.5
26583.4
12910
8391.41
-4766.84
-10301.2
-5588.8
-14459.1
-20111.2
-9009.65
-12167.4
-6285.13
-6418.19
-17235
-20097.6
-15938.5
-4458.29
5963.78
3360.09
1923.26
6165.48
-1733.54
6773.98
11414.3
7492.78
3332.72
8764.15
2697.12
12718.7
16687.8
32423.3
41621.5
28489
16082
11831.8
14106.9
14295.2
16072.4
18066
23195.3
28663.4
26918.4
31159.2
40513.1
31445.4
42251
39640.3
21517.4
13343.6
12162.5
11178.9
-7263.01
-8302.46
-7205.75
-23051.1
-18932.7
-16879.5
-12820.2
-4597.44
4409.18
-129.185
824.194
679.85
-2382.2
-5040.17
-4668.59
-1772.57
-5671.66
-443.284
-836.574
-2190.63
-783.536
1533.67
671.757
4463.59
6829.73
6594.37
9971.32
7813.44
4182.5
8451.35
3936.46
-2160.84
1043.17
4181.17
6609.35
4639.69
587.819
1521.24
3336.47
4362.73
7196.79
4412.17
1667.06
434.382
-4673.68
988.492
-1707.13
-662.29
-5813.43
-10810.4
-3304.66
-11562
-2659.64
4269.82
1282.4
-2716.35
-6818.47
-6156.57
-3118.21
-13104.7
-5066.26
-7982.62
-5801.28
-3455.32
-5113.18
-6107.94
-4847.08
-3984.94
-78.2027
2702.27
3826.97
4252.69
2223.22
7824.79
4669.84
-1611.75
-1067.87
-3476.8
-10202.5
-5011.49
-6360.37
-6475.07
-691.737
-878.544
-3710.6
-6652.24
-2402.44
3726.79
7927
9732.27
5453.9
8287.19
1907.67
2304.48
4673.21
8623.48
10146
10132.3
7892.71
17634.9
23676.7
8513.23
7264.66
8569.96
15811.3
10377.4
9366.72
-4407.47
973.413
-7206.69
-4530.35
-6188.64
-5439.71
-5418.4
-184.827
-1151.02
-5605.19
-8207.39
-10715.1
-13215.6
-3976.32
-1593.21
-4594.8
-2923.86
-2716.13
-1500.51
817.04
-550.036
947.938
-602.19
-204.392
-2433.73
747.787
1679.78
-4407.67
-5189.84
-4374.86
-1298.64
-37.0785
-2907.79
-1243.2
5343.3
1444.18
6609.07
-5180.29
-11084.4
-2381.49
-1857.88
3554.21
-3028.27
-378.571
677.955
3805.16
-124.677
-892.783
5379.92
6508.64
5761.3
-177.032
1211.64
-5308.13
-3921.22
-1963.73
3560.16
3827.76
2582.59
2774.92
-1387.1
5095.82
3144.13
4975.13
11599.8
2875.2
-2333.88
3895.64
5601.59
5747.76
16271.2
16215.9
21531.5
19972.4
22946.2
26000.6
19885.4
24979.4
21469.7
18907.4
23227
20578
14561.4
19309.8
19853.1
11826.5
-180.787
-10379.8
-11058.4
-10519.1
-10251.9
-8472.96
-7562.66
-4991.24
-11511.9
-12912.9
-10243.4
-8218.46
-4486.59
-2981.32
-4200.78
3222.15
8543.62
10131.1
8157.4
2428.71
-5911.93
-7158.81
-9348.74
-10728.2
-4269.99
-9525.52
-15032.6
-11542.4
-9902.32
-6532.46
-10472.3
-14980.8
-18185
-9653.38
-11389.5
-8483.16
-8719.31
-12317.9
-7861.64
-10250.7
-6884
-9254.75
-9013.61
-7070.9
-14032.8
-9801.08
-10842.9
-7715.84
1557.36
4858.7
9265.68
8398.34
-4644.53
5460.67
6583.73
362.833
-5124.76
-10282.7
-2753.19
-1718.06
-1159.62
-2329.76
-2219.65
-1405.99
-4956.09
-922.633
1574.42
3556.02
7344.99
11829.4
9149.56
12726
14108.3
12122.3
8498.46
11124.1
-2313.84
-4397.22
-768.429
-1550.87
549.516
-948.777
4428.27
12820
22511.1
25147.6
21463.4
13935.3
24049.9
12617
10754.1
5522.38
-8317.32
-5606.33
-8049.88
-7624.87
-6725.33
-16002.2
-21010.3
-27373.6
-24992.2
-17331.1
-17679.1
-26118.7
-23179.3
-13723.5
-20990.6
-14713.5
-12784
-17738.5
-15496.8
-5284.15
-5894.8
-3153.97
3791.18
3141.65
687.117
1687.19
2649.81
6410.23
5447.47
10737.5
17977.7
18274.1
15881.4
19561.6
24135.7
32132.5
24118.3
33385.4
50468.3
48965.3
49234.5
45687
34003.1
33915.9
28640.5
28784.3
28771.5
38088.1
31612.6
20357.1
27809.5
32313.2
41229.9
37966.9
26089.6
41329
32350.8
36848.5
34741.1
32081.9
35606.7
40108.9
45860.1
50504.6
47792.5
51238.6
62617.4
67327.7
65337.2
69394
61529
75634.6
67016.8
59916.3
63126
56759.7
39165.1
41631.6
54561.2
60481.1
67670.5
51737.6
41532.2
28656.6
41928.6
44664.9
43044.7
46762.3
38963.8
38899.5
46936.5
36715.2
24085.9
27870.2
21570.6
4949.98
23929.2
16041.3
5788.55
6984.05
1679.26
-2014.45
689.503
1991.81
-646.239
-575.996
-5956.01
-7735.17
-4342.28
-14843.9
-12992.2
-8716.64
-4491.38
4220.95
-3361.46
-3076.7
-6182.4
-11462.6
-15079.2
-10117.3
-15849
-15927.8
-15313.6
-11369.9
-8962.24
-5523.84
-2907.54
2821.75
-5024.41
-10969.1
-7594.8
-2281.82
-3453.51
-7295.92
-7081.14
-5254.28
-5958.4
-2842.56
1745.98
1572.63
1802.61
-6001.32
-2848.71
-3867.34
-3499.4
1628.17
801.965
-909.772
1451.43
-2308.57
-2602.44
-11612.9
-10526.2
-11591.9
-6648.95
-7196.78
-11852.3
-3391.89
-12747.7
-11235.2
-18373.3
-5766.28
-9954.07
-11147.3
-4129.14
-7806.65
-14165
-2951.37
2039.96
2603.22
-1068.33
-9979.01
-7957.91
-8892.49
-10257.3
-11230.9
-25790.2
-22992.1
-30568.2
-27580.6
-22970.1
-17927.1
-35002.2
-39383.2
-35987.7
-27503
-20448.8
-24068.1
-34285.8
-52550.1
-34081.2
-28101.8
-40553.5
-26056.4
-32027
-43061.5
-39995.1
-37909.2
-26333.5
-19344.3
-13638.6
-6609.08
-6651.22
-8197.84
-6504.05
-23792.2
-28562.3
-36100
-45655.7
-30504.3
-34899.9
-29289.5
-30137.3
-31458
-26336
-17207.6
-10821.3
-3186.62
-14184.8
-9771.53
-2780.53
3067.28
2798.79
-4272.81
-6946.55
-5914.33
-5117.67
-450.415
-2733.74
-1419.26
-5511.72
9046.37
4279.33
6976.95
2126.26
15738.4
18966.6
11625.3
780.567
986.969
9621.08
9102.01
1485.51
137.76
1939.79
7819.89
3280.59
6614.41
2101.54
-2979.29
-2988.53
-14695.6
-13308.2
-5507.2
-6733.27
-8350.32
5027.08
14816.9
4118.28
4843.04
-6491.24
253.445
5039.83
12978.4
16934.8
14556.2
4036.64
10128.3
8925.04
6361.36
10364.8
5270.2
7979.51
7937.44
22455.8
18789.2
6839.13
18472.3
19121.7
20992.5
14802
15148.1
10421.6
7592.44
3286.83
1025.15
7225.09
8430.68
11399.7
12216.8
9568.19
15937.1
24587.2
13565.8
-3238.74
-21234.4
-24274.3
-18507.6
-21916.8
-9406.89
968.206
-3099.29
-9.87831
-4512.27
-4351.56
-2330.08
-8395.11
-7548.77
-10888.5
-9027.04
-9513.13
-2278.07
-6829.34
-2613.21
-249.336
3204.76
67.4979
-396.919
-7970.24
-5101.96
-11093.4
-7138.75
-780.891
1187.8
6469.46
3052.63
-242.413
11577.3
717.517
-1375.18
-11965.5
-7628.41
-6882.98
-3801.03
-2407.75
6142.56
17416.6
15134.8
9343.04
10654.3
3764.93
13207.3
7725.07
6226.1
-952.773
2334.82
12171.8
4621.39
6172.11
-11892.1
-5107.73
-3299.1
-958.168
2206
1340.96
-1136.69
3598.86
-909.405
-862.602
-4359.22
1928.58
-1233.78
4991.9
-1327.88
-2516.49
8688.49
10227.5
7968.89
11527.9
21874.3
9687.64
11395.8
15803.6
16569.1
24920.9
7849.17
8080.72
6247.75
9569.36
5157.72
3004.43
-1524.49
-6592.89
9985.41
12846.1
25363.5
9092.29
20000.6
26916.5
20071.6
13126.5
13523.3
12413.6
4300.57
306.224
5251.38
8465.64
7418.95
3689.26
233.803
7970.13
15812.5
7791.55
20274.7
11020.2
4333.72
13499.2
11583.3
12268.2
3819.8
5877.14
4518.15
-3914
-10852.1
5145.47
20247.6
5837.91
-10797.2
-3105.95
8786.52
7923.22
15767.5
14211.9
16355.7
18372.4
3018.84
7247.39
18597.4
12765.5
10326.6
12312.4
12145.1
3950.05
-11370
-6152.69
-3540.85
3139.87
-2663.54
-13172.4
-440.998
-1047.2
6615.15
648.397
-7113.44
8333.12
19573
7846.01
10903.1
9154.2
20410.8
19412.1
8389.22
11482
1755.01
9250.19
12411.1
15565.6
11430
14701.5
6913.25
10392.1
8312.93
3280.07
1067.93
-1424.62
5103.15
18656.1
18330.2
20928.6
13169.9
15223.6
19710.8
18679.1
11998.8
25886.3
23176.6
21667.1
13313.2
17915.9
16442
21772.5
26967.3
14420
15212.7
17529.7
12743
14093.5
19278.1
19417.7
20905.2
16563
568.02
3276.26
5226.69
7278.81
-947.001
620.493
4252.1
4830.25
-6298.59
-3156.41
-5154.78
-8233.96
-7953.88
-2278.11
-5535.16
-3306.75
-1340.21
3517.18
2044.04
-3672.49
-5787.45
2384.13
-4453.9
-6271.31
-1656.32
7035.62
-1840.66
4640.89
2277.2
194.02
481.106
3515.36
3854.86
9258.6
6428.39
10208.7
5876
-5104.37
-9094.19
-12615
-8634.17
-7975.87
-2890.44
-8863.36
-2664.75
8331.9
-3109.52
-5141.5
15456.7
11842.3
13101.8
13665.9
6049.43
10345.8
10501.1
9123.05
6211.47
41.8183
-1601.68
-2865.97
-2317.54
-6046.89
-10754.4
-17345.4
-17058.1
-14359.5
-13474.1
-13613.8
-16957
-12011.6
-5273.78
-4976.24
-206.834
2541.42
-8342.61
-11034.5
-7754.85
-11425.5
-9440.12
-4210.65
-7367.19
-5822.75
-8936.06
-3386.4
-263.287
-3817.89
-5611.93
-1064.7
-3422.24
-5782.62
-2088.39
-3695.77
-8157.29
-6503.43
-5221.57
-4537.28
-6634.87
-6294.64
-4854.22
2272.02
3414.72
226.318
5354.06
-434.254
-6145.46
-3760.7
-12051.9
-10066.2
-16228.4
-7453.45
-2891.49
-4570.61
-6073.45
-2040.68
-5739.14
-10359.9
-8200.87
-10234.1
-6035.54
-14355.4
-16238.2
-9461.83
-5694.22
-7556.8
-9717.63
2218.06
-8560.82
-14797.1
-8699.64
-392.037
-1770.06
5240.29
14515.2
8359.93
9976.34
5575.53
1206.56
8701.68
13133.3
18190.8
18469.2
19858.2
16997.5
23090.9
24812.9
19744.5
15962.4
16113.7
14059
11083.3
8728.12
4846.95
3330.49
1202.7
899.718
3114.05
-3452.72
-609.608
2933.61
-4326.96
-4747.11
-747.341
-12761.7
-10077
-1751.33
-2598.11
790.827
4356.92
2391.61
-2501.41
-4105.47
-7339.41
-7609.69
-8444.91
-2602.18
2496.22
5758.04
5270.81
-4872.38
3732.62
1769.85
5363.53
11033.8
13403.1
10334.4
11188.6
15280.9
19183.5
29713.6
27587.7
25590.4
32365.4
28654
38262.3
28593.4
29939
23703.9
30962
22751.9
26351.7
30881.9
20203.2
10532.5
12419.4
8090.73
10978.8
5354.55
19463.6
26966.1
31982.4
40549.1
42555.3
30050
23731.4
26985.4
21826.3
42113.7
48653.5
54122.8
48396.9
52426.5
33339.1
38432.3
24967.1
31977.2
43319
50762
36978.1
41538.9
30750.6
53464.3
37489
33969.2
47041.2
42775.3
41487.6
20412.1
2665.35
5062.46
2065.51
5132.94
7541.12
7525.75
4014.27
3079.32
4405.39
4067.55
5277.8
8465.72
7687.27
7821.79
1967.42
-5486.1
3889.35
833.052
3637.07
569.565
-1671.56
69.0243
281.883
-82.5375
-477.577
-206.406
977.051
4405.45
5374.36
3281.99
9855.8
10154.1
11373.6
7170.39
10315.1
9850.92
2757.32
1560.88
3135.4
4170.22
8903.1
1777.3
2378.49
18.1991
-165.231
-5088.04
-5147.99
-3486.16
-2385.11
-5450.02
755.854
-1670.43
-125.047
-1575.82
2068.84
-1467.79
-6129.62
-2935.93
-960.916
4826.14
-898.983
8399.31
2034.78
5147.23
5138.02
8650.79
13292.5
10643.1
7629.77
3317.38
-3306.77
4788.67
4049.02
613.098
3103.53
-2788.31
-846.689
4284.78
6392.43
3719.17
-1009.37
4505.39
7007.75
3687.54
-1345.38
-5224.16
-816.944
9784.44
6137.5
6111.9
-2393.01
366.069
-190.71
-1819.47
-4640.13
-798.939
755.374
1493.52
-2506.46
-7881.24
-9985.63
-10068.2
-3446.46
-9898.1
-11560.4
-6290.62
-893.724
6256.85
-1732.13
280.303
7989.82
4579.12
7442.52
4658.96
11310.6
9568.46
9357.23
14964.2
9593.53
7264.48
12876.6
10959.9
14200
15189.2
18556.1
4097.01
5895.16
7960.07
304.747
-5556.15
-1875.29
-5142.38
-2063.3
-538.71
-4278.92
-1345.65
1923.65
3044.74
-2718.94
11958.5
33937.3
34179.5
31947.9
30857.4
44937.1
36650.5
32700.1
35238.6
37507.8
63174.1
59039.4
73057.6
79632.8
75360.4
91238.5
74854.4
42752.6
49590.8
55152.2
48110.6
56908.2
64915.9
67746.3
64474.3
68890.6
64763.3
85186.9
92901.6
85106.8
63535.2
76378.4
73148.8
76477.4
76020.2
76768.2
61167.2
61536.7
48259.8
41175.9
36994.1
58527.6
55887.4
61377.9
73771.7
69770.7
78725.5
107141
101265
80525
78174.6
70581
49165
27151.3
9705.66
4516.44
10881.6
9081.68
7515.31
9239.39
8481.27
2197.13
-1215.38
104.488
9731.85
7080.48
-2785.08
-1973.7
-3161.44
-1230.38
-253.325
1091.76
-770.547
314.221
-2467.75
-165.113
1875.8
-1295.4
1575.59
4497.53
8922.4
14722.1
11538.8
7155.21
3440.53
-2355.59
2018.11
1986.62
3641.7
-615.492
-853.286
-4288.91
-8818.55
-5250.15
-4600.46
-2437.01
1825.41
2934.81
4514.01
1295.18
-6605.35
-4514.19
-2799.99
-915.562
-3457.45
-367.863
-2339.12
2605.96
5986.55
-1558.9
1802.98
-744.958
-4414.14
-7893.49
-12220.2
-7483.98
-3078.74
-5501.09
-3911.58
-5448.32
-5903.35
-7276.55
-4907.86
-8446.67
-8506.83
-5854.17
1939.41
-7696.13
-18034.6
-14847.1
-23023.2
-21024
-15873.6
-18197.4
-10687.3
-6553.37
-14978.2
-16656.5
-7039.11
-7592.59
-5282.67
-227.16
1601.17
-527.085
1925.18
2459.23
-270.297
572.217
679.903
5507.61
-849.344
317.47
-1262.23
-3901.44
-9380.96
-6454.72
-2804.03
-2971.76
3192.38
3480.9
3382.63
1853.23
2016.45
5575.78
9291.9
7499.79
4408.98
-2930.31
723.903
-1255.95
-2718.96
1829.6
1040.77
3936.66
966.895
4700.26
2054.94
-736.326
4079.64
-576.495
1309.1
5759.89
8099.11
519.638
-4180.94
-12800.4
-5866.79
-11552.8
-11260.4
-8028.78
-13880.9
-9185.17
-7982.49
-10052.9
-10942.7
-11205
-10478.5
147.268
110.691
4898.58
2067.28
1103.39
-1864
3838.48
1136.68
1419.06
-6861.95
-19226.1
-5514.69
-4606.25
-6324.51
-12985.5
-15256.3
-16586.1
-14591.1
-9579.66
-9181.22
-7877
-14498.7
-11922.3
-12375.7
-16696.9
-19658.6
-16019.3
-5573.82
-1959.5
-7515.43
-3063.8
-2591.76
-3378.88
-2699.65
6824.53
20077.3
27040.1
25641.3
27933.6
30206.1
27072.7
19143.5
11593.4
3453.93
6869.98
7534.55
4403.47
11919.2
10481.4
4707.16
16954.8
23629.8
38879.7
42899
39812.5
31349.8
39750.4
26483.3
19723.6
32449
41523.2
49722.3
39008.2
29057.6
27777.9
21784.9
27646.1
21213.9
23303.4
18647.3
27594.1
39516.1
43688.1
51085.5
35395.8
37642.8
36312.3
34079.7
32086
37406.4
29162.4
29443.8
21475.5
12088
11503
19291.8
19578.2
23919.6
29168.3
27365.2
18986.3
40762.4
24704.6
35963.5
34443.4
37186.4
35412.5
41423.2
32124.5
40352
23873.3
26828.4
30033.4
23907.3
35489.5
18544.1
20516.2
14373.1
12837.2
5175.77
-4494.73
-4924.14
3379.36
1004.01
-3048.86
-597.295
-6563.71
1436.69
-9319.32
-5883.26
-10772.6
-3381
-4164.65
1694.46
3989.49
5511.94
9449.6
6666.62
4933.76
5834.49
213.063
-1866.88
-4950.76
-2079.51
-8627
-3078.71
-627.334
-3169.85
4061.45
-2113.78
-4907.78
-1573.05
-5117.37
2823.91
1769.38
4931.97
4623.09
8595.18
-2382.83
-5814.39
-7511.25
-9697.41
-11709.7
-14061.2
-6488
-5407.17
-952.941
1440.24
1405.29
4368.19
3950.47
4232.11
1524.87
5151.84
4778.97
-4009.74
2550.47
-118.005
-717.366
984.963
-1885.47
-891.277
639.613
6295.97
3346.79
4844.38
7853.99
18150.6
16963.9
32942.6
40139
49957.7
74593.7
62588.1
63106.1
57665.6
48028.8
57670.3
44724.5
48946.7
41194.3
32689.6
24346.5
21367.9
31689.8
52009.7
70263.7
56001.5
65257.4
84820.2
107228
101927
97154.7
118097
120499
135542
133673
105425
128329
124387
138501
123784
128635
119367
112538
100242
81249.7
79612.3
82535.4
93762
92669.4
91158.5
59060.1
70709.2
57881.5
51825.6
68128.3
61058.3
70577.1
82209.5
108566
91338.8
100119
74506.3
74046.8
62081.4
45411.8
48123.1
32325.5
39824
45508.5
65178.3
47045.7
37553.3
52260.1
45499.6
62858.5
87548.9
104618
68119
62928.3
75537.8
62208.5
63388.5
51216.7
26331.8
26980.1
31794.4
40817.4
43879.4
50679
56242.9
62819.3
55051.5
59618.7
47682.7
43478.9
45010.7
66170.7
66332.1
63631.5
46916
57435.2
44002.4
57306.9
34340.2
28538.4
16721.5
24919.3
13744.8
8233.2
8003.16
4412.99
3974.38
-6250.71
-3014.57
-3192.86
-7565.05
-9571.74
-2935.06
-2932.97
-6755.15
-14217.6
-18674.6
-18556.3
-12460.4
-16722.1
-950.192
-13256.3
-8579.16
-2213.87
-9534.92
-11718.2
-10196.4
-4239.92
-2908.79
-9383.45
-7636.07
-6424.4
-4217.02
-4746.51
498.18
3053.83
873.296
8755.84
9528.69
9271.72
2746.26
-3338.9
661.95
1247.06
8734.03
2006.99
-469.495
1632.73
5298.67
5712.98
12272.9
21994.1
21625.3
11792.9
22495.3
34938.6
41945.6
26416.8
47634
38947.6
43984.1
64261.5
49004
37272.7
35397
36254.5
27639.9
25059.3
33756.5
29295.9
27549.5
25699
24184.5
36516.6
43320
32191.8
34934.3
23578.2
29146.4
29691.5
25085.9
20604.6
17393
11787.4
18292.3
41707.7
49848.4
38250
35835
41197.8
26294
29153.5
24143.3
23873.2
21786.6
20706.8
16789.5
18308.3
12610.3
20491
15354.6
3703.09
-4096.57
-10843.6
-10047.8
-847.518
-4570.09
-19524.8
-23972
-22878.8
-25339.6
-21547.5
-32973.2
-26391.3
-16742.5
-17494.8
-13593.3
-10295
-6280.07
-11346.1
-9381.79
-3519.53
-2383.99
4482.71
-3514.64
-9252.69
-835.644
-8829.96
-14110.5
-12355.8
-8764.2
-13675.4
-7394.55
-10184.4
-9170.65
-2937.2
-1092.05
-1780.57
4099.21
5374.47
1199.09
3950.67
1410.38
-2514.99
-6816.1
-2050.62
-2652.87
-410.807
-4443.42
-3182.25
-3519.51
-2740.77
-1370.78
-11854.2
-2979.3
-3188.42
-13412.4
-10197
-5494.48
-7934.26
-5429.16
-9922.58
-18450.9
-16284.5
-13141.8
-3068.23
2076.07
-2195.21
-2616.24
85.4228
4941.89
5054.59
-2113.31
-5361.73
-5372.14
-4698.79
-2837.28
-891.938
110.98
-2030.19
-410.025
-8062.99
-9143.49
-6049.64
-3106.42
-2306.63
693.648
-2073.14
-161.801
-7538.05
-5108.89
98.921
-104.294
-8458.43
-11711.2
-14896.2
-18474.4
-25937.1
-19395.9
-9204.53
-13645.4
-10820.1
-9245.15
-12600.8
-10838.3
-3292.67
-5309.46
-3008.69
-491.903
1140.7
3649.19
2935.95
4819.5
3779.92
11144.8
13570.4
18351.8
20642.4
11705.4
10454.9
3930.44
4370.89
8261.43
28792.8
24333.5
31434.2
35924.5
32373.3
41659.4
37419.3
41009
31506.3
25015.6
20256.7
25190.8
25917.1
53433.9
69135.7
63970.4
69439.3
82466.1
79374.9
60707.6
38205.6
42870.9
40296.3
29384.3
23802.2
17426.7
11820.5
7735.04
20460.8
15401.1
21754.1
28557.6
21314.2
20904.1
15216.2
-4739.32
5386.5
10363
18431.6
25351.5
30699.5
34304.4
33048.1
20884.7
23919.9
22003.5
18395.6
9800.47
4827.42
-578.366
377.071
3550.42
-1225.9
-1878.27
217.289
-2996.3
1061.35
-2021.19
-192.163
4612.27
4450.19
3311.95
4485.6
4835.06
-2450.15
-3658.15
-7412.58
-9805.14
-1398.19
2610.22
3622.71
-2091.25
11361.6
14846.9
12639.3
28000.1
13744.6
26634.3
29733.9
34756
54085.3
58673.1
62961.2
47375
45557.6
62448.1
64860.5
41895.6
43494.3
46576.7
45181
40346.4
41921.2
36653.1
40685.1
25958
32054.7
37159
41752.4
29351.5
30260.1
30149.4
38570.2
34215
23267.5
14898.8
8889.74
8488.74
9744.5
13480.7
13717
18724.8
18382.3
10771.4
19712
36433.4
34815.9
33836.8
25568.7
21552
19752
7854.58
4217.13
6168.61
-1337.46
2716.71
1294.47
-6912.62
-11382.7
-17468.1
-6626.36
-3542.59
-2222.67
-495.626
140.079
10703.1
9941.68
11515.4
312.319
1458.28
-2454.05
-1978.36
4096.57
9682.07
6960.3
3579.47
-473.945
-2177.22
-5012.96
-10294.2
-14514.8
706.39
-5157.03
-6716.65
-5253.7
-5534.47
-7809.88
-5047.87
-7262.85
-2241.21
-4396
847.613
3335.19
1381.16
3939.13
954.494
323.649
5493.96
6478.55
17943.4
18529.8
7717.28
1740.41
1287.82
-1314.22
1995.29
-1213.02
-1741.3
8020.28
19005.6
19438
10732.9
9746.84
6766.79
6809.56
10629.4
10973.8
10524
9970.87
4379.84
3712.05
6619.94
1855.78
281.885
7289.44
7886.89
7296.3
15042.5
20193.8
13852.5
9300.36
29739.6
26169.3
32443.6
28079.3
12489.8
16901.4
16816.8
9001.16
9223.5
18713.7
33054.5
35787.2
32428.8
27806.5
35018.7
39209.1
32196.1
35332.8
21173.3
17220.7
22610.2
36006.9
21752.2
23037.2
18558.7
19022.5
15297.3
32619.6
34812.7
31805.1
37566.9
33524.3
31040.2
30083.3
25853.1
14182.7
21176.8
30770.6
30988.6
22838.5
25108.1
16217.9
21614.4
20475.1
22169.4
23099.9
17789.6
8762.3
11622.1
-601.654
1251.88
-1495.79
2203.84
-2651.29
-4346.09
-5455.67
-5615.83
-107.647
6274.06
8689.89
6364.42
4846.59
-1496.98
-1171.55
6300.72
9709.4
19039.8
14108.3
13599.4
8973.77
2081.36
-2494.93
2334.83
8717.2
10879.2
1247.63
3375.93
-5312.88
-11619.7
-3129.91
-6080.91
-3011.28
-7351.67
-3942.85
-5095
-6915.08
1266.45
1585.98
4090.19
7829.78
11071.1
13316.1
5367.74
2486.44
6721.26
7303.99
7705.06
3243.3
2461.6
1027.05
3084.81
5218.35
9529.11
5865.77
9165.6
3332.29
3389.75
1127.02
7981.05
1570.37
9583.4
10585.1
1052.83
-6450.43
-8529.03
-12603.8
-17524.4
-12747.2
-8100.2
-11481.8
-9485.21
4662.03
-2595.74
6928.58
5990.71
-704.139
689.152
-2790.56
-1826.7
-1555.48
-3502.8
887.342
935.442
-3437.7
1390.65
1212.29
3536.41
5555.16
7028.41
4616.66
-896.766
139.18
1637.27
1243.47
2473.22
8622.9
7266.21
4790.88
3807.76
872.701
-7322.74
-3087.8
-2911.07
102.986
-8012.63
-1647.42
1699.84
1199.13
4502.85
6556.36
-4580.05
2172.9
-7052.37
-10260.9
-19076.6
-2492.66
-5655.47
-5047.04
-1239.47
4120.85
4050.87
-2331.49
-5816.94
-6176.01
-2662.34
-13511.4
-2428.45
7693.69
3150.39
-1143.2
2113.97
1542.44
934.341
1935.4
5000.66
3925.41
5045.19
18431.6
14967.3
17842.6
21750.8
31558
30396.4
40171.2
36572.5
25779
20351.2
20110.4
34263.1
30046.1
33855
30708.5
33566.1
27637.1
26116.3
30789.1
22455.6
23130.1
14508.6
13060.9
32250.3
25619.1
21051.8
30939.1
39744.8
34488.5
46203.7
48620.6
50156.1
36970.3
48831.5
42738.4
52129.7
43326.3
33356.4
34154.2
32081.2
24908.8
24273.9
19930.2
11183
19076.5
25677
16584
16147.9
14018.4
-4225.73
-11640.4
-14078.4
-5525.02
-98.8676
-6349.35
-11676.8
973.7
9473.1
9567.49
25126.6
33434.9
26412.4
41328.8
55731
66126.1
60286
67126.9
46941.5
61421.8
71879.7
55049.8
57716.7
47739.2
52614.6
45315.2
70362.5
53128.5
27480
28025.4
42098.3
42226.2
36011.2
43460.8
23022.7
14172.6
8819.07
12439.1
5828.3
3665.21
2208.39
-13768
-31883.6
-26469.6
-12126.2
-6598.36
3710.42
11347.5
6837.37
5217.36
5372.73
1209.73
-1222.13
-3898.39
-577.645
-3664.68
-3681.7
-302.178
3717.1
2153.78
-72.9668
317.456
-1304.68
2872.82
3216.63
53.7047
-861.333
-3399.01
-1648.34
-16.6179
-3014.51
-5366.24
-10123.7
-11711.9
-11817.2
-6620.02
-4523.48
-1474.65
-1334.05
1339.72
5791.82
-2787.5
-2929.91
-3521.77
-9141.87
-11317
-7232.4
-5328.6
-3508.04
-4408.39
4118.26
3574.38
4187.27
6086.47
14053.1
8471.2
5167.22
-3074.04
-3991.95
-10954.3
-11421.7
-17995.9
-7227.21
-989.288
1193.97
-5643.73
-1423.66
317.952
-1782.49
-5064.51
-299.971
2915.12
-2870.06
-3920.15
-1348.44
900.506
3618.91
6067.42
7390.34
12771.7
13171.4
21820.8
18853.5
14691.9
14294.8
4547.3
17004.6
13213.6
4508.96
3652.35
10509.2
8767.63
10820.9
9084.5
3205.18
3606.36
7270.54
77.8561
-272.51
2257.34
4228.13
-3278.77
-9507.66
-5253.92
-6523.09
-10539
-8231.09
-9252.02
-8268.37
-10566.2
-4514.08
-1190.24
-2817.67
-942.815
-813.543
-1297.76
2104.07
4429.55
4383.52
1047.68
294.996
1649.94
3969.11
1975.85
9006.23
6348.93
2739.27
5530.03
9017.4
-141.048
-1706.79
749.123
5361.44
6004.3
-2852.77
759.042
-1017.94
1543.19
-896.206
1256.41
-402.38
-4865.89
-8583.87
-10073.5
-6249.01
-5817.59
-11729.6
-16509
-14394.4
-9286.89
-5134.61
-6091.86
-10056.7
-11151.1
-5935.5
-1501.5
118.192
-850.323
-5334.51
-6147
-17355.3
-9244.37
4095.13
6054.24
19582
19515.6
9690.61
7092.89
1998.99
14184
13609.7
20424.5
7189.84
18466.9
22425.4
14342.1
-1330.35
361.221
-9549.99
-3876.26
-3960.24
-2911.26
-5632.37
-4633.24
-1586.16
-5733.32
-14744.8
-16748.7
-23491.1
-24625.5
-23119.1
-15110.6
-10100.1
-9100.48
-4323.89
1487.53
4263.84
2139.12
3020.21
6381.52
1233.24
-21.0929
-2284.23
-576.123
-4848.2
452.958
-2381.38
2005.48
2010.2
7107.5
-3552.89
-879.258
-4281.14
2698.68
-1290.17
1225.47
2634.91
-1157.29
-2233.39
-2121.46
-6738.72
-9734.52
-3394.97
-10765.4
-14428.4
-7469.55
-6228.85
-16769.1
-15117.8
-13325.8
-8066.69
-7272.25
-8667.87
-9127.96
-6770.33
-7687.75
-6576.31
-1981.42
-2204.51
-5109.45
1595.55
624.088
-3796.25
3823.27
4115.49
4366.3
10392.1
4280.76
8686.32
5416.7
-1885.27
-4846.72
-7438.64
-3551.07
-8190.95
-3657.65
-2015.17
-5532.28
-4553.42
-5310.78
-10364.4
-5734.43
-10569.9
-16781.6
-23865.8
-17564.7
-20283.1
-24091.5
-26213.3
-36307.5
-27902
-39824.3
-39082.7
-29018.4
-21549
-22621.3
-22796.8
-13276.5
-2409.21
6944.91
-7207.52
-16710.9
-12535.4
-3775.64
-6350.75
-9277.32
-17665.3
-16072.6
-12335.9
-17088.9
-26882.3
-14411.9
-11971
-11953.6
-3704.56
-6085.91
-7374.4
2305.82
3353.09
2672.38
1649.6
-1854.21
-1549.89
3379.64
-6882.83
-3557.77
61.4427
-141.909
4566.1
-851.735
3856.48
2767.56
1751.64
240.584
11086
13050.9
15147
16626.3
11949.8
17383.2
7464.99
15492.6
12277.8
7917.82
3330.66
3472.36
2658.03
8981.96
7420.81
5846.59
-1169.73
818.836
7587.39
3764.7
7213.3
2650.91
-115.056
-975.943
-1597.37
-5890.17
2161.45
7895.15
-318.994
2185.32
6736.83
4623.79
8418.01
2366.96
2219.76
-288.492
7982.27
21077.9
16382.9
8858.54
17426.2
16653.3
14946
16620.1
14066
12009.5
6375.99
348.629
-2441.81
-5044.91
-3518.49
847.915
6817.41
16643.5
19908.2
27143.1
27551.8
37825.7
40362.5
36296.4
27018.7
30593.3
19537
21426.6
8393.16
6491.83
5476
6979.89
1256.45
3500.14
-3924.87
-8766.52
-5573.12
-8311.43
-11224
-17785.2
-19207
-11961.5
-12761.6
-7563.59
-4291.89
-972.02
582.547
-9432.91
-4897.07
-3511.52
-3165.49
-6723.52
-4122.03
-3372.71
-2775.21
-445.862
5625.89
5956.24
-1061.75
-3155.07
4124.86
-1521.59
5959.98
1781.82
3010.43
-18.7256
-36.2049
3382.07
228.661
2199.91
-942.157
1659.98
985.046
-897.196
-2579.94
4243.91
11489.6
16184.7
22646.6
14854.4
7503.39
15906.8
6877.49
13212.8
17722.6
21901.3
21462.7
23525.5
18871.2
11926
7714.98
17420.5
21655.1
23486.5
16361.1
22369.4
19777.2
32387
26573.4
23097
19208.6
15010.9
9349.78
6217.89
5242.68
548.699
-3034.99
229.109
441.824
-3102.55
9987.43
247.1
116.898
-88.4322
-3832.47
-15220.6
-13573.4
-15930.6
-8823.87
-6200.42
-2575.22
-5626.34
368.676
-11674.6
-7426.73
-6440.24
-7746.34
-9707.17
-15488.9
-11576.8
-7988.95
-18303.3
-9287.6
-5370.6
-6255.03
-7294.57
-12409.8
-14260.4
-7791.61
-10527.6
-10743.5
-1715.7
7829.65
7945.72
-3269.86
665.058
-475.006
-487.124
2031.18
12860.1
13729.2
7112.15
10782.9
13190.2
6302.3
3851.56
-3937.3
-7072.78
-9511.51
-9734.81
-10648.3
-3995.49
1680.9
6307.53
3748.45
10029
7161.53
6387.96
6741.95
6235.28
7182.51
4779.01
2482.42
1102.06
-2978.76
-5491.74
-4581.21
-96.2284
354.7
-452.452
2095.86
6284.38
7962.43
7989.31
5392.82
1735.83
5317.28
6906.21
8751.08
14248
13843.5
10761.9
4521.21
5052.36
8691.22
926.215
2235.61
4696.05
6899.84
5697.58
4068.4
2256.55
-2970.99
-8955.83
-6443.37
-7117.86
-3801.51
-6854
390.273
-928.9
-4696.55
2550.01
2943.57
-7085.24
-5696.65
-9616.3
-16183.6
-17595.7
-14937.4
-19652.2
-21919.4
-9976.49
-13219
1417.63
7407.81
8487.43
12148.1
8728.59
88.1164
7510.06
10324
-261.836
4335.67
7893.96
6962.97
13340.5
16853.6
14567.6
15782.6
10811.5
11799.7
12819.1
12116.7
8354.82
6609.91
11137.4
3619.18
12510.1
16168.6
12575.1
