1998.94
3469.58
5087.11
5468.87
3533.32
2844.77
2262.16
3782.13
4700.43
7338.08
1780.02
4304.44
1892.3
1318.64
2674.27
1085.61
2002.22
480.714
2202.87
1561.01
1026.65
2435.87
3890.12
3576.8
5031.85
1455.83
2236.45
2937.25
3325.45
4320.64
4673.29
2289.4
4019.98
4029.77
3807.4
6571.9
5922
2682.47
3492.98
4006.31
3596.91
2905.97
3242.34
829.71
2422.41
589.642
1807.82
1157.52
704.906
2852.41
1650.49
1059.05
3134.66
3266.95
2813.8
963.688
2516.47
1398.07
5478.04
2586.99
3310.91
5196.98
7052.02
4495.68
2753.92
1611.47
1266.54
3541.85
1449.15
5471.75
2024.43
1234.8
2558.2
2042.34
1657.03
1901.7
1301.27
1914.56
1818.44
2558.22
2014.72
2835.24
2517.31
1231.35
1479.92
4358.53
3741.32
5015.5
6477.63
2613.16
3400.92
6840.12
9140.75
2027.13
2757.61
1899.67
1437.86
2844.11
6256.17
4637.54
4371.54
6153.01
8227.2
4287.4
2841.24
4261.26
3289.04
5035.9
6787.73
3500.86
2660.54
1247.24
1676.61
2840.25
2095.51
3708.31
1412.5
2635.84
3382.82
5015.42
3274.67
3017.31
1569.25
2162.15
4726.87
4082.59
1566.77
5719.71
4553.63
3248.94
2480.18
1220.23
3949.84
1212.46
3049.12
4402.93
1899.78
1620.71
1286.88
1448.49
3489.15
618.626
592.477
533.998
2229.08
671.143
1876.09
4357.15
3160.38
3696.98
1317.32
2911.68
1820.26
1946.52
2722.72
3974.13
4121.25
3312.93
5929.2
1544.96
1714.6
2431.04
1548.34
1909.77
1050.05
1645.45
1892.53
1416.21
3864.37
5288.59
6472
4020.97
3498.35
2026.15
915.104
753.668
1485.58
3066.51
2209.08
2119.11
2187.07
4918.57
2035.97
3209.28
3831.91
2273.9
537.249
3073.03
6427.26
7403.68
9312.3
2494.46
6365.52
1754.38
4201.64
4341.23
1817.57
4517.9
2262.87
587.2
1775.88
6857.93
4616.44
5093.46
3461.69
431.76
2422.43
2157.64
864.08
1016.54
1557.7
8095.65
5754.63
5681.3
11632.2
22398.5
19845.9
15096.6
9495.35
11188.4
8954.78
4886.97
1911.89
1561.18
1815.42
1361.81
454.312
899.126
4415.33
1316.32
2620.87
3754.57
1204.43
2033.03
2125.02
3119.66
3444.06
8376.93
3749.64
5004.6
8583.27
5380.12
7845.56
7722.9
7080.67
2943.77
2285.6
3632.74
3026.93
2284.3
1208.8
1428.03
1880.43
1799.27
1650.86
7875.58
5905.28
3406.05
8360.7
7653.92
6457.96
2750.42
3388.44
1425.78
1299.26
1173.88
823.702
2841.04
4909.88
1376.15
2887.9
2784.07
2251.75
3630.38
5729.85
7723.36
9273.45
3231.48
3308.93
2026.89
4174.37
5530.53
5303.69
6339.74
3873.41
2436.75
2387.23
2521.72
2617.52
3303.86
5492.75
4054.35
7549.4
11260.1
20428.3
11990.4
9433.08
5097.25
4919.43
4434.06
6000.05
9176.08
9173.39
19549
13563
8897.52
1969.98
2580.78
720.602
1009.47
2064.37
1039.48
1212.9
4439.6
2807.5
4406.2
4902.05
5139.64
1497.35
3759.06
2017.72
4837.71
1959.37
2874.84
1085.15
1375.76
1831.8
785.612
1628.72
3273.88
3941.35
3991.32
2195.07
2117.85
651.394
1278.03
1623.04
3084.12
4283.56
3031.68
2682.8
2851.38
1251.87
2271.38
3731.7
2385.58
2092.85
6312.38
1669.42
1440.79
996.57
833.361
1992.17
2395.58
917.265
1083.45
2082.06
1385.48
2476.24
1589.84
2836.34
1906.89
1188.89
4235.84
2963.52
3659.01
3155.23
3680.9
3611.57
1554.61
1976.39
3249.7
3895.04
2375.03
4118.19
5689.91
2783.76
4918.08
10769.7
8247.58
7565.99
5483.2
7770.34
4426.36
996.671
2375.87
5240.56
4068.97
4831.78
7346.21
9247.56
9524.16
6029.96
9065.48
6257
3652.31
5018.58
4351.93
1759.27
981.284
1756.94
2665.4
2584.57
6301.8
2979.39
8098.71
4871
6505.36
9437.8
15623.1
15754.7
5749.69
5705.37
4669.66
7144.75
13033.1
13246.1
16068
11563.9
6618.62
6292.01
2571.53
4556.45
1563.84
5234.64
4031.87
6542.83
5362.79
3834.46
1891.33
1766.42
1497.87
4599.9
3353.42
1812.45
4446.51
4075.97
514.573
3025.49
2502.71
1698.09
2306.7
3602.92
3805.12
6906.58
5220.46
10148.3
8587.1
3036.28
5862.91
11960.4
8510.79
8580.56
3065
7691.52
2804.34
5223.32
5633.09
6412.92
4347.51
3706.95
1732.09
595.859
3024.75
3735.63
5574.23
3688.53
1444.54
1613.28
5198.18
2289.08
4250.02
3505.04
3746.47
3865.61
8546.81
6454.67
1759.69
1478.67
1374.77
2441.35
4725.36
2309.22
4218.71
4996.34
3752.38
2870.43
4080.26
4183.04
3808.94
1998.78
1571.83
3186.51
2831.64
1581.69
4551.23
5620.13
2884.6
7832.38
4090.83
3125.5
3085.16
2232.91
1250.9
4778.75
6910.1
6347
3368.56
2449.73
1189.41
2973.04
2946.7
1738.81
4405.5
2853.22
665.879
3617.92
5277.69
3533.6
5192.24
1535.32
6132.83
4268.37
6535.95
4298.09
7413.98
7670.05
7442.96
5739.04
3264.98
1451.05
3091.92
1817.53
2305.54
902.338
2996.4
2987.24
2159.27
1720.52
2198.08
3663.12
1445.33
1618.47
3263.88
2661.81
3028.46
3959.37
2949.15
1806.84
2614.35
3641.19
1400.3
1713.17
2752.26
1108.85
576.736
3673.62
3404.01
3758.98
2496.05
1078.88
6285.45
4671.59
5767.07
3931.55
1842.93
1172.53
2357.24
1908.63
2489.88
1240.25
1570.48
5759.96
5841.06
5624.18
3286.46
9962.49
13660
5109.07
4676.28
3615.85
7667.31
2778.26
4844.21
3267.37
4427.27
3605.79
1951.01
5295
4378.88
4234.75
1627.67
3035.74
5524.49
2540.47
2188.47
1457.21
358.636
719.482
310.851
1606.49
2874.63
878.571
956.718
1759.11
2331.14
1456.91
7066.93
7910.17
6747.58
6915.43
10183.3
13372.1
13373.2
8139.46
7764.9
2527.64
2225.27
3824.01
2536.76
4297.87
2349.22
4678.62
6445.4
6489.87
7740.16
5964.36
2272.32
3580.67
3184.8
4534.44
2884.64
4413.05
3980.3
2477.41
2061.9
8020.74
6031.16
2755.46
2709.71
5139.58
2775.19
2473.65
2503.64
3305.97
5458.12
8371.09
3384.85
3007.04
6573.89
9071.77
16872.6
19222.3
31226.3
20618.5
13656.8
8079.78
9293.18
1609.92
1969.17
2136.8
2814.06
1566.11
5911.14
3626.29
6171.08
9906.04
10918.1
8584.08
5510.78
5105.5
4443.71
3110.12
1205.79
2679.17
5781.55
6413.31
8842.12
6761.01
8241.32
10048.9
5437.2
1317.36
3485.8
771.668
2575.45
3193.31
3032.96
10499.5
5770.74
3526.75
6409.54
3647.84
4842.18
3499.53
4231.42
2350.37
789.374
864.713
1077.16
1435.98
1078.79
4131.51
3931.78
2127.17
1941.51
10676.6
7160.43
4279.74
3853.89
2099.09
5441.64
3897.36
2007.94
1582.09
6157.09
2285.12
1821.6
1148.29
3211.17
2154.59
1886.76
1112.45
2318.88
2022.76
1231.52
1669.72
1569.83
1178.71
2314.58
1170.93
3079.56
4851.1
3928.1
3917.69
1736.43
1883.96
3424.78
1671.82
3376.72
1778.9
6326.99
4111.38
4826.47
3443.87
2357.34
8077.57
4592.96
3910.29
2270.58
2185.96
1401.88
1066.18
1306.21
1203.27
240.929
1166.35
4612.19
3580.75
4881.79
3732.29
2295.27
8952.01
5919.46
5666.79
7977.34
5120.8
4370.08
1009.78
1877.75
582.717
4065.63
8202.34
4360.63
2956.53
3671.9
5037.41
2404.89
1907.65
2935.53
4422.53
5254.52
5200.06
7264.48
7759.34
10637.5
10217.5
6026.71
9546.22
11586.9
8409.69
9260.38
7535.97
5041.65
5339.89
2624.5
2128.24
2215.36
1793.72
2157.69
279.227
1783.25
3289.75
6856.84
6961.74
1143.66
1537.54
886.688
2051.93
2367.59
756.037
1049.21
3497.82
3210.24
938.306
2805.09
560.406
2993.2
1887.52
699.223
1355.94
2823.98
7170.99
2889.07
2239.73
3827.38
2698.34
3551.43
570.94
1636.78
2863.75
3009
3318.47
5095.07
3682.55
2467.14
2544.88
1903.81
2451.66
2894.53
4183.06
1387.41
1690.3
5001
2323.52
2858.3
3846.03
4054.6
1889.22
1526.02
3840.21
3743.35
1148.98
5351.45
3390.73
3615.8
5417.48
8160.28
2369.82
2997.76
1577.81
2038.04
1620.52
909.175
2914.4
2289.39
2193.48
1195.86
3542.83
1867.72
3269.24
520.708
1057.79
1508.58
1049.6
3435.65
5402.39
3718.95
2127.78
3444.43
2181.04
695.721
2891.17
5841.56
4006.75
6849.36
1003.15
1504.86
952.254
2763.87
2486.75
3366.53
4299.92
4848.9
6093.39
1996.58
1117.37
2237.19
2502.66
2930.52
3245.72
2303.04
3002.97
2479.04
1579.29
1934.85
1558.2
3278.5
2450.45
4387.33
3263.42
5275.18
5714.05
3676.95
12470
11575.9
11939.1
13573.3
18461.6
18722.1
13971.6
10707.2
5961.79
6043.13
2304.99
2952.07
750.884
1892.08
5599.11
8231.78
5926.6
5392.76
1949.86
3800.45
820.619
5793.91
2995.48
1968.37
2947.01
4275.6
2677.88
8731.07
6993.04
3463.48
4740.43
876.919
1057.44
4135.33
488.88
2203.32
1027.8
1557.21
3381.74
1619.93
1753.61
3824.25
3106.83
1932.61
4080.02
2933.23
4462.17
3936.75
5434.24
2160.69
3578.87
1438.07
1367.86
272.614
682.452
2095.89
2111.26
1522.54
2176.96
5234.37
8942.14
1080.05
2328.91
990.384
1110.32
617.86
3173.39
2190.78
5443.42
1127.59
1588.35
2441.27
2819.11
1509.09
1835.18
3197.34
1993.59
4644.97
5784.95
14508.7
13583.5
8979.47
1887.69
2423.81
1819.41
2000.9
3166.09
2520.98
2148.16
6644.66
1922.99
1770.18
5007.34
2635.53
2531.05
3318.88
5574.03
5308.66
2359.93
1869.23
2550.95
993.224
2454.68
3098.52
3708.34
3390.26
6266.05
5298.22
3035.37
6661.12
2636.48
2366.45
1488.71
4852.36
3386.45
2416.8
2268.09
1448.3
1596.87
1763.13
1163.87
874.665
1786.19
1409.75
2008.95
4056.41
7104.64
2997.38
4305.39
3323.85
3175.89
4802.87
2313.4
6476.66
5061.67
7299.85
6097.17
5438.61
3874.59
3420.36
4544.29
3920.26
2423.96
2168.34
1383.58
2562.26
2344.18
5960.56
4862.51
1440.44
1323.45
1152.1
4886.01
3074.96
1804.81
1114.74
1644.62
3623.72
4142.91
1655.99
2437.84
2529.43
4489.57
2046.59
2142.1
3664.02
2627.52
2876.56
3885.22
2495.79
3705.38
1182.95
1243.99
2221.84
1811.97
2281.55
5146.42
2477.22
2302.17
4491.15
2599
2117.06
6465.35
6505.83
3825.62
5477.98
6514.8
8167.23
5530.18
6944.94
4579.13
5001.9
1547.76
952.973
2241.26
3528.3
4575.21
4464.67
3060.79
1954.07
1760.23
2829.28
2029.71
1733.43
3834.52
3315.86
5095.15
5926.28
3343.46
2269.78
2178.58
3627.5
7651.34
9696.52
6724.13
2500.23
3902.02
7727.66
3895.36
3795.8
5218.27
5894.11
7246.12
11649.1
11201.2
7286.18
3163.13
2634.02
2132.56
4810.37
6135.02
5759.7
4199.11
4339.3
3564.52
1145.11
2566.94
924.068
1283.56
2310.69
1016.36
862.071
2176.57
3908.44
6688.79
3623.38
1466.3
999.888
835.836
1291.46
959.641
2520.3
1322.68
3159.53
3858.55
779.072
631.152
2438.27
1217.68
7950.72
10637.3
9633.25
5807.07
6146.89
6266.29
3306.22
6776.87
4647.1
10442
8990.05
4885.14
1555.6
3403.47
1915.99
1156.65
2113.52
754.984
2488.37
5058.79
3378.56
2207.77
1659.25
3396.1
4403.87
8880.18
5809.99
4178.81
3999.17
1087.8
3495.67
6134.67
7914.66
9179.92
7249.31
10567.5
6528.1
9035.22
6335.02
7447.64
4089.62
1975.42
5641.5
3561.95
4565.63
4821.23
8636.82
6849.05
3348.2
3573.79
1735.2
1391.11
787.2
3517.64
1793.84
3373.53
1646.77
164.761
2722.22
5049.5
5970.32
2734.58
4570.83
3774.12
5830.49
4491.78
2888.71
6389.61
2631.56
2699.46
736.079
3418.66
5270.88
3933.19
1912.3
1584.36
3484.73
2418.68
2739.78
3112.6
2023.32
2791.11
2390.78
1722.14
2473.28
3355.12
4963.81
5574.09
11112.3
17685.3
24497.5
25711.8
20981.2
12948.8
5637.29
6666.04
1785.14
1828.96
1707.01
2603.25
306.236
5071.67
2286.27
2869.31
2347.89
6173.45
10145.6
9606.97
10472.5
4466.72
4201.39
10427.8
10732.4
12809.4
10171.4
3571.52
2350.7
3751.24
5466
2510.16
3204.86
2857.77
3047.61
4085.32
2911.34
2310.01
1419.23
2024.37
580.207
4083.1
2322.15
2061.1
3442.69
1594.65
960.466
2511.89
918.437
2032.38
3218.26
5077.16
3976.01
3927.08
7041.57
6983.69
9882.91
7076.33
6004.79
6099.19
3539.63
2882.8
1883.62
2546.61
1279.68
940.338
1345.6
1142.15
1958.14
3287.71
3988.47
19457.1
11908.3
4433.6
3313.33
7125.07
5615.62
9071.36
8256.72
16135.6
5212.71
5370.19
3856.75
1729.24
789.594
5591.94
4031.59
1610.14
1390.91
742.51
970.485
1290.57
2335.56
1969.51
2979.1
6310.21
1489.11
1472.45
3274.39
2872.9
1301.07
3460.51
4675.34
6627.74
4438.41
3216.94
4465.04
6531.44
4926.29
5265.87
10735
9628.35
4210.99
3345.76
1713.71
1107.16
1492.44
7353.97
4758.02
4111.6
5549.85
6232.33
9210.22
11105.6
9464.23
10179.6
10982.6
9148.97
7192.77
6526.91
3553.91
2155.49
1566.13
497.274
1615.29
906.558
1963.86
1054.05
1615.32
1216.93
2023.26
1493.41
1490.56
726.194
1898.68
1926.91
2189.81
3078.84
4194.66
4783.21
3898.17
1492.92
2246.37
299.755
2276.68
2296.2
4683.39
2737.26
2139.05
1780.68
1149.8
1090.73
1773
3765.44
3738.69
1078.74
3125.78
1346.79
5771.8
7459.87
5419.93
3758.64
2523.33
1520.35
1063.5
6006.09
1248.49
2615.48
7849.41
2078.52
716.236
2739.18
710.76
5402.27
4657.41
8802.43
4704.28
1975.68
3776.31
2472.03
2409.43
7299.68
8434.53
2335.62
1686.81
2608.05
6147.6
7002.21
3470.77
3596.14
4143.37
7968.44
4412.38
3414.67
4917.38
7352.54
3881.01
2991.81
2324.96
2047.82
1803.15
895.037
1222.95
1335.77
982.516
2574.59
1409.07
521.372
2604.37
2273.86
3510.49
2086.77
3342.36
1648.17
865.003
1444.33
1616.23
1845.62
3914.36
2951.32
2502.01
4863.81
3014.77
4070.15
2670.56
3228.5
2821.94
2547.25
3108.97
4362.54
5438.5
2488.88
2827.22
905.938
3092.18
1275.65
1125.19
2068.35
6049.76
4292.53
2998.13
1905.17
367.873
1364.13
1822.1
1431.58
1718.72
4257.32
2212.19
2436.25
3041.62
2223.46
3403.82
3030.4
2889.97
3276.47
1922.75
3637.9
1933.46
3832.88
1640.24
1761.76
5127.58
4766.77
4531.94
4086.81
3521.2
1621.66
2190.51
3670.63
2650.68
6170.58
2829.76
1338.11
1130.21
3411.17
1400.41
826.946
1888.84
1568.38
1813.84
3324.86
3677.33
3760.87
7142.97
3576.3
2852.25
2939.78
2950.96
2491.32
8925.75
10677.2
4209.15
6471.25
6834.69
7503.52
5757.72
1982.62
5833.73
2887.59
4127.5
1401.73
833.3
3052.71
2263.74
2980.54
2254.16
2993.36
620.461
3177.99
1456.1
3293
3895.61
6050.45
2047.67
4606.93
2999.18
1934.81
1284.24
1943.16
750.798
358.888
1444.12
2757.51
3314.37
2328.05
2026.46
2982.19
1962.73
7528.15
13422.9
9590.17
4438.76
2410.15
3729.84
5083.81
7743.82
3586.23
1952.42
2216.22
2387.95
8347.33
5932.62
11516.2
9943
6065.69
6214.57
2942.57
1698.77
3394.88
1818.16
7430.97
2910.87
1549.08
1538.51
1118.22
563.083
1778.67
1707.45
4255.55
4663.7
5209.28
7318.42
5826.98
5303.41
2274.51
1605.24
6409.9
8486.49
9984.99
11057.6
7151.57
10235
6800.5
2744.63
4827.13
4915.01
5514.34
13301.2
17994.7
14572.9
10252
3596.68
1998.57
4748.23
3845.47
3276.73
2932.78
2010.51
2425.72
2326.88
6714.71
2441.57
2207.18
3776.83
1796.89
955.008
2298.16
7748.11
7978.79
7433.69
3687.4
1829.01
1249.61
1177.17
2341.62
4588.83
746.121
1136.03
2084.57
2059.11
1205.63
965.314
2952.42
1451.08
4786.45
2782.63
2484.39
2339.62
4182.43
7528.22
4039.73
5362.3
1469.19
2842.92
3152.75
1295.15
1448.63
2796.74
2764.17
1088.39
5617.18
6083.47
8599.73
2665.99
1562.87
603.515
1562.16
2280.75
2266.6
2513.94
1483.72
932.364
773.825
3114.93
1424.81
2103.64
3660.75
2346.4
1627.91
4393.43
2345.1
2951.58
2286.21
1653.54
3784.6
2902.01
2509.62
3206.29
3212.89
5275.64
3304
695.426
1413.21
4514.77
3954.27
1562.34
2203.58
4721.53
1663.43
1343.28
1837.23
3784.92
2719.33
4553.82
4867.71
2609.32
3080.33
3580.82
1049.31
1854.31
2747.36
2738.41
3488.7
4511
3245.38
3332.76
6036.15
4324.47
6883.56
6407.24
4757.44
1972.93
2437.25
1098.99
2825.23
3565.98
3851.78
3936.06
7442.17
5515.83
2794.69
3406.58
592.231
1801.07
2033.38
7105.86
6697.81
3387.24
1782.43
1655.38
3064.58
3826.47
2940.72
8218.85
10069.9
5699.7
992.675
567.486
986.459
1442.47
1538.54
2166.95
1254.12
917.729
3433.86
5788.93
6311.36
4211.17
4249.62
2344.59
2698.29
1391
1871.88
2545.88
3972.63
3682.63
1893.9
788.265
2332.26
830.612
900.534
584.02
3579.52
1796.04
1252.95
5868.93
3720.9
3065.28
4707.19
1967.29
3204.82
3023.54
5679.91
5770.18
6921.33
4026.36
4135.52
3321.57
5179.88
3401.69
1090.01
6410.87
2311.16
1499.96
1122.76
4223.73
3150.46
2329.73
5552.75
4742.9
4951.79
7390.61
5343.1
7343.18
5741.51
6324.78
4825.04
6865.06
6439.92
3237.59
6151.46
6506.54
3922.91
3783.89
1610.36
6398.41
5211.44
4151.11
3812.78
2458.14
1766.61
3159.15
1504.53
5723.7
6678.13
4025.46
3881.26
5220.79
2853.31
2335.46
5828.88
5507.85
6255.94
5017.48
8025.87
10156.7
10160.4
7754.36
5734.39
3662.48
1348.71
1065.59
5533.25
3187.69
3668.29
2790.94
3943.09
2633.82
8364.12
10759
8880.73
16068.2
15386.9
19282.1
10311.6
6405.94
2494.69
3404.09
2531.91
5106.15
3477.73
1145.05
1473.64
1833.17
1360.74
1597.73
1321.58
3476.78
1001.03
2010.95
1444.32
469.533
944.717
568.409
1980
2756.66
2369.58
1851.7
2859.42
2724.36
3015.68
2218.51
3237.93
2794.99
1127.38
4785.77
3656.98
5493.09
4867.29
4145.99
3059.25
3812.65
11498.2
8569.65
3895.4
2018.59
5103.19
7281.15
5131.95
3458.87
4366.62
2429.31
1814.86
951.466
3180.24
2207.35
3061.81
1414.06
3531.97
530.654
1966.59
4774.9
7471.46
8761.15
8332.97
10836.3
7695.22
10339.2
9808.12
7710.84
9172.88
10632.8
10276
9011.34
13173.2
6423.37
1867.77
1043.87
2862.05
3173.02
1617.16
6390.22
2075.81
3626.08
2842.29
1331.56
795.839
2288.66
3144.53
1885.88
1575.16
1035.39
3465.6
2002.13
1609.92
1599.09
1573.77
1653.57
2861.6
1634.55
4238.62
2206.79
4564.11
3250.29
5251.72
5486.64
4207.87
7231.09
10066
3654.72
5473.66
1776.84
1820.35
2484.8
1028.9
1264.6
4496.3
5549.45
11977.8
4062.11
10063.1
4670.35
4551.12
5534.67
3991.32
3023.2
1952.43
2761.44
3921.9
4426.22
3244.76
1971.42
2222.86
3409.66
4505.62
2310.7
4183.23
3082.72
1696.93
1473.79
1656.67
6918.02
8311.55
2969.06
1801.77
2647.41
4858.8
3347.61
4510.22
4630.78
10083.5
9425.26
6373.28
7371.42
8858.39
9627.38
9512.27
15451.3
9257.35
5252.39
4366.7
3400.91
2908.89
1690.3
1365.99
7302.84
937.76
4970.51
2843.87
3165.96
2008.26
2493.83
1716.63
3931.95
2219.37
1275.73
3155.88
2254.1
3581.47
1344.79
3926.41
4060.7
2158.65
830.138
732.299
4413.53
9301.77
7079.58
5244.6
10994.8
4676.14
3519.33
5154.74
1808.68
1400.62
1218.29
2310.97
4738.86
8743.14
6006.09
5377.51
3761.21
3456.99
665.489
2520.18
5017.84
3845.69
10347.3
4810.65
660.009
616.7
400.474
2024.55
1685.37
4601.41
6313.78
2851.57
1705.61
3253.02
2199.28
1983.32
1837.91
3025.78
2848.39
1778.65
3804.83
4706.63
4425.88
2615.08
2144.25
4698.56
4046.61
2669.14
3719.57
5182.87
10857.8
4825.68
1407.57
1118.84
932.525
3255.22
3768.88
4929.21
2502.7
4999.56
2600.58
1675.54
2006.33
1721.42
1516.11
1111.1
2024.74
1863.87
1950.74
1021.88
3411.26
4014.28
4666.66
2392.43
1609.88
2160.46
1294.22
1860.67
2230.67
1674.67
2544.86
2692.25
2463.16
2724.67
1333.57
3104.78
2118.82
2566.02
3199.03
1696.84
3139.83
6384.62
7540.11
5284.84
1080.64
2279.1
1771.94
2395.48
2135.43
2901.43
3664.14
1070.68
2060.72
1867.38
1551.96
1479.07
1425.29
1108.92
2372.74
2137.34
3858.16
5033.74
5394.78
5427.31
4105.78
2553.01
4698.06
4041.31
1564.39
11010.4
6449.01
5000.6
7442.33
2715.98
7393.14
6425.06
7431.83
6931.18
6684.51
3332.82
1634.26
5140.9
3874.79
1045.96
1261.84
1159.18
2712.95
2536.16
4124.32
1181.88
2388.65
5080.22
3675.5
1970.12
461.328
1258.68
2774.95
2836.01
2302.93
1847.87
5401.85
2825.87
3921.25
9279.06
12618.4
5190.86
7429.42
5978.15
5385.74
3687.56
1048.59
3887.36
3344.89
2507.98
1123.89
3500.08
4802.24
4947.23
2870.68
4087.58
3948.79
7380.75
4089
4120.12
898.061
2020.02
1157.95
2392.03
775.226
1430.3
2375.5
4126.4
11862.8
10983.5
7324.61
7233.79
5593.19
4545.98
2644.98
1305.21
4261.33
4931.13
2253.76
1764.47
4004.52
2565.05
1269.49
4293.95
3489.13
6407.94
6626.56
2881.37
2389.54
551.192
2095.72
2427.83
2135.97
2624.37
816.099
952.598
1744.68
6039.38
6235.53
4536.36
3175.37
3943.51
3459.96
5205.43
1553.19
1725.49
2214.22
1894.29
4572.1
7804.6
5034.17
2467.72
3469.11
420.16
2573
2623.44
840.689
607.36
1888.84
2675.78
2439.67
5157.61
2383.25
925.419
867.903
1186.48
2790.2
3980.2
625.025
797.819
542.685
2735.68
2448.34
6841.21
4948.6
3119.41
4874.14
6319.91
5652.71
8570.06
11200.8
11518.8
6073.44
2916.42
2608.64
4003.89
2533.34
3645.23
1799.17
3927.56
3223.96
3828.31
3977.99
3616.6
1489.49
4074.41
6670.83
6223.37
5505.09
6650.53
6782.57
9115.62
3886.05
1626.24
3150.17
6250.61
20479.2
15036.5
12514.7
13386.5
6421.07
5825.88
7935.93
12621.8
21786.4
13795.4
10024
3268.3
9311.08
9263.09
4266.84
15264.4
15413.3
8250.86
2502.68
2198.88
2144.73
6667.29
2631.2
6682.77
6644.77
2859.41
2574.46
1516.17
461.349
435.941
845.296
1558.3
1478.24
1502.9
1791.51
1940.46
3122.98
6427.56
10841.6
6322.96
6338.22
7512.12
4545.16
2051.03
2270
916.245
656.008
3524.88
4763.12
4390.01
4261.1
1599.41
3177.44
1180.49
1050.39
2436.17
1082.81
3667.71
6346.92
2771.93
5496.96
3772.27
4245.69
3307.37
628.545
2460.66
5792.05
4902.78
4353.59
2864.82
1224.07
607.177
2854.96
3221.45
1077.56
2704.05
4410.62
6824.48
3441.07
425.889
2376.55
2478.94
1206.96
1336.74
2235.91
2649.01
2512.67
2731.23
2732.41
763.166
659.594
1259.52
2823.24
3858.64
5274.53
4668.43
8729.17
7981.88
6189.65
5713.92
7487.19
5712.5
7727.8
6844.36
7045.53
3686.87
6149.39
4969.9
2019.11
3737.94
5168.76
3333.73
3601.78
2307.15
2613.66
3317.74
3761.31
2145.21
846.718
3439.32
1058.34
2628.41
5920.39
7188.4
4465.68
4612.07
6597.25
8747.05
5990.71
4589.36
1990.04
1903.83
676.974
1041.32
1039.98
2354.29
4544.77
1352.75
3632.7
3693.24
1816.68
4476.3
2691.87
3168.62
4573.54
8229.44
4018.34
1813.53
3143.59
817.538
910.115
1849.16
3470.35
1125.29
1832.04
1253.52
2890.89
2695.79
1164.99
2771.54
2282.31
2914.12
2397.79
3869.8
6680.08
3474.19
3554.03
3803.9
2820.48
1681.51
1815.06
799.833
3952.49
1874.72
3800.74
2991.2
6066.78
1557.07
2580.88
2716.01
2963.03
4099.17
1428.11
2562.56
1201.56
1568.83
1123.46
3550.59
6273.13
6195.38
1426.46
2322.77
2584.54
6408.51
5686.02
7148.88
6438.87
7223.8
15411.9
1593.51
8228.67
2977.26
3864.4
6476.71
10615.4
2601.75
2528.49
2733.99
3760.49
2452.01
4799.77
6968.88
3712.42
3847.96
3521.01
1762.26
2645.16
1787.48
3870.44
1401.69
997.962
581.943
4212.73
5078.24
6149.72
1265.7
896.885
3807.43
3960.19
3863.04
2418.74
1500.25
2782.22
2117.66
2759.46
2107.89
3536.02
2113.88
2577.14
2359.38
1289.87
1308.78
1015.76
3546.66
3069.37
2441.62
1116.81
6447.12
6216.4
6642.35
3449.56
5147.37
4759.66
4807.87
3391.19
8055.46
6655.89
8591.09
9768.26
7079.68
2587.1
5201.43
6283.85
3390.25
5440.07
7745.39
6946.73
8741
5821.32
10836.1
3493.94
3188.25
3477.36
7621.52
4452.64
3406.54
465.683
1005.66
2129.26
3238.55
5842.23
4394.54
2799.45
1026.85
2648.24
2204.98
1180.92
3008.41
3476.78
2454.86
3032.53
2607.41
773.934
5009.05
1718.72
2387.77
2050.54
1747.79
2325.13
593.979
1476.88
1402.65
1807.61
3160.45
2097.56
2341.19
1521.72
301.348
673.117
1498.67
4153.11
2377.88
3062.11
2466.62
1341.43
1056.01
2115.87
3227.9
3204.21
4842.43
5923.63
4813.7
3169.21
4062.03
3450.98
6185.34
7555.23
1078.9
1641.68
5518.11
6044.25
7854.36
2635.09
2232.21
4897.94
2490.96
3771.69
4806.63
4610.61
5799.01
4925.72
2402.75
922.599
2595.66
3083.92
5175.28
5898.07
6575.53
6465.83
6481.47
3287.32
2290.87
2433.97
2268.16
3070.66
3884.09
3388.64
3069.41
4556.71
2659.51
3467.3
4172.17
1242.37
1951.8
2592.72
4551.01
2733.26
2085.71
1551.3
2190.15
3222.96
1686.84
6008.21
1352.39
2660.58
2759.67
2034.88
1006.28
799.92
1231.14
1407.14
2002.31
724.777
3539.98
3595.96
1942.84
1009.97
1283.57
2145.24
1279.68
2924.54
4681.65
1541.58
1704.05
5334.54
6425.06
10311.5
6709.18
3680.32
1698.88
1375.33
964.192
1705.42
2176.38
7601.8
13628.7
5702.1
8554.09
9823.64
9597.63
11808.5
9501
8243.22
9882.91
13614.5
9431.02
7305.82
3277.35
2974.57
4865.32
4830.98
4752.89
2545.4
6732.65
3155.91
5419.04
2561.69
3639.9
6891.69
2670.37
5501.86
645.811
3556.82
3115.75
1826.7
2074.96
3520.95
1695.07
4058.68
1154.18
4172.86
2493.79
3644.8
1925.88
4672.41
5633.85
4502.99
1466.91
4399.89
7324.46
4676.34
4085.81
3505.43
2114.83
3312.73
1544.1
2647.91
1592.12
2825.62
3435.15
3947.58
3309.69
3945.2
2315.22
1881.58
3823.63
9952.36
9736.41
15679.3
17577.8
12457.1
12286.9
5569.08
6004.75
4250.49
2744.85
5101.43
6124.84
7859.38
6896.01
6381.78
5159.05
8648.98
8190.61
9575.58
9619.19
3643.61
2774.63
3196.85
1455.64
705.891
966.766
1408.74
654.183
1103.65
2498.47
2226.69
6385.06
3470.72
3597.94
2145.6
5219.75
7671.67
2970.75
1805.32
3825.68
2834.11
2606.68
2878.69
5830.49
3601.4
7046.28
3222.57
3191.86
6793.08
3553.74
2264.85
4682.29
4129.81
1544.02
1858.31
1690.23
1291.68
2937.72
2116.39
1891.3
1674.75
2077.81
2980.4
6877.85
2552.57
9636.14
5939.51
4755.65
3611.79
1090.59
1879.36
1609.44
3585.5
1541.8
2565.85
1241.13
2065.9
3391.7
4495.09
1254.86
1221.92
2731.48
3092.09
1564.4
1399.63
1604.82
6498.8
3618.65
7738.06
12776.1
8527.12
4709.61
5773.42
1583.11
3921.98
1026.39
1897.14
1437.89
2067.54
2891.49
1363.25
3040.98
2168.51
1246.13
2627.41
1991.78
1431.84
4741.2
2801.95
2236.1
3358.25
3979.56
3731.97
6814.23
8331.2
7841.51
8704.71
17096.9
11450.5
5433.81
2953.26
3378.1
2526.51
3333.75
2652.33
1722.75
2216.6
2117.53
1299.34
509.063
1666.52
3367.62
4674.86
2885.4
3234.08
1901.04
4601.24
1535.72
1859.81
2862.34
1692.91
3403.76
919.147
1298.75
3644.62
2993.03
1284.14
3160.7
813.384
2606.41
1610.16
1598.55
3420.7
2768.44
1672.71
3855.59
7199
4851.67
5875.32
12020.5
12898.4
9379.24
9913.29
19920.5
17523.9
15494.6
8518.97
5820.22
6865.89
2417.89
1784.16
2246.85
959.611
1263.87
2091.81
2459.22
1790.05
2831.83
1080.6
4269.91
664.354
2608.11
415.104
786.261
887.57
1044.9
1275.61
3181.98
1851.29
2945.51
2830.41
1238.63
3608.24
4085.98
5025.95
3317.81
2178.64
4573.77
3888.8
1298.44
2845.16
4629.93
5070.27
1739.9
638.541
2238.08
4084.86
1196.23
6528.74
8075.92
3569.27
5534.66
8192.14
6981.25
2156.65
2241
1840.41
1802.49
1027.31
4616.48
4096.95
5980.17
6783.84
3735.08
4495.24
1944.08
1237.38
4166.56
4808.29
3425.84
4286.41
7937.51
3117.07
1430.77
2537.58
9748.05
4923.3
2346.63
2971.85
966.101
3068.7
2331.26
1025.17
1787.68
2857.48
1782.73
2189.46
2772.99
4147.49
4649.9
17083.3
9702.51
6041.04
5045.25
4535.4
9164.28
5140.2
1553.5
5332.97
5109.23
7203
3729.17
3465.91
4557.22
7489.39
9257.76
5325.91
2485.13
3673.93
4441.49
2733.73
6868.58
4561.25
4694.51
2789.02
714.479
3444.92
1844.01
2622.12
3442.05
3681.17
1651.98
2545.79
1605.14
1640.11
1019.35
2384.12
1877.93
2176.92
2475.79
1796.27
1345.06
3487.52
2013.67
3807.99
2996.58
3562.38
5834.4
8237.25
5464.34
10897.8
9814.29
11062.3
14846.3
11578.7
4861.36
9818.92
4303.23
9210.87
9249.19
9093.63
5180.2
5041.51
6915.78
5717.49
5640.09
6452.03
10869.4
6210.6
1793.2
3766.13
2932.84
3130.27
1115.05
1878.5
885.854
1590.85
4931.31
2847.64
1210.21
1760.92
3485.04
1763.79
5433.13
4428.04
2904.76
3403.31
2508.42
1770
3200.99
2014.07
5224.01
2186.66
3908.51
5174.17
2703.43
3648.29
1370.32
1774.05
4489.19
5007.59
4271.57
6722.6
6206.91
6222.41
3334.24
3489.07
3675.83
1560.47
2114.16
4705.19
1290.24
1933.69
1075.21
997.392
1308.8
3609.1
1065
1585.02
1766.11
1878.88
2190.46
2212.74
5142.26
4125.37
2847.13
3887.73
4270.26
3419.77
1858.25
2847.4
2292.29
2871.74
2477.25
1759.06
2975.09
4267.5
4911.9
3096.45
4128.13
1976.63
1774.7
1318.75
2061.78
2303.21
6184.42
4673.34
1317.88
955.08
3246.88
3590.67
4042.46
4236.05
2936.96
4591
3690.2
4410.71
7502.62
6607.3
1790.47
2333.68
782.022
1021.89
2984.38
3150.48
2953.14
1358.14
921.682
2267
1065.88
2142.35
1832.24
2375.73
2606.74
1361.42
2449.7
2558.38
3993.09
1968.11
3420.68
2799.02
4225.04
3078.71
2568.22
1533.71
2272.35
4863.62
2035.2
1084.4
1839.64
1039.76
1593.31
884.237
3783.27
1883.71
4461.54
2661.97
2216.11
3119.05
943.202
1671.85
1794.21
4222.85
3274.29
921.93
2346.11
2160.9
4362.07
3474.39
5405.17
4285.13
2648.01
1885.35
4648.6
4329.34
3086.86
1636.48
3355.86
5305.26
4241.16
3242.51
1106.39
1753.98
1151.66
1469.57
4299.78
4932.53
10713.6
14225.4
4146.34
1371.72
3883.4
2276.88
1706.12
2350.94
1929.37
2235.97
1865.36
1096.75
643.869
530.163
2892.84
7216.24
7173.08
11256.8
8186.05
8913.15
3224.36
3726.58
4845.97
3199.04
4347.04
1564.19
4442.48
3027.24
4343.99
2757.63
2925.11
2437.75
1455.48
1597.29
812.853
1188.77
453.553
1419.19
2673.05
1262.73
3776.28
1581.3
2446.08
889.266
1370.53
4171.55
4492.16
3889.32
760.003
2484.1
2330.64
2200.19
4326.99
2021.79
2270.34
3969.66
2284.52
3104.43
2725.16
2413.14
1982.86
2762.74
4712.1
3619.73
3198.69
2703.99
2529.45
6482.21
3089.48
9626.69
5640.89
2695.51
5457.92
7420.7
5517.35
3919.38
7888.78
3442.19
2072.49
1030.02
1823.44
2149.73
3479.86
3739.99
1912.28
2037.02
1194.22
2169.29
4666.98
8823.5
13472
16065.1
14204.2
14655.3
15106.4
9255.39
3634.84
4492.83
5859.13
4524.4
2652.07
279.991
1696.32
1055.27
3841.69
2399.37
1600.02
2847.19
2375.77
5693.01
10896.1
12526.8
16415.7
10464.4
10972.4
11731
10613.3
14659.7
16081.1
16253.7
9346.73
10085.3
2514.22
1237.13
3768.19
1776.96
1237.48
2391.26
5808.01
1405.95
1829.1
2580.61
9140.05
4468.11
2680.16
2561.41
1125.85
2687.89
4260.78
3123.4
4260.81
9202.7
8089.05
3442.69
2132.48
4676.95
1860.66
4006.72
3634.02
1903.68
1239.43
1462.87
1951.28
4372.35
3942.34
2327.97
923.086
2604.17
2599.14
1463.41
1001.11
602.441
7917.76
6875.98
5834.52
5645.87
2895.92
1929.76
2770
1857.42
1366.44
1811.09
1880.99
4083.41
6309.02
3025.33
8802.24
13401.8
13209.5
6295.89
3531.1
3059.45
872.768
3009.29
2755.96
3857.54
1295.24
1875.71
1854.16
2460.64
2223.56
1762.82
2687.93
3526.83
4189.34
5395.9
1897.97
3606.59
1970.09
1800.02
948.626
1858.05
3584.55
1975.81
650.943
2872.54
2455.5
1397.73
1596.66
2002.9
4541.51
2972.1
5115.87
4212.66
7665.43
7037.64
8351.82
7830.58
7653.92
8085.71
15424.7
17562
11878.1
7611.55
7294.39
12071.2
7194.21
10789.1
6837.25
10645.1
7463.49
8064.37
3623.06
1543.98
2309.22
1459.58
2903.15
2059.05
1792.82
3298.96
1684.45
3852.71
1145.63
1897.48
5280.42
2708.22
1996.23
5498.3
1642.58
3990.93
1637.05
4866.72
4178.2
3487.68
2665.97
2253.58
2766.18
3714.52
2366.66
3452.58
4528.53
1460.55
905.004
1922.3
1640.31
2211.18
3003.75
4438.99
2537.11
2121.49
3740.41
1054.96
2312.37
2878.66
3340.63
6149.14
4936.77
1646.49
2221.81
581.779
2225.63
2770.42
2656.06
1278.35
1011.4
2480.26
3527.2
5880.18
9125.46
4133.56
6519.12
3187.88
1290.9
2763.3
1030.27
4186.2
4004.24
5078.51
3320.8
2340.19
6048.88
3391.96
5541.3
5773.96
2174.08
3505.83
2249.25
3886.5
4465.46
3739.33
2045
2183.59
4708.98
7542.81
7108.77
6971.63
6961.26
7548.05
8894.86
2285.42
7584.42
15675
16758.9
7780.5
19703.8
12818.9
4148.83
10187.9
11425.2
12345.4
7004.83
6598.64
14529.3
12290.3
8942.36
6860.08
6088.39
1711.33
4523.74
6650.2
8783.2
4235.98
6603.92
8502.57
2247.26
2268.46
1113.27
616.318
1763.07
2107.46
3451.43
5101.93
3059.62
3402.13
1248.77
474.144
1314.11
3495.06
1968.19
4256.55
2670.61
3014.03
2857.94
5070.97
8394.12
8243.36
5767.42
2149.04
1884.18
1668.01
1601.67
3244.54
4104.88
6733.66
4116.84
4387.85
7925.34
2119.35
3066.54
1759.2
992.71
2402.57
4235.22
2227.94
1182.96
6464.22
5031.89
2910.36
1853.54
4096.86
3855.43
1430.96
1737.87
1256.8
774.34
2559.31
3978.68
5530.77
4582.03
1453.77
2519.96
2088.02
1124.67
500.668
1277.26
1419.87
1567.6
2062.66
1718.17
4990.33
9589.04
8076.91
9643.86
2083.61
2187.98
1377.03
5545.41
4175.2
3942.75
3680.75
1483.94
2492.05
813.349
2408.39
5362.72
3173.6
2588.18
1349.47
1947.78
4316.53
2210.03
2040.91
238.101
2727.96
3925.1
1764.49
1756.75
3801.97
3538.55
2580.15
2407.31
8443.48
9994.88
8437.81
13404
11901.2
7144.46
9090.51
13214.2
18697.9
14455.7
4635.09
2151.98
3850.53
10115.4
6553.97
6090.48
4071.6
2999.62
3413.71
775.398
1969.62
3198.78
3994.48
4563.27
4632.05
3864.76
5753.64
5633.51
874.603
2920.75
1173.04
2106.84
10462.2
10225.7
8803.77
6914.02
7972.65
6283.26
4831.38
2456.79
5787.5
6056.22
7306
9069.24
7468.95
4530.82
6304.43
3727.59
3590.72
2899.01
4692.67
4876.65
3356.79
889.559
1675.66
4286.13
5351.38
5394.5
3224.17
6554.41
5673.18
2367.43
4098.37
3999.37
2656.71
3827.61
3076.69
2638.85
1558.85
2202.56
6306.32
3692.55
4871.09
4809.32
4859.15
6359.44
6622.15
2479.01
1594.43
4621.03
6259.99
3280.99
3130.81
7101.02
3510.81
8368.71
2947.08
7960.65
5157.14
1797.42
2220.56
1588.68
3886.65
3888.2
3803.97
2193.24
1428.22
1813.17
2239.28
3131.63
5701.58
3302.34
3484.81
2634.01
957.358
5843.26
6891.1
3663.9
5713.39
5411.69
2341.07
2392.74
2111.1
2883.22
3289.18
2785.85
3424.64
563.412
1830.15
3365.23
1028.94
2683.82
3387.98
2164.9
3181.24
3701.34
3127.82
1650.46
3263.24
1004.43
1739.94
2457.64
1067.47
3736.47
3506.07
1655.34
5104.96
9774.66
5462.45
4116.69
5223.74
578.605
3151.27
2061.36
1776.88
2308.21
3341.59
1721.05
1855.86
5169.99
5777.62
10622
9031.59
6647.56
16502.4
13568.4
6353.34
10031.9
6627.84
2607.22
1593.99
1375.13
3003.15
2999.34
2396.84
1925.31
1399.2
1710.38
7562.35
6360.45
2322.34
1747.43
3734.66
2889.64
2790.73
5396.19
5047.54
1588.32
1687.88
4509.43
1541.72
756.232
1247.37
3022.04
1861.64
742.212
2008.23
2470.99
4996
4847.11
7391.96
5855.8
3887.94
2802.99
3302.62
2794.79
3797.22
3934.69
4674.87
3054.05
4867.55
3548.48
1421.03
1639.82
3297.6
1975.79
2637.19
1534.34
1091.66
1122.97
1328.41
1370.66
1569.67
1864.68
1376.56
2751.83
1043
2823.61
4031.5
800.022
2391.28
6016.36
3980.5
6445.85
9025.24
13712
15501.3
10078.7
9143.28
2286.93
3636.04
8778.11
4803.3
1823.59
1562.61
1833.26
3706.01
6273.92
2078.1
953.451
3044.56
2062.16
2593.5
1417.18
1437.1
4834.78
4615.17
3060.32
2594.01
3608.8
3254.32
1150.04
1716.76
402.758
1432.77
4333.39
6765.21
3132.78
5234.31
9760.1
6378.25
13903
18609.6
11592.9
6499.29
4294.09
9186.65
9372.31
4311.71
5221.84
4406.38
2718.35
6678.36
4193.15
3340.73
3664.69
1456.3
570.023
2275.05
1778.83
711.366
2317.49
2762.52
959.529
1869.7
3820.23
3142.23
7771.71
2184.71
1759.05
2357.6
3939.99
5388.7
12569.8
12601.8
6423.7
7157.82
8193.78
16555.3
12564.8
8328.22
7588.54
3389.81
6918.68
3045.98
6290.89
2557.47
1698.8
1264.76
2068.95
2835.76
1968.37
2119.22
1361.33
621.517
1167.83
2624.8
2717.12
1651.71
1723.6
2928.96
894.591
1039.61
1229.99
2615.88
1439.47
3666.26
1711.98
2614.52
2292.68
1627.88
1801.92
1373.69
1316.42
2717.29
1939.59
1884.62
851.647
1894.9
4125.12
3048.7
2750.68
3491.78
1815.13
1439.53
3460.26
2109.34
3325.44
3917.4
10490.6
10432.1
13103.3
21461.6
10476.6
2395.76
1665.74
3863.02
1286.62
2824.6
5191.01
7152.35
8485.59
5300.54
3736.82
8240.12
6680.21
7024.86
5849.66
8069.19
10675.6
9373.78
7485.06
6086.43
2199.26
1211.69
2331.76
1828.63
2536.64
4421.31
6354.44
5321.11
3560.44
1903.2
2779.29
6374.95
6539.05
4704.64
4897.33
4027.68
3659.21
1679.12
3572.81
4243.48
7282.28
3395.71
1713.09
2966.42
1891.26
5076.58
5296.72
2621.27
2663.42
2544.92
4503.44
3499.01
1829.27
5043.76
4689.93
5475.64
3629.18
1766.41
1657.81
1782.46
2521.87
1597.18
3762.29
2248.45
1485.09
1355.5
1695.96
1150.77
2636.44
1665.72
1858.91
1948.65
3156.66
8071.71
8453
4127.62
3932.87
6505.32
3089.84
2488.2
2925.63
2225.44
2308.46
11278.2
10379.9
7799.46
8753.67
4002
3626.71
2845
3097.32
640.639
3725.78
2073.04
3990.14
2449.55
1152.42
717.311
5360.8
4713.61
2109.89
950.737
2694.04
1030.83
868.545
1236.14
2724.52
1347.1
1665.32
1813.32
6369.59
3029.24
7488.06
13550
10606.5
9827.56
5313.19
9493.19
8303.19
13131.7
10918.2
6700.01
3954.18
5752.27
8155.4
4879.4
6018.65
6909.11
9571.09
6952.26
3454.6
4851.07
3355.75
1052.98
1431.84
899.163
698.364
3858.94
6394.06
5747.55
7969.28
12192.8
12114.3
12341.2
8877.35
8522.4
1378.18
883.331
6424.19
5685.34
10711.1
8440.99
8163.91
2256.83
5457.9
14883.5
6911.99
2667.85
2186.34
3515.72
5273.67
5049.65
1843.93
5610.02
3123.48
2395.03
3991.31
6886.67
9073.89
8006.52
1802.38
3703.44
4350.32
630.337
2086.83
3300.84
1693.47
4237.65
3222.44
1838.13
2625.61
2617.11
3288.15
4575.39
6818.96
3123.31
2451.67
2685.05
2990.96
2918.1
1067.08
1882.64
1361.31
1185.48
363.686
4806.84
4215.87
2261.24
2625.79
1958.96
1399.85
4736.26
5799.84
6240.53
7638.28
4760.84
2938.13
1937.97
967.64
812.203
3727.47
4974.8
9805.01
3847.51
2717.52
2007.36
1727.6
3916.32
3114.01
2028.33
935.866
2569.93
1583.73
8406.23
11711.7
10186.9
9345.14
10573.1
16324.1
21071.8
21028.2
17263.9
10524.8
9535.28
10535.7
6401.84
2239.32
4204.42
7109.57
1057.19
1473.35
2165.64
5374.07
12644.8
12280.9
10540.6
5379.97
3754.77
8064.23
8170.54
11204.7
8596.73
6691.56
4003.03
10176.8
5834.83
4322.23
3379.27
2752.7
5153.87
5102.32
7639.74
7587.51
7110.03
8290.02
5894.18
5571.57
8800.48
8406.36
5323.79
4463.95
3080.42
2696.39
2256.08
5368.01
2040.64
3507.34
3407.89
4691.91
9191.43
3083.4
3116.58
2446.72
2263.97
3662.36
6624.44
7786.95
6342.67
7552.67
4161.08
3438.85
2251.55
1636.84
2932.24
1484.77
1410.75
1475.59
3615.64
5348.18
2939.56
2592.23
1541.44
1461.59
2659.1
1049.28
1571.55
3595.06
7520.02
4420.55
3059.88
1736.42
932.714
1271.06
2986.81
5207.97
3097.55
1042.75
2128.66
1421.67
6152.33
3338.78
4232.08
2742.41
3040.47
5489.61
4655.33
9672.67
10084.2
8638.02
6786.47
9254.24
10823.3
7071.29
5094.33
4767.28
4123.87
4421.65
7345.78
9914.96
8242.22
4934.33
2384.13
3096.26
3658.03
4883.23
1921.78
3661.38
6516.2
5981.44
5596.71
3345.3
1985.89
1198.6
2292.86
1452.8
1956.91
2097.4
4447.45
1879.17
3694.32
7208.55
7789.63
7310.05
17268.7
20023.8
13359
9758.23
14459.4
10058.3
4347.04
3131.15
5074.87
4027.95
4847.34
6039.74
3565.27
2387.58
3576.5
4540.07
2288.52
843.806
3314.57
2559.52
3110.47
6175.33
4037.26
5249.91
8830.3
4656.39
7426.46
1799.98
1384.07
2018.86
1829.02
2697.9
3085.24
9521.7
3908.3
1811.53
682.827
2316.42
2995.98
2446.12
4181.83
1689.64
4680.92
9195.09
10677.6
12950.5
13672.4
14748
12224.7
26050.6
15991.5
14274.9
10564.6
8612.68
7234.73
6579.56
8634.93
5987.4
5676.24
6376.7
7754.57
5353.41
5796.17
4943.36
4987.43
3359.71
2664.39
1240.3
3463.46
6255.53
3019.6
4140.29
2345.69
3231.96
1202.57
4333.99
1468.28
1635.81
4540.79
6949.02
11132.4
10566.1
8006.7
13065.5
4874.15
11555.2
8546.52
11069.8
15999.5
11591
10970.8
12037.5
12345.5
8931.8
6231.58
9627.19
5162.45
2457.01
5153.74
3289.15
3738.24
4618.07
2226.89
3475.77
4705.15
8512.72
9281.4
3972.04
1910.59
2871.08
2889.64
3381.14
2422.21
3583.5
1571.1
2607.63
2696.35
2303.31
4026.67
585.984
1555.7
1060.67
1939.35
5591.92
2366.62
2672.18
2187.03
3164.38
2040.75
3094.93
2946.73
5749.94
4204.26
4482.99
2828.23
2248.44
4775.63
4346.61
8221.18
15075
9405.83
5776.2
3383.74
7729.73
4956.02
5679.18
6128.64
9011.68
9951.2
7972.68
6983.6
9673.85
10356.4
3950.94
4654.61
4759.48
914.371
3179.82
4133.65
7727.9
6012.89
6891.9
4208.17
1958.21
1916.57
2987.46
1156.03
980.734
2076.57
1614.17
855.754
4422.34
1098.73
1253.79
2414.36
1887.79
3125.08
4253.92
2295.24
4277.68
3764.92
3785.4
10222.8
5302.87
1747.07
2887.95
2249.79
2090.46
2347.6
2010.72
739.192
895.571
2000.67
4893.34
3332.01
3958.99
7720.26
9139.66
8716.76
14985.4
15238.7
14106.8
9951.78
8111.76
15263.7
8629.56
5613.06
5805.61
3850.51
4256.98
3537.41
5237.49
1482.85
5795.94
5197.51
3639.21
1667.95
1082.89
4374.97
8186.3
2002.19
773.193
1851.62
1836.82
4107.18
5054.89
5738.03
2964.57
4620.26
5973.11
10876.6
6475.2
6212.71
5009.31
2744.77
708.724
2187.04
2187.8
2119.9
5703.93
5062.43
5003.69
2738.93
3249.41
4389.01
6122.18
7464.56
4944.52
2649.23
3757.25
4165
4623.68
1279.49
1777
2699.64
3108.06
3206.39
1595.82
1762.66
1008.2
1264.41
984.075
1657.69
2214.35
1531.84
1214.28
1580.79
6081.52
7802.77
5781.37
4570.42
8003.09
4384.9
6311.33
2458.74
2831.86
1843.3
2422.03
4744.06
2344.2
3673.18
2062.37
4511.02
2516.18
3000.14
1735.9
2217.59
2929.43
4271.41
2598.48
2774.34
1069.47
2112.45
1510.71
1611.84
3632.62
2056.17
4791.75
7512.53
9889.36
2746.13
5908.1
8118.02
9225.03
5298.5
6440.57
9435.36
6731.86
9080.54
8605.44
10280.7
12448.5
5717.23
4280.8
10137.6
7657.44
4201.62
1151.46
2226.65
2079.2
531.778
2317.06
2843.49
1890.14
683.174
2231.88
3192.91
1937.84
3734.3
7027.32
3736.92
4022.1
1898.39
1853.42
1447.12
3695.74
1979.07
758.027
782.594
3624.06
3439.39
2430.66
4502.42
4403.83
6808.97
5004.65
9604.69
6032.01
5531.73
3196.71
1966.44
2665.43
3081.09
1940.74
1244.4
1335.41
2549.09
2460.54
1325.17
977.76
1302.76
857.374
2334.48
2281.74
3679.36
4960.47
6261.38
5304.47
5496.23
5238.42
5287.77
3798.12
7774.12
5539.15
3506.19
2854.22
5984.49
3689.66
4365.9
6995.23
4695.57
2216.7
1067.92
2966.28
1104.75
1164.86
4428.64
5284.31
1950.69
2730.22
1607.09
1535.18
558.819
2252.72
2852.77
1009.03
1735.45
1905.1
1308.19
911.323
3871.05
2849.05
3114.58
3305.14
2240.25
5076.01
11511.3
6345.97
3042.63
10321.1
3208.48
4151.2
5788.24
2229.57
1386.2
1671.56
1592.4
2178.77
1443.73
3203.39
3752.62
2304.83
2566.65
2160.35
394.557
4177.87
2432.42
844.766
2006.84
1663.33
2075.58
1222.86
1064.88
3259.79
1549.99
2784.66
2719.11
4281.34
2804.72
4151.27
4980.33
1279.5
1290.91
1113.37
2707.84
1544.49
2877.14
3174.33
3456.56
4982.38
6228.87
5912.4
2345.44
1681.24
2018.58
3895.36
5445.46
3984.32
4317.09
2707.6
2303.67
7095.63
9934.27
12115.9
7846.36
7401.43
11081.7
13941.7
7079.81
7214.94
9584.55
6810.82
8282.42
5210.25
1447.11
1560.63
2703.45
2170.32
2508.21
6171.87
3479.46
12184.9
6967.61
10003
9042.15
5878.1
2910.71
3985.65
5761.84
9023.19
5366.76
1329.45
2329.57
1258.81
3006.49
1674.19
4183.53
3440.83
1557.9
1841.63
1409.76
2696.76
3176.35
1602.16
1391.45
847.693
1854.49
1917.29
901.792
2019.92
1423.97
1024.9
4168.52
3749.49
5007.94
3288.75
3428.87
4130.08
2045.74
4564.05
6373.24
6269.71
3636.98
4023.18
5471.97
6372.58
6307.33
6229.8
7721.87
7803.93
7017.07
5221.16
14914.6
13030.1
12547.3
13571.9
7353.34
11544.2
10510
5577.91
2830.09
2776.49
6757.46
2579.31
6080.94
4776.42
8170.4
7111.62
4247.07
1217.99
1979.69
2230.47
1650.5
2080.45
2343.13
780.052
4385.04
2300.3
1756.58
1534.02
2874.6
1910.79
2397.62
2719.36
4681.66
9199.87
10140.2
7847.07
6588.02
6882.46
10462
10194.4
11048.1
7584.53
7827.5
6059.84
2476.33
1776.17
4505.44
1798.13
5100.35
1881.29
6044.46
3200.4
5058.64
5521.25
6589.54
7021.31
6833.4
4260.47
3609.4
3896.79
1736.69
1941.18
3458.8
5465.73
3797.88
9833.99
8549.45
10521.2
3779.77
3575.14
9117.02
4356.77
7931.87
10073.1
11016.3
13838
5809.87
6574.95
5417.81
4392.79
2746.67
1832.25
1054.16
1808.04
1245.95
2760.83
2682.89
1513.51
1722
2615.47
4625.35
3152.13
1934.38
3556.39
3903.32
3897.31
4374.45
2940.13
6590.93
6142.46
6288.29
1455.37
5254.98
3445.64
6115.94
8754.18
11458.5
5000.61
818.986
362.715
421.677
2750.03
1949
1703.33
5814.26
4397.62
4611.8
7977.93
3168.11
4633.06
3432.09
2896.53
1292.3
478.296
1735.61
5775.3
3325.3
3690.1
3414.47
776.883
2116.6
5436.68
3789.49
4937.09
4092.27
4526.02
3195.6
1191.45
2611.35
3906.19
1494.94
1714.68
2947.36
902.232
3857.08
4283.72
6251.76
8607.65
2704.2
1716.25
2057.58
1213.69
1445.89
5719.28
4617.02
5065.2
3852.33
1337.12
1396.32
3991.74
1770.53
533.987
865.632
7197.83
6301.54
2121.5
4806.11
1622.93
1858.37
2955.74
1199.43
2751.85
2199.53
3232.12
1719.49
4902.37
3061.35
3824.81
3415.52
1792.37
2854.2
1522.33
3248.03
2841.49
1740.78
1414.05
3822.29
4546.27
4076.72
4935.88
5886.88
12856.7
9864.06
7548.33
4532.24
3866.02
5488.44
2052.2
2306.48
3117.8
777.151
481.256
2385.97
1782.3
5147.94
12251
5139.94
5297.88
6100.7
7302.53
8368.43
4049.23
2138.25
1900.71
2835.67
6515.62
3803.19
7649.02
9098.24
3424.29
5740.15
1902.33
2502.08
2336.31
585.254
2527.86
1055.71
879.608
1287.72
2079.76
699.094
1458.91
3995.03
3996.4
5655.73
5683.62
4192.34
2217.32
660.405
1471.75
608.936
6051.87
10172.9
6053.96
1664.27
1319.62
611.233
3049.4
5171.11
5247.2
1533.58
1096.73
3685.69
6808.81
8311.1
11197.8
8712.19
9585.36
10422.5
6211.89
3845.98
8276.16
7111.75
8147.17
8501.14
14778.4
9377.61
7119.97
7530.48
15217.1
14169.4
17334.9
15353.4
15802.7
11188.1
14112.1
6156.81
7389.27
3536.51
6096.68
8117.85
3085.74
8910.44
12051.3
3695.18
3035.21
1018.94
1876.68
5270.17
3102.73
6627.94
5831.5
3233.35
5353.3
1611.06
2641.99
2952.52
1804.86
610.164
5290.01
5045.77
5629.58
3543.8
2651.27
3842.91
2634.25
1978.03
3491.06
6271.34
4439.85
2199.62
739.93
2180.79
2425.97
3060.15
2123.03
10058.2
3297.41
7608.48
9742.85
6301.58
3946.05
1451.81
4986.89
3394.81
2479.69
2222.76
1136.94
1106.16
2056.23
723.327
2915.59
4798.93
2209.13
2277.88
4607.29
2337.66
2172.87
2688.96
2304.14
1779.98
2283.31
2585.23
3360.84
2396.52
4420.23
5403.35
4035.94
1083.59
3998.98
3335.14
2041.88
1742.95
3940.17
6345.71
7872.05
3284.98
2800.97
2208.23
3908.95
4087.83
3622.65
3771.98
1297.59
849.001
1485.35
2018.23
2471.84
1589.03
2378.22
1316.41
2409
4539.48
7214.5
10305.5
10839
8095.93
12219.8
5134.09
7414.68
2999.42
6163.69
7260.24
10067
9933.69
6200.51
7157.75
10993.1
11485.5
4074.57
5871.36
6393.64
1046.32
2496.56
4092.52
841.836
977.223
907.901
2466.19
3047.24
1443.74
1388.31
2879.1
2276.46
2236.41
3237.86
995.073
510.819
3085.77
2330.99
1061.92
3448.84
1719.05
1307.62
2954.86
4958.85
1822.91
680.223
2222.48
1129.08
667.432
2358.18
3422.95
5792.35
3419.31
6794.3
17042.8
14986.7
9951.64
12919.4
8196.61
9376.64
9992.43
9163.08
16530.8
8959.1
5149.19
3602.42
6972.5
8699.87
9500.43
15233.7
15392.2
18807.9
14490.3
21663.4
18539.2
11347.6
5324.13
9997.4
15616.9
11385.7
9680.67
7786.88
6644.31
7744.33
14828.2
12320.2
7234.55
7614.59
10958.2
17796.8
26604
14882.7
3909.81
8942.54
11412.2
11033.2
14199.2
12252.2
7156.02
4118.07
3108.45
2339.19
8610.64
7155.94
7921.92
6591.52
3644.4
2383.06
3986.2
3418.09
1913.76
3398.92
4612.1
9037.6
5037.91
4577.45
6729.6
5700.66
3353.2
558.824
708.08
1344.53
1998.06
4055.78
5841.17
12362.1
15051.7
9659.76
5314.3
1782.35
1286.52
1017.33
3452.44
3292
3041.95
5789.12
6137.57
5591.05
2461.29
1691.21
6124.11
907.887
3244.55
3559.82
2527.54
5943.91
4357.07
3225.54
2719.18
1066.74
559.155
1966.69
1859.45
3796.81
2011.08
2029.29
997.173
1622.45
1431.73
1667.61
1619.33
1845.79
3608.2
1637.84
2959.71
370.335
4291.72
2763.47
1672.09
2165.18
5458.77
5839.61
5713.81
10278.6
7941.15
3780.42
2529.24
3562.45
2822.63
8530.21
3245.19
2491.4
1955.34
3573.18
2643.19
2328.93
4076.62
6752.68
8159.1
3345.57
3425.53
1218.73
819.963
924.722
1461.44
1355.86
2048.37
1929.73
1045.98
724.62
1088.04
2473.03
4719.82
1878.37
2744.74
973.102
1665.76
2503.87
3351.6
3190.18
3600.23
4285.78
2212.01
3043.07
3388.12
4438.72
2358.95
4730.76
2738.43
3953.3
970.263
3577.89
1637.16
3211.35
1719.63
2993.61
4080.4
5629.09
7987.84
10229.9
7680.26
8718.85
6245.45
5480.31
2546.89
2313.6
2119.05
3968.06
1575.09
1100.08
3253.51
2069.59
1174.74
1756.37
1550.44
5671.11
2106.46
4410.66
3165.92
2119.07
1655.84
1137.56
2642.63
3290.11
6222.67
3974.65
3100.78
2799.52
7008.28
5177.02
1952.28
9666.4
5007.88
2195.2
3390.05
4672.72
6198.27
1311.47
2357.91
1190.27
5385.92
5986.55
4086.09
2052.98
5591.19
5745.82
10600.9
13817.3
10782.6
14502.4
10897.9
6587.64
3001.02
3837.78
5449.28
9664.68
12154.2
7706.17
4858.42
2627.76
1255.21
2160.68
3784.21
3722.42
7140.43
8172.28
17323.4
11301.9
8466.23
7627.88
4970.09
3167.94
4643.51
2386.63
4260.31
4366.9
4680.64
4491.56
4175.1
3636.9
3598.43
1398.95
1718.66
2514.27
2554.63
6630.06
7774.8
10297.1
7949.86
8299.91
7837.62
3099.49
3078.91
1816.73
1731.9
1102.74
1972.57
2806.87
3261.94
3887.68
1627.12
1557.07
3261.25
6887
3215.07
2532.97
1038.38
4110.98
7690.23
7470.91
3231.37
3542.11
2709.97
1147.27
6625.05
3628.21
8670.57
4239.44
3016.32
3641.42
641.3
2263.5
2013.29
2404.69
5460.69
2738
1155.14
2226.22
2897.2
4044.23
4388.52
8008.66
8733.86
11653.3
11470.3
9173.57
7740.87
10496.3
8667.71
6727.96
5087.54
6969.37
2338.34
1527.62
811.374
1330.56
2889.05
232.336
4073.53
781.888
792.185
2266.64
6993.21
4481.06
4825.21
1692.35
827.504
3674.95
2140.81
1697.27
3512.32
3990.03
2679.14
2915.05
2523.08
1688.68
1869.97
1548.97
1960.33
3207.77
3021.86
5284.34
8312.56
6813.41
6979.56
12128
2822.63
1767.03
769.156
679.155
4185.73
4888.53
5952.83
1074.66
3100.76
1184.52
5576.56
3004.19
1901.71
1960.19
2830.93
2656.06
2966.65
3444.31
2285.3
4755.41
8159.41
3613.92
3052.17
5002.57
6557.15
4729.41
7573.39
5758.21
6869.87
9093.46
5490.47
6585.22
12097.9
6717.15
5088.84
1990.57
5269.89
1134.84
2320.08
1125.98
2456.87
2068.82
2788.86
5642.14
2887.34
3671.47
3424.21
2094.27
4073.1
4926.4
5490.94
1941.16
2506.19
2173.43
2274.5
1497.82
3472.7
3887
2630.05
6788.95
7923.93
10164.1
3499.27
4328.29
4082.59
463.249
2240.47
1401.7
577.459
1572.23
1883.2
1913.02
1168.31
1549.78
2194.54
1269.9
2056.95
1820.08
1550.74
2053.53
1527.27
1216.46
2196.34
1091.57
732.031
6277.86
4582.99
1391.25
1372.84
1051.01
3668.07
3025.28
2253.13
1427.26
2802.78
971.385
2129.24
1714.88
4169.86
2585.89
2076.5
2750.21
4607.23
4081.02
3251.31
3703.45
2230.1
2597.32
1483.22
1187.57
4069.87
3719.59
798.846
432.483
2241.22
3178
3423.21
1864.1
4337.05
2433.98
3895.6
3033.96
2565.87
1573.63
1699.41
1912.17
2853.06
3163.57
1365.87
2365.18
3245.65
1217.67
4087.22
2832.54
2863.44
1409.09
3302.53
3018.71
1216.67
702.701
2467.56
741.459
1976.93
712.523
1125.28
2955.94
4466.24
7357.47
10212.4
11110.1
9499.18
5360.18
3567.83
3748.03
1391.96
2706.88
1583.96
1710.73
3638.46
3834.9
2271.87
2853.81
2507.94
3219.33
2442.2
1641.06
1956.64
761.57
2582.93
3052.03
1557.6
1373.4
3052.89
4427.17
2580.17
3719.69
2306.53
2300.11
830.355
688.919
3112.57
4389.95
4319.01
3453.19
8346.33
7716.94
11220.4
17504.6
8139.67
14954
12768
13909.2
11995.7
5299.09
6819.62
7166.78
9792.12
13324.1
8883.07
2574.44
7420.14
4888.4
6417.34
11534.8
11529.3
11214.4
9995.04
13895.1
6789.81
1170.45
910.929
1660.94
1799.02
608.098
1293.03
3131.71
17431
7152.38
16104.8
14684
12997.8
13742.7
7523.09
7101.11
11137.4
9962.33
4538.03
3381.24
6363.83
10990.6
7209.24
8706.07
4092.69
2641.55
1765.64
1592.09
3508.74
1977.74
1329.87
5004.71
1340.94
910.108
1255.91
2674.29
3324.95
3762.81
4825.85
7214.21
6249.67
3964.42
5133.95
7128.08
3385.06
2075.61
4315
6508.11
6037.72
3790.17
1305.5
2923.66
4582.69
5529.36
4946.46
4617.8
5851.38
1389.5
1381.89
1808.39
4237.83
10757
4373.31
1332.4
5036.97
1501.84
1995.69
2337.46
2887.3
772.123
3471.61
2186.78
3790.29
4792.83
1079.76
4328.39
3931.81
3154.95
4239.52
2894.07
2975.26
2886.96
2271.31
920.747
2266.45
1693.97
3107.16
2834.29
1393.32
2850.8
2740.65
3448.68
2398.08
2587.01
4056.52
5819.34
4500.39
6783.34
4738.79
7341.58
2211.8
2761.84
1871.82
1547.62
2668.37
1867.32
1167.49
5214.18
6144.18
3925.35
3952.34
1393.56
800.013
1711.85
1517.82
2367.24
2416.74
1468.41
4867.39
5397.42
2096.62
1799.91
3030.48
1767.64
1190.09
4509.16
4761.97
4801.88
8990.08
6796.83
8950.69
4881.43
5103.92
4177
2200.95
2418.44
3080.11
1329.01
3233.5
4267.99
3684.85
2611.43
3403.57
5988.16
5427.6
7721.55
7234.84
3706.06
2791.51
3230.96
4854.36
2991.03
2001.93
3409.24
1576.51
6326.12
3747.11
2907.29
3591.3
2507.75
4039.87
2487.09
2105.71
3001.46
1470.5
1094.76
3233.46
797.234
8419.61
2184.48
3194.53
1948.23
1878.36
2985.14
1562.61
1975.78
2206.57
1719.86
1438.26
3966.18
1913.14
2174.12
2531.89
1866.65
1056.57
2686.16
1610.64
3345.74
11778
8058.46
4432.14
6553.1
3716.65
3004.41
2820.46
1835.96
337.036
779.334
1528.73
2490.03
3323.42
3572.83
1963.79
1582.67
3882.34
1866.08
2355.6
7195.24
4657.76
2786.35
3741.95
895.96
2106.14
5288.81
5879.35
10562.2
6264.26
8671.66
7700.48
6903.2
5936.09
8460.58
6799.68
2291
4405.17
4852.51
5925.05
6589.22
6827.43
6435.2
3143.9
6285.69
3457.47
4684.88
3302.81
2834.47
1281.36
3657.02
2370.12
2682.22
1104.91
4343.01
6023.74
3768.96
6767.2
6516.84
3367.92
4647.38
1192.14
6229.12
4050.63
1037.07
1120.25
1653.1
3540.49
2274.45
3470.43
2788.84
4972.08
3962.99
2178.54
834.693
1154.9
1263.85
2441.45
2100.29
2688.89
3856.76
4663.81
5898.68
2806.98
2759.9
1423.39
2493.7
835.127
5384.77
3872.15
3066.68
5341.78
3996.78
3490.26
4679.85
1992.34
2518.79
876.439
3757.58
4611.61
903.568
1067.47
2730.86
7578.97
4138.45
1137.62
1680.98
5079.4
3118.47
3645.28
4262.56
3249.74
1324.26
2414.02
5501.43
4841.71
8205.39
11413.1
6590.32
3068.41
3033.92
2148.55
218.208
2888.87
2017.63
2926.71
3146.67
2898.27
2299.43
3201.96
1653.99
2095.72
2765.46
3133.43
3701.71
3007.64
2675.51
2190.48
4270.01
1535.77
3103.57
2036.37
1901.56
1411.78
2240.38
741.83
4009.65
6942.41
5079.45
3231.01
6377.37
6648.3
10568.4
6702.42
8419.51
8661.39
6205.51
5125.42
5257.39
8662.13
3317.4
6942.27
10734.5
17317.1
10423.2
5680.71
2764.33
3752.73
10811.2
7383.93
8024.87
9860.72
7302.59
3253.97
3652.26
4571.89
3183.43
5000.49
1844.85
4343.2
1786.85
4465.2
2726.65
3186.21
2569.75
6383.62
2764.05
2557.28
1053.19
3406.53
3302.01
2625.77
2144.5
5350.29
4126.59
3743.13
1982.51
6057.06
2147.95
3741.4
860.263
3173.11
2740.83
2420.76
1843.14
874.588
1448.36
753.785
842.883
2054.78
2363.25
1252.32
1302.21
5077.69
865.901
1410.62
1793.49
2305.73
756.384
3694.1
1451.88
2337.6
3017.41
1169.73
1124.26
4946.67
15326.5
6009.54
8457.87
5818.13
2010.93
1504.98
1935.67
4350.14
4554.72
6447.11
6783.94
3598.92
3195.12
2791.55
646.501
3179.06
4883.12
3944.63
5192.21
8805.79
2675.01
2804.74
5579.9
4643.75
2008.41
779.342
3970.27
5603.7
7418.03
6396.95
1998.34
5843.18
1979.14
4633.1
2940.41
5581.77
6426.86
7552.67
7620.19
2871.45
2261.64
3146.15
3019.38
1176.47
2092.34
2472.02
3066.82
3804.98
5240.8
9373.84
11061.1
6721.34
2501.88
1618.97
2355.48
2054.79
1784.35
3806.97
2415.71
586.094
2441.75
1230.18
4281.12
3218.03
2456.19
3031.6
3388.94
1326.56
286.109
614.625
814.081
3634.06
5366.3
4102.91
5996.92
4802.79
1910.17
1028.23
1556.35
840.74
1590.46
2089.46
2862.41
3961.49
2915.11
3497.93
2178.42
3634.6
2104.3
4124.28
2372.23
1688.07
438.358
701.871
2351.16
4594.35
1117.24
700.997
3945.77
1281.32
2355.29
6973.22
2280.55
5580.12
5957.58
5322.3
2309.23
3404.65
1592.37
2282.2
2406.13
1430.2
2376.33
1360.81
1722.34
3183.35
5246.39
578.573
1586.04
1318.7
1466.38
2633.26
1543.33
2270.91
4423.53
1741.31
3807.78
1388.26
5135.94
3094.62
2475.03
1294.41
1785.18
3441.33
2167.6
3670.57
3179.35
3636.18
929.333
2025.87
3745.91
8378.43
5333.38
4482.58
2977.13
3743.7
1974.54
1015.89
2474.43
4070.39
1666.81
1083.91
1615.15
1477.68
1705.41
1561.92
7355.09
3638.45
1892.57
2567.3
3864.33
2371.24
5678.41
2419.71
10242.2
1779.01
3298.64
2026.09
1450.4
2310.31
6267.91
9228.13
2764.64
14597.4
11753.2
8760.36
7703.63
5950.52
4596.66
2609.69
1537.6
1991.51
5274.45
5371.29
4654.2
2531.25
3216.68
2346.26
2234.43
1111.65
720.993
221.237
2353.18
3065.71
4933.07
2242.08
1627.27
1255.24
932.81
1772.17
550.671
4701.86
1022.01
2652.93
3661.28
2868.19
3790.15
4831.35
4587.62
1832.01
3301.02
2366.19
3022.21
5964.5
5514.6
10607.9
4056.04
3661.57
4012.5
2316.91
1896.36
3693.69
1515.17
2665.77
4036.24
4265.4
4072.04
2495.89
3458.21
5612.42
4686.69
5861.07
3972.53
918.504
4897.9
2761.4
1565.81
1441.08
5879.77
2084.87
4044.89
624.68
2182.65
2258.25
896.014
2127.26
1552.55
1700.39
2625.15
2688.01
2295.62
1312.1
3067.26
3120.71
3086.97
2658.9
1695.6
1587.37
1551.77
1917.63
3846.77
1722.67
2419.77
7964.08
12406.5
2677.81
585.183
1462.52
2225.02
3245.05
4874.77
1989.85
1018.08
1521.7
3489.09
2839.79
1511.34
3291.85
4069.46
3852.18
7905.3
2221.34
3079.86
10545.8
8029.42
11494.7
6847.98
9092.21
10541.6
10136.5
4293.43
2926.32
5943.83
1032.88
829.378
660.285
1304.25
3552.63
3774.15
2319.32
300.986
958.676
3761.79
7069.27
4727.77
4642.49
4207.95
2354.36
2208.32
1940.21
1302.78
860.561
2447.98
3709.94
2108.66
4606.74
1964.32
4913.61
5797.93
3995.28
7172.93
6491.61
2634.99
2280.64
4186.58
2697.87
6668.68
2768.86
2534.17
3516.95
7662.22
10044.6
15268.9
11106.9
8826.82
9521.72
7047.73
6883.63
2845.38
1312.02
2569.29
7345.28
8270.76
4399.31
7941.19
10527.4
9965.66
10044.8
15853.3
18004.9
15329
8139.32
8990.59
4785.05
2654.36
1043.59
8112.53
5264.65
5371.23
4910.08
1277.67
2073.43
2488.59
3983.65
1381.63
2150.14
6154.75
14172
9126.43
4647.23
5015.3
7396.78
10144
12268.2
5843.77
3030.42
3850.94
4448.47
2905.19
7204.75
7300.26
2573.32
5199.71
1804.83
5976.01
2507.04
1264.15
3255.94
1528.48
846.06
1994.29
1254.54
1292.71
1296.96
1724.52
1880.25
2794.43
2726.07
2226.4
1660.83
2242.65
2632.43
3706.79
3517.24
943.924
1463.21
2310.29
3864.06
4520.05
2172.38
3095.35
1242.28
2101.32
3543.13
3601.01
7279.3
3669.45
5794.76
9094.68
8553.01
6717.94
5614.55
4242.07
15897.5
9204.27
4509
3386.18
5894.62
5854.5
3992.27
1951.96
2391.19
657.738
3145.7
2562.9
3315.19
1380.42
2738.43
1659.7
2829.27
649.703
1820.62
2275.58
3110.39
1959.62
6023.59
2400.47
3501.76
4301.93
9089.47
8452.65
8235.77
8953.62
4679.09
7696.56
12786.2
2743.04
2861.11
4833.19
1427.75
1984.73
4290.41
6445.24
2335.54
4151.29
5309.19
3200.97
1637.43
1115.9
4638.33
3118.75
2378.03
758.473
920.809
7372.85
6398.94
4859.11
3061.55
1128.4
2470.33
5023.58
9089.27
5149.73
7826.56
4603.64
1211.19
1994.8
737.93
4570.55
8142.2
5586.59
4870.8
5843.62
2820.06
4464.85
631.184
2927.73
1166.92
611.471
1252.73
3103.81
1078.9
1897.3
824.267
1032.22
2202.13
2887.74
2067.92
2139.58
3050.37
3612.69
7246.13
3636.86
1339.95
2763.74
948.307
1091.11
922.914
3171.78
3659.82
5117.14
3251.67
1045.39
3280.19
4675.73
6826.95
4872.55
6872.75
3527.14
5603.38
12619.1
8492.59
8206.85
3446.75
3355.52
5261.88
4782.95
1549.92
627.26
2449.32
1528.36
3176.09
1734.42
3675.57
912.632
856.899
3631.77
3769.79
9860.5
9350.12
10456.4
8658.87
5698.25
2475.49
1698.66
2043.84
1706.26
477.819
2627.31
2806.65
1508.35
937.533
1799.2
838.933
1077.67
2403.32
3037.9
406.229
2288.68
4755.26
2553.57
1802.12
2132.6
2855.57
3333.08
6607.65
4469.19
3181.61
2100.88
1251.38
3642.25
7561.46
7488.05
3325.79
2358.93
2881.95
4982.81
4424.63
7195.54
9589.6
5015.44
2224.24
5349.86
8824.75
21813.9
19422.9
13903.4
12831.3
8722.25
11451.2
9623.62
8800.23
15709.2
4461.84
3651.04
1584.87
3183.41
1957.22
2305.91
3404.21
3418.62
3377.53
2862.21
4798.4
3206.62
2422.83
5416.75
1665.17
672.581
2083.5
1352.99
1690.15
2942.51
1557.02
400.759
961.371
938.144
1993.65
2487.07
964.218
1694.1
1009.82
4524.82
5033.29
4113.5
4285.18
4719.93
736.942
1175.65
1509.73
2032.15
4836.97
3343.02
4530.49
3224.11
2634.27
2621.27
2385.4
3917.03
3259.64
7388.16
9325.05
11609.5
12353
9342.75
5865.37
3465.9
6548.24
15589.7
13406.3
6908.54
5368.25
3328.25
4460.78
4191.05
1119.58
1162.02
2187.59
1166.69
4629.99
9140.42
7801.94
9133.65
2317.69
2731.51
6950.55
8340.89
5266.36
4361.67
4394.37
2994.42
2766.31
1216.28
2047.84
1742.19
1528.56
2242.39
2434.77
2199.04
2080.75
710.721
2222.63
2481.89
2272.12
2974.67
5955.07
4942.06
2818.09
2356.16
2913.55
1232.55
4800.41
2423.99
1697.33
4970.32
3532.61
7686.78
10504.4
7282.86
7840.26
5485.83
3018.26
5211.19
4546.69
8461.7
10395.9
6361.29
5271.32
7606.53
15478.8
8161.98
7186.65
19229.5
24119.3
16560.6
8193
6057.82
7111.65
10728.1
3749.18
3425.69
1444.67
4743.76
778.86
2016.23
2072.47
1815.05
3499.54
1625.8
3172.72
1380.28
1401.6
4611.94
6186.11
3062.82
5352.4
3315.31
1886.21
1485.77
1715.88
2176.41
2654.45
3522.88
1129.83
7578.66
7785.89
2043.69
1433.18
3694.67
2216.28
2680.45
1051.34
2833.77
1644.66
304.279
2124.21
1021.85
3286.18
3305.77
2762.06
2274.38
4906.79
1987.38
2250.38
2767.02
1031.61
3456.31
2670.93
7040.94
3606.95
7148.96
5808.82
3469.65
4813.25
2180.68
4444.7
4785
5507.44
11547.7
5857.94
7535.94
6117
11810.9
11141.7
8706.54
10932.1
5331.2
6564.26
8177.92
8128.29
2005.43
2655.39
1426.55
3478.19
2100.1
5760.87
7366.9
7118.98
5974.49
5711.43
10704.4
9427.47
9810.48
6698.14
4363.94
1213.35
513.701
2741.28
4715.44
3627.85
2385.03
3202.56
5842.47
4188.98
2725.49
1517.21
5730.14
8826.45
7741.55
5304.11
4122.1
1880.92
702.877
2406.7
2597.24
584.43
559.06
1015.46
1104.66
837.197
1192.15
1508.29
1950.71
1262.97
8942.65
2218.49
1998.02
3579.12
3723.6
6733.59
3846.42
2787.89
2687.27
3419.2
2955.27
3027.27
2740.71
2199.35
5211.42
4168.6
3072.42
3535.67
4400.6
4931
3698.86
582.208
2164.24
1599.07
2587.74
1076.09
1082.53
1204.12
3247.97
2225.44
567.605
3220.91
4721.78
3069.35
6566.89
11831.3
5870.55
4090.65
6120.86
5675.42
4469.14
3188.57
6022.65
4063.68
1005.56
1668.15
2971.63
5298.25
2864.05
4080.04
804.565
3504.27
2594.57
5975.88
13848.7
4265.58
1709.74
1241.54
2925.49
4258.85
3743.22
5350.66
1458.46
4913.62
1415.52
1625.72
701.978
4391.19
971.516
824.828
1209.15
1937.56
3550.71
2041.08
1523.15
1655.39
1437.62
2101.2
2498.63
1140.11
4948.25
1600.48
1624.12
2283.09
3293.3
1479.41
2030.76
3470.58
1774.49
1887.11
4674.56
2439.7
1028.6
1520.89
1243.64
870.222
1836.79
551.674
1806.55
1613.36
1047.38
3247.28
1326.03
2337.79
6051
887.949
1867.57
2750.65
8914.1
10009.6
10145.3
4016.31
6074.71
2535.8
8563.7
12413.3
7042.73
4909.95
6239.12
2637.94
2646.5
3359.5
1625.54
3595.05
4043
5714.64
4539.99
9808.42
11701.2
10986.2
7377.71
4747.47
4320.53
2553.58
9221.56
3853.72
2047.89
3345.44
3635.08
2846.65
2732.95
1845.07
2700.22
1480.02
1462.89
2751.63
2389.07
3356.44
6363.29
9807.42
12730.5
3037.35
2762.66
2565.32
4033.5
1919.91
1383.31
1764.64
3055.26
2051.81
1963.71
2901.14
2096.48
931.309
3307.34
3953.21
3097.89
4600.32
1606.6
2605.52
2410.99
3633.67
2582.65
1247.08
1968.55
3625.81
6019.17
5389.68
5142.96
4946.47
3878.86
2081.05
717.891
1335.22
1040.13
2159.77
1536
3525.46
2215.36
537.366
2378.02
7982.24
2818.45
1383.2
1832.57
4794.62
3222.56
1917.77
2168.19
5189.94
3634.92
3784.59
8144.55
5622.54
1933.45
3870.74
1024.98
2178.29
3631.36
4563.41
8236.47
6735.15
2637.19
2460.92
5871.4
2567.17
3890.82
5202.37
1797.3
463.339
3377.58
4062.43
3957.1
4239.55
6061.76
6040.56
8002.03
8978.49
3891.54
3882.63
5036.95
4067.02
4566.23
3068.52
5457.29
7349.04
939.872
925.861
4568.98
3325.59
5688.26
3889.4
4561.44
3090.96
1426.4
2452.19
5907.88
3871.57
5723.85
3698.17
2529.02
3731.03
3586.27
7090.6
5461.97
3963.81
9375.64
3441.95
1205.96
973.349
425.189
3100.6
1915.38
1197.62
1229.26
2016.49
2789.2
2288.99
3700.58
8477.2
10457.7
13814.9
5410.01
3366.36
1231.43
3372.37
2135.82
2710.1
753.99
2172.85
1434.97
1333.6
3368.2
1183.69
745.314
2763.66
1416.5
676.805
408.507
8132.9
2318.28
1802.42
1724.34
4086.55
5063.65
2797.28
1407.03
2576.57
3246.53
1241.79
1478.96
787.29
2651.47
5730.16
8659.17
10873.2
3927.04
3819
2066.54
1616.59
1030.54
1305.33
1588.43
1763.8
1580.82
3175.64
3679.83
1502.32
1419.25
1625.68
6681.78
7379.02
5318.27
3751.85
2652.42
763.889
1517.64
1862.8
1920.55
334.982
1693.31
2010.54
1673.89
1380.75
3148.29
2338.19
3925.63
4238.69
6880.01
3073.39
1545.22
10369.5
5127.35
3371.01
9974.27
7563.32
9565.75
9086.4
9616.26
15029.5
9072.69
12169.4
9915.59
12298.8
11194.3
3270.16
2523.92
1924.58
2274.1
1960.75
2381.5
1838.21
2209.2
2560.33
4326.67
1969.45
2448.66
1939.4
2133.02
2456.55
5947.8
4972.82
5470.48
4039.1
11734
3513.33
7015.84
7720.06
6232.62
2392.24
2032.86
1894.99
4718.81
8643.65
5850.22
8643.17
4755.91
6384.84
5905.67
3101.8
3535.28
2993.84
7460.81
5757.86
14882.7
10274.6
8717.61
2347.06
3932.63
2293.26
1062.16
1290.01
2928.34
1129.66
1795.36
3949.49
5688.6
8062.03
3506.38
3062.5
3654
5399.18
2139.34
3230.85
6033.83
9459.56
6449.46
4813.39
2762.05
3547.45
3520.13
5005.56
1795.52
1574.23
1043.43
2083.61
3280.84
2396.94
2167.09
1961.47
1853.18
990.263
1802.72
6861.68
3197.42
3932.02
3059.78
4494.93
435.014
3987.02
5079.58
14578.5
4419.44
3672.11
5171.97
1374.35
1345.02
2962.27
4441.52
2002.58
773.176
5225.41
3991.6
5772.1
6060.01
2723.71
2936.59
1535.57
2214.67
1861.3
5195.63
3410.8
2739.23
2013.53
2040.91
1474.62
1496.5
2065.71
3493.9
1948.85
1824.75
3002.38
4199.28
4031.05
4897.74
1253.57
1864.57
1641.72
2297.9
3408.39
1373.19
1882.67
1739.24
1453.16
2882.14
2762.71
1207.59
2895.37
2159.06
1561.91
4260.07
2703.89
962.552
1488.92
1604
1303.44
5204.52
1480.96
3024.6
4327.38
5939.03
4202.27
3153.57
4189.32
3218.03
3515.71
955.605
3057.18
937.563
1026.34
4608.35
4805.46
7895.98
1836.36
4385.86
1611.42
3369.49
1754.66
1130.24
1472.54
4960.46
6740.47
8246.35
2901.94
4183.58
6303.71
919.796
3737.84
2410.42
3333.68
2449.13
1716.02
3454.78
3181.67
1005.24
2865.95
2466
3519.14
2124.89
2830.75
1468.56
842.046
4713.78
2669.87
2492.13
2729.68
5739.41
4102.15
1131.61
5380.19
6664.91
781.89
1744.47
2565.25
2481.15
741.304
1189.42
1344.91
752.294
2540.17
3666.47
6981.4
1667.29
3194.72
2531.61
2401.8
3599
4147.59
2285.37
5552
4603.81
4400.78
2354.54
3331.26
1850.65
2524.96
3939
2714.9
2205.59
1479.67
3290.4
800.219
2177.07
3955.01
7629.75
4137.15
1837.51
1932.95
2449.48
2045.1
6024.45
9670.12
6905.96
5418.08
1078.21
2377.29
2559.78
2204.64
4961.93
2272.21
1447.35
3612.66
4610.51
4820.58
4930.57
8086.25
2990.02
1312.4
2640.11
3415.65
3306.37
5576.09
8038.23
4194.36
5416.78
8592.58
11413.5
9371.01
18580.5
12835.3
6731.23
3425.21
2766.83
2627.37
3898.89
2120.86
1394.49
1802.37
2239.41
3072.73
1742.07
3622.08
2238.21
2988.08
649.66
2001.45
1412.03
5487.23
1577.52
1380.89
1966.41
3476.57
1979.77
872.063
675.261
1999.07
6143.35
1136.53
926.469
2935.31
3477.23
3282.85
810.035
2334.57
3562.11
1717.66
2584.84
2870.55
3556.09
3857.42
3550.03
2895.26
2196.06
5573.21
1380.14
669.991
1642.25
4426.88
2419.21
2876.48
2957.31
3111.82
1796.34
1617.37
1491.41
2517.64
2891.31
2064.54
484.607
576.214
1896.15
2970.68
586.416
2016.57
2111.02
1584.48
978.727
3803.77
8326.28
4836.3
5637.11
3815.87
1544.53
2382.37
1555.12
4957.61
4824.44
2769.61
814.958
1732.8
3316.6
273.122
2314.78
664.353
2558.96
1629.68
4077.43
6997.64
7567.68
4120.68
2434.84
6007.5
2493.68
2271.39
2851.43
4833.61
3685.97
2052.15
2394.61
1537.09
1809.09
2398.25
1372.49
4700.87
1941.48
1976
3777.64
939.631
889.372
486.424
2961.13
4463.13
3200.12
2516.71
3372.92
5998.7
4615.8
3194.01
3711.66
2514.39
1666.69
942.187
2321.24
1923.36
5923.03
1321.35
2792.16
4245.4
3057.76
4763.87
1791.66
1241.26
399.721
2184.04
1597.08
4731.98
666.763
1913.32
1648.11
7970
5107.39
4614.12
5242.32
7255.28
1615.63
4752.55
4761.94
1842.27
2034.94
3218.11
1101.38
2143.21
2705.43
1559.93
1685.47
3798.03
4154.08
5401.99
7411.09
3014.82
2532.03
3673.42
6151.62
9336.37
11744
15435.4
11950
7528.98
6324.59
6063.07
2713.16
5435.34
6281.22
5586.47
6798.74
4239.89
8386.45
6969.97
5593.79
1325.12
2370.1
2055.07
985.688
1414.75
1133.36
3007.85
3919.45
3206.84
2473.76
2958.6
6745.22
5910.66
9075.39
5602.33
3822.01
3433.76
2980.87
1899.62
2299.76
2421.87
2511.96
2111.72
1327.25
661.859
1551.37
902.749
1162.15
2542.35
2468.93
1144.34
3936.19
2731.09
2011.3
895.415
2046.15
2322.09
1517.62
1185.03
1658.17
3155.81
1357.87
2817.27
10469.1
10244.2
10795
4651.48
7091.19
5504.11
10607.5
10366.6
7828.32
4946.81
4771.92
2383.48
1865.02
1571.83
1904.72
2655
755.462
2258.51
811.306
1531.06
6816.83
4558.98
1814.59
3991.22
2117.58
1156
973.248
2202.66
2914.28
5144.94
1334.31
1798.07
1065.59
1332.15
2149.98
3117.94
7263.03
1787.92
2408.6
3615.17
3077.2
7770.25
4808.19
2046.35
1119.68
3496.39
3396.15
2237.34
758.117
2339.59
1690.73
1479.36
1594.62
1031.94
2410.28
599.678
3871.9
4205.7
1183.48
1802.35
1739.91
2341.47
2896.65
1237.96
1495.2
3645.49
4505.62
8511.77
8413.36
6205.45
1626.45
810.725
1540.86
2069.12
1088.14
1123.57
2689.91
2565.64
1175.07
2639.33
2408.92
4978.74
2614.57
677.713
1462.69
1519.87
3458.33
2135.73
1140.52
1652.63
700.546
4414.82
7467.78
6020.44
4712.49
2779.39
3133.3
3422.59
3557.39
3913.82
2672.15
2766.34
4969.41
7006.12
2978.96
3414.58
9556.75
8261.8
6318.06
2566.86
3605.16
798.462
1508.92
2558.83
2492.38
2320.02
3451.25
6675.7
9324.1
10147.6
12131.8
4970.83
2703.6
1174.66
1698.19
4245.43
3343.88
2847.03
1064.24
3816.52
1005.34
1922.55
2827.22
2018.37
3181.92
7043.57
3690.76
3619.27
3707.05
3090.57
1864.77
3957.89
2757.62
1443.08
4409.65
5692
4091.63
2562.01
1349.17
3763.77
3186.99
3646.88
5244.16
3445.31
5936.91
3673.9
3746.97
8480.05
7095.23
5105.74
4334.06
2234.11
3474.36
2387.8
5833.31
3251.02
1359.71
3805.66
5805.75
4472.67
1476.79
2683.9
4532.01
3276.01
7285.69
6454.04
2786.11
3609.66
2473.4
4437.19
4113.86
2631.31
3822.15
3110.32
2219.56
2150.38
1528.06
1833.32
2211.18
1445.67
3944.92
7876.99
7446.71
5473.02
1903.63
3104.5
793.962
748.776
3565.95
4252.85
3882.85
7239.34
4772.13
3820.16
3988.66
3535.7
3902.79
7286.96
2414.57
4146.22
2561.52
2598.13
3024.72
1881.78
2213.48
4074.1
1738.67
2891.03
2583.77
5725.75
2969.05
4073.59
3644.81
2802.81
2265.76
2964.74
2643.78
3228.97
4722.56
1586.68
2309.58
2602.17
5482.43
2931.2
2255.81
1920.38
2420.49
2033.06
4345.85
5128
3006.13
530.252
1644.72
1982.21
956.026
815.291
2278.9
1320.16
1197.57
2661.34
4920.66
2185.97
299.554
978.009
2531.72
4940.05
6344.87
2651.04
5928.31
6300.56
2937.77
6081.37
1421.4
814.422
2336.6
2907.86
4245.2
7328.05
6942.35
3718.92
2934.76
796.745
3025.3
6864.07
2824.37
1029.25
1654.24
3417.73
1249.23
1500.45
2369.46
2385.91
1025.06
1176.85
2156.75
3284.83
7233.34
2821.71
6036.14
2268.74
2454.16
3374.01
5719.94
2007.36
905.987
4498.38
1785.41
6518.19
3333.77
5108.31
5630.66
7743.5
5278.59
1385.2
2281.98
2021.77
1720.49
2259.58
2519.32
2873.31
837.507
2235.58
1642.55
4886.66
3804.35
4495.84
1911.08
3504.7
4931.05
2443.51
4628
1727.23
3791.62
6535.92
5863.59
5948.18
7070.24
3535.24
1923.49
4171.05
3545.7
5592.38
3417.49
2656.21
2606.03
3109.95
2912.5
1748.46
5017.68
5138.18
12657.2
4416.2
9403.68
12412.4
7771.6
9793.7
5846.22
2431.88
3468
325.528
1255.76
691.511
1250.84
3425.68
2946.69
1664.89
3476.92
1072.57
1624.45
638.954
3677.32
3061.47
1269.63
2141.46
2874.24
2790.57
3593.03
5507.91
3676.11
4597.45
3000.27
5101.11
10562.6
4128.52
6143.01
3387.21
5671.43
1267.26
1015.98
3272.48
8218.5
5581.96
6223.23
3246.81
1508.2
4396.46
7039.18
8220.1
5884.97
7158.83
8604.03
16521.3
6558.36
4899.48
9422.6
11605.5
8735.86
14570.1
19587.7
14342.8
4748.83
2642.67
2921.65
5402.36
4301.85
4004.68
250.667
2493.32
1581.54
1488.78
4157.38
5724.56
6649.68
4582.47
5913.41
4497.75
3838.27
5307.16
4780.92
2381.69
2444.8
2056.84
4639.78
5427.04
4105.4
4324.9
5742.26
5112.77
3822.21
5612.28
543.833
569.575
996.319
2835.07
2138.4
2005.99
1496.47
2221.71
4271.81
2839.85
5269.24
6788.52
3985.42
976.444
2079.29
3402.74
3248.36
1582.66
1929.38
3421.13
2496.79
3989.38
2501.05
981.088
1048.62
4288.85
2343.83
2555.21
1620.63
5412.79
10712.1
5838.52
7593.8
3399.73
4563.9
3087.13
2734.11
6535.46
3916.33
1582.49
2506.52
3019.38
3134.73
7268.43
5557.66
5441.11
7592.26
4927.14
3693.08
2383.04
2965.88
1763.86
2376.79
4460.56
2500.91
3515.34
1739.83
1027.57
1764.55
991.304
2558.44
6989.24
1772.84
2485.68
6879.71
15994.6
9852.63
6781.22
1809.06
1398.2
1259.71
6993.49
8182.21
6094.01
4211.94
7578.21
3069.24
2771.81
3059.1
3713.71
2140.87
2050.08
2481.82
2832.42
2059.65
2783.82
2171.8
2172.84
1469.72
1242.78
739.647
1705.56
2961.58
4463.21
1237.76
1981.3
705.055
2324.2
640.098
1776.87
2588.83
2381.75
2669.81
1184.59
1752.2
1323.56
2745.1
4149.28
2276.38
1843.58
1449.51
3181.71
2011.03
1605.11
2568.56
526.591
4922.31
11361.7
2770.29
5262.83
2774.12
2485.7
1982.84
2209.32
2225
1281.64
2486.44
3183.16
2813.58
718.086
2215.78
4329.64
5537.03
4471.98
3056.63
2744.72
1801.84
3970.82
2224.79
2899.59
3584.14
3563.9
1542.94
1376.58
3165.56
2208.18
2480.75
1961.03
4230.1
2011.09
2338.56
1902.31
3549.76
3232.55
1504.93
5789.28
15527.3
10994.5
6976.07
4372.15
3974.11
7842.29
1500.2
3387.31
4045.28
3707.01
7114.48
5440.18
2190.65
2972.32
705.546
1563.89
5985.62
2545.73
5582.2
4634.29
5019.95
4590.78
1287.98
6827.25
7072.27
7893.11
3243.45
4583.59
3088.89
3652.71
4990.33
2083.7
2449.23
2319.41
2545.35
4397.14
4169.29
3823.5
4899.94
2800.18
2564.29
2255.49
2749.15
2416.24
3282.28
2536.2
7447.46
6405.04
2148.85
1575.7
1795.83
2423.74
728.324
1706.24
2164.12
1265.76
1976.8
1852.46
3726.29
5906.56
2830.62
918.729
977.131
604.25
2091.47
2372.79
2635.69
3613.01
5160.88
2584.45
3354.85
606.981
1062.34
2718.11
1013.74
1536.47
1559.52
3367.14
2756.62
1807.11
2917.47
3687.69
4661.78
4763.72
3517.27
4295.81
3827.53
3220.69
503.366
1673.75
7185.83
11913.5
7811.9
9853.36
9863.86
12104.1
6462.62
7853.97
3738.42
7527.13
8386.58
5055.67
4082.15
4321.69
7492.52
2287.01
739.012
479.739
1659.09
1424.54
2044.37
1623.41
486.524
1991.68
3524.7
3239.1
2426.67
1935.52
1738.18
2282.27
2512.01
2709.74
1441.1
4772.3
5097.93
4012.42
1497.34
1131.77
1758.04
2642.36
2334.37
1102.59
2053.04
3081.2
4100.91
4180.01
2061.42
1305.13
1010.09
2725.34
2372.49
4339.61
3786.52
1734.63
3135.11
5121.87
4872.19
10432.9
7733.71
5516.79
4973.28
5806.27
1781.34
3862.23
2878.8
5543.67
3311.44
2671.78
3554.27
3949.04
3027.12
3486.25
4896.85
7221.19
5933.7
5772.85
5980.44
5478.7
2896.99
2988.71
1190.64
1936.82
5045.64
4885.64
1584.46
4387.37
1758.84
1760.57
6703.4
2592.94
2590.81
3456.52
5112.36
3105.78
972.345
3675.58
1790.96
1214.27
2890.33
1640.24
3189.35
4085.35
4975.55
2891.92
6412.14
3624.95
6434.38
6909.13
8032.22
2672.74
1114.78
2600.94
3645.11
2044.76
1887.63
1313.28
2441.79
1229.95
1787.7
3104.43
5835.11
9566.83
5338.45
1651.2
1762.96
2429.35
1521.46
2554.66
2049.67
1713.71
1611.87
1513.75
3614.64
1488.51
1823.23
1821.1
1148.88
914.733
2013.81
1516.29
5264.09
4687.17
4310.1
3106.35
5116.05
3438.83
3931.88
3537.14
2540.75
5409.16
1999.91
1767.65
2944.87
4632.53
3934.67
3185.94
2112.96
1851.83
2399.73
4571.27
5366.13
3551.08
3723.47
4501.38
3765.06
2081.83
2694.9
3374.8
7099.82
6934.35
6929.82
6014.25
3573.71
10268.9
9015.38
5968.02
5175.7
5953.89
4878.47
6510.69
3941.33
8122.81
6013.62
8198.63
5111.9
5326.31
5815.41
6347.76
6090.4
4098.65
2334.16
3127.91
3767.44
2913.7
5488.69
5331.7
2896.64
3949.76
3237.31
3473.02
2707.24
1415.79
1276.44
2952.18
3710.75
2816.83
1519.92
159.769
3056.16
4941.13
108.014
2058.06
3474.48
520.48
2240.83
1124.7
1445.3
3204.09
4502.83
2116.23
2247.01
1570.82
1866.83
1624.44
3491.84
7228.57
6565.24
3095.85
2614.65
8620.58
4502.9
3340.95
2460.82
5397.16
6363.04
5354.53
5235.41
1742.76
1023.56
2433.87
634.3
1306.76
1423.62
1779.32
2455.02
4536.81
7027.96
7296.37
2232.85
4041.37
4519.07
7042.93
6954.66
4116.02
3115.33
2933.73
692.173
1646.68
2859.08
3101.14
2629.35
1662.93
1767.02
1509.55
2895.34
4706.64
5238.65
778.853
2889.08
812.09
439.221
1592.51
2774.49
1580.75
1766.36
5438.83
6075.9
2109.83
1765.53
1572.52
2133.82
626.057
1252.62
1280.97
2321.04
3183.69
1130.32
1638.54
3534.05
1183.08
2115.44
1423.01
817.551
1388.39
1486.01
2350.47
7259.64
6819.03
5684.32
8359.12
8620.94
6883.98
2880.17
4022.36
2197.04
4905.83
3664.58
2437.04
3697.04
3843.96
5604.92
4271.16
4882.7
3604.3
7003.93
8590.79
6875.01
3267.9
2502.48
3456.11
1899.71
4613.28
4678.55
2125.22
706.46
1983.55
7157.54
4702.82
6196.56
4034.46
4493.96
4992.96
5524.53
5341.6
5347.89
3148.4
4190.49
5618.02
12649.8
10128.5
3722.77
8973.1
3271.79
5251.33
6094.84
5844.61
12906.2
3633.81
5605.84
10640.8
17758.4
9743.9
7460.6
5863.51
6665.34
8473.13
5058.47
4345.59
7657.53
9547.7
7527.7
8731.24
14064.8
23442.1
16280.7
8534.46
4279.39
5078.11
4959.89
6774.86
3643.21
2304.17
4040.69
4286.76
8212.61
12958
15019
11991.2
17893.1
15022.4
20604.7
18958
22422
13473.6
11725.6
4895.35
1291.06
1478.24
712.647
2353.35
2807.04
5906.05
2208.52
4538.77
10420.6
4153.67
4085.68
4586.93
3814.1
7110.25
6301.17
3920.09
3557.24
747.935
2710.27
2734.19
5251.09
1060.71
1146.94
3422.82
2192.31
1796.01
1309.79
3840.61
3645.2
4198.62
3819.38
2552.27
2568.63
1887.69
1174.58
5182.56
866.151
1884.86
2513.9
2746.05
1114.16
4542.07
2528.24
848.7
1887.77
2971.84
1113.85
1400.38
2790.12
2138.59
2338.23
2984.25
3201.5
11641.2
3749.88
7481.12
4589.76
3549.19
2410.45
3135.22
3782.1
7466.38
9562.68
5076.03
2171.6
4618.25
1974.89
3145.08
1346.04
3147.82
1901.97
4295.74
4118.45
4587.11
2607.02
1395.04
4519.49
2692.24
642.433
830.769
2183.98
2496.28
1744.49
2233.75
517.4
1031.91
1847.12
1381.84
4315.88
2869.22
5779.29
4520.46
6609.1
4259.53
3937.31
2330.06
1533.79
2630.9
2823.01
1560.68
1704.37
3001.58
361.19
1349.6
1729.22
3365.67
2240.12
2090.72
1961.7
980.695
1185.29
1157.77
684.943
1086.5
1593.8
1492.32
2375.42
4228.43
5006.56
3273.71
1852.72
1601.73
1317.13
1253.32
2946.12
2546.39
1992.04
4820.01
3553.76
3443.06
2212.07
746.764
1231.91
1429.29
2651.12
3233.68
5278.94
994.537
1212.58
938.7
369.572
954.782
5210.82
6452.57
9048.17
7666.31
3887.42
5144.43
4275.9
6236.91
6126.14
5056.13
4765
2810.92
2478.87
2365.51
1175.34
3879.6
3007.9
6385.36
4893.17
2660.42
2474.5
2146.81
1482.23
2441.63
1097.26
1040.02
2145.46
4804.51
4120.34
6254.34
9087.58
4969.5
2346.72
1953.89
3938.87
3555.36
7349.54
17810.5
6828.08
4806.85
2326.23
4019.39
3529.33
6320.75
4608.46
3007.43
2408.37
1268.98
1945.4
584.98
1407.65
1973.31
2916.5
2755.85
2731.91
2627.41
5861.2
1492.96
765.277
1669.9
1353.22
1630.11
2068.71
1681.63
2384.11
2268.51
7000.41
2820.82
5019.09
4138.97
2065.82
2929.5
2185.49
1845.87
1351.6
2457.08
986.73
580.72
5517.88
6466.82
2926.58
2209.07
2305.75
4822.15
2098.22
3777.54
2367.64
3168.41
1999.91
3274.5
2384.97
5869.03
6437.52
6667.8
4561.38
3089.77
1558.83
3918.62
2041.9
2389.76
2618.49
1064.28
203.543
1455.23
1337.34
1193.63
738
2258.36
1204.98
1808.77
2760.49
2825.41
5081.16
7826.17
5805.98
4436.12
2147.71
4068.88
1147
3863.82
2142.31
6497.16
1528.9
3751.18
1700.32
2653.65
1506.38
4184.67
1940.36
1557.64
3399.76
2557.91
3876.19
1156.56
4345.84
960.039
1395.18
3197.73
5957.44
2433.79
6354.18
6183.64
8033.97
10212.1
5240.83
7859.08
3726.66
3902.29
1388.54
2130.6
1733.05
6428.09
1902.19
2131.34
3274.13
1702.7
3739.61
2477.14
2479.21
5107.22
5423.63
3866.93
5012.99
1606.71
1856.46
3119.19
2695.06
2255.3
4526.61
6773.37
4484.06
7751.84
12312.4
12875
12411.1
4893.08
6190.16
12407.8
15506.3
10386.9
16129.3
14188.8
12549.4
12054.9
9345.42
2975.49
2278.1
1799.89
2567.38
1403.89
4209.58
3119.06
4234.65
3780.63
4391.3
3946.47
7787.98
2728.72
2504.2
3083.02
1274.69
3317.31
2242.62
2268.14
2197.66
6449.01
3868.51
4325.02
3468.4
2449.09
2092.5
1426.13
3328.7
3591.2
2024.3
855.592
214.138
1880.76
2564.72
3043.76
9831.19
3296.4
1153.56
2353.17
3119.49
1394.73
1300.89
1698.63
3286.44
5845.65
3925.57
3100.69
4835.36
7095.41
4817.94
1959.28
1563.32
4290.61
5390.03
3420.75
1137.23
536.362
589.883
2517.1
2689.43
1311.34
1875.17
7090.94
4200.29
2605.26
3533.74
1305.66
1924.31
6932.15
996.425
1629.17
3151.81
4193.28
4343.74
9503.42
8503.58
11112.1
7092.2
5250.66
5039.4
3889.21
9033.07
5378.12
4037.29
2573.35
1807.17
2173.49
2302.29
1698.19
4102.68
3218.63
5027.59
1572.98
2271.96
1368.86
341.321
2101.12
3329.58
2173.67
349.308
1616.21
964.129
1480.79
1864.05
624.569
685.092
2136.41
3027.45
2208.51
4252.35
6247.11
8203
3292.21
2611.63
2351.76
2182.4
652.099
3815.96
3733.16
1025.19
2002.45
2034.25
905.795
1078.21
1417.17
4730.01
3370.38
3287.4
3466.3
5481.57
10327.4
3961.1
2775.18
924.346
1322.05
2303.61
2763.21
1394.48
3984.31
1639.67
2229.96
1529.4
2073
1875.07
1713.97
1165.26
1346.53
2276.14
3806.46
3050.21
4150.48
5857.36
5449.62
1586.54
3881.29
5837.75
1897.96
3297.4
3164.95
902.433
4630.09
3663.89
3118.75
5620.9
4486.25
1575.54
3014.9
7186.41
4588.46
2757.36
3688.33
741.208
3425.3
1249.55
4624.23
1430.4
5862.84
3084.9
5000
3285.97
2182.48
1151.78
1967.29
2758.07
4005.05
8098.04
6457.33
9751.31
7309.58
4529.47
3133.76
3938.79
1842.21
2671.32
3799.77
1909.65
3436.59
1388.6
3355.22
1758.81
1415.77
2063.74
1412.4
4121.22
2623.85
4953.97
3094.89
3693.46
3450.47
2493.15
691.51
3160.23
4484.45
3827.13
3601.56
3672.17
4309.2
10290.9
6524.88
10235.5
4215.97
4555.68
2700
472.059
2910.48
4868.32
2450.82
3511.12
1890.75
3236.78
1364.51
3799.26
4107.57
1737.33
4596.56
4566.36
2039.74
2521.98
2546.6
2989.42
4013.9
3761.41
801.075
2245.4
3240.21
2803.41
1800.01
1009.19
1338.18
1868.07
4450.26
1646.59
2359.72
2284.99
11035.4
5281.68
6679.11
7014.56
4705.84
9913.95
3961.03
3756.96
4817.41
7803.77
4505.05
1039.28
1083.49
2089
3361.66
6187.97
2892.72
2228.6
2811.19
1706.44
4248.21
1421.09
3900.36
2085.21
3267.45
2551.32
4737.67
2310.65
1143.26
1191.03
2382.54
7627.31
5532.45
1805.56
3975.87
6495.79
2441.44
3467.49
1424.39
1281.56
312.878
772.36
4385.7
5839.23
6216.37
4372.61
3536.66
1395.77
1288.12
4497.46
5450.44
11323.9
6435.29
5189.14
2564.26
3085.1
5264.69
3591.18
2057.37
1349.55
929.529
1591.62
983.985
2114.57
4574.63
4464.62
4736.96
7079.47
10133.3
6509.93
5403.65
4972.16
5237.93
3476.45
3498.92
5388.57
5736.95
6753.42
4748.15
3985.8
2673.12
3043.29
624.917
1222.76
2978.21
2696.84
1124.95
806.61
1734.53
2901.93
3009.52
2743.89
4114.69
1722.13
3934.33
4200.32
959.62
3302.33
1180.1
6045.26
3373.14
2933.49
4126.32
3317.12
6404.93
5137.45
5581.15
3319.76
3715.18
4648.86
2473.99
1989.2
1076.14
2862.79
2012.21
4578.46
3502.81
920.386
1927.99
1374.56
1777.04
2600.74
1838.22
2986.04
1466.55
392.67
4567.75
1264.45
1357.34
4111.31
2039.85
567.074
2091.87
4314.81
4796.12
9619.68
7425.35
16455.6
5002.25
3369.59
2882.46
2627.41
6015.73
2390.73
4639.29
1303.68
2045.4
4692.85
5495.44
7476.98
4989.43
2461.18
985.216
1402.23
2731.98
5819.21
1252.11
2095.41
3698.47
953.192
3715.13
919.796
950.901
2501.28
2020.57
1617.29
3186.83
4286.41
3321.46
2659.93
5093.81
7267.47
3750.31
4218.67
2854.38
3872.97
4153.46
2318.77
5437.58
5481.75
5572.8
3777.36
2073.79
4761.78
4240.53
3071.77
1841.3
1197.26
1877.33
913.15
2186.31
1816.44
1201.98
2072.87
5817.44
2874.32
4324.99
3958.94
3878.27
4917.93
8408.09
3643.89
2342.09
3123.5
7326.87
1604.48
2466.59
2665.19
877.614
1607.25
5290.63
8906.38
3898.7
5687.88
9017.78
6767.29
5859.53
8039.1
9831.17
6571.7
5255.79
1010.14
2243.15
2002.36
3178.43
1856.28
2193.14
3818.14
2312.34
2813.77
4326.88
3118.13
1708.69
1123
1179.45
1410.28
1618.29
2479.64
1011.75
3814.18
3775.15
8959.66
4685.34
2525.73
7061
5447.92
5179.01
4877.73
1129.63
3438.81
3671.5
1523.37
5212.04
8144.04
4324.26
5466.83
4114.78
2482.49
874.259
2986.42
1950.61
1964.89
1281.07
4302.01
3712.15
2576.35
724.242
1853.83
1015.63
920.761
778.554
2370.38
1246.26
3633.78
5366.28
5812.99
2465.77
4332.33
3389.22
1964.74
2592.88
1854.53
1308.93
