39172927.6
-22595256.38
21416269.932
34185563.6
58871721.55
88279542.8
-15607746.8
-3911723.99
29370809.623
53574154.9
64194811.5
9348800.1
20887511.7
46320396.635
25669208.4
60812883.35
18713242.0
-8565644.7
1776185.84
-9624931.21
32790502.7
-16176734.17
-7346791.3
4868651.9
58433323.2
77151409.2
37762323.8
62687961.06
43864457.6
5663624.89
-18825335.42
-8289543.83
35173731.25
6739241.19
35774440.11
7672809.81
54930009.4
10431297.31
37155171.7
47886625.95
46342761.001
20245546.4
23287736.86
29417676.4
-23177047.9
84644819.5
44973880.2
7255304.42
6214785.29
-751756.45
109766579.4
-4287595.77
15122797.9
46077986.88
26436221.75
18928268.5
63769311.2
39151638.53
51128988.68
66305150.29
-640074.78
89838219.44
57066739.2
54248958.44
15260033.9
7699226.5
120597.3
62581683.4
8073283.11
-21901932.3
37238559.7
22939468.8
89841012.7
57225461.32
24229845.1
37470484.9
48772645.6
-4715332.93
41106675.07
9393877.0
-28701844.13
-18918938.2
-46950286.99
-31221035.54
38931662.39
6700218.9
43216451.43
-33939624.0
27997656.5
22618004.49
25942660.8
33131654.3
-2539313.87
93667886.51
5191009.17
22996420.02
41804096.17
38193556.3
27923883.2
19365301.34
65118216.9
42199898.3
59661665.97
8267193.55
50667081.7
67043770.1
-13773203.72
42835631.9739
224012651.8
97438958.9
25779670.94
3073005.372
2358487.54
40015036.604
46203632.1
33097034.7
3822495.7
11433455.786
-8123110.475
130203937.7
11740360.36
40975321.12
44465755.58
30276773.97
-17416593.9
8714741.9
24123181.6
27897244.6
11929851.081
1289160.274
-15971966.54
-50778951.8
49873823.7
40704213.49
-8301938.73
4806116.98
-14351630.27
16215106.2
-27079801.09
-23993889.67
-26054500.7
37481271.56
15985075.29
54835439.8
36294187.7
37807588.73
67853886.79
58017472.4
106968097.1
41609588.1
60299493.41
31242692.6
-58486543.2
-7890365.8
-9842678.0
15907363.4
-16431111.3
21228014.775
36795720.8
74094621.6
46409037.59
67187662.62
37512526.1
24849762.6
-78003966.8
-20357125.63
71203776.1
84081576.0
12025684.39
-16658530.0
50781310.69
61280028.8
61258985.33
75859247.84
6123219.46
27077403.1
29638514.6
2926775.97
21835560.6
36216169.1
51781541.719
23892672.2
-3557415.3
14216290.4
113210886.9
53196209.3
38955526.5
51008253.5
44941526.426
16448948.38
72220298.37
10026603.7
131708651.74
59829980.03
50322654.3
-5521841.016
-43609675.21
8599468.231
-12330722.3
74859191.68
8256202.99
-5048134.18
29309960.81
83109439.35
42390442.5
28574177.6
45245780.6
-39304210.9
20081903.0
33359280.9
-14634689.26
14584684.94
49949096.0
21463921.45
-8473040.468
23366840.62
44158599.44
35445577.3
75641353.6
87906160.4
-14441600.1
-15177402.3
22987618.55
-13757316.8
44115749.94
-18069210.56
72303555.9
10989787.8
126874263.1
50619080.4
-18719405.4
17872801.31
61027801.9
52353129.5
13154289.58
14961304.38
40171463.7
38968996.72
74814651.9
52348273.35
16692821.8
80237990.0
24911764.8
-13774584.8
10270202.8
32793008.09
3966436.3
2166390.3
66782170.87
36820723.4
30411415.9
-20671568.04
11077609.9
-21364250.63
607295.75
26612517.2
31452536.2
-23207510.8
4228472.96
15966572.68
61677477.7
37378042.152
40790510.2
48284367.8
50769273.6
58809856.8
6172852.98
21669807.49
15593888.6
19157796.8
63440684.22
-33220544.9533
53322431.65
-11778949.7
832276.36
-22717206.0
-1335955.94
-4044663.78
-5592888.9
57519232.7
24302517.8
20199675.7
6511078.64
63050728.6
10913658.5
31221111.22
71601753.5
34203858.74
10544821.11
32668350.2
45646465.89
-14865521.2
72748164.8
7825166.79
80128767.81
26628180.69
77565417.93
123777458.064
6077353.37
81331706.3
-6991708.2
-15927999.9
-8122313.5
98515135.9
40826569.6
40357038.7
142801145.0
47537504.8
9956933.74
38820185.9
37570279.6
34437109.2
-37141359.8
23449927.16
21895871.36
68910896.15
104789687.9
71230871.9
47449685.167
15636594.5
-11255846.0
-46091851.3
27866787.0
60173447.9
-36762428.4
-10328244.3
53235130.3
33458950.604
-6085409.49
20596086.79
16628973.339
59560650.13
-3720502.7
49100399.68
85061131.3
54718547.0
168681289.9
27913172.9
14017222.73
100833386.56
117546071.3
51176420.929
58987074.93
55697520.5
18098425.6
32667269.36
61070640.5
43353967.6
-19337750.27
109844433.49
-32752379.94
107542057.8
77584795.2
40079788.59
-1431833.9
4051335.5
-6373746.4
-13493550.3
14966514.5
71018571.5
53168906.74
16508769.1
38398760.18
43447411.669
9038733.9
41788825.39
22937433.4
27395177.3
51826065.51
10423053.8
18110675.898
16714038.8
21113181.6
83154384.2
46971375.3
62966837.73
22953340.131
11168661.24
40390048.8
82951495.4
73199686.94
76604554.8
49030147.56
-40966057.5
10147275.0
28542586.6
41369423.65
-17436282.47
37098761.4
44851894.28
1429341.71
13093106.5
-53445241.5
12048237.96
23537303.65
46146226.42
74407283.29
12072725.94
3897444.89
62212325.0
10789030.6205
18696085.41
32825458.6
-45280189.4
371996.0
12019890.089
-4880094.1
-16373358.3
53354766.84
10314944.55
11321423.95
39312010.2
16249575.85
41162236.18
45801762.93
78826421.7
11742618.0
47683718.28
7069249.77
-17506557.36
58888690.7
-26769380.88
-45957427.9
29737777.5
19245553.4
41879289.14
1412627.55
28198357.5
54458411.7
-24428815.12
72503110.5
19514123.7
23817063.5
46497245.6
8187369.15
31761669.1
74795735.8
-684145.5
43458031.41
-26754413.4
25124827.82
-3495839.38
35366680.54
11900045.5
26292561.71
-47587585.06
23361459.5
41487466.36
-15019412.86
24969951.8
23853325.0
-50403137.3
-12018246.6
-16660631.5
32675802.89
65305815.5
48923562.296
28581288.515
81883033.6
55823096.8
27841619.9
23617416.1
80359793.22
-4879117.0
41199277.98
-25738688.8
46443014.3
-7323717.0
7974706.59
15237191.27
-15972303.66
18744427.24
50582069.3
83706272.87
106508326.3
-29171563.26
67256622.3
49435543.2
20212444.1
59701677.1
48143157.5
-9190409.4
-3658348.3
97316953.0
-7986661.4
27886964.5
7453807.75
-35841348.7
41258476.58
42981615.3
-179.46
-52690999.68
93034341.82
74213383.92
23520563.08
28262912.28
-21239669.9
21435707.5
30315295.0
12026491.4
6314410.9
-19874780.64
4036608.55
-31048501.6
91825447.9
11593285.0
-40894143.0
75910179.203
-907793.2
72164426.45
80999952.96
11373080.53
-27761634.9
22799.0
30532875.0
25760066.28
-5914012.9
97741995.16
47517047.79
55852864.1
45643190.0
-20244379.98
84322528.07
24956518.5
46592694.32
85158384.04
50335881.3
39180300.682
80509351.3
45819512.2
19473513.68
574238.9
6593465.682
13086475.2
56145123.0
37111024.64
79813742.0
93019613.5
-13868017.5
32153369.43
-5373384.7
35530895.7
15970428.3
20320060.82
44563797.3
20927131.2
95207777.79
-41898634.1
54419637.1
-43484255.94
