647546988.5
871001104.0
838379836.0
674616539.96
892520615.0
607995976.0
733512486.4
578235658.4
836365047.0
580878146.0
658033053.0
623916174.0
765472508.0
660431321.54
562426322.0
655882114.0
721190872.0
824448312.5
643400563.6
724967324.0
700723410.0
710622314.5
622008467.0
612215182.42
1009220015.4
645837521.0
773383317.5
715926926.2
805779393.6
678059651.0
898362782.1
717252790.0
746056536.0
685548705.0
787970554.0
631442598.6
800795528.0
658119247.2
632235478.0
742382700.7
702444416.0
827962942.8
823559649.0
756504090.0
607657312.1
557951810.4
700205284.0
731639036.0
813389084.0
651389949.1
674165781.5
587583347.06
701718298.0
701963061.9
651762526.1
700152075.1
735418874.7
752264782.3
627274149.6
818180686.4
563480803.0
592106448.3
747372964.0
733379468.0
602833778.0
726340973.25
759774471.7
707509227.0
674555129.0
690153754.0
660472470.0
786483627.5
812099416.0
754538131.3
707090344.0
721540407.0
1096609228.0
676084985.7
672284020.0
723086629.0
748534268.0
599899263.0
716799700.0
661557687.0
729122734.7
712465881.5
657991050.7
705418969.4
653662953.8
845716844.0
672714913.6
708110368.0
511672065.5
669448657.0
604012782.1
770630042.0
614323196.0
687221597.0
813912549.8
911651095.0
886610895.0
703347329.0
751457378.1
811560685.0
677022231.4
872417724.0
812842564.0
591014250.0
947616205.2
865002086.0
978224890.0
935416212.0
944287487.0
737203844.7
655943082.0
877151009.4
529012109.7
765692634.8
674047333.6
980850325.3
634295151.1
693073553.0
835211580.5
767441341.8
701414892.7
709996494.26
826320565.0
666925338.7
819153379.0
1162573767.0
576702101.8
635230901.6
839715938.0
822773178.8
828393634.9
912391710.6
753526935.57
719453377.7
782715510.9
652138923.0
661238147.5
747837386.0
833172538.15
679515321.0
658510220.0
689024661.3
970583487.3
813877399.0
598085360.5
654506675.6
843333970.5
666205582.1
817357949.0
729190943.0
680477628.3
551736016.0
725805645.9
664575664.0
628598146.1
805732995.5
816708846.1
1011824025.0
736392542.1
763751771.8
732401357.0
642617771.0
626511399.5
755527790.0
663713493.5
750109469.71
997513134.0
755253415.62
664311794.9
652441820.2
665634662.3
728437187.5
643292213.6
803018340.0
766332655.0
626567060.0
584694262.0
703578302.0
837483716.1
689268162.0
966701597.0
624501597.4
952002951.3
673214704.25
750689866.8
673010937.0
795433324.6
642504588.8
633098277.0
675904840.2
544041490.0
878616906.0
696401393.3
686404827.0
616687997.0
585518235.0
699776117.3
659484620.0
769304043.9
869584574.7
837095817.0
844265320.0
847978078.0
675385882.0
646387842.0
726395141.0
711014072.1
752907240.0
758388421.0
733427324.1
700454436.0
555611568.0
660937136.9
896654096.85
944779134.0
654835708.9
614062011.0
793674666.0
706159275.0
763305049.8
764378070.0
690749988.0
869297064.5
812900318.6
767502529.4
568076348.4
621611350.0
652962677.0
652848411.0
747810293.8
625562377.0
695372794.0
632333709.3
696822751.0
844380309.2
779085780.8
588531346.0
713812852.0
757996981.1
643854865.0
880451592.4
697097874.1
785247810.1
647231824.37
776564831.2
621909642.0
666356206.0
621158383.2
671024481.0
592380276.4
565387039.0
796626538.0
883779799.5
659990595.0
811128482.9
816545932.0
617206122.4
681062450.0
787338681.0
686569706.0
750707689.0
716566519.0
721309981.0
708850397.7
625903202.0
728682980.2
801606520.7
585084186.8
674423902.7
649826475.46
650421503.0
713881597.0
855886633.8
704959562.5
747227909.8
928531537.0
784409322.0
539690722.4
779550772.0
834287096.5
706039560.0
653057630.3
633406032.6
595551303.44
678050142.0
730325373.2
628314808.1
667886028.0
695622741.0
893240153.0
758701739.0
749035680.0
600734016.8
813944589.6
700461403.0
965941318.0
792158690.0
797101546.0
701991666.5
685426062.0
579370345.0
705855596.0
735769295.592
892657720.0
675707068.0
537342951.4
636672168.5
782370332.0
645609044.0
613437458.3
654531920.0
798592821.9
693572127.0
627838937.0
584871922.4
672256322.0
804490571.6
1031976767.0
761421227.1
747855298.0
619453245.2
722291688.0
661725099.8
712968529.0
576597634.0
757133410.0
807305512.0
749387488.61
752015479.0
621295609.691
741155985.8
618614470.0
837085181.4
684788918.0
611861439.7
833887686.3
833628321.0
814019817.2
576861240.0
550818587.4
730857567.0
653207884.0
723641798.6
685179536.0
613351903.3
679679264.0
625455676.9
1095046440.0
807134463.0
697200909.9
835193512.0
814863031.0
686572120.0
765189825.6
563158934.0
740541886.0
608197287.0
650291161.6
637271474.2
639834231.5
756485868.0
674166897.3
543495847.5
600314107.0
638314967.3
691000229.0
746502327.3
744879297.0
721101914.0
704118197.7
912764025.3
677392543.0
599838268.0
817106522.8
785524245.0
784013420.4
964486038.0
699213804.0
777278784.1
785286347.0
744219279.3
755485470.1
765775333.0
711538004.9
692161196.6
624276192.0
712255454.2
689253626.5
841506053.0
788557593.28
702212496.0
694837785.0
735543718.7
807065841.0
761005684.0
643693862.03
661721911.0
679779305.0
768575908.0
835919515.0
913075405.8
687473659.1
681930705.37
732336094.0
622765478.0
789119788.8
611958386.0
761002156.8
630796204.0
733573467.0
752172997.2
692113440.2
802049788.0
686167638.0
764571522.7
830284379.7
772152507.5
648360790.0
754440862.54
690748842.0
699392303.4
672785429.0
698193281.0
665343743.0
692167295.0
540620711.8
833580411.0
803323201.0
719443681.0
791614445.0
860049898.6
806469495.0
693431879.0
678531503.6
582257741.4
714594917.0
673992985.4
517238948.7
675231113.2
798036484.0
780647107.4
1066611215.3
782066209.0
618233776.0
693963102.0
714986015.0
750151866.3
799830490.0
595121355.0
635445377.0
834006536.0
669882945.8
725512600.7
608401986.3
844757919.8
696828259.0
846640384.83
720193346.0
778912633.1
730704553.0
750162524.6
736477757.0
642254207.0
975316669.0
763559165.9
722532315.0
681346781.0
853993204.0
850303807.0
959988414.0
651932964.4
763868494.7
733493948.1
701799707.0
607839589.5
949609644.0
679112096.2
723923662.0
651670367.9
638760871.6
594980694.7
784364347.0
765753813.0
750758840.0
819187560.6
642756842.0
844171942.0
744798847.0
657004134.0
724926858.6
696811636.0
615303904.2
811347852.4
776335292.0
651552454.4
824608615.4
770188272.1
597606762.0
718734894.0
765078241.0
679122308.2
696257287.0
675577534.0
505229390.2
917227865.9
773251832.0
630007026.3
733373491.0
606888428.0
642896236.0
742885715.0
754770539.0
654333372.0
836116634.4
655991658.0
789500878.0
690494156.2
597299679.0
602399479.8
622140060.0
642370863.2
886860865.1
877966320.0
790695079.0
854289472.0
627862651.0
830013653.0
653096825.7
734303416.0
470299456.1
785573729.0
811216655.82
665124428.0
719250178.0
666473167.78
705035123.0
739352689.5
807914082.5
671562810.0
552522459.1
602805610.0
904599984.1
683535504.9
882607243.0
860207115.2
656865993.0
