-38589630.96
17743675.16
-46043801.735
-37395869.7
-31595958.8
-6470344.2
-48596386.26
-43423682.9
-62348019.68
4518916.5
24921697.3
18311049.64
-45327767.7
46716658.5
2024337.42
-44931203.3
52642413.15
7018563.251
21212930.8
1459397.8
1871816.3
-66431646.02
9112226.8
7687340.8
-96319100.8
-18356592.81
-71106474.99
-69441023.9
-25984842.36
-19011394.4
-32118898.51
-36247118.97
17519128.6
-8061241.77
-5482324.93
17760847.82
13228358.47
1171444.43
-16251562.9
26264541.8
42518765.57
-84640094.8
-39756202.9
66602981.3
16879471.4
-20724924.5
-15255861.275
-24685687.59
-11200484.3
-17444296.89
24701017.4
9405930.7
12389722.67
15764575.55
21776349.91
-16463309.71
-28132804.71
-34722755.67
-30397865.57
-61917098.29
-26739519.364
-17185878.63
10234457.9
-42197211.3109
-12161092.01
-19368407.5
-93591012.6
-61612535.36
-37280279.63
6457186.7
-21143328.0
41694962.49
48005275.97
9083063.29
36993344.905
8282236.21
12106104.24
33785064.2
-62347799.31
499178.6
33323050.87
19918628.714
-31495562.5
104321967.708
42007705.4
-21664831.5
-10821894.9
-23919030.3
46559967.83
37004156.88
-13106919.49
56255357.25
-67042851.58
-85918471.62
-20269391.1
20018548.7
2043719.05
37156587.82
19240758.3
7942887.5
24107930.77
-14897445.4
-44267486.4
25760482.12
1142375.7
2359806.28
-72670080.7
-40381854.4
6742088.6
24849581.1
140977937.7
42351481.8
5012935.5
-2825475.107
-23594481.25
43913544.48
-25796022.13
-19675214.9
-33021014.5
-55308713.99
-10168087.4
-86467394.9
7168786.18
-16149532.0
54521502.07
2931516.7
85646139.65
-18582402.97
12088955.53
146660520.81
-49139554.3
96477310.73
-64895153.73
-72061120.2
-49808916.74
-33506314.1
3826672.99
-2203877.4
27761865.75
30299055.638
44849624.46
37104941.7
-35587693.0
20799292.1
-35687355.0
-22147276.3303
16427978.43
41109733.6
46425885.1
-13242017.2
20877922.282
-25785503.3
-20974865.58
2106168.0
-4628121.4
-46055425.944
36028264.022
61025192.71
-812264.704
23339161.744
-7937918.4
10088742.23
-58448810.2
-30129465.7
-20209180.6
30210245.3
72303784.93
-8814490.14
8249859.87
-23917654.35
69237485.64
24277159.2
57064301.0
-17392228.55
17981923.362
34482374.2
-3230153.8
19873030.81
59554912.7
12118081.4
3480509.3
-20845938.3
-3407407.046
-40144085.43
-28414060.5
54163495.0
36126218.26
-34462973.3
38959877.6
4431843.82
51618530.6
2235090.2
-71083657.7
19657895.7
19173665.7
20546931.31
-9968642.6
33444498.1
2159889.5
-7314929.96
58832764.8
-15223778.8
12646846.23
-51679172.4
37714229.6
-52507582.5
-24836938.83
7333366.6
61008729.15
-7471565.56
-25042686.824
45293903.2
8067797.43
3734453.25
-44743391.7
78559269.2
-40320888.38
-23196289.3086
-36834257.0
4931473.18
-55926801.77
50125241.0
25966278.6
11657797.5
-13278484.1
12461829.0
65906746.89
1960675.9
-19309963.07
-46260707.629
24731369.06
61752646.16
-19541247.23
15065194.66
12156977.14
30967752.31
-24686616.33
65626430.39
13780824.9
62312870.24
30446536.78
29154218.95
19728378.14
29631881.4
-14396897.27
-43360622.86
-25744406.42
-10781675.73
-38350769.6
-32713615.4
16026270.98
-29475469.14
-42040672.04
-22739139.7
38475814.4
-14518850.78
109358723.3
-15350435.88
-25685332.74
9282730.5
-4255524.31
-8564560.5
22860662.6
-65132613.41
66692320.9
-24065581.0
77991814.61
20987161.84
10055367.2
-22481625.8
4333278.5
-35467939.0
50043015.05
-32892112.39
-10501306.014
-20151846.8
72106312.75
16588746.8
-85978758.28
-9245382.6
-5186028.83
-54644906.01
-29844198.3
-1116271.83
-20293935.9
41481600.979
-70102855.3
-2855171.8
41972557.78
-685120.7
7233698.562
14824509.48
-31542993.1
-27239406.6
983119.9
63916749.917
-6110983.73
-77088149.2
-33708396.433
-2688386.99
-20251862.53
32493588.7
7391464.3
-1797871.02
6398970.5
4532263.3
-67395984.2
-11876706.07
48978017.35
12591785.2
37077965.5
49397610.71
28090037.97
-2219366.39
33622698.97
-18911765.029
20045785.9
24359587.38
-16107117.6
5426493.3
-3223301.4
-10426630.8
8144791.74
16056892.4
42925647.86
53335557.1
-52467008.6
-20407507.69
10255117.0
-107232388.7
-43663970.2018
-53173433.0
-30602773.15
-10841663.98
-30727728.4
52468061.54
13350094.8
1225616.3
55450464.75
14359795.39
22608420.08
-5980377.3
5052625.74
-1193352.76
86545679.6
23907116.0
1809565.1
-21878824.6
13115828.7
16726492.1
-4419904.0
9140372.9
8585300.4
-30009745.54
-64563067.3
35591186.8
12224406.5
-63119569.2
-6724721.8
-31888979.5
32534049.1
42615112.47
-2512571.55
9066085.4
-1396498.39
16920200.8
-45481253.8
-57954116.0
20843971.9
30189230.38
-19308688.5
-21504830.5
72763427.404
19667826.22
-31249081.3
-1505087.4
12002456.2
-34550876.83
-28827459.109
42439081.21
-61452775.2
-14590101.38
3379554.5
65951493.4
-50496731.38
108268272.9
-42114025.0
28229181.3
76432854.3
20963699.34
22138014.86
-6981175.1
-40048267.75
66877403.1
-14561685.97
-30538677.3
34236891.94
68918941.25
-7288800.67
-49091592.16
-17717444.89
29858867.1
-96446850.31
23214438.7
15305726.49
25883328.9
-68004993.65
9229405.9
7293238.7
-7967380.2
-10553383.031
14842656.2
-53717627.1
-21578704.9
-19806309.38
-16493047.2
31230940.3
-86666324.31
-24845570.75
-33198767.91
65866909.77
-44377371.2
-31719365.9
44341161.0
-82787080.64
-4944011.89
-610619.09
-518226.76
38619312.4
-2490152.626
36480323.3
34136338.1
10790556.0
-37452391.0
104585476.0
-25634931.8
-13262355.2
-26588312.5
9879321.98
23132601.07
5479712.9
14473315.19
-23755595.1
-38621235.8
74721064.38
38031704.5
-13732968.6
-29310096.4
47895354.8
-2413971.97
-23226726.1
-60393393.262
71841537.5
16210637.31
31158509.68
-9536935.47
133604665.52
31332477.67
-82650234.19
21789045.8
-5224927.2
-40508672.2
-38921511.4
-3060975.636
-71023693.99
43144963.5
52884316.12
13032671.0
-37750065.5
-78180393.375
-28242057.74
26510382.7
-2487705.9
91502611.77
21324568.2
-49291683.8
12532424.98
13906574.69
4467999.4
-2869388.45
-19137104.54
-305056.2
-9573324.2
-30251691.6
3439332.4
12298938.1
-21170022.1
-17079165.51
35435442.274
-9256779.15
59342191.5
-36891113.0
-14035357.2
-8809465.92
-20730253.21
-10743527.13
-19546827.2
22970246.8
26986534.25
-15024861.45
-20376384.17
29357386.17
-54871929.0
-1888577.207
23274500.3
-41061868.2691
51038436.9
-19844889.09
-52307619.2
47138811.4
-71327187.74
25090507.34
76897776.03
-45711240.6
2643770.14
3085591.1
-8647751.8
27990220.84
16419741.17
-41199780.01
-52958643.6292
-11268605.81
29394252.56
-21322405.29
-39664821.4
34328783.12
-12619952.6
-42700576.9
-7143899.6
12328724.5
-64065073.1
-51747825.03
7580909.1
-25294632.24
35593183.12
22358390.33
-45426697.6
35438098.5
33437284.323
-53010187.0
-20814450.9
23659141.24
3911358.7
13827815.52
28555418.23
113771316.87
37192240.28
-60527048.2
21212280.24
18300305.55
