-24207821.68
-52415122.63
-58302747.1
-35299843.8
-17609906.5
-21156303.502
20599235.4
1090447.8
26479772.8
9343047.1
20979522.9
-40404774.74
-13784600.3
-81372066.2
-5107134.41
42069448.21
-11089375.691
35130591.8
55452583.7
41550037.45
-7138419.3
1267002.8
-27550689.3
-17962085.1043
38827782.1
222958.1
5591144.1
-26287666.062
-1435398.7
31131342.2
14014990.15
2675489.8
-15606360.84
12254702.49
598952.9
62163241.4
-6318081.69
-9203679.7
35647763.51
-42230992.339
27901704.56
-114548662.6
6701928.6
-5174763.68
22493453.8
12988168.92
-49882275.3
20009915.8
-11562459.2
40111324.48
-21463031.29
-22616047.77
-1413727.16
20896557.88
-8403739.36
14509342.5
10307221.4
24488844.5
-19891546.0
48932922.9
-51315239.3
-23702656.9
-48768367.4
-11344685.22
-69592991.71
26481838.02
5362072.91
-4680119.5
25021497.08
40109859.71
-55216595.47
-4777032.9
71271414.3
-18170170.7
-11271280.23
-48493382.81
-28393067.33
9456082.17
-12476733.8
-2889342.6
-31610909.3
8471179.5
39173742.25
-783661.8
26473135.6
-21880726.14
6064474.7
35336903.4
15987766.832
1618087.0
-25163625.63
-55303800.13
38112730.8
-24959962.41
19640916.16
-2981253.13
-28478580.5
8624754.58
6646530.7
-5091572.3
-50137421.24
43676237.2
-41093224.3
8502381.3
-23971589.8
32905658.6
9478470.52
-11381060.92
-59426992.2
-118252789.2
-60506803.96
-26495270.3
-46969612.6
14409263.56
77223332.71
16092339.28
-2490107.2
20201668.9
3435265.01
-40380917.94
-21275334.46
22985442.8
-25664204.1
17166084.22
-17236001.8
-27980679.4
-6294071.35
-8753495.544
4934845.6
51243440.159
-17945934.41
-7803969.51
-73057774.85
-5921792.14
36486675.73
-30464152.4
-8668363.7
-16191544.866
-60007099.3
-23819893.92
-31791685.9
-75589697.49
32190650.39
25746414.58
105598880.83
37521145.71
-52905341.6
-43555978.84
-2897225.19
44826137.01
18340829.8
4879982.4
30761887.56
-29126370.05
-33396758.25
-40971647.3
-270597.24
5897595.9
-1050390.89
-60544905.2
-2008624.4
96809085.2
24459114.0
2842297.9
-63125445.79
70427727.84
1640181.4
9320882.35
77646561.16
14681723.6
-107968713.6
75366506.2
-40632538.882
21212462.87
-1455917.09
17458474.07
63488336.34
96203595.0
-67423798.94
-2555040.2
-11934124.2
22009968.5
-1356263.2
-11739428.81
-5646011.51
-38953091.62
14280458.16
-6613542.9
-892655.1
-41709346.8
-41817911.6
-47299595.12
26885681.584
20060420.5
-20106835.613
-11550896.9
29655301.13
40082718.4
21107431.3
-39496234.9
26629179.4
-29175043.7
-59186487.1
-8294230.769
87330475.3
-297099.6
61475535.33
-17969662.0
10262984.8
23275916.99
15421158.77
-48984192.9
33422167.7
24933004.77
-716528.29
-12165844.5
-48221720.9
-47765075.1
41859825.97
10448842.1
2863097.1
82634731.4
-40639662.1
14153856.2
-8638480.7
-1321929.7
68162618.6
-32246437.69
25811873.56
3382707.0
23204514.25
1135515.3
-96985541.64
-39218649.9
-16573858.61
45205527.37
13349558.5
55684466.35
-50450010.0
258890.1
148805.2
14601001.4
-13952930.25
-29575101.3
2340654.4
-19698006.6
-55523288.8
-4920172.9
26153104.4
23009723.58
-40481650.37
-18981377.91
59450272.3
20789164.6
34291647.78
-44775640.5
46166874.8
14103107.86
-45258966.78
-54089705.31
-5457164.9
-25265027.05
-37525108.7
17733953.2
27915220.9
10350099.4
16415455.1
63240784.45
39616088.7
34382479.8
46653401.4
42350865.12
-39035695.74
-9206109.9
10598583.54
32032564.6
11650385.77
-14614438.088
-25089017.56
17299246.71
-30426787.8
12970541.1
-10905222.8
42433277.41
-16102270.142
5624464.55
-43883613.35
10881496.209
10548315.636
-133171417.68
-11407623.9
-45199540.9
7910740.51
94717317.0
61029675.1
37732929.15
-16087498.502
1421166.93
-62610516.96
29527461.1
-10364263.626
15611213.9
-34174712.7
58159583.77
-58026146.7
60761823.6
-31110127.1
43172119.3
-5272776.17
2551896.7
-8250357.276
-13778276.63
-45886791.2
-6504810.49
-32708557.6
67204767.1
-34839968.201
-37860794.2
-41163213.46
-56782483.6
21718376.88
-21662097.9
3364653.06
7382618.17
-11157105.9
-69631800.95
25906984.9
53383894.8
-2299434.11
4964250.5
-15146986.4
10563983.4
-13032112.3
-20884297.43
-13523182.0
-8150799.0
-39743682.37
33374815.67
18266931.4
-60109109.3376
-3839639.1
3760694.1
-5156628.6
-5037273.68
-25494268.6
-25436935.9
28511900.39
-39256764.0
-13059523.74
4108571.3
27839865.91
-27696527.5
40247821.5
19153416.4
-19931403.4
-4881558.2
-31208743.17
28278360.38
54374166.08
13852392.5
2590457.5
-1898956.33
13859450.2
-404174.5
-15054915.55
70657279.5
20143297.7
31304485.98
-80239876.7
16856246.6
2928178.06
-64472245.8
47547856.8
61117109.51
-9292493.5
12287276.9
8959739.07
23496109.5
62991128.95
-51499792.3
47168126.69
11112017.8
9244811.7
-5297621.89
-325094.21
-36264128.05
-3297213.9
27680520.49
19175520.38
-12644562.15
-16659872.89
9401551.1
-67928548.3
64650902.66
50651203.8
33649818.2
-18453411.4
-276014.14
13235286.2
1128930.0
-32978859.85
18114003.61
-27519711.1
-12094314.86
9235128.15
464378.86
47939989.7
23240597.0
19424622.7807
16793216.44
-12782425.43
59495445.89
4213660.5
-8402221.86
-3187344.5
-64997244.3
54733044.0
-12032672.99
8306718.0
17021016.54
6808914.51
36434835.26
53796084.5
53171563.3
-45749164.6
-12576421.37
-11701595.1
25516653.2
52020269.54
-17593061.31
-23521017.54
12757412.0
20220839.63
43482169.05
58819988.03
-9386513.19
44789761.72
71120917.24
33188817.3
-9748071.4
-49415871.76
38849816.4
68916159.8
-16727365.8
66851921.93
-23479093.39
19135807.14
-40308103.76
10593660.1
-32793282.8
-35303815.15
-7570154.42
24750455.08
3726147.2152
36089438.51
-72770902.0
-2424720.1
42549726.3
18276183.5
13325020.7
2809674.579
12166160.6
-20038779.67
11954051.13
-15648751.36
-11641925.5
-5749322.52
-12732619.9
-23282382.9
10115127.16
-17595449.2
-4671214.1
31110363.88
-739814.09
23486519.83
-27957656.73
33224576.71
-35778148.0
50634682.0
8382672.16
37270362.8
28867654.9
23683605.2
-1601042.29
-39651603.74
-38164471.9
31508136.9
-104208852.46
-34303284.2
35569638.09
-23419581.38
-6216937.8
-41256023.962
-34048780.66
-71336033.12
31610496.8
8821492.37
-14026666.5
7317385.0
-8992352.8
48213249.47
1075836.29
10951662.88
57235004.6
56825052.7
-40713992.04
-17383395.6
-32202204.9
-44196040.76
-33483129.42
9316864.0
-27414956.91
7678234.6
-9822706.94
-24661650.16
49388606.8
-47800226.5
-37063801.051
-53991414.3
63045196.7
-70361082.1
3559652.55
-16058607.95
4729428.8
52909140.9
-17476036.2
-9704595.2
72606250.8
-34373975.1
-20322081.3
66381766.3
274599.3
-57867166.8
16213838.3
19259467.4
-3796989.6
-34219424.18
-16653796.0
707961.15
-17690622.98
-23001286.1
28016598.0
29900349.4
-11413661.0
43247696.0
51206768.2
10300602.83
37304777.24
21027506.4
-25877001.0
