-8.60073e+09
-2.54886e+08
-3.85229e+10
-3.03481e+09
1.17495e+10
1.74143e+09
9.98551e+09
1.84023e+09
3.94078e+09
-1.28108e+09
-6.10874e+09
-7.75527e+08
7.14606e+09
-6.1167e+07
4.79301e+10
-7.272e+09
4.16279e+09
-5.17654e+08
6.43743e+09
4.31685e+09
9.51117e+09
3.41501e+09
-3.21151e+09
1.70246e+10
8.34585e+09
2.6289e+10
9.40168e+09
1.84519e+10
1.71187e+10
-1.21655e+09
9.29792e+09
9.97089e+08
-1.49979e+10
5.61682e+09
1.04211e+09
-3.58339e+09
2.20509e+08
7.56772e+10
1.04114e+10
-5.33634e+09
-1.34423e+09
2.55623e+10
-3.6154e+08
4.03129e+10
2.11561e+10
-3.69414e+07
1.35377e+10
2.84539e+10
-1.93327e+10
-6.11332e+09
-5.67008e+09
1.00199e+10
1.90456e+10
-4.56316e+10
-4.34794e+10
3.87796e+09
9.53087e+09
2.94455e+10
-2.01419e+10
-5.93453e+09
1.22722e+09
-2.18076e+10
-1.18635e+10
1.0988e+10
-1.91419e+09
1.00402e+09
-1.83493e+08
1.91626e+10
4.87526e+10
-6.30795e+08
1.03049e+09
8.39168e+09
1.30251e+10
8.70154e+09
1.87295e+09
1.21184e+10
-9.1858e+09
4.61035e+08
7.35897e+10
1.61112e+10
2.18269e+10
-2.00497e+08
-1.59514e+10
-4.26358e+10
-5.74756e+09
1.08815e+09
1.73016e+10
-5.11938e+08
4.46391e+09
6.36511e+09
2.45888e+09
-1.5081e+09
-1.16942e+09
3.32485e+09
-1.45513e+10
1.39914e+10
1.56619e+10
5.6658e+09
1.69879e+10
-1.26956e+09
2.75213e+09
9.65901e+09
-3.90614e+10
4.82918e+09
-6.56095e+09
1.26705e+10
1.05204e+10
-1.49662e+09
-6.3438e+10
-9.40052e+09
-4.75923e+09
1.02731e+09
4.45027e+09
-4.03012e+09
-7.17375e+10
-2.04489e+09
4.31708e+09
5.43366e+09
7.36304e+09
5.30398e+09
2.09497e+10
3.45696e+10
8.09291e+09
-1.07745e+09
-2.48856e+10
5.71787e+09
-2.03427e+10
-3.41961e+08
2.32035e+10
1.12851e+10
5.84967e+09
-4.3177e+09
2.28792e+10
-2.11352e+09
-1.70326e+10
1.08346e+08
-1.82249e+10
7.42946e+09
-1.20677e+09
-6.06151e+09
8.38978e+09
-1.04995e+09
1.09333e+10
1.8255e+09
1.33697e+10
-1.07218e+10
1.01302e+09
-4.73213e+08
-2.25939e+10
-7.7511e+09
-3.59913e+09
9.13733e+09
-1.23713e+10
2.76727e+09
3.1061e+09
5.07007e+09
-4.44794e+09
-1.94279e+10
-2.19912e+09
3.20818e+09
2.75271e+10
1.93512e+10
7.96014e+09
2.67002e+10
4.71093e+08
-4.6213e+09
-1.38786e+11
3.46598e+10
1.09247e+11
6.05365e+09
1.11352e+10
7.87536e+09
-5.35293e+09
1.08801e+10
5.39788e+10
-5.97573e+09
1.20504e+10
4.03927e+10
-1.70338e+09
1.92842e+09
7.25253e+09
1.60459e+10
2.84236e+10
-1.43145e+10
2.10063e+08
-2.73449e+09
-1.77644e+09
4.77301e+10
1.12256e+10
4.28783e+08
2.70516e+10
1.09409e+10
-4.54401e+09
-3.86506e+09
1.42563e+10
-1.15536e+10
1.81977e+10
-3.60499e+10
1.3215e+10
-5.99074e+09
5.39134e+10
1.06969e+10
7.93061e+10
5.65766e+09
3.8938e+09
-8.32329e+08
3.32407e+09
2.23061e+10
1.8504e+09
5.88988e+10
2.47301e+09
1.94965e+09
3.26915e+09
-1.30799e+10
-1.36295e+09
-8.04952e+09
-2.83886e+09
4.37763e+09
-9.00831e+09
6.07052e+08
1.28053e+10
1.06422e+10
3.66845e+10
5.92588e+10
7.33905e+09
-3.80872e+10
-8.30244e+09
-2.6287e+09
2.4998e+10
-7.01719e+09
2.26184e+09
9.47418e+09
1.33903e+10
-9.86747e+09
-7.23787e+09
4.07699e+10
2.41646e+10
-2.63211e+10
1.43317e+09
6.41459e+09
2.88581e+10
5.44703e+09
9.80831e+09
-1.01349e+10
4.10724e+09
3.37045e+10
2.73086e+10
2.1324e+10
-2.23289e+09
-2.89405e+09
9.22039e+08
3.46635e+09
5.90366e+10
6.13144e+09
-1.32946e+11
-2.41298e+09
-5.91464e+09
-2.57581e+10
-1.29031e+09
-3.0733e+09
1.59056e+11
-1.36014e+09
1.13824e+10
-4.75916e+09
-1.04073e+10
1.29956e+10
2.3453e+10
3.15928e+10
3.04655e+08
1.84923e+10
-2.96046e+08
6.56855e+08
-5.58143e+09
3.24129e+09
-1.19611e+10
5.26044e+10
1.08638e+10
7.01412e+09
5.86654e+09
-2.52287e+09
1.24237e+10
8.76304e+09
2.62935e+09
1.52633e+10
1.40177e+10
1.74644e+10
1.55604e+10
1.20347e+10
6.16947e+09
-7.47831e+09
1.49875e+10
1.10202e+09
7.64182e+10
-9.38855e+09
-9.61763e+09
1.34349e+09
2.17101e+10
5.98695e+08
-1.25358e+09
-3.6203e+09
-1.10659e+10
-2.6823e+09
2.04957e+09
5.4939e+10
2.31641e+10
7.33475e+09
5.60846e+09
-5.66758e+10
8.62818e+09
9.36469e+08
1.10898e+10
-1.47727e+09
2.98582e+10
-1.13162e+10
-6.62787e+09
9.13582e+09
5.54105e+10
1.86279e+09
1.90289e+09
-1.1163e+09
4.86586e+08
5.31159e+10
-6.76435e+08
1.92509e+10
2.29272e+10
-2.33451e+09
1.11881e+10
1.9752e+10
-5.50785e+09
1.49434e+10
5.84002e+10
2.96611e+10
2.21212e+08
2.54538e+09
8.99901e+09
-1.43373e+09
-2.14158e+09
-1.51739e+10
-1.23231e+10
1.04487e+10
-2.52699e+09
-3.77761e+09
1.42122e+10
-1.20543e+09
-9.22354e+09
1.04029e+08
2.91936e+09
1.46909e+10
-8.41845e+09
-1.18848e+10
-1.44456e+08
-1.02963e+11
1.1463e+10
3.83709e+10
-4.79107e+08
8.52182e+08
1.86864e+10
-7.33579e+09
-7.01489e+09
-1.90481e+10
7.70483e+06
-1.51685e+10
1.41243e+10
3.0953e+09
3.4059e+09
3.89545e+09
6.63105e+09
2.38535e+10
-1.41889e+08
7.15248e+09
1.20741e+10
-1.2431e+09
8.07086e+09
1.76001e+10
7.99844e+09
-4.19743e+08
1.89841e+10
2.88886e+09
5.66229e+08
3.17511e+10
8.85287e+09
-5.05357e+09
1.10116e+10
-1.03674e+10
1.03364e+09
7.07874e+09
6.86036e+09
-1.36402e+09
-4.56531e+09
7.57634e+09
-1.14483e+10
2.21036e+08
4.97866e+09
-2.03317e+09
-3.82467e+10
1.00919e+10
5.16463e+09
-1.11166e+10
-1.14452e+09
1.14636e+10
8.38747e+09
9.33382e+10
-1.93256e+10
5.75327e+09
-2.54918e+09
-9.52197e+09
1.83315e+10
-5.43897e+09
-5.71958e+09
-3.29963e+10
-8.62492e+09
3.29029e+10
2.43762e+10
9.95998e+10
-4.78035e+09
1.75651e+09
1.67005e+10
4.11062e+09
2.53785e+10
1.67976e+10
-4.43125e+10
-1.95491e+09
2.20341e+10
2.99842e+10
-1.29298e+10
8.66179e+10
-5.10326e+09
-4.21041e+09
3.88771e+09
-3.04128e+10
1.25537e+10
-3.44172e+09
-7.77335e+09
2.34249e+09
4.06887e+09
-5.75095e+09
-2.07406e+09
3.61051e+10
-4.8495e+09
-1.54073e+09
-5.15651e+09
4.90556e+10
9.5713e+09
-1.01819e+10
-1.56653e+09
-1.89925e+10
5.81115e+09
6.62541e+09
-8.73105e+09
-3.30654e+09
1.00366e+11
1.2607e+09
6.10811e+09
-7.30526e+07
-1.09744e+10
4.32572e+09
-2.34917e+09
4.6484e+08
1.10741e+11
5.9989e+09
-5.20514e+08
-7.63384e+08
-2.37851e+09
-1.03669e+10
-7.7805e+08
2.47667e+09
3.37515e+09
3.96182e+09
-1.56899e+09
-7.67142e+08
8.29048e+09
3.24663e+09
-1.79268e+10
-1.44215e+10
-6.61734e+08
-5.78783e+09
5.65244e+09
-8.8299e+09
-3.07294e+08
3.93832e+09
2.05241e+09
-1.19573e+09
1.71809e+10
-9.52854e+09
-9.79593e+09
6.33364e+08
3.17756e+10
8.45766e+08
-1.90903e+10
6.91767e+09
4.8132e+09
-5.4005e+10
-7.79185e+09
3.5267e+09
1.22808e+09
8.0024e+09
6.88341e+08
-5.8183e+09
3.19997e+08
4.90186e+10
-2.11427e+10
2.07179e+10
-2.30599e+09
1.16134e+10
-1.83826e+09
8.49326e+09
9.86686e+09
-2.65001e+10
1.06623e+11
1.04038e+10
3.27501e+09
8.98286e+09
-3.68993e+09
-5.40528e+09
-3.29704e+10
4.55771e+09
5.96889e+10
-1.84902e+10
3.76782e+09
5.1463e+09
-6.5004e+08
1.37247e+10
-1.09753e+09
1.54634e+10
-1.119e+09
3.05624e+09
-1.73353e+09
6.03375e+09
-2.6693e+10
1.81759e+10
-4.74276e+09
-2.75313e+10
-2.65134e+09
-5.4593e+09
-4.14267e+09
1.726e+10
-2.40575e+10
2.70984e+10
-7.71571e+09
3.92369e+09
-1.1329e+10
2.76301e+10
-1.11253e+10
-6.16688e+08
-1.07132e+10
4.39697e+09
1.94296e+10
1.71315e+10
-4.28602e+09
3.61858e+09
-7.4432e+09
6.6708e+09
-2.76946e+10
-4.59623e+09
1.10731e+10
-7.71317e+09
6.84587e+09
-1.09323e+10
-1.5063e+10
8.44744e+08
-1.22839e+10
-2.21654e+10
2.63758e+09
1.96166e+09
-2.1984e+09
2.31172e+10
2.13217e+10
4.69943e+09
5.64159e+09
-1.26999e+10
1.84103e+10
-2.78343e+10
5.41146e+10
-1.47156e+10
5.21444e+09
5.08482e+10
5.23749e+10
3.26304e+09
2.11368e+10
3.29139e+09
-4.45193e+10
-1.05413e+10
-2.45901e+10
-2.01437e+10
3.80477e+09
-3.34311e+08
-1.76677e+10
-1.0435e+10
4.87392e+08
1.50059e+09
-6.77741e+09
-1.03259e+10
1.16779e+10
-5.85397e+09
-7.76679e+09
-9.28374e+09
-8.24243e+09
1.24025e+10
2.72289e+09
1.56767e+10
6.94799e+09
-2.49564e+10
2.44025e+10
7.17878e+09
-8.44627e+09
-6.84893e+08
1.10069e+10
8.5459e+09
6.75701e+09
-2.65866e+10
1.38605e+10
-7.39378e+09
2.41512e+10
-9.51969e+09
1.13178e+09
9.3105e+08
-5.79308e+08
-2.12223e+09
1.66693e+10
-2.56e+09
3.45891e+10
5.89831e+09
-1.01203e+10
5.92653e+08
-1.09604e+10
8.70202e+10
-2.62039e+08
-2.71744e+10
1.99983e+09
-3.1393e+09
8.73396e+09
8.19393e+09
-5.22773e+09
2.51367e+09
1.89651e+10
1.10999e+08
5.67365e+09
9.76154e+09
-3.72497e+09
3.21629e+10
2.73123e+10
2.62497e+09
5.12868e+10
-2.86679e+09
3.41686e+09
-2.82082e+10
1.79474e+10
1.46477e+10
3.68514e+09
1.70044e+10
1.4815e+10
8.05828e+08
-9.1781e+08
-1.55021e+10
2.88994e+09
8.66832e+09
3.86097e+10
1.47465e+10
-1.74303e+10
-1.40321e+09
-1.2377e+10
6.18322e+09
-8.55212e+09
4.38022e+09
-7.81887e+09
2.30686e+08
-2.70939e+09
8.32968e+09
7.79548e+09
4.48338e+10
1.24639e+10
9.13755e+09
1.16316e+10
9.9418e+09
1.26598e+10
-1.73336e+09
-4.00949e+09
4.83801e+10
-7.74483e+08
6.52803e+09
-3.65574e+08
-4.06469e+09
8.32091e+09
1.96207e+10
-1.43557e+10
-3.53801e+09
6.53024e+09
1.26607e+10
-3.93174e+08
-1.66835e+10
8.00969e+09
1.39827e+10
3.99494e+09
4.17005e+10
8.65987e+09
7.94981e+09
3.20993e+10
3.0207e+09
2.23467e+09
4.46329e+09
1.35497e+10
1.48618e+07
9.24067e+09
-4.13198e+09
-2.17324e+09
2.64667e+09
1.28088e+11
1.57316e+10
-4.29802e+08
2.8438e+09
1.46617e+10
-6.4777e+10
-5.74254e+10
-1.8629e+09
-1.11058e+10
5.59414e+10
1.85338e+09
1.65918e+08
4.99321e+09
1.45353e+08
2.42183e+10
-4.57898e+10
-1.31121e+10
2.46157e+10
8.2231e+09
1.86668e+09
-1.83153e+10
3.10144e+10
-4.73599e+10
3.34208e+09
1.64293e+09
-5.26239e+09
2.06849e+10
9.09216e+09
-2.60134e+10
-3.02403e+09
-6.55865e+09
-5.77907e+09
-2.78404e+09
-2.47634e+08
-5.4148e+09
4.57993e+10
6.37128e+09
-5.15621e+09
-5.85732e+09
2.01287e+10
2.63942e+09
-1.25298e+09
5.48362e+09
8.75362e+09
-1.1661e+10
-1.89478e+09
-3.78267e+07
8.42006e+09
-2.60909e+09
-6.34093e+08
9.37223e+09
2.16413e+09
5.20593e+09
6.36664e+09
7.05254e+09
1.47222e+10
-9.81089e+09
3.24508e+09
2.52148e+10
1.36996e+09
-2.54632e+10
7.58244e+09
-7.48927e+09
1.63351e+10
5.01834e+09
2.04654e+10
-4.31148e+09
-4.01251e+09
6.01476e+08
1.09053e+10
7.28205e+08
2.60257e+10
2.34819e+10
9.95134e+08
-7.6828e+09
1.38267e+10
-2.13266e+10
2.92284e+10
2.63146e+08
4.61779e+09
2.81041e+09
4.92976e+09
8.86856e+09
-2.34822e+09
3.308e+09
3.57073e+09
-4.89036e+10
2.61942e+09
-5.33646e+09
-1.60064e+10
6.90932e+09
-1.58338e+09
-4.13454e+10
8.21094e+09
-4.4231e+09
6.08601e+09
2.04995e+09
-7.80066e+09
1.12283e+10
-2.71544e+10
8.09579e+09
6.79531e+10
-2.63655e+09
2.33106e+10
7.36994e+10
-1.69576e+10
3.06908e+10
3.32222e+10
-6.18937e+09
-1.17817e+10
-7.94567e+09
-1.61694e+10
-3.60325e+08
-1.80503e+10
-2.35808e+10
9.62821e+08
8.84717e+10
-1.39943e+09
-2.64769e+09
-5.25086e+09
1.40522e+09
1.54088e+10
1.83741e+09
4.07132e+09
-3.49445e+10
4.0347e+09
5.84081e+09
2.71297e+09
1.0531e+10
5.77278e+09
1.04924e+10
1.02792e+10
1.70684e+09
-1.02748e+10
-2.70696e+09
2.15868e+10
-9.55684e+09
-5.27726e+09
-1.44739e+10
-1.14906e+09
-1.00225e+10
-4.95095e+09
1.28186e+09
1.07191e+10
2.41099e+09
1.08855e+10
2.12768e+10
-1.14451e+10
2.07172e+09
-1.51091e+10
-1.56825e+10
1.10246e+10
5.48168e+09
1.10432e+10
-1.74665e+10
-1.59734e+09
1.41853e+08
-5.16233e+09
-2.33137e+09
1.69456e+10
-1.39047e+10
-7.22544e+09
8.18472e+10
4.27572e+09
1.40595e+10
3.61657e+09
3.36785e+09
1.10403e+09
-8.26011e+10
-5.26898e+09
-9.57404e+09
2.48182e+09
2.73686e+10
-2.77626e+10
4.24278e+09
-3.83502e+10
-6.59005e+09
-2.00723e+10
1.19035e+10
-6.50638e+09
6.53702e+08
5.51239e+09
4.77974e+08
-6.09242e+09
-3.71802e+09
4.03919e+09
1.28306e+10
4.11635e+09
-1.06932e+10
-4.60744e+08
-3.10224e+09
3.61181e+09
-1.1461e+10
9.1764e+08
5.70198e+10
3.76772e+10
-1.5746e+09
5.93376e+09
1.05779e+09
1.76817e+10
3.49005e+10
4.97069e+09
-2.32673e+09
1.17718e+09
-4.58156e+08
-5.31686e+09
-3.21823e+09
-1.25011e+09
-2.55376e+07
-6.75174e+09
4.51329e+09
1.09548e+10
1.85034e+09
1.61637e+09
4.38346e+09
3.57369e+09
-6.38175e+09
3.20105e+10
-5.80105e+10
6.07102e+09
1.79881e+10
9.81246e+10
3.38265e+09
-8.87528e+09
-5.81797e+09
1.12761e+10
3.41814e+09
2.61743e+09
1.12002e+10
-1.78572e+09
1.89176e+09
-1.97887e+09
1.92774e+10
-6.39076e+09
4.43241e+08
4.37356e+09
-9.10373e+08
3.1387e+10
2.34903e+09
2.12873e+09
-2.50676e+09
-1.63294e+10
2.08624e+10
-1.95951e+10
-2.11744e+09
-8.90036e+08
6.8846e+08
4.01842e+09
2.6786e+09
5.86215e+10
4.60614e+09
1.19187e+10
-5.00241e+09
4.14596e+09
-1.04646e+10
1.28589e+10
-6.42362e+09
4.67427e+09
-2.12404e+09
1.62935e+10
6.60697e+10
-1.64015e+08
1.25897e+10
-2.84651e+10
2.82098e+10
3.74511e+09
-6.44687e+09
2.31365e+09
9.18418e+09
-4.74507e+09
-9.00602e+09
-5.55937e+09
6.21823e+08
1.21685e+10
-7.01595e+08
-9.98485e+09
-5.3419e+09
3.44293e+10
-4.04355e+10
6.62336e+09
5.77599e+09
1.17708e+10
-1.61776e+10
1.25679e+10
3.12116e+09
5.28195e+09
2.32697e+09
6.92473e+08
8.6882e+09
-8.93844e+09
1.08211e+10
-9.3995e+09
-2.67488e+10
1.44303e+09
-4.14527e+10
-1.77569e+10
2.71886e+08
2.24884e+10
-3.11719e+09
-2.6001e+09
6.26853e+09
1.80907e+10
7.8128e+10
-8.73039e+10
5.76963e+10
7.38979e+09
4.29964e+09
-2.6573e+09
-2.23779e+10
-2.60101e+09
6.70604e+09
4.71454e+09
2.46608e+10
2.75937e+08
-3.78193e+10
-4.09637e+09
1.01302e+08
-5.75339e+09
6.31605e+09
-4.80552e+09
-1.49637e+10
4.26817e+09
4.02185e+09
-2.93018e+10
2.77543e+09
-3.74275e+09
-4.99999e+09
3.13934e+09
-2.473e+09
5.49282e+09
-4.91914e+10
1.0288e+08
1.60508e+09
9.96678e+08
-8.31195e+09
1.12354e+10
3.05371e+09
-5.7856e+09
-8.64777e+09
2.96822e+09
3.1173e+10
-5.70217e+10
-7.62695e+09
1.75848e+10
2.5297e+10
-5.99203e+09
-1.75306e+09
-4.13104e+09
4.42904e+07
1.68603e+10
-1.04253e+09
-6.15169e+09
-8.71419e+08
4.22734e+09
4.64161e+09
1.74052e+09
-3.7953e+08
5.03036e+08
2.03331e+10
-5.3777e+09
7.9194e+08
-3.22732e+10
5.31797e+09
-3.55766e+10
2.52575e+10
-1.76332e+09
2.18979e+10
1.35619e+10
-4.32522e+09
-3.79614e+09
-6.65763e+10
8.51747e+09
4.39091e+10
-1.78764e+10
1.35452e+10
2.22866e+09
-2.3835e+09
-1.38358e+09
1.54035e+09
7.62227e+09
2.21348e+10
-1.01642e+09
-2.4317e+09
-8.59983e+09
2.27199e+09
1.25605e+10
1.00258e+08
-7.95477e+09
-1.40392e+10
3.4692e+08
6.0618e+08
1.15071e+10
2.15472e+09
1.95515e+10
6.15607e+09
-1.26843e+09
9.91772e+08
2.75677e+08
9.55625e+09
1.22842e+10
7.59719e+09
2.87356e+08
-7.99413e+09
8.47781e+08
-1.21665e+10
3.3685e+09
-1.37421e+09
6.80204e+10
-2.60766e+10
5.75803e+09
-1.40134e+10
7.12335e+08
5.25017e+09
4.56943e+09
-1.74189e+09
4.93045e+09
1.07543e+10
5.63211e+09
-1.52538e+10
-4.29394e+09
-4.46727e+09
-2.86522e+08
-5.21825e+09
-1.06724e+10
-4.2095e+08
2.65234e+09
-1.08556e+09
3.12006e+09
1.7013e+10
1.46637e+10
1.76995e+10
-4.33818e+10
-1.51349e+10
-3.30241e+08
-3.31415e+09
7.9955e+08
1.31548e+10
-1.15965e+09
-4.76221e+09
-1.88006e+09
1.18304e+10
-5.10361e+09
-2.54725e+10
1.48542e+09
3.2241e+09
1.29568e+10
2.99838e+09
1.52088e+09
-2.06584e+10
3.6938e+09
3.862e+09
-7.07588e+09
-5.90593e+09
-4.6735e+09
-7.22321e+09
1.25252e+09
1.95296e+10
-1.16695e+10
2.29023e+07
3.76129e+10
6.51471e+09
9.76381e+09
-5.69636e+10
-1.1184e+10
-1.05441e+10
-1.88182e+10
4.00242e+09
4.1829e+10
1.46929e+10
7.58762e+08
-1.7904e+10
2.24349e+09
1.10834e+09
5.99155e+09
-3.56742e+09
9.68248e+08
1.72112e+08
-2.88363e+10
-1.18304e+09
-2.03917e+10
1.92333e+10
-2.05909e+10
5.88505e+09
5.48802e+09
-4.73794e+09
-2.91842e+10
-2.87264e+09
-1.27144e+09
-3.83008e+09
1.40979e+10
1.02358e+10
-4.29968e+09
1.02651e+09
-1.71848e+10
1.37769e+09
2.37494e+10
-4.9557e+08
1.59046e+10
1.35859e+10
1.30588e+09
-1.14295e+10
-1.94957e+09
1.77175e+10
-1.40151e+09
-3.70979e+09
1.97068e+08
1.37093e+10
8.89498e+09
4.69319e+09
6.3647e+09
6.4266e+09
2.41786e+09
-1.27949e+10
-2.50436e+10
-2.07979e+09
1.10952e+10
1.77657e+09
-1.46513e+10
2.32056e+09
-7.15984e+09
-2.27471e+10
2.06102e+09
8.02113e+08
1.94777e+10
2.72853e+10
-5.27943e+09
4.02465e+08
-4.45094e+09
-2.37831e+09
1.23225e+09
-3.72675e+10
1.62395e+09
6.57882e+08
4.48307e+10
-6.54494e+09
6.46481e+09
9.55319e+08
-8.65716e+09
-9.85931e+09
1.16455e+09
4.27376e+09
5.07099e+09
-3.297e+10
-3.52991e+09
-1.0604e+10
-1.68355e+10
-2.98563e+09
-5.42577e+09
-2.47351e+09
2.49123e+09
2.36532e+09
2.57006e+09
-8.36836e+08
-3.88919e+09
-8.07774e+09
5.5399e+09
-1.85116e+10
-1.67089e+10
6.29195e+09
9.78362e+09
7.59737e+09
9.60007e+09
6.03626e+09
1.47786e+10
-7.62281e+09
7.51491e+09
1.42136e+09
2.29688e+10
-5.14818e+09
4.23328e+09
3.69663e+09
1.64488e+10
2.18687e+09
-6.56529e+09
3.56003e+09
1.5486e+10
2.00891e+10
1.27437e+10
1.98667e+10
2.04964e+09
-4.46692e+08
1.35992e+10
-1.40958e+10
2.12161e+10
6.4677e+09
-2.89218e+08
-1.14e+09
3.39238e+09
-8.79566e+09
3.52771e+09
-1.83779e+10
3.56145e+07
1.15453e+09
4.69048e+07
3.34165e+09
2.80818e+09
5.20465e+09
4.63885e+10
8.36666e+09
6.75537e+09
-2.54704e+09
-1.10241e+10
6.97948e+09
-2.78419e+08
7.50429e+09
-1.03137e+10
-2.73965e+09
-3.19651e+09
8.56929e+09
-6.9238e+09
1.68061e+09
3.40084e+10
1.58886e+10
-2.23844e+07
-1.37433e+09
-5.68137e+09
1.93508e+10
6.94833e+09
2.95232e+10
-9.34724e+10
-5.93035e+09
1.14051e+10
-1.52395e+09
-3.03144e+09
1.01672e+10
-2.33187e+08
2.70592e+10
-9.8582e+10
-2.77731e+10
-2.71194e+10
2.15495e+10
1.42158e+09
-3.18373e+09
8.19615e+09
-2.28371e+10
-1.17854e+10
2.55605e+10
-3.65531e+09
1.08175e+10
2.50426e+10
2.6086e+10
-1.66823e+10
3.74305e+10
-3.37573e+09
2.04567e+09
2.23483e+09
2.39685e+09
-1.8956e+10
4.33619e+08
-1.18353e+10
1.77598e+10
2.57704e+10
-1.78425e+10
2.29576e+10
5.79871e+10
8.64882e+09
-6.23887e+09
1.12548e+09
-2.37873e+09
1.15067e+10
5.08303e+09
1.49137e+11
-4.14802e+09
-8.2188e+09
1.10029e+10
-4.33172e+07
6.83898e+09
1.0906e+10
-1.27129e+10
-9.44873e+09
1.86218e+09
3.56286e+09
-1.34789e+09
-1.36329e+08
3.8001e+09
-4.44645e+09
3.27172e+09
-1.95667e+10
1.44471e+10
5.78473e+08
1.31997e+10
1.19843e+09
2.69775e+10
-6.23982e+09
6.44092e+10
8.03257e+09
1.0017e+10
1.33466e+10
-3.0161e+09
-8.36423e+09
2.02247e+10
6.40673e+09
2.54059e+10
6.33911e+10
-8.05308e+09
-2.76807e+09
2.4719e+10
1.41322e+09
4.14328e+09
1.81205e+09
-1.67503e+10
1.18064e+09
1.05744e+10
-7.49083e+09
-1.08303e+10
-8.23563e+10
1.8592e+09
-4.33744e+09
2.12062e+09
-4.03206e+08
5.43901e+09
2.10709e+10
1.46996e+10
1.4509e+10
1.4707e+10
1.70345e+09
3.49427e+09
4.52368e+08
-2.55206e+09
3.54055e+07
-2.82931e+09
-2.4353e+10
2.38787e+10
1.25437e+09
-5.19086e+09
1.45254e+10
-3.98573e+09
1.03948e+10
7.8981e+09
-1.61127e+10
8.84296e+08
4.51626e+09
-9.33442e+08
-1.11562e+09
-9.42255e+09
1.88161e+10
-4.59171e+09
-3.3347e+09
4.11296e+09
6.01764e+08
1.1305e+09
1.14645e+09
1.39258e+09
-9.30421e+08
2.07714e+10
-2.80247e+10
-2.91068e+10
-1.18908e+10
-2.83632e+09
-5.5227e+09
-1.11668e+08
4.87597e+10
1.31005e+09
6.18804e+09
3.6053e+09
8.33451e+09
1.85336e+09
-4.49037e+07
9.43342e+08
1.28387e+10
-2.61633e+09
3.80205e+10
2.80626e+09
-3.64838e+08
-7.3871e+09
5.25177e+10
-2.31758e+09
-2.14191e+10
2.66676e+10
-4.65432e+09
-4.11691e+09
2.35961e+10
5.95044e+09
7.04548e+08
-1.1417e+08
-2.15148e+09
6.21964e+09
-2.39731e+09
4.85586e+10
4.97445e+10
1.47726e+10
1.98573e+10
7.94531e+09
-7.77098e+09
5.92006e+08
-4.39281e+09
-1.11956e+09
3.41083e+10
-1.58504e+09
5.4473e+09
8.28617e+08
6.16701e+08
1.4432e+10
-5.59171e+09
4.71666e+09
-1.49301e+09
3.35906e+09
2.22476e+10
2.12393e+09
-1.41924e+10
-4.45525e+09
2.09907e+09
-3.92583e+08
-1.69805e+10
6.05824e+09
-9.87407e+09
1.14987e+09
-4.89663e+09
5.58122e+09
2.02381e+10
1.99511e+10
1.05413e+09
8.51594e+09
1.47231e+10
4.20087e+10
2.24304e+10
-6.19283e+09
1.61655e+10
-1.58137e+10
-2.07113e+09
-1.22055e+09
2.33235e+08
1.14859e+10
3.72254e+09
1.17521e+10
4.83305e+09
8.59068e+09
4.38605e+09
4.6312e+09
1.05438e+09
-9.02854e+09
1.46465e+10
1.64714e+10
1.11124e+09
-1.66138e+10
1.77714e+10
-7.77034e+10
-7.78965e+09
8.43207e+09
8.77197e+09
2.01926e+09
7.53398e+08
9.84759e+09
7.16834e+09
2.1586e+09
3.80837e+09
4.10185e+09
4.89122e+08
1.80472e+09
-4.75414e+09
6.55177e+08
8.20085e+09
-2.21935e+08
-1.84617e+10
1.26881e+10
2.93394e+10
1.52139e+09
6.57411e+09
-5.0654e+09
-5.11475e+09
-2.10488e+09
4.43395e+10
-1.24148e+10
-7.01037e+09
-1.6813e+09
5.2161e+09
-2.33786e+09
-1.07537e+10
-1.92465e+09
4.67472e+09
-3.70382e+09
-9.35259e+09
-4.69308e+10
1.56456e+10
2.86717e+10
-1.15478e+10
-1.18577e+10
6.40725e+09
-1.0188e+10
2.98941e+09
-5.13321e+08
-2.67922e+09
2.34372e+10
-2.9912e+10
1.62784e+10
-2.0261e+08
-9.45851e+08
5.54717e+10
1.22453e+10
1.112e+09
1.09386e+10
1.56864e+09
4.41077e+09
8.86305e+10
5.56272e+10
-3.76881e+09
-1.15162e+10
1.41747e+10
-9.94711e+07
8.91081e+09
-4.19766e+09
-4.6151e+09
-9.03739e+08
4.55443e+10
6.04047e+09
1.27139e+10
8.45107e+09
7.69512e+09
1.40703e+10
-6.61451e+08
-2.88077e+09
-1.84907e+09
5.41748e+08
-1.30328e+10
6.83789e+08
-8.68389e+09
-6.50253e+10
1.26389e+10
-2.01569e+09
3.1965e+09
-2.85533e+09
-1.94072e+09
-1.1107e+10
-4.17682e+09
1.22754e+10
3.27591e+09
6.54719e+09
2.1257e+10
3.49175e+09
2.62283e+09
-2.76751e+08
1.80315e+10
3.92332e+10
-5.57129e+10
-1.82986e+10
-1.55609e+09
-3.54519e+09
-2.50761e+10
-4.83433e+09
-4.02264e+10
-6.90131e+09
-3.88032e+09
8.8852e+09
1.26659e+10
4.06126e+09
2.91029e+10
-1.51793e+10
-9.60201e+09
-3.64446e+08
-2.53234e+10
5.37594e+09
7.61622e+09
5.66737e+09
2.08147e+10
1.99228e+08
2.26317e+09
2.38144e+09
6.1508e+10
4.16473e+09
3.38382e+09
1.46609e+10
2.70186e+09
3.14471e+09
-2.13169e+09
1.42598e+10
2.01964e+08
9.76223e+09
-1.03571e+10
1.77824e+10
-3.21541e+08
1.54068e+09
-7.12753e+08
-2.71154e+08
1.13324e+10
4.3436e+09
1.18509e+10
-2.78754e+09
-3.99242e+09
-3.4844e+09
-8.24535e+09
1.38854e+10
4.16881e+09
5.57586e+10
-5.58952e+09
-3.06786e+08
6.37854e+10
5.4931e+10
-5.60798e+09
-1.07203e+10
2.40167e+09
-1.81188e+09
6.17601e+09
-4.936e+09
7.54095e+09
-1.46379e+09
9.85344e+09
-6.9911e+09
2.68204e+09
8.28044e+09
-1.18883e+09
-1.70783e+10
-7.72477e+09
1.03601e+10
-2.28283e+08
-5.39532e+08
9.71029e+09
1.84186e+09
1.6512e+10
-6.02697e+10
-1.33605e+09
4.55275e+10
-4.74082e+09
2.68599e+09
4.39843e+09
-2.02059e+10
-1.04827e+11
4.61242e+09
-5.41475e+08
1.81306e+10
-3.09584e+08
2.67303e+10
8.44992e+09
1.13292e+10
7.0712e+10
4.35182e+09
6.45835e+09
1.02569e+10
8.50576e+09
7.80476e+09
5.27958e+09
-6.50422e+09
4.08623e+09
1.98027e+10
-5.45051e+09
-3.1039e+09
-2.17979e+09
-2.56167e+09
7.55256e+09
2.05758e+10
1.73071e+09
-1.37285e+09
1.6807e+10
1.00475e+10
1.7881e+09
1.98869e+09
-6.43359e+08
-1.33529e+09
1.46252e+10
2.02717e+10
-6.82774e+09
-1.05021e+10
2.32866e+10
1.36643e+08
-4.12793e+08
1.47337e+09
-7.46031e+09
-5.51638e+09
6.76609e+09
-1.04377e+10
-3.97511e+09
-8.57502e+08
-4.20974e+09
7.34669e+09
-2.66151e+08
-8.22623e+09
-2.12857e+09
-2.19334e+09
2.10157e+09
2.30609e+10
-6.37324e+08
-1.87586e+10
3.38546e+10
-4.29941e+08
-1.17899e+09
-5.62528e+08
-5.71229e+09
9.69897e+09
1.17248e+08
9.78602e+09
-5.81164e+09
9.01445e+09
-2.35734e+10
-5.92383e+09
-2.11819e+08
-3.34147e+09
2.2584e+09
1.71275e+10
-1.17826e+10
-6.71924e+09
-4.85109e+09
6.3756e+09
2.04858e+10
-2.95431e+09
3.75361e+09
-2.59845e+09
3.22374e+09
-9.55067e+10
3.69586e+09
7.07297e+09
2.6868e+10
-1.7075e+10
-9.72187e+09
-9.60687e+09
1.382e+09
3.93797e+09
-5.54554e+09
-9.66548e+09
2.97474e+07
-3.65512e+08
-1.2974e+09
2.48435e+10
-6.51155e+08
-5.52643e+09
-6.39626e+10
1.00129e+09
3.90895e+10
6.33427e+09
-8.42479e+09
7.81079e+10
-2.25678e+10
1.47927e+09
-7.58457e+09
8.84947e+07
-4.93817e+09
-1.92343e+09
1.54499e+09
3.18984e+10
-8.29111e+09
-8.48437e+09
-4.95656e+10
-2.04024e+10
-1.38972e+10
8.49388e+09
1.5642e+10
6.11891e+10
-1.59092e+09
1.90354e+10
5.26945e+09
-1.08519e+09
-6.16711e+09
-3.32659e+09
-1.27318e+09
2.4633e+09
-1.44477e+09
2.34989e+08
-2.5183e+09
-4.00712e+09
8.09053e+09
7.93547e+10
9.39504e+09
4.5145e+09
4.04982e+09
4.57363e+09
-1.09659e+10
-3.05163e+09
-4.27278e+10
1.8801e+10
6.29677e+09
2.4843e+09
2.05405e+10
-2.12813e+10
1.99997e+10
-2.76128e+10
2.55999e+10
-1.50219e+10
1.93824e+10
1.48707e+10
-7.25594e+09
1.06543e+11
4.8259e+09
1.2375e+10
-1.74134e+10
-8.5831e+09
1.88956e+10
-4.71913e+09
-6.92091e+09
4.42052e+10
-2.05116e+09
8.24376e+09
-1.31187e+10
-1.30802e+10
1.04831e+09
1.70558e+10
-1.31441e+09
1.04574e+08
-2.5452e+08
1.40266e+10
7.16565e+09
-2.21127e+09
-1.37398e+08
-7.78192e+09
-7.24843e+09
-1.48329e+10
-4.08772e+09
9.31042e+08
8.49395e+09
-8.26963e+09
9.54994e+09
-4.05103e+09
2.46163e+10
-3.24099e+09
8.94967e+09
2.43196e+08
-3.90255e+09
7.32598e+08
8.62494e+08
-5.09746e+09
4.54159e+09
-8.90933e+09
-2.00244e+09
-5.02108e+09
-1.29874e+09
-8.55474e+09
-6.24937e+09
-1.16344e+09
-1.06297e+10
9.87941e+09
-4.46548e+10
-7.93896e+09
3.18475e+09
6.06786e+10
-1.1681e+09
7.64442e+09
-7.89056e+08
1.24733e+09
9.61746e+09
1.95581e+09
-4.08925e+08
3.83313e+09
-4.65257e+09
-3.59619e+09
-3.50328e+09
-9.73635e+09
1.27107e+10
-2.61843e+09
7.6128e+09
6.61577e+08
3.90283e+10
-4.95394e+09
6.9002e+09
-1.11956e+10
6.53187e+09
1.49243e+09
-3.37643e+09
1.30161e+10
2.63495e+10
1.77767e+09
-2.29048e+09
9.45968e+09
1.17965e+10
-6.701e+09
5.17706e+08
8.82806e+09
-1.19869e+09
3.3797e+09
3.97337e+07
3.08061e+09
3.42366e+09
-3.75439e+07
1.86991e+10
-1.73655e+10
2.01721e+10
3.5088e+10
4.03743e+09
1.55309e+10
-6.28925e+09
-7.06009e+09
3.42828e+10
1.66354e+10
-2.47399e+09
4.45035e+10
-6.26213e+09
-1.79435e+09
-2.36004e+10
9.45679e+09
1.72581e+10
1.98751e+08
-3.00223e+09
1.06559e+10
-4.66995e+09
-2.43678e+10
6.22154e+09
2.8184e+10
5.33124e+08
2.81151e+09
-7.3881e+09
1.70255e+10
-1.43583e+10
-1.89506e+09
4.2569e+09
7.32218e+08
-1.40663e+10
1.90662e+10
1.37056e+10
-4.7879e+09
1.44658e+09
-2.81432e+09
-4.81008e+09
6.83826e+09
-4.5327e+09
3.09795e+09
-1.77035e+09
-9.74512e+09
-2.1112e+09
5.53601e+09
-6.28979e+09
4.1651e+10
1.71099e+09
2.73655e+09
2.61712e+10
2.88552e+09
1.65869e+10
2.70085e+09
-1.17905e+10
3.08522e+09
1.28848e+10
4.20089e+09
3.81466e+09
-2.44727e+09
1.14958e+10
2.04171e+10
3.27158e+09
3.65932e+09
-4.66102e+09
9.2109e+08
-3.75399e+10
4.88288e+09
-5.24304e+08
1.00923e+10
2.17922e+10
1.75045e+09
1.92251e+10
2.67938e+10
9.1459e+10
4.72558e+08
6.52025e+09
7.897e+07
-1.68073e+10
-1.07585e+10
-4.65287e+09
1.99607e+10
-2.73532e+09
6.75996e+09
3.56941e+09
9.45422e+08
2.57102e+09
7.28574e+09
4.71326e+09
1.13965e+09
1.45064e+10
5.89267e+09
-5.55754e+09
3.75658e+09
1.48254e+10
1.16258e+10
-2.87199e+08
-3.962e+10
-3.01175e+10
-1.13825e+10
-5.8414e+09
-4.71189e+09
8.35597e+09
3.44248e+09
-2.16324e+10
1.06388e+09
4.72859e+10
-1.26694e+09
6.93795e+09
-1.05317e+10
7.31806e+10
-3.56467e+09
1.37393e+10
6.78475e+09
1.86557e+09
4.74826e+09
-8.36831e+10
1.93468e+10
6.40115e+10
1.08104e+09
-4.95425e+09
-3.40957e+10
-6.45223e+10
-3.0971e+10
3.04448e+10
1.72166e+10
-1.48065e+09
7.39933e+09
5.03386e+08
3.20182e+09
-6.50041e+09
2.83439e+09
8.46147e+09
8.11188e+10
-1.92465e+09
4.50108e+10
9.29996e+09
1.17428e+10
1.68999e+09
4.97551e+09
-6.52561e+09
-6.14521e+09
-7.09805e+09
1.15846e+10
8.1644e+09
1.49812e+10
4.98767e+09
5.33205e+10
-3.22822e+09
-5.78169e+09
-2.07604e+09
1.31041e+10
5.24769e+09
7.71155e+09
2.56644e+09
-1.15505e+09
2.47545e+10
-2.30299e+09
6.74364e+09
-2.56189e+09
-8.87652e+09
9.83759e+09
-1.76187e+10
-1.76015e+09
1.88284e+10
-9.93233e+09
1.52164e+09
2.67551e+10
5.36557e+08
6.36639e+10
1.73505e+10
-1.3479e+10
1.74779e+10
2.35649e+10
-4.58629e+08
1.93626e+10
1.38035e+10
-2.41972e+09
-2.65604e+09
1.23339e+10
-2.5199e+10
-4.62178e+08
1.33403e+10
3.50478e+09
5.94615e+08
1.0209e+11
-2.61125e+09
-1.68033e+09
-4.39415e+09
-4.35735e+09
4.08944e+09
7.70988e+09
1.25044e+10
-7.03991e+09
5.75385e+10
1.30076e+10
4.46473e+09
1.42472e+09
2.33962e+10
5.73248e+09
-9.36664e+09
-3.90838e+08
5.82244e+09
1.41109e+10
2.38043e+09
3.99994e+09
1.23858e+10
2.30226e+10
1.1993e+10
-2.18227e+09
1.29059e+10
-9.7793e+09
-1.04563e+09
8.88743e+09
-2.40429e+09
3.18609e+10
4.23306e+09
-1.47364e+09
2.59219e+09
-1.59238e+09
-1.9839e+10
-4.11867e+09
3.00174e+10
1.3022e+10
-5.37107e+09
1.66015e+10
3.00749e+09
8.98686e+09
-6.77201e+09
-1.00993e+10
-2.10226e+09
-2.7481e+09
2.61256e+09
1.30842e+09
1.15463e+09
3.14823e+10
-5.56846e+09
3.86185e+09
1.07639e+10
-2.03852e+09
1.01405e+10
2.73758e+10
2.34329e+10
4.1486e+09
7.53237e+09
3.40124e+09
1.2655e+09
-1.25885e+10
2.40753e+09
3.74111e+10
3.2024e+09
2.39044e+10
-2.2774e+09
4.45556e+09
1.06141e+10
-3.86076e+09
-5.29227e+09
3.34194e+10
-9.38809e+08
-1.21975e+09
2.24308e+09
2.48019e+09
4.66802e+10
2.42897e+10
-1.87902e+10
1.29792e+09
3.17678e+09
-1.40175e+09
1.69271e+10
8.69807e+09
-2.03828e+10
-3.50248e+09
6.09302e+09
3.72621e+10
-1.85286e+10
-1.3811e+10
-2.22557e+10
-6.50724e+10
5.44301e+09
2.05976e+10
2.31977e+09
1.13519e+09
1.74698e+10
-1.08701e+09
-5.91586e+09
-5.70846e+09
-5.38764e+09
7.15747e+09
6.42646e+09
3.02617e+10
3.22175e+09
-8.74871e+09
9.45611e+08
7.16853e+09
-7.50895e+07
3.91418e+10
2.44343e+10
2.29092e+09
-5.18023e+08
1.39686e+10
-8.01995e+09
-1.81785e+09
-1.81322e+09
5.35731e+09
4.88191e+09
7.45523e+09
1.81034e+09
-1.66253e+10
-2.79795e+09
4.46368e+10
-1.45241e+09
-3.72537e+09
-2.15915e+09
-1.37253e+09
1.46953e+10
2.58161e+09
1.82076e+11
8.03564e+08
-1.14208e+09
-3.36304e+09
1.75748e+09
-2.2618e+10
3.42993e+10
7.48847e+09
2.00587e+10
2.09725e+10
7.70161e+09
4.31083e+10
-2.49525e+09
-4.83927e+09
-5.60691e+09
-5.12821e+09
6.5462e+09
5.97572e+10
5.19102e+10
9.53398e+10
-4.09184e+10
7.56694e+09
-2.09439e+09
-6.02393e+09
-3.22828e+09
-4.5355e+09
1.02809e+08
7.01727e+09
-8.38846e+08
-7.42581e+09
-6.01842e+09
-1.48022e+10
3.4977e+09
2.89596e+10
2.23204e+10
-2.18483e+10
-1.62408e+10
-1.09323e+10
-1.20363e+10
-4.39006e+08
-9.00513e+09
1.67762e+10
2.33479e+09
2.08072e+09
-1.74954e+09
3.64312e+09
6.43429e+09
-2.79839e+08
-9.37489e+08
1.83513e+08
4.73754e+09
-8.97828e+09
-6.24997e+09
2.4502e+10
-2.42533e+09
-1.01621e+10
4.88517e+09
7.03359e+10
-9.86004e+08
-2.94446e+09
1.36458e+10
-5.62221e+08
3.83621e+09
2.19353e+09
-5.55678e+09
1.15364e+10
2.95159e+10
-1.04702e+10
6.55965e+08
-9.68708e+09
8.9622e+09
8.7878e+09
4.21179e+09
-5.71616e+09
-1.62414e+09
1.03247e+10
-1.75099e+09
-2.51359e+09
6.95635e+09
-3.6793e+10
1.45426e+08
-2.41345e+09
4.56309e+10
-1.18859e+10
-1.06516e+09
9.05999e+10
7.86746e+10
9.70349e+08
4.57214e+09
1.14245e+10
1.04392e+10
-2.17399e+09
-3.95238e+09
1.29114e+10
-3.3827e+10
1.09655e+10
-1.09734e+09
-2.76994e+09
2.41845e+10
7.80795e+09
3.99546e+08
-7.15036e+09
-9.40737e+08
-1.75972e+09
5.58778e+08
1.68443e+10
-2.04418e+09
-5.14504e+08
-5.25465e+09
2.82092e+09
-6.73979e+09
1.17139e+09
1.28823e+09
-1.6624e+10
-4.92811e+09
1.68542e+10
8.01315e+09
1.088e+10
1.98516e+09
4.64078e+09
4.58883e+09
4.32036e+09
5.01585e+09
3.2332e+09
-2.98147e+09
7.14691e+09
3.73827e+10
8.37522e+09
-1.11691e+09
6.56979e+09
-3.88324e+09
-7.29324e+09
-1.69507e+10
5.77862e+09
-2.07757e+09
1.55566e+09
-3.51492e+09
-1.06959e+10
1.41779e+09
1.83907e+10
7.41405e+10
-9.80083e+08
2.36937e+09
-1.44924e+10
9.64238e+10
-2.2793e+10
1.0135e+10
7.93948e+09
1.28121e+09
6.24383e+09
-1.8259e+09
-9.09983e+09
-7.54988e+09
-2.94701e+10
-3.35655e+09
-2.16367e+10
9.86685e+08
-1.14239e+10
-3.61176e+09
1.04888e+09
4.51656e+09
-7.44174e+08
7.61912e+09
-9.58809e+09
2.69209e+08
5.62905e+09
-6.48745e+09
-2.22521e+09
3.04174e+09
-1.74066e+10
4.61082e+09
8.55887e+09
-4.81512e+09
-7.93323e+09
-1.33729e+10
1.8786e+09
-2.92461e+09
-1.82698e+10
-4.37238e+08
-4.00927e+09
3.82094e+09
6.35719e+08
2.39946e+09
2.24968e+10
-3.12442e+08
6.08428e+09
-7.65291e+09
-4.35537e+08
-8.14061e+09
-4.8541e+08
-6.12661e+09
3.03888e+09
-1.90204e+10
-3.09482e+10
7.6776e+09
3.37961e+09
4.35966e+10
-1.32707e+10
-5.06531e+09
-5.53385e+08
7.12797e+08
-4.63049e+09
-1.44119e+10
4.70714e+09
-9.22994e+08
-1.24173e+10
-3.53016e+09
2.75014e+10
-3.19009e+08
-1.69797e+09
-1.10267e+10
3.86e+08
3.65937e+09
1.13994e+09
-7.92436e+09
-1.80953e+09
-6.66686e+09
-1.33241e+10
1.31591e+10
-4.12634e+09
-2.71823e+10
-1.70891e+10
7.63633e+09
1.19306e+09
4.93681e+09
1.25008e+10
-3.69243e+09
1.93486e+10
1.366e+10
-1.38107e+08
3.2425e+10
-1.57578e+09
-5.34785e+09
-5.34161e+09
-2.61477e+10
-6.22972e+09
4.25139e+10
2.3671e+10
-2.17093e+09
3.15074e+09
-4.4021e+09
2.63045e+10
-3.19871e+09
7.50764e+09
8.94377e+08
-2.44246e+09
7.56628e+09
1.99439e+10
-1.69556e+10
-6.36268e+09
1.86743e+10
5.08863e+09
1.16078e+09
9.78704e+10
6.22735e+09
3.69176e+09
-7.06064e+09
-5.43319e+09
2.98612e+10
-6.02649e+10
-1.76285e+10
8.6949e+08
-2.30235e+09
1.61309e+10
3.60489e+08
4.3709e+09
5.70763e+08
1.83475e+09
-2.96092e+10
-5.97013e+07
9.55303e+09
1.11284e+10
-1.66826e+10
4.99197e+08
-5.89532e+09
-2.66282e+09
6.61492e+09
-5.30464e+09
3.11173e+09
4.44079e+09
2.94854e+09
9.85608e+09
3.11531e+10
9.46462e+09
-9.27968e+09
-4.98092e+09
2.46739e+09
-9.2223e+09
1.95212e+10
1.70548e+10
-1.4737e+10
5.3036e+09
-3.87877e+09
1.42216e+09
4.62087e+09
7.46655e+09
6.84557e+08
8.211e+09
2.14136e+10
-1.06869e+10
1.62182e+10
2.20124e+09
-3.94114e+10
4.76139e+10
4.91894e+09
2.96715e+07
-2.93369e+09
9.87845e+08
-9.85045e+08
8.08632e+09
-1.41474e+09
5.97403e+08
3.81722e+10
-1.67636e+09
5.95811e+09
1.76278e+09
1.64912e+10
-2.71781e+09
-1.59393e+09
7.99954e+09
5.14008e+09
-1.03264e+10
3.4351e+10
1.46438e+10
1.36124e+11
7.16215e+09
-7.71153e+09
2.29904e+08
-1.20524e+10
5.27869e+10
4.92569e+08
4.13677e+07
-4.11716e+09
-3.01387e+09
1.61354e+10
5.16319e+08
4.86673e+09
-1.98663e+09
2.07193e+09
-1.99334e+09
7.94337e+08
-3.47768e+09
-3.99907e+09
2.26146e+10
2.51018e+10
1.51186e+10
-1.99573e+10
2.25714e+09
1.69443e+09
-1.28078e+10
-5.60975e+09
1.34428e+09
2.93797e+09
1.30834e+09
2.95772e+09
1.53517e+09
1.17e+08
8.45487e+09
5.46102e+09
1.3706e+10
-1.60284e+10
-7.91459e+09
-5.32195e+09
3.2449e+09
7.51325e+09
8.05009e+09
1.76792e+10
-7.03566e+09
8.6507e+09
-2.22521e+09
1.14495e+10
-6.91319e+09
2.6296e+09
-9.83975e+08
-1.23484e+10
-9.25495e+08
-2.06155e+10
-6.35936e+10
-1.62472e+09
-1.05795e+10
3.5866e+09
9.0826e+10
-3.70165e+09
-2.11161e+10
5.22603e+09
8.34296e+09
-6.594e+09
2.65163e+09
6.23014e+09
2.94006e+10
2.22348e+10
4.98185e+10
1.69287e+10
-7.78363e+10
-2.10027e+09
-5.6742e+09
9.44691e+09
-6.89763e+08
1.87261e+09
2.09657e+09
-3.21037e+09
-1.53052e+10
519533
4.38791e+09
-9.52915e+09
-2.51209e+09
-5.76978e+09
-2.22186e+09
1.61844e+10
1.01628e+10
1.172e+10
-7.51382e+09
-3.98493e+10
2.79415e+09
1.2437e+10
-8.98281e+09
2.81791e+09
-1.67859e+09
5.13207e+09
-6.63752e+09
5.07776e+08
1.08919e+11
2.819e+10
3.92785e+09
1.20855e+09
-8.31716e+09
-2.48087e+09
1.64765e+09
-6.50362e+10
-2.80949e+10
3.48398e+09
-3.80508e+09
-1.10173e+10
-5.404e+09
-2.17398e+10
-2.56809e+10
-7.9268e+08
2.13341e+09
2.81416e+09
4.5807e+10
-1.07008e+09
-7.4037e+09
1.0199e+11
8.15014e+09
-1.2812e+10
-2.93824e+09
-3.36852e+10
-1.03301e+10
5.84065e+09
6.22466e+09
-6.20076e+09
5.02106e+09
1.51237e+10
5.62489e+09
4.95449e+09
3.38895e+09
1.33677e+08
-2.00826e+09
-1.45444e+10
-2.32763e+09
2.15305e+10
-1.60048e+09
3.68822e+10
3.62164e+09
-5.27583e+08
-9.61583e+08
4.52516e+08
7.76476e+09
-3.14903e+10
1.88052e+10
2.4195e+10
2.17458e+10
-5.02305e+09
5.32283e+09
-4.90663e+09
-8.46652e+09
1.11016e+10
-9.28228e+08
-4.24603e+09
-1.33236e+10
1.34154e+09
3.32957e+09
-1.48408e+09
4.29535e+10
4.94796e+09
1.79142e+10
-2.5633e+09
-5.85385e+09
3.04174e+09
2.00919e+10
-2.00918e+09
1.44909e+10
1.68085e+08
1.49775e+10
3.05878e+10
2.55513e+10
-4.52593e+09
2.18548e+10
6.93841e+09
3.29634e+09
-7.39076e+08
1.19665e+10
3.12943e+10
-1.36941e+09
-1.39321e+10
-1.35029e+10
-6.25291e+07
-3.77815e+09
-1.36337e+10
7.05492e+09
-5.35388e+09
-7.64041e+09
-4.44793e+10
-3.09628e+10
-2.79321e+10
4.6571e+10
-4.33142e+09
-1.97105e+10
-2.75109e+09
-4.7416e+09
-2.70278e+10
5.13458e+10
-8.95175e+09
4.79872e+09
9.92887e+08
-7.59244e+08
-1.79387e+10
9.19949e+08
1.94909e+10
1.77918e+09
8.42883e+09
7.52508e+09
1.02379e+10
3.81936e+09
-1.25556e+09
-4.45154e+09
1.0252e+10
-3.30619e+09
-1.08759e+10
6.35298e+09
-1.90395e+10
-1.16999e+10
4.19856e+09
4.88874e+09
-6.13271e+09
3.00773e+10
-1.02685e+10
4.014e+08
8.03122e+09
-3.56114e+09
-2.25197e+10
1.04642e+09
-8.98183e+09
-1.20441e+10
-1.08531e+10
5.13197e+09
9.39278e+09
-3.22498e+10
-1.13494e+10
-2.8002e+10
-8.07557e+09
3.3605e+08
3.97006e+10
3.91413e+10
1.23513e+10
4.28905e+09
-3.64806e+09
1.83078e+09
6.53824e+09
8.53251e+09
-1.64644e+09
-9.05271e+09
5.33732e+10
6.41854e+10
-2.78811e+09
3.43688e+09
3.64937e+09
4.56642e+10
3.17298e+10
3.03509e+10
7.53435e+09
4.15332e+09
1.30009e+10
7.96964e+09
-3.89201e+09
2.88613e+09
-8.33674e+09
1.3321e+08
6.45544e+08
3.17131e+10
8.76647e+08
-2.43799e+10
-2.20133e+10
-2.78685e+10
1.30584e+10
1.68304e+10
3.18928e+10
6.95624e+09
5.45674e+09
-5.87735e+09
2.90438e+09
-2.23092e+10
4.13182e+09
-2.48734e+09
5.03984e+09
-3.13688e+10
-2.04463e+09
-9.21615e+08
8.2911e+09
-1.15138e+09
-2.4824e+09
-1.39308e+09
-1.9673e+09
8.24265e+09
1.49998e+08
-1.9827e+10
-4.34504e+09
2.22883e+10
7.13595e+07
1.59455e+10
-1.5697e+09
4.72437e+09
2.3818e+10
4.78205e+09
-4.64379e+09
3.17284e+10
5.89398e+09
-1.09039e+10
-4.45889e+09
6.15248e+08
-2.35363e+09
3.24009e+09
1.21532e+10
-1.69008e+10
9.97586e+09
-3.48933e+09
7.98242e+09
-1.68298e+09
1.63022e+09
-3.81728e+09
-2.52802e+10
3.48382e+09
9.86001e+09
5.12173e+09
-5.399e+09
2.30999e+10
2.689e+09
2.76146e+08
3.40055e+09
-2.65591e+10
-1.7841e+10
2.46528e+09
2.64697e+10
-8.69055e+08
-1.51924e+09
8.66881e+09
-2.18099e+09
-1.36847e+10
4.40256e+10
-2.6935e+09
4.55121e+09
4.59283e+09
-3.29564e+09
4.56004e+09
6.43275e+09
2.31336e+09
1.81561e+09
4.22876e+09
1.31973e+10
-7.49355e+09
1.36466e+10
9.95415e+08
-3.14e+09
-1.63288e+10
5.85578e+08
-1.89618e+10
6.5036e+09
7.69254e+09
1.00445e+11
2.41491e+10
5.84667e+09
3.80149e+09
4.31157e+09
1.13269e+10
-1.71113e+09
-2.74071e+10
2.65985e+10
-1.72102e+08
1.40504e+10
1.29545e+09
5.86266e+09
2.54174e+10
4.32768e+09
1.63555e+09
1.06384e+08
7.74918e+09
-3.2869e+09
1.74701e+09
1.70283e+10
1.40844e+10
2.88508e+09
-1.17105e+10
-1.79627e+09
-1.13753e+09
1.2853e+08
-4.26264e+09
-6.41562e+09
1.35388e+10
1.88003e+10
1.15456e+10
-9.30285e+08
1.30402e+10
-9.04835e+09
1.79063e+09
-1.99249e+10
1.48065e+10
5.02874e+10
-1.19149e+09
-4.08668e+09
3.84751e+09
4.62344e+10
-1.17551e+10
7.59692e+09
9.18258e+09
-3.47201e+10
5.03464e+10
1.41924e+10
-2.40176e+09
1.41219e+10
3.19447e+10
-3.88386e+09
6.54222e+09
1.54366e+10
4.92048e+09
-8.00688e+08
-2.87756e+09
5.99219e+09
-1.09292e+09
1.12862e+11
-4.04854e+08
3.66105e+10
1.01864e+10
1.00311e+09
1.53993e+09
3.18667e+10
-2.30832e+09
-1.50665e+10
6.30983e+08
8.21617e+09
1.33395e+09
6.23238e+09
-6.32702e+09
-2.56635e+09
4.22245e+08
-3.33342e+09
-5.63427e+09
1.91371e+09
4.85889e+09
4.44784e+10
-2.00714e+09
8.27483e+08
1.30523e+10
-3.64885e+10
1.14734e+10
-1.61952e+09
1.95212e+09
1.53838e+10
2.12289e+09
-7.48117e+09
-1.17777e+10
-4.25029e+09
-6.78631e+08
2.19785e+09
1.22344e+10
-1.83517e+09
-4.67032e+09
9.09604e+09
7.18763e+09
1.00253e+10
1.96395e+08
4.4183e+09
2.77861e+09
1.29459e+10
-2.75672e+09
-6.95022e+08
1.7688e+10
-1.738e+09
2.75085e+10
5.07816e+09
4.044e+09
-1.88233e+10
8.47382e+10
-2.31334e+10
7.72135e+10
1.28919e+10
1.2505e+10
3.21402e+09
-2.69092e+09
-2.11204e+09
2.0904e+09
-2.16048e+10
-4.65682e+09
-2.17413e+10
5.91612e+09
-1.3396e+10
1.63756e+10
-2.16324e+10
-4.1887e+10
-6.57584e+09
-1.58659e+09
3.41298e+10
-7.19592e+09
1.12976e+10
-4.19985e+09
9.33567e+09
2.03711e+09
-2.77746e+09
5.66018e+09
-1.39487e+10
1.66278e+10
1.56753e+10
1.08717e+08
-6.13645e+09
-2.09001e+09
1.22767e+09
-1.69219e+09
2.45128e+09
1.58871e+10
9.9133e+09
-3.98763e+08
-8.051e+09
-2.45797e+09
7.66385e+06
-2.20109e+09
5.17154e+09
7.13114e+09
2.29016e+09
6.07999e+07
-1.85936e+10
7.31539e+10
-8.0735e+09
-1.98666e+09
1.17605e+10
4.25088e+10
-7.91909e+09
-2.83211e+09
-1.09426e+10
9.06787e+10
-4.71186e+09
1.02476e+10
-3.90881e+09
-1.57578e+10
1.0715e+10
8.68167e+09
1.07511e+10
-9.6361e+09
8.82236e+09
-8.72867e+09
-7.56287e+10
2.45602e+07
2.38969e+09
1.51509e+10
8.89006e+09
-8.94576e+09
5.92353e+10
7.92363e+09
-2.13705e+09
5.48101e+10
2.08851e+09
1.41238e+09
8.86219e+09
8.34176e+09
-3.8e+09
7.88678e+09
1.16506e+10
7.3687e+09
5.98902e+09
9.37214e+09
-1.79521e+09
2.47922e+10
-1.17566e+09
6.66018e+08
4.49314e+08
5.68803e+09
-2.60717e+10
2.94174e+09
1.10814e+10
2.48038e+09
7.72021e+10
-3.89173e+09
7.13278e+09
3.09344e+10
3.63591e+09
1.09829e+10
2.33024e+10
-1.02267e+10
2.67815e+10
1.74693e+09
3.25754e+10
1.25743e+10
-6.10794e+09
-7.56047e+10
-7.43689e+09
-3.29246e+09
-4.74768e+09
9.60008e+09
-8.087e+09
-2.71263e+08
9.65097e+08
4.91251e+09
7.87498e+09
-9.0934e+07
2.03182e+09
1.27351e+09
4.09706e+09
3.0519e+09
6.57812e+09
2.30457e+10
1.17316e+10
-3.07254e+09
7.04769e+10
6.60014e+08
-4.51121e+09
-4.14224e+09
-2.07265e+09
5.70168e+09
3.16533e+10
9.47131e+09
1.21893e+09
5.28447e+09
-4.21247e+09
1.74738e+10
-2.87416e+09
-5.49875e+09
1.07275e+10
1.28453e+09
-1.78411e+10
-1.54265e+09
-3.62737e+10
4.61068e+09
-3.07198e+10
-4.56745e+09
-2.51147e+09
-2.86769e+09
-8.5165e+09
-9.98011e+09
-3.55048e+08
5.96946e+08
-3.43131e+09
-2.81096e+09
8.64848e+09
1.11637e+10
5.87699e+09
2.25924e+10
-2.48631e+09
1.90948e+10
2.39195e+10
-1.49253e+10
1.22181e+10
3.30797e+10
-7.80744e+09
-8.66988e+09
-9.81228e+09
-2.80262e+10
3.8005e+10
2.76308e+09
-3.62172e+08
-1.77686e+10
-2.13087e+10
-5.18411e+08
7.80538e+10
6.32136e+09
1.19605e+10
1.17552e+09
1.09296e+10
-1.69574e+09
2.1529e+09
1.83744e+10
-3.26115e+08
7.74076e+10
2.09558e+09
-9.43496e+09
-1.32389e+10
2.19299e+10
1.0849e+10
1.81638e+09
8.55731e+09
-1.71515e+10
-1.68832e+10
-3.43891e+10
4.31841e+09
-1.56886e+10
-1.2085e+10
-8.39991e+09
-9.39629e+09
3.76228e+09
1.12131e+10
-2.40855e+10
2.0136e+09
9.19658e+08
1.0669e+10
2.24506e+09
1.9742e+09
4.97382e+08
5.86688e+09
-2.15323e+10
4.40146e+10
6.84576e+09
1.33165e+10
-1.61898e+10
1.81026e+10
-1.0736e+10
4.32695e+10
5.4047e+09
2.28791e+09
-5.16512e+09
2.19442e+09
1.50822e+10
-6.88305e+08
1.89996e+10
-2.74421e+10
-1.0209e+10
-5.35427e+08
-1.7989e+10
1.5235e+10
-2.21013e+09
2.20082e+09
1.98503e+10
-1.72079e+10
3.23661e+10
-1.3544e+10
-9.59425e+09
6.23456e+10
1.85133e+10
4.87112e+10
-4.64514e+09
-6.54465e+08
5.12374e+10
-3.66855e+10
-1.06119e+09
-4.02584e+10
5.7542e+09
3.66797e+10
-1.19861e+10
6.64041e+09
-3.52806e+10
6.90884e+09
7.52226e+09
-1.01278e+09
1.47503e+11
9.19081e+09
4.73355e+10
-1.84637e+10
8.40665e+09
1.73523e+10
1.46151e+10
-8.66736e+08
-1.40845e+10
-3.47839e+09
8.75683e+08
3.58317e+10
1.37475e+09
-2.93689e+09
5.73903e+09
-7.48528e+10
1.44473e+10
1.06561e+10
5.29894e+08
-4.00473e+09
1.19189e+09
9.35887e+09
2.42349e+10
3.64512e+10
-6.82785e+10
1.09285e+10
-8.04391e+09
2.89608e+10
8.75718e+08
1.13333e+09
-3.71458e+09
-3.62542e+09
-5.42499e+09
4.57776e+10
1.22283e+10
-7.94689e+09
7.91809e+10
6.14814e+09
5.94377e+09
-3.58529e+09
6.49238e+09
2.46473e+10
-4.67538e+09
-2.92107e+09
8.75263e+10
-5.88789e+09
-4.09967e+10
5.38629e+09
1.56351e+09
6.26342e+10
-1.58355e+10
9.34114e+09
-3.77908e+09
-2.36404e+09
-1.90919e+10
-4.47485e+08
-2.99454e+10
7.51085e+09
7.21509e+08
-1.83973e+09
3.17621e+09
9.04079e+09
1.99993e+10
4.93527e+07
-5.82656e+09
2.16207e+09
1.86842e+09
-2.31185e+10
-1.45371e+10
3.32775e+10
-9.81668e+09
-2.12999e+09
1.30914e+11
4.14752e+08
-4.85977e+09
3.97165e+09
-8.13309e+09
-1.18601e+10
-5.91902e+09
1.03526e+10
-1.84415e+09
-1.21965e+09
-1.07565e+10
7.00537e+09
-3.05504e+09
-2.98938e+10
5.288e+09
4.94941e+09
2.3146e+10
2.72287e+09
3.62259e+10
4.97397e+10
3.23613e+09
2.39107e+10
5.39998e+09
7.82214e+09
1.2378e+09
9.52158e+09
-4.94635e+09
1.17596e+10
-4.06832e+09
8.84043e+09
1.86445e+09
-1.75909e+10
1.30364e+09
-3.3196e+08
1.92492e+09
2.77527e+09
3.64272e+10
-5.14804e+09
-2.30182e+09
2.91021e+10
3.21655e+09
2.1384e+10
-4.10489e+10
3.75386e+09
4.27343e+09
5.3681e+09
-1.34982e+10
2.37997e+10
-1.76983e+10
1.64136e+10
-7.94622e+08
3.17795e+10
6.79254e+09
5.92969e+09
-2.33349e+09
-6.89001e+09
-4.56589e+10
-1.49332e+09
1.63117e+10
-4.94009e+09
3.18403e+10
5.59015e+09
2.64569e+09
-2.58043e+09
1.32725e+10
-1.34059e+09
-1.56746e+10
-1.00625e+10
7.68133e+09
-1.54669e+10
2.64802e+09
1.48388e+10
-2.14722e+09
4.07049e+08
-1.45416e+09
4.95138e+09
-1.78897e+10
9.94536e+09
3.8049e+10
-1.09235e+10
-8.52438e+09
-4.57449e+09
2.75977e+10
-1.77446e+09
3.59772e+09
-1.71068e+10
3.98426e+09
2.1649e+10
3.74903e+08
1.42646e+10
2.10424e+10
1.78727e+10
-1.2123e+10
1.33539e+10
8.75706e+10
-4.68788e+09
-5.64923e+09
7.39457e+09
3.42433e+09
3.07091e+08
6.42839e+10
2.57839e+10
5.20786e+10
5.32269e+09
-3.71549e+09
4.78471e+09
2.62185e+10
6.75779e+09
3.04576e+09
-4.01229e+09
2.04261e+10
-2.98029e+10
-3.88509e+09
3.86522e+10
-6.21971e+09
1.85473e+10
3.33258e+10
1.06482e+10
-1.9207e+08
-2.80856e+08
-7.40875e+10
-7.37432e+07
-3.41007e+09
-1.12633e+10
-1.87985e+09
6.66617e+09
2.10252e+09
4.09617e+10
2.85943e+10
1.53354e+10
-9.50841e+09
9.80336e+09
2.39627e+09
-4.49587e+10
6.08142e+09
-1.56307e+09
-4.83015e+10
2.33445e+11
4.52619e+09
1.01347e+09
4.80959e+09
-1.42655e+10
4.58767e+10
4.30219e+09
5.52748e+10
1.08639e+11
3.15934e+09
2.05302e+09
1.02752e+10
6.18389e+08
5.09841e+08
-4.46304e+09
-1.5592e+10
5.31733e+09
-1.26143e+10
-4.003e+09
-8.74241e+09
5.56531e+09
7.28679e+09
1.20334e+09
4.6004e+09
-6.25068e+10
-5.638e+09
9.69458e+08
7.34237e+09
3.27161e+09
-4.7368e+09
-6.42111e+09
1.28134e+10
-7.2552e+09
-2.15464e+10
-2.74144e+09
-6.11116e+09
-5.18757e+09
-1.40831e+09
-2.32084e+09
-9.17398e+08
1.05497e+10
1.8003e+10
-1.44279e+10
2.95031e+09
4.04184e+09
-5.37428e+09
-2.05651e+10
-2.68283e+09
-3.16026e+09
-4.84435e+09
-1.9802e+09
1.11497e+08
-9.60366e+09
-1.19754e+10
-1.0056e+09
-3.52119e+09
7.11365e+09
2.85739e+09
-1.69301e+09
-7.61982e+09
1.4232e+10
-3.74214e+10
-3.49069e+09
1.12838e+10
-1.0586e+10
-4.82792e+09
-1.69582e+10
-2.15477e+10
1.93215e+10
-8.70933e+09
5.51473e+10
-1.08323e+10
7.85672e+09
-4.55539e+09
2.06274e+10
-9.23881e+09
-2.91717e+09
-4.23735e+10
-5.85814e+08
1.27283e+09
4.89224e+09
-1.18799e+09
-1.61563e+10
5.84747e+09
1.4287e+09
-6.22393e+09
-6.49924e+09
1.73033e+10
7.64523e+09
-1.64718e+10
-2.83126e+09
2.66996e+10
3.05998e+09
2.91415e+09
-8.95784e+09
1.12457e+10
2.40343e+09
2.25074e+09
-3.33167e+09
-1.86403e+10
-6.06565e+09
-3.45482e+09
5.00492e+09
9.86377e+09
2.58275e+10
-3.93148e+09
1.13498e+09
1.12661e+10
-1.1957e+09
1.65883e+09
-4.24161e+09
-4.43063e+08
-1.01967e+08
3.107e+08
1.67868e+11
1.98989e+09
-6.26739e+09
-2.76785e+09
2.74397e+09
1.44532e+10
4.04743e+10
2.53393e+10
-6.8672e+09
-3.54957e+09
1.72287e+10
9.99101e+09
-2.11523e+09
-9.3867e+09
-9.05276e+09
1.14979e+09
-3.50135e+08
1.62348e+10
3.49637e+09
-8.74324e+09
-6.16306e+09
1.21253e+10
8.8927e+09
2.24678e+09
5.29118e+10
1.31446e+09
1.14462e+10
1.2845e+10
2.70043e+10
2.30863e+09
1.17996e+10
2.72898e+10
-8.70025e+09
-1.70534e+10
2.37812e+10
-5.64022e+09
-2.46308e+10
1.49856e+10
3.00677e+10
-3.52612e+09
3.39892e+09
1.02143e+10
-6.41944e+08
-4.08875e+10
-1.92801e+09
5.55342e+10
-3.29463e+09
1.01836e+09
2.02323e+09
1.84772e+10
-3.00526e+09
2.48917e+09
2.79856e+09
-4.71817e+09
2.76872e+09
-2.98354e+09
-9.53564e+10
-2.0891e+10
-1.96076e+09
-5.03052e+09
7.89851e+09
5.90865e+09
6.51506e+08
2.54571e+09
2.60311e+10
1.9275e+09
6.25041e+08
-7.37725e+09
9.31916e+09
-5.04477e+09
-6.23864e+09
5.04812e+07
-1.6063e+09
-4.64504e+09
-9.55417e+09
-5.34241e+09
-6.38208e+09
-4.66133e+09
8.55143e+09
-2.96384e+10
7.92383e+09
9.98815e+08
8.92458e+09
1.06649e+10
8.12106e+08
2.88179e+09
7.22978e+09
-9.43459e+09
9.39684e+08
4.42581e+09
2.64225e+10
2.49883e+08
-6.46431e+09
2.3533e+09
-1.6822e+10
1.06237e+09
6.66984e+09
5.30945e+09
-2.17178e+09
3.00388e+09
2.17717e+10
-5.78667e+10
-3.78307e+09
9.17181e+09
1.03658e+10
-4.53414e+09
9.31134e+09
-5.57914e+08
-1.49635e+10
-1.32577e+10
1.05512e+10
8.8038e+09
-4.83686e+09
5.64395e+10
1.89464e+10
-3.73336e+09
3.47068e+10
2.98442e+10
-2.83853e+09
-6.85749e+09
2.98604e+10
4.08378e+10
4.47399e+10
3.29431e+09
1.19244e+10
-1.68454e+10
-2.17068e+09
6.3582e+09
5.96401e+10
2.30296e+10
-9.62319e+08
-2.75387e+09
-1.27056e+10
7.09721e+09
-2.15281e+10
8.35906e+09
-3.17171e+10
-3.49241e+10
8.72222e+09
-3.32524e+10
9.46515e+09
3.71182e+07
2.67379e+09
-1.37003e+10
-9.23342e+10
3.07182e+10
-2.7575e+09
-1.84864e+11
-2.80229e+09
9.009e+08
-4.83328e+09
7.86534e+09
6.67436e+08
-1.17971e+09
5.09886e+09
1.39264e+09
1.01617e+11
-5.17907e+09
2.44092e+09
-1.55624e+10
-2.16432e+08
4.87752e+09
4.9016e+10
-1.86389e+09
3.70584e+09
2.82422e+09
-8.62868e+09
3.91436e+08
-1.2444e+09
1.04575e+10
4.16672e+09
3.29541e+09
4.94239e+09
4.89933e+10
2.63775e+09
6.88521e+10
-1.99564e+10
2.46448e+10
-1.44726e+10
-8.85146e+09
2.38322e+09
1.19315e+10
7.56259e+09
1.16986e+09
-7.28014e+09
3.00433e+10
-3.74899e+08
2.38779e+10
2.22081e+10
-8.98057e+08
-2.372e+10
1.35166e+09
-2.24479e+09
2.05775e+09
-7.67517e+09
-5.69869e+09
-5.52544e+09
5.65004e+09
5.24673e+09
2.84762e+08
5.48336e+09
4.70494e+08
8.95012e+09
-2.48547e+09
-2.16901e+10
-1.53964e+09
-1.882e+09
2.16684e+10
8.21097e+08
9.84251e+09
-2.11026e+09
3.19041e+10
-7.80448e+09
-4.57492e+09
-3.39127e+09
-8.89469e+09
3.3562e+09
-4.47113e+09
4.48867e+09
8.22851e+09
2.86001e+10
3.00978e+10
3.02158e+08
6.33904e+09
-4.92982e+09
-5.92624e+08
-1.54771e+09
-1.98064e+09
5.28062e+10
-2.48366e+10
1.46236e+10
-1.10454e+10
1.25165e+10
2.21561e+10
-1.10338e+08
-3.09739e+09
5.3524e+10
-2.39854e+08
-4.69722e+09
-1.71393e+10
3.77865e+09
2.50218e+09
-1.40912e+09
-1.19467e+10
3.06734e+08
1.80912e+10
1.41258e+09
6.89248e+09
4.5613e+09
4.85855e+09
1.06078e+11
-4.33021e+10
2.7922e+09
-6.89784e+09
2.44337e+09
-1.89609e+09
-5.91891e+09
-1.22114e+11
1.49734e+09
1.24276e+10
1.79818e+10
-1.68789e+09
-9.39462e+09
-1.5699e+09
-3.75594e+09
-5.40664e+09
2.90707e+09
-3.61881e+10
1.31714e+10
4.30067e+09
3.52682e+09
3.56125e+09
-9.01537e+09
3.52749e+10
2.853e+10
1.01058e+10
5.30548e+09
9.01235e+08
-1.76889e+09
4.25464e+10
2.25986e+10
3.95567e+08
-1.00386e+10
-3.92918e+08
-3.41375e+09
-1.71466e+09
9.00983e+09
-2.93586e+08
2.14096e+08
-2.60902e+10
2.09175e+09
6.17124e+09
6.04358e+09
1.58836e+10
-4.39327e+09
-2.44108e+10
5.47552e+10
3.97244e+10
-2.1898e+10
-2.38015e+09
2.89377e+09
1.62055e+10
4.6889e+10
3.44001e+09
1.32587e+09
1.27333e+10
-7.7618e+09
6.249e+09
3.68456e+08
1.22905e+10
-2.27213e+09
1.77956e+10
8.44466e+10
-2.60176e+09
7.49913e+09
-2.36511e+10
3.9977e+09
2.69035e+10
1.05229e+10
1.09171e+10
2.53132e+10
5.55046e+09
2.1807e+10
-2.23727e+09
3.2871e+08
2.16831e+09
-3.49599e+10
3.61371e+10
-9.78242e+09
5.66215e+09
2.34029e+09
-3.44859e+09
1.71468e+10
1.01509e+08
-6.73457e+10
-8.2871e+09
1.20061e+10
1.42572e+09
-3.85952e+09
5.42956e+09
2.33952e+09
5.80891e+09
3.66959e+10
1.48865e+10
-8.76308e+09
-2.47082e+07
1.27874e+10
-1.26104e+10
-6.0744e+10
1.65875e+09
-2.55706e+10
9.49091e+08
6.55043e+09
-2.07881e+10
4.92e+09
-1.0538e+10
1.09682e+10
3.51444e+09
-1.06958e+10
5.6397e+09
5.48853e+10
6.34758e+08
-4.47071e+09
2.10808e+09
2.85712e+10
2.46538e+09
9.28319e+09
5.90344e+10
-6.00098e+09
1.28376e+10
6.89075e+09
5.38528e+08
2.26365e+09
2.81446e+08
3.73113e+10
7.14882e+09
-5.75017e+09
1.51048e+10
-6.03111e+08
2.0514e+10
6.9322e+09
-2.67336e+07
-1.22541e+10
2.15738e+10
4.57157e+09
-9.65213e+09
-3.6692e+10
5.10948e+09
5.52471e+07
-7.43389e+09
-1.05986e+09
-3.80487e+09
2.80228e+10
-3.31273e+09
-2.78e+09
4.10383e+09
7.37671e+09
2.4894e+09
2.98817e+10
-7.35926e+09
-5.01365e+10
-1.15759e+08
1.28109e+10
-1.72557e+09
-8.4002e+09
2.03103e+09
4.42557e+10
-8.4825e+08
-1.94359e+09
1.13335e+09
-2.95169e+09
-2.34046e+10
-3.41951e+10
2.10515e+09
-6.40809e+09
-5.21585e+09
-1.39975e+10
1.82995e+09
-2.60463e+09
3.03796e+09
1.15605e+10
-2.07207e+09
-2.85943e+09
-1.7615e+09
9.06592e+09
2.85145e+09
2.45235e+09
1.8015e+10
2.69877e+09
7.23732e+08
1.48335e+10
9.2332e+09
-8.94554e+09
-2.2991e+09
-5.03032e+09
1.5045e+10
-1.33287e+10
1.89266e+09
4.96901e+09
-2.17843e+10
8.09265e+10
3.30571e+09
6.05795e+09
2.01573e+09
-8.70048e+09
-7.32928e+09
-4.76617e+09
7.7546e+10
2.30244e+10
-8.68227e+07
2.42475e+10
1.22348e+08
3.44804e+09
-2.07979e+09
1.9049e+10
2.44063e+09
3.23995e+09
-5.60808e+06
-1.66273e+10
-7.51372e+09
-9.31442e+09
9.99998e+09
8.53497e+09
3.58371e+09
-1.81106e+10
4.9548e+09
9.86495e+10
-9.91641e+08
-5.15043e+09
6.24178e+08
6.94692e+09
4.58995e+08
-9.44082e+09
5.99662e+08
-1.99482e+10
-1.29106e+09
-1.16445e+10
3.26087e+10
5.03238e+09
-1.56551e+10
-1.76217e+09
1.21986e+10
-7.62197e+09
-9.36674e+09
2.66717e+08
7.87195e+09
1.38409e+09
-2.12701e+09
1.98501e+09
1.29204e+09
2.31883e+10
2.93471e+10
-5.512e+10
6.77266e+10
-2.89046e+09
-2.36814e+10
3.06441e+09
1.60732e+09
9.69903e+09
7.74479e+09
2.6088e+08
-9.56042e+09
-7.84081e+10
9.90558e+09
1.97595e+10
-6.53053e+08
2.50481e+10
5.01913e+08
1.17386e+10
1.8636e+09
1.50734e+10
-3.05575e+09
-1.76267e+10
-1.70814e+10
-8.93712e+09
-5.43822e+09
1.25748e+11
2.30843e+10
-5.3058e+09
-7.20454e+08
-9.53715e+08
1.21573e+10
4.19265e+09
1.93247e+10
-4.05712e+09
-1.20686e+10
-1.79349e+10
2.64887e+10
-9.00654e+07
-1.22195e+10
5.66378e+07
-4.10318e+09
-8.4733e+09
-1.53458e+10
-2.58013e+09
-7.2906e+09
2.76166e+10
-6.39263e+09
2.42904e+09
-3.47893e+09
9.54644e+09
-1.41514e+10
-6.57261e+09
3.14789e+09
8.16022e+09
-1.39587e+08
2.52676e+10
-7.02235e+09
1.95173e+09
1.35022e+10
4.83655e+09
2.4601e+10
1.68541e+10
-6.87682e+07
-8.23715e+09
-6.00055e+10
9.62132e+08
-3.15457e+09
-6.77649e+08
2.04585e+09
1.45994e+09
-1.05739e+10
1.43857e+08
7.81546e+11
-4.18676e+09
-5.77561e+08
-3.29708e+10
2.42608e+09
-6.95001e+09
8.93326e+08
1.21632e+10
-9.75098e+09
-7.82959e+09
1.16574e+10
4.21292e+09
5.40845e+09
-1.31946e+10
-5.06614e+09
-1.74202e+09
2.71014e+09
1.65509e+10
1.02903e+10
-1.74729e+10
-1.68958e+10
1.48199e+10
-1.06704e+10
8.71064e+09
-2.235e+10
1.35515e+10
-3.70077e+10
1.60259e+10
-2.40631e+10
-6.98739e+09
-2.53648e+09
-1.09582e+10
7.01533e+09
-2.41346e+09
5.14637e+09
2.70202e+10
-1.15536e+11
-1.13427e+08
1.53976e+10
-7.01824e+09
8.062e+09
1.50455e+10
4.40453e+10
-1.38392e+10
1.84585e+08
-8.70101e+09
-6.58554e+07
7.75772e+09
1.42406e+10
2.99441e+10
-7.06972e+09
4.25306e+09
-1.46266e+10
-3.33499e+10
1.43818e+10
-1.8112e+09
-1.03105e+08
1.16944e+10
6.6385e+09
1.87129e+10
7.56104e+10
4.21385e+10
2.51855e+10
7.77995e+09
-1.008e+10
1.85059e+09
1.88069e+10
-4.06693e+09
4.54934e+09
-2.72422e+10
-3.91814e+08
4.27771e+10
1.87138e+09
1.289e+10
6.6713e+09
2.07173e+09
-5.64728e+09
-4.69439e+09
1.29855e+09
3.00701e+10
-1.73532e+09
4.04791e+09
-1.05827e+09
-5.95578e+09
5.08583e+10
2.14767e+08
-6.91877e+09
8.76867e+09
1.50484e+09
1.42436e+10
1.37455e+10
-3.49004e+09
6.80764e+09
-7.11977e+10
-3.03391e+09
-2.9914e+10
-6.4222e+09
1.00755e+10
-1.27402e+09
-1.60609e+10
-1.52767e+09
2.22192e+10
1.21689e+10
1.1693e+10
-1.95629e+10
3.4038e+09
-5.48923e+08
-1.50484e+10
4.25995e+09
-4.78822e+08
-1.5968e+09
1.20707e+09
-1.72594e+10
-1.14491e+10
1.20253e+09
5.30421e+09
1.52617e+10
2.68746e+10
-6.96023e+09
7.09292e+10
-8.00723e+09
2.45704e+09
-1.67495e+10
2.16032e+10
1.85612e+10
3.85692e+09
-9.42155e+09
9.31612e+09
6.67289e+10
7.10488e+10
1.36645e+10
3.64876e+09
-3.69912e+09
2.81725e+09
-2.81312e+08
9.84649e+09
1.81965e+10
2.86073e+09
-8.43153e+09
-2.3407e+09
6.54455e+09
3.02615e+09
-1.84373e+09
2.53172e+10
-3.81203e+09
-1.08702e+10
-1.96244e+10
-1.63269e+09
3.94516e+09
-1.82176e+09
-3.01366e+09
1.09936e+10
4.90301e+09
1.16184e+10
5.05444e+09
1.22349e+09
-3.79419e+09
-1.11825e+10
-1.35367e+09
9.37625e+09
5.61361e+10
-2.38229e+10
6.44064e+09
4.08737e+09
-1.07361e+10
1.25536e+10
1.79938e+08
-1.34966e+10
1.34663e+09
3.74273e+09
-1.0863e+10
1.54445e+10
5.76974e+09
2.29158e+09
1.65189e+10
-2.45952e+09
1.31911e+10
3.64e+09
6.19733e+09
-3.0787e+08
4.84894e+08
-7.7727e+09
1.16771e+10
-2.05059e+09
-4.53871e+09
1.11464e+09
-2.70799e+08
1.39643e+11
4.05404e+09
1.44419e+10
3.35062e+10
1.82383e+11
-1.45136e+09
6.26555e+09
7.35792e+10
3.09362e+10
-7.38454e+07
4.26411e+08
4.2514e+09
1.52104e+10
7.06706e+10
-5.41677e+09
1.84271e+09
-2.52562e+10
1.79342e+10
-3.61486e+10
2.26177e+09
-2.59333e+09
-2.88555e+10
-8.94339e+09
-6.99798e+08
9.55902e+09
2.56365e+10
1.70416e+09
-4.30218e+09
-4.87471e+09
8.14539e+08
-1.66877e+09
-5.81051e+08
-1.98034e+10
-2.22578e+10
-2.30164e+09
1.74168e+10
1.20359e+10
5.43562e+09
-2.83406e+10
2.03318e+09
-2.78647e+09
3.24849e+09
-6.10386e+08
8.08845e+08
4.07331e+09
-2.80037e+10
-4.68268e+09
-3.43395e+09
1.85827e+10
5.87397e+09
1.33638e+10
-6.68909e+09
2.66861e+09
-1.92599e+09
9.74606e+08
2.31321e+09
4.63154e+08
5.87826e+09
1.40627e+09
-8.15526e+08
4.99235e+08
-1.79801e+09
1.12711e+08
-3.96493e+10
6.76248e+09
-2.77259e+09
-5.95135e+09
2.03835e+10
-2.17881e+09
1.06857e+11
-2.30199e+09
5.03764e+10
-1.33604e+10
6.13994e+09
1.20287e+10
5.75057e+09
1.25609e+10
-4.65159e+09
-2.92629e+09
2.39013e+09
4.61918e+10
1.88071e+08
1.67979e+10
1.56211e+10
-3.58873e+09
-5.83794e+09
-7.63655e+08
2.65402e+09
2.12804e+11
2.41988e+10
-5.88186e+09
6.11856e+09
4.21629e+09
-1.71912e+10
-2.60229e+09
-2.76695e+09
1.31348e+10
-1.21246e+10
3.76546e+10
1.16608e+09
1.60654e+09
-1.0546e+10
5.21368e+08
3.72568e+09
9.21883e+08
1.00941e+10
7.45072e+09
-3.05025e+09
2.05177e+09
6.26086e+09
1.00139e+11
-5.96569e+09
1.99795e+09
1.57117e+10
-4.16819e+06
2.05261e+09
-1.05022e+10
2.13651e+10
-5.08355e+08
-5.02631e+09
3.70955e+09
-1.35787e+10
2.79104e+09
-2.20298e+09
2.00374e+09
5.05894e+06
4.44564e+09
2.70577e+09
-5.76681e+09
1.48369e+10
4.95767e+09
1.11385e+10
3.5127e+09
-2.1663e+09
-2.58143e+09
4.60305e+10
1.12709e+10
1.78462e+10
-7.85511e+08
3.93918e+10
-1.60229e+10
-1.74554e+09
2.98367e+09
-6.16054e+09
8.30334e+08
5.73509e+09
8.00681e+09
2.99859e+10
1.55669e+09
1.18641e+10
6.2346e+09
-2.08918e+10
-4.76976e+09
-3.14799e+09
-2.76801e+10
2.08575e+09
-2.93297e+10
-5.8188e+09
-5.97413e+08
-1.29666e+08
-5.69929e+09
3.00862e+09
1.4838e+10
1.78336e+10
-3.44432e+10
1.83904e+09
6.43091e+09
-2.36892e+09
1.03845e+09
-1.61353e+09
9.04822e+09
4.09501e+09
-3.70088e+09
-1.68676e+10
1.10018e+10
-1.60443e+09
-1.04288e+10
1.45506e+10
1.29151e+09
-2.09104e+10
1.39453e+09
-2.78676e+10
3.12657e+10
1.46819e+10
-3.456e+10
5.64842e+09
1.4042e+09
8.43077e+09
-5.58784e+09
1.3188e+09
7.95196e+10
3.06316e+09
6.1674e+09
7.5073e+08
-7.15647e+07
7.36774e+08
-6.60248e+09
4.66331e+10
1.42482e+09
-5.73673e+09
-5.1645e+09
9.98096e+09
4.22621e+10
-4.91496e+09
-2.15314e+09
2.61146e+09
7.40086e+09
5.78485e+09
2.01032e+10
578921
-5.87913e+10
6.80497e+08
3.26709e+09
3.50635e+09
-6.9039e+10
2.91475e+09
2.99859e+10
1.11556e+10
-4.99439e+09
7.66982e+09
-8.40233e+08
1.62057e+10
-1.26541e+09
-3.4972e+09
-5.52923e+09
-1.09874e+10
-2.28327e+10
4.08376e+10
3.48542e+10
1.39934e+11
2.67306e+09
5.79668e+10
-2.13272e+09
1.09341e+10
-5.77509e+08
6.9689e+09
-1.47416e+10
9.26303e+09
-2.12111e+09
4.01094e+09
3.94106e+09
1.20547e+09
-5.60985e+09
6.48227e+10
7.63097e+09
3.75063e+10
5.20895e+09
2.02968e+10
-9.40471e+09
-1.07046e+10
-1.41761e+08
6.41127e+09
5.59261e+09
-1.28193e+09
-2.82424e+09
-3.39367e+09
-2.69056e+09
-4.59135e+09
3.47725e+10
-1.82936e+09
-3.56541e+10
1.96723e+09
3.0261e+10
-2.1164e+09
-9.25339e+09
6.62818e+09
-3.3109e+07
9.7298e+09
2.56393e+09
-5.49008e+09
-3.37282e+10
-3.3376e+10
3.80803e+10
1.67963e+10
3.40456e+10
4.60618e+09
-2.99261e+09
3.00124e+09
5.87049e+09
-2.47463e+09
-7.36957e+09
-2.63409e+09
2.30337e+09
1.17062e+10
-2.89522e+09
4.22521e+09
7.27986e+09
-6.25058e+09
-3.24673e+08
6.05496e+09
-7.37712e+09
-1.70066e+10
9.2021e+09
6.62707e+10
-5.10044e+09
1.25029e+09
-8.70592e+08
-2.67097e+09
4.62324e+09
4.94043e+08
3.69761e+09
-3.78231e+10
-9.68988e+09
-7.34067e+09
-2.9088e+09
-6.53613e+09
4.68771e+10
-4.95242e+09
1.60807e+10
3.66e+09
5.90592e+09
-3.55721e+09
2.00632e+10
7.33998e+10
-7.33121e+09
-9.10048e+09
-1.6226e+10
1.03489e+10
9.2107e+09
-1.45384e+10
-1.99328e+08
2.78003e+10
3.38683e+09
-5.30907e+09
2.22818e+10
1.36251e+10
1.43004e+09
2.03896e+09
-7.82427e+09
-4.67892e+09
4.00379e+09
1.61363e+10
4.14184e+10
3.47381e+09
1.64986e+10
2.35734e+09
6.19628e+09
7.68716e+09
-6.14569e+09
3.25193e+09
-2.20155e+09
3.08696e+10
-7.98623e+09
1.38199e+10
-4.99923e+09
3.83566e+10
3.2021e+09
-1.10339e+10
9.97657e+08
-7.59728e+08
2.12603e+09
8.39508e+08
-6.12256e+09
-5.79173e+09
1.6748e+10
-1.85762e+08
7.09111e+09
-2.43364e+09
-8.08209e+10
-3.72327e+09
9.0049e+09
4.14323e+09
-3.49559e+09
8.49905e+08
1.31869e+09
7.50497e+09
-4.12852e+09
7.8163e+09
1.28173e+10
-1.83984e+08
1.66724e+09
4.37146e+09
-8.96162e+10
-9.12015e+09
1.80016e+10
4.88007e+09
1.08067e+09
5.85992e+09
-1.32984e+10
7.71671e+09
1.24388e+10
8.58581e+09
2.5602e+09
-4.91573e+09
1.22914e+10
-7.58309e+09
9.22546e+09
-8.30353e+10
-7.8169e+09
1.91248e+09
-1.70532e+09
-3.60193e+09
3.5969e+09
-5.53802e+09
-6.97207e+09
-7.02688e+08
7.17193e+10
7.21233e+09
-2.79116e+09
-1.73275e+10
8.03569e+10
3.26106e+10
4.6728e+09
2.3832e+10
-1.51647e+10
1.30536e+10
6.46764e+09
1.16142e+09
-1.4186e+10
1.65415e+10
-6.19781e+09
2.1149e+10
-3.65543e+09
6.91473e+09
1.09497e+09
-5.64067e+09
1.15483e+09
3.13094e+08
4.05627e+09
3.13908e+10
2.35e+10
4.6884e+09
-2.25188e+10
5.06374e+09
-1.41898e+09
-1.04328e+10
1.29767e+10
-4.68889e+09
-2.2117e+10
-3.72617e+10
9.38948e+08
1.34606e+10
-1.62477e+10
-1.13017e+10
2.99885e+09
1.32644e+11
1.02673e+10
1.80821e+10
5.99737e+09
-7.68146e+09
7.14055e+08
-4.48733e+09
6.6692e+09
5.89611e+09
-4.58801e+08
-2.93505e+09
4.9086e+09
2.52226e+10
1.08379e+10
2.05967e+10
6.86403e+08
1.1526e+10
-2.95732e+09
-3.96385e+08
3.03665e+09
3.34455e+10
-1.33164e+09
2.21666e+09
7.94091e+07
-9.94862e+08
4.42525e+10
9.25776e+09
-1.27729e+10
8.49635e+10
-2.54824e+09
-2.03759e+10
4.54896e+09
-1.49067e+10
-1.76219e+09
-4.29481e+10
-9.39299e+09
2.77432e+09
1.3059e+08
-9.16601e+09
4.74528e+09
-2.51196e+09
1.58369e+10
2.46315e+09
7.37687e+09
1.09264e+11
-1.26462e+09
3.37288e+09
-3.75329e+08
2.84161e+09
5.95817e+09
8.38046e+09
-6.43177e+09
-6.96739e+07
9.60896e+08
-4.0144e+08
4.61991e+10
-1.92713e+09
-3.63469e+10
1.07124e+10
3.39298e+10
-2.13506e+10
1.55678e+10
4.89283e+08
8.0342e+09
-7.50699e+08
-2.59636e+10
-3.48234e+09
7.5921e+08
-4.32885e+10
-1.15108e+10
-1.7261e+09
-2.80112e+09
5.39342e+09
-1.29547e+09
-7.31244e+09
1.23051e+10
-3.86684e+09
5.12747e+09
-3.09456e+10
-8.19628e+09
2.82856e+10
-9.64497e+09
-1.37837e+10
2.32315e+09
9.44424e+09
-1.55253e+10
-1.71874e+10
-1.12514e+10
-4.10916e+09
2.27069e+08
1.77938e+10
1.7821e+10
3.71997e+10
5.43077e+09
-4.76217e+10
6.1381e+08
2.07682e+10
-1.87562e+10
8.78376e+09
-8.5346e+08
3.34825e+10
2.54559e+10
-1.10935e+09
1.30341e+10
2.86323e+09
1.2857e+08
-1.21248e+09
-4.95272e+09
-2.28716e+09
-3.17088e+08
-8.42461e+09
8.14175e+10
3.00426e+09
1.6445e+09
3.02914e+09
1.50495e+10
-1.71718e+09
-1.49031e+10
-7.15386e+09
4.61025e+09
-8.76346e+08
1.3608e+09
1.71553e+11
-1.17353e+10
7.91215e+08
-8.41659e+09
-2.40433e+09
-5.06797e+09
1.04998e+08
-3.5731e+10
-8.52978e+10
3.85107e+09
1.29484e+10
6.01709e+09
-4.1319e+08
3.0096e+09
1.51869e+09
2.59375e+09
1.76649e+09
-6.75307e+08
4.25756e+09
-3.05615e+10
7.38813e+10
1.99421e+08
7.19695e+09
8.75623e+09
3.49446e+08
1.96467e+10
5.3105e+09
6.51587e+09
9.4709e+09
1.54948e+10
-1.29661e+10
-6.96258e+09
-6.27616e+08
1.75557e+10
-1.59505e+10
7.88561e+09
9.80603e+09
1.68542e+10
1.12053e+09
-1.2422e+10
