-1.29866e+09
-2.41179e+10
1.01316e+10
2.6026e+10
-1.67202e+10
-2.98155e+09
-1.24844e+10
1.759e+09
6.57028e+09
-1.60522e+09
-8.34698e+09
2.13273e+09
2.28672e+08
6.90501e+08
1.68313e+10
-5.90923e+09
-1.71723e+07
1.30156e+10
1.82158e+09
-5.35928e+09
1.90498e+10
1.80954e+09
2.05949e+09
-1.34486e+10
-4.86671e+10
-5.67252e+09
-3.11022e+09
1.62006e+10
-1.59759e+10
-2.67882e+09
-1.392e+09
1.8067e+09
8.46073e+09
-6.33231e+10
1.48294e+09
1.46998e+10
4.08292e+09
2.35275e+10
-1.47802e+10
-2.30339e+10
2.76846e+09
-4.98246e+09
-2.46108e+09
1.98972e+07
1.37895e+10
5.0484e+09
1.94515e+10
-3.18162e+10
-7.23993e+09
-3.31694e+09
7.06027e+09
8.3776e+08
1.08215e+10
-5.2709e+08
-7.68201e+09
-4.01637e+09
-5.02321e+09
1.31247e+10
3.93273e+10
-1.92103e+10
5.72779e+09
-4.96773e+10
-9.5851e+09
2.20804e+10
-2.38671e+09
-2.33914e+09
1.94021e+09
-1.90607e+10
-5.28283e+10
2.4879e+09
-1.40136e+09
-6.92647e+09
2.50601e+10
-4.0392e+10
-2.39621e+09
-5.42823e+09
-3.67586e+09
2.8852e+09
4.02124e+09
1.24365e+10
6.5151e+09
-5.73035e+09
-5.37e+10
-4.37132e+09
7.64188e+10
-1.35621e+10
1.84129e+10
6.8445e+09
-1.66113e+09
-9.3995e+08
4.33342e+09
-2.59043e+08
7.94927e+09
-2.41604e+09
1.45228e+10
5.61236e+09
-1.41365e+10
-6.22149e+09
2.71678e+10
-3.87313e+10
-4.71423e+09
2.96166e+10
7.2839e+09
7.90787e+08
3.67368e+09
3.12297e+09
8.08574e+09
1.04634e+09
2.39994e+10
5.18673e+09
4.40187e+09
2.00678e+10
5.14303e+09
-1.02455e+10
9.12228e+09
-3.2985e+09
1.11037e+09
-4.09108e+09
4.44154e+09
8.99816e+09
-1.62057e+10
7.06312e+10
5.47303e+09
-9.75048e+09
2.46731e+10
-7.33277e+09
1.08529e+10
-1.69246e+10
6.61894e+09
-2.35362e+10
-1.36158e+10
3.6078e+10
-1.93191e+10
1.73033e+10
2.33361e+10
-4.24473e+09
-1.11404e+10
-2.62559e+09
-2.30917e+08
-7.52044e+09
2.5096e+09
-6.49137e+09
-8.32481e+08
1.81625e+10
4.2065e+09
-4.74715e+09
2.92742e+08
-1.05977e+10
3.88541e+09
-1.494e+09
-6.91201e+08
3.5926e+09
-4.1739e+09
-3.39944e+10
-2.44997e+09
-4.33673e+09
-3.07147e+09
1.85718e+09
-1.16329e+07
9.96254e+09
1.15247e+10
-3.54347e+10
-1.18935e+10
6.71242e+10
-3.36103e+09
3.27594e+09
-3.34934e+10
2.01925e+10
-6.81383e+10
7.74475e+09
-5.5601e+09
-7.6554e+09
-5.8888e+09
9.83605e+10
-3.18771e+09
-3.41287e+09
1.59659e+09
-5.92607e+09
9.66485e+08
1.27442e+10
-5.17513e+09
-1.08285e+09
7.29961e+09
-1.51199e+10
-5.28799e+10
1.07255e+10
3.1538e+09
-7.57571e+10
7.49314e+09
-6.93279e+08
9.51268e+09
-5.1659e+10
-2.75114e+10
4.20704e+09
6.99956e+08
-1.40307e+09
3.35862e+09
-7.58457e+09
-5.31104e+09
8.21419e+09
5.15745e+10
2.02888e+10
3.38586e+10
-8.95777e+09
3.45649e+09
1.66447e+09
-1.50534e+10
-8.23737e+09
1.10195e+10
2.92919e+10
8.91938e+09
9.30729e+09
-3.31907e+09
-6.46469e+08
1.20029e+10
8.08467e+09
7.35838e+07
5.28231e+09
1.1638e+09
-4.42378e+09
3.36788e+08
3.04118e+10
-4.67972e+10
-1.33927e+10
-4.11096e+10
-1.48365e+10
-2.27683e+09
-2.68479e+09
3.99105e+09
-9.15003e+10
5.69134e+07
-3.06047e+10
-1.28479e+10
4.70043e+09
-4.47123e+09
2.96919e+09
-4.04916e+10
1.23711e+10
-1.50351e+10
-4.40622e+09
-1.77527e+10
1.29924e+09
9.94729e+09
2.11409e+09
3.4983e+08
5.09695e+10
-1.29808e+10
2.95049e+10
-1.24756e+10
7.92282e+10
2.90594e+08
-1.69003e+09
-3.01703e+10
1.89224e+10
2.98032e+10
1.29534e+10
1.28475e+09
9.92865e+10
2.51934e+09
9.06571e+09
-1.27323e+11
1.96062e+10
1.29696e+10
-5.21171e+09
1.142e+10
9.61429e+09
3.5909e+10
3.28237e+10
2.19229e+09
6.09655e+09
3.57741e+09
-1.03944e+10
-1.46062e+09
-1.94557e+10
-4.2549e+10
9.91102e+09
-3.19964e+10
1.79409e+10
4.2961e+09
1.15938e+09
-2.62711e+10
-4.93072e+09
-3.77049e+09
2.86353e+10
-3.12004e+09
-4.99477e+09
-1.60118e+10
-6.59884e+09
7.49874e+08
-1.50072e+08
1.33221e+10
3.33819e+09
1.47997e+10
6.1709e+09
1.33124e+09
2.48611e+09
2.01283e+10
3.71996e+07
1.25607e+10
-1.10114e+10
9.31587e+09
4.27895e+08
3.90963e+09
-3.23751e+10
-1.16666e+10
-9.54391e+08
-3.73608e+10
-7.3084e+09
-2.69883e+09
-9.17974e+09
7.9063e+09
-4.80464e+09
-3.74962e+09
8.16836e+09
-7.29814e+08
-2.05404e+10
-3.69341e+10
-4.33278e+09
2.27508e+10
1.48877e+10
6.61795e+09
1.76064e+10
-1.71563e+09
2.19802e+10
-1.37291e+10
7.11895e+09
-8.89947e+09
-5.03678e+10
-3.55443e+09
-1.16909e+10
6.23757e+09
2.52186e+10
-5.6474e+09
8.11999e+09
-2.09441e+10
-1.04277e+10
9.18802e+09
-7.89246e+09
2.62462e+09
-5.98762e+10
4.30735e+09
4.0974e+09
-2.64234e+10
1.39535e+09
-1.73075e+09
-6.18962e+07
2.71541e+09
5.13489e+09
1.57506e+10
4.13368e+09
5.78609e+09
3.56574e+09
-2.75798e+09
2.12851e+10
2.21297e+09
1.05582e+10
-2.42223e+10
-5.74135e+09
2.79126e+08
2.5724e+09
-1.1016e+09
-2.41308e+10
-4.48086e+10
-2.59341e+09
1.03619e+09
5.96046e+10
-1.19102e+10
-2.46829e+10
-3.19334e+09
-7.57804e+09
-1.11169e+10
-4.10922e+09
3.1365e+09
-5.2349e+09
5.7429e+08
-3.09179e+09
3.12357e+10
-3.41058e+09
-4.67145e+09
6.77915e+10
-3.38309e+09
-6.10088e+09
2.62112e+10
4.77463e+09
3.36147e+08
4.70204e+09
5.46775e+09
3.7614e+10
1.33972e+09
-2.42851e+09
-6.7654e+08
-3.90136e+09
-2.48883e+10
-1.96941e+09
-3.91605e+09
-1.33988e+10
-1.51786e+10
1.32579e+10
1.15776e+09
3.16546e+09
3.01796e+10
-1.72204e+10
5.25928e+09
1.1281e+10
-6.82004e+08
-8.08272e+09
1.12418e+10
-1.46561e+08
-2.99018e+09
1.3645e+10
-9.01791e+08
4.84494e+10
-5.53887e+09
-1.85219e+10
-1.53177e+09
-1.98974e+10
-1.33726e+09
1.83353e+09
-2.85598e+09
-2.02097e+10
2.23046e+09
-5.24968e+09
2.24651e+10
-4.22036e+10
5.1585e+09
1.97381e+11
-3.37352e+09
-4.10665e+09
-5.71183e+09
1.6036e+10
4.23986e+09
-1.39576e+10
-7.72788e+09
3.89558e+08
-7.63782e+08
1.32969e+08
3.29214e+09
-4.27683e+09
-7.47363e+09
-6.28246e+09
-4.07714e+09
-1.11865e+10
8.74353e+09
-2.50284e+10
-1.16432e+10
-9.55261e+10
-5.32541e+09
-5.3044e+09
-9.60445e+07
4.73792e+09
3.71413e+10
2.27425e+10
-7.18649e+09
-2.66987e+10
-3.6128e+09
-4.90984e+08
-7.27305e+09
1.79991e+09
5.4718e+09
-4.04958e+09
-2.20364e+10
2.81037e+09
-1.20638e+10
-1.83472e+10
2.29456e+09
2.65303e+08
1.36233e+10
1.3644e+09
-7.71873e+09
-8.8202e+08
-1.44768e+06
-4.39136e+09
-1.0996e+09
1.95679e+10
1.05606e+10
-1.34103e+10
1.7853e+09
-1.96686e+09
-1.19302e+09
-1.52522e+08
1.12014e+09
1.97378e+10
3.08026e+09
-1.23292e+10
-1.24267e+09
7.51267e+09
2.74713e+10
2.85655e+09
1.25692e+10
-1.77585e+10
-5.68111e+09
-2.17775e+10
-5.0948e+10
-2.448e+09
-2.75571e+06
3.23202e+09
-2.68634e+07
5.63517e+09
8.13009e+09
-2.26862e+10
-1.78564e+09
-4.16793e+09
-3.41259e+10
2.3731e+10
-5.10363e+09
-6.88535e+09
1.0417e+08
-2.11197e+10
3.43924e+10
8.72997e+08
-1.33038e+09
2.01904e+09
-3.95955e+09
-1.84628e+10
5.72536e+09
-1.32533e+10
-2.43696e+10
3.53028e+10
-9.51418e+08
-6.92781e+09
-1.85134e+09
-1.84337e+10
2.99485e+09
-1.71196e+10
-4.58602e+09
3.74341e+09
-8.28422e+09
2.97291e+10
-3.43578e+10
-2.05117e+10
-1.28593e+10
-1.38844e+09
5.337e+09
1.48718e+09
4.09836e+09
7.23332e+10
3.10867e+09
1.06195e+10
-2.36664e+10
8.69868e+09
-5.17877e+09
8.4967e+09
-1.59182e+10
6.74414e+09
-2.49845e+09
-3.6167e+09
4.71245e+09
-8.13021e+09
-1.70276e+09
-1.06576e+10
6.08926e+09
-3.56423e+09
4.42048e+10
-4.42918e+09
3.60228e+10
4.67694e+09
-1.31976e+10
1.31689e+10
-3.17789e+10
7.80777e+08
-6.26961e+09
1.01181e+10
-1.02855e+08
6.29109e+09
-2.4705e+09
-2.52522e+10
-1.3498e+10
-7.5887e+08
1.09511e+10
1.37948e+10
2.2018e+10
-1.08246e+10
2.07674e+10
2.15658e+10
-7.05189e+09
6.40884e+10
-3.25889e+10
-2.42977e+09
1.63088e+10
-4.911e+09
8.48303e+09
-7.93784e+08
4.11964e+09
1.09686e+10
2.7619e+09
-4.08764e+10
-5.45584e+08
-4.90366e+09
-2.61352e+08
-8.69544e+09
3.92713e+09
4.11741e+09
-1.32427e+08
2.15978e+09
-1.74128e+09
5.56688e+09
2.33919e+09
-3.08398e+09
2.31156e+09
-1.81654e+10
-6.88606e+09
1.48408e+09
1.46452e+10
-7.35576e+09
6.21543e+10
1.39564e+09
1.31717e+10
2.77749e+09
4.10946e+09
1.20406e+09
3.97826e+10
1.42809e+10
-5.0304e+09
3.52056e+08
1.12143e+10
1.71926e+10
1.6943e+09
-5.08326e+09
2.19003e+10
-2.26266e+09
-3.67939e+09
4.56787e+09
1.12494e+10
1.47752e+09
-1.16813e+10
5.56256e+09
3.52224e+09
-1.27511e+10
-6.05915e+09
-3.48758e+09
1.1884e+10
-1.09131e+10
1.07983e+10
-5.43536e+09
-1.40253e+10
-6.12052e+08
-9.89637e+09
9.34242e+09
-5.02808e+09
3.67381e+10
-6.21109e+10
5.06137e+10
-4.85887e+10
1.17556e+09
-3.798e+09
-2.30502e+10
-2.01742e+10
-3.03304e+09
3.10992e+09
6.12669e+09
-2.70517e+09
1.62886e+08
-5.65449e+08
-1.6631e+10
8.10516e+09
3.90141e+09
8.59642e+09
-2.97485e+10
-1.54172e+10
-2.70692e+10
8.89473e+09
-5.6752e+08
1.09863e+10
7.25427e+09
-1.39336e+09
3.06168e+09
6.31275e+08
-2.07481e+10
-5.17379e+09
3.4881e+10
1.47317e+09
-1.45721e+10
-2.13549e+09
1.79759e+10
3.16079e+10
1.02312e+09
-1.65053e+09
-2.95159e+10
4.56701e+09
-2.03295e+10
-1.62328e+10
-5.92853e+08
1.22715e+10
-1.15713e+10
8.93727e+09
-8.26601e+08
-3.70273e+09
4.14726e+09
9.24698e+08
4.65004e+09
1.2562e+10
2.37182e+10
-3.86032e+09
-5.8038e+09
2.2363e+10
4.46327e+10
-2.81165e+09
1.75212e+09
-4.01526e+10
5.884e+09
1.28781e+09
1.46931e+10
-8.96299e+08
1.14503e+10
-3.06481e+09
3.33916e+09
4.59166e+10
-3.62087e+09
9.87041e+08
9.74591e+09
-3.8924e+10
8.86717e+08
4.90451e+10
4.13949e+09
6.56397e+09
3.15708e+10
-2.80016e+09
5.28008e+09
-8.72949e+08
5.51413e+08
-1.41467e+10
-2.42098e+09
6.35694e+09
-7.19709e+10
5.73671e+09
-1.51505e+09
-3.60746e+09
-4.0804e+09
6.15327e+09
-2.58825e+10
-3.39457e+09
-1.20002e+10
-4.9314e+10
1.25847e+10
3.33519e+10
3.63256e+09
-2.61268e+10
-3.83372e+09
-1.25961e+09
6.68694e+08
-8.42192e+09
9.0512e+10
2.48406e+10
-1.11359e+09
5.17225e+09
-2.27572e+09
4.65413e+09
4.32022e+08
-6.59731e+08
9.1095e+09
2.48504e+09
1.42998e+09
-1.77112e+10
-3.35323e+10
-2.5144e+09
4.35136e+08
5.81632e+09
-2.73296e+09
1.6901e+09
5.08724e+08
5.97896e+09
-1.26304e+10
6.46853e+09
-3.75509e+09
-5.6043e+09
-7.89451e+08
1.43125e+10
-2.21188e+09
2.07846e+09
-6.9626e+09
-1.13298e+10
-1.21017e+09
1.45746e+09
-7.44119e+08
1.09871e+08
6.01588e+09
-3.51774e+08
-1.69991e+10
3.1908e+08
-5.74678e+09
1.14565e+10
1.13651e+10
1.48224e+10
-3.98904e+10
-1.68958e+09
-7.34439e+09
-7.51578e+09
4.79056e+09
7.00515e+09
1.03641e+10
2.4785e+10
7.53452e+09
1.80506e+09
4.14776e+09
-2.55126e+09
-6.57998e+09
7.1264e+09
5.6299e+09
4.90451e+09
-8.67041e+09
-1.40697e+09
5.96911e+10
-8.53682e+09
2.32452e+10
-4.88893e+08
9.49034e+09
7.02561e+09
-1.10038e+10
-2.98979e+09
2.01305e+10
7.00063e+10
3.52349e+09
8.52119e+09
-5.50641e+09
8.36214e+09
4.78086e+09
-2.6623e+09
-2.03555e+10
-5.20597e+09
-8.7393e+09
-6.18555e+09
-8.24284e+08
-8.37944e+09
2.06447e+10
2.27672e+09
-1.77909e+09
2.08961e+09
-4.3781e+09
-3.62557e+07
5.9089e+09
-1.57657e+10
-1.31664e+09
1.72544e+10
7.97184e+09
-2.2925e+09
1.54236e+10
-6.30829e+10
1.80046e+10
-6.18042e+09
-5.70471e+07
8.19179e+09
-5.75826e+10
-8.077e+08
1.57547e+09
-1.79269e+10
-5.3209e+09
7.48257e+09
-6.67218e+09
-1.00199e+09
4.56899e+09
1.01262e+08
7.91277e+08
1.49359e+10
-2.43252e+09
1.99551e+09
-4.56116e+09
7.59342e+08
-1.44547e+10
9.32216e+09
2.40156e+09
-1.19448e+10
-5.37875e+08
4.6604e+09
-6.68766e+09
6.36063e+09
-4.47205e+09
1.82764e+09
-9.28238e+09
1.05832e+10
8.70731e+09
4.1449e+09
1.16694e+10
-1.42427e+10
1.43514e+10
-1.1887e+10
-1.0989e+09
-2.2351e+09
-6.17443e+10
-4.81349e+09
1.31264e+09
1.26801e+09
3.65232e+10
-1.5747e+10
-5.18643e+09
4.47934e+09
6.32752e+09
-5.13783e+09
-1.39144e+09
1.52019e+09
-1.803e+09
-5.23066e+10
-5.9734e+09
1.56262e+09
1.40538e+10
-1.53062e+10
4.51537e+09
-1.44616e+09
-4.02847e+08
2.85439e+09
-2.23646e+10
-3.46288e+10
1.43746e+10
5.16321e+09
-8.65758e+09
-2.10698e+09
-6.50071e+08
5.76686e+09
-3.08903e+08
5.51207e+08
-1.1842e+10
-8.80378e+09
-1.5315e+10
2.90373e+09
-2.05074e+09
-5.80826e+08
8.17436e+09
-1.28497e+10
-1.14634e+10
3.26257e+09
-3.08865e+09
-4.60792e+08
-1.53384e+11
1.25233e+09
-6.75818e+10
-7.60113e+09
-8.16436e+09
-1.16276e+10
1.31262e+10
1.73479e+09
-3.19084e+10
-2.37618e+08
-6.99919e+09
6.78801e+09
4.38773e+10
3.38435e+09
6.55745e+09
3.50122e+09
8.58295e+08
-1.21814e+10
-1.04223e+08
-3.11194e+09
-1.46381e+10
4.38095e+09
-5.19663e+10
3.47237e+10
1.27461e+10
-4.40815e+08
3.26529e+10
-5.40376e+09
-3.46587e+10
-8.12245e+08
-8.47969e+09
2.3031e+10
-1.5587e+10
-1.63591e+10
-1.09081e+10
-1.66746e+10
-1.52166e+10
-4.94126e+09
1.11109e+10
-1.58709e+10
7.86601e+09
-1.04607e+09
3.08459e+09
4.1026e+10
-1.34502e+10
-4.82088e+10
-4.94753e+09
8.7062e+09
-3.14886e+09
6.25913e+09
-3.52161e+09
1.65965e+10
1.03063e+09
-1.2279e+10
-1.65113e+10
6.10708e+09
-1.32877e+10
-1.56494e+10
5.09698e+09
1.18949e+10
-2.82096e+09
-4.61941e+09
-5.08434e+09
1.93419e+10
-1.48991e+10
-4.61102e+08
4.53666e+09
1.10376e+09
9.28833e+09
2.16702e+09
3.14702e+09
-1.29288e+10
2.21854e+09
1.07178e+10
1.30603e+10
-3.03623e+10
-8.63134e+09
-6.81318e+09
-1.53292e+10
5.66835e+09
-7.27024e+09
1.54909e+09
-3.21044e+10
3.20133e+08
-1.77533e+09
2.26975e+09
7.65889e+08
-3.51874e+10
-3.81651e+10
-5.22025e+09
-4.12537e+09
2.05271e+10
1.73781e+10
2.35045e+08
-3.86128e+09
-3.1247e+09
4.24431e+10
1.02791e+10
5.0741e+09
-7.28386e+09
5.55509e+09
-3.48204e+09
9.82959e+08
4.55434e+09
-4.30156e+07
1.40713e+09
-1.05515e+10
2.91066e+10
3.88513e+10
-3.69808e+09
-1.31535e+10
5.81833e+09
-2.35444e+10
1.12358e+10
1.52686e+10
3.29708e+10
-1.5426e+09
5.70233e+09
-4.15382e+08
-1.55535e+10
4.43158e+09
-1.29383e+10
3.5918e+10
2.1159e+10
4.27175e+09
1.4665e+10
4.94479e+09
-8.59982e+09
6.56793e+09
-2.26678e+10
-9.89922e+08
2.96589e+09
7.27333e+09
-1.26871e+10
-1.19844e+10
2.01097e+10
-3.77326e+10
-2.02889e+09
-8.2948e+09
-1.07287e+10
-7.11541e+08
3.85781e+09
-1.24398e+10
-1.69723e+10
1.0322e+11
-8.77062e+09
-5.52523e+09
-1.30896e+10
9.15561e+10
-5.58095e+09
1.45826e+09
-1.1613e+10
-2.55091e+09
1.56642e+10
5.88819e+09
-2.47636e+09
1.94932e+10
9.04604e+09
8.17371e+09
5.83648e+09
9.61061e+08
1.72699e+10
-1.76619e+09
3.18541e+09
-5.63101e+09
1.54985e+10
-8.73115e+08
3.993e+09
1.16806e+09
1.78409e+09
3.47233e+09
6.67741e+09
3.85036e+09
-1.38975e+10
7.47432e+08
2.91028e+09
-1.97308e+09
-1.05378e+10
6.45313e+09
-1.60529e+09
4.34989e+10
-2.20062e+10
-9.89491e+08
1.28913e+10
9.38239e+09
1.30704e+09
1.74859e+10
-1.47685e+09
-6.26426e+09
1.04008e+10
-6.37311e+10
-1.80853e+09
-1.11688e+11
2.53831e+10
5.08211e+09
-3.70823e+09
9.14205e+09
-7.93026e+09
-9.30218e+09
1.04643e+09
6.47838e+08
2.2577e+10
-7.29313e+09
-5.44389e+09
-9.46648e+06
8.77134e+08
1.82302e+10
-1.33504e+10
2.07442e+10
9.7881e+08
-4.33589e+10
1.35103e+10
-3.13035e+10
-1.26192e+10
-5.67388e+08
-7.41752e+09
1.721e+10
1.46974e+10
-6.63001e+08
6.52583e+08
6.98666e+10
3.00989e+09
1.99815e+09
-3.84428e+09
-2.38403e+10
1.18066e+10
-4.91836e+09
7.1757e+09
-1.7349e+10
2.30738e+10
-2.05683e+09
-3.06171e+08
-2.23684e+09
-3.5204e+10
4.99111e+09
-2.21566e+09
-1.89279e+09
-3.43819e+10
-1.26693e+10
-1.49537e+10
2.25889e+09
2.80955e+10
-4.77999e+09
-1.18893e+10
2.19175e+09
-4.33443e+10
-3.80818e+10
-1.61898e+08
5.29496e+10
8.29388e+09
-1.48642e+09
-2.71602e+09
-9.42961e+09
-1.07062e+10
1.02496e+10
8.35585e+09
1.331e+10
1.14733e+11
1.42346e+10
1.29394e+10
-2.21642e+09
-2.84082e+09
2.24884e+09
1.1705e+09
1.00807e+10
4.84378e+10
-1.77506e+09
-2.51349e+10
2.60575e+09
-2.56902e+09
-1.35601e+10
4.19906e+09
-2.84471e+09
-2.00162e+08
-1.11692e+10
-1.60887e+10
-2.27619e+09
-1.15802e+10
-1.33025e+10
-2.34394e+09
-2.24314e+09
-8.01398e+09
9.20411e+09
2.99967e+10
-8.54407e+09
1.15579e+10
-7.4433e+09
4.93665e+10
-3.18864e+08
9.10453e+09
-4.979e+09
-1.4435e+09
2.10623e+10
2.63497e+09
-4.64096e+09
3.37812e+09
6.93905e+08
-4.86206e+10
1.04346e+10
6.08001e+09
5.73732e+09
-1.5562e+10
2.03295e+09
2.6069e+09
1.31135e+09
-7.42315e+09
-4.54987e+09
4.40231e+08
-4.21486e+09
-1.88448e+10
-6.42273e+09
-3.954e+10
1.41529e+09
3.39167e+09
6.37676e+09
-1.21916e+09
2.78365e+09
2.59174e+09
1.21715e+11
-1.72515e+08
-5.47043e+08
2.69505e+10
1.11992e+10
-8.31575e+09
-2.43062e+09
-1.72406e+09
2.01138e+10
-4.54287e+08
-2.27219e+07
-3.91769e+09
-4.34658e+09
-4.78845e+09
-1.80977e+09
1.25184e+09
-1.63042e+10
3.63772e+08
9.85142e+08
-1.56262e+10
4.78201e+08
-2.90553e+10
2.94422e+10
-5.50967e+09
-1.9689e+10
3.02232e+08
-1.78059e+10
1.20956e+10
-4.12008e+10
1.01224e+10
-2.96263e+09
-9.94157e+08
4.68569e+09
-2.30388e+10
-3.1237e+09
-1.73664e+09
2.21251e+09
-7.5316e+08
-8.11614e+09
-1.74811e+09
-6.22835e+09
2.62514e+09
-8.47318e+09
3.7547e+10
2.66005e+09
-5.82913e+09
3.16875e+09
1.16486e+09
3.68223e+10
-4.10031e+09
9.55177e+09
5.12139e+09
8.96821e+08
1.91769e+10
-1.04769e+08
1.42815e+09
-6.83141e+10
-3.69642e+10
-3.17476e+09
-9.31273e+09
-1.21782e+09
2.12003e+10
6.51289e+09
-4.6758e+09
2.9693e+09
1.25185e+10
2.99791e+09
2.55284e+09
5.43071e+10
1.35076e+10
3.93456e+09
2.03225e+08
2.46685e+10
1.1673e+09
-6.09682e+09
2.8938e+08
-2.28765e+09
-6.74205e+08
2.40059e+08
-1.76056e+10
-4.58356e+09
7.45287e+07
2.26337e+09
-3.24984e+08
2.84697e+09
-2.6102e+10
-5.75061e+09
1.72456e+10
7.88164e+10
-3.97543e+09
9.9716e+09
3.37599e+10
-4.02171e+09
-4.34159e+10
-8.6298e+09
-4.16436e+09
-8.96203e+09
2.32801e+09
3.45069e+09
2.38236e+09
-3.37451e+09
-6.34124e+09
3.51693e+10
-1.61834e+10
4.78023e+09
-1.2112e+10
4.41743e+10
-3.08353e+09
4.91518e+10
-1.30367e+10
-6.07703e+09
-3.00059e+10
4.87262e+09
4.61883e+09
-1.54158e+09
-9.43833e+09
-5.72346e+09
-2.78047e+10
2.51167e+10
-9.42062e+09
-2.29505e+10
5.30295e+10
9.15331e+09
-4.38317e+09
8.41268e+09
-1.33295e+09
-5.29894e+10
9.3298e+09
1.20226e+10
1.77987e+10
-4.70289e+08
2.58448e+10
7.24007e+08
1.12789e+10
-1.92608e+10
-4.87056e+09
-1.11361e+10
2.66832e+09
-3.42897e+09
4.94551e+09
2.93437e+09
-1.03558e+10
-1.36329e+09
-5.18741e+09
-2.30776e+10
-2.03754e+10
-9.54309e+09
6.43216e+09
4.91605e+09
-6.57448e+10
-1.45412e+09
4.81702e+10
1.11093e+10
-2.78747e+10
1.61479e+09
-5.12207e+08
2.89714e+09
2.26238e+10
-7.83097e+08
6.79806e+10
-2.15315e+10
2.67346e+10
6.64536e+09
1.8808e+10
3.40091e+09
1.09877e+09
3.49769e+09
2.77715e+09
-2.43869e+10
-2.2407e+10
2.21486e+09
-1.16449e+09
8.7883e+10
-2.09013e+08
-1.28311e+09
-6.35614e+09
-1.27691e+10
-6.93068e+09
9.4038e+09
-1.32422e+10
5.04912e+09
-3.09167e+09
5.55725e+09
6.48258e+09
-1.07221e+10
-2.11252e+10
1.52453e+10
1.27669e+10
-6.38326e+09
-9.92753e+09
2.93831e+09
-4.46553e+09
2.97506e+09
-1.50633e+09
1.5635e+09
4.12901e+09
-6.59125e+09
3.23263e+09
4.33227e+09
-6.15883e+09
-3.60193e+09
1.51007e+08
-1.11651e+09
7.38975e+09
-9.27693e+08
-1.1031e+10
2.70735e+10
-8.4103e+08
5.29767e+09
-1.39487e+09
-2.74648e+10
5.44825e+10
2.10769e+09
-4.85472e+09
4.49376e+08
3.46266e+08
2.97191e+10
-3.87049e+09
5.73702e+10
-3.89855e+09
1.36753e+10
6.54963e+09
5.10436e+09
6.743e+09
-3.42033e+08
-2.7392e+09
7.9939e+09
2.20055e+10
-1.11817e+10
4.54599e+09
3.80294e+08
1.27686e+09
-6.82359e+10
6.24908e+08
-7.72277e+09
2.17794e+10
5.61035e+08
-8.05778e+09
-2.86917e+09
6.46854e+09
-1.85569e+09
7.29766e+07
-9.72428e+07
-6.92272e+09
-2.33336e+09
-1.32578e+10
8.18681e+09
-3.40678e+10
2.11264e+10
-7.99356e+09
-2.02384e+09
7.4132e+09
9.74979e+09
-3.33346e+09
-3.15697e+10
-3.94051e+09
6.11695e+08
9.72578e+09
6.16674e+09
-4.44034e+09
-4.10628e+09
2.95624e+09
-6.3809e+09
-3.26639e+09
-2.52929e+09
8.39995e+09
2.64984e+10
-1.82223e+10
-1.05993e+10
-2.04228e+09
5.65744e+09
-1.93388e+10
-8.79474e+09
3.62153e+09
9.02509e+09
5.63314e+08
-4.08464e+09
1.18886e+09
-4.86084e+09
-1.28578e+10
-2.77151e+09
-1.27353e+09
-6.72834e+09
-2.24876e+10
-2.26758e+10
-1.07177e+10
1.04927e+10
-2.37751e+08
-8.99943e+08
-8.31306e+09
-2.79314e+09
5.85326e+09
-3.84766e+09
-1.60412e+10
4.76183e+09
-2.15402e+09
-1.16668e+08
9.3893e+09
-4.1635e+09
7.219e+09
-1.35908e+10
-1.70984e+10
1.24878e+10
7.28948e+07
6.00947e+09
8.54282e+08
8.95229e+09
2.33219e+09
1.78903e+09
9.73001e+09
1.45119e+09
1.05284e+10
9.92184e+08
-4.27164e+09
-7.86769e+08
3.54241e+08
-5.95426e+09
-2.10537e+09
4.63428e+09
-5.95361e+09
-4.68792e+09
-1.75829e+10
5.10692e+10
-1.51893e+10
-1.07507e+10
3.1585e+09
-3.25187e+09
1.62317e+09
1.91934e+10
1.81374e+10
-7.95233e+06
2.13788e+10
-1.30586e+09
2.75754e+10
-2.80921e+09
-1.18234e+09
3.83247e+09
-1.11047e+09
1.86459e+10
-4.32303e+09
-7.25723e+09
6.10442e+10
3.27061e+10
-1.18868e+10
-1.96088e+10
-9.37376e+09
-8.2497e+09
5.91411e+09
7.15977e+08
2.29966e+10
8.78882e+09
-6.61467e+10
-1.93033e+09
4.96053e+09
-8.37769e+09
1.34657e+10
-3.00869e+09
-9.73521e+08
3.40696e+09
2.74457e+10
3.72382e+08
-2.27977e+10
-7.65675e+09
1.40672e+10
-3.75007e+10
-1.0482e+10
-4.95608e+09
2.22403e+09
1.58948e+09
-6.50173e+08
2.30745e+10
5.08986e+10
-9.00305e+09
5.36107e+10
-1.10618e+09
-6.16853e+08
-3.78453e+08
-3.16602e+08
-4.00806e+09
4.33909e+08
-1.0199e+10
2.6973e+09
-8.42022e+09
-1.03528e+10
-2.19597e+10
-9.74442e+08
-9.01224e+09
-3.40311e+09
1.26053e+10
4.75743e+09
-1.50459e+10
1.50951e+10
-5.15406e+09
5.06624e+09
4.38676e+09
-4.0836e+09
2.01309e+10
-1.26079e+10
1.34156e+11
1.42086e+10
1.1828e+10
9.01471e+08
1.33338e+08
5.43293e+09
-1.05389e+09
-4.78258e+09
-1.48281e+09
-4.37256e+09
-1.4052e+10
8.15261e+09
3.10315e+10
2.42977e+07
5.66914e+09
-1.36767e+10
-6.45348e+07
2.01905e+09
3.17684e+09
-1.30129e+10
-8.59211e+09
-7.06748e+08
2.31418e+10
1.31441e+10
-2.44557e+09
-1.65781e+09
9.52522e+10
4.43958e+09
1.38044e+09
3.58628e+10
1.15177e+10
1.72539e+09
1.57069e+09
2.31384e+10
-6.97137e+09
3.07916e+10
1.58047e+10
-6.10996e+09
-4.58894e+09
1.8761e+10
-2.96623e+09
-1.28214e+09
3.01627e+10
5.38851e+09
1.6043e+09
-2.55001e+08
-6.88876e+08
6.64109e+09
1.08868e+10
4.18662e+09
-3.02309e+08
-1.40812e+09
6.70809e+09
4.21151e+09
-9.59312e+09
-1.10808e+09
8.3603e+10
-1.87485e+10
-7.27303e+09
-3.01996e+10
1.35333e+09
5.47451e+09
5.92262e+09
-3.8624e+09
-4.67014e+10
-3.94822e+10
3.66642e+08
-8.42474e+07
-2.17769e+09
-5.53738e+08
3.43478e+09
-1.14544e+10
1.07708e+09
-1.88231e+09
1.36076e+10
1.41063e+10
1.80968e+09
-2.15216e+10
4.68336e+08
-1.26258e+10
-3.44076e+09
-1.97885e+09
2.6558e+10
1.81593e+10
-9.68556e+10
1.06951e+10
-2.61104e+10
-1.54019e+10
-7.55168e+08
7.78362e+09
8.84472e+09
1.68627e+09
2.64187e+10
-2.80048e+09
-1.49602e+10
-1.92837e+10
-1.14053e+10
3.43955e+10
1.19052e+10
-2.37576e+09
3.35817e+08
-5.74452e+09
-3.61712e+10
-1.10766e+10
6.25176e+09
3.45804e+09
4.2736e+10
-1.35415e+09
1.41095e+10
-1.48298e+09
1.13796e+10
-1.77076e+10
9.42637e+09
-1.38044e+09
-3.63366e+09
1.66541e+09
2.40392e+10
-1.07875e+10
2.4844e+10
-6.78737e+08
8.14288e+09
1.93817e+10
6.18285e+09
-5.8673e+09
-6.43474e+09
-1.16662e+09
-3.60217e+10
-5.02815e+09
1.9885e+09
1.04023e+10
-8.46374e+09
6.08599e+09
6.64494e+08
8.73784e+09
5.17825e+09
-2.31762e+10
-3.46698e+09
-6.52975e+09
6.15e+09
-1.11132e+10
1.8225e+10
-2.75995e+10
-1.14387e+09
-1.39144e+09
-6.94899e+09
7.73472e+09
-7.86767e+09
2.29194e+10
7.4578e+09
8.36544e+08
-6.70277e+09
1.48873e+10
4.35879e+08
-1.18117e+10
1.55186e+10
9.19153e+10
-8.29628e+09
1.14923e+10
-4.81257e+08
-1.03143e+10
-1.10009e+10
-6.3273e+09
-2.34257e+10
-3.31171e+09
-1.4138e+09
-6.89772e+09
4.59005e+09
3.12638e+09
-1.19447e+10
-2.05705e+10
1.29925e+10
-1.1481e+10
2.43552e+10
6.67227e+09
-5.25573e+09
-5.54191e+09
2.94739e+09
-1.24236e+10
6.68109e+09
2.93586e+10
1.87426e+09
-1.13741e+10
-1.48727e+09
3.55459e+09
2.02227e+10
6.3743e+09
2.42068e+08
7.3366e+08
-5.42891e+09
-1.54808e+10
3.98018e+09
7.30393e+09
-5.1132e+09
9.15403e+09
-8.89438e+07
-2.0388e+10
8.12965e+09
-6.49948e+09
1.48598e+10
-1.31167e+10
-4.79392e+10
2.83121e+09
1.48988e+10
2.99269e+10
-1.02193e+10
-1.03762e+09
-4.45416e+10
-1.82045e+10
-6.62807e+08
-1.10704e+10
-2.31711e+09
-2.42477e+09
1.48765e+10
9.16105e+09
-1.94392e+10
1.24146e+10
-2.11083e+09
-1.57233e+10
-1.99479e+09
-2.78593e+09
8.61535e+09
2.19136e+10
-1.56619e+10
-9.17438e+09
3.86418e+09
6.71999e+10
5.52965e+09
2.09948e+09
4.49391e+10
1.17574e+10
1.78144e+08
1.13127e+10
1.99198e+08
-2.52721e+10
-5.59646e+10
-1.61204e+10
-5.78295e+09
7.54484e+09
-6.24091e+09
-8.17367e+09
-1.73627e+08
-1.02557e+10
5.25427e+10
6.1239e+09
-1.05684e+10
1.96655e+10
2.47414e+10
1.21468e+10
1.08074e+09
-3.05366e+08
-2.52078e+08
1.8885e+10
-1.95283e+10
7.89048e+08
2.79568e+09
1.61288e+10
-3.52315e+09
5.70155e+09
3.89887e+07
-2.36612e+09
-1.45494e+10
-6.85085e+09
-2.16852e+10
-2.17502e+10
-3.36329e+10
-4.7091e+09
2.24081e+10
1.32098e+10
-5.15454e+10
2.71753e+09
3.84306e+09
3.64011e+08
6.77922e+09
-4.64506e+09
-8.8168e+09
1.23151e+09
9.39583e+09
1.17083e+10
2.19096e+08
2.32513e+09
5.78817e+09
4.66553e+09
-2.80486e+08
-3.60402e+09
1.33807e+10
8.64025e+09
-1.04896e+10
-1.35841e+10
-6.19304e+09
8.61272e+09
-1.25232e+10
-5.87519e+08
4.96612e+09
1.72187e+09
-2.57697e+10
3.15961e+09
4.96655e+09
7.81653e+09
-2.74839e+09
-5.01605e+09
1.37311e+09
5.6665e+09
-2.78573e+09
2.52785e+09
1.17208e+10
-1.0599e+10
-1.45236e+10
1.57952e+10
-1.12365e+10
2.06244e+09
-2.33431e+08
-1.24588e+10
9.69916e+09
3.78608e+10
-3.77895e+09
1.41385e+10
2.18732e+10
-2.9493e+09
-6.59549e+09
-8.58248e+09
3.4665e+08
2.50969e+09
2.26201e+09
2.68812e+09
4.82999e+09
1.08407e+10
9.79257e+09
-1.92855e+09
-7.37334e+08
-7.45733e+09
-6.4843e+08
1.47777e+10
-2.55306e+09
5.73244e+09
-4.4723e+09
3.69322e+10
8.44947e+09
-4.26151e+09
5.8512e+08
-8.03456e+09
3.86809e+10
-4.51066e+09
2.51422e+10
1.55402e+09
-5.42545e+10
1.81033e+09
-2.41123e+09
1.17123e+10
-1.0392e+10
4.81339e+10
-5.99467e+09
-1.36892e+10
-2.51026e+10
-3.31158e+09
-5.23763e+09
-2.54207e+10
7.57638e+09
-1.01109e+10
1.42635e+10
2.81375e+08
-3.96175e+09
1.50139e+10
4.64792e+09
5.96614e+09
2.19977e+10
-1.07765e+10
1.21581e+09
-8.57616e+09
5.31584e+09
-1.86756e+09
-8.94479e+09
1.97156e+09
1.62475e+09
-1.76978e+10
-3.20018e+10
5.68287e+10
1.47807e+10
-9.65515e+08
-1.96812e+10
-3.68442e+09
-2.06665e+10
7.00751e+09
-1.93025e+08
-1.01515e+09
-4.91435e+10
2.30303e+09
-7.63938e+09
-5.67107e+09
-4.05328e+09
-3.81959e+10
4.03454e+09
5.68951e+09
-1.48423e+10
6.11076e+10
-4.57669e+09
-1.73484e+09
3.09772e+09
-4.90144e+08
-2.07293e+10
-1.70217e+09
-1.16279e+10
3.47357e+10
-1.51363e+10
-3.23526e+09
4.60481e+09
5.23769e+09
9.8707e+09
-2.03645e+09
8.33634e+09
6.31285e+09
4.74406e+08
2.42274e+09
-9.05981e+09
-1.15948e+10
-2.5311e+10
-8.22345e+09
-1.84215e+08
-1.91182e+08
-4.44258e+09
5.86943e+09
-7.28351e+08
-3.99018e+09
-9.07858e+07
-3.24189e+10
1.35285e+09
-7.02901e+09
-1.96335e+10
-2.80124e+10
2.27417e+10
-1.29772e+10
-2.75009e+09
-7.77826e+09
-1.35501e+10
-1.52195e+09
-3.50719e+10
-3.11233e+10
-2.92881e+09
-2.76094e+09
1.58061e+10
1.21391e+09
6.27602e+09
-1.6669e+10
-4.36596e+09
-4.03549e+09
-5.42708e+09
-6.01255e+10
6.2838e+09
2.63415e+09
2.78941e+09
-1.27288e+10
2.09397e+10
-9.94872e+08
1.49299e+10
2.03e+08
6.11524e+09
-6.77083e+09
5.0177e+09
1.53386e+10
4.27003e+09
-3.09367e+09
2.29751e+09
2.51784e+09
1.64185e+09
2.23494e+10
-2.13433e+10
-5.65115e+09
-5.4369e+09
-1.26267e+09
-8.0576e+09
-1.42881e+09
2.06221e+10
1.8377e+09
6.40083e+09
-2.20275e+10
5.87208e+09
3.77358e+10
-5.06905e+09
-5.6708e+09
1.61689e+09
-3.33667e+10
-4.66426e+08
9.26056e+09
5.81761e+09
3.14781e+09
-3.83069e+09
-1.27674e+10
3.72805e+09
8.32038e+09
1.67575e+09
-1.83199e+10
-1.28646e+09
9.00581e+08
-2.37732e+10
4.54068e+09
-1.95884e+10
6.56862e+10
3.70308e+09
6.47536e+09
2.34412e+10
2.21853e+09
-3.2627e+10
-1.19544e+10
-6.25521e+09
2.52501e+10
-1.12257e+10
1.85437e+09
-4.35565e+08
-1.56702e+10
2.96782e+10
4.92384e+08
3.08057e+10
9.42101e+08
-1.23828e+10
-9.01417e+09
-5.47707e+09
-6.41326e+09
-3.38536e+09
7.10121e+09
-1.16365e+10
1.69879e+10
4.79777e+09
1.95684e+09
1.89536e+10
-2.25491e+09
-7.88693e+09
5.9641e+09
3.65005e+10
-5.88474e+09
1.99365e+07
-3.04117e+10
1.01415e+10
-1.64692e+10
8.53494e+09
6.09168e+09
1.21413e+10
8.18868e+10
-3.68085e+10
-4.69654e+10
-1.02691e+09
-1.53637e+10
-2.59357e+09
1.31699e+10
-7.53068e+09
-9.12429e+08
3.54159e+09
-4.14352e+09
-4.86926e+09
1.44558e+09
-1.55082e+09
8.18922e+09
4.03485e+10
-5.68496e+09
-8.22981e+10
5.15809e+09
1.45369e+09
4.12956e+10
-9.15818e+09
-1.31628e+11
-8.79927e+09
1.30205e+09
-3.2851e+08
2.55968e+09
-2.80963e+09
2.50479e+10
-4.18287e+09
-6.22617e+09
-9.75595e+08
3.93069e+09
5.6371e+10
-6.74447e+09
3.7605e+09
-2.33009e+09
1.78828e+09
2.41223e+10
4.08286e+09
7.4972e+09
4.16033e+06
-6.09909e+10
2.48697e+10
-1.06132e+08
-6.27422e+09
2.10149e+09
4.70309e+09
-2.66363e+10
-1.56511e+10
-1.97961e+10
3.90607e+08
5.72202e+09
1.6006e+10
1.26063e+09
2.32161e+10
-1.18081e+10
-4.92982e+10
-1.44703e+08
8.87711e+09
-9.27033e+08
1.69582e+10
1.55241e+10
-2.19907e+10
9.80957e+08
-5.5529e+08
-7.20188e+09
2.91443e+07
-2.69643e+09
-1.60366e+09
-1.30641e+09
-2.35146e+09
8.47574e+09
4.6598e+09
-1.58668e+09
-1.37131e+09
-5.52689e+07
1.1323e+10
-1.1037e+10
1.12015e+09
6.08255e+08
3.68973e+08
-5.47074e+10
-6.71557e+09
3.23586e+09
1.20818e+09
5.40842e+09
-1.36169e+10
-3.24911e+10
1.41093e+11
-2.41074e+10
-1.58077e+09
-8.53709e+08
-9.98187e+09
8.91709e+08
-4.04941e+07
7.57453e+09
-4.21738e+09
1.27764e+09
-1.6793e+10
2.53834e+09
3.7958e+09
4.64376e+09
7.31097e+08
1.58497e+09
-7.00463e+09
1.06516e+10
1.33322e+10
-1.18664e+09
1.48911e+11
2.60375e+09
-3.36179e+09
1.16018e+09
1.26566e+09
-5.58037e+08
2.366e+10
-7.61082e+09
2.16698e+10
2.06341e+10
-2.27183e+09
4.35861e+10
4.14067e+09
-1.53162e+10
6.85599e+09
8.08615e+09
6.14239e+09
-2.16319e+10
4.90695e+09
-9.60798e+10
-1.74578e+10
-2.42699e+10
-4.33725e+07
4.55032e+09
-1.94839e+09
7.94175e+09
2.16733e+10
-2.41541e+09
2.00619e+09
-1.41812e+10
9.83564e+08
-3.05996e+09
-4.85766e+09
-1.67771e+11
-4.21357e+10
-1.36615e+10
-2.05703e+10
-7.15263e+09
-3.92949e+08
-9.11711e+08
-9.08738e+09
1.48018e+10
1.55092e+09
1.00369e+09
-2.52866e+09
7.97167e+08
-8.20653e+09
-4.2444e+08
-4.38273e+09
-1.17331e+09
-1.18203e+09
-1.54257e+10
3.17716e+09
8.13983e+09
-1.17131e+09
-7.04672e+09
1.50906e+10
2.62343e+10
2.84496e+09
4.69491e+09
-1.56723e+10
-6.55999e+08
-1.23318e+10
1.03582e+09
-3.4342e+10
8.57732e+10
-7.57127e+08
1.28412e+08
2.36131e+09
5.21052e+09
-2.73583e+09
8.93978e+09
-3.86814e+09
-4.2411e+09
1.72565e+09
-3.74596e+10
7.58528e+10
4.66451e+09
6.29163e+09
8.17007e+09
5.18154e+09
-2.13818e+08
1.46429e+11
-2.37331e+09
-6.74857e+09
-1.60969e+10
4.84802e+10
-3.17575e+10
-1.1917e+10
-2.79875e+08
-3.89832e+08
-7.09844e+08
1.31697e+09
-4.34956e+09
2.44473e+09
-1.2106e+09
1.83214e+08
5.82135e+09
-5.23473e+09
-1.92578e+09
-7.16243e+09
-1.9435e+09
9.8778e+09
-1.93049e+09
4.42572e+09
-2.19093e+10
3.26773e+08
-2.09996e+09
6.01609e+09
-4.91081e+10
1.37299e+10
-4.40069e+09
7.92559e+09
6.64579e+09
1.04845e+10
7.85832e+09
2.14371e+08
-1.06268e+10
4.46952e+09
-8.37354e+09
-1.71036e+09
-3.96483e+09
7.52572e+09
2.03082e+09
2.73404e+09
-1.85701e+08
3.68807e+10
5.23779e+10
-9.18089e+08
-1.07694e+09
-1.13724e+10
-3.98295e+09
2.16825e+09
-4.60978e+09
-4.32018e+09
-9.69146e+09
-6.91106e+09
7.7526e+09
1.89129e+09
-3.39901e+09
7.45767e+08
5.58077e+09
-3.53367e+09
1.11099e+11
2.38939e+11
-2.51086e+10
5.49036e+09
5.78636e+08
-3.47078e+09
1.48789e+10
-6.67304e+09
-9.31184e+09
-3.25551e+09
-2.55715e+10
-4.65242e+09
1.2812e+10
-1.88733e+09
-2.98076e+10
-2.33515e+10
9.04918e+09
5.38016e+09
-1.40192e+10
-4.75439e+09
2.9078e+08
-1.79945e+09
-7.53271e+09
1.92027e+09
6.5971e+09
-9.96953e+09
-2.34716e+09
-4.82714e+10
1.54785e+10
-1.14638e+09
4.0092e+09
-1.04933e+09
1.5588e+08
-3.93326e+09
9.33385e+09
1.23221e+10
1.56778e+10
-2.30529e+09
-5.02936e+08
3.31084e+10
6.24374e+09
-1.13602e+10
-1.77781e+10
1.29964e+10
2.22784e+09
4.52815e+08
-6.45246e+08
-3.09409e+09
4.50848e+09
2.27981e+10
-1.8229e+09
8.9532e+09
1.34049e+10
-1.04647e+10
4.52211e+09
-4.83778e+09
1.90123e+09
-3.34331e+09
7.40153e+08
4.84481e+08
-6.05007e+09
-4.71315e+09
3.23502e+09
8.75826e+10
-7.62852e+09
3.52198e+09
-5.33564e+09
3.67466e+09
9.66414e+09
-1.00967e+10
-4.79469e+09
1.03243e+09
-2.32609e+09
1.23239e+09
1.14785e+10
-5.68242e+09
5.4104e+09
2.96695e+10
-1.90755e+10
-1.40541e+10
-1.1253e+10
8.91528e+09
-1.87422e+10
1.38011e+10
-1.61347e+10
-4.87887e+10
1.81027e+10
-1.78347e+10
1.28182e+08
-1.843e+09
-4.83632e+09
-6.25122e+09
-1.87506e+10
3.22932e+10
-2.59294e+10
-5.72052e+09
9.16801e+09
-3.60738e+09
-7.73055e+09
2.32934e+09
1.55173e+10
3.73446e+08
-2.66491e+09
-7.78437e+09
9.27413e+09
2.88455e+10
3.3111e+09
-4.63377e+10
5.81129e+09
1.58883e+09
2.61363e+10
1.23761e+09
-1.81959e+10
2.90634e+09
8.39943e+09
3.33898e+10
-4.94168e+10
-1.27217e+10
-6.8388e+08
-5.59826e+07
-2.6374e+10
-3.21992e+09
1.09859e+09
-4.09602e+09
5.13534e+09
3.8934e+10
2.01731e+09
7.25107e+09
2.50704e+10
-8.50229e+09
7.14551e+09
1.36399e+09
5.8619e+09
2.75407e+09
-1.33593e+10
-2.44441e+09
-7.21857e+09
3.17494e+09
-3.99233e+10
-2.29052e+10
3.1615e+10
8.46659e+09
2.17016e+10
1.25003e+08
-2.13207e+09
9.92054e+08
-2.77136e+08
-5.79563e+08
-7.34818e+09
2.00081e+10
7.47987e+09
-2.48873e+09
-6.59283e+09
2.84389e+10
3.97891e+10
-1.734e+10
1.32771e+10
3.78187e+09
-7.76302e+09
3.86031e+09
8.7914e+09
1.04598e+10
9.20099e+09
1.52346e+09
5.25835e+08
-6.24991e+09
-1.6953e+10
-1.48618e+10
-1.70899e+09
-3.04385e+09
1.0396e+10
2.41358e+10
3.20416e+08
-2.01636e+10
7.92132e+09
-3.38342e+09
1.7125e+09
-4.52855e+08
-1.99403e+09
-1.16562e+10
-1.14408e+09
1.8906e+10
4.38673e+08
2.26467e+10
4.18338e+08
-1.63511e+10
-7.39148e+08
-2.47352e+08
3.37889e+09
-3.98816e+10
4.32193e+10
2.7127e+09
2.35806e+09
-1.92479e+09
-4.13779e+09
1.05801e+08
3.06951e+09
5.38694e+09
1.57141e+10
1.06358e+10
4.48308e+09
1.87963e+10
2.51418e+10
6.4099e+09
2.14188e+09
-2.11258e+09
-3.59869e+10
2.39676e+09
-1.0293e+10
-1.07943e+09
9.56858e+09
-9.84557e+08
2.57456e+08
-5.94902e+09
4.9226e+09
-1.20343e+08
-1.80285e+10
4.96849e+09
-6.33156e+09
-1.58217e+11
-2.98806e+09
1.86859e+10
-5.88274e+09
2.27841e+10
3.10974e+10
-4.76731e+09
-3.3745e+09
9.50805e+09
5.37811e+09
-5.28799e+09
-9.38348e+08
-5.00936e+10
-7.30949e+09
-1.43402e+09
7.6214e+09
-1.69191e+10
-1.60172e+10
-1.46437e+10
-7.03504e+09
1.10591e+10
1.71951e+10
-4.61084e+10
-2.65853e+10
-1.35073e+10
-2.50595e+09
5.58845e+10
-3.80931e+09
-1.47808e+10
1.95158e+10
-6.21454e+08
-2.54054e+09
1.14005e+10
-6.22109e+10
-1.34991e+09
3.7035e+09
7.32168e+10
1.71113e+09
5.05882e+10
1.76678e+10
-1.41035e+08
7.29474e+09
3.24362e+10
-6.78669e+08
-1.09874e+10
4.07497e+09
-1.42434e+10
-1.48432e+10
-5.80624e+09
2.64411e+10
-3.85911e+10
-3.86487e+09
-1.65015e+09
2.18409e+10
-1.24961e+10
5.29734e+08
1.80803e+10
-1.37643e+10
-2.04752e+09
-3.71421e+10
-1.29589e+10
-1.9232e+09
7.42893e+09
-2.95925e+09
-4.07628e+09
7.02916e+09
-6.19713e+09
5.48803e+09
-2.23723e+09
4.76916e+08
-4.21733e+09
1.74087e+09
-4.08372e+09
2.02692e+10
6.03619e+09
1.81518e+10
3.27558e+08
1.22634e+10
-1.3133e+10
-6.88069e+09
-1.29453e+10
1.38945e+08
-2.10351e+10
-2.80278e+09
-5.45249e+09
-1.99151e+10
-4.16297e+09
-5.45567e+08
-3.21882e+09
8.44397e+09
-5.57994e+09
1.06745e+10
-2.10293e+09
-1.0919e+09
-3.12216e+08
3.80997e+09
2.27376e+10
1.67258e+10
1.89585e+10
-6.80243e+09
-6.68345e+10
-4.06272e+09
-1.96846e+10
6.33579e+09
8.00339e+09
-9.5451e+08
-2.69007e+09
-1.67567e+10
-1.76849e+10
-1.67989e+10
2.18195e+09
2.11252e+10
-1.47532e+09
-9.24168e+09
1.54161e+10
1.42326e+10
2.71029e+09
-1.24958e+09
-7.74192e+09
-1.77444e+10
1.45861e+10
-3.16738e+10
3.36931e+09
-1.02457e+09
6.23518e+08
-5.20025e+09
3.33297e+09
-5.58955e+10
3.64369e+09
-1.3019e+09
5.31955e+08
-4.19235e+10
-9.48151e+09
1.11765e+09
-1.33281e+10
2.99124e+10
1.13435e+08
1.59989e+09
5.0431e+08
-4.04093e+09
5.98909e+10
2.67838e+09
3.31158e+09
4.55181e+09
7.08718e+09
3.13712e+08
-5.99832e+10
4.88956e+09
-1.77876e+10
6.50456e+10
-4.5461e+10
-2.93529e+10
5.68274e+10
3.60739e+10
-1.04576e+10
-2.0439e+10
-1.79817e+09
6.72854e+09
6.02003e+10
-9.76775e+09
-6.60356e+09
-4.22621e+09
-5.92166e+09
7.02475e+09
-3.88628e+10
-1.15096e+10
-3.9e+10
-3.49886e+08
9.76248e+09
-1.4774e+09
-3.21128e+10
-1.75421e+10
-2.38417e+09
-1.02789e+09
6.57424e+09
5.72978e+08
1.171e+10
-1.44592e+10
-4.364e+09
-5.53217e+09
4.60068e+09
4.0705e+09
5.18277e+08
-1.73308e+10
-8.04158e+09
-1.84394e+09
1.04281e+10
4.8279e+09
-1.40654e+10
-1.61272e+09
1.94627e+10
-6.69772e+10
1.14361e+10
-1.49207e+10
1.6514e+10
1.74274e+10
6.04911e+09
5.63836e+09
5.25601e+09
4.17377e+09
4.04727e+10
4.86904e+10
1.19795e+10
-4.59263e+10
1.04847e+09
3.26023e+09
1.22252e+09
9.54436e+09
-5.1492e+09
-6.52013e+08
-4.82816e+10
2.66233e+09
1.65315e+09
-9.34546e+09
5.07137e+09
3.42803e+10
-8.02471e+09
-8.63671e+09
2.70167e+10
-4.43068e+09
-5.05711e+09
2.01849e+10
-7.14901e+09
5.59318e+09
-1.88303e+09
8.03302e+08
-2.71593e+10
-2.06206e+10
2.16719e+10
-3.26817e+09
7.42336e+10
-1.43864e+10
-3.22972e+10
-2.67982e+10
-1.90473e+09
-2.10541e+10
-5.1897e+09
-5.87585e+09
-2.95623e+10
1.88668e+10
-4.04552e+07
-3.28037e+09
-9.66402e+09
-2.87735e+09
1.8372e+09
-4.18047e+09
-2.83203e+09
2.86868e+09
-1.93672e+09
-1.28505e+10
5.08942e+08
1.6193e+09
8.32829e+08
3.4653e+09
-2.64111e+10
-3.02371e+10
1.1303e+09
-7.51218e+10
-1.13092e+09
-1.62713e+10
-8.79562e+08
-1.33604e+10
5.90823e+08
1.87533e+09
3.19277e+10
-4.16053e+09
-7.09221e+09
-1.04409e+10
-1.02183e+09
-2.78076e+09
-2.81536e+09
8.4968e+09
-7.54237e+09
-1.00583e+10
1.41866e+10
-7.24851e+08
3.92905e+08
-1.98111e+09
6.48562e+09
8.90902e+08
-1.41013e+09
-4.5637e+09
9.85728e+08
1.10552e+09
3.74138e+08
-2.56092e+09
-6.66725e+09
3.84892e+09
4.60955e+09
1.08903e+09
-7.89689e+09
-6.51931e+08
1.05795e+09
1.42707e+10
1.2324e+10
-1.61234e+10
1.37321e+09
-1.10401e+10
-5.05793e+08
2.86661e+10
-1.84992e+10
2.36961e+09
1.1959e+10
-7.30995e+09
7.57575e+09
6.32257e+08
1.85527e+09
-5.4016e+09
-3.09184e+09
3.76707e+09
-1.11418e+08
-4.93948e+08
2.26778e+09
5.43963e+09
-4.48269e+09
-3.853e+09
5.60272e+10
-4.81641e+10
-8.75507e+09
1.26019e+10
5.40468e+09
2.59609e+08
-4.99239e+08
-2.31469e+10
-1.41519e+10
-5.31519e+08
-4.44711e+10
9.54527e+09
1.73187e+09
1.21396e+10
-2.52151e+09
-8.21611e+09
2.77983e+08
-1.07464e+09
-2.16217e+10
-6.54591e+09
-9.66603e+09
-6.52649e+10
-2.43252e+10
3.8639e+09
-3.0966e+09
3.93646e+09
-7.36027e+08
3.66872e+09
-1.76091e+10
4.76429e+09
7.10681e+09
-4.62137e+10
6.32497e+09
7.85791e+09
-2.19582e+10
2.46639e+09
5.36979e+10
3.7779e+10
-1.14266e+10
-5.30387e+09
-4.20206e+09
2.22358e+09
-6.40492e+09
4.14215e+10
5.2872e+09
8.06121e+10
-3.97642e+10
6.06705e+09
2.53291e+10
-2.87201e+09
-2.15377e+10
-1.23679e+10
1.5238e+09
-1.35846e+09
9.59456e+09
2.87391e+09
-1.24613e+10
-2.34739e+09
-2.73142e+09
1.44652e+09
-1.37889e+10
6.20931e+09
-1.82971e+10
-2.81618e+10
7.99646e+08
-1.07698e+10
-8.27695e+10
1.85625e+09
1.7237e+08
-2.93461e+09
-3.21755e+10
-1.97545e+09
-3.09792e+09
1.55568e+10
5.89886e+09
1.57465e+09
-7.60297e+07
-4.81087e+09
6.54828e+09
-3.05131e+08
1.67801e+10
-4.37675e+09
-1.41236e+08
1.04618e+09
7.55092e+09
-1.16433e+10
5.31365e+09
4.74909e+09
1.97386e+10
1.76541e+09
-6.60856e+10
5.08662e+09
-4.66512e+08
-1.26252e+10
-1.6623e+09
5.64553e+09
-1.05621e+10
3.88227e+09
1.36549e+10
-6.41279e+09
-1.2204e+10
7.97684e+08
2.94233e+10
-2.14393e+10
6.91526e+09
-5.06437e+09
1.21185e+09
-1.18032e+10
-1.77977e+09
1.18156e+09
-3.07284e+10
4.7132e+09
-1.06735e+09
-2.23507e+10
-1.59651e+09
2.01867e+10
7.73315e+09
-1.02421e+09
4.45493e+09
-5.99133e+09
-1.7048e+09
9.53514e+08
4.3736e+09
-9.95272e+09
-5.10344e+09
2.22268e+10
3.9416e+09
-5.82858e+09
-3.17945e+10
1.33964e+09
-1.55731e+10
-9.1622e+07
3.23766e+10
7.42502e+09
-9.29673e+09
-1.88616e+10
-6.14353e+09
1.7506e+10
-8.25778e+09
1.58029e+09
6.87488e+09
8.13973e+09
-8.96046e+09
3.00398e+09
-1.022e+10
1.73727e+09
5.88745e+09
9.54633e+08
2.00832e+10
-3.48919e+10
2.4323e+10
2.81163e+10
2.1342e+09
-2.14517e+10
-1.10464e+09
2.58367e+09
1.9662e+09
1.06881e+11
-7.73381e+09
-2.02451e+09
-1.81771e+10
-6.13893e+10
-9.96581e+08
-6.58278e+09
-1.04461e+10
-1.76316e+10
-2.26245e+09
5.4578e+08
3.65318e+08
5.66049e+10
4.16496e+09
2.5463e+10
-6.54893e+08
-4.17872e+10
-1.08191e+10
-2.38e+10
-2.29535e+09
-1.93157e+08
-1.19005e+10
-2.27284e+11
7.47164e+10
5.98641e+09
-4.54251e+10
8.7513e+09
-9.80066e+09
-3.57881e+10
-3.93484e+09
7.55249e+09
-4.04894e+09
-5.08286e+10
-2.52031e+09
-1.42961e+10
6.10436e+09
-5.61363e+09
-1.26827e+10
-4.18531e+10
-5.26289e+09
-2.661e+10
4.35737e+09
7.3959e+09
2.22644e+10
-1.17477e+10
-8.79427e+09
-9.71587e+08
-3.63883e+09
5.08659e+09
-6.43642e+09
5.31316e+09
1.84949e+10
-4.88143e+09
2.3458e+10
2.71533e+09
1.08732e+10
1.32134e+10
1.26604e+09
-2.59683e+10
-5.93237e+09
-9.5926e+09
5.76743e+10
2.74319e+10
-4.47146e+10
3.92755e+10
2.94127e+10
5.60886e+08
3.43104e+08
2.51418e+09
6.65774e+08
1.65869e+10
1.17904e+10
-3.64204e+10
-9.87079e+08
1.99563e+08
6.04728e+09
8.60685e+08
-6.03932e+09
1.77272e+10
-2.24763e+09
-1.31007e+09
-1.18127e+09
-3.23254e+10
-3.62564e+10
6.38679e+09
6.60567e+09
5.22493e+09
9.23895e+09
9.71685e+08
-8.04862e+09
5.92784e+09
3.97147e+09
9.13527e+08
1.47186e+10
-1.41898e+10
-5.4309e+09
5.88427e+09
3.38397e+08
3.27277e+08
2.66475e+10
5.1967e+08
-6.2627e+09
-2.29038e+09
-4.22389e+10
-1.47632e+10
-1.7683e+10
1.47912e+10
2.80735e+09
1.23487e+10
-1.159e+09
2.84208e+09
-3.1616e+08
-1.28106e+10
-2.5441e+09
-1.38075e+09
3.48868e+09
1.11999e+10
-1.73263e+10
-3.92239e+10
-3.16017e+09
6.2604e+09
7.93583e+10
3.975e+09
-1.54119e+10
-3.55725e+10
-4.88975e+09
6.71817e+10
4.92869e+09
-2.51891e+10
3.72272e+10
-5.04765e+07
1.13836e+08
-4.06748e+09
1.42965e+10
-2.72068e+09
3.51856e+10
3.41633e+09
-1.73771e+10
1.17863e+09
4.80307e+09
6.36968e+08
-6.49051e+09
-2.79067e+09
-3.29575e+09
-5.52012e+10
3.902e+08
-3.64819e+10
-8.10451e+07
-1.11557e+10
-1.96008e+09
2.6063e+09
7.98238e+09
1.3845e+09
-6.292e+09
-3.23607e+09
6.3822e+09
-1.30754e+10
-9.60414e+09
6.57351e+10
-5.48832e+09
-5.15833e+09
-9.06368e+08
3.04548e+09
-6.39891e+08
6.79708e+09
2.8863e+10
-1.00428e+10
1.56982e+09
2.15254e+09
-6.95653e+09
5.24827e+09
1.10292e+09
-1.79891e+10
3.17444e+09
-1.63477e+10
1.08039e+10
1.94664e+09
7.69632e+09
8.22683e+09
-5.87756e+09
5.39426e+09
2.01429e+10
-1.39802e+10
-9.36395e+08
-4.10668e+10
-4.30148e+09
1.1597e+10
-4.02177e+10
-3.70188e+10
2.09192e+10
8.47932e+09
-1.05413e+10
2.28623e+10
2.80456e+09
6.96874e+10
-8.3475e+09
1.69346e+10
-4.95159e+10
-8.42673e+08
6.1378e+10
1.5779e+09
5.59609e+08
-1.60811e+10
-5.4644e+09
-1.73758e+09
5.19437e+09
-1.42826e+09
-2.44194e+09
1.51226e+10
3.00101e+10
1.19252e+10
1.30262e+10
1.1553e+10
4.93199e+09
1.98623e+09
1.70987e+09
-1.08531e+10
2.21702e+09
-5.10258e+09
8.38223e+08
-5.35778e+09
-2.55202e+09
-3.99471e+09
3.98089e+08
-7.9924e+09
-6.88354e+10
9.85844e+09
-1.79948e+10
6.73991e+09
4.03221e+09
8.15291e+09
-1.15415e+09
-2.71621e+09
-4.33051e+10
5.92169e+08
6.29419e+10
2.16946e+10
-1.62807e+10
7.20876e+08
2.2684e+10
-4.36197e+09
1.16318e+09
4.73691e+09
-1.2186e+11
7.95668e+08
-3.67397e+09
1.16218e+10
-1.85103e+10
1.57395e+10
-1.6284e+10
2.47367e+10
-6.98456e+09
-4.17626e+09
1.49097e+10
4.77625e+09
-6.2702e+10
-8.1812e+09
1.73921e+09
6.6694e+09
7.89052e+09
-7.03238e+09
3.40694e+09
1.50892e+10
1.61666e+10
6.54176e+10
-8.18317e+08
-5.57194e+09
-3.41159e+09
2.92148e+09
7.58016e+09
-3.09443e+09
7.19844e+09
-1.63577e+09
-1.40344e+09
-9.85032e+09
-3.99341e+09
-5.26786e+09
1.77464e+09
-1.83756e+09
1.50446e+10
-1.4861e+10
4.11017e+07
-2.20118e+10
-4.02992e+10
-3.65172e+10
-5.44111e+09
-1.24441e+10
-8.35497e+07
2.34157e+09
-3.18428e+10
-9.43268e+09
7.65032e+09
1.03693e+10
-3.17551e+10
-1.75432e+10
3.60022e+09
4.44676e+09
-2.52112e+09
3.17773e+10
-7.0901e+09
-4.43394e+09
2.7685e+09
-1.33765e+09
3.67134e+09
2.57751e+09
4.0452e+10
2.36307e+09
-6.24575e+10
8.21718e+09
1.23434e+09
7.39688e+09
3.47322e+10
-1.31864e+09
-2.95005e+08
-1.20921e+09
1.00365e+10
2.36551e+10
-1.8038e+09
6.41636e+08
3.69509e+09
1.01073e+10
-3.51567e+09
-1.69901e+10
9.71753e+08
-2.91439e+09
-1.11017e+10
9.97771e+08
2.62554e+10
-2.43402e+10
1.14037e+10
1.73661e+09
4.10964e+09
1.0253e+10
-7.38116e+09
-4.16305e+09
1.30824e+10
-1.74584e+08
-3.05833e+10
8.10333e+09
-1.91662e+09
-4.86452e+09
-1.5916e+10
-1.93248e+10
-4.96706e+08
1.92193e+10
1.20973e+09
1.36651e+10
1.35862e+09
-2.14682e+09
1.93117e+09
1.67823e+10
-2.88429e+09
-1.22372e+10
-5.03339e+08
-5.87762e+09
-1.67843e+10
-2.88447e+09
-5.4324e+09
3.81798e+08
1.97318e+09
1.84224e+10
7.08567e+09
4.80893e+09
2.38185e+10
-2.72621e+09
-3.36775e+10
-1.52775e+09
-3.35364e+09
-3.21003e+10
-1.46953e+10
3.91804e+09
-2.06333e+09
-9.33694e+09
-2.08175e+10
-5.32463e+09
-5.26807e+09
-5.45483e+10
-2.57519e+09
1.24763e+10
-4.57921e+09
-1.27237e+10
-2.50887e+09
6.8352e+09
-1.1577e+10
-7.16939e+09
-6.57101e+07
3.59722e+10
-2.02226e+10
4.75303e+10
1.77898e+09
1.19759e+10
1.67318e+09
-1.17282e+10
-2.66229e+10
1.68768e+09
-1.01619e+08
3.31961e+09
-2.84156e+09
-1.45819e+10
-9.02998e+09
-6.00141e+09
-2.28703e+10
-2.54208e+10
-1.54109e+09
5.51514e+08
-7.7461e+08
5.73877e+09
1.3095e+09
2.03677e+10
-1.44922e+09
-3.99031e+09
8.04858e+09
-6.33574e+08
3.79953e+10
2.49397e+10
-8.61709e+10
-2.09752e+09
6.79359e+08
8.51143e+10
1.2325e+10
6.06841e+09
1.54082e+09
-3.38122e+10
1.19494e+10
-1.07643e+09
6.48925e+09
5.79472e+09
3.87223e+09
-1.35227e+09
1.09231e+09
1.43583e+10
1.76724e+11
5.51501e+09
9.43926e+09
-8.30828e+09
-2.02297e+09
1.4503e+08
-3.25852e+09
-9.35907e+09
4.32804e+09
1.89473e+10
1.36507e+09
-8.57031e+09
2.49549e+09
1.99547e+10
-7.38443e+09
-1.9183e+10
-3.55978e+10
-4.89602e+09
2.74708e+09
-6.81841e+09
1.44352e+10
-1.88907e+09
-6.30333e+09
-4.96645e+09
1.67786e+10
-9.23878e+09
1.48942e+10
-4.26984e+08
2.72407e+09
9.71433e+09
-7.94521e+09
-1.43557e+10
-1.11198e+10
-2.48108e+10
1.52233e+10
9.42267e+08
-1.29008e+10
-2.80753e+10
-3.86812e+10
2.97066e+09
-4.67662e+09
6.81644e+09
1.28438e+10
-1.35516e+09
-4.69835e+08
1.86618e+09
-3.17077e+10
-4.61025e+07
3.62496e+09
-8.52805e+09
6.05982e+09
5.95707e+09
-1.88968e+10
-3.06327e+10
-6.8449e+10
-2.17444e+09
-6.9869e+09
7.74758e+08
-2.14945e+09
-1.39185e+09
5.9417e+09
-1.31625e+10
-5.90438e+09
-2.74315e+09
-9.61239e+08
4.69585e+09
2.33167e+10
8.00509e+09
-3.84462e+09
3.54889e+09
-1.22579e+09
-1.85867e+09
-7.68846e+09
6.28435e+09
-1.33867e+10
-5.16518e+10
-6.29685e+09
-1.41618e+09
-1.71399e+09
3.62967e+10
6.5918e+09
3.23578e+08
-2.42506e+09
5.228e+09
4.59965e+09
3.74925e+09
-3.66818e+10
-6.47174e+09
1.11486e+10
-7.45734e+08
-4.1674e+09
3.99958e+09
3.06087e+09
2.38117e+10
1.59231e+10
-2.22848e+10
2.41003e+10
9.20464e+08
2.63151e+09
8.34062e+09
-1.08652e+10
-4.7684e+09
2.05453e+10
-2.92466e+09
3.96951e+09
-2.23246e+09
-1.01424e+10
-1.15474e+10
1.51988e+09
4.02865e+09
-9.65086e+09
-1.33012e+10
2.3232e+10
3.55825e+10
7.06545e+09
-3.87685e+10
1.30594e+09
2.77163e+09
6.20588e+09
-1.03654e+10
6.90486e+09
-1.26426e+09
1.59392e+09
-1.91957e+10
9.69616e+09
3.79673e+10
1.36962e+10
8.77965e+09
4.3463e+09
-2.72538e+09
-2.13273e+09
-9.98888e+09
-1.52981e+10
-7.975e+09
-2.37827e+10
-5.17128e+10
2.11968e+10
5.10617e+10
7.04099e+09
1.85284e+10
4.93068e+09
-2.74604e+09
-2.34994e+10
-6.5153e+09
-4.95381e+10
2.63149e+09
-1.81903e+09
-8.01632e+09
-3.03106e+09
5.52894e+09
1.73875e+09
3.41884e+10
1.58379e+09
-5.39015e+09
-4.1186e+09
-1.50019e+10
2.91708e+09
6.29186e+09
4.48059e+09
2.01255e+09
-2.50711e+09
-8.70745e+09
2.93691e+10
3.28169e+08
1.7853e+10
1.49053e+10
-4.3507e+09
1.34287e+10
-1.17795e+10
4.35564e+10
-2.82135e+10
5.70265e+09
-6.476e+09
9.18276e+09
-5.88299e+10
-9.14712e+09
-1.83728e+10
3.27956e+09
6.44492e+09
-2.2915e+10
-1.66883e+09
9.3527e+08
-2.20506e+10
1.53684e+10
1.34164e+10
-2.56295e+08
-3.78528e+09
1.16096e+09
9.04345e+09
1.43874e+10
-1.75244e+10
-7.55133e+08
-6.56355e+09
2.15013e+09
3.96293e+09
6.22599e+09
-2.19844e+09
1.44857e+08
-1.96673e+10
1.37153e+09
-4.73024e+09
3.52983e+09
-2.46298e+10
5.41735e+09
-1.26027e+10
-1.37598e+09
1.00339e+10
-3.16447e+09
-7.76651e+10
1.68713e+10
-1.11745e+10
-4.28008e+09
8.89317e+09
4.26553e+09
-9.19429e+09
1.03679e+09
3.82058e+09
6.68592e+09
-5.17432e+09
-6.73376e+10
4.65339e+08
-2.22832e+09
4.5501e+09
-2.8309e+10
3.28419e+09
-5.18603e+10
-3.62202e+10
4.41568e+10
1.93632e+10
-1.24735e+09
-2.60402e+10
-1.60208e+10
1.00628e+09
-1.01551e+10
-4.53931e+09
4.54356e+10
3.14625e+08
1.61639e+09
-7.13941e+09
3.86958e+09
-1.60185e+10
1.62195e+10
3.7008e+09
6.89862e+09
1.0024e+10
1.98601e+10
6.06624e+09
1.88515e+09
2.54831e+09
9.74775e+09
-8.83519e+09
-1.56562e+10
7.75942e+09
1.77941e+10
2.42401e+09
7.3571e+09
2.00435e+09
-1.22657e+09
-6.91458e+09
8.41848e+08
-9.34987e+09
-1.53902e+10
-5.05821e+10
1.50592e+09
1.10045e+10
-1.05542e+10
-5.21014e+10
5.8435e+07
7.69505e+09
1.04638e+09
-5.41991e+09
-6.49376e+10
-4.27047e+09
8.74256e+09
-6.95562e+09
-1.28581e+09
-1.05323e+10
-5.05618e+09
-8.10323e+08
6.15573e+10
1.07174e+10
4.51262e+10
6.52489e+09
-5.47137e+08
-6.67367e+10
7.05327e+09
3.56021e+08
-2.0048e+10
-3.33428e+09
1.47038e+09
2.26559e+10
-1.6198e+09
-1.53894e+09
5.33027e+09
3.28684e+09
4.99506e+08
-1.03649e+10
6.0477e+10
-5.42054e+09
-1.4184e+10
1.82722e+09
2.33898e+10
1.09354e+09
2.94086e+10
-2.73869e+09
1.85098e+09
1.4326e+10
5.7087e+06
-1.26865e+09
-2.71551e+08
-6.1024e+09
5.53064e+09
-1.40938e+10
-8.31949e+09
-1.37069e+09
-6.46456e+09
1.13326e+10
-9.04574e+09
-3.62315e+09
2.54673e+09
3.68806e+09
-1.95146e+10
1.6777e+09
-1.18294e+10
-3.04113e+09
-7.37374e+09
-7.76128e+09
-2.08653e+10
2.42384e+08
-6.71103e+09
6.80857e+09
-1.38363e+10
1.49404e+09
-1.10723e+09
-7.67151e+08
2.7805e+10
2.03751e+10
6.03857e+10
-5.94859e+09
-6.09625e+09
8.48592e+09
-1.56139e+10
-7.62936e+09
-2.96157e+06
6.47459e+10
2.74183e+10
2.52587e+09
1.58112e+10
-6.00999e+08
-5.57759e+09
6.02114e+08
1.30285e+10
1.21042e+09
-3.30769e+09
-1.53026e+10
2.90579e+10
5.11413e+10
1.24136e+10
-3.38271e+08
1.51784e+10
4.27876e+09
4.12646e+09
4.11086e+09
-5.72439e+09
-9.23572e+09
9.70513e+09
-1.59623e+10
-2.26487e+09
-1.08304e+10
-1.53242e+10
1.66184e+10
1.5286e+10
2.40957e+09
1.56162e+10
2.03243e+09
-3.9785e+09
2.10182e+09
2.39693e+10
5.8326e+08
4.6241e+09
-2.14494e+09
1.5567e+10
3.92695e+09
3.03062e+09
-1.49928e+08
-9.4713e+10
-5.17098e+10
3.40903e+09
-4.17008e+08
7.59982e+09
-1.38492e+10
-6.26904e+09
5.82352e+09
1.48051e+10
3.95932e+08
-6.84015e+09
-7.00361e+08
-3.54832e+10
2.57296e+09
6.94991e+08
3.28643e+10
-1.20388e+09
-3.53902e+10
6.75014e+09
-3.63411e+09
1.52416e+10
5.92889e+08
-6.22154e+09
7.23478e+10
1.08091e+10
1.29776e+08
-2.52496e+10
-6.41856e+08
-8.32052e+09
3.9951e+08
-9.50408e+07
5.75504e+08
-1.57261e+10
3.12789e+09
4.05351e+09
1.229e+09
-5.26159e+08
1.36339e+10
1.12481e+10
-6.57478e+10
4.51076e+09
4.21338e+10
3.54118e+10
3.48415e+10
3.6324e+09
1.1395e+09
1.63636e+10
-3.75703e+09
-1.10956e+10
9.71358e+09
-5.74607e+08
-8.31879e+09
-1.94917e+10
-1.29351e+10
5.82928e+08
-7.41805e+10
-3.68097e+10
-1.98947e+09
-1.22704e+10
9.62978e+09
9.61749e+09
4.2653e+08
5.87043e+09
1.78667e+10
8.88158e+09
2.29351e+09
1.12183e+09
2.0611e+10
-2.50373e+09
7.90739e+09
4.31151e+09
2.76805e+09
9.03141e+08
-1.414e+10
-2.30324e+10
2.48769e+08
-1.04484e+10
-1.67604e+10
-1.75739e+09
2.37615e+09
-3.37949e+10
4.10339e+10
9.82737e+08
-2.18969e+09
1.68022e+09
4.21419e+10
-7.2838e+09
-2.13182e+09
-1.40183e+11
-1.65317e+10
4.08461e+10
3.04134e+10
-1.7223e+09
5.98187e+09
-5.43769e+09
1.37722e+10
1.52313e+09
3.36655e+08
-1.20671e+10
2.0066e+10
-9.1536e+09
-7.78874e+09
1.41003e+09
-9.49516e+08
-1.55662e+10
-7.91248e+09
-2.63005e+09
-1.26983e+10
-1.8318e+09
-1.8063e+10
1.55821e+10
-4.43668e+09
-1.33076e+10
-4.68736e+09
2.12192e+10
-2.8541e+08
1.64435e+10
-2.21998e+10
9.5094e+09
-2.64505e+10
5.39509e+08
-5.06484e+09
-2.704e+09
-1.46074e+10
-7.01791e+08
-4.1257e+09
-1.05943e+10
2.12942e+10
-6.98099e+09
3.14879e+09
-1.97728e+10
9.47855e+09
1.66273e+10
1.71292e+10
-4.44191e+09
5.27216e+09
-2.55922e+08
1.53399e+10
-8.38413e+09
-4.52855e+10
-1.11971e+09
-3.02363e+10
-7.56471e+09
-2.2071e+10
-1.55405e+10
-1.10825e+09
-1.12122e+10
-1.37588e+10
-4.20194e+09
7.15701e+08
4.61469e+09
1.77683e+08
-9.15361e+09
-5.49384e+09
3.24676e+10
-1.06102e+10
3.03747e+09
-1.47463e+09
-8.44392e+09
5.41762e+09
6.88924e+09
1.53448e+11
2.25313e+09
2.67618e+08
-2.20386e+10
3.84131e+09
3.79536e+09
1.29307e+09
-2.65517e+10
-1.47975e+10
1.29671e+09
-4.8479e+09
2.10417e+08
-5.57837e+08
8.23135e+09
-4.69315e+09
-4.32567e+09
4.25543e+09
-2.40041e+09
-6.2085e+09
-1.30829e+10
-1.2267e+09
-2.17791e+10
3.24367e+09
-3.11064e+09
2.13911e+09
1.26946e+10
-3.52923e+10
-2.99827e+09
-9.81089e+08
2.21197e+08
-2.69763e+10
-1.2806e+09
-6.64311e+09
-1.62559e+10
3.12598e+10
-7.5136e+09
-1.1086e+10
-2.6056e+09
-2.89349e+09
-4.00089e+09
-4.03393e+09
1.31182e+10
1.52787e+10
4.43457e+09
7.47552e+08
2.6445e+09
-5.10444e+09
-2.24688e+09
2.21562e+09
4.71028e+10
-2.55196e+10
-1.6497e+10
2.85023e+10
-1.66327e+10
-6.48725e+09
3.14344e+10
3.173e+09
-6.91995e+09
1.1614e+10
-4.18704e+10
-1.41001e+10
3.83044e+09
8.36368e+09
-2.17435e+09
-1.06173e+10
-1.06759e+09
9.77715e+08
-6.47229e+09
-2.72696e+10
1.20434e+10
9.9072e+09
4.85723e+09
-1.31372e+10
9.24572e+09
-1.68769e+09
1.2938e+09
-5.97548e+10
1.74119e+09
-2.95943e+09
-7.74815e+09
-4.71435e+09
-2.40964e+09
-5.80085e+09
1.26671e+10
1.20826e+10
-4.14121e+09
9.33837e+09
-3.78115e+10
6.28133e+09
4.04058e+09
1.24598e+09
2.2217e+09
1.99068e+10
-2.64096e+10
3.16704e+09
3.66373e+10
-3.47177e+09
6.52944e+08
-7.48464e+09
1.02767e+10
2.09175e+10
1.35665e+09
-9.64845e+09
4.08398e+09
-6.26591e+09
1.78538e+08
1.10329e+10
-4.01505e+09
9.77246e+09
3.87461e+10
1.37421e+10
5.26293e+09
-2.25158e+08
-4.92446e+08
-3.49083e+10
-1.29622e+10
1.11505e+08
2.54986e+10
5.76114e+09
-4.37009e+09
2.12917e+09
-3.95451e+07
2.50933e+09
4.61267e+10
-1.6245e+10
2.60643e+10
9.44323e+09
7.71973e+09
-1.79933e+09
-7.69991e+08
1.83707e+09
1.56893e+10
-2.47708e+09
1.1664e+10
-8.50606e+09
2.02045e+10
-2.92489e+09
9.75061e+09
-4.98259e+08
-3.92589e+09
-8.51213e+10
5.17265e+09
1.0026e+09
5.65303e+09
-4.52234e+09
-1.57897e+10
1.53884e+10
-3.43047e+09
-1.56581e+10
-2.27563e+09
7.78216e+08
-8.74705e+09
1.84157e+09
2.1469e+09
-6.92147e+09
2.2491e+10
-2.53207e+09
5.44172e+09
5.91309e+10
-4.57564e+10
3.06731e+09
2.60955e+08
1.131e+10
1.62608e+10
-1.43346e+10
1.79159e+10
-3.46252e+09
-1.91027e+09
1.02776e+09
-2.1492e+09
1.46605e+09
6.1041e+09
1.08762e+10
7.44863e+09
-7.49843e+09
-3.36219e+09
9.71851e+09
3.9858e+09
3.76419e+10
-1.06563e+09
-5.3846e+09
-1.66106e+09
-9.93653e+09
3.47612e+09
-2.58596e+09
1.46578e+10
8.64489e+09
-3.40041e+08
-2.00059e+09
-6.21627e+09
-2.44786e+09
1.52207e+09
-8.03885e+09
6.00087e+09
-1.11472e+09
-7.43884e+09
1.75407e+10
1.60155e+10
3.96837e+09
9.92639e+09
-7.27356e+09
-9.60775e+08
-1.7418e+09
5.58291e+08
1.4415e+09
-5.35777e+09
-2.11213e+10
-3.72711e+10
-7.98516e+09
2.65603e+10
4.17233e+10
-2.71968e+09
5.07451e+10
1.98098e+09
1.2107e+09
-4.6558e+09
-1.198e+10
2.61973e+09
4.20325e+10
-1.19644e+10
1.38024e+10
-1.91206e+10
6.58597e+09
1.94826e+09
8.82628e+09
-7.69653e+09
1.70064e+10
-1.72313e+10
9.56761e+09
5.82879e+09
5.29941e+08
-2.31399e+10
4.97539e+09
-2.21079e+10
-1.00259e+10
-3.85523e+10
-1.39904e+09
1.39458e+09
-9.00998e+08
-2.62142e+10
-6.19668e+10
-1.15132e+10
-1.8123e+10
2.91649e+10
2.76001e+09
-2.79102e+10
6.38551e+09
4.3563e+09
-2.77792e+09
-1.09464e+10
2.13401e+10
-2.02103e+10
1.10832e+11
6.48605e+09
-3.55922e+09
-3.68613e+09
3.03856e+10
2.66076e+09
-2.84135e+10
-1.30434e+10
-5.1193e+09
1.60359e+09
1.35531e+10
-2.16071e+10
7.49841e+09
1.73636e+10
2.05507e+10
-3.30417e+09
-1.51957e+10
-1.45282e+10
3.65384e+09
-1.3198e+09
-1.37938e+09
-3.95451e+10
-1.43848e+10
2.54578e+09
-6.29093e+10
-3.7792e+09
1.17979e+08
-3.76829e+09
4.15251e+09
-2.83017e+10
-3.96971e+10
1.24042e+10
1.73723e+10
-2.13764e+10
3.389e+10
1.75853e+10
6.21153e+09
-3.50626e+09
1.19093e+10
1.16056e+10
-1.01218e+10
-2.42155e+10
-3.03826e+10
1.0833e+09
4.68599e+09
1.0501e+10
7.7291e+09
-1.27272e+09
-1.31767e+10
7.38071e+08
-6.40987e+09
-3.14013e+09
1.10004e+10
-4.19376e+09
9.40951e+08
-9.01583e+09
4.83595e+09
3.01611e+09
-2.47212e+10
3.62549e+09
1.42241e+10
1.76761e+10
7.97966e+09
1.91205e+09
-1.07615e+10
1.05072e+10
-1.39269e+10
1.81482e+09
5.83083e+08
-1.48014e+10
-3.23803e+10
9.81508e+09
-2.06723e+09
1.40367e+10
1.89676e+10
4.80285e+09
3.80546e+10
3.35768e+10
-1.25206e+10
-1.6888e+10
1.59029e+10
1.20798e+10
6.27487e+09
-5.83077e+09
-2.42631e+10
5.18458e+08
-1.3855e+09
-5.90466e+09
9.15994e+09
4.78243e+09
-4.25219e+09
3.91762e+09
-8.1216e+09
1.91822e+10
3.2228e+10
-7.2002e+09
-3.99277e+10
6.8046e+09
5.68583e+09
-1.35841e+10
-1.24412e+10
-1.36902e+10
-1.83919e+09
-1.47422e+08
-4.86155e+09
-2.33049e+09
-8.42296e+08
2.21092e+09
-1.43521e+10
-3.61529e+09
5.31423e+09
8.91058e+08
1.15041e+10
-4.69339e+09
3.08487e+10
1.49661e+09
3.54904e+09
-4.11716e+08
1.33354e+10
-2.11837e+08
8.13749e+08
-1.92217e+09
-1.62185e+10
-5.32535e+09
-4.4565e+10
-9.70946e+09
-3.36748e+09
-7.76458e+09
4.14079e+09
-1.71291e+09
-5.93405e+09
-1.17051e+10
1.49153e+10
-7.95683e+09
4.43535e+10
2.3209e+09
-2.81167e+09
4.23302e+09
-1.75553e+10
-2.93725e+09
-3.44366e+09
-6.50855e+10
5.95356e+09
-6.35837e+09
-1.55015e+09
2.89835e+09
-2.4119e+10
-1.77337e+10
-8.04639e+09
6.53621e+09
-2.65529e+09
-1.73485e+10
-3.68449e+09
6.34597e+08
5.97102e+09
-4.00518e+09
5.63892e+10
-5.70729e+09
-2.01809e+10
2.00951e+10
3.91808e+09
4.53267e+09
3.67798e+09
-3.14307e+10
-1.35095e+09
3.19452e+10
2.9289e+10
-1.12987e+09
-2.03032e+10
5.26899e+09
-8.41456e+09
-1.44791e+10
9.44706e+08
-4.15718e+09
-9.94852e+07
-1.52602e+09
-2.08438e+10
1.69459e+09
8.85911e+09
-2.29171e+09
-6.31666e+08
-1.22366e+09
3.29835e+09
-3.11009e+09
1.79674e+09
3.40593e+09
-3.20791e+10
-5.82475e+09
-2.88569e+09
-1.99131e+10
-2.08516e+10
-4.88925e+08
-1.45367e+10
1.87995e+10
-1.72294e+10
5.88393e+10
-6.41813e+08
4.15462e+09
2.46319e+09
-2.38169e+10
1.45419e+10
5.84322e+09
3.60256e+10
-1.84658e+09
2.60728e+10
1.22291e+10
-1.7774e+09
-1.7315e+10
1.82762e+09
-3.03645e+10
6.41824e+08
-9.79539e+08
2.56693e+09
-8.08294e+09
-6.52796e+09
-1.04409e+10
2.07802e+09
-8.22824e+08
3.65192e+09
1.20654e+10
6.20012e+09
-3.15e+10
1.21357e+10
-3.99743e+09
9.00755e+09
2.47713e+10
2.08254e+08
-4.40571e+10
2.13701e+10
-1.64768e+10
8.27926e+08
3.23472e+09
1.03908e+10
-7.72381e+09
-7.49019e+09
5.73657e+09
-3.29428e+10
1.22748e+10
6.94778e+09
1.40145e+10
-2.80674e+10
-4.3492e+09
-2.77937e+10
-1.13243e+10
1.62911e+08
-1.92175e+10
9.26437e+09
-2.73578e+10
3.28663e+10
-1.10489e+10
-3.51593e+10
-3.90208e+09
-9.79987e+09
-1.0697e+10
2.11714e+10
-2.97184e+09
-9.56235e+09
4.16505e+09
-3.11749e+10
1.54341e+10
3.97422e+10
-2.35922e+10
-4.86254e+09
1.3405e+09
-1.13368e+10
7.76179e+09
1.12974e+10
1.41371e+09
2.37336e+10
3.19886e+09
1.69081e+10
-9.59974e+09
5.38429e+08
2.90975e+09
1.64324e+09
2.5331e+09
7.84978e+09
-1.12187e+08
1.27588e+10
1.63636e+10
-7.10378e+09
4.96825e+09
1.57425e+09
6.186e+08
-7.57274e+09
4.97241e+10
3.62318e+09
-6.47742e+09
-2.03101e+10
-9.08213e+09
-2.75788e+08
2.27533e+10
9.02745e+08
-2.49185e+09
1.8136e+10
-1.22201e+09
2.47975e+10
2.83554e+09
-7.19481e+09
-1.02123e+10
-5.94537e+08
4.97652e+10
2.7814e+09
-1.15478e+10
1.67434e+09
-1.27341e+10
1.70099e+09
-3.47379e+09
1.40714e+10
2.21625e+09
1.20132e+09
-1.02811e+09
-1.35216e+10
-6.18389e+09
-3.93943e+08
8.16359e+09
-6.7756e+09
-7.81292e+09
-1.09417e+10
2.81603e+09
1.42067e+09
1.46974e+09
-1.30573e+09
1.83482e+09
2.67088e+08
4.0277e+09
4.02527e+08
-2.50263e+09
6.64891e+09
-6.23491e+09
-7.50221e+10
4.37545e+09
-1.08101e+09
1.65526e+09
8.67981e+09
-1.15478e+10
2.26861e+08
1.13246e+10
-6.89221e+08
2.60389e+09
4.57038e+09
-6.55847e+09
-1.0469e+10
-4.0868e+10
2.69047e+10
2.85961e+08
7.3536e+08
8.37754e+08
3.40515e+09
-3.94857e+09
-9.30901e+09
-1.14647e+11
-1.69026e+10
-1.24615e+10
-1.05766e+10
2.5109e+09
-6.37959e+09
-2.06293e+09
-3.65648e+09
1.42619e+10
4.05054e+09
-1.29988e+09
2.04702e+08
1.03701e+10
2.63729e+10
-4.40119e+07
-1.30045e+10
2.15635e+09
-1.08956e+10
-9.03446e+09
-1.03563e+10
5.83398e+10
-6.06715e+09
-1.78347e+09
1.3661e+10
6.73787e+09
-6.80173e+09
-2.514e+10
1.7332e+10
2.24216e+09
1.29673e+10
3.42377e+10
-8.9102e+09
-5.74072e+09
1.53652e+09
-1.99815e+10
1.75204e+10
-5.67164e+09
-1.6756e+10
6.05825e+10
-1.04587e+11
1.45906e+09
1.28643e+10
4.20234e+09
7.7329e+09
-2.22624e+10
9.80262e+10
2.12845e+09
4.4895e+09
-7.16089e+09
2.55879e+10
8.1497e+09
-9.45224e+09
4.94116e+09
3.44688e+10
4.47804e+09
3.56314e+09
-6.2885e+09
-1.72209e+09
3.1631e+09
-2.31747e+09
9.81015e+09
1.69782e+10
2.70873e+09
-6.01644e+08
-2.52826e+10
1.99447e+10
-2.97155e+09
-2.99295e+10
1.73491e+09
1.89696e+09
-3.46739e+09
-8.45807e+09
-1.17165e+11
-9.59016e+10
1.52329e+10
4.57921e+10
2.66727e+07
-3.90432e+10
-3.843e+09
-1.07694e+11
3.68632e+10
-1.05122e+10
3.11101e+09
1.07924e+10
1.18317e+10
-8.93422e+08
6.12288e+09
5.71248e+09
1.81838e+10
-1.78292e+09
3.31986e+09
-1.85276e+10
1.80843e+10
-2.79755e+08
1.51989e+10
-1.18589e+10
-1.28684e+10
-6.13413e+08
-1.18222e+10
-1.46063e+10
2.56045e+09
-1.17028e+10
7.19717e+09
4.66917e+10
-1.20553e+09
-7.66697e+09
-1.15347e+09
-2.13826e+09
2.33365e+10
-1.22755e+10
-4.42295e+10
-2.92164e+10
4.78198e+09
-2.17221e+10
6.18143e+08
1.68912e+10
6.12628e+09
1.25464e+10
-5.44889e+10
2.85826e+10
1.97262e+10
5.83137e+10
-9.36789e+09
-2.68918e+09
2.7171e+10
-8.40386e+09
4.00336e+09
2.50638e+09
1.88563e+10
1.435e+09
1.04289e+10
-3.19876e+09
-9.20123e+09
4.48066e+09
-6.61959e+08
-6.86263e+09
2.43382e+09
-2.56104e+10
1.19563e+10
-5.17459e+09
2.43934e+09
3.44067e+09
4.48321e+10
-2.76026e+09
-1.33889e+09
-4.41372e+09
6.87261e+09
6.61011e+09
-7.41587e+09
2.41667e+09
-2.92957e+09
-1.58612e+08
-8.98685e+09
-1.46542e+10
-4.5604e+09
-1.33033e+10
-1.6498e+10
3.0085e+09
-2.86171e+09
7.59734e+08
-1.14868e+10
2.18248e+09
2.69904e+10
2.85126e+09
-2.43167e+10
1.81735e+09
-1.56109e+10
2.98455e+10
-7.61607e+09
-1.08495e+10
4.20605e+09
-5.14371e+09
7.81368e+09
-1.88998e+10
3.49547e+09
-2.20365e+09
6.39186e+10
3.5469e+08
2.26439e+09
1.49289e+09
-7.19016e+09
2.33168e+09
-3.61085e+09
-1.8302e+10
-3.13084e+09
-4.83115e+07
1.31063e+10
-7.10157e+09
-1.37633e+10
4.4654e+09
-1.57676e+10
-4.34518e+09
-6.05604e+09
6.2949e+09
5.32768e+09
-1.15575e+10
8.11912e+07
5.81882e+10
5.71238e+08
5.78586e+09
-7.01919e+09
3.69273e+10
-5.13985e+09
-5.05754e+10
-2.77305e+09
3.90759e+10
-7.01522e+09
3.06629e+10
1.4714e+10
1.48388e+10
-4.00142e+10
1.06855e+10
-1.43642e+09
-3.13531e+09
-1.40165e+10
-7.49583e+09
2.04512e+09
7.23781e+10
4.41452e+09
-4.37697e+09
1.04877e+10
6.70085e+09
-1.48787e+10
6.31524e+09
2.44735e+10
-1.24535e+10
-4.19185e+10
-4.84357e+09
3.06907e+10
-2.25908e+10
-1.52423e+10
9.24711e+08
-6.3221e+09
-1.16635e+10
-3.19864e+10
1.53744e+10
-2.67628e+10
4.19071e+10
-8.37779e+09
1.15983e+09
-6.72675e+09
-2.0703e+09
1.76675e+10
1.03044e+10
-1.4393e+09
-7.9833e+09
2.49541e+09
2.55261e+09
-6.52954e+08
-3.71244e+09
2.64398e+09
-5.74138e+08
5.76418e+08
-4.98271e+09
7.06737e+09
9.3797e+09
1.15949e+10
3.92832e+09
2.72801e+10
8.21108e+09
-5.36332e+09
2.96031e+09
2.38299e+09
-4.33008e+10
-6.66187e+10
-1.24711e+10
2.61496e+10
5.20195e+09
1.65138e+09
1.21962e+10
9.0101e+09
3.24443e+10
3.84292e+09
3.04189e+09
-1.21679e+10
8.92067e+09
-3.85633e+08
2.37534e+10
-1.23303e+10
1.14645e+10
-1.1201e+10
-1.00512e+09
-4.34348e+09
2.49543e+10
1.31152e+09
5.00444e+09
1.67278e+10
-4.82625e+10
-1.55921e+10
1.37598e+10
-1.25583e+09
6.67506e+07
-1.90214e+10
2.43748e+09
-4.27698e+09
5.47105e+09
-7.4838e+08
5.29107e+10
-1.81291e+10
2.82921e+10
-2.99606e+09
-9.08373e+09
1.15221e+10
-1.23466e+10
