130.373506
200.5531215
42.0206163
100.2893613
314.5078159
129.6169026
303.634615
100.5655953
334.029149
291.481889
106.5063842
313.9317008
45.8476658
243.960263
337.6564158
253.94641
224.5434065
179.1004211
108.7020371
34.317078
159.9808427
164.999142
107.8891705
262.227416
286.973754
201.9596718
90.6480919
-28.6686793
-46.488847
269.1928329
277.867081
115.485602
17.39394759
16.768193
113.3414642
189.05863
128.3035064
162.051839
322.5031667
258.74647
44.5007344
245.133303
160.3975423
305.539804
369.094431
78.071497
443.33062
349.8673456
-14.1614982
115.1177605
87.474653
95.1281343
160.8867108
249.37646268
-8.970432
172.36585
204.2477058
180.69513
306.975603
243.2663356
-92.769007
128.655808
95.7330551
292.249482
200.369866
203.1713532
124.516432
252.739518
-36.2985412
158.542637
375.2113698
156.3954288
323.6520488
101.7703283
233.275184
98.9858748
-21.930039
140.6373668
73.02783109
90.448176
200.3120722
74.6442414
247.739892
130.1762988
262.48313451
230.928409
148.866384
197.180259
208.924498
213.049921
252.6326309
255.369175
152.8824107
288.626504
160.4345318
280.9093606
238.449419
302.7428394
419.2288374
331.5109276
103.5629168
135.86368
297.6797879
94.0222366
290.778293
129.4334039
350.135511
223.9540728
372.117499
187.6460236
264.3411229
430.2593208
115.07929
289.790443
72.62253942
211.119243
148.319331
38.26644628
62.554957
321.990171
126.178033
142.8010214
105.510088
95.9763058
256.226827
260.8352789
245.1142072
293.773606
241.7880614
300.5014348
118.5656091
180.663475059
186.314614
309.1671342
320.5195583
62.951215
134.25108226
99.755763
134.877335
278.148668
284.412235
-40.784236
142.0593922
171.5203473
164.357815
36.3501025
334.249181
259.8786316
259.076294
147.075869
123.159231
-64.696386
277.7931291
154.562549
-53.7494317
133.180709
230.4080639
113.5000059
126.7378695
126.07497
181.369609
190.591795
255.9804824
-97.216136
343.274199
210.7900116
3.472592
381.5176236
327.6481876
43.524011
112.6565444
174.284627
238.6794888
208.2811463
280.3241801
271.8192095
123.0792836
384.041562525
121.763168
252.553119
192.2721623
167.1000238
166.1294218
213.517692
169.340896
375.33057431
177.075312
-40.343101
184.402812
223.7027132
104.39338
132.2962487
162.6882239
233.8445021
272.1676079
241.388579
12.789683
255.3760737
246.817549
147.605569
56.9995317
-9.375418
350.3231
178.6491241
201.5115563
38.193419
231.6754826
350.8938762
184.265658
243.6146775
370.691191
192.1957863
145.5844671
-0.208408
170.866699
225.250537
99.7601059
173.7720284
178.063626
13.9575675
104.1480276
258.72043
5.169962
222.196345
137.777148
301.8002288
-19.526921
277.48091
159.5888538
135.1363076
174.7504114
25.250968
134.773686
130.3507341
155.415841
252.9015979
164.0227495
154.5556366
273.7416277
319.7018974
117.73569
259.90432
405.39607702
88.52394952
359.8798572
362.7645541
376.413747
167.63134
155.598364
166.824176
152.417998
292.2023119
113.2440596
23.946282
377.171255
193.717005
200.0593277
26.1774183
369.5864631
217.414091
126.333015
106.646085
188.4155164
222.573814
313.841985
260.735305
-4.665338
4.372671
185.49378
57.650112
211.7115126
-1.8434042
283.656586
188.2964141
235.99463165
258.174776
182.332482
264.728853
156.390155
283.1808185
270.664948
30.024889
159.3479569
243.036526
288.444875
247.357633
213.006171
201.7444742
118.2541724
182.6528098
197.6629527
201.4009468
263.1377544
280.4353163
123.014024
94.39283638
261.2098579
219.421742
119.817532
238.2240254
503.385452
177.1007038
128.989292
304.518459
239.908171
198.8009768
237.3381207
269.00107636
86.806897
183.257611
129.419182
187.8453064
326.8662057
170.7607666
-66.509578
143.2021869
153.199742
175.1329128
210.8471583
94.8380624
239.261716
281.9485241
138.03237282
198.8967924
-20.4598259
190.4338017
214.7210167
239.5851901
133.182456
29.558603
144.6586215
150.4098882
166.95456
286.0929935
98.8492887
278.6929095
92.075912
46.60192405
176.389274
265.849313
200.1594503
-40.760391
370.0109468
108.9236066
387.2154815
118.996747
116.377239
137.7104478
138.18056059
59.6088449
218.53341
145.71634832
288.321061
172.395287
260.2045561
361.009911
182.756319
277.25920216
401.2467294
16.04266
253.0352497
422.0917399
296.1818318
111.83791496
284.943996
215.851805
-22.5142684
271.6426237
109.4855392
139.491026
46.400497
318.7853553
282.5035357
343.9481125
101.501542
86.861373
131.8413397
134.363036
45.50857
147.640839
129.98241
262.994965
400.510891
205.962184
177.080031
392.7430842
110.041847
133.3150017
331.136457
211.6976002
187.660189
266.777222
363.151367
174.390330126
348.473298
364.785576
123.10168
57.098915091
178.4167582
257.1838992
237.4591435
281.315903
396.89625357
148.639123
210.88978
119.4970724
135.1939858
290.6911348
170.362964
123.6940087
111.5401876
339.683656
280.3345109
89.7756899
106.1072212
288.6053761
126.5103033
211.574068
243.902067
241.9644935
301.56646
225.7092646
193.020394
187.488441
284.5576531
-61.406914
193.6960225
-12.8984903
170.9785307
-73.5358223
149.7963094
15.922795
370.5521133
228.453174
202.850875
222.0885466
360.046423
264.0689551
65.549769
96.1307111
196.7398411
43.6994014
272.0464449
317.5589929
209.028327
188.54480601
230.7199972
220.9826382
363.8718252
405.758105
224.7554729
37.010125
211.3796038
275.1648392
-29.06156205
122.8996859
449.818079
261.004683
212.3484096
267.07377363
534.2262544
166.181814
181.471464
141.03126629
444.1912505
139.3902948
58.532872
239.910021
136.335541
117.8132779
66.730253
468.105023
83.059374
243.6801994
165.0698281
169.458147
205.7138221
102.8611926
222.4570712
173.6791396
211.717273
170.0371678
257.934146
98.398206
312.581726
214.12687264
170.047153
443.6758021
125.1210278
154.045622
194.7797233
168.12054257
23.9410506
111.848794
358.296043
66.5359352
335.4553196
191.475738
-11.255036
384.7388239
84.1403712
189.545943
110.894741
211.6506265
371.8488366
151.4110049
101.0777506
251.3495
136.523261
172.599463
-21.099443
310.13077383
146.5103438
163.4147375
211.8715713
182.924578
205.2224211
186.658531
-50.6590895
-64.986709
214.3510005
146.090354
177.318996
316.7566118
94.58720262
155.1976348
35.5039686
246.475867
291.4606556
237.842204
237.2487408
30.9630803
179.143104
227.2030722
153.6929069
19.530415
198.484398
241.8424594
321.9890573
311.0730959
-187.9271228
108.815309
111.0853045
101.5058606
275.224185
282.483869
132.9136213
214.4125557
170.8027354
94.24145558
110.0203444
173.5275305
205.363241
192.305541
124.5538541
203.7659113
204.763513
135.1040639
311.4791529
324.7030025
-37.5919513
209.0623815
184.0054838
156.834923
257.802917
377.549221
65.9716415
296.248781
173.8075727
209.840021
39.18
52.6159953
171.899731
315.251277
253.326445
209.546198
88.78885503
385.913103
191.5768623
244.3676454
215.9863921
174.279689
159.390083
130.250864
227.055199
120.417104
263.614776
173.0664015
299.3283211
186.080611
66.927983
139.33672
131.1024443
-3.113239
324.201679
148.0518451
230.158317
167.854092
173.99832665
-13.5071913
124.2673293
198.726320658
224.4482697
195.634107
136.69971454
240.6084948
172.823868
236.753408
43.055165
322.4561236
214.7919608
22.771435
114.1624391
169.5480358
200.634313
-110.130077
327.8700305
325.5925122
-50.3554313
30.1171955
152.73399
113.8551456
310.0177713
249.873834
207.658259
103.1775252
267.848505
409.793299
82.112618
17.0092384
294.3623761
108.8278356
272.762941
82.39634505
370.49654115
299.638522
262.3321297
157.3450175
192.086685
190.755487
403.7637107
293.6700491
120.800227
186.68048
49.7934852
-0.6194996
338.5044355
404.1708929
302.911104
139.7984883
170.704146
202.1555605
254.1049423
315.385095342
118.030165
188.6095451
42.584003
274.523445
189.6989844
337.6441788
410.85741305
370.104609
166.0622757
32.883345
311.686822
235.245481
111.7003983
354.4686258
350.4272358
244.7856996
124.641696
77.5395006
284.5640186
165.744196
-61.6183358
378.4141754
412.887825
166.72937
143.4507088
-65.6335962
203.43612249
-214.010233
295.00209651
138.8184886
301.130126
39.485613
190.892639
79.403111
261.9522915
191.023926
248.686438
89.50231
89.0320162
219.336562
156.123585
103.101417
93.8681633
279.065915
123.003716
84.878856
207.343256
-18.9286382
-2.5069072
220.946533
203.4427777
12.773099
126.9043018
183.722396
174.2835326
263.2729122
154.551956
228.7005089
38.2061575
152.2981175
219.78914066
72.699953
218.8044539
348.1227348
230.0720612
255.7754744
113.49197
94.814377
165.599078
328.79182559
261.559896
69.788546
264.8337721
115.809559
230.4352354
279.1083042
141.6505315
270.2345
403.0108753
-65.949154
67.112133
42.5313693
-13.745546
225.725756
101.2557777
238.800726
107.9465675
299.0815943
136.157968
239.01665339
147.3610832
21.2853608
461.860549
172.4655658
192.6667048
288.233723
80.184285
148.207324
297.857301
267.619738
305.649433
282.2181219
8.140443
20.054654
307.68907
243.2020046
32.624085
90.224596
274.6705916
320.8279901
143.788301
166.5059789
228.4017636
211.3897014
46.12710142
277.715814
167.2287143
131.196223
31.587062
207.0602233
368.75252
25.787286
153.2178477
176.25050016
11.8488709
188.2304573
-66.1461632
180.8315947
274.1146778
-6.4502555
222.5392527
164.8443187
332.7071681
135.666774
186.4584154
176.6599843
161.9774882
409.847966
90.56815757
54.5286083
326.347848
34.0511383
399.30531
243.036207
224.6089755
274.471219
38.3002469
142.23359
318.19384
215.418682
393.09256
136.618246
315.0554536
160.12525
201.3290227
124.870909
114.5125527
204.0855161
225.1537929
136.5651133
194.1826327
54.9915842
186.4351464
204.20741
353.144664
193.1263014
90.1030739
116.3827894
291.994525
75.6668685
252.9296636
282.118751
186.2272173
110.044377
197.9611244
152.9921485
262.0148445
195.6889584
87.844688
190.6580514
-2.7305407
17.366864
169.274289
199.936378167
227.2109318
198.751748
191.969082
291.8388013
127.7713346
364.117717
55.4171746
178.8686751
-9.0248011
99.01213844
80.0855466
50.506842
114.835459
368.908853
200.9290822
271.261004
214.7642017
354.1025106
231.96671306
120.647095
257.985179
114.212482
222.463798
152.0127833
182.415573
295.2068931
223.882532
141.420393
336.8512018
124.282316
218.956752
19.1766786
377.695533
53.0533386
475.6926846
139.860838
358.8506601
96.829774
155.1630579
453.4991682
-106.7899256
280.6271961
202.8241752
246.995355
244.2427339
239.8603511
193.0341981
86.2517935
270.697863
170.85384
134.159538
118.1256387
178.4115891
37.7911248
46.042759
206.7109381
299.314388
179.5060009
-47.27852607
300.9018023
51.696074
295.535776
123.0984561
23.3748031
222.25481513
312.96045545
164.9174464
71.9678305
19.440115
190.0639292
192.7490193
223.958806
90.8141538
239.081204
77.6382708
441.2423576
342.6674304
158.0725239
227.349185
324.0412662
272.3122958
48.12164
151.759363
203.3830272
285.31118316
248.8708953
352.138772
-87.48213
258.9205318
338.951226
179.29522017
81.053295
110.5946472
222.6500653
103.2682445
354.374113
184.0883331
178.69286195
481.82439367
217.8467048
122.38703128
302.4503695
219.5250059
91.7659023
42.073964
323.726568
351.353726
91.1653518
213.243842
202.4123499
57.2024147
125.5439071
73.6770468
196.114185
40.8335552
330.5181107
115.456327
375.039664
124.83621
281.385732
163.1119654
44.4428087
356.4690765
201.759818
196.956648
114.529909
220.180343
50.755411
241.0570775
129.384934
238.695936
110.934352
93.88282
311.5952966
6.5347699
148.7112121
320.292834
174.455309
113.98921549
229.4552199
202.9311035
226.099629
132.3564224
157.001365
352.115866
259.9882548
107.449552
227.861895
359.608349
299.81177
-4.651231
125.8213549
172.53806228
188.1130466
50.7373745
221.4708654
373.0053525
337.5395838
105.399549
236.196742
204.537464
92.471044
