2875.97
1927.41
5589.05
6345.19
1302.92
1385.78
2225.42
3811.6
4475.04
1339.18
1416.03
1093.87
4426.33
5149.74
1023.46
4271.45
2029.19
1663.48
1650.88
1632.78
675.091
1449.76
1350.87
958.95
2034.21
1790.16
1821.47
3327.49
761.519
1160.81
1271.76
1086.33
2537.01
1057.09
1799.33
2955.7
1623.31
2878.3
2327.64
1888.91
391.725
2777.88
462.375
3088.17
1130.43
8876.6
571.791
2857.8
1219.94
3349.22
1462.47
1617.36
2154.56
670.578
618.789
1776.95
2718.67
3012.67
451.973
1681.13
1870.4
1264.78
10465.3
530.436
1811
1606.67
356.235
1835.53
822.103
5390.55
1496.21
1819.26
2428.72
4551.49
748.223
2237.55
3624.14
991.134
5221.58
354.816
2062.38
1343.02
5082.2
555.036
909.199
1345.84
2567.31
416.186
1183.76
2684.75
2868.88
3373.45
4635.09
4892.33
824.4
517.519
2439.72
770.803
3327.49
790.715
2121.38
5327.47
6759.08
2140.37
4244.61
3501.69
1723.58
1669.48
2393.16
1921.35
1121.68
1492.19
525.201
2816.96
3913.67
755.294
1465.07
254.99
2069.97
1488.01
2572.8
1625.71
1235.88
3107.79
2718.04
8121.05
3928.42
3309.92
4130.62
899.194
1696.47
1960.32
2070.67
1801.55
376.087
1886.04
3990.44
718.699
2292.49
1848.76
876.361
2247.99
1521.14
3891.11
1590.77
376.093
2242.97
1801.6
1559.67
2810.08
1196.63
1313.85
245.787
747.944
453.685
733.069
4599.98
469.559
3586.52
1835.31
3039.56
6003.71
1660.85
2129.89
862.965
2287.98
818.312
1450.01
1704.54
3179.07
2906.63
2292.18
2376.75
3096.29
2861.96
1577.36
1100.31
2263.55
1015.66
1022.14
620.106
6603.04
1889.46
1157.11
1494.67
2066.32
3897.83
1193.05
3890.99
757.199
2725.56
850.42
1828.25
3016.49
1758.25
3761.63
2325.47
1485.5
1674.11
2005.04
3292.34
2865.73
1640.48
3534.74
783.492
1537.03
2474.08
1487.78
1632.09
1075.62
475.107
2586.58
4639.26
933.679
2310.08
2067.21
6289.19
4368.59
3241.33
3138.09
2415.83
1815.97
640.439
1520.21
1960.5
2676.05
1000.41
5454.52
1408.08
1404.72
2017.57
1544.35
2336.75
310.862
4492.11
586.978
1046.66
2172.87
1170.72
4025.77
678.192
1905.83
835.308
1910.32
1552.77
3225.88
1455.55
1935.56
659.353
1165.74
3306.72
693.28
3401.53
3313.34
2320.54
2966.94
2951.51
1359.62
5129.93
599.167
752.999
2366.8
2153.07
2353.8
5476.33
2989.7
1394.35
3550.6
314.795
947.706
2946.13
2628.36
448.284
2959.51
2084.58
3159.83
461.849
438.236
1352.2
1997.55
307.617
4565.82
742.455
1813.04
245.077
6874.41
589.562
608.517
1039.76
1384.26
1821.07
2193.15
663.135
690.373
6190.41
1899.3
507.89
4022.58
3399.1
338.834
2271.32
1274.82
1125.07
2348.76
9559.89
1930.26
1676.53
3535.3
522.485
650.21
940.311
701.585
1763.12
2977.42
4722.09
3475.85
253.645
2019.53
1478.04
5196.35
3225.4
8877.19
3597.53
341.921
2122.75
1123.26
721.277
1195.29
4769.77
1001.24
620.645
359.909
2003.17
2858.71
1173.2
3421.76
4552.76
1647.14
1287.55
525.47
944.102
1813.39
2922.56
1571.58
3211.59
1655.25
2769.72
1758.11
2746.22
259.95
1117.93
1177.28
339.327
1924.28
1608.66
1953.8
3040.44
814.434
1479.97
2381.78
1059.68
1938.41
2498.39
2550.97
1380.29
2799.83
2786.25
6003.85
3268.54
3214.55
1584.97
1589.42
865.916
4155.03
2504.99
710.766
1145.06
2767
7751.37
2952.53
461.219
2118.72
5468.6
3131.8
1567.69
1707.56
2688.36
546.629
1787.09
1936.06
1859.45
3677.21
1250.51
975.11
3481.64
2775.32
4762.1
1793.94
5531.86
437.88
1929.8
4226.99
2780.42
819.066
5955.64
4841.72
157.044
2088.78
3119.09
568.822
3156.23
552.558
876.573
4427.14
345.128
1929.93
1618.1
3131.53
2197.52
1104.5
3220.02
4670.24
3544
11686.6
4233.02
2952.47
2859.09
1195.24
421.709
2708.68
1585.1
2003.54
2007.76
2114.08
2591.51
1325.98
2174.29
1186.26
647.423
1568.51
834.615
2982.24
2662.41
1737.7
2752.55
1658.34
3581.2
1720.18
215.879
2649
3605.08
1005.94
1127.49
2484.02
316.69
1087.84
1578.32
966.167
2300.91
2364.46
2150.02
2578.75
896.542
1964.4
1508.74
3230.92
3506.23
533.531
2442.8
1005.1
229.117
834.73
2032.22
2813.33
1780.25
2355.62
1448.19
1149.27
2761.11
1990.79
1356.1
779.776
2184.01
2530.92
3983.61
1204.92
418.822
1210.75
815.728
3374.1
1956.35
1805.04
5672.77
1520.36
725.618
1733.65
2532.15
261.014
2004.64
2968
677.225
3073.11
890.553
938.448
1163.24
3022.34
416.2
1971
1503.36
1703.19
2351.62
1040.85
1557.71
1923.81
7477.28
5927.26
1250.64
142.497
1217.29
2853.83
2283.34
2573.99
2401.62
1024.53
6797.52
2113.43
506.438
3413.99
2498.9
3766.89
4985.95
1117.5
2462.49
2974.99
2784.44
950.463
478.953
7576.32
1730.18
1551.62
4313.38
2910.58
4391.23
1005.18
755.329
577.513
2221.65
993.478
1927.23
804.986
1402.5
2559.98
5479.88
1414.47
2681.58
1469.55
3612.57
2968.67
521.62
1570.49
5332.84
8461.56
2347.4
784.063
2714.17
2179.07
1525.58
3686.13
2632.79
2775.53
1442.67
1662.99
657.116
878.698
1935.8
858.963
4761.78
1494.29
724.777
3955.31
1310.41
3725
945.007
1290.09
2758.57
3102.37
1209.09
1630.15
1513.02
1986.65
992.545
7653.51
1351.01
1240.47
1847.91
5277.75
2606.33
1111.83
620.062
1108.96
2301.11
1431.47
1015.61
1730.95
1689.7
2701.36
6246.78
2235.89
2530.01
5072.42
1173.27
1728.11
1655.9
407.814
3469.52
1175.73
925.299
3143.89
2893.26
4504.52
243.653
959.611
1481.75
2783.32
2711.55
1513.01
4667.21
1873.63
1801.1
2031.17
1101.43
2570.08
620.595
1128.04
4341.12
8869.74
2115.44
1017.04
662.836
1824.22
582.719
2361.76
8715.42
708.034
7731.01
4938.67
2179.4
634.042
989.237
677.917
4075.81
948.879
4770.64
783.393
2459.35
1708.76
2523.81
1514.55
1962.86
5611.46
626.217
568.885
2130.62
1235.58
1905.84
1121.18
1385.13
2609.48
682.71
2263.12
1875.33
6296.97
1506.12
1846.71
1779.39
1268.82
2072.91
2770.01
3776.28
2556.56
885.942
6172.01
2861.84
1878.36
3137.11
1044.74
2038.34
1562.57
1244.24
869.687
2651.77
3703.6
926.319
3575.44
695.63
1192.17
2010.98
726.073
2120.64
1934.12
3774.44
1547.71
2654.11
5186.42
1719.57
3524.86
718.228
1852.14
2446.4
2466.46
1842.92
1059.8
523.88
956.638
4750.07
3901.39
3114.47
3715.71
3617.08
1310.15
1640.24
1635.49
1188.05
2984.05
672.406
1455.05
1519.12
2112.78
799.806
441.962
2087.71
1091.47
3687.96
2122.06
480.56
836.015
281.38
1647.85
3524.41
1040.57
378.951
1376.33
1193.86
6223.77
894.62
1428.76
4045.66
883.807
839.707
3582.15
1915.05
1870.01
3102.03
4910.98
4496.45
2724.01
1080.95
4648.37
583.939
1521.37
1407.52
4139.66
4429.14
1359.04
1482.4
9939.59
2176.99
2205.86
1208.33
1157.23
226.979
1611.33
539.844
1594.89
1823.4
1545.32
1366.48
1464.17
1605.28
770.772
994.924
1274.61
1021.26
725.223
4253.14
1379.53
1081.45
4214.87
2377.07
1673.54
5223.57
2028.8
2654.13
3505.86
2207.53
3558.59
1935.45
1927.95
553.845
1042.35
1025.73
541.808
2783.06
4570.38
2791.61
2629.03
7506.08
972.256
2519.53
1098.75
1077.04
2848.27
1546.48
2093.18
1315.02
1905.07
2315
1969.35
900.293
1064.74
3401.68
1961.82
1340.05
1152.26
653.253
2014.76
2436.12
1020.81
803.312
1336.1
485.59
3509.38
1007.1
1593.21
1267.89
1734.96
4026.84
822.656
737.469
2553.82
2253.88
4419.65
1504.29
1823.48
997.098
10575.9
3799.4
886.835
1022.72
1061.89
467.715
2892.43
2570.73
267.726
2644.76
1673.7
1516.14
2574.93
2232.49
1774.61
1083.99
572.115
3592.65
1671.15
823.061
652.794
2014.32
589.194
1400.13
2094.22
935.764
6372.08
2574.62
6150.1
2057.85
6145.37
629.699
597.676
1421.48
3204.59
1097.72
1779.66
3099.56
4557.8
1291.62
2167.3
3562.74
3992.4
1020.45
1869.35
1996.03
3072.09
942.828
4576.13
4006.04
1873.38
2677.81
496.489
1450.86
2211.2
4933.22
3950.19
3642.95
4769.49
2749.01
1034.04
2690.34
4362.83
1137.65
1769.32
2887.85
2741.85
3143.64
589.603
3827.79
4933.24
2044.05
3916.65
1636.83
2298.58
2093.38
3733.65
2444.84
657.808
6523.33
440.267
3883.69
2841.87
1384.7
1323.31
7105.91
3004.19
2718.05
238.166
2042.24
675.294
1844.97
2186.99
1221.96
989.169
2198.87
1369.74
4231.92
612.982
6997.8
1605.27
4891.35
2323.63
2100.73
347.155
1122.32
634.879
2710.24
3405.76
2711.57
3225.37
2450.8
4931.69
2761.7
1691.77
8027.76
3642.15
1606.18
1869.05
2611.57
7674.57
1071.17
1720.95
1610.14
583.466
2660.45
3843.62
954.439
1067.09
5125.05
1214.58
1730.36
2509.09
253.119
1397.03
1285.35
873.287
3725.85
2911.75
805.279
2224.44
1139.91
316.399
937.266
2326.13
397.243
695.662
5139.38
4412.31
1314.84
1412.72
2452.75
1519.93
4610.75
1118.56
