1991.9
-359.889
-1383.99
5481.67
-851.282
101.915
48.8507
1085.72
3148.39
-270.604
-553.145
-484.313
1977.08
-1208.92
-386.234
1415.14
811.337
-385.421
532.35
1429.6
-178.736
1154.84
1126.5
-13.9229
504.257
-845.067
1060.88
-1628.41
-158.439
-414.743
-247.14
205.447
-717.67
204.393
-681.333
-663.764
-607.957
-809.038
-722.107
191.523
44.1796
1091.69
267.118
-824.641
-405.306
6980.34
100.067
2513.16
941.428
-1080.47
82.5704
-17.9387
95.3513
254.676
197.054
1192.25
1735.87
962.001
113.152
-942.694
1068.32
27.338
3550.59
10.9212
-288.518
943.489
-0.439035
1139.2
672.016
2626.8
-565.217
383.116
-853.387
2767.73
-197.458
-646.576
2362.29
11.0203
3537.75
-88.8168
105.088
-343.186
-3839.08
8.23722
-129.315
-750.905
-455.571
154.057
-346.274
-1372
2420.65
3024.75
2125.44
3236.47
175.499
373.008
2083.62
-177.23
1156.23
194.793
-737.433
2082.8
982.245
-1625.42
3183.47
2003.22
-443.019
-947.016
805.834
714.291
-800.76
-515.047
45.8933
-720.676
1361.67
-81.917
-124.347
-0.454344
-268.468
294.414
-708.206
1503.11
-845.368
19.007
2153.19
7074.91
2429.35
624.722
-2582.54
-429.884
387.515
-1180.41
-861.021
-1181.31
101.361
523.115
3420.73
-163.054
-858.901
1326.47
-98.4382
1298.12
-1224.71
-2579.9
-1159.91
108.657
1312.26
-172.952
-523.255
-1959.03
99.0823
117.459
-184.879
230.676
145.437
52.227
2317.84
252.763
-2474.15
373.704
879.937
3865.98
37.9547
1237.38
587.304
-231.97
338.349
-1034.9
-509.833
2974.78
-1593.04
1092.21
142.2
105.792
15.4955
1090.15
582.122
-82.0579
-443.423
778.107
-398.048
5542.41
1076.01
-162.499
408.077
307.751
3489.69
614.238
3671.97
43.5059
529.837
-390.023
325.283
1367.86
937.726
1044
1665.4
1336.84
-481.157
-782.784
1609.44
416.236
834.681
1233.31
-528.184
-768.303
-212.671
-115.349
-1279.03
472.68
121.7
-1023.75
-3369.44
-504.496
573.286
-1112.48
3984.96
1400.35
2123.35
-498.294
2305.88
1284.74
34.3507
293.306
486.624
-316.216
254.045
-2144.15
-11.335
34.3316
613.437
-622.532
-318.597
-64.5422
3930.75
209.105
840.356
-54.1698
200.858
893.224
303.447
-178.669
-300.706
404.161
240.133
780.468
129.255
1209.07
155.025
-26.1284
-1620.3
86.0617
1408.29
2110.72
90.8134
-1165.42
1549.82
-306.007
-1663.37
94.4056
207.142
-822.048
-1694.91
-738.576
4847.51
-1345.99
-628.357
-723.773
195.469
321.284
1341.67
-1390.77
-112.403
429.851
-165.866
2058.82
-12.3566
106.213
67.1028
-304.939
189.004
221.141
327.354
-281.89
-125.829
3652.16
-59.9537
426.922
735.605
173.812
-1109.28
808.763
-354.918
-399.865
-4576.2
1215.67
-307.661
1163.16
744.979
140.335
1783.45
188.952
131.003
-612.897
1647.13
-485.634
-87.558
698.936
177.853
-16.2431
586.941
250.266
1166.38
-628.733
-3522.1
2725.52
57.7238
-788.823
497.94
-1522.78
637.126
5978.15
-575.647
-178.448
-236.697
-284.739
-394.056
-93.2112
3710.53
-283.664
-271.525
237.13
396.771
371.225
-555.951
2739.12
3878.3
-1027.83
-191.298
-209.44
-467.404
-106.751
2029.17
-158.521
1939.58
1104.89
-675.031
607.963
-1470.58
-129.341
623.862
32.0347
-197.735
1188.03
698.032
539.941
-1150.84
-474.595
-847.795
2089.33
-256.727
788.579
302.253
2053.77
-438.052
1049.83
-1076.72
3806.52
926.066
772.398
785.748
-81.4918
425.762
3098.16
2473.45
286.725
-464.274
-27.8101
5491.04
-2094.89
145.682
712.185
5433.51
1587.94
-713.207
-151.354
1119.87
344.055
-625.21
535.901
854.969
843.192
-350.924
-596.525
-1367.87
-871.787
-631.783
469.058
984.601
-118.6
624.011
2565.97
147.862
-232.847
602.952
274.986
-7.09382
-1068.62
-1113.71
-227.592
866.728
98.2061
-61.7058
416.91
143.42
-17.4744
-1089.56
-1742.11
690.141
-145.841
60.6987
4435.4
-698.058
8250.6
3230.13
-2347.97
2492.53
65.8382
200.792
613.017
22.6342
-1469.86
272.789
1987.71
1030.66
254.456
547.041
699.807
-372.319
1026.67
-420.126
-147.814
-1591.48
-228.514
1708.33
-125.184
1978.47
787.731
11.0371
-276.262
-1602.55
-452.746
-682.974
1299.91
161.186
-74.1499
-827.57
-304.027
1165.41
-467.715
-365.051
2292.32
82.908
150.527
-368.991
-1604.02
591.222
430.784
719.957
449.789
-170.723
4.45097
627.056
1997.72
1040.25
1705.78
346.532
553.772
-621.737
-1407.16
430.114
-271.417
-1523.95
828.202
2269.19
535.727
67.3621
-758.575
78.5459
-2070.5
730.185
191.447
3294.91
786.486
434.036
935.122
60.5884
-19.977
-928.379
1509.1
456.9
2171.56
-250.029
188.148
-489.16
-885.888
-251.947
-493.712
194.553
1426.1
1589.54
-579.866
198.726
-1277.44
-1624.56
-4134.47
775.357
31.9996
697.892
1229.55
-441.319
-1030.38
17.7651
350.863
6639.27
1137.67
-199.341
2570.94
1515.32
2424.65
3471.67
210.538
1006.46
2165.8
-167.307
370.6
86.7127
6735.98
-1280.77
991.978
1118.11
1714.74
2926.61
-84.5985
337.58
20.5062
1234
95.1715
-801.053
1.17452
834.903
1350.59
4801.87
580.054
1079.94
573.245
847.134
-925.29
-211.416
1188.64
3618.68
5126.97
1082.03
-252.663
-1065.4
237.026
-153.136
257.52
-140.868
190.046
-545.532
-22.204
183.482
-221.32
-928.957
234.952
3045.89
1179.63
-95.408
2439.07
370.642
1900.71
-604.595
913.754
-2096.15
105.438
706.804
-847.922
-891.523
253.661
-585.104
3752.98
-141.736
422.847
-791.598
4000.35
-929.572
-382.61
-148.839
439.682
1674.5
240.691
436.434
816.685
607.802
-1670.9
4117.6
736.13
1434.76
2525.02
187.449
-1094.8
918.934
117.248
2473.21
-482.866
-106.213
-1281.53
2101.59
991.656
-88.3326
-255.547
886.384
863.72
12.4145
106.967
-2618.9
51.3281
-670.023
226.878
378.63
1976.07
-12.3833
-863.047
3386.58
6556.44
2050.12
142.618
113.153
-578.786
-240.996
-1195.83
4930.87
-118.499
3015.37
3554.38
-912.059
-233.66
212.179
51.1649
2945.1
-110.186
1590.63
188.104
73.2382
1394.75
1579.43
157.433
131.172
2600.61
82.4987
121.662
591.364
166.702
1482.09
-768.865
-726.536
-1140.86
-209.235
-28.6209
522.767
5537.53
-80.1439
1579.83
-160.987
-990.775
1706.33
200.755
-1458.27
-1350.28
442.487
4198.87
2035.44
742.683
-1127.23
-225.45
-1373.81
882.841
-638.424
-481.233
-1622.47
1619.64
-138.561
1322.8
-237.301
-193.02
-301.755
181.325
-180.341
1369.58
2682.57
745.109
350.378
-1463.92
-267.577
-2507.55
314.724
71.8355
6.17884
439.434
207.408
296.828
-19.7477
216.127
516.061
2800.39
-1022.75
-912.429
891.986
-219.079
658.221
754.898
-170.02
1502.15
-322.635
719.366
599.713
1328.59
127.089
-131.762
879.506
-64.2906
1402.34
1846.08
-99.3984
273.476
-44.6942
-626.37
-762.581
826.477
17.8473
1033.05
-368.429
5778.25
758.768
-915.602
-1722.43
-264.166
289.163
2090.95
862.798
474.262
1414.42
4815.25
137.958
-2032.5
-280.697
4042.65
47.9412
-971.166
-878.965
3762.27
211.401
-723.632
979.216
4429.44
2056.25
1332.81
-431.105
-392.496
80.5914
929.801
-39.4733
495.416
-449.556
249.098
422.541
-1089.99
-131.77
-73.1861
-756.773
301.33
-578.72
590.215
-352.01
-105.613
711.815
2519.89
516.352
-328.214
1756.43
-869.214
-1587.91
2410.97
-47.9347
1821.03
-822.213
-413.516
47.1879
-182.651
-17.8927
-103.359
117.158
901.133
27.0454
-71.5181
5234.31
-512.363
1398.13
-198.193
-668.84
818.481
-297.416
780.811
-92.8914
-816.925
-1735.65
1081.1
67.8449
89.252
876.993
1305.79
-280.67
-21.7934
-130.083
-520.208
-1448.41
527.762
279.943
721.82
-363.64
719.047
-320.444
214.159
-271.467
-154.208
-509.609
675.852
-511.052
-136.112
1532.12
4261.09
-650.618
-138.432
-448.212
7049.22
2375.03
-56.7146
49.5535
-469.21
352.972
248.982
1970.43
105.405
1790.91
536.437
-143.261
1372.96
-922.24
-610.326
-669.913
-239.788
2485.8
-86.5836
155.237
-67.7313
1216.37
-150.642
1004.78
1240.1
-77.6066
5785.73
-746.471
3579.99
-1299.01
2948.51
174.035
456.402
865.75
-76.3688
-207.217
624.917
2435.29
821.425
-27.4278
368.818
-1081.15
-471.263
-742.533
1264.75
1633.35
1783.24
528.612
3570.54
-2816.22
1067.67
-257.441
-100.005
1038.91
203.975
1740.15
2961.72
-555.033
4204.7
1632.37
-548.392
1810.01
2766.51
-715.115
1554.89
-1468.85
821.799
-1426.61
-84.1589
3007.16
524.702
-1071.02
-2406.75
804.185
1373.23
-36.4885
-1364.02
-256.677
-106.4
-4112.19
338.196
-815.801
1488.85
843.407
989.049
2867.69
-37.8138
1834.83
-39.3538
-487.828
-104.398
1214.85
-558.136
-306.304
500.697
638.726
790.657
-1726.65
-283.242
4544.84
-432.486
3067.56
-1255.47
1733.26
74.6464
-448.907
-157.574
-1228.15
3118.33
738.793
2427.83
-1274.43
1397.79
-1776.24
-541.793
5658.07
1651.39
-847.404
1508.69
-306.601
3887.02
-62.5713
550.475
1391.14
42.3273
895.571
435.452
-383.853
425.64
2526.35
-59.597
-336.585
898.796
43.9619
745.421
482.668
-121.801
-1908.67
59.5563
461.255
1671.1
894.485
25.4489
447.667
-1249.96
44.8927
22.4588
327.21
1984.97
334.229
-280.89
1671.25
-407.546
1906.43
70.7316
