3956794.41209
3419003.86972
1965102.35096
3317307.74811
2261743.75087
2582961.56584
1664786.64362
2291230.96229
3017318.751
1423873.39634
1392359.54634
1795361.14584
1948406.43312
3089783.22118
3728024.56702
2636714.15211
3389960.25233
2643021.84489
2203227.22604
2176502.7679
2191609.15217
1948599.15771
2431429.77773
2564982.23139
2821801.84906
1527282.11427
4104843.00333
1492383.13511
1791409.25231
2278606.10428
1066556.68892
2074099.89324
2406895.96125
2664918.55844
3496333.81928
1365029.40438
2795006.61514
3094801.5626
3036097.87312
1647363.52139
4931194.86016
1254350.04978
2102059.74285
2255028.44007
2703056.23703
2793810.84454
2488006.49877
1553564.32715
3311932.97241
1702794.93104
3621736.62038
3304320.96881
2782638.08043
2939570.93003
2682293.32479
4739755.91817
2963502.05315
2301665.21481
1541682.45193
3399732.16072
2501395.07729
2019446.0992
1363852.0719
4227662.08528
2025842.22287
5125924.09368
1920354.25988
3181182.82793
2379780.13907
2210227.8492
3873947.25873
2178628.88981
2341759.38427
3879421.96551
2656394.58222
2252343.4265
2112242.32317
3461459.39264
1272620.23606
2527093.40827
3132354.11417
3837768.66487
4102172.48159
2985942.93386
5461589.8989
2082563.2875
3866349.21755
1810624.42546
3891342.08706
3210067.64382
2698109.15888
3440891.67926
3317833.41587
2877327.87527
2047835.53321
3026277.57653
3838889.42181
1701401.22431
2976398.11879
2464974.17017
2323721.6937
2948014.5553
1674472.95819
2138023.69102
2977022.31971
1893725.22451
2381151.8346
2158090.50468
3356412.30176
4630537.52435
1716067.8479
3038873.73538
3710510.62692
1591231.62643
1674417.44968
2651024.30153
3631330.48761
1261023.11975
4071917.06382
2483038.98505
1399554.38124
2367554.95124
2213373.7257
2667987.00648
3916558.12124
1465325.60462
2608330.16664
4677078.40532
2862437.84916
2728080.89721
3973502.47804
2019513.97105
3667150.30206
2251725.46037
1196514.11038
1510771.6144
1280882.91774
1922747.38412
2887508.55613
2264135.48398
3231598.48081
3108812.83275
2192890.44135
2791146.05205
3830039.86895
1625813.12981
1978383.72723
2402794.30154
3784598.31637
1680049.22443
3045697.26112
2300735.96306
3739447.33845
2434130.71764
1214656.036
5845989.68239
1946906.69679
1690335.93528
2328775.33018
1863053.77708
3114297.01081
2674651.92271
1442954.17049
1643708.17538
1547857.9913
1427937.14073
3232866.99481
2063092.49238
2913806.76847
1997724.1762
2895309.06814
1473617.43841
1912949.55765
3381257.96022
2453796.2788
4103043.74206
2042349.65202
1785757.61207
1782445.27241
2161551.8893
1205683.05114
2261441.95292
2229115.33045
2082993.1908
2304438.78213
3351767.13493
2918278.1427
1472541.73588
1656782.58276
2315879.23808
1750143.50729
1948573.16562
2157517.10646
1412709.6565
3462587.06547
2639850.90474
1653045.6899
1978591.43186
3955066.23697
2143022.60373
1326991.74623
2358640.63484
1107352.1497
1856674.03505
2771356.56315
1665338.05879
1974215.47304
5380271.09916
4255971.73619
3081436.29573
1532224.96849
1363011.56371
2547530.91766
2042497.40448
2197269.58278
2457565.27976
2062472.77753
1239189.76442
1356178.73389
3115830.93577
2201019.04076
3296712.7368
1856807.52073
1807655.77729
2401714.10679
1681255.25629
4371842.64742
1676838.43263
2114784.02569
1731807.07685
3731913.05067
3695903.25734
1404822.52281
1828613.66983
2996836.70748
3718819.26947
2140455.39998
1267332.54554
2063983.77555
1770573.64657
2067244.89314
2658459.6946
3222261.52654
3824924.89057
3408330.09315
3311314.63704
1650041.04347
2914516.68717
3652490.1548
2736778.0363
961106.85595
2290836.73712
2950749.05645
1072906.6054
1324897.40751
2631209.75742
1699472.06061
2735838.95254
2775122.44129
2488065.70461
1569956.41849
3286355.2434
2008772.32424
3464602.89998
1754700.56285
3033541.13333
2891376.85367
4126318.45202
2187600.90696
1296530.58758
1551758.30559
1891355.68412
2121829.96067
1520508.70509
3968586.8123
2898042.59464
2181736.2277
2074486.74363
2917784.41152
1692071.31708
3062372.33442
2363593.31227
2533212.94783
3969771.27263
1644496.76544
3148583.72225
3607597.9377
2124016.07636
4441577.06071
2083797.77902
1715091.73715
1298996.1733
2205771.5632
3291118.84449
2281563.50749
5808547.78136
3997057.63349
2595798.2984
2439418.25126
3093363.9872
2006359.9499
1937567.79056
1802033.99404
1189941.63029
4896197.25477
1593554.40184
1457785.78372
2014123.75154
4122677.10277
2743954.20477
1744329.08056
1655896.45735
1716281.69447
3182402.98236
1626281.37498
3132768.7579
2167100.80748
2621901.87129
3724986.10986
1805249.43497
3164464.88601
2184262.51614
2775226.83435
1991431.88307
2807358.41058
2190984.80789
2909505.41445
3151512.60726
2793732.76899
2262642.73118
2206761.32692
4483021.45271
2237435.59093
2358405.78784
3643271.57896
2585632.64254
3512394.29517
1787278.59568
1619256.60367
2546244.12962
3359440.73532
2966579.52283
2243957.98522
2497190.75166
1591460.0668
1515125.63083
2650691.79917
2185453.99419
1798363.55091
3313404.29006
1562995.37216
1681168.6749
1807553.09762
4813773.11372
3046881.77617
770615.059489
2223017.93898
2366083.17498
3145179.79671
2290068.10766
2901247.10311
2061632.65292
2819639.21893
1782921.20687
3538560.02444
1947842.90424
4142144.78595
3096580.80885
1979770.73998
2696727.70744
1321040.59806
3016744.28085
3121423.03144
3232896.64791
3979138.19667
2087358.79761
2404095.03203
1816502.58408
1413969.39542
4632733.07424
2167372.65099
2541832.67428
1646382.00356
2422160.46155
3301878.13807
1957300.08554
1751694.23046
1514248.06155
1066225.10631
2187300.30292
4082025.71524
2448611.42909
2096859.67805
2415853.13162
5472152.02317
2406810.61441
2483883.74735
2214394.2679
3047808.27203
1731950.89642
1929937.77608
2496717.40292
2214787.31025
4143608.51612
2538515.10757
2615844.27246
2045681.19539
2534787.9569
2068768.85355
1498138.5466
1669306.09062
2927134.45558
1747157.61511
1654364.06586
1692366.86159
2371465.2551
2234237.14059
1750106.69074
3422167.38827
3294024.30644
1898072.31801
2995943.46442
1449192.38996
2862632.31484
3180020.26356
1326931.10231
2676774.42696
2013584.266
1141035.20754
2584453.53985
3282604.67567
1990391.66863
1761091.56659
3995525.36163
1455722.85331
1639187.70878
3435956.64952
2498709.68645
3194604.85335
1854697.56414
4252660.73285
2170954.15362
2471750.44018
2900822.089
2344322.74044
1602137.58621
2387631.93043
3624035.52863
1827499.58192
3851880.69988
2847967.3624
2193639.21403
3197924.7919
3334165.21565
1263964.16383
5115845.75622
1988942.06644
2362479.81299
2260302.23828
2284418.05434
2725551.84117
1455151.83821
2074926.41289
2397459.79046
2817651.33642
2446566.30635
1497299.62637
1934350.28633
2028403.58892
3867260.92223
1749934.50551
2169221.39498
3044702.8403
2289640.83568
2187744.28831
2191240.0831
2873340.69706
1825515.37333
1710349.47336
4202788.93389
874359.585799
2710358.65168
2040911.29844
2707653.89833
4108139.79572
3728596.66774
2586105.79917
1434493.32453
2025786.44742
2080228.41469
2816164.2843
1295889.44072
1210838.61168
2816593.40417
2580085.26919
2179932.35049
1497667.53393
1884351.32908
3522724.2695
4092646.07854
2134425.36472
3279062.38447
2449637.59211
5204055.03691
2157232.8602
2634137.95588
3362027.55114
4690665.0967
2060886.65906
3704741.5115
2990998.33849
2304723.30411
3128352.88115
3426501.82164
2786455.57036
3003740.39716
1981631.25933
2660624.8097
2906162.89717
3466169.55468
2068250.35529
1066197.15193
1567608.36388
4428639.07557
2508149.96623
2854125.44165
3309553.10352
4146743.99441
1264560.00774
3462811.59105
1784941.70856
5648311.35462
1944166.72772
2318203.22875
1814216.50036
3369226.30251
1538389.88036
3183931.91377
1506717.24051
1877334.96636
2717680.18763
2571577.40758
2447265.073
4113348.89259
2350901.05376
1413290.47424
1184285.12178
1950452.73975
1437445.17241
1447791.86453
2429216.06821
2074151.06286
3960682.00096
2488901.10689
1744073.50316
1515768.27874
2243506.73169
1711269.87
2008871.41242
2900717.10178
3298803.33443
2142553.90684
2728391.94365
1777980.80772
1746799.53489
3172885.25803
1444871.19475
2432099.46252
3441915.5665
1611314.11524
2191064.63949
3334955.19772
3253880.21793
1446844.15885
2979127.06663
1714558.82534
1712163.76102
1483480.8486
3131938.92038
3029923.69557
3094367.77662
2931693.07893
3063098.58388
3794838.70239
2210080.75608
2220813.73261
1886939.83269
1373439.93456
1835071.83926
2562656.28591
3952880.51149
1755318.82435
2731099.30039
3152258.29233
3944232.52422
2772548.029
3155832.93616
2489065.68926
1956065.02101
2701669.41182
2367908.54701
2371193.16796
2637327.48108
1854449.04
2151061.21925
1289945.45979
3104522.37413
1897176.6131
2951348.70761
3903589.42103
2190712.44782
4135191.11799
1233586.89797
1071494.0582
1573744.49208
2677175.47113
2607987.65167
3310464.40404
2474967.34179
3425705.03469
1616357.61448
1993442.23713
2475487.16013
3981967.49021
1936211.73519
2085951.90016
2459013.60681
2214446.48621
2313147.58271
3199085.06297
3230791.62944
2179343.19944
2620045.37732
2332196.27164
1816409.57838
3042196.67321
2411007.26779
3002041.08784
2665303.94661
3418487.21455
1965279.79726
4245448.65283
1684689.01247
1455750.30561
2118128.94669
1794079.09465
2487746.06238
2477126.58612
2049178.10208
2747039.7506
4038123.71238
2078757.76409
1759973.9105
2144565.53876
2240990.60606
1468901.10896
3389034.64313
2631463.89099
3424295.20331
2810049.77566
3704490.21279
2111939.04781
1642798.08323
1955533.13046
4353658.09441
2301638.49023
1415148.71381
3438754.96296
5034175.20442
1720430.22012
2468660.49122
1599644.95762
1619124.13468
3479873.37284
2056839.97801
3190234.49111
2826048.35957
1754319.53968
2585674.66263
984688.30682
1144347.13219
6248968.00769
2080065.74188
2007118.02542
1823224.41436
3223024.04604
1871423.92742
3161815.04342
1574042.47388
2313522.8196
2300787.27656
1241181.85023
2146897.26768
2919244.37868
3620011.59012
2116975.56357
1677093.85341
2440431.03051
2257939.6072
3201542.47726
4958957.9865
2543021.02312
2417145.49498
4642994.78942
1760733.60801
2346636.45069
1971620.39673
2909920.24757
1828376.60777
4375316.46502
1768911.48165
3002399.78523
2492840.36707
2383429.40337
2419131.62239
3272762.62487
2149005.57445
4326080.74665
2473252.05465
2383522.91196
2601064.25319
3821575.2221
2071112.93126
2139186.46072
2242714.64072
1992768.2729
1671772.46836
3392378.76982
4387560.73689
3233173.59034
2092308.01749
2754243.56662
2320972.12519
2816650.53276
1336072.6249
2088778.45263
2956515.19356
2691697.05167
1321342.81401
3222220.50752
5370893.45784
2925922.56423
2771789.53965
1738925.10346
3060963.37561
3518719.56826
3017189.52383
3169800.3743
3100621.77647
3243740.33929
3946640.04874
3017894.35193
1915802.72494
3549595.73902
2708497.79954
2962993.22284
2407498.49577
2286723.07896
1182170.44183
2552659.10813
2683570.10995
2283733.14515
2203986.78475
2285072.8202
3975652.63046
2047967.25992
3327799.71255
3387114.16426
2645564.44247
2486120.27593
1811594.45745
3011736.35011
3547840.19269
2002467.63398
2196485.96778
1754787.57864
1856224.26678
2977392.90519
2595803.40701
3198710.92227
1986205.88966
3459219.94758
2066233.29133
2889272.03972
2732662.2366
4415950.33348
1579295.45051
2320600.01421
2167509.92299
1672129.42574
3780381.47774
2494572.0472
2025531.71765
2323478.06677
4069065.76185
2396353.19393
1766787.45818
3537936.29875
3921222.7708
1328940.79754
2203784.76653
4365016.49036
2590185.8402
4928935.59608
4217709.32035
2582128.58374
3369068.90731
2088732.61549
2330331.49047
1885354.233
3251794.601
1891112.60213
3300790.54032
2069930.22041
2880554.45145
2476216.59564
2212597.76863
1998631.74311
3649536.78443
2120249.24635
2232290.87883
1470539.19219
1784899.53374
3879491.08199
2019369.8675
2416127.05468
2668574.73528
1444315.23643
2196528.44729
2613009.88597
3209801.17444
2610475.352
5561937.49518
5415291.79638
3049949.15296
2761042.35701
2724620.57148
1910952.65032
3333298.82499
2193239.75623
2277326.46432
3368864.44776
3245071.78635
3659815.76612
2171716.68919
2999182.04684
2650892.52726
2918083.69947
1444437.4039
2567547.7713
2573451.53866
3667241.29953
3034765.7689
2785292.76577
4685541.16671
1987239.86001
2177606.25381
1631609.55689
2485615.94093
1714338.89919
1243963.39121
2541141.81247
1887388.50098
2414164.59354
1967521.58234
1835925.16617
1980067.46803
2199186.94499
2700155.5802
2323206.97591
2465317.6337
1206337.1724
2278592.41045
1418972.95792
3248908.53865
2098713.08844
2172762.51428
3124528.4265
2043563.04314
2327945.27227
1840682.39285
3654511.39524
1343198.16052
2786834.82268
2132429.2544
1275264.70991
2381205.83982
1798577.83039
3628469.78844
2369309.42932
1851263.77089
1171673.42274
2018863.95959
2448684.99126
1770522.91582
3339182.0837
2184328.77201
3223116.3595
1984883.14722
2581256.92963
4392932.80447
2996962.77782
2559533.74567
3076454.17897
1119729.60009
2595517.09242
1975738.88543
1779988.66987
2430608.97599
1961641.13025
1572974.38239
3005365.8694
1754122.31978
2813740.75302
2694186.58151
2644176.93218
1622189.18154
2339995.4636
2462228.22714
1290652.67436
