2674751.4255
2424554.42092
2345732.06495
1523850.82059
3093118.21313
1353642.16451
1043785.26466
1769226.06208
2356949.03697
3374708.69252
2029666.94646
1966670.11171
3597430.67858
2098262.26861
2333702.53913
1866216.5096
4246954.34688
1526798.20397
2913247.47599
3927161.50849
1964753.99966
1698384.41537
1670433.92565
2400106.44488
2362025.61796
2347341.23413
2450955.53117
2777994.99162
2462505.02123
2163051.71603
1857488.81501
1783598.73965
2568454.25147
2090125.68718
2076081.60104
2085873.68468
1839978.03092
3127200.53886
2567879.42299
2337091.82019
3223877.53736
1413090.21297
2837242.89523
2027742.85726
3018037.34507
6553772.90103
2487544.11633
1795857.28917
1627458.49827
2874304.47992
2392415.26657
2529153.24729
1675651.5288
3038659.59687
3750849.6423
3870527.65203
2709426.19692
1359406.01651
2118719.14372
1559857.68
3954920.40403
2655009.58628
2400255.8118
1440662.02362
1652514.17644
3352274.58554
4045238.02239
2660546.4177
2695231.16915
3604370.46092
2739301.4663
2248699.50469
1439931.41336
3777799.80497
2154234.26716
1701459.50595
3001893.58596
3251815.14952
1132225.26748
5328792.29661
2637157.83954
3749413.04675
1862545.49963
991058.934184
2216029.3885
2397490.77536
2637816.69562
2435872.56819
3525958.54441
4781120.63712
1981986.80883
1762910.53148
2857973.88829
2086291.32581
2529642.44106
3533429.48052
2680396.04806
4954445.28501
2376026.50244
3603689.24848
2656380.60412
2099903.06685
1472586.25448
2292252.30219
1607595.84343
1736899.51235
1827628.80338
1912209.59084
2696622.85592
1470536.34096
3896971.86378
1568934.37503
1730561.8954
2690560.13604
4306751.58624
1572532.00931
1864938.19702
3237595.10013
2123239.21165
2015230.19265
2265337.77438
1952407.08589
2722021.90634
1786087.72442
3125219.57886
2675765.28729
2981078.62979
1978132.06131
2440589.4293
2809075.6489
3617317.13122
2886531.25551
3155107.84281
2063461.95374
4190398.87756
2548236.18936
1754258.12877
1554952.31603
2875062.09045
1399693.27188
2101552.82306
692793.843983
1791238.2629
1771465.02758
2908511.21782
2343240.06257
3234880.1485
2548129.83328
2826262.5789
1761583.61823
2584913.44165
2248615.11912
2172951.83193
3653493.03233
1606130.46259
1742862.67454
2144142.14918
2317786.18569
3448597.24676
1516875.41939
2548559.51662
2968450.98173
4201045.95425
2589797.95185
2657704.67156
1261153.86215
2163041.88467
2793745.74694
2793021.23146
2252071.15426
3396722.38552
3586058.35978
2318516.00806
2177646.12369
2132315.38355
1763244.09549
2241458.82128
2174874.34536
3146340.92134
3122072.5809
2167601.72621
2533058.70707
2009016.94178
2598881.92889
2009164.56891
2801076.16924
1981681.41402
2783833.4177
2614539.48923
3399059.09142
3496728.60987
1211836.66867
2055891.39536
2477037.79534
2326032.78172
5122593.21773
2626365.99552
1617292.85486
2444135.2083
4341835.7526
2197270.51116
914741.807766
2601599.31177
3278322.37866
3775551.31623
1940250.65876
2664475.01852
3035432.61662
2372541.05127
1956027.68519
3450569.88963
1588213.63487
2254786.67507
1985428.2909
3560541.49555
2984018.01362
2889718.78999
3221655.43282
4512460.26641
1424232.22987
3902001.88812
2787973.88402
1492255.0188
1635357.24432
4195214.5054
3199797.6021
3050289.63781
1333339.00137
3693826.38394
1813904.50565
4152069.90561
1347976.81684
2684533.60292
1364937.34507
2485506.85328
4107616.44855
2850623.86995
2497415.39302
2427093.86624
2933651.0527
1386609.08751
5155811.07036
2453831.93823
2252754.82679
2699171.73859
2653654.63134
2043239.3935
2404539.51936
2092098.40463
2129617.34259
1813207.93669
2477106.33465
2593936.30252
2722843.47695
925271.967948
2225987.62909
2680531.87765
1546544.45071
3225295.50121
2295080.94906
2997610.73123
1129852.99506
3277568.65965
2134636.68812
2009327.42605
4069166.88787
2887821.5057
3258114.70256
2677223.32558
1995851.65965
3266633.50497
1771712.67619
1683833.36221
2177376.74114
2038017.3035
3578472.5146
3942431.17535
1952055.23099
2616919.56528
4064317.70684
1461594.78336
1424169.51088
2768807.63619
2455011.89376
1723178.30357
2255102.60412
1972329.68477
2331374.81984
1488961.92094
2545430.18551
1844539.88148
1090808.31047
2663428.65843
2499590.30358
5174942.34989
2927033.83521
3052719.77728
2395753.15028
2526339.62165
2670207.63301
1992330.6861
978461.78677
2650825.73489
2830366.49168
3071101.40657
3786995.03391
2054142.19886
3642636.57178
3079265.88654
2887872.05921
1802990.81445
4338779.30421
1198088.39733
1903488.81254
2155001.72613
3381193.82175
2413518.58556
1932906.21813
3004862.98771
892768.188137
3055198.79261
1889220.57262
2961825.6154
2153681.63884
2054295.02082
1930348.07658
4172837.42604
3736109.84593
2659579.50915
2927255.79302
2573173.74024
2634707.24036
3454554.65603
3161524.02033
2330779.50402
1913124.74037
1655736.33936
2095942.50161
1708585.41517
2467366.94698
2238733.87887
1456372.37771
1935621.22585
4090071.09553
1535227.53944
1324255.76013
3179503.8485
3631621.43057
2016424.11548
3405511.02709
3125888.07122
1966605.07159
1884754.65913
3217684.74971
1857507.19067
2764234.80248
3113945.65237
1373609.19085
3108306.08851
2351630.78683
966530.469365
2890611.70669
3626710.16963
1018786.75317
1832331.68435
1881667.66167
1546243.00697
1735299.70788
1906229.39015
1438295.8053
2136824.83235
1460890.82145
2085544.63448
2430217.38169
2482699.55839
2533376.29014
3048337.78121
1442867.23114
2468149.11627
2391578.25827
1974725.14113
3479194.09285
2943760.56629
4041040.73794
1766384.05814
2608624.69746
2735485.70465
1938929.72254
2414605.55419
1140546.55719
2030059.71962
3242767.67969
1975277.16034
954268.025453
2578342.53223
2819607.9785
3356558.60443
1966570.91921
2456423.44283
2373407.752
2582197.05518
2069274.33215
2516875.69439
2276219.07653
2860034.33573
1371976.03584
1683004.9496
3845450.8479
2723643.42511
3105852.16439
3253203.91732
996589.325575
2007201.47623
2469140.1966
1899998.64056
3392209.67932
2815822.38161
2192948.16721
2315861.95792
2733013.4659
3477908.40005
2171075.10201
3042076.69911
2570015.79305
1313051.97577
1919403.48979
1447956.51436
1558692.86257
2841218.68285
1556558.05369
2439469.22322
3562214.24275
2133770.54701
2448157.45489
2605467.38123
3729686.33423
1433636.00995
3586709.03441
1749432.50783
1590753.01125
3238505.22576
2144493.90219
3800713.7255
2029955.72772
2531527.31697
1834751.17918
3526872.17071
2094570.93766
2410069.96874
2915319.66188
2077726.27503
3252913.89286
2231067.60782
2073356.40307
4884517.45691
3076234.95465
4031154.73949
3828252.9071
2863990.01382
1981201.95028
2537639.1628
2533282.56328
1890010.77443
2881162.38673
1624454.04797
4966626.77825
2314057.13994
4447894.86596
4255421.05287
1681713.96463
1671883.23705
2017537.17098
2898671.70184
1617685.3589
2346062.34635
1913738.98186
2955005.74593
4056905.83165
3920234.4058
1699765.14786
2511037.50906
3459674.19588
2338675.04838
939834.743225
1304873.24679
2060008.12641
2810487.83204
2508370.59159
3628977.77009
4338245.38683
3767630.71955
3150923.77672
2956548.43805
2561406.86692
2477085.75685
2595042.90689
1850387.44303
4537640.03221
1878230.43476
2797561.27562
2717413.82161
1659998.7531
2118969.94757
2565938.87756
1119890.31692
2329695.82833
3640562.71395
2816835.26593
1181281.16724
2279561.08971
1080418.89266
3062677.66904
3219727.19989
2633995.36334
3372421.20725
4156800.61245
2664789.4027
2705258.60418
2242612.45641
2651472.50788
2786835.42598
3105273.02474
2836193.73693
3310378.30929
2103061.08497
4068496.77104
2752569.06387
1988189.57175
2440767.4783
2992139.95652
2137566.54019
1754863.46155
1747425.40335
1792361.34524
2064335.28395
2716203.76283
1932922.82512
1605381.78477
776474.535474
2553454.7548
3409819.14916
3154119.40108
3084835.5047
2106530.84408
2302610.13679
2804111.36764
2273263.55851
3223405.96409
1966953.54177
2318296.03716
2792156.01721
1785126.68276
2436498.40562
2434081.31987
1647291.28246
2466056.1715
2818994.29565
1898982.67681
2050205.59005
4002708.56474
3822958.39774
2055820.70514
3443685.90182
2345422.54881
2480026.39624
2916190.17614
1779682.28872
2683157.07338
2469385.21558
1442397.80913
2035233.89152
1717808.15476
8092320.45092
2052469.1433
2610853.55916
2271380.68768
1403732.05615
3478842.04139
4322409.47285
2519377.61395
2595176.19089
3238407.96531
3899479.20841
2360700.1581
2346520.0879
2101189.19465
1798432.59418
1838997.4608
4161837.46924
2090995.08506
2262420.9082
4548330.36356
1964723.08223
2741628.29907
2006804.53987
2641019.68154
2389262.65642
3879654.11973
3274876.18006
2366029.07402
2406235.88384
2780294.23002
2629672.13811
4260103.04595
4169866.12139
3809097.8322
3006797.86819
3006051.10329
1977091.04628
2102207.88662
1591328.37448
4889178.51929
3017288.40556
2607062.24801
2595215.22495
2644233.93581
1964786.64402
1876817.58333
3163111.67172
1631715.12824
2731215.22133
3833334.23906
1334000.00117
3103502.05455
3195797.42204
3466322.40397
2144145.33315
3472545.22016
3433187.6147
1551805.71559
1877534.24768
2993421.1033
2586936.22198
2148514.73142
1735372.34271
3454595.97018
1114608.34442
2058179.94911
2219233.11161
1508009.39501
2672614.95635
1277014.17882
2958575.54981
3319452.34338
3216135.68228
1210706.36983
2156636.4225
2103095.98673
3780699.27329
1894935.87002
3395937.70575
1282757.83649
2269246.65011
2954363.20033
2581171.55196
2300165.12344
4025318.39331
2188823.51654
3319072.87007
2376301.52413
2309059.5499
2713521.57775
1693886.76392
2440473.24269
2988707.15462
1584292.9178
1685943.12184
1303761.00846
1872824.71763
2009173.22459
1897116.09151
3690540.64915
1394367.15706
880677.296818
2216141.18623
1628146.30916
1228760.49865
2296649.05879
2928191.47919
1402209.59397
1648856.04542
2115245.51289
2691777.47856
1551609.94764
4283681.27763
3463102.18971
3099587.54256
2439751.63612
1848942.60003
2558995.72041
1516417.25348
4483513.98047
2590196.74613
2628579.66169
3058443.16968
2581212.21088
1568180.68271
2197697.47335
1617709.8788
1963552.76441
2554741.81306
5455068.58766
1937142.74972
2830389.52412
2888302.71892
3586498.84564
2332778.63062
6396362.59601
3098505.48546
3082332.26368
2643077.68631
1935412.63233
4207254.45481
2230214.71368
2981282.13956
4128778.77367
1659447.30432
3641600.19871
1123035.33853
3073192.61663
2047007.33282
1431814.00835
2028972.19243
2612445.79791
2538887.19621
1947429.75165
2393203.69805
2296699.51613
1280832.26507
2417956.45284
4481344.8836
2048941.78306
2099797.97722
2284122.02523
2158745.54475
1561484.78152
2275274.93256
3989535.49286
3563642.40885
2052763.55601
4280715.95763
2743982.86478
3037709.49186
3696808.07256
3821362.60883
3773379.95481
1732718.71418
2948980.26052
2517839.63996
1850819.72877
2308185.06867
4167175.85949
2721336.02714
3768437.03871
3463508.5148
3044655.18756
3501015.76072
2641418.86795
2415354.90197
2006729.81667
1478028.80437
3008674.49144
1837089.28226
1093275.38802
2211460.79942
1879894.96103
1852523.11796
1640353.54768
3771907.62966
2107950.456
2701876.86084
6485436.18254
1392943.42695
2388875.71342
1560271.81016
6061474.54405
2015039.33022
3078055.20982
2406391.80372
2242312.27559
2480162.655
3712998.90316
1327360.65771
3869522.91351
1691890.8036
3236148.6118
3374543.72487
2928042.70511
4647318.0217
2274547.29839
2220412.62868
2239137.74442
3351170.92361
1390266.85464
3963901.50435
1578837.6992
1756336.3693
3627515.55192
3564712.92434
3484307.39984
1668689.53324
2036119.74189
2743170.0417
3168191.91925
2915896.20212
2303981.96954
1241745.1577
1715465.79936
1852504.89921
3264255.90909
2818019.58731
2571756.57232
2414553.22672
3587287.82995
5010829.68761
3906817.30654
1128270.01795
2621567.43502
4117712.02953
2548304.8572
3132206.1617
3899034.34052
1473548.57089
2444816.93674
3516582.67566
1465871.014
1820565.51836
981176.389763
2662533.49829
2294153.50456
2753237.45737
2294818.00453
1822674.17016
2523270.89147
2897247.39913
1311459.83734
1997433.83493
1153700.83369
3167224.58539
2296438.07078
2622119.73607
2429979.64673
2200484.77801
2731325.10627
1028686.75771
3188099.11912
1633603.46309
1656627.3518
2811079.68651
1672657.32362
1354727.17782
1996899.49805
2103290.04764
1686159.08769
4444763.34125
2915080.50926
4011231.42156
2516626.91133
4499989.81787
2411440.55784
5787022.49072
2737627.3134
2430569.5277
2390254.22001
2029705.92114
3190007.09321
2699024.40281
1551830.8344
2081588.96262
2540635.52346
1694759.82223
3710139.56445
2691796.89388
1636063.51818
2134230.88544
1040623.45919
1863076.78859
1802572.07696
2152176.6088
2836345.08399
2540542.71546
2759531.52356
3315606.84399
3947390.93795
4361065.29224
1342651.4881
1866413.79753
1398637.26233
1253482.61346
3579652.22312
2896685.9665
1244104.43684
2310360.09954
3511407.93386
1815368.33137
2162396.25891
2008766.29676
2316053.22465
2489388.34082
2411665.60781
1608833.99514
2058924.27051
2143848.5619
1795370.29257
2800162.90552
1754054.73398
3014722.57489
2013757.88705
4111954.57885
2362234.50729
2081029.80107
1800938.55203
2527962.70242
927436.161121
2551834.23337
1789275.90294
1564072.27497
2633347.7169
2948494.9507
1648903.00435
