2455648.77882
848701.730469
2870916.25087
1720364.4604
2651770.79722
2750510.71592
1998771.99897
2614343.65223
2840840.56844
2125180.69084
1878404.33918
2107090.735
2100528.11285
1069124.42343
2067612.01907
3253327.20986
2193352.71343
1762971.82562
3713876.56291
2403971.06758
1788875.89578
3939768.73305
2368290.00127
3389244.35793
2071578.3948
3368744.46045
2483695.59629
1590838.14839
3056590.28483
2034170.36763
1990468.00602
1717753.24333
3040122.66369
2155494.20591
2043109.30212
3027015.10204
3266698.83977
2238347.94354
3068037.70277
1319775.78708
2792394.14087
3079368.44164
2506231.89262
2868457.15296
2061829.05106
2290554.47466
1897349.83356
2119600.64586
3131294.48196
2219815.22063
2050847.76237
2974439.22823
2442015.44116
1866684.20969
3154756.00424
2370007.56607
2181301.29055
3373236.44422
863862.774392
1111499.05572
2458579.96784
2142587.62593
1501971.68116
2905759.15443
1853218.06074
3606294.64824
3316632.71198
2786834.78665
1904701.77413
2578262.70242
3304265.14836
2179302.74294
1182521.92325
2343823.28821
1953884.36528
1580407.03345
1494827.24193
3669263.50796
2282305.32777
6470303.56618
3662971.14907
2961839.09452
2352165.67134
1981141.56121
2497753.17526
2280778.61634
3670848.95948
1277201.18263
5309774.40155
3558722.58526
3995707.75229
3970387.99256
2251444.17331
2722770.68279
3704207.20578
2790032.40387
3454447.44531
2959179.78935
1992213.85292
6393879.24935
1712165.0544
3092497.86117
2920223.96777
3140606.27693
1577979.9858
2401722.2433
2901224.33956
2694690.13268
2928521.60522
3078283.87149
3437120.09189
2180235.83067
2432478.39158
2411855.3772
3515448.13425
2700108.53071
2543419.84851
1732896.28339
2234601.99037
2301699.39535
1268346.73356
1484661.35294
1669476.05537
2178377.68857
3281499.82491
3924277.7762
2255582.15998
2834728.23577
1967400.35455
4102337.36626
3066272.80601
3123890.55093
2786732.20096
3305251.83933
1968127.75917
2234904.83849
2403477.56163
1752667.95946
3069820.92581
1529847.16582
3697091.78834
2860379.02744
2420065.50255
2009371.53197
3790720.11806
2460248.60947
1493402.66436
2199941.28463
1784220.97474
2334264.14814
2942423.66715
1619482.50266
1507918.08211
3057067.62517
3280871.66195
3017846.0763
921954.159622
1887562.15444
2807053.9673
1383536.47172
2066247.0335
3495698.44598
1833955.94277
1933306.79042
2024748.61369
1631523.79542
4197808.99457
3534109.95698
2183101.46939
2771590.59209
1808301.26157
2459480.70293
3100046.1744
2577994.18869
3010594.39618
2363603.529
2064101.5681
1787722.89768
2015187.17018
3219440.48526
5584048.78616
2141123.08426
3748021.37749
2942470.52555
2015776.86089
2319335.5117
2497532.41827
3538920.20609
2884722.46257
4119437.94783
2446212.6601
1588796.19346
2501392.2457
2304081.371
2578299.79782
2187793.62274
3299407.90831
3234664.78805
2191389.69969
2821460.28716
2793668.38682
1517917.96101
2675328.07577
1999873.55015
4644210.71089
2014128.04695
3957262.30389
6010994.82429
2444189.03515
2183686.04422
2381369.59146
2108175.48711
2883541.08286
2087761.27967
2895070.27517
1281941.98148
2363493.4913
2949617.96978
4029911.2735
1344705.43693
3015245.60508
2888411.0015
4454086.7817
1050832.61163
2181798.4136
2648744.52699
2941595.7386
1249584.93507
2844615.9941
872710.743016
2414230.30699
1500503.80529
3217277.02062
3267832.41872
1755872.01703
1965010.01484
2634670.38733
1619710.89799
2109868.24156
2919487.74444
1235079.53497
2387264.72333
3667639.8582
3284057.25718
1558037.61821
1641559.9664
2387701.78747
1569551.12271
2610448.98459
2445980.2094
2612063.61451
1451800.31266
1234729.40859
2114269.72345
2063224.15019
2557659.45723
2211402.2178
2832322.95443
1683495.92689
1146573.28167
2832342.74864
3935672.39986
3951235.54962
1355271.20647
1946276.25071
2292866.18657
1947726.60598
1966775.01345
2931036.38365
1680438.93422
3048487.92842
1698017.36184
2036977.20722
2856702.88864
2175623.28083
3669318.7619
2827176.81843
1134671.34007
3401015.55188
2150030.87901
2345494.20959
1924859.9776
2178419.38132
3381797.63302
2234239.08005
1396199.20586
2131224.78743
1804472.48514
2046427.22811
1215740.78484
1971030.54428
1948503.54872
2028579.99017
1971905.87515
5929661.0683
2093768.62607
3550821.23425
1964473.04707
3866964.68873
2566662.07431
2589250.63023
1488450.55745
2393378.3411
3186352.60018
1976249.56267
1686172.99929
3908574.86824
3313458.91492
4399769.49787
3271825.20544
1624706.22633
2817099.42078
1600657.65976
3312812.95062
4397350.10963
2722928.21059
3882507.82751
2031163.83072
1867065.93033
2031849.46837
4456848.19025
2353850.08807
2409190.18289
1479532.45233
1924323.22307
1529853.91677
3468110.30882
2816566.93517
2846268.32683
3725525.93736
2170457.25878
3989964.10022
5559142.35717
3031138.8745
1404685.55898
4039814.26511
2475774.702
2710672.38138
1303537.01368
3116209.7183
3415409.99123
2788839.43362
2625222.86124
2567897.14719
2670127.06191
1906706.77428
2259916.64093
2158510.29022
1680714.23949
2502612.53396
2959514.97069
2282425.85062
3514212.9804
1968111.60044
2165950.96397
1595261.54497
3023745.59706
2553306.23939
1941101.7576
3689005.71665
1399503.60926
2691009.4155
2751780.78515
1357903.94946
1973727.14337
2200073.52739
3057930.95514
3172695.68412
2002145.72287
2022283.95994
1863600.08775
3599659.77297
3636021.57315
2580211.37486
3490839.48596
2736675.83304
3699296.71278
4298903.26283
1995852.05798
2498267.88323
1415881.97896
2874117.19645
2583676.62911
2780816.59593
1935711.33077
3158624.90713
2489735.14056
2430929.22142
2062524.44532
1788896.1811
2184992.97589
2191392.98184
1533538.59449
2054254.16821
2029986.38884
3223723.10102
2680541.95361
3109477.37237
2549187.92038
1564407.96429
1318615.15596
1462105.13351
2117405.08344
3392301.03001
2129176.66835
2390439.85902
1756100.35325
2574211.498
1966981.06353
1759564.09093
2879974.14863
1870357.92803
4528404.48272
1810367.93318
1700711.08451
2251496.99704
1629784.12546
2186211.26642
4115736.1239
3000218.25204
3176586.79146
2482907.30257
2088532.32669
3501825.95393
2016668.12885
1175133.1435
2612522.57823
1767777.34517
1441877.81458
1181143.50761
3162407.11996
3653497.24998
2491343.17331
1753328.03096
2011110.84247
3098415.82761
2430164.28951
3162228.91376
1484867.65974
2019589.77589
2156967.18256
2700463.54695
3056360.0131
3492274.3842
2000506.78826
2043336.80813
2896927.07286
4286412.87297
2940284.01357
3357583.18877
1708173.22273
3543693.29206
1608048.62512
2057431.26655
3047695.11161
5470627.22111
2345362.04643
2369266.48853
3769252.16762
2798267.56408
2117315.59602
1838376.3468
2317452.49369
3702684.41961
2297789.00008
3243954.25767
2102520.09363
2096610.54604
3404491.14507
2416032.98382
2117130.06407
1432359.09553
1697805.38576
4227001.58513
3771341.39725
1368968.21755
3064825.67622
2067564.5589
3589069.77314
5419125.3018
3075422.73028
1872719.8797
3059306.32041
2178382.0301
1625139.67591
2495444.54384
2798669.73569
1581325.56358
3368764.05592
3228979.20442
3894559.19077
2391493.9935
3093274.77726
1704183.04998
4358386.38774
2641352.45542
1547928.76502
2388477.47138
1588361.22457
3702237.41806
2630675.36599
1805611.22542
4468753.96499
2103366.4256
2290638.13736
2329765.57529
2148059.04125
3567183.02148
2365101.83019
2680415.06462
1352666.58213
2898762.58527
2197367.57663
2364233.71733
3607624.23795
3311846.03624
1327886.62136
2196910.83533
1755337.48165
3552633.73579
2628894.87371
2998760.40265
2541740.40413
3658039.15614
3556691.33069
3325078.07801
2531755.57478
2831844.62945
2188755.40033
2009236.64153
3517822.65746
3492133.86914
3118804.86209
2534969.83846
1871457.3335
2187532.83839
1852145.59267
3336879.97557
3051513.28962
2231479.65661
2605956.9497
2752831.84476
3848313.57154
3382744.67591
2925540.20197
1784300.35358
1811557.77309
2919323.48497
3602476.03764
2024166.66224
2463380.58043
4248352.84868
2661190.98505
3174003.89718
1981590.77642
2005474.07305
4463343.10508
3479484.29911
4607087.15214
3260997.61026
2542103.96467
1499820.64595
6577615.89921
3028124.58507
2982105.4962
1656074.64661
1309983.24613
5076501.1509
2552883.45855
1878946.62045
2695779.2359
1623074.08444
3931204.01106
1637097.61587
1901211.69709
2026027.87059
1338649.45943
3694730.56703
3050733.36071
3901716.02913
2037940.46487
1576459.72439
4231491.78027
3406058.61702
2194439.92998
2611892.59753
2621571.58992
1961114.50766
2591708.23838
3037680.26569
2958043.04954
3638737.45467
3271276.19424
2543404.51994
1862440.70567
1902719.01422
1457213.54405
2488930.41356
2787132.09222
1888687.44155
3861449.82953
1422790.56564
3960027.19102
3059632.50449
2482062.32374
1753721.95691
2827152.08238
1995648.43617
3404022.97695
1887020.99243
2581698.42746
2555789.44301
2783213.93658
3181971.64101
1893821.22609
3178187.81454
1774599.63143
2794076.70334
2010290.02546
1422302.48803
2248373.26513
2555781.43065
2488781.90487
3869880.89534
2293824.60282
2109537.67077
2568314.14157
2155447.61622
3346741.31742
1484525.4566
2953927.51067
2068707.06239
1941681.41028
2017518.33672
1641579.27916
2809272.09702
1747926.03085
1835039.13359
2489433.61128
2969854.78615
3992451.80213
1867007.97381
1294539.76212
2376566.47674
3088173.20302
1194385.1399
1380029.51302
4654010.91565
2251000.63078
2963279.1316
3195330.79179
1351217.56412
4077620.49992
3274950.77203
2104001.23797
2340009.00432
4949569.73909
3194199.91623
3572089.66696
4821394.45538
2124439.09856
3351103.77708
1622906.97894
2543169.75359
1697075.3867
1525392.76544
2342158.97352
1868634.6953
1531102.29062
2288068.07668
2827746.86718
3839885.60127
1998918.08401
1999933.49456
2221266.38644
2866401.74964
1698910.06016
2982657.08565
2278878.33472
1095619.74212
1705434.06494
1919018.29401
1725751.67358
2453629.76042
3302107.95242
2165989.00127
2234999.90836
2268381.69504
3403362.14687
3496779.37199
1543317.02736
1381758.34736
1552308.01871
1843094.13153
2895939.07329
1456017.21441
1247321.76424
2059414.47759
2446368.14085
2126993.76804
2222911.07182
3388458.84752
1834319.12571
1701141.39449
3217207.75045
4206822.49897
1812933.02937
3675399.90625
2609243.48012
2715805.99672
3836499.81803
3486357.20214
1731216.92925
2097790.5462
2646396.91992
2454216.50089
2232926.27244
2188699.47176
1398657.46504
2334230.86416
2838647.0928
2736627.5829
3071432.25072
2658291.64708
3787460.19158
2165494.47033
2227293.77652
3933330.15914
1833652.31836
2346502.69701
6106515.12493
2677600.46626
2408405.97784
3001965.98509
3186697.09177
2472086.07146
2214353.72297
3549682.34262
3373126.1804
4152824.52682
2060076.06283
2510645.2963
2548617.67367
2401920.37113
4530773.90038
3010969.21046
2111756.23109
2018197.17652
1883553.2836
2153320.00118
1845993.4348
1493293.44724
1787926.1252
3514247.14968
2541455.24637
2452192.5366
1580321.21617
2061374.59699
3100669.57784
1993834.6519
2461026.54618
2607650.79537
2951953.3835
1318628.39496
2835256.19843
1654731.81903
2716938.01727
1898077.04462
2095440.00422
3532628.83172
1365105.30475
3408134.19979
2305316.83394
1953318.27011
1757363.4182
4148189.20208
4015898.10136
1772858.05443
2044409.69633
2169446.35883
3116084.22976
3384785.59622
1869902.04989
1913494.37757
2386088.77356
3376446.50587
2692340.74588
1407616.36315
3262053.08868
1641691.35766
4249734.43957
2010893.24194
1593088.14918
1682642.08018
2617410.65223
3324932.36349
2129037.5147
1146967.29207
3458053.84598
1826497.16814
1594217.72241
3643166.41324
4017071.19362
3694569.50494
2712726.12968
1600754.21239
2832361.26255
2704975.1937
2462129.19502
1825058.73801
2525980.04137
2710022.49471
2083938.15001
2016485.7246
1889922.06071
3391135.94726
1781887.74514
1992848.20018
2818765.27346
3289439.54877
2216979.16816
2472012.44511
2918837.985
2559802.71514
1690570.44634
3240309.77925
3340105.29616
2443111.78828
1945913.41796
1156525.49414
2646959.43126
2070658.91787
2583721.89178
4045542.10366
2423669.83091
1361271.00903
2185285.64429
2173587.31832
2369693.38483
4248587.4638
3431602.8772
2072783.35076
1794936.96144
2048402.73192
2794325.48435
1796481.98367
4106362.65238
2424649.9131
3666569.50888
2602998.98357
1907561.63221
2321638.41798
2973723.83578
2199950.72482
2561924.17208
2150468.67028
2096162.87293
2514454.8001
5003015.45002
2780213.33986
2160078.00166
2950603.2854
2875231.84759
1636058.08122
3895929.84502
2311443.04286
3827889.6428
2625252.56663
2855488.59843
2107069.41128
2549885.49991
1982512.29046
2823603.03982
2333927.31829
1946289.33232
1867005.90753
1485800.84266
1257546.52501
1858306.24199
2796992.24148
2659597.07373
1856005.80252
3278566.83164
2913378.43961
2416617.56086
2719825.83387
1674604.52285
2223400.93006
2824139.47079
3372578.54078
1886422.94754
1380987.85337
3204337.84135
2593773.1966
3582090.10561
3045968.3935
1805037.6759
1538879.70084
1988512.85713
2707886.82137
2968442.90303
2264820.74544
2325095.04984
2868199.92229
3797767.00237
3883338.04544
3595429.88698
2664144.52223
3739586.04834
1657766.68103
3170650.26505
2763981.99792
2917785.81564
2302414.93803
3335434.12521
2083833.8327
2672424.34087
2648796.23299
2208205.42559
1875250.88903
