2064650.49944
2872275.31399
2391060.29496
2566145.54933
1597097.99838
2287164.68863
3411237.11616
4017790.67817
2476106.84916
2032250.0655
2833253.17763
2604641.93297
2736816.62758
1277389.87203
2632912.88606
1818002.09347
2725365.76707
1978378.31794
2781269.65578
1834759.43583
3187580.92007
3746659.39594
1827645.21112
2551311.13857
1827269.82571
2899951.80147
1575050.95817
5800697.70791
3074001.46883
1767577.52213
2117627.51291
4272285.47607
3417725.32195
2176956.44954
3651808.15739
2411571.49556
2015383.27512
1988400.5527
1852102.90724
717426.647112
4065600.94697
2693269.69959
1767955.47683
3247608.88095
904226.853744
2343115.30481
1682067.15273
2107236.59477
1889113.35538
2022508.53859
1436464.32124
3245450.49618
5520679.56429
2943039.09885
1796887.40789
1567347.53035
4436749.48797
1286443.25497
1379128.49059
3862904.86682
2296228.0577
2984332.97382
4635359.19854
4130877.34301
2166749.68802
3148910.81325
1287312.00898
4149917.74472
2376255.05101
4418919.9322
2817669.86408
2224840.93186
2751947.62547
3065750.88214
1874822.19563
2175564.88674
3055197.00153
2618718.23781
1803071.75878
4108282.32653
1593886.24773
4060711.03048
2066258.75498
2668998.36415
2110841.56072
2456309.22133
1968949.45021
2646236.01091
4375813.21617
1796440.093
3829814.11234
2750026.53067
2869672.57233
4349908.67579
2262584.96483
2856896.67191
2330481.80234
2911704.96862
1682796.9043
2333093.92017
3516481.49953
1095990.05688
3950488.91837
1904921.02043
1526541.11675
2435861.15732
1611784.16802
2509681.32172
2881158.43855
2758044.2947
2820411.41718
2676448.85799
2428071.92631
1514731.9434
4131344.74481
4318909.50055
2140756.7836
2171136.87461
1883950.5709
2052448.55082
1621953.79113
887301.314278
3395465.00913
2301593.71548
2313067.65314
2749569.98527
1628407.02049
2285399.46108
2391355.39262
1897736.12258
2509055.55215
2024017.51221
3600424.59814
2975825.69223
2281944.94318
1941661.01859
2335581.5569
2500351.54311
1651477.91724
1347738.18614
3600321.1643
1149967.15251
2787921.9951
2101171.57852
3024968.60495
2643098.34178
2457422.1219
2066561.3452
1824076.45422
2065269.31841
2746032.55023
2576650.44635
3142265.17777
2269854.76047
1852693.40478
1323853.44529
3653382.35083
2595658.76356
2197604.50425
2899308.85178
2757463.44986
1813716.79687
3015762.36446
1738834.84517
1714104.23363
2425565.47875
2765017.22412
2624224.42556
2108363.99123
2786143.30335
2966801.39298
4466477.92362
1967514.66947
2144595.2787
3771402.51553
1704362.81014
1723720.63975
2225422.97981
2797845.01014
3202920.14457
1600805.94817
1907543.30518
2379143.60406
1210527.09856
2820665.63064
4243106.57731
1736330.73084
3856110.37251
5184843.63721
2703870.31987
1105209.65774
1389146.15755
3161709.01171
3089979.85443
2320795.416
2076734.28527
1677301.29703
1890407.84682
2519788.9375
1963389.68381
1980289.59892
1936894.35858
2099643.9711
2379524.55475
3968310.30686
3794028.45991
3698900.91875
3821808.27989
3353153.52653
1602814.9983
4471114.39615
1433423.54561
3252369.11058
1982392.7968
2688119.98884
1368473.66551
1873793.70875
3019796.37578
1835828.00705
2718825.50072
3021442.12836
2048076.11517
1726057.3615
3037235.47655
2946000.43335
1781831.46547
3802927.79258
4202379.6674
1461391.76511
3556880.14008
3115542.33822
3199043.66076
3569280.50414
1973107.70123
2836266.23015
1807261.94025
2898379.62184
1198728.89914
3250933.94209
1566076.89157
2157627.87892
1433477.48003
2727534.30311
1809445.55211
1362348.23147
2152615.64489
2391444.11359
2695102.20338
2424030.6615
1143115.26063
2301234.85736
2461616.27717
2448656.45815
2332468.5294
2678264.56454
1386541.11827
3085821.1332
5193723.8501
3211205.22741
2597817.08009
1376695.82408
2305983.48174
1428643.43836
3297898.52667
1562599.55578
1958325.67465
3051714.12569
1565496.99148
2552281.9288
2495668.66396
2148559.40901
2091505.8973
4650076.59943
3322665.84569
2245894.57719
1266580.51485
2669253.8562
2378185.43179
3968204.46375
2391512.90009
2202176.46463
2021765.9445
1705729.11262
4070677.74899
4062519.78253
1081915.67167
3008215.52198
2399169.37209
2236910.10571
3967521.49442
2898279.01812
1729178.19828
4377235.05529
2879129.7969
3196312.63267
2032135.59115
2607613.27887
4122991.51106
2219578.15911
2096666.43259
2226051.84782
3420138.43767
2781952.26396
2130047.22129
2453943.03884
3008327.93012
1650439.52237
3694329.39566
2512983.00458
2847118.04145
2199208.61404
2314157.43156
1400486.96612
1337755.37112
2191398.54846
1883438.73613
1895349.01832
1964402.84911
1926921.02732
2074350.44217
1520263.08179
3804442.42187
2509599.55316
1809609.33623
2308288.95078
1935607.67587
1946998.95216
1857971.60843
1535178.83911
1860721.98366
1419309.37307
2821021.39714
2137139.09995
2022914.09058
3166328.8576
2095690.61276
2898115.49231
2078112.48308
4249004.75511
1934738.44692
1230907.48605
1857373.981
4055080.9792
2796463.1251
2453424.77004
3684842.02968
4174434.23822
1866120.21492
2531660.38157
1337105.0818
1722966.04447
1588269.91088
2203832.19969
969282.723599
2157136.77505
2837974.64796
3165625.8021
1890127.7119
2361633.83357
3083011.82793
1646548.33518
1993870.33623
3096214.12656
5405884.84208
2782945.45821
1746633.17451
3676703.2624
2208474.54392
3077662.04999
2162599.20152
1742664.59662
2580503.56402
2237547.39818
1237427.41316
3777122.21089
2130968.78699
2076747.87755
2847146.26129
2306016.81802
814226.194882
4081606.9075
2571992.925
3071815.34195
3139884.91227
2902173.04551
1155087.05004
2045020.22469
2879702.2112
2895405.70878
3277746.76723
2200348.63523
3082687.34883
3014978.01008
4166177.56635
1671281.1581
958585.716197
1486003.85978
3108176.73247
1355486.95993
1946752.64643
2306199.39973
2264885.86902
2200524.10723
4069496.87275
2008166.35904
2381722.86364
2771331.60684
1676485.57074
2604716.01671
2183323.68108
2165791.93157
2292242.09893
1914074.29298
3842221.47319
2694533.76753
1661159.5795
3432307.52946
3963144.17507
1701926.39725
2248085.93536
2642754.50509
2912775.66995
1210418.8447
2697534.64684
2720265.23008
2783288.77063
2646152.70393
1888624.73157
2980087.36337
4509548.33909
2922394.61304
3222197.62801
3069531.07072
2454557.62054
2387028.26915
2313030.04726
2444506.29412
3425860.25624
2904917.41341
2194988.57271
2655919.17298
3163682.99202
2405567.82568
2675606.43797
2835069.6457
3542530.68483
2668084.76502
1609877.9523
2303531.93212
1316899.41561
2096774.03714
3047514.1087
1833625.05396
1893947.00092
2560670.17418
2553589.62127
4217362.18275
2977191.20445
3842034.64913
3973391.23772
1667281.35374
1799310.68092
2636020.60008
2624224.5274
2748125.31487
2264073.8982
1447927.13884
3659129.1554
2175860.0538
2363476.23898
2269149.25918
2280519.81244
2748694.28468
2899720.84326
1460834.19796
3452379.59878
3400723.65527
3201583.4393
2035883.49956
2848392.46031
2678515.80326
3533094.66795
2231753.012
2294131.62661
1816091.23953
2691329.79597
1927030.10144
3792670.61073
2322785.90906
3035333.61906
2357181.98806
2669987.08058
2234873.46255
2671029.33531
5543462.90666
2050410.91036
1460156.01269
3806154.18168
3417747.80652
1734718.72927
3047854.1057
1677497.20855
2933891.963
1786969.19448
2769575.11486
2165003.94014
3075221.78384
4195729.78934
2315018.91732
1779342.83216
1463025.90082
3027781.28209
2911392.43858
2392880.02348
2686838.94278
1329293.62769
2260922.54198
1779958.5993
2627265.52027
1325201.11199
5103838.29343
3168784.60464
6372176.78599
4353942.57177
2687493.71745
2050163.65425
2610240.70187
1753559.58452
2439135.46502
2003663.96651
4521944.56677
4783211.56644
2508718.40025
2136557.98795
2202386.41088
1663261.60931
3329939.4348
3993202.27301
3451903.38414
2925563.58785
1726555.10464
1719326.9344
3280135.24142
2981167.17146
2692488.65172
1552512.71124
2072236.78148
3354818.74924
2747221.72062
1398708.17091
2924178.98793
2639564.77426
1879992.0578
3027516.57249
3305570.08449
2514136.77313
1749259.71221
1379299.39391
3771192.71937
3848248.79805
3853503.39149
1847622.89919
2051528.46454
2527452.20007
2504052.80267
2527269.61755
3540253.09861
2632780.34346
1464871.02711
3686139.71944
2366974.58819
2820460.98775
2521308.44529
1993374.60506
3084406.05611
2269841.04016
2508685.72712
2167399.41459
3315830.01625
2538356.18843
4591849.2223
2241132.04354
3073505.3747
2128311.60857
2707770.3546
2731963.30593
2785409.65942
1646231.05659
1008460.57729
3203922.55773
3059985.73504
3101367.42715
3683401.29632
2466208.42494
2889168.40935
3178761.55179
2522741.74997
1405152.97841
1584458.09783
2315709.85631
1140505.40041
2523223.71063
1481462.03601
1478087.53514
2657391.78845
3669245.65942
1452564.68734
1453544.08823
1951762.64695
1812360.0368
2202690.1122
3072127.63243
3007252.56096
1906340.40574
1729821.70407
1734440.32854
4574211.22216
2429406.24921
1920393.63186
1725817.65306
2540388.56962
3078591.45624
1737951.21911
2506558.16714
2261131.70631
2282932.6551
1814350.50106
2647451.77761
3165438.11342
2010771.49304
2804029.89946
2067890.27907
1937575.41045
2771956.29143
2776293.08753
1716835.51058
2198800.24428
3192189.9569
1823937.99184
3209600.48191
3684667.24893
2032516.08655
1668374.2937
4871484.43018
2424772.68359
2697218.52341
3931554.24948
3567972.52081
1760497.35331
2979880.74647
3658906.22511
2174590.04561
3776765.80354
1850028.27669
3065232.97124
2551774.23028
2449064.51379
3386364.31267
3046027.84936
4658905.57479
2470903.44711
2552843.62077
3263216.90454
2453882.3732
1748878.37006
2698703.60018
2522515.32477
2312907.68108
2323589.44754
3107762.92675
3603583.17155
3683874.09251
3277986.61681
2682959.55469
1998183.9931
2056058.12344
1993385.99526
2928921.58382
3309037.05203
2278006.91796
2203390.75126
2165634.95438
1691226.34499
1848615.5881
2920941.70497
1751116.85487
2156685.96294
2949484.38245
1927781.50927
1231296.01513
2071133.97116
2146504.75999
1835981.59451
1983511.77951
2149182.55877
1301120.8072
2592543.94974
1640911.54967
3175886.98123
2256979.76578
3833303.42449
2873368.56052
1484540.42806
2347816.98627
2024754.33729
1692380.29288
1765174.35335
3046530.30164
2234394.22481
4120371.57972
1289146.0953
2417981.60948
2199188.94533
3544579.78392
2156471.6399
2518121.49152
2755311.92582
1976506.0443
5961959.88424
2265008.09312
1960533.37113
1933657.4046
2339981.54522
4111954.92304
3127727.23051
3412721.43429
3318068.14514
1659333.03935
3421765.89255
2400996.30766
2574843.24013
2623986.25733
4061003.09244
2794654.14318
1215113.584
3612910.56922
4295688.7865
2205724.78512
2516228.84553
2438081.38432
2390929.51131
2881823.69768
2030039.48252
1763406.20596
3625849.92135
1984781.06735
2462881.9788
3200239.06002
2378210.73026
3764851.94636
2009386.79519
2087641.92463
3052561.94887
2572645.71724
1457131.57571
1999955.39649
3113861.60383
2470545.85665
2319710.1144
2086613.8758
3041787.24761
1917202.20435
3067316.86409
2511991.65451
1538448.41708
1188923.11744
2106391.43924
2379111.48336
1967500.18424
2469292.98067
3914090.4287
1949136.62473
2979760.61154
1159953.76545
2456876.65852
2590277.19044
2465178.36603
1933696.51348
1738571.94562
3300281.12049
3683830.83511
1949121.33583
2417786.39992
4734420.59672
3408988.97942
2514527.39964
2235204.52379
2059224.26213
1426444.79733
2272051.39041
1874888.06131
4516486.47935
1621603.42426
1347656.13579
1921957.07424
2072950.45874
2780828.44433
2577393.06676
3463944.1038
3503676.427
2494807.08405
1347162.25319
2673106.78253
5919026.90332
1825867.72896
1525042.0407
2776711.23705
2398104.2001
3342242.56626
3187841.99922
1559582.11251
4702611.52022
1875110.68665
3594820.4978
3258392.58126
1990700.43277
1437246.55793
2983844.76339
2463814.80616
3230899.70386
1489464.51049
1417147.53246
2855214.42438
3521435.43916
1421171.843
3348803.39298
2288053.062
1461233.50978
2658586.81017
1480388.98482
3328431.1664
1688923.75901
2104874.82912
2240265.62888
2003202.30609
2025102.11891
3583400.19793
3608903.05765
1859028.41975
2323861.00003
2881165.71258
3343841.44426
1797084.62418
2467602.07736
2556879.95078
3707303.70145
3652252.00375
1120436.35586
1411087.72163
1798168.6758
1730944.83386
3257945.5513
2300794.71137
2063522.5246
2970200.78385
2776269.7635
1016322.53791
1987651.3919
1120541.77207
3074912.0103
1330993.69233
3551668.58462
1946711.0523
2206921.98598
2109369.81676
3671358.15638
2530593.27473
2615741.20753
1884071.44843
2626927.64446
3384219.11157
4655708.27472
3128746.89641
942755.679588
3148811.86519
1870095.48402
2393837.30612
1921558.35861
3315911.80753
2208997.0505
2227169.18903
2278300.53008
3186487.22895
1885868.63824
2811875.56263
2318024.96379
3748181.8602
1875491.04439
2681783.6515
2161135.77839
2655894.48939
3604027.28242
3267442.80284
1300772.57238
2930416.52202
3077995.45051
2489503.90933
3077405.91172
2938354.93075
3776324.65297
1654071.68116
2851836.76218
2341660.78923
4588727.88222
1681865.58018
2581214.87615
3459700.9422
1413956.67739
2960307.65672
1872260.31004
3433644.59829
2122935.64293
3483313.17614
2327379.82902
1530671.78156
1920418.67335
1676639.6595
1591613.50621
2268897.04904
2017647.48287
