464.9002924
523.627294
486.1113021
478.9550732
418.4145115
449.516865
447.0118176
473.0740278
449.103267
492.798432
469.3435452
468.8352186
460.53752
493.931708
461.084606
498.7371388
448.6910679
462.225696
487.437014
478.79573929
527.668479
485.8363034
480.67006744
521.8284334
513.4683731
415.54648
491.809612
474.939932
469.38990401
508.145164
450.652589
492.99076617
432.712343
477.0176445
564.443757
488.34823459
506.5046677
505.789559
431.1151041
481.670275
441.4499629
393.5580795
504.290706
491.220221
452.8001053
391.7017478
499.194751
413.548758
428.5106188
514.708946
539.7720855
519.4487059
439.22579821
508.669418
500.8187621
472.377106
404.8664642
449.80277
466.4263161
408.55918
472.17063
443.3959192
511.6202832
507.205682
474.63407
451.14020499
449.092468
490.870831
413.5098757
466.7067179
489.6195834
461.862843
449.4019432
484.6415691
504.9840583
459.880033
524.5201978
418.4342816
444.7282038
505.4021915
452.16119
452.8795453
467.557307
410.8648258
458.5336225
520.6653221
445.1436641
449.913201
485.0538828
513.5951379
458.1982002
472.484996
510.9181
425.7546137
450.1443792
385.1022006
489.700966
475.078618
472.51533191
379.9836015
522.471313
523.3458465
513.126793
464.8616733
504.70867
450.8031986
488.527213
432.6344246
443.3293455
440.4559384
467.3827022
474.20076434
439.980589871
444.3691943
520.300805
469.7083611
479.3257806
437.4554063
466.09204646
513.56453
484.5945396
474.6680612
518.2185271
424.805624
441.9814802
498.5878047
474.0384334
432.75416919
452.8352009
506.219655
458.392272
450.6638838
498.75533413
470.33470745
463.6311286
480.72125
468.411908
510.8539
468.5123891
579.58328239
489.528299
437.4675491
431.7603407
448.843194
528.919523
496.7647675
489.5379007
419.472588
449.8980752
429.162424
457.771263514
501.0511928
498.7563549
538.38012094
455.633321
537.712444
496.407125
502.455076
525.0708677
442.239658
457.4354719
459.78543725
496.15446735
473.8812964
450.4840572
475.9008726
516.6851145
433.58234685
410.8497521
418.1891016
455.405595808
399.3342198
517.574586
442.6669756
412.1750041
473.1573438
449.611966
447.4694805
476.4974867
466.38103649
485.566808
503.779071
477.795465
450.6364709
442.812925
478.5841819
483.2656627
487.844207
477.142832
473.2624704
457.464557
484.5694513
533.1344556
456.32450701
512.183519
494.3654909
509.0787246
460.589651
530.373741
456.7419334
481.900946
471.736838
414.89320182
452.4511464
403.3139593
470.5975522
416.0208169
391.2667732
506.930089
467.405161
474.3133361
442.3650352
489.403316
478.599443
498.7369359
419.581288
488.9846318
494.35736
432.0481508
429.87125323
507.199017
540.5288541
522.456202
480.550157
388.348053802
443.0507073
423.6243415
420.41923334
470.537451
477.905828
546.095309
488.633559
406.34670998
485.0688592
522.5632576
463.9297873
471.9078898
503.9159179
485.0502211
518.379312
474.49747
522.9238079
448.4171005
461.6265608
553.5995805
494.123014
462.544223
518.424794
456.26843308
495.401815
