196.796194
137.0308558
2061.278968
-332.51953
204.258836
2217.891182
1704.559666
-58.100672
-608.42203
36.342408
1173.270482
-132.563966
-1204.937872
-1039.634764
1299.325306
2728.524758
691.19528
858.230126
731.6437
-510.415844
3330.987894
542.755186
1630.769648
-62.887686
320.89080134
892.05076
457.770568
-521.348874
1181.27207
-419.467236
6516.806748
-182.413186
-58.219444
982.995804
94.918502
-36.3745288
405.972768
1918.34562
2337.2267
696.4370784
118.392324
1076.470846
1151.288182
3291.717794
1848.9013
-234.903458
1049.95264
-363.71196
818.605774
1402.6729
1500.421952
3929.097254
-1046.513824
396.65009
804.747392
-269.338414
620.3966744
-384.22714
-268.987462
-541.583686
1445.298876
1486.66825994
1356.334622
1533.538588
1233.639966
-161.939008
2729.6140952
207.02029
4699.6274506
1963.76684
2455.31806
-1166.987354
2689.5117
2091.4053136
7813.414614
924.81415
160.12324
842.823326
1372.945886
3428.89846
2340.47018
3805.054788
2085.413272
433.18958
4646.68874254
1932.911678
-280.338348
1471.66031
1128.382288
1506.974002
2485.367474
2776.979566
1277.47048
746.819434
171.270998
943.961916
-336.39232
236.049426
4335.479116
3514.715186
483.740164
1269.76309
832.616836
733.081026
2783.547622
1814.457338
915.2235906
292.571308
912.398878
1034.93962
2841.15174
330.162118
72.4461606
376.7526
891.513046
937.450358
1102.5165482
1013.342776
828.72935
2335.128736
1733.4368
-354.935171
3677.636468
1352.051392
1366.9284808
3391.778856
758.3585088
3372.244682
471.0922812
1857.21912
-530.014688
1422.342116
-126.89129
2353.25496
1088.480338
-147.257314
103.01546
-374.517166
392.26946
33.685614
544.09512
988.802386
673.931968
1979.924644
17.35338
308.824158
1193.100602
-48.412168
2721.30622
1694.76536
1042.28836262
-284.538312
2858.6619962
-75.176472
2391.820194
2154.0881488
2244.619122
-381.081408
-183.590198
3722.5203
130.646976
737.919788
87.172332
-33.0538672
2004.5013038
1567.844778
802.5493088
-597.0434472
1551.0238774
638.914206
1050.29175
1948.537996
4740.89486
-825.258648
-31.4516354
1612.84003662
3011.201546
734.93108
884.446202
3135.716174
1463.2182
456.914018
-76.468822
-545.8444392
2354.609182
840.349544
698.897998
1107.879488
53.02352
-667.393762
1443.1026756
349.068916
996.291112
-363.6182026
-268.669398
810.990454
2067.3925234
1893.707044
2113.64976
280.493682
