11417
19782.5
3681.14
3729.25
8421.68
9941.61
17320.9
8034.8
11155.7
24804.5
27801.8
1156.04
442.088
3330.61
2256.61
6325.4
12849.4
18588.6
19369.2
32817.6
46457.5
71477.3
53664.7
47238.6
46364.2
35546.3
19883
23396.3
18779.3
14539.4
20523.3
9239.01
1795.39
1407.91
18641.3
26053.4
13923.2
20059.3
35841.5
22085.8
10198.4
8975.15
6385.17
3725.49
11434.6
24774.3
44001.6
26803.1
18622
24465.2
20256.5
26744.8
45186.1
39460.6
38842.6
62191.6
75560.1
84797.3
51435.2
23376.8
39503.5
45498.9
30811.7
45188
70820.4
45449.4
44818.3
71568.4
56863.9
79481.5
63287.7
54484.9
34312.2
54233.8
117029
110441
71162.2
71344.4
73364.9
54958.8
42958.7
52099.3
43762.3
11266.9
13617.1
10089.5
16655
40327.9
45995.7
40281.5
38865.7
47380.4
60403.2
60764.1
54880.1
54392.9
39475
51369.2
24850.7
11520.1
10401.7
8118.67
7901.02
8188.02
9053.49
4868.83
9324.43
9831.93
14383.7
13708
16032.1
8964.91
1782.87
5664.28
-234.424
-1143.86
-1279.31
-353.659
-1575.68
2441.63
-776.062
595.981
2305.43
3432.07
-393.795
3220.45
1859.52
-138.406
-845.613
775.28
-541.799
-12.109
-342.429
1412.2
1611.3
-212.324
144.879
15346
11028.2
9517.69
8323.35
6373.24
4985.31
6427.69
12488.1
18167.7
21154.6
31061.6
20742.4
20663.2
17430
14346.7
22106.5
23424.1
22196.6
32633.1
22357.9
2670.06
4193.91
6255.42
7850.27
4149.37
7301.01
4608.3
10325.8
12573.3
1701.21
-901.35
617.146
984.802
227.742
3599.01
2315.55
1484.07
9972.53
3201.95
-3458.44
-3420.46
265.9
-2698.42
2102.13
-260.454
-2367.73
-606.694
-1620.98
-400.368
-1840.21
-294.185
1629.1
1828.42
144.732
-754.641
883.077
755.515
614.607
2844.11
-850.87
-921.002
-1487.17
4494.4
3035.11
1538.19
6167.56
6868.66
5355.3
731.59
258.776
1602.32
-2862.67
1272.87
9330.2
8009.8
28874.2
27386.6
22889.1
7358.31
334.215
1268.9
1884.83
907.882
1477.03
-1055.25
-7.34188
-1431.18
-1014.3
-845.062
-292.653
-1409.4
3950.39
8258.04
28699.5
45248.7
42474.4
39094.7
54875.2
29405.6
21587.1
4769.48
5172.38
3261.19
-153.131
3393.82
3740.03
1262.41
135.343
5534.68
8105.08
10123.7
15746.4
30616.4
10432.8
33838.3
12658.6
18586.3
12007.4
5225.84
5051.4
13202.3
8430.83
23620.9
21332.3
8123.7
14902.1
-96.507
-1510.77
-2674.94
-881.31
-1465.8
-1240.98
-4.20702
502.003
2488.92
13785.6
23031
13978.2
9879.46
23510.3
21432.7
21855.4
18772.5
23189.7
18975.8
24478.3
4062.03
9911.58
13834.2
38783.1
40049.1
64299.5
89766.1
104323
102432
95980.6
72794.1
84157.3
72391.6
105589
72525.1
50873
49090.7
64846.7
50385.9
54756.6
56410
78768.2
67259.6
54853.9
64522
64715
38511.5
26016.3
32777.5
20494.4
37038.6
41853.8
15450.6
32801.8
6396.84
5677.41
963.752
-1127.23
-711.543
-607.654
-1578.63
2703.6
-1009.97
3947.12
6595.99
1154.91
771.675
-386.256
7002.34
12629.1
23771.6
16439.4
24455.7
41319.3
39419.3
20616.6
15034.3
16534.2
20985.8
35079.4
36458.7
24240.2
31823
9501.02
22824.8
19894.8
5508.72
5303.05
1316.23
1355.87
1130.65
-454.363
7.79763
245.432
6044.75
2.15739
5144.94
5224.39
4640.48
4491.59
1956.43
-459.126
-1012.54
5395
3161.11
-179.57
2552.64
-2348.09
-954.152
-111.278
-552.866
91.7812
1021.36
-285.813
1103.93
3539.84
-2382.54
2732.93
3398.67
6582.82
9919.64
7541.17
11927.2
10625.8
11154.7
13772.9
16387.6
1961.74
3909.85
3369.14
3009.32
4919.89
3153.56
4653.88
4045.56
9331.62
6557.64
11466.3
16657
18370.7
16992.1
40058.3
42805.2
39312.3
38551.9
12035.7
13833.9
15739.9
26044.6
16625
3149.88
69.5681
4901.03
1556.52
-3791.59
-4696.71
2151.81
-1212.27
-632.043
4529.96
8589.16
12483.9
1185.43
6569.32
5104.36
4175.06
25730
11648.7
5036.84
6279.19
10170
29929.6
13176.3
8668.86
12579.6
17347.6
13509.6
15039.1
10382.7
19027.9
45793.9
27849.1
20917.1
26344.9
29052.8
13177.2
2758.4
8647.72
1463.13
7462.3
1162.54
-936.324
1358.5
-1479.44
1506.88
16297.9
5974.11
-73.5748
579.165
198.9
-17.9438
293.773
124.201
4182.66
1402.88
396.51
1540.71
41.7888
328.605
-586.253
-1659.71
1558.87
1081.49
-723.598
4442.91
6840.69
6412.55
554.583
-344.938
-21.3211
1295.84
997.259
4491.83
317.508
-1210.7
-531.954
-162.582
-405.907
-214.45
-332.147
-131.194
302.455
238.361
401.684
19463.6
25080.7
3506.35
882.131
9444.49
13588.3
17390.7
52700.5
38971.1
30979.8
10295.5
1537.83
7279.96
5229.82
3224.68
8458.49
17365.2
17550.1
38186.1
20117.7
21456.7
22496.5
19506.9
6075.54
7089.55
1241.49
14665.6
14975.7
12569.6
13104.6
12567.6
17559.8
14763.4
3927.38
134
2966.12
2368.43
3983.06
1573.1
6252.53
3308.92
6130.69
7012.33
3051.96
-644.973
44.3515
1428.77
3034.13
6968.97
4097.66
8562.25
9717.34
3738.71
6596.06
2103.59
3095.67
4221.12
1654.88
-1099.77
380.464
3424.13
7715.37
6855.62
2957.59
3088.37
-1905.01
-4190.19
2010.07
19029.4
23161.7
48420.8
39877.5
48289.9
17826.3
14497.4
22599.3
13683.1
11089.6
10882.3
31420.5
40037
41609.3
43508.2
24137.9
16180.5
4315.55
3707.91
2698.42
17840.2
3170.83
-241.574
-603.609
1085.25
1556.62
1929.27
4507.81
3376.55
10688.7
26141.2
25712.7
26585.6
13855.6
1226.5
1700.74
566.896
-736.87
1656.85
-626.864
3869.57
2887.78
-167.308
7899.05
15394.2
20766.2
6654.75
1012.78
-763.315
-22.8342
51.4738
647.174
977.16
-337.979
-1576.9
-666.815
3934.94
1707.66
-2627.87
9489.77
3056.13
-733.272
2733.86
4610.48
4343.71
1077.84
74.1616
380.542
-2212.15
102.02
364.708
35.3996
-4356.39
7488.1
10143.6
4700.54
2011.35
10361.8
8401.68
3690.57
9519.94
6098.75
3014.57
109.303
180.528
-1600.89
537.895
867.268
-207.057
-891.09
5549.52
795.528
4853.14
583.545
1300.11
6009.81
8965.44
13900.6
13187.8
18294.6
1537
-2485.63
1204.87
-874.163
4958.21
8985.33
2757.49
1628.95
5123.05
1738.16
4490.64
3582.66
9933.34
10228.4
7419.48
10762.2
2622.82
9422
11543.1
30171.7
52732.5
34272.2
31147.4
26940.2
61870.7
66213.5
59169.6
67787.7
65644.4
50692.5
56826
69421.2
61414.9
23907.7
20142.5
22954
21203.1
16820.4
12484.9
27224.9
22916.3
27279.7
34675
37052
42439.9
16707.6
10229.1
3973.89
1624.29
-375.966
-765.39
1179.73
-1699.08
3630.71
1704.85
952.623
392.43
2444.49
8177.1
25966.1
22849
26599.3
31674.9
29964.2
30013.8
22778.4
21361.4
32761.3
15203.6
17273
9055.89
6181.42
7669.65
7316.29
28724.4
29318.3
29220.9
5698.7
221.466
9452.26
11406.5
3396.34
10410.6
1622.7
8784
-648.271
-434.023
6617
-617.462
-419.171
-1108.71
-263.885
4108.48
9361.29
11527.1
10079.9
3883.29
7575.29
2072.36
240.788
4097.81
1210.78
1580.13
1427.32
7372.4
3882.95
15877
11875.6
934.543
-507.317
9642.73
10698.9
27820.5
39258.9
26501.7
15966.7
2227.02
-1043.94
-904.09
467.032
12158.7
4237.97
-375.143
2284.62
1122.32
-1030.55
869.088
1054.82
-1540.6
3143.25
12451.2
3018.35
1254.92
676.643
794.251
315.529
237.008
715.07
1029.47
-650.048
5302.76
43.5947
-2377.22
1561.71
-134.394
-706.277
812.099
-493.325
-586.827
-2087.38
-157.293
1860.99
749.616
3295.89
4373.61
11544.9
2358.77
-654.397
-912.523
4205.71
16624
3759.31
974.97
-4879.2
-1163.43
-1748.71
-2248.91
135.51
-1243.68
1577.19
4926.9
4338.04
9732.59
16472.8
21543.9
16781.4
39387.8
46906.5
20649.3
33562.9
25984.3
30031.1
33546.4
40160.8
40406
42621.2
29893.5
32895.5
26393.6
40262.7
11797.4
22270.2
16316.2
9072.45
30031.7
46950.5
40882.5
50745.2
40720.8
27475.2
50824.6
27992.2
11711.3
2744.66
1455.71
2210.69
11579.9
3904.95
11421.1
13657
11970.9
3349.69
5750.02
4083.89
5282.06
-693.032
-509.387
-681.333
486.802
1918.31
-115.839
511.694
1120.64
-361.57
-248.712
31.3926
213.854
-2097.69
6835.17
8011.61
-2006.66
-1914.98
-1560.04
-2369.92
-425.079
2582.75
3380.8
10997.6
4383.42
6594.81
9324.63
13397.5
17310.4
14588.3
9005.66
-125.383
-636.545
1722.46
5415.61
407.529
2447.9
3624.39
-196.032
-368.331
-46.1567
1582.7
4467.94
12938.7
16873.3
9992.33
12885.5
19630.9
23889.1
42448.2
26537.3
25539.9
18705.9
16443.5
22128.5
4956.83
-248.954
1570.93
-1199.05
402.81
-1328.03
4497.81
5748.16
2997.77
903.331
-482.457
546.288
3451.52
493.647
317.92
-113.483
-1885.08
826.414
936.384
1433.7
-1105.73
-909.805
659.927
7508.24
1906.48
9670.65
3835.42
-4367.75
-2126.8
298.951
245.847
-969.77
1790.24
14035.5
12338.3
30407
24533.3
22102.1
5679.28
-123.249
-773.092
-1025.82
-2459.77
-1477.35
-836.078
-1074.56
1396.72
8074.09
4487.86
13609.2
9085.87
3454.78
-923.977
-680.472
3530.89
-437.011
-52.1926
-93.2963
146.775
81.9532
-508.764
-992.437
952.343
659.308
-2028.6
-459.85
3777.09
5693.8
-3692.91
197.51
-2347.06
787.123
811.242
76.1878
1122.13
-234.848
-355.072
756.722
116.044
-1886.07
3865.47
-190.128
1949.1
-250.646
-189.033
170.836
81.4785
1531.29
2653.98
-483.202
-1379.64
-625.702
-490.739
11090.6
5500.05
15168.4
5410.43
-374.753
-3086.57
-6220.9
-2683.13
-618.671
3796.3
-100.235
534.105
1128.81
884.763
17355.4
8836.27
5198.43
6278.86
-128.741
184.92
511.106
2791.19
10798.6
1543.2
1971.26
2279.8
1537.76
2233.94
418.168
2607.52
5281.82
7216.45
4145.21
-502.314
2668.52
-872.888
-1513.62
4456.02
12290.3
-2076.7
-747.567
-214.981
-3303.67
-2501.66
-1368.92
930.501
-3551.4
357.549
1685.66
757.115
-274.88
-2069.95
1214.07
-2632.27
1353
-1489.19
-374.19
-677.914
2402.73
1919.71
4708.46
11782
17997.4
13204.3
21737.4
28336.7
32681.3
35972.4
29225
27297.1
23283.5
27451.6
30366.9
32470.2
24972.9
25879.3
22879.8
29590.7
22537.3
30368
20243.9
14805
26711.8
22191.8
27429.9
34397.9
42818.1
47280.7
46192
41676.7
18984.5
23145.5
21832.3
19777.9
14390.8
12581.8
15955.1
2237.68
-30.408
622.771
-3469.26
-2849.62
1396.91
5496.81
2556.64
5437.08
3679.36
1216.24
-23.6154
4958.74
4101.39
5134.45
6526.61
5902.51
6253.14
4957.72
11804.4
17402.6
16587.4
21669.1
17336.5
25390.7
20035.9
9614.72
16689.5
20425
22970.3
29983.4
46371.4
65564
41008.6
43682.7
56563.6
20961.6
11236.4
19138.2
44518.2
33536
41556.8
46690.2
54342.1
15879.4
36282.3
20513.1
14004
13201.3
1502.72
2094.16
12392
13943.8
8236.03
890.303
8477.41
2062.58
-94.5204
2179.39
8947.2
9168.82
987.501
-2375.67
250.26
-498.952
-853.405
805.562
2855.6
-118.06
-386.672
6152.53
-133.899
145.705
3777.4
5283.21
-690.16
2148.15
-1099.07
322.186
455.346
291.239
574.029
1713.14
5186.25
2966.48
832.318
-703.328
-812.572
-264.68
1627.84
3764.81
1110.66
-369.042
-897.614
2348.78
585.296
1214.11
-466.132
-1603.32
-1023.31
-526.464
381.469
3496.82
4938.01
4394.85
3039.34
2101.68
317.338
930.337
1365.34
3368.42
7099.94
1436.97
3724.34
393.226
-1727.31
607.098
-605.741
336.152
837.303
5456.94
3031.76
124.616
429.299
-74.7752
5283.12
-743.698
-794.507
2019.44
2033.97
4205.15
2595.3
-42.5373
-334.205
3340.43
4203.37
3147.95
11725.2
3294.48
2616.48
415.407
-169.696
2519.46
3698.88
-520.757
2669.52
-1069.93
-124.942
1842.72
-298.7
1501.73
4144.67
5705.38
5624.06
11198.4
20273.7
17693.8
15540.6
7100.45
9915.19
14611.2
16997.7
5241.14
561.261
-307.268
5119.33
10751.7
7555.06
13045.6
14181.4
7386.18
8764.34
74.6786
-291.41
-102.578
-489.448
-506.634
-1797.68
2578.43
6434.93
6819.51
1166.68
-320.639
3139.67
9477.05
22420
34254.1
62674.5
41525.8
54146.8
49011.9
39026.3
31532.9
6837.88
30282.9
32285.2
21343.5
18847.4
18191.8
14949.3
12215.3
7416.64
538.872
-633.814
644.204
-1062.07
-2989
-1538.57
8289.2
-628.817
1171.18
7785.7
12832.8
2291.27
3694.12
-3278.55
-1821.22
-1221.6
-2550.61
546.705
3787.47
1895.31
8601.94
6619.39
5642.89
8829.26
9067.65
2477.04
12897.8
19830
23977.4
20513.7
33574.6
51728.7
26387.4
10346.8
-452.409
-15.0094
-568.273
1588.88
3421.86
-245.238
-381.361
-398.83
4131.53
10106.5
8404.9
20974.2
13114.7
7871.17
15990.2
30815
16526.3
36485.5
18132.5
8706.09
6267.67
3716.69
-946.649
-90.4635
1361.87
-385.667
1138.88
5860.13
4051.66
4302.61
7620.31
650.166
-101.914
3015.68
1435.11
-276.871
3756.85
9412.49
9067.16
20291.8
32695.9
15465.4
2528.61
8640.58
862.281
-148.392
26.3529
-1348.28
-2815.16
-756.708
-123.783
3759.78
1776.32
-925.885
-1811.95
-590.522
-786.567
311.29
973.535
31.4163
-453.159
310.639
1023.11
-1806.39
-43.9599
3042.79
9218.04
8351.47
8454.93
237.302
2751.93
12477.6
11558.9
12860.1
22787.5
18724.9
35533.1
43851.4
45470.7
32280.9
11024
8283.97
8390.46
882.669
-499.378
1265
125.646
-683.334
3151.62
3036.88
8567.79
15132.7
15542.9
19012.9
32497.1
44958.9
39348.2
12873.2
5015.24
8609.57
3153.33
12047.4
18331.9
15131.1
26602.3
43089.4
46955.5
26741.8
16515.8
24428.6
13218.6
17839.1
15023.3
10685.5
5622.9
1215.34
1492.11
-599.878
-781.969
-1549.93
-1035.72
-1017.04
3055.19
7248.05
11896.6
-286.085
-256.958
-3100.17
-4200.47
6728.88
26498.4
14142
26367.8
26923.3
36986.8
56645.3
73438.4
79191.1
82564.3
122827
70085.3
60119.2
51661.4
29282
13410.6
20921.7
20664.3
18328.6
30229.3
31637.5
32190.8
45362.9
26233.6
32138.3
31298.5
12456
20666.3
35338.9
51611.2
73683.3
55839.7
76871.7
51710.1
42652.6
32384.1
57393.9
68033.4
41931.2
32880.2
37304.9
43430.9
16180.5
15671.5
13893.8
19396.3
36026.3
23728.5
8457.71
22746.6
33712.1
16521.4
11825.8
8400.36
11396.7
19673.2
26366.2
21511.5
24389.1
16536.9
7298.78
11301.2
2810.63
-220.783
-162.744
-189.377
-842.961
1945.53
1320.89
2029.94
-647.779
-528.435
507.973
724.616
1575.54
2053.83
6280.02
14856.9
4770.89
3017.95
632.85
1216
-225.806
-781.82
-508.447
-2430.42
-504.516
-358.903
987.887
1416.22
7588.8
4280.67
17604.3
24424.6
10291.2
8538.91
4185.9
-447.604
4524.97
-1053.09
2136.99
-61.891
951.315
234.479
-709.9
-582.453
-1147.12
936.608
-616.61
3574.5
708.888
1451.97
7249.94
14709.9
-896.974
-2845.84
-559.429
-388.922
-1820.1
6685.86
8013.32
10518.5
8688.02
8843.57
12030.8
-1729.03
-1147.37
-3665.8
-1665.59
-90.1174
3344.33
4168.09
1492.03
3550.82
5428.46
349.259
-1189.02
984.04
-167.58
-1081.58
157.866
-177.209
1681.95
7447.1
76.4674
-210.976
-194.621
-1067.84
-1592.46
-988.508
-2015.09
2329.88
-961.829
9711.65
24415.9
11838.8
6943.06
6543.33
5037.76
12322.6
6332.44
5709.41
1436.74
1178.52
1531.66
1160.8
1919.26
1378.26
276.408
1845.47
1645.69
-928.069
-813.437
-1522.87
-151.725
2645.76
3051.57
605.906
12340.7
15543.6
34092.9
42549.2
35122.4
56808.3
80300.2
48695.3
48957.6
49512.8
48365.7
38536.2
47960.7
71700.2
79492.5
82193.7
76610.6
75022
52639.2
54549.6
61525.1
39477.8
34575.3
26275.3
41318.5
50386.1
49631.9
37826.8
62382.9
32684.9
30719.4
39007.9
45826.2
39261.8
22057.8
32101.9
31674.9
21182.1
30144.9
18144.5
23686.6
18516.3
22939.9
21646.2
13686.4
34021.4
24184.5
34891
26665.7
25728.1
32571.5
34484.8
25530.2
24807.4
20258.5
5985.65
-2617.73
-296.4
-1566.53
1052.59
1117.43
2614.71
7072.06
5414.79
-125.834
-1644.44
900.174
1760.24
70.0188
-505.466
1954.19
10064.3
25849.7
24010.4
4897.85
4715.85
1741.91
7203.91
5994.05
-541.462
62.7978
-1218.2
1839.99
14265.4
17677.7
27818.6
25318.1
14973.5
10295.3
4688.26
1111.66
-1612.5
-957.096
-619.986
996.543
-624.565
505.782
-106.096
5476.94
5281.93
4880.26
11260.9
7296.5
7756.11
14858.9
21281.8
21196.7
19986.7
21762.1
30552.8
11214.3
16112.1
9613.88
11468.7
12665.3
7738.43
20282.9
6373.01
-1751.23
2021.33
4742.26
3449.85
4464.31
15395.1
23347.4
28498.3
21987.6
22506.5
10508.3
24359
21508.4
8010.58
1237.32
4040.59
6386.36
59.1211
-269.755
614
322.093
2945.78
-1896.06
903.328
-2287.29
433.941
-126.716
-275.326
-3002.74
172.134
10882.7
7080.9
23260.2
22733.5
19494.3
17142.7
8446.59
-242.574
1525.32
3617.34
5589.02
20339.1
11968
-543.344
4731.52
13537.9
19201
4447.41
740.741
-1198.52
1274.77
936.246
-2240.5
-87.2391
574.518
1014.12
-761.445
-2729.76
12.1069
-104.807
-597.19
1223.83
677.389
1134.61
596.032
1555.92
-1340.84
-21.8313
6090.49
3216.88
11258.5
18485.3
19764
27653
20961.9
39953.7
56916.7
56945.5
52854.7
32831
38298.3
36677.4
40112.9
64293.3
53140.5
107657
103675
34810.2
33355.3
6542
2683.61
-465.881
1795.03
-3763.14
-2541.29
-1194.67
2798.03
-1913.8
4157.86
2835.32
-1002.58
6177.78
12037.1
16780.9
21111.6
20447.5
14981.5
22695.8
26518.2
12998.6
10855.3
11663.6
-468.734
180.485
1024.91
908.112
-2519.24
1981.52
-551.528
1034.98
3419.21
14287.8
12495.8
2609.55
7538.14
16448.4
24979.4
8854.03
8655.48
4545.95
872.024
620.408
1959.76
-785.866
-405.193
-1080.54
353.115
-29.3055
8459.01
2482.33
5708.85
4386.01
5036.13
483.832
1176.3
2905.92
18.6553
1832.72
251.725
-176.603
-419.913
-177.247
1150.42
-5775.15
1498.36
8984.29
1417.29
10611.7
18634.9
5388.33
14451.9
14085.5
10224.9
2203.87
2610.27
8752.08
4269.48
7180.61
34688.1
26765.3
27975
22980.4
29541.5
29945.5
22133.6
33983.4
28060.2
22638.9
29023.3
7240.12
5565.62
8200.35
-589.781
-1509.38
58.8958
-362.801
1084.29
1144.35
18232.4
11317.1
28541
14993.4
6894.58
4524.76
3775.67
6156.04
12798.9
7422.91
98.6389
2034.04
-1790.97
2231.88
3779.94
12012.6
-803.988
-1658.27
1079.57
-300.634
3328.06
-2206.99
-1351.54
1796.85
420.55
-1386.74
-1977.48
-1283.15
-857.374
2406
-964.41
-383.52
-50.5528
4087.77
479.076
1538.92
423.13
-411.246
-908.271
4724.68
9619.47
19996.5
30589.6
20511.9
47158.5
62183
31777.3
40438.7
56882.7
62994.9
62736.8
67299.6
59344.8
41113.2
32363.3
18352.8
28264.8
29294.7
15232.7
7278.99
6238.54
6397.64
-2159.74
4134.76
18341.3
20322.8
16751.4
7766.66
10392.7
11438
7287.09
6198.61
2186.02
335.499
2280.13
169.364
-787.914
163.205
-773.289
1745.21
2980.42
3379.8
915.983
2487.4
481.988
-542.022
1012.87
8449.72
1771.86
3509.06
483.704
-1003
-758.323
4515.7
16018.4
19309.6
37170.7
34807.4
17348.1
18069.1
4279.6
5078.35
1628.77
2553.31
9375.63
11757.9
13687.4
10061.8
20778.5
11131.3
9056.11
16570.2
12098.3
15214.1
1921.82
3707.72
2640.86
998.982
-774.769
-431.373
-192.947
-272.494
153.218
5543.05
2447.97
1659.1
-818.721
-502.547
4615.58
7092.06
16529.5
10299.5
15584.8
19937.5
11744.6
158.437
-528.074
-217.388
3999.05
1087.22
1447.71
2225.56
6743.61
2767.86
6394.28
-256.285
885.664
511.196
10472.6
6908.81
15588.2
15318.5
3384.02
3361.77
2203.81
6383.25
12136.8
9073.75
6575.87
2909.47
1113.47
3017.88
-239.907
4180.02
6769.45
21247.5
23038.9
39881.9
34055.2
67107.1
32925.9
29204.7
36544.3
39568.3
28448.5
26817.5
30620.6
15423.6
6792.94
7499.77
6723.87
4253.83
5497.46
2443.3
1020.07
4362.85
2871.87
8263.99
11752.7
15132.2
6781.08
2546.51
3134.63
2367.52
-539.285
-422.231
1703.77
-1435.5
-2178.04
-776.372
1848.02
1151.68
4939.21
10012.5
3709.96
1019.84
-1393.96
1660.87
14488.7
11345.8
4699.72
570.137
1413.8
1898.06
3783.23
14925.7
11327.2
11611.5
195.142
-633.252
-173.109
-1086.87
6412.67
1755.82
2174.28
3090.78
9787.13
9343.33
9641.18
5381.14
3807.18
5221.5
9563.65
23983.7
32246.9
30841.8
32993.7
34676.7
29836.8
14329.1
20945.1
15767.9
13531.8
4774.8
4174.93
2603.4
1843.79
-437.219
-599.511
487.917
3795.42
793.547
7597.6
4827.92
-79.7942
4709.72
3127.04
316.68
1029.7
1859.85
-1911.26
-1153.66
582.979
1421.37
-312.92
-2251.96
-2304.35
13709.1
23473.5
32915.3
29500.6
29547.1
14259.1
-139.188
-411.374
-444.942
-1217.67
-505.927
-1812.83
1235.51
-877.899
3550.54
2353.74
-79.5492
-2915.23
1880.93
-621.085
2312.59
-618.09
1627.89
1700.71
-600.015
1760.84
12279.4
25028.7
43503.4
32641.4
15115.1
7206.62
19487.4
27350
16211.5
5730.86
2564.63
4248.63
2933.08
1136.05
2239.56
3260.21
446.509
4122.22
159.866
-523.961
6440.19
7531.1
7041.84
4924.31
6781.59
3975.47
6980.77
5840.35
9282.38
-781.959
4196.23
1525.15
286.438
1365.36
7255.33
14437.6
4651.83
22569.4
14474.1
1659.1
1885.33
-124.489
-3165.96
-1161.7
-2715.23
-1546.13
9530.71
3506.65
10127.1
1693.29
1503.1
822.762
2473.13
2382.21
5794.77
17811.5
14392
38012.8
14151
17330.3
21163.2
20034.3
12283.5
4327.67
1917.74
4308.08
519.284
2133.36
509.771
2941.47
3442.76
7023.61
2470.23
7761.31
4182.95
-1230.11
-356.184
-416.233
-1983.89
81.0588
10478.3
20717.1
14406.7
8603.66
4017.55
9404.07
2323.78
5591.01
14608
19716.4
38732.1
38627.4
25720.2
35541.4
24519.9
18185.5
11696.7
3538.89
6693.6
13926.8
1870.58
8283.8
2836.75
1693.13
-2040.29
459.653
-311.11
1176.75
4328.95
13607.4
14466.5
1675.44
-2724.42
849.691
-296.814
9578.92
2321.37
-460.944
-599.483
430.199
3656.2
9441.92
8322.84
15090.7
16503.7
14427
19502.1
25673.2
13664.7
13620.7
16729.9
8328.42
12320
1454.65
3529.73
7816.29
-140.612
-399.514
-807.478
-1564.2
-673.855
149.169
535.643
655.031
-887.434
32.8801
712.655
775.172
-936.34
245.406
-650.682
-686.747
1784.44
161.257
-740.922
-2817.23
1695.19
5467.39
-1415.53
-1200.58
1402.44
5582.03
7818.96
6530.4
6194.99
8612.52
1500.66
1240.29
156.569
-332.864
3177.86
591.857
8640.26
37192.7
35749.9
38163.9
26920.1
29256.2
23453.9
47210.8
45686
23028.7
27986.7
29248.9
10449.6
14617
20055
20747.9
10556.8
1175.35
7374.04
3062.09
369.074
-361.732
7844.03
1086.24
-4750.66
-2654.74
-381.077
10587.2
17548
10835.6
9289.32
6528.5
-16.252
13049.4
16361.7
22016.1
11829.7
11665.6
12121.2
12258
16949.4
7603.14
886.615
-869.306
658.154
4635.39
17973.1
18310.7
14416.6
28677.8
22880.8
11249.1
8783.52
-887.06
-523.497
455.364
-1066.35
5239.99
14127.7
8112.51
12519.1
2612.12
1654.81
319.179
-1573.63
2707.85
268.361
281.075
-641.418
-763.541
-295.767
-305.354
-330.833
-3333.23
1739.42
-973.533
-76.2247
-964.553
2524.96
1907.08
2148.67
1445.92
302.173
5291.26
-475.35
1364.68
-815.586
139.545
14.5453
-355.395
2627.5
186.774
283.988
-441.895
-1535.24
380.096
4873.11
1794.14
2734.98
6190.18
11882.1
17304.5
17389.4
46655.9
27385.2
19885.3
34644.6
19221.5
21262.7
10996
4706.17
15269.6
11744.8
16595
12883.8
19152.7
17257.9
19287
30740
19579.6
4759.92
1707.01
1714.67
368.862
-2148.11
1114.03
2982.17
1948.1
-1307.62
2039.9
-687.177
-825.345
12930.1
14351.1
12010.2
19927.2
12940.9
25376.9
27690.7
41978
27309.5
24707.7
10401
18321.5
14843.5
12981.8
10749.7
10754.1
27136.5
36392.3
22019.6
20593
16867.3
14147.1
12653.9
5909.39
-434.818
-241.221
64.3048
-1393.05
358.939
751.872
-1489.57
-289.917
721.103
1773.89
3023.64
2438.59
691.983
823.364
714.658
-2651.41
1829.46
-1206.14
-2382.23
-174.048
-88.9945
-1928.73
476.246
1018.24
3196.63
17808.5
21557.7
5394.2
581.209
316.751
-1140.56
1379.77
104.196
197.642
6.16981
291.693
-1396.99
-210.279
-251.313
-1657.1
-869.419
6333.04
9113.52
5886.96
-933.922
6521.54
9603.5
4754.1
20402.5
16980
6120.11
13950.3
17722.4
15791.7
5494.08
3310.39
11320.8
11599
4606.5
11098.5
5843.58
3316.22
456.486
-831.622
-1387.27
-1101.59
-701.33
270.131
9564
3868.67
4289.4
9751.78
7318.92
12234
12322.3
15233.3
4807.76
2768.01
-621.712
-546.18
-1138.7
56.4834
-1105.79
1757.55
1531.53
-648.92
-637.915
-1258.76
432.65
-1305.98
-1163.91
95.471
542.592
815.91
-389.349
3659.5
3445.27
5336.37
2704.99
1060.58
-988.333
11364.1
5114.52
1842.47
5973.93
6559.68
8444.48
-157.139
2287.02
1960.71
-2756.59
2887.86
5815.16
112.914
830.702
-777.425
11677.7
4693.57
7602
457.968
2720.67
-1152.74
1326.92
578.794
100.392
-5350.55
-749.238
6265.67
6771.71
15700.9
10713.5
22554.5
29538.5
32139.7
24155.2
21654.1
26881
8012.77
133.26
2858.64
6163.52
6435.03
20336.6
25474.3
20667.6
12469.3
5972.76
189.841
2585.09
-1037.65
1546.98
1627.55
-2482.15
2136.16
3337.45
-2338.1
1555.69
421.615
2331.44
6432.16
2977.14
-2670.21
-429.441
-712.464
-870.717
2172.4
1815.55
-801.897
1809.19
332.777
4208.66
7398.24
3901.02
593.542
-214.406
5161.12
8512.13
19676.2
8834.72
5635.67
24710.9
22433.1
6807.36
2630.78
-157.567
-536.624
-1684.61
3994.94
2404.92
22048.5
10940.9
12707.6
25194.7
14436.4
18440.7
15387.2
6110.92
8413.83
16081.1
9129.61
8686.77
8824.76
4312.52
2487.8
5989.9
832.393
-2673.62
2066.79
13968.9
10187
15647.9
37676.6
40702.4
38272.6
31601.8
24012.2
7226.8
1107.09
294.363
1757.05
-401.951
-1385.71
-868.448
113.528
-846.327
-582.957
-403.488
-1272.71
4277.63
6396.96
6531.36
-1503.45
1050.57
289.614
85.8393
-1760.48
-954.473
-422.402
4270.42
2063.1
2471.45
899.792
1999.43
1285.46
2061.14
-1414.44
1344.31
3468.38
4061.86
3788.84
2193.63
6804.05
15997.2
32878.9
23366.7
21453.5
17747.3
23697.9
56441.3
35276.8
20468
27104
25728.4
34931.6
26706.3
25230.4
18345.6
9341.02
10186.4
2883.53
1374.26
245.749
-2517.08
3037.12
254.611
-224.803
1031.65
5353.92
5403.24
13550.5
33347.6
29789
17927.1
13526.4
12760.5
11647.1
6488
2910.76
-171.174
10361.6
23845.8
16197.8
9151.23
890.931
2024.21
-897.603
3146.84
10092.8
16472.2
31216.3
44424.6
54454.9
34749.5
31915.5
14448.1
9466.21
14777.7
17733.7
28819.1
8016.73
3030.13
26304.7
9862.16
783.542
2853.4
1355.23
3699.21
10102.8
13681.2
8632.08
14554.6
45046.1
32796.4
23948.5
16940.1
23708.1
12747.5
13436.3
11371.5
4285.82
7984.2
10094.6
-661.705
-2660.41
-555.453
1514.14
3115.91
551.719
4054.32
-567.665
2425.63
2151.26
2800.46
2590.6
2201.84
-881.046
1079.9
-947.444
-491.461
19.766
-1356.95
-52.1495
4054.26
13437.4
2139.59
4881.46
1734.05
2415.74
5070.73
1604.41
-1035.72
900.299
611.13
9276.92
9486.98
6405.22
15254.8
17650.6
17050.4
23455
32538.5
12035.3
11100.9
8150.06
17925.5
22796.9
20848.3
45464.5
60099.9
61988.2
42992.3
53818.3
61784.8
71245.9
65116.9
59301.7
49291.6
50743.3
51273.7
55516
41084.1
42967.6
21726.8
19685
6778.97
8648.18
15180.2
12313.7
22013.1
15238.7
8161.96
14953.8
7622.09
22083.8
25992.5
42974.4
60586.3
64421.5
38715.3
39531.2
47691.5
24055
27063.9
21351.2
33068.2
40968
48516.3
51093.6
55414.2
60380.1
37405
71850.4
82924.2
75116.2
65769.8
51958.2
46282.3
10611.3
4477.05
3878.02
3667.09
892.485
1410.18
5266.65
2618.17
-784.529
1902.87
4343.86
232.635
6665.69
-215.437
-133.501
-1195.09
-784.715
-1038.77
-759.511
-3412.92
943.596
1846.36
2123.54
-674.624
-726.673
762.931
-552.308
1047.38
-26.4768
-637.984
-776.349
6778.51
626.399
6175.67
1216.68
-208.162
-954.804
443.052
-449.673
85.7782
-179.884
-341.535
-362.215
-33.3331
353.662
-283.507
151.707
8576.26
4873.92
-351.655
-474.647
1157.53
18517.5
16070.5
17115
42051.9
25659.9
5915.99
12954.9
10577
24159.3
18448.6
4731.77
3148.99
15481.1
23017.8
11149
16713.7
11202.7
1467.43
116.444
1102.82
1947.56
3952.62
-288.384
11000.7
1838.58
-39.7132
-1904.29
-798.419
-204.224
-240.31
-1904.42
72.7139
-1122.88
3280.67
5011.19
1192.43
11728
2443.96
7911.38
11675.5
3295.87
20377.3
15128.9
29891.9
16009.5
922.928
5857.33
-1160.58
-115.133
175.379
10726.2
12587.9
419.544
7006.92
3730.98
7553.83
12987.3
16960.1
17664.5
15030.1
11725.7
6156.41
355.499
163.868
581.276
-614.807
-1257.73
-78.9347
714.5
553.602
-551.47
4810.85
16029.6
10567.2
6223.3
13840.2
15924
8849.31
20316.9
24376
16097.3
5617.12
2492.38
4723.2
7366.93
4011.81
4928
7192.43
10203
-1515.67
774.723
2168.47
1314.68
6346.93
5395.68
3612.13
11401.6
9861.63
2038.56
393.305
426.641
-901.835
3394.74
14042
13788.1
5532.22
9851.72
12015.1
1957.17
-433.589
6308.91
11550.9
19492.2
39144.3
73820.2
52881.6
34790.2
33974.6
29956.4
34638.1
31924.2
14357.5
5150.09
9893.21
9905.06
43680.4
30395.9
14775.8
13681.1
10030.1
15596.9
26145.2
18125.1
4066.1
2995.57
14014.6
12925.9
25546.7
1861.52
-1708.55
1814.38
3783.64
406.513
9267.68
4406.8
12007
10279
20754.3
6100.75
284.198
-954.827
-1150.11
866.476
1999.36
126.232
1844.89
4589.11
15803.2
9785.92
2901.93
13393.1
4805.54
12913.1
14023.4
11085.9
21901.1
10164.1
7032.43
13949.2
14120.1
7346.14
4343.96
10164.8
18850
8339.76
1506.04
10196.3
23898.7
9502.38
3152.06
9040.55
616.23
-1276.11
491.54
756.474
141.459
1913.14
6246.81
3589.2
-353.05
210.419
624.924
-10.8918
1097.65
117.175
-677.923
1682.76
-785.588
1822.91
1328.34
255.037
3234.71
500.585
-547.55
-198.816
2894.9
2636.41
1394.06
422.077
1243.78
-1515.39
1379.33
24.058
-368.577
-481.884
1216.99
2985.98
-1187.55
5912.38
-785.187
-7.92516
-1026.59
2661.23
2122.11
5680.45
16310.2
7068.89
14939.7
27986.6
34378.1
28122.8
21311.2
22525.2
56430.2
66472.3
83393.7
61380.3
52147.2
31980.9
23848.1
36258.9
24817.8
15367.2
24142.2
28236.8
62549.4
98765.4
63405.7
60373.1
40609.5
12040.6
12291.6
2375.46
4127.1
-2168.29
-1411.49
6167.76
2751.78
725.717
-858.217
-280.23
1626.25
597.385
289.139
-1098.38
-3429.94
12996.3
12581.5
11723.5
15722.9
8593.89
7194.74
4321.84
937.711
3985.89
3671.71
9321.91
2928.82
3805.98
9466.08
1506.45
-1122.9
-1095.26
-436.351
-1256.48
1099.28
-2228.95
133.361
3331.18
6242.67
7840.19
3441.32
2091.8
-306.184
8652.29
9450.96
8725.48
12448
15671.3
10381.3
16045.9
14530.7
10496.4
24246.9
36599.3
17853.5
23539.8
35527.2
27903.3
38700.1
27162.3
26985.5
17080.2
2409.29
3022.96
-677.428
637.368
-93.0502
8721.36
-847.873
534.149
5158.73
6616.8
3666.37
8753.34
27524.5
58006.2
38501.2
33062.8
12562.3
9534.64
4756.46
24568.9
41409.3
43125.6
35245.2
38713.5
52843.5
98823.2
123691
85943.9
83846.6
47126.7
37141.6
19404.1
21645.6
23632.3
27088.4
18786
20825.1
18286.5
22052.4
49195.9
36933.3
15760.1
15472.9
24207.5
28275.3
51879.3
62513.1
40919.2
43269.5
40571.5
33338.2
39838.7
52445.1
32840.3
32323.2
11819.1
16918.1
14029.3
26501.1
46644.3
56489.7
62562.2
60767.8
69889.5
78920.2
72457.8
86232.7
97555.6
83948.3
140761
80795.5
61402.9
33535.7
18545.1
12696.3
25302.9
9571.9
11234.2
9120.06
12603
4510.88
4085.48
-503.842
162.083
-403.52
2631.56
380.854
2601.42
1062.97
549.065
1642.48
-1557.17
-1800.25
-1745.11
3060.03
2274.58
-1116.43
-770.455
239.514
10196.5
3471.41
2953.69
6360.72
-858.954
6728.85
5117.48
3595.03
2133.69
1239
969.752
-2148.96
1649.3
681.307
-2557.94
-141.22
-482.692
1700.14
-750.604
2243.93
9141.52
10256.6
21676.8
9953.24
8523.81
5361.88
9060.9
18347
12761
11439.7
2683.17
5913.53
3375.92
1561.93
5815.23
9969.18
14571.2
6464.43
25023.9
32041.7
34237.7
33546.2
29213.3
16713.8
11005.3
6170.15
4329.36
12048.4
15920.8
4972.2
583.369
372.57
-154.979
2274.51
9295.33
1721.6
5216.52
5582.78
2818.84
-162.054
2299.8
2601.83
1313.7
906.945
4338.32
2521
1330.85
1769.88
582.971
356.025
1327.55
3136.64
6611.83
11355.6
8055.48
6768.49
4908.66
1762.76
4981.33
-2066.59
6898.38
2007.65
5036.83
345.243
6930.11
12759.2
10151.5
11225.7
24252
18384.1
14571.4
771.549
5003.17
2330.75
200.56
2851.67
448.163
2339.27
8432.12
3549.81
3582.55
1539.75
7241.44
13273.5
16592
17299.3
11148.6
1963.75
10035.7
7664.5
5776.79
4405.56
11500.3
13633.2
4705.24
7390.83
4996.44
13221.5
22992.1
26542.5
32590.2
17166.9
3914.64
1721.64
-25.9958
-2049.81
3079.26
9811.45
8580.28
21933.3
26785.4
4854.16
10941.7
5152.01
1806.11
-2654.44
-90.5787
-389.765
4088.25
4561.02
782.879
4774.26
5108.51
4027.73
1129.53
2477.05
519.823
49.9522
363.714
72.4354
5683.39
4842.77
13749.9
17423.7
26063.7
19101.5
1891.3
6215.02
6347.93
11334.6
12785.8
18235.2
18832.1
10766.5
13870.5
4745.32
-1063.49
2467.52
8328.96
12516.4
2314.28
8022.09
559.838
-829.743
-1875.15
-1887.29
1582.87
-95.5549
-912.89
-338.545
781.294
4035.83
2234.18
-365.024
224.358
510.333
-2307.29
4872.64
-1132.75
-1855.49
108.541
-415.029
179.82
785.059
-1036.17
-516.223
417.469
8090.83
-994.454
-1338.95
2534.98
-1132.9
-1246.96
5226.69
1315.48
21620.5
7066
13164.9
7041.34
10654.8
6235.64
15613.6
20683.2
2387.63
10100
8325.72
15906
8569.48
3544.65
7604.76
1520.77
1469.81
-595.803
1477.18
7520.51
8978.82
2894.42
11869.5
-437.025
2463.23
1757.33
7856.75
4982.28
1930.89
4067.28
7141.31
6673.01
3293.84
-477.324
817.571
-77.8577
-1874.46
1641.72
2131.24
224.493
1477.85
144.822
3414.88
3698.97
5402.39
8994.9
7514.14
6292.23
325.251
1104.61
-190.637
823.473
2431.22
1546.03
4573.86
6095.61
1103.96
-1540.75
3245.94
646.759
5381.83
13386.7
14448.8
14771.1
16585.8
27570.6
36799
22980.8
21447
25368.1
14021.6
41116.6
21269
8754.09
2293.6
-532.699
-12.4033
7264.87
21932.3
20849.7
2968.99
9196.66
6166.38
1242.69
1748.21
4459.84
-2279.54
3027.66
7627.96
3268.35
571.619
-364.155
3782.13
7622.12
2174.56
-941.752
6856.06
8145.08
11631
20927.6
13762.1
14083.5
14494.5
4463.72
2534.1
2059.88
-495.077
-618.844
2451.57
-33.7596
1018.57
3519.22
17213
2720.83
1577.59
-855.06
254.249
2647.78
7550.94
4435.68
5593.29
2154.72
15.3752
-11.0285
-8.61299
-156.475
3824.3
1416.65
3505.09
-487.237
1121.38
738.423
813.09
4610.3
19083.1
11249.2
-6.52677
1098.3
5554.38
5488.58
7571.24
11667.4
15354.2
37540.1
9993.37
9538.71
1934.12
437.295
2725.83
2644.05
-1979.86
774.296
-259.507
-921.233
7032.8
7782.97
23260.6
25951.9
17194.4
5394.86
848.224
569.546
-1363.11
788.582
-434.538
51.8263
16.2566
-175.447
-644.212
555.602
9569.03
-825.479
1736.27
3428.23
26200
34162.2
34749.8
25617
24496
39547
22610.2
31543.7
33628.8
20006.9
10628.2
5723.94
3490.5
-713.62
-1639.65
-78.4948
-954.833
-1155.65
1095.79
4460.28
4748.51
1409.6
2899.11
5366.15
7642.2
-1129.72
422.644
2865.17
884.556
4250.74
3418.71
24869.1
25002.5
52338
66705.2
50444.7
35441.7
41359.4
31123.6
26055.6
5540.18
27702.2
15207.5
15764.4
3503.76
2827.59
4716.31
-1203.9
6138.82
4470.17
6600.51
16633.6
8667.39
2177.94
-1160.37
-25.6628
1018.8
8623.44
22080.2
10279.5
19181.2
26280.7
16817.8
11394.4
16138.3
11961.9
13170.9
21701.5
5121.28
5062.81
-1675.38
-211.727
2261.24
1474.07
2582.27
6244.06
-830.264
132.415
363.637
-1878.1
751.339
-494.22
1679.25
687.613
-658.71
271.092
-27.9111
-231.223
4456.08
1565.98
1252.09
-779.344
-3178.44
5961.63
121.262
-142.938
-2742.14
-1447.16
-1655.82
120.371
-668.821
-1781.36
-1055.6
2229.91
-489.789
226.588
48.5385
638.237
3615.5
143.479
1389.3
8189.62
12969.7
6655.25
2257.34
4681.44
1167.72
8149.99
15888.5
12354.9
22563.3
19071.6
7232.98
451.377
1502.88
8108.64
14795.5
9352.65
26533.6
37152.3
24437.3
10516.2
16197.3
14772.3
9803.04
19692.8
36700.3
33559.8
25025.5
30923.8
53005.8
43714.2
31259.2
31055.3
34659.6
20751
13098.8
7312.14
3873.4
10431.7
1209.92
-415.493
-3185.18
-928.929
5262.81
1160.85
-1525.26
1420.81
25.8411
3925.2
420.21
-1234.87
1658.08
6722.35
4414.81
6588.23
616.32
-814.447
2663.53
4413.24
5951.88
-123.473
-173.589
-400.891
-480.018
87.8105
13162
8818.05
4092.7
8.57167
4457.17
3866.74
14574.2
4022.19
1300.96
-1784.62
-814.236
240.33
-1132.65
909.688
-1438.21
-542.966
383.655
-1633.77
-1736.59
592.199
-1433.03
991.497
2469.02
-667.691
3726.89
3744.4
8978.61
16693.3
14080.9
5938.61
-422.111
-1272.82
-462.837
996.361
1007.44
-171.209
1437.22
-141.904
532.955
-366.232
-150.767
2496.57
12730.3
2297.67
5635.12
1575.44
6984.17
7373.72
10679.8
7774.87
4546.08
6140.63
460.881
1586.58
4576.63
7393.6
5221.71
6529.45
6021.8
6906.61
5950.93
9415.73
10469.7
12726.6
13357.4
9545.1
253.925
2960.71
1054.71
1015.33
122.116
1455.23
2439.21
-65.4187
-4465.34
-129.356
-1050.82
167.208
-253.426
986.751
170.802
2498.5
3461.43
4918.7
3621.84
400.961
3907.09
6360.67
965.729
1516.13
2775.46
253.273
1813.66
-151.398
-935.811
-374.01
635.559
207.262
-133.257
183.938
-630.682
-296.882
553.902
-355.05
1241.31
9177.38
2086.88
8717.66
6139.14
2773.32
2218.23
3801.24
-958.744
7392.02
5828.95
1486.62
-1513.34
-1712.78
-1099
1910.38
1533.88
-625.012
-1534.88
802.201
10423.2
20341.8
21922.9
26184.9
25840.9
28009.5
18633.3
19058.3
35531.7
21174.5
26811.7
17446.6
16072
23136.1
17557.1
25567.4
22288.2
10452.3
-1487.31
-352.628
2981.28
957.085
-485.29
-1091.95
2504.12
-192.262
2476.15
629.074
2608.15
-497.127
347.465
3737.43
7524.88
1394.41
489.458
-1099.95
1352.02
1275.79
1665.59
12253.9
6536.77
10966.9
19156.6
15499.6
27653.7
20093.5
2527.42
2583.61
2761.17
3168.39
85.4194
-1037.95
-602.519
9707.61
5264.62
9051.82
930.355
1184.23
2637.1
2352.62
9239.25
1179.06
37.6827
-150.004
5595.03
2821.86
384.067
1861
-69.7611
-1847.61
2016.85
3678.87
5505.2
3385.81
-1128.29
-351.313
3820.98
7876.22
5580.71
-516.831
-162.973
75.5451
-16.9323
-710.586
5074.75
-92.256
1987.93
4071.84
1635.5
1874.01
2660.03
-770.8
937.964
-852.453
-870.538
442.599
856.513
-198.91
871.349
-2758.5
-971.405
3059.06
3351.46
450.28
-595.458
2039.69
-601.616
3343.17
-1038.77
1224.48
332.589
-956.794
-775.897
1149.45
8520.37
9308.66
23277.7
25671.2
14326.5
14898.2
14163.7
5045.07
1190.75
1615.16
5450.82
18007.5
6161.94
4557.85
18734.2
13366.9
14737.1
14860.9
21372.3
10352.9
8448.37
18760.7
10670.1
4325.74
3150.18
1471.55
1166.61
1441.59
613.655
-1301.81
4319.44
159.892
4046.98
609.705
3434.34
11794.1
17067.1
9804.35
1567.14
4753.43
1054.02
-1006.15
-1158.96
2086.74
-939.886
1225.64
9451.98
-194.328
2069.51
344.518
7524.07
1884.7
4073.88
4358.77
573.209
-68.0515
-935.827
-1425.49
-291.618
397.192
-338.61
-519.796
10848.5
14109.1
19547.3
28338.3
29114.1
25371.5
35265.1
53869.5
41822.3
34303.9
49988.1
23819.3
26682.7
59098.8
46655.3
58065.7
34534.3
43426.9
31731.7
9814.43
7057.79
117.085
971.441
493.694
-167.521
1971.65
12620.6
3508.17
5324.89
1399.41
-670.664
-17.3223
-52.3166
1868.89
2550.63
22952.1
16768.5
37080
33682.1
57644
63888.5
39323.3
76110.7
67244.6
62849.5
60712.5
70824.5
37786.8
17888.9
12635.6
6969.94
3233.6
1746.7
4334.65
14293.1
20594.6
25901.8
19514.1
9357.6
7072.17
10676.5
18486.4
36477.7
52864.6
51731.4
66343
52068.8
62592.7
72643.8
75801.2
77862.6
85070.7
80845.5
87537.8
95534.5
74662.1
47510.9
28308.1
14601.5
20116.2
26696.4
24257.6
21032.5
15958.6
17148.3
22107.9
18888.1
29288.3
27356.3
31420.9
30350.3
42071.4
35965
46336.2
71522.3
99295.2
101196
73189.8
84455.5
72238.3
65485.3
37523
50574.7
21332
12266.3
13263.5
12417
11491.9
8130.1
3239.21
3316.37
7264.43
4097.1
1667.59
-71.577
-1300.01
-202.956
-103.584
741.883
-1241.96
-48.2148
766.988
6044.42
1591.93
-424.935
80.3017
8542.49
5650.35
2900.94
1545.48
2898.21
-729.607
1002.85
-1073.62
-3040.97
6765.86
12995.7
4336.45
494.592
-256.716
-509.126
9457.5
19393.5
23296.9
18278.4
8393.81
10488.7
13877.3
6778.92
5966.6
736.661
500.831
11983.1
8272.86
5493.54
9477.73
30197.6
53935.7
32449
20617.6
12851.4
7659.55
7885.04
4713.94
3922.5
38629.4
67934.6
90949.6
58151.9
75022.2
52828
61271.5
65704.6
79024.5
59982.7
47294
35613.3
14033.6
21606.4
18326.1
9280.25
6289.34
7834.74
-902.82
119.016
-343.438
-793.925
10529.7
4665.24
37127.5
16007.5
16031.1
28912.5
19163.7
18133.7
17306.1
14537.9
26811.2
28848.5
68601.6
70361.7
90003.4
70800.9
59418.7
72478.6
57569.5
64131
42820
35894
61591
52397.2
93528.6
97719.2
126159
91856.7
92182
116592
86310.6
69922.1
73380.6
68885.4
100567
120465
111160
68548.7
56059.2
36145.2
21024
26886.2
23856.9
14963.2
10064.9
14089.4
4035.84
8519.39
-3692.72
1160.21
13046.7
12447.8
4528.5
4594.75
-784.993
222.533
44.6819
-888.506
354.217
8092.07
1614.98
948.871
1562.11
-836.362
7841.75
3288.8
10094.8
18926.1
38630.2
25369.1
14582
19635.6
14734.2
18777.5
14438.6
28031
29480
27933.1
2265.53
7262.71
8917.22
22090
21500.3
13153.8
8649.67
44376.4
31058.2
33906.4
43224
36674.6
15913.8
11848.1
15209.5
33876.1
27924.1
24000.2
38629.6
31295.4
21550.8
24191.4
17505.6
44228.8
59477.3
43261.5
46886.1
17419
36387
61081.2
68349.9
34667.8
27438
10598.2
-1209.52
-385.091
4790.87
-304.546
-1395.47
-211.323
-1051.2
4804.75
-156.949
-2550.21
-648.199
4890.04
24481.1
32209.8
42474.3
48331.4
33234.5
26300.3
9567.16
604.318
85.3283
6183.66
6562.91
4843
7297.82
-54.9917
881.965
1773.77
1985.33
10600.6
17084.9
26301.6
39575.3
16419.9
17376.8
22437.1
7275.19
6640.39
13655
21437.5
32451.5
28289.8
33125
37783.2
12417.6
26797.1
13337.5
8129.21
10006.4
10661.2
6948.7
229.717
1237.17
6359.76
176.003
8265.02
9276.42
21936.5
22068.1
23807.8
8034.72
3537.55
14064.8
1596.23
-576.923
992.94
2476.74
18029.3
2096
-874.305
-180.589
939.707
1161.6
4375.64
5488.24
-54.8403
-443.777
-19.3298
-7.96321
1685.05
1685.73
1150.84
4372.53
9262.08
10058.4
10385.5
7739.8
2990.26
1284.79
7489.39
14080.7
17499
31687.7
28913.2
22266.2
5388
1339.91
841.374
1438.04
1003.94
-390.849
4970.9
9922.21
13388
13227.7
14029.7
31796.2
33158.5
13440.3
3944.86
12217.6
12605.1
27026.6
13950.8
16584.1
2956.1
389.917
-273.986
6937.81
19937.3
8016.65
5922.29
4637.39
815.064
-115.389
-373.488
121.908
166.631
1942.65
-481.572
1174.48
-565.151
-1292.21
-1913
2291.15
3499.54
5145.46
-640.234
-1798.78
-559.296
-2106.65
-88.8892
133.149
-162.988
-677.869
-1112
-1828.88
-415.572
1298.62
-1213.37
445.869
5947.93
7196.92
8071.02
-574.907
1515.69
644.867
-162.596
-1014.58
-523.745
715.823
3917.97
1693.84
9384.85
7698.65
7450.48
23041.5
30379.2
26115.4
21611.9
59130.2
33594.2
43332.1
42259
34029.9
21712.7
6945.46
11639.1
7288.87
5461.09
3060.24
2168.34
1327.56
4182.61
12903.6
5711.78
1390.76
15560.9
20212
20817.5
12123.8
20463.9
23496.1
15772.8
20012.4
42650.1
50098.6
43148.4
47864.9
73374.3
103899
122245
132705
111460
62484.8
61330.4
63321.3
44010
36071
58306.2
76668.3
97500.3
80331.9
73569.3
82703.7
79964.5
57111.1
13651
-2.29625
-491.16
-1883.76
-1403.67
9942.29
4590.95
1042.51
-1245.99
14476
1894.08
-865.798
-251.986
1952.64
6692.83
5325.66
10200.6
19688.3
25896.7
13423.8
11096.2
-827.246
4500.7
3882.03
1273
1095.15
-274.941
2945.22
-1096.03
-451.59
2516.44
1737.53
5703.75
10627.6
1331
-830.661
285.617
2680.46
4668.18
10372.7
967.785
708.662
-843.404
7850.04
6365.98
18658.7
15117.3
19607.4
14269.7
6666.01
5983.36
-1634.56
-745.941
427.792
5744.2
1372.01
-1116.44
-477.956
-1746.66
1940.1
742.632
4928.56
5033.44
1827.03
4540.6
811.452
1283.37
-3070.07
-2995.91
-396.392
-307.691
-216.97
349.137
-547.631
9.58336
-1278.89
2583.26
172.665
13511.2
11962.8
19011.7
7800.2
3967.18
-345.429
1326.94
8371.79
2165.15
75.0256
-1053.98
-577.94
4529.74
4118.84
14909.8
10810.8
8094.87
7064.24
-423.873
534.035
4631.79
4380.64
-976.885
5399.63
9706.39
2955.25
10298.6
6704.17
2047.74
673.499
-534.607
-2279.97
-1709.42
-202.32
1126.89
-2727.67
1654.92
6584.29
9592.44
4090.57
13713.7
14664.2
24611.2
15694.8
18768.6
7495.83
19852.5
4943.33
-2067.89
-162.841
-1315.37
-1615.1
-548.508
-1361.2
2998.82
-1172.29
1564.93
2223.89
31541.3
20261.5
24641.3
12719.2
4767.51
-302.454
7997.29
1307.45
15639.8
15935.4
4852.47
-96.5999
1257.8
-363.99
16.3089
-10.7287
-860.559
-4630.71
301.442
-1148.4
-2790.24
-223.908
7629.87
560.889
5335.58
7774.88
9176.22
18479.9
6639.77
-196.37
-451.155
1533.92
681.921
1759.11
2433.2
-1112.71
497.019
657.929
-193.683
-632.4
1857.62
2624.37
6065.21
1349.55
12719.2
8109.87
16583.1
9256.8
11120.7
6310.39
1157.74
-3960.01
-2610.14
-1469.51
3363.98
2901.02
3557.97
-119.84
8020.57
12465.1
4723.51
-651.048
1157
4314.52
2729.75
17734.8
17816.8
11239.4
11500
21895.4
22818.7
11876.7
16353.6
31816.6
14694.1
3562.4
3994.06
3246.5
-560.126
-234.749
538.149
-1383.96
-2819.21
462.766
4466.53
12065.4
-371.973
-275.863
1539.24
3802.95
6968.82
2809.41
7816.54
2779.54
4049.71
3979.59
1020.31
3420.49
12134.7
5030.39
462.465
356.05
5478.1
3609.74
-572.829
120.993
4558.2
14543.1
8922.51
2875.68
3159.31
1196.01
-734.942
5171.23
-4318.45
-2100.82
-1023.56
2283.55
1296.88
1462.32
2209.31
1544.4
-1374.58
2724.42
-4.5349
1328.19
4483.42
-17.1137
5466.31
13275.4
6509.01
5822.35
10243.1
24920.8
13716.6
17517.9
4730.14
7189.12
6927.99
10512
9591.77
27804.9
18961.9
18284
10456.8
13144
1765.27
-388.234
1421.96
175.343
9334.8
9883.8
1572.61
-2492.84
218.427
2117.81
481.942
-894.393
1914.45
-311.719
3746.72
347.72
-206.988
441.735
7252.51
16297.3
18799.7
25886.6
28958.6
24922.4
20767.7
15432.4
6030.51
3143.53
104.18
233.439
-725.394
-1550.46
-1453.08
415.383
2404.07
33.2836
-583.076
-387.71
-1564.2
8541.22
-1207.2
-1505.69
-1040.32
64.0931
151.701
3364.07
-154.392
2662.12
-1043.8
-1325.71
568.668
3450.3
-779.024
1006.43
4749.88
3924.27
21352.6
15769.2
20806.8
13708.8
16853.9
17473.7
6267.33
3521.42
1723.9
3067.63
18416.5
22832.3
14064.5
22886.6
31662.5
17385.7
20720.6
28651
32943.2
40811.9
24676.7
45906.9
24237.8
22456.6
27433.6
16889.4
23233.7
33906.1
12440.5
20616.4
16978.5
24237.6
5699.26
265.484
-2348.32
2397.26
4203.15
5897.42
2734.8
10014
7406.76
2829.99
12831.5
8839.33
3350.17
1840.34
3416.33
7674.02
-457.364
6047.19
30014.9
734.682
3173.57
-661.36
1835.57
9053.54
20788
15148.1
2393.54
4119.24
6030.93
8059.92
14146.2
24607.6
11599.7
22663
5523.65
16765.3
22603.6
28872.4
24758.3
19689.3
12460.6
11715.3
20715.2
35902.9
41103
57486
63501.6
74837.8
56559.5
55282.8
40800.9
38917.3
25959.4
6330.93
3415.4
6520.99
-837.575
-2223.84
4184.36
11471.8
19507.7
13793.4
18140
9929.93
12531.3
23543.3
58316.9
41854.5
58743.8
58560.2
48048.3
31903.5
26654.5
37750.9
43447
36362.8
17938.1
8389.73
9861.78
20275.7
20670.9
29848.3
89905.5
73484.4
71490.4
50758
73685.7
55568.5
42626.2
48746.6
68219.2
38712.3
13317.1
3272.87
13813.8
8153.28
19854.1
24280.1
7594.72
3837.98
4159.08
550.049
6225.51
6990.75
8985.16
11069.8
11925.3
21887.7
18621
32838.4
17112.1
31790.9
27367
48999.6
67789.5
97817.3
95478
47485.2
25315.3
3350.89
468.384
-519.066
3256.61
-1004.31
396.91
-90.7398
-348.13
8318.09
13297.6
9182.99
6943.87
4014.32
3751.82
-105.76
-165.989
1074.55
-730.212
-67.7701
-324.16
111.197
1509.08
8148.92
5010.45
2808.54
-437.269
613.773
-1699
-1261.46
5687.67
6057.24
17197.7
7776.48
-779.789
3089.25
4220.06
2534.09
-832.881
1033.33
-335.059
718.212
-308.198
-579.619
2749.94
17118.7
26265.3
32759.5
37401.1
16315.3
22575.7
15933.6
37041.6
22803.9
31345.5
25105.7
51577
29737.8
23175.2
29833.9
15185.5
10947.1
12294.7
12561.8
20458
29687.9
46368
41395.4
30886.6
11928.5
717.735
6668.41
5959.71
8903.09
11897
16068.6
7232.11
4975.56
9117.18
3161.44
846.663
5394.55
746.968
383.278
-67.9863
8710.68
9562.38
23366.4
35951.2
60908.2
62148.2
63907.6
75457.2
89583.4
84506.3
52772.5
54720.7
78768
64484
79617.9
66142.4
69233.4
69266.8
47784.2
30074.4
14637
14859.7
37847
53637.7
63421.6
64777.4
104094
81653.4
77921.8
46055.6
27701.4
27310.1
18835
23622.3
23720.7
48174.1
38575.9
17210
20477.4
16494.6
28508.5
29899.8
43354
34625.7
39045.7
59741
44684.4
40853
53912.1
68940.9
83844.4
59574.9
75126.8
46686.3
44376.6
57741.3
30776.5
26089.5
12351.6
-69.8922
1030.04
1272.55
-3028.66
-1468.67
-771.718
-125.635
1224.5
10733.8
-867.748
-937.424
136.622
-1914.45
-841.214
0.440163
-463.704
-1822.09
340.277
-1051.28
-423.312
376.751
2844.22
-909.547
-360.935
685.144
248.447
839.821
3786.24
6999.49
-600.655
14.9041
566.328
-1495.45
1254.08
1184.72
310.253
-385.225
3531.57
736.808
5259.11
1068.05
44.6644
1216.65
176.209
1221.3
-560.799
2739
-460.789
138.126
2562.02
-570.101
-625.102
2896.41
2538.66
6714.22
323.968
2524.1
18162.1
15704.9
23602.3
11912.7
4035.89
2205.26
132.6
-142.222
776.745
-104.684
-921.567
-291.677
1927.43
1910.66
485.189
-524.849
242.379
-1515.58
294.43
1443.41
2764.11
1061.11
953.813
-1537.23
1347.63
4783.9
10240.1
7116.01
3890.01
2291.92
6731.93
12479.2
27765.2
30556.3
42845.4
35725.8
63529.8
83229.8
85552.1
41745.7
25042.3
21027.8
24102.2
24458.4
20852.3
13558.2
20859.6
25386.6
22559.1
21097.5
17726.5
27298.1
33960
60050.1
41392.4
24344.4
13544.3
215.476
-1373.5
-558.518
-4481.58
2675.35
-1484.49
-958.437
-2367.12
1077.81
-204.392
-2158.38
-4058.47
1462.64
1297.84
946.361
-2472.09
758.148
1271.77
4975.58
-1315.89
2859.77
-2370.09
8973.94
848.899
686.714
1567.66
4124.58
4656.73
3833.61
507.226
929.37
3445.22
5787.24
1941.32
585.738
2574.71
3393.59
7108.48
1501.84
6333.27
201.811
41.8725
-744.19
-771.104
2280.37
5994.02
124.654
742.335
940.821
10379.9
7452.41
2699.57
7456.27
1596.14
6450.49
6269.95
3795.19
2000.89
6037.39
1499.92
5469.93
5435.49
20561.6
17540.3
1793.27
5807.07
-1405.96
-1603.63
-372.549
-2526.39
-865.576
82.9845
2090.17
2013.15
5238.82
7313.52
7768.69
17897.4
19373.5
25976.6
51545.9
44139.2
43393.2
26436.6
41996.1
22086.3
22779.9
44807.1
26342.7
32656.5
32881.1
12777.1
16995.2
4965.8
6074.91
10075.8
5277.83
8490.98
6732.44
14338.7
14341.2
8595.5
-470.071
-362.405
-1067.36
-188.894
869.103
-233.677
1478.67
-286.578
-2467.29
3547.47
-1154.79
-2128.77
-92.2928
-1422.45
796.584
5555.71
3284.11
5623.28
10765.3
6945.35
331.026
-987.559
-1426.43
-964.549
-1547.85
-688.33
-520.251
-2055.8
745.547
-1684.51
-2604.94
489.156
-255.547
6197.11
331.158
-487.683
1473.91
2374.99
1313.85
65.441
459.527
3748.82
5079.05
5714.87
6422.39
20389.1
17274.1
26800.7
36082.8
38664.5
23606.6
8373.96
4798.34
9193.4
2696.82
576.482
714.929
8855.63
8305.41
5715.97
-914.406
1640.38
-617.948
2833.14
5395.48
8670.09
9767.86
2548.15
6535.03
12110.3
22249.3
9024.53
6051.69
14147.5
16532.4
10800.8
2182.37
3063.09
-285.87
-1494.92
-5431.41
-792.876
-1182.54
856.941
3361.4
-3167.01
-467.547
306.172
-1098.4
2948.69
3947.66
9705.67
8170.35
686.825
327.603
-91.0604
-161.844
2219.48
3381.69
3427.9
7106.97
39917.6
27857.6
18260.1
31083.2
19352.1
28701.9
19644.8
23641.2
37646.2
34451.5
66976.2
43525.9
51926.6
51337.4
21684.1
34115.4
33508.4
28711.4
13779.9
-1257.17
3815.59
-1249.9
-745.472
-1358.18
-1576.62
-280.391
-612.402
-1838.27
1621.84
-1572.03
-278.741
-1392.39
2173.5
1827.61
-1562.77
-537.176
2175.42
822.759
116.783
-124.304
-607.249
-179.032
3394.66
5820.47
262.34
3774.3
8954.01
2533.46
1121.36
88.7435
-770.056
2202.65
3338.4
946.909
562.973
-1182.41
9060.06
9866.27
14686.8
8638.65
960.802
4302.55
6459.41
20877
23513.5
11835.9
12148.9
24032.9
10084.5
11406.7
9525.34
6980.89
13768.8
28449
35771.2
38920.6
32067.7
31854
30664.9
56842.5
46052.8
39963.8
17989.7
31548
23707.3
52800.6
17005.1
27653
31073.9
47793.2
47254.2
34396.3
53906.5
40776.4
37578.9
18718.6
16003.7
8071.89
9087.11
36051.9
52643
58736.3
50709.8
36480.7
12678.6
12001.3
14429.2
7107.57
14154.3
21600.7
12656.9
11893.2
29791.1
7119.59
8843.41
3609
3606.2
4247.58
7715.05
4241.17
4954.73
1087.72
1218.51
-1094.4
400.295
3439.55
6301.75
1318.04
884.208
1138.08
-2066.35
-452.168
-583.355
519.61
234.012
534.886
-1703.89
4296.78
13552.1
29368.3
15127.3
13086.6
4042.48
7196.02
9445
9302.54
15600.8
4209.61
4763.21
-2578.51
-2049.29
-868.019
-506.615
398.471
15583.1
8691.78
7008.5
2700.4
4180.58
2221.96
1314.83
-503.962
831.552
-1362.85
-881.623
1256.27
-790.417
-1209.1
1364.19
15.2353
3412.37
1421.18
-2127.05
3242.03
1332.14
4073.16
-1555.41
3686.55
15396.2
7341.26
5500.7
14798.8
9595.46
25619.5
14376.3
10787.3
20064.7
8745.81
18361.9
1532.08
-1252.95
-555.51
-682.823
5832.53
7837.76
8151.18
7986.12
8057.38
10522.3
2931.62
11201
3899.46
7508.65
1994.29
1217.73
-561.537
-929.48
-1690.74
-111.447
-1660.32
116.225
1908.32
8825.85
16410.4
34034.2
20295.3
4085.14
-1102.81
-879.697
-3134.27
-981.891
1346.57
-1065.94
-2746.01
-1520.98
-855.526
1598.04
-1994.58
142.666
-224.656
1077.94
3120.87
402.83
304.865
3184.56
3310.42
1815.41
-692.902
109.508
-384.24
-159.771
-402.938
-1230.57
2297.46
123.886
-2939.65
-1862.1
-2354.27
-49.2259
1658.74
1132.45
-253.633
3357.75
10071.4
7208.58
5022.34
11970
12877.3
49135.4
64742.2
48872.7
43040.1
32576.7
34412.1
47630.2
80522.4
88926.5
44903.1
62609.8
68458.5
59272.3
72361.6
48955.9
50996.4
37293.5
25053.1
5152.74
8797.13
13078.6
13421
4886.15
2807.07
-913.975
203.638
-662.458
-931.651
-238.837
-2453.36
4387.8
-724.411
-578.103
-3061.27
-636.893
-1311.24
-1699.93
1251.56
2619.74
581.097
-477.216
-1281.5
3260.11
4291.23
7017.5
5018.67
456.114
717.108
922.2
-1126.62
-88.8584
1856.93
3043.99
6543.07
-1754.74
-2730.35
5895.78
2963.87
1384.77
-277.555
1100.57
1349.85
-160.351
10442.6
15600.7
5934.16
7369.84
5827.12
11653.2
8334.52
1387.76
-216.581
948.629
-793.217
4425.6
12805.1
5499.09
1882.84
9072.91
15297.7
-1373.23
6537.19
7086.31
13187.7
13512
23752.5
32503.7
21801.2
26469.8
34699.6
38444.5
23102.8
16458.9
23964.9
6670.41
-201.545
666.326
3321.1
4974.8
9840.08
25749.2
19379.4
15578.3
21078.4
32315.3
21444.8
20862.6
8972.88
6776.19
1792.11
12238.9
11156.4
6532.23
12648
30350.2
80106.7
86626.8
75858.2
89835
79574.1
89003.1
76072.4
45113.3
46696.4
31029.2
30686.1
42951.3
29063.4
32191.3
19852.9
29241.7
28793.2
49966
43044
63926.7
49424
64996.7
80263.4
38064.3
22558.9
21761.9
11360.5
27751.8
34643.7
26665.6
35574.9
23880.3
20955.7
26502.7
20548.5
32437.4
11867.1
15537.2
8816.2
9963.12
1028.84
-1222.7
3248.37
1173.91
184.41
6455.82
3403.61
1257.62
2261.11
-512.432
1127.3
-64.1662
1732.71
938.948
-1173.75
-370.447
1228.64
-805.512
534.218
994.056
4112.13
3136.48
7282.48
11811.6
8207.94
10584.1
5087.28
4303.96
234.198
3495.15
2055.35
-1011.38
-1795.42
-974.784
4803.92
2319.52
-285.255
-483.556
-1167.48
-347.198
9685.33
6735.32
4768.41
3189.61
-15.7496
16.99
-288.928
252.997
1407.94
-1962.87
-495.244
-715.148
7258.66
3614.99
9509.2
18043.6
15477.1
13898.5
24119.5
34062.1
19935.6
20366.7
35781.9
29563.7
10737
9810.57
2117.19
727.702
5863.78
7457.31
-639.921
-1442.32
-1548.23
2551.71
4306.23
1577.97
-1255.3
3596.32
9378.67
3556.21
7567.92
1875.75
5445.03
11602.4
6843.02
8683.66
12083.5
25205.9
42461.2
39379
17122.8
14397.2
5798.14
23720.9
15280.4
11747.3
2030.08
14998.1
29958
35418.5
12807.8
15883
7923.77
5720.18
4240.8
3767.69
5885.93
8493.49
10094
8856.78
9863.07
16194.1
26415.7
23952.1
39451.3
21880.9
24226.1
1369.23
2034.1
184.921
3136.36
3439.62
5585.57
23688.7
18814.8
2749.7
2394.32
-261.719
-272.091
775.882
-3343.08
-1892.84
-68.4853
-670.359
-985.251
3213.08
6557.62
3358.31
6066.71
8340.83
11178.3
2192.3
265.219
-368.754
-1882.66
-254.658
-63.8536
-359.17
6214.79
2283.19
-1529.82
584.192
15709.3
17836
16894.5
10033.6
7166.15
-816.058
112.655
-705.816
1829.78
1104.48
30.4754
-3153.37
-926.395
3426.02
815.104
-1561.3
5725.72
2082.31
14822.2
15216.9
13171
14330.3
28048.6
28464.4
13419.3
20403
24848.8
18251.1
22307.5
19495
19383.4
15364.3
9106.76
6156.25
1965.56
7173.47
18973
31876.7
12857.4
-3640.04
-1271.21
2003.7
7495.13
15793.8
13553.4
16520.5
4561.16
4909.35
2604.01
4759.09
-288.855
700.202
835.332
2144.83
-279.498
409.021
-209.832
12208.3
6788.85
10468.8
17597.2
5407.09
13223.6
27845.4
49462.2
27933
42124.5
57530.9
46443.2
22851.5
21635.9
3365.11
5360.7
15511.3
5434.83
8607.25
7605.98
5138.83
2749.12
11325.2
4804.53
17963.3
16657.9
17779.3
14631.1
16019.1
24993.6
13725.5
15120.9
8114.45
17343.4
17991.3
11349.6
16673.7
6676.79
3161.88
7878.73
42256.3
51111.1
30910.4
31364.2
51579.4
52549.6
60759.8
60985
34404.1
44764.9
41575.6
43835.4
32636.7
23714.9
41487.9
25594.5
29333.8
40725.2
38294.2
30193.2
20687.9
18946.3
1589.04
4544.22
386.013
1286.96
6980.16
433.194
3236.42
3357.9
-1422.81
306.013
-401.02
-18.9966
1304.3
-406.225
-231.813
691.75
727.045
841.09
2056.86
-1521.66
-1411.15
3587.91
9060.21
11219.4
8462.42
4028.47
35.2955
1151.37
4626.32
2372.87
2256.64
-542.476
-95.8679
1469.84
4474.71
6491.9
8607.57
10806.5
4120.64
671.501
-623.825
2580.23
3600.49
7376.39
16010.6
31904.2
17987
30557.3
32359.4
39892.1
28803.3
46116.4
50414.2
40237
38304.4
24738.5
3468.93
3607.96
-994.884
971.611
-624.367
-3783.24
-1452.52
-728.861
3420.78
-1183.99
1975.13
4959.53
8291.81
14053.5
54022.5
56062.5
44537.4
33091.4
28670.5
14854.7
6971.01
29479.1
26446.4
11074.4
19693.7
17548.9
19848.5
31871.6
12899
16133.1
17429.8
1991.17
1626.61
-676.684
2759.44
934.866
582.571
-424.188
1774.04
6045.56
3557.8
4673.23
3465.42
12943.3
6718.01
5782.32
4986.63
14707.6
1523.35
7418.12
6146.03
3714.81
2297.99
2746.25
-684.554
9425.51
5984.05
5696.48
18738.9
40189.7
22586
28190.6
41193.6
37787
15346.9
8269.06
-1180.48
-120.379
-347.133
-2572.29
-1616.23
-1614.44
-153.69
5942.1
9416.98
9801.22
2981.91
10593.8
20061.8
24131
34073.2
33976.5
19887.2
16809.3
9620.7
5483.76
1734.96
975.567
27.112
-348.573
-718.577
113.108
7068.85
-938.69
-299.292
12040.3
19121.4
11177.1
-67.0173
-486.538
128.995
5126.64
1999.43
-1387.04
-266.17
-130.124
-1023.65
286.59
-998.301
4483.77
-869.718
1013.74
713.082
1973.87
697.119
-2455.58
-1067.1
1013.25
380.483
-2316.04
112.435
-1131.08
-268.486
4647.46
3220.43
-300.306
-464.318
-437.571
2307.82
519.381
-870.192
498.562
1784.84
-1571.78
11336.4
24953.2
32009.7
29740.9
18318.4
16359.6
39097.3
11734.6
8614.01
9238.77
6561.4
4620.58
13654.5
13462.3
1714.16
8176.37
4673.09
6564.25
1993.38
392.633
362.763
8831.15
33062.9
22107.2
34623.2
29375.1
28865.1
10882.9
12669.3
7412.41
11510.6
4894.52
4204.08
592.882
762.902
-1216.96
335.951
1286.08
-1189.05
332.436
1024.44
720.009
6534.88
18039.7
22674.5
28059.2
46465.2
42025.4
42245.3
24236.5
10444.2
13626.8
12237.5
19184.4
26131.6
31908.4
66519.3
85414.4
80031.3
91438.9
54870.1
56410.4
95461.4
80997.8
64778.9
69268.5
83722.6
80656.2
59933.7
48105.8
39142.1
26126.3
4438.07
5482.2
19623
11976.5
39212.6
19876.2
15467.9
1100.28
-703.663
-1055.7
-2487.7
7178.77
6618.54
2386.29
2992.49
631.244
2012.61
-1556.63
-1301.32
-423.243
408.257
-1388.36
1033.25
-4045.69
712.285
1502
469.814
-1832.8
-873.031
-1095.66
-421.922
-1520.44
1243.49
3409.26
685.731
-819.788
-3117.93
2392.43
-522.081
2357.48
10791.8
9493.41
9071.38
5417.1
12791.2
1654.07
4759.43
7355.74
113.466
12561.6
12676.5
9138.2
2754.86
20621.3
-591.035
-171.054
7759.06
1054.68
-2209.27
-1064.15
-698.148
309.937
-633.242
-456.687
1463.7
-1813.72
-1077.24
-1700.38
2464.28
2836.69
3264.8
73.2868
13269.8
7341.07
1035.48
14499.6
21327.2
9758.81
2328.69
2638.63
5609.46
-763.229
8621.66
20923.4
39881.5
41297.7
30762.6
17608.6
5307.95
7315.14
6366.19
7901.85
21972.8
12663.1
12799.7
4633.74
-2512.38
1118.89
514.934
2030.79
-2787.09
-1933.17
126.771
-378.958
9767.55
13226.9
14378.4
10471.6
10871.9
5410.74
-519.933
980.697
115.129
742.112
-526.293
-1058.43
392.059
3807.86
3626.38
3236.91
7566.81
2969.17
1674.56
-445.385
-701.424
4125.16
8721.54
9722.85
-1451.29
3510.59
-1449.2
-704.059
-3016.36
4545.5
-1900.94
-127.194
-699.641
617.023
7900.02
4711.93
-435.647
1654.13
1791.72
2754.51
17916
5864.7
20607.1
9883.77
10190.4
7735.86
17393.2
25014.9
20927.8
39726.3
50562.6
55172.2
41211.8
30932.5
28779
33376.1
28326.8
25876.4
32630.5
8413.24
3836.54
4227.89
5970.57
2078.9
604.024
-1662.9
-707.301
-128.291
483.203
9517.69
7967.73
16750.1
16680
22484.5
21891.8
37376
38073.5
24397.2
29783.1
27108.9
12952.2
17749.5
13387.5
23689.3
12515.8
27658.6
37986.5
40015.3
27753.9
18152.4
16183.3
15849.4
-38.6027
-2292.25
-2299.33
478.163
7576.41
4141.59
4184.51
2038.56
-1093.03
315.771
46.1489
2201.4
3885.51
-25.4822
-3862.1
-537.582
4392.26
7572.19
1813.7
-425.041
-152.597
-938.16
-209.128
9849.55
6966.04
13343.7
3900.95
569.633
5698.51
12116.6
32059.1
14175.3
7161.2
-52.0677
-833.348
331.886
-468.915
-203.286
1170.31
386.605
-2167.44
5581.87
3081.71
-844.775
1600.36
3322.96
7492.63
29632.2
2634.13
5841.11
10219.6
10269.7
1813.26
913.835
-1082.96
-1789.07
3791.95
-869.244
-401.187
-462.931
-719.604
457.859
-415.687
984.254
6705.72
7345.69
928.398
1806.94
3391.94
3248.75
4003.66
401.668
1587.69
-2407.69
460.917
2784.45
270.837
732.951
-151.193
678.068
4848.75
1421.93
3044.58
-3359.19
1201.81
14.5327
2774.92
73.1493
6864.85
1011.23
-27.3241
-402.985
4285.05
4720.62
679.72
3454.6
8977.84
21026.1
27610.2
21160.7
16752.3
16488.3
14960.1
13218.2
6543.14
19825.9
18273.7
32063.3
29655
22925.5
17410.3
13950.4
6225.1
1465.76
5348.19
16618.9
45804.5
14793.6
19059.7
26302.9
37361.1
46183.3
42057.6
59176.8
57769.4
66930.7
43867.4
29201.6
25120.7
41213.5
34402.2
33501.3
27445.6
23778.1
17934.1
22423.2
19265.8
11655.1
18202
19808.4
28051
39721.2
65438
84549.7
52318.8
27203.7
34999.4
10445.4
17041.8
18805.8
42488
37546.3
33340.2
24504.6
20840.4
27846.2
18923.8
24335.5
21012.5
19997.6
5747.13
5067.26
2116.15
487.198
242.582
3459.09
-644.617
-2828.01
-1042.54
-1491.81
-1230.38
2329.91
-960.774
419.978
383.678
2343.35
-58.4386
8644.37
26368.2
24346.6
22925.4
47203.5
52472.9
60928
44895.9
42285.8
25841
33039.1
27786.4
42685.4
18374.8
19269.2
14522.6
15171.5
2319.61
-1593.73
-694.507
-834.969
2171.56
6135.4
14799
9357.92
2331.05
1259.28
3676.78
4443.08
5924.88
13951.5
10451.3
4826.42
15458.7
4646.14
4732.16
2787.75
2535.74
-194.287
960.513
12578.2
10889.3
6461.91
28360.2
10159.4
6940.06
37242.2
40522.5
30382.7
22582
31401.2
39697.4
64067.5
81737.3
100444
84981.5
40982.7
21237.1
23573.5
18297.2
20097.9
5701.11
4686.6
3953.24
2790.25
9277.7
12871.2
4871.16
2111.23
5549.86
15764.3
8938.55
5081.93
1778.69
980.5
-1307.62
552.066
-1059.86
-909.47
2686.23
2315.46
-917.806
3768.99
3765.88
3476.69
23789.4
25377.9
30348.6
4151.15
7178.19
11400.9
8569.65
9283.57
13660.8
28001.5
28290.2
22150
13873.9
14851.9
13839.1
39681.9
24131
12156.7
16932.2
8153.41
8778.84
4739.08
1932.23
1747.29
3743.36
11981.6
2032
205.892
1846.36
4060.12
11045.2
7878.2
15258.3
20738.1
8266.87
12387.4
8876.67
5223.77
10514
5873.47
-52.8663
-485.231
821.399
877.287
4785.94
7629.37
7260.54
-28.3915
11255.2
16999.8
5769.26
9266.07
4381.98
7586.29
237.093
1547.72
570.51
-1137.4
140.366
4891.61
1903.96
7733.03
9729.69
6920.14
17010.8
8160.3
8898.95
15323.3
11750
8227.2
623.392
1229.59
5058.96
21407.6
6988.64
12620.3
17228.9
24613.7
35734.2
19981.7
2491.56
832.087
-894.242
-1773.62
-2878.88
7895.63
17366.4
12425.5
20575.2
7248.14
2954.65
669.382
13880.7
22175.5
20622
18847.2
16527.5
21547.4
15812.4
16035.6
9775.77
21658.1
24826.9
46295.7
52426
32578
19576.8
12395.1
16512.6
14391.2
43383.8
17748.1
3605.47
8992.62
-341.27
-966.881
2143.71
617.231
-645.411
-3027.61
1039.13
2058.4
1151.48
10005.8
5980.61
-2478.22
-804.988
-1364.89
2142.75
3457.25
3037.39
1931.65
-583.977
17.7151
337.549
6726.77
5283.7
3177.41
-685.049
-2321.78
-2066.65
11230.7
11415.1
10919.5
3335.12
20938.9
31187.1
30705.6
16187.6
13885.1
8711.54
16277.6
19924.8
16882.3
5339.92
3368.37
14140
5265.88
7699.76
9712.46
7522.99
18075.2
19400.2
9316.7
1711.53
4175.17
23530.4
31353.6
24927.4
28381
45002.4
56197.6
27102.7
20866.9
29617.8
13304.7
6163.73
10913.3
6583.23
3749.6
3066.08
2209.49
7266.82
520.357
2046.18
21556.6
10844.8
26739.5
30249.7
5838.03
9889.25
24087
37745.5
45155.1
23146.2
17766.4
16901.6
20536.8
17397
15286.2
26051.2
14142.8
6634.99
4014.11
2589.81
-171.335
877.333
1216.57
-10.3765
1592.13
7711.13
3722.75
7371.99
11043.8
3066.05
1560.11
-196.314
2663.44
1767.86
7976.83
3572.45
-2271.22
-702.15
-1289.56
1073.92
1088.13
6066.72
5217.37
5723.36
3920.58
6817.93
10893.5
19769.8
17786.4
8477.03
958.377
-351.493
1365.29
8335.22
2721.24
4031.93
3680.7
-1699.1
-1842.6
2944.83
2999.39
-325.432
-315.11
320.415
-978.571
-907.111
-63.1934
2240.87
1876.88
861.67
-1081.9
1861.58
9290.22
463.223
2704.35
6098.59
4873.93
779.92
2904.25
-609.267
-564.121
-750.938
-543.733
-3599.01
-870.739
-358.557
375.964
-1506.58
-167.253
-2978.24
482.967
-749.818
452.936
-2042.65
692.916
3400.2
10376.4
18208
35208.5
34595.5
35941.1
35069.4
19013
17276.9
31782.1
22535
29603.6
54690.8
46162.4
30559.4
31366.7
26939.4
22137.6
9035.51
10539.6
37089.2
42085.8
31731.6
25890.4
22734.3
26679.8
22169.7
10754.3
11717.4
9484.91
4417.32
3170.27
353.86
-168.381
4013.41
9279.89
4113.6
-769.885
1234.19
-1211.1
-821.636
-696.472
-1346.21
282.761
-205.692
750.843
-798.782
-2102.72
3315.98
-865.941
226.085
-195.4
5610.5
12503.4
6281.55
1599.29
5148.91
2868.35
1673.98
181.683
329.416
1879
1219.85
-1159.99
6363.34
16544.7
5634.85
7679.01
5122.14
8266.99
1276.07
-1867.96
-1270.77
1808.04
322.986
140.869
-918.055
-123.777
592.676
1578.93
1723.74
414.261
1254.62
3644.83
6.66396
-422.461
-433.823
1312.81
8716.58
-654.491
-340.615
-152.366
993.914
89.4242
1789.5
22249.9
60673.8
42642.8
34927.7
26373.7
19138.2
20527.7
22658
8175.23
9105.55
8041.92
4219.61
1327.05
1501.73
118.264
5590
9074.6
6554.23
131.314
679.283
-1116.98
-79.1722
-770.719
-984.54
-346.095
380.296
2790.11
5738.38
9343.41
4968.26
-400.79
821.304
-2220.03
2191.78
3381.78
7022.9
1416.68
6477.71
34353
39011.9
26191.9
12967
14137.1
3273.67
-995.541
-389.928
5577.07
3195
1736.3
1858.86
-1359.46
-1174.9
1236.69
2636.8
7043.92
438.768
1022.92
-651.597
-1261.28
-971.9
54.1519
2041.6
10871
20111.9
20288.3
27007.6
18663.2
13453.2
4412.49
5054.67
4455.06
9129.62
7222.86
601.959
10492
16143.5
11245.7
-2997.79
-442.689
6235.92
10432.9
4600.51
-1113.84
1274.76
7307.05
216.343
13570.5
17129.2
15727.2
4782.47
4576.38
-989.758
694.365
12484.3
18179.3
10300.2
11612.1
18561.2
32301.1
27670
9232.43
651.803
1746.24
-3.467
365.092
4756.07
9562.33
7131.76
13297.9
12703.8
4064.75
6125.1
11708.9
15925.7
8954.14
6760.24
4014.27
12567.2
16737.6
20359
19904.3
20290.8
20633.4
28022.1
20697.9
22871.1
18146.8
20137.4
10026
2282.45
5839.42
9603.09
1872.56
3687.49
16211.8
17688.3
23440.4
10915.4
14972.7
19185.3
10482.4
2692.56
3089.74
2328.07
2459
-3381.11
-2409.34
-918.287
3592.06
8530.12
1406.65
-621.361
-670.448
-1324.82
2175.59
-104.94
1128.38
-472.216
-508.875
-1435.76
1139.56
185.642
4294.08
2487.32
1718.31
-336.355
-1149.45
10771.4
8694.1
22348.1
26182.8
11237
1176.32
-1431.16
970.526
5736.69
8401.34
11227.7
20342
16596.3
26569.1
22111.3
32562.9
24558.9
18905.6
9325.19
6740.98
1100.56
373.614
-1743.95
314.492
-1086.48
187.568
-1284.23
-602.292
-1276
662.856
5603.49
1817.42
9188.09
6019.48
6000.6
4044.04
2529.4
7854.48
15979.1
29548.5
34602.1
7182.12
10331.8
31296.7
23151.5
10697.7
19288.2
27629
40711
27943.3
30205.3
22331.5
36777.8
16512.3
2436.52
12983
6645.47
17791.6
6304.44
4685.5
5651.75
1986.07
-751.346
-1958.89
-410.779
-670.938
-726.943
-1504.82
-191.163
-844.059
-1297.12
-1166.07
-1155.59
-513.705
1019.87
-400.552
1255.1
5052.63
9154.83
6069.58
3096.4
3976.79
752.788
-168.125
5533.1
3353.59
-1381.89
1374.48
837.354
3048.89
4287.37
2099.84
10304.7
4183.45
11532.9
4760.28
-393.641
-1604.9
-1167.07
520.656
2008.49
4910.92
4523.7
10118.7
2763.99
-256.806
-154.716
1886.81
-4173.68
-2473.8
-843.455
1191.65
724.671
-1485.26
2557.81
13927.3
27223.4
22788.1
41149.4
41496.3
27981.9
24192.6
12728.8
9997.98
4430.93
5524.45
5551.19
1580.71
-499.686
-207.198
674.98
13577.8
16684.6
22695.5
8563.89
11267.2
6278.36
10420.1
11851.7
6315.95
6524.09
-721.575
126.151
2110.29
10178.9
644.566
81.6929
2793.95
2040.87
-3369.74
-2213.79
737.603
-898.242
-1055.05
638.557
81.4853
622.452
5669.81
1794.17
152.645
-1326.12
-990.955
4183.58
-1326.16
457.948
831.586
-2076.66
-655.168
2313.19
1648.37
-1711.33
1845.54
7861.62
5409.69
6615.99
1905.08
3393.07
6492.9
5553.28
7527.02
8520.69
9001.88
-97.9417
2311.4
2609.54
7506.89
-1564.47
2352.14
5471.14
7869.8
7807.13
1721.07
4287.71
-997.392
1996.4
75.5898
199.954
1627.81
-549.537
-592.669
-32.1036
2944.95
952.983
1559.17
398.342
455.593
-1920.17
3230.81
3973.56
10905.2
6448.12
-723.681
-490.712
2981.25
1234.92
13230.5
5538.62
13105.2
5992.55
-764.278
5000.53
7406.3
571.991
-138.576
20.1113
-126.537
949.528
946.374
8860.38
11490.3
4741.63
1503.57
2413.48
525.121
-327.412
3695.29
23347.2
23859.2
16115.6
10832.1
465.98
2107.62
-4405.17
5215.38
14231.6
20750.2
6995.65
-2436.49
-486.859
4128.37
2253.03
-252.857
-1778.73
-9.8367
6600.79
24403.8
12937.1
6751.97
14821.8
17883.5
10864.5
12704.4
15022.6
4141.85
6730.67
7761.68
13676.1
13578.5
9178.06
8632.76
-165.301
-2079.6
-1013.74
-521.408
-1726.55
1609.26
1194.22
-814.041
167.204
-1123.69
3094.82
-1335.39
1742.76
-160.488
-985.732
2951.61
9158.02
14593.6
7982.92
-2777.06
3378.78
52.1663
1040.7
-1150.22
-1902.96
-251.62
1909.62
-28.9679
1345.96
804.23
-1632.69
-1137.78
518.39
7964.14
15723.8
29554
33287
17809.7
7111.33
-66.1744
2781.98
4289.34
12873.5
7577.08
21924.3
30989.3
41468.9
47872.3
30556.9
43759
80816.5
58777.5
50589.6
36543.7
22870
23759.1
20133.7
21548.6
19532.7
18322.7
19317
19463
20359.2
43030.3
29394.5
41008.7
43594.9
52904.5
80219
73690.1
45754.2
39442.8
31414.8
32667.8
21185.5
36302.9
40346.8
31274.3
38902.6
47455.7
69448.4
71695.1
82863.6
59533
60316.1
32576.7
36585.7
14672.4
9549.7
378.949
3930.84
8648.09
4581.33
1288.02
-919.2
3459.89
8910.86
19654.7
22832.3
11801.5
5397.29
757.594
396.569
3994.41
-30.1593
-48.2304
-676.606
1843.56
-1267.31
-2759.82
1134.31
1186.17
-1281.16
5400.23
16394.2
28159.1
22124.8
27574.9
34016.4
50787.9
24310
30908.4
10392.8
24044.6
15056.4
10484.7
10675.9
7635.72
15863.6
22851.1
26248.8
21316.2
18961.4
32903.6
38818.1
34092.3
14722.7
7666.56
9614.49
6369.35
9632.34
1519.72
2719.64
3783.06
1.07424
-365.806
1434.38
-1389.4
716.126
202.683
1726.27
9386.9
3350.2
3627.23
3309.5
-1286.04
-1755.01
-687.31
5435.47
4412.33
645.145
2516.25
2262.33
825.249
1051.4
3345.43
13692.4
25042
16962.3
5262.89
-638.823
2643.65
4036.74
10633.3
3043.6
11287.3
3734.48
5297.96
6360.54
15205.8
19996.9
57462.5
51030.3
83240.9
67146.1
69509.9
49591.6
36713.1
40168.3
45654.6
27670.6
42509.6
9743.07
14121.8
14909.9
13307.6
5486.87
7847.03
25470.6
31171.7
21643.4
30992.3
62108.8
35734.1
49852.9
53238.5
25770.4
18846.7
16866.6
6127.71
381.153
-991.709
-925.339
-283.206
1163.22
-990.314
1143.66
7663.9
7021.85
9856.1
13548.9
4240.35
15.5255
-686.6
-1303.73
1156.09
1192.93
489.086
724.678
-683.204
172.906
45.5431
1699.52
-2954.51
43.4433
-2377.77
729.422
1397.2
-831.51
-769.373
-23.3181
-843.903
-2028.17
1495.02
3637.38
5125.37
7560.72
-726.894
-658.452
-1644.19
1928.85
-3096.17
3541.47
9148.06
9487.87
11173.8
9835.88
3024.77
1403.53
-94.8018
2705.61
-2296.4
-89.6276
-1913.99
-456.132
-785.076
6623.82
12177.5
17408.1
13253.5
8621.11
11274.8
19120.5
16082.4
19975.2
17636.9
12773.7
846.112
-23.6298
2294.48
-168.529
1588.92
3490.38
-2244.18
-185.195
2946.03
767.298
5994.15
79.2574
-380.648
1985.37
4004.7
12040.2
15316.8
17312.5
11125.5
14831.5
36574.3
12962
1551.63
-222.317
1090.79
1101.66
8343.52
23638.1
12509.8
29605.4
26700.4
19926
13909.5
21836.1
26370
38166.4
95871.3
104231
93446.6
99960.5
41502.5
49710.8
56390.6
31596.4
41085.2
41948.4
42722.2
56911.5
77532
57494.7
46874.5
35122.3
33623.5
33741.6
26589.6
29567.3
42328.9
47476.2
31822.9
28667.1
33628.8
52111.2
46873.1
55864.3
35266.9
52630.3
37422.7
17977.5
8424.74
16139.1
14205.4
30506.9
16649.4
18565.1
37453.9
29235.7
20899.3
28707.5
38177.5
21066.3
18350.6
1727.46
-174.494
5643.76
24127.1
26437.5
35450.9
42675.5
69039.4
108997
75154.1
37584.9
25737.9
39336.1
69141.2
82563.6
63929.7
96091
65477.3
58550.5
59611.1
79395.9
76722
86547.6
66475.2
84909.9
96959.9
50589.6
36254
47251.8
53150.5
43157.2
52335.2
70189.8
63507.5
68073
62528.5
57703.7
89348.2
46255.4
56238
35045.1
54607.4
61243.9
45162.6
21535.6
20006.5
15085.7
35593.4
15588.3
24494.2
17037.1
19589.9
20574.1
26022.1
40848.1
31029.7
23728.8
30082.5
26920.6
13529.4
2841.55
2735.04
2662.93
3162.47
1205.52
5807.98
6794.02
-1250.16
561.505
1362.9
3858.76
12978.5
1023.7
-647.156
4348.14
264.325
-337.15
-1801.23
-182.171
-546.335
-705.634
-970.102
-937.426
-1644.44
-1131.44
241.649
2641.54
2363.83
870.619
14258.4
8806.07
401.177
2968.6
9026.14
16911.1
17047.4
12272.8
11808.7
2280.87
-1724.6
-768.188
804.321
5847.54
19397.2
17294.5
16871.2
12378.1
2214.77
3235.76
2309.33
9240.89
4160.47
6814.22
18482.6
5791.04
6273.26
7511.39
1983.45
3375.3
3935.2
3584.24
3137.02
1052.11
4239.09
9077.04
9253.39
1077.24
1329.56
242.019
1809.9
801.335
76.6627
-158.829
-681.862
-2584.97
-1156.94
235.587
-3726.25
-1480.43
-2353
4063.3
-1697.81
11834.9
10537.9
3173.82
11975.1
22730.2
40962.7
42473.6
33289.5
26160.8
20614.7
37020.3
34594.1
39074.6
36805.8
19508.8
8242.05
11399.6
13320.8
6532.21
12737.2
20429.2
7974.1
15287.2
18609.9
14574.4
16758.3
12154.1
11377.9
13257.3
14604
7939.24
1414.85
3977.84
6615.06
7106.85
540.406
1845.06
10769.4
16745.8
41368.9
37419.9
27706.4
21720.5
8607.72
4322.44
7333.6
270.709
-2966.48
-741.454
762.447
3222.09
5701.96
7401.07
5143.3
4830.15
3959.2
3083.32
2717.9
-3918.94
-1663.8
851.839
-678.008
72.8996
3823.57
1614.1
1242.11
-1150.23
-977.708
409.186
4183.87
8553.07
8078.09
7632.65
18792.4
30838.9
21167
28579.1
15518.1
18393.9
9398.67
538.106
10294.7
17142.8
18308.5
20561.2
15726.9
11322.5
18912.8
13827.5
8248.79
16703.7
16289.5
16756.7
27044.2
28327.5
45154.8
18073.6
17600.3
11579.3
6432.18
9732.06
27067.4
28131.4
52829.5
54173.7
32238.4
27399.9
29387.9
22855.6
25244.8
9901.6
5921.63
2478.18
232.162
-61.3542
-702.072
178.03
534.522
959.616
6349.79
12236.6
23134
14250.8
9653.15
21653.9
10226.6
1077.12
4905.54
4658.79
3637.74
1712.18
1728.01
4630.99
2215.22
1690.29
-282.52
2498.03
972.998
519.26
-195.996
121.19
354.017
1063.72
3507.61
4429.83
1121.18
8604.59
18292.8
19586
34520.1
29202.9
10798.6
875.274
6302.97
658.533
-174.665
477.165
-353.853
-3563.61
-1640.33
1549.43
7698.59
7236.46
7954.93
2197.64
-700.795
-532.457
67.7685
2873
-835.605
1337.3
152.027
1736.87
1715.71
2030.65
442.059
-730.266
4924.54
-551.99
400.908
-179.972
-462.752
-968.382
3332.07
4105.26
9143.81
4520.94
4721.48
4981.15
9262.17
4394.27
22323.8
32740
54615.7
49006.8
16914.2
22384.5
21379.9
6334.03
228.631
693.814
285.592
5808.46
10505.2
14167.7
6810.9
6632.84
9126.89
3954.4
27.4922
9839.85
7660.81
15134
17814.1
16516.5
2031.38
1317.02
2129.25
-441.498
-2491.36
-2293.6
-832.539
745.331
1231.79
12436.1
20162.5
19133.7
16516.6
3895.4
3857.39
-1488.29
2258.35
2767.98
-471.851
1204.16
3990.9
-107.604
-915.038
243.433
7202.18
16013.8
16459.1
20613.7
-1622.39
-3333.48
2646.62
16616.3
13205.8
6892.68
5405.13
1806.26
-816.185
566.096
9.89525
-574.811
-252.613
2156.5
4122.79
291.246
4560.49
11115
3219.22
2185.05
470.821
-256.626
-146.902
11179.7
6811.68
11441.9
7094.81
6243.19
1490.69
-1370.35
-52.1971
3955.47
-458.749
6290.01
-44.5668
281.942
-353.08
202.756
6604.67
11520.5
12293.2
951.34
-41.7866
-673.687
1351.99
19.9014
-335.325
1954.3
17526.3
6379.06
-1284.26
-806.007
-1076.74
1460.52
5563.21
16619.3
19964
7932.51
2896.64
13028.1
4411.73
6336.35
9288.35
18809.4
25359.8
31265
25127.9
23084.6
34704
46977.5
44723.4
21030.1
40271
29900.5
40716.2
43638.8
26147.5
34520.2
52984.4
61545.6
79480
48671.8
49047.9
47739.5
51819.9
26757.3
25915.3
50874.6
57864.5
51522.6
58337.3
72389.6
33015.2
51082.7
19989
5800.33
3222.34
1362.71
5948.01
6609.39
2631.22
5594.48
-1492.86
1814.84
263.713
4391.13
3863.9
26.8
2282.17
13960.3
7551.25
6459.16
12141.9
16248.2
10185.5
13861.6
4156.54
17591.6
6482.06
6715.07
12335.4
4791.18
3770
2861.48
4748.05
10211.8
-148.73
13892
12178.1
2394.86
4800.31
6049.52
1337.3
-366.168
-271.017
-2902.96
-1901
2241.43
-711.958
5223.35
1132.01
-2126.18
-85.1062
6712.86
3314.71
1810.69
31356.9
14057.8
17634.1
15027
44585.3
32173.7
37794.7
45894.4
31147.4
21705.3
21048
5658.59
4615.61
4856.45
827.914
14660.2
9298.37
24418.4
24073.4
8335.54
-328.433
-2796.27
-309.405
-1341.58
-632.869
-1704.57
-3802.11
-59.5198
188.454
-797.561
532.705
-985.874
-2194.63
-466.799
399.634
-60.1542
820.876
-1407.74
2495.26
-970.849
-1028.62
-4558.37
-435.253
2447.45
4717.02
10939.3
15515.1
5269.1
729.649
-1279.31
6522
12827.8
6567.91
1871.3
256.649
354.887
53.3267
277.008
-199.291
9402.62
11125
23565.5
30067.8
19986.6
15420.9
10852.8
22768.1
18055.8
25602.2
9088.4
8397.01
7465.31
7213.09
-614.78
49.976
-360.331
-2186.09
2884.99
2521.24
-1209.57
1546.34
12456.2
19096.3
10614
1222.81
5562.79
32637.9
28223.4
7811.18
12960.3
6473.57
2898.05
4590.87
2242.09
2622.22
2353.9
-1999.93
6650.53
18672.9
19490.1
15644.2
15120.4
20873.4
16558.6
7924.84
7175.38
10673.4
4023.85
20225.6
25469.4
39432.1
38596.8
26233.6
15522.9
27735.2
18467.1
-1100.56
4764.69
3274.47
-1429.82
-1267.18
694.321
2586.07
13373.9
15555
24350.9
17255.8
12540.6
13343.4
9942.3
15872.4
1235.02
7330.29
7690.5
253.138
691.663
-910.083
-390.939
-332.015
38.6574
1189.29
3231.77
2227.47
-1306.32
324.126
1748.6
2066.43
-927.816
-1595.65
200.005
3033.9
9424.69
14522.1
3855.18
1358.02
2024.73
15734.2
1029.32
8052.34
1088.46
730.947
9435.04
35149.4
34980.6
22111.8
21116.6
30169.6
34273.6
53108.8
28869.4
20291.8
29462.3
44306.6
18640.7
17571.6
9350.69
1275.22
540.445
767.854
1400.99
997.308
-137.097
4839.72
6371.29
6258.19
17921.7
11511.2
3651.82
14430
13921.1
18943.5
14936.2
19653.7
18686.5
4289.14
19980.2
22137.6
23859.6
13301.9
-679.255
-75.5832
-273.769
4515.29
-2109.28
-2225.27
3969.11
13490.3
8091.5
5579.88
5063.42
-800.225
15242.1
12114.8
3190.33
697.597
1100.24
-596.921
1779.46
-3167.64
-1331.79
-874.209
-897.063
-1677.34
18.301
-3330.47
-394.966
2795.6
-135.722
658.356
-1900.64
-958.259
-1486.19
890.688
2166.93
-957.813
-1485.54
6886.93
15894
18648.9
36611.1
42403.7
25345.5
15041.2
20538.4
29553.9
22658.1
18487.3
7656.59
5190.15
8515.19
2433.99
13358.1
6134.1
5099.83
6668.23
1820.81
1787.6
2219.49
1269.96
-675.001
31.9283
-1056.61
-689.362
2566.72
104.729
2234.5
-1459.79
-789.04
-686.973
1076.08
-1472
-711.729
874.846
8237.47
11826.2
19687.3
18007.8
38472.2
36163.9
58066.8
69160.6
70674.2
49769
78667.7
104421
85934.8
86000.2
44277.8
37498.8
64240.6
54697.6
40499
36625.9
32273.7
38799.4
19628.1
17735.3
19505.5
10349.3
7558.2
8366.04
11197.7
5504.73
2887.05
3805.08
4031.97
4738.83
-516.332
599.321
-263.62
781.385
866.696
7618.74
2510.98
3647.56
4959.74
15183.6
12743.3
29041.8
40856.1
41412.1
59401.1
55254.8
34822.4
59275.4
54657.8
60264.5
89090.7
57392.9
40702.1
44205.3
29458.1
38165.5
12399.1
6585.33
273.241
292.486
5118.78
2504.2
2395.87
2005.58
-1973.49
-1856.68
-987.907
-318.887
1500.02
-382.642
5628.49
8847.74
3261.21
-2063.79
835.091
1996.43
-1714.78
47.0505
2223.54
3291.05
-539.322
775.673
-435.385
3973.3
4203.73
16562.3
12071
16992.4
-96.0958
2075.29
2894.38
1081.46
2472.46
11713
13641.7
13840.3
5499.83
12586.5
18060.2
25864.7
10768.6
4569.23
1239.81
5347.07
6480.72
9103.02
13523.5
9299.32
16588.4
14621.5
16156.4
27293.4
10991.6
11388.9
22606
8522.55
15653.2
1846.28
8660.05
7171.42
31.3847
-148.955
2054.07
2051.74
5024.48
8202.97
4828.31
24862.3
23553.1
4558.78
103.927
-1482.98
-325.801
-313.939
329.879
3080.45
17959.9
7647.8
5255.3
12792
9004.62
7129.15
10344.5
7524.38
4936.74
13330.4
14523.6
24819.8
21573.7
31835.5
27762.2
20739.9
26773.6
47658.3
22246.1
13256.2
18630.5
2119.19
8016.76
5862.12
-576.755
209.204
-1360.01
-583.65
41.9433
4466.64
-646.914
113.354
2435.85
1406.01
1716.47
6056.94
5736.67
1969.63
11207.6
10801.2
25317.6
23314.3
6419.94
-45.6148
173.069
427.73
13825.4
23016.2
17781.5
20704.6
20796.7
10707.8
15359.8
12864.8
24956
7714.52
5465.48
4837.23
23426.9
23020.9
36512.1
43019.9
45284.9
65727.9
79782.3
42664.7
29778.4
21212.6
37046
51681.2
38225.8
35366
24457.1
16606.9
5354.28
15838.6
25318.4
16425.6
8318.44
4475.25
2358.48
10109.1
16971.2
15333.6
5196.19
-1627.57
-2578.53
-449.043
-413.046
-751.843
-1170.33
-599.656
2389.36
6494.43
2455.3
4334.74
25848.5
7593.07
4100.3
-689.843
1821.1
-1390.44
1264.14
2915.06
2918.48
4752.52
923.654
-1769.18
1061.84
1815.16
888.915
958.079
-373.787
-1029.07
-773.187
-420.45
-605.962
-199.333
-333.626
-473.174
-445.662
493.491
531.112
43.4661
489.236
2607.31
6469.23
5789.52
19918.6
19613.4
15280.9
1848
-455.879
-120.094
-389.019
3195.82
1627
6739.76
8754.54
3283.9
3408.11
1831.5
4006.12
1853.53
6737.49
4973.33
4871.88
2024.7
3205.78
3414.93
3341.76
731.331
2479.15
4005.89
-392.599
1960.75
-1700.79
-146.962
98.1895
-546.088
202.512
6020.89
9147.61
11086.9
25350.8
39538.7
32135.3
48633.6
34952.1
23086.9
3099.02
3177.68
10303.2
19830.2
23708.3
6718.37
4460.25
3106.95
253.334
518.15
122.666
-1134.67
-2168.88
-3492.39
-195.844
716.041
2870.47
247.409
5535.41
7620.13
4376.68
6557.15
-522.624
58.2543
-477.049
196.296
1735.83
3477.56
2558.77
10045
11832.7
1269.01
-667.567
5327.07
3469.81
1750.4
1630.23
1307.82
588.945
-662.03
-943.569
105.063
354.794
1076.94
-852.536
-1172.86
-1242.37
-744.269
-897.058
1294.52
2902.92
1633.8
836.716
296.879
3381.16
1325.57
2552.1
-537.803
-1374.89
-1199.69
-336.428
168.854
-318.704
139.608
4319.92
5622.73
11443.9
10253.6
18786.6
32163.4
20225.4
20806.8
12090.9
13628.5
3381.78
3884.29
-823.315
155.996
-558.228
-445.964
-214.028
7517.89
1471.53
611.558
-1828.33
-251.143
-729.464
3221.15
-631.761
7407.03
30045.3
44661.9
57469.3
90301.9
106923
110357
109426
74794.9
60358.9
29890.6
21327.9
20289.3
18025.1
5209.12
4798.22
16949.6
12895.6
7166.36
-2002.88
2750.99
6531.96
2429.74
5074.69
3354.76
291.229
-59.7502
-2191.95
4856.02
18262.8
28554
10208.4
5471.47
1300.99
1463.25
3813.05
1933.58
5071.26
1089.84
-52.6872
92.659
-688.324
15052.3
2562.12
442.498
-121.392
966.704
1706.74
6549.84
11082
9011.07
13808.1
10555.8
1458.18
876.174
-1860.43
-53.2116
1185.12
-391.408
-1136.59
889.017
11381.6
4565.16
16807.2
17441.8
22497.2
24852.8
12836.5
7922.3
11683.7
4169.65
8382.46
7024.14
25965.5
10084.6
5948.77
1586.08
116.248
4681.12
57.3764
2177.36
3567.51
1110.19
1339.47
2417.96
5676.72
3464.36
8619.38
459.025
220.601
1130.61
5265.3
4393.92
-1621.86
-1424.56
-1616.48
458.367
6582.39
4451.17
14461
9553.14
19973.9
8323.12
6165.09
5810.91
4267.8
8971.42
5718.23
2737.81
6567.45
1398.55
4471.15
2085.68
6231.99
4355.53
4839.71
4501.14
443.304
5757.65
706.535
447.515
1862.61
76.6947
-34.0131
-194.419
-1266.92
-720.618
5830.16
5520.17
-419.254
-2534.7
477.608
9903.92
17789.9
34422.7
43783.4
62451.1
46881.7
30144.5
40630.5
25997.4
26912.7
28970.5
28474.3
37454
26975.5
29809.5
28970.5
49968.7
68714.1
32220.5
37395.8
21677.7
14457.6
18949.5
23994
21598.1
15591.7
18077
28613
12697.4
28692.9
23903.1
19807
16974.7
7325.72
7205.62
11424.5
3418.39
-193.41
1041.31
-11.7063
-1718.57
3705.88
-811.206
2142.47
1539.86
516.73
-702.288
1094.16
8452.29
6398.1
26229.9
14473.7
25062.8
18755.4
20951.7
20073.9
23881.8
19258.4
2882.36
1326.08
2474.21
2713.07
-683.883
-1655.56
504.415
981.089
2426.46
917.116
873.364
251.342
-222.596
3579.99
20283.8
24318.6
16384.6
14151.5
19185.9
40539.3
40641.1
32069.4
10918.5
10685.8
5155.04
6914.85
12229
4847.99
15802.1
1658.01
381.506
26098.1
26822
25177
8541.89
2273.33
158.809
-1095.03
428.742
-1630.92
-882.206
463.668
-809.202
1640.34
2253.19
14012.7
9357.89
9530.15
19377.2
29316.6
21307.4
29877.8
35510.6
32440.6
19776.3
33992.9
33042.4
32556.1
34575.1
30902.3
22664.6
22510.1
25726.6
36050.5
29793.8
30722.6
44606.9
56547.5
64780.6
51508
40302.2
48032.8
26418
43899.9
51487.9
57717.5
39752.7
41286.1
57320.3
45943.3
47821.7
97306.1
88706.2
63431.7
32707.9
25881.4
21257.8
23946
43083.7
57492.3
44435
26680.3
22708.7
31260.2
15318.5
12402.4
15275.9
18604.3
25674.1
24059
41228.9
44811.6
25938.6
26243.9
14688.1
21972.2
31282.9
55481.6
55671.8
62108
27860.2
73933.4
74850
57345.2
62124.3
40480
24184.9
4462.3
2220.6
61.1068
-3772.62
-391.765
1751.63
1598.84
2169.36
879.247
-596.525
-591.657
-691.67
-399.8
-914.39
-3580.52
-319.223
611.435
761.741
-825.985
6124.29
11328.2
531.457
-257.327
51.1813
1163.72
1224.78
702.874
-616.285
1834.31
19653.3
9585.43
28266.3
12366
11547.4
8167.49
5901.09
383.334
-709.211
1507.74
187.509
6191.06
5680.57
-333.585
2766.83
3294.9
11847.3
3763.81
4278.45
6100.95
2698.75
4140.55
-449.62
1800.71
-616.32
-2064.22
834.397
6554.99
23518
14877.5
27612.5
25345.3
45889.8
53293.2
28281.7
38619.9
58995.5
62634.8
47327.7
35028.7
21901.5
15442.4
11488.6
10624.5
17365.8
17527.5
9651.74
21275.1
20323.6
9058.79
-151.229
75.7507
1688.36
11447.7
5643
2807.27
614.974
11049.1
5340.33
11230.7
12338.5
5546.58
4657.65
8635.73
10778
9189.14
3581.76
-253.66
3799.47
1894.65
4207.1
4878.24
7231.65
13091.5
9032.01
12474.8
43589.3
41730.9
17492
16114.4
12161.7
17591
