1.35610646e+11
1.129408734e+11
99285122300.0
1.063334565e+11
85366230400.0
1.034108227e+11
96397694800.0
96367466700.0
1.353814093e+11
1.601846976e+11
94458107300.0
1.202489123e+11
1.16069478e+11
1.299254284e+11
1.366998981e+11
1.25939959e+11
1.456833729e+11
1.078941093e+11
1.628118184e+11
83173176800.0
1.04621367e+11
1.370066174e+11
1.085100125e+11
1.088385599e+11
77632557900.0
1.416657173e+11
1.370383306e+11
1.008843599e+11
1.188584947e+11
1.20922318e+11
87389921500.0
1.445072733e+11
98487015700.0
1.59527484e+11
1.081026704e+11
1.464492485e+11
1.159918041e+11
1.422199548e+11
1.253387245e+11
1.064914874e+11
1.156752503e+11
82734476600.0
73252631500.0
1.447442184e+11
1.354878073e+11
1.195186265e+11
1.331154717e+11
99505444500.0
1.124170624e+11
1.01125824e+11
1.24257061e+11
1.200091649e+11
1.170112858e+11
1.184983412e+11
1.275847456e+11
1.508669043e+11
1.570803276e+11
1.254619635e+11
85708623700.0
92189481000.0
99246040700.0
1.221632185e+11
1.394781254e+11
1.622462222e+11
1.077963638e+11
1.277987815e+11
98931920300.0
1.269764185e+11
1.208407277e+11
1.418911693e+11
1.293185761e+11
82064801300.0
1.2880889897e+11
96166896700.0
1.085965533e+11
97224409700.0
1.449905383e+11
1.346827473e+11
1.011313958e+11
1.694664345e+11
1.483785893e+11
1.350174428e+11
1.114027268e+11
99387590600.0
1.430582957e+11
1.452391144e+11
1.276002532e+11
93818101500.0
91930822300.0
1.373339171e+11
1.367733591e+11
1.259597738e+11
1.137314834e+11
1.342935001e+11
1.189766225e+11
1.470238867e+11
1.591393663e+11
1.351987314e+11
1.18394881e+11
1.071190461e+11
1.142921551e+11
94645980000.0
1.200801347e+11
87036252400.0
1.001627526e+11
1.121699177e+11
1.344485114e+11
1.445390811e+11
95584925700.0
1.249779272e+11
1.210725267e+11
1.202078478e+11
1.116832973e+11
1.283847138e+11
88487704500.0
1.375108087e+11
1.480255784e+11
87703079900.0
92194004700.0
1.26875874e+11
77985718000.0
1.047214764e+11
99324579000.0
1.011996711e+11
1.207897473e+11
1.084719244e+11
1.300590105e+11
87352729000.0
1.153850066e+11
1.233854789e+11
1.203126229e+11
1.059904648e+11
1.313154406e+11
1.114516756e+11
1.288644838e+11
1.272683434e+11
94827815500.0
93179496900.0
99813071700.0
1.176001056e+11
1.042177964e+11
1.038664091e+11
1.160997275e+11
1.257223605e+11
1.147341943e+11
1.458837283e+11
1.427954314e+11
1.405149911e+11
1.400127396e+11
1.035510941e+11
1.101958814e+11
1.232133372e+11
1.103856251e+11
1.137204646e+11
83007973500.0
1.12862164e+11
1.288812528e+11
1.074417744e+11
95607087100.0
84788772100.0
1.318639009e+11
1.628334248e+11
1.217888358e+11
1.066943697e+11
1.069215892e+11
81644950800.0
1.162462541e+11
1.340122184e+11
1.158807896e+11
1.083067916e+11
1.9263433082e+11
1.274584795e+11
97740015800.0
99436084300.0
1.052046368e+11
1.157864299e+11
97849742300.0
1.430111436e+11
1.172086417e+11
1.329836611e+11
98897492600.0
1.001658518e+11
1.197504856e+11
1.249103528e+11
98655645800.0
1.144124653e+11
1.210932885e+11
95075546200.0
1.182402425e+11
1.785018949e+11
1.2104724942e+11
84378098800.0
1.207269289e+11
85478445000.0
1.298583457e+11
1.557356801e+11
1.155086272e+11
1.070310717e+11
1.243723178e+11
1.374078397e+11
1.081361367e+11
1.029402678e+11
1.011662488e+11
87808187700.0
1.394127004e+11
1.173591873e+11
1.19552094e+11
1.973578237e+11
1.10244918e+11
90957951100.0
1.086422069e+11
93924186600.0
1.036350593e+11
1.210130343e+11
1.471919022e+11
1.042575155e+11
92814352200.0
96964087700.0
1.304294837e+11
1.1110279028e+11
1.610006311e+11
1.318191194e+11
1.01063416e+11
1.22868858e+11
1.422799391e+11
75770665200.0
1.205787919e+11
1.18891462e+11
1.075726686e+11
71635683600.0
1.130962467e+11
99431180300.0
87020532600.0
1.30690854e+11
1.245820599e+11
1.286602073e+11
1.513973009e+11
89046627400.0
1.166795482e+11
1.348199342e+11
95773029100.0
1.329916968e+11
1.269140761e+11
1.146612491e+11
1.031757665e+11
1.273048831e+11
1.165013063e+11
1.689773475e+11
1.071256134e+11
1.189176156e+11
1.006393027e+11
1.211902935e+11
1.052875672e+11
97432924500.0
1.328344196e+11
97579454700.0
1.104913173e+11
1.254735351e+11
1.459676104e+11
84446763800.0
1.135447714e+11
1.122519986e+11
99766287000.0
1.189618577e+11
94590167800.0
1.411597862e+11
1.017783306e+11
89498552500.0
94430026900.0
98070376200.0
92753799000.0
1.014467222e+11
1.331633851e+11
1.567442846e+11
1.068240682e+11
1.17986466e+11
1.114167563e+11
1.258673782e+11
1.0105914e+11
1.085680188e+11
1.102474683e+11
1.092481528e+11
1.027834773e+11
1.657098681e+11
1.41653343e+11
1.043141596e+11
98829710400.0
82909615600.0
1.338317224e+11
1.39650142e+11
1.375366167e+11
85428836100.0
81270915700.0
1.738896302e+11
1.394804063e+11
1.023297566e+11
1.602523588e+11
1.104896246e+11
1.4057696116e+11
1.00806011e+11
98661576600.0
98660112600.0
97264264100.0
1.079567708e+11
1.257948952e+11
1.039343711e+11
1.3685399705e+11
1.711043697e+11
1.277060042e+11
1.381958952e+11
92160067600.0
1.138690328e+11
74307912200.0
1.807451146e+11
98399785300.0
1.272671293e+11
89653236800.0
1.419577658e+11
1.167146763e+11
90546843700.0
1.155409552e+11
1.195899666e+11
1.140275417e+11
99834705800.0
1.345099104e+11
87542868000.0
1.165374187e+11
1.318375631e+11
94490882800.0
1.467685134e+11
1.134292215e+11
1.146709658e+11
1.152472918e+11
99461167200.0
1.307318334e+11
1.367411964e+11
1.223918342e+11
1.096487797e+11
1.086776484e+11
1.134410034e+11
1.332399962e+11
1.17764845e+11
1.280776264e+11
1.652934303e+11
1.078549486e+11
1.179506454e+11
1.297792513e+11
1.050402231e+11
96574257200.0
1.190753879e+11
1.332473282e+11
80482583000.0
1.131727517e+11
1.269043503e+11
1.2828692077e+11
96984947800.0
1.324609135e+11
1.097180202e+11
1.185371973e+11
1.553340779e+11
1.000961212e+11
1.024848627e+11
1.1093808924e+11
1.086143647e+11
93964673600.0
1.475623937e+11
1.071382794e+11
1.218666036e+11
1.123737113e+11
72982499530.0
1.294873472e+11
1.052159674e+11
1.149367514e+11
1.055320796e+11
1.290567814e+11
1.459500381e+11
1.086410887e+11
90364788500.0
1.115804823e+11
1.227660719e+11
1.634029087e+11
1.423434592e+11
1.236884233e+11
1.141354252e+11
1.112044174e+11
1.1820339394e+11
1.010160015e+11
86612930300.0
1.127636214e+11
99704670400.0
85373478700.0
1.135098381e+11
1.076031056e+11
1.266666245e+11
1.104175685e+11
99915999300.0
1.433314043e+11
1.141113696e+11
98911956900.0
79980412000.0
1.251860415e+11
1.03520067e+11
82478620000.0
2.544032489e+11
1.251312776e+11
1.004517094e+11
85245972100.0
1.063682832e+11
1.490851733e+11
1.215499976e+11
1.207801943e+11
99542509900.0
1.183511503e+11
1.006687133e+11
1.094074047e+11
1.154616173e+11
89405393000.0
1.14867635e+11
1.139013926e+11
1.548874669e+11
1.202212385e+11
86395260400.0
1.0711350486e+11
1.1000586e+11
1.215460921e+11
98278988700.0
1.223634114e+11
1.228963375e+11
1.047855963e+11
1.03753832e+11
1.108269244e+11
99352298000.0
1.163395828e+11
1.288822841e+11
1.175282655e+11
1.504415244e+11
1.463500264e+11
1.414997886e+11
1.140418973e+11
73395771600.0
1.128684493e+11
1.230625603e+11
1.057406026e+11
97138236700.0
1.074587974e+11
1.23403671e+11
1.431747586e+11
1.170378339e+11
1.119143818e+11
1.0945698e+11
1.485647621e+11
1.433586994e+11
90568177610.0
1.225587258e+11
95582884300.0
1.226221332e+11
1.609923423e+11
91528581400.0
1.667813129e+11
1.019880651e+11
1.17548713e+11
1.394518636e+11
1.3829769e+11
1.099465186e+11
1.20459174e+11
94927011900.0
98815070100.0
1.337030343e+11
1.084811977e+11
1.580399584e+11
95746116600.0
88004864700.0
1.339340512e+11
1.036435061e+11
95898257800.0
1.157480701e+11
95003008900.0
1.125668749e+11
1.341684373e+11
1.178643656e+11
1.367083915e+11
1.314826752e+11
1.205872717e+11
1.089917087e+11
1.076314922e+11
1.165868086e+11
1.07046391e+11
1.197337531e+11
1.224352943e+11
1.081143758e+11
1.394527814e+11
1.142432439e+11
1.946153613e+11
1.191251824e+11
1.900083701e+11
96634369100.0
81026726000.0
1.11199364e+11
1.134123704e+11
1.307477723e+11
1.192159193e+11
1.357791174e+11
1.287651467e+11
1.290459356e+11
1.530133647e+11
1.309750994e+11
1.425991023e+11
1.075423275e+11
1.013975527e+11
1.428495505e+11
1.021103263e+11
97086441400.0
1.268768652e+11
1.200869073e+11
1.037495864e+11
1.214500816e+11
1.387311585e+11
92843443900.0
94567870000.0
1.353546455e+11
1.218990838e+11
1.08510094e+11
1.666746817e+11
1.475923388e+11
1.585168247e+11
1.583737361e+11
1.188179846e+11
1.003183316e+11
96472119900.0
1.288376779e+11
1.425712271e+11
1.863710055e+11
1.169390491e+11
99500985100.0
82122405400.0
1.106976918e+11
79712047300.0
1.21688842e+11
93839884700.0
1.117431468e+11
1.127632041e+11
92530947800.0
1.342253627e+11
1.248491681e+11
1.14429275e+11
1.0776288e+11
90014370800.0
1.222733333e+11
1.408114994e+11
1.247273358e+11
1.066884464e+11
1.090870602e+11
1.319548786e+11
1.270123575e+11
1.150611659e+11
1.31421927e+11
1.388377412e+11
95393620200.0
1.105845158e+11
1.235994447e+11
1.429681887e+11
86154760800.0
1.32425842e+11
1.231717364e+11
95775235700.0
99879905300.0
1.13845806e+11
1.928921823e+11
1.155227285e+11
1.054163004e+11
1.1459251e+11
1.262220862e+11
93991515500.0
79258529900.0
1.465521811e+11
94334780000.0
1.256184682e+11
1.21508233e+11
1.290826791e+11
1.711740721e+11
1.312268338e+11
1.495166914e+11
1.626513801e+11
1.442026013e+11
1.192779261e+11
1.146232766e+11
99988473830.0
1.110560805e+11
1.166943173e+11
1.245088323e+11
1.228648321e+11
1.235992778e+11
1.139933876e+11
1.647188132e+11
1.31209264e+11
1.179843402e+11
1.537850551e+11
1.245814582e+11
1.073739809e+11
1.300759219e+11
99462728100.0
1.159329006e+11
1.088066004e+11
1.222455992e+11
1.442304914e+11
1.298104412e+11
1.205867282e+11
97734427200.0
1.054025689e+11
1.216853138e+11
1.189080208e+11
1.615687168e+11
1.020595579e+11
1.168821339e+11
98934029700.0
1.244851357e+11
1.225751364e+11
1.286645788e+11
1.338387809e+11
1.006264097e+11
1.169495366e+11
1.280527046e+11
91933209100.0
1.639809175e+11
1.164500284e+11
1.196556157e+11
1.005213429e+11
86341389500.0
1.029877842e+11
1.014485093e+11
1.406260572e+11
1.189272966e+11
96577256500.0
1.203586959e+11
99954286100.0
1.454404803e+11
91318808700.0
94323404100.0
1.235184605e+11
1.323691941e+11
1.156658228e+11
1.065346012e+11
1.011159517e+11
98974019300.0
1.264537761e+11
85516864600.0
1.506010787e+11
1.150009311e+11
1.155648951e+11
1.133734406e+11
96077314800.0
1.070155913e+11
1.744364334e+11
1.13677782e+11
1.117887966e+11
99274187100.0
1.682000068e+11
1.494369925e+11
1.255496275e+11
1.7232653338e+11
1.116053261e+11
1.072049522e+11
1.102929574e+11
94188897700.0
1.09624249e+11
80500316600.0
1.028471146e+11
1.147247479e+11
1.294790089e+11
1.357245853e+11
1.311271501e+11
89301839900.0
1.138448906e+11
1.144619763e+11
95987242600.0
1.437667973e+11
98730024800.0
1.172879671e+11
1.144832551e+11
71698547300.0
1.020211722e+11
1.044376105e+11
1.167888415e+11
1.309110611e+11
1.473744495e+11
90007751300.0
94665826600.0
89358915200.0
1.096441728e+11
1.222396733e+11
94195392500.0
1.093332123e+11
1.078081745e+11
1.142749898e+11
1.016745223e+11
87523047800.0
1.087191521e+11
1.476873724e+11
1.170150197e+11
1.020950524e+11
1.421397381e+11
1.158098751e+11
1.543791743e+11
1.094626567e+11
1.112315706e+11
1.049657663e+11
98803369600.0
2.057333904e+11
1.243658454e+11
1.665104729e+11
1.015391928e+11
1.364951865e+11
1.036154562e+11
1.267811156e+11
1.144572418e+11
1.078461288e+11
1.062694962e+11
1.105182687e+11
1.042925864e+11
1.147145492e+11
1.119437387e+11
1.135147697e+11
1.226396755e+11
1.602226289e+11
1.48538288e+11
1.24986769e+11
1.414826785e+11
1.060975643e+11
95377784710.0
1.384162292e+11
1.276703159e+11
1.210017478e+11
1.311871498e+11
1.41140086e+11
1.079317602e+11
93224489100.0
1.194495332e+11
1.087960999e+11
1.327859999e+11
1.486485296e+11
1.122221423e+11
1.171881908e+11
1.200067894e+11
1.456512965e+11
1.308017903e+11
1.366848421e+11
1.111383807e+11
1.163570579e+11
87367986600.0
1.163249309e+11
1.0101247359e+11
98317636600.0
1.30912824e+11
1.579513509e+11
1.2283044e+11
1.036382746e+11
1.028965315e+11
1.198512826e+11
1.028667415e+11
88264560700.0
98924834800.0
1.172799947e+11
1.355445211e+11
86709249700.0
1.058176836e+11
1.071363539e+11
89727627100.0
1.027986818e+11
1.217947135e+11
1.26433226e+11
1.491214218e+11
1.124766033e+11
1.180178896e+11
97147208600.0
93769131100.0
1.254843091e+11
1.201217546e+11
98643408600.0
77048420400.0
1.006241198e+11
1.571179554e+11
1.079024032e+11
89294818900.0
1.422182946e+11
81488373400.0
1.494480379e+11
1.065222702e+11
1.23317655e+11
1.321079344e+11
1.083477711e+11
76762774500.0
98371489800.0
89292104100.0
1.01525705e+11
1.231222335e+11
90377759900.0
1.218074395e+11
1.270341817e+11
1.368303e+11
1.152596457e+11
1.253541108e+11
95647087900.0
1.05329907e+11
1.482324244e+11
1.379021011e+11
1.444459714e+11
1.093026774e+11
1.052520364e+11
1.420858944e+11
1.14496944e+11
1.27740593e+11
86222004200.0
1.130464211e+11
1.485994165e+11
1.295581408e+11
1.009848546e+11
84621797700.0
1.113092979e+11
1.06658067e+11
1.211386181e+11
90682683500.0
1.004365773e+11
1.101522456e+11
1.146843001e+11
92061705000.0
1.698966768e+11
1.33234618e+11
1.218210852e+11
1.083576091e+11
1.372133456e+11
1.100509836e+11
96906047600.0
1.295362128e+11
1.080880583e+11
95095695900.0
83965656100.0
1.242288519e+11
1.064667332e+11
96696624200.0
1.125994277e+11
1.340065185e+11
1.3273458e+11
1.177138431e+11
1.312721313e+11
1.077236256e+11
1.417620943e+11
1.047466591e+11
91380293400.0
1.040180559e+11
1.324062539e+11
1.126455013e+11
1.135902674e+11
1.55296301e+11
82113013300.0
1.461325373e+11
1.113634159e+11
1.051079283e+11
96390921240.0
1.262398769e+11
1.554901091e+11
1.022700417e+11
1.643809765e+11
1.156362883e+11
1.072460584e+11
1.414952645e+11
90086554300.0
1.177622356e+11
1.307764966e+11
1.274554892e+11
1.235420156e+11
1.174722068e+11
1.220534298e+11
1.414556847e+11
1.051560805e+11
1.366710891e+11
1.131465889e+11
1.15135562e+11
1.030837282e+11
86136088000.0
1.177334836e+11
89301424200.0
1.316924274e+11
1.337145457e+11
1.358387056e+11
1.721135483e+11
1.121782351e+11
1.139116359e+11
85270864200.0
1.120233644e+11
1.295047457e+11
1.274265245e+11
95603103800.0
1.405866146e+11
1.25726132e+11
90618532800.0
1.060128181e+11
1.096203188e+11
1.271841013e+11
1.019635094e+11
1.379412969e+11
93470046400.0
95070284100.0
1.1063981508e+11
1.204012276e+11
1.199626585e+11
1.290293856e+11
1.15564634e+11
1.111184964e+11
1.337031809e+11
81932133200.0
1.471951132e+11
1.059896905e+11
1.052564242e+11
95410562900.0
1.1599382e+11
93990779000.0
92545846100.0
97658443500.0
1.34856676e+11
95215374900.0
