1.427806823e+11
1.04124254e+11
1.10919551e+11
1.037114712e+11
85850424100.0
1.064664302e+11
91027335600.0
1.038912378e+11
1.461293897e+11
1.412974895e+11
1.036818975e+11
1.276244918e+11
1.200099983e+11
1.379003706e+11
1.380660466e+11
1.39339777e+11
1.298525552e+11
1.381398237e+11
1.603843365e+11
91405600700.0
1.076585325e+11
1.117184524e+11
1.149279571e+11
1.184996063e+11
77409252200.0
1.193341964e+11
1.263924887e+11
1.042676511e+11
1.147933257e+11
1.127970941e+11
92340990900.0
1.338782328e+11
1.069902915e+11
1.530921601e+11
1.158073793e+11
1.269820316e+11
1.087614402e+11
1.326975973e+11
1.224804977e+11
1.144633671e+11
1.129225515e+11
81812698300.0
78382707100.0
1.441912744e+11
1.441825024e+11
1.24387193e+11
1.296983698e+11
1.085804892e+11
1.081451479e+11
1.021705356e+11
1.330425795e+11
1.240244886e+11
1.224984108e+11
1.295300138e+11
1.221324428e+11
1.199297078e+11
1.560327209e+11
1.290340592e+11
86891835700.0
1.018254635e+11
1.036312862e+11
1.112730405e+11
1.440937752e+11
1.452311288e+11
1.031833219e+11
1.114363447e+11
97204142500.0
1.346797642e+11
1.181723136e+11
1.416059175e+11
1.229975386e+11
85480129000.0
1.146947288e+11
90782419100.0
1.1448223e+11
1.124844154e+11
1.323535401e+11
1.412368648e+11
95038303100.0
1.676443971e+11
1.227060882e+11
1.351364045e+11
1.179211445e+11
98744307000.0
1.379530616e+11
1.489337215e+11
1.467033184e+11
93790651100.0
98391815100.0
1.292046996e+11
1.428675794e+11
1.213386111e+11
1.152757921e+11
1.308023838e+11
1.339107221e+11
1.372505539e+11
1.435122673e+11
1.351835302e+11
1.111956778e+11
1.111524471e+11
1.099711113e+11
95750460250.0
1.259778033e+11
90793483300.0
87610939600.0
95952376500.0
1.236025159e+11
1.306358263e+11
99118249000.0
1.480840509e+11
1.081519873e+11
1.298325106e+11
1.076954489e+11
1.24507578e+11
96375500400.0
1.236774129e+11
1.4673862217e+11
88724443100.0
90193202300.0
1.172722591e+11
79506559500.0
99009474400.0
90015607300.0
1.042863488e+11
1.18556685e+11
1.015927027e+11
1.407112732e+11
93526692400.0
1.190959141e+11
1.184649452e+11
1.121091836e+11
1.022461493e+11
1.427723883e+11
1.131406958e+11
1.397503776e+11
1.086317116e+11
94637971600.0
98129862600.0
1.127532535e+11
1.145204462e+11
1.045173302e+11
82377800670.0
1.121462928e+11
1.115507095e+11
1.184788604e+11
1.170579082e+11
1.292768492e+11
1.240006211e+11
1.419163768e+11
1.190405893e+11
1.067514729e+11
1.236708405e+11
1.062724184e+11
1.096068429e+11
94072719300.0
1.065601379e+11
1.266642206e+11
1.104795742e+11
1.097241427e+11
93201109900.0
1.221611494e+11
1.579644381e+11
1.118536133e+11
1.069744694e+11
94824487000.0
77360456120.0
1.272524791e+11
1.173312181e+11
1.133997418e+11
1.140685406e+11
2.015336997e+11
1.144796681e+11
96195316800.0
87318175600.0
1.005874513e+11
1.071817359e+11
98527729700.0
1.606943791e+11
1.096469211e+11
1.32300413e+11
1.08730482e+11
1.119568176e+11
1.21280711e+11
1.284556422e+11
99501093200.0
1.125529588e+11
1.197731954e+11
89517232500.0
1.263553518e+11
1.696513921e+11
1.233597821e+11
97033945700.0
1.25161506e+11
89267440400.0
1.29592411e+11
1.392163627e+11
1.021714028e+11
1.1217608712e+11
1.185375405e+11
1.388660649e+11
90850020100.0
1.069354039e+11
99231629200.0
95449005600.0
1.500354308e+11
1.109991082e+11
1.380824431e+11
1.801727224e+11
1.131266303e+11
90722037900.0
99322053910.0
85720784800.0
1.194219571e+11
1.121958287e+11
1.326441235e+11
92369405600.0
99392434400.0
90714517000.0
1.309144276e+11
1.1314122326e+11
1.529520486e+11
1.331328449e+11
99207693000.0
1.224413745e+11
1.497135544e+11
90494275800.0
1.179968208e+11
1.127083422e+11
1.043096209e+11
80177935100.0
1.11366113e+11
1.210336021e+11
90978711300.0
1.144315022e+11
1.29887388e+11
1.242591007e+11
1.428828395e+11
85020864800.0
1.286750226e+11
1.422216241e+11
95997945500.0
1.288276507e+11
1.231820999e+11
1.186937404e+11
1.091139048e+11
1.266651104e+11
1.164748756e+11
1.60928439e+11
1.105636907e+11
1.152139651e+11
1.167712141e+11
1.058450744e+11
1.12346285e+11
1.001321472e+11
1.258811735e+11
86451938500.0
1.090751632e+11
1.389069894e+11
1.547721907e+11
89217455300.0
1.041953264e+11
1.076305151e+11
1.018727827e+11
1.171812636e+11
93204988570.0
1.5816472672e+11
1.105292262e+11
94465373200.0
1.036280256e+11
84633994800.0
97568246800.0
1.009956515e+11
1.247468172e+11
1.618627888e+11
1.162463653e+11
1.308385434e+11
99156448200.0
1.469075619e+11
1.068671076e+11
1.04957496e+11
1.014907248e+11
1.046201016e+11
96337278500.0
1.536811768e+11
1.619722622e+11
1.042316304e+11
1.052367782e+11
96983647400.0
1.331543493e+11
1.393785849e+11
1.33195858e+11
94681571300.0
88174026800.0
1.477680308e+11
1.467834704e+11
1.224895255e+11
1.453397293e+11
1.187135497e+11
1.3964979552e+11
89980249200.0
88856893200.0
1.084858033e+11
98055884900.0
1.049613525e+11
1.077520914e+11
99345487900.0
1.407825242e+11
1.644410574e+11
1.347270096e+11
1.325054834e+11
1.012913726e+11
1.146417958e+11
81358599300.0
1.631304597e+11
1.11035848e+11
1.4547885e+11
92195554900.0
1.2815119e+11
1.31772287e+11
92019781500.0
1.125917735e+11
1.080045927e+11
1.175093781e+11
88075003900.0
1.288114704e+11
96510008700.0
1.198796287e+11
1.326032663e+11
94098427300.0
1.566533867e+11
1.045354609e+11
1.207852847e+11
1.275024436e+11
1.12666654e+11
1.348614153e+11
1.286594298e+11
1.063213579e+11
1.077703089e+11
1.006655003e+11
1.095246619e+11
1.213671034e+11
1.059650264e+11
1.10087155e+11
1.536892523e+11
1.178398698e+11
1.086932557e+11
1.347658933e+11
1.313442074e+11
95527521000.0
1.1081334701e+11
1.248963669e+11
82099097100.0
1.229896547e+11
1.274804971e+11
1.369514217e+11
87429070600.0
1.321938689e+11
1.091019852e+11
1.099491573e+11
1.551051543e+11
96286090700.0
1.143730967e+11
1.195211838e+11
1.155431557e+11
86624978800.0
1.313608067e+11
1.153667802e+11
1.174349298e+11
1.088112465e+11
78423969900.0
1.123435446e+11
1.074487961e+11
1.358142372e+11
1.103080705e+11
1.320567997e+11
1.198147145e+11
98455579600.0
91139004100.0
1.177464257e+11
1.330107327e+11
1.433666807e+11
1.293001401e+11
1.22119246e+11
1.188821493e+11
1.235943956e+11
1.3085845913e+11
1.02922708e+11
94043675300.0
1.19336124e+11
1.020411809e+11
96090391600.0
1.161728951e+11
1.088890106e+11
1.222957843e+11
1.21774787e+11
1.084156122e+11
1.206473224e+11
1.026614477e+11
1.008925272e+11
90569104900.0
1.371392644e+11
1.185879995e+11
91661275100.0
2.340763091e+11
1.266182006e+11
1.005304994e+11
91776256700.0
1.081654467e+11
1.274952024e+11
1.149702053e+11
1.292647644e+11
1.165481457e+11
1.225416388e+11
93990091700.0
99135113400.0
99916411700.0
1.001201228e+11
1.314566425e+11
1.156583578e+11
1.542396241e+11
1.344366068e+11
88379654100.0
1.13123806e+11
1.177886168e+11
1.233367594e+11
1.098101043e+11
1.250993825e+11
1.132058641e+11
1.098776024e+11
1.159717263e+11
1.223567486e+11
1.185290725e+11
1.162092478e+11
1.388689545e+11
1.072884514e+11
1.489480617e+11
1.453808268e+11
1.372629782e+11
1.19860985e+11
90904615700.0
1.106563348e+11
1.145890645e+11
1.179413148e+11
1.01706037e+11
1.147174824e+11
1.304716384e+11
1.41640725e+11
1.391992741e+11
1.078122617e+11
1.082663466e+11
1.275026918e+11
1.375008673e+11
88518111800.0
1.199927706e+11
97574070400.0
1.186329331e+11
1.46485796e+11
93014748800.0
1.446114206e+11
1.021579433e+11
1.0560839e+11
1.337712486e+11
1.243104e+11
1.133162572e+11
1.245339399e+11
92787217500.0
90329338800.0
1.130022463e+11
87631887400.0
1.704208013e+11
98441036700.0
92955860700.0
1.365844237e+11
1.061326955e+11
92842228900.0
1.106042569e+11
1.034794011e+11
1.095501477e+11
1.247306279e+11
1.171170981e+11
1.168263361e+11
1.268842728e+11
1.214368118e+11
1.070728744e+11
1.105957857e+11
1.087473903e+11
1.173082641e+11
1.120709884e+11
1.212884814e+11
1.147995677e+11
1.474555884e+11
1.082155024e+11
1.643376284e+11
1.43457707e+11
1.858778329e+11
1.108600706e+11
94255734800.0
1.186223183e+11
1.277071761e+11
1.310974973e+11
1.228453715e+11
1.411450725e+11
1.307127439e+11
1.117811619e+11
1.622617881e+11
1.175678262e+11
1.463608829e+11
1.126607081e+11
97514147100.0
1.357276881e+11
1.060843197e+11
98440804600.0
1.247089006e+11
1.22853678e+11
1.03133863e+11
1.188344762e+11
1.43842899e+11
95731049900.0
90425497400.0
1.326006624e+11
1.369019651e+11
1.079705364e+11
1.717994838e+11
1.508663613e+11
1.323899495e+11
1.447287611e+11
1.174894162e+11
1.109326788e+11
92369199900.0
1.245634668e+11
1.201521587e+11
1.776817802e+11
1.17337749e+11
92418638100.0
77698005500.0
1.144101022e+11
84588193100.0
1.372821341e+11
1.02213746e+11
1.081363059e+11
1.215148577e+11
96743458700.0
1.323670536e+11
1.300527938e+11
1.059111854e+11
1.154474907e+11
1.030285941e+11
1.141518886e+11
1.422721473e+11
1.658645775e+11
1.1635973e+11
99562588400.0
1.240515532e+11
1.205808351e+11
1.225710202e+11
1.25654073e+11
1.328055681e+11
1.014947278e+11
1.099761789e+11
1.245107583e+11
1.533104886e+11
82284132300.0
1.361154901e+11
1.239446879e+11
94893168900.0
1.057244793e+11
1.00604227e+11
1.776115844e+11
1.063648249e+11
1.021348152e+11
1.325350173e+11
1.357405119e+11
1.153600502e+11
79599336900.0
1.482603451e+11
1.029758461e+11
1.16065595e+11
1.343930246e+11
1.129670523e+11
1.666682639e+11
1.298419778e+11
1.431159415e+11
1.575184985e+11
1.25416377e+11
1.193250552e+11
1.144178112e+11
1.056386588e+11
1.134524715e+11
1.167186976e+11
1.252011256e+11
1.404927999e+11
1.20878563e+11
1.209317311e+11
1.493267076e+11
1.351930663e+11
1.176825309e+11
1.358429431e+11
1.25270915e+11
1.108873083e+11
1.458088795e+11
1.040258952e+11
1.256207151e+11
1.089172422e+11
1.113680812e+11
1.455416755e+11
1.314614028e+11
1.159545041e+11
94093196600.0
1.169697943e+11
1.252542608e+11
1.327744168e+11
1.559741385e+11
1.046917309e+11
1.174760371e+11
1.063014621e+11
1.112927558e+11
1.30940549e+11
1.238262583e+11
1.359203352e+11
1.003203714e+11
1.278664982e+11
1.16715955e+11
89314968100.0
1.421143202e+11
1.112896419e+11
1.19234709e+11
1.013403539e+11
88196821000.0
1.067788526e+11
1.016683154e+11
1.560624725e+11
1.291140772e+11
96302565200.0
1.241831677e+11
1.018584753e+11
1.3139212e+11
96421584700.0
1.044275386e+11
1.313384963e+11
1.303348218e+11
1.169568215e+11
98524805300.0
93953932800.0
1.028619326e+11
1.167793678e+11
84187073100.0
1.470208697e+11
1.236889178e+11
1.172163307e+11
99750548700.0
97266964600.0
1.107536181e+11
1.45978552e+11
1.307623043e+11
1.063943706e+11
1.131447919e+11
1.474861606e+11
1.692415105e+11
1.16497536e+11
1.654064513e+11
1.067844207e+11
1.103810955e+11
1.0682279738e+11
99982527800.0
1.038179121e+11
81383380600.0
97092228200.0
1.080479371e+11
1.310509206e+11
1.405045849e+11
1.243101072e+11
92735509600.0
1.081700801e+11
1.325554328e+11
1.031300956e+11
1.4328906e+11
94144183900.0
1.264011951e+11
1.070794398e+11
86034486100.0
1.025390333e+11
1.118036862e+11
1.069486454e+11
1.333433838e+11
1.395260443e+11
95391521000.0
1.06517636e+11
92051424400.0
1.187972736e+11
1.271942321e+11
94371817700.0
1.09457029e+11
1.249846329e+11
1.145797542e+11
1.022305543e+11
97177014600.0
1.10275469e+11
1.385436804e+11
1.240667907e+11
1.043987438e+11
1.495950955e+11
1.292963563e+11
1.413565652e+11
1.232961486e+11
1.081201842e+11
1.01749999e+11
99205802500.0
2.023241552e+11
1.305913623e+11
1.61295014e+11
1.022573496e+11
1.343529969e+11
1.08293714e+11
1.19886514e+11
1.030577922e+11
1.20993596e+11
1.027964352e+11
1.113951806e+11
1.093821372e+11
1.228509901e+11
1.179748681e+11
1.082704386e+11
1.138767633e+11
1.523781969e+11
1.545797712e+11
1.328873208e+11
1.381986286e+11
1.045831266e+11
78740852400.0
1.314687323e+11
1.362442381e+11
1.22850787e+11
1.41297208e+11
1.560887631e+11
1.120284499e+11
95643498400.0
1.167907264e+11
1.076984186e+11
1.284564169e+11
1.427612848e+11
1.143572831e+11
1.272820115e+11
1.274444359e+11
1.283205234e+11
1.176167643e+11
1.35011393e+11
1.198525786e+11
1.163087402e+11
89738513000.0
1.176363261e+11
1.090309012e+11
90868842500.0
1.334400335e+11
1.288572737e+11
1.382280834e+11
1.126313598e+11
1.054802791e+11
1.175093451e+11
1.009471059e+11
90412349900.0
1.180188275e+11
1.11947978e+11
1.380879874e+11
83318329500.0
95201598700.0
1.202579714e+11
91314970800.0
1.092574762e+11
1.174661433e+11
1.452957804e+11
1.390887307e+11
1.005509474e+11
1.055598772e+11
98095722900.0
92666926400.0
1.220180354e+11
1.18180367e+11
1.07227509e+11
78328020200.0
97099116200.0
1.630831228e+11
1.065312974e+11
1.008120698e+11
1.24371623e+11
83586333100.0
1.519823544e+11
1.032415414e+11
1.348408582e+11
1.385521777e+11
1.134770378e+11
81989001200.0
1.060774787e+11
86918465400.0
97941005700.0
1.331633768e+11
94077940400.0
1.189556029e+11
1.333831638e+11
1.430409132e+11
1.137357322e+11
1.149799326e+11
1.008938596e+11
91749918900.0
1.428182582e+11
1.415534963e+11
1.503676644e+11
99955280600.0
92941839500.0
1.395401753e+11
1.227072365e+11
1.30613182e+11
1.098132468e+11
1.07321905e+11
1.516201567e+11
1.380240024e+11
1.174800694e+11
76116921700.0
1.204539338e+11
1.120140857e+11
1.351329358e+11
93189786600.0
1.059646445e+11
1.020720373e+11
1.168911979e+11
94562958400.0
1.676276337e+11
1.267486722e+11
1.083418806e+11
1.125238102e+11
1.151755174e+11
1.212321285e+11
94499358400.0
1.380408171e+11
1.170380867e+11
1.04559608e+11
87145011400.0
1.326082124e+11
1.024865011e+11
1.143433487e+11
1.128382606e+11
1.202412125e+11
1.15064272e+11
1.240326518e+11
1.181816018e+11
94816286200.0
1.463256687e+11
1.230059667e+11
76227870400.0
1.085415235e+11
1.182240065e+11
1.109829698e+11
1.030744348e+11
1.301661694e+11
79933189000.0
1.408415139e+11
1.071161404e+11
1.036778367e+11
94900448200.0
1.158104697e+11
1.524134571e+11
96189869200.0
1.454979669e+11
1.111475592e+11
1.080558407e+11
1.374572231e+11
94944419000.0
1.119781681e+11
1.216223636e+11
1.254913749e+11
1.178756643e+11
1.155798965e+11
1.254870644e+11
1.425811941e+11
1.203549063e+11
1.212145021e+11
98275233900.0
1.156892994e+11
1.113545782e+11
88475328800.0
99289879800.0
97524930700.0
1.272322138e+11
1.391680309e+11
1.274821579e+11
1.616975977e+11
1.249761799e+11
1.015891274e+11
90888756800.0
1.285648233e+11
1.421665969e+11
1.447128997e+11
1.001055981e+11
1.373969034e+11
1.203037819e+11
88976920000.0
99618248400.0
1.148128365e+11
1.292996215e+11
1.198721083e+11
1.317483158e+11
94213895100.0
1.010174187e+11
1.081141416e+11
1.136193507e+11
1.172233101e+11
1.363846798e+11
1.301713975e+11
1.140013231e+11
1.204873275e+11
88248525400.0
1.61444227e+11
1.182194195e+11
1.03975268e+11
98483786700.0
1.180100391e+11
1.047230239e+11
85526514300.0
1.043903911e+11
1.387319527e+11
95385391700.0
