-268.115
-194.284
9240.67
4170.58
-1570.48
-4102.32
-3546.93
-4719.67
-2722.81
-5104.62
-4098.86
1053.31
-757.488
-3747.47
4602.11
-7712.29
-5350.29
-1916.2
-1411.28
3709.9
117.724
7422.35
215.993
992
4751.89
2092.62
4080
3564.53
-677.286
-36.273
-1201.82
-4927.88
3541.95
6162.55
697.529
643.762
153.105
-992.115
4615.17
-1686.74
-1858.95
-408.393
-1218.66
-455.285
862.162
-1116.99
-3405.2
459.264
-5597.19
-11687.6
-10178.4
7517.2
6532.37
9628.17
10729.9
110.962
2312.39
107.579
-8723.26
-4145.59
3505.49
-5276.48
-13402.8
701.903
-9596.66
-4525.47
1605.76
-4004.09
1995.33
-4870.87
-3259.91
7687.63
2671.53
-1388.8
-3000.02
-2380.29
-2009.07
-1131.97
2422.28
1586.22
-612.949
733.215
-1303.66
-3635.98
2735.34
-630.143
721.782
-744.633
2392.96
-2837.9
-1993.9
-296.106
-7466.87
-1945.66
1065.89
-873.119
-2297.26
4695.15
4607.57
3878.98
-9154.87
-2214.58
-518.36
330.01
489.637
927.782
-578.427
1182.97
-155.963
-4008.21
-5240.99
661.057
-197.957
-6649.22
-1379.52
-1374.78
-719.008
-7659.93
-5118.04
162.992
14011.3
31001
33367.5
16401.4
9675.17
12645.4
13633.1
-56.7673
-1310.31
-1506.08
2734.71
5151.77
7711.5
12230.7
11777.6
606.494
9534.32
-2473.69
452.799
5773.31
1755.48
-7216.41
-3553.82
3249.09
-5919.52
211.428
-3292.75
-7905.45
1076.19
1655.08
-4174.78
508.497
-3819.27
-7346.62
-2386.34
3234.65
2079.76
-227.825
3956.91
8073.11
2356.4
95.538
224.742
802.615
-149.331
-2690.43
-836.694
-5538
-305.506
-2808.82
-6488.78
-11776
261.697
-2641.73
459.662
-802.763
266.343
5233.07
-410.53
-3749.21
255.715
-761.92
1720
4442.4
399.062
-2215.77
-5176.05
-3707.56
-1265.32
-1761.44
-415.801
450.493
716.157
-1149.76
-2581.3
-5422.01
143.529
3944.33
-249.309
-3160.44
428.857
1503.19
3116.63
172.365
-2539.29
-3435.14
1561.98
4422.26
-51.4033
6799.47
-1248.16
-7769.8
337.542
1088.8
-543.134
2408.59
-537.465
1133.05
-1746.59
-4121.68
-6915.48
6196.56
1931.27
3979.84
-5313.82
-3917.18
-5217.29
-2489.61
95.4455
1202.14
1984.5
7087.81
1516.95
2226
-3814.49
-17683.8
-11312
-11323.8
-1900.08
-3052.99
-13458.8
-1478.6
-6250.25
-332.304
-1323.25
-1109
-6717.9
5749.4
799.074
-47.9282
-5605.04
-452.114
-597.28
-4999.24
-9213.89
-13861.3
-1240.76
-704.901
892.198
-1373.84
2689.67
-630.3
-450.913
-2040.2
1523.82
-2358.35
-438.87
1383.74
-1200.4
-321.175
-978.959
3184.57
4587.49
7310.02
8405.45
2413.28
277.049
1607.03
2568.61
2777.41
2450.69
1364.87
-1691.84
-4206.42
-711.504
-4754.43
-11689
-2255.5
-1284.07
-435.767
-541.919
-2133.85
-1423.93
-2166.07
-1700.43
6760.54
-511.636
5855.14
96.7065
217.495
-5722.6
-10253.1
-9298.74
-5099.34
-1079.72
701.486
3302.31
-8478.32
-2339.79
-3401.61
-1989.95
-1727.13
3884.83
-2114.91
1268.63
-1564.89
-179.238
4953.29
4788.03
9408.79
564.672
-974.424
-374.954
2394.67
-223.652
3002.5
-232.751
1218.34
6974.15
7875.02
18118.1
-2549.73
543.834
-1632.46
411.534
-2418.34
-3933.5
-2835.68
-1659.47
-3950.87
4670.62
-1709.84
-2579.45
-170.97
2327.99
-395.047
5603.76
8070.46
764.894
5991.02
14470.6
10080.6
3498.76
1584.33
-414.467
-2660.44
-8391.5
-4353.7
-742.546
1376.09
-4825.49
-2260.05
-1363.21
462.298
1475.22
1342.95
-2301.99
421.864
4663.12
-590.563
-1420.43
5300.49
4340.65
-5345.86
-756.594
3965.08
9255.56
6650.66
7129.55
-958.122
-179.384
5484.78
434.605
2404.83
509.66
-2513.58
-4283.24
1167.91
615.247
312.023
-9269.77
-1949.22
-6449.92
-4304.05
-2722.55
-2657.75
-1822.96
4084.18
1862.04
-1520.17
19.1058
6359.39
-8895.1
-3109.46
-919.631
7095.44
-1407.17
-4877.43
-1622.04
-2468.2
961.051
627.586
512.818
2934.37
1151
70.1233
274.404
6174.45
14445.6
2742.91
3115.34
-2375.57
1496.32
-13.9987
-3584.35
-3016.16
-156.108
-166.734
-1392.39
1411.13
9526.77
1949.88
4836.79
-3289.71
-1202.65
-1076.98
-5048.59
-904.632
4346.45
4126.52
5086
3134.05
3244.43
-1174.37
-1600.84
-4957.1
-1092.91
3486.33
-899.819
6218.49
394.796
-1707.32
-40.8882
4373.73
1573.78
3575.88
3833.16
-2458.32
-1237.78
591.588
822.145
1395.78
2371.37
-3141.35
7262.27
9334.36
8625.77
9379.84
15392.6
21978.3
6722.64
1277.48
714.833
-844.951
7271.47
-299.514
4302.75
-2480.78
-548.109
522.335
-2240.36
-973.089
-1979.37
1868.78
-346.96
-1813.07
-692.891
781.355
317.845
3979.47
-6556.14
-842.454
1290.33
2897.39
950.596
1754.26
2693.94
-3994.06
-2017.34
-429.176
-996.386
5414.82
863.719
-27.1572
-268.375
3120.86
872.08
1031.28
1171.44
1373.26
368.851
-1199.81
-1370.48
6841
6513.16
2784.52
-3049.97
2795.68
554.644
-6882.83
-4286.83
-8068.76
1517.39
-3099.6
61.6643
112.884
193.532
-1782.19
-5825.41
1907.4
1946.71
2416.52
-1349.07
2523.3
5628.23
6758.67
4067.41
839.185
-2972.64
568.627
-3038.43
2209.45
-3461.41
-1703.23
-2255.61
-1114.41
-2667.11
-2417.68
-4377.38
-942.832
477.073
-61.1884
-11802.7
-4793.95
-4374.6
-13430.6
-10009.4
-3280.05
213.323
-2929.88
-5354.61
-3401.05
2701.74
2861.87
5306.78
1485.64
1840.9
774.839
1469.62
1487.59
-398.091
5471.04
3728.97
7565.47
6084.15
1443.65
2513.49
-328.37
-1417.61
-2808.85
-101.2
-9381.63
-4521.14
-2250.1
4405.68
-944.655
-1188.26
302.829
-6707.56
-3850.42
3078.98
5488.45
-5576.96
-4757.52
-1531.84
-1088.29
-7319.85
-9464.93
2881.3
3355.08
2114.87
757.451
1796.18
1456.11
998.292
-100.47
-1163.55
7337.64
6642.42
3689.89
1452.5
-2231.1
1295.8
-2556.87
5677.08
-9147.85
-10436.7
-4509.97
992.04
7383.26
5567.78
-3238.46
374.156
6314.23
-4649.71
265.002
982.511
-4264.81
-3333.89
3181.12
-254.193
-4159.68
-4635.95
1670.41
3349.92
2788.36
-1686.02
-375.639
241.473
-2319.55
-1540.06
-375.482
-1461.15
1659.37
1163.63
3686.59
1451.72
4735.23
8616.47
1310.1
2802.19
2008.83
-160.758
-3622.65
2359.75
3689.17
5408.87
-2522.7
7116.87
2319.85
-2073.13
-3685.16
-17.4273
-4015.88
-4588.1
1359.32
14935.4
7095.1
-3239.98
1619.96
-15800.2
-30261.6
-7057.51
446.792
-4723.04
-4958.13
-6236.78
-5326.13
259.122
-758.499
1207.96
-1565.63
-5659.96
1100.52
-5999.78
7957.16
1501.28
11309.5
14121.8
23367.5
32599.9
26315.7
24266.1
-4143.21
3663.14
-3422.65
106.408
10734.4
1526.79
1125.78
-2536.5
1631.68
-1865.23
-1355.49
-39.2344
-1959.59
1115.95
-3458.08
-15055.8
-10586
-2284.15
-7839.47
-4428.13
-4105.86
10048.6
-33.6265
5145.7
-2498.59
1065.33
3000.25
-462.517
52.4133
-6944.52
-2773.04
-5353.4
-2265.07
-1697.83
-838.874
185.315
-1145.27
171.516
6832.48
-2057.7
1864.6
-67.2209
-2233.79
-1851.94
-2258.69
628.155
-601.916
-1711.15
-2998.9
581.943
-2477.42
-2757.13
-5784.34
-1369.69
-1947.5
-137.226
2637.49
2372.63
5511.68
8343.99
789.67
-1790.67
-907.987
-1208.17
850.687
-60.7663
-718.318
-2844.06
-93.8776
-5512.86
-5470.34
229.535
-251.205
12170.5
14935.4
11644
-1661.2
-131.479
6431.33
6236.68
630.791
2435.86
938.381
3028.3
13723.3
-3870.52
-184.171
3361.71
-305.178
2357.54
239.791
-1084.64
1303.37
233.147
-4478.86
-5591.8
-2381.27
-6657.43
-2249.7
-12340.5
-30.183
-2874.68
-6590.3
-5265.94
-6218.6
-4524.34
-3809.61
2328.94
10247.2
4992.74
7244.78
7012.92
3235.6
597.065
-3060.08
1680
-1175.9
-1912.4
-7378.47
-2597.15
-2007.69
-1807.22
3541.14
12582.2
2488.49
-3780.08
2587.19
11238
1880.43
2463.71
7354.45
2413.9
6272.83
7531.62
1315.09
1718.18
806.107
1161.11
-1494.63
-962.365
5830.66
3824.84
8754.43
15252.2
10188.2
7682.33
-60.6677
191.074
-2817.34
-2935.72
-615.212
395.969
-714.25
-9567.88
-625.96
1715.19
-2147.88
-1715.96
716.059
1931.63
2628.72
774.905
4700.95
2388.01
2451.97
10607.1
-97.4881
551.443
-542.556
11808
5968.94
6315.76
9148.22
702.514
1972.13
166.028
-3243.25
-5831.27
-294.157
-640.476
-2367.68
535.598
-309.794
-1561.12
5771.8
2734.2
6196.53
3354.63
10241.1
3282.87
9998.02
15156.1
-3358.43
4581.53
4809.53
-3466.24
1666.77
1069.56
7736.02
16925.7
7773.63
5842.17
-3283.35
4013.61
1869.68
8021.42
7459.09
-15.674
3268.67
2236.26
1694.28
-1488.93
-4103.09
-581.168
-3527.93
-7651.75
-4071.73
-7495.8
-4341.02
-2437.12
456.209
-6221.12
3719.58
-2431.81
-1284.88
1178.77
617.116
1119.45
-87.1101
-3485.57
-3534.2
-1849.02
-6649.56
-1913.37
2631.14
-2555.72
-4421.42
-4360.15
-2901.32
2135.64
148.386
1116.18
-2212.13
-9442.25
-1122.73
-323.007
-1803.95
1603.34
556.96
-6036.8
-1384.31
-7253.07
502.211
4107.27
14470.4
8075.77
9103.86
3082.42
2503.51
3613.95
7173.82
5238.15
1252.4
2104.8
3923.39
-361.257
-2393.44
-6740.37
-4236.01
-240.388
6649.96
252.924
8031.65
11555.6
14757.7
8039.34
-1901.44
3040.57
9188.65
2452.87
852.185
8232.4
7564.4
4612.49
6110.61
4424.94
4176.46
671.867
868.73
4346.9
-1113.12
-87.118
-28.9997
2148.8
4748.1
798.464
6766.65
2572.64
66.3561
2758.67
863.467
705.916
-1269.72
-2378.98
2093.52
-9365.23
-5174.76
-4405.75
2212.28
1082.56
-939.735
1565.14
-5114.02
4366.23
5234.79
1884.26
-2321.78
3622.22
536.457
-1445.09
-2216.72
-3438.69
-2227.32
-781.182
-2755.83
-693.337
9747.76
5382.62
5112.14
2527.38
2453.64
-1276.27
50.0741
-9557.38
-644.145
-4108
2515.56
4531.74
408.015
632.07
3103.86
822.716
1812.55
3279.57
4914.2
298.334
-1182.84
-659.068
2707.99
-1753.84
10046.1
5964.78
2300.99
2386.48
-714.118
25.9309
1207.33
2394.05
-1604.82
475.73
-4918.86
-1925.05
-2162.85
-350.786
-3825.13
5133.58
1396.23
12654.3
10702.5
1070.89
4373.23
4367.7
-4813.63
-2605.71
-11200.2
677.814
-4272.95
-2231.27
2518.64
-305.469
12.5471
-4322.66
-2148.33
1571.95
1036.92
6136.69
159.704
-3197.1
-1521.07
-1032.98
2217.04
1719.18
-772.887
759.543
2745.45
2151.37
20779.6
5522.09
1134.08
-108.571
1078.23
1057.62
794.694
-2549.46
2070.79
-6298.16
-365.107
-12726.4
410.131
637.811
-524.16
1704.13
-1761.04
-1884.49
2218.59
1656.33
2174.64
-14.2455
795.806
-1722.52
2511.15
-924.236
1045.44
9565.75
146.898
1691.79
4693.94
1252.98
915.08
-311.231
-2823.83
-1842.49
2512.45
-4179.24
-2508.78
-689.373
2532.22
-6914.85
-1739.71
1317.08
6424.03
-1709.84
587.954
-2408.24
-4487.97
893.467
-1113.78
-5287.19
-2382.38
3139.59
2416.29
872.192
-1731.05
3811.09
-4158.35
-6794.01
2385.73
1229.25
10708.4
75.4915
650.752
1522.63
7032.84
-1597.78
-3376.66
-1225.53
3439.24
-1320.72
2036.69
-3807.64
197.475
-5276.94
-2434.12
6122.95
4441.65
-1392.01
12244.5
6403.26
-954.728
-2342.8
-5063.53
1502.18
1094.51
-354.988
146.58
2542.79
189.381
2997.57
786.435
-771.556
-7969.8
-4585.36
-8899.41
-540.327
2372.98
76.0471
-1376.11
-1628.53
-1570.65
-4880.9
7225.02
-3151.95
-101.914
-1290.9
-2245.64
3080.5
13368.4
-3300.87
-2746.45
2038.92
106.001
664.204
-1395.89
760.092
4898.7
-2837.67
-9405.59
-2950.02
1421.99
-2691.86
621.244
2332.05
-1801.19
546.634
-1635.4
719.564
-435.232
2621.59
-2115.95
4391.15
3050.74
6162.98
4608.41
807.518
-2828.44
1201.31
-772.155
4669.36
382.255
-1095.87
1206.5
12034.2
10865.4
4154.97
7320.02
4226.51
4420.62
3714.78
6279.48
3239.31
-214.205
795.622
-380.974
-645.434
-454.87
-589.569
1827.31
-4392.5
1070.39
4703.51
-818.691
7202.99
689.672
-5583.88
-932.614
-6105.33
-787.042
-13192.4
-4602.25
3678.94
-2421.05
-505.314
-196.699
4438.44
-634.888
-430.579
312.92
1306.26
-781.311
2126.63
-3201.91
-7526.33
3258.96
1762.85
1473.06
-233.295
1510.36
-809.673
1102.23
859.558
1231.44
-2762.72
5140.44
-2967.24
-5086.03
201.736
-3728.43
426.83
-4544.34
1758.15
2612.27
11114.7
20.9535
3820.35
11922.8
2315.85
3543.17
10569.7
-1051.83
9811.38
29921.7
6413
437.099
1033.32
4683.89
5558.86
3110.77
1163.65
6662.31
7864.58
4801.4
4981.7
119.631
2474.12
-889.433
-3281.57
3022.37
1286.49
1508.86
2422.12
-2512.7
-5460.73
-1893.01
-1250.35
-543.707
2379.05
1083.1
-2746.58
-5011.59
-2174.4
3875.83
-674.938
2714.07
1964.01
-438.482
1827.42
1475.94
-1343.15
-11965.6
-6656.66
9366.55
680.178
1263.85
6017.25
7698.85
8157.48
14358.4
-3490.35
-663.23
1718.47
-2792.51
3627.28
9481.96
2443.61
11224.5
3540.49
-5301.35
2998.14
4716.41
14936.6
25280.4
16807.7
10551.3
4370.15
6284.21
-1530.28
4608.17
-1936.06
1074.9
-4510.74
1418.81
-2446.31
6249.71
-157.35
-701.359
2474.76
-2940.56
-1293.7
1199.2
844.544
-725.346
2808.53
462.253
-1527.75
2017.08
2153.98
858.209
6570.69
3405.62
2577.01
2210.34
-3505.87
-3825.47
-8071.16
-4406.32
-306.926
-1014.63
-45.8991
3129.95
5053.43
5422.14
3266.09
5214.94
-3985.53
-942.771
-2995.97
-1671.86
2562.04
-92.8816
438.435
-2974.72
6268.01
-3512.37
2435.97
5894.01
3349.7
44.9823
1612.14
-2563.45
437.935
-35.2731
-172.814
-408.155
3781.86
5980.07
10450.9
654.75
2253.67
-3020.83
1988.84
7590.27
11165.4
9050.98
2968.4
-246.659
6331.44
3756.04
10465.5
6140.77
938.095
-3091.56
-1170.79
1668.8
1819.02
3817.44
-2275.95
589.281
-728.799
-2718.3
-7165.58
3969.41
2211.32
-202.911
1244.75
-552.134
-2662.08
-7829.51
-4356.45
-5888.22
-4331.79
229.073
4696.28
-25.1453
-2473.97
-4244.09
2332.06
-341.891
-191.644
4636.36
5804.46
2300.62
-1761.2
-623.924
-1426.73
-1781.44
-1486.89
4238.03
5147.44
277.003
188.978
-5667.26
-454.028
3340.94
6295.98
3461.56
-914.931
-2851.63
5950.7
-7877.26
-8082.47
-8911.57
-9857.9
1942.05
1296
2163.78
-595.495
-3433.88
2887.5
2317.25
-4097.59
-223.936
269.464
-7308.64
-2049.14
-891.791
-1172.29
17463.6
20098.2
597.516
-4690.19
-754.579
3518.06
6245.51
4138.94
-1250.79
994.576
1532.25
-113.463
-1816.04
3715.62
5942.98
61.9908
-6853.33
2674.22
480.352
-970.355
2408.9
5972.59
4874.55
7415.38
-1387.77
522.507
-1257.07
117.452
-4186.03
-1426.92
-4945.78
-12861.5
-16381.6
-7482.31
943.492
6479.32
2970.51
1242.89
-1702.47
-1513.49
-4360.07
3098.96
2482.75
3662.42
-704.69
-1452.61
-4001.19
-594.943
5455.83
4705.63
-13910.9
-1193.29
3321.87
-2203.3
7647.55
-2561.8
2975.76
4223.42
1701.3
1493.16
-5518.49
-1220.75
-666.1
257.881
585.748
5076.98
11318.7
13515.7
-275.054
8235.86
-4571.81
4355.37
-4128.47
72.0797
1713.99
-446
1246.86
-9528.25
-3143.92
585.309
-2232.04
286.802
-2821.05
3072.27
1009.25
1260.32
-4216.25
-2423.11
-6473.04
-2876.9
-9298.29
-3337.56
-3449.62
-1257.33
-1951.66
2376.39
-505.018
4535.34
-2497.59
2608.45
-935.186
211.013
1234.66
-11.8841
-789.388
2050.93
88.1796
11028.6
3069.51
-38.5128
-2934.71
-2119.14
-4093.81
-178.355
6838.47
4410.67
2859.56
1321.43
-1866.16
-216.904
2906.76
3667.56
-2746.75
-4574.76
-3845.04
1398.06
5973.56
11121.3
-9930.93
417.026
3171.43
-5416.84
12301.7
8847.78
1462.05
2322.8
-1411.57
6199.33
688.088
-7313.83
-12829.4
-6778.02
313.624
-2732.82
-431.373
-3777.73
-5723.31
-1166.23
-4360.23
-986.24
7205.14
2099.79
1797.08
-1019.93
-3421.65
-493.893
4865.32
-1243.23
3663.44
-860.073
-424.621
1083.29
4330.67
8861.51
13001.6
6112.19
3778.54
-1484.18
6268.37
2547.28
4643.13
3006.67
780.367
-11814
-3079.23
4556.13
-958.305
841.513
4688.13
5059.8
1466.57
3666.71
2223.33
-7536.64
-3127.82
439.978
-192.561
1966.06
-1093.97
-11809.3
1188.04
-3394.26
4092.13
2040.54
5175.33
1668.39
461.539
-2628.29
6045.04
-4246.46
12630.8
8145.71
760.7
17303
19175.9
20074.9
15601.2
9528.23
6785.64
-506.184
-439.366
-2155.96
-7077.92
1014.13
2997.27
5222.19
4919.39
-10298.4
2212.16
1031.63
-2457.73
-735.177
-1981.92
1734.38
9034.23
770.009
758.648
-807.161
1904.63
1290.44
-4544.99
-216.598
-3575.09
305.771
2.11436
-5285.59
-10230.2
-298.401
-578.641
201.613
2360.39
-2707.71
-2638.28
2002.09
856.096
71.8529
-303.318
2288.75
-5392.45
-81.406
8534.25
7052.09
-754.212
14138.9
27420.1
14243.5
1193.68
-812.132
160.132
-867.653
4419.38
2315.24
-3717.95
8073.63
234.874
5857.44
-4823.95
845.705
-3142.14
279.913
-3262.89
714.515
2525.4
-732.72
-2422.01
-1073.22
2310.34
7908.59
11368.3
-2326.17
-1831.88
-1037.28
-6812.88
-5300.91
-8109.34
-4090.78
-1708.58
3681.46
1598.16
1325.53
-1458.18
4587.41
1761.06
11096
-855.649
2796.05
-222.258
752.642
1837.01
6300.81
7661.1
-1021.52
-2005.9
874.728
2523.34
-2731.11
3930.05
10245.9
11975.1
171.573
-1820.08
18732.5
6065.87
10619.9
9651.45
-3227.69
-922.219
649.147
-226.163
-214.331
434.013
-3593.72
-1533.19
-7602.64
1527.3
2603.74
-1074.99
-2687.38
270.355
1226.83
654.746
13420.4
-1568.63
-2799.23
-1370.43
-1115.09
-2257.43
1468.95
2919.34
1290.24
-1060.6
-4982.72
-323.024
-2724.99
-1960.05
3066.29
3626.02
-343.26
11886.9
7224.95
7680.14
585.09
2255.73
6928.87
1717.42
314.684
-1615.64
-6236.14
-4595.22
-69.7195
-3075.23
-44.7736
-5892.79
1244.26
-5405.47
-1885.34
-667.379
-4099.05
4565.36
-1175.82
951.428
637.641
9574.89
-4442.91
326.105
501.299
-4239.65
-2833.17
3988.71
1567.15
-6790.18
2767.53
2364.35
-666.525
-214.208
-2545.52
-4746.63
-1062.96
-7220.59
-5371.05
-3940.98
1615.03
796.635
1850.62
-11683.3
-4151
2958.54
4361.81
-924.317
3201.63
-8642.55
5727.27
-563.921
-12.4549
5908.64
12146.8
3931.74
5086.3
1685.02
-679.201
-3986.68
-4202.72
-400.898
-3203
696.74
349.333
-811.763
-972.054
-272.313
-4498.07
-1097.56
-4830.58
-2559.02
634.31
1397.46
-915.217
-1425.21
-21.1363
8275.11
19065.8
1657.69
1845.25
951.118
38.7374
5532.52
5842.24
6364.18
1956.36
16372.9
2384.79
-2260.01
-691.438
5987.81
-559.118
-333.517
-8847.62
3629.95
11254.9
21018.1
4957.77
-972.651
-4300.04
-2505.25
-1952.14
-1296.71
-7363.93
-2416.72
-3738.7
9097.44
862.387
-2906.72
2428.25
-4891.7
676.664
-1073.93
-1583.25
4513.76
3279.8
-5.99184
-1851.68
1362.4
-3038.6
1777.28
9585.87
11372.6
-1765.17
-2860.22
-3753.77
-548.719
484.272
-2630.35
3581.64
-1208.91
-2208.52
1515.68
3707.75
580.894
-61.9498
-6908.25
-8841.49
-8017.2
-2942.19
2074.14
2774.67
-1613.92
-3291.35
-16778.5
-20942.3
-1430.41
-1520.71
-911.934
-1798.39
-2423.7
-5563.24
2002.07
-1130.98
-1027.24
-1579.68
1203.6
1827.81
-1058.83
-2919.53
-1116.38
1044.63
6383.09
2535.97
272.705
1285.09
1114.22
-1079.27
-1341.02
-12077
-3593.19
2151.89
869.067
7922
10574.1
4918.69
2298.35
139.108
-4922.27
487.595
-2431.58
-928.738
-6175.85
-3097.46
1410.15
-3670.75
2387.33
7302.94
1344.63
-3099.47
-256.082
7598.02
-3084.59
-362.222
-1549.27
-2980.49
-1892.9
3766.76
1773.04
2527.46
-8521.29
-604.045
-7027.56
-2632.04
1346.94
3022.94
-5958.43
-14367.7
2142.41
3154.86
729.794
-486.77
1440.04
-2738.02
791.418
11071.9
-314.325
-1835.63
-270.732
3236.02
-2797.94
-49.3948
2866.31
-857.827
-6798.08
-4293.2
3547.13
392.69
-3830.46
-4417.18
-195.214
-1343.05
-2949.66
-2010
2366.24
-1206.97
-1146.78
2485.47
441.238
1454.57
822.683
2056.12
-196.776
-922.189
-1869.43
-978.884
-4624.92
-11783.8
48.5816
966.793
1597.76
-532.324
119.937
569.224
-110.659
-2878.32
-2579.47
4322.4
5239.71
7805.36
-693.85
5142.4
7583.04
510.143
3612.01
-668.965
-592.977
667.228
3292.72
2960.45
3135.79
1791.76
-8284.11
-3486.28
-1344.12
-7902.92
-10424.6
-12378.2
-7994.25
180.193
-2564.24
7816.41
1143.64
3973.02
102.592
471.716
1330.17
-1550.53
2395.1
1723.32
-5443.05
-6708.03
-3799.68
1367.14
5025.23
6559
-478.846
-326.283
-1698.18
-2713.97
-4895.36
1076.41
1318.34
316.433
-819.032
-1618.73
3.14946
12103.2
12958.9
2843.14
-450.531
2734.61
3754.66
3016.04
2244.23
-124.639
-660.132
-1569.58
3250.26
7305.69
-1434.56
1481.9
4903.42
3645.95
3550.08
-843.605
10207
3716.47
2092.99
765.94
1453.59
-7663.56
-6376.13
-2627.88
-8072.24
250.551
213.961
5906.23
15898
4972.28
5541.56
1117.34
-3297.08
1846.77
10229.6
509.314
4040.64
-1492.99
-860.259
3650.21
-836.241
-2009.61
-12276
-5191.52
-2094.32
3656.49
1221.27
1435.28
4755.77
17397.9
5625.91
-1900.29
816.915
858.896
698.215
-552.075
-1952.8
-1066.62
266.13
-252.775
3434.28
2041.98
191.431
-4272.89
-1088.96
-2122.39
-4.81634
545.358
-3643.52
-415.793
-971.117
4718.81
2022.34
-2587.47
1065.35
3216.95
-2673.02
-1996.03
-4864.21
-165.028
-1418.59
200.022
-1957.77
-781.028
174.884
-1456.51
-1307.59
7652.01
3803.83
6627.86
1443.12
-1272.77
2019.02
2648.89
16980.4
31023.9
34107.8
7537.85
2484.4
-649.126
-2393.23
3014.42
-2101.12
-1193.89
-1957.67
867.357
-4655.04
-2708.23
965.389
12955.2
13882.1
7946.15
3679.24
-2050.62
-267.934
-1690.08
-4911.11
-5805.33
5624.86
8046.43
15116.5
7993.71
2621.82
-1869.63
182.877
6249.19
10573
15015.6
11455.3
12941
4381.12
17336.2
17803.3
15357.2
13775.4
12956
1580.52
8568.4
3857.23
-613.642
-4736.63
-9413.25
-14542.7
-4326.89
-2168.32
-2094.64
-4831.8
313.283
2837.56
-3372.07
-5485.43
7683.19
4175.76
6275.84
817.53
11705.4
-4712.67
8041.38
5759.49
559.432
-1037.68
14291.2
4241.83
474.513
-582.342
4177.27
4847.88
1444.21
-138.861
1409.01
-92.252
2095.56
-3538.46
-2116.43
-1774.64
-691.541
1666.03
5661.58
1968.18
-5201.16
-2979.68
-15.0265
4707.88
7101.82
-596.747
-96.0715
-227.554
1499.93
4468.97
2070.8
2209.89
3321.5
-462.638
-1411.3
1276.53
7679.36
5577.46
8904.47
-4613.6
-3173.07
-3952.61
-9622.4
-4313.15
-2556.9
-2521.41
-2997.72
38.1692
775.747
4471.38
2010.27
1164.97
-398.291
-4973.18
559.484
2288.61
-641.058
1346.53
3943.59
839.038
2299.39
-589.247
802.489
3693.41
-551.995
-2181.05
1685.07
627.924
396.637
-5428.09
594.588
58.3819
-1715.16
-1922.76
1063.96
-480.393
-5832.97
-2583.33
1230.19
5587.76
-5321.06
2090.09
3239.51
674.432
2183.21
3598.33
1930.42
-6078.78
-765.393
-1174.46
-226.365
9337.68
19037.3
8493.23
1623.97
-2095.15
1674.76
-702.632
-1034.05
-165.531
-4242.49
-2147.91
2323.29
-5760.76
-4357.48
-341.611
1522.04
-10197.4
-6495.18
-3956.65
-3273.71
5714.83
9696.34
4905.49
1627.54
3076.64
-5026.74
-2851.4
1559.66
4255.04
-1500.48
3814.37
-4113.81
352.227
-2003.52
3089.42
-4461.75
-1542.73
-784.253
85.737
1940.5
-140.159
-684.564
3652.11
-4599.44
7579.55
10427.4
6546.32
7149.41
3638.62
6908.18
5411.84
2445.14
-2908.99
-832.769
-2476.4
231.487
-3229.53
-53.5831
-1245.17
-151.841
-2168.77
-17650.5
-14091.1
-5480.02
-5717.26
193.411
-2391.71
-235.74
-8850.44
-2340.22
-3108.81
-1865.64
-2891.2
-1984.87
-1343.72
6241.81
3521.78
-3190.97
831.44
-4216.77
-9119.53
-5163.85
-3376.42
-4267.3
-3103.45
552.926
-4305.72
2110.93
2120.09
2526.76
-3342.54
-1853.2
1420.56
5858.66
8.71017
-739.394
-1364.71
-3820.99
2295.49
2281.83
-1566.64
-1006.12
-1759.36
-3479.63
-6402.84
-7682.35
71.3329
1127.85
-5179.75
-2738.07
-2557.06
-1289.4
95.2649
1512.86
1426.93
-107.268
-5031.56
-5322.8
-5000.46
-3689.69
-178.161
-4203.39
-4541.88
-9035.34
-5297.39
-119.872
3139.17
5830.29
-263.962
1333.45
30.0891
-73.0639
1576.11
9084.59
7656.73
-8682.32
-5451.23
-7157.67
91.0219
1069.95
-1728.57
-1629.7
-5725.33
-1127.99
1729.37
-2346.61
-2829.24
3648.53
1172.53
840.802
-124.332
1000.28
4140.73
-3150.61
-7813.58
17891.5
2219.84
6415.41
7097.31
14345.4
3837.4
5541.92
4871.14
1030.95
894.775
-1208.89
822.473
-2235.81
-2274.37
-976.359
-276.032
-3524.59
-3034.55
264.939
502.738
4006.31
2015.7
2405.44
1692.81
-3610.2
-3316.86
-99.5295
-2708.35
-1126.57
-1168.73
-4582.35
616.575
-775.945
1115
12.1543
4185.36
6577.13
-1222.72
1403.95
-3638.93
7855
-418.512
11371.4
4666.88
1871.48
3167.58
-1277.47
-1628.71
596.814
-1126.66
-691.559
371.15
-302.216
2224.4
-1936.45
388.217
4267.58
-4875.75
3516.07
2071.27
-2040.85
-1203.91
2839.25
1297.62
7519.71
-1180.83
-471.854
40.6493
-5448.2
502.583
1805.52
-818.837
6202.21
7301.25
2373.06
6396.06
1210.92
-568.529
2677.56
1262.03
-385.559
134.482
166.312
-4541.68
20950.3
8013.98
3514.62
9635.27
14884.4
3345.22
2472.15
1472.79
10635.1
12082.7
23159.9
29152.9
11267.6
15685.8
12675.5
6092.89
1026.63
-1583.59
-2471.18
-4956.88
-1415.74
2109.54
4229.29
2532.96
-1398.28
-1540.48
-1378
-2455.04
-1227.17
102.865
1120.81
716.837
1132.9
2537.01
-3598.61
-980.5
-959.91
3565.25
-4737.57
-1944.41
2667.81
4500.95
7453.47
1647
-2274.03
-2030.95
-6133.31
-3923.54
-5701.02
-4509.64
5617.8
-3605.8
-9386.71
-6378.05
3972.8
-2329.02
-819.788
-1875.57
3593.94
5523.67
992.742
57.4194
-10698.9
-7979.67
456.314
5778.43
9016.17
6519.48
3367.23
-443.876
-1508.54
-980.244
-3277.51
2330.32
-411.868
13738.6
14597
5429.05
12814.4
1273.07
9639.1
3204.46
717.998
-563.83
8959.42
456.666
-2868.96
2359.79
6868.56
6387.2
4298.04
-1486.35
-3397.56
3095.3
4150.7
2539.84
-3931.45
2716.28
-4159.53
-5059.35
-522.83
-2103.31
3200
357.826
600.133
-1423.43
-52.2547
67.0484
12.0677
-2572.15
-5320.51
-1673.22
-7466.92
-2477.13
-3392.8
854.143
-246.277
-1148.21
-8150.02
1660.29
-748.368
772.733
1389.59
2061.02
4062.22
6413.12
7143.09
12095.1
5081.02
457.842
-2824.28
-1134.2
2341.8
2219.27
1334.07
1144.92
-3470.18
-2402.68
-5410.28
1318.34
3213.48
-994.959
970.936
2282.77
10899.7
1335.72
-5130.93
-2330.91
2040.97
2184.79
3582.83
244.221
-1164.21
-1362.01
5211.27
5971.1
5185.17
-538.83
-4117.53
2755.85
3053.5
-1726.7
1527.66
7433.13
2169.99
2581.62
7248.86
4466.91
-3547.34
-1731.24
-1059.54
682.175
10955.6
-2951.52
-1596.3
-1667.54
-674.371
-2700.35
12.2302
1863.15
11906.1
1002.68
5119.01
1385.09
-13224.5
-3150.81
2143.73
12079.4
10400
4307.12
1775.47
-3831.92
1331.91
3720.27
1414.12
816.928
574.082
5184.01
4758.51
-730.184
6967.41
5248.53
20313.6
23453.8
20710
8244.26
5131.3
5244.1
857.594
-550.959
-5613.85
2190.41
-2849.38
2353.79
-3568.88
715.828
431.378
1246.42
3547.35
-2283.04
299.01
5353.29
-4015.11
1174.86
-3836.02
-2137.31
-2590.4
873.941
2850.52
-1939.58
5289.43
11974.4
6083.54
11844.4
14176.5
8130.86
12434.5
17510
1696.84
5447.85
376.577
-4651.03
-11.4123
1049.39
386.634
-1136.44
-84.9718
313.24
-658.6
-2890.77
-6890.93
3919.56
1877.73
-211.473
1143.48
-1963.55
-3183.11
-284.399
5798.59
3805.05
-1247.17
-950.11
-650.489
1181.19
-417.125
-1163.12
-7141.47
-1390.47
3347.78
11012.5
7452.46
9564.69
9611.16
7107
17648
11765.7
13642.7
5999.1
-1518.13
-1651.45
-3138.95
-3015.44
-1805.91
3.94595
5729.21
-1653.33
-762.211
134.082
939.602
-2519.12
-1211.37
3283.79
-206.098
10061.9
5912.98
1875.62
2833.71
-147.002
2655.52
-709.618
2676.82
2143.01
8499.11
7255.76
10288.3
8194.06
6399.46
6191.94
-986.399
8625.17
6657.92
3697.45
-2477.63
2507.94
-12054
-10245.4
-10535
-4746.72
-3268.07
-342.063
1229.28
-1564.98
-2293.62
-2254.06
-2792.36
-7771.5
-8280.63
1139.75
-191.691
3856.98
4566.69
-5132.59
-652.254
-978.054
-7282.3
-110.851
3983.77
2124.24
-6577.41
-5742.39
-2861.8
2150.62
-1441.66
-2715.57
-416.066
7525.15
4567.79
-1867.8
-2060.09
-2113.34
-1693.65
-1196.5
-215.828
1223.68
865.406
-716.023
516.956
4012.57
395.106
1849.75
-106.052
-5242.67
-5065.84
-7796.74
-1578.78
-3756.56
-7303.95
-1483.87
1365.39
314.539
-3405.39
2146.29
-5022.98
200.931
-5384.84
-2153.07
-987.68
-495.23
-3472.17
-2289.32
2896.07
-8587.29
-5781.68
723.712
594.63
70.9701
-1199.15
1717.56
1130.06
-641.978
-1493.6
3674.82
6875.34
4841.09
9932.52
9904.73
6115.66
2461.25
-1416.74
-162.438
-555.098
-2256.76
1787.45
5947.53
2392.49
-4888.19
7605.63
20605.5
8005.95
1420.18
2265.08
6190.12
-5727.14
-6905.24
1217.74
1381.36
1425.46
3201.61
5030.02
664.109
418.189
-10663.5
-8026.16
-7182.36
-8448.12
-7155.99
-6512.28
-896.894
-4060.74
1184.28
361.641
2294.69
903.494
3259.3
504.565
-104.394
-14.1553
-817.275
337.579
-2688.8
-3868.4
-2756
-6853.65
-523.503
-122.719
651.589
3496.25
2706.18
-1523.67
665.764
1376.87
2247.14
-1869.21
2536.95
1542.08
12813.6
8112.02
5198.22
4233.37
-447.609
-1673.74
-5039.09
86.6705
-8942.43
-3411.73
-1011.66
-8046.53
-3459.78
758.791
10054.7
10873
25110.2
43307.9
20598.2
8981.35
7538.21
-1130.85
4868.52
1714.8
-3404.65
2816.04
1414.06
-1349.82
-1063.46
-2925.91
39.553
-4402.27
-1088.29
414.198
2112.87
2040.1
5920.47
2195.13
7311.01
4336.92
3106.75
103.272
3234.46
3616.88
1049.89
4993.84
5904.59
2132.05
-200.904
-2056.04
2657.78
3408.84
-126.494
7233.54
1829.85
1307.59
-65.8894
5834.29
8071.83
4144.53
-760.219
1891.98
-587.138
14452.9
6819.06
2318.34
6806.04
7681.14
14175.2
7344.91
12267.1
4781.61
823.647
3867.85
2305.91
409.561
-2981.42
-1933.35
-5873.6
-10348
-887.14
-3076.18
-3745.52
-984.849
-905.259
-1477.62
-6283.78
-2363.76
-1536.68
-1878.64
1728.57
5620.92
3585.39
3119.6
-2455.7
-4910.37
-2716.32
1206.51
-94.98
-9197.21
-8931.11
-10656.4
-131.663
-7356.7
-1482.04
-2798.85
-2367.78
-3281.5
7678.03
8965.14
-2946.27
-14118.2
-12091.7
106.814
439.031
-1310.68
-484.028
5415.38
-8960.59
-7468.02
1310.97
-57.9689
3951.86
2591.15
-2569.5
2647.05
3317.68
842.922
3346.73
15231.9
11591.1
1622.08
-8682.72
3441.05
313.594
-4342.18
-3365.24
-2991.31
-2801.67
7118.58
-895.803
-325.186
-3813.52
429.417
12871.4
13309.9
15554.2
9907.19
3307.81
7605.08
-4948.59
-5879.01
-1121.06
6376.26
4848.94
3076.52
5460.13
14557.5
4690.42
10244.8
7340.38
13656.7
308.356
-2698.39
697.53
2992.26
481.423
13.9636
-6542.14
1369.86
-196.305
5772.68
2380.67
434.348
1389.37
-6234.12
-11314.3
-788.693
-1811
-5641.58
-432.001
2036.29
-1614.98
-479.348
-538.889
-3346.32
319.431
2266.67
5785.92
1164.92
3756.86
4097.75
1459.49
939.231
663.092
-171.711
809.698
-6268.95
-2051.27
-73.8865
4164.43
-2425.95
-1231.97
3048.63
-1611.25
-5989.37
-10890.3
-10095.8
-8453.27
-4355.25
-2006.76
1708.15
10056.6
9697.69
-4937.71
-1778.99
1132.14
-434.746
10057.2
8556.27
-1951.62
3520.84
-1699.32
50.2539
17302
7645.65
1099.78
1142.1
-873.899
-4808.04
-1671.64
2215.88
-575.973
1171.8
-3064.24
536.168
-773.007
740.237
1734.47
822.571
-6325.4
-6294.2
-7284.84
-900.578
-2249.79
-2383.88
-1588.23
3025.43
-6358.3
1384.5
3294.45
-333.894
1143.62
1478.13
4217.64
-2814.06
-1594.2
-5215.91
418.308
754.836
4099.88
2802.71
1590.83
2458.52
5857.24
1071.46
4364.66
-5172.77
-974.751
-4744.3
-6054.89
-364.668
-1562.43
-6331.82
390.063
4800.32
8098.52
1634.88
-37.3832
1074.47
-1281.7
1682.27
-1520.76
2037.12
2698.87
1248.57
1520.11
-3716.23
4243.2
528.689
-1108.32
-326.97
-736.787
1541.79
2422.93
13496.4
1089.81
-638.812
-4773.51
-4795.56
4518.49
-447.381
-1230.24
-224.519
-898.906
-1167.61
-11010.1
51.7447
678.911
-1593.06
-1570.85
-2308.22
1966.65
-1275.69
707.71
-2663.11
10717.7
-2109.1
19758.3
35516.3
16278.8
-32.9157
953.429
-6075.78
1690.97
6895.53
8173.73
2630.36
2985.81
4003.91
6084.07
5501.41
-813.864
38.468
2594.02
4711.84
8333.56
-74.743
-4048.28
1264.54
1626.09
-1501.79
687.871
2378.43
937.384
5751.54
3412.98
1165.77
2945.4
2497.59
-7242.75
3359.21
-5051.37
3555.02
-4089.09
-1151.05
695.145
-1134.96
613.047
-562.752
1710.56
247.189
6412.4
8257.67
-391.688
1771.17
142.859
431.565
-93.7032
3621.42
1558.49
-2288.1
4196.76
-878.177
557.616
1750.69
2877.92
1425.97
-2962.03
-5211.09
-3066.77
-5687.19
-5836.59
-5684.01
2464.06
2086.02
2093.59
-4127.49
-602.918
-4549.24
-1282.52
-1895.79
274.058
-159.417
566.757
-2554.63
-4137.11
1599.84
-4430.79
-3545.04
1115.81
-2106.44
-1644.86
3283.91
-2298.18
-3204.46
-456.454
-10126.1
-12493.6
-3671.55
-5077.67
-630.645
-3945.16
-2488.62
1837.74
1825.75
5325.28
5049.28
461.678
-485.893
4722.94
3169.6
8153.88
11849.5
10875.8
10183.1
10249.9
2989.77
3027.51
-821.82
943.161
1034.79
-299.522
-754.374
-3755.26
1427.69
4307.38
-539.185
-4268.17
2539.27
-526.483
2003.25
4003.92
-257.544
-1242.28
-5904.55
-1616.62
-911.928
1569.59
51.3658
-4647.17
-2342.94
-9740.97
1930.26
4467.12
7768.49
1973.05
2947.89
4077.51
603.194
-0.774763
-2235.47
-8200.12
-14573.5
-4720
4708.46
3613.96
-1485.24
-2024.38
-776.71
311.913
-1484.23
1266.25
1291.94
-5044.99
-2011.99
-9553.64
-4709.63
-5020.21
1384.97
-79.6555
-1934.36
-2102.16
2129.71
-770.603
2190.23
1151.2
5058.48
10290.9
5485.37
3816.43
6244.25
919.993
-5391.93
3245.65
9399.35
1663.64
-3654.42
3173.75
-4835.17
-138.663
-3125.48
-3770.11
-9193.18
617.846
-4328.72
-649.332
-279.798
9500.28
17987.5
35898.7
18798.3
5868.83
6867.46
13263.5
9490.56
10305.2
-7456.24
2419.81
10430.8
2818.93
1431.73
2468
-3911.34
391.281
1471.98
8493.17
9599.94
10503.9
7443.1
-586.94
-9370.31
-6373.59
9211.1
7663.81
5839.48
3353.89
-1568.35
1262.69
-994.355
2754.72
4131.28
-3780.15
-2937.4
7332.81
3535.34
572.163
-337.177
-1478.64
2293.15
2058.3
9657.55
5075.45
-2246.84
-912.391
3780.3
14162.8
4902.23
17193.9
2003.54
1371.07
2653.62
2333.55
2081.19
2109.55
-247.713
-3542.98
-1611.16
-471.736
10.8945
-4410.63
546.833
1472.64
558.721
684.618
-4735.07
176.323
-13179.5
-313.74
-2583.96
-674.584
2574.53
-1882.22
-1930.96
-1487.21
-3028.39
2068.34
3020.48
4686.68
3412.77
8896.55
259.588
-3927.92
-1610.25
-7858.37
-6454.58
909.504
-2444.8
-5939.06
160.442
2848.53
-2938.33
-231.934
961.863
-5922.9
-6073.15
-7239.76
3077.22
3430.34
-173.086
447.738
1312.78
-3676.85
1653.11
-1241.63
-77.1147
2679.24
51.5176
-302.112
-2682.61
-3683.76
-3056.3
-3866.97
-902.434
-2342.74
6008.13
5550.06
6810.97
23352.6
8614.08
421.325
891.937
3573.71
6487.54
8627.42
2191.38
-3649.54
4685.84
1946.85
-578.11
-4929.78
-1900.08
-8493.11
-5122.83
-3290.26
-5142.22
-2883.77
-5957.02
1706.98
2860.68
1334.85
999.297
436.082
1246.13
-6874.63
-764.781
2638.14
-7743.38
2912.9
4603.12
-8150.89
2903.06
-5286.54
371.729
339.492
-1421.39
2505.85
1033.2
6703.03
8997.48
3977.83
434.124
1867.58
-390.881
1947.91
960.567
-7406.77
-7872.3
-10574.4
-3544.36
-16569.5
-8646.34
-4371.09
-902.776
2856.3
-2047.46
-9452.67
-3134.69
-578.169
1997.11
237.949
683.113
-1160.64
690.241
531.276
-1268.81
2428.17
1687.75
-8226.74
-8288.78
-3803.55
-698.41
-2000.52
883.973
1436.96
-3284.96
2254.51
-2794.22
-3111.91
878.825
2734.49
9389.16
2229.09
-870.451
-6721.35
3205.71
6634.68
4472.39
638.486
359.817
8835.9
-191.888
797.892
-2540.49
-3947.31
-384.79
-5560.27
-2019.19
-8544.09
-744.276
-12078.8
-9681.57
-7126.7
-2326.37
-2069.68
1409.18
1021.03
3291.99
830.2
80.8496
3771.18
-40.8764
-1922.55
1600.06
3476.81
4308.02
5361.55
3636.1
15206.8
7260.57
-2104.63
-5591.63
2788.18
-1267.91
-2419.57
220.193
194.467
-7832.29
2709.09
7870.94
-388.16
3772.01
6729.82
1956.2
6498.71
-246.18
1493.5
466.087
-3672.95
1233.1
4556.67
3431.29
1938.9
-4360.96
183.973
7291.26
10358.4
6717.57
7252.7
13245.7
128.014
5971.34
2047.98
-740.397
4811.05
2262.93
-44.0416
-1212.1
-8546.82
-7023.57
6231.38
2034.72
-5389
-6169.96
3667.58
1349.77
980.763
5666.6
106.935
1485.12
1399
5090.24
5217.64
-10207.4
5852.19
-3649.88
2613.37
-966.281
576.673
2426.33
471.468
1763.33
3539.86
-2307.06
5439.55
-1154.78
572.527
42.5244
710.23
-390.559
-1954.65
-1021.51
992.114
1709.57
1318.72
1925.63
53.9534
-874.603
384.028
-6414.46
-2068.29
1401.64
-6747.25
256.893
3432.6
13598.6
-657.968
4798.48
1383.1
6409.35
-1261.91
-2152.55
-2364.85
-2931.78
1173.66
721.632
852.028
-7486.36
-1421.67
-1834.87
-1499.87
4650.24
4178.28
9398.61
-3326.84
5339.53
-2735.41
6517.2
2063.58
86.4597
-1941.32
11122.7
7167.31
10119.2
3380.99
20919.9
14952.1
19346.6
10181.2
397.807
-7460.69
-2129.47
-3325
2799.11
-3131.6
-1561.59
-2045.54
3224.12
1661.49
3800.75
5965.07
6264.71
1809.36
2427.68
358.608
-614.799
-5375.8
-1603.97
-635.442
1302.92
592.002
-686.357
-3596.92
-4655.33
-2341.69
-4146.32
-6705.03
-1837.28
-6216.41
-4234.55
-4786.91
-8888.96
42.3568
163.152
39.9251
-724.037
1043.1
-310.88
972.294
-1451.53
-1132.39
4271.75
-3626.67
-5609.87
5249.17
-2528.64
-2968.86
753.68
4790.93
715.259
-441.654
-6186.41
6140.12
11363.9
15437.1
9073.15
2424.64
635.445
-4499.2
-12879.5
2649.99
-1296
2937.16
2455.68
-3494.49
2228.5
-85.1346
110.125
532.903
1829.53
-5548.52
-4736.69
-5326.57
-4021.29
4981.2
-679.663
-3877.81
5185.54
1533.34
802.03
-2296.83
4472.74
-1665.51
1444.62
373.262
-1837.43
-1790.45
-624.846
961.894
-941.132
858.246
-996.242
1286.76
-1715.04
8789.83
-535.018
-3765.26
-5059.32
-4926.69
-4037.08
-2267.84
-725.975
-3071.66
1263.81
-1982.41
-7989.05
-425.996
1990.31
11010.6
3803.8
-1086.92
-1476.07
2320.01
-6275.71
-9849.64
-4015.6
3163.19
-4025.75
-45.0981
-5134.36
5002.39
-2309.61
-1187.87
1266.59
716.881
2060.6
-8988.45
-4279.04
-324.516
-3117.31
-2771.83
-152.879
-666.433
9747.95
8670.9
-3566.8
-2412.92
-1708.74
1364.02
-1046.75
-2101.67
-227.105
-47.7728
-5593.86
-2741.92
-4630.59
-1639.21
-2884.7
-2798.99
1538.42
2841.96
1628.43
-1221.96
-1148.04
4477.53
2108.59
13407.6
19360.9
17609.1
11102
4957.95
497.573
8174.66
425.264
-234.415
-340.703
-4.40804
5543.96
8052.36
921.021
-3971.44
-2907.26
-10488.9
-78.8323
-3820.29
1649.81
-9401.29
-6920.18
-6130.17
8341.9
13190.8
4907.44
422.332
-39.6801
17561.4
18136.4
10399.1
17962.8
-3134.79
4445.61
7048.5
1352.87
759.221
-1585.41
1531.2
1999.58
4237.34
1472.77
5531.96
9470.57
11381
3392.83
6184.32
966.282
3713.58
-782.125
1522.88
4868.07
-5577.16
-5025.09
-1885.25
-8090.47
-3216.24
-37.6822
795.322
3828.31
3561.94
-5059.87
-2691.71
-828.351
107.53
1460.04
10503.7
6727.28
2339.05
6578.85
5808.31
4423.22
6582.03
-9997.66
-11103.8
-7581.37
274.255
219.475
-2717.17
-7515.22
-789.398
2155.53
1369.77
-409.992
1537.25
8245.81
12927.7
8389.15
679.39
147.545
8051.6
-5548.14
3505.95
6654.02
-1331.21
4011.21
803.823
2147.2
-3663.46
-3609.35
-13463.8
-3217.25
-6111.55
-725.418
-60.1254
971.218
-3176.34
-1411.76
755.396
-2101.51
-211.507
4604.18
-415.435
5507.03
-341.727
-9.04635
6308.46
32899.9
17154.4
26553.7
13285.6
9458.3
-8444.9
-11364.6
-9013.39
-8196.64
-10952.3
-956.266
-2371.44
345.645
-548.872
1481.3
7965.73
-5001.24
-4876.27
-78.4626
1990.27
523.477
-256.225
-754.002
3722.45
5597.68
1052.19
7830.32
9531.65
7192.42
10156.8
12985.4
18266.2
3570.9
11999.7
17932.4
2640.3
10154.3
10075
3546.21
10679.9
8947.04
7639.96
9507.53
-2421.55
-1833.55
2599.47
-3873.38
-3530.32
3364.8
468.621
3904.49
3111.99
2363.89
2167.13
2739.71
392.389
45.9145
545.9
-2391.62
-3096.71
-597.571
3025.01
-3514.7
-2531.46
-2421.77
2871.29
-1827.31
-679.105
-1674.46
-1738.32
-272.812
-3334.93
5588.36
-133.422
-1353.97
-3253.77
-2230.96
-4605.07
8625.73
3601.45
-372.103
2602.5
2996.05
-3429.77
2374.57
2670.98
1555.89
-349.495
-194.02
5080.19
-500.695
-210.32
1027.22
-1350.07
3173.14
3215.17
213.196
1985.3
2393.69
-2766.44
3555.37
119.757
8558.72
9020.68
15558.5
6798.12
-267.078
-444.511
-2374.95
3745.62
-5246.04
14550.2
14919.6
8266.81
13865.1
10892
2525.83
3676.8
1675.52
1264.07
4041.02
726.653
-2466.08
-14314
-5002.16
-1813.24
-1599.72
-7031.98
-734.227
54.9551
-4380.97
600.888
632.939
59.7533
697.048
-4468.44
-7697.36
6085.7
5269.45
1618.34
2303.99
10010.7
2227.6
-5006.64
-1952.12
4941.72
8.84308
3046.89
19316.6
-544.924
9344.01
7029.73
6586.48
2753.59
9410.8
-386.832
5953.89
-1720
5828.65
371.117
-567.109
-835.955
675.939
6925.65
6575.46
11303.3
9098.19
9395.55
2069.74
47.7233
-3108.85
-3854.5
-2668.81
-298.356
-2913.66
-6805.55
-82.2594
-8217.54
-4505.79
-5057.27
-1896.7
-9749.37
-2400.67
-2641.11
2943.85
2781.83
-647.812
-2617.76
1027.38
-160.059
-1944.56
-2740.14
-560.177
3908.61
922.005
3274.85
-17320.9
-5498.13
-7410.4
-10392.1
-527.195
1204.37
3930.15
5527.28
2427.78
950.544
5015.07
1259.02
-2468.02
-2332
-1369.69
-2484.24
229.546
3659.96
-6186.32
310.781
4545.49
2786.12
1050.87
2922.68
-605.028
2767.3
2413.14
19144
12719.2
9405.91
8106.04
10527.3
12883.6
6988.2
5866.45
1658.66
276.648
5445.51
6180.88
-2409.58
1120.01
1201.42
-6461.92
785.034
12318.9
9449.77
9905.1
-2546.91
-299.863
8245.71
6891.68
6164.26
12711
502.704
6017.09
7896.75
8957.7
6159.42
3908.31
758.88
1477.45
-1990.39
1556.34
2595.66
-4144.61
-1449.95
362.486
4135.7
2090.4
-2346.72
-2965.2
918.831
-2945.49
967.645
-9019.78
-1858.06
-4598.47
2433.44
16651.9
-266.865
-262.176
1243.4
-1195.32
1564.98
-1998.61
1949.51
1079.87
-2375.73
-3695.25
-3513.93
-2018.58
3415.81
-451.018
3131.05
3750.71
-1655.95
-518.289
-310.642
-3133.12
794.829
3380.2
5685.33
6244.61
2888.21
-716.008
4096.28
5651.59
1149.69
-463.126
-1041.2
3956.44
6370.44
427.859
-2445.91
-2193.72
4002.68
447.467
-373.662
-1345.57
-6441.51
523.574
-1549.88
113.782
-1497.75
-4519.32
-2080.66
-15.9353
-5572.31
-5266.88
-5328.4
2489.11
-71.7688
-323.781
-1122.22
-5240.35
337.018
-4908.2
8496.61
2042.25
-8844.32
-677.827
-7824.89
-8846.05
-1049.38
87.0096
-2514.85
-3945.01
-9797.72
-674.038
-2117.77
5992.61
-301.296
398.759
-4469.12
-5132.52
2051.52
-431.189
3010.4
-3144.78
1664.17
9201.37
3791.28
1649.24
-5747.96
2403.82
607.311
-2745.74
-3131.68
-4591.24
294.493
2572.55
377.676
-1537.54
255.452
-6990.78
324.409
-119.189
-7167.11
-3013.56
-4662.33
-11820.2
-2175.46
-1927.86
-4714.53
1220.36
4502.67
7832.77
5635.24
1661.49
-2886.02
1552.63
-1451.42
611.602
4740.56
-843.314
-2812.83
2180.21
952.613
3707.23
5201.51
2211.22
-341.341
519.924
4561.95
-95.7283
10873.3
6012.32
3216.64
2646.24
1742.58
962.557
4263.79
548.638
2144.09
-2682.43
-4479.3
-1394.43
-5724.28
-4839.13
-1872.04
1916.32
419.982
4807.03
5965.02
-8223.33
-1972.38
-2548.63
-6340.05
-2256.54
1025.02
510.633
-3035.71
7269.5
4988.38
14193.1
7592.02
-930.614
1120.12
-2902.62
-820.64
-2714.02
-9387.43
-9055.81
-165.211
3121.85
4300.75
-2681.34
-4415.05
400.466
1125.17
-1868.87
2988.14
-216.027
6586.14
8062.66
1770.24
-990.293
1368.42
-2753.86
1144.23
235.825
408.435
-1044.26
-3519.43
-563.412
-4072.39
-11615.4
-12587.2
-5343.71
928.412
-686.201
-2852.43
-2261.63
-1752.57
-3924.64
-1555.9
-1268.31
-933.175
1235.83
-873.347
-2420.28
-4465.07
-4946.92
-8563.68
-3906.37
31.2352
4047.82
5690.12
-2191.21
-3908.13
1818.93
2276.33
-343.604
-704.276
-1055.67
-2947.43
-1222.32
-611.583
5247.96
6819.75
1833.77
-6743.37
-1977.43
-5297.23
-160.537
-397.756
4441.56
-176.734
6609.37
10836.8
6388.47
3993.45
305.891
14902.8
14782.3
11755.3
6841.01
-2630.01
-3691.37
2555.91
1137.1
-5836.29
-5272.55
-10074.6
-4469.95
-569.517
-912.891
791.718
-402.536
-1959.4
-1188.9
18555.3
5405.62
-2270.42
-1346.41
2895.69
17422.2
12634.3
3020.53
4112.38
-53.5368
-4166.97
4907.34
1274.47
-2732.91
2377.64
685.313
2345.36
-1650.86
-595.422
8395.21
-497.987
-1972.2
-1448.61
-996.959
14514.6
10804.9
2350.68
6619.09
3436.66
2001.65
3425.94
-881.111
3116.03
-1252.88
-1025.3
5943.56
-316.831
-574.863
1505.93
-2298.17
-794.508
6497.77
-4459.69
-2288.82
1166.24
-4810.85
-5061.18
-985.618
-7831.2
-5204.16
2194.67
1599.54
-509.156
-170.923
-57.1292
-3892.49
-239.92
-2213.83
1729.49
1837.83
-605.738
524.189
-620.737
3924.43
1594.96
2459.77
-4585.58
1917.59
1542.92
-3380.13
-239.534
-504.715
-2346.27
-1543.62
322.288
-1944.68
-5285.56
7175.61
3829.75
-4.70392
-3563.12
4352.98
1648.05
4953.58
222.849
-2369.97
-5078.98
-5269.61
-4044.02
-2481.96
2410.28
-638.636
812.145
-2430.88
5050.29
3182
2195.03
-522.966
-2994.85
403.17
36.952
-2552.14
-9132.95
-486.287
3729.16
4734.07
7537.46
4604.05
-10.0539
1659.26
-5863.14
-5740.69
3791.01
-1726.92
3613.03
-6338.91
-2457.74
-7643.46
-1435.24
3418.77
-1270.98
3768.13
4764.74
-6770.13
-1244.58
-673.97
-7706.09
-6681.75
3655.54
6124.92
3843.23
-2213.79
-9684.7
-681.812
984.085
-779.862
7050.81
8335.79
1636.82
5835.11
-3302.21
690.947
-4306.52
623.949
1914.18
2584.25
16384.7
16826
-5983.51
3106.71
-829.221
125.798
11724.9
7807.86
6960.42
-4108.84
4232.15
-1421.46
-7108.76
-5769.56
-1526.83
-1682.87
2954.65
-6850.65
-5462
-476.793
-1046.39
430.535
396.605
2805.89
5918.24
384.892
-357.967
1347.26
-5125.5
9811.24
4894.99
4543.91
-2006.77
3825.64
1088.93
1470.83
1407
-215.006
2378.31
269.666
3540.79
6801.99
8977.36
11563.1
-2761.42
-4302.28
-11583.9
-1169.74
-17465.5
-2719.65
3885.87
-3312.62
-7013.61
-13010.8
-2567.43
4412.78
-1633.39
-3172.2
-2270.23
-5762.27
-2253.47
-970.678
-1396.66
-6465.05
87.1585
26.8655
45.9315
1875.83
994.627
3440.84
2349.13
2628.93
809.348
-1579.78
-2779
1249.26
1944.63
-1476.46
-1318.39
807.548
3972.5
-5465.44
1253.72
7652.6
4613.05
2212.75
11285.6
-941.519
2053.38
-2071.88
-3440.5
1078.02
-2625.23
377.309
-1382.34
-2235.82
11591.6
23923.1
4908.91
13653
-1733.78
-929.697
902.152
-817.63
2348.74
12901.5
4477.94
-11148.1
-2602.09
-4527.37
-1143.39
211.223
5288.45
3336.82
4609.42
-510.219
-4628.55
3917.09
1358.22
-3345.39
-1360.86
-459.999
6585.06
4224
746.019
1826.81
-2054.62
-231.293
16.1282
-10869.1
-4870.75
6498.26
-58.4792
-3495.67
1663.44
4585.2
9046.25
6668.96
11478.8
7727.96
11096.9
3620
12825.3
12749
5763.39
-1088.52
8631.71
626.819
-6648.98
-5373.74
-3341.29
-169.512
4284.53
-1574.32
212.279
-4331.63
1831.05
6681.25
5284.42
6093.5
3755.72
4391.95
3004.18
1252.77
-1254.07
-11.7659
3364.77
3588.66
1521.31
-1827.06
-2225.21
-9235.38
-1287.31
-3234.86
-523.026
156.51
1823.76
1649.57
-1983.03
2430.76
-3373.09
-4152.7
-3916.41
-5586.27
-3131.65
-1229.59
259.849
674.279
-3191.94
2357.51
5029.06
3014.06
512.468
-2158.15
-971.616
-111.534
-1066.33
-1838.25
3233.45
3768.13
-164.154
4966.65
1071.85
209.904
2434.04
9483.87
1052.08
-3125.56
4863.53
8971.87
512.372
-11823.1
-5969.96
-3172.55
-1552.74
-2423.89
-1771.89
-2495.27
4999.07
19.6838
-2216.29
-1391.1
3794.85
163.293
-226.896
-3144.46
1741.09
-4417.82
-6247.58
-1030.22
2159.87
-840.039
2810.8
2263.64
4566.87
-722.682
2030.42
2903.71
-1479.84
-70.8624
4311.79
-592.619
-2466.38
-4290.94
1219.66
-2017.11
5022.41
12473.6
4771.15
412.288
5091.43
2637.74
-3819.67
3884.02
7170.71
20894.9
6944.4
922.706
5021.49
3988.73
2293.93
832.773
7726.53
8595.08
2732.73
1986.98
5858.42
2518.46
-1035.33
1660.25
2880.26
973.569
7392.5
626.342
-4353.22
1612.02
433.381
-4150.73
-819.882
1761.21
515.016
-2397.79
651.96
-1220.21
23.0029
2019.07
762.003
649.946
-908.653
1028.95
318.398
-3406.59
7684.72
-329.228
-118.418
1989.23
1953.22
137.38
1177.07
-3408.3
2418.41
-2435.98
6911.25
369.869
2179.41
1072.74
-1093.31
-802.5
5024.31
9331.65
5721.52
2113
5024.15
-7778.61
-5012.57
-2874.61
2144.02
-1467.01
-2080.52
-1592.5
-2077.3
2192.25
-496.268
-6296.48
-6518.17
-189.959
1108.93
-3415.16
3253.62
-221.189
1350.42
-1379.94
-2122.76
-2720.61
2726.34
312.208
-3990.24
-2001.7
4152.8
-1809.97
3020.57
2829.04
-243.668
1271.1
-4522.97
-6766.33
-9382.25
-4329.69
-6426.24
-1087.99
4325.08
-228.246
-54.6917
-970.853
1476.27
1758.14
-2044.21
2107.68
1698.95
476.556
2371.22
-1601.76
-999.018
-12264.1
-27250.1
-8587.7
-2676.5
-2765.06
965.519
167.295
6068.28
1966.04
-744.498
475.284
-211.932
-632.734
220.503
-2908.62
-10820.2
723.862
424.576
-1550.07
1747.37
465.391
238.971
-2185.09
1404.11
249.215
-669.961
-2384.03
4165.98
-3369.09
-5514.24
-3176.46
-6713.75
386.172
-2218.41
-1199.87
247.421
-5016.48
-2914.57
6261.69
6592.4
2565.04
3287.29
5698.84
2558.13
1055.18
293.484
-3433.89
-7195.77
735.916
-3137.59
579.92
-2024.88
1205.49
-2287.53
-1964.59
-711.146
-3113.55
-547.836
-892.993
1547.3
6255.52
-2843.92
192.132
132.297
-3858.38
2636.13
5969.58
7359.25
9803.32
-2640.06
-13372.8
-9736.5
-237.856
-5456.18
-6505.23
-4620.2
-3581.87
-3219.45
-7891.6
-12283.4
-8824.59
-7525.46
-4831.43
1032.64
-785.7
559.791
9608.31
758.459
-1136.13
-1367.75
1214.45
8840.38
436.23
8224.45
-2170.05
153.48
-2398.33
-3381.29
-8002.01
-2292.67
5495.87
436.621
-2364.88
4078.84
3229.63
-2383.5
-3000.22
-9472.55
6754.78
3664.72
8465.5
1515.42
4218.76
1560.59
1881.51
336.068
3751.03
4390.69
-3146.7
6765.17
1176.27
-3846.01
3333.89
2947.19
-1115.53
-1475.48
-4431.54
-2375.82
-1269.92
776.54
1504.88
-3232.33
416.807
4656.27
815.055
4147.92
375.773
4547.16
744.4
-370.13
-1831.07
1453.56
-2842.1
1039.38
-4652.18
-6793.18
5048.83
10224.8
1801.15
3970.78
-2882.68
5430.56
-5170.64
-9712.07
-9464.76
1086.25
4218.29
7.55289
-1256.06
-5241.99
-4311.98
3201
2812.29
5634.99
5004.33
1165.94
-1212.04
-7222.88
-4570.53
-1635.56
-2657.19
4859.53
9125.12
11644.2
16854.2
23209.8
16755.5
3112.41
9044.78
686.212
9097.7
12823
3817.52
10225.7
12469.6
14927.3
8330.02
4952.11
-2084.65
2828.37
5583.01
14570.4
10034.6
21038.2
26653.7
6572.15
19312.2
15347.8
6340.21
4531.99
2240.99
-873.365
2934.44
-3167.86
-3943.28
-8263.05
-2701.41
-2137.93
1182.9
519.366
2975.63
6344.25
1252.58
3137.24
479.966
292.079
98.5375
1758.71
-2992.68
-1293.3
-4915.83
-3339.84
265.946
834.73
-2500.84
4510.77
7099.24
8249.69
-1479.95
-493.912
1314.37
-1040.29
-4364.38
3130.05
2552
4531.95
937.177
-2353.61
-73.0871
3747.57
905.566
1607.48
413.019
-2794.4
-9759.7
-7548.25
-5283.44
-6664.7
-10255.7
-9637.29
1339.41
1074.45
-1852.68
2648.66
718.062
432.155
2507.01
-5387.94
7995.12
4381.06
-1733.73
68.1245
-5964.09
677.861
672.668
1150.38
14317.5
-2057.1
1492.08
-271.966
-7309.86
-746.511
-3797.03
486.871
1393.32
-1925.39
-4722.31
3021.96
2341.18
-6477.15
-4934.64
-1093.63
-301.568
-4479.32
3791.42
6457.49
1720.44
-5384.09
-138.216
-5879.63
-5787.14
-2356.31
2687.47
-102.441
984.665
2480.13
-2094.24
1348.93
2793.35
8971.83
4740.07
153.376
8990.91
3708.87
2579.22
-985.803
-1428.29
1369.81
2451.68
688.448
-1773.05
-2171.81
165.132
2829.85
1010.9
3996.03
3278.64
1385.33
440.047
4692.36
2379.9
1240.31
-3048.87
-10908.3
875.961
740.995
1669.29
4564.65
9141.76
3347.02
552.89
-1505.96
419.386
1701.25
-1302.41
494.917
2355.85
-106.912
6931.25
3837.7
-4639.48
-6186.55
-1699.76
-58.9666
-5992.62
204.849
4903.94
1093.98
-5803.04
-828.213
967.51
-1943.67
-2299.49
2876.27
174.093
-5481.9
1867.87
-832.609
801.612
-843.724
-381.59
361.025
4910.31
213.642
-4697.76
-8002.21
-1596.77
-3802.64
3917.44
1534.99
-1039.04
-644.931
1799.76
-9246.96
-252.083
-242.485
-470.092
-1983.32
-4448.91
-439.71
-688.431
-280.382
1038.77
-3187.15
-2220.29
-3158.01
7633.48
10434.7
-3897.29
4869.27
231.637
10217.2
21950.8
4105.21
8199.71
6690.89
2218.78
4089.44
397.014
831.758
-368.461
-940.722
-1040.62
-1903.92
-1414.88
-1229.46
-1669.73
1052.45
7672.7
10704.6
5122.91
12318.3
3444.59
1171.65
2854.45
1942.06
2612.6
5937.7
1930.59
3983.54
-946.33
-1562.79
-917.83
2055.16
136.427
8332.34
-228.405
-1026.26
276.722
-1119.78
-443.7
620.315
-1113.09
-6028.28
-1757.7
-895.276
-9890.98
5863.05
3483.95
-1788
-2193.39
2499.4
-2830.44
824.221
-2799.18
-2165.46
-1650.39
2290.8
13576.3
8038.23
8540.48
9108.7
25511.5
39431.8
19204
18821.2
12015.7
14741.5
20366.9
-3323.99
928.312
16333.8
15077.4
11713.1
7441.12
-1519.58
-606.983
8179.69
10488.4
2405.82
-6694.14
2342.94
413.621
-394.704
-2307.52
2659.2
-3443.11
-2554.46
-4265.77
5632.12
-4416.39
-12609.9
3803.93
-3138.47
638.204
-4645.77
1493.13
3553.6
10999.8
5970.89
4952.13
3296.34
4377.55
761.443
-9268.92
-3542.43
-1552.61
1818.34
5401.96
2656.07
11504.9
9879.19
6138.99
9333.55
8684.41
3516.08
5695.04
-984.975
3088.6
30.9356
-4316.28
545.724
681.806
836.64
3964.87
-4352.2
3166.2
6519.94
-2753.98
117.935
4255.21
-1379.92
1045.72
6024.93
12097
2470.71
9613.27
18712.1
1080.57
1217.48
1125.77
5339.05
-1152.96
8177.74
21477.7
5853.3
-822.021
1796.54
1327.42
1889.52
1744.78
1487.13
1689.74
-807.949
-13590.8
-1810.71
-2573.9
3102.41
10208.8
131.352
1559.4
6918.05
5147.47
2562.59
4351.07
868.022
-2139.51
-3057.77
-2043.96
-4229.31
3343.37
1944.36
-2277.92
3498.87
-2412.42
-1928.25
-1226.91
-183.419
698.964
-214.012
6270.94
-2109.45
224.21
-970.725
347.986
-1899.34
1075.1
10280.4
-11696.8
5588.22
1262.74
485.822
-9177.64
-8335.75
-5811.21
-2978.59
-1330.68
872.383
-8579.97
-516.58
-1424.59
-1032.82
2417.66
2453.17
5110.52
-2984.8
-3690.27
-1314.95
2012.94
9168.22
10843.1
3618.12
8580.35
3292.67
4256.84
3562.6
709.523
-747.09
-1201.33
-326.831
2776.76
-10358.2
-971.367
7526.42
11310.8
20568.7
1726.44
-557.132
4958.06
862.044
-1451.93
-769.154
1911.34
2703.53
2207.81
7402.58
3996.12
-1409.33
5264.23
11823.7
21572.7
17488.8
17044
8455.76
3310.15
-1848.9
-3637.95
-404.787
-5274.93
-4000.67
1862
2097.26
954.567
1485.34
1892.9
3418.81
6839.02
668.034
-1206.85
6367.51
-3561.5
-9085.66
-4299.31
-2579.15
2133.61
-1488.35
-2675.55
8427.08
-5624.17
-1681.54
498.292
-18.9348
-1925
2968.64
-500.865
-1078.71
-11145.9
-656.964
1851.78
4581.36
681.076
2390.02
-3192.14
186.428
5732.44
-3191.76
-1623
-4769.25
-6887.51
-1962.76
5576.11
3933.64
2439.5
3557.01
548.54
750.546
3024.67
-3740.02
-2440.7
-1008
826.699
223.316
821.773
-486.573
-1955.63
-742.389
904.79
-922.344
1988.84
3357.97
5979.43
1627.12
-3305.49
8028.06
10345.5
1487.64
690.547
-9457.7
-2057.43
574.147
2620.21
-2760.1
337.348
-2481.21
-436.577
1387.16
-1037.69
-1171.99
189.085
-479.203
-1017.12
651.016
729.094
-507.187
-9109.09
-5066.98
1630.31
1628.75
1990.22
1286.84
1512.93
-3542.96
6345.04
10736.5
2887.52
786.82
1024.01
2665.84
-129.122
-14198
3125.05
-5716.54
714.69
-178.16
-10239.3
-10119
5611.44
-1834.29
-4852.18
-5328.57
-1902.06
2582.85
-1167.02
-7874.56
1803.91
-1943.73
-1980.57
-1315.75
-3864.35
-2527.83
1645.24
2510.51
978.906
-524.971
-227.67
-3228.25
-16194.7
-8808.49
4915.44
3340.81
1077.09
-4602.57
245.217
834.289
-8962.75
-635.901
1141.44
43.7326
-263.872
2991.53
-889.894
-1679.08
4396.47
7724.92
15525.6
11238.4
1604.05
1732.83
684.59
202.806
-629.001
1158.79
-2530.75
-11337.3
-5152.1
-4381.68
-7332.04
-6723
845.45
2162.93
-4238.17
-937.786
2731.88
946.481
-817.384
-866.389
-411.678
1900.52
-2559.91
4541.1
1370.49
-611.212
2672.63
-7356.34
-981.209
54.3206
-2733.7
77.222
-1139.81
-1837.51
-2417.05
-2770.14
1327.31
1278.28
-3213.25
-6816.55
-713.411
-1024.78
-2361.98
367.502
773.673
-1523.62
2576.68
3536.94
1242
18.2644
6304.77
1323.76
151.244
2236.19
4980.44
3254.09
1532.88
5827.14
-643.87
3522.2
-673.52
-1553.29
-790.366
-1525.09
708.519
-3225.52
-20.4359
-632.007
-946.123
1203.28
-558.025
-1229.78
-1138.88
3960.58
-4676.1
-9483.55
-2372.32
-11465.9
-2079.61
-7675.36
1038.81
-478.02
-2699.17
-1275.53
1449.29
3954.7
7071.49
8758.11
1703.64
2228.86
-5828.89
-1309.57
3577.93
1629.74
696.134
-2391.12
-1119.96
-2578.68
4819.36
6514.18
20846.6
16344.6
5934.95
2469.75
-3409.09
-12716.5
-4342.93
-637.533
-11007.5
-909.762
-1984.49
3738.51
5768.84
983.855
1344.93
1234.95
-128.585
780.355
-10488.1
-239.516
823.653
-1421.99
7286.04
417.293
4551.88
1074.37
554.346
-6033.76
-12863
-217.497
-2637.38
-185.801
1117.08
-3126.51
-646.476
-2308.28
-5045.29
-7700.77
-3306
11607.4
5117.89
10092.3
-2004.24
-2938.92
2543.8
3260.18
-2759.58
-4343.97
-2191.84
-3333.32
2815.7
5118.2
731.236
500.202
-175.753
3077.7
6415.78
4683.14
7793.7
-2083.34
-663.954
-4848.34
3734.45
1804.77
1824.81
-144.34
691.383
4001.3
5854.75
2428.22
5673.68
4833.12
418.233
-94.9539
-3075.92
-3217.83
-10244.4
-6432.12
599.158
6763.79
11077.2
14257.7
-1525.05
1352.46
-10172.4
-13522.2
-8731.9
-3956.36
3218.72
2239.98
343.097
637.599
732.475
-542.194
-702.962
1406.32
-3693.31
-3781.57
-377.663
-3521.07
1088.89
-3711.61
-1980.83
-789.635
-1184.32
-6756.34
-3428.35
-1919.91
-4079.92
-7600.24
1978.73
208.756
1786.91
2590.6
-1528.03
-3704.27
2474.94
776.36
-6903.39
-5563.12
1770.19
3430.1
4446.11
2986.96
2507.74
3400.56
16379.4
-3921.26
-1200.22
-2266.31
-3532.23
-3261.84
1419.61
-393.649
2187.47
10316.3
3696.65
-312.447
2978.03
-1627.83
-1126.86
761.668
-5625.43
-1718.89
-811.405
2254.29
5185.27
-5162.83
2347.23
6254.56
-1946.41
5172.4
3126.22
1391.15
3962.59
20752.1
8415.13
6078.9
2364.27
2833.73
20444.9
11927
16407.3
21686.8
17394.1
154.143
1770.33
-5135.27
1580.11
10061.5
5180.94
3517.26
7314.16
7891.44
8289.95
26357.5
19809.1
18926
7458.91
10497.8
3202.28
3042.76
2357.69
349.294
1617.61
2084.11
-2218.49
-5559.13
426.276
2917.29
-3594.75
-5607.84
-29.4731
-1142.93
-4153.6
-1449.38
827.074
-725.3
-516.679
2077.45
4321.97
4164.9
1369.73
814.2
5795.81
5489.13
6701.65
2603.84
6013.4
846.717
2723.07
4777.96
-2636.68
-1963.87
680.678
-2095.93
-1917.68
-4249.23
3305.19
2836.11
-7826.74
8888.25
2885.28
3251.28
-569.106
394.391
-3202.89
456.224
-2560.32
-1180.22
-3474.49
-3430.26
3686.58
1188.39
3955.84
127.382
-5766.75
218.734
-4350.94
4499.91
8527.28
-3204.19
3191.16
-1734.24
1421.6
-1377.82
1042.35
931.283
-1062.15
1924.98
5042.2
-316.43
12095
17316.2
6537.97
4523.41
453.192
1130.35
4884.42
-8909.92
784.148
-140.114
-10295.2
1833.5
6249.77
3572.87
-2759.3
-4502.16
1812.25
3279.87
415.552
333.525
1276.22
4371.03
-5545.11
-1980.15
1553.63
3918.69
-2616.5
-1249
-3425.92
-1227.12
-4157.54
-7585.57
-4355.79
117.81
-1358.99
2035.34
12025.9
2307.25
-4204.09
-6630.17
-3154.81
-1488.66
-1688.12
-5098.65
547.263
-1469.21
7352.72
19200
2870.57
5801.9
-894.772
-12321.2
-9196.43
-5620.64
6688.24
1235.86
-576.968
3993.73
3157.09
2238.92
2784.87
-5249.94
-3178.94
1925.25
-394.931
37.9635
1763.61
-188.118
-492.24
3329.04
7208.78
-281.401
2474.64
-617.666
161.406
-828.338
6483.88
1454.76
-1330.93
9235.76
12673.1
1739.52
339.619
7637.55
-3445.03
6687.23
6433.34
4993.26
3656.54
13747.2
1214.48
-6505.27
-1173.22
-6107.6
-20.7427
7504.25
3583.5
1867.97
-5278.82
1269.45
2741.14
651.476
-806.358
3590.27
-42.2641
510.137
1563.57
-268.435
-845.751
1664.21
790.3
-523.524
3293.44
3009.18
201.45
-5436.13
-2138.98
-1252.21
-241.945
-682.846
5714.05
-1793.85
573.573
-249.02
3363.92
3469.72
8902.21
7082.81
14471.4
16513.2
18644.7
19526.2
14895.6
749.222
-1437.7
902.818
531.213
-1738.54
-156.679
-1007.64
3933.44
-169.519
40.0762
3927.68
386.211
1018.47
4364.53
2774.58
579.947
17592.8
31961
32957
16078.3
11356.5
-2482.07
-2473.31
-4600.63
-2615.67
3313.76
596.538
4822.05
-246.437
4110.73
-1111.75
28.1699
317.831
-771.799
-5398.94
-2615.83
-1459.15
-30.8341
3637.7
8417.4
-3071.67
1070.37
419.066
2279.98
1482.38
-6599.34
-2394.15
460.823
2158.68
-728.268
3042.56
924.15
8363.09
2045.45
2429.13
855.468
-4112.06
1914.72
465.868
717.109
891.876
-806.098
256.417
-1454.76
-241.465
-5231.27
4190.78
5790.81
713.923
-1168.17
-7159.04
2536.18
3197.04
-551.922
-6004.53
-816.73
-759.035
-1115.42
-1403.81
983.565
-2064.59
2862.94
-5722.51
1278.52
-1965.59
4810.97
2126.47
-2571.92
-4380.73
-5615.43
-4162.73
-37.0766
-4324.65
-2845.05
-10106.6
2081.41
5153
6343.43
7411.68
30.655
3802.1
3102.68
5634.07
-3408.3
-10022.3
2717.19
3747.66
-3457.13
783.322
2450.58
4966.27
6724.94
13893.9
3345.84
836.68
-1666.61
4538.42
4203.26
3793.14
-1427.65
-2552.19
2090.68
370.862
599.488
-6006.64
1682.55
-360.224
-8025.81
4876.91
645.009
2580.98
448.024
-8821.43
-2673.54
-15482.7
-2105.59
4652.88
750.825
-6853.78
-11107.7
5924.39
29731.5
23188.5
11318.1
16027.4
17894.3
7287.66
527.77
6529.98
3748.32
-546.523
1255.18
430.609
7603.97
15540.7
12085.6
1289.45
-143.418
-3230.26
-1922.74
-1908.02
-2912.08
5150.85
1790.06
866.989
1182.49
-6640.13
1085.95
39.6436
256.666
-5156.22
-7097.9
-1776.22
4939.14
2767.26
2251.23
-3736.43
-3411.72
2143.83
12860.2
5608.73
6886.33
4545.41
786.241
-1402.73
-1033.91
-4907.27
5362.86
1638.69
-10067.9
-2649.01
1842.51
3376.71
-2759.2
-3319.13
-2089.02
-2340.26
-7528.78
-13877.8
2304.44
7419
2589.64
-2356.11
2078.15
4426.38
-4379.48
2950.78
4894
-708.319
89.1986
439.472
5387.98
2334.16
932.488
975.593
2878.18
2832.94
2920.29
2509.1
-3832.09
-517.619
-4647.49
-5267.7
-2010.52
-1865.53
-3716.79
4687.58
-4650.19
3939.68
2956.26
-572.206
-1112.39
-1756.9
-2351.5
-3807.27
-116.283
-4485.4
-6327.43
4304.29
-344.079
1084.61
-5667.86
-1362.09
-1969.11
576.544
-1948.42
-6343.09
-15941.8
-9696.97
-3900.77
-898.35
2800.75
-1732
3144.62
-6142.65
561.551
-719.05
2724.15
4004.37
5351.8
1345.96
-1266.69
556.538
-354.035
4763.65
2616.25
3066.67
2714.18
2742.92
923.598
-1515.61
6109.16
10653.7
13770.2
9036.23
-895.275
89.0183
7468.46
9097.73
4255.4
379.488
-2651.01
-61.7173
-2064.09
2953.93
5616.48
4915.66
1020.02
8449.57
9384.59
3922.72
-931.744
-1121.28
-3973.5
-4166.06
362.737
1492.36
10422.5
1789.63
463.83
5628.7
-1496.39
2887.23
243.278
2790.46
-850.974
-1824.05
-261.216
2005.82
3637.23
337.889
10392.8
-153.501
-849.187
-1916.61
-1825.06
-2168.05
-925.437
-4978.08
1120.62
2535.18
-370.16
-2039.74
767.44
-145.022
4656.13
11490.7
3400.53
-743.241
-561.163
-4192.53
-5490.75
-559.891
3621.88
-10062.9
-20058
216.887
-3659.2
-61.4821
-42.7268
2562.47
-1354.25
1304.2
1890.89
414.564
-613.966
-841.199
-1304.62
-1056.75
-6265.62
-896.168
2168.34
503.247
1820.67
-1890.38
-317.19
-8817.46
-479.721
1206.76
4118.59
-1122.11
1586.32
5519.19
-1108.22
-3332.88
2657.38
-4000
-100.428
1238.96
-152.762
425.867
-901.776
-2045.87
2585.04
1239.13
4034.8
2051.44
1001.44
12777.7
-313.588
-2613.38
-4173.69
-7142.61
-4937.5
-4854.8
9648.84
13165.3
10908.6
2499.31
-1464.23
3831.28
1225.45
1394.09
1895.17
-690.234
-6519.86
1668.41
-1218.15
2343.44
917.187
5658.23
8257.57
-2766.67
1574.64
-143.833
-2053.05
600.192
-7881.1
-4203.37
9125.24
-4938.26
2947.66
2432.95
524.173
-23.9783
6411.39
11478.9
13625.4
30136.1
12235
2966.37
-3616.83
-3847.81
-2671.07
-2577.33
-45.1107
-1128.54
-5036.79
-5083.92
-96.9613
1321.49
-1417.19
-3520.25
-7983.18
3461.07
-3920.3
1760.48
-1728.36
1120.41
-335.359
1350.21
-4052.86
-9823.17
3417.12
4203.32
806.802
-2246.44
29.5347
-715.193
-6422.54
1533.56
1230.64
3919.55
-5490.29
1063.26
1112.36
546.593
2196.92
-1861.14
-285.001
-412.95
310.494
372.075
-3574.05
-1617.34
-7106.16
-10379.3
3370.37
-817.068
-1216.31
-3323.2
2855.56
-2665.2
910.758
-1214.45
1852.91
-634.54
-7468.37
-309.286
1132.38
1731.42
-597.591
-4816.97
-1608.04
-4142.76
-3257.58
2392.07
324.341
-5613.01
-160.963
3391.39
5575.5
2056.03
13589.2
8215.98
5283.28
1503.6
-466.401
9660.67
3622.4
52.3355
13203
10711.2
9985.86
13472.1
7826.37
26808.5
8264.15
5202.59
-1054.42
475.48
-3935.13
-380.151
-1648.88
-5462.47
-7258.36
-815.806
776.944
-1304.5
864.301
-1239.21
1048.33
2844.81
1218.53
4188.7
10080.7
1443.84
-2091.96
-257.855
-986.928
1235.77
1970.55
3035.24
242.669
-2475.67
4010.87
-1262.21
126.226
6380.24
-8.83279
-789.223
3794.6
1568.03
-4794.54
-2786.05
771.946
-147.441
-1162.96
-6997.05
-4949.04
-3846.03
1003.02
3712.79
1000.4
-355.443
-2339.82
1175.16
-3131.91
9303.22
-3447.04
1237.3
1420.9
257.728
5699.1
9261.4
18288.8
4878.21
-1996.74
-48.3874
-4056.35
-1650.52
2019.01
-2325.28
3056.03
5353.31
2080.77
-1822.76
-5328.26
532.819
-302.25
5979.58
10317.5
7330.7
1159.77
-971.467
-176.963
4142.69
2509.78
7441.99
162.057
4932.18
2890.66
-7180.09
-2389.76
-57.5548
-463.001
-535.91
9300.64
-4443.87
-6192
660.879
-3755.11
-2652.73
-1443.01
288.59
9338.35
13772.1
17704.9
14228.2
10979.6
9991.07
908.53
6674.09
5083.89
5268.6
6151.95
22034.9
7752.48
9521.93
26017.9
4469.61
1415.84
1989.78
830.347
-1042.23
6978.78
1744
5857.04
10428.6
210.359
6554.51
654.93
299.488
-2131.16
-1692.36
-3039.24
-1795.49
7380.47
18280.9
15871.7
17718.6
19309.4
1756.41
8998.78
2475.82
1306.87
-3181.18
-3214.13
-979.167
-351.611
6201.81
2150.56
4386.95
2186.28
7311.64
-4215.16
-5905.25
-4217.43
2941.08
-1368.97
-1310.09
-5553.3
-6154.52
-801.135
-2643.68
-2859.98
441.316
-2071.49
-3291.9
3732.7
11221.1
4532.75
-3107.68
1216.88
5358.92
790.978
1682.2
2408.64
41.2046
1043.93
1986.73
3118.41
-110.727
-3656.27
-1506.12
2741.77
5351.86
8402.93
1529.63
3927.39
7747.1
7702.7
13034.7
19891.8
26815.2
-12022.9
-2239.74
677.649
-342.236
-198.86
3527.49
-2832.17
2733.08
5141.93
1386.26
4340.06
1606.52
1695.1
-1742.88
1367.86
839.444
2066.1
2099.94
-3291.06
-260.35
3269.21
-1578.09
-828.326
1572.75
874.56
1753.75
-5320.04
-1400.77
1144.94
2145.64
534.448
-4088.75
2341.22
2088.97
12921.7
1917.37
-3544.71
5591.31
-2196.88
685.965
2184.4
3260.93
-268.157
-275.178
3830.62
-1356.48
-166.853
-1623.87
-3190.84
-4659.76
-180.706
-389.539
4194.41
1340.86
6480.9
3394.89
-1470.26
-739.014
-7247.55
-349.179
4053.8
1488.27
14696.5
4223.83
7147.34
2646.18
-8870.26
858.892
3.45657
-1353.04
-696.918
303.16
1762.47
-3682.92
-2332.84
3344.86
-1233.58
-1323.12
6433.91
3314.8
1475.5
-1143.16
5377.36
757.779
9235.63
2353.06
-8661.22
-7709.12
3348.22
1714.93
7434.12
-2094.11
-10686.3
6817.4
-2829.71
7265.21
9389.87
3461.24
2402.06
3638.27
1978.52
-15602.4
-8436.77
272.482
9454.27
3531.11
-324.749
-2311.93
-608.727
3822.61
6782.43
1267.32
1612.16
-2170.32
-6428.73
-12358.7
-3039.3
-68.9204
-269.539
-2390.22
-3422.9
-1110.5
-4443.51
2294.38
-999.333
12221.2
24965.9
19484.7
12558.5
13871.5
18216.3
7542.38
-1037.41
-2165.88
-1380.33
3928.82
7097.44
4713.35
-277.025
237.583
-1898.72
3392.76
-689.686
292.843
7530.24
8223.04
4195.88
7959.17
3583.57
1904.77
5661.27
3796.96
2564.55
-6613.91
-1890.19
1890.99
8574.44
2670.43
-1137.25
-2011.97
-1499.46
-228.166
1876.66
11734.3
16366.7
4918.12
-2391.03
-5408.9
2813.52
-3185.18
384.596
5095.02
2279.74
-69.7704
243.212
1788.42
-342.971
-1221.59
-6310.18
910.791
-1640.61
258.426
2691.9
4448.79
-1145.81
-4269.49
3158.47
6844.22
5958.22
13977.1
6520.94
2479.38
-2846.01
-2845.16
3266.52
2627.36
391.307
-823.52
-3042.4
712.749
661.415
3086.5
2845.51
-1352.73
-356.053
-2436.77
-3402.54
-2829.14
-9.16873
1732.42
3818.61
-1408.72
807.082
3850.74
307.63
1129.59
2637.13
23314.9
21988.4
25471.8
29603.5
20354.5
4088.84
3676.56
-779.586
675.573
752.088
-2555.91
-1288.06
2269.68
-5833.45
997.459
1490.88
-2524.38
-5349.15
-10175.3
-4443.56
-1037.89
3333.78
1516.16
-116.622
3186.92
2128.48
-553.837
6845.73
7993.78
-853.8
-43.1659
-56.3499
-1116.3
-1485.42
2012.18
-896.754
-2964.63
-5327.09
-91.127
2184.85
4228.53
-2802.81
3127.01
3072.52
-9029.34
350.255
1899.89
3159.97
1473.65
-599.297
2265.56
140.632
-2153.56
5410.39
-494.147
-1020.74
-367.297
-11945.3
-7875.53
-1816.51
-1926.77
-6794.53
1046.45
-9802.67
-8701.58
-5470
-2771.86
-3123.49
257.905
1351.65
1551.16
-4952.31
-3728.02
476.736
-1139.98
4236.73
1777.04
-1343.07
-576.321
-469.307
-346.245
-623.269
3657.03
191.917
6583.34
963.337
3697.26
4169.84
1616.95
480.082
657.375
5009.94
11215
9125.78
-533.61
380.557
9943.02
10308.7
15223
9464.67
10806.5
20655
18694
15310
19813.9
5029.3
-2293.39
-6213.71
-1853.32
1803.82
782.252
-2153.24
899.582
2684.35
-4639.25
410.491
7167.18
2362.34
3096.27
1696.92
6544.76
539.205
-3749.54
4027.21
-2715.32
-552.307
-1772.03
-3014.75
-3762.25
2269.57
5290.71
1334.9
-1377.26
7946.15
2447.55
-950.708
884.556
-6449.74
-6836.05
624.923
-951.625
7589.27
16928.4
20310.2
17455.1
12728.8
10854.2
918.077
2418.11
813.79
1438.21
31.9119
-1275.16
-1428.39
-572.775
6363.1
7260.85
5250.84
10883.6
7169.35
3612.56
19574.5
14818.8
2204.63
-4129.26
-3333.24
-2175.24
7871.76
6777.17
-2169.33
-945.425
-1281.86
1218.42
-9280.1
-6622.02
-1377.81
-5792.62
70.54
-1079.55
-2623.17
1082.51
162.652
4349.37
-5819.7
737.496
-411.039
-149.151
931.092
9379
2108.16
-760.523
-1254.01
1959.92
641.781
-3220.61
1946.42
-1573.57
2120.57
768.051
808.018
-1042.06
-32.1177
-2034.59
-6663.39
-3097.32
568.574
3754.94
-9006.29
-5393.78
-3481.3
203.054
-6364.26
-6957.38
-5370.25
19304.5
6749.41
-2286.49
-4095.65
-6624.61
-2296.19
491.672
5334.29
3339.33
5282.86
3586.11
819.09
-76.6381
1672.74
-450.522
3739.6
3292.11
3088.07
-239.411
3236.15
-3814.28
-7247.17
1073.16
1114.07
863.802
1549.18
2511.38
-63.1757
-629.704
-3171.63
-2087.58
1292.45
-2000.45
1583.1
9202.28
1520.99
496.77
-190.816
-1706.81
-3314.76
-1974.72
835.754
2134.76
1552.19
1961.43
7579.11
-4011.94
-4297.23
-7376.18
-2617.23
-6113.31
-8514.2
-162.96
-1059.39
-796.95
-63.5535
165.798
2460.01
5050.43
3820.38
1800.55
5286
5631.74
12252
9915.54
4237.01
-1703.07
9541.63
9864.07
6441.5
4369.39
4867.38
2137.31
1730.26
3781.93
6289.34
-5940.11
-3340.87
-896.381
-1862.71
201.832
1027.1
2931.55
2875.95
-11027.2
-598.162
-1803.62
432.579
-1321.71
-3187.39
-188.9
777.52
851.216
4686.64
761.736
7494.68
-2215.27
7421.38
5276.2
1761.92
-475.871
-7.37414
2901.45
1754.2
3719.05
1074.32
269.687
-3322.89
-6584.41
29.8331
1746.91
5838.22
-268.076
3323
331.639
-4324.68
1094.16
-1142.72
7899.85
6502.75
3718.21
1368.38
2548.84
-288.994
216.097
-332.565
2299.14
2363.1
16985.3
-829.808
-3771.66
-11869.7
-2489.31
-3042.38
-442.137
-3550.88
-5129.72
-4455.02
3407.26
2295.8
2231.21
1172.9
1943.97
-9928.02
-2878.25
28.0018
-1889.52
1006.69
-2035.89
690.187
1940.39
536.954
-3323.34
1547.84
3057.11
4414.93
-899.108
493.198
-884.437
-4332.22
-12435.1
-14467
-10036.2
-1383.31
1389.18
547.909
-4760.18
-844.504
-1542.84
-421.494
-2412.13
1771.24
-9603.3
3914.98
14998.3
13007.8
2301.15
-449.495
-466.653
5192.54
-1056.73
-201.714
1020.97
-1031.55
-2373.28
1127.99
-894.819
54.8401
-265.984
5087.05
9437.76
5615.02
4170.59
-1286.23
-2810.1
2680.36
3601.71
772.883
5801.27
18.6714
1731.95
5813.02
8330.74
8318.46
244.509
-3922.38
289.986
-1474.08
-1523.42
-2686.97
-2440.08
1047.14
5596.13
2697.79
-403.435
-3438.39
-2932.52
200.935
1569.29
1297.06
3329.43
-3515.93
1754.06
-1976.74
-5655.94
155.908
-1218.56
-7893.53
-6026.8
680.809
4677.27
9511.13
1557.32
-8798.27
2372.26
13185
10590.4
11616
6917.72
-1287.12
-3781.95
2156.87
-7564.95
-6598.69
54.9188
-2345.96
1554.51
4194.53
-1996.21
-1175.02
-6058.72
-704.086
-2821.19
-459.13
392.312
-3496.52
-5609.46
-3956.18
4488.11
6059.66
2532.89
-3361.16
-2601.87
743.646
944.996
-636.883
-3626.13
-1690.76
38.091
-651.672
-3990.86
500.804
11191.6
1374.15
-60.8992
7195.28
5128.39
12600.7
-2581.86
-2278.82
580.631
-2360.19
-893.102
1117.69
47.9449
1822.08
-708.382
-5903.89
-2905.32
-919.258
-7944.89
-7417.04
-5758.56
-1692.13
533.164
-672.418
3537.97
13736
4470.06
4641.21
-7787.47
-10408.5
-8209.58
-6879.75
2722.35
104.223
-689.368
4273.89
7814.58
3084.52
-694.478
-651.975
-862.674
-617.16
-836.244
6301.61
2740.5
-58.9802
-2577.7
-102.913
-8995.83
-6391.57
-9392.88
-3020.05
-2229.16
-706.277
1575.26
-8192.96
-2676.69
1185.78
9503.69
8734.14
16392.8
10189.8
-1594.44
-716.765
5018.53
9650.21
17620.2
88.588
18525.9
4963.36
313.243
1201.04
-744.188
-747.225
275.356
594.223
3168.64
-2693.57
-1356.32
1.88854
-4530.93
-3882.3
-2478.84
-869.004
-533.483
1063.37
-3221.56
-6963.96
-9279.6
-7084.93
-6148.8
2013.37
931.654
-402.277
-2727.13
347.734
-1511.48
-373.916
221.851
-253.179
-1786.56
2295.71
-870.185
-2216.56
14439.2
7373.74
1036.18
-284.245
7900.92
3312.34
10820.4
-680.057
-163.434
1974.87
6247.21
1491.77
1214.13
4604.5
23101.3
4667.38
-5605.14
684.34
-4430.34
-1025.21
-6382.07
-5088.75
-3159.18
3729.36
4244.27
226.553
-3421.74
7385.08
10674
3969.6
-750.836
3968.88
21351.2
17121.9
15867.4
37432.3
22578.4
25206
9050.57
-850.151
340.059
-1920.51
-250.368
-1948.35
3974
-1501.42
-272.789
6546.15
5160.67
4104.78
4913.86
6358.77
-2819.46
192.875
-331.137
4379.79
-829.626
4063.69
393.292
922.847
50.7167
-5628.96
627.936
1486.87
1426.51
-922.513
-920.41
2973.13
2740.45
-1754.92
1644.09
5764.45
6204.43
12208.7
1981.6
1297.51
11647
6529.43
10705.9
13232.4
13525.1
14950.9
10944.8
4744.37
-2977.11
-2995.89
3640.58
-1213.79
-1140.95
1940
197.47
3433.85
1951.21
-4539.77
2115.09
2066.47
-1135.7
-779.958
-933.849
2347.94
1115.24
-2469.16
-629.462
-467.508
1635.47
5232.49
198.935
3430.6
-2188.33
4064.93
2611.1
2105.53
-2815.15
-8693.71
532.142
1139.56
689.864
-426.568
-1686.72
1302.26
326.331
3095.6
3400.56
3456.93
5432.66
4745.08
13645.4
73.7215
5161.67
8886.77
2478.82
18.7918
-1403.18
-3087.09
-1194.34
6909.99
1510.34
-2961.84
-1618.42
-3401.4
-5009.28
-2287.52
-2264.82
-1774.21
244.974
6096.07
7940.52
5831.99
4204.24
2411.43
2038.2
259.178
703.022
-828.908
2107.18
4262.84
-1286.55
-3355.24
260.647
-410.574
-226.458
1713
7032.02
-436.264
1769.83
-1367.78
3862.04
10072.2
10240
-1272.55
493.507
-711.44
9655.49
20438.1
6141.73
6564.45
2088.07
-3166.24
-1544.83
-3900.66
-1527.1
-586.075
4756.06
14807.9
7869.7
4537.61
4280.36
-919.787
-149.51
6185.33
6563.27
2910.01
-5869.87
-5585.37
-5550.18
-7247.38
2737.8
2154.7
2682.82
-516.36
-1074.78
-644.163
2322.93
-1454.63
-4430.71
-7065.93
-577.923
1024.07
-3289.22
5154.51
3280.46
-1176.72
-8840.43
11010.5
6341.4
9633.44
-158.532
-234.225
629.51
-3817.2
-4732.1
-950.088
4212.97
-356.762
-195.552
2393.34
-1937.99
-534.814
2454.72
-2233.77
-4217.98
-744.757
-469.012
-3412.91
1846.55
-852.276
3454.55
-542.409
-1832.19
3396.1
3154.61
4315.23
-1526.63
-2970.12
3131.55
465.013
-5537.07
-8285.96
2327.25
-613.754
2205.06
1110.64
1433.74
1385.93
-2558.04
-2041.87
883.284
-4423.75
3704.69
-171.487
329.339
-804.41
-274.733
313.481
2700.97
-712.351
2422.73
4256.36
-194.607
-786.149
1662.15
568.379
-2075.29
-426.239
712.847
838.357
-1694.17
2757.44
4423.16
1488.48
-1937.48
-3460.47
865.832
-1334.84
-1077.6
-2252.19
5135.95
1493.67
-370.699
-3195.77
1272.58
853.288
-345.435
4414.41
6319.08
2442.13
2805.13
-1176.51
-9363.4
-5195.21
-7684.06
-1030.83
5345.33
7730.79
6092.19
4878.86
11003
15349.6
22874.8
15879.6
13010.8
8372.23
27863.6
21456.1
7874.34
16245.1
145.219
488.626
485.369
539.715
-1474.41
-1688.86
875.198
2894.43
2384.91
-4755.5
-883.612
698.386
3149.65
13833.3
28035.8
8315.82
4267.02
-336.689
10295.5
8102.84
16880
10419.5
17651
18196.5
744.843
359.889
4914.86
10110.5
452.721
-6069.41
-8467.93
-4314.23
-1085
-3195
-1303.9
800.971
-210.203
687.143
658.941
-589.908
-3156.5
1690.94
7006.83
5915.39
2242.72
-2869.21
-267.07
-1942.63
-2164.22
-3092.67
-1945.57
-482.358
985.525
4851.78
1145.38
3177.74
3189.22
443.325
16675.5
5092.37
1598.74
13383.7
3045.03
20.3899
967.031
-11030.5
-20117.1
1083.16
2451.56
-1227.88
-2241.08
2104.98
42.6827
-5120.01
2647.8
-4004.33
-8258.74
-2583.1
3742.29
2567.63
351.999
4523.26
2441.49
-1837.43
-3730.18
-4979.57
-11058.4
-3474.1
623.468
-9840.68
-3454.8
-1600.22
-8749.02
3243.11
-219.611
3.64253
-1004.84
5881.76
8045.55
3740.16
117.114
2182.08
1445.99
323.494
-9983.04
-6730.32
-6494.78
-9700.24
-1979.14
3920.51
4681.44
-227.139
5378.06
-607.918
-1805.97
-2632.66
-450.908
-3272.35
-1739.21
1637.64
2257.58
9.4989
-70.1953
6532.05
-3828.17
-5022.06
1954.58
6457.61
-922.968
-1000.26
-3277.32
-585.522
-717.921
3307.79
-7434.06
-4354.31
-2572.72
195.751
-1700.47
2668.3
-2157.84
-5253.59
1164.07
-1931.51
1148.59
3601.37
-3455.43
6249.43
10079.3
2324
1641.06
-1476.03
-833.279
8832.03
4957.8
1976.66
-701.493
-162.197
204.19
7268.93
6171.64
7038.35
760.057
5320.62
411.385
4869.47
771.384
-1866.98
3651.86
6477.81
-3962.46
-1138.59
770.965
-1125.41
366.904
-874.743
-1689.36
-1488.51
-2526.66
-4834.83
-1176.06
2609.77
1356.96
3993.09
774.604
368.438
-2279.79
-4856.6
-4954.06
-2956.2
-2071.9
-3687.67
129.814
-672.871
547.168
7942.71
5772.23
3783.62
1043.88
-4202.33
523.274
-2329.65
-1098.68
2262.95
3745.25
6040.29
11544
4021.98
3473.76
-1415.75
-7021.13
-2463.66
-1652.22
-3276.78
-670.495
1993.71
-2720.11
-3134.29
-3978.63
-2868.37
-1842.89
-503.483
2641.24
2397.39
749.458
2389.74
1866.83
-202.274
631.49
986.979
240.287
2494.5
8329.77
3667.67
1888.62
3545.18
-372.333
-2761.55
2225.48
4904.32
211.684
460.26
-95.035
2970.43
-801.676
1531.91
-1246.58
-308.342
188.571
-1057.24
-1011.25
3879.94
-11131.5
-6449.55
-6573.95
-17832.3
-6340.79
-754.544
-1316.36
-1316.74
1160.99
-535.6
-1486.01
-2007.69
-7219.62
-5020.82
234.35
1900.66
4490.37
2015.4
93.7509
-4707.88
836.2
2453.25
11098.8
2169.94
5050.66
4037.74
2622.98
-3114.88
-2054.12
-2410.71
-623.56
1061.11
10552.2
5055.56
-508.719
-981.967
1483.34
-206.254
-1273.86
1108.46
2922.63
-1422.62
-869.842
-3839.77
778.094
-4446.95
599.916
284.389
8771.16
3003.3
-5047.05
-6611.85
2617.95
-4236.4
1065.91
-1546.04
1317.18
2709.32
-25.4336
-1171.45
15142.3
27552.5
19261.8
14009.7
8566.86
10395.8
639.378
-1052.16
-6356.84
-8304.48
4844.34
1394.56
-663.888
9633.03
14387.5
2373.98
-2212.66
-4154.97
-2416.89
-1049.6
-771.493
238.545
-936.936
-859.781
-1550.88
3140.97
-388.475
-874.093
-6.15027
-1762.29
-2019.66
-3689.39
1026.58
6120.87
3099.28
-189.006
7411.83
3847.69
3235.9
2132.83
-4132.66
-1505.66
1288.48
-4311.2
-4429.65
1024.64
5815.45
5608.57
-1174.91
-6381.23
-2460.28
1115.27
2274.82
8221.74
-238.257
5171.6
6532.98
1079.99
-482.376
3349.11
-4901.19
-8524.05
78.3239
-1642.79
-2176.77
244.896
4412.81
-317.628
-550.958
1601.38
3274.54
4660.04
-1356.36
3823.25
4616.17
2409.56
6931.67
1348.2
-11354.1
3816.23
6909.57
6679.94
-4631.61
-1982.09
-435.784
-3933.04
-10740.2
-3198.48
650.822
-4339.1
-5818.41
-4774.34
-6549.69
-5211.54
-4783.23
5121.8
756.204
2524.97
3171.76
5100.46
2091.11
956.669
3065.07
-1083.92
-2783.13
-520.428
3327.14
6062.94
13104.6
10566.7
7943.5
-4084.23
-5023.34
-6902.74
2027.15
-3115.79
-6342.27
1806.13
-5539.89
-2204.83
-2760.84
-1213.81
2255.65
-3928.43
1268.65
617.075
238.363
1880.39
-1941.19
3624.56
-7643.75
-5473.26
-1202.13
222.911
-5455.94
-4732.07
-8430.2
1538.58
7548.42
10475.1
6835.56
-361.322
3181.55
-5526.33
-2869.99
-3328.06
2336.69
-1114.95
458.14
-1737.41
3152.11
3623.21
4621.83
-3325.27
-10043.8
-2196.31
-2691.83
-472.837
14603.2
1120.03
2400.55
5588.54
-28.548
4016.44
-2132.27
-581.475
1143.63
-987.938
3147.55
-2291.04
-623.002
-4423.84
-1141.86
-1199.82
-2316.77
-834.523
291.59
3588.53
1009.31
-885.972
-1736.06
-1559.22
1733.35
1226.23
-190.443
-5487.75
-6967.16
-4915.16
8.82152
-5904.97
-1573.09
4707.89
-12269.5
-3084.91
-5493.33
-2208.8
-2792.86
-889.5
-733.728
-2699.8
-2319.38
-1017.61
-368.906
-2856.47
-602.131
142.751
2537.26
950.578
2843.84
-559.302
-248.633
88.2292
-7203.77
-3533.35
3002.67
-9773.6
-4773.62
232.037
-9229.94
-3727.99
-1830.47
-5664.86
666.246
1021.78
4571.87
-4130.89
-1451.1
-15.6465
-3140.73
-2354.96
-8169.47
-1452.9
-31.3104
10001.5
-5879.22
-5096.48
-1703.25
-228.525
1256.76
122.64
-2772.8
1803.71
-2585.32
-1080.22
4590
3980.26
2642.99
447.615
-56.0722
900.834
-5826.74
5619.37
1910.89
2138.68
59.3605
41.3703
-3787.87
-156.767
1114.85
-4812.95
-10781.2
-8890.11
-2054.17
-4602.29
-8110.49
-3365.76
-1921.82
1174.19
816.974
3888.47
-1716.03
747.013
1804.47
2232.49
-6740.83
-601.67
5277.07
5242
-84.1213
1428.31
1363.25
2454.29
-3790.16
-3743.76
4906.95
2913.14
-1096.8
-1503.94
-5828.14
-509.409
-4331.85
-1681.18
-3789.21
855.033
3302.3
3543.99
4155.14
4492.14
-288.399
3039.46
-1514
-2998.95
2320.6
-1401.36
-1317.69
-1685.56
-1833.96
701.946
1156.43
182.552
2359.84
-198.83
4725.44
1808.56
1961.31
-1356.64
1380.55
-2429
72.091
4874.06
5805.66
580.653
1828.44
696.476
2225.83
3695.04
-1165.87
3874.13
-4440.1
-4311.9
1423.75
6624.71
-1463.36
328.889
-2006.24
410.979
1000.74
1086.69
-205.961
5.54171
3878.64
-2542.17
1211.13
-1737.39
-815.885
4321.78
901.465
955.992
6327.86
8509.78
2295.67
-2749.59
4331.51
3911.48
5622.03
-440.185
-971.99
-209.93
-3715.2
-1.90797
-170.965
-960.476
-6074.55
-5992.57
1384.4
-11909.1
-2202.75
2034.22
12741.6
10156.2
2267.53
-491.711
1801.24
9874.21
11624
-7238.86
1948.46
1133.83
-499.336
2064.82
-3932.28
-7911.95
-12109.1
-2259.46
-6597.33
-4799.22
-6772.63
227.077
2236.82
-225.05
1900.39
2583.5
5604.35
4867.63
-187.259
1751.06
1746.91
-1157.82
2140.7
2337.49
79.9791
916.506
457.422
1186.63
-4997.42
1515.11
2109.84
18149.1
6027.11
-3065.66
-133.017
-2325.5
-10310.6
-4693.71
2099.65
2448.03
3095.13
3948.13
3076.23
-1737.56
1553.07
196.66
109.88
1044.34
2900.59
2875.48
-1701.91
2.2779
13.8847
1695.45
3810.03
-472.549
-1320.81
613.918
-2836.13
1951.44
3258.01
7860.63
870.297
2613.42
-103.251
1465.73
-52.9775
2849.81
4361.23
331.836
-7323.31
-3879.72
-1042.05
1920.47
-922.892
643.18
-1419.97
4399.02
1829.63
-2480.55
-1163.71
1297.53
-729.809
-2888.12
-6635.79
-509.058
-611.205
1181.32
-584.18
-3934.81
1317.8
-552.359
716.532
-637.03
-5475.43
-1967.89
-2804.4
-1292.57
556.259
-2159.39
-414.647
-650.08
826.174
2754.48
177.547
-3338.37
2225.34
1488.55
-878.426
4064.25
-1995.71
-5464.21
-3980.3
-66.9149
2901.88
13787
12737
6195.56
1773.66
4211.32
769.679
-1332.94
1119.02
1972.96
1475.4
4946.69
5327.11
7790.37
7920.93
-144.591
1430.13
1516.77
-1000.28
-595.521
1106.3
-4571.29
-1070.2
5288.79
3676.77
-2223.76
-2915.19
-3687.63
-2042.48
-2757.73
-9119.64
-6910.63
-209.821
-370.533
696.174
1883.37
302.556
616.628
2993.16
2146.13
1979.68
-9659.86
-2005.44
13576.1
5654.44
-3303.8
-1953.59
-2680.6
-1944.53
1118.55
-2426.87
187.367
1285.62
-433.686
-3171.71
250.338
1194.4
2244.61
-108.547
1864.64
-1065.97
-3560.67
-2207.31
-1612.68
-3686.84
-2111.06
4998.92
4062.31
-383.855
-10818.8
-10454.4
-6965.64
-6664.17
-2301.11
-98.4463
888.644
1287.68
-6045.31
-889.886
-3840.99
-629.132
1787.93
-3331.72
-1786.48
-730.941
-1100.01
170.362
6651.55
1645.83
-1415.04
5181.6
-4384.06
-2615.51
9622.76
2037
716.554
3823.03
9708.7
5363.51
-369.19
37.4095
-1631.78
-830.034
-5599.02
-1122.34
10315.2
2830.89
3281.46
-4778.05
-4879.48
2144.04
-925.797
-622.545
2616.65
-2162.62
-6755
8319.84
28132.7
12711
-2595.56
-10924.2
-10406.6
3924.92
710.945
-1384.84
-1429.06
-763.602
-551.996
7673.18
1839.06
773.842
-840.567
1641.33
-3388.97
1429.36
-1678.89
-3442.19
-641.14
-1573.1
4235.3
-1135.59
-12153.9
-2968.01
6386.45
-1058.03
-1048.82
505.526
2921.65
1559.23
-2908.25
5474.67
4839.62
-750.48
-3261.55
-8058.03
3417.44
946.884
-375.437
451.17
-1817.03
-5155.8
-6445.84
-11189.6
-2266.25
-2778.13
-4712.51
1977.45
60.6133
1172.45
692.225
2706.43
2824.06
2227.54
2116.35
1253.66
-68.0693
6.77093
-700.547
-802.971
4300.32
-513.492
3603.32
1752.27
-1454.37
1777.79
1191.57
1151.8
-7090.96
-11179.9
-3513.67
-6061.12
-2759.56
-3521.19
-1584.44
-2979.84
994.868
774.5
-5683.77
-2356.61
490.91
854.505
-3242.92
-5044.21
626.646
1237.52
4504.52
-3589.54
-7780.73
-12048.8
-4553.52
-429.477
-2339.03
-5645.42
-133.707
2180.19
4059.46
-6529.71
456.909
-2589.2
-934.067
3950.12
1394.7
-3086.8
-2563.22
2958.31
5864.29
3125.92
-1662.03
-4153.87
-7396.4
-14462.2
-1043.76
-2531.52
729.962
-2963.33
1852.39
755.665
399.861
776.646
1150.65
-1846.59
1151.19
-2033.33
-1106.4
1047.71
615.651
1451.13
3994.56
-125.351
-6610.27
-1220.38
1027.24
-3842.03
595.17
-1771.99
-125.628
-1428.7
-234.07
-2260.06
-2814.79
4950.78
14053
12695
761.923
-1915.62
-621.779
2907.57
3084.88
-8811.04
2147.18
-5022.4
-9715.32
2588.55
-3936.33
2000.95
4168.46
338.524
-1400.24
-9256.18
-4586.32
2835.96
-1644.68
-5683.77
-20072.1
-6345.89
1582.94
5416.24
2384.71
2026.36
-10220.5
5990.15
3264.25
3460.99
8506.23
7547.63
2645.15
271.014
987.767
2361.4
1526.14
2536.66
-2829.99
-1379.01
376.196
-1203.16
1034.11
-1938.09
-3553.12
1412.02
7717.92
3354.73
3419.46
1587.81
741.46
739.173
-427.1
-1386.7
853.006
1303.94
309.58
851.76
-630.425
4471.16
6778.77
3124.81
1006.86
-102.93
-157.755
227.327
-2796.41
-3074.19
-10161.7
-7387.2
-50.3803
2303.71
-3233.55
-859.555
-3049.49
-4854.52
-7856.37
6952.84
1494.49
8520.29
4292.11
2728.04
-3947.72
-1987.31
-4066.25
-1058.36
-3344.85
-7757.93
-8227.29
-7778.6
7422.12
3558.76
-981.779
351.209
-1901.3
-421.746
1097.01
2993.91
6697.76
-3563.37
-2287.81
-31.8635
2646.43
6063.31
-387.19
-1750.54
483.655
381.505
-23.6634
4173.51
1989.1
4695.73
-730.667
-1082.81
-912.969
-8196.51
-1275.96
-3699.04
-50.0675
-6297.77
-4165.19
-4170.52
-6801.47
-893.843
-2934.43
-7647.08
-10567.5
-3472.42
-10140.8
-1349.91
-5784.19
-2948.47
163.74
4885.15
2752.98
1247.94
1141.66
2141.82
-3601.55
-1667.48
-4880
2920.15
5842.79
590.726
2268.08
2419.66
-1659.84
2702
5561.32
-754.817
-5346.5
1803.87
-2218.18
2202.76
-4297.81
3096.04
-1856.68
5476.88
-210.558
3481.7
-7781.13
-6157.68
-14157.2
-5757.91
1076.03
6617.88
1315.9
1294.66
-876.533
-2223.8
-3615.98
3562.28
11054.4
5548.39
1169.95
2646.19
2199.15
870.517
-2021.72
-4087.05
366.852
3889.87
-182.374
-1734.31
-16199.1
-3001.19
8269.01
8739.58
3554.22
20071.5
8584.28
3284.71
11778.9
7008.85
3004.18
-1005.93
-3221.45
636.432
4106.74
2406.35
4564.84
16251.6
5414.66
6050.77
-4219.16
3177.94
-555.731
-3225.98
-3690.57
-4044.25
-8013.65
-6551.52
-2372.86
1229.33
1222.8
-2504.25
-6341.25
-10717.2
-5568.87
-2370.98
4249.9
6810.1
200.419
-319.754
91.0959
759.864
3116.58
819.119
96.2297
1403.66
-3759.54
-585.092
3162.92
2001.93
750.745
16839.2
7558.48
8821.41
653.505
-1469.31
-1439.12
-2824
-2641.78
-3789.41
-3363.32
7829.89
627.68
-2812.22
-1614.68
8056.26
-10840.9
-1661.51
-1143.32
-2519.86
343.884
-393.456
942.685
3006.04
-5720.43
-855.475
318.865
-4244.72
-869.036
588.503
-1603.09
-744.565
3921.66
16287.2
-1219.64
-2207.39
5390.57
3185.98
2181.53
-3916.97
190.766
422.3
-336.046
3959.54
-1907.95
2699.95
3802.98
3391.68
3022.16
1374.19
618.495
-2185.83
1550.37
-3223.84
-558.007
-2342.08
-4580.43
-1828.43
712.639
1060.67
526.546
11454.6
4370.59
251.364
-4178.51
2184.2
3591.57
6948.81
-1668.27
-2067.87
1030.34
-253.948
-1430.97
2061.7
-2766.19
-2199.54
820.633
-615.287
-561.547
1945.42
477.142
640.058
4356.47
5996.4
226.794
-1337.56
-261.822
-3621.27
-1358.9
-484.396
-16702.5
-8100.85
-9957.63
-4167.32
-5014.2
-5097.21
-222.072
-2338.32
-2604.97
1052.21
-1393.95
-3937.28
752.545
579.672
1214.61
4620.21
1168.7
3635.04
1603.7
613.501
2107.91
-682.774
-232.162
611.3
475.501
-524.994
1646.98
3936.48
-276.818
2911.17
1532.5
-3690.37
-3062.49
-1030.01
-4056.88
2190.71
-1357.15
1967.45
766.148
-636.207
-574.939
5850.39
-244.233
-5002.78
757.567
-1596.83
-86.813
-1997.06
-178.342
6027.36
-2963.21
13332.9
2109.52
8603.48
7206.64
9964.65
-5588.11
-3178.28
-3062.37
-2728.7
4001.87
2414.26
-5405.33
1385.62
791.515
-1902.69
960.92
23.9248
2361.07
-2699.8
-2711.27
39.8113
4453.21
6938.4
2165.41
1182.42
4641.65
3218.52
406.774
3977.2
4584.3
-3416.86
462.13
7546.36
-2903.11
-732.038
952.663
3207.02
8062.19
-573.564
1842.49
-975.51
3157.57
-4222.12
-10325
2344.53
-515.781
4560.46
6755.54
13429.8
2102.64
3115.12
-8521.67
-364.355
295.356
-4926.63
-2111.73
-3120.18
-2399.81
9174.08
661.848
-1992.23
1656.2
-885.855
1219.73
-2327.24
-2356.23
3381.69
3886.48
4544.27
3940.86
-5.31344
-1799.92
-445.192
-1622.4
-3052.75
-103.425
-296.676
-2506.95
5379.47
7679.58
-1464.51
-1177.68
-1881.7
389.78
-2239.13
-1187.15
-4766.65
-1382.89
2966.06
-521.37
-522.297
-4325.75
-235.789
944.267
-3114.16
-2719.6
-367.565
6455.77
4097.26
5194.75
12567.5
10926.5
-1674.15
-7493.2
856.43
5055.37
2573.23
991.931
1455.85
-1072.68
2398.82
3825.24
-2237.56
-172.178
-459.194
216.316
-2948.52
1854.84
1036.1
3225.49
1552.52
2669.7
153.466
-437.562
1482.72
-906.646
-4973.67
-1330.2
-812.013
-2517.11
-2424.84
-2150.78
-3020.88
-795.753
286.992
2862.17
1671.38
3437.7
7729.36
-674.101
-512.247
-2354.48
-924.382
-2559.64
552.465
2244.18
-5278.05
-5611.24
-318.719
-1711.74
4811.69
-1202.37
5870.55
3392.91
4030.11
-1024.11
-3272.53
-595.895
-445.566
5914.07
-41.6466
987.319
-1559.17
-1853.66
3400.89
1397.11
-1406.91
-496.049
10776.6
9166.83
3357.42
604.402
10086.7
-217.844
8542.51
709.304
7878.28
