294.401127
1382.0103074
1363.698523
1200.38255
1503.026898
277.66022
1640.42148
827.391789
212.453402
1562.471041
76.3462
1008.1375944
967.545176
-111.47290454
877.1685
617.870191
282.876208
1886.34654
1282.3976358
145.460979
521.714852
1079.822654
773.7920387
794.346751
1220.2042348
2117.794856
1861.77630585
1506.231118
1331.588197
1343.3793758
307.745227
1624.1732724
913.7188199
2068.444024
97.625862
1194.190676
-657.760368
283.564822
2785.6954737
-774.4067785
-965.330615
780.241559
-104.241758
1128.631006
-171.9445056
1573.285942
1316.0575
2258.6099336
2297.687468
-294.811544
-24.886357
1692.740886
978.04721
681.6235492
664.63730395
537.761568
1436.742708
1372.545757
1485.295648
1533.551799
1576.4761491
1260.519257
1722.5249851
-59.740671
1535.2835224
1404.906411
2074.099533
1000.13843
1107.2258015
-459.136155
114.982061
97.774503
1546.6729846
317.607212
1308.986592
2471.674848
385.292491
811.496053
1129.68415
484.379317
651.207579
530.202592
1898.16219
441.827633
786.9683435
-23.930338
108.086077
608.485808
608.5108687
450.7354005
1196.9668531
433.8549256
629.591499
-155.516352
1816.614798
-269.621989
-533.1382861
1355.3925555
-360.5949496
878.6472441
