-268.95802654
-289.6845658
-188.783156374
-190.75316317
-444.1504728
60.22204065
333.26882649
252.3583554
943.13081695
504.36124652
-411.50101843
-61.74259488
518.7468195
-556.18612091
457.560063592
76.6655566
-73.1733464
348.954247749
417.34487344
-115.6832852
1307.7237149
-243.78172536
683.7194338
379.8744779
723.8539009
345.744790364
1179.14110369
681.69822357
-563.0074578
440.3965454
-268.00270678
1393.5917289
-673.337756632
641.9268446
793.39495986
-196.32316008
-50.1987765
-103.1605194
673.84147146
849.81518772
553.9686278
-29.9157994
217.2742988
150.7282787
790.0518703
685.1313249
143.5924138
515.5736273
333.96119481
706.31616159
199.7154399
-1018.8310042
1029.12707146
295.56578598
995.19835315
420.28167855
34.40631613
121.13298647
722.5459328
-732.40755028
-313.90303903
150.388102749
-370.488597
181.4438637
523.97789355
290.47966699
852.76698626
1189.26367976
807.97212511
-209.5202953
1515.3779939
-471.06124154
-496.1245344
1585.8557745
-209.7886102
323.0696187
-30.664283
282.9424894
1250.1423733
1198.09620154
435.478646
1194.4661128
47.1177364
137.87983917
836.28154537
596.1232814
323.49251396
217.95678294
497.3689055
-1151.32963647
795.8774788
-470.33313656
-6.87665879
-65.6656586
-612.6478769
194.2957212
804.86960881
-545.9231364
663.67215374
1359.20943958
