585.58872996
1195.8783306
716.3517927
812.97667056
1065.2028095
1203.66332369
1410.1552376
1036.3834921
2337.047086
1100.0584347
587.38421095
1105.2437648
1824.1162866
1378.0363415
1903.75329439
1726.1533367
1462.0186583
672.99995887
1571.8374007
1339.92404624
2024.1289248
1967.88095189
1210.2115645
967.32412788
1807.7715515
1366.95159807
2441.0059268
1335.1663698
513.8103455
1620.4106695
1361.7697987
1564.33617214
1346.51742001
1740.1588897
1478.42697133
920.71702481
1428.66217597
825.28914536
1587.08106427
1625.48747367
1781.73352488
1161.19612383
1941.72306173
1935.77241903
1340.93352418
2298.24688507
1507.70111526
821.637789807
1724.82942916
2134.728713
1057.6509743
925.69237281
1628.9542063
652.19277215
1445.65937232
1322.15170442
1506.82009178
1431.02503
2004.86143917
1069.8131674
724.58327572
706.157378545
1415.54959957
1249.0345403
1462.07189195
1120.3805424
1664.80311367
1429.46753265
1351.38201406
1182.47760748
2530.3564314
1344.63366319
812.92569033
2232.93191677
743.30659468
1036.09031478
1333.86450059
1890.6455271
1202.84172113
2521.9805464
686.2051496
1141.3330485
530.24502406
958.48102329
1271.9889536
870.32675331
852.07822021
2079.1967435
1556.4569375
263.83748855
1790.12049758
1410.3821234
781.75649604
795.2993915
974.336354
1134.86698635
1953.40751613
116.055912444
1553.5631346
2152.67806582
