34750.35312
34869.37139
35231.76602
36220.88082
34963.26021
35121.91069
35451.20356
33993.8605
35709.06029
35454.05466
34654.65278
34993.06455
33846.65038
35960.47871
34904.60258
34788.28908
34672.29423
34482.37333
34835.08462
35181.87899
34229.49267
35652.80123
35126.47754
35002.3977
35165.209741
35185.72127
36756.54503
34827.87699
35326.50036
34769.72228
34417.32811
34795.26461
34869.37623
34154.54349
34582.76863
34374.95003
34849.04588
34941.25263
35065.10508
36305.28661
34019.17281
34890.05259
35809.88113
36557.88878
35824.85191
35884.49102
34164.40018
34520.84517
35550.28989
35660.17674
34398.00226
35120.75531
34816.38327
34434.30117
35209.35579
34929.66931
34719.39034
34947.83718
35576.64538
36884.88909
34246.17361
34428.27869
34442.87578
34901.86441
34478.9925
35815.31714
34454.81242
33940.53464
33651.76073
34697.81165
36277.76346
35451.70605
34121.49385
34867.7614
34764.37826
35513.76981
33918.77144
35662.06324
35718.28183
36094.02739
34142.77135
35282.53689
34510.6676
34935.56732
35149.84002
34408.70655
35323.95413
35820.98365
35845.96557
33653.13795
33995.30701
34977.31315
34418.91643
34332.51958
34772.70557
34470.72515
35103.90228
35901.08136
36503.91513
36572.40988
