26345.733437
26458.7789567
26815.9581892
27692.737348
26517.293882
26715.819012
27027.665926
25653.6359871
27275.520796
27016.9379
26263.485244
26603.7967915
25414.7029
27670.2161526
26615.862564
26368.6748222
26351.886816
25990.069966
26623.73855
26921.2464086
25952.590478
27453.592578
26753.1259986
26556.38607
26751.971212
26855.2578294
28236.1041183
26363.092265
26948.0929721
26382.9504131
26060.238106
26472.3745335
26512.864203
25870.7811454
26252.62002
26000.719398
26459.773935
26493.636249
26569.0963
27954.6314406
25707.440229
26494.464534
27336.359163
28160.790641
27343.741527
27483.921842
25748.233435
26069.958848
27142.168649
27106.9165881
25783.75779
26598.269106
26458.6953265
26055.189407
26725.6173737
26479.195122
26382.490197
26715.834915
27286.547939
28307.4331074
25893.796399
26033.1152451
26200.263063
26392.100831
26275.550947
27394.043479
25952.172374
25501.4647731
25489.372223
26333.7475239
27923.042503
27142.8385258
25780.737698
26540.20349
26354.996185
27155.573641
25422.4935036
27144.013402
27252.5574
27775.911782
25666.733478
26847.799536
26264.998201
26418.904132
26713.0823922
26061.0589426
26834.660701
27497.832565
27330.517915
25173.500339
25729.238247
26423.750139
25997.4458665
25884.6597982
26422.451629
26067.0833994
26700.0359505
27477.478798
28096.805631
28040.894707
