-264.8133468
-287.365957752
-22.77614903
-557.2174708
-610.7271775
-153.28451405
408.25754618
225.84023517
680.8720767
446.37550042
-504.84337061
-288.13499442
235.97882901
-439.829203588
208.80005135
-467.96890044
-250.55819197
447.1379783
199.9417144
-144.0158727
1523.98720223
-692.594920887
924.73432207
168.546946
622.80312674
124.491398722
1017.2280131
387.1042467
-192.06936621
251.7462854
-480.9421311
1195.64609887
-1055.06521671
844.47614731
783.6429019
-301.77224556
-259.4337593
-68.81158875
497.3154728
653.8495706
524.66100305
-631.8090077
-15.27233443
150.41185458
584.7631561
774.4174107
15.6624792
546.1869392
-52.24888
686.888241369
-81.01177386
-1198.7580326
1156.7376233
523.9782062
875.9040306
454.4311211
-105.2375899
78.803607933
-39.390757
-739.696004
21.0988253
405.91442271
-517.8356462
155.87991439
449.73720637
27.58987859
507.8610445
1242.3294594
854.96380257
-525.0517823
989.24087577
-1104.370967
-710.23102705
1297.78334353
61.75567127
607.4891672
20.702808
222.07575994
1000.183616
851.6883034
106.938219
859.0384581
181.85422467
136.2467999
845.7490762
503.5558939
405.94366933
-353.56487067
86.0290734
-1178.60039149
800.1974779
-532.87687537
35.243597787
-244.629186241
-726.2483237
593.7400687
437.1521295
-710.49749499
577.116843118
1143.6629456
