1428.10336
1380.97282
1541.1269466
1451.781061
1499.6742118
1279.967275
1504.9350468
1283.634277
1433.275678
1744.58703
1670.533608
1339.370197
1802.857505
1650.135036
1516.5888761
1763.702893
1579.856845
1433.569179
1404.900796
1742.28402997
1585.9872741
1682.054739
1367.2962287
1523.362796
1410.2558751
1338.50857
1637.1802897
1533.685902
1621.059218
1554.2754016
1559.623066
1594.751598
1393.977603
1322.8545726
1559.96867
1422.91666
1345.563304
1590.777585
1352.6641609
1493.609315
1520.706068
1384.287318
1410.95621414
1534.119813
1515.46427
1509.150251
1707.505163
1488.854164
1355.65318
1519.7419986
1534.013407
1353.102881
1539.412557
1473.08593051
1466.785021
1682.675025
1587.318897
1620.9813201
1568.385086
1593.703091
1506.89133443
1463.7545134
1511.8996543
1518.1325171
1563.277058
1507.0135884
1771.7377102
1618.680622
1288.9569961
1653.39722
1357.051019
1593.56963
1624.117073
1744.194381
1546.936289
1431.0783941
1339.645109
1345.039655
1573.373193
1435.509601
1451.716205
1462.754707
1580.643659
1733.966632
1379.237924
1655.343875
1543.4197025
1669.2624402
1624.332116
1679.333849
1478.748278
1574.085362
1598.0753256
1534.4493132
1644.9659374
1407.9597799
1357.897499
1481.315857
1471.836017
1431.218227
1715.4861636
1639.770361
1514.938814
1356.223528
1475.867065
1383.523957
1650.368405
1503.1827263
1688.6052074
1362.50179984
1544.741816
1598.182691
1476.24182593
1692.1610445
1505.891603
1472.29971
1733.733588
1569.6198138
1509.270117
1489.666479
1355.238466
1369.444373
1487.0951734
1700.81559
1443.6625307
1754.892153
1437.350509
1479.374726
1555.571712
1771.668608
1404.0907191
1458.8370817
1306.918094
1516.131318
1705.07123
1823.6851631
1448.617907
1457.232714
1513.585365
1444.0545148
1441.0318597
1537.7610548
1782.54942
1435.841909
1621.001449
1483.280409
1445.962346
1535.7148299
1328.585084
1816.376152
1653.1343141
1552.339134
1507.8456412
1388.194094
1301.134837
1309.204906
1560.763209
1491.714762
1594.70374
1635.118891
1726.394721
1697.865954
1769.805009
1558.995153
1372.6656354
1484.249499
1623.151205
1381.88001
1627.497588
1533.056197
1491.080034
1646.0753459
1712.955969
1486.2394742
1520.386532
1665.8821111
1251.194333
1475.611022
1406.997721
1525.1396076
1431.142979
1485.7911794
1437.777453
1348.201983
1396.525504
1730.7794915
1520.80715
1475.0463688
1510.3107571
1606.9122181
1386.3947285
1531.413587
1527.056133
1452.762659
1665.45015
1451.458531
1350.759126
1349.833654
1411.3913285
1358.2104874
1636.1069745
1474.092969
1549.5529064
1570.1535174
1343.921439
1457.409229
1673.474034
1367.694377
1738.3899246
1500.552411
1925.005922
1704.333294
1365.1107194
1501.553646
1538.44136
1597.0589326
1488.327818
1547.801833
1655.952882
1518.47716897
1355.54281
1683.11287789
1307.588644
1552.617747
1515.162352
1484.133499
1411.249511
1624.863224
1750.790673
1527.993629
1645.0176566
1674.8369672
1443.2159768
1337.866627
1348.873093
1467.2777276
1441.9066549
1440.031761
1360.8996877
1525.3766
1501.280376
1533.6439904
1600.1572874
1306.0551448
1347.853801
1531.9306062
1435.363216
1479.58782712
1404.9288078
1529.4712939
