277.333
-553.865
-755.48
-164.161
432.218
-301.358
-258.857
402.068
-1142.39
-795.157
-482.287
-169.995
2977.48
-127.725
5903.89
3585
1144.1
116.574
-1112.47
315.552
67.6352
1087.44
972.563
-231.198
3.30638
-83.6415
-482.751
185.97
-1245.92
2846.56
353.321
111.89
-3225.76
83.1384
-2412.2
-875.785
-2010.54
3048.44
-33.7733
-1117.98
389.852
-177.915
562.253
1075.32
-335.747
1384
854.282
-28.5204
3607.45
-367.209
-709.078
2588.62
-264.006
628.279
387.421
818.631
-502.604
-2351.82
2344.66
1499.81
3309.53
2778.45
-1231.52
-581.937
790.452
-954.999
-109.042
-970.19
-281.049
-2006.11
-1017.76
-1899.75
3133.66
678.752
-6.15825
673.805
-1591.34
2663.92
21.4736
505.713
273.671
708.187
165.721
-801.844
-646.979
13.6532
159.524
-428.687
-2713.42
-3451.4
-289.187
3640.97
3130.88
1894.75
4587.62
3188.79
14390.3
4288.87
-1452.65
248.887
702.66
-387.407
-375.288
139.583
-1471.7
2876.79
680.594
10974.4
9840.55
2144.16
672.425
409.722
125.001
-1218.57
514.151
-1467.32
707.792
-1498.48
1496.95
1793.14
-714.178
3502.79
3406.77
-1482.05
-1.93228
3462.35
475.963
1621.22
1193.37
2866.39
378.802
197.155
8112.2
6656.69
6855.86
8192.69
9637.92
3024.2
384.219
-2602.91
346.245
6084.35
9625.73
3769.3
2243.81
515.375
-9.53014
2922.87
333.797
-2173.22
-704.399
-3188.62
2045.84
2.66937
-3180.07
-35.1601
-382.241
-272.981
1290.08
-180.105
-500.421
93.1472
202.214
769.695
1122.48
-1591.45
370.508
1153.91
1310.49
1785.21
-837.997
581.152
69.0129
4424.8
139.054
480.797
1603.85
3661.04
-844.614
702.216
-276.554
611.372
163.954
903.532
52.178
-173.477
-663.735
8021.81
4961.16
3037.7
3048.11
-661.85
650.08
132.364
-83.9608
-1123.38
-1003.13
-650.431
-373.551
-176.672
-467.641
470.04
2154.59
1290.03
-414.059
269.823
-82.8914
4835.93
1415.58
2931.27
-229.951
3447.45
417.757
-816.843
7.25022
235.936
971.108
-648.508
363.314
-3457.04
801.402
107.312
378.669
2480.41
5843.71
755.533
390.8
-2070.38
800.392
1135.34
1939.3
3489.23
170.481
-36.182
824.308
-1018.75
2731.8
-671.031
203.946
-651.417
1502.32
-1605.29
-180.687
-488.441
362.582
-1170.1
-2306.06
-2325.72
-535.754
-278.048
860.175
871.336
1637.81
108.971
-759.237
3542.89
4298.92
-450.665
816.539
-265.514
2803.03
638.056
486.211
2691.4
4200.67
36.1054
-16.1053
1560.93
1287.36
548.023
258.675
1920.36
1333.11
-3250.25
2544.95
4803.59
-3169.57
707.307
1072.45
2261.46
109.044
470.43
5606.22
1281.11
760.738
209.599
7561.53
1627.9
-612.825
482.904
1716.8
102.374
174.192
-723.537
-11.0124
-1209.72
-405.535
3612.28
-758.388
2278.45
7919.57
1912.71
2599.99
484.888
429.044
-1159.61
-1171.8
-1687.5
864.398
2071.13
279.88
2099.95
300.516
-2162.25
-972.994
41.9148
-230.166
426.292
-1553.42
1908.52
3480.25
1197.28
-125.74
-1084.85
50.5935
-2534.34
-278.753
-1733.57
-1704.55
-1204.34
-912.939
261.088
1375.77
2836.02
4971.71
5494.14
-1666.53
2894.57
168.076
701.614
732.719
1726.96
1480.73
1001.99
55.4473
-90.6057
-363.412
1595.3
909.798
819.062
452.675
305.062
-1033.33
413.05
-14.8082
141.563
-2446.53
-43.6855
5488.46
5229.76
5213.74
3204.13
2222.59
918.459
106.954
392.555
601.569
-1481.81
447.417
-1086.87
174.421
-108.118
-6149.5
-1813.7
1288.6
5374.35
1803.8
1840.16
1598.43
-475.275
70.312
151.953
-1646.28
1630.45
-1675.06
3021.72
152.664
1106.96
-256.441
433.872
-1758.99
781.264
-1983.87
-891.324
-592.058
1066.16
-1377.59
-1675.24
1011.45
456.713
5906.26
6522.63
10286.4
1248.86
432.906
1137.96
1428
-823.624
-1191.42
1161.17
-514.08
315.495
1470.83
713.833
623.636
1357.09
-65.5015
2466.52
4969.47
-508.171
939.867
2436.56
1247.2
3909.19
-335.02
5067.23
-143.023
871.5
6859.61
-1266.95
-516.838
394.19
274.281
6.29324
-341.024
-983.263
780.396
990.105
1707.52
80.9955
1270.64
8656.38
4128.25
2987.73
4178.31
-1645.04
-363.557
6135.17
6188.02
5719.54
6770.66
2238.12
-71.8657
-619.683
-4425.89
2419.62
5362.79
522.6
-136.779
1040.85
369.237
526.301
551.484
594.476
323.247
1139.03
-2402.74
4205.19
5466.42
-645.432
574.544
99.4982
2099.18
626.626
-162.751
-337.484
375.423
-693.384
-1251.6
1156.74
-667.086
580.849
3303.61
1375.54
710.48
-81.8859
72.7144
-253.196
1005.38
-2069
-468.484
-1485.77
-169.751
-1266.32
755.152
1652.54
-3706.63
-364.104
4246.52
4644.14
3191.07
135.913
-452.465
508.36
711.422
1792.74
1548.45
3621.34
-83.1587
-2546.03
-2115.29
3217.07
8832.82
8576.56
4021.95
15093.4
4664.2
54.9908
77.734
-478.045
4187.69
1558.67
1351.23
1748.47
597.344
1834.3
1429.62
-138.407
-1929.83
349.685
2948.11
273.404
275.142
-517.203
-1366.21
-422.18
448.926
527.899
-482.274
2192.14
2539.12
104.874
-291.721
2723.37
-129.742
1114.57
-632.498
-3762.88
-718.116
-1231.07
1669.61
3739.29
1148.57
1852.14
10827.8
3091.64
2089.54
1528.99
4595.02
127.018
-1361.8
630.35
362.487
-1378.79
-1439.95
684.807
3446.99
4770.36
917.983
460.037
564.851
1309.8
1149.68
-106.451
-6425.53
1348.43
440.617
-612.168
1801.27
1881.94
-1018.5
944.389
-490.077
958.087
1433.2
271.343
-5304.51
-2440.99
739.431
-297.123
315.018
-680.876
458.353
1093.06
-1117.03
-108.292
125.26
3071.62
3792.41
654.608
-1157.9
2525.12
-1001.15
-444.895
2773.93
5782.84
269.811
4798.23
2520.49
876.665
4176.57
10247.3
11132
10575.2
13501.3
2765.06
-229.694
625.13
824.503
-978.469
-1082.8
1850.3
132.21
314.101
-409.792
-347.441
1186.92
971.952
-368.927
-502.667
-1019.33
1993.5
1097.09
628.222
937.682
193.886
2485.65
-1251.09
2634.44
4803.16
6443.23
2002.65
3573.04
2107.98
-1325.09
170.452
-628.373
212.371
354.554
677.068
-415.932
139.232
-320.874
770.229
1520.58
-715.372
1742.5
2124.61
-1845.73
-166.59
-328.469
438.557
6190.37
7631.25
3230.75
9869.48
1528.61
-973.275
767.443
-1138.57
-532.776
2200.39
1944.05
3719.62
-1040.81
443.833
323.997
3907.38
1635.59
999.178
-3202.96
-258.819
2088.15
-1196.37
269.551
290.338
201.86
-198.178
1911.05
259.115
-267.717
799.395
-1365.47
-696.652
1178.96
27.61
-371.15
2279.17
395.462
4934.58
-302.046
-240.531
-1731.83
4601.93
4940.84
10560.4
18.0929
2914.46
-1082.81
156.04
786.835
1834.81
-667.569
3746.04
221.409
859.355
5539.81
7339.23
2918.55
2370.31
1833.2
1098.38
-1951.71
943.471
-43.2097
914.444
601.072
-814.43
-1300.89
2024.58
355.34
2682.93
6185.71
4727.49
2690.99
5576.88
7433.42
-919.751
449.262
-659.942
1325.59
-1298.3
-685.061
-1715.06
3827.5
-110.003
-406.347
490.505
1291.03
815.788
-234.289
1037.61
874.625
954.436
2275.55
-936.41
-1878.79
9.56252
1845.06
1825.89
2772.2
2287.67
-147.962
2931.73
1199.05
10.8381
-701.764
423.958
5679.79
3593.18
1811.82
270.152
-66.9008
333.935
-1058.68
1955.37
176.794
120.314
-235.335
-97.7628
1125.49
1100.24
1454.21
-122.098
5717.88
-2334.46
157.341
-3203.58
262.658
-338.592
7500.92
5874.17
3565.13
-208.657
522.092
83.5829
-30.5917
-1828.78
-374.646
15.4482
3093.52
2268.35
1316.1
-2240.83
-879.229
1686.99
-43.5278
-900.354
-1279.78
1080.11
1007.47
1573.72
345.42
1100.77
4732.88
-11.5234
-701.637
2595.29
2746.46
-655.677
-352.843
502.97
114.477
-26.0302
-1796.82
-71.3802
119.801
22.8503
148.579
4666.55
5149.34
3970.28
2503.75
2934.84
7899.44
7395.17
8202.76
10442.9
1776.55
-2649.78
436.638
525.584
-1136.43
11314.2
335.626
6980.84
1388.58
3024.33
2293.81
1662.19
6849.62
-808.234
-1476.06
2950.37
-2153.09
-1935.21
2911.7
2345.44
1240.2
854.809
523.524
5983.41
1467.75
2522.6
3105.41
-416.99
-1311.29
1864.69
-722.429
834.635
1935.47
-766.577
-830.417
576.446
534.557
5311.63
-1078.39
-460.633
-1240.52
1529.36
1429.15
355.608
334.397
-1484.33
3875.87
2221.53
-426.15
21.6507
-120.426
-236.905
-9.58551
181.427
826.877
700.182
4640.51
4604.89
3415.33
3961.59
2908.75
59.2704
-2287.49
58.4142
2488.62
1576.9
5911.05
3971.25
984.264
844.154
484.341
-215.929
3020.92
-1507.23
2959.03
759.078
763.936
-386.763
1866.3
218.491
4622.88
2826.18
4311.71
4325.1
-1769.37
813.151
495.912
-264.873
2715.43
-856.727
-81.0268
1450.23
-2092.94
671.437
-579.209
137.499
-263.488
-595.382
3483.88
2666.62
-170.044
41.7913
-2752.63
-302.495
1249.37
20.494
-570.625
3295.59
763.263
-992.318
1005.73
-903.091
-821.557
1511.99
2014.83
-1070.82
632.474
898.2
329.397
1737.66
259.243
-426.017
354.404
695.023
2938.35
2969.08
1431.56
531.41
1383.29
473.573
530.607
-1137.29
-1089.39
-967.143
1330.46
1141.95
-755.169
3582.65
5500.01
2097.46
1295.37
1210.61
3884.85
-1049.43
4751.3
4331.29
2344.37
786.379
-171.31
-411.69
-1066
13.4976
-652.209
789.586
3782.58
-731.099
1962.38
910.448
-420.617
-4.96385
2984.56
970.677
6624.48
1424.72
-2204.96
646.993
837.371
6026.69
-67.9711
675.698
1586.66
462.8
-1340.77
2558.88
-88.4864
-2731.3
-373.836
471.273
235.29
-282.71
80.7185
-760.029
756.483
-1816.23
6082.23
1335.31
-1231.16
357.414
-1088.6
-1514.75
2149.42
-270.581
529.233
853.133
-427.438
-350.573
187.139
1003.13
4956.61
6690.66
4972.64
5421.9
3997.74
1974.57
3084.21
2945.3
-654.058
-7059.67
699.846
-2607.76
-350.228
569.02
-1021.07
346.871
-455.857
-1136.08
2375.64
-2186.35
3745.68
-678.765
508.139
543.317
489.588
4656.15
-194.736
2080.67
627.447
-303.338
50.2754
-541.807
849.328
827.598
-447.666
351.54
-263.244
-2397.56
-829.446
-2004.72
-172.613
-359.912
579.609
-649.983
-140.277
27.542
-864.71
77.1033
3065.46
2265.52
2578.67
-292.601
6850.58
3264.41
2284.98
555.769
-219.303
-437.18
1296.38
12475.1
6316.96
3556.99
2013.41
-506.074
-2306.89
1227.18
3711.37
-257.337
-637.922
-74.7603
-720.356
3036.41
11.1002
13110.5
4011.84
5353.77
5633.96
4995.89
2237.64
-525.724
-1341.67
-349.404
-1173.09
-160.057
-1060.68
511.754
-1092.9
-2021.97
-463.44
-1673.58
2833.99
-730.506
-79.4393
716.875
-345.435
3498.29
253.39
16273.9
1598.13
2476.91
6177.88
-455.466
-737.346
2277.86
408.314
2747.35
3488.23
1752.32
873.588
9335.96
2389.46
-338.902
-600.834
1668.16
1243.6
-432.961
3067.81
1770.91
2816.23
-1503.32
-325.08
2122.44
-1543.81
184.906
-869.11
-925.359
-806.861
-1550.38
-8.34454
882.041
-794.869
512.112
-592.874
1147.78
1157.78
-7637.37
-2233.39
-473.01
4470.86
1333.43
5003.65
11459.4
2229.32
1304.43
-2954.28
351.071
570.581
-9.0239
-859.028
4072.25
-443.846
251.798
-143.584
108.646
1853.02
-106.342
-368.742
-472.375
676.456
2466.06
480.892
-517.411
-142.091
-395.378
4663.33
8045.33
11424.9
4394.24
7422.04
4752.88
1370.97
1933.46
1451.31
1176.14
874.039
730.318
-1886.77
906.565
-31.1986
1231.78
288.672
-3660.19
-1810.58
329.287
1898.57
-1380.77
-706.434
-139.137
-43.8358
-114.862
-362.271
-339.21
-482.926
-236.311
5407.82
826.22
177.881
-178.789
1677.13
1549.01
717.945
-2984.93
1419.67
-1541.41
4266.27
3514.02
-618.214
-1261.65
4498.13
4506.48
5316.87
919.302
520.277
87.5441
89.2554
2281.77
2969.41
-1225.85
-2377.09
503.454
-108.87
149.516
2348.57
-4710.44
-571.005
1389.79
-672.818
909.944
1031.88
-1071.01
760.079
1002.67
3073.19
-697.981
1757.81
161.694
-610.422
1103.51
198.058
3415.83
3150.38
-1761.83
-225.062
6149.96
968.439
1656.52
857.371
-88.3525
-201.688
-112.5
-139.903
-515.41
1746.8
-1013.54
318.476
708.683
140.981
-2572.15
-29.5487
276.23
-2667.28
-423.276
2806.62
-1021.96
6227.56
4691.37
1560.25
-1311.73
506.801
-1101.75
-445.168
247.314
821.643
2548.78
-3581.22
978.636
-1262.75
-208.301
-211.356
1921.54
265.595
-83.4403
723.258
-176.509
326.26
495.997
1323.31
5834.67
6723.04
3700.69
2422.95
199.444
-913.907
2835.86
983.707
729.737
110.446
925.317
1148.92
2666.12
-745.866
100.579
507.691
1526.47
-2200.28
4729.19
-467.447
-440.539
370.288
167.147
-562.778
-551.173
4503.38
3821.61
1472.45
648.461
284.4
1191.29
549.487
-140.616
373.392
-339.157
-158.48
1478.25
2132.9
3138.93
327.437
837.576
-473.341
-4030.73
-512.917
476.949
-494.737
90.2302
510.302
5779.76
2086.86
2153.01
-195.175
-72.0361
-5.2437
-20.0931
1983.27
538.376
7363.07
-557.198
-156.089
588.284
-120.398
7379.78
9169.38
135.83
8456
956.138
-67.7102
109.275
1679.56
1049.06
-1630.22
697.613
711.161
795.794
1296.93
1665.03
992.164
1424.21
1828.04
-4333.76
3454.24
1383.33
1795.45
860.427
1857.7
434.612
1728.85
2132.45
7514.48
2233.89
1894.22
544.659
-724.306
-2922.3
-784.563
660.812
2809.92
-1268.46
-626.125
1254.02
-740.602
-809.353
-3144.59
281.787
-529.508
280.471
573.613
-65.5456
-1847.87
2851.11
16676.9
2054.68
1435.75
3416.31
-991.564
397.366
1042.05
9021.79
3248.92
4482.38
2668.66
-855.707
1024.73
164.462
1207.67
8712.92
2466.78
9251.84
983.278
-782.644
621.804
536.314
-1088.73
-1548.89
305.136
-3704.22
668.337
-733.865
-826.883
-1810.51
1214.31
-1445.36
-1114.46
-341.068
565.569
-655.656
-2488.65
-498.603
2761.19
-2225.9
-826.957
-817.672
-2200.6
-942.045
-3999.46
900.18
776.65
-520.965
993.184
-159.725
-759.713
-824.529
1074.32
-456.711
-452.132
164.3
460.741
575.299
2339.03
-937.811
-878.925
-1413.97
847.357
-589.935
119.771
351.066
-1178.33
-69.7329
907.879
350.383
-911.467
-127.017
18.7492
1890.37
1026.15
-735.722
1088.09
4317.54
1221.17
2587.67
3468.02
385.965
750.498
1074.39
210.418
-428.354
871.214
-1311.25
542.672
2209.36
-268.195
1227.73
-1161.07
-28.2382
1514.36
-1584.74
-125.376
1421.72
-554.547
-2608.25
3311.56
5510.12
3750.71
5.64715
68.6234
2710.75
1722.74
-2489.73
-146.347
-975.586
1037.53
-4187.92
474.012
-530.496
-2194.16
4757.32
-1908.73
-1258.2
-720.918
-3327.95
283.931
2365.57
-279.873
289.073
4258.81
7323.13
4076.5
-3484.21
549.326
3299.48
3088.85
427.656
820.532
1124.98
-312.031
-4469.83
-1902.13
6288.76
116.697
-963.448
1945.82
65.3065
682.305
-234.315
-1860.41
593.988
-73.3456
353.265
635.837
1000.52
-635.933
-170.579
1350.6
9056.87
2766.96
983.844
-313.534
-86.7415
-26.4692
-4650.34
-559.091
2342.04
-2397.89
631.991
167.991
2529.66
-345.074
-317.333
-1216.04
-191.007
-50.2188
332.672
-330.911
-2539.94
1530.09
1662.91
70.4765
-1650.13
664.502
1173.89
5623.74
1678.41
2029.16
8120.5
4847.05
1988.7
772.823
3019.7
-635.079
-1234.56
746.06
-643.363
-3100.88
215.991
8983.84
8458.42
1625.08
1495.43
-2530.31
-3359.66
-191.594
-142.52
1846.25
-219.472
32.4637
433.622
325.207
2014.71
-908.332
-2119.48
572.677
282.832
2063.99
2892.59
1572.61
2865.11
-44.1895
2402.5
653.018
-1671.68
-19.4102
3660.06
844.851
-109.261
-1565.96
1814.01
-1388.92
-661.008
967.813
98.648
196.809
4613.64
15239.3
8407.02
2766.68
965.245
6053.72
8410.04
301.174
-2136.84
-384.872
-551.42
-61.4645
-896.205
-362.833
1123.75
508.229
2121.52
813.994
4759.08
4237.81
728.65
-667.954
2244.18
2610.04
623.742
2512.73
-1300.27
-1004.36
-2124.52
-1624.75
-765.799
-266.193
3153.49
661.591
603.002
2618.7
-809.578
-1021.53
-636.474
938.489
-211.09
-92.2176
-3318.81
-607.969
2201
-242.64
1582.48
552.979
83.8907
1107.85
-931.938
944.721
415.626
404.711
126.009
3125.19
4087.87
-1293.84
838.128
116.083
-639.472
1053.23
57.4052
2405.02
328.601
-38.075
6885.44
560.079
2302.08
-566.562
448.017
4567.25
7054.8
3174.5
2312.93
-414.547
-614.666
70.2467
-711.476
3764.57
7619.55
731.331
1171.23
3457.21
870.138
4246.99
8612.7
5105.12
-132.533
2298.91
5769.66
504.402
-363.516
1218.45
-69.2884
899.075
-1168.23
4122.15
291.192
-524.972
896.834
-150.186
147.047
884.993
-2668.09
161.85
305.62
-841.652
-399.922
5575.43
7739.27
6285.11
451.351
5396.02
6377.93
2731.24
3744.97
-493.541
4230.81
2551.6
3377.83
-74.422
471.96
56.8823
-79.6072
-279.47
467.711
-1359.27
31.2954
-634.826
6898.27
2292.83
-603.695
3644.94
5659.97
8423
1807.97
3092.36
814.755
-347.032
1218.64
-985.9
-438.48
1172.33
-943.732
1621.94
-2227.35
-372.813
7507.49
916.185
289.873
-296.96
-691.248
-572.471
2552.95
-1060.31
3650.14
599.553
-183.08
1155.59
75.5283
2241.39
17.2547
-2990.46
296.078
1460.87
237.884
-142.122
791.248
739.992
-125.662
433.054
2117.77
-1260.18
-453.723
-32.3391
1840.15
5597.2
840.306
524.677
-762.496
736.549
-3250.68
292.197
-743.163
546.209
84.917
586.62
2346.89
2951.24
4994.44
-1577.98
1414.68
-260.935
-641.574
-975.381
1489.83
975.651
-693.788
1592.41
982.821
-1486.71
486.054
-412.459
1896.26
-476.418
-260.272
457.537
-395.265
-858.609
1955.67
1986.02
3591.96
322.688
-1720.77
-1330.84
-285.076
74.2726
1588.67
2612.55
1736.75
-1905.43
-1126.48
2273.01
-567.63
645.103
59.863
858.845
-294.279
-158.257
734.194
-681.998
248.047
2441.28
3989.24
1549.74
-515.201
-655.622
-478.527
-360.649
-1017.97
-550.6
1601.84
2128.26
567.522
3141.09
273.2
-952.798
-1046.7
4842.38
-56.5186
1037.54
67.3289
1868.3
3413.37
2879.34
154.918
3276.51
7432.83
972.135
391.785
-1323.74
-1790.46
207.797
2686.44
-161.025
-326.091
1111.07
807.076
1508.93
490.353
1782.4
-206.446
1756.49
1987.82
-322.42
1143.69
2653.74
10305.3
880.7
1549.09
2978.49
1194.7
-646.957
188.913
-1015.69
389.989
2504.48
-139.348
2311.33
-379.4
2246.19
1041.81
829.657
-3034.91
623.51
1051.24
886.945
2534.58
1511.11
750.258
-2107.54
6559.84
2165.13
-1840.84
847.137
-1687.09
1735.44
-193.683
204.606
973.589
-871.863
4563.37
2628.81
1938.92
1810.16
21.8475
-876.58
-409.789
-74.8544
500.139
247.677
437.89
1453.88
-366.265
267.204
58.643
1510.5
1565.62
2425.9
-93.6742
-397.243
10224.5
353.252
-135.909
463.191
-531.231
-466.356
718.131
1389.04
2042.23
725.106
1501.72
-1832.15
-1171.86
-1397.88
-2997.74
1100.13
-385.755
248.817
-209.339
658.952
-620.143
-11.2308
2005.29
1339.18
-439.19
-451.079
155.928
-296.049
1589.68
1035.97
4302.75
3966.55
721.563
1965.14
2895.32
2034.17
278.533
-138.422
-1520.19
101.7
-1364.08
1604.94
782.803
1017.99
-4205.03
1089.78
-3337.85
-2542.29
3124.51
170.6
5683.93
6993.73
6379.17
223.203
34.494
1948.31
174.672
3980.96
803.395
180.206
-2504.52
-2745.81
176.201
227.013
1495.39
-1172.23
-1797.25
1187.59
1528.3
1489.56
-817.499
-1813.3
2415.2
733.823
-1253.4
-365.886
1290.73
1148.1
1213.68
-577.782
1067.91
-11.7986
1056.66
934.598
574.608
2762.57
2654.79
1049.18
5534.9
3035.58
-1289.27
-405.135
5508.9
2473.07
2451.28
5605.97
2710.12
3406.89
937.831
2831.05
5678.88
34.9133
102.031
2222.21
-415.936
3225.79
-62.776
2979.28
997.191
-1710.82
-816.593
-19.4456
-80.0737
132.48
-107.777
1467.92
-511.139
-546.012
-395.603
1809.95
230.468
4424.59
-312.706
-1835.1
-1495.58
-1646.77
326.692
2065.6
886.573
-774.53
1716.61
6404.33
-178.74
-1081.76
678.93
411.367
671.765
-1388.16
-475.176
-313.812
191.541
-913.951
925.286
-28.186
498.781
1119.68
442.23
235.055
-758.839
58.1459
930.395
645.156
2028.85
26.9416
215.356
-34.819
1121.69
533.764
3149.95
-681.004
2862.03
-1592.58
-1641.16
715.606
-475.368
-1428.3
603.892
-106.754
1882.18
4073.75
-3.87872
1820.45
2058.79
-715.316
8850.13
9825.45
3211.92
10367.9
10791.7
8370.33
7166.88
11683.7
430.051
-1243.27
519.772
-392.292
1379.28
201.497
-72.1982
142.199
3830.13
1761.53
372.418
2002.52
2197.94
1102.84
-1287.81
-805.741
-3593.69
417.442
328.914
4964.02
1630.88
4439.57
2566.31
515.051
-148.107
4329.77
-59.38
-927.189
2079.92
-647.972
5015.75
3919.5
3275.29
-61.256
182.64
4813.13
7305.51
3724.38
4135.86
7168.82
886.049
-507.623
-564.841
530.186
144.116
505.775
199.84
-59.7702
-1279.52
-271.603
808.635
-360.846
-588.396
-250.333
916.15
709.968
942.899
-1632.24
-705.22
586.321
3367.51
9427.43
961.459
535.123
1461.82
2759.98
152.724
-2089.68
3593.25
-1921.05
-1238.91
-84.033
2780.87
783.242
1695.56
5670.61
2126.77
4546.72
874.581
853.39
78.8294
-1292.97
875.241
80.8485
272.103
675.853
-68.9856
1989.43
-518.089
55.0605
1172.29
760.326
-377.561
676.237
-249.799
204.178
1312.33
3046.88
818.277
2268.65
1831.58
2600.14
-1223.78
2789.21
426.13
-2961.25
1411.25
6032.53
-1133.82
2128.29
-595.753
206.217
1571.18
53.2373
-642.521
896.434
-74.8015
-6.90009
852.107
-1080.58
-98.789
-2496.91
3229.5
10213.2
2917.69
-1835.24
1639.05
1490.28
2312.83
-837.105
1583.15
11943.3
6979.29
5863.17
1102.6
-362.751
286.096
519.034
2087.71
-487.213
742.285
-658
838.614
443.841
1645.33
1898.1
917.996
178.141
-2947.24
2232.85
7749.16
1008.16
-512.439
-1489.32
-1859.47
-718.673
430.642
795.26
-275.033
8.21743
1219.73
2870.91
2466.05
-249.999
2328.2
-1405.31
304.056
1473.01
-2147.99
1436.12
3107.38
4868.79
1757.55
4013.82
2256.51
2250.13
-144.507
-398.653
1065.02
1605.82
156.323
1675.49
1168.29
947.611
135.39
-2096.15
-5389.44
459.207
-3032.14
841.846
434.393
-1364.01
842.205
1516.93
4944.82
337.391
4608.2
-231.012
-304.953
1496.37
-95.8563
-540.67
-4697.91
799.185
1959.92
-723.324
6126.43
959.041
144.502
424.073
-879.566
-626.35
-464.978
202.656
-1165.73
3249.53
3447.1
739.986
-537.818
-108.027
963.044
860.37
-575.483
414.087
2795.94
126.06
-231.145
1634.15
782.004
-533.476
979.588
-238.297
-1395.52
4981.01
7009.2
341.915
7680.88
2249.78
1367.62
1194.51
-449.181
-2766.66
-516.614
-2496.84
1553.86
1632.22
3277.9
4541.42
-1218.66
-83.076
1629.34
1143.3
134.363
-828.814
1312.09
-70.3399
584.59
2498.38
3977.61
1621.52
-484.602
-501.358
409.267
693.064
-790.061
439.878
6504.75
2206.3
3312.25
3399.04
-198.238
2344.16
5622.51
2370.19
3683.99
1320.53
4744.98
5340.32
1953.23
8258.75
295.536
-1618
-2073.43
6045.64
-296.028
3813.54
-588.21
-400.648
657.64
4.00778
-2026.99
-2819.91
821.002
855.681
-363.137
363.992
893.018
13070.1
4230.17
483.163
-921.881
-892
3332.72
737.397
5292.51
8.56029
-1069.77
6702.67
2160.53
1625.53
58.2503
1980.76
1758.88
1989.37
606.169
-105.356
1380.22
7646.53
1552.8
248.259
1905.33
-1151.3
311.657
1372.73
2027.76
1323.33
-111.583
1265.61
634.842
15.8824
944.91
-1198.86
-276.496
603.222
-559.579
-312.981
-328.06
-3778.43
-2741.49
1772.15
-91.9397
161.997
-2660.13
3160.55
9907.23
3318.7
98.3561
1293.96
-2806.77
4340.75
3010.99
4923.13
-630.526
624.546
1162.89
-35.0194
-2460.01
1195.59
-31.81
-1016.59
1118.88
1826.15
701.057
-1473.23
2114.26
684.62
171.738
53.29
982.645
96.96
-2653.46
4779.2
2236.54
-982.242
-341.199
-282.313
194.801
266.403
930.359
-77.0887
-621.476
-366.839
1431.67
2099.83
-60.9168
493.431
-245.81
459.491
-152.469
50.2333
-1705.06
1570.54
361.735
-323.934
515.347
1457.73
-742.809
8595.91
-1240.08
-1675.14
4593.38
2447.45
938.576
8559.17
-1261.39
-1722.05
137.501
3863.78
1704.93
-908.462
-1074.3
1588.43
-579.818
-691.835
-1618.67
768.535
-895.512
70.8123
57.5691
3893.27
7755.74
5019
4963.98
998.128
-113.127
2771.29
10928
1025.03
3676.69
-924.536
-411.701
762.444
594.799
580.749
-191.458
345.129
8050.11
709.911
-1409.99
2419.11
2462.29
621.961
-470.567
1277.32
-1766.93
-14.2959
565.92
660.083
153.755
-464.268
745.409
1229.27
1592.13
2719.49
582.933
876.635
-2254.49
23.8334
4108.85
319.613
640.19
-1095.36
-717.848
2407.7
1.79264
-1038.95
-385.364
-564.677
-144.229
2237.83
527.692
-378.841
974.584
-1087
2537.59
591.465
3557.42
1484.91
642.741
-30.2741
1091.88
1161.93
-1163.12
1086.63
-1517.84
594.714
12.9245
2741.88
-2626.78
438.967
1072.63
2168.76
313.389
-269.48
-2124.91
-168.231
-3451.34
-581.388
129.418
-1995.28
288.217
46.6844
-710.893
159.238
569.157
-1378.23
-408.171
1352.14
-332.47
5094.62
-21.9009
391.4
2249.58
5559.24
16.275
-702.404
1128.88
-555.132
2909.35
41.8039
501.855
-1151.22
-324.548
-71.8698
-640.164
-986.11
350.57
407.519
1796.19
5837.22
9804.73
4292.2
5358.87
3495.17
6124.31
6704.86
3450.88
1767.74
1412.88
3588.19
4730.66
1392.38
-518.552
349.729
-1170.59
-634.814
-458.258
-945.382
-411.344
-1753.21
563.305
-484.247
303.999
4010.1
934.968
148.747
-545.304
840.463
-2527.86
1887.02
-1511.74
1018.89
-188.825
-486.908
-226.899
-388.519
1311.96
4020.86
1376.83
-1444.16
-1077.87
2864.8
301.568
6243.04
-424.648
94.8418
341.483
-218.664
-82.8934
-565.686
-275.105
1591.11
-707.918
-338.352
568.421
-690.334
-736.555
1157.06
528.599
704.887
-1784.13
-207.831
-564.795
235.522
2175.11
-240.33
500.552
21.3008
-3684.8
2479.09
1028.75
-906.889
-1037.7
489.919
292.604
10465.4
9874.71
11703.5
12242.7
8279.33
8429.01
4442.32
1345.16
-2363.08
1157.72
1259.83
2650.31
7615.35
-237.57
910.769
490.56
1079.36
-1127.04
135.912
-1679.16
201.029
-166.103
2902.44
-1369.82
593.351
4197.77
1097.68
161.248
1565.46
2562.62
2754.14
492.602
3927.61
6346.37
9273.92
4658.29
-221.341
1553.61
456.953
5034.87
-1300.09
5079.82
3446.59
4018.3
9524.83
2587.38
1079.46
4044.66
4021.16
-387.74
1944.9
1689.3
1157
-2582.63
-234.745
792.325
-2286.51
999.275
195.724
370.848
320.569
-1085.72
1293.89
221.305
65.6467
1937.51
16282.3
6545.74
976.679
498.682
260.604
-262.308
1919.83
-2046.48
-1391.74
1255.47
1784.18
-2112.85
-456.467
-2584.44
1087.05
-1289.63
3408.73
2950.78
-1719.45
-1548.55
190.612
495.175
9695.58
9604.62
-1176.5
1464.33
773.304
480.558
985.39
-2393
1872.51
3767.68
2972.75
5454.14
798.349
557.183
-492.686
1158.34
2318.9
2352.24
4795.9
-748.975
645.097
856.09
2739.37
-78.4777
2235.28
2069.64
5740.75
1211.35
-114.538
-3.41152
1466.55
129.785
2160.3
-1155.08
356.432
648.193
480.718
6532.88
2668.21
1289.36
2354.44
689.262
54.1356
530.637
-658.019
2103.24
1589.02
632.349
1029.94
-423.942
-1209.65
1056.15
-52.8904
-3.01983
-1903.35
2916.15
896.961
3020.81
2059.82
2049.18
4761.75
-2616.76
2050.14
732.107
268.28
-1036.85
2235.5
-1560.85
-2870.66
255.812
-59.2952
549.942
4210.41
6.68625
148.33
-18.0804
574.734
679.641
2404.95
12354.1
8205.79
5776.23
1147.34
125.491
2459.97
-719.925
220.912
2003.9
222.755
-656.266
-658.004
-167.554
569.84
1918.43
-406.183
905.55
1219.05
293.127
-1138.22
-1159.03
-1545.98
4549.6
730.8
1740.59
1204.59
-41.0845
-517.555
405.776
313.784
1145.74
3932.32
-465.389
1136.11
-524.319
-462.211
718.044
742.868
1158.2
104.831
352.395
-1652.94
1588.97
-348.299
509.274
-452.691
3769.14
-729.245
1751.92
-153.257
-413.675
2629.11
2588.31
2963.52
973.542
3545.56
2686.75
1317.15
-2265.45
971.402
-16.0815
1436.79
-364.594
-434.284
2719.41
2173
1294.55
277.466
4206.13
-957.528
557.624
-97.425
-460.204
-1767.46
-356.475
652.996
-812.319
-1313.75
1041.01
1208.16
-432.738
148.911
491.81
664.562
-1010.7
-599.171
295.195
-909.67
-342.996
-400.637
-2168.42
272.987
-38.0775
3716.56
9275.07
6791.71
6065.71
1663.25
-3.82079
712.711
2498.96
707.171
2101.01
1780.56
98.5041
-256.684
407.883
-1821.97
225.422
-939.711
193.46
-781.915
2359.65
2639.43
-5702.48
667.646
-1374.73
429.639
2264.29
37.5137
-1766.97
272.874
3101.36
6334.15
8049.42
4268.99
3715.69
2598.91
2361.29
9367.03
10388.6
820.834
-1175.77
111.054
-407.969
-2199.35
3834.98
-13.5694
-1961.58
588.677
-3751.65
992.171
-959.68
-224.884
2216.89
1446.68
-2770.14
-873.275
-3953.98
3014.97
3319.76
-270.254
-627.46
1293.32
3399.06
-680.679
454.504
-1636.71
495.957
-226.602
266.272
-217.565
607.683
738.428
687.622
429.185
-604.391
-468.849
-978.598
-332.994
1760.77
97.3559
3237.44
985.577
3554.14
-1575.81
-2542.42
145.594
-457.992
-394.454
-3173.64
-1097.1
-251.867
133.799
425.572
-266.759
-665.584
988.161
1652.64
1367.7
776.27
-476.74
4205.61
254.082
1879.08
-2291.48
542.824
-531.526
-404.373
-287.022
-126.743
1972.17
-114.948
4079.88
2992.6
2392.55
1320.38
833.834
-1820.2
-1343.91
1815.89
-74.0926
403.049
-712.353
57.2765
-97.8351
-1215.69
869.362
-3397.26
-884.483
357.404
1284.57
844.746
290.745
1776.45
1976.41
196.412
-27.1657
-653.835
3718.41
580.711
483.745
-45.2797
-871.843
1951.78
1684.6
-1014.5
625.175
290.785
-1018.43
2.39591
2328.26
828.511
-455.875
778.623
606.323
594.704
593.451
4930.32
4450.5
5246.56
1778.68
657.325
-3805.55
947.219
526.689
-257.825
-969.833
-2397.67
743.42
1186.38
3232.55
5692.28
945.277
881.637
1.46023
-40.1662
-238.041
91.7416
621.624
818.799
490.733
738.945
-221.115
3606.4
247.972
225.746
-349.054
-1269.27
345.809
-331.397
-569.732
-1814.36
-113.45
1692.75
-332.387
-196.684
-37.1554
886.366
4701.01
-93.2464
426.347
503.174
-257.446
3381.02
194.035
-449.997
3313.73
-721.274
341.289
-3325.99
-577.805
803.52
-383.125
1492.9
2577
453.153
35.6062
1023.34
2908.46
-156.535
-1283.09
54.0774
5347.68
726.558
516.349
1731.63
-5237.97
869.854
1435.5
710.54
1128.58
6608.83
6085.35
6331.6
457.549
397.518
-763.12
-108.029
-604.022
-1387.72
-294.775
1528.95
519.543
2584.72
-934.542
-191.41
728.28
1820.64
437.881
1500.31
514.921
-350.081
418.417
-2286.02
-1407.92
-7.84887
-89.7976
1266.69
-38.8365
227.933
-552.357
3134.36
-1283
617.536
251.287
2119.01
8353.98
2094.6
1066.42
-559.469
-373.446
833.568
-4018.31
770.071
1722.53
1680.75
-596.85
12698.1
2200.4
7195.99
7924.6
-1702.35
766.128
2537.72
-796.194
718.152
-909.866
189.67
5457.32
547.297
1341.92
881.631
1830.78
-620.414
-701.737
5102.82
690.33
1423.42
386.568
1449.42
-1047.54
603.038
2149.38
1469.91
2666.6
3153.58
1627.67
373.293
986.294
1584.7
585.655
-601.228
-140.171
-234.479
-492.289
41.0765
-259.957
-1496.45
-285.386
791.349
52.6446
-3685.61
1759.87
430.314
-1434.98
-309.11
-1510.45
-541.561
-390.625
-162.993
-820.56
237.465
1372.91
-3095.82
4492.86
1553.3
3076.79
2159.11
1055.89
-1760.17
1364.17
2966.84
862.291
-1125.31
352.2
-2255.17
515.939
281.467
-1190.82
-3215.04
-61.5201
-2297.2
-292.365
-188.954
154.472
465.756
3832.38
867.538
5183.83
7437.65
6929.33
3332.41
6693.99
333.555
-1621.62
-908.711
955.558
-1054.34
2446.5
484.286
136.694
-224.243
1679.71
6569.45
3558.71
3682.57
-62.8075
231.005
1229.89
-721.335
347.921
-1567.6
-27.6193
294.544
1072.19
247.203
-923.142
2591.18
1042.67
1528.01
-1088.04
-704.491
2829.79
3163.28
2582.93
700.006
-836.668
781.287
-28.7567
721.533
670.037
1534.55
-426.899
1105.24
-697.088
378.424
475.929
-421.56
1200.22
-149.478
-1304.18
-1988.82
-3319.95
601.952
-163.749
-728.394
1218.32
1846.19
-897.214
5158.73
1069.25
-296.855
-643.983
873.762
1701.11
3705.87
1020.78
1425.49
824.717
821.314
-1803.75
-405.671
801.112
1061.97
3506.12
7357.2
23.5437
-1982.08
-3563.27
726.848
-5161.16
746.85
4199.42
282.301
-214.261
556.246
-1646.2
-479.431
128.024
1821.95
3535.29
-351.355
-247.936
5060.49
901.889
408.727
-359.812
3724.95
3521.08
-680.939
-1062.2
-119.513
-1943.34
-556.333
771.957
761.896
-338.335
742.111
2289.32
-772.89
-381.382
3342
1076.01
-1385.4
5827.16
3660.24
8843.05
-1583.26
651.053
-2800.57
544.381
-4688.19
-4088.85
1057.94
1639.61
430.286
-1325.29
-879.76
781.092
-417.332
-2367.54
-511.146
28.8014
3175.15
-637.51
-163.161
391.706
2000.49
750.308
423.706
1403.83
-1581.67
3025.08
538.301
-283.547
2219.5
22.2268
2552.77
250.55
-593.992
-228.157
1073.27
895.701
-227.276
317.392
929.567
-2272.16
4799.02
1838.46
-792.238
-132.123
139.799
2197.9
566.575
578.294
901.835
2545.62
-291.466
-104.43
1.45525
355.253
-745.709
-834.415
-884.777
707.852
-317.356
2131.83
-396.076
454.911
-388.829
6.56285
-523.765
553.539
3531.73
-243.17
2952.59
-378.131
138.877
3575.63
4532.4
-1714.28
3640.16
1818.32
509.255
586.555
1678.03
1.29438
-635.845
-349.15
-612.544
-1877.74
-1967.04
842.711
1587.9
3948.4
134.431
-449.186
861.268
568.287
-1800.12
-2671.09
1180.05
-1300.97
488.919
1075.74
1135.93
-580.895
-88.034
-828.42
2783.46
-115.944
-516.699
1770.69
5857.17
3816.51
1206.79
3773.94
1008.07
-226.278
3214.63
1021.02
-194.495
1927.77
-623.54
-92.7369
-102.776
196.84
1286.02
-674.051
-1420.53
13757.9
-369.617
2386.2
373.859
2087.25
259.034
608.025
2402.47
-1482.56
-1405.68
5162.98
793.561
1030.76
-4558.77
49.7844
-2150.34
1956.76
3260.62
-2818.85
1778.41
3538.77
-376.028
-2604.43
3853.77
-1279.07
568.246
928.827
-419.275
-936.315
150.501
-334.14
3692.43
-472.102
383.405
3088.22
3552.63
11147.6
2256.19
-735.884
416.83
1905.82
2192.06
-259.421
-1390.24
1000.9
1541.44
768.443
405.233
2775.86
-400.711
172.032
-371.224
-427.019
-2579.82
1837.2
-1907.69
607.508
742.816
1032.64
167.052
783.474
785.762
571.368
-2269.98
881.424
-1588.76
-2789.88
-1387.76
960.578
164.115
-3353.5
74.4143
-487.032
270.606
-1764.25
2300.57
685.396
-790.566
-95.7128
982.187
-216.89
1652.02
-1795.86
-1121.03
1836.65
-400.549
-96.1984
611.118
-30.4972
-465.422
842.666
1904.93
762.64
1745.42
-988.318
17.8599
441.278
1133.56
-242.157
-149.262
-2068.28
3458.96
3020.42
1182.72
408.954
-745.484
-609.514
2159.83
1113.52
-432.371
-379.113
1369.9
4252.83
2498.95
1944.27
3329.88
18.2649
-231.226
483.212
-1297.16
2037.66
1226.33
1058.28
2044.72
5367.34
-1504.92
1342.47
7517.33
4509.25
-1898.9
-921.488
-563.555
425.831
4517.25
4232.73
-959.874
1042.91
655.825
-3211.97
860.813
4687.26
3468.42
1328.67
-527.408
-417.225
-287.27
716.369
-2361.8
1150.55
957.454
377.084
3391.95
575.177
1281.73
2243.94
-495.878
-3695.73
-771.232
267.146
2323.52
-284.249
1238.61
2000.75
46.4173
-14.8206
311.353
4447.35
1962.86
155.627
697.174
7597.72
4606.9
2079.59
-1649.96
1555.04
-981.686
-128.885
-274.745
222.081
205.539
953.991
3344.28
-2955.77
4464.59
495.145
298.43
325.54
-232.544
1245.65
-1054.73
1186.66
1743.24
-347.736
1651.99
29.6658
76.9694
868.708
288.548
2147.99
1990.39
6.67827
2224.68
1162.95
-2509.54
2301.6
-259.265
2355.69
7564.53
4962.05
6470.68
12531.4
-1578.84
1313.85
-1354.02
199.348
8738.29
2372.67
464.509
-275.086
1144
-125.135
-316.777
-511.227
4467.36
924.391
-311.046
2.21207
455.243
1657.91
9135.83
5345.52
697.132
-964.393
2270.99
8694.25
1868.49
485.468
359.525
3188.22
1422.71
-1180.47
-41.5447
284.939
2475.22
3547.57
12974.2
2465.21
-1317.59
-656.837
916.413
-534.66
922.42
2258.08
1189.51
1635.7
1045.77
556.82
-347.903
-2020.55
-887.346
966.466
761.537
-103.809
444.759
1341.69
240.432
6530.4
727.062
2506.29
-659.029
-379.856
-1308.69
2161.48
2761.83
5486.53
-2344.8
239.442
-157.723
4043.23
5394.89
30.2281
-474.785
-302.126
-73.9529
508.302
623.439
-1032.98
-371.018
-2430.11
-18.5321
210.815
-1261.04
-1418.01
3248.97
3761.13
759.96
2353.97
-3185.29
323.153
1744
3129.87
4525.59
-53.3128
5312.5
5317.69
2504.04
431.579
824.963
-302.593
-595.438
314.602
48.3298
594.75
1570.74
4959.2
7260.65
5719.31
11400.7
4036.91
423.375
-1452.75
448.022
131.598
4783.13
-1048.84
-1040.8
-1162.72
-1525.96
1973.61
9891.58
12028.3
3339.5
1932.67
53.2295
479.534
192.724
90.3475
358.811
182.583
462.3
6024.17
12106.3
12721.8
8668.68
1582.11
1833.99
1278.25
3162.6
-385.91
899.043
735.131
-639.314
1497.61
77.7591
92.4756
-49.0814
1616.33
5438.88
-1300.5
42.9981
1011.62
-834.725
3864.21
-1207.04
318.455
-475.231
237.006
916.047
-115.489
1995.02
-1857.25
552.861
2844.61
1960.89
3045.87
553.052
-535.906
-1895.47
-590.47
1292.69
622.602
10537.1
3844.74
-245.11
-1430.89
1126.63
4627.07
17273.3
13382.1
5579.34
1243.74
1226.03
4712.81
2931.44
276.959
-458.857
-356.659
1469.96
-509.577
-1396.22
2920.51
86.4646
361.6
3174.5
3019.13
-1811.41
148.826
-479.697
2889.96
135.594
668.656
-394.426
354.07
731.667
-696.597
4364.59
-973.272
-2577.92
584.43
4211.81
4173.09
1242.04
2842.48
3405.7
847.134
2236.84
1584.43
1011.01
855.253
-397.706
429.63
24.4404
-94.0785
-583.988
749.953
1347.16
-862.51
1287.65
1396.47
-364.197
-484.383
-1314.1
-1323.51
1214.65
-208.276
525.66
5616.75
4455.19
3374.64
4613.89
3150.84
2474.78
43.1789
2002.37
1429.67
-321.156
-913.326
406.066
1750.01
-516.255
6379.49
3004.65
7893.96
3185.5
1690.82
-288.791
-226.821
-326.233
-1090.7
679.946
540.621
-73.7051
5821.5
8236.64
3011.2
6185.34
-1767.93
1775.29
1566.57
-5.93606
463.302
4944.85
-776.821
6280.82
-163.225
598.501
-631.719
276.19
-1068.92
-250.747
2882.64
-522.661
474.234
572.602
4129.89
65.8742
-2955.63
-533.941
4415.61
11080.4
2769.68
380.539
2072.28
494.157
8399.08
-106.8
-3093.33
2356.56
-62.0532
-686.111
-829.192
1902.8
1020.44
67.1566
3314.63
746.137
-607.588
-1787.38
89.5029
-3998.04
-1271.47
1786.3
1780.17
169.673
-1463.59
2833.46
39.1942
671.447
1211.26
-458.686
-1532.91
1133.43
1226.17
613.037
756.225
-1123.05
2242.39
-447.455
3063.31
1480.93
1669.56
-63.8924
-320.44
1090.99
-775.31
-2940.49
4137.55
4905.03
9965.16
68.4548
-1144.04
961.759
698.879
-540.941
-1760.16
961.672
3917.34
3560.95
-538.181
1842.21
1772.3
-1453.63
1998.23
5949.22
3399.84
1363.39
-2763.86
-1108.47
2122.58
266.711
1701.87
1117.16
225.815
-1772.27
1257.18
458.934
-305.998
356.675
-452.176
352.56
1323.21
409.502
3961.22
1325.06
-275.048
-73.7068
2801.41
1490.17
-1994.9
343.903
3798.4
9555.04
4487.23
8336.92
11051.7
2150.86
-150.802
4091.63
5548.22
5009.4
912.281
1646.01
-1125.59
24.6516
384.413
939.23
-870.093
-60.0724
-463.394
-605.281
-599.384
-3086.02
-1315.99
-501.659
8384.9
6163.97
3610.28
4005.46
7023.61
4843.58
-379.372
-1975.75
1478.99
1332.45
402.176
1557.52
1906.83
-971.031
934.946
1694.4
-669.847
685.066
-112.329
-917.19
2618.72
-2364.5
283.43
60.2471
-1969.12
4423.39
3435.81
751.967
536.953
815.804
-2605.33
-1059.83
1211.4
-165.882
2865.64
-1258.17
5847.58
2608.95
-6420.35
-2911.67
-2789.14
174.611
-1289.39
-1546.52
-120.648
1197
-577.588
-201.317
2331.23
1907.76
1107.37
3064.67
-1322.64
-1189.51
-3307.91
-505.329
-340.249
-1260.96
1488.89
557.535
-361.759
-556.927
-394.271
-4468.4
2350.12
-230.12
-1635.01
2367.95
1714.88
5031.25
2867.74
7513.2
6191.33
1504.16
8415.81
2193.25
-453.439
-92.0233
282.71
-1134.95
-325.535
-2970.86
3886.51
5596.06
-1703.07
1167.36
-294.067
454.312
445.325
1687.17
3961.05
2125.97
3173.48
245.315
2749.02
1253.46
-332.003
1051.66
-685.4
1714.62
5849.05
12989.4
1907.56
-312.455
-109.982
2720.12
3471.49
57.2911
559.07
3078.54
177.598
1611.78
3580.51
451.546
3834.44
399.483
2684.43
1214.23
-271.546
2267.28
4760.92
1497.16
4675.71
91.9748
2088.37
1963.98
467.847
-195.171
-3490.66
-21.2066
717.902
-162.657
-425.892
-1593.1
1144.49
-1596.96
-177.031
236.784
-1885.28
2102.37
985.366
2720.67
164.008
3896.03
4832.58
813.312
2403.86
2814.52
7074.79
11428.9
1942.44
218.787
-419.938
144.376
7.46098
-1690.4
987.926
1937.08
-2070.66
-6.36537
1773.42
3219.46
1916.04
5330.61
9839.16
3885.98
2495.81
-1033.84
-443.824
1353.45
6623.76
4337.18
5113.21
-684.952
-965.599
1280.21
7490.31
6201.24
6304.29
1965.6
15039.3
773.029
-91.3846
-979.821
1185.02
-3296.97
-307.985
-710.491
782.54
375.95
-548.907
7327.04
2484.28
7836.19
4653.83
9420.35
4036.41
3044.21
6848.62
1894
-2876.27
475.523
3132.85
9396.99
-53.5417
274.385
1462.87
1592.92
472.945
1210.81
846.688
144.605
868.792
-2073.61
-3691.37
-629.707
1187.4
919.17
-364.1
61.4368
-214.328
3899.88
2.87727
447.382
1668.26
671.567
196.933
71.6933
-719.146
1904.44
4225.51
2119.21
2345.38
4005.2
2010.54
2072.15
4522.09
5377.01
47.966
-1185.98
1028.55
1899.19
162.562
-35.0206
19.9272
7.22538
-596.341
880.365
2991.58
1460
266.003
-81.7392
-1076.48
-663.7
1023.5
6397.47
2910.58
2760.82
-4940.63
-1065.47
-635.558
1402.08
1842.2
1696.57
-94.9418
239.913
-614.026
-3328.1
-3312.2
-1317.51
124.777
-4990.84
980.547
2578.95
2159.11
3237.87
-733.693
686.942
1259.89
470.5
2997.18
68.3177
5071.25
-1874.95
340.205
663.781
-1080.48
-304.648
1369.46
-474.64
-409.728
284.234
-434.339
-421.167
1667.76
9625.4
1296.09
2119.68
5152.53
565.464
-1943.02
895.688
113.737
-1056.7
-346.195
-4.71145
351.661
1728.27
1669.52
-2740.43
-1058.07
-369.274
2090.73
-2319.67
-2511.83
1200.2
-265.267
-470.052
411.753
-853.651
665.89
-1489.4
-346.644
171.244
829.957
300.664
574.185
1388.76
-315.668
-1126.66
29.0732
1346.11
2030.48
5109.87
4225.9
4272.28
5109.75
-806.967
342.657
-47.5512
-754.697
641.928
-568.966
-546.777
1684.79
-440.237
-895.829
-170.284
-864.11
1321.12
-436.345
-352.068
1195.73
-105.24
996.265
4869.08
2809.53
319.803
771.401
1427.82
6937.47
726.7
9822.1
1092.47
3826.28
2410.72
-585.18
143.161
1353.45
687.666
1010.02
-1413.37
627.821
2099.92
2276.22
-480.705
547.198
-1567.67
2730.93
1896.79
4664.81
-17.1946
2943.75
1650.81
1277.41
2635.16
932.589
-1615.46
438.448
3408.19
-1219.92
-94.3851
-132.473
-1508.45
115.965
7719.85
2834.27
-540.878
600.768
3707.21
1974.27
-1496.22
5434.18
2680.2
736.535
-965.181
94.947
-4599.8
31.4957
-1114.6
2907.53
1286.41
-991.86
340.506
1671.91
3708.51
552.679
252.771
-792.018
-312.234
-525.145
52.1381
-306.298
-945.786
71.4101
-686.412
165.395
-112.961
664.741
3391.09
1462.79
-593.443
3042.58
3134.41
3209.5
8563.78
4993.16
2913.3
-2633.65
-282.886
35.924
3632.41
1303.78
-1778.13
11175.5
658.809
2431.44
440.452
-955.346
185.556
677.416
1234.78
1315.62
205.798
245.304
257.403
-2167.79
-1076.19
1903.89
-615.746
-2089.99
-159.166
-188.382
-30.5202
-2024.3
-244.619
1855.4
4259.01
3523.81
-572.709
2618.55
3247.4
-209.847
-1539.5
516.99
3872.82
3524.43
148.921
175.854
-1189.98
-219.413
1640.5
409.127
-102.745
-935.949
102.91
-1695.52
-836.542
-1780.97
28.2973
914.827
-548.731
1077.41
-62.7013
-748.01
-218.553
-84.4376
-2780.45
-294.763
63.4787
91.8126
699.655
1708.22
-182.197
-157.289
216.825
886.377
9402.38
3549.06
-882.54
2596.02
9412.5
7179.1
1298.8
-144.532
924.367
-3458.38
566.672
-71.215
473.747
580.824
288.393
952.42
-946.619
586.066
-2214.18
1917.25
1154.89
-14.4121
-797.764
2041.26
6169.46
3861.06
6208.66
-534.482
726.283
683.321
-406.908
1082.29
1841.72
-3983.48
-333.982
-733.537
1662.99
963.336
347.392
-288.984
1580.08
3452.08
-2300.83
-475.426
-1139.31
-2664.53
2480.6
714.31
894.232
352.082
-64.2166
-1089.08
316.444
-1015.81
3011.32
727.491
-1592.93
1171.53
-560.351
-1982.56
-652.255
-1675.98
3311.61
452.972
3301.29
-92.9573
-2456.84
-1426.62
4912.76
-274.424
318.473
2398.34
1837.08
2209.2
-228.317
1079.47
3377.28
67.1463
111.605
2390.67
-2816.94
-2403.28
1915
-1098.17
-32.5615
-838.679
378.146
-1319.16
994.169
226.28
-68.4116
1826.77
2501.45
-307.398
-26.437
1398.69
1175.86
-412.534
2866.98
67.45
-83.1048
-1871.98
178.699
1865.38
893.649
6730.67
11464.1
3022.4
7029.9
3577.08
11258.2
6198.24
9412.69
7084.93
908.389
2040.63
1883.87
-990.847
928.823
-36.192
165.26
350.238
982.681
674.768
1410.07
2351.22
4858.75
-779.866
4152.59
12819
2275.58
779.275
-461.394
1896.98
2968.84
-101.819
3608.77
6053.15
4785.85
5691.82
2181.02
3497.68
6973.74
3834.35
305.884
-3369.95
167.683
-11.6709
761.574
-2669.77
1259.88
1882.17
-1547.35
-2241.36
2921.56
186.504
4758.82
-206.283
-2741.24
1167.82
1075.37
8533.75
1320.64
1329.53
-475.489
368.241
-1447.18
1774.04
3271.48
3671.09
1741.8
1160.37
-92.3516
72.2208
-1752.18
379.265
-249.854
5691.24
3298.87
3743.61
1742.44
8212.05
5809.29
1990.52
-583.617
-485.598
2204.28
4950.07
1101.1
1938.43
934.533
272.283
-425.287
1437.88
1965.83
-858.419
2468.67
-3258.46
-346.34
-68.8787
1450.84
-425.949
1263.47
641.472
26.8851
1804.29
-1009.36
-290.185
1527.57
-167.812
-23.3294
-782.057
-160.914
-1424.37
350.566
957.376
-303.341
1538.1
668.782
-1309.49
309.968
1294.29
-821.678
6011.53
5247.1
5907.04
1391.09
183.9
-281.109
1734.25
-2013.15
-446.097
2447.8
741.592
36.5871
-828.41
1179.76
-1202.92
3647.03
7396.35
2408.16
-984.983
612.915
-86.7625
743.5
-1426.26
1143.62
2362.1
3312.34
1067.26
-975.268
-6083.12
1906.01
208.988
-443.237
2480.38
-1540
-137.006
788.181
5037.38
1517.49
-2970.41
-1009.29
-268.956
-1108.89
554.543
4070.77
3566.63
705.514
202.874
-1268.17
-1952.55
434.37
1068.92
-2511.47
908.426
-1870.25
-355.63
-10.7482
184.904
-796.634
4884.74
7198.19
-1125.6
-1909.51
254.184
472.682
2237.24
4211.99
144.376
-466.95
103.242
7989.2
2698.01
913.651
3828.03
3074.3
241.72
-295.3
951.258
219.538
-917.455
-47.3064
2492.14
9298.75
1592.41
1225.28
678.703
-263.567
297.217
434.611
95.21
1666.77
-375.762
-360.295
7771.82
2287.21
-129.691
333.119
-1603.69
-98.1324
6376.27
11321.8
6003.71
3780.21
583.766
2466.49
1993.47
1177.39
2106.18
-260.262
1731.76
-2442.92
-576.03
723.323
-517.521
601.745
1019.83
1880.75
2330.24
-549.369
1537.75
2371.72
13.0801
-293.245
1769.42
318.231
-145.172
1280.26
-1651.02
54.5462
-683.265
2845.77
1353.74
2804.35
819.379
-976.602
128.878
-4188.91
-1630.33
-1593.65
1087.27
495.354
1173.25
-221.215
-116.418
1905.9
2026.46
8097.23
1983.96
771.124
2634.56
2783.55
2.20273
-243.28
-1083.62
-381.846
-166.64
1747.1
3310.81
4467.35
13880.4
1412.14
2394.04
2323.77
-1521.9
3155.06
4549.88
3774.89
8182.52
-54.6604
57.0932
-330.237
-2621.94
-81.878
596.027
1295.98
-2722.12
497.134
2043.5
1086.51
375.366
-936.853
537.606
193.261
654.545
769.6
-628.837
575.464
2072.54
3552.83
385.19
-934.915
-352.891
443.032
404.677
5477.72
3609.86
-1352.8
-690.311
61.8999
523.093
-704.117
-2526.92
706.691
-2128.97
-222.676
9191.76
3121.97
-979.987
-725.466
684.759
-544.474
2265.98
3544.41
-74.1205
512.668
-117.743
-1283.32
683.049
662.418
-731.17
-887.558
-269.223
82.5457
-50.045
-361.17
3986.48
-137.495
-1253.94
1883.13
468.525
6846.31
11280.8
7433
-104.973
372.822
1316.86
-1289.37
225.016
2257.37
1555.78
-1198.78
-3366.38
3430.46
2986.35
1907.97
-815.579
736.744
1948.08
3697.95
3026.98
224.967
3658.29
17.7558
297.805
719.351
3907.84
-532.642
2892.18
-539.533
-1184.2
2186.62
1379.77
1516.58
3868.53
2510.14
820.181
-2146.4
2088.77
3532.96
7167.37
4353.2
-320.107
5702.73
81.4566
5179.53
938.851
1357.77
2419.23
2754.41
2534.12
3298.9
1370.81
301.634
-1795.02
439.872
-343.335
-398
4789.52
3623.35
2661.82
279.803
724.848
-1685.14
-394.664
146.277
3851.56
168.513
448.589
970.186
8374.61
8515.97
1438.18
908.669
3647.09
-574.19
-2269.95
472.929
1423.59
149.917
-1256.4
1740.38
2630.44
1383.9
545.187
2503.35
-510.912
1634.48
-1560.58
1925.46
-314.696
-381.201
3853.41
-411.145
-1158.11
-83.3482
3724.23
3458.58
1567.47
-413.16
-3741.14
571.083
-3340.89
1611.93
-498.248
-1544.35
-1656.02
3106.2
326.64
5687.84
-2855.44
702.873
5044.27
469.179
-4088.33
1233.31
-2107.43
-175.201
-1375.21
1373.73
-1282.73
2070.57
2471.23
2709.87
5172.98
7166.23
-969.817
-2547.34
717.271
2683.97
306.048
487.31
2390.88
-1356.14
-1082.89
8413.92
933.207
-1006.18
632.732
2549.69
-9.81874
-721.468
541.312
-233.149
320.244
2273.39
597.407
149.794
-126.233
510.293
592.087
4894.83
537.73
1621.22
-646.218
585.417
-1210.65
-869.11
384.02
1595.14
377.306
7406.99
-1222.41
-681.97
443.252
476.986
4153.17
2318.02
667.763
-2682.36
2239.16
262.587
-696.737
276.409
468.46
-1536.23
-431.692
1130.39
1614.97
-1337.56
-2.2771
-364.583
-730.698
2439.38
-483.383
-412.746
2972.21
-949.268
3294.28
465.094
-658.106
-322.553
7159.58
2480.76
2328.82
-167.046
2347.63
-7188.83
755.913
-708.045
3110.22
8754.12
2018.71
268.691
-1371.93
1131.66
1242.54
739.325
-1688.89
-884.444
2894.28
-337.774
-1505.06
205.604
2047.12
-516.398
480.174
2122.17
199.415
9487.89
5105.43
4553.19
7681.49
1009.44
-435.652
606.838
661.781
906.117
-357.163
-748.651
-681.661
2422.06
710.713
2395.11
-1119.4
1908.02
2585.22
-735.093
76.6968
-1416.83
-3.08038
-942.294
872.877
-668.595
-1605.25
-774.235
-177.731
-4985.44
5156.55
283.722
-302.678
-2775.38
1087.76
2273.04
2504.14
-2100.38
-970.452
692.404
-1119.62
547.331
1896.49
818.23
566.427
2374.67
289.751
201.401
-819.865
1241.79
3507.64
139.204
58.6886
4280.22
-1268.42
-717.158
-4338.87
1639.28
2502.37
52.2659
103.849
398.132
-1928.74
131.331
-1905.17
-1027.43
-77.3789
-1718.55
-39.2852
1343.67
-280.01
653.334
1735.27
2335.72
1460.63
-1638.59
-1278.62
-2192.97
107.214
-1761.9
407.817
799.154
-1109.66
672.503
-260.958
-1384.47
-31.2996
2151.28
-1436.58
-116.545
-700.535
2601.7
5383.69
1527.02
3032.4
-556.582
1047.56
-253.741
1325.72
1178.08
-625.465
-443.847
1084.61
411.056
5603.48
-6.49545
-230.752
265.741
6751.37
-393.835
-4359.8
-3831.21
1142.4
788.444
-349.641
-132.151
-2103.36
-389.455
831.077
-1528.26
3114.63
529.067
2864.88
4857.37
3048.75
-135.833
-1262.24
-1773.45
331.084
200.229
-70.1214
966.521
3886.14
126.708
1724.86
53.7758
1897.21
3434.75
480.721
-709.122
234.097
-1410.1
-767.252
1977.01
844.275
1466.56
-312.644
498.672
-648.801
-428.362
623.952
607.23
-679.739
2787.17
1977.44
2463.43
106.96
1543.29
1316.91
1977.66
2619.94
3962.99
1965.81
994.821
3790.57
5898.55
3753.58
18092.4
4206.32
6992.83
-741.099
-724.849
985.368
-53.0035
3508.56
1739.9
104.468
1618.93
-513.803
1154.88
-644.63
-22.4179
-600.002
1276.36
-153.879
-4560.95
-89.1982
1218.8
3694.69
-386.412
1761.06
3918.4
12954.1
6550.61
7686.2
8372.24
7232
-164.842
-35.4748
-2575.95
1598.52
827.038
-2216.29
1004.2
827.771
369.062
517.698
4086.26
3556.93
3197.46
-394.073
-1740.62
1268.74
-2957.95
-357.345
888.746
937.892
390.697
-34.8392
-198.267
4123.42
409.914
-632.706
671.577
-1185.67
-1095.74
-2762.96
2412.87
873.681
-1471.01
-3592.26
383.759
18.9767
1639.67
-624.63
-1335.26
-169.261
306.928
2862.83
7240
7390.71
1708.33
8382.49
7322.68
6179.12
4516.89
4220.89
-382.633
1075.42
1801.34
838.024
3453.3
6641.14
7847.62
1609.06
-1033.13
755.254
-1547
-1569.59
-2245.49
5226.76
446.502
-1153.7
505.6
1372.05
531.387
-272.135
3126.3
1814.87
941.087
1016.63
2118.49
1354.18
-633.683
628.314
-710.338
209.411
720.878
608.845
-1201.44
932.21
1257.96
-6.47302
-1932.6
86.4428
4679.7
642.954
1545.89
528.136
4770.39
1207.32
-1929.57
-1815.55
286.687
609.814
1720.93
8936.6
5355.56
592.274
-1236.48
1270.67
-797.462
-267.295
1079.73
1154.22
29.1149
-418.522
504.094
1305.17
-233.977
-821.313
-424.974
-7.06505
-217.447
3231.4
3915.19
295.998
5659.15
982.535
-859.554
-859.464
-112.594
-480.905
1497.37
1124.38
-401.638
2208.86
734.011
-262.154
132.628
1472.33
419.022
2222.32
-177.226
167.969
-950.885
3238.46
-518.598
-21.6957
5124.06
115.106
2566.83
-826.804
-226.963
2136.84
236.758
1401.36
391.476
6469.75
8743.7
2252.03
2037.65
3077.96
3278.54
-4110.13
561.364
808.268
-916.28
281.59
3450.77
943.478
-152.918
-427.743
301.502
-77.9697
-1283.27
-915.082
10750.7
4811.27
14271.8
4452.77
8970.27
255.01
300.347
2635.63
249.268
-320.318
-1179.23
2690.02
2846.9
5139.45
6107.24
1824.39
673.49
-822.841
424.092
547.123
-2165.62
-633.322
10.973
91.0448
-1696.8
6103.8
3015.54
546.819
-487.542
31.7344
1001.08
366.294
-2420.93
826.778
477.727
10742.9
13322.6
9921.26
9346.35
4374.05
7209.36
2349.54
-1028.24
-1163.95
1547.11
-79.3855
547.603
-1442.56
271.075
2045.14
92.4311
-665.014
3261.64
1361.26
2884.02
1657.49
58.8868
-4962.57
-741.084
986.63
-1387.51
2003.92
7153.02
3632.23
381.866
1118.78
2225.49
6738.02
2025.08
4298.88
-2026.65
2516.4
-339.866
-1243.38
80.3257
3540.76
9375.07
-2434.45
496.895
2778.93
-215.611
3893.52
-1786.21
-458.78
-418.596
621.63
1070.21
-788.893
666.11
-808.69
6427.12
10757.7
7567.6
3709.68
-702.032
-73.1771
-3661.39
1593.29
680.955
1071.09
225.732
2312.39
3916.48
5119.06
914.234
607.402
10183.5
6748.59
1029.8
2001.45
6435.99
5519.18
-768.708
-342.791
-65.6687
-218.865
1289.1
941.819
-1729.95
-621.905
2976.25
4207.55
6962.01
11105.4
3558.55
-526.078
733.298
3395.07
-204.853
4245.67
3874.99
-2535.45
2438.48
2172.8
2947.74
1755.06
58.9729
-181.777
2142.4
1415.14
3589.47
859.105
-3125.73
3965.48
1645.71
6234.31
2497.75
-304.813
-1419.48
-213.562
5141.87
1351.34
-172.377
1348.49
202.2
2407.65
386.195
6034.49
410.284
526.848
725.733
666.662
67.822
672.906
-1223.96
5933.49
2474.02
1722.94
512.823
628.288
716.106
344.488
-177.815
1251.83
-479.133
31.1197
-2554.2
1107.72
-215.179
842.28
-951.168
-9.41487
1052.13
-3151.59
4512.31
770.894
-566.552
403.191
-109.745
3261.69
-1609.52
-2341.6
2212.36
4962.1
-56.7025
1960.34
3004.26
-524.037
2270.47
209.982
642.089
-997.81
-61.6791
3590.94
1045.25
-513.322
-920.342
-1218.03
-1656.92
648.18
-362.969
239.415
3818.77
4868.11
3506.88
2095.5
6060.23
4572.32
-4000.86
-465.629
-2908.56
4706.11
-220.005
-277.691
-182.355
1266.71
431.672
-1818.56
3941.53
1339.99
-490.622
1073.01
-1566.74
2016.1
-881.865
-390.991
-559.249
-1049.85
392.033
-1030.66
586.437
989.814
-384.305
-1491.33
3436.07
5623.84
15374.9
2814.25
-939.486
4434.01
596.12
2611.57
335.392
-1159.17
2185.94
-1539.07
567.288
683.915
-475.711
-1879.21
1028.51
844.795
-1697.63
-725.004
-1157.71
-221.73
567.268
-405.196
3136.3
1734.64
69.4352
2621.89
-893.275
569.471
2436.89
4587.8
3745.82
156.389
564.414
-579.007
1845.43
1017.17
-346.667
1003.81
705.925
-649.959
-1828.8
2179.24
341.912
-600.439
2185.61
4634.84
3551.25
-27.0801
464.656
-617.226
1190.9
1028.71
1806.49
1012.13
-1120.99
123.413
-2042.76
-2448.59
282.697
667.561
405.304
-2417.46
-545.763
-260.558
-298.95
-2875.74
199.383
775.753
2615.31
-904.935
2492.04
3226.73
4762.24
-1406.18
330.433
-14.964
-1611.98
5616.61
9803.12
1464.45
4535.95
4932.29
5228.41
5926.7
-2792.54
2673.24
11731.5
436.708
-257.578
161.351
-55.8984
-3858.18
-653.132
187.077
4568.26
435.146
18.2624
-102.387
-697.705
911.641
1975.67
7722.21
303.074
-1370.84
-464.067
41.619
1179.4
624.474
396.341
5283.67
461.12
2077.86
4323.07
-773.745
4164.79
-716.824
372.123
675.269
-615.431
3147.06
-2101.89
1953.71
703.62
-845.597
-1168.34
-85.7036
1558.28
1086.18
5509.29
-184.745
1645.3
1032.89
-372.189
-300.246
-149.289
-2151.51
2216.28
-745.186
1483.16
1335.38
148.377
3429.16
6385.55
2372.17
1476.4
-123.26
891.017
759.946
1657.69
6093.26
3453.69
2762.68
542.199
985.475
6727.13
1209.94
-335.512
1661.51
-147.365
-202.309
-1615.65
709.034
-1239.86
420.1
3603.1
211.796
-707.708
-866.225
-1772.98
-438.015
-1929.27
592.126
-269.569
-2274.08
883.513
1645.94
-342.058
-156.822
602.17
-194.485
-52.9896
-988.004
-1215.85
1240.88
-2091.57
6749.07
1314.82
-911.913
-247.213
1440.91
40.0169
-620.651
1387.22
429.082
-240.836
-1010.05
-1434.2
285.433
-620.979
416.02
9.38464
-1322.01
-462.57
993.242
1688.18
1205.31
-896.688
34.9082
562.078
301.578
-1955.26
-38.728
-3198.27
1897.56
-1416.51
67.5807
1918.54
1056.95
1519.6
628.631
-49.1763
-393.687
113.101
-373.367
564.892
761.088
87.5632
-2549.12
-880.658
422.475
2305.52
567.2
143.921
-1734.62
-292.961
2918.09
3029.31
-1113.02
92.8341
2347.14
2866.75
13328.6
3107.06
512.33
-33.6585
573.678
56.7897
-248.065
4438.63
10476.4
5460.78
12915.7
8434.47
14372.2
3243.6
165.648
97.0906
1094.64
211.014
938.781
5790.23
586.384
-872.152
-570.261
-1580.29
131.321
4303.74
-42.8826
1183.62
-105.925
-711.068
5787.41
4225.21
3352.88
2445.61
3608.98
1535.12
-395.821
1866
-1612.78
196.058
-779.766
394.439
-37.7146
5314.11
-1091.09
-304.727
121.413
-923.888
793.885
1174.54
575.209
1334.09
408.818
-616.543
422.92
1611.49
-99.8029
70.1372
217.922
7298.27
472.619
3994.85
174.968
-700.378
-200.944
2936.57
5743.23
1820.24
713.754
14749.8
12327.4
1122.41
3654.09
834.535
-114.42
215.21
-2020.24
-1916.12
-1419.53
-248.982
-749.788
-1151.41
-1937.56
790.798
-202.79
39.1933
-218.526
1117.61
-179.43
772.26
-1948.46
2719.83
-257.021
4670.78
6141.61
1976.17
-1282.24
-186.17
2474.16
-1062.51
-702.435
-1650.63
-148.406
-511.665
225.401
130.528
1791.42
1544.08
5417.67
4404.79
1924.92
438.973
493.496
1192.29
-851.641
-1310.12
5256
5319.15
6620.57
3584.06
-125.439
1719.56
574.986
1267.82
-258.018
1974.33
3949.45
3582.29
-425.207
501.639
1385.7
253.855
172.177
3259.9
13294.4
2844.37
8135.48
-717.232
-234.694
74.5608
40.2389
-2003.05
834.485
727.48
-240.645
1933.9
2422.23
2449.04
4163.67
870.661
2011.94
740.275
-37.8969
-543.841
5788.42
5104.58
-1039.02
1667.24
-1424.14
1005.95
-265.78
4171.53
1266.98
-845.598
5290.56
652.251
1417.79
1645.2
1423.79
137.798
-742.669
289.166
-75.0495
-393.787
805.796
-163.759
265.276
1735.01
-2070.98
-1988.79
1348.89
5728.65
1900.66
1111.01
-1728.73
-372.251
-533.972
2422.11
17.3923
-1198.61
3683.22
670.034
-354.85
1192.08
-252.286
485.757
-561.821
2918.35
5768.21
8246.12
7070.49
10879.6
-784.979
-183.416
-1255.13
169.562
4644.32
1257.15
1261.09
2057.47
-953.536
-2422.9
-627.626
11579.5
4960.87
2833.42
1492.65
-604.813
-1888.47
1214.52
644.77
259.579
1051.87
-2006.52
1043.9
365.611
-639.804
4817.01
1378.29
2712.44
-614.932
-1965.28
-480.603
-497.501
-438.238
764.023
-669.728
104.464
1259.86
-589.562
-426.021
-265.027
-546.527
612.54
-300.372
629.676
4744.18
6821.33
-223.424
362.065
2122.49
1598.09
-1531.19
-586.428
488.387
5817.7
6540.53
2339.98
-1481.04
1365.67
3613.05
3504.24
2272.59
3177.45
-3373.16
1003.27
-165.149
-704.263
-2144.14
554.476
1157.83
654.711
5198.82
688.161
1408.85
1645.55
2039.47
-26.7402
-25.6115
1336.28
2375.52
1454.24
-1967.63
525.531
-680.891
-795.85
5703.99
-1682.02
5262.28
7069.17
3880.6
2869.14
2833.06
525.371
1535.4
3085.64
3338.77
3018.76
-425.555
-620.825
1329.51
8427.65
-254.62
609.705
1295.79
-240.548
-322.401
2303.13
313.016
431.743
-2066.97
-241.391
802.661
-2132.04
-442.699
1945.1
4238.49
4835.52
2739.03
4176.32
926.167
1912.48
262.394
3343.29
5713.34
6140.36
952.16
-1004.63
545.046
905.567
262.729
8162.68
-1866.86
3874.21
611.751
958.867
6479.21
4110.84
628.252
-706.19
51.2583
-203.604
838.245
353.647
708.209
1602.7
1544.98
1912.74
-67.3965
155.583
-131.55
385.981
953.045
-2126
-533.397
1400.51
2787.61
1878.43
367.203
-320.278
12754.2
2780.64
-386.43
187.084
1128.19
115.88
-2621.33
449.722
3403.3
817.61
-734.127
-1450.8
2722.79
1897.68
-597.169
1163.87
2040.81
-546.833
594.509
-1.88746
274.165
-3057.98
-342.578
-1064.37
1828.11
8414.48
3693.55
9497.03
-1408.76
702.28
-521.618
-1539.32
-1160.96
-590.281
1322.27
-5394.44
-1.22144
1115.82
499.153
1419.58
8226.03
-1825.19
-1576.5
-1307.81
-819.815
433.848
685.096
4825.87
3111.92
1204.7
1622.41
1654.62
1702.39
3279.12
2650.85
1722.07
-441.185
-558.752
-293.284
-2300.51
182.116
6885.29
10132.8
3917.05
541.541
-198.934
-3146.88
1959.98
2494.78
3094.01
317.354
239.369
3914.34
624.692
7577.13
3593.41
983.043
-2.60965
1.54636
3544.58
677.092
463.015
-252.554
1092.3
1976.39
919.29
-30.4532
558.945
-1058.41
3767.84
-1777.17
-195.189
567.37
260.175
535.567
615.38
2316.36
4746.02
5466.27
6643.78
5727.91
2429.22
214.502
3206.66
1298.44
1659.31
1315.04
1668.98
4707.89
-626.892
79.585
82.2644
-321.411
3662.58
3009.09
-546.728
1908.28
-253.216
2230.46
581.685
-1092.63
551.28
6825.52
7004.26
12794.9
737.772
-1118.42
-80.8113
1222.79
322.028
1368.28
4478.6
-25.484
1523.72
-572.752
193.234
831.804
4324.9
-1264.52
693.732
5311.99
4275.17
3001.65
6913.58
12300
6629.12
-1916.58
2180.29
1609.25
1727.52
-1634.45
1332.12
3995.98
1753.26
3656.85
-1314.79
361.309
1071.98
525.989
-111.783
-2389.77
1910.37
369.146
-103.409
4075.79
13227
1721.7
-1.59604
-599.639
-195.02
4188.44
23025.6
8405.16
466.978
-948.997
-23.7912
-3514.83
700.728
989.321
-240.578
17.3425
-7.7687
3038.13
2768.3
1085.08
-247.894
-465.138
3375.35
-763.448
2091.64
513.068
4765.57
-1680.49
195.443
2334.69
-426.395
481.513
-182.049
-879.135
1486.71
10711.3
2625.2
72.345
1087.52
-526.739
523.053
990.865
-855.907
-212.431
1713.66
361.369
-155.025
-1104.98
-2190.38
-1188.73
-1027.32
2112.87
6015.78
3211.49
-49.7439
2661.9
5167.73
5755.19
2091.35
1146.76
1689.98
1518.24
-2295.64
83.6453
428.431
-183.001
233.809
-356.775
-1488.72
-1068.16
-7.10173
806.856
141.045
899.875
1236.51
401.939
-1460.9
-363.852
-29.1072
1653.07
-196.271
1629.24
-147.552
-1130.09
-554.001
-180.906
3122.15
3092.92
10511.4
4118.08
2804.46
2507.75
2080.84
2828.9
1181.85
1631.35
514.068
-1569.34
-64.493
-1978.94
2.09959
-237.576
-1110.12
3443.71
-1693.45
-1816.91
859.563
1522.13
2075.66
-540.259
-185.544
-118.569
1014.15
-546.02
-242.879
-516.55
-602.212
311.229
7058.38
2475.43
-885.447
-1195.55
731.219
-4214.96
679.823
2378.53
-89.0297
-39.14
-1394.38
429.907
1528.29
434
2049.26
750.412
-49.6373
542.766
741.089
3636.61
3521.65
-193.641
7277.36
3628.64
2567.09
469.452
1535.79
-946.861
-1412.85
-268.007
1601.68
-167.559
4645.07
-916.808
-744.569
2349.12
-474.183
-740.019
4223.53
906.899
-702.59
349.756
-2881.19
-203.953
884.557
-1326.7
-1058.84
-381.416
773.433
774.969
3809.41
-32.0821
1492.7
492.577
-153.355
66.263
-1399.17
602.507
3275.93
1805.37
1777.13
1959.05
9685.49
-1258.62
-160.177
955.606
-489.218
2477.15
2479.53
1714.71
7915.07
31.6791
218.744
879.223
8023.65
5049.23
-238.102
-1560.95
-237.256
463.451
-607.867
-1678.12
-1200.05
-741.461
1735.91
1074.63
-828.021
1423.74
1313.46
102.185
589.668
1730.86
-2394.18
460.586
-391.446
-6.28936
-2814.79
-329.549
-682.796
452.864
-3398.12
2307.67
10973.4
1491.13
780.574
1781.22
-1128.71
-858.095
-699.569
516.19
-347.659
1173.59
685.482
-1527.44
1571.22
178.409
-233.174
1034.23
1416.15
2552.08
1465.01
-580.947
1432.24
-221.589
174.434
4954.78
-252.839
-542.906
-1.0538
-1170.72
1174.36
502.524
-170.032
138.576
777.359
-1156.56
-677.141
4037.96
1983.05
534.053
1.4179
-183.127
1451.54
-542.558
-277.804
-435.581
-793.586
461.925
-491.247
358.631
-511.356
-103.155
-2295.84
-453.383
-1932.65
-1316.29
417.261
1275.22
1622.86
1031.86
20739.7
4239.54
1503.01
2148.37
4946.82
11316
10024.3
6643.91
-54.2868
-511.945
7829.28
876.169
-1967.55
-2040.46
2410.55
223.096
938.487
824.526
1144.47
3889.9
-4282.38
791.636
7721.07
-807.334
-2827.06
1020.02
775.184
-1322.19
649.913
3905.09
1873
1177.87
811.245
676.549
251.833
-124.97
3973.1
6287.06
2473.21
-1914.33
-2026.91
-545.246
-336.527
986.037
-279.944
513.748
-492.298
-950.113
5720.92
568.742
-387.975
-1187.08
-361.262
-1437.5
-128.132
-133.828
-947.487
-40.9499
-2101.84
1317.53
190.066
-88.6083
2109.42
874.236
27.82
7012.5
3085.32
790.928
82.4612
-91.4401
-1132.45
-69.332
2741.9
296.597
-331.092
-5125.47
999.022
68.8819
50.2644
-321.649
-1495.25
174.894
199.33
617.444
-283.568
-775.421
1224.78
-828.514
1072.29
9827.49
1210.74
1100.84
373.13
-894.919
462.55
-609.761
-859.622
1157.13
-402.751
-4.58322
1148.01
227.2
-1235.28
945.808
723.08
962.725
1150.96
-1905.34
-2908.9
911.556
1020.8
431.824
3901.24
-1683.76
391.921
2320.77
1022.73
411.972
4320.46
8111.9
-1500.93
3647.99
1334.07
4231.95
-1151.47
1751.54
2383.46
-760.483
-2000.4
1565.81
7651.29
7316.26
5649.78
9730
-219.197
2467.46
3793.23
1972.55
-152.863
-113.24
-1750.17
-384.376
-486.431
4490.66
3158.23
-221.599
579.105
-756.655
-16.2312
1531.41
4422.68
540.513
-91.9417
552.838
-615.059
-623.875
1965.11
-194.64
4259.57
-445.409
168.986
-190.83
-82.9076
-599.582
348.85
-3385.45
855.955
-562.941
1127.65
2005.92
2745.53
1018.39
-447.511
-1952.76
317.868
-271.152
1397.81
937.978
1692.24
966.007
1159.57
-949.083
1643.55
398.984
4517.55
636.856
498.798
1509.49
2286.26
-942.581
-2501.58
-2092.22
1542.29
1186.55
-1722.79
-1173.58
2340.04
2418.69
561.61
-227.504
1597.87
602.853
327.845
-119.159
1408.4
1117.09
-141.88
401.894
1459.05
-5339.15
2256.49
-2123.28
-76.1928
-783.507
923.509
595.652
-796.739
-405.63
918.811
-1358.91
2245.58
177.162
316.048
475.857
-1436.19
-164.932
-380.306
654.031
-299.731
-568.999
3041.22
199.271
-797.882
1619.32
11977.3
20116.5
13400.7
11449.8
7808.43
5056.22
1947.01
142.696
-710.008
-1279.64
588.541
2396.21
14.8907
956.352
794.925
285.979
53.2867
-1379.65
1354.45
642.865
-806.103
599.347
1142.67
-3883.77
356.572
-1451.43
1460.27
-1001.84
-1909.83
1007.32
-1209.65
1796.69
785.24
-962.138
227.746
3147.39
689.949
-1187.79
307.006
902.299
-366.156
-741.642
-9.96779
-498.473
-2365.01
-4345.19
183.551
3100.77
374.184
-2768.03
530.61
-119.717
2025.31
1262.43
4417.62
-933.152
-457.746
-180.98
665.291
1189.53
-1113.37
-294.335
-132.633
-12.4724
316.678
-462.1
304.199
-1967.02
-903.079
1249.16
-400.589
-627.939
-2542.54
2915.97
4107.36
-1357.63
-285.958
-145.724
-326.727
-159.723
-1778.3
-2276.47
-51.952
725.587
8.16753
1136.97
-1862.39
3284.48
627.876
1257.3
-9.56003
-98.3851
4084.36
-2056.31
510.479
-34.8947
-399.574
281.155
-1523.25
3456.71
675.265
4930.36
5046.17
328.69
1408.89
-935.299
-92.2801
2234.84
-1263.21
1746.65
1992.98
1198.29
5283.28
-72.5945
811.366
792.478
-1566.72
126.315
-562.388
-4518.31
89.5991
2183.82
1135.29
2115.1
1922.19
-209.901
-1259.51
-105.894
-858.537
785.101
439.942
1725.42
2345.44
-695.611
-4052.28
-209.861
1242.15
1136.12
-1583.06
254.607
-1052.56
-41.7739
-1337.58
-423.418
494.438
7564.87
55.4705
-69.1048
6608.61
393.611
-1544.06
192.739
28.4011
2124.6
4245.02
4382.79
642.084
700.534
129.635
5572.59
5866.92
1174.75
2.78584
-483.681
2189.01
141.016
1430.54
682.721
4467.87
1908.13
-147.718
322.982
-1062.08
-1488.44
538.386
1117.29
1351.77
1732.09
-454.027
1609.92
3117.16
4037.45
1100.22
48.9105
-611.475
-2135.73
-785.319
666.116
-182.352
1441.32
859.135
1301.03
-1887.91
1041.14
-1848.19
-926.904
702.592
-2713.59
522.58
1677.37
6681.66
162.091
-1929.77
854.612
-279.173
1589.61
-998.8
2771.29
6593.45
905.778
-1177.52
106.612
1895.46
2907.25
-1136.02
-864.941
2437.47
3223.03
9690.04
6451.02
2055.37
-1169.97
2273.01
1300.75
2908.77
1812.36
2265.23
835.363
254.099
-69.0959
459.963
658.397
1105.94
-1002.74
-307.269
509.687
206.079
-349.12
-631.122
-2620.22
-235.51
3992.82
-78.6215
5255.98
1457.76
568.516
2213.83
19.3832
277.944
202.89
349.832
1763.95
-2231.03
865.478
2928.85
1984.29
763.273
746.768
-2444.31
-611.483
6085.45
-1710.42
1556.27
2859.58
4038.74
-542.178
1680.75
4819.77
-132.659
-1203.09
1947.4
723.493
-1658.78
1178.97
3064.12
1634.48
1184.07
3614.66
5279.78
4620.56
2884.09
559.914
6051.77
3292.65
5687.11
578.524
-945.459
513.096
2274.91
4268.57
188.154
622.146
-884.174
244.014
-1579.81
525.297
-55.673
-101.513
140.476
1333.97
-299.349
174.826
658.828
2598.53
-1273.51
-900.549
1140.08
4295.52
8037.81
4285.88
3813.76
-1002.43
278.116
4930.86
5666.98
2606.41
5064.41
12930.5
669.563
-492.394
1528.47
8845.18
-1430.3
-3287.91
734.001
696.28
11432.6
1071.01
-221.582
1230.31
700.225
3112.43
-422.551
4904.52
3652.32
1413.25
-282.953
-595.596
2144.05
2947.02
340.025
-960.637
621.414
291.19
-1765.86
2655.92
3801.05
-439.734
275.014
-2792.27
1907.9
-342.075
389.435
2058.5
947.965
891.567
1956.87
4239.4
-1079.95
-237.48
-1237.42
-619.852
-202.631
318.386
-737.782
-1412.89
1172.26
707.149
1384.69
3625.79
3901.57
1251.95
-971.636
-614.292
-2408.58
-1113.74
2546.49
2295.22
2937.15
752.838
557.511
-2417.43
-124.246
2336.59
2992.5
1196.66
2783.39
1456.83
436.601
1397.18
1399.16
1650.1
-1331.75
1338.89
-543.746
-842.41
1483.75
1266.86
-1747.71
143.34
1225.81
3204.68
147.121
2718.96
-594.063
-24.9814
447.213
-1520.17
-467.196
-22.9098
637.207
-1888.76
-1140.91
1636.37
-418.426
719.96
463.947
1904.02
36.0261
1148.38
819.533
4318.52
13.1279
2150.55
2166.55
2464.41
743.531
124.389
1514.68
1367.85
-74.4313
1791.42
434.71
3912.42
-1182.72
-972.304
-939.936
1523.03
1168.76
-194.737
4588.16
5513.15
363.818
369.922
-396.953
1371.63
-997.343
745.962
2824.13
10765.1
9350.61
6563.09
9756.3
1904.88
772.14
2148.38
-298.986
-288.953
1144.86
7501.51
3040.02
-349.743
28.5464
-78.4685
101.181
-272.016
-157.052
784.637
2339.81
1837.35
9005.13
-1462.03
1562.59
1987.21
865.999
325.238
-127.822
-2095.91
-236.922
-545.199
-2674.79
-189.645
2134.01
174.802
-853.173
-1178.75
1057.94
2166.93
987.686
-53.6022
-461.989
413.348
-382.481
-1909.57
1006.73
866.393
12.619
-180.455
-394.399
340.929
2546.39
10246.7
341.882
127.659
-660.141
267.529
203.388
944.127
9099.05
7791.95
-1343.35
2758.18
1128.1
-111.495
426.199
1172.45
1547.25
2955.79
64.8557
290.307
-1180.01
-1464.21
531.859
353.155
429.937
677.122
-397.405
426.751
1679.72
475.318
1795.69
-483.113
-490.582
4506.49
851.351
108.381
2126.41
777.71
2048.96
725.005
-234.951
3908.45
15534.3
6028.08
13116.8
4375.2
7774.11
1198.38
-5371.31
-2719.11
153.083
-1827.46
-1576.23
2108.46
52.1648
1092.1
929.672
-1935.53
-1878.95
2844.87
7344.35
1517.3
3576.36
3824.21
411.367
-46.1559
-3165.91
-82.5203
32.3926
1977.77
3675.94
-1952.89
-2498.22
-141.89
1086.02
-347.925
1124.01
1833.22
2801.45
2554.61
-2698.6
-285.555
-169.032
-630.382
6373.5
2653.47
2413.65
-3106.39
1737.81
474.753
-571.912
2474.86
1552.16
944.628
1051.08
-120.236
2170.97
-283.375
-107.196
42.1917
3888.97
3633.43
3667.28
3853.07
3873.97
4980.75
-1426.88
2202.63
4607.28
80.9789
250.71
-807.718
1539.42
-1038.61
-1817.49
332.314
588.126
-631.513
2077.85
-575.466
72.525
-111.6
-319.695
899.038
414.208
311.772
-2061.85
1057.42
-1698.69
-3271.31
-161.965
-494.369
-2209.18
-741.239
-1643.84
-252.542
-492.295
-33.564
-1020.15
11501
3661.8
-1107.59
-84.6819
-2691.46
2588.61
1633.43
-809.455
494.523
348.127
1196.03
-1207.74
-1359.53
-1557.69
2473.15
3516.62
1811.71
-1920.02
-2717.42
1887.2
78.5812
-38.7835
-217.403
1302.92
649.41
-1790.43
-638.301
-2655.16
-285.628
243.751
-1794.43
86.0849
2508.51
6640.69
9454.32
-911.151
-269.736
1252.86
823.403
-486.595
30.2187
1583.63
2551.25
921.803
-717.472
1874.47
1878.3
-2858.95
491.656
-699.071
1688.53
1809.22
1577.19
5610.75
6733.96
7325.43
3084.56
202.638
149.106
21.3131
807.928
717.347
-545.128
696.525
-141.098
5765.93
-703.486
471.544
2187.86
607.218
4013.98
-1307.47
906.693
-0.69711
3208.47
11802.1
8464.2
334.68
270.285
2422.9
3062.82
848.417
327.552
327.823
659.911
278.39
-1458.06
151.371
2038.5
-872.663
-1112.15
-569.855
4595.57
1206.21
4344.59
1459.16
3422.97
525.933
682.403
445.924
-655.301
875.321
804.533
-52.1755
2535.55
243.447
-785.355
-1626.32
1318.83
9393.44
3740.88
1101.39
-547.515
-2634.61
3882.61
2472.12
-1594.23
313.822
1236.13
-127.34
-1076.88
-838.801
-1059.6
631.178
2078.96
1810.9
709.675
414.366
2305.34
1226.52
-918.849
6185.53
2772.68
387.284
104.95
-1407.88
803.023
-792.845
1323.57
-2786.48
8818.29
2133.91
15091.7
779.578
2273.95
37.5778
-845.646
111.316
3464.87
-990.185
2239.65
43.4237
-2199.78
-701.608
1719.55
364.029
391.652
-212.58
502.663
507.708
1772.87
576.781
-135.464
1960.4
-468.062
2892.74
2095.63
3678.78
8008.29
-121.236
770.94
-3062.01
-393.5
-1395.25
1309.85
-1917.46
559.243
950.667
-44.3857
774.295
3679.39
4669.76
5392.14
-524.365
237.453
2086.02
6288.06
2421.14
230.917
1104.5
1092.88
2303.85
667.604
1112.88
3144.16
76.3358
1997.67
2777.86
-1005.99
6067.5
6399.83
2583.9
330.504
95.3215
2361
-2052.55
639.415
1086.82
-506.101
-1583.54
-1967.13
-1582.31
-17.9372
1662.01
-1168.09
1334.04
714.492
-424.554
1912.62
5654.54
5138.17
-773.069
3208.33
5760.5
1830.99
128.455
1553.21
3762.17
-1102.61
4244.55
5647.64
1044.47
936.522
-1262.95
1525.13
89.7682
563.371
1874.07
8305.07
15817.5
13493.8
3750.81
1169.96
3201.73
3655.87
2575.96
914.301
-633.718
863.27
341.323
5638.46
-663.015
1815.34
-587.404
219.987
2878.68
1579.18
2197.85
-3.12325
1727.33
1211.34
410.982
155.195
201.199
8604.98
3484.9
8401.88
6647.43
786.414
2626.26
1021.49
460.569
658.638
-96.3259
2029.8
-267.826
-1496.71
309.139
549.131
3306.73
4103.88
4747.57
-328.39
916.888
1513.69
2052.8
9563.62
1884.65
7304.87
-1088.96
644.422
219.066
-1602.69
410.635
838.897
-1499.85
705.18
6048.88
848.366
-744.48
-2154.13
-42.5421
188.421
1199.61
275.996
594.212
-922.439
-123.173
356.413
-1139.35
-669.131
1539.6
1587.28
-670.974
-249.709
619.206
-399.066
3230.03
2252.33
1566.89
-2756.28
904.712
2830.85
6465.98
155.767
1416.58
20846
4178.82
274.447
1121.1
457.787
-959.751
81.6985
2533.81
3557.64
-729.255
137.014
-1392.61
14.85
-873.843
2277.21
876.297
-5.0787
982.237
2326.32
-238.101
951.718
1356.22
2505.86
132.225
-1046.99
-421.246
-2521.62
3170.14
-356.563
1844.79
1602.74
-665.595
725.023
339.327
2132.65
107.923
-347.114
-1008.21
3153.79
1477.64
834.829
-4.45991
-116.682
2056.92
1766.8
1001.54
-3172.24
-1132.56
1993.82
-16.601
217.047
2169.03
2668.49
28.3233
490.603
-784.771
459.722
2698.37
2395.48
3615.18
254.474
1210.23
-839.145
101.172
489.613
3608.03
-2403.28
528.799
5313.34
1033.38
2694.35
4160.38
722.935
1419.58
905.85
654.713
1969.57
786.959
1109.75
472.201
-2116.23
-1037.46
564.343
-221.622
1013.94
-131.502
2774.82
6062.87
1074.86
-72.0078
1253.01
-327.81
-190.05
1855.86
3565.47
4231.09
1990.43
4150.67
3816.3
2333.45
2719.19
1695.67
992.65
370.938
675.505
677.913
-311.757
729.197
-1435.14
390.666
942.233
14146.5
3919.42
335.631
651.579
-1165.1
3169.14
698.244
-408.658
2905.28
1215.33
4614.04
-1.99095
1981.4
241.144
220.034
1276.2
-234.047
67.891
-2225.9
2698.42
-494.277
3282.32
1230.52
2400.98
1262.75
324.562
215.926
900.972
778.477
-953.987
219.53
1650.64
-365.256
-1145.51
1040.14
185.804
2722.98
-328.469
-47.2613
-369.849
-2953.73
1414.21
-204.872
-545.173
3172.37
2651.87
5627.79
6894.27
5472.15
-1136.59
-2171.12
-1058.98
932.127
-389.28
-2084.58
88.1283
204.628
148.638
3021.57
961.967
-3045.53
6005.51
2688.35
1973.53
-321.851
158.167
608.223
-6.65398
509.274
-1114.3
3444.16
-857.883
-1668.26
414.331
-389.022
2200.04
-69.4814
-3009.32
-18.4645
3741.49
1966.07
1801.32
3359.93
-1633.03
292.375
2145.92
3014.54
6138.4
-66.4095
1806.53
-160.435
2531.95
168.436
-193.211
-717.58
142.555
-370.977
-591.086
-1527.4
37.0917
-71.9685
374.848
8596.09
6660.18
1179.48
1515.36
-1194.17
-1809.26
-1456.65
1070.81
-565.374
550.381
-1929.54
-160.551
992.989
-981.76
-532.724
1283.73
437.124
743.11
7238.22
4338.38
2039.28
3701.02
21.0252
2420.52
905.08
1482.4
-821.261
3147.92
3571.83
2099.31
4325.67
4419.83
-1461.63
1741.2
-25.1067
2729.98
7710.63
2395.37
2663.41
7205.69
16957.2
2287.33
-348.954
-4.69505
726.074
-333.088
856.026
-389.433
-429.384
909.491
71.7261
-1034.76
2142.46
-1190.39
899.536
3970.79
-255.058
-585.607
-820.1
584.284
-1544.05
-406.321
51.9607
1554.2
2175.05
5589.36
1297.24
-1885.06
-147.834
3144.16
477.536
2905.04
1206.21
144.275
-148.051
-804.395
663.901
696.192
-1011.39
107.773
-663.36
-691.979
-626.448
2741.98
-426.701
120.217
777.801
2008.96
3097.76
1755.41
6214.66
491.838
-1144.89
-1570.54
3342.62
3764.11
1431.53
731.844
-156.001
-864.259
-281.369
-1288.03
1762.81
-3579.01
-819.476
905.446
2327.06
-1243.19
703.359
-2570.5
-1278.63
-396.529
2046.13
-755.281
8055.31
1491.75
1636.96
-364.642
-1437.24
217.158
228.836
-1100.1
667.049
-2994.16
42.8448
2998.79
9610.82
4283.88
353.93
-57.1
-990.009
6211.95
3784.76
2064.16
373.669
-750.136
2958.85
-337.693
192.881
885.428
1357.42
-927.293
659.762
1816.11
-725.64
6036.28
1296.51
3174.41
482.207
1089.95
-989.698
-172.295
-963.261
144.576
2706.38
5485.33
915.237
-531.841
149.431
-423.834
-707.282
714.65
-257.228
811.573
-748.591
-715.016
-1344.42
1682.15
677.318
970.745
-651.652
-14.065
-438.129
-2295.53
749.87
809.555
181.356
304.044
-69.769
795.317
3159.61
650.017
913.102
-685.019
5349.1
242.255
-497.379
415.166
353.219
-1697.13
2186.03
-164.197
1380.53
2613.58
611.972
1941.96
2632.04
9207.45
993.918
-2450.87
3671.13
2462.77
410.428
1845.01
1223.12
2892.14
1690.51
-376.396
2211.57
-375.224
1472.27
3311.57
3405.87
129.158
-307.517
-2815.86
525.392
4427.27
1987.41
201.856
66.2198
-1355.1
263.175
-810.216
-2338.52
-134.667
284.339
220.624
-1633.49
-1054.43
-1024.57
-241.241
-1022.12
3322.79
4023.29
4054.83
966.552
228.464
1405.24
3014.1
2133
2323.03
1439.47
700.352
-361
2549.72
-58.4077
-1241.2
272.214
33.986
2082.55
-120.773
935.794
1088.45
2221.14
-604.105
-1191.73
1683.08
841.935
373.288
772.977
1832.94
2042.66
-1112.72
1289.83
-26.5388
72.587
164.898
801.298
393.894
1531.68
-797.194
485.482
2175.04
405.793
-1947.33
-1101.12
353.338
1322.14
839.862
357.321
482.427
103.368
386.797
-2103.89
-2421.28
-1418.65
-55.8611
260.743
2788.74
3670.84
1004.53
-696.381
3680.7
6120.21
837.179
9523.11
8776.13
6212.06
-67.9145
851.057
42.1661
-927.136
502.802
2147.6
-1309.6
4130.07
3567.66
4337.48
-1316.28
758.457
5081.25
3502.55
4479.85
4925.29
2703.26
-134.464
453.976
-1101.13
606.683
1454.83
-2337.66
4140.04
4238.2
4836.14
9510.17
9666.01
4179.1
610.689
325.588
751.473
34.7807
196.212
3049.64
1701.62
1978.32
1416.92
768.29
2160.21
728.004
2893.68
-3074.3
317.442
-323.762
530.028
-250.387
-245.023
1225.17
-784.039
85.1269
296.872
134.058
1448.11
-827.471
-722.145
190.274
460.701
3892.46
1503.98
4957.93
7262.49
1659.1
-7876.57
394.85
-395.416
5553.13
234.91
-1785.6
-2017.13
2056.11
408.909
2395.05
3048.37
-1267.9
3580.12
5850.52
2022.42
-1736.21
62.0793
460.568
-1121.2
2095.21
1144.96
8104.8
6841.3
148.059
1033.52
-486.669
2381.69
857.484
3146.5
1218.22
68.1152
610.765
2397.38
309.645
946.463
1630.89
-101.46
-511.825
159.257
-2357.62
952.745
743.454
4591.49
2314.68
626.717
-113.917
527.087
-557.266
1661.03
609.318
1354.14
3652.13
-2408.39
1626.8
8114.87
79.5543
-390.208
-876.914
1184.67
1179.74
649.792
-361.755
-1472.94
-1245.31
223.055
753.59
311.7
-1829.99
340.256
1409.84
2518.36
112.792
1410.7
641.388
6290.67
4639.92
4384.52
1901.97
1006.66
-153.12
-2079.31
257.816
4180.77
3044.5
327.582
1072.33
46.5047
-501.877
51.5676
-1182.76
2278.11
-1240.88
667.431
352.28
25.2377
2123.06
551.327
84.5971
-334.104
2059.99
-678.868
-65.7613
52.0825
937.93
6549.07
421.175
2096.82
-480.273
-183.697
-477.804
-159.746
-2513.78
1530.52
1093.58
-678.651
-867.948
6979
252.945
1543.75
1436.25
1197.28
26.8068
1029.84
9461.19
53.4145
833.735
-213.138
-898.007
2430.3
-3347.77
9962.38
1673.84
-112.962
612.961
451.185
-794.51
14993.7
3127.33
3696.22
4841.44
7579.34
2370.01
-719.167
-1318.51
587.71
6.49465
1054.93
1122.03
193.196
2020.93
3776.49
2516.01
1199.35
3848.62
1030.42
6328.31
2770.61
-113.666
-1493.58
-771.369
888.082
846.163
-944.352
-538.696
-13.7081
65.7827
908.919
5188.8
8134.89
7459.27
4320.2
-643.691
758.227
489.336
-587.001
489.991
-293.55
-613.395
1911.11
-466.941
3130.24
66.6309
370.146
-3058.94
-272.209
5638.48
-385.566
-57.0651
-404.602
202.145
4137
720.679
-284.473
-2658.71
-175.611
2449.42
13078.5
11451
9966.3
91.0225
4182.84
33.2563
1406.66
677.682
2568.43
5194.04
2083.24
-1551.34
1864.44
558.174
-282.967
7699.5
8620.26
1760.14
2598.72
9675.75
-418.983
1262.22
2092.74
6690.92
3063.52
1206
404.471
375.19
1013.93
-958.487
1001.44
-967.296
2010.44
167.579
1689.13
-1865.15
-467.798
-3589.13
1176.01
572.944
1004.21
467.538
-10.3379
-886.517
-1176.05
706.949
2660.8
1187.76
5546.05
3956.18
1388.78
1396.62
9164.97
2525.8
1399.67
226.306
949.289
-638.958
619.066
1064.5
935.415
7086.5
2154.84
1804.25
684.755
7432.55
4586.1
160.307
1162.06
-4163.32
1222.27
-450.388
2967.45
80.5931
3640.38
701.596
5670.83
14951.8
6156.53
494.164
1226.48
77.6842
-11.6775
872.334
-726.503
1796.59
2115.07
392.21
-593.512
1728.29
470.057
-1082.86
625.063
1280.1
-2522.83
-1882.58
-75.1905
677.798
501.221
-995.107
-609.038
-399.829
418.651
-3845.39
-655.321
1835.98
73.4623
473.144
172.287
4455.49
955.573
1247.96
1793.63
3631.53
1710.69
899.915
-1579.14
136.044
1026.73
3653.8
199.549
4797.09
-925.328
-263.227
1937.49
-1817.69
195.141
1025.88
-4144.46
351.937
-40.6735
5454.11
4392.2
106.259
432.439
497.577
6116.84
1923.69
2773.81
-3583.71
159.891
-151.171
-702.596
-106.539
206.89
2077.38
2478.17
466.016
477.53
1180.98
512.638
392.141
1908.1
1183.81
1472.64
1008.9
-847.853
-4016.92
458.056
3988.26
4338.18
1656.76
-33.772
-794.442
2951.45
1915.11
3362.73
2649.68
939.438
858.897
804.437
852.338
-2814.22
1261.72
808.408
2961.13
1285.23
-488.569
3264.95
-764.769
-5376.65
3569.7
1575.29
-920.954
-12.44
1112.39
-643.597
3576.92
2826.73
3453.15
-7173.59
-1859.41
408.104
808.625
1367.23
-1487.17
-594.556
2525.63
462.171
238.821
-441.185
-1959.65
4185.7
535.726
763.802
-3854.79
-3213.34
395.231
-527.212
282.858
66.8577
2451.16
2791.08
720.694
147.213
402.388
440.506
-132.94
-940.793
1983.31
1353.02
1463.72
-851.683
1695.87
-1774.38
948.477
1918.88
126.279
626.585
-393.788
2490.15
611.588
2559.61
-122.706
3465.66
3.54188
612.477
392.053
2926.67
2239.68
515.457
2101.28
-968.68
-2230.43
2637.58
-4436.08
327.44
723.76
1022.8
1792.87
2479.32
-2878.94
-600.87
-194.188
-802.412
-553.429
-935.949
1748.44
4505.58
303.797
-56.4233
-184.34
987.083
-140.594
1057.24
358.12
1820.06
3817.25
4555.16
2705.71
14.0718
618.668
1866.11
969.593
-588.42
708.869
1161.52
912.837
-665.133
552.144
977.374
4650.66
182.451
2495.49
-2645.58
-198.932
-180.745
708.438
2025.29
2347.71
-1325.17
-1633.77
464.356
-788.544
-715.611
3129.23
4185.46
10950.4
16081.6
17951.7
9521.44
4123.22
2740.24
12779.3
3337.82
3999.63
10751.6
7974.97
12974.4
13269.5
6461.28
-323.06
-197.244
3150.35
3966.72
89.1215
5949.11
2679.23
-628.823
234.801
239.36
641.418
5150.4
4431.1
-725.703
2286.21
449.984
1227.18
-937.572
-399.664
874.221
-1658.51
-686.811
-1201.27
1918.33
2581.82
259.681
239.446
-751.487
-54.9912
17.7503
-43.9325
285.876
2747.38
1125.33
2374.93
1461.08
2141.24
3177.93
-424.844
-446.387
2384.32
203.099
-3075.57
1472.35
829.695
798.362
669.624
-429.656
191.418
-1095.39
685.975
21.0803
1504.44
6683.84
4013.28
204.402
957.712
2629.85
-1769.13
2210.8
-769.364
-2104
1161.23
-1982.79
-1611.27
1641.01
499.11
3468.01
1526.36
623.646
1784.36
2384.93
8.12777
274.269
-61.6572
-892.919
780.48
-223.777
-93.5916
539.599
654.088
-340.227
1067.04
1226.96
1062.48
3818.26
3540.41
-243.816
950.619
2966.53
1064.97
-796.268
644.997
-489.556
-778.553
-361.46
-2462.69
1011.71
867.602
5311.93
3467.56
7641.91
4966.86
-4673.82
-2561.59
-1322.4
180.422
-812.557
1953.23
1634.24
-592.215
-249.484
1982.46
-1103.77
797.216
-2227.61
238.789
4028.38
3469.5
5564.1
2507.11
5642.9
5915
5771.93
1218.9
535.822
2993.24
226.898
-325.644
1177.65
-786.177
225.846
-251.204
381.008
-138.997
-880.964
-246.606
-2658.71
127.261
-273.149
-1589.98
33.1753
-519.474
703.409
-1107.9
814.022
650.378
53.9383
-140.544
-72.5086
1432.89
1621.34
3256.14
2512.55
-1579.21
86.2214
-162.304
242.191
-1874.53
-85.9692
270.411
-479.881
487.254
133.178
181.116
-360.283
3950.6
-125.515
-768.45
-767.032
1483.73
3384.67
627.186
1393.12
2378.38
1454.61
6302.68
323.915
52.9721
-1892.63
1642.8
1850.07
570.733
-286.501
-1015.55
599.212
-594.304
-345.831
-888.936
1349.75
2435.72
889.547
-2060.76
1199.57
2919.5
-224.802
1158.39
-396.898
263.819
-341.811
1329.78
866.369
2222.48
1008.68
4282.29
6374.45
2196.32
2317.61
-900.281
2350.43
1209.91
1927.47
-14.167
-1305.12
679.93
749.912
-1545.72
1196.57
585.933
853.106
-4.01893
-1794.07
464.807
2964.06
-609.558
241.3
-6099.16
-335.831
984.107
2409.31
1614.88
365.182
248.828
1682.76
-256.006
4726.21
788.384
-2103.69
1975.43
6041.52
-100.342
3671.36
412.519
2936.15
2164.13
592.215
7582.31
6611.79
-146.271
344.408
2891.6
4744.54
7328.33
2111.01
1547.63
1238.99
1660.69
236.018
514.19
1071.49
-919.337
2375.53
4219.36
3209.69
1105.35
2192.75
-217.543
246.25
-438.031
359.454
174.894
-151.897
-2467.45
207.11
1545.05
393.237
815.622
394.703
602.213
-1509.09
-689.166
-1175.31
1358.92
4421
6206.94
1157.17
757.314
-50.9308
-780.527
-255.025
656.17
1884.8
-305.621
1922.51
317.998
2832.73
5405.79
124.455
-505.763
193.377
1437.04
4957.92
7663.98
3131.33
515.535
948.438
-219.052
1164.64
9473.59
-43.8743
3023.21
-167.981
2970.99
3620.65
4713.76
13566.5
794.518
-893.334
-1614.79
2750.18
-153.486
4575.71
2554.52
-170.809
-342.849
-1314.84
-1754.1
129.16
-1778.83
-315.808
282.182
-1093.45
271.744
2413.35
1316.74
1755.27
-1036.99
47.1891
4315.13
6823.12
-133.309
334.981
2880.96
-624.309
731.951
4331.38
5498.29
3696.94
525.199
947.238
95.2972
6406.28
7956.18
-33.9678
6712.69
3043.96
2278.35
2493.56
-88.5645
1059.9
2690.41
16485.6
8950.46
-5587.19
1129.91
3485.66
14237.4
1213.09
861.971
-294.505
278.447
2330.88
449.289
520.241
-65.5977
-159.954
-99.8595
56.4299
-479.021
-1399.19
-880.475
458.734
1263.19
1191.94
610.053
191.589
-547.845
3477.34
5943.4
-68.1375
358.355
-885.041
223.457
-48.672
2264.97
-885.474
-508.954
3643.21
881.977
489.611
-825.798
-10.6183
-360.856
-2671.59
-1088.99
-337.28
405.717
2622.44
-408.444
883.238
-827.566
843.003
-1045.7
1203.21
785.365
100.698
1068.26
447.936
-353.631
1457.63
2004.56
343.227
2307.57
1982.68
2870.24
1168.79
4238.52
-1763.67
-593.217
-4763.62
-955.061
3041.02
169.375
-1317.52
-1628.36
2430.33
1116.7
367.087
-886.558
1377.93
1150.05
11.1489
3519.77
1491.57
1637.72
-286.301
318.404
1112.2
-190.83
58.7331
-1629.84
-343.897
22.8515
2546.86
1899.97
2144.46
-2.42246
853.341
103.558
-1823.49
4569.96
-1052.76
296.659
741.964
-1878.56
-102.395
-696.947
-1690.97
6077.65
-114.602
1379.41
392.729
861.69
1927.91
-1011.41
-320.201
-2224.52
-2006.44
-173.372
-1284.36
960.157
2541.53
2923.37
4267.46
4776.38
1158.54
98.9498
-3125.91
359.725
454.07
2214.47
74.2741
-539.519
-270.414
-252.037
-49.0821
-1684.58
-1102.64
-601.97
845.512
-553.043
-84.7362
-2181.7
-125.107
2101.49
4316.36
3790.1
-1697.8
107.853
354.453
23.1086
-237.87
-1057.76
1744.17
492.122
1534.45
-958.163
408.041
2714.47
75.8296
5331.34
1583.67
-7379.44
602.611
-40.1377
-2068.94
5259.27
2111.43
2400.59
11562
4645.06
495.42
1304.29
929.152
801.195
-1976.98
-11.7191
283.789
-3099.32
452.57
620.896
-464.698
-199.564
274.153
2963.39
1106.12
-807.07
-1517.88
-321.061
1292.03
1385.14
3075.96
3567.27
985.253
594.486
1372.69
-1623.45
2626.37
-2640.59
-17.9622
369.535
2848.33
-664.336
2424.22
159.364
2972.74
1196.03
6596.14
1767.27
-266.76
-1501.5
543.162
-631.837
-3668.74
-757.401
-1340.67
702.795
989.374
531.194
3318.28
-117.875
-4052.15
-2912.09
134.308
1460.48
-206.882
1601.18
-655.532
-1424.07
2261.72
-265.213
2442.85
13293.8
15075.8
10422.8
14538.1
1931.77
-870.468
887.505
252.611
558.319
2046.45
5621.98
4701.31
574.613
976.533
-1737.98
4396.8
3085.41
2537.19
380.132
2456.16
369.365
89.4968
2162.85
-350.342
3786.89
1883.4
-704.227
1447.24
-83.6335
-1046.79
645.292
2098.05
-2384.24
-2562.33
60.1873
-247.287
105.744
3980.75
