1806.72
3058.21
6404.29
4317.49
10080.4
13216.9
11072.1
5448.89
3333.29
2313.98
4372.36
6470.32
8119.24
12572.5
13963.8
12375.9
8048.91
7718.87
6010.15
9733
9347.43
5245.46
3952.1
3982.91
8462.4
7092.01
8475.63
3474.2
1309.39
5569.69
2914.34
4213.2
1651.92
92.0933
2006.85
-253.956
2253.7
30.3657
1560.2
981.693
-91.5207
13.0027
827.032
-2876.48
1916.16
1482.18
-2339.66
660.179
5935.69
1560.35
3356.49
3619.77
705.266
983.683
-1339.86
-477.102
-264.821
-614.336
-109.078
316.816
-1183.6
-766.469
-85.0773
501.971
179.266
3648.24
2070.32
-85.0103
-836.978
22.4615
-543.814
134.277
-1991.7
-1610.84
-188.176
728.087
495.783
180.768
508.854
-883.556
-1904.89
-1194.78
-296.57
-455.009
1563.72
7323.66
10391.8
8763.45
6763.01
5867.01
7113.45
4803.17
6636.03
9333.18
7961.42
7261.12
7572.3
10774.9
4378.44
7866.05
7596.82
974.428
-535.922
-564.163
-945.134
-1418.24
-899.195
304.425
717.773
-159.276
-1582.41
-990.313
734.598
243.844
126.731
2589.65
4328.12
4257.61
2213.93
1555.9
844.486
511.231
71.0739
-484.425
-977.756
177.245
246.49
-1074.89
-2037.27
2210.62
577.362
2849.52
2171.28
4100.48
5993.07
8002.76
11697
8976.24
4479.11
2002.51
956.282
650.986
1145.61
504.469
443.45
-2226.87
-3048.8
-1223.55
-721.449
-107.51
-824.879
-1285.87
49.7928
402.389
2737.97
-421.674
-252.337
-1418.12
427.35
80.9634
171.545
-40.5819
-489.517
2607.68
2960.58
854.145
148.403
2968.32
1306.02
3703.04
5391.85
6261.67
8512.36
4944.66
1185.97
515.674
436.771
-1114.93
1205.66
-1471.89
-107.602
2606.46
-262.138
876.914
-1166.67
-1357.72
-860.145
-445.336
668.652
994.862
2696.83
1205.55
-663.668
-785.215
-70.262
298.297
3164.94
4322.61
7286.97
2061.67
399.232
2806.52
2200.37
1832.96
-1.96398
166.962
202.945
170.516
-65.8568
-3261.6
-2877.09
-4315.8
-329.443
-258.377
-1359.9
-1319.15
-2561.12
-140.861
-287.157
1050.45
1095.29
474.113
-137.92
-67.6622
1709.04
2331.78
140.553
-371.228
-2181.29
-1735.94
-1029.25
885.244
4679.98
683.06
4931.01
4624.82
691.138
-2349.53
409.592
-855.509
-661.724
-379.121
58.8291
-521.053
108.372
-169.934
-302.716
-30.6017
-274.682
878.484
-182.263
-97.026
-1207.52
618.471
583.2
787.692
1536.11
3364.84
6838.39
6195.58
8750.03
14306.2
11047.1
12181.6
9064.55
4914.09
413.677
-185.077
-319.159
317.351
-652.68
-1384.12
-1749.8
-2405.61
-3601.46
-3220.36
275.329
2171.31
2447.78
3752.41
34.0828
-3752.56
-5142.63
-5630.35
-3306.67
-3432.85
146.731
385.023
161.876
-2484.31
-417.845
-609.069
1014.4
2247.35
6281.52
14397
11776.8
13217.9
9092.82
9271.74
13602.6
10152.1
805.787
2175.25
-578.607
3534.33
2652.89
4279.98
6490.37
2695.89
1850.73
1555.75
2980.47
4742.32
5715.5
7741.33
2127.38
1799.25
735.583
224.953
1056.46
374.737
3506.95
416.673
-403.304
215.098
-665.343
416.713
203.181
-2081.57
-1155.23
137.909
1038.25
4257.52
4353.55
2206.43
210.287
-1524.5
-667.893
210.459
901.966
3810.44
3477.29
1361.57
-548.689
-342.661
215.631
-81.6939
-46.1729
-979.51
685.1
1213.23
-865.13
39.2491
-797.795
723.252
-483.934
-358.746
-484.23
1479.38
744.567
2454.68
558.479
-1444.5
-1105.17
-1248.52
-157.427
158.336
-1909.53
853.076
1944.14
84.0404
43.8084
346.811
-30.0786
990.557
6.76609
1108.06
4268.18
749.85
2059.87
2752.38
2244.33
3413.99
7142.88
18981.4
11843
10068.5
6669.35
8638.32
7003.69
7205.11
4695.07
42.8119
-654.872
223.205
652.732
1566.42
115.188
573.32
779.847
707.662
3028.46
-348.532
-461.96
-344.71
-3591.22
-1542.85
-1332.78
664.202
-275.052
386.575
-251.301
489.556
-1153.78
-162.223
-170.744
-27.6978
-406.637
9.34946
1364.91
3693.78
2162.09
2115.23
2788.28
2476.82
701.093
1573.47
3265.18
4444.16
3889.72
3948.9
5822.14
1966.32
4085.29
3054.79
949.68
88.3205
-750.957
-495.252
954.695
423.701
-668.452
-557.972
1031.21
1489.51
3907.8
3288.16
6279.66
5983.2
3210.98
3981.06
4576
6232.9
5822.13
13384.3
12142.8
9844.27
8540.43
9011.13
8771.47
6375.18
4108.52
3592.78
7397.06
3168.35
3156.86
5899.02
961.907
9217.2
3068.06
782.721
-2670.64
-550.67
-427.994
205.794
507.585
50.5827
-224.626
-735.764
300.397
2480
678.772
3180.38
4428.14
6767.8
9092.14
4555.95
2448.87
1661.9
2867.59
3356.61
1714.63
174.385
91.3828
4043.69
4662.99
3154.42
3360.4
4120.74
1672.73
1175.43
-1676.46
671.983
585.688
-989.967
-2387.37
-2579.85
-1327.06
-2232.81
-565.636
-786.653
-204.77
475.256
290.119
1829.93
678.664
-393.943
-1423.48
-747.809
155.642
4183.52
4546.79
1520.35
901.814
1201.18
4476.55
6321.56
6770.39
6278.31
9246.65
11383.5
6837.77
8311.73
9985.7
6948.58
3320.38
7288.3
6619.91
8131.66
4422.02
3246.46
1567.17
140.281
497.105
928.603
828.975
465.657
1021.13
650.825
1341.73
358.581
-99.3644
1327.53
4556.53
1631.88
933.274
1967.07
1415.41
2279.83
740.316
-252.368
-1229.29
-1598.3
-1319.84
-39.253
413.818
-602.364
-303.033
248.25
454.545
-540.394
405.286
740.001
3539.5
527.015
274.426
-883.648
240.791
2173.6
1313.62
807.477
-118.283
-949.839
347.606
-485.676
-613.088
314.939
-149.161
-810.662
-309.188
72.2659
-822.843
-646.423
1974.69
667.698
33.0774
-3032.48
-3037.32
-1269.7
-975.119
1806.49
-481.812
-410.54
2181.09
-680.894
-941.74
-974.186
-769.201
383.361
-346.645
-1008.14
-1242.7
89.5039
731.163
171.599
-10.4749
250.025
6.4002
136.188
-1232.66
-770.183
-1295.87
-935.413
-161.326
-839.709
-1663.29
-2102.19
-496.037
609.168
998.755
12.0327
1185.98
3559.21
-266.061
439.786
756.91
1915.35
1842.43
354.453
355.363
-582.543
787.921
-512.722
-581.666
-275.451
637.804
671.152
-289.712
429.899
-1241.47
-1548.73
1554.01
-588.713
-47.2072
1608.88
2795.65
3196.41
2609.31
8136.52
7502.2
3891.85
4772.47
3348.91
1646.47
3146.71
6257.29
3810.99
4471.09
3861.72
1700.34
345.554
3234.87
3606.1
2267.14
4230.25
2959.47
2031.72
4392.41
3643.33
1712.48
4080.61
7277.44
538.018
-115.081
-663.645
232.05
-845.952
605.919
-389.142
1264.25
1328.46
-384.904
-150.343
-1175.89
2029.11
321.238
2012.78
1549.48
4595.88
5985.29
4661.65
5667.44
4989.61
1382.12
1244.16
356.013
1408.86
1561.03
-445.243
896.225
71.0627
-264.867
-648.801
-487.051
-690.831
258.675
-4.17285
-130.284
1154.53
-439.671
-614.575
166.026
767.066
581.324
1011.61
-556.257
-100.8
-394.982
-1614.22
-1166.94
-369.413
2741.67
4570.7
1031.86
1112.92
3051.42
1321.16
6259.25
7410.14
4062.02
3951.76
1969.17
1093.6
3115.17
2093.46
-38.1061
-380.205
-68.8564
-685.399
-433.277
-52.282
79.0763
-157.768
518.373
891.419
-773.661
-1997.79
-3690.67
-438.289
-1357.56
-789.817
239.892
-37.436
31.4655
-176.84
41.4016
-1020.26
-724.862
-2007.53
945.126
-225.896
-1254.98
613.563
-114.773
496.104
2751.99
1478.03
1785.82
-530.878
-216.863
276.063
155.456
-1687.37
-115.04
-839.153
-439.768
-872.756
-705.84
-175.404
689.91
1092.88
632.555
860.984
423.985
-84.1378
871.982
541.876
136.797
-41.4293
-784.484
-521.27
1137.47
-161.826
13.7056
1103.89
-995.268
490.721
-209.002
-466.301
-456.303
91.0901
-937.067
1061.2
571.854
1486.81
715.523
-268.498
-411.621
-1245.22
-2979.73
-1504.69
-644.809
2008.58
2448.52
963.238
1517.64
-858.181
-430.433
263.683
-1980.87
-1485.07
-785.492
-504.833
-997.968
-488.039
577.939
4507.87
6624.4
5242.9
5108.15
1070.62
-410.272
1246.45
3060.93
2039.77
605.84
2054.03
2514.31
-562.356
230.951
40.8824
-511.263
159.103
-2705.47
-3719.07
-774.639
335.924
5905.06
3622.25
4306.94
2281.67
3105.11
6720.39
9878.89
3109.78
1656.47
-1241.27
-272.98
-1396.59
-1278.12
-4080.03
-2431.79
363.828
-990.916
-1379.46
-1456.82
-2063.42
388.937
-22.0988
-102.341
178.337
-860.058
-965.829
-832.704
-960.205
-666.133
578.752
-245.116
38.7469
380.306
1649.83
3207.09
2275.08
27.8262
238.003
-841.937
2052.61
-321.916
228.163
19.2911
522.02
98.3006
-756.419
-276.329
1098.47
1708.37
427.254
-621.961
-608.687
195.995
85.6736
1415.43
2090.42
-678.451
-1087.47
3166.49
3438.71
993.225
2663.59
-983.937
-1026.14
-1328.33
-369.354
-541.475
-897.948
-566.138
-617.149
-650.532
-2334.86
-794.099
-153.395
-222.606
-92.7106
1015.76
-1136.06
-1428.66
-1982.89
-202.202
-1179.1
-686.402
2036.65
998.707
709.962
66.5522
-68.8792
469.394
2513.45
6614.75
-1405.57
-2057.94
-946.569
-159.824
-942.406
-2415
-1272.47
-165.245
1609.68
1708.94
1087.28
895.677
2134.64
2196.17
3570.37
3049.06
947.28
6028.46
1891.82
222.726
-108.269
654.153
59.737
874.123
1171.85
-183.298
-571.751
-2018.87
-402.222
87.7414
-1959.16
-1577.13
-450.524
93.8477
-899.209
-809.313
-478.987
-256.301
936.191
355.148
234.906
-22.8863
-1087.2
70.6998
801.11
730.92
-67.6637
-68.2878
-313.797
710.784
-503.723
-354.375
520.185
-22.7672
-348.83
-235.794
2479.25
-28.5588
-1691.24
916.374
-667.978
350.255
2744.59
3212.69
7009.79
2970.18
830.3
4203.79
2932.04
2975.4
1692.34
3169.66
3605.41
1147.33
-238.042
-205.547
2107.18
563.273
-155.742
-351.523
-134.283
-597.344
-1080.01
-99.3992
179.763
4064.97
1463.96
3705.67
1608.98
92.907
-1300.04
515.743
-1009.35
142.344
-94.479
-1991.48
-1619.07
-1.27937
-48.1573
283.834
157.199
1113.75
2057.43
4483.07
4902.38
3864.55
2794.75
1829.83
-341.029
-1660.52
-314.75
1599.49
548.137
912.627
328.141
1159.35
417.997
4199.77
2952.27
3242.98
28.0071
69.2205
166.916
-378.641
110.699
-550.75
-515.006
170.581
-11.9829
-180.35
-495.47
1213.07
745.13
-603.098
494.608
1875.24
1851.86
2.58183
838.873
-1161.64
-268.261
506.377
-3141.84
-1667.05
-1066.84
-170.404
-50.2447
1260.36
1267.38
747.037
2130.52
9925.13
4979.42
5104.5
4885.14
5012.87
4404.26
5199.8
2268.29
2512.02
84.6944
-89.3592
-41.4475
662.073
770.199
626.498
511.299
-1269.16
-81.348
-656.202
310.335
-541.142
-1309.6
-683.421
-1115.32
-270.214
-58.0638
277.143
-250.44
239.981
-52.685
1203.19
730.062
-478.79
66.23
-442.614
17.5047
801.976
288.542
216.328
-844.305
-304.254
-1026.35
-900.332
398.553
-1401.22
1226.83
-121.791
3080.47
2655.83
337.758
283.635
800.112
344.5
63.4752
491.738
-629.393
428.982
-321.647
283.791
931.153
3275.2
2580.9
30.903
-70.7385
-1223.31
-213.757
39.0607
-475.785
-124.365
164.555
403.264
816.559
1099.48
-40.6401
97.4417
-983.225
678.43
112.067
-97.7888
-164.721
-171.334
340.726
-885.006
-1086
-1011.85
-321.918
319.395
239.12
384.327
9.47817
-541.245
-529.279
-56.9713
-889.725
-222.162
-1405.82
-1539.78
192.792
-80.3864
268.166
46.7507
427.859
133.798
2489.48
8475.3
9862.86
5838.73
6347.85
-1794.65
2840.61
1654.35
875.504
2344.28
6134.34
1130.98
1669.24
2390.95
273.982
-75.3847
-1596.12
-2476.2
-3363.56
-493.165
139.018
-287.905
-301.563
-431.267
1147.92
697.282
-805.693
-470.564
181.919
-49.5501
252.875
1045.67
358.162
1078.82
792.512
819.114
565.751
24.2587
-608.731
-782.625
-809.916
34.6059
-279.162
915.333
740.267
75.0776
-135.989
523.396
1080.84
-970.896
-1997.24
-2083.53
-2187.06
-2056.04
-1680.17
-3604.59
-1047.03
2443.14
3941.84
3737.02
2095.07
1201.75
3651.52
2554.79
1540.97
-1474.61
2386.42
6781.13
6111.02
1946.4
173.745
-14.1125
-524.63
846.276
1678.58
-766.871
-830.104
-1313.85
905.266
424.448
365.256
377.446
1655.9
638.265
441.525
433.836
237.397
-189.568
-750.591
-451.155
-441.614
553.543
1646.99
1292.54
1038.89
-443.211
-188.992
1568.81
3104.44
-308.932
-295.947
-1132.73
-1426.82
-2187.99
-2301.35
255.033
-1326.62
-1085.39
549.031
-331.473
-1670.41
-248.312
-247.107
-107.67
-1935.19
91.7846
189.939
1489.58
305.94
-1792.69
357.608
801.127
1255.74
2085.39
5252.6
269.707
395.593
-414.562
1217.36
142.642
-13.5453
-279.409
-450.189
-100.541
855.409
4373.98
508.923
-127.729
204.35
-47.3478
1998.81
-387.167
652.703
1131.79
1895.36
2284.75
1690.07
4936.67
2377.2
-642.45
712.924
-670.014
-1602.79
17.5532
192.117
383.449
-2.82068
-626.237
-10.0878
-208.998
-715.377
-72.9451
-198.428
979.995
202.221
1705.34
2259.44
831.839
991.718
3842.52
8631.33
7409.57
2590.83
5827.29
4475.57
2687.25
7363.52
6798.45
10887.7
8324.57
7358.39
5458.16
-1605.41
-3978.29
-1537.71
-1620.16
-1551.32
-1084.2
7.30027
-521.028
30.7752
-50.1603
803.874
208.621
-711.435
-301.226
-992.774
-524.725
706.381
-172.329
40.1064
-1796.41
881.615
1212.68
636.934
53.7826
107.444
-544.458
-505.939
-2786.93
-329.98
487.483
87.8585
1301.41
1885.03
-344.275
2821.84
1849.71
1492.74
2772.71
690.177
507.7
501.838
-321.237
3953.16
3978.71
5679.92
4475.99
11174.3
8910.96
10972.8
13691.1
15261.9
21189.2
14354.1
11935.9
12980.1
5309.23
2009.93
1139.47
3743.52
3141.56
-826.529
-1232.54
-1700.94
-505.201
-445.363
473.122
1127.35
2302.67
414.509
214.718
-687.5
837.919
-118.248
317.155
-32.9052
205.163
-415.263
-1391.31
-928.485
-1272.21
-107.792
188.606
-1488.84
-1399.64
-840.162
1384.1
-342.596
170.158
-103.97
313.93
46.1159
1541.2
2367.61
1134.17
850.098
3796.78
2932.26
2595.14
2676.08
88.7648
659.822
362.534
-474.782
-943.391
1099.97
1690.59
278.895
1242.37
271.198
1521.68
3261.3
3988.26
-794.126
1170.71
1267.33
-391.423
891.472
-1751.53
-1557.43
333.426
-629.521
-933.71
-460.74
486.06
197.038
1634.55
238.858
-3359.3
-386.2
3174.85
-1387.58
-744.684
-1780.73
-411.898
1368.99
3036.27
6917.21
3215.17
2741.13
-1040.89
419.446
1908.6
246.893
1558.86
3308.54
1428.88
-458.76
-905.244
1754.63
-393.064
-213.695
-532.669
863.759
8.4931
-490.335
0.391104
-249.167
-335.217
-556.665
-589.689
-18.7082
67.3306
764.924
1158.84
237.843
206.763
-592.861
1698.59
3218.06
3565.79
505.776
-847.356
-139.087
-11.0424
-1306.08
-366.871
89.8807
53.0968
-44.1551
204.909
-507.421
506.685
-666.94
-5.53267
-1359.37
-607.395
-573.965
334.164
-356.493
-79.8278
15.7923
19.6613
-212.539
-232.025
-117.066
-339.408
-284.144
-1097.74
-956.828
-1883.1
2058.17
2853.39
7672.48
2746.88
1574.48
7690.56
8616.66
9688.31
6590.23
4799.52
1754.17
1951.42
2099.54
1787.61
3219.23
3360.26
3094.9
1863.97
222.417
780.721
1920.43
1118.56
-563.556
-606.797
-995.059
242.828
-1535.14
-228.753
-764.486
-1947.3
-389.488
-1941.14
233.992
-718.013
606.409
316.75
726.618
-894.963
-2382.77
-857.55
6.46626
183.852
-557.736
-114.203
-673.578
60.6558
1992.81
-768.079
4100.28
7306.92
5660.33
5522.48
3021.57
3360.96
5791.19
5611.28
4200.52
4177.45
6251.06
6401.41
7534.4
7894.91
5026.14
6095.81
2945.43
5999.26
4172.53
4337.8
5122
6874.33
6336.75
6250.34
6239.83
2568.65
400.358
-209.133
-168.307
-380.631
714.244
232.62
643.958
840.534
1442.38
2709.06
-150.885
-1250.38
-3197.49
-2349.83
-1811.38
-1463.12
-1778.85
-3978.81
-1559.82
319.819
-1333.94
799.688
-1110.67
-927.569
-2500.74
-143.997
-415.427
81.2882
-884.529
-852.511
-201.621
1628.91
1413.24
1386.68
3810.05
2655.73
-843.797
2096.63
2083.97
-59.8338
-2360.3
-42.0265
15.1802
-649.806
-290.942
-736.482
-2154.61
-452.249
-2757.77
-2208.47
-261.904
-513.126
5235.48
1584.17
48.7653
-193.165
-383.447
-720.838
-456.861
-828.514
-1126.22
-324.545
-231.572
-734.019
-887.175
3447.87
1128.41
5735.52
2172.74
3281.51
1913.06
2361.13
1447.32
-1814.29
-240.916
71.3244
2282.69
2028.75
1227.4
2018.35
1480.58
878.741
658.219
-120.208
1041.83
3789
8254.71
9974.7
4936.7
3093.35
-189.923
-244.205
-504.32
-115.477
-1364.7
-997.803
-1199.58
-55.7848
132.912
-1567.36
22.3399
-188.388
203.438
-457.306
2704.76
3140.92
986.156
955.61
3850.99
3010.29
4164.03
6334.46
5582.09
4891.71
1171.4
3714.76
4033.49
-99.3005
238.127
601.957
299.425
583.654
120.726
1880.27
60.3406
8002.21
6997
9454.2
3949.88
2069.09
-2352.01
-1039.68
1178.26
2900.46
2496.24
3369.18
3914.98
4773.86
6505.33
8491.39
13677.9
11028.3
14910.3
14584.8
9022.81
6330.58
16452
10578.9
6190.92
690.73
-2218.43
-1617.34
907.866
131.947
929.613
2519.15
4570.52
3447.99
723.662
1128.07
-1157.88
-2847.2
-1217.19
1203.87
1019.64
514.975
25.0656
-15.9043
321.603
489.828
0.588437
2448.54
1161.66
375.397
-4.09338
-249.909
-309.902
-1547.01
-1342.85
-1046.18
-115.76
-2392.25
-1734.22
-1565.74
-658.162
-858.903
-957.785
759.476
1560.66
2482.19
4881.83
1834.9
2449.52
-69.2875
-1987.51
-501.887
-1544.7
-2795.59
-1131.48
-1850.45
6.50358
393.038
947.983
-708.174
-985.756
-1321.34
-2345.78
-292.854
36.8423
716.365
-3154.65
-2893
90.9209
403.911
1258.93
1909.71
1214.77
454.684
-84.5554
2688.64
1878.44
3837.83
3064.36
2025.56
2676.78
1685.04
-398.381
-41.692
-1137.39
-1035.27
186.592
-405.929
4319.84
4061.63
4048.23
-1338.33
-3009.4
-1878.27
2521.65
1553.05
-677.277
-635.204
-474.321
2890.35
-21.8503
-1379.82
-405.293
-402.294
-107.713
518.502
2022.21
-3958.56
360.228
-82.0833
668.67
181.04
965.605
1586.49
-776.379
1508.01
1507.9
2101.34
1000.91
169.497
1644.47
819.346
496.994
1571.55
1740.86
-101.231
492.242
105.788
1623.69
3055.14
7478.74
6809.69
12961.5
15951.8
17044.7
16285.7
14845.9
26488.5
21740.4
27313.5
23990.5
19805
25893.4
18853.1
18022.3
12449.4
5656.63
5113.04
4426.31
1528.64
2701.28
-93.9636
149.466
181.212
-910.936
1017.41
643.28
653.462
476.437
778.911
2947.54
588.695
-612.021
228.267
-432.51
807.572
-340.655
673.793
1380.44
747.839
-15.751
750.822
-1037.27
1370.83
-891.323
460.295
-67.5587
12.162
1503.15
1843.72
-65.965
-651.249
227.307
217.557
-334.398
871.128
-42.7432
696.103
-486.449
-509.041
1629.48
-205.079
-458.974
309.273
-56.6996
-482.288
-820.359
-3097.36
-1677.11
-757.541
-217.892
4008.6
3840.02
2828.85
3147.08
2695.95
3614.8
1891.75
9026.98
7281.62
2127.79
-349.603
-379.002
2808.28
762.419
789.221
-609.108
-619.505
-425.078
-1031.66
-2476.68
-296.626
-266.397
-2373.8
-1749.62
47.2948
-228.502
5051.33
5296.32
2183.49
139.281
-169.133
-270.994
-336.507
-48.4075
-539.664
-455.72
-595.163
-395.437
-10.4579
83.2052
734.217
-147.902
-744.368
76.9564
2882.32
1448.74
2990.48
2770.12
1340.57
163.493
1299.71
2054.01
-638.01
2980.44
530.38
-3878.46
-1639.6
188.057
459.947
237.854
513.608
-109.033
56.7016
-922.58
-105.784
-1639.35
-1780.87
-374.959
-512.452
24.616
576.041
1487.73
2241.22
2039.48
3490.31
1884.15
4476.64
1901.16
2198.83
-841.524
-484.616
-3495.78
-1151.5
350.059
24.5663
-1397.77
-928.881
-1667.07
-1871.28
96.7521
-961.557
-587.469
110.41
-73.482
-1597.91
-711.41
-713.026
101.905
-323.996
-1435.24
-1201.74
592.944
425.299
491.044
730.146
1516.57
-43.925
2508.53
1923.34
390.396
1081.23
-873.288
-1714.22
-475.117
-1327.22
-1842.68
-805.34
-339.574
-468.181
-506.046
-311.218
-700.96
-377.926
-204.36
-202.818
677.455
1102.14
2081.69
1361.42
215.23
177.652
-53.1066
76.4899
-2173.72
-1095.13
-256.567
-317.425
-138.273
-12.4563
478.213
233.41
3648.72
2212.87
3584.49
5877.95
3571.94
4677.98
4456.84
2181.45
3725.89
2173.19
6176.22
11333.6
2591.15
60.2501
1415.96
1159.41
-1651.53
-1024.02
-340.343
-139.183
409.736
-320.718
-3136.64
-2593.55
-1856.38
502.59
-287.43
-85.4604
-92.7301
-1449.25
-250.397
-484.104
361.111
80.0233
-588.768
-1082.71
-860.884
-879.915
-1082.64
-1608
-829.439
-1799.54
909.889
-24.588
-57.0846
1494.77
-201.729
-445.027
-644.531
3944.58
2891.43
1442.91
1111.08
806.712
-1124.45
-176.661
73.2984
497.77
132.243
134.575
-878.07
643.657
-768.866
-3160.95
-2581.07
-3083.91
-1975.56
891.423
-1361.83
-1685.06
-1697.81
-1877.05
-1738.7
-1282.5
169.574
2056.03
-29.7754
438.472
-849.031
-220.763
-711.822
1978.58
-1027.27
-803.21
117.462
-1369.28
-1638.46
1034.27
812.667
705.96
1640.49
-214.007
-414.762
-1078.88
-877.523
-879.854
130.953
-523.276
-957.538
-1743.2
-1975.39
-2982.09
-382.565
-758.814
1006.05
472.521
2435.1
969.261
3673.82
-379.456
452.283
384.32
488.634
281.346
43.0427
126.795
-457.634
138.716
358.33
854.053
645.531
-1195.21
-2085.64
-614.516
125.733
-83.9219
-551.947
-262.902
448.64
407.154
1391.19
-366.276
103.613
-765.874
4475.74
5094.65
4802.47
5229.43
7577.55
9806.65
5165.07
56.8208
2950.17
1567.57
4485.04
6316.05
8731.48
3571.01
7528.66
6120.33
5756.76
3514.54
5631.68
3426.65
2284.8
3548.08
3716.75
3701.1
3749.95
3363.62
8311.34
2361.26
2976.49
-70.5704
-1812.91
-1470.12
-196.424
2680.89
5271.42
3204.92
96.6574
2136.89
2720.71
3759.98
-438.366
-738.01
754.558
52.7004
175.773
219.692
-226.162
306.973
851.708
320.325
-617.918
-671.686
-61.6409
-1597.51
-131.854
398.048
-267.339
-237.109
-1864.92
831.031
31.6205
-1004.55
1.29186
-287.552
-96.0749
-474.337
617.953
-639.091
768.103
-746.323
4347.49
3832.4
9992.87
4532.8
8177.79
6154.62
8946.06
6558.69
5614.92
3563.77
4577.37
5896.93
4386.82
4808.72
1604.28
323.598
-1820.19
-2589.58
-2313.64
-3957.76
-2165.15
-988.404
-748.041
-895.251
804.896
919.118
785.914
-233.665
-207.539
-136.482
1008.36
-1308.29
-1924.96
-3553.14
-308.128
-2138.27
229.75
-201.951
-790.815
-2409.77
2812.46
197.98
-961.303
582.234
115.375
-139.676
388.121
-765.415
189.987
1212.86
-277
1474.72
213.267
466.552
1991.86
2428.63
808.895
647.184
4206.34
-204.735
308.208
-71.8582
-1002.92
-1362.93
1110.4
2984.17
3827.28
4229.83
4144.72
3190.13
2546.17
-379.431
3127.44
4405.41
2727.81
1429.3
-824.623
-595.899
-200.398
-165.21
-970.361
-3302.88
-457.031
-227.357
-395.606
-596.571
-212.41
-366.681
-1200.06
-1208.63
-543.793
-607.597
91.8743
358.358
987.823
-987.354
-2008.39
-631.104
-624.189
2300.12
9516.3
9185.39
9803.98
12147.2
16139.1
11189.6
16149
10749.3
6843.45
3962.97
4685.66
1124.96
126.082
68.5082
-587.366
-2729.09
-1964.1
-643.782
-2116.01
-927.311
-234.814
-339.956
-942.07
1586.9
-2440.81
-1550.74
-599.766
-1029.14
-27.7404
-513.904
-645.326
-809.288
1608.8
140.357
144.421
834.212
413.118
335.421
-84.7104
663.753
7125.93
9329.16
5243.08
8843.29
6115.59
3103.21
2320.31
408.374
729.869
1649.36
2296.43
-203.224
-129.767
-612.355
-53.1744
-412.064
-81.955
442.053
-421.986
-1065.56
1201.98
-440.093
-605.591
199.371
-14.0379
-1018.8
502.877
-252.641
-953.672
-2415.32
-2444.64
-1975.79
-2399.19
399.358
1813.24
2748.98
758.701
3944.27
770.202
-539.134
158.19
61.2007
107.247
270.795
36.9106
-1432.2
-2632.43
-1642.39
-2532.2
-712.258
14.3711
-981.441
1541.17
4522.23
6169.78
2622.64
-401.142
3011.71
333.413
323.949
-355.771
-757.384
-51.5121
2146.03
57.8756
26.2241
471.533
1590.13
-821.437
-442.609
-607.401
1002.95
9396.05
4311.25
3109.95
3751.87
8.2197
1314.39
3853.86
3985.84
4359.83
2318.95
2049.18
-1333.14
-1682.01
-4464.64
-85.0617
1847.15
-431.205
-1046.95
-3699.13
-1089.52
724.514
809.369
4428.41
508.32
-546.185
-1082.8
-559.657
-2017.63
-133.291
-336.895
738.222
1559.96
430.859
1906.85
667.851
453.588
200.056
2702.88
-172.54
983.601
1275.83
-1111.86
581.81
6775.21
4604.23
3588.16
4628.63
1468.6
1317.16
-179.584
-658.062
183.473
3162.27
832.741
114.533
-1101.18
-48.5113
-1129.27
-253.851
46.0643
-598.149
2342.01
1738.71
2623.57
33.7462
-457.973
1338.02
4752.52
5565.58
3739.25
661.975
866.526
691.477
193.193
369.298
-50.039
-235.858
-262.354
-181.898
-581.313
-895.427
-370.207
830.583
305.097
-56.3421
804.577
-1206.84
-27.5184
-447.194
-1361.29
548.566
-836.495
-3339.18
-2384.13
-969.692
-2747.17
-1872.28
-1068.13
-822.179
-215.862
-576.675
73.8911
10.4639
-64.4115
932.235
1331.89
5315.08
6007.4
11124.2
6042.85
1668.02
1247.95
3451.5
2836.56
1574.17
-778.045
-2126.57
-1091.35
-1207.76
-3034.04
1775.3
1909.79
2411.64
1625.6
-134.285
-511.916
814.555
-1275.67
-2026.94
-210.252
262.972
2391.89
6684.16
6239.32
5985.09
963.6
3943.8
4454.64
513.319
3003.89
841.812
987.682
2275.06
2188.57
4947.15
5287.31
1952.3
1342.23
639.599
1700.19
2337.29
2763.64
5812.15
9609.21
535.635
2932.27
-1203.67
355.13
-95.0005
1501.35
-1574.98
-1237.84
-805.605
685.477
672.983
-1492.36
-134.766
-1647.44
-322.979
-978.146
-551.828
467.26
-88.0701
156.089
-97.0348
232.698
-351.126
521.71
880.981
-190.765
-979.014
126.278
-1055.82
159.608
-1504.38
838.402
1246.57
1136.36
-35.6728
998.41
1304.53
-419.325
-1368.64
-888.085
-1715.27
618.067
84.7066
-466.931
-1026.93
-340.438
181.08
-465.641
361.218
1884.92
6130.86
984.227
-828.424
73.9059
-595.955
3479.54
142.742
1315.13
1034.91
1444.89
1017.37
387.778
-166.356
-1581.45
2837.61
7163.4
8858.59
6113.87
3866.22
2637.15
-258.567
-206.199
-284.962
498.619
-739.57
-215.62
-91.2721
-24.7461
-363.721
83.7437
-391.457
411.407
2087.56
4149.22
2496.31
697.851
-377.575
109.869
-180.401
-5.44024
687.64
-10.763
-867.398
-1255.75
61.5027
-540.345
1393.88
-506.627
-40.55
4.27077
-1.00286
1057.24
-586.36
947.799
1383.51
-305.297
-726.432
-961.155
-558.56
-889.726
-418.093
1238.6
-68.7541
825.247
324.886
201.49
-2132.52
289.113
-2604.44
-261.435
150.274
65.9581
-415.515
139.586
39.3822
-329.198
-181.611
-454.672
-602.153
-263.858
500.244
1122.04
6015.18
6937.12
10878.4
5647.39
4927.41
4163.59
4087.7
6176.65
11365.8
3675.37
-920.923
674.727
86.3034
612.119
2010.75
400.986
-711.535
-1201.64
-230.222
1019.39
519.129
-223.399
1274.83
2469.2
324.49
1203.12
-450.225
-385.598
890.366
2191.01
1467.81
1438.41
941.484
3324.2
1873.03
349.235
2296.79
4228.21
46.4581
552.737
2017.27
1672.84
-147.921
-605.124
-965.819
188.307
365.828
-1002.08
-176.736
-927.06
1287.23
-196.805
-620.741
429.396
-1049.17
-1715.51
-1960.84
-1511.82
-636.667
-758.754
-26.2748
1257.2
617.261
1283.46
-187.426
-1718.97
-972.14
-1437.63
-2609.74
-1758.32
-1879.32
-715.617
836.847
4.73093
-931.102
1522.31
5724.55
1378.38
5200.19
410.08
2737.26
4111.87
4642.47
7457.26
9408.71
10728.8
4401.41
6729.47
6148.46
4512.33
3752.35
5488.78
3190.45
3395.89
1628.47
-955.071
-798.156
107.056
2508.85
5934.6
2334.5
3364.38
1688.05
831.64
-1128.22
-763.78
-321.461
363.266
1614.75
-1315.09
714.37
2650.51
8915.94
3469.32
1102.1
2374.95
1929.11
3155.65
1033.26
2852.77
896.338
159.318
373.523
-1691.24
-4016.2
-1891.34
-321.851
993.498
2815.88
6003.79
10665.8
10030.7
10291.6
11081.2
8862.68
10938.7
3985.81
1402.01
1447.16
-348.045
554.25
1608.82
701.338
-3028.91
701.001
-413.785
86.5425
4122.14
2331.99
2216.33
2587.37
6865.13
3920.78
3678.48
3894.69
2067.82
-176.121
435.093
1102.36
632.866
1417.3
-467.791
623.194
475.032
260.127
-348.748
120.425
112.812
-51.027
-244.1
-1378.12
-849.509
-26.5823
-78.0022
-1201.93
-206.279
-826.799
326.574
-633.522
-1157.04
-47.0635
467.952
2956.32
10520.2
2546.19
2946.82
1166.23
722.601
599.373
366.21
625.238
-564.635
-248.586
159.831
-105.022
220.715
1813.47
2365.13
-1463.38
-1006.29
-1218.95
2243.1
1480.27
-93.3507
452.116
1667.61
1357.13
1589.98
3430.21
1008
2726.98
5852.25
6703.67
9741.04
14592.5
9680.75
10247.3
11208.3
7562.28
8696.83
8084.48
11951.4
10483.2
16523.5
14913.8
8713.14
10492
3862.87
3070.75
2775.95
3672.44
7445.14
412.467
-125.764
-781.755
-775.931
-554.966
-357.403
7.19465
5050.7
3401.46
4824.82
1264.57
2115.53
2725.69
4428.62
3719.22
1605.34
3740.46
9322.01
5579.12
667.3
-24.4977
1801.38
1518.31
897.56
2133.83
2768.37
742.152
1160.72
1775.96
227.322
-1187.62
-400.533
160.966
890.574
2785.67
2992.73
947.9
562.999
-720.77
-864.271
-343.226
75.3663
-1942.38
-34.346
-40.3785
-266.787
931.674
-266.97
2316.87
4589.12
4065.93
2097.91
4667.2
1004.67
-377.197
386.673
175.001
-1853.67
-527.659
1091.92
1639.71
2471.58
2440.22
5380.57
4689.68
2516.99
236.471
4601.59
3796.13
1395.21
-1074.77
-913.917
155.546
-155.695
-486.054
-57.0794
-593.845
-1046.61
-1090.66
370.929
495.412
-801.472
-665.377
561.847
66.138
503.463
26.9619
3191.16
1690.92
-612.486
-378.529
-848.448
-944.935
-771.419
-68.9048
2189.98
4564.26
8666.47
2980.52
1670.5
-649.542
2105.6
1562.85
-134.374
215.987
578.559
1191.87
186.067
515.859
-491.849
-995.496
-934.504
-3819.84
-2394.8
-841.37
-871.917
112.454
50.5748
62.2274
322.779
1848.53
-18.3528
72.147
-150.882
-116.848
317.559
160.535
1408.81
2654.52
2933.56
1144.47
135.139
1088.7
-88.4452
-87.4663
-849.386
-214.447
353.233
1119.99
33.7702
891.064
761.255
-138.498
-618.946
-218.452
4337.69
-289.636
595.29
-417.549
561.043
2837.06
8635.53
13402.5
11583.9
14737.4
9375.64
4765.28
5692.09
3483.95
3903.07
6650.72
3970.48
258.212
-3508.62
-4747.94
-2513.95
-566.355
-229.03
809.037
-1157.63
-485.969
-582.726
-1176.31
-734.164
-1325.54
-2501.32
-1062.21
-1052.15
981.936
3174.95
2227.84
1486.43
1245.12
2361.19
-391.953
-1408.5
6601.7
3013.8
6244.62
6465.73
927.862
-783.959
-130.209
-1087.41
151.618
2800.5
1753.59
1467.41
1805.29
-55.4927
-126.416
-264.246
302.609
-35.9663
327.668
623.308
2102.51
3610.12
5709.84
4012.93
4794.86
1011.14
412.979
160.214
-896.381
69.6079
58.0772
-400.112
-1165.58
-175.442
-166.894
-7.28663
-201.71
-62.1681
-404.167
975.005
2813.9
488.516
-970.888
-1358.8
211.196
-350.004
-447.204
-123.254
-1083.17
-2187.2
-1376.54
-503.585
261.98
-91.412
-44.4157
-848.577
943.681
-104.644
616.971
1563.95
1718.36
3570.03
2108.35
-346.394
-185.906
53.4018
-148.85
1556.82
1847.98
-991.652
1130.8
2268.82
2314
545.767
1834.03
2265.93
731.925
324.426
203.066
-618.224
18.3403
-450.032
-126.978
1119.57
2064.05
2076.25
822.313
1409.8
767.406
1865.31
1750.71
2103.58
2645.38
4139.09
2018.9
839.535
1699.18
2628.22
2254.1
131.156
-38.1618
83.1904
26.1752
67.2977
-600.808
851.745
-113.08
37.0187
763.417
-285.946
3930.93
208.652
679.357
686.993
335.632
2148.26
1364.68
6419.97
4803.43
1501.96
1377.96
5451.43
1362.01
-1401.93
201.269
1612.38
-109.184
-1078.29
-3577.67
-2128.37
-3581.66
-633.509
1241.43
865.261
2602.23
457.4
1368.16
3553.39
1654.09
-269.826
-488.27
-65.5352
-1831.24
-1396.35
-1059.77
-976.317
-141.516
-397.656
73.1136
-431.966
-164.234
-139.46
-793.638
-663.674
-1628.9
400.991
54.803
-849.41
-2797.24
-1295.81
172.665
301.241
321.697
-144.843
435.938
-346.925
1633.45
1269.57
-829.35
382.296
5098.58
6710.85
6353.04
5136.14
490.155
-1955.56
201.048
583.536
-213.434
-1393.04
-225.48
1791.74
14.1914
705.757
129.666
-511.156
-333.357
-637.025
1299.09
779.827
649.288
-599.513
1770.07
1748.82
996.701
-722.554
931.449
4406.83
3700.17
2353.36
3042.81
10897.4
15393.8
12833.1
12621.1
12523.2
9627.7
3716.49
3019.21
337.195
-2437.43
-673.741
-995.588
1092
-1386.93
92.5823
394.034
841.725
4419.05
2806.41
4839.02
2384.26
2811.92
2702.93
-993.993
-40.3154
-1848.9
-3077.45
-1955.46
1229.68
359.596
-728.596
-422.172
-2453.49
-590.469
-1594.98
-699.15
924.071
1155.97
674.76
693.357
2455.53
-551.522
-178.353
-939.16
-482.45
326.308
1064.88
802.65
453.097
1177.41
411.568
1040.09
-44.3432
261.607
2265.73
6893.17
7093.72
4449.52
3176.6
1278.79
2392.64
465.297
-68.0018
272
233.799
-1116.5
61.4468
1634.3
3358.18
1301.82
2666.01
1371.67
4075.77
1751.13
3281.2
3960.26
338.79
-1325.99
-255.771
-526.293
-526.003
1374.89
4061.26
2877.51
2004
89.7124
663.175
1318.34
6785.03
6521.27
7193.24
8837.28
6756.04
7829.65
10349.6
12298.8
12197.5
11455.1
8402.64
4360.24
2172.15
6393.33
7964.94
3356.78
1424.77
-1512.34
-1118.13
-892.052
-2675.46
-822.4
122.457
6500.73
10740.4
11795.1
2490.87
3255.99
3061.25
-560.368
468.887
3962.05
4271.79
7606.2
6695.11
10706.3
15939.4
10140.2
4310.48
1813.65
517.241
2310.56
566.047
568.86
992.415
3033.38
-178.901
1076.46
289.442
1625.39
-613.108
137.308
-355.026
2541.46
4056.79
4016.63
4285.07
304.552
163.591
-1590.76
-765.899
113.649
-389.534
791.66
655.332
729.072
6846.51
9702.84
19980.5
21102.7
13980.2
10310.2
4523.31
60.416
382.738
1316.17
1161.02
1880.85
-346.279
98.443
1298.44
571.262
3828.78
964.463
1237.62
801.668
1855.39
-2540.76
-2097.84
-981.234
402.069
2356.99
-510.276
-2176.22
-2487.65
-179.266
355.399
2778.7
643.242
-2596.39
1207.37
2545.24
3324.6
5112.39
737.432
-101.162
-122.033
71.6829
-525.147
-193.346
1400.81
-178.979
-1421.58
-1818.75
-1395.5
-668.539
-1101.12
-1.71645
-117.333
-520.566
868.751
270.514
361.424
-122.103
-22.5575
2389.9
-269.327
-1590.87
-1405.57
1159.72
8416.63
6435.78
2689
956.144
165.954
142.206
-859.162
-687.074
758.08
263.746
-127.836
-1271.3
-52.404
-169.27
2210.11
939.254
689.766
-531.104
226.136
2093.72
2110.92
5224.45
7938.68
4879.4
2338.33
-948.476
-2643.93
-2571.31
-4351.82
-300.057
-1156.99
-408.597
-230.43
2214.98
5429.95
6268.48
8062.96
8675.95
7822.62
5044.99
7693.58
5755.18
2038.98
891.222
-647.491
-814.4
-259.257
-605.477
-2230.27
-1598.25
1477.69
6.14315
-2172.17
-1872.8
-1670.87
-1056.48
-1867.58
-473.206
-2795.56
-3616.8
-21.575
-391.358
-417.854
-1250.64
-2817.65
-1173.6
781.966
576.469
859.32
-963.451
-1044.18
504.437
-330.389
-1878.33
90.2941
724.606
1714.8
-464.434
-760.993
-3378.2
-129.582
882.345
271.465
-977.289
-461.255
1081.46
505.058
1602.86
499.457
-289.774
669.913
1227.64
1720.45
3144.18
750.75
642.705
3816.24
1274.05
1875.09
3519.88
4495.83
5272.63
2646.76
3066.81
-1936.48
-21.368
183.297
-306.201
-1884.53
-1258.42
90.8141
-841.615
-129.245
-147.964
-694.295
-928.414
-857.97
-692.225
-1803.44
-3145.04
-3867.53
202.383
-405.046
-2199.45
-303.688
1150.13
1935.2
1771.62
4017.87
4539.05
3858.61
10928.6
8132.44
7465.31
3864.02
4046.46
758.727
-397.151
-879.878
-933.883
502.244
614.802
286.469
2887.19
1372.76
1548
407.755
400.467
5239.77
108.44
3338.13
3657.41
1978.2
684.106
3778.51
2760.88
-172.154
-218.488
-363.661
-426.971
1242.46
1255.57
1557.58
3206.38
2062.58
4541.87
1696.25
1830.6
3508.36
3118.25
2949.37
4154.53
6182.17
4698.95
3985.2
4778.35
6827
3716.93
2154.36
1036.08
8338.94
8800.07
9565.7
6529.3
4428.73
705.166
26.3246
-738.166
1803.31
311.657
-809.978
-0.0382692
1377.9
-545.169
-1109.66
-177.728
1603.23
122.069
1070.52
1309.48
466.772
760.202
-160.138
-758.147
-283.946
-948.675
-1805.72
-1225.16
420.4
-11.7109
610.992
569.983
90.6071
-311.623
51.3562
-651.847
124.477
-913.37
-538.249
-303.035
377.046
-467.413
-117.306
395.459
-717.569
-463.371
637.235
4407.21
-28.6698
-753.804
785.583
1778.79
188.454
-401.339
-513.601
-519.581
844.548
1237.55
-718.909
-2205.7
478.03
403.572
674.113
1222.03
988.909
1360.07
5449.68
4334.09
954.345
1225.46
2901.9
974.083
5.33237
1370.33
969.535
-805.78
-2458.88
-2550.14
64.0444
183.301
177.555
-115.406
-1090.33
-2072.02
6172.11
2512.43
3145.59
5179.03
2054.38
2173.99
-167.366
-1018.68
-87.1268
-543.67
-657.694
564.167
1775.19
1265.43
663.885
391.999
-1040.37
517.772
4548.05
4804.05
10683.5
9600.59
5359.48
9137.5
7159.99
10925.4
10647
7526.16
6022.48
1485.7
513.906
6583.3
1881.95
2102.58
1680.88
1941.51
1914.59
1112.96
751.201
-116.239
442.766
82.8772
-150.721
-642.191
-923.166
-1363.33
-2294.01
95.3981
-0.0208772
-14.5868
-19.4376
2130.83
2071.04
-44.6005
-589.355
1.344
447.27
-170.27
651.335
1465.06
3590.79
3780.84
3056.08
5680.05
4498.54
2110.76
1077.51
3050.4
-1255.68
20.7946
-523.42
1244.79
1088.99
-159.203
-1073.53
-1306.82
439.152
365.097
60.2143
-85.2604
321.349
413.555
-83.4097
-173.966
-349.927
-136.737
-218.531
-14.3902
-718.602
-808.821
-1293.03
-25.4673
-385.478
-606.007
-183.18
-87.7851
-479.868
543.351
-1851.33
-862.784
1342.76
1701.28
5904.62
3813.02
6916.45
2062.25
1304.19
1968.13
2.09989
1655.3
-5.76642
1864.45
3955.14
2346.85
2829.99
833.492
94.0797
-646.923
-425.414
-635.072
-582.244
-2786.53
-1934.56
-133.077
-366.348
-1127.66
-124.936
89.9643
1216.99
3098.48
1277.87
446.396
-786.001
-546.03
-260.93
1712.06
325.91
728.73
3760.37
2994.45
2326.31
2025.62
1868.34
1857.13
3316.11
3221.34
-29.1695
-1183.51
-182.795
-492.652
39.6534
49.6229
172.162
-587.571
728.583
2757.97
3252.39
2627.9
4374.4
4235.26
7562.58
8310.68
5150.04
2003.46
3392.14
-517.539
-379.974
42.1629
-913.806
196.283
2529.71
295.62
177.622
3945.89
2006.11
858.003
3708.95
-1073.39
-141.828
-1591.54
-1661.89
-1994.38
-3652.72
-27.9939
297.491
361.673
857.458
2252.69
225.811
-673.059
-1065.05
-181.78
-409.25
-794.305
60.4955
386.746
111.043
-431.125
-528.39
-228.853
-1306.88
-396.721
-1027.6
-1417.94
963.762
724.241
-142.242
-197.188
-144.96
495.427
931.044
-1027.23
25.1914
-1.66636
-346.557
1263.28
1344.73
-124.366
-1038.32
-835.933
428.628
1577.87
2982.9
3596.37
2145.44
773.887
2840.8
-164.168
1844.72
5091.92
4319.3
2537.02
1853.56
-288.817
84.6649
-243.157
-843.622
-541.889
923.399
-158.002
387.325
-569.854
-937.634
-2216.59
-1825.94
100.356
-70.3586
-359.031
742.403
217.632
234.925
-202.947
169.261
-346.008
325.166
2167.6
2812.27
5103.19
6410.64
5376.16
4611.83
3321.06
1406.12
3129.99
843.192
1098.25
-207.998
-313.467
-954.557
-352.141
7977.87
3604.64
943.081
602.707
984.054
1337.69
3642.69
9318.17
10170.3
4128.81
3084.72
2771.77
2013.96
4311.13
380.636
523.448
312.132
-63.7363
1316.71
215.754
-328.95
688.396
-1335.9
-452.263
263.679
2107.72
2008.54
1392.46
2910.72
2489.65
-118.255
2705.12
9218.56
4135.39
4814.68
2962.28
2340.15
2285.34
2710.68
4020.97
6181.85
3984.39
-984.536
626.956
436.117
-3.56933
1232.85
-35.3627
1278.92
1584.48
137.616
-291.624
-356.919
-337.052
299.52
6892.09
4956.25
2546.63
3082.41
1731.22
1124.88
976.771
1549.21
1913.59
308.975
0.269952
-1301.57
-420.455
-859.132
-470.308
-81.2935
-263.693
-2336.23
1795.25
4455.75
6521.71
3984.09
2904.79
1821.99
4027.05
3024.96
124.813
-213.882
-612.416
490.644
-1470.34
-1768.62
-2389.06
-621.665
253.679
12.291
959.167
3583.35
2380.31
1153
-1043.43
-2859.67
-1099.1
-1255.01
527.267
665.096
-273.293
-1907.6
-3019.9
-2700.62
-3155.89
-27.566
641.976
-85.0259
59.2302
170.296
86.5542
855.947
-2625.66
-2532.33
212.928
-572.533
6093.28
6061.77
2923.16
2502.83
1538.12
-846.267
-1353.33
-1696.06
-2896.37
-5015.89
-657.326
-1990.89
-1391.34
-170.764
-285.574
-550.757
-1663.32
-2678.8
-2090.48
-3683.61
-2787.34
184.886
-85.4929
331.923
393.76
-87.097
-366.053
-423.601
1083.31
2155.25
1692.27
-8.03006
-201.765
-458.486
-115.026
1013.75
-545.111
-3013.91
-1295.23
2188.9
2277.51
1488.34
2475.95
2172.8
997.806
703.919
4700.83
1230.85
1964.58
1276.03
139.085
128.981
840.755
-207.767
657.805
2151.25
618.148
-704.021
653.843
-87.2862
377.038
-390.608
-286.998
-76.4882
4471.04
80.7184
1504.53
1444.19
-1334.02
-763.567
137.153
-374.433
-791.845
420.09
-149.508
-956.769
-1650.97
-1337.75
-365.79
630.772
-311.768
-63.5737
1699.23
2664.47
1800.76
1499.7
2263.61
144.911
738.581
581.861
328.938
196.251
527.819
1269.79
1571.69
853.443
-28.6097
-395.789
-1261.88
-237.912
-6.1337
-444.384
781.659
2598.58
-98.427
2510.42
4.60863
1871.57
5586.19
2089.93
68.4117
-199.948
-731.316
-530.896
73.7091
1210.15
-460.861
-2627.26
-1520.15
2036.22
232.659
2094.57
1615.03
4051.51
2517.24
2473.3
1626.77
5682.93
2744.26
1816.97
964.383
2766.08
3050.65
-509.496
467.813
351.847
921.057
-316.534
2816.23
1919.77
940.994
-66.5239
-1348.73
-1238.4
-1960.38
-339.913
270.923
-448.797
-2453.85
-1352.06
-2166.52
-1932.97
-1564.77
-1405.33
-596.293
-675.865
-5809.05
-2623.65
-1014.27
577.027
1040.18
1752.37
1269.65
1322.08
3450.82
1205.94
521.403
57.6482
-743.466
1271.38
-113.291
-44.862
206.282
-139.02
41.4862
622.783
-1581.88
-995.817
-241.32
42.8
-267.445
-1311.85
-3205.99
-703.337
-1762.21
1016.61
208.036
338.255
-843.882
60.8932
-1137.41
-518.339
328.132
-644.583
-2828.28
-1255.57
2523.76
909.653
104.296
723.746
608.219
40.144
1444.78
-429.616
-2069.6
683.941
-1051.71
-1157.43
-406.318
-537.65
3290.19
2156.82
418.443
63.2255
177.46
55.9616
104.945
18.9016
145.391
-242.225
-1050.81
-1226.35
-115.665
-534.547
-884.995
364.936
-1094.63
-3126.06
-2794.16
-944.295
112.351
-1367.13
-102.149
314.098
1474.86
2305.35
5048.66
5515.69
5444.66
6306.02
3028.72
3360.29
2262.61
678.691
1658.1
1121.09
869.538
-646.62
1218.44
1813.22
1756.08
1441.65
-485.504
-121.596
-518.688
658.306
-325.662
806.338
-704.588
501.205
-421.211
61.4226
-954.788
-86.809
-431.707
684.029
787.338
192.315
-837.202
-178.87
-285.196
-501.292
660.06
-213.247
-253.08
-386.642
-5.92666
-51.4639
1517.96
767.184
-827.92
1403.46
2594.36
4344.27
8012.68
9451.93
4692.8
2427.63
4554.09
6262.53
10823.2
3611.97
8458.7
2127.53
4357.49
17534.9
12540.4
8727.67
9775.5
9607.36
5515.19
5168.23
141.843
-1807.73
-452.689
-906.46
-214.958
68.7458
-287.06
-1366.64
-4092.49
-2150.74
236.008
-876.883
-289.867
1232.82
1293.48
484.619
-58.3529
-1659.39
-1358.7
-679.961
-489.917
99.2786
-185.961
-107.903
-118.711
-379.126
-946.238
-584.405
-433.976
-448.882
120.663
-2162.49
-2441.14
-600.012
-13.3207
-1113.42
-781.283
-801.857
-425.388
103.326
1381.07
1010.77
300.681
1065.73
46.2732
622.838
345.782
139.248
-68.4486
742.79
-819.007
1498.5
-284.252
133.514
-223.528
-460.53
213.966
1025.92
-188.686
-7.10963
-591.366
-1037.81
36.2636
-795.488
-381.144
672.542
1107.84
171.819
217.086
-279.565
-343.37
-327.161
58.8289
212.914
155.79
-147.745
290.703
2378.2
4993.82
8924.57
6303.38
10683.1
6181.89
3335.07
3934.4
1719.23
1778.28
969.088
1016.32
1975.01
1122.77
273.463
2549.31
757.439
251.483
698.051
1704.14
2538.06
3813.88
1513.52
1788.19
1142.84
208.947
835.791
2869.24
3217.49
1606.36
295.361
455.222
833.167
-1815.26
-377.772
-145.436
343.815
-1660.83
-968.58
-2400.67
-4191.75
-925.234
1091.82
-1222.51
2217.84
750.082
-97.0605
870.064
231.357
-164.588
-500.103
-109.801
757.414
501.338
395.725
1925.16
-1197.47
-471.973
-89.2734
1270.86
943.278
530.438
124.773
-1132.19
720.859
5307.12
2586.72
4633.52
984.706
1239.28
-1295.27
-476.002
-2448.03
-1163.02
570.718
1345.7
2022.59
1147.02
-998.723
305.838
-91.6547
300.428
-130.149
-123.367
2319.26
-623.316
-156.93
-46.5557
-346.101
849.838
663.541
-255.167
-961.986
-441.866
358.098
26.8941
-937.37
336.118
-1401.74
-1172.29
-612.256
9.89386
-313.461
-656.445
82.7281
-151.102
-617.781
299.303
-1587.04
-1292.14
-1557.37
-3986.58
-1287.36
-937.09
-1002.07
16.4461
-2638.86
-786.934
-561.599
-566.264
-1914.07
20.1953
-70.5052
915.965
-282.428
618.576
1221.51
1266.64
-2147.46
-3394.69
-356.242
-23.5104
430.54
5023.02
5292.3
4439.23
1823.87
5181.88
2490.84
4069.02
2829.3
1443.38
445.096
-508.19
-1261.84
506.367
-694.885
-220.923
-1343.42
-1544.47
-213.713
1053.1
1977.4
1045.61
6215.73
7115.9
5361.47
12547.9
6418.51
2989.61
5617.25
2472.88
946.632
-1195.13
438.725
1741.29
2996.95
5107.16
2808.15
1726.54
144.491
412.376
46.1241
-496.725
-1017.34
-253.411
1366.38
2562.02
500.041
-2145.17
-938.711
-88.4977
-1247.86
-736.974
1658.6
170.262
-517.591
259.707
-462.099
-507.044
-1973.99
-569.826
-1558.02
-1647.58
-900.467
4150.83
1512.82
610.73
2084.11
6093.44
4658.95
1548.3
1311.62
-1822.83
1476.71
-133.107
6.20401
-539.249
724.344
-539.157
-451.29
-1678.41
78.8783
70.1259
2437.73
3592.92
3052.27
1244.54
306.957
909.209
-450.384
226.687
-737.026
-1003.79
659.446
744.831
546.145
-836.44
738.67
156.358
862.44
1575.73
592.573
1086.14
232.861
-30.2476
357.791
-116.138
-364.097
253.178
198.575
-254.581
24.5756
-82.4916
553.725
-66.8397
-457.267
-1324.68
-2406.07
-465.205
1177.45
1369.48
1328.29
-566.014
-260.096
-396.661
-118.696
-705.346
1042.41
-226.614
223.606
3849.93
3640.52
3297.69
5465.2
4875.36
3472.43
2319.49
1652.73
2118.53
2232.16
931.171
1702.99
399.854
1366.15
1660.45
3391.13
5256.36
3484.1
3437.02
631.725
3668.71
3059.73
4402.43
-473.402
1733.57
2526.91
373.378
361.053
-790.549
906.242
227.299
485.169
-417.552
415.765
1223.87
1638.61
33.9302
1660.75
4155.18
6803.25
10202.9
4901.35
7360.11
5572.96
1763.65
1548.16
3033.41
2227.14
2203.26
5233.6
2671.3
1881.46
501.327
541.098
-1881.24
-1154.56
69.2605
95.5006
2636.68
1706.37
-522.037
53.5827
-508.565
-2529.87
177.851
-749.193
-2682.49
-1040.6
-161.659
442.367
45.2306
2305.09
2872.92
3891.31
11366.9
8132.05
402.28
1161.27
55.2489
1935.63
50.0344
916.186
3385.84
6082.55
427.915
-578.437
-1096.52
79.388
114.269
-349.31
1925
2823.08
410.123
395.532
2447.61
3407.03
2970.48
5293.95
6571.47
5692.49
7439.78
6249.19
5152.34
-465.3
1481.59
160.321
-907.191
-1220.31
-628.111
-527.935
1415.77
-745.902
3413.08
2804
1944.95
1958.56
-384.036
-571.57
-592.22
301.83
-1751.69
-1387.44
-59.5509
95.5975
694.281
819.451
2078.14
1940.34
1933.56
270.573
-155.286
-253.153
2504.01
3899.23
4744.26
3333.55
1808.38
1930.37
1795.49
3334.37
2937.82
7781.9
12585
8577.07
4914.74
2513.91
1431.57
5561.97
4156.26
5027.97
2988.01
1621.51
3317.85
21.9608
1174.36
2338.25
3614.01
5152.67
4076.89
4664.49
8176.81
15145.1
10183.1
12283.4
9583.93
-192.726
-43.7813
217.663
137.625
234.371
106.213
-1460.65
-736.112
-121.794
-217.439
-948.855
-1392.71
1977.93
6558.01
7060.09
2770.75
1393.28
1400.42
312.968
-352.527
-595.12
-374.618
-993.254
-605.427
-555.355
-666.972
-1314.11
-4168.85
-2149.65
-1298.3
-950.243
2428.01
1498.24
20.806
717.334
4367.29
5319.88
4799.58
4838.57
5860.89
4581.03
4204.4
3170.28
2995.71
8362.46
5662.37
1639.85
-932.333
-466.597
362.077
-164.833
980.738
2996.58
-917.415
1113.63
-721.607
-151.341
-148.202
-206.592
-250.753
-138.998
765.708
1854.43
4164.83
-514.408
582.564
522.944
-369.925
3680.73
901.722
325.115
101.577
3562.79
709.072
-367.704
-728.48
-827.809
-646.441
1131.73
704.711
202.208
33.2074
-220.434
469.513
4021.85
1933.18
-506.857
890.333
-241.876
-81.2571
736.664
-368.305
-1319.65
3400.24
534.591
5091.84
5944.25
6975.91
7715.21
5749.89
4910.1
8146.33
12063.3
6765.02
10448.5
8185.81
12213.1
7610.43
-319.877
-953.559
118.635
315.925
1818.54
1534.38
1165.99
-819.095
-730.655
581.257
1687.46
334.088
-2601.23
-1461.57
-2335.74
-908.641
-80.5499
131.158
137.65
-917.828
-2460.39
-460.385
1415.6
1266.36
3540.87
3138.55
6844.97
3195.98
678.839
3119.66
2473.5
4085.55
4097.35
2117.08
606.525
377.372
198.552
2594.55
5195.86
4802.44
1603.27
1631.49
983.889
1598.52
-744.438
490.169
3174.77
7349.11
6397.97
1820.4
-1123.99
401.472
449.359
-40.7888
-602.289
-134.235
2886.39
588.107
137.865
30.3968
-92.8231
-916.783
-658.57
-1294.51
-198.175
-262.577
-1736.72
2701.7
762.537
91.0627
-1260.84
-619.898
-343.871
-790.127
-1687.99
24.5678
-808.397
-523.513
-669.147
-146.493
-1156.05
202.614
245.632
-1269.06
-971.643
-188.321
-793.381
-328.593
-200.483
485.097
-682.222
-408.671
-645.167
-2767.65
-306.973
-323.26
-2481.93
725.957
-306.086
306.031
-352.943
-619.895
-2605.28
2004.44
2237.11
6120.6
12844
11962.8
8491.66
8484.98
7896.11
10598.7
5189.46
6963.71
9141.21
559.98
-127.558
-1922.75
-2010.46
-969.66
-4.46316
1803.16
1502.3
-973.225
345.524
92.1484
-1060.95
-1899.98
-1023.64
99.3724
581.488
615.506
-1635.67
-1360.07
-691.668
-1266.89
-599.078
-747.558
413.748
-738.676
118.016
399.559
-124.539
-834.5
149.506
-724.165
-449.138
-655.984
-664.16
-2713.6
-372.615
525.499
-178.596
1294.89
224.766
2642.8
3367.64
3422.64
701.583
-1683.9
-804.766
-1251.43
-724.616
-418.098
-391.724
-784.811
-1666.75
418.622
844.59
4264.89
8709.02
8326.13
5901.67
4086.7
6108.49
2331.7
4203.24
2318.32
1024.94
277.554
296.647
735.855
2442.3
2100.45
-1518.51
26.8568
-1830.06
-848.749
-1177.7
-453.701
-1035.39
166.024
-585.678
323.972
-1010.33
-853.323
-800.467
2263.04
1829.94
-300.644
1022.85
531.842
121.306
-836.967
335.019
1931.56
1248.22
-1415.29
129.016
402.937
-400.082
-1208.63
54.0846
1610.02
1233.63
-697.115
794.543
-386.614
-204.078
2779.27
1357.71
2364.92
664.316
1078.13
262.248
588.115
-1015.34
-237.848
-236.645
865.957
5071.9
3141.39
790.744
797.011
4844.63
4943.58
3631.38
163.855
125.648
566.17
-430.303
-1906.44
2809.95
5228.48
6033.26
7698.09
7564.25
7179.24
2170.17
1207.92
539.184
-253.189
-206.648
38.3166
1104.02
1149.15
2613.34
5293.99
4042.27
2535.03
1987.29
3109.88
5510.97
5264.99
5937.38
7286.07
9399.64
12645.9
4934.88
4787.27
3657.2
3377.26
8510.78
10785
1848.52
2864.96
3492.03
3518.78
6297.61
4320.68
5840.07
3901.09
-593.634
-1280.41
-195.329
1942.92
3628.19
4117.32
2402.65
-786.875
-520.197
58.9665
878.352
-2249.36
-1794.26
-123.605
-763.893
-400.659
-3036.22
-263.912
581.991
-289.92
-772.183
-2480.03
-221.401
-1289.09
-496.947
-688.372
-303.438
-1005.39
-668.887
65.9558
-223.209
-504.919
-325.121
-749.969
-277.105
419.728
-1160.16
-3.42718
922.112
403.693
-536.106
285.245
723.657
1360.79
1603.59
624.445
-601.597
1799.39
256.167
116.629
-1609.7
-846.004
53.2072
327.396
2186.81
388.518
1762.78
2986.67
2240.7
2457.22
-328.474
744.835
2471.56
7174.83
5872.9
9133.59
7655.11
1054.14
-124.217
-465.682
-1208.52
-475.124
-1958.18
660.211
777.776
1377.82
1934.4
2480.99
3689.07
3991.2
5860.88
2344.63
2077.37
551.293
1376.42
-209.433
-71.9635
1835.73
2342.73
-129.23
1748.8
1592.6
-236.515
769.105
1541.65
358.623
3192.99
4025.17
622.555
81.3013
-600.722
-829.648
-1403.45
-1020.44
-484.954
-2304.97
-2968.33
-840.509
-2156.95
-432.394
-349.11
-187.22
-597.605
-1144.81
-3910.5
-2345.4
-6420.89
-4315.69
-1309.37
-557.935
-425.786
-134.019
-1914.69
563.052
-112.565
641.556
1857.04
2186.94
1258.77
792.037
4793.2
8365.76
4509.23
3354.55
-822.211
-845.781
17.7864
-300.873
-1996.21
1471.85
509.374
-311.217
-651.195
-682.8
199.084
1397.67
48.334
921.353
-621.559
-770.995
2300.56
3283.42
572.548
5642.34
7550.72
4993.98
381.829
548.721
3048.51
467.919
4427.39
3406.39
335.71
241.258
-1716
-3223.02
-1866.81
-2534.21
-1796.61
-63.3617
-250.434
-207.014
35.9325
815.876
384.198
-403.624
-658.963
-44.9221
-501.749
-1155.58
191.841
-1363.47
-268.431
-199.072
-180.895
1244.56
1899.22
1182.53
698.167
357.991
-295.915
-207.765
3825.79
5840.84
2924.87
3775.98
2062.13
2943.15
6818.61
4142.48
3514.09
7133.2
6285.55
116.851
1027.81
981.147
-75.5746
-367.812
-1051.42
-121.968
-629.405
4423.34
5696.95
4781.86
2375.2
1805.41
213.913
1184.78
525.119
2955.23
3941.94
2937.07
537.881
3221.18
3412.58
217.298
235.44
2792.32
2196.28
1752.31
2552.68
2496.2
1176.98
-282.067
1110.76
2819.34
510.983
625.513
-1458.09
2729.38
3243.15
1917.76
8200
9564.23
14137.7
15132.1
15346.9
10544.5
6400.79
4891.91
1041.08
3487.59
889.723
-1135.4
-222.285
755.069
1892.67
331.335
2383.69
1528.78
163.755
3413.98
440.277
2343.46
5086.36
1521.64
43.1846
2592.6
511.54
115.986
111.37
-162.332
706.543
617.232
739.213
430.147
-158.703
2121.93
2494
4314.41
7503.28
2894.18
4676.82
5032.15
4525.68
1704.26
-260.708
-291.523
-865.184
915.777
3201.13
3162.92
-4213.51
-1650.24
-54.3685
907.486
681.969
873.275
1186.85
129.518
-2297.21
-161.95
551.585
-443.948
-76.391
672.644
628.93
190.394
1502.85
-259.352
665.197
12.4175
-556.257
1543
5410.25
11452.9
9172.84
8018.5
10183.3
17302.1
16287.1
16164
20284.5
23652.7
26342.4
26089.5
22614.7
14675.7
5206.14
-119.64
897.502
-891.504
-1534.19
-951.112
-347.553
244.102
1092.01
1387.18
1334.25
4143.92
1997.1
-134.086
1448.91
1141.37
944.445
983.641
2588.98
4499.41
-277.813
-2884.68
-501.898
-3053.41
-2624.36
260.466
1639.17
33.587
-27.8303
2526.84
3377.67
2410.3
5206.12
3184.63
2736.67
216.621
998.759
-212.239
-319.326
-35.0176
2415.19
4530.25
5187.52
2755.7
3156.41
7544.99
7939.9
10848.3
5806.3
1377.7
-2922.44
1927.65
-787.272
-574.039
1873.11
-1598.81
-2446.51
-842.26
-502.735
-2606.68
-3230.4
-4382.32
480.006
2816.15
6967.93
1841.13
1203.82
2759.93
2762.95
3757.45
331.197
-2539.65
-2311.72
-1461.89
308.636
1138.3
3162.64
5502.97
12181.6
10553.1
21449
14386.8
16213
10216
5516.5
5006.09
2838.97
1896.67
1467.2
3458.43
1492.56
-164.31
4292.59
11083.4
8293
2391.43
4131.96
1115.5
1735.9
3058.52
10116.7
5402.29
7482.65
7070.64
4239.88
4725.39
2430.5
2093.14
-37.1698
-1443.48
-3142.94
-2500.13
519.394
59.0384
136.951
-945.079
-946.875
-537.195
-511.342
-147.317
2274.13
6233.14
2003.73
873.129
375.418
-287.856
190.499
-321.813
64.3166
-1254.87
-307.684
-1143.65
1997.57
1845.28
9920.93
5762.68
6534.86
3079.54
3000.46
3716.4
1595.22
817.988
829.157
5249.01
2454.92
3607.28
1078.72
2761
-71.9343
-1.30127
-592.56
-480.787
-171.618
25.7937
498.889
-137.492
40.2021
-76.3906
400.209
-767.762
-1185
259.721
618.298
-817.952
-483.829
309.403
7.85571
782.985
-292.449
118.413
1091.03
456.124
-1780.1
-328.78
-832.661
-243.642
-662.714
-568.384
899.8
733.074
866.762
851.288
1874.1
3005.93
1556.99
1407.37
-193.822
-2113.76
-946.678
2109.49
2068.68
1518.94
-554.064
-299.394
265.48
-503.725
102.365
-432.203
321.58
485.803
157.174
115.642
205.425
749.968
5739.38
2817.45
3406.76
3833.69
1040.7
2253.78
-62.4408
-289.738
-695.694
-1147.43
-1488.23
-1126.89
-708.452
-64.411
-850.939
-566.666
-1616.42
-295.355
-450.225
-229.092
901.507
1060.7
2520.16
739.2
-151.575
1484.29
5947.9
3690.1
4968.41
2215.77
1896.46
2598.92
-98.5777
233.652
-419.5
-1229.34
-1561.87
-1778.79
402.045
404.167
2330
2001.26
136.161
698.403
840.275
1729.71
2101.42
1215.61
1067.52
-173.918
928.536
410.45
703.25
1282.07
4580.48
2582.02
1527.55
534.561
1511.57
-954.698
1012.51
3515.43
-169.486
-1008.47
-1731.27
119.14
2014.53
470.111
2170.33
1631.02
2352.55
6770.61
4176.5
6079.96
7356.83
6755.87
1118.85
63.7043
672.666
-2281.07
1736.09
4435.66
3524.5
5438.45
8677.21
5989.58
6069.3
6286.53
13197.4
12987
11819.9
10427.5
12508.4
8720.57
7309.25
4220.12
-301.253
3096.64
4839.21
6154.29
6455.08
13391.1
12389.1
10238.5
14557.1
18549.8
24327.8
17444.2
12284.8
12237.3
10228.4
8216.9
10211.7
5633.16
9242.59
10915.6
10072.7
12384
9827.86
8059.57
6793.66
1867.85
2173.37
2883.55
1615.12
5770.11
2984.98
4102.17
2511.11
-371.696
-446.326
928.641
-1226.35
-2782.7
114.317
135.661
3384.16
57.6149
205.579
-694.412
-935.248
-504.116
351.915
1282.62
25.2481
-4.89322
-1508.83
-204.665
323.532
-371.955
352.542
-158.095
-455.159
96.3908
1517.55
4895.19
2217.23
338.819
8.38052
-110.915
353.824
158.128
106.172
2412.36
11.5944
217.339
672.192
3629.54
913.456
255.193
-1523.41
727.233
3300.99
2162.8
4149.45
2691.04
3144.88
1988.29
-354.639
-756.464
396.299
-341.601
1683.71
-874.471
686.057
109.009
-452.238
-678.59
-494.479
1143.73
964.314
1443.5
1554.03
1591.48
6351.34
3547.32
1630.5
3153.34
1211.41
940.814
675.571
193.701
1429.99
1112.19
2703.14
955.83
23.0681
68.0732
-1338.1
-825.503
-1276.92
4.87716
-232.409
-438.63
-94.2339
400.302
-60.6936
-88.2723
244.743
3436.31
1045.95
-10.3731
451.603
228.59
384.674
-206.596
1342.01
3160.92
3145.49
5114.31
1440.15
2477.74
1126.48
937.86
115.099
-177.911
-506.08
-1104.62
2953.89
3196.2
5499.54
-367.765
-793.157
-1391.4
-436.871
-77.0178
-1981.78
864.025
1759.76
218.768
450.544
172.694
-1827.34
-804.935
50.19
996.367
-727.577
-595.26
55.3615
-22.0143
1410.13
409.627
974.032
-259.982
-1011.97
3053.23
2770.24
2163.06
4102.87
3605.06
4421.4
2608.24
1467.91
74.3572
-941.611
-219.491
-11.751
763.994
-283.692
-20.5241
-54.9597
-146.687
-1413.04
-520.304
-75.4906
67.4498
-262.88
-534.378
-25.3491
-162.677
-691.416
-123.383
-36.956
2304.79
2015.82
4776.29
3330.47
1758.72
-1841.45
461.49
-95.6434
-741.968
1439.41
-50.5172
1051.83
56.9385
246.762
835.808
2624.91
549.162
1250.38
1023.18
-19.7884
574.143
1364.83
1513.55
625.753
2510.59
2718.9
5740.01
6471.38
4395.56
6112.91
4692.59
1545.31
995.166
1112.3
-1525.25
-1415.05
427.4
293.704
973.829
1363.57
989.93
1120.81
-1108.51
-564.264
-493.944
78.4477
-761.659
537.635
-1199.15
-703.255
985.171
-501.995
-2180.93
-553.092
-545.249
-368.564
548.533
427.825
294.734
62.2918
-1722.97
-2468.7
-249.188
343.596
519.242
1612.92
1407.85
-2056.17
1868.09
775.427
2749.53
827.504
210.704
93.2805
-412.509
1497.04
1325.44
2389.11
-51.1289
-438.726
-1203.93
-445.78
-1030.54
-3437.93
-994.116
-10.8274
-491.757
178.524
537.228
1609.14
4131.02
3201.4
2572.48
-188.267
1377.29
4501.01
10263
6792.5
11978.2
2594.22
3970.95
5046.53
1718.86
4737.09
2141.89
1086.05
813.172
-126.507
-181.114
535.425
799.592
423.495
1924.46
685.694
1245.15
-2249.23
-589.309
-419.711
288.189
1278.62
4671.62
2864.94
787.627
-144.135
-854.044
78.3849
-181.917
1788.32
-120.685
-77.312
3115.91
3395.66
-1472.26
-1186.74
-2664.77
-1064.8
-808.368
-612.056
-940.932
-317.27
-177.875
1933.37
2228.92
374.46
1199.68
562.526
81.8996
-124.918
-1169.95
-1363.27
-1611.24
-396.928
-1619.49
-426.732
232.131
-963.497
93.9662
-913.572
-966.169
-1318.04
387.935
1071.9
1071.02
378.546
1584.95
2122.98
305.616
-135.789
-229.223
366.855
1631.52
572.77
962.27
601.645
303.36
-76.9453
-399.028
-744.033
-26.3768
-711.464
-1295.29
-1286.55
-972.033
-854.192
-119.275
140.574
480.182
55.719
-205.218
941.419
377.564
-445.498
218.925
-1639.85
-2005.7
-87.2002
-1488.31
-188.863
228.502
-924.564
-1772.39
-1124.89
-2785.31
-1404.33
577.485
-1058.79
-1208.83
268.152
-2252.35
-304.657
-526.15
-1648.96
-85.3906
-288.74
-132.67
-1205.92
211.765
407.044
1963.52
-195.05
-702.747
-564.502
440.786
-630.879
-92.7489
1336.75
2104.48
313.652
-227.542
-666.592
-1624.34
-200.749
322.42
733.611
960.172
206.875
-365.823
-281.635
108.257
104.679
-105.471
422.98
-42.6972
-1376.88
-882.632
-3.90767
-2902.5
-4656.87
-3365.37
15.4676
-301.787
-418.027
1498.8
782.293
-1034.33
726.659
-1409.41
-1270.84
669.598
-177.634
-735.011
-1059.96
2814.72
-209.416
-232.086
1105.41
3551.17
2439.88
5352.42
4176.34
4408.59
646.313
-199.528
843.888
312.816
-810.954
-1171.37
-874.84
-926.721
14.6468
-1539.32
578.403
-472.814
760.164
-274.663
795.517
699.459
-1292.9
2271.91
2038.68
1483.79
1987.11
5212.2
3746.49
1870.85
4406.85
4187.94
71.4923
-1559.08
-1097.28
-1809.51
305.7
-325.342
-100.315
-1162.8
-549.21
-1602.81
-20.0299
6885.23
11254.1
10367.6
10829.3
8964.66
7324.12
6042.1
7177.29
1601.98
4325.91
1091.68
1882.99
-33.9075
-329.951
14.3876
1428.14
6872.45
1234.73
2392.5
-100.08
-1529.07
-1838.36
-516.848
-587.061
-389.327
4079.73
6733.83
9683.93
11075.2
7580.24
10970.6
6152.55
1920.04
3039.04
1584.73
1527.64
1159.97
3087.36
-14.2913
534.049
233.515
802.529
283.709
-1171.1
232.783
-445.595
-1837.59
-1932.14
-1331.22
484.345
-1289.73
-92.6644
-779.581
-1170.48
-328.35
513.45
2943.94
2378.65
-245.8
-1678
-1529.99
-159.684
-261.296
-2020.76
-1746.47
-1101.84
-1318.21
2157
2213.54
314.454
106.395
3505.7
2693.08
4327.97
1688.09
4391.47
2893.67
6018.52
4998.37
9926.1
9435.71
13282.3
16226.8
13719.9
11488.8
9684.77
7740.04
8244.71
11698.2
15847.2
13523.9
5735.62
4781.59
2539.11
562.063
3307.47
3412.66
5126.2
2558.37
970.854
-82.6703
3171.97
2695.02
2066.2
2360.55
-722.22
-643.777
-326.768
-458.776
-81.6798
-238.058
1933.41
56.2632
-418.256
-1119.15
875.108
-319.806
-1206.88
2266.6
2865.06
1003.31
170.734
213.524
-392.488
-868.498
68.4701
-410.691
980.472
138.782
-281.1
-1966.33
-230.922
3118.25
-551.465
-504.944
-1018.29
-610.87
2914.79
2631.7
-509.653
646.75
560.21
-78.0966
652.96
7812.74
9456.88
1836.12
-2331.61
634.868
-592.899
1448.1
533.163
-400.63
1536.61
-533.853
-334.111
-127.1
-10.8576
96.6133
-218.092
-217.196
-2191.76
-2497.85
-2400.11
-950.036
-997.983
-212.283
237.169
-585.023
49.4466
-852.445
-699.521
131.145
-649.964
-490.478
-457.788
250.287
-326.058
367.455
2729.54
4494.17
6696.15
9785.65
10119
7913.47
9454.9
6748.02
3632.6
3116.37
3261.78
505.694
4562.62
4046.14
3586.3
1923.51
1852.02
4137.43
4319.84
2703.63
1111.87
539.452
668.115
1640.53
-1095.27
-904.933
-115.863
-368.633
-1551.41
-933.294
70.3127
-421.378
-3512.03
66.5964
-209.504
535.53
2880.32
1221.43
1835.57
1775.43
-939.373
-1755.88
-3798.83
-4232.09
-1700.9
-3153.14
-4721.01
-1724.64
785.866
1698.26
685.832
-57.224
-593.504
642.756
-931.59
-1104.88
-1256.6
-554.206
615.368
-301.842
-204.59
1392.58
-23.0385
-577.447
-517.371
140.146
4813.58
8589.54
7176.89
6205.28
12412
6990.37
1833.25
4246.72
2168.68
4294.54
2359.53
2099.89
6435.99
3324.8
264.913
-530.816
1026.97
2320.89
-46.505
-632.7
270.959
586.913
60.8186
270.798
-589.95
-932.585
50.205
-277.509
-1279.48
-519.247
-879.759
-741.941
240.754
26.5203
-645.63
-2818.54
-2492.05
-393.676
125.141
2869.91
2276.33
1987.97
2096.5
1674.72
3185.2
1341.73
1252.44
1650.85
809.439
-643.454
-107.29
-1162.99
-1344.74
-800.479
-1294.9
-1369.38
2036.38
-104.183
2338.5
3572.34
5302.86
2930.51
2958.88
2936.62
416.598
639.42
-700.017
-833.218
-247.726
-275.808
-2806.88
-772.221
-1798.09
391.659
668.861
58.3177
10.0919
2113.2
-234.222
-70.8818
-789.333
154.625
2177.26
3350.54
586.083
167.192
962.15
-1073.97
676.934
1855.35
-505.672
-1606.01
-1773.78
-525.963
852.674
4580.75
5189.1
2204.03
2837.8
872.98
36.2329
-103.168
-731.712
717.026
-1203.51
-365.494
-935.898
886.504
916.175
684.393
-698.286
71.6733
-2505.08
-2477.92
-1106.02
-282.684
-221.086
-466.45
-1379.55
1170.67
2667.01
62.6135
494.382
-332.322
-1155.44
-3980.83
-4300.99
1387.12
387.176
585.396
5438.9
3306.41
4515.48
1771.93
394.473
-33.6084
3812.27
6490.27
12679.2
8821.85
6066.16
3132.02
6185.99
4133.57
848.271
4901.3
1250.76
642.18
4066.93
4780.74
7357.57
6876.72
8932.57
5362.63
3648.22
4180.49
6402.85
9407.12
4704.1
7134.68
7903.42
2610.42
2465.32
-336.925
-639.115
1369.14
3634.51
1198.07
1209.53
1131.83
164.503
848.757
-398.888
-171.945
-544.592
2618
61.1513
305.779
-2333.3
-239.457
-762.976
5107.89
912.533
3551.75
2080.12
-275.272
-759.731
0.256973
373.486
930.61
752.245
511.46
1639.01
762.022
155.399
-1915.29
-1931.28
459.297
747.311
317.356
460.927
360.317
396.228
-244.506
-951.369
-1904.66
-44.8386
-1207.5
54.877
-1126.72
720.996
914.401
4144.97
3786.72
2941.58
2814.68
2354.25
818.951
938.365
-79.4779
-658.949
1269.78
-1738.85
-1216.59
-1073.35
-191.103
-730.534
-851.37
736.59
-404.525
5087.39
3310.92
7557.65
2257.4
2220.33
1467.13
2021.35
193.349
703.266
7.37043
-1620.76
1042.8
4923.14
3286.09
2448.72
2344.94
4150.96
2112.72
2116.79
4863.12
1287.02
919.892
1229.68
3091.41
-341.578
-498.697
-2014.79
-344.47
-92.2059
-65.8992
-135.365
282.247
127.394
3673.91
6445.04
5863.28
5280.51
3148.15
7650.33
4437.64
12128
16068.7
14557.7
9632.13
7774.85
3489.54
49.7714
3514.26
2872.91
1819.44
3383.93
2315.81
1259.85
2305.21
5951.64
335.224
-244.448
409.147
1879.23
-3423.05
528.186
2192.91
7265.68
6842.98
2354.98
3650.5
-1314.79
-451.835
107.788
52.3324
239.588
988.862
-879.873
-1149.3
-2766.1
-78.8738
3200.53
1814.01
5984.33
1598.93
2703.56
7354.9
4937.02
3012.27
974.287
1557.73
3761.03
1987.48
6237.95
5312.76
4091.34
5960.47
1498.44
-334.518
-699.539
-869.946
-366.619
268.708
64.5152
22.8168
-1224.57
-1088.43
-842.001
-718.316
173.13
728.457
2916.14
77.0441
-77.5007
-33.4725
-782.904
-272.947
-380.326
-8.38317
-342.056
-1162.64
-2762.5
-817.548
-1704.64
-3046.6
-1356.16
-1737.42
-37.5459
-1012.97
-1878.62
-1095.78
-1313.07
1217.5
256.811
350.576
4681.86
2183.07
1869.28
6536.16
7979.74
6100.51
2951.55
3658.11
1498.59
509.433
-673.282
506.842
345.243
2047.53
774.299
-188.636
1311.55
-286.011
-502.395
-673.717
-781.723
-712.206
197.439
927.016
-50.8549
53.2923
868.279
645.303
-501.784
-2515.71
-1352.1
-748.178
-525.381
46.4232
-313.286
1606.98
1089.5
-1867.75
-2306.53
-1036.9
-146.484
-128.077
-199.9
358.373
2861.85
2314.88
435.368
-946.401
-197.356
182.902
-415.701
715.658
-1055.56
-1421.16
1390.58
1120.38
-1886.24
-282.455
243.308
1449.02
644.232
127.17
2864.56
-294.137
1745.1
2893.71
1453.47
9834.17
10947
7578.06
8479.5
12663.2
8388.65
5673.38
5896.15
7987.56
3273.76
67.7153
1801.63
2641.18
8450
3801.95
615.879
2108.05
103.091
293.079
-1871.9
162.281
242.044
1111.37
-2104.35
-2610.23
-961.982
-3732.69
589.697
3631.26
8087.95
4597.51
4540.63
3315.02
-1283.85
-499.104
-3328.67
-1037.6
-1286.37
-1430.13
-495.09
-442.195
717.301
-1345.51
2105
17.227
-1374.62
-1658.36
717.26
505.48
-200.043
-1066.17
409.914
1409.18
-779.637
231.402
625.766
1387.15
2219.87
7431.4
4592.49
5151.52
8895.34
4289.92
1675.06
6140.12
7600.21
10758
7097.07
7569.81
7832.8
5059.95
-1348.36
324.329
2372.6
5015.31
9608.61
5790.58
3220.2
1204.83
8603.13
2927.88
3003.23
1774.88
4464.23
4004.5
4897.31
1827.72
2207.63
1167.59
1620.18
4604.85
1149.49
1062.77
-543.157
-708.573
-1524.65
-789.578
-1116.56
-2069.23
-2056.65
-475.563
537.816
1777.97
844.943
1556.91
855.427
-319.757
-1269.53
-11.3857
366.349
-302.37
62.2293
172.049
-1178.54
-331.946
-1628.34
1787.39
2826.53
3002.31
3230.92
2764.78
3570.49
2660
2611.53
2912.79
2669.35
2921.43
3727.68
-283.53
-1203.12
-1535.95
-827.885
-1633.71
1032.82
2063.51
3636.15
1747.37
3515.29
7606.54
12198.8
8995.24
7576.03
7976.83
7377.18
6476.95
6140.14
594.597
-1515.76
-790.036
2020.04
6064.88
13148.2
22382
12673.4
3280.78
4742.99
9007.43
3965
7071.7
6323.18
13556.3
19387.2
18394.5
4648.61
1273.14
2123.4
1554.39
-882.031
-762.227
-178.775
-55.3582
-21.14
-395.406
256.71
166.851
-122.252
702.199
480.447
849.488
-382.127
-532.894
1297.66
-691.531
-226.449
-787.113
101.535
182.646
181.934
5.33802
-315.697
646.561
1087.84
-16.3861
-324.642
-504.968
-2827.7
-611.472
-446.998
-659.206
-34.0627
-1711.52
-1141.94
788.157
1639.19
-403.872
818.709
-663.166
-62.4385
-271.854
-140.059
-205.267
314.204
580.014
580.281
2180.17
124.341
255.468
320.895
139.781
-391.953
-1165.85
-1514.57
-377.069
1172.45
1043.26
1094.62
1008.96
1328.14
-927.166
245.754
-1521.25
2345.73
802.397
984.745
1976.78
2714.05
4764.76
1848.93
1607.94
1593.71
-309.402
911.811
-558.67
-145.428
-339.252
183.659
1429.59
2172.53
1331.75
4052.76
5051.91
1121.08
1760.57
1859.67
4109.39
-692.866
-91.6764
632.676
-520.639
277.617
354.015
-290.694
-938.783
-1617.17
63.9568
-103.373
433.947
2504.37
613.637
1816.32
-372.875
-49.734
-1558.86
-408.975
373.071
1159.86
-1209.57
-152.762
133.64
196.351
-1440.81
831.413
-919.539
-854.292
-804.167
-1488.66
-390.01
-615.804
-957.955
-450.094
-202.92
1712.13
1733.76
4341.31
1336.39
702.144
-342.895
-279.977
-1843.64
-3094.01
-5258.23
-1408.49
-1815.54
3550.79
268.455
163.046
-232.377
-1237.97
-1217.73
-2425.26
-4313.39
-415.887
-426.051
-829.627
114.295
-615.935
341.891
679.46
431.014
521.141
3340.67
-43.2111
394.308
1333.38
2079.96
1111.61
3227.87
1868.89
746.61
2151.11
1891.82
-1645.64
-2678.8
-897.044
3126.35
876.91
1745.02
1832.43
7080.22
1827.06
5370.31
4404.13
1219.02
2199.23
2619.09
4933.78
518.823
727.897
-1701.52
-145.93
2233.66
401.062
-686.353
149.388
1629.93
808.07
1167.08
-168.417
-461.618
-1453.57
-2106.08
835.107
997.254
-22.7896
-490.585
-723.859
-170.629
-196.656
420.58
3658.95
3108.54
3752.97
3470.81
649.572
-1679.83
-533.179
1526.87
94.5983
-44.9304
-1339.14
-855.807
-675.966
-378.049
-1370.38
-1025.21
-585.802
776.242
545.37
1461.37
954.87
306.398
-1976.68
-3227.08
-1103.16
-885.378
-286.418
-1250.03
-1188.3
-288.477
1060.44
136.806
133.637
-877.395
-3418.93
1364.85
2753.27
3892.36
349.022
2972.03
-422.312
-598.156
1464.5
2230.08
203.849
1489.75
4376.39
5351.5
6102.32
4545.91
-2064.78
-1946.97
1417.72
2372.46
2444
3905.31
1030.55
-221.532
-988.295
-941.034
-543.343
-624.121
-510.015
457.278
-36.1347
-754.549
-34.4132
327.588
946.643
1120.22
-1058.03
603.746
239.771
-239.824
320.543
2982.25
2154.29
-1932.81
-2328.43
-638.268
-526.496
-2591.55
-991.07
1243.35
-764.696
-390.134
655.267
2396.04
1778.18
3.57599
-172.028
603.099
-507.655
-697.282
-785.417
-1334.17
-1209.06
54.4467
402.07
3057.68
2927.75
631.229
981.318
-1518.43
-1470
-1872.63
-900.433
1115.66
478.266
2154.71
4241.72
2303.04
1690.06
2688.83
1800.16
2156.11
-306.686
2523.4
1021.47
1086.89
3060.34
4.56812
99.6731
377.254
-56.356
132.128
-2669.08
-2634.99
-2532.88
-4626.26
-561.766
-1168.89
516.371
5.5442
-1049.23
-94.4308
-1471.92
-3441.61
-976.144
-1157.92
1187.84
-346.523
-611.96
1428.57
1440.88
931.924
-881.394
-1150.05
293.234
-2487.93
-3282.08
-3967.8
-2188.12
-1889.97
138.726
104.014
-108.605
-161.559
718.103
1000.25
3012.91
2113.58
6678.28
3650.07
3824.03
7859.03
11160.8
15914
10352.1
14633.3
17771.3
11373.6
9018.49
7412.7
8916.57
7920.32
11702.4
15198.6
7405.84
6534.9
1536.42
1940.6
1022.41
1312.36
1292.94
2352.03
1885.35
2671.37
6937.48
3867.53
1899.37
3871.19
4872.68
8552.1
8563.43
1854.85
4197.4
5266.95
6769.14
4588.68
5336.97
4413.89
6344.19
1769.17
2123.3
2227.75
850.215
122.064
411.009
-448.49
-20.1762
1500.31
1320.62
641.991
140.081
-2501.68
5344.37
-982.649
-1423.48
-2139
-714.633
137.732
-438.164
390.796
-284.145
8.91749
-1527.17
-2777.27
-199.454
1141.83
1448.72
249.652
422.053
2477.98
-610.174
-236.026
-796.662
204.527
5.96876
-318.659
-699.417
-264.216
402.886
-791.249
-4179.63
-3131.32
-3225.32
-1423.64
1345.33
943.584
813.822
-95.3628
-292.784
-1571.41
-3128.58
-687.526
-2119.97
-2672.1
-838.516
268.393
292.629
467.865
1465.13
3321.89
9793.52
6314
9427.78
3142.27
2567.25
3089.51
1219.76
483.5
1232.72
-1241.17
-477.989
3025.61
2574.54
3376.6
4933.07
6557.31
5286.57
4953.51
6419.06
5865.03
1166.18
-1124.15
-454.683
381.214
762.256
-530.722
-1161.53
-482.449
-2081.68
-726.074
-1357.05
-869.267
-492.726
-1091.06
-3228.02
-1274.24
-1011.76
804.102
573.499
285.328
-863.48
479.727
-1162.87
-75.4343
-836.348
4535.66
-909.495
-668.443
-349.821
470.52
-775.313
231.88
231.109
-337.098
-201.221
2595.67
-242.65
1765.27
620.634
50.7565
-163.248
-486.986
-32.5919
2714.85
142.88
589.001
644.134
-387.368
-992.97
-1246
-3324.24
-1943.89
411.75
1835.9
-40.8606
423.171
316.32
124.571
292.12
-879.823
3234.67
2832.68
6325.64
3803.42
3438.33
3149.97
5312.52
1086.23
2206.41
2447.1
-2444.66
-133.068
-2508.74
-397.339
-2468.38
-1440.99
135.526
-598.437
-334.298
47.1443
-360.944
294.54
471.712
2291.82
2670.76
200.762
-435.711
-1785.69
-624.423
-9.42634
-117.832
339.396
-545.353
774.837
665.262
980.03
-2930.04
-50.0214
-1413.61
-1978.74
1431.63
-477.421
3168.98
-113.888
173.085
-89.9542
41.0971
2145.6
722.244
1032.8
-2590.89
231.593
55.9726
2126.7
409.429
-674.625
-235.482
1018.1
-321.289
-1805.35
-379.336
2235.12
2088.61
1531.06
283.05
1868.23
3864.13
3039.66
13451
11776
4261.66
7034.73
13186
25536.5
16608.8
14777.6
13887.4
10567.4
2966.3
3612.27
4619.36
4717.32
1419.35
4796.99
7245.57
8410.39
12466.4
11470.8
11474
8914.86
11149
12459.6
6577.38
5734.23
4735.13
839.933
2628.98
729.025
2700.69
6425.96
5574.07
3436.21
1291.22
2343.18
4470.15
2828.16
884.911
3335.2
11359.2
3421.22
6176.8
2379.5
4067.08
3895.88
1012.2
-193.507
65.5724
-1.83789
228.943
-225.879
-217.938
-642.918
-308.724
301.003
720.374
2805.99
4223.91
7243.03
-389.782
1902.99
4430.82
5666.5
7241.64
2929.83
-663.78
-946.457
-668.119
1061.98
-535.611
-1806.78
-388.654
1128.69
-643.925
-2217.76
-2234.41
1434.68
-139.232
279.201
4.02882
603.854
-2062.74
905.337
-702.226
-1181.1
-1032.92
303.894
-1032.4
-648.802
438.218
-9.63471
38.3672
226.529
-146.461
1226.65
661.139
48.4304
857.312
-602.864
-1758.56
-3290.45
-2636.02
-264.375
171.335
-983.92
80.1759
-1194.5
136.47
-669.847
745.333
-291.514
-1358.47
-1038.03
-1629.13
-2278.22
-196.187
-1558.8
-36.7338
-356.133
-323.644
140.309
-225.182
-351.372
4209.05
1916.92
306.062
1074
439.668
-164.734
-432.919
428.3
2870.2
1482.24
467.278
-1499.04
-925.373
-84.0486
-84.5975
541.305
3053.58
1532.46
-845.66
30.6836
1809.97
917.314
393.115
-736.063
-1960.06
-557.675
-821.493
-4150.1
554.886
-3169.38
1902.85
680.327
571.833
2248.76
1786.89
297.083
2234.63
816.078
122.751
-543.251
140.803
1006.22
5784.13
5687.1
-374.148
862.638
585.538
-1711.86
-1126.07
-1922.68
-1320.05
-111.689
1847
1626.32
837.096
56.8597
766.126
3620.75
678.911
278.152
140.368
-490.108
-289.376
-841.724
2949.47
5445.02
5554.55
6539.29
7778.51
7531.54
3297.12
2262.81
515.079
1477.43
-446.097
222.27
870.012
1326.65
1394.28
4275.52
2573.69
843.62
-574.994
-2383.1
690.265
-742.508
62.8346
-39.0738
58.3608
62.9613
807.97
-17.6363
-1813.64
-70.5169
-1285.43
-911.235
586.954
973.696
-178.168
320.287
909.145
-169.973
-344.756
-254.206
174.114
1086.47
2426.14
3589.29
4639.55
4817.27
4483.8
5400.13
5506.66
3823.2
7375.95
8770.23
12645.5
10348.9
3119.21
6539.35
9507.63
16787.5
12500.5
7374.87
4170.6
7381.76
4511.15
679.221
-433.601
-1644.12
-2564.56
1726.47
1384.71
699.882
617.854
701.551
-906.077
613.888
787.975
1606.2
3416.86
4183.01
2035.62
2189.47
-399.316
169.965
672.113
-308.866
-385.652
1241.71
240.82
423.742
-1772.18
-667.468
-744.741
-1235.73
-749.986
-1222.27
276.615
-712.346
-1323.34
-682.455
-1348.9
-5844.45
-1426.38
-131.903
-99.3974
-792.577
-596.565
274.056
3.93014
652.419
-1095.73
223.021
826.779
503.543
-1151.04
-2919.64
57.8383
208.267
120.369
-488.433
391.036
2326.84
-589.756
1105.45
2285.1
2491.53
406.162
-84.8375
321.291
-326.695
-10.7029
-76.1821
737.542
50.8809
511.477
816.692
2460.48
375.669
-1553.47
-1740.89
-428.043
249.625
366.025
-332.433
-694.766
-2527.34
-445.943
-930.773
-3444.79
-3460.53
-936.044
-1706.61
-269.041
-89.1436
178.621
-333.269
-75.0215
-1550.06
-1540.41
-762.221
298.145
495.909
2004.52
2870.1
458.37
382.978
-211.923
-31.6345
-895.188
-84.7056
-119.923
938.751
1822.03
8792.15
8704.31
1913.7
-1237.2
-815.642
-256.258
-689.75
671.817
2147.06
863.449
-660.228
577.91
410.519
107.103
-1700.83
-81.7492
-7.0748
-390.782
-829.082
2256.22
-489.033
-98.5415
-166.081
-1625.51
-2360.69
-641.944
-1119.94
-2717.82
50.3928
995.512
3600.56
716.702
-842.063
150.131
-226.558
-315.941
-811.237
43.0964
-1100.76
-299.004
-2679.42
-679.379
-1899.43
-1675.35
-1083.94
-763.37
-69.5439
-754.62
-91.3903
-295.685
-219.523
1094.1
2363.35
-251.213
262.755
530.656
602.344
-117.835
-426.148
-1130.41
-1397.78
-1811.57
558.736
-166.183
-243.304
-840.202
-170.915
-325.705
-195.849
-596.203
225.483
-1546.84
-1803.91
1772.3
229.698
1256.13
1084.07
191.356
452.095
2812.57
-1147.9
-20.1884
249.529
1752.58
1562.66
81.5717
2630.75
2795.87
1618.65
2470.71
2323.44
907.234
1695.42
-190.298
-588.98
-2734.9
-714.109
450.538
1044.99
4705.54
5583.66
3860.41
4315.42
3887.4
2267.06
222.584
-565.87
-226.194
247.455
325.179
2334.83
1521.61
2132.08
2303.09
4442.63
3611.19
4166.92
3156.17
4779.51
2477.99
1576.93
707
159.544
103.183
-270.321
6.95667
810.46
-170.003
703.279
-80.1442
586.147
825.256
2641.98
4711.62
3272.49
2180.87
2947.01
3470.62
59.9316
-1065.14
-2630.79
-2166.51
-1824.71
-829.202
370.8
-235.646
444.742
-65.7505
-392.314
-970.707
304.488
-83.7063
3703.97
1113.37
2623.41
1624.38
2711.63
1127.86
1187.7
4341.05
8122.84
2484.77
1203.53
1237.99
1853.98
355.122
841.187
2194.43
153.497
448.161
1959.56
-33.5372
914.732
951.442
3062.06
289.938
422.101
-797.441
-1793.47
-2053.16
2068.64
1462.82
-62.464
-571.06
-526.273
-54.0627
-100.213
-104.874
477.346
-1435.66
-2740.3
-1940.45
529.844
780.333
150.693
-1869.32
-2401.03
-815.887
166.064
1141.5
3391.79
4693.51
3407.74
396.177
-20.3977
-1688.32
982.659
1175.74
2843.5
4914.61
3606.14
3455.88
912.561
-760.676
1514.74
-1651.4
1975.74
1436.16
1208.39
3248.77
7479.86
6703.1
8399.21
3729.1
1674.63
1091.23
2155.04
815.435
-331.055
138.624
-672.897
-630.717
-391.118
-1415
-3051.39
-1941.57
-2151.49
-1774.18
-240.032
100.885
-1674.37
-1104.06
798.553
2303.17
3418.08
3197.25
5471.89
14861.3
9123.81
6132.51
14891.3
8643.56
6676.77
10396.4
5041.3
662.491
280.195
946.123
91.2731
79.7324
190.951
394.259
-542.608
-1290.67
224.113
-170.433
-277.268
154.112
51.9172
263.448
1342.37
609.441
1290.38
-380.818
-28.9323
-542.168
2289.12
3962.31
3643.75
-1179.61
-1208.7
180.939
-272.727
-71.2846
1251.54
1313.42
1169.06
3690.15
2682.47
648.247
636.477
64.3828
-279.881
-224.873
-1282.9
170.114
-665.86
-1137.68
-575.505
-694.579
375.931
-136.518
-77.5181
89.4072
413.234
812.549
-311.206
-485.972
-2762.24
3523.68
2264.38
3342.69
1181.66
405.774
344.848
-2258.37
-1712.69
276.905
92.6602
611.978
780.771
4071.74
4910.47
4375.63
3826.28
2850.76
-252.011
372.071
1406.44
-1493.88
2385.23
3381.5
6465.74
2929
7778.95
4630.4
3668.79
3109.51
2590.73
334.112
411.12
-558.237
-515.757
123.871
-960.634
-566.738
-164.489
710.472
-305.677
-84.7612
-443.836
7.19374
-12.9901
1272.09
1609.24
1086.34
172.476
-1474.08
-1405.28
-303.047
380.378
2569.83
5841.02
6369.06
2859.2
5073.64
5554.3
6437.14
489.804
586.283
-53.0916
-112.888
2885.82
5407.87
3011.03
21.5367
1276.69
581.306
1990.64
618.862
1437.77
1573.99
2156.55
1424.92
1140.03
-813.481
4360.15
2808.68
-292.093
-548.223
-585.64
-2426.96
1789.52
-1990.82
-1299.65
-1940.24
-1026.48
-771.489
106.059
-819.002
1562.01
509.682
3134.3
2863.43
1284.02
1409.95
923.766
-390.435
455.995
-10.6983
-689.895
817.509
1062.68
3507.35
4465.5
1238.38
624.835
1010.53
1428.72
-297.092
618.578
245.049
965.966
-1826.77
-799.42
1328.67
364.06
-712.543
-175.415
-832.363
-40.3751
197.595
-1847.08
388.841
819.308
1949.38
1023.01
2633.69
303.777
992.797
-89.0388
1071.26
223.279
-221.736
260.51
224.107
-663.443
-989.607
-358.748
2337.7
1658.97
6846.95
2798.83
2688.56
739.291
1027.48
-115.353
-886.97
-9.80225
-503.934
-174.378
-211.413
-1435.89
-2426.36
282.465
-654.166
117.618
1382.5
359.21
-231.436
-463.382
-925.67
-917.197
236.472
1201.41
-207.369
-872.622
-1724.57
-664.46
607.172
-401.052
-103.58
-816.578
797.201
2852.63
-539.437
-596.213
1695.56
759.3
-1196.88
-1112.46
-678.374
796.174
62.4326
-161.109
1530.11
998.341
270.433
2127.53
341.891
-365.363
441.201
-806.828
-347.76
-1914.42
-2099.3
-1783.17
-1026.04
-1147.43
559.569
145.326
395.142
-154.057
142.94
667.873
304.195
-268.009
-586.398
340.288
1543.32
379.579
938.916
-1143.05
-622.932
1511.24
463.955
237.19
-136.526
536.591
-1169.04
374.171
-842.821
-622.475
-882.424
-176.161
-3083.9
-1885.58
-472.882
57.442
-232.67
59.9335
217.855
256.811
-129.637
-269.287
-1190.57
-964.62
-476.588
-302.263
-183.667
477.693
-209.336
-1377.89
-533.494
-889.991
-2908.33
-1556.79
472.235
-251.022
138.896
-305.871
-368.018
507.358
-718.665
-4025.71
701.885
280.869
-199.62
-75.9809
186.843
-333.616
-599.289
98.6462
39.7497
32.102
-104.949
210.336
-239.65
204.118
-1889.01
-796.448
-617.265
3229.59
2154.13
609.812
216.392
-235.467
-239.127
398.906
1050.96
-73.6296
70.0254
-1481.14
-512.657
11.6645
-2786.8
-2872.35
-3597.06
-1102.25
1325.99
-1491.9
-412.298
1263.93
1635.78
1301.87
-950.08
727.918
2653.62
3257.77
-939.47
1372.37
-328.556
363.979
-625.082
147.32
158.353
780.349
-100.873
-119.717
65.1369
2668.16
2909.89
-372.335
922.449
-260.658
1381.71
390.859
699.426
-853.623
82.9517
4.48823
701.734
-60.8692
935.892
821.923
-108.474
603.314
818.037
1063.06
1747.96
6396.17
809.133
6072.32
6164.39
1365.82
2036.16
-185.19
-184.004
-1447.97
1204.92
1174.71
1097.1
-656.842
-640.131
2452.64
2149.62
5199.08
10713.2
8278.1
3423.55
4936.76
9333.04
8798.49
6827.13
4897.67
3029.7
1694.81
4209.93
4112.42
4099.35
6509.3
2231.16
1298.53
241.109
-1408.62
-1586.29
-730.003
166.617
-26.7007
-810.281
667.357
797.065
3343.28
4413.87
2005.79
-992.888
-4437.13
-1377.23
-614.744
958.209
-1493.72
-381.766
134.661
-105.662
224.928
680.51
-121.743
1916.08
4920.98
2059.96
630.092
2025.16
2602.54
3642.07
-172.688
473.126
-2186.44
-651.893
-2279.71
-33.095
1011.08
4295.04
4158.06
1250
1652.6
3901.36
6217.51
7793.94
11306.9
13191.4
9989.7
13301
14649
6971.12
7356.17
4611.34
-133.463
520.422
3649.25
415.196
1935.33
543.635
1330.73
3091.29
1003.07
1684.67
4598.78
4651.21
3666.31
1750.04
-667.787
870.401
-154.199
986.33
-91.9598
-190.919
-400.997
-254.145
-938.697
-194.304
623.277
1680.51
-23.9271
-800.301
-1812.88
-141.487
18.9532
-280.755
-204.983
151.991
-130.153
-1777.98
-349.356
-137.723
-475.274
2134.53
-1044.24
-924.367
527.053
343.848
5079.33
5247.4
2601.76
1618.62
1778.74
3803.49
1531.98
567.312
-962.635
1254.47
1514.89
-185.781
413.393
-835.442
-295.182
74.3629
14.1871
504.162
780.45
-672.531
-718.9
-3101.19
359.457
1651.75
4295.76
5059.46
9916.52
5101.2
5780.01
3193.05
3805.06
2374.89
637.924
-392.149
-668.789
-1069.45
-788.181
367
107.829
-595.152
-2208.37
-918.573
-2160.32
-1212.4
-3079.04
-922.665
-1741.3
1267.32
1624.27
2379.07
-337.647
-969.855
-623.229
338.855
-507.647
-860.593
-132.484
591.215
542.715
1207.38
3737.51
8722.23
6165.73
2701.48
8201.72
8317.92
5809.47
1111.02
1060.98
919.81
508.634
514.873
-257.36
-65.1692
-364.894
-672.958
1407.22
2024.24
581.687
3916.5
2984.49
-888.224
73.2059
155.383
-389.811
201.173
1853.22
1860.96
-185.551
288.027
-576.92
-614.983
-338.185
362.383
109.179
2488.98
1688.18
180.252
1592.04
3186.15
1827.87
-661.102
-274.119
-719.635
-307.424
-537.624
-96.6343
197.544
-1378.56
-2693.91
-138.761
-1364.74
-334.684
-51.2721
-933.615
-673.716
756.81
-151.581
766.178
1468.95
-184.697
-412.578
322.478
3582.8
682.321
-355.336
200.344
2277.39
1871.59
-1549.39
-2310.94
175.552
355.522
1291.91
1874.39
5198.42
2263.8
-676.565
-605.218
3624.69
2837.44
4565.11
3506.12
2148.95
-390.65
-241.009
117.989
526.65
-2109.47
3300.34
3828.82
3140.08
2037.66
-639.584
-1999.99
1755.55
550.587
3895.33
4919.68
1585.39
3103.04
2975.42
1294.07
-106.445
-879.489
-1038.17
-359.284
-193.188
-1184.42
430.916
2356.07
658.005
602.065
1887.18
996.337
140.689
-36.5165
-171.126
137.162
535.348
854.781
140.407
2289.31
2788.2
445.714
4925.98
609.266
1631.78
4204.01
1309.22
428.238
271.886
-1080.79
495.095
4389.49
1348.43
666.04
290.982
240.797
1472.42
3110.98
3925.25
4968.27
4866.11
3607.22
5997.8
5134.32
1120.68
1335.7
3451.55
1277.82
2570.89
766.789
-254.142
31.6035
214.776
33.1707
-1091.93
-865.898
-1697.63
-1168.92
-803.211
411.451
1111.86
871.918
822.578
332.54
928.441
451.954
1588.08
1323.52
2354.04
1777.71
2881.22
2344.01
4460.99
6214.53
2890.12
1704.31
6252.26
4149.99
231.39
-196.965
-195.318
1997.08
2888.87
4068.66
10291.6
10783.9
5302.19
9641.31
8611.36
4311.15
8869.47
10706.9
7607.86
9267.58
19116.1
16734.2
16941.8
12278.5
13304.4
6217.58
5060.43
4879.99
3148.48
1315.5
584.568
-2774.49
-2348.14
48.0462
461.219
5010.47
3335.5
3074.92
3705.01
-442.621
-1619.28
-1311.55
18.1257
1413.38
1048.7
468.782
-119.117
614.179
3528.4
3431.54
-445.112
-170.223
-1446.35
-1774.92
3040.48
3092.79
-267
210.519
182.928
-213.689
98.5528
879.364
13.9818
-796.58
617.001
-1624.35
213.169
7833.08
5262.18
9405.91
10831
13899.9
6086.78
2069.52
3860.53
-1963.44
323.395
1695.94
438.253
1831.79
1421.98
-1185.61
-3795.17
-3653.43
-2803.17
-616.425
-1796.71
-706.257
-3302.6
-123.433
-658.355
-71.671
5.2388
688.935
-322.461
926.367
3.3094
-322.661
1397.08
-145.544
-139.539
-361.593
2244.65
6020.19
10057.5
7186.42
7751.89
3666.79
-80.6462
2632.99
147.096
468.895
-1114.07
846.105
-1669.55
370.734
1169.53
-872.373
485.304
-648.379
-172.165
-367.661
219.519
1011.56
759.978
370.235
-558.913
177.817
1653.73
2070.93
1927.66
4888.75
3583.79
4927.2
6953.28
1584.26
914.491
-622.356
518.542
-443.212
523.672
684.178
1976.75
-1999.39
-1563.2
-432.69
720.507
1085.12
669.071
3167.33
4219.04
4743.41
1597.38
1596.08
398.514
952.171
-216.505
-732.129
938.479
2000.2
269.841
-279.957
-884.495
345.866
17.7031
89.9993
321.574
-528.217
-541.376
81.5016
214.71
-800.571
-1196.61
-841.618
2047.59
807.705
1392.59
1190.01
1672.47
870.048
1420.71
571.138
1409.64
3354.52
6515.27
1813.63
2904.38
5230.87
7448.35
7232.52
3092.02
3344.94
5187.09
-1408
-1534.57
2185.13
4826.38
3687.65
2875.92
287.378
-117.494
-227.407
1049.98
845.465
3120.18
-1129.06
-2786.52
120.652
1008.91
991.834
2945.7
612.503
5207.42
7963.95
5736.94
6759.13
2534.08
257.375
-934.312
-1626.74
396.824
274.414
285.508
725.778
1669.74
4777.83
766.473
-1282.69
4419
7275.45
3291.3
2551.63
2347.39
3435.74
2039
147.621
-393.216
-800.803
71.5584
347.865
491.542
1035.61
579.325
238.842
-572.503
1722.26
-611.716
1796.56
-258.208
-400.604
791.094
31.9591
1016.12
-1333.89
400.502
878.999
206.129
506.166
1081.84
160.463
-13.681
-43.3385
-716.003
-181.322
-723.876
-771.836
-2616.97
-676.172
-1626.25
-2064.62
-4.56582
193.744
-154.041
-541.114
1026.85
1815.57
2278.33
2574.46
3017.9
2754.6
2301.76
1156.26
2032.57
1055.88
-134.44
-356.522
361.405
2231.45
2348.33
483.31
66.6621
-1268.49
947.437
-182.686
215.788
1578.38
-434.119
524.794
116.925
-227.33
2721.24
5694.43
6303.11
2589.24
347.674
292.176
-251.581
-1758.25
-3742.27
-1252.27
848.487
399.341
699.614
395.667
-379.467
-761.722
1233.28
1473.36
76.3951
-983.215
-1752.04
1571.74
3843.32
3168.95
2320.21
1854.26
3282.64
2889.1
735.807
-621.093
15.6017
-2279.27
-1372.62
-598.254
-1192.8
-2753.36
-1679.38
-3404.6
-1004.19
-54.8743
668.695
-311.945
495.096
-71.6023
-1313.2
-818.782
-768.68
435.648
-701.496
-571.76
463.098
436.186
70.9195
38.9475
-184.478
-833.633
1306.92
1403.39
241.747
1367.25
1661.5
-666.981
325.093
2029.6
1063.44
881.077
2572.94
3065.16
206.772
1161.31
3495.04
3732.39
1378.52
3352.76
2810.32
1001.18
2692.62
1434.69
3443.15
3096
2205.14
152.016
-1368.48
-1455.8
9.60622
685.963
-101.207
1115.34
3450.09
3262.25
2405.95
4514.36
3414.8
6832.33
1278.42
-775.643
-134.36
-908.901
-2611.55
-4707.85
-4997.31
-4848.71
-4361.24
-3027.03
3110.89
4293.68
2719.82
6326.46
6457.18
6068.69
7715.2
6393.22
8372.37
8932.08
6266.5
8614.65
6751.61
3526.59
6462.36
2483.31
2762.75
1523.63
-264.117
-514.779
-380.967
-844.813
1296.56
67.5227
-183.03
-1131.16
1348.04
23.483
1650.86
1367.05
-244.661
-79.2674
1095.16
908.911
1276.02
-705.491
-808.327
596.909
2.1572
233.534
-375.25
-1203.99
-692.179
1084.47
285.897
2231.22
544.213
870.662
897.272
1012.01
3442.67
7234.08
4541.33
6275.87
3612.33
-336.862
-1126.65
422.743
-603.299
1900.2
4739.01
5706.93
12660.4
6755.14
11038.1
8411.6
6037.01
653.763
4297.4
7794.6
5989.04
8050.97
5727.43
9324.82
7595.79
2977.12
5585.51
5891.93
6152.05
3156.46
185.312
1444.44
847.648
-1397.95
-581.446
-10.8907
-1454.04
-1318.26
-511.715
-810.851
1173.38
-212.906
-84.5773
-443.023
-721.472
-5.14275
1258.71
-66.6489
1969.46
767.402
976.496
3033.79
2887.92
1224.51
-718.447
-1320.28
371.376
903.011
529.253
429.546
-722.14
-925.385
-411.531
330.544
