12358.7193525
3114.5459065
15434.3440465
11190.291105
6418.9042255
8643.018366
10417.16736
6136.3449075
13893.0351851
10254.5228
11469.0282655
26477.5616715
1153.565553
4099.4620585
8364.257805
2423.4178162
6243.2819085
4214.4075865
7652.62629
4833.084435
9696.4526289
9727.1013205
12333.448082
3326.423067
8640.931501
2331.270633
9551.333523
5269.10918
4781.075136
18497.1724065
13569.3584485
13977.140007
14084.8771824
3648.492748
2085.4103185
12232.3071589
6425.8116965
8189.0028495
7006.966748
3317.1269344
14594.3504731
6227.36589365
15219.5341695
5237.6495595
4543.9336015
3561.71409395
5783.942361
5547.3943375
13970.9152084
1238.5473269
