13533.0234635
3804.3305945
17481.2294565
13368.595805
7141.9886597
9432.422572
11318.3574445
7178.0030115
14321.488934
11302.451181
12334.882639
27289.95252
2293.9457315
5811.5692
9358.0157025
3371.71945055
7357.6590993
5212.93552025
8731.29693
5535.50499935
10053.6969382
10643.736965
13154.19113
5245.8145202
9666.25799105
3314.1588755
10108.3131993
6078.290538
6493.087828
18857.320198
14307.85715
15131.88087
15173.719465
5191.036735
2803.9730815
12927.9013159
6806.2169225
8988.011629
7451.976935
4494.565502
15669.6949809
7205.853115
16175.9608087
6480.777555
5199.2295472
4483.8762562
6248.6409355
6760.2858135
14742.529363
2302.2591974
