-188.402
-1536.74
-811.48
1786.89
1264.92
-295.179
2850.41
3018.16
6156.17
4256.67
4417.89
3277.82
2160.78
2729.21
5759.25
3729.65
-745.172
-27.4794
-59.0148
-3155.53
-2464.3
54.0825
376.266
-1041.77
248.084
-783.592
-1861.83
-980.567
-1427.75
-1018.22
-502.614
1183.64
1041.19
3395.97
1092.22
184.624
-169.194
1086.65
1449.34
-659.533
345.435
-23.504
829.657
699.942
917.08
-683.736
-2088.38
-3198.95
-356.488
-24.3888
-573.97
-667.007
773.761
-85.597
2309.03
186.052
210.586
4479.57
5964.32
5363.12
4483.99
5728.82
4297.16
1542.94
229.001
655.564
-821.019
-1271.53
-262.755
126.496
-76.5094
-1270.23
-4567.52
-2974.91
-1819.77
-1874.24
-1299.53
-662.545
1105.79
-1424.8
1181.15
-921.77
230.811
-1802.63
243.842
3794.36
7220.32
14994
16416.3
13143.9
12083.9
8339.25
14659.5
10999.3
9393.55
11957
10676.9
14907.7
20029.6
14991
10273.1
6330.66
6590.81
6459.92
1205.55
-672.146
618.475
103.076
-516.106
-1826.98
-1344.11
-1054.95
854.639
2787.88
-980.672
-2129.53
-702.691
-351.183
-385.988
-517.451
-1165.51
-777.589
686.174
2190.99
99.6685
439.906
-229.966
-1208.72
-2035.62
-663.263
-751.982
732.12
3261.15
3639.95
84.725
2099.61
137.718
718.051
342.287
-776.021
-2229.61
-3407.22
-2525.17
-328.775
834.545
36.2614
-899.942
1900.54
236.634
124.503
777.956
2714.73
2142.36
1724.91
3278.56
448.181
1121.12
170.439
-1741.11
-913.251
-1097.34
-1197.37
-1435.07
-902.313
-633.42
1975.93
45.8791
1580.53
-483.335
1458.48
160.32
528.969
823.723
257.959
-830.093
-2698.11
-1378.19
-1356.23
-1440.02
-873.046
-881.597
-1365.58
-3561.88
-4031.36
-5089.34
-4129.52
-2651.44
47.2815
424.735
-2540.87
-2079.71
-122.764
524.456
-763.254
-1274.43
-423.504
-416.923
-206.318
1444.73
77.0865
41.153
409.219
-105.415
-142.835
976.814
1307.35
1422.22
3092.39
2324.87
1569.25
-150.095
-1491.76
-1297.83
-560.251
-343.362
-1153.33
-833.624
-668.169
-591.998
-1514.4
-856.094
-2055.25
-522.676
-973.224
1674.3
2735.75
406.806
-56.2623
203.636
-325.909
-295.12
-299.375
13.6966
628.678
643.922
1320.26
2978.39
4692.62
2588.24
1326.39
1027.88
369.032
1146.75
833.293
-886.325
-501.331
13.0332
886.966
161.11
103.067
539.217
435.852
1467.57
5011.47
2963.3
1676.19
1290.98
480.923
11.9926
2316.95
2059.98
-799.429
-178.269
-2748.44
1080.3
3898.64
-1814.21
-274.174
-1017.29
361.007
-278.117
241.295
-123.884
-821.294
-1747.73
-1046.19
-251.122
-149.627
-1005.41
616.776
1018.88
-140.274
1357.93
741.888
2188.44
1357.25
2084.29
5294.64
3118.85
2186.15
1905.15
5638.18
2017.03
-929.99
-438.402
-190.02
219.224
-461.044
935.597
2510.46
2288.03
2720.9
1187.51
607.439
306.781
-441.932
-397.135
219.435
1498.48
1938.6
1456.85
1679.05
1250.63
34.7734
-660.577
-780.57
732.767
1019.77
-2575.11
-1187.59
393.331
-1062.78
-1127.74
488.971
-1511.56
-2573.58
-1442.05
-2982.08
-1175.79
305.483
803.993
1096.18
1944.29
1692.77
621.784
-2139.99
407.756
-245.836
-283.294
-1843.28
-1609.79
-3773.91
-3951.2
-325.781
-1395.93
-1651.94
-1815.25
-463.108
686.237
4979.44
2923.95
3106.34
624.134
280.672
-909.703
-1049.55
-2273.75
-2252.02
-948.928
-1370.07
-63.7805
71.5377
-157.203
-1322.59
-356.463
-185.768
-2342.2
-589.467
544.696
-908.3
-112.824
294.667
1154.87
5482.95
6754.77
3491.21
2402.18
-463.044
23.838
141.99
657.044
-679.823
-350.966
1755.34
3295.63
-42.3075
-2236.55
-1581.99
-734.439
230.838
198.012
-971.872
-278.989
-1172.36
-1723.11
-1675.25
-1961.91
-1166.85
-3810.79
-2460.28
-3860.71
-1125.25
-849.993
-1283.46
-2178.15
-1372.11
-1784.78
1054.19
-892.521
1.39153
-2524.6
-1826.76
-1468.01
-2038.51
-1011.74
-2401.37
-940.191
-2357.85
-2143.01
-3111.75
-1750.78
2168.98
-633.196
-1051.21
53.9572
276.581
-1414.77
-1919.92
660.131
-1129.26
-1534.91
-670.046
599.243
-765.505
-118.678
-709.879
-687.503
806.559
-888.357
1092.5
601.39
991.525
456.753
-323.109
-103.671
-343.182
-166.085
-814.433
441.377
3719.11
2887.25
2648.64
2028.33
2589.61
2056.32
5404.88
4413.63
1418.96
5432.5
7533.38
2307.46
1028.9
3252.31
2906.41
1968.05
4942.45
6244.34
9360.92
6329.51
6715.7
6747.81
7256.08
4009.38
6879.72
2949.64
1322.24
3725.41
430.224
60.1175
-595.948
-2405.14
-2410.69
816.715
1122.24
2797.16
7688.95
8074.67
9152.14
8450.11
6643.46
6752.62
6355.85
-1235.73
-1747.78
-1091.37
2616.15
696.468
-819.114
420.059
1233.85
368.88
1523.34
2012.74
4316.95
-959.634
46.9473
-757.662
392.193
-1183.04
-909.459
-60.6483
37.6321
-201.776
235.386
-600.025
-1356.13
-1981.73
-672.273
480.121
9.4124
-1153.29
-967.982
875.939
2998.69
6748.2
13660.4
15942.7
9432.95
10275.1
8985.04
5551.41
5441.3
4467.56
3396.23
1940.79
4072.29
4386.19
7481.57
6041.98
6818.06
490.335
-250.401
916.814
481.204
-1247.88
1015.15
1303.07
-43.5189
-1655.59
-3601.85
-2591.01
-2038.42
1557.59
2478.91
-1427.69
-460.587
-311.063
3779.03
2916.57
2823.11
2402.34
821.64
-543.526
-198.519
446.573
-386.724
556.369
392.648
2478.04
1010.48
2709.72
852.583
796.271
574.343
-712.723
-1336.17
-1179.07
644.892
1830.65
2213.72
2361.86
1159.14
1547.28
-140.256
75.2383
1656.7
-1778.53
1591.36
3270.73
3380.64
4525.63
6741.88
5147.07
3645.41
3386.35
1413.65
-551.159
-465.978
806.415
1090.02
705.931
-905.77
-3368.95
-90.4565
-406.59
624.762
-2666.12
-922.403
-76.1653
154
632.794
654.686
449.445
-32.1305
-2166.61
-1259.67
-1423.74
-986.83
401.873
1860.9
905.029
-552.418
1981.82
1465.37
1850.34
2926.75
2694.94
1643.56
-225.306
-719.952
-334.447
-430.182
486.501
520.694
2212.11
4067.73
2765.87
1632.15
4042.7
3136.71
5120.61
5785.36
7060.41
8322.37
7714.73
6148.15
6034.93
8670.77
3450.48
7168.35
3533.88
3153.59
2577.71
1868.45
4721.24
2836.75
309.141
1121.88
2495.8
71.9221
3157.02
1267.57
-91.0026
-1045.95
-1456.14
-1792.46
-919.429
15.5084
745.956
517.273
-166.199
-439.409
2409.78
-594.018
85.2568
-1297.64
-1758.04
-4120.44
-1998.75
179.795
1217.11
-396.56
1770.92
3577.23
6464.74
5375.3
8697.54
10248.5
8542.18
8016.65
5168.94
5447.59
3637.7
4914.95
6857.52
4490.74
1087.22
78.6449
1573.12
1481.82
4202.05
3108.76
3097.6
2215.04
2366.98
5021
6529.82
3310.1
1828.81
1615
60.8234
268.293
79.4645
1478.69
1246.88
1337.32
1537.27
2146.95
-1133.04
-1340.35
-1622.3
391.186
318.774
663.821
-929.117
-456.889
242.345
-1497.99
553.566
-1355.99
-1464.87
-1906.93
-1681.8
-1117.66
11.0912
-945.916
629.486
1202.69
-399.539
-863.302
-706.468
1401.46
548.75
-593.828
-1876.16
533.046
-228.143
1227.63
1756.68
1474.68
620.282
-1463.84
-1581.52
-1644.02
-1382.84
1097.56
260.921
661.435
1028.99
754.23
612.341
2981.97
836.801
1926.02
291.469
-213.438
-534.505
-555.007
618.065
-767.677
925.63
252.163
269.005
-426.071
218.339
14.561
382.381
-885.111
-1137.87
-718.009
-392.538
935.046
2508.29
-1155.23
-2687.27
-2809.33
-1570.31
-590.892
-439.168
-736.052
-1228.92
-641.35
-2560.79
-2611.76
-883.921
-911.442
-3956.97
-3500.19
-2591.46
-3038.64
-2900.99
-1771.1
-414.279
2056.12
671.557
-130.192
-1514.39
-632.086
1596.94
1269.27
1527.36
3022.49
3089.53
2489.34
-1666.83
-588.234
-1603.18
-2642.87
42.9604
3048.16
-247.601
-1066
1266.54
2263.46
2232.34
-121.185
1389.17
89.909
1622.16
330.745
1001.32
-849.543
-3520.29
-2165.16
633.292
1031.41
826.752
-929.602
-1914.73
116.977
-248.839
1057.16
-756.748
387.633
-1000.63
1274.58
-195.4
221.775
1849.37
580.85
-277.008
147.72
136.308
-1773.18
-2116.1
-1833.86
-1330.88
-2473.94
-651.603
1632.17
975.019
1643.75
-1381.84
-2190.79
-2543.22
-314.317
-719.916
-645.988
-1049.88
154.888
886.583
-496.535
-1568.7
-2014.7
-871.481
-920.101
-1171.82
-2757.84
90.2762
-3355.33
-4173.34
-2058.9
-2359.56
-2665.28
-1040.06
128.931
475.277
796.42
456.712
-1059.44
-1220.52
-1141.38
-2763.13
-2312.1
-1146.86
-2572.77
-2914.63
-2571.77
-621.6
-676.845
-826.06
-747.066
-693.408
-190.873
-725.272
283.509
-515.636
659.339
1945.77
1895.08
4432.52
5841.11
4327.58
997.846
1215.67
293.854
-122.553
951.235
35.601
60.8823
1567.64
75.7666
662.796
-992.332
1727.09
914.154
1290.53
36.449
-228.236
-510.238
-1134.12
-2120.84
121.191
-336.244
3541.11
-141.125
-731.715
-2460.12
-889.963
-1103.63
1401.54
1136.57
434.792
-1044.33
-1229.27
-1195.78
-1105.89
-1362.23
-174.214
1323.19
444.749
32.315
-743.707
370.909
1073.65
212.828
-555.212
-244.822
2175.97
39.5949
-787.428
-1505.13
780.44
4400.26
1873.36
2139.79
2513.45
319.27
-109.274
-630.949
-70.5
-275.21
-458.71
1333.82
912.242
-86.1428
-422.587
-488.831
152.217
3040.12
1345.38
5090.36
5194.78
8520.61
7777.63
6752.86
5066.22
3077.91
6224.29
5269.02
698.161
-80.4017
-699.011
-915.101
-1486.02
-1239.73
-1016.11
-6073.15
-1701.03
-2251.67
2091.75
1103.61
-720.587
303.984
-174.818
865.115
-154.296
-2671.8
-3417.52
-2911.57
-752.131
-2104.53
-1323.42
-301.929
-550.955
-541.451
-341.527
-1261.54
-1129.28
-464.903
-1541.72
-2542.55
-2091.2
641.768
3396.19
1612.36
189.321
712.731
-2497.38
-2087.66
-3455.25
-3051.52
-1781.68
-1418.05
-15.2866
289.664
1440
-278.236
765.614
72.1231
-264.827
-505.029
-409.55
3760.21
2344.32
3089.85
2571.47
1168.33
-728.274
-428.253
1071.88
-611.076
-585.832
-1217.72
565.242
-358.394
-1655.01
-1504.32
-2201.56
900.028
-1271.15
-321.805
-374.413
-333.912
-462.536
470.123
-380.821
-44.9242
886.83
1078.57
-63.6763
-494.513
290.577
3078.11
1718.66
2869.09
970.55
1025.7
1831.38
1745.54
2271.33
4788.77
4573.12
2262.68
806.171
2301.84
-556.606
-261.281
-2816.8
-3417.69
-2850.79
-1795.19
577.82
-1541.91
-774.118
1727.5
2852.96
3331.74
1704.87
2752.49
1854.04
2429.72
1118.53
3004.86
1897.1
558.425
-638.4
-422.459
900.502
-2505.35
-708.684
-1163.42
-1370.18
-842.604
-248.768
381.582
-558.528
-71.4287
2959.45
2725.37
-1060.18
-584.361
-979.692
-73.6808
1049.78
983.053
760.901
-405.139
378.997
2605.79
1287.27
392.148
-385.81
571.41
-1869.56
-252.145
-1220.29
-685.248
774.981
1725.19
439.433
2943.05
2224.44
4602.84
4501
1423.25
-493.756
-1401.58
-2212.3
-265.594
861.067
1903.95
6802.03
2314.92
2130.64
-45.6415
-337.732
-525.283
-270.964
-811.16
-2828.59
190.038
1953.18
25.181
-648.852
450.854
1011.16
-311.056
-1212.72
-1419.38
-463.593
-310.758
1418.93
2875
3511.47
3571.51
1415.15
4906.95
-169.909
-1741.26
393.094
935.448
221.365
1193.45
1183.77
2829.09
1274.74
840.285
-243.256
-1143.71
-1648.47
-1387.04
-1154.37
-733.047
-1196.32
373.749
-934.006
196.241
-1363.43
132.835
-885.123
-657.166
-997.4
-695.653
-2077.77
-1667.72
275.714
2354.74
2347.52
4530.06
4829.55
1164.04
-216.365
1765.95
1167.69
4353.66
833.717
1398.83
679.79
251.649
56.369
583.796
897.25
628.3
3427.11
2694.18
4323.56
3688.35
1236.49
2742.23
1212.16
843.524
4752.49
5987.38
5453.26
3290.43
-5473.33
-3794.28
-4287.71
-1349.87
-2282.68
325.261
36.6583
-1202.7
347.553
96.9884
-798.278
-3318.61
-981.732
-56.2091
350.917
633.009
-348.314
738.724
394.534
397.327
-400.563
277.286
193.416
-1998.92
-1244.37
353.593
-1755.27
-723.679
-34.0612
-1754.14
-147.3
-625.159
-706.344
-522.134
-211.186
-1647.37
-1010.26
-469.71
462.78
-263.276
-320.425
214.89
-189.132
-1164.93
-1073.09
2079.5
1161.71
-262.62
3857.1
8600.79
4829.67
2194.82
-333.242
394.947
484.885
-126.417
-92.9405
-465.135
-274.144
-1018.01
-461.547
-108.099
-349.837
-995.364
238.262
-322.082
635.227
661.905
2437.43
178.001
633.312
857.638
3739.34
1512.63
932.174
938.912
653.064
-880.458
-1163.97
-699.306
-994.44
-1996.5
-3082.05
-1122.6
1850.19
506.946
5.84237
1449.07
148.992
-159.532
39.0255
330.667
1757.79
2418.55
5848.75
4347.49
-428.908
-646.969
1218.89
-82.6792
-625.459
94.2537
-377.09
-1937.71
129.272
-20.6197
-500.888
695.046
-236.703
1664.34
-77.6864
-279.998
52.5287
1968.47
2436.34
1504.58
73.6175
753.932
-232.224
834.873
-1433.34
-1122.76
-218.265
-1377.69
-178.856
-1256.8
305.287
-3684.87
-1179.16
1942.48
1442.98
2365.55
2020.87
1297.29
585.562
963.952
788.126
336.821
831.868
-48.8771
-572.033
-3041.4
-982.532
-2002.51
-1789.82
-2970.51
-2487.23
-2361.54
-1676.26
-1864.42
-1031.91
-502.356
-470.345
2229.77
541.548
784.777
740.152
325.281
604.2
-999.586
-79.3364
3087.65
3169.84
351.776
138.791
-282.821
-225.413
-327.745
1539.48
2309.55
2438.36
507.76
334.707
-1007.13
-1000.56
-200.594
-1634.49
-323.3
-59.4688
-2017.3
-1409.4
-2626.36
-2289.44
-1234.6
-418.865
180.572
1298.87
261.539
2189.26
4651.41
4548.1
2856.52
604.453
1180.64
3979.43
3581.18
2530.57
4005.26
1620.13
-837.112
-1508.58
1552.28
2229.33
4126.56
1673.08
4323.54
4360.25
1227.48
398.222
-197.884
2215.87
2849.27
4666.1
4951.66
5376.32
3232.09
3612.13
6719.11
6298.56
7685.69
6053.35
6652.22
3026.94
1795.22
100.45
942.272
2485.35
824.597
2382.41
-351.538
-580.526
-761.798
672.912
542.097
1958.3
1841.18
1719.75
205.483
-198.717
273.731
-778.858
721.405
-300.43
-1819.75
-1095.28
-1049.35
-814.323
-3075.66
-2391.87
-4062.76
-1396.04
-2444.82
-2027.88
-1391.86
1180.63
-912.026
-4533.06
-4868.31
-2916.59
-2759.32
-2491.28
-820.903
665.06
-2218.52
-3681.25
-5457.08
-3754.06
-156.721
-1388.91
1170.9
2022.24
233.463
690.784
-149.178
774.304
1958.68
2398.74
2030.43
9486.08
11456.6
14272.6
5484.25
2859.45
3837.79
2748.68
869.653
456.776
382.099
-562.925
-2406.07
-1871.88
-1135.16
-3603.37
-1493.85
283.736
-110.372
-994.108
66.1124
179.947
862.898
3403.52
1201.24
557.302
101.359
-1719.44
-787.861
172.606
1143.82
668.429
1825.98
620.022
984.612
-1658.31
-3147.12
1730.36
1863.8
688.477
468.071
-610.448
-1167.39
-2893.26
-276.812
-145.571
2506.78
3573.81
4692.58
5044.4
3060.13
3182.01
3188.56
3662.59
3474.11
576.986
-256.984
-653.238
-146.193
2465.54
5258.47
4587.67
3198.4
6756.82
3110.25
3233.46
1297.97
1154.13
2470.99
451.194
448.227
203.533
-850.817
-152.926
211.821
660.967
-138.709
1984.4
4218.68
7273.56
1853.13
1798.8
3765.88
773.774
116.124
4234.71
1595.3
998.756
1159.18
1015.08
-55.7014
1873.28
-1622.54
-2435.32
-1417.01
-142.096
-136.383
362.792
-240.599
-367.195
-255.372
-2030.66
-266.299
-72.7658
1108.07
4169.2
6562.95
5473.62
5076.33
6983.93
3253.91
-469.418
-1041.58
-1526.43
-1132.82
-266.421
-1351.61
-1687.74
-1239.47
542.281
-627.652
-878.834
-2222.87
-1543.12
-983.76
-605.019
586.49
-63.9281
-1089.91
-2578.07
-894.623
-2523.83
-1300.49
-430.551
-162.106
-331.762
-764.366
65.6203
-435.655
-1628.26
-1280.35
-409.793
654.292
-49.5901
-2057.03
-1202.36
-2443.8
575.579
1005.3
2254.62
2497.71
1073.11
246.762
-506.412
-586.289
-391.603
-258.776
-223.412
80.0594
771.664
-517.893
-496.344
76.4594
193.254
-693.164
-1276.03
-429.514
-41.6427
-2524.39
-2887.34
-1679.38
-1541.71
-623.294
-1277.34
-1035.92
-420.296
-1580.16
-1548.09
-406.769
-1518.91
-2407.83
-1629.23
-2775.51
1522.75
2897.27
28.7265
139.288
-706.346
-257.514
284.614
816.076
-906.165
381.895
-7.30153
-112.013
-503.827
584.528
1277.37
-546.199
-764.273
100.568
-853.267
-664.209
-337.755
-989.19
-1153.47
-666.133
1774.92
-563.445
-2844.37
-2699.29
-1480.25
415.188
-1881.29
112.866
2958.03
2665.86
1799.01
2681.17
3846.2
3107.88
3481.38
3286.2
2837.43
445.832
-302.033
-1705.98
401.62
-1354.85
-1744.8
-1455.79
-649.465
1694.63
1685.57
788.664
-1558.7
-3079.75
-1004.1
-549.307
-791.038
-2529.53
-3631.74
-5336.81
-928.176
-615.317
-96.7366
625.473
-2577.46
-1054.05
-1590.45
-1080.18
-7.82294
746.817
4167.73
3391.86
3717.99
4806.58
4855.09
1891.02
2290.34
3680.28
5292.55
4037.44
3252.52
3774.19
2611.97
3626.41
1262.37
-679.985
1569.17
20.247
1215
1904.85
3905.65
4706.2
2495.02
3112.04
986.045
1173.21
-335.16
867.222
-1269.45
-783.079
-1792.82
-3939.03
-2220.51
-1056.78
-2235.98
-1872.77
-2624.88
-1753.21
-884.533
-1549.41
-1732.33
-1158.91
77.2598
947.66
4163.78
1664.09
3633.84
840.062
1156.81
431.454
492.407
2599.04
2005.58
172.903
2300.67
1517.35
1646.6
1571.78
-133.878
-2178.15
-554.583
416.35
-792.142
-1214.52
-643.964
237.387
1141.28
939.15
1003.58
801.099
3968.46
2820.93
3118.13
1108.27
2623.85
9190.19
8151.76
4046.85
928.502
1687.93
-13.2293
-1311.12
-230.344
-2078.34
-2516.17
-2462
289.71
-828.779
-1143.53
-2244.26
-1808.46
-3091.95
-431.685
-2201.41
-2312.03
-2578.12
-899.434
-1811.47
-2442.84
-3793.16
-2473.05
-936.213
75.8781
2969.01
4545.6
2451.47
506.296
79.4032
-1060.95
1099.18
1254.59
4724.77
4076.57
2064.09
753.524
-70.961
-900.692
-1785.2
-2565.25
-2390.72
-2448.32
-2708.9
-2206.96
-1259.57
-1507.91
-1214.82
-3029.37
-3367.66
-1403.37
-1573.17
-1159.13
-218.852
1176.6
3121.12
594.122
-656.015
630.874
1452.64
2459.99
3987.78
2752.16
4335.67
911.191
1484.55
412.042
2362.82
3939.47
2469.78
3056.99
344.082
-691.282
-607.13
801.714
592.173
4365.3
3858.47
1012.82
2143.08
137.44
895.63
4092.13
2190.5
1739.99
1845.74
439.08
3907.27
1937.33
899.56
3600.68
5509.18
2461.76
271.796
-505.793
-697.595
-663.053
-962.329
-2447.47
-965.158
-490.581
-887.006
-95.9282
164.774
-172.312
-473.83
651.746
-97.6081
767.599
2203.76
1799.4
305.04
-163.037
-971.613
-442.927
-2066.48
-1518.64
725.893
526.262
-472.116
285.174
-507.142
-180.108
-1192.91
196.944
-1632.18
-338.088
3476.56
1370.94
-48.1151
-1546.06
425.359
872.779
-561.397
-2091.17
-2518.8
-94.7151
193.558
1017.59
-1041.1
-220.235
469.002
830.13
1464.71
1792.6
1862.1
3783.84
846.886
182.663
-869.685
-2988.48
-1384.82
-364.611
-1285.17
-977.678
1445.82
2397.22
672.807
1223.99
-40.1195
-270.025
152.151
450.64
896.745
1626.6
514.075
1657.95
4084.16
5672.59
6707.36
7597.26
7215.36
8003.17
4408.31
2964.42
1391.19
-846.278
609.364
2357.34
-193.801
-842.779
79.2884
-2164.07
-2554.09
395.824
1161.78
3764.32
3636.41
4970.01
5947.64
3677.08
2543.5
884.155
1632.51
292.832
379.132
1651.17
5.13754
105.88
1055.01
-238.89
-2732.25
-998.523
3077.77
-24.9482
775.566
475.519
-478.094
-607.254
-174.27
221.263
1424.02
6061.73
4181.82
5827.02
7298.25
4061.87
3942.38
3328.29
1016.23
515.743
1985.27
645.292
901.407
189.671
-330.435
-2180.39
-613.308
757.895
39.697
184.016
-681.456
-74.9082
-361.151
-856.375
-369.143
93.2651
-1383.63
-2008.3
-737.447
-884.804
-340.52
1108.29
-824.276
1211.63
-712.325
-1161.79
-1322.14
-466.521
-1807.09
-200.127
448.153
-972.124
466.515
53.9411
381.577
-830.614
-95.9844
324.714
896.816
176.789
-1054.12
-766.651
-881.863
-561.361
1496.89
-137.347
-1.24401
-229.169
-193.14
-380.658
1173.39
370.192
-1114.81
-731.753
-1633.42
-896.29
-1771.84
-2356.53
-2471.89
-442.452
-1655.03
-2294.02
-723.277
-2968.53
-2046.75
-1451.94
-1152.7
946.353
1432.84
864.427
-1213.77
-1825.42
-1348.7
-1546.64
-444.029
-455.665
1377.19
1153.73
1250.25
-808.335
-1980.48
-2777.27
-1605.22
-3024.65
491.53
-2618.84
302.899
4408
5234.28
3641.9
5742.3
3364.59
-583.393
-2702.48
-2128.75
-2580.4
-2373.85
-2913.46
-4502.91
-3116.5
-1189.45
-1039.1
4814.32
4218.78
2873.73
562.473
1067.23
3368.6
6437.98
7771.26
3903.5
-341.109
-1181.87
2036.48
61.3327
-1171.96
-2204.6
-3126.16
-3503.29
-2263.25
219.334
277.492
3965.52
1999.42
534.375
-182.883
-902.161
423.208
-3028.62
-4209.31
-2689.49
-771.55
-754.763
-610.048
415.689
-71.5486
-656.517
-1866.44
-687.276
-1082.17
547.64
9.70867
1248.15
3153.85
1639.96
-274.372
4959.26
3171.98
4949.84
5614.02
1376.24
2605.18
2999.87
2761.95
1788.84
3047.76
1013.81
-773.764
-2100.23
-896.493
-1502.64
-486.316
-440.673
-1533.18
2038.07
2902.17
1913.87
2998.17
698.521
-2231.45
1612.64
3071.88
3615.76
8808.1
7029.52
4054.47
624.996
-448.552
83.341
2648.15
6608.66
2814.5
3308.32
46.5163
-148.419
1511.34
626.584
-2096.42
-2100.5
-1084.36
-949.509
-1642.67
-53.4082
-912.376
-1308.01
-1737.43
-2754.3
-1902.23
121.028
-913.639
-659.863
-320.556
-1715.51
418.333
-303.225
1349.38
1473.72
-95.2186
362.806
410.554
-879.376
-1414.36
-301.013
-1209.5
38.2571
-415.25
-349.082
-1117.19
-1844.87
-1802.76
-1159.97
-1951.81
-3991.05
552.541
1765.22
-2365.62
-1016.87
-2532.91
-31.7857
467.954
-1039.97
-2502.3
-2481.1
-613.178
-1016.59
1649.8
-619.061
-1067.53
-671.698
539.078
633.478
-699.789
-304.94
1306.42
3306.8
3162.48
4216.21
1798.9
6399.3
2487.97
-1291.17
-2617.74
-1953.16
4084.9
3598.2
5872.34
1078.29
1144.88
2603.06
3069.68
2039.06
413.177
-730.245
-150.537
9.24154
117.046
-924.859
-2480.06
-1829.22
-1446.08
-691.338
-1659
-442.405
-91.8858
1537.89
274.115
773.037
-1071.97
-1603.72
-1853.78
-2160.99
-2545.6
-2122.11
-934.717
700.16
1210.68
-226.152
49.3843
3022.71
-2473.78
-2846.34
402.741
-306.871
207.089
-299.375
267.973
-690.126
1160.34
1294.47
-423.221
550.003
298.955
-484.292
1736.71
916.493
-549.23
1670.11
1264.79
3011.93
3258.56
7849.36
6377.37
3598.88
3490.62
3372.05
1630.1
-115.645
673.936
-85.708
660.115
-917.367
-2026.17
-2377.84
-1578.51
-3060.64
-4175.98
-1613
304.4
-1322.03
30.2669
-886.535
511.567
-1329.31
-2859.83
-1884.26
-640.335
1373.92
-652.969
358.794
-1.44904
-596.915
-3987.22
-2480.19
381.018
690.667
3246.99
2332.43
2779
993.137
-1016.34
-618.393
385.72
726.228
1766.45
434.424
504.924
93.4592
1089.01
3378.77
1642.43
-123.902
382.702
-1094.43
-591.918
443.993
389.539
-1088.49
1447.85
208.57
859.128
-2365.01
-2679.74
-3198.69
-550.409
-832.39
1537.23
-1963.26
395.356
88.6646
-688.338
-88.7497
-453.178
-977.623
-111.404
216.606
1514.77
-13.6344
-1433
-566.142
124.803
-185.407
-954.019
-1321.5
207.028
-1000.39
-2054.8
-1704.71
-268.681
-201.566
717.3
-818.382
-1260.82
-1281.04
-1816.31
-1988.88
-1908.02
-1709.51
510.462
-914.917
-270.889
-620.404
-664.097
-1760.51
-2297.19
-2011.2
-1596.73
-1174.33
-452.501
1082.79
3298.92
3854.55
9317.91
8989.37
5655.4
2928.78
3434.64
1875.98
527.435
935.617
2433.29
2477.36
3711.94
3189.74
2817.5
4690.58
765.844
-358.821
-674.701
1670.14
1204.41
476.786
-492.037
-641.653
734.465
-1138.74
-1152.57
295.559
-2741.11
-338.78
-780.842
687.09
-732.981
-2507.54
-112.125
-244.416
-410.251
-894.027
-199.692
-247.973
-2139.77
-2743.6
-1649.59
-2393.49
-3588.49
-2351.67
-106.025
269.039
-435.765
-1304.69
-352.802
-1495.03
-1277.97
-697.909
-2617.91
-901.332
651.656
-0.534966
704.926
-117.647
53.1644
245.076
-1247.61
-468.081
-492.171
-265.729
-160.736
314.026
-232.508
-588.006
-667.83
520.04
-643.277
-915.31
-137.86
1886
1860.6
1587.86
1105.49
1419.51
156.139
1166.84
3876.01
1929.64
1513.28
506.581
-1170.07
-267.886
724.8
-1067.73
1733.99
4955.38
4947.12
2833.34
4896.1
2991.1
9375.15
8947.69
6413.11
5797.27
4688.86
4638.43
4766.28
8546.07
2946.09
2812.51
3961.01
3762.14
3487.7
4419.94
6331.62
2201.76
387.267
909.916
883.36
-537.268
-490.272
-1802.68
-339.489
1134.56
1074.39
306.713
235.833
963.289
2431.55
1297.19
-72.3805
-17.5985
413.897
528.087
-551.219
-1822.43
1024.37
3908.43
2241.64
2825.33
5599.78
3542
2115.52
1578.35
-1179.1
-935.729
-160.064
-145.162
831.805
-1079.86
-942.921
-514.217
-405.096
682.996
462.475
1539.35
-1809.55
-1349.66
-607.123
-290.822
-555.809
-1035.25
-604.33
-926.737
2613.6
291.273
1607.68
3081.97
2422.15
2233.03
2621.69
-2146.54
1100.62
1328.98
4637.65
4968.22
11341.3
7993.37
1804.91
-618.477
-1976.9
-2115.64
-817.092
-2088.64
-138.674
565.164
-577.493
-2392.3
47.0446
-459.579
-4166.76
-587.856
-362.645
-240.796
-1687.88
-465.05
108.824
385.773
213.612
1166.89
3809.29
2476.88
275.898
327.03
-2226.09
-2296.14
-3200.89
2460.9
3401.27
1409.04
1604.92
1467.73
992.721
2462.05
-824.691
-1481.31
-3328.97
-1678.64
-1192.62
-88.9459
355.665
239.826
1533.01
2969.33
3797.43
2803.83
1730.76
1951.46
2786.4
2628.57
866.326
136.548
188.565
1727.94
-113.996
1001.56
2098.04
-186.945
-1367.95
134.091
-810.94
151.796
2671.55
866.873
408.94
147.091
2302.92
2503.56
983.491
912.234
853.799
1125.72
937.517
-1377.15
-1309.94
855.722
2051.88
2933.12
3629.2
2457.09
1644.88
2192.2
320.029
1714.59
3566.4
2430.7
3714.19
5500.14
6158.75
8827.36
10107.1
10606
11420
5685.32
4565.75
3819.2
6604.35
5807.14
4868.69
1990.94
-111.598
8686.04
5036.76
1996.34
-1598.46
-2240.74
-4667.86
-2938.76
-2113.06
218.935
-147.783
-1017.71
-2014.19
-265.569
-732.055
309.027
-139.246
-721.929
-1682.71
-1407.77
-1030.46
55.5664
-715.419
-1810.62
-509.625
-2668.3
-987.21
2888.03
951.725
76.4886
-228.323
1436.32
2080.42
2908.45
4690.78
1654.52
288.044
1644.65
-6.35357
1942.12
3039.86
154.334
1715.74
2326.46
1248.61
2083.74
3285.27
138.647
-367.66
3858.16
6809.22
10821
6396.84
2380.27
-667.945
-1787.81
-286.536
-2336.93
-595.604
777.951
2176.62
791.923
769.195
3835.14
2700.13
1469.34
-2724.77
199.28
1465.83
-484.508
1395.9
418.834
1754.17
1187.71
1082.02
357.262
-1197.21
-319.899
3.3469
931.588
6.90582
542.203
-1071.29
-632.958
-430.758
49.295
214.02
438.766
-1312.79
487.717
-744.946
-702.042
580.923
457.928
318.346
327.936
-127.253
939.56
-1753.64
2983.49
3150.93
-332.728
-1890.9
1713.47
880.976
9737.65
8625.68
8901.44
4102.45
5645.64
5509.56
7873.45
6783.11
4025.2
3603.27
5079.79
3552.67
1644.64
1025.94
-88.7953
-4469.36
-6655.18
-2811.67
-1434.28
-575.109
-594.236
1503.48
257.991
-541.531
-788.659
610.62
469.731
-144.072
442.617
498.191
-650.426
-274.848
285.904
-496.367
1802.22
5228.57
3097.05
2100.89
829.762
147.788
-1124.01
-242.493
349.563
-445.817
-481.696
1000.64
31.3641
-1879.36
-1993.45
-691.457
-1600.09
-836.346
-676.322
-43.5978
2201.82
1302.01
967.096
2741.38
1308.26
410.745
2278.5
2507.36
1561.28
-0.582399
1869.16
-635.075
2221.87
1832.98
2678.74
4505.71
1640.16
1271.51
37.3077
-388.326
3402.17
4576.73
4572.05
3831.87
5257.99
12390.6
6149.95
5205.78
3933.41
3108.02
824.64
109.912
1391.55
1737.8
3852.95
2745.87
2138.6
3261.7
1048.76
784.664
1374.86
7550.83
2647.67
1253.73
-90.6802
111.379
-79.9725
1799.45
-1720.38
-766.16
621.299
1174.75
1874.39
5443.03
-543.351
-1748.3
-1635.78
-531.295
-1201.74
-595.805
683.055
2028.16
3191.56
2358.98
4654.54
4334.72
9458.11
11473.4
14096.4
9944.08
11693.8
9727.17
2758.54
-238.53
-1653.04
-2443.74
349.64
-1112.72
-670.986
-516.524
-2719.81
-4811.66
-1374.65
289.074
189.203
-4.81826
85.6623
1374.31
-1066.91
-810.602
-430.791
-1250.86
-1218.4
-1928.76
-1531.41
-1883.71
-986.991
144.792
459.386
-3520.34
-519.229
-1234.83
-1107.28
-837.3
-1263.43
-1811.65
-762.91
-850.037
-3665.31
-3770.68
-2113.62
-3030.72
-1777.61
368.457
-751.537
-852.057
-139.539
-1141.66
83.1691
483.188
2245.99
221.723
1016.16
-86.3087
-322.574
-1405.89
-339.362
689.736
1136.68
-816.542
503.383
265.138
-476.272
-78.0074
-776.695
-248.19
-468.79
-128.197
-921.707
-202.116
-819.625
-947.882
-976.808
-520.873
-1027.5
-1211.06
316.184
-8.64651
1707.14
515.749
529.654
809.098
201.477
775.548
1339.1
1335.64
-475.388
-367.535
237.206
341.889
589.661
-745.413
-1598.32
112.105
2668.57
1628.91
-524.357
1001.68
-362.794
-1365.21
-425.771
-1391.06
745.894
-609.603
-580.445
-994.905
959.381
589.902
-1693.9
-1539.84
-933.482
-396.325
-1411.18
245.974
-155.852
-609.987
319.993
3114.92
4007.53
4790.92
1457.02
-316.58
847.257
66.8506
555.266
-146.505
-601.781
-859.075
-109.314
-236.167
-2803.58
-41.7318
234.801
-428.21
706.444
1700.84
-697.762
-183.181
868.821
1721.39
1790.8
312.939
-1358.37
-930.325
-321.803
20.8689
5.9366
161.079
254.055
-1746.31
-1742.5
-2142.07
-2222.25
-2405.04
-282.588
739.888
5182.03
1136.36
868.741
-68.5021
-483.157
538.961
1046.85
-286.288
291.358
-625.739
790.954
4046.85
5575.46
3429.01
386.497
204.974
-978.267
-2146.11
-737.218
-1382.52
-3388.59
-1579.17
-592.879
-19.3472
1708.68
2333.36
4992.87
2202.89
-117.514
166.61
740.732
-236.214
-172.091
-924.154
989.531
818.904
1010.65
2143.81
-438.955
371.676
-720.578
118.6
2788.08
2487.66
2910.56
2826.36
4099.89
7414.37
4764.76
4109.11
3507.47
1564.38
1766.78
763.015
-522.626
-1105.23
-182.127
382.498
1838.21
1156.99
2538.23
-118.054
1670.48
4393.03
207.215
1348.23
2399.77
2765.93
784.4
20.5418
813.057
553.748
-327.271
3435.6
742.51
1460.91
4537.53
3019
2190.3
1721.27
-591.164
-987.101
-1074.4
425.432
-1311.24
-309.916
-1420.5
-209.452
-1368.59
-284.588
-320.821
977.498
355.601
-1069.17
-209.206
1595.77
-400.26
141.54
70.2644
306.743
-88.2689
-224.582
-92.8822
-434.075
-1407.97
-750.805
381.452
416.795
-130.332
-2421.63
-3525.61
-1930.76
-1701.35
-140.08
95.8757
-323.409
160.21
-1527.36
-1399.86
-140.973
-28.8833
1735.92
2258.05
2178.07
4106.6
13.9583
-933.45
-264.981
-591.838
316.734
-134.884
106.487
-615.43
-662.466
-469.88
197.957
-1973.05
-2446.57
219.707
561.733
-319.135
-201.145
-60.3653
-253.458
-108.871
-1068.56
-2043.46
-1436.71
-2375.67
-2693.3
-151.584
-2207.32
-1267.66
-2648.74
-2136.59
-2035.81
-1534.03
1051.7
-2562.54
-2802.75
-935.995
541.877
1142.89
-399.921
-467.697
81.1353
-66.0468
1876.67
716.296
1007.05
2239.63
4226.87
6211.06
2612.09
2234.97
2967.01
1558.77
516.208
-1644.75
-1934.19
-764.062
-171.477
1854.3
834.416
3492.02
6545.92
7289.98
4877.47
5107.83
2859.46
2481.66
1900.81
-995.55
-787.353
-536.153
-572.869
-161.025
633.999
-117.844
-1462.94
-2509.39
-534.677
281.084
559.049
2666.89
2407.01
-1185.17
-635.481
-2972.41
-16.8175
577.185
-504.604
-1734.41
-1378.88
-465.068
-838
37.7848
-1707.83
158.442
-515.961
-486.071
-1242.11
-699.447
5.07717
651.863
581.252
-207.184
-528.191
-873.921
-1719.99
-1541.23
-200.419
1930.29
1921.08
1606.53
3928.98
1431.97
2258.39
4218.15
3646
2695.01
-378.34
-775.744
-771.954
-1837.95
-896.106
-628.247
-222.266
-1488.53
-785.777
205.018
516.981
1584.63
-69.1721
87.1893
-317.468
-1627.71
-684.57
-928.455
-1031.24
316.468
-796.591
-179.179
-156.101
-2426.35
-1294.62
-2002.78
-1235.76
-764.797
-1838.69
-88.9072
534.721
78.7897
133.69
248.329
507.738
2852.15
2022.19
2377.52
4912.41
6432.14
682.696
830.904
-1244.02
-1213.46
-659.692
-270.399
907.948
583.422
-746.841
-593.217
-2840.41
-2208.01
-2469.44
-967.644
792.288
945.73
3138.04
6008.45
6098.43
10332.2
9601.92
9944.05
4303.37
3253.19
1056.48
-1552.39
-221.994
-1581.59
993.1
1047.79
416.441
2275.82
3858.22
4006.55
3896.9
4043.5
2547.52
2848.7
20.2563
2687.99
-76.5661
-61.594
98.7892
-2018.1
-1678.68
-1475.54
-1260.48
284.552
-115.792
2627.96
2485.96
-923.122
-1372.94
-3505.86
-2125.78
-1107.57
-1575.14
-53.5614
1427
115.184
-27.4306
-139.847
591.099
-662.52
-626.074
-1340.99
-2621.64
-3222.85
-2008.79
-1333.85
-2079.93
-1791.28
-3261.12
-1119.16
1848.43
4170.19
2547.89
5417.08
-359.966
-1178.6
191.225
-526.113
-733.581
-2385.67
-1191.49
648.634
-827.852
-1604.37
-340.894
-421.595
-410.043
-1717.85
-2596.49
-1150.02
-1366.96
-311.186
-996.444
14.3738
-67.7026
949.844
-1677.95
-445.454
-1031.89
-369.365
225.139
1436.48
2174.7
2053.9
2386.28
824.155
434.186
656.333
-633.983
-568.069
-1423.09
-746
-415.378
-2091.46
-391.637
-1605.96
-200.875
-1272.33
-104.448
635.33
343.328
-805.102
-432.363
64.455
1322.65
-1018.71
-8.50718
651.891
62.8175
241.208
-939.026
-414.099
-450.474
1364.05
8.18713
-729.186
1432.08
-17.5708
-400.808
-134.003
85.4824
165.74
-1046.39
-1797.89
-527.825
-1089.15
-126.852
2500.12
3121.05
2738.71
5613.29
3661.66
4548.08
1121.87
4023.17
3361.24
553.082
2012.63
-448.446
-1159.76
1760.27
-493.782
655.381
753.479
1206.21
274.361
144.404
228.214
1578.71
641.193
-684.37
-1224.41
-261.826
-423.823
-731.857
-1564.48
-895.187
-1258.84
-777.056
-715.111
-433.785
-614.148
-298.923
-241.246
183.217
-426.903
217.972
1543.13
1142.87
-336.51
-12.0094
158.319
97.5018
-1476.38
-573.526
-150.919
1196.19
761.412
2646.21
499.386
-1031.98
280.819
-2026.27
-1814.3
-968.024
-359.67
-290.659
-800.118
-1454.77
-2083.09
-982.628
-1038.84
-925.253
-1647.43
-518.976
1454.87
2111.9
1368.27
794.633
447.726
2954.97
5148.79
3394.23
3009.69
2722.69
2791.57
4077
1523.04
4189.05
962.993
1713.84
4962.86
6329.81
4256.04
5286.41
4745.05
4106.09
3723.49
2622.64
4162.05
2606.24
1326.24
1090.47
-1643.12
-435.056
-683.917
-1554.66
-1624.16
-2075.53
-193.108
371.676
-2272.82
-2969.84
1352.73
3784.33
2376.54
3120.29
4365.79
1122.05
6443.55
2827.74
-8.05057
1836.12
3160.63
2460.38
2292.8
6636.88
1143.01
3261.22
4250.48
2749.39
1279.41
1053.7
1719.53
4101.21
5548.36
4019.91
2914.3
4337.13
1806.74
124.135
-2973.85
-3391.24
-4294.93
-2276.81
-16.0538
-882.359
-449.157
-2058.15
-836.796
-1192.53
781.041
897.644
448.702
151.377
1265.1
-1726.14
-2445.98
-863.457
-808.381
1188.97
2842.71
5443.72
3563.91
3448.5
1954.44
1203.98
-33.209
618.569
737.908
535.446
-622.885
504.256
504.555
-954.361
-1162.87
-718.131
225.188
-58.3584
-556.2
-305.685
-673.305
-51.7362
-632.943
-43.0767
-327.288
-240.106
-206.387
693.035
201.676
-44.134
-569.983
-346.274
-1687.21
-1142.57
358.477
-2005.98
-966.087
-2140.71
59.7407
179.167
-251.799
-1590.79
-1954.92
-1828.88
251.736
1075.24
1058.01
3071.8
3782.32
2544.53
1866.27
1925.84
5756.18
6226.16
2912.13
5266.39
7473.53
3968.09
5121.03
2566.49
6342.22
9515.02
2242.73
490.965
-1939.42
324.28
-766.483
-1359.64
-357.528
-405.215
937.17
-246.653
-700.462
-456.714
-3374.47
-1771.99
-1785.41
-1410.7
-565.746
352.734
380.437
2362.98
1939.27
921.209
1923.38
1197.12
-215.664
-182.002
38.9685
-700.042
-891.074
-345.093
-638.233
1013.65
336.453
-2104.12
-649.085
-199.395
2014.42
4392.14
2620.07
3830.96
1127.17
-1115.62
209.536
564.789
-248.365
704.484
-158.235
-582.223
-2500.17
817.156
538.168
-90.1839
-1642.46
-303.948
-1120.68
-966.123
642.054
-945.979
-1112.93
1336.94
1243.99
2030.25
1379.83
73.63
778.709
101.608
-855.779
-357.08
-863.583
408.761
2081.9
2164.21
1234.82
4830
2263.75
4235.81
401.861
90.6896
231.648
-1353.37
-1401.06
2319.46
4918.37
4146.2
3281.14
1799.45
4025.51
4781.08
3749.68
5358.05
4164.08
2217.68
1373.12
1852.56
-202.678
2439.13
4321.69
106.477
2552.19
-51.9266
-805.967
-651.663
-1638.05
-2625.94
-2222.3
-1947.57
-3028.18
-1506.65
-2132.41
-1120.34
15.4837
-1659.56
-389.163
-97.4317
-303.02
-886.096
-1168.13
-2011.92
-1314.83
-2857.06
-3577.92
-558.63
934.37
1114.69
4989.02
7805.44
7673.83
3766.68
2511.37
2639.16
4933.39
6648.15
5384.46
7469.38
11037.4
9596.46
16420.7
10999.4
12703.8
12488.5
7033.55
6982.64
10835.5
6990.91
6137.09
4635.79
3394.28
5098.48
9278.82
7633.81
9659.02
8965.69
289.755
287.871
-1282.25
-1195.64
36.9775
-634.105
-931.046
215.839
-399.929
88.6626
-1437.85
-4099.4
-3145.54
-1551.61
-1192.15
-512.913
-544.955
-2775.94
-1392.38
-2218.36
1568.36
-662.468
-432.811
-210.849
-2214.68
416.492
2636.3
-1072.21
-1103.7
2030.22
1550.25
66.5458
1458.05
3223.74
1610.54
-399.847
0.699399
780.433
2560.46
4189.14
4708.85
8055.89
8133.92
8318.98
9095.45
6368.11
9178.97
5802.47
2515.29
3675.58
1957.1
334.54
250.828
1748.61
303.161
612.422
831.175
-163.32
-337.337
3289.74
2898.92
2173.82
1489.06
923.97
-31.1919
-60.4203
-1001.57
-763.524
-548.3
-715.874
-1089.08
-868.101
-1618.29
-1638.36
-1715.77
-586.439
636.659
139.622
81.498
-1497.04
-3516.43
-645.811
152.957
-2234.95
-2489.99
-2265.8
-3197.68
-1560.31
-1171.4
-3432.64
-3097.18
-2117.31
-2161.33
-2288.28
1238.55
-163.521
-1103.64
41.7602
2646.56
668.449
432.173
400.206
171.092
1000.21
592.589
-965.164
-326.068
-817.966
-485.002
-2303.13
-3510.34
-1495.21
-1000.42
1249.54
542.622
-18.0314
2014.82
2358.94
1378.33
839.169
-2424.4
-622.521
-852.257
-958.092
6.287
785.757
-973.596
482.101
1568.04
3587.73
-158.816
-457.241
-1223.88
193.922
22.2478
64.2375
383.947
894.831
-317.821
1338.55
119.969
2047.38
1797.28
2926.46
-138.941
-2.33803
-1551.08
394.345
-60.0614
713.749
-1385.76
73.7025
-417.652
-1342.64
55.6627
1968.86
2368.65
1381.15
1538.74
1561.04
403.255
-216.095
-628.678
567.405
2947.1
5612.28
820.448
3454.46
4210.97
1333.06
1397.14
1412.18
1186.66
1105.82
2705.74
4787.36
497.555
-851.065
-664.453
-6.19785
95.9406
1253.95
-223.764
2135.19
-704.268
710.074
-2226.91
-780.202
-2183.44
-1527.51
-974.023
-2633.14
-1756.63
-1396.6
634.323
2677.51
1281.22
798.798
2316.48
-383.596
541.729
3483.03
3991.75
1549.99
-509.594
-513.944
812.98
994.122
2058.33
1136.91
2990.33
1957.31
4597.86
2902.33
3153.06
2269.04
3311.22
1039.78
-140.71
-95.0993
-225.373
682.486
3783.77
2237.68
1180.31
1585.07
1919.63
1084.98
-943.521
-1998.29
-702.159
-622.741
-470.42
-185.992
726.46
4578.44
1060.64
3550.06
5208.22
7325.39
2063.65
1437.98
3782.59
2816.78
3357.31
5594.13
5342.83
7486.48
5811.76
5512.08
1191.77
-584.828
-328.149
-1843.67
2152.76
4207.74
8884.71
13468.2
16425
12953.8
15092.1
5925.16
2106.16
3498.56
6283.83
8898.54
1763.37
1364.59
2376.62
2743.44
1101.82
-40.7518
-222.15
-586.988
-1152.12
-499.145
-551.349
-1766.95
-3122.02
-3580.03
-2808.34
-217.311
-789.577
-898.603
-696.257
-769.698
-371.825
65.5407
-3216.12
-2858.7
-1910.57
-1273.63
-1029.94
-3015.18
-947.426
-408.753
-336.333
1216.72
810.002
596.226
576.145
323.349
1032.63
199.088
1236.25
-81.3568
231.019
-317.225
-72.8386
73.3493
-525.38
254.549
-1404.42
-1509.96
317.989
-2481.44
1437.7
-309.746
-421.107
465.899
670.375
255.183
236.732
-734.253
-1608.52
1237.71
740.441
204.996
376.283
561.81
-45.5171
-389.01
-1662.81
-1808.16
-1882.88
-1659.69
-2218.46
-598.719
-973.362
-2580.99
-1448.35
-1113.47
-16.3551
230.335
-2246.98
-698.076
-706.27
1211.33
1130.24
2323.88
3021.6
2320.78
5000.62
1031.25
4220.35
5901.3
1212.88
1641.72
-122.967
1352.73
2035.64
957.951
1874.15
-438.306
-482.586
1426.59
336.337
-996.627
-670.215
633.956
-2007.5
-3917.67
-2774.57
-2974.65
-2488.68
-768.621
-1160.46
-1368
-1250.06
-1474.21
433.172
614.029
40.4354
717.408
986.533
1197.7
-1328.71
-676.468
-1670.11
-1377.59
-1712.4
-1148.42
31.716
947.013
370.526
410.134
609.847
1804.07
2324.78
3582.11
4454.26
2250.63
1732.23
1465.17
254.874
167.475
-194.863
-724.696
-337.668
-360.361
-812.712
-1092.2
-972.232
-395.457
-153.754
-1263.52
-1312.65
-3713.5
-354.68
-49.2872
-818.006
-181.908
128.249
25.0699
1052.61
1028.26
246.822
5686.7
6894.89
5395.67
1021.94
658.032
1417.69
4295.35
4957.39
1932.97
-654.216
-2055.7
-1172.18
665.001
-1714.63
-158.382
-439.145
-452.401
586.001
-713.738
871.196
226.363
3601.16
-1559.54
1557.11
7362.55
949.326
1005.04
-256.226
2667.58
3182.44
7341.59
3903.05
8998.57
3480.37
4355.36
7050.81
1903.81
4768.39
3494.98
358.926
-2514.13
-2054.3
1774.65
-1505.01
-2667.91
-1191.26
-196.027
372.956
1253.53
2044.52
2001.31
3219.04
1796.09
1336.31
-1946.3
1157.31
4877.41
6425.41
3544.27
4191.13
673.279
-871.968
-305.268
2006.08
762.633
-1095.86
-719.335
-842.997
-962.981
-2621.67
-2250.15
-72.2836
1921.52
1554.83
1225.44
-1006.6
-1815.72
-3116.03
-2617.04
-4752.71
-3887.1
-4171.57
-2635.61
-2072.85
-1464.02
-92.7969
-1244.8
1507.75
1554.27
2811.29
1837.96
807.968
2888.05
1234.38
1917.44
1068.75
2298.77
4919.36
3313.92
-150.088
641.495
3898.73
2053.19
3059.49
7339.7
6452.48
3386.48
4995.11
5308.97
5921
3878.37
1056.23
-1733.74
-1833.45
-1899.69
-3684.94
-3102.43
-2135.21
-867.072
364.896
104.952
2517.5
1723.8
-484.188
581.772
525.399
-1045.56
-1184.46
-1104.64
-240.796
-621.759
952.084
1490.9
2391.37
-1627.99
-566.148
-237.087
997.05
5361.99
1296.1
-3196.02
-4212.72
-1807.65
-210.29
-221.436
2127.56
2734.02
-670.556
-957.932
-343.289
-126.113
775.877
2822.71
1119.05
1091.45
-743.075
867.524
564.668
834.977
3777.64
895.265
669.723
998.828
1740.48
1319.35
3434.94
6546.78
4242.01
3951.37
4641.27
2812.25
2258.06
1036.32
2134.97
1362.82
4779.81
7725.54
2285.41
5227.7
5163.22
4153.07
2085.84
-508.296
-1608.9
149.402
-686.423
3327.95
3882.72
6883.59
6917.22
5228.31
3384.42
793.965
-70.7142
1607.5
226.61
-511.952
-614.544
633.578
263.557
-129.452
-282.965
-180.383
372.248
-801.303
-250.392
-31.1172
1678.73
1006.28
-653.834
-2714.49
-2876.08
-980.839
-104.833
8.25385
-187.439
-769.549
1198.91
420.622
787.817
-661.362
572.465
198.923
352.823
-739.753
-1188.07
498.635
-659.548
131.071
5.26221
-474.974
-30.5002
-257.64
-458.82
426.102
-1497.81
-666.955
-2112.3
54.9023
-2751.2
-2583.77
-1165.57
-724.258
82.7518
733.927
-864.746
-1164.53
-1313.27
-1522.93
-4527.32
-2605.93
-1276.4
-2577.32
-1378.31
-2810.37
-1342.6
610.614
1919.32
4701.39
5360.86
5581.47
7176.09
8099.85
4924.87
4032.11
743.675
2662.5
5466.87
4999.67
5285.67
3453.11
3023.52
-819.318
-1197.45
83.2546
749.671
323.186
1722.89
648.738
-210.94
1970.84
2688.75
2877.81
5781.99
7924.13
6825.82
4819.26
7428.27
5416.45
1508.32
-1412.74
-1043.65
-92.8007
2264.36
-1472.69
1003.34
391.965
448.475
542.234
-810.177
-1505.72
-2687.87
-1460.8
-633.154
147.334
93.1968
493.376
-9.34203
119.17
-224.057
1420.4
191.501
155.938
-648.422
-46.6668
2084.65
-1172.49
-1213.99
-1061.71
-305.348
-874.966
-396.81
-719.031
127.436
-1075.98
-251.816
-99.639
-1477.39
-512.054
1568.34
615.981
-1055.38
-3940.39
-3580.66
-532.484
1416.5
3638.1
2195.71
-606.163
278.66
-61.0475
651.3
-1405.86
-367.864
1768.14
4987.33
5308.12
5688.57
7663.48
8908.36
3659.81
1978.18
4975.46
8591.22
4514.7
2280.85
481.903
326.449
-1010.45
-2541.64
463.853
-452.083
356.783
-2206.22
-1071.2
-1337.87
53.8995
607.441
-2433.56
-226.853
561.688
-1031.06
-232.477
919.15
762.76
909.628
606.754
-763.427
35.8305
1182.92
-689.599
-1338.95
1522.92
-952.672
420.951
1582.61
719.866
607.076
887.334
-2648.77
-2015.63
-220.68
60.5854
586.918
114.535
1319.59
137.658
3979.48
3994.18
2854.95
2574.05
2917.76
1931.55
1315.63
2693.87
316.297
491.37
-236.479
-625.481
1764.72
-1024.56
-1799.05
-1811.2
-519.378
-1861.82
-2209.45
-1749.25
-2068.36
710.169
1989.34
3080.19
38.4697
-1653.59
-1316.07
-1346.24
-915.593
-688.899
347.05
-121.1
-350.513
1884.67
-1516.7
-3876.97
-768.346
-1664.03
1095.77
1210.88
976.205
1638.35
676.697
384.011
2961.98
1206.57
2275.79
389.826
2920.37
5027.29
1620.62
502.946
741.548
637.839
883.32
-2243.3
-2225.37
-3021.69
-4143.86
-2483.12
-1376.04
-1280
-1259.19
-2444.02
-2166.36
-1710.93
12.3681
565.846
824.1
-78.1874
-111.196
-527.504
-1136.94
-1499.92
-1027.44
397.991
-202.447
1002.63
734.381
497.517
275.104
340.131
-282.457
416.446
-727.846
-1112.71
-793.716
-3160.18
-1658.62
-214
-276.788
-2362.66
547.702
1381.14
1138.94
2769.28
1332.87
101.708
4563.79
5215.26
6453.53
3812.73
5788.55
5207.9
8216.88
3041.33
645.166
388.736
1635.48
2349.44
2262.19
1787.51
1950.62
3918.22
806.268
737.919
1596.97
1774.69
1151.62
-2367.6
206.086
-1399
524.478
-197.522
4965.06
3280.79
-508.464
2173.97
-731.052
1615.9
1658.44
932.435
-188.962
-520.566
-1571.29
166.207
-946.544
-568.019
-1307.46
-1098.03
-810.317
-1369.02
155.276
1371.32
55.1652
344.908
1039.74
1425.62
1228.59
638.759
-200.316
69.0399
-863.018
-1599.83
-687.497
-967.624
-1098.14
-322.951
-359.334
-899.911
-566.506
-738.831
-880.526
-1893.91
-625.996
-3477.99
-326.975
369.206
469.352
293.475
672.603
-567.493
-233.705
-540.384
685.452
-1450.16
314.774
832.057
-526.69
-1463.7
-1190.98
-3379.87
-3490.22
-2079.73
-1851.03
-2367.44
-2025.38
-576.249
-2201.41
-1093.46
1310.26
-2462.48
-1737.8
-1196.61
-3229.76
-1626.36
-1121.54
-2621.9
-2520.09
-1379.5
-2036.06
-477.337
155.302
823.023
-800.707
806.327
390.115
930.223
-595.309
14.6985
-108.641
-3.64088
-334.355
1623.62
1561.24
4518.68
5895.26
5474.48
4189.74
3107.86
3412.75
3500.02
1922.7
705.36
484.248
1619.98
831.368
-1122.43
-2344.87
-1966.01
-2593.06
-1814.95
1908.17
3082.52
1223.2
-582.6
-1403.91
-4068.12
-2848.55
-1777.89
-2705.26
-720.648
-1563.27
-430.065
-986.553
-1713.65
-431.569
-2175.58
-3313.8
-1850.08
-571.982
1256.99
-1287.13
-701.818
-1014.2
-894.145
-447.567
-1421.58
-1649.42
-826.318
-1885.71
-2116.2
1327.49
2805
630.412
6003.95
5209.76
9742.12
7396.88
4850.49
3445.71
907.541
-751.737
2000.27
-184.853
6171.6
6675.28
1554.93
1567.17
470.981
272.194
720.442
-754.262
-380.385
-1494.15
-2681.75
-1388.61
-259.302
-889.652
868.609
-1031.41
-145.349
-894.878
-1067.56
-780.08
-760.756
415.124
735.955
-638.686
-1352.94
962.544
2451.1
465.963
2418.78
2089.92
-645.566
-1310.32
1048.12
183.609
999.244
563.307
-122.226
-814.601
-375.267
-811.847
-496.947
-304.14
-355.582
-888.696
-2486.35
-2561.8
-923.327
-1761.35
-1277.93
-2506.77
-2898.67
-1213.62
-405.668
-1110.56
-828.092
-274.87
-770.49
-2919.14
-3915.43
-2385.09
0.621739
-80.4445
-8.2147
-679.695
1149.24
287.718
1097.04
-380.454
-2437.66
-1083.16
-878.832
862.073
-116.905
-1253.1
-1079.48
-1188.64
-1230.4
-332.773
-686.986
1761.34
1368.41
5322.35
3381.35
260.214
-921.716
-1856.81
634.588
-813.293
373.419
313.985
-201.288
1997.83
3708.35
3520.59
4613.29
1039.9
-627.098
151.862
946.053
221.575
2856.66
-219.613
-482.908
-1736.28
530.199
-46.0459
2739.01
4441.15
1342.34
4954.06
5688.94
7294.12
5903.98
11248.9
12388.8
11397.7
12351.1
10019.2
8432.7
6028.35
3953.8
4532.21
4525.09
3601.75
1997.28
-548.675
-1540.71
-2296.16
2646.3
7105.43
6292.68
6285.43
-409.254
1135.38
3391.52
2592.7
4179.32
593.022
705.566
5800.47
10260.7
5806.86
7650.02
8770.22
11653.2
9401.58
6516.02
4296.55
1110.53
804.575
155.996
2904.01
2084.26
2661.22
2463.14
95.135
3092.26
5947.46
6687.79
10175.3
5231.01
5028.78
5304.37
5402.28
2746.73
2390.98
4309.92
4032.44
6036.94
1416.06
2331.93
757.618
763.372
955.793
-626.883
52.7035
3493.76
736.334
237.233
3386.06
2514.9
-488.168
372.253
-39.1677
-2400.35
-2042.74
516.204
52.0351
322.227
1367.26
537.183
-1430.1
166.904
1026.42
1063.34
222.922
982.391
2049.6
2850.5
3853.61
4195.04
3933.66
4959
3126.36
530.146
758.554
-1482.87
-1097.96
1124.72
71.4174
507.067
630.831
-222.217
335.434
181.147
1567.1
608.295
1095.15
-241.953
-192.134
-257.4
-211.207
199.733
-1282.53
-941.773
428.628
-1035.02
-648.818
202.595
1668.01
6368.56
5023.28
4502.72
6243.67
10160.2
6839.6
7115.52
9167.18
3743.31
3398.97
1779.46
965.135
-825.5
1534
-243.563
57.8706
-118.015
-417.191
552.409
66.5433
326.991
799.875
-325.841
-906.335
-262.685
-390.387
-1473.05
-3572.53
-4317.37
-3713.48
-1459.83
258.149
-407.083
306.493
3827.44
1813.53
2.22473
-1494.68
-1302.32
-888.141
809.098
384.6
-665.492
-290.473
2745.31
165.97
-746.151
949.285
2333.44
2259.65
1836.87
1401.11
2039.79
-317.862
-1498.72
14.0759
150.708
1291.07
-95.7653
726.554
-1765.41
-1547.4
36.9127
-1373.19
-1303.19
-1218.38
-883.19
-2378.8
-1723.78
-1357.36
-67.121
3277.08
9718.1
13049.9
14005.8
10976.2
5676.6
4353.56
5960.9
2504.11
110.745
-304.801
-366.829
-1128.76
95.2004
617.723
1172.85
376.793
411.682
-125.631
-310.242
-1374.97
-727.123
-3175.43
-1737.09
-3228
-3218.54
-195.663
-600.678
-900.953
319.748
-444.669
553.377
1264.79
1298.86
965.151
681.228
1376.03
894.986
-1492.48
-1482.21
-1224.36
-410.46
-1946.04
-2118.43
-4397.44
-1756.27
-1478.91
-674.32
-1455.93
1292.72
828.608
-1383.46
42.2054
879.16
1103.94
935.26
2485.3
2596.11
2283.04
1067.22
594.082
2690.53
4696.45
2696.01
2672.05
2990.45
1337.04
733.704
221.124
973.646
-895.266
-1693.28
-2430.8
-1792.09
-3020.08
-1988
-1051.36
-402.945
-1045.22
-525.818
-1405.61
-803.148
-3275.39
-2212.69
1991.78
-1964.61
-572.075
-2022.43
-2237.28
-2683.03
-3512.82
-1033.95
-898.946
1100.18
-208.686
-461.671
-1050.08
49.9502
1106.19
2376.87
2248.12
3147.24
33.129
617.238
1822.58
1164.02
264.249
-133.989
212.541
2306.71
3253.48
6219.03
8647.19
5603.16
2544.54
172.14
1074.06
1621.68
270.919
-1366.64
-413.227
46.7816
-630.73
339.731
3208.23
3624.02
2130.98
4734.81
4732.85
1586.37
4750.02
5809.88
4642.5
3743.01
8293.42
7299.17
3301.52
2684.77
9185.56
6669.62
3332.8
289.02
93.0075
785.139
1892.7
2795.45
5189.16
2083.49
-421.946
1513.32
1311.15
-1290.37
-704.749
321.479
1006.64
1834.17
2643.7
2992.13
-235.715
-709.033
-1614.67
-986.298
-537.101
-1846.18
-3548.74
-252.601
-1742.76
-942.825
-1408.54
388.292
1355.89
983.702
-1028.36
230.33
1726.61
2522.09
2304.48
635.518
1435.5
859.199
148.682
1084.29
3883.34
1178.14
-846.665
3549.33
9506.52
8298.82
4953.41
23.2067
1616.6
2545.04
5360.4
6564.52
1434.01
694.388
1779.31
3909.58
2513.98
4672.85
-481.755
305.238
606.528
385.773
410.218
2088.14
1933.97
85.5414
-995.421
-775.938
-1058.24
-1104
928.818
67.9926
222.916
-699.407
-992.455
-1100.54
-1073.2
-1627.88
-2241.08
-1307.5
-1199.46
-2337.76
-819.208
-642.087
-252.249
-310.661
-85.7566
-1918.35
-1959.3
2599.86
136.275
-108.453
966.845
567.836
-943.153
-2952.24
-631.629
-692.314
-222.463
-1406.75
-476.528
-714.315
-1617.84
-4388.12
-965.359
-1235.78
-2425.85
-2315.03
-1518.99
-1706.54
-483.41
288.523
2734.44
1438.42
1340.53
932.482
-810.589
-378.383
788.77
2022.96
113.127
1190.2
-555.095
57.2845
-242.798
956.267
-31.4788
4573.63
5055.64
7444.67
4087.02
2873.52
2751.18
1640.16
2505.72
45.767
6407.21
7692.07
8787.4
11420.9
9495.25
10009.5
7641.85
6266.14
1731
71.5917
5045.22
3873.83
715.578
118.919
3928.11
3690.77
4681.28
10171.4
6128.73
4839.19
3050.7
8113.45
5847.75
5398.99
4861.52
4970.09
4371.85
3496.16
4274.88
5230.03
127.324
4794.86
3839.41
6878.78
6347.97
2930.9
2932.82
3773.93
4114.89
3711.33
3009.32
152.753
-143.695
-858.334
-2001.02
1534.71
-317.264
-213.203
-1204.42
-1880.59
-145.762
-670.859
-1366.72
-1745.95
-838.058
-2519.36
-1879.43
-1669.85
-2470.38
-2878.58
-3349.61
-1820.77
-1606.94
-1242.71
101.657
373.2
-461.451
35.5523
-732.46
-628.722
1518.35
-533.736
217.093
-466.616
-679.597
762.346
-825.992
-1978.21
-284.586
-570.776
638.951
1536.23
2939.63
1869.66
862.86
-247.253
-590.851
-682.931
-711.646
168.237
-1142.08
134.492
-1082.62
210.468
368.664
191.156
-843.08
481.393
-458.095
-875.483
-235.618
309.702
-805.531
-947.387
-611.085
-1487.97
-840.178
-841.624
-362.232
-1043.7
-1422.59
-654.285
-1283.61
-339.031
-580.549
-2172.58
-2066.84
-394.762
433.912
-1307.75
-1066.1
-356.973
237.384
-1872.09
-1721.34
-1603.94
747.872
2386.35
-676.4
1760.07
260.071
-145.328
-1404.08
-716.616
-399.513
-152.194
687.643
-1347.36
-449.753
1277.67
1926.09
2314.81
2204.33
702.464
-446.416
-1362.17
-600.643
716.472
-39.1998
1060.9
-281.639
1962.54
2652.54
2533.56
673.461
-400.027
-207.461
-1735.84
-1321.87
-889.578
-1077.06
1543.87
-499.859
152.294
-54.5901
1513.17
1217.79
385.755
2643.26
1958.49
1035.76
2968.69
-535.246
3178.83
582.541
569.316
654.119
986.666
1665.64
720.595
4889.74
7444.42
5853.41
7341.3
6179.16
5465
812.168
-1306.64
-2880.85
-849.727
-2773.67
-749.006
721.895
261.961
3549.29
2344.96
2593.25
234.786
-605.779
566.213
3055.04
3725.52
3647.38
469.355
-943.542
589.645
1114.35
5154.12
3572.03
7413.35
8017.72
17228.5
9880.9
11306.2
8899.24
3513.38
4023.75
3689.77
8834.31
4589.2
6371.26
7753.08
3435.57
4282.48
3324.96
3079.35
3183.03
3130.81
3047.94
2584.26
-420.92
-227.21
3571.92
1291.67
929.545
-457.114
-108.244
-196.186
-4092.81
-1968.51
-1080.63
-1077.5
-845.538
-303.753
1330.76
1716.13
307.492
3034.82
2035.61
2294.48
982.121
27.3995
-238.464
573.867
-470.875
1285.08
2106.99
1385.84
2493.15
1256.96
-110.829
-1848.91
653.529
1215.6
82.958
31.3421
1845.09
970.383
957.648
2521.7
3530.23
4342.51
7272.73
3058.97
1346.33
391.162
-1288.8
-928.147
-243.468
-1967.22
-2767.41
-1321.65
-3592.65
-1650.97
-4405.95
-3164.75
-2085.38
-4487.33
-2227.04
-3573.54
-1408.29
-1269.84
-2187.4
-1772.21
-1671.3
-1488.8
-658.145
-1257.84
-1112.56
-308.796
-493.272
-465.402
-1139.34
-1386.72
-469.939
-49.8863
-533.861
-381.579
508.515
-677.037
526.742
207.759
-27.0154
375.34
854.386
933.177
794.972
2765.99
2787.7
1616.51
-445.322
5089.48
7539.54
7165.74
4600.16
8879.06
6551.14
5957.63
2586.09
-439.877
376.73
330.273
-956.731
2503.09
3420.05
1702.52
7435.83
5686.53
1404.36
1703.4
-3206.9
-908.981
-1055.42
2186.4
1640.3
4246.13
6940.37
4949.73
7745.23
5496.03
657.527
-220.425
-1820.59
-1335.13
402.517
-636.448
-408.364
-415.144
-1283.9
508.766
812.491
1787.56
-2735.57
-1822.43
-2984.26
-4245.56
-2095.61
-819.931
-786.173
-2162.38
-1491.65
-48.726
-312.126
-426.489
-1067.07
-792.352
-842.182
-949.064
668.527
-1399.58
-409.697
-738.629
-1117.68
-1230.05
-54.0981
-1787.74
-889.742
34.9927
-1165.63
-1011.09
-1663.3
-652.676
-1731.61
-2910.13
-3329.92
-973.156
-576.807
-1495.09
-829.446
-1975.91
1654.97
2487.03
1115.77
7990.24
13006.5
8187.9
10828.2
5545.43
4624.25
5947.15
3812.76
-369.646
1388.88
2904.74
5009.27
6493.6
4381.61
5302.9
1326.89
4046.42
1135.06
1626.37
3009.68
-615.309
2361.67
-336.504
4129.75
3740.56
1429.18
1377.94
617.189
911.022
-300.536
-887.062
-1897.97
-784.192
-987.318
-1890.45
-2723.16
-1410.01
-108.565
119.566
-552.284
-57.9972
-358.037
1866.04
-2330.97
-1285.7
-591.543
-1168.61
2574.26
3682.86
973.898
3466.09
764.76
2196.81
2753.91
1521.22
2837.26
2724.35
4121.44
3759.4
4342.25
4535.69
2092.79
-98.1012
-3557.19
-474.62
189.583
1141.63
173.181
-59.7621
407.583
224.088
229.287
-519.517
-147.542
-619.65
-1566.08
-206.792
-101.058
-1051.31
-916.517
677.759
-1949.15
-1487.22
3296.39
958.511
1069.51
2158.45
-96.1551
-187.692
38.5396
-1165.53
1060.29
963.485
-110.41
557.014
-162.326
-777.925
-4142.05
-4334.92
-4417.69
-4180.61
-663.808
8.9135
-2827.93
-16.0792
779.443
1166.06
-174.225
-3477.03
-2087.03
-1230.61
-678.486
-112.745
194.168
-1271.14
-43.2115
2028.62
959.498
-294.347
627.389
3319.18
4168.22
1125.06
2338.88
1715.45
1394.82
974.146
1726.93
482.379
1801.98
1218.67
57.9162
-277.948
-943.076
-345.062
-230.361
-273.627
-546.627
10.8626
-1857.25
-69.9267
-663.342
-625.651
-2301.13
-448.694
-1540.13
-350.968
-1150.43
224.295
-1955.08
-818.789
-1181.76
-926.029
-720.542
254.261
-922.835
-1676.8
-454.111
-708.385
318.51
500.469
-311.273
-1306.86
-4879.03
-758.74
3563.48
2972.9
-378.411
652.109
-880.455
131.582
-40.376
-1508.27
-1348.98
-395.001
-478.727
-1281.94
-2409.72
629.737
909.066
3488.85
953.122
1711.33
-1623.37
-1072.79
834.359
2288.79
670.637
1603.45
3884.22
6357.13
564.957
3023.16
4106.34
7330.93
8039.05
6597.58
7310.12
10524
14089.2
11909.4
11776.7
9006.55
6513.52
3101.69
2947.22
1111.29
-94.5496
1782.7
457.904
2335.15
1533.87
1628.16
475.052
617.092
-947.323
65.3914
730.34
-4300.67
-2055.63
-1735.29
-881.782
-1265.45
-487.271
-145.644
-514.377
548.142
3146.25
2613.12
2408.79
3514.52
5938.13
6664.36
5558.3
4335.42
2101.88
1902.88
3660.65
6302.36
7120.44
5874.31
3347.84
1386.85
1326.94
-2859.13
-2766.76
-2668.13
-1229.83
215.414
-1297.41
-2887.14
-1027.21
1353.7
299.817
-746.032
-67.82
-1965.3
-3484.92
-2911.7
-4248.63
-3474.89
-2693.66
756.472
-240.724
-1348.62
775.157
3187.29
1144.17
582.937
-507.867
1993.38
1794.03
-1157.7
-641.99
-456.348
75.4097
-2007.04
-2295.03
-3558.15
-3839
-2255.56
-991.827
-700.517
-1025.01
-2163.15
-1357.09
-1418.95
-2244.03
-1000.11
-686.615
-541.429
-1518.49
-1284.47
-1247.36
-653.249
1114.03
-784.903
2173.44
4941.29
1245.22
-2133.93
-390.446
891.646
-1298.41
218.011
-345.4
-172.972
-34.9323
-314.447
-2679.99
-601.124
-1152.51
472.301
1936.67
357.735
477.875
-1090.22
-475.554
-529.195
1115.44
944.964
-261.413
819.066
-1139.98
-1065.14
-889.24
-1114.71
-669.692
-1536.6
88.6251
-709.049
-460.834
-916.195
-736.004
-363.185
-391.124
35.7265
-320.504
120.754
-1252.52
-2552.11
-3548.85
-2608.51
-3398.31
-3947.66
-3179.69
-813.237
-589.739
563.027
-1302.71
-1109.84
-231.588
277.587
1646.77
3455.42
1070.93
-794.059
485.786
-215.226
-1279.05
-1359.56
-1888.81
-2061.17
-1917.88
245.698
2245.18
3698.72
4206.22
5604.19
9688.17
6015.68
7590.12
6677.05
7794.83
3532.05
915.422
-705.023
2357.2
1755.62
807.424
1164.27
1478.85
505.093
2014.5
1927.69
5122.31
1727.27
1087.23
206.244
766.699
3023.08
5215.67
3163.17
551.979
1165.1
1842.14
639.582
1490.43
1089.89
300.438
-2061.56
-897.301
-2459.78
-1051.72
-1438.21
3648.52
2942.84
1371.25
3067.82
610.899
1270.53
759.042
825.698
-382.969
-540.046
-765.642
-1458.87
-603.363
-672.938
-434.353
-962.106
648.087
3846.29
830.381
915.438
261.569
-299.632
-759.937
-4320.58
-4406.29
-2750.35
-31.145
-353.798
-367.374
2433.2
-1218.79
-1991.9
-3020.99
-4154.1
-965.267
-1033.45
-2115.51
2000.89
28.7858
-934.313
-558.647
94.4541
347.684
3284.4
6975.46
5563.34
2453.06
621.569
5059.35
2587.79
4866.62
4451.25
9007.77
7303.12
4370.43
1933.86
-2059.29
-2999.33
-354.278
1183.11
2010.47
234.125
2614.51
1597.16
2693.65
4206.98
5259.92
4939.72
7053.9
5648.84
1779.31
1925.44
3158.35
1608.25
727.038
-497.256
114.951
-603.782
-267.88
-1461.13
-1051.96
800.532
38.9316
2796.88
650.642
3078.51
2307.35
957.333
2122.33
2351.18
5063.29
1530.54
1149.91
-978.815
-232.008
-1447.54
938.749
-57.9815
-1040.07
135.717
1446.07
1273.77
761.913
392.401
1460.85
-101.098
-2542.24
-2075.29
-1415.41
-702.592
163.474
467.429
-882.798
3159.07
2155.89
901.156
472.316
1531.49
-1321.78
-1106.16
-562.756
-1898.09
285.215
2261.1
3529.01
-83.87
-931.678
1406.85
963.354
636.775
-146.379
1273.41
2986.39
3314.02
590.997
699.796
438.555
-846.358
175.843
2353.69
995.653
837.165
-60.0895
-823.7
-1045.21
1289.12
440.069
-688.976
-1105.31
-722.861
-657.04
-817.793
695.502
815.616
-1521.29
1265.06
1790.49
-1788.36
-2164.06
227.473
1718.38
692.628
3703.59
3378.63
1511.24
3276.89
3276.23
1444.31
1015.24
1141.4
2298.84
-1086.48
-410.818
952.46
1858.77
2527.89
149.649
-1192.42
-2425.17
416.134
204.854
-1898.11
-1909.88
-136.851
247.167
-534.668
-695.823
-444.371
-4.84737
-73.1457
-632.04
-1023.21
-158.496
-504.586
-417.827
-439
-1656.56
-322.888
1411.04
1067.77
74.4858
-1571.15
-162.607
-3166.03
-3314.03
-750.578
1073.5
4379.42
6734.16
4749.16
5465.53
873.258
2809.46
5186.31
7173.21
10881
13887.9
8625.37
5306.24
6255.93
2524.1
3839.34
4010.73
2560.67
1344.12
4514.2
996.453
74.6638
4.32451
-850.256
-827.947
638.487
-862.926
673.245
171.666
294.266
201.61
-438.42
1208.43
-464.752
-133.69
-366.222
-781.995
369.337
2138.7
-543.974
240.201
-549.414
-1402.35
-2415.53
357.485
349.882
-302.008
38.3204
-714.246
-1021.11
-22.428
401.407
-670.09
-266.627
3931.38
2976.18
4496.27
2779.95
4007.47
1152.95
1947.72
3769.92
2385.49
322.052
928.8
-731.194
2033.18
1964.99
757.264
-115.033
-1561.56
-1045.51
-567.495
3174.6
750.775
664.676
59.6991
337.261
-538.77
413.462
338.417
794.079
1615.46
2704.2
1604.88
1615.59
2093.04
413.555
-370.594
371.396
-756.38
-203.231
-1036.16
115.509
606.405
2204.12
-258.244
911.524
-1402
-1443.24
-881.185
-2437.73
-135.139
-20.1833
1382.16
897.515
1388.88
1535.18
272.173
-352.519
257.85
1646.4
-359.889
919.598
190.862
-1235.35
937.701
-970.403
488.98
2135.59
4398.32
2599.4
3630
1186.17
754.891
-590.927
-351.193
-1075
-694.578
-294.448
346.506
1734.2
3677.92
1848.74
3015.69
1692.94
-395.944
-37.211
-991.396
-956.326
-64.8989
182.024
-197.495
1414.75
-442.748
-1202.44
-1784.22
-1451.15
-4992.81
-2284.11
-2676.83
-597.144
-1189
-728.282
-912.289
-853.784
-2110.04
-1003.75
-2443.92
-1617.64
2016.65
4377.42
929.329
139.261
532.622
772.982
1518.93
306.269
-623.456
-703.732
-1056.76
-990.13
-141.384
-142.005
1985.35
4160.89
4310.21
417.133
-1231.24
-574.829
-609.863
-61.6372
-814.108
-1461.75
-363.982
42.7462
1338.48
282.627
-370.816
-2362.29
-4248.22
-3802.97
-686.621
-1902.24
-1285.23
-2234.19
-1535.94
-2866.99
-2148.82
-2789.08
-865.047
-1305.1
-2073.04
-2002.72
-1851.09
-1129.74
-874.598
2666.11
4396.18
5009.6
4168.33
5219.75
5544.58
3573.32
1681.97
2292.76
55.2361
-116.698
342.819
685.009
-1643.27
-646.716
145.967
1013.7
-170.388
-270.517
-338.934
130.406
711.235
-351.809
-321.518
-326.526
-774.822
-1181.59
-2290.82
-95.4289
-1570.75
-1262.08
650.868
1174.69
1022.58
-715.846
1398.8
2109.56
-772.825
-274.43
-4785.01
-1070.31
-1213.24
1131.75
3101.45
1458.63
2199.2
2356.85
7762.78
7169.31
4045.22
7962.2
9139.17
11565.2
24097
25468.7
15454.9
15169.3
18642
16129.1
17226.9
16562.5
15608.6
10594.6
8284.5
4280.85
3993.27
4794.28
1483.41
1204.25
820.864
738.23
-27.7998
-1500.92
365.99
-565.368
-1051.65
218.409
358.169
-93.6979
2506.44
1212.02
-546.729
-1912.48
-3.65532
-891.006
-897.849
-836.865
873.611
-307.092
-242.664
172.673
-189.531
19.4462
277.507
752.318
1413.33
1376.13
1240.47
1003.12
-730.086
-213.638
820.525
4021.96
121.15
-1047.4
1311.62
-192.076
98.7005
22.5408
-86.6497
-156.102
-2823.66
2299.59
2556.45
5261.44
3080.47
2027.03
4709.65
3544.53
3790.54
3526.62
5329.98
5949.83
4646.45
4006.15
525.355
1284.54
746.731
1062.62
817.114
1303.07
2991.88
-254.458
793.393
-295.499
-501.425
-90.5396
-574.985
-2.50865
-1810.74
-1242.48
-1533.36
-780.236
-771.421
-1901.24
-1094.2
-1620.41
-3416.18
-3994.14
-2229.33
-767.047
2585.93
3595.46
4140.17
3155.6
4247.04
3434.16
2522.87
1043.8
129.258
117.866
169.649
-478.153
4343.48
1379.53
2383.83
2749.75
5895.56
5143.15
7029.34
6058.3
8085.87
3225.91
3761.3
-718.614
47.6655
-1391.15
192.445
-28.9597
-841.442
-1946.17
-2357.74
-987.998
-4001.41
-2100.37
-3288.51
-3289.66
-2746.81
-799.854
48.2859
-394.834
292.453
463.446
30.2886
439.064
190.029
322.728
349.411
142.873
-86.1437
963.26
-311.537
-399.317
-374.475
-404.727
-777.628
-705.475
-2110.7
-2040.16
-2038.48
-1325.67
-380.47
-1655.97
-1967.72
-1750.88
-4439.09
-3932.85
-5976.76
-6017.92
-3973.55
-1352.96
-1820.9
-2085.94
-181.877
-1003.09
-4813.04
-3704.14
-439.631
-1040.34
-908.057
-1093.66
-423.284
-857.838
-2068.84
-1246.14
-481.841
565.205
-315.93
-1525.81
170.452
-25.7848
-748.005
-574.096
-1512.39
-657.177
-2676.64
-2310.35
-1267.82
1091.78
3296.66
981.063
2752.16
2511.24
2120.83
712.26
1688.46
1680.54
892.321
-1501.68
-2231.31
-996.539
-1103.06
-2206.45
-455.505
-645.987
-799.683
-1891.82
-59.8162
-463.14
-104.33
1207.05
255.814
1808.67
3933.87
-320.006
207.095
-1753.01
-3736.94
-3449.49
-2122.27
-2228.98
-4496.02
-4034.69
-2658.25
-1693.69
-1652.5
-2526.64
-2402.39
-2611.3
-2646.23
-2683.07
-2073.14
54.4254
955.275
-206.387
-165.681
-901.91
-317.353
537.225
343.963
21.2208
152.884
-794.735
-2745.07
-4707.56
-1671.72
-2488.4
-1618.81
-1338.02
-308.297
9.68765
-2454.5
-4028.87
-3864.36
-1422.8
-786.055
-763.814
-864.401
-1418.29
-695.758
1872.71
-306.033
-1097.27
-984.156
-253.598
-327.232
-393.633
-1098.11
-823.722
-179.272
-1252.16
-209.67
-556.927
-920.308
-1498.1
-233.08
84.9921
979.69
3434.84
4553.74
3027.19
3128.34
1246.76
-1109.64
1718.25
5345.49
5923.11
4036.35
7132.06
6551.08
11640
9658.37
8883.28
10161.1
9004.41
8201.73
3725.85
789.26
436.644
2118.75
-392.102
5131.84
5647.57
5797.91
7703.41
2221.16
2844.64
-185.151
37.2509
2797.44
3362.03
6245.23
2786.4
151.361
186.205
453.65
-1254.08
-444.171
-58.3182
58.5213
2011.02
1186.84
-194.945
-1818.94
-300.889
-2880.73
-13.0109
833.391
1066.27
49.8028
520.955
753.257
451.039
-91.8409
-501.978
46.7852
-1013.07
-317.633
444.474
-312.125
-456.609
-947.895
-75.0927
996.294
635.738
364.587
881.03
2325.5
2715.99
4049.45
2663.64
2415.57
137.512
-1706.09
-183.628
230.704
1431.15
1850.31
306.145
1202.36
-313.647
1200.46
2613.2
1724.12
1813.76
3266.34
1865.19
3188.64
3148.18
4034.95
7278.5
5823.6
1198.1
-1336.95
-441.407
472.567
1640.39
2524.33
5525.49
978.703
-2371.78
-1248.39
2154.4
848.672
-3421.79
-3522.77
-1314.67
-1673.61
-4282.21
-1056.41
-735.138
3040.39
1893.16
2307.6
-375.287
-181.475
-985.349
-1265.86
21.7718
-157.795
-1135.19
1596.89
-590.939
-1110.69
-519.036
586.559
-123.775
960.222
1289.91
1497.12
201.567
1887.52
375.477
-456.393
-648.462
1194.8
542.108
-1215.32
-777.698
-1395.25
-1333.92
-618.108
204.684
-826.158
849.411
2053.14
-408.476
392.792
349.008
-64.066
239.111
366.444
3850.83
3829.33
3071.46
5426.36
8000.37
10938.3
8381.84
6971.13
4367.42
2018.46
3117.31
2316.73
3455.04
571.949
923.624
-2816.15
-1677.43
-1375.15
-1840.2
-2383.42
-2865.33
-268.836
450.308
-1142.61
-829.533
-272.1
2646.78
5539.5
3190.71
-160.701
-1892.43
-1881.06
-3711.59
-2172.74
-1354.72
172.609
154.182
-1762.2
-3594.9
-926.289
-2071.31
-2729.46
-3048.4
-1644.13
-2365.63
-3047.6
-1995.75
-2972.17
-2908.26
-1683.51
-466.966
-234.187
-13.8052
260.362
-550.806
261.283
625.867
664.619
4779.4
3984.67
4837.34
4044.87
5384.5
4608.32
6636.31
2255.18
1274.15
1795.51
3572.42
5136.1
1891.32
-636.052
862.222
-1893.53
-665.156
-919.474
-660.649
924.337
1919.42
1343.38
557.662
1175.45
3194.34
2263.34
719.064
518.759
860.246
1908.12
862.282
-1681.84
915.32
154.47
809.537
-995.548
-833.409
-1388.21
-417.419
-1019.55
-1937.48
-762.232
-810.121
-1333.23
-866.398
-905.51
-2811.56
-251.845
-61.1054
3603.93
1931.7
-1474.3
-2305.09
-3872.26
-3887.94
-2947.86
-778.284
-2966.26
-2097
-1424.54
304.451
535.906
-25.2491
-987.846
103.997
1194.15
352.132
-594.341
-69.6704
630.392
-124.575
-2012.42
-2097.05
-3350.68
-3190.46
-5499.38
-1906
193.867
-1763.27
-871.626
-34.2186
-80.8597
634.152
-339.643
-2263.42
-252.362
-1693.75
-1363.58
305.038
3.25551
508.706
1493.5
1672.66
81.1278
1255.2
1414.29
-1016.8
2369.77
-405.844
-93.1095
-2706.84
-1449.68
5293.14
9368.57
9290.43
4644.42
5293.6
4436.28
2815.78
2750.6
885.136
1875.8
1247.82
-492.104
281.627
-1405.01
-2603.63
-653.322
-1153.96
2028.78
1349.5
664.474
1468.5
-62.9766
67.8282
-646.233
-1446.08
-573.114
1401.51
-677.23
-1090.87
-839.826
-1451.54
-4785.74
-3682.13
-4612.39
-1114.46
1897.32
2413.58
3803.76
1900.39
116.131
2303.77
2061.32
-527.064
1648.37
791.368
50.9227
-353.194
2798.62
2530.13
435.656
455.924
-427.431
-990.573
-650.564
-1768.74
-1723.03
-1230.38
-3073.07
72.3588
-2412.26
-3147.41
-2154.04
-2831.63
-947.608
-807.855
-522.36
-533.759
-657.981
-346.89
-511.247
-562.581
-492.805
-1585.76
-188.85
-371.118
-848.347
-15.2973
-1408.79
-891.095
-1395.41
-1385.63
-1476.71
-1151.97
660.662
283.487
-666.402
-1518.96
-155.301
334.251
-1693.77
-1866.29
-2008.19
-1880.66
-2010.29
-2253.32
-354.994
-1920.89
-2292.46
-1680.14
-1156.38
-4205.71
-4156.65
-2877.08
-1563.63
167.216
-950.934
-2106.42
-4446.86
-1936.63
-2607.49
-1931.28
46.0675
-1249.79
-151.524
-1118.01
-1371.77
-2695.01
-3075.9
-3058.51
-1538.81
-1076.94
-669.12
-703.095
-360.262
-304.805
-250.697
436.942
2916.01
1561.4
2674.46
2491.58
3394.75
5973.98
6225.96
5533.9
3105.53
1118.56
756.691
649.057
1262.11
-795.978
1089.6
-218.592
43.5171
2310.17
1968.15
449.702
-897.719
-2096.23
-2012.39
-1271.14
-1559.38
-915.833
-1985.83
-3173.88
-2533.93
-411.01
-1899.38
-449.467
228.564
-1393.44
-395.624
-2064.83
-3053.74
-1182.58
-4965.72
-3271.21
-2312.41
-2565.05
-146.179
-393.304
-693.641
-2404.73
-3162.59
-1565.76
-998.091
-1693.78
-430.939
-1897.06
-2753.59
-1539.71
-3597.86
-3762.7
-3148.71
-2548.79
-2400.32
-3487.18
-5667.26
-560.684
405.45
689.222
486.75
-1007.34
-609.401
-152.958
-766.556
-162.515
-852.013
-1797.39
-1860.83
-1662.18
-2487.62
-1536.95
-2967.49
-2309.03
-179.199
-215.408
-359.612
1332.58
-543.693
-31.3094
3614.77
4070.93
319.507
-1944.81
390.71
490.246
3190.09
1684.96
2849.09
2005.2
256.527
-767.997
112.997
-1925.43
-485.916
-1146.83
115.483
368.313
-2.94471
2488.04
929.022
1.59209
499.689
1287.1
1019.35
-223.359
-51.7587
-1282.71
-2717
-3729.66
-1827.05
-1566.63
-2341.46
-456.916
-322.998
-2196.18
-1689.16
-771.738
1401.45
3655.8
1400.66
2125.03
895.699
-990.81
-821.255
-119.19
704.821
613.327
5.21906
235.84
-1396.5
-346.283
-77.8933
-1297.27
-22.8735
-1360.86
-1908.89
-27.7486
494.376
3054.48
1992.42
5885.64
1547.91
2628.98
1653.18
-1910.69
-354.364
3344.13
6279.15
5366.36
4268.66
1560.56
673.901
802.157
815.896
1640.84
313.126
-1690.45
-757.048
-1017.21
-1067.72
-649.352
-1260.8
-797.469
943.972
630.76
2179.97
-183.884
1709.09
431.33
-1018.22
-180.193
1235.95
1233.96
616.409
81.3527
643.113
1167.2
-8.97333
1634.98
2344.96
-744.069
-818.484
-1949.74
-2459.69
-156.301
273.209
830.092
131.347
1676.91
151.271
-523.114
-412.049
1083.5
-1844.65
114.535
-344.659
1227.86
1833
1901.75
-581.036
-645.615
-746.213
-727.301
-1250.87
-566.022
-4193.37
-2591.28
911.096
2263.03
-585.715
1625.95
-305.332
364.032
-979.879
-54.9817
-2116.47
-1712.17
-1634.15
814.556
176.719
777.728
-481.086
473.867
-389.971
-2919.74
-2817.06
-714.101
-1265.8
-2252.44
-2982.87
-901.385
-221.829
-576.994
1162.56
993.284
1332.67
1308.99
2225.8
979.742
289.711
-1476.34
-1551.24
108.274
1606.63
2362.28
1100.74
160.243
-1080.89
-2064.37
-3526.05
-1659.55
-1361.18
-3011.34
-1473.7
-232.722
1560.9
1399.08
1703.4
417.238
-425.418
-86.11
-1434.99
-646.893
415.606
354.497
2169.23
1329.69
2531.78
599.521
6370.18
7672.05
4961.18
5197.1
3850.56
1865.89
2508.31
1653.8
3338.9
2242.5
2559.48
2096.71
2122.12
3007.08
1456.92
-1304.67
-3291.87
-4630.51
-1285.39
343.508
54.2803
-140.441
-1111.2
143.967
-1741.86
145.299
-533.01
-899.021
430.935
1218.96
936.078
-1093.39
-1970.58
-868.529
-892.406
-715.518
-636.216
-1086.61
-366.946
-162.47
1197.83
2874.78
3169.86
4613.06
7540.97
6450.73
2235.9
3888.66
4449.83
9020.67
6622.26
7219.02
3544.59
1126.14
279.48
1085.76
3295.66
2094.85
272.183
-650.142
-23.8153
1229.64
-908.125
-514.809
-1887.79
-611.995
-1676.4
-1383.32
-1457.51
-5516.34
-1642.28
-697.726
-642.482
-140.275
-991.913
549.134
114.852
1599.22
-4016.01
-2853.74
-970.765
-120.094
-2005.57
185.589
-1027.49
-1363.46
-76.509
-363.397
-547.514
-869.427
282.766
151.367
448.668
506.154
346.339
-552.172
-531.786
-1210.56
-1102.39
128.333
-519.11
1485.72
815.197
-371.419
496.899
1535.01
1140.68
1029.31
204.28
563.829
1319.93
853.621
-348.404
-214.422
237.778
1367.77
137.769
-1224.86
-1367.54
-1045.93
-705.198
-1536.34
-121.591
1106.99
-1300.03
560.532
-713.179
454.858
125.874
1010.33
-2.44719
-396.26
-796.072
-1178.81
-524.136
-479.34
140.658
-2295.55
173.962
-1061.14
-725.558
-1082.71
405.9
-209.918
-490.616
462.527
1234.72
2439.67
1529.7
1224.03
275.577
-1003.06
-2005.79
-3044.29
-4997.16
-3179.02
-1924.73
1176.73
2663.51
2443.34
2791.61
2083.14
893.962
4152.31
672.287
-430.754
-555.212
-1380.4
503.985
95.3188
-102.096
402.847
46.2502
-760.176
290.523
-1155.74
130.724
-2224.16
-655.202
-1273.64
-1955.77
1122.45
468.78
-1382.68
-669.032
-732.702
-410.737
-2303.44
-596.646
-494.239
131.997
-519.293
1259.11
861.768
257.01
-311.94
-855.235
-146.772
-997.171
-1058.12
-1006.98
445.14
-232.604
-22.7652
2451.73
-381.558
2476.75
-566.854
1609.53
2846.81
738.531
-940.501
1275.14
897.055
1543.75
77.2407
168.59
-382.697
951.48
721.989
38.4872
-1937.1
-2366.11
-3306.33
-753.865
2310.18
638.034
291.693
71.2961
-2190.29
-1840.05
178.042
-2099.54
-1088.39
-426.714
-1859.42
-1334.75
-1434.99
-2580.84
-2558.09
-2627.39
-1837.64
-1988.45
-567.594
-790.621
-2747.82
1371.98
1567.02
747.215
-1715.03
954.904
-8.65658
-1527.62
-120.622
-635.398
-2064.42
-1491.72
-475.102
-1301.12
-1359.84
-248.348
-746.931
-1727.34
-842.554
-330.62
-110.834
-627.091
70.6371
482.613
779.573
-261.799
-76.0493
-1623.24
-1944.69
1090.92
-626.011
-1120.62
-2310.13
-457.776
-1400.68
-2272.47
-1919.8
-368.84
-1722.82
-2864.51
-678.293
251.867
3194.93
3556.63
8359.21
6366.2
3307.01
4792.18
3490.01
2376.68
3050.39
-284.537
867.273
-204.761
2930.09
1709.08
-721.476
1396.05
46.8333
-1445.4
-197.66
182.484
-2982.98
128.16
1575.81
133.759
-472.799
-441.14
606.426
137.681
-995.071
-85.5381
327.947
-256.121
-411.422
-567.712
2031.81
406.254
-587.058
-878.095
-197.99
1467.02
-26.5965
381.81
3656.77
6796.25
1903.8
7578.47
4102.54
3845.8
3636.27
557.335
189.955
1069.31
333.261
-274.756
-255.732
-1277.69
-401.497
581.754
-1250.37
971.923
2347.63
1285.78
993.994
417.297
306.26
296.418
-731.946
563.74
1276.82
116.972
2818.08
794.277
406.89
639.771
558.167
382.819
855.475
-248.296
-305.383
-700.56
-511.872
-168.872
-620.382
-1767.79
-1433.43
-1239.16
2378.93
2890.25
1343.22
834.296
1499.47
-123.168
-1052.58
-1802.99
235.6
1999.55
3332.45
3072.71
-2260.65
-1394.33
3883.86
734.619
1916.15
2157.2
3765.93
5402.58
14551.2
13045.9
22315.6
12571.9
12619
4421.01
2453.34
2552.32
5922.04
5188.02
700.115
-647.818
-249.172
-951.808
-57.83
-699.365
233.458
-1033.27
582.125
-320.338
34.0917
-1191.32
-824.322
-2298.52
-3378.02
-4306.76
-2157.88
-173.539
-1534
-1771.13
-1510.94
-830.084
-377.664
-572.584
-542.681
-1326.42
-1565.27
-1305.96
-442.972
-1019.39
748.538
172.512
-506.824
-1285.97
-964.365
-1351.89
63.5548
-1538.36
-1652.8
-682.523
-1851.19
-753.931
-123.84
-1832.65
986.753
111.219
-877.109
168.976
569.846
610.148
-1085.33
-1818.83
379.832
-169.689
879.062
-1162.03
1153.03
2046.15
5824.57
7489.67
9511.43
6937.64
6023.39
3705.13
1283.6
659.08
2653.34
1138.67
206.396
1682.99
2864.64
1495.28
-365.909
-2129.32
-1149.24
4014.12
1814.19
4878.95
557.56
263.116
-544.423
861.309
-538.706
-1817.99
-1722.57
-177.629
-1067.25
-648.479
-1083.77
-3079.33
-2763.15
-660.229
-1810.89
-2952.43
-704.852
-840.109
-295.206
611.368
-736.422
-601.531
-1198.67
-3509.8
-3301.51
-1168.17
-1964.79
-3225.45
-2231.34
-4921.86
-3523.93
-1555.09
-1071.88
1693.4
-1980.37
-1686.31
-3097.93
-1827.77
-761.249
1351.49
697.104
2983.14
230.659
1416.42
-434.277
-1005.46
-2341.32
-598.959
-1747.1
-345.561
-112.073
444.689
-932.768
-2308.57
-3102.62
-1371.11
-1767.28
1794.03
2067.69
2730.37
630.778
-202.403
-10.2028
1578.09
-323.315
-722.999
210.294
982.169
535.622
360.817
-545.708
331.179
-1085.04
-970.023
-421.325
-3311.76
-2030.96
-2693.29
-1671.33
-1090.71
-2753.42
-4461.88
-4905.73
-2977.98
-3244.57
758.995
-653.762
503.918
458.681
682.163
422.437
523.248
1491.32
-84.4579
193.871
901.039
636.613
1079.77
4714.35
3716.7
524.876
-741.905
-1396.15
-459.741
-942.794
-3030.85
-3909.71
-1466.92
-919.977
-2101.48
-2552.84
-800.167
-1384.91
759.432
23.0888
-7.32406
-43.6202
-3133.29
-2934.74
266.607
369.975
1764.6
-1159.92
-1862.77
-1241.53
-796.97
-969.276
-1742.7
-2918.69
-4357.21
-1781.46
580.191
110.144
-62.0648
-1520.94
126.042
-334.992
-957.427
-1113.86
-732.473
-406.729
340.806
-991.316
-629.462
-2179.43
-1757.29
-871.008
-2155.94
-2091.91
-753.188
-2576.92
-3387.59
-2678.23
-1916.08
-1783.35
-1917.76
-665.883
951.136
1217.54
2007.63
1778.42
2509.03
2681.39
662.157
90.5352
97.0845
1354.44
-1086.46
-2935.36
-3589.74
121.199
591.689
-151.925
-33.6427
-1649.67
-1220.3
-2129.33
-161.846
-1113.28
-63.8922
-19.1053
-3683.66
389.033
-752.253
522.026
1963.11
1371.57
478.577
423.228
1816.07
1836.32
1667.08
1268.77
2178.66
-2489.02
-1523.81
-835.428
-1906.77
-296.283
501.318
3824.74
1220.34
1783.65
4198.61
1453.35
946.341
1508.81
432.497
3139.38
1987.69
934.469
-934.71
456.995
-1479.5
-795.98
-2112.32
-453.107
286.774
732.192
2025.2
312.432
-44.708
650.407
425.001
-567.473
-1456.44
-941.349
925.233
615.361
-1397.63
1085.56
1247.9
1338.24
1061.1
219.764
-495.325
-180.17
7.71937
884.254
-398.688
-67.7229
-140.002
107.498
-177.873
3942.62
2592.37
1979.42
1655.61
886.8
290.759
1164.51
2124.65
321.267
-313.119
-203.587
-307.304
1259.71
-390.934
629.788
-718.939
-728.304
-2520.55
-1705.99
-2575.82
34.7718
1061.47
179.899
-141.568
832.863
-108.658
2450.72
927.712
1173.1
1126.33
886.582
719.884
716.947
-304.112
1230.66
570.854
902.218
764.387
477.721
-938.814
-2657.5
-1806.41
-2395.35
-2925.06
-2516.63
-4025.96
-3330.54
-725.165
64.1787
-1152.32
1924.83
-1081.77
-3093.54
-3525.71
-2954.34
-2361.61
-666.667
-329.558
1430.2
1395.78
2146.68
1471.31
1803.32
1303.5
211.147
-467.975
-668.912
-512.034
-529.986
-2820.13
-2687.93
-285.972
558.043
347.083
-500.098
-219.695
992.876
2122.26
157.297
-562.846
-1045.56
403.82
966.315
491.719
-569.706
-161.534
1662.5
408.469
2628.31
1732.34
1112.77
2195.7
684.575
1354.63
597.184
-697.989
361.948
213.621
-310.681
-1312.61
-778.849
-1219.8
190.697
973.398
113.125
-1303.04
-487.159
1938.12
-1232.37
-1597.36
-3432.62
-815.296
-830.98
-913.236
1092.81
1959.06
-244.055
4433.91
3747.88
2344.1
-1533.34
-1325.13
-2614.88
-506.237
-1467.34
-1611.02
778.946
-586.144
1217.53
2698.91
2914.56
6492.33
3661.01
2517.99
1807.38
3246.45
81.5438
180.472
-1512.45
-473.117
-917.289
-851.435
-1486.03
612.334
-1338.53
1101.79
620.805
796.756
-146.549
199.814
73.5773
-654.067
-1039.62
255.114
424.849
-1792.27
381.063
-436.441
-424.715
178.126
396.776
2981.63
4095.54
520.565
895.111
-3142.62
-126.176
-65.4591
-1244.42
-752.561
-822.412
-12.9573
-1712.73
621.44
2741.04
-296.375
1286.61
1173.02
-1010.34
-2944.23
-2968.16
-2730.15
-1082.02
-11.2625
-2529.79
233.774
1100.95
-883.402
-1593.63
-260.63
1752.11
-241.651
53.4799
-364.649
-423.986
-2580.94
-1045.92
-631.249
13.119
3144.39
1351.06
3276.66
828.612
-1123.86
-2801.56
-196.69
-886.618
-1992.43
-534.422
-1815.63
-3013.35
-547.235
-571.534
-1564.77
700.959
3240.2
7185.14
3244.38
1433.65
2542.29
547.189
319.633
-676.712
132.227
-829.227
-937.87
-693.138
-353.606
-1546.14
-1142.1
-1490.64
-1315.76
230.812
4.01475
-1319.7
-1386.35
-2727.21
-2404.33
-2788.64
-2611
-3059.4
600.685
-2777.59
-2027.24
2355.68
-121.608
-134.03
-142.739
653.964
82.9578
761.384
-472.91
934.146
287.223
-580.126
-560.137
304.646
-855.908
-880.47
2356.11
1810.94
150.615
-1914
-3310.77
-2262.12
-1266.52
-1140.15
77.7583
-114.838
134.642
-690.369
-1137.82
-2978.49
-744.693
-1984.76
-3301.5
-3892.64
-4895.45
-4660.5
-4075.84
-2188.97
-3053.06
-2261.31
-402.942
-1859.98
-1474.84
-696.742
-2270.46
-634.585
-889.738
-619.758
-146.338
285.939
-312.766
834.451
-48.8691
-957.994
-372.476
-1155.55
-324.356
-287.117
-553.47
-604.065
3570.05
1033.66
1574.87
413.235
-844.77
-1607.94
-3086.36
-3648.06
-3756.4
-4553.76
-3483.34
-1290.66
-3230.23
-1747.69
-2194.83
-1799.01
-1037.25
-2869.88
-1234.08
-1773.34
-2685.82
-3064.34
-4809.75
-3808.13
-2505.92
-2421.48
-1794.12
-3461.33
-1029.04
1544.75
-3143.3
-1477.41
-841.396
371.699
441.482
-1823.96
-2499.75
-1725.38
-1262.67
-742.031
-684.082
-2494.11
-3274.2
-2274.37
-689.975
-4147.17
-714.172
-221.325
-840.748
-1210.64
22.2887
-65.3063
410.88
-60.3006
633.007
1330.54
510.357
-443.376
886.667
-367.114
-879.332
-518.166
198.402
-599.692
-847.025
-892.123
647.672
435.862
-360.967
-982.397
-1156.15
-1119.67
178.943
54.5368
-3206.53
-2320.32
-1623.49
-683.765
-146.838
-2189.55
-2210.95
-252.377
437.553
1056.6
1557.92
256.338
1988.19
1492.04
1175.88
2088.19
674.153
878.806
219.641
506.567
646.404
-1161.2
-138.158
426.54
752.941
2259.5
-210.693
-390.664
-983.999
59.6761
438.53
-148.069
-951.221
-360.225
-206.338
1067.16
901.705
-121.228
-2517.2
-2831.3
-1608.82
-330.049
-114.85
3113.13
1938
1824.37
3140.49
2120.07
-257.365
-452.459
-3048.79
-1258.71
-2083.14
-3604.61
-1209.89
-1403.41
583.514
-337.162
1070.11
3172.2
240.151
153.563
-1929.53
114.32
165.168
2142.64
2071.83
1933.79
2141.25
2721.89
848.918
2336.82
2261.02
-744.713
-1593.37
-2218.27
-3670.27
-3062.39
397.571
2229.07
6412.79
8195.7
11490.2
13151.6
12277.7
14382
13463.2
16926.8
17901.3
11136.4
14637
13909.6
12435.6
12499.9
12413.9
15483.9
8403.87
9150.84
7722.37
5629.77
4984.39
2422.84
2045.4
-2940.46
-3381.11
-2886.83
-2509.21
-3139.05
-2782.22
-2234.16
-1669.5
-530.032
-870.945
-1545.19
-496.324
-701.959
1779.99
2518.13
2333.02
186.275
954.25
-19.286
-413.793
64.3229
-172.408
-180.511
431.067
267.769
734.848
3595.54
2724.08
223.85
-1709.32
-794.339
429.955
2446.77
-240.796
1770
-451.798
3.85007
1128.49
1253.65
272.818
626.3
242.991
-108.055
-847.742
383.285
-492.79
289.906
4414.57
4630.94
1539.25
401.726
1008.71
-364.777
2758.32
4307.73
4550.5
3743.56
3202.86
1408.57
5023.03
4454.17
1391.42
455.986
-1314.33
-2214.01
-1505.84
-2350.22
-2421.57
-1745.75
278.915
-717.105
-212.319
-81.1078
-502.146
-3274.74
-1700.68
-742.391
-645.033
444.795
-770.942
-877.775
-1070.04
974.608
1616.86
2976.12
2609.72
339.335
497.47
-572.632
-1420.41
911.817
-17.869
279.559
-1075.88
-89.7971
-716.364
1344.53
1661.07
1883.46
330.216
-1688.59
-1668.04
-271.078
167.378
-642.849
772.082
32.4117
-800.805
-1783.01
-1122.33
-1482.07
-1384.81
-1882.02
935.275
621.281
1974.75
801.69
3137.97
3023.47
5246.09
9377.34
7606.98
7075.35
2151.98
46.6306
-1321.99
-1196.71
-1628.92
-1134.89
-597.324
-2237.36
-1560.65
-260.451
-1093.1
155.017
-858.105
-187.219
478.588
-1157.26
-750.767
-915.963
-281.771
-609.528
-98.0556
302.171
1377.83
1998.9
2391.61
2388.48
2643
673.463
-401.842
-97.0561
-367.686
-11.1315
-3912.03
337.153
-2467.17
-2979.53
-1164.93
1502.42
-1075.79
2045.09
4243.84
4783.35
2920.02
3748.37
3930.12
3606.17
4858.75
187.475
1796.42
-152.848
362.166
318.546
-474.217
-1029.78
199.77
-575.44
-1006.22
-1977.58
-2626.58
-4390.5
-1997.31
-640.164
246.581
382.577
-254.651
-44.8597
-1300.02
1211.08
-1558.85
-1316.45
-566.124
1700.67
1246.42
487.207
1000.36
1697.91
1252.24
2351.46
2129.1
938.212
1200.67
389.099
1179.74
1346.2
595.82
-619.596
-1520.99
-1176.99
483.781
-1489.4
-85.3529
52.4432
-1204.19
717.31
14.6452
-226.601
297.129
-143.569
-117.986
-174.456
77.421
458.411
1865.65
-149.78
32.9682
-929.157
-620.698
-1150.56
-954.583
-529.681
538.932
665.757
-803.01
-1093.19
1492.06
1673.93
-839.346
272.194
-277.741
402.142
607.182
1384.28
1465.56
672.11
1210.7
-46.061
-461.397
-938.764
-1778.76
-684.038
-1279.11
232.164
-230.688
-627.594
-148.224
64.3312
897.648
1509.96
1962.73
510.225
164.151
-371.818
-993.503
-1743.19
-143.569
1230.92
-1198.09
638.357
-187.756
234.359
-624.08
-987.077
-304.618
260.511
273.172
75.1854
34.5265
358.333
1447.19
2373.1
5210.98
6919.75
3284.36
1035.93
1757.25
2468.57
-120.388
-785.713
-901.123
124.522
-791.961
-131.042
1266.02
-751.938
80.3
1002.77
2592.84
3023.75
3669.95
3562.07
1720.91
414.453
-1753.34
-1958.02
79.7806
-2307.6
5.39753
-707.827
-1560.08
-172.845
-1292.38
-984.339
-1988.64
-1247.21
-2135.38
494.046
2046.16
355.345
-220.706
-554.265
163.991
-2125.17
-2806.88
-1961.08
-757.59
-3521.94
-2168.58
-2341.37
52.9381
-1096.84
-0.0920546
143.387
-926.88
-216.246
-849.734
-2434.76
-3499.94
-2237.41
-1066.42
-1218.64
-939.836
-783.309
-2745.43
-608.676
-959.285
-1990.24
-1226.82
-532.846
-968.112
-4311.01
-2966.52
-216.892
236.79
-182.891
445.93
-972.33
-1826.02
-1338.6
703.33
-1602.15
451.673
-720.718
-39.3619
3514.83
3886.66
670.334
-1527
298.732
-146.519
-327.96
427.716
-753.226
-214.953
-809.769
722.548
-705.548
261.218
865.503
1346.16
1838.26
-540.743
-931.175
-3995.97
208.764
703.612
1666.59
4.75636
-880.2
503.8
-190.289
316.827
1205.89
520.713
-1161.27
-848.632
-612.42
-1239.83
-255.442
8.20788
-1251.49
3.87102
-280.452
-3780.46
-3066.53
-664.932
-514.947
-499.797
-256.019
-1817.81
-2518.86
-2107.32
-1859.37
-1482.79
-1162.93
-1152.35
-743.148
-717.975
1727.01
1737.98
8423.51
8271.68
6483.59
1987.54
-3130.03
-5685.81
-2302.54
107.328
-1464.92
-1149.56
-4428.09
-4106.3
-1874.42
-2603.95
-3180.93
-2232.39
-1108.5
-834.015
-381.065
302.53
-1454.43
-699.806
-1785.38
-3233.24
-2327.71
-1284.52
-635.975
-358.17
-846.7
43.1868
-2703.4
-2175.83
-463.073
-1111.31
-1224.79
-441.565
-372.433
2195.97
-629.595
-1143.06
-815.15
-193.589
-4269.77
-920.974
-1892.21
249.275
-828.96
1272.27
521.059
29.448
1769.21
1721.67
201.931
277.381
69.2136
160.613
690.924
777.555
643.971
1137.11
-140.902
-625.98
-704.823
-1526.05
745.134
-101.782
649.85
774.826
777.805
346.537
964.851
-480.275
1270.49
61.0829
1612.27
1438.42
2759.8
-560.999
-2585.26
-876.533
-3065.18
-1395.02
1105.61
1478.61
-309.821
-683.152
-887.467
1543.58
1241.98
394.261
-728.77
-428.882
1659.34
-1288.67
-1974.1
-1827.27
-3060.99
-4369
-1560.35
-2430.59
657.845
1248.19
-1011.71
-212.839
5755.76
5619.48
3069.22
5166.97
8395.38
7208.58
4795.02
8007.45
3036.6
2935.42
872.477
1163.77
-1007.32
-1155.91
-648.302
-1087.93
272.245
-249.71
2120.5
3729.48
5373.48
3131.21
2143.11
1625.18
739.399
-41.7098
642.909
-368.087
802.442
2810.67
5413.36
6185.3
4828.43
4428.53
1615.72
3627.08
3375.39
-724.264
-1044.17
-323.382
158.182
914.663
1863.05
-842.814
-206.635
1540.64
267.141
847.221
-205.173
-594.059
-642.444
-468.123
466.972
314.716
1582.19
3478.95
667.046
1208.13
3096.92
6780.14
7156.25
5946.71
2116.92
7375.53
6831.19
7517.58
5342.47
2360.49
7058.67
5141.09
1126.92
47.3024
-468.56
-402.036
-1851.63
-797.183
-1565.69
-852.791
-1539.48
-496.397
395.444
750.095
1770.11
2176.36
3147.58
904.009
481.786
330.491
65.1725
-1612.68
-1689.48
1128.05
-1653.94
-478.191
-1065.65
813.047
2287.05
-974.944
-270.392
1925.76
2824.35
5610.49
8628.65
3598.84
6306.36
3861.37
7993.33
4874.15
3784.53
2747.13
2357.83
1783.94
344.695
26.3001
-668.628
207.502
-15.5024
-607.893
550.639
-3576.55
-1265.04
-1726.5
-909.484
3582.56
6037.62
4074.12
2934.78
4817.66
1505
3271.61
-434.041
-919.855
-2333.8
-4301.46
-1710.27
-3045.83
-2521.47
1369.57
4226.23
1202.16
1537.85
-148.084
1085.29
517.727
-1945.33
-1394.32
-1625.05
-1963.9
-6051.34
-7193.26
-2227.89
-3150.35
-1491.16
84.0592
1714.8
861.79
1257.57
3232.05
2369.37
2197.74
591.952
33.5656
410.957
-378.322
1886.5
-654.542
-1287.86
494.075
-911.227
-446.429
1401.07
2115.51
978.521
-1835.64
-4779.26
-3745.11
-561.814
-980.137
500.558
313.699
1544.75
1893.57
1408.75
2961.18
1275.03
933.166
3039.18
1979.56
3128.83
2816.92
1952.54
1832.86
77.0559
199.429
2859.88
3072.09
-636.553
-326.347
1245.56
2237.29
-1020.96
-755.534
-1245.52
327.322
1476.11
2482.33
4450.16
517.097
971.998
4059.53
1765.3
1725.1
-503.772
-123.707
-262.813
336.126
-492.842
-1118.69
289.553
-71.6812
-721.834
-660.672
-2632.35
-2836.22
-406.219
1025.95
-379.643
2429.57
-8.8725
2088.78
838.723
989.039
520.374
-668.802
-1614.55
1367.39
713.69
1193.01
-852.536
956.077
-1113.99
-838.473
-982.291
-559.089
1418.41
3281.98
2162.06
3345.91
2026.46
2444.73
7417.25
6597.74
6546.69
2268.52
2668.34
6403.83
5913.86
9732.37
8543.38
12579.7
11782.6
11502.5
3110.47
7463.1
4937.49
9485.34
4528.98
4238.61
986.641
1843.51
-931.76
-852.073
1277.38
634.078
664.797
-1159.54
1354.19
-908.762
-735.555
621.131
1022.19
-594.148
-2441.66
-3566.49
-1215.95
-3085.15
-2393.42
-2057.2
-1466
1035.37
393.078
220.034
2121.05
2703.6
3008.14
2715.97
242.684
203.208
973.853
-709.77
1202.03
-847.378
-38.8587
733.458
215.051
-113.801
746.604
-249.266
524.197
185.383
693.697
181.448
1563.29
1054.06
513.591
-443.642
-1415.42
-180.565
-2375.94
-2137.26
-144.872
502.154
-708.224
-1332.32
-708.395
592.637
1241.64
-1122.6
-2406.9
-569.064
-713.522
730.284
476.823
-736.504
-197.721
474.876
-1886.88
-1629.57
604.747
867.162
-430.188
222.317
-195.648
203.777
-517.188
-2191.69
80.1986
-3165.93
-393.114
-810.891
100.516
670.114
193.064
-518.346
896.316
205.897
1646.59
2805.05
1422.83
-569.626
587.733
537.846
-755.922
866.313
-762.992
-1153.64
-877.396
-506.227
-870.998
-400.735
-1825.28
-3299.08
