38619.1987
76340.8644
-86817.5166
162094.2003
228915.46151
15506.9571
193627.836
98841.839
245367.526
204912.124
18619.7558
164882.48321
25441.5851
186870.36977
267122.56979
158049.7813
205098.91403
49396.0985
75919.0
32818.89266
124614.2122
47889.0811
23354.057319
148410.34029
144536.44
178922.4078
61535.329
-23055.0892
-32440.2258
112868.614
147493.95247
52452.4725
-5531.164
92292.9065
37133.663
132046.741
65991.01
35528.94461
190158.4807
98974.10169
36608.1388
125272.7628
117019.0106
221754.2763
283178.7174
114923.318
292228.864
255209.94938
106249.6488
-29036.9219
59207.2925
62738.0812
172203.585
140591.4329
42467.49778
152379.8713
139383.6586
122460.87
217241.89745
133601.2748
-16589.26
-16911.6892
88736.603
165809.616
169135.2697
119423.238
70662.4831
134667.173
51759.773
101627.05063
182919.1723
143820.6318
223512.0662
118602.419037
76299.9493
33139.69789
22580.8189
-22899.375
92535.7139
-109388.5933
145860.6125
23445.212
246228.885
102375.2746
213410.6939
163576.9954
114916.0767
88352.4864
277807.3042
159494.3578
27160.946
212644.4076
1868.349
190663.07007
79771.8601
181435.836
134006.261
255362.5119
295298.079
227646.92549
122451.2711
50542.33225
84044.5333
149897.26114
131576.671
104832.134
262925.2615
197797.1778
264051.5076
145437.7347
156371.6586
250714.9407
38022.4385
104574.131125
14241.466
199934.61137
109601.3772
27132.6219
43629.9054
176708.586
23001.5975
127000.3424
-69958.4075
126961.78
125601.467
87927.38922
140349.855
142212.317
101427.812
172099.2396
32974.24469
113325.0298
102832.7455
222115.9538
175313.368
16800.68522
120283.1621
27144.2468
133551.32
224432.303
181233.8609
9297.382
94361.2246
70077.4667
48033.97365
70745.505
188631.6098
112026.768
175600.5346
113416.856
152370.803
-7127.66577
214006.0427
112178.43
5797.27747
-7218.3155
127390.8385
76121.3396
54254.7476
81281.11259
89549.0698
122600.799
113422.905
-34243.6125
181162.381
118406.0196
5820.1891
231674.606
201740.3542
22434.598695
85280.08163
165321.019
213376.7062
95215.2786
287512.6068
105889.1755
154736.9468
289587.0986
42588.511
148797.18
191386.03042
128012.94697
73969.8273
89081.403831
135812.0318
222449.553
77098.647
-56206.8212
82514.422
111903.1437
72242.3921
89116.7673
-20695.551
182543.598
147709.559
181782.3018
-23491.9888
151802.2073
151715.7479
232563.7829
75576.2373
84725.0285
174648.4423
122703.20612
67583.6497
-30611.4583
96228.2807
237797.119
77344.68271
251060.5776
348678.1663
154897.9732
99742.1081
-82234.023
167995.5604
169069.0399
51201.526
11995.47242
64224.48722
-41188.5083
24507.72366
181026.08128
-28809.1719
108119.0093
90557.7171
268110.8382
-37253.32913
182720.32755
135610.5278
62666.459
162936.14407
107419.23126
113626.418027
10802.0929
68277.9071
147260.2199
77603.9813
16358.2881
263707.29084
253548.6196
115166.7321
194230.9459
124690.1067
-2490.4562
378395.884113
257200.4282
270126.7356
18789.1173
152473.6885
94421.54002
61644.8666
260982.58525
91587.4502
12952.44848
293470.773
95203.735
43870.4803
60674.354
190157.979
115873.6498
45945.184
43587.9968
127536.3953
158153.4412
230813.8272
267776.02458
13618.42015
-15186.738
-986.457
130983.2401
62554.0927
17394.6673
135918.7078
96521.9625
176973.0569
67131.49613
137432.5538
211199.3557
61201.47212
179764.1526
175862.75471
50495.1789
161476.0049
172087.3473
264961.2776
105327.5556
140646.006
39898.39448
43788.7759
95452.3593
129153.3962
123405.9158
252607.8561
212781.2717
77811.5895
22118.5038
218504.82761
131542.58401
236659.4998
195538.478
366700.753
79681.7211
-54.9455
151084.671
161817.3245
80116.4549
186474.76128
127250.1764
113331.8893
43414.0849
77532.8812
179243.12951
239037.9388
45555.7296
-12930.0879
149461.32092
148493.4151
61415.4837
121201.6044
97264.8716
129384.641
226067.7996
98559.2416
126656.7092
-14120.2965
176060.7409
141754.30787
135039.8892
-5064.1729
60085.788
153447.25645
85879.3082
51350.7182
131645.5059
-496.3135
157083.213
64909.2443
58498.341
226464.8022
152901.122
88606.089
-26668.08
197607.0138
30153.4238
193450.6953
120289.5646
49011.3752
146345.800701
16304.4397
50097.827096
196421.9742
64975.88284
152901.0985
120555.731
249510.0217
260289.4955
163866.69574
201909.7298
251395.3845
53181.8513
216828.507
201107.3613
311537.4747
106142.6165
232682.1974
174867.7357
-35778.419
193094.949
142358.07661
44581.2018
85675.3538
229294.299
171974.104266
213532.764
58624.42446
81822.6288
60565.5285
69426.199
106395.88872
163508.5151
102497.149
277612.0143
279215.69513
187953.6712
114635.532
193771.4985
71114.7658
83286.3403
254739.3948
213951.4467
88071.7045
125647.0947
221035.31183
98449.1894
190936.1724
233133.157
49776.69
77436.8752
79222.5871
217264.2651
140305.277
204304.7021
196280.7699
138188.1698
141684.481
7431.7886
-32392.86382
163015.76576
114871.9613
130978.5466
106265.2273
195062.69085
187180.03189
-23495.1904
47084.905
247108.4903
163605.4728
115403.795
175001.0864
130077.4666
149968.9827
203290.8515
66737.3156
168449.5937
152941.6048
438.0619
106245.8149
-145.224
154510.7066
-121344.96726
68340.447
-39238.356
212322.4977
63746.51
159352.6241
163833.0841
204997.14
149602.09
-21262.7108
84059.112
135738.1183
-32547.895
142625.3278
157128.397
152061.5335
136473.13116
186849.1382
136804.1196
296175.53609
232996.6989
119317.9372
-1845.7299
150026.2189
137864.378
-9796.265078
40195.1503
315423.6352
116844.7858
211942.1709
104606.20046
358312.9282
201485.9345
34688.0598
154543.8161
335896.9302
-635.11068
74866.2169
239114.8118
44424.085
130585.6977
150892.56972
242100.622121
-16994.428
144306.291
35890.301
53481.9319
171598.4646
51615.5358
106333.7254
130132.0543
137282.8886
53804.8178
96707.30358
72372.7501
304709.7725
134040.7452
116006.7014
314394.09075
9325.4917
89490.3786
132304.106683
221213.0165
-13407.541
64798.847
154157.013
3959.1893
306794.6199
74430.9288
-11055.136
217892.3806
7924.4956
104994.7838
13471.4934
170642.1574
167189.3714
100454.09972
4322.3726
171669.082
-112503.3749
339365.3115
17201.7616
182398.1946
118344.7213
80249.3814
177901.6183
143537.937
9012.2761
51474.357
-45990.573961
-45273.293
197598.4102
82062.438
108467.49752
289599.6073
3227.57799
56919.90095
-25537.6315
183374.207663
176752.01048
176238.2533
147656.817
28870.8487
84729.958
91662.3648
95250.1801
-2171.7067
166616.3644
117703.92
184628.715
150316.3325
-160482.0537
21548.6889
3083.9845
110076.9105
159970.7992
220838.3661
99524.303
133352.4465
107553.1048
24531.8216
4051.1759
115834.5843
88938.292
107573.6359
30319.9838
117271.0698
109198.00286
135678.3115
90664.5629
145471.9465
-83212.2154
88975.847
95188.63716
87630.6931
159646.251
281705.013
60505.167
156231.8773
113206.8524
226190.32877
80622.501
-21536.1388
148767.3027
153479.4269
190142.9304
127202.3605
98271.4257
302277.656
101697.82439
26811.436
133197.9949
138110.12
79674.7315
40003.833
147355.4569
-28504.1335
246705.1686
86465.4627
184633.64
153608.51233
7712.8188
87811.1171
136362.29279
16895.845
234114.26105
131730.803
137176.5981
129043.16297
15736.8854
21370.4741
-23369.57
202806.527
242577.7676
74730.886
101338.04041
189294.2368
159053.0626
187149.579
-21559.2531
112717.6291
115339.2658
60225.9989
82437.3992
56109.904
134513.147
-97824.14636
241781.592
243038.50153
-66037.2611
-10751.831608
57855.9108
115709.292
193896.7257
80321.117
171973.4341
39571.808
114090.0266
215550.2004
149225.277
16942.592
143801.2736
75874.6926
239469.2252
-61994.7849
270878.24825
209529.045
193210.29427
85070.772
97743.3993
138112.736
304439.251
182366.3484
241656.3868
69772.3629
24420.0135
3413.2687
234136.1694
232425.3928
174992.595
84088.4929
148836.6079
188673.7809
233370.4738
193938.7183
133734.901
79667.7022
12579.4827
105785.645
-15109.0777
238240.60187
372657.2002
200181.5521
152978.27234
-26567.5325
122446.9887
163711.9217
70629.0025
174984.55864
206001.917
177038.6313
49646.772192
-46541.86104
211977.8035
150527.06782
31656.0928
259465.9602
301580.9734
62960.4513
102791.011
-24318.1264
99820.199
-110831.3242
136630.1251
103636.01422
211181.17861
60800.009
89027.94784
15012.232
155080.4348
89086.1707
136268.6248
126939.9594
-5629.4149
123911.7513
-39965.189
65041.1435
74543.5116
163692.575
14595.4608
32571.2245
103736.375
-80377.9407
98907.719376
162714.08
154324.1374
31642.9663
6400.093
110738.3657
103257.9212
178138.5517
9391.458
177912.6119
46349.4187
120625.2565
168787.886
21437.7498
177452.2596
104818.2978
111048.9413
165206.9838
79953.4371
62373.16046
75374.78085
215608.252815
152699.0352
38208.6163
217124.7899
108511.5909
89392.9668
228198.773
130384.4866
219921.907
306175.9931
-111390.8563
-27862.2047
37203.69004
-48272.0151
95668.6904
167287.582
194866.069
19144.6797
175745.5192
99819.2841
227697.93399
147104.461
3377.5175
347649.1433
265582.14631
190649.1281
94732.6648
28670.4212
52840.4343
143218.121
203022.7145
249976.6275
293905.109
25986.3817
-91625.844
217449.3321
126487.5771
10262.87521
12792.945
144249.6441
208668.5493
135224.9392
81357.0125
167730.9576
196075.7172
71844.303
141606.4811
43723.6951
-8919.8016
-45039.1967
65117.381
255809.21427
-29360.6358
87138.8796
224365.9922
61828.128
128917.24283
-138905.1337
159211.7031
213750.38713
-54123.1188
153575.8039
109881.1109
200522.4302
66326.38579
123446.89166
90008.3812
55395.184875
402629.21025
4518.4248
59848.4355
276906.4818
-38752.75146
257605.9109
71695.0464
173789.1998
169353.84885
-68939.8263
111265.01416
208614.6705
167636.827
144681.20553
129035.7081
225232.586869
59229.5226
217560.4469
19461.09302
78875.1674
146058.5217
207768.0541
39072.17983
178927.8308
22833.7831
65249.2332
227881.7189
217058.03601
121627.1266
23119.07264
41803.44162
227638.68336
22677.5424
59631.81447
140496.8311
136755.3654
132103.586
243063.6502
119248.0098
151293.13577
189774.9855
89126.51667
64754.287
22286.7795
47278.8082
75614.6464
66595.26642
174234.1803
167173.9822
94002.963
44523.6789
57244.20994
152339.4765
72084.3843
147562.878
29281.7416
44366.6833
95267.4333
27873.7209
73272.9482
324783.4638
80300.9739
199439.9763
147260.486
174099.266
164684.083
6176.5248
161049.7074
38956.5455
102364.0135
173823.88885
123525.347
146914.89691
215070.5063
50596.5321
246841.21
113042.5908
184603.7978
-54811.1658
389190.4744
27920.456
348411.009
110632.3064
207295.5913
9380.1791
128780.6826
301149.6209
-73537.547
217340.7004
141796.9511
174774.4742
254112.1451
135605.14961
111221.493
86895.6234
224141.421
53364.6787
74302.9588
-12004.77374
74475.1501
84961.953318
31422.1239
191823.429
209752.4756
103490.704
-65990.0917
156302.5034
85646.1438
142262.1225
32272.9977
103401.416
168520.8782
195539.345
114774.324
-34380.5719
77919.4852
178040.0946
84219.8615
187318.3191
63425.6979
116846.7286
112516.714
367088.6026
134915.85929
71328.78382
170723.1176
201716.7037
169699.4014
20175.78782
187242.5068
176406.6518
301500.771
199721.1076
233938.5675
-78809.6444
204137.0442
189978.8
162825.4323
40552.7653
99222.65818
240039.3678
120804.026
239728.2201
93293.705
70577.41348
287418.2529
169108.296
42178.5765
161570.3998
83932.8103
36946.385
9179.8506
210410.17362
237576.984
14713.7057
171099.28293
89907.8695
47132.99174
68366.161
72912.91483
130888.6066
118585.1087
170390.089
47615.3495
275495.0261
131470.13
237798.2482
64031.67153
26332.7728
256210.6395
154907.7446
87224.932
142341.8071
114241.1981
5174.5017
83127.866158
-2394.6892
193975.0772
109316.2742
24535.6425
166728.92134
536.90833
90909.8374
211730.96119
138833.9426
40725.1101
130908.0122
172718.5337
117615.8375
69010.0238
-26020.7539
250015.5112
232527.6046
6854.88845
215189.2491
198956.50296
213389.4694
8776.042
77890.87945
121542.094
94229.453
-45216.7796
46799.2322
229245.3743
216355.84739
33394.206
155256.8699
132533.39172
-36841.9682
