19568.108
26366.39
-34663.9939
77129.3527
26518.9235
28357.0027
-30833.4575
-149779.1987
-153655.771
90674.27081
64537.3826
107401.49
44146.2457
84453.965934
153550.79595
21266.9273
52056.5963
-25319.04465
-26548.4929
57031.3879
-9411.5491
-48344.9608
-169757.7397
-89409.811
-109555.6656
-169007.43305
11779.6351
24287.494331
-65765.7376
44979.6522
143532.726
126686.8686
48004.362
-222653.2955
-53607.2113
-17171.6618
2109.8805
92695.4431
-34381.2042
45222.87858
-75669.223
104990.5471
106753.0749
61335.877
124482.6839
-72545.4723
56152.2978
-4908.4367
-49814.8613
28925.513
98586.41258
-71062.2262
-142282.447
-43188.25722
52868.62544
44800.215
-22049.1817
-29123.6307
-85793.2195
-3596.7799
-66040.9178
-58697.408
-3088.639
104902.6911
108272.632
31579.0445
-34577.218
83179.41044
-35276.00662
130607.8267
47591.8801
-24733.3458
-75302.2054
-4518.326
-103253.0877
-26289.73488
28233.5874
66710.384
34729.62876
-21686.039
74802.7372
43749.3929
159146.21323
-1909.9219
-43746.3265
52489.056
68228.1515
24414.27724
-110231.249
-96244.7762
84020.0605
200659.03454
43678.1632
-29188.6921
94233.1399
-79146.01655
43003.1042
23596.3764
55150.7209
-122902.504
-54240.3437
11112.8827
-34302.622
-29455.2358
-43239.4023
34896.7735
89932.49403
-949.55416
89898.321
-48401.4186
60575.7382
-92413.6732
-16161.2299
7608.365
-186478.1246
-59198.9436
6512.2452
-169995.6258
16013.026
88772.2479
-1451.7779
136994.114
-101727.5957
-39169.6104
81394.087
-7831.3019
157204.6898
-68504.4616
142457.0132
-101787.7939
-49334.6831
105252.6458
43387.4235
107723.28967
-4825.167
7267.0741
-32399.48685
-34117.83518
-161164.4311
13155.077
49122.784
4366.20311
39427.1685
-72676.275
-11698.14496
132876.5582
2097.4046
27962.1789
35748.74752
119092.8496
140598.96926
-78725.3983
8457.3269
-32695.89
33308.1456
116083.9822
22904.5237
3108.9791
46217.9805
-2217.4668
-10866.6036
4123.112
269768.14032
-71862.09477
-25539.2252
-72322.9371
-18834.2533
16706.3136
-3132.657
21850.3979
49379.5041
-8907.6207
-15474.5461
-86689.547
163076.9989
79108.2156
-159469.0844
62976.98
-55489.035
-58457.697
-111266.9632
-64631.2983
33474.4947
-14095.88564
-38989.1642
4401.05071
70948.74212
-17599.79039
34813.8518
117113.0387
-90138.018
-70732.8847
39871.9798
8495.6762
-93143.264
175190.8041
-84685.95334
-28964.41
-66728.1656
32658.7077
-168713.9967
-25805.94423
77980.1234
19623.7493703
-6075.9763
-113365.5921
102735.52332
321703.0731
-24546.1229
-122037.9125
56275.7298
131672.6
-40506.4453
-108363.7516
44982.618
76107.257
14928.5934
-167059.328
75796.5265
-81863.71
37993.6554
8266.6595
-151008.6224
70764.4979
105127.2674
98067.817
78415.228
157239.71705
-96369.531
-98638.0746
-81300.1828
-7481.71481
140310.1598
-106011.1637
-418.97981
83754.3003
119727.504
-27951.9235
685.1933
-38460.603
-23638.0394
73098.9941
4779.3275
60570.4156
151533.767
32999.7092
178815.326721
174560.3096
-3905.241
221.61752
29133.95796
2273.386
26791.3619
-85862.8756
1436.4914
15328.1903
169769.0398
-16824.6331
8776.8764
117500.8852
22596.7118
71992.8732
9039.0417
10404.9301
84370.5776
-2300.229
10975.5682
-114776.2981
-111667.1726
-72014.272
118982.4718
-58867.13233
50133.1638
-25794.3222
-238357.0863
130582.098
-2938.6252
46251.3865
6083.009
74191.4524
-85921.87
68276.83069
13070.8367
-56654.8632
32699.946
-8160.084
8542.061
26955.3023
-21228.8305
-63112.8089
-37793.661
76274.245
-123986.146
147208.2964
-19527.08561
-67188.667958
-30494.887
-20789.277
-43653.5305
17213.6431
129340.784358
-115351.3239
-24207.2005
140460.8477
-11271.6789
-30364.633
919.95691
85382.6355
5309.1284
37095.7424
-24369.9722
74152.9884
-59322.163
24869.25363
-149445.30638
38582.9538
-12261.8211
51179.94074
71606.28647
-85604.7291
223585.0392
62204.9212
-46133.27237
162122.293
-49584.74588
66369.4484
20582.5374
-86533.2512
-66169.63979
-52212.6955
97640.6194
42227.5001
-83521.10608
26548.1596
-86848.466
72238.3189
27507.5324
-50846.4098
69573.088
71789.198
57285.9948
-33107.8472
79329.5241
-46644.0539
-71163.8751
85094.6697
65223.2252
-93506.7729
-5583.15216
-136521.4952
186207.309
-51120.03995
-123841.0897
118781.80125
-19458.514
123852.7645
-39499.30794
-60163.8922
56263.6384
-117742.48115
52589.5577
46514.20362
24266.726
-34812.163
-11177.4996
-49064.005
163340.62
71235.6331
31927.881
12918.3873
45636.7172
-14101.715
25707.6315
14949.8592
-14654.1487
109704.78353
92763.9451
-25131.353
-42052.135789
-61924.6558
25375.6526
-26696.6124
61072.0897
17252.77895
-62368.7202
51796.7764
-541.0685
16219.6173
-13226.4298
116843.85237
107373.2774
-101340.0003
845.784
82787.33136
-84373.651
-32212.554
24412.64019
47157.74043
99019.2339
105090.232
-112568.1719
-127312.0879
98621.309
156009.2902
140701.487
-25772.5858
35103.9709
-6073.2497
83380.3024
5553.2152
-127533.7253
50988.0906
-15530.3072
-173135.0036
40540.7282
95969.174
72502.4989
167157.87322
276260.0886
31033.67136
-114385.20443
31271.7222
-105465.6834
55303.6826
69119.3907
-203442.0832
-28478.1176
21602.8167
42370.8764
-168554.1646
21836.7417
-63823.39
45207.5489
-9396.0061
172147.284
-40835.626
-38105.9645
111186.7796
-34157.607
101921.7437
82152.2631
-23300.5694
233873.9111
-143.852
-1575.18386
-102676.6209
57489.2167
-83391.70496
25404.2535
32513.8952
29301.4683
20847.3804
220308.7333
-1568.2529
-77858.5909
70557.6465
107063.6014
-106038.0378
106281.4027
122915.31144
50962.6354
134952.4404
-94242.495
-49456.58746
85144.7754
77400.5432
51083.2736
18548.6405
124546.3282
-131883.3903
8300.566489
52862.7022
93435.1639
184059.5281
84616.7046
-26694.3064
-93780.58806
-10553.246
48136.3837
-107524.2464
-47383.3037
-67950.40383
67438.2533
9112.5178
-76593.6042
104927.5662
36282.1169
61537.6013
-149255.3048
-103496.9958
-10657.3016
86714.0933
55567.433
51208.22
79285.81063
56279.55
64910.89
24075.7937
-101434.45496
200731.3754
34037.958
90276.979
17610.8203
-68356.6698
122184.4172
3551.8598
101215.56216
-14130.6837
58251.7055
-44812.0723
-60468.08192
-108353.95162
-30337.98642
203309.7771
83449.8933
73704.0435
-119531.514
-150888.6492
-12279.3079
-189746.1789
28637.591
132034.17994
20610.914
108367.600082
-38106.74602
-136546.8709
94634.265
-24879.4684
33087.5917
108871.7613
105354.0214
-74510.33
33699.082295
58993.0573
65087.043
-23995.6381
58849.1606
31074.6048
21537.4392
-34867.1351
57148.241
47529.94476
-26415.8875
19159.1964
89334.109
823.0233
25186.85121
89521.4951
45078.3716
-69786.66562
48295.743
109518.178
-52271.1406
-77562.1445
-206567.6316
21425.8877
65883.1705
51427.266
56735.16821
9920.5776
161358.204
-12028.3677
-35424.6871
-91386.03857
32929.8531
197217.3384
122846.5552
25561.25
-89695.0466
100051.8583
44343.4971
28702.1107
-67804.8615
-443.0061
-3159.803
52773.5377
26541.5448
125690.841
-18039.6099
-60893.0722
-11702.4162
30701.35715
-1590.8573
145928.89045
-106636.3152
-141484.053
163489.8319
76342.8186
181299.622
133684.1387
-15293.0389
-14650.6842
-179187.3256
-34678.6033
125253.0175
47072.0417
141981.2023
64400.6511
-94823.121
44708.4644
75947.1161
105093.1284
-14897.7057
262514.2895
14370.70819
30514.19195
113106.3894
-16483.9048
22906.0538
48973.0694
21839.4866
-19629.6593
16308.3534
71850.1708
119704.2414
-11682.3685
158864.12382
105056.4009
-136959.0553
60300.439
14796.6741
-16451.5511
14321.9118
96642.3791
96130.2272
-6332.9271
-59574.797
39756.8135
59674.5174
-7220.4348
61568.67272
-23270.5779
-14319.3007
-5395.7024
101617.3116
-25854.98323
76223.6973
51995.2856
-11504.6489
-62933.9042
-16807.94522
-21130.99961
-71701.0584
-53864.54313
-22768.9011
69299.8278
-127950.8553
-121996.272
13951.5284
176637.814
-131688.0576
32139.0926
-33838.694229
-53697.6219
12472.73123
96009.4976
105660.0959
40948.2576
17996.0962
34496.1521
115993.382
113802.1689
-29380.9549
-48926.2559
50568.8091
159783.416
-100406.281
141028.02574
36197.0379
-28048.8474
-56511.14466
-35420.6299
114721.1033
81710.1729
71390.233
24295.1761
-144123.475
-126496.8975
-109359.5611
-98694.8093
-57036.0664
-40405.69608
114292.455
-27794.3466
38571.557
-62443.3497
-22969.9542
37171.01973
62515.94431
52564.5367
-33846.5894
-215605.808
-11331.2362
-61844.5505
-72209.7516
-45580.0218
13693.40952
81167.9021
15651.0968
9679.6799
27979.03
47803.6832
-4134.7087
-40516.7567
83421.8794
23081.419
2590.4725
-92519.9038
51007.1458
-22288.1853
-5720.534
38122.51
29360.0725
-16488.9824
-79502.8626
64978.1337
-62911.6185
185227.6345
-61750.2577
-6567.53313
-53743.0165
18681.3703
-53306.4266
42585.3187
33692.9055
25375.35015
146911.8231
5770.2156
-1253.6837
50282.1323
-52490.6668
-34865.3399
109403.2432
-40445.43
-103222.4488
40690.52662
-195405.00358
77625.7674
-98414.84122
-79559.9302
20107.3525
22285.29447
-50446.3133
-79510.649
43243.6845
-66587.31389
-12858.568185
-68787.6187
28200.7692
160002.8694
-39920.9755
92598.6282
-30122.7451
35778.49978
37690.12251
-5404.1803
-16328.059
-143846.6745
-2806.7973
-60952.5164
-91193.5525
-78465.1401
27394.0626
-45008.9329
125688.2181
-58722.64745
-32366.8399
43966.8374
84342.47993
-123117.4039
-20747.9992
-55372.7474
-68072.2861
-71318.823
177798.3377
-88083.7823
-102464.6
17319.7746
8677.71255
13757.3994
-29314.2839
-7159.732
-74646.3445
-3952.8184
148307.7862
-59673.818
14731.811
-49527.0332
-60154.953
51222.371
-24441.5098
45428.7931
18537.07156
75195.6484
-118575.7848
-22108.4984
-1692.2018
-42150.533
134835.273
-62722.0463
-98946.1706
151590.4922
-26224.39695
139174.9959
68382.40245
69866.70914
-30680.5151
21320.87764
-65879.73
-84118.97336
13212.5911
-183072.6443
-38195.5316
-4454.44559
-34215.7727
71666.8422
-34165.8758
71864.8353
96044.712
-106482.0235
34590.5756
43514.015
183662.4444
94945.8069
126414.7071
113518.5847
36564.74021
-99028.0475
15278.70937
2368.3035
-100139.327
-13744.0596
106708.9074
71033.76266
-63633.0548
-74726.7945
-67712.4639
100247.7725
27645.40419
-59.4198
41826.1213
150389.1303
-21967.333
61891.0441
-44551.939
87833.8118
-65951.9662
-142620.7034
-49480.20027
57048.8727
-15501.1892
-41245.154
-952.416
110952.3643
-63125.70147
5752.56381
-96236.4551
-45965.9087
100068.7767
-88449.6384
-13093.0721
-76186.5566
61634.987
143543.076
32769.0163
3233.4967
118957.8584
-18284.4128
60667.0591
-103152.7828
161639.955
25498.781
143483.9609
-61267.664
46347.3376
21882.8459
-146343.7688
108986.4602
-178134.68915
56697.7936
250106.0481
-73404.4253
51016.551
-2822.1449
99320.379
17626.848
118333.1409
-58641.25535
31367.0269
-1444.9276
17143.8601
-50039.2022
-153325.6499
20205.9213
54298.6111
64373.8511
-127640.39804
38930.849
-96031.4153
33564.7729
-85431.4787
44533.726
65418.23096
-52350.629
28556.5702
-148113.5906
-66808.54907
86223.034
-173473.834
-18988.0473
118497.8914
34906.3207
-27050.6653
66538.5212
36637.885
55157.81314
60039.5426
-36890.0301
34472.2075
72656.7948
-22293.491
-18732.0137
45197.0833
82857.87
154775.00683
-65331.5697
-29566.0877
-124537.03829
224569.5369
68795.6294
-90248.3765
126976.0964
-36816.2569
81820.79232
-120205.598
36570.7688
-26254.3651
-82368.1702
-7982.9518
72980.0789
44470.1057
-1487.0629
-79440.2671
58336.9456
157699.9228
118295.2513
84229.468
69392.0508
-108681.8725
-135649.605
45933.921
-114479.8795
-25010.019
10012.437
-121908.4281
-65697.6746
-10598.08946
142658.7361
61650.566
-168740.9738
139765.4071
-72225.0227
105686.66295
115418.2538
-151013.2957
18693.2819
-627.579
26509.3552
34109.0523
-40831.4601
-60988.5934
-67441.9117128
-60929.627
-23522.9109
30182.9324
106988.85277
-72817.5517
35231.79442
61723.1246
105925.168
-51484.3474
35086.356
707.7091
-44739.1741
54359.82712
144760.124
26491.4985
-16402.0071
-67515.9719
-39876.1927
-9156.3818
3978.1116
-10011.6025
32570.3438
134756.2101
94142.0805
81935.51826
-96649.7394
67518.401
-9664.8905
