56702.9
70165.7
112550
-910492
-92333.7
63942.2
-955650
-648602
-958550
-592881
1.36332e+06
-649867
-1.78869e+06
-917592
-1.06792e+06
-1.47144e+06
-3.18797e+06
-5.18689e+06
-2.63066e+06
-1.27842e+06
-2.16665e+06
-4.29056e+06
-3.95879e+06
-4.24886e+06
-5.40398e+06
-3.20319e+06
-3.50758e+06
-2.31897e+06
-966936
-1.1223e+06
-689318
-1.13259e+06
-1.09122e+06
-489066
199143
773463
-550484
-474616
-1.24423e+06
-33827.3
-285436
-47293.3
-894044
-1.5636e+06
-3.63983e+06
-2.3099e+06
-924554
-1.59751e+06
-2.76416e+06
-4.21625e+06
-3.45084e+06
-2.24651e+06
-3.68169e+06
-6.26969e+06
-3.2868e+06
-3.18627e+06
-2.03527e+06
-995983
-1.66996e+06
-1.4062e+06
-593101
-3.54452e+06
-750410
-622870
-434023
-580616
-503164
-766433
-1.65683e+06
-2.12943e+06
-1.42567e+06
-1.92241e+06
-1.27847e+06
-62086.1
-37641
-285917
172670
-41375.9
-958983
-1.77539e+06
-7.39471e+06
-4.68532e+06
-3.80539e+06
-7.32636e+06
-3.46702e+06
-3.17605e+06
-621200
51198
-2.0069e+06
-1.33181e+06
-2.35673e+06
-1.20952e+06
-1.04655e+07
-7.56958e+06
-5.94811e+06
-4.29804e+06
-5.20264e+06
-4.39056e+06
-3.63007e+06
-5.22315e+06
-2.54672e+06
-4.71397e+06
-1.05439e+07
-8.75206e+06
-8.68561e+06
-3.73789e+06
-3.13794e+06
-4.87576e+06
-1.04922e+07
-1.13218e+07
-7.668e+06
-1.20712e+07
-5.92591e+06
-5.27799e+06
151446
58048.9
-3.5203e+06
-1.5077e+06
-3.15211e+06
-746570
-1.44535e+06
-3.52463e+06
-2.2625e+06
-3.68756e+06
-3.5065e+06
-6.09749e+06
-2.94377e+06
-4.31737e+06
-6.60914e+06
-6.51121e+06
-4.42579e+06
-1.61747e+06
-2.81987e+06
-4.2881e+06
-3.27409e+06
-3.19501e+06
-699760
-925900
-8661.58
7.32564e+06
7.34004e+06
4.98644e+06
7.15215e+06
1.68603e+07
3.21772e+07
2.74145e+07
3.43946e+07
1.43938e+07
1.68241e+07
7.52598e+06
1.72737e+07
6.68795e+06
8.00678e+06
6.69865e+06
4.8038e+06
-3.11415e+06
-5.16051e+06
-3.03824e+06
-3.40207e+06
2.89859e+06
2.80524e+06
4.0203e+06
3.4247e+06
4.85513e+06
2.88174e+06
4.96238e+06
1.08825e+07
1.16169e+07
5.09377e+06
3.10964e+06
3.71241e+06
1.24608e+06
1.78327e+06
2.0142e+06
547237
100615
-733364
1.32021e+06
1.71608e+06
2.0283e+06
3.91184e+06
2.75672e+06
3.43495e+06
5.70065e+06
5.01222e+06
6.12489e+06
8.22877e+06
1.22085e+07
1.5323e+07
1.56942e+07
1.33348e+07
7.58035e+06
1.24652e+07
1.32094e+07
1.60496e+07
1.38913e+07
9.77268e+06
7.82851e+06
8.75105e+06
1.01085e+07
2.93991e+06
6.66401e+06
2.08173e+07
3.05918e+07
2.97959e+07
3.30415e+07
3.46291e+07
3.20837e+07
2.41226e+07
2.56739e+07
1.91647e+07
2.44493e+07
2.00929e+07
1.81649e+07
1.64255e+07
1.91892e+07
1.97381e+07
2.18329e+07
1.38033e+07
1.16659e+07
1.0607e+07
7.88675e+06
7.68688e+06
1.27076e+07
1.6885e+07
1.72442e+07
1.13516e+07
1.12392e+07
6.96393e+06
1.06621e+07
8.35299e+06
1.22574e+07
8.40052e+06
8.32616e+06
7.28965e+06
7.6047e+06
8.2145e+06
8.35554e+06
8.87128e+06
1.5857e+07
2.26917e+07
2.25048e+07
2.1377e+07
3.35549e+07
4.53955e+07
3.89881e+07
3.18604e+07
2.34325e+07
3.25165e+07
3.50168e+07
3.52527e+07
3.43116e+07
3.60053e+07
3.46162e+07
1.81917e+07
2.50152e+07
2.66296e+07
2.79342e+07
4.60434e+07
6.36949e+07
5.83106e+07
4.94809e+07
3.81559e+07
3.37046e+07
4.2033e+07
3.07664e+07
2.63141e+07
1.53349e+07
1.79053e+07
1.99415e+07
1.84969e+07
2.17704e+07
1.54074e+07
1.6768e+07
9.54556e+06
3.36821e+06
9.01697e+06
8.30318e+06
1.15081e+07
1.47792e+07
1.23848e+07
9.44251e+06
1.12182e+07
1.08083e+07
9.566e+06
1.19067e+07
1.31585e+07
9.90732e+06
1.9529e+07
1.76574e+07
2.11351e+07
1.37856e+07
1.30328e+07
1.83197e+07
1.41896e+07
2.07535e+07
1.76735e+07
1.3622e+07
1.80395e+07
2.02807e+07
1.79828e+07
3.05864e+07
1.49501e+07
2.53388e+07
1.76896e+07
2.71121e+07
4.13331e+07
3.13194e+07
2.74691e+07
2.54973e+07
2.2677e+07
2.52374e+07
2.58663e+07
2.35862e+07
2.4442e+07
2.19628e+07
2.88143e+07
3.29468e+07
4.95285e+07
4.284e+07
2.51522e+07
2.94983e+07
2.60131e+07
2.67265e+07
3.16463e+07
3.62834e+07
3.69096e+07
3.94204e+07
3.31969e+07
1.89673e+07
2.21423e+07
1.90945e+07
2.53421e+07
3.17796e+07
2.60181e+07
3.14215e+07
3.92825e+07
3.38892e+07
3.56252e+07
2.51532e+07
2.87367e+07
3.877e+07
2.62508e+07
2.66365e+07
1.75939e+07
1.6387e+07
9.05649e+06
1.62035e+07
1.93499e+07
4.41861e+07
5.30351e+07
5.02773e+07
4.16474e+07
4.59422e+07
4.7691e+07
2.65873e+07
2.9847e+07
1.45273e+07
2.21061e+07
1.92758e+07
3.38673e+07
4.33323e+07
7.08984e+07
6.95916e+07
3.82057e+07
6.53387e+07
3.77555e+07
6.17537e+07
8.59317e+07
8.56939e+07
5.4637e+07
4.56716e+07
3.23636e+07
2.58816e+07
3.67201e+07
1.16586e+07
5.63298e+06
-3.23299e+06
-7.18248e+06
-7.72407e+06
2.86425e+07
1.54323e+07
2.45004e+07
4.50841e+07
4.97645e+07
3.42699e+07
5.97857e+06
-2.51111e+07
-3.15958e+07
-1.31518e+07
1.74397e+07
-53222.5
2.09764e+07
1.57811e+07
2.91245e+07
4.03352e+07
3.23292e+07
2.29119e+07
2.09602e+07
2.64039e+07
1.63438e+07
7.6499e+06
1.56278e+07
1.85782e+07
1.91992e+07
3.05603e+07
2.57194e+07
1.60374e+07
1.87157e+07
1.40111e+07
-687850
9.5884e+06
2.16311e+07
1.16592e+07
1.55212e+07
1.46362e+07
1.80447e+07
1.49464e+07
1.19581e+07
1.20111e+07
1.81813e+07
1.21861e+07
1.02695e+07
7.67795e+06
1.39447e+07
1.3367e+07
1.62256e+07
1.98684e+07
2.65283e+07
1.67365e+07
1.41064e+07
3.921e+07
2.24339e+07
2.61764e+07
2.20345e+07
2.77606e+07
4.20428e+07
2.03374e+07
1.93028e+07
2.85719e+07
4.1025e+07
4.92649e+07
5.8481e+07
5.63666e+07
6.25291e+07
5.06294e+07
5.05573e+07
4.4494e+07
2.87093e+07
1.84014e+07
1.87949e+07
1.29037e+07
2.33728e+07
1.65911e+07
1.70086e+07
1.91144e+07
2.65596e+07
1.64062e+07
1.55407e+07
2.21879e+07
2.88146e+07
4.35853e+07
4.042e+07
4.1789e+07
2.85325e+07
4.17324e+07
4.06324e+07
3.52583e+07
3.1934e+07
2.50135e+07
2.50909e+07
2.05482e+07
3.5768e+07
2.82189e+07
2.25181e+07
1.99216e+07
3.54894e+07
2.89654e+07
1.92897e+07
1.45752e+07
1.16371e+07
8.33308e+06
1.10294e+07
1.34514e+07
1.42407e+07
2.03287e+07
2.32657e+07
2.59388e+07
3.42042e+07
2.99303e+07
2.71967e+07
2.73407e+07
4.23748e+07
4.57002e+07
5.0918e+07
5.25993e+07
4.51874e+07
3.2972e+07
3.41388e+07
3.2461e+07
3.20994e+07
4.024e+07
4.30404e+07
3.82789e+07
5.04253e+07
6.90779e+07
4.59337e+07
5.01722e+07
6.21805e+07
7.91542e+07
8.32785e+07
1.16796e+08
1.43586e+08
1.76354e+08
1.54228e+08
1.7634e+08
2.02243e+08
1.81643e+08
1.99212e+08
1.89811e+08
1.95976e+08
2.21615e+08
2.75058e+08
3.03543e+08
2.57935e+08
2.10684e+08
2.03366e+08
2.02174e+08
1.7568e+08
1.88636e+08
2.42759e+08
2.16175e+08
1.78877e+08
1.88717e+08
1.71439e+08
2.05533e+08
2.51062e+08
2.8986e+08
3.31416e+08
2.80051e+08
2.53611e+08
2.49866e+08
2.37769e+08
2.39438e+08
1.94196e+08
1.81229e+08
1.71607e+08
1.29723e+08
1.60733e+08
1.19546e+08
1.15518e+08
1.34973e+08
1.581e+08
1.6766e+08
1.93208e+08
2.14706e+08
1.47165e+08
1.6076e+08
1.82283e+08
1.75254e+08
1.35769e+08
1.31388e+08
1.13947e+08
9.58323e+07
8.11916e+07
7.97062e+07
8.41063e+07
1.11296e+08
9.93509e+07
1.37742e+08
1.28323e+08
1.03642e+08
1.03837e+08
8.10894e+07
7.08638e+07
7.383e+07
1.07495e+08
1.09328e+08
1.19868e+08
9.94383e+07
7.81958e+07
7.66246e+07
8.38465e+07
7.62135e+07
7.82974e+07
9.93873e+07
1.24702e+08
1.34578e+08
7.86072e+07
6.64366e+07
4.36809e+07
5.00178e+07
3.65996e+07
6.21983e+07
7.71401e+07
6.768e+07
7.35993e+07
8.14262e+07
7.33748e+07
6.64212e+07
6.03898e+07
5.95435e+07
6.36707e+07
7.25158e+07
8.89655e+07
9.87665e+07
9.00046e+07
1.15018e+08
1.71732e+08
1.22032e+08
1.44163e+08
1.21908e+08
1.29522e+08
1.33187e+08
1.34767e+08
1.0757e+08
9.92449e+07
1.26037e+08
1.15519e+08
1.07393e+08
9.88721e+07
1.03042e+08
1.14388e+08
8.72391e+07
1.14661e+08
8.90502e+07
7.57179e+07
8.07484e+07
9.92472e+07
1.11598e+08
1.03902e+08
1.01786e+08
1.17844e+08
1.47278e+08
1.82818e+08
1.80074e+08
1.57709e+08
1.66525e+08
1.34679e+08
1.27234e+08
1.68593e+08
1.63909e+08
1.54604e+08
1.66841e+08
1.82963e+08
2.17547e+08
2.63329e+08
2.38418e+08
2.89653e+08
2.78545e+08
2.8919e+08
2.93443e+08
3.41992e+08
3.04637e+08
3.63108e+08
3.52339e+08
3.22236e+08
3.30522e+08
2.61932e+08
2.02868e+08
1.80019e+08
1.67904e+08
1.61432e+08
1.68132e+08
1.84013e+08
1.46706e+08
1.31994e+08
1.91024e+08
1.93425e+08
1.57392e+08
1.89332e+08
1.53012e+08
1.25667e+08
1.18615e+08
1.51939e+08
1.37026e+08
1.80338e+08
1.41765e+08
1.50472e+08
1.48811e+08
1.32619e+08
1.54554e+08
1.51238e+08
1.85764e+08
1.59036e+08
1.33127e+08
1.42971e+08
1.64058e+08
1.54948e+08
1.43628e+08
1.32314e+08
1.20715e+08
1.12655e+08
9.23961e+07
9.05268e+07
8.38319e+07
8.38603e+07
8.59689e+07
8.62747e+07
9.02879e+07
7.08425e+07
7.47527e+07
4.44579e+07
4.29769e+07
6.76563e+07
5.89574e+07
8.28501e+07
8.27568e+07
8.49231e+07
1.06711e+08
1.01707e+08
1.52775e+08
1.52559e+08
1.95515e+08
1.87106e+08
2.23963e+08
2.05565e+08
2.27369e+08
1.52015e+08
1.67047e+08
1.95245e+08
1.778e+08
1.4739e+08
1.20602e+08
1.19708e+08
9.87956e+07
1.17523e+08
1.4056e+08
1.47953e+08
1.5115e+08
1.53559e+08
1.76883e+08
1.5922e+08
1.55919e+08
1.54513e+08
1.61183e+08
1.86152e+08
1.88866e+08
1.83984e+08
2.00612e+08
1.49607e+08
1.64035e+08
1.42513e+08
1.34747e+08
1.30394e+08
1.69366e+08
1.75945e+08
1.90795e+08
1.6678e+08
1.49368e+08
1.45242e+08
1.49406e+08
1.4451e+08
1.37485e+08
1.31272e+08
1.00314e+08
8.57029e+07
8.28926e+07
7.7154e+07
6.53366e+07
4.26129e+07
4.6308e+07
3.22036e+07
2.26908e+07
2.68121e+07
3.10959e+07
4.08388e+07
3.14515e+07
3.08076e+07
2.66122e+07
4.47297e+07
4.83062e+07
5.25255e+07
3.64442e+07
4.75278e+07
5.69906e+07
2.8096e+07
2.93671e+07
2.97673e+07
2.22718e+07
2.55134e+07
4.46496e+07
6.44248e+07
6.47401e+07
7.15613e+07
8.16372e+07
9.72729e+07
9.71707e+07
1.31608e+08
1.64363e+08
1.63254e+08
1.59725e+08
1.73176e+08
1.23683e+08
1.50425e+08
1.59867e+08
1.97573e+08
2.64671e+08
2.60571e+08
3.17455e+08
2.79824e+08
2.80982e+08
3.65013e+08
3.99475e+08
3.8398e+08
3.34333e+08
4.76391e+08
4.43109e+08
5.24108e+08
5.48047e+08
5.73185e+08
5.89008e+08
4.65606e+08
5.05383e+08
5.8236e+08
6.06195e+08
6.16484e+08
5.72883e+08
5.36631e+08
6.10385e+08
7.60881e+08
7.45765e+08
8.11806e+08
8.04021e+08
7.61338e+08
6.24983e+08
5.68737e+08
5.87784e+08
6.3808e+08
6.06488e+08
5.78872e+08
4.83752e+08
5.62102e+08
5.1277e+08
5.13309e+08
4.80097e+08
4.53229e+08
5.26091e+08
4.74975e+08
4.37435e+08
3.71899e+08
3.5851e+08
3.1432e+08
3.3783e+08
3.73102e+08
3.64115e+08
3.98346e+08
5.38945e+08
4.74073e+08
5.27293e+08
4.86577e+08
5.29934e+08
4.90491e+08
4.62543e+08
4.63188e+08
4.78607e+08
4.39296e+08
3.8803e+08
4.01357e+08
4.12479e+08
3.22846e+08
2.76564e+08
3.26149e+08
2.62106e+08
2.85809e+08
2.40583e+08
1.93428e+08
1.79701e+08
1.76826e+08
1.38299e+08
1.34098e+08
1.13507e+08
9.95066e+07
9.52898e+07
1.12862e+08
1.15292e+08
1.19105e+08
1.49278e+08
1.87563e+08
1.78118e+08
1.90471e+08
1.76025e+08
2.10393e+08
1.97039e+08
2.03679e+08
2.54812e+08
2.25417e+08
2.47814e+08
2.33097e+08
2.49005e+08
3.06069e+08
2.35595e+08
1.96856e+08
2.28428e+08
2.58612e+08
3.04015e+08
2.70627e+08
2.73706e+08
2.27382e+08
2.07383e+08
2.0511e+08
2.40801e+08
3.18587e+08
3.47268e+08
2.93549e+08
2.94119e+08
2.24978e+08
2.68081e+08
2.71601e+08
2.35246e+08
2.64609e+08
2.77291e+08
2.25796e+08
1.85388e+08
1.64115e+08
1.74161e+08
1.43455e+08
1.63519e+08
1.64966e+08
1.26705e+08
1.14995e+08
1.29612e+08
1.04645e+08
1.07974e+08
1.25533e+08
1.32914e+08
1.28412e+08
1.32812e+08
9.64753e+07
6.32399e+07
5.91742e+07
5.7588e+07
9.49934e+07
6.19658e+07
4.52213e+07
3.46508e+07
3.42443e+07
1.73934e+07
1.65797e+07
1.1603e+07
2.32845e+07
1.43778e+07
2.06796e+07
9.30809e+06
6.23505e+06
1.90237e+07
1.24957e+07
3.28277e+07
2.76574e+07
2.69954e+07
3.94695e+07
4.3407e+07
3.74461e+07
1.63837e+07
6.07884e+06
7.02728e+06
5.6809e+06
1.19204e+06
5.08716e+06
-6.92905e+06
-1.00229e+07
-1.30676e+07
1.57363e+07
2.57628e+07
8.88578e+06
-44171.7
-1.03831e+06
5.44865e+06
-4.05609e+06
2.34271e+06
9.63643e+06
1.05884e+07
1.21644e+07
1.0322e+07
2.43897e+07
2.12304e+07
2.08176e+07
3.09528e+07
3.4491e+07
2.93062e+07
5.14438e+07
3.63704e+07
3.36477e+07
2.8112e+07
2.05216e+07
2.16938e+07
2.40452e+07
2.18181e+07
2.22603e+07
1.96189e+07
1.87122e+07
2.31531e+07
3.84547e+07
4.47211e+07
3.66174e+07
2.29881e+07
2.58764e+07
3.70358e+07
4.56944e+07
4.87356e+07
4.92452e+07
4.62318e+07
4.36401e+07
4.93605e+07
4.28702e+07
3.0488e+07
2.04919e+07
2.77609e+07
3.32043e+07
2.44499e+07
1.92635e+07
1.73656e+07
1.79272e+07
1.04442e+07
9.1538e+06
1.06919e+07
5.45763e+06
2.51638e+06
355774
3.06923e+06
1.61467e+06
456432
-570411
523368
895484
2.03233e+06
2.4985e+06
1.31928e+06
1.95677e+06
1.68832e+06
1.50336e+06
3.88822e+06
9.79358e+06
1.61887e+07
6.81852e+06
4.20321e+06
476817
180567
1.78243e+06
-5.44124e+06
-4.96778e+06
-5.12709e+06
-3.63755e+06
-3.20262e+06
-2.41883e+06
-5.34422e+06
-3.23645e+06
-5.06819e+06
-2.11704e+06
-1.58374e+06
-1.2739e+06
-465200
-252111
708613
2.81919e+06
3.27538e+06
4.87432e+06
8.34953e+06
8.55217e+06
6.00987e+06
3.94318e+06
4.43872e+06
8.53337e+06
3.7453e+06
3.112e+06
5.04275e+06
6.16972e+06
3.72628e+06
3.50691e+06
6.64714e+06
3.00745e+06
1.88065e+06
-2.19295e+06
-3.43236e+06
-3.99148e+06
-6.10545e+06
-6.83057e+06
-5.67868e+06
-4.81198e+06
-2.39997e+06
-1.64129e+06
-2.25627e+06
-1.39248e+06
-767614
-425224
-860363
462575
752842
-2.43275e+06
-867733
1.44142e+06
2.14295e+06
6.49982e+06
5.38127e+06
7.01078e+06
-1.37019e+06
3.26942e+06
7.30881e+06
1.31694e+07
7.31318e+06
1.67075e+07
2.24761e+07
2.92368e+07
2.00622e+07
2.61593e+07
2.11557e+07
2.12173e+07
1.78985e+07
2.69359e+07
1.57541e+07
1.20428e+07
7.4937e+06
1.5263e+07
2.97584e+07
3.2313e+07
3.76744e+07
2.36565e+07
2.81313e+07
3.62195e+07
1.95058e+07
7.70228e+06
8.22539e+06
9.8236e+06
1.18704e+07
7.54167e+06
1.08531e+07
6.37206e+06
-2.0554e+06
4.5749e+06
-31322.7
3.44222e+06
-944124
9.63891e+06
4.24842e+06
6.56824e+06
1.86533e+06
-3.25215e+06
6.02346e+06
8.04977e+06
1.76376e+07
1.46192e+07
1.56671e+07
1.69791e+07
1.98569e+07
3.18848e+07
3.56469e+07
2.72634e+07
4.11372e+07
4.67618e+07
3.14788e+07
2.97436e+07
2.86676e+07
3.16968e+07
3.09491e+07
3.3362e+07
3.59687e+07
3.29854e+07
3.74483e+07
5.49039e+07
4.51519e+07
3.54745e+07
3.15727e+07
2.56109e+07
2.47292e+07
2.11257e+07
2.4092e+07
2.00634e+07
2.22856e+07
2.13839e+07
1.69661e+07
1.715e+07
2.20355e+07
2.14365e+07
2.39171e+07
2.81406e+07
2.15896e+07
2.10364e+07
2.35901e+07
2.22878e+07
2.63983e+07
2.73685e+07
1.9287e+07
1.62266e+07
2.07402e+07
2.07626e+07
2.23136e+07
1.92865e+07
3.06343e+07
1.64757e+07
1.86482e+07
2.06507e+07
2.39141e+07
1.77918e+07
1.29423e+07
2.8265e+06
11449.1
1.41979e+06
-2.70239e+06
-1.49012e+06
-1.74838e+06
-831644
-640299
-4.23319e+06
-4.47541e+06
-4.40521e+06
-2.7378e+06
-763724
1.0433e+06
380671
2.24188e+06
-3.57041e+06
-311938
3.93906e+06
-220926
1.76931e+06
1.77891e+06
-1.38835e+06
655514
1.50067e+06
-745085
-662724
-1.24794e+06
-35536.1
-2.94021e+06
-2.09929e+06
-1.01904e+06
-356823
-1.56269e+06
-847153
-1.91056e+06
-8.77504e+06
-6.77002e+06
-8.53766e+06
-9.72443e+06
-1.29399e+07
-9.29598e+06
-1.72603e+07
-1.17e+07
-1.42977e+07
-1.04219e+07
-8.73123e+06
-4.76521e+06
-5.74287e+06
-1.38942e+06
-3.19936e+06
-1.74452e+06
-843089
-7.14423e+06
-5.3379e+06
-6.7046e+06
-5.54423e+06
-3.73515e+06
-2.37005e+06
-3.4752e+06
-1.65114e+06
-1.21532e+06
-1.89596e+06
-3.36134e+06
-2.4071e+06
-4.52552e+06
-3.11595e+06
-4.27742e+06
-1.38026e+06
-2.67768e+06
-3.93945e+06
1.13932e+06
986397
-2.1576e+06
-1.08036e+06
1.67544e+06
-4.35592e+06
-1.55779e+06
894153
-2.44388e+06
-1.26315e+06
-1.24903e+06
1.21149e+06
4.52184e+06
5.09551e+06
2.72756e+06
-3.04474e+06
147350
-5.4359e+06
-2.2483e+06
-1.91052e+06
-2.1274e+06
-1.9202e+06
-3.66986e+06
-2.26288e+06
3.44229e+06
768564
-593441
-3.70771e+06
-5.3504e+06
-1.26979e+07
-323145
-1.31792e+07
-1.52284e+07
-1.62972e+07
-1.39315e+07
-1.35796e+07
-5.1173e+06
-5.92451e+06
-5.03214e+06
-1.25597e+07
-2.21331e+07
-1.36357e+07
-4.89598e+06
-9.42625e+06
-1.09064e+07
-1.18569e+07
-8.79518e+06
3.40591e+06
2.17793e+06
5.98957e+06
-5.72758e+06
-9.15401e+06
-5.51675e+06
8.33618e+06
3.02328e+06
1.01739e+07
8.15412e+06
1.68189e+07
2.44325e+07
1.00928e+07
1.75897e+07
2.1688e+07
1.82626e+07
1.4781e+07
1.72009e+06
1.16699e+07
1.023e+07
1.5664e+07
1.20394e+07
1.08623e+07
4.4775e+06
7.68494e+06
8.65475e+06
6.41158e+06
6.16982e+06
1.57102e+06
-4.4101e+06
-4.35582e+06
-7.61548e+06
-2.0824e+06
-1.93346e+06
-3.81843e+06
-7.87454e+06
-6.09563e+06
-5.926e+06
-5.74746e+06
-908238
-2.97491e+06
-8.46768e+06
-9.8318e+06
-9.2052e+06
-1.67203e+07
-1.7966e+07
-9.90418e+06
-1.1796e+07
-7.10588e+06
-8.51932e+06
-1.21103e+07
-9.00141e+06
-1.03925e+07
-1.24504e+07
-4.70729e+06
-9.15193e+06
-3.71876e+06
-6.68131e+06
-3.54252e+06
-4.51413e+06
-7.45887e+06
-7.34286e+06
-3.51807e+06
-2.50045e+06
-6.09211e+06
-5.85921e+06
-5.66622e+06
-4.14627e+06
-2.59391e+06
-4.9509e+06
-5.58601e+06
-9.11149e+06
-7.86854e+06
-8.57706e+06
-6.41086e+06
-2.56933e+06
1.87838e+06
1.72571e+06
-578630
2.36744e+06
412250
2.78065e+06
1.91132e+06
2.3254e+06
3.22026e+06
5.84272e+06
2.58193e+06
159960
1.87941e+06
2.98967e+06
3.80217e+06
105566
-3.53718e+06
-2.87589e+06
-2.96468e+06
-4.13135e+06
-2.4704e+06
-2.2321e+06
-1.94599e+06
-2.58479e+06
-3.56631e+06
-2.84252e+06
-4.6093e+06
-668066
-2.40519e+06
-7.7611e+06
-7.69591e+06
-6.58998e+06
-1.26976e+07
-8.18716e+06
-1.05433e+07
-3.29715e+06
1.27217e+06
-2.16199e+06
-3.32084e+06
-5.70863e+06
-1.05873e+07
-1.54589e+07
-1.17796e+07
-8.03338e+06
-1.14306e+07
-1.04443e+07
-1.13789e+07
-1.0198e+07
-7.32998e+06
-1.38493e+07
-1.27095e+07
-1.21353e+07
-1.4295e+07
-1.28266e+07
-1.83479e+07
-2.5542e+07
-2.19555e+07
-1.64404e+07
-7.90259e+06
-1.35737e+07
-4.73812e+06
-3.10385e+06
-2.35243e+06
-2.84561e+06
399930
477047
3.47337e+06
3.69132e+06
2.72717e+06
3.22851e+06
9.11884e+06
4.58846e+06
8.88685e+06
8.89803e+06
8.20442e+06
9.20662e+06
1.93479e+06
3.14419e+06
-1.6535e+06
-440890
1.18009e+07
9.12073e+06
1.0657e+07
1.00922e+07
2.11386e+06
4.43707e+06
7.35502e+06
9.3972e+06
1.41724e+07
7.9795e+06
-1.46964e+06
1.87097e+06
632115
371618
5.37223e+06
3.5806e+06
6.07014e+06
4.07641e+06
1.25731e+07
1.02354e+07
1.38366e+07
1.6661e+07
1.15362e+07
6.27778e+06
1.1056e+07
1.3187e+07
2.09844e+07
2.87825e+07
4.00303e+07
4.02777e+07
4.14152e+07
4.4622e+07
5.57929e+07
5.46472e+07
5.57609e+07
3.08287e+07
3.24825e+07
2.66083e+07
3.68899e+07
3.97818e+07
4.43308e+07
3.51457e+07
4.08561e+07
5.02887e+07
6.67549e+07
5.69469e+07
5.34825e+07
4.76916e+07
5.71187e+07
7.1365e+07
7.25232e+07
6.89369e+07
6.72924e+07
8.19105e+07
7.6787e+07
9.08116e+07
1.0259e+08
8.9249e+07
8.26428e+07
7.14786e+07
5.8831e+07
6.10845e+07
9.61835e+07
1.05857e+08
1.05163e+08
8.81679e+07
8.31816e+07
7.02305e+07
6.07814e+07
5.55895e+07
5.33104e+07
7.29837e+07
9.8551e+07
1.17495e+08
1.24577e+08
1.21614e+08
1.31447e+08
1.07816e+08
1.5722e+08
1.685e+08
1.44258e+08
1.34543e+08
1.58081e+08
1.65623e+08
1.24805e+08
1.59273e+08
1.47909e+08
1.55803e+08
1.86653e+08
1.91329e+08
2.20405e+08
2.76762e+08
2.73683e+08
3.40017e+08
3.10843e+08
2.7406e+08
2.23763e+08
2.13341e+08
1.88498e+08
1.75663e+08
1.9628e+08
1.78468e+08
1.83576e+08
1.74008e+08
1.51449e+08
1.1168e+08
1.47608e+08
1.66594e+08
1.52269e+08
1.54053e+08
1.8083e+08
1.64723e+08
1.8016e+08
2.102e+08
2.00181e+08
1.64691e+08
2.27315e+08
2.61732e+08
2.4332e+08
2.22133e+08
2.37197e+08
2.66129e+08
2.49131e+08
2.78012e+08
2.71088e+08
2.92199e+08
2.67317e+08
2.1407e+08
2.25239e+08
2.05167e+08
2.06524e+08
2.57992e+08
2.8336e+08
2.39241e+08
2.34362e+08
2.44333e+08
2.42574e+08
1.95044e+08
1.20984e+08
9.6163e+07
8.60476e+07
8.65775e+07
6.77019e+07
8.14683e+07
7.70534e+07
6.53723e+07
7.19897e+07
8.28858e+07
8.59924e+07
7.53668e+07
6.97155e+07
8.63342e+07
9.86259e+07
1.19927e+08
9.51291e+07
1.17593e+08
1.33048e+08
1.26612e+08
1.26272e+08
1.26806e+08
1.04154e+08
1.1546e+08
1.27663e+08
1.3708e+08
1.16404e+08
8.017e+07
7.93986e+07
6.32589e+07
6.82902e+07
8.21003e+07
6.35358e+07
5.57835e+07
5.69297e+07
3.54414e+07
2.37885e+07
2.67983e+07
2.02562e+07
8.44225e+06
8.43597e+06
8.99283e+06
1.37976e+07
1.00686e+07
3.26119e+06
1.61119e+06
5.92122e+06
8.04192e+06
3.76211e+06
8.96484e+06
765883
-1.82464e+06
-1.94553e+06
-4.21468e+06
-2.87521e+06
-1.19047e+06
-1.70392e+06
-1.47083e+06
-1.39578e+06
-1.03932e+06
815857
920507
3.55716e+06
1.58487e+06
1.40252e+06
941465
2.12223e+06
404668
-2.27356e+06
-3.9163e+06
-4.83984e+06
-4.69584e+06
-5.31108e+06
-7.48239e+06
-4.16015e+06
-1.67187e+06
-6.5705e+06
-7.26634e+06
-5.40963e+06
-7.06403e+06
-8.54724e+06
-1.35722e+07
-1.36528e+07
-1.23532e+07
-1.35033e+07
-1.66246e+07
-5.70499e+06
5.04944e+06
6.82055e+06
2.46369e+06
-2.16427e+06
-723419
1.41075e+07
9.03277e+06
1.2821e+07
8.59363e+06
3.06618e+06
5.67693e+06
1.29627e+07
1.75162e+07
1.53294e+07
5.55191e+06
3.98796e+06
2.686e+06
5.38674e+06
9.08291e+06
1.91441e+07
1.1802e+07
1.09044e+07
4.03235e+06
2.66929e+06
1.74286e+06
1.62854e+06
5.34521e+06
3.82806e+06
2.98751e+06
4.64408e+06
4.9924e+06
2.19991e+06
886434
1.59048e+06
-1.07507e+06
-1.83345e+06
-1.18155e+06
-1.26582e+06
-1.77713e+06
-1.6611e+06
-2.05682e+06
-569738
-2.15931e+06
-1.0386e+06
-332581
-541846
-1.19786e+06
-2.51233e+06
-4.53239e+06
-3.40291e+06
-4.33164e+06
-3.87514e+06
-7.06763e+06
-5.08121e+06
-4.54828e+06
-6.08514e+06
-5.22552e+06
-5.39927e+06
-3.3989e+06
-1.86305e+06
-2.13611e+06
-5.27146e+06
-4.65288e+06
-2.58272e+06
-2.21448e+06
-1.10781e+06
-2.46257e+06
-4.14396e+06
-4.99366e+06
-2.06643e+06
-1.98541e+06
-4.01562e+06
-2.04581e+06
-2.32527e+06
-958682
-767612
-221720
-1.33614e+06
-2.6788e+06
-4.63065e+06
-4.77541e+06
-3.40115e+06
-3.00656e+06
-1.24665e+06
127162
1.44887e+06
-821333
-1.1782e+06
422007
-305586
-506174
741358
2.4622e+06
-2.15214e+06
-474295
-454538
1.2264e+06
2.97471e+06
4.27709e+06
8.92931e+06
9.37661e+06
1.03342e+07
1.68644e+07
1.96321e+07
2.29965e+07
2.66121e+07
1.65515e+07
1.26382e+07
1.39927e+07
2.36092e+07
1.96212e+07
1.0026e+07
7.24356e+06
4.11945e+06
5.52622e+06
1.74833e+07
2.34935e+07
1.22509e+07
8.44335e+06
1.12172e+07
9.67201e+06
1.30875e+07
1.57061e+07
1.16807e+07
1.38036e+07
1.7942e+07
1.65195e+07
1.88819e+07
1.45375e+07
1.52446e+07
1.20026e+07
3.94466e+06
6.6645e+06
1.33406e+07
2.40336e+07
2.57814e+07
2.55147e+07
2.54036e+07
3.55705e+07
4.9532e+07
4.6032e+07
4.11677e+07
3.60174e+07
3.2511e+07
2.14828e+07
1.44418e+07
1.08033e+07
1.14813e+07
5.27284e+06
1.03165e+07
1.15571e+07
1.43718e+07
1.41055e+07
1.52507e+07
1.25959e+07
1.76409e+07
1.55641e+07
1.31434e+07
1.06606e+07
5.72065e+06
8.87142e+06
1.50954e+07
1.1903e+07
1.38246e+07
1.85718e+07
3.20732e+07
4.94947e+07
5.19754e+07
4.67959e+07
6.55299e+07
5.31702e+07
5.90865e+07
4.99223e+07
5.90589e+07
5.66936e+07
3.08616e+07
1.77355e+07
8.9343e+06
1.51672e+07
1.71063e+07
1.63695e+07
-910961
1.3965e+06
-221530
1.77181e+07
6.05402e+06
1.13438e+07
1.83878e+07
1.77853e+07
1.29967e+07
1.35892e+07
1.92544e+07
1.99894e+07
2.11825e+07
1.81303e+07
8.07221e+06
1.49101e+07
2.30102e+07
3.30709e+07
2.30459e+07
1.73652e+07
1.22709e+07
1.34881e+07
1.15526e+07
1.21767e+07
1.06124e+07
1.29015e+07
9.2795e+06
2.43842e+07
3.1804e+07
2.55818e+07
3.47036e+07
2.98738e+07
3.91e+07
2.93268e+07
1.95594e+07
2.07607e+07
1.8886e+07
2.09896e+07
1.98613e+07
3.97785e+07
4.66808e+07
5.9303e+07
5.5371e+07
3.54451e+07
2.94441e+07
2.02924e+07
2.27421e+07
2.38499e+07
2.34655e+07
3.01146e+07
3.30307e+07
3.75058e+07
5.31366e+07
5.54055e+07
7.20807e+07
6.57519e+07
9.30832e+07
9.67196e+07
8.93759e+07
1.01462e+08
9.82651e+07
1.01859e+08
1.07725e+08
1.01495e+08
1.28249e+08
7.81668e+07
9.127e+07
7.7174e+07
6.49874e+07
6.40383e+07
7.68204e+07
7.96106e+07
6.92401e+07
5.25012e+07
6.24119e+07
7.88799e+07
5.11752e+07
4.67629e+07
4.89615e+07
4.96923e+07
3.16323e+07
2.87275e+07
2.17781e+07
1.74341e+07
2.19519e+07
1.48446e+07
1.81901e+07
1.39938e+07
1.12638e+07
1.43617e+07
1.28136e+07
1.70692e+07
1.54135e+07
1.38663e+07
1.09213e+07
1.84325e+07
2.15725e+07
2.15755e+07
1.82805e+07
1.23584e+07
1.19422e+07
1.35254e+07
9.38174e+06
1.08091e+07
1.36513e+07
2.02609e+07
2.01252e+07
2.64414e+07
3.24063e+07
3.47605e+07
4.94092e+07
5.4665e+07
4.88033e+07
6.38949e+07
6.33591e+07
7.58367e+07
7.07087e+07
8.3447e+07
9.14206e+07
8.55292e+07
8.45665e+07
7.18365e+07
6.27019e+07
5.59498e+07
5.65557e+07
5.35513e+07
7.3197e+07
6.52782e+07
6.77085e+07
8.13638e+07
7.03646e+07
6.01265e+07
3.87169e+07
4.70848e+07
4.55046e+07
4.33365e+07
5.0627e+07
4.11539e+07
3.69073e+07
4.01648e+07
3.87596e+07
3.4949e+07
3.47522e+07
4.59561e+07
3.58654e+07
2.69503e+07
3.59724e+07
4.00921e+07
3.41874e+07
1.88014e+07
1.78315e+07
1.35182e+07
1.41304e+07
1.0768e+07
6.73773e+06
6.81868e+06
1.46501e+07
1.81752e+07
1.29028e+07
1.71274e+07
1.17803e+07
1.11154e+07
1.55964e+07
1.30419e+07
1.30276e+07
1.56499e+07
1.30626e+07
9.93055e+06
1.22591e+07
2.00957e+07
2.5103e+07
1.6124e+07
1.40273e+07
9.10437e+06
9.86471e+06
1.50538e+07
1.01152e+07
1.44177e+07
1.57084e+07
1.20348e+07
1.20518e+07
1.09604e+07
1.04505e+07
1.68152e+07
1.98188e+07
2.45921e+07
2.0382e+07
1.93859e+07
2.35582e+07
4.00748e+07
3.68921e+07
4.84262e+07
4.69394e+07
5.66432e+07
5.924e+07
5.48703e+07
4.39573e+07
4.43871e+07
4.25811e+07
5.37803e+07
6.23914e+07
4.52063e+07
3.11183e+07
2.01976e+07
1.7202e+07
1.86486e+07
2.03463e+07
1.80512e+07
1.19254e+07
9.96792e+06
1.05265e+07
1.14216e+07
1.08857e+07
1.58793e+07
1.36285e+07
9.85994e+06
1.01462e+07
7.36793e+06
1.40096e+07
2.13519e+07
2.66395e+07
3.32553e+07
3.14362e+07
2.80076e+07
3.71271e+07
3.29469e+07
3.09276e+07
4.32817e+07
4.39325e+07
4.24246e+07
6.02905e+07
5.82829e+07
4.07044e+07
4.22202e+07
4.01575e+07
3.9842e+07
3.68718e+07
4.21133e+07
4.2046e+07
3.29547e+07
2.52714e+07
2.34782e+07
2.35422e+07
2.92802e+07
2.80803e+07
2.32837e+07
3.29279e+07
4.26895e+07
6.20002e+07
5.26524e+07
4.69379e+07
5.20014e+07
5.35771e+07
4.80556e+07
5.5551e+07
5.88885e+07
7.84495e+07
6.55319e+07
5.83527e+07
7.41299e+07
7.3682e+07
8.58309e+07
1.18676e+08
9.4154e+07
8.68955e+07
8.40065e+07
7.25889e+07
1.0144e+08
8.45395e+07
7.61996e+07
7.08154e+07
4.89703e+07
3.78501e+07
4.40564e+07
3.01384e+07
4.25265e+07
3.1488e+07
2.92294e+07
3.83697e+07
4.34325e+07
4.44216e+07
4.7973e+07
6.70145e+07
7.57573e+07
5.2526e+07
7.09014e+07
8.89701e+07
8.16641e+07
8.33635e+07
7.67888e+07
6.92144e+07
7.25739e+07
8.33507e+07
8.8271e+07
1.01343e+08
8.83059e+07
8.64995e+07
7.74274e+07
9.32617e+07
8.94171e+07
7.12876e+07
8.57422e+07
7.85389e+07
6.72958e+07
1.27363e+08
1.17867e+08
1.41964e+08
1.23327e+08
1.2381e+08
1.19189e+08
1.18621e+08
1.21415e+08
1.61998e+08
1.52591e+08
1.38654e+08
1.18859e+08
1.1828e+08
1.01099e+08
9.33108e+07
9.58549e+07
7.70881e+07
1.06632e+08
8.21958e+07
1.11958e+08
1.27744e+08
1.41974e+08
1.61062e+08
1.79272e+08
2.12502e+08
2.68964e+08
2.78764e+08
2.6894e+08
3.19147e+08
3.72676e+08
4.61611e+08
4.66047e+08
4.90959e+08
4.4379e+08
4.90633e+08
4.85217e+08
4.47592e+08
4.5899e+08
4.29117e+08
3.98459e+08
4.16908e+08
4.01267e+08
4.13461e+08
3.78206e+08
4.04096e+08
4.40064e+08
4.1077e+08
3.94689e+08
3.29297e+08
3.1959e+08
3.38435e+08
2.66021e+08
3.17823e+08
3.67418e+08
3.23606e+08
3.20414e+08
3.0489e+08
2.61615e+08
2.62304e+08
2.48123e+08
2.47564e+08
2.25257e+08
2.37755e+08
1.72406e+08
1.46649e+08
1.50731e+08
1.80456e+08
1.8894e+08
1.91086e+08
1.70434e+08
1.92176e+08
1.41151e+08
1.46299e+08
1.90909e+08
1.56145e+08
1.54949e+08
1.38213e+08
1.42055e+08
1.50273e+08
1.62147e+08
2.04315e+08
1.97435e+08
1.81716e+08
1.86045e+08
1.87749e+08
1.53579e+08
2.01229e+08
2.47423e+08
2.6812e+08
2.71106e+08
2.39087e+08
2.81031e+08
3.24812e+08
2.99177e+08
2.95756e+08
2.9368e+08
3.5752e+08
3.83971e+08
3.9029e+08
3.97985e+08
4.25693e+08
3.65513e+08
3.65401e+08
3.32031e+08
3.47115e+08
3.19276e+08
2.85657e+08
2.14634e+08
2.32254e+08
2.47395e+08
3.03062e+08
3.03771e+08
3.0324e+08
3.18314e+08
2.69356e+08
2.80183e+08
2.94268e+08
3.22025e+08
2.8299e+08
2.88802e+08
2.63949e+08
2.55158e+08
2.34094e+08
1.93481e+08
2.23157e+08
2.17101e+08
1.7704e+08
1.54557e+08
1.32476e+08
1.56e+08
1.39219e+08
1.46145e+08
1.50647e+08
1.80376e+08
2.01299e+08
2.0978e+08
2.28442e+08
2.21338e+08
1.99819e+08
2.11333e+08
1.90483e+08
1.43669e+08
1.85368e+08
2.09982e+08
1.59702e+08
2.00282e+08
2.03904e+08
1.74788e+08
1.44941e+08
1.16994e+08
9.7424e+07
7.85455e+07
8.13555e+07
5.75956e+07
6.87469e+07
6.36458e+07
8.96347e+07
8.4567e+07
1.21048e+08
1.05436e+08
1.11121e+08
1.24638e+08
1.28654e+08
1.06318e+08
1.18524e+08
1.02079e+08
1.02046e+08
1.02102e+08
8.57686e+07
9.44743e+07
8.41946e+07
7.90175e+07
7.19017e+07
6.83383e+07
4.81961e+07
6.50302e+07
7.2754e+07
8.37348e+07
8.98388e+07
6.89497e+07
8.59502e+07
6.63913e+07
7.1353e+07
6.97975e+07
9.20105e+07
8.75823e+07
8.805e+07
8.60255e+07
1.19108e+08
1.221e+08
1.08821e+08
8.16921e+07
1.23952e+08
1.1624e+08
1.21603e+08
1.24162e+08
1.42149e+08
1.78076e+08
1.78799e+08
1.39786e+08
1.62083e+08
1.39005e+08
1.79096e+08
1.69891e+08
1.7208e+08
1.30986e+08
1.03582e+08
9.57961e+07
1.24175e+08
1.32343e+08
1.4847e+08
1.4459e+08
1.60017e+08
1.89951e+08
1.80735e+08
1.75257e+08
1.59618e+08
2.12567e+08
2.22283e+08
2.13258e+08
1.68884e+08
1.74071e+08
1.40781e+08
1.24874e+08
1.05338e+08
1.03953e+08
1.04133e+08
9.73518e+07
1.35642e+08
1.15164e+08
1.07431e+08
9.92694e+07
1.01118e+08
1.07627e+08
1.08842e+08
8.70215e+07
1.08646e+08
9.221e+07
7.45092e+07
8.45083e+07
9.70458e+07
7.49441e+07
8.17475e+07
7.97306e+07
6.51699e+07
9.47441e+07
8.2407e+07
1.01604e+08
1.2878e+08
1.38719e+08
1.11447e+08
8.817e+07
8.80402e+07
1.17793e+08
1.15604e+08
1.61194e+08
1.73558e+08
2.03488e+08
2.19002e+08
2.41541e+08
2.9946e+08
2.96999e+08
2.78945e+08
2.64056e+08
3.1359e+08
3.23504e+08
3.67131e+08
2.93656e+08
1.96485e+08
1.91139e+08
1.63066e+08
2.05843e+08
2.29206e+08
1.76476e+08
1.64859e+08
1.77911e+08
1.72759e+08
1.74181e+08
2.21746e+08
2.47661e+08
1.99488e+08
1.47317e+08
1.04915e+08
1.25668e+08
1.29355e+08
1.02039e+08
1.19289e+08
1.05156e+08
8.72898e+07
7.58837e+07
6.96723e+07
5.89348e+07
4.72035e+07
6.91168e+07
6.7542e+07
6.32319e+07
4.91884e+07
5.39986e+07
4.46871e+07
4.81529e+07
4.42192e+07
3.97858e+07
2.67554e+07
2.68782e+07
3.07222e+07
3.85248e+07
3.21387e+07
3.70593e+07
3.86396e+07
4.37311e+07
4.09717e+07
4.80828e+07
7.02567e+07
5.32604e+07
5.09469e+07
4.20252e+07
4.13933e+07
4.00284e+07
4.93532e+07
5.18513e+07
3.93469e+07
3.91296e+07
3.78759e+07
3.668e+07
4.08124e+07
2.88599e+07
3.14955e+07
3.24838e+07
2.91983e+07
3.28713e+07
4.05014e+07
7.12386e+07
7.6522e+07
7.01181e+07
7.46163e+07
1.00933e+08
1.06824e+08
9.62896e+07
9.96192e+07
1.00156e+08
9.06164e+07
1.28239e+08
1.31143e+08
1.45169e+08
1.61313e+08
1.81941e+08
1.17629e+08
1.2184e+08
7.32908e+07
5.26747e+07
5.85335e+07
7.8038e+07
8.30298e+07
8.80281e+07
9.4501e+07
1.00666e+08
9.49872e+07
9.78405e+07
1.30164e+08
1.52857e+08
1.40446e+08
1.49328e+08
1.29194e+08
1.3599e+08
9.06955e+07
8.45826e+07
9.86948e+07
1.3618e+08
1.20162e+08
1.07874e+08
1.00923e+08
8.47938e+07
1.09225e+08
8.55869e+07
7.12859e+07
5.26758e+07
7.54368e+07
6.01022e+07
3.60464e+07
3.93906e+07
4.11158e+07
4.92926e+07
3.48036e+07
4.48421e+07
6.98336e+07
7.37637e+07
8.80242e+07
7.21339e+07
6.28112e+07
7.55453e+07
6.55459e+07
8.3629e+07
6.52816e+07
5.66427e+07
4.9661e+07
6.01726e+07
4.32723e+07
5.12646e+07
4.56879e+07
4.28152e+07
5.14412e+07
3.1722e+07
2.19911e+07
2.27377e+07
1.8167e+07
1.81416e+07
1.86362e+07
1.74893e+07
2.13109e+07
2.7163e+07
2.60806e+07
2.45511e+07
2.6105e+07
2.47814e+07
3.13372e+07
3.30135e+07
2.43032e+07
2.92656e+07
3.83584e+07
3.91158e+07
3.17879e+07
3.82291e+07
3.39954e+07
4.9446e+07
6.20761e+07
3.5514e+07
4.60895e+07
5.15937e+07
5.86244e+07
4.67357e+07
3.21553e+07
3.13553e+07
2.7108e+07
3.28292e+07
3.1631e+07
2.79379e+07
4.22744e+07
2.67132e+07
2.30576e+07
3.04079e+07
2.7599e+07
2.54804e+07
2.52495e+07
2.73954e+07
2.71818e+07
1.50357e+07
1.34339e+07
1.74356e+07
1.96671e+07
2.08408e+07
2.06147e+07
1.47693e+07
1.21111e+07
1.32656e+07
1.18765e+07
8.48495e+06
7.96377e+06
5.24144e+06
7.5649e+06
1.34165e+07
2.59713e+07
1.54733e+07
7.88691e+06
7.18938e+06
1.31314e+07
2.21585e+07
2.20009e+07
1.81171e+07
1.5234e+07
1.6315e+07
2.05683e+07
1.93578e+07
1.74921e+07
2.24862e+07
1.61226e+07
1.14512e+07
1.08465e+07
1.84136e+07
2.40991e+07
3.53161e+07
4.90111e+07
3.111e+07
3.44302e+07
5.17067e+07
5.37587e+07
4.54935e+07
4.03729e+07
5.29466e+07
4.85592e+07
4.94065e+07
5.89611e+07
4.61163e+07
4.72721e+07
5.89477e+07
5.89583e+07
5.50332e+07
6.75098e+07
4.84838e+07
4.82673e+07
5.22405e+07
6.61083e+07
6.80057e+07
7.08972e+07
6.73238e+07
5.37489e+07
5.37842e+07
5.47284e+07
4.78561e+07
4.60432e+07
4.34989e+07
2.27899e+07
2.6016e+07
2.39489e+07
2.28155e+07
2.728e+07
2.61778e+07
1.14255e+07
9.74034e+06
-988386
4.93595e+06
1.36794e+07
2.1811e+07
2.83702e+07
3.87706e+07
3.81753e+07
1.67807e+07
5.5609e+06
1.08065e+07
7.49066e+06
7.24963e+06
5.86304e+06
-756775
4.76157e+06
1.13865e+07
7.81564e+06
1.81789e+07
1.44028e+07
1.03985e+07
3.76136e+06
8.44522e+06
1.48782e+07
1.85626e+07
8.94361e+06
1.36523e+06
1.02087e+07
1.13051e+07
6.50117e+06
2.73763e+06
628494
4.50628e+06
3.23626e+06
-1.30356e+06
9.85562e+06
8.05547e+06
1.05177e+07
5.7524e+06
3.11799e+06
-3.00704e+06
1.54689e+06
6.10956e+06
2.99258e+06
2.40984e+06
4.85222e+06
-1.45565e+06
-5.04964e+06
2.3321e+06
4.39432e+06
1.06424e+07
1.29495e+07
1.32109e+07
6.37189e+06
1.49161e+07
9.8927e+06
1.60231e+07
9.52833e+06
1.12045e+07
1.23477e+07
1.80617e+07
2.57307e+07
2.96332e+07
2.33196e+07
2.60123e+07
1.89662e+07
2.06581e+07
1.07626e+07
1.10476e+07
8.88903e+06
2.01336e+06
-4.49334e+06
-1.86123e+06
-3.38358e+06
-9.05438e+06
-8.92667e+06
-8.8732e+06
-1.12207e+07
-5.03187e+06
-6.98711e+06
-5.79045e+06
4.34942e+06
7.58779e+06
1.80646e+06
3.30481e+06
5.73058e+06
4.40297e+06
792150
8.06617e+06
8.55547e+06
6.6361e+06
5.34041e+06
3.38313e+06
1.03565e+07
1.29199e+07
1.09261e+07
1.27718e+07
1.41256e+07
1.26515e+07
1.2e+07
1.34597e+07
1.27198e+07
1.02844e+07
9.7009e+06
1.04444e+07
7.18042e+06
5.9959e+06
1.00581e+07
4.08981e+06
3.55073e+06
1.8784e+06
46162.9
3.74497e+06
416615
8.89097e+06
2.05974e+07
2.112e+07
3.07229e+07
2.39256e+07
2.77834e+07
3.33521e+07
3.74581e+07
2.11111e+07
1.97536e+07
1.2007e+07
1.29011e+07
6.08189e+06
5.41839e+06
1.2622e+07
2.07348e+07
2.25824e+07
3.14393e+07
3.15501e+07
4.21444e+07
2.75886e+07
2.72765e+07
5.09989e+07
6.00578e+07
4.19508e+07
3.40497e+07
3.11506e+07
1.8699e+07
2.14698e+07
1.819e+07
1.67491e+07
1.02749e+07
5.71842e+06
2.33764e+06
1.3144e+06
4.20673e+06
2.87599e+06
2.02005e+06
944124
1.9987e+06
2.12572e+06
-444275
-74978.4
-3.24406e+06
-2.52135e+06
-2.85948e+06
-503159
-962679
-3.5096e+06
-6.57337e+06
-6.43117e+06
-2.84516e+06
-1.94812e+06
-33857.8
-938396
-4.76608e+06
-5.36811e+06
-6.73564e+06
-4.45526e+06
-4.21545e+06
-7.52023e+06
-7.10116e+06
-8.04594e+06
-1.54016e+07
-9.26743e+06
-6.08928e+06
-5.96285e+06
-8.32327e+06
-1.13835e+07
-7.95212e+06
-2.98191e+06
-2.48187e+06
-280945
-251433
-301577
-3.06927e+06
-2.03158e+06
93038.9
504067
398705
-2.0697e+06
-1.07345e+06
-2.1594e+06
-3.47348e+06
-2.84829e+06
-1.9946e+06
-3.06972e+06
-4.0252e+06
-832110
-226397
1.6475e+06
-6.03556e+06
-642007
675801
-649455
1.43131e+06
1.22937e+06
-355314
-3.98194e+06
-2.56328e+06
-6.18442e+06
-3.05735e+06
-605020
-2.82605e+06
218252
1.33787e+06
-142038
-661799
-2.07231e+06
-1.96792e+06
-1.49545e+06
-3.81636e+06
-1.30455e+06
21156
2.32615e+06
3.31198e+06
1.11782e+06
-114566
-246196
730751
892314
1.11349e+06
1.15749e+06
793579
1.82691e+06
178347
-501044
-1.26597e+06
480530
-909018
-512002
-176711
-1.18522e+06
-2.74745e+06
476476
-2.36487e+06
-564568
-1.01117e+06
-1.34353e+06
-1.70746e+06
522226
-573177
-1.7485e+06
-1.20375e+06
-1.56191e+06
-1.72915e+06
454573
209848
-261851
-10569.3
-705398
1.09755e+06
2.08217e+06
1.79235e+06
6.36071e+06
3.93495e+06
1.38892e+06
2.36285e+06
53256.6
7.279e+06
5.4524e+06
-553816
7.62433e+06
1.00171e+07
9.64556e+06
3.39788e+06
4.61882e+06
6.4628e+06
6.80198e+06
680067
8.69102e+06
7.51264e+06
5.27076e+06
1.05234e+07
9.68241e+06
1.56233e+07
2.43285e+07
2.5448e+07
1.59104e+07
1.39124e+07
5.13596e+06
1.15933e+07
8.00964e+06
2.72553e+07
3.04001e+07
3.37811e+07
5.23643e+07
5.14821e+07
5.21191e+07
7.36524e+07
5.64965e+07
5.59357e+07
6.90882e+07
4.6296e+07
8.01943e+07
7.67282e+07
6.2839e+07
8.28006e+07
8.93629e+07
9.9903e+07
1.07249e+08
9.6292e+07
6.68806e+07
6.85687e+07
5.10469e+07
4.11021e+07
3.75293e+07
4.08518e+07
5.73009e+07
6.31669e+07
5.95742e+07
5.98786e+07
6.62574e+07
5.70402e+07
6.2775e+07
4.64632e+07
5.94227e+07
5.92643e+07
5.74827e+07
4.99904e+07
5.31577e+07
5.61694e+07
6.1026e+07
7.36516e+07
4.97086e+07
5.11645e+07
5.53815e+07
7.98819e+07
7.46376e+07
8.58846e+07
5.58114e+07
5.05386e+07
4.95789e+07
4.72845e+07
4.85526e+07
3.89328e+07
3.04852e+07
2.97558e+07
2.92202e+07
2.22003e+07
2.83866e+07
4.42271e+07
3.90928e+07
4.27096e+07
5.42471e+07
5.3191e+07
4.8948e+07
3.73153e+07
3.32666e+07
3.84758e+07
4.49786e+07
3.8437e+07
3.67657e+07
3.51705e+07
3.30656e+07
3.61392e+07
2.57196e+07
1.77116e+07
1.64852e+07
1.74728e+07
2.67992e+07
2.80351e+07
3.35816e+07
3.52094e+07
2.48079e+07
1.15605e+07
1.29157e+07
2.20202e+07
1.32112e+07
1.84123e+07
1.96228e+07
1.96713e+07
3.0105e+07
4.00249e+07
3.75327e+07
4.40843e+07
3.4898e+07
2.70813e+07
2.05071e+07
1.7635e+07
2.38207e+07
1.23886e+07
1.24231e+07
2.03141e+07
1.28806e+07
7.37032e+06
8.7884e+06
6.95175e+06
9.06893e+06
1.07603e+07
7.22671e+06
9.94556e+06
1.03935e+07
1.31478e+07
1.31204e+07
1.26011e+07
1.17665e+07
1.6129e+07
1.88481e+07
1.71103e+07
1.40909e+07
1.30662e+07
1.04019e+07
1.26652e+07
1.14437e+07
1.20395e+07
1.79788e+07
3.11422e+07
3.58703e+07
3.23388e+07
2.99557e+07
1.86942e+07
1.74828e+07
1.75764e+07
1.7586e+07
2.09682e+07
1.2018e+07
6.03657e+06
9.05298e+06
4.63818e+06
3.44957e+06
8.54064e+06
8.55402e+06
8.20461e+06
4.80887e+06
3.61274e+06
4.92149e+06
6.24019e+06
1.61104e+06
862421
3.44189e+06
2.55694e+06
-938957
-4.38283e+06
-4.36018e+06
-7.68646e+06
-1.71547e+07
-1.20615e+07
-2.46737e+07
-2.23303e+07
-1.45173e+07
-8.8999e+06
-5.08092e+06
-4.92319e+06
-6.42152e+06
-7.79642e+06
-3.74628e+06
-2.75655e+06
-2.24046e+06
-2.45816e+06
-1.78331e+06
-1.01759e+06
-894645
-1.80577e+06
191766
484046
-820790
390250
2.89379e+06
1.88801e+06
2.37961e+06
1.17139e+06
1.60759e+06
2.32958e+06
3.83453e+06
1.95721e+06
997821
1.1464e+06
404997
-211472
-1.67293e+06
62604.3
-130141
-61267.2
-1.63484e+06
-2.00129e+06
-311038
-138442
869884
1.89924e+06
921453
403535
275675
-239478
297868
1.23873e+06
521687
695851
-618356
-457449
-68498.4
-301830
655185
-239830
260440
433162
-75364.3
160188
1.13115e+06
387651
562055
136565
-692939
8743.85
-1.28635e+06
-3.05119e+06
-2.2938e+06
-124224
-68039.7
179417
1.17944e+06
-428608
-1.99222e+06
-2.9331e+06
531689
4.12908e+06
9.10289e+06
7.2918e+06
5.82873e+06
2.90918e+06
1.34788e+06
460642
973814
1.41426e+06
7.41162e+06
5.05224e+06
8.53992e+06
4.06552e+06
4.95464e+06
2.94122e+06
4.36818e+06
2.17071e+06
4.25339e+06
2.71042e+06
4.32752e+06
5.56307e+06
5.90528e+06
4.75483e+06
2.58925e+06
2.34141e+06
6.07648e+06
1.97763e+06
4.38863e+06
1.40843e+06
2.28845e+06
1.85038e+06
5.50706e+06
8.07601e+06
1.01011e+07
1.38523e+07
1.64418e+07
3.65905e+07
2.27695e+07
1.93028e+07
1.0064e+07
1.73511e+07
1.06713e+07
1.28964e+07
1.5462e+07
1.39568e+07
8.88185e+06
1.24332e+07
7.30267e+06
3.37388e+06
8.07422e+06
5.48475e+06
5.53565e+06
1.63223e+07
1.40198e+07
1.98268e+07
2.0565e+07
1.91712e+07
1.36622e+07
1.11286e+07
9.83162e+06
6.28171e+06
6.12795e+06
4.44638e+06
6.95807e+06
9.94887e+06
5.27446e+06
2.79218e+06
3.47175e+06
2.02308e+06
2.90898e+06
-573617
-768345
-1.34483e+06
-2.07087e+06
-2.95478e+06
-3.4773e+06
-6.17113e+06
-5.91081e+06
-4.22742e+06
-478755
1.75458e+06
-1.34155e+06
-5.28342e+06
-3.62967e+06
-5.4732e+06
-1.10899e+07
-3.44324e+06
-6.24868e+06
-4.16511e+06
-4.91768e+06
-4.53888e+06
-3.69375e+06
-5.47339e+06
-3.92946e+06
-4.78823e+06
-8.95833e+06
-6.58353e+06
-4.6672e+06
-2.66249e+06
-2.64585e+06
-1.81867e+06
-4.61307e+06
-2.9382e+06
-4.51658e+06
-4.46843e+06
-2.23918e+06
-1.26912e+06
-907859
-2.70087e+06
-706377
-621112
-311691
-1.19255e+06
-50944.6
263405
-1.06767e+06
340465
-2.40374e+06
-1.05344e+06
-1.49058e+06
-521265
-441315
-301182
-530487
-2.17489e+06
-2.03007e+06
-2.70919e+06
-893384
-2.77319e+06
-1.99443e+06
-3.12594e+06
-1.23144e+06
-1.50326e+06
-2.92537e+06
-2.49037e+06
-1.00079e+07
-1.06833e+07
-6.04415e+06
-1.50632e+06
124380
-2.21619e+06
-6.16068e+06
-9.87469e+06
-5.8037e+06
-824596
353973
948410
1.67101e+06
692455
677045
1.2353e+06
4.24588e+06
8.69558e+06
1.47713e+07
1.13195e+07
1.16395e+07
1.36326e+07
8.1497e+06
6.78699e+06
1.23998e+07
1.7877e+07
2.62762e+07
1.17025e+07
1.20172e+07
1.31467e+07
1.13484e+07
1.51473e+07
1.54885e+07
1.49137e+07
8.07232e+06
5.3227e+06
1.09358e+07
9.66616e+06
5.36094e+06
6.62721e+06
8.85705e+06
1.89947e+07
1.28446e+07
1.05829e+07
8.78621e+06
271742
-6.40425e+06
-6.56668e+06
-3.21891e+06
-7.02166e+06
-1.46164e+07
-7.6591e+06
-1.68893e+07
-1.71859e+07
-8.48997e+06
-4.82475e+06
-1.06687e+07
-9.3732e+06
-8.63663e+06
-1.50378e+07
-6.07783e+06
-1.13087e+06
-786861
897320
4.25062e+06
1.60107e+06
3.19512e+06
1.07168e+07
1.15065e+07
1.57162e+07
1.88136e+07
2.40688e+07
1.86109e+07
1.68666e+07
2.01914e+07
2.02956e+07
2.44444e+07
2.05067e+07
2.61561e+07
1.87932e+07
3.00879e+07
4.10714e+07
4.90248e+07
5.70718e+07
7.26509e+07
1.22323e+08
1.09855e+08
7.43723e+07
8.09945e+07
7.13232e+07
7.10051e+07
6.73893e+07
8.24176e+07
7.08083e+07
8.11585e+07
9.03291e+07
1.18924e+08
1.09324e+08
9.92031e+07
9.00357e+07
6.57637e+07
4.86254e+07
5.12867e+07
6.43223e+07
6.09964e+07
6.94435e+07
7.20476e+07
8.93341e+07
1.24903e+08
1.26317e+08
1.03619e+08
9.68717e+07
9.16348e+07
8.88403e+07
7.36281e+07
7.64358e+07
7.53649e+07
6.79015e+07
4.9286e+07
3.36717e+07
2.95017e+07
1.9877e+07
2.56888e+07
3.45223e+07
3.672e+07
5.0035e+07
2.96152e+07
3.61166e+07
2.42991e+07
2.33584e+07
2.51577e+07
3.22958e+07
3.78125e+07
4.35369e+07
6.02774e+07
5.47254e+07
4.44838e+07
5.05343e+07
5.00353e+07
4.09368e+07
2.99145e+07
2.87028e+07
3.42601e+07
3.62454e+07
2.69125e+07
2.05802e+07
2.54691e+07
2.35891e+07
2.08644e+07
3.30787e+07
2.23723e+07
3.86012e+07
2.82866e+07
3.82066e+07
4.55297e+07
3.9695e+07
5.71344e+07
6.66005e+07
4.61141e+07
5.45528e+07
7.03866e+07
5.65195e+07
4.14386e+07
4.05069e+07
4.36049e+07
3.99555e+07
4.20981e+07
4.64357e+07
3.48115e+07
4.96798e+07
4.8102e+07
4.07378e+07
3.59213e+07
4.11627e+07
3.3073e+07
3.15555e+07
2.58703e+07
1.69322e+07
1.79257e+07
1.71341e+07
1.4193e+07
1.51542e+07
1.55058e+07
1.47775e+07
1.81511e+07
1.71935e+07
1.51906e+07
1.79936e+07
1.96402e+07
2.932e+07
3.37078e+07
3.56201e+07
4.07123e+07
2.94336e+07
2.86351e+07
2.19353e+07
2.10712e+07
1.56499e+07
8.85006e+06
5.9679e+06
7.63498e+06
1.14356e+07
8.65321e+06
1.59259e+07
1.02532e+07
1.7724e+07
1.57494e+07
1.64014e+07
2.49339e+07
3.93312e+07
3.99642e+07
4.99807e+07
3.97729e+07
4.44036e+07
5.15298e+07
4.22056e+07
5.15977e+07
3.17061e+07
3.70476e+07
3.58714e+07
2.93745e+07
2.38628e+07
3.73939e+07
4.66109e+07
4.16222e+07
3.01981e+07
3.57793e+07
2.99908e+07
2.8686e+07
2.03438e+07
2.55197e+07
4.97581e+07
3.77868e+07
3.78662e+07
4.3121e+07
4.64033e+07
4.73456e+07
4.47957e+07
3.78105e+07
4.23608e+07
5.36635e+07
5.23274e+07
4.34246e+07
3.1178e+07
3.88562e+07
2.94502e+07
3.39044e+07
2.2993e+07
2.66972e+07
2.08988e+07
1.73934e+07
2.71927e+07
2.40843e+07
2.39527e+07
2.5381e+07
1.46359e+07
2.00232e+07
2.01206e+07
2.66139e+07
3.51743e+07
3.25734e+07
2.93698e+07
3.13251e+07
2.71057e+07
2.3733e+07
2.92461e+07
3.55101e+07
4.13698e+07
3.88468e+07
2.9277e+07
1.86865e+07
1.64075e+07
1.37345e+07
1.73545e+07
2.26752e+07
2.64311e+07
2.08077e+07
1.49037e+07
1.00351e+07
1.13675e+07
1.19334e+07
1.31653e+07
1.55018e+07
1.01833e+07
1.69448e+07
1.1465e+07
1.13294e+07
6.55033e+06
5.78989e+06
5.86672e+06
6.03008e+06
8.25153e+06
8.56098e+06
9.17927e+06
4.83282e+06
4.1738e+06
5.91627e+06
7.01277e+06
4.98774e+06
3.07662e+06
5.01853e+06
8.19715e+06
8.20134e+06
6.48628e+06
9.95004e+06
6.1131e+06
1.12131e+07
1.46469e+07
1.81906e+07
1.37224e+07
2.22164e+07
2.12537e+07
1.66264e+07
2.00745e+07
1.4642e+07
1.43226e+07
1.60869e+07
1.2365e+07
2.06681e+07
1.71227e+07
1.45036e+07
2.22124e+07
2.01352e+07
2.26748e+07
2.86212e+07
1.96023e+07
2.35491e+07
1.49068e+07
1.66042e+07
1.53343e+07
1.44491e+07
2.19694e+07
1.82537e+07
8.72431e+06
1.24741e+07
1.33926e+07
1.16854e+07
8.25499e+06
1.09515e+07
1.08342e+07
9.4797e+06
6.91931e+06
1.2369e+07
1.08344e+07
1.25151e+07
1.29368e+07
1.70342e+07
1.77079e+07
1.55355e+07
1.02595e+07
1.001e+07
8.68983e+06
1.71776e+07
1.09104e+07
9.48256e+06
1.82663e+07
1.10759e+07
1.14343e+07
1.87003e+07
1.6641e+07
2.3361e+07
2.83451e+07
3.25281e+07
3.13508e+07
3.05988e+07
4.35522e+07
2.74392e+07
2.49354e+07
2.64603e+07
2.32761e+07
2.2563e+07
1.87424e+07
2.76095e+07
3.19716e+07
3.10081e+07
1.39842e+07
1.88417e+07
1.79403e+07
1.5482e+07
1.6338e+07
1.44882e+07
9.26438e+06
6.13525e+06
3.92346e+06
5.34851e+06
2.39435e+06
409449
791249
-3.93247e+06
250289
328919
-20902.9
-2.36381e+06
-1.63408e+06
-2.82762e+06
1.59249e+06
3.4426e+06
-661273
-1.00947e+06
2.83516e+06
688040
-542916
3.11312e+06
4.20136e+06
2.80307e+06
4.32985e+06
3.88038e+06
2.51811e+06
3.28528e+06
604607
2.28499e+06
2.05814e+06
2.17393e+06
1.17894e+06
-74723.4
-984589
1.33263e+06
940163
-472404
4.34371e+06
-151913
2.53527e+06
1.55095e+06
1.45184e+06
3.6038e+06
1.3191e+07
1.36711e+07
5.02095e+06
8.74403e+06
5.27272e+06
4.52772e+06
6.43169e+06
265598
5.72924e+06
-2.60746e+06
3.28684e+06
2.51703e+06
2.19509e+06
8.71804e+06
1.01863e+07
4.09831e+06
832735
162356
1.6809e+06
582952
-1.17045e+06
1.7412e+06
1.04298e+06
1.53281e+06
-342443
-792122
-2.07892e+06
-2.93429e+06
-2.25448e+06
-2.03212e+06
-3.9395e+06
-6.0521e+06
-600925
255345
99721.1
-1.57098e+06
-2.06315e+06
-3.00339e+06
-3.81176e+06
-4.62453e+06
-1.66575e+06
-1.5188e+06
-1.29812e+06
1.23729e+06
141625
929655
884158
-126559
384657
1.06997e+06
-755719
-865305
150487
95109.1
1.13389e+06
-817375
-336537
-295876
-610875
281897
2.69122e+06
4.37982e+06
1.68934e+06
4.8572e+06
669692
-1.73205e+06
2.95891e+06
3.34453e+06
3.29877e+06
4.63194e+06
4.06275e+06
6.00851e+06
3.963e+06
4.90347e+06
3.68349e+06
2.96518e+06
980460
873385
1.03354e+06
6.70449e+06
5.41288e+06
7.09949e+06
9.95187e+06
8.92166e+06
7.01697e+06
3.23432e+06
-2.19965e+06
-5.81849e+06
-8.06976e+06
101931
36561.7
-2.78263e+06
-6.91237e+06
-3.1404e+06
-5.45171e+06
-7.05405e+06
-5.35925e+06
-1.06614e+07
-9.93927e+06
-8.66585e+06
-4.32372e+06
-4.20496e+06
-4.58806e+06
-5.1991e+06
-1.19014e+07
-1.35904e+07
-1.3288e+07
-1.36718e+07
-1.21148e+07
-9.24768e+06
-2.53697e+07
-1.52845e+07
-1.59294e+07
-1.67556e+07
-1.93171e+07
-1.32284e+07
-1.36768e+07
-6.69565e+06
-1.88443e+06
-1.12824e+07
-1.09528e+07
-8.00353e+06
-3.92763e+06
-8.14448e+06
-1.28131e+07
-1.60856e+07
-2.63399e+07
-3.98589e+07
-4.46435e+07
-5.38474e+07
-3.98019e+07
-5.52956e+07
-5.93876e+07
-5.30778e+07
-4.56421e+07
-2.79962e+07
-3.35086e+07
-4.69623e+07
-4.34808e+07
-4.69376e+07
-2.65373e+07
-1.45369e+07
-9.58597e+06
-1.88643e+06
-2.62784e+06
-1.59712e+06
-1.81173e+06
-379868
735683
-1.51699e+06
1.56676e+06
-2.17717e+06
2.83053e+06
4.44521e+06
5.20488e+06
2.67515e+06
920988
2.31848e+06
3.00923e+06
4.5278e+06
6.1956e+06
1.0015e+07
7.54964e+06
5.04551e+06
5.27127e+06
8.66625e+06
8.29014e+06
8.76554e+06
1.33608e+07
7.58528e+06
8.21228e+06
1.19701e+07
1.70051e+07
6.77798e+06
9.87386e+06
7.77777e+06
5.3249e+06
8.1753e+06
7.05729e+06
9.76113e+06
1.78686e+07
1.25749e+07
1.08225e+07
7.05788e+06
7.41934e+06
5.11511e+06
1.06472e+07
1.26857e+07
1.23556e+07
1.15215e+07
1.2946e+07
5.05554e+06
3.7922e+06
7.41666e+06
3.84536e+06
1.54822e+07
1.25073e+07
2.73811e+07
1.99959e+07
2.73383e+07
3.95604e+07
4.26911e+07
3.10252e+07
3.5567e+07
5.90437e+07
4.60783e+07
6.45612e+07
6.48675e+07
6.79008e+07
7.86217e+07
6.08094e+07
6.34445e+07
4.46773e+07
4.2639e+07
3.84958e+07
3.4099e+07
3.28971e+07
3.26526e+07
2.69877e+07
2.98811e+07
3.45763e+07
3.67986e+07
3.7418e+07
4.11518e+07
2.87731e+07
2.47536e+07
2.31452e+07
1.79104e+07
1.91492e+07
1.20509e+07
1.12373e+07
1.35336e+07
9.03994e+06
5.22906e+06
1.44665e+07
8.09433e+06
7.24293e+06
1.05156e+07
6.89018e+06
1.14272e+07
7.45865e+06
6.70935e+06
8.2363e+06
4.32796e+06
3.02446e+06
4.84219e+06
1.93344e+06
3.28225e+06
9.44641e+06
9.68483e+06
1.09726e+07
1.38258e+07
1.71336e+07
1.2195e+07
1.34511e+07
1.81735e+07
1.21113e+07
1.47522e+07
2.26508e+07
3.61747e+07
3.10995e+07
3.93153e+07
2.13311e+07
1.13245e+07
8.95499e+06
1.2459e+07
1.06247e+07
1.83667e+07
2.41449e+07
2.75994e+07
2.31474e+07
3.13576e+07
3.65481e+07
2.36566e+07
2.51347e+07
2.53819e+07
1.95124e+07
3.10116e+07
2.4936e+07
4.04599e+07
4.96536e+07
5.38428e+07
3.55606e+07
4.09971e+07
3.42556e+07
3.34821e+07
2.98165e+07
4.40288e+07
4.04236e+07
4.46285e+07
5.52269e+07
4.8632e+07
5.21494e+07
5.0941e+07
3.62685e+07
5.4967e+07
5.72138e+07
5.38667e+07
7.08257e+07
1.06793e+08
9.26461e+07
7.08252e+07
5.24764e+07
5.25683e+07
7.415e+07
7.3114e+07
4.49383e+07
6.66131e+07
6.46855e+07
6.12005e+07
5.59865e+07
4.66031e+07
3.43588e+07
4.8236e+07
6.63378e+07
6.9195e+07
6.60242e+07
5.47542e+07
6.70207e+07
6.81856e+07
5.49981e+07
6.09147e+07
6.63798e+07
5.45258e+07
8.23396e+07
9.95987e+07
1.20112e+08
1.14049e+08
7.84663e+07
8.918e+07
1.33522e+08
1.41184e+08
1.23761e+08
1.98048e+08
1.80666e+08
1.86573e+08
2.45543e+08
2.41385e+08
2.36945e+08
2.38383e+08
2.6149e+08
2.41647e+08
2.31695e+08
2.36833e+08
2.93653e+08
2.44589e+08
2.57357e+08
1.81659e+08
1.87583e+08
2.10982e+08
2.04191e+08
1.75168e+08
1.30211e+08
1.35713e+08
1.14119e+08
1.18676e+08
1.36566e+08
1.22738e+08
1.19302e+08
1.01699e+08
8.73036e+07
1.05796e+08
1.5666e+08
1.51021e+08
1.62108e+08
1.40741e+08
1.24063e+08
1.30727e+08
1.10968e+08
9.48198e+07
1.07768e+08
1.19311e+08
1.34512e+08
1.56534e+08
1.44427e+08
1.61687e+08
1.39636e+08
1.53068e+08
1.34262e+08
1.23432e+08
7.61927e+07
6.2895e+07
5.02872e+07
4.8997e+07
4.30589e+07
4.35476e+07
4.22608e+07
4.27214e+07
2.30223e+07
1.97199e+07
2.24553e+07
2.12403e+07
3.37848e+07
5.07253e+07
6.11851e+07
5.62148e+07
6.0754e+07
7.53711e+07
7.3683e+07
8.98053e+07
1.08072e+08
1.13207e+08
1.08812e+08
1.24008e+08
1.4687e+08
1.22831e+08
1.36632e+08
1.46485e+08
2.05636e+08
2.72782e+08
2.96318e+08
3.56473e+08
3.70527e+08
3.6067e+08
3.59297e+08
3.44556e+08
3.66485e+08
3.09388e+08
3.15099e+08
3.62715e+08
4.15852e+08
5.34103e+08
5.37673e+08
4.85778e+08
4.70371e+08
4.47987e+08
4.64477e+08
4.86125e+08
3.7875e+08
3.52547e+08
3.65711e+08
3.65166e+08
3.99413e+08
3.7478e+08
3.36444e+08
3.63742e+08
3.15478e+08
3.16668e+08
3.2852e+08
2.86781e+08
3.08446e+08
3.07426e+08
3.44632e+08
2.89696e+08
3.54908e+08
4.02923e+08
4.70824e+08
4.17775e+08
3.25257e+08
3.59663e+08
3.99367e+08
4.47642e+08
4.46456e+08
4.46884e+08
3.39417e+08
3.14934e+08
3.64915e+08
3.41011e+08
3.3465e+08
2.94787e+08
2.80719e+08
2.89654e+08
3.20671e+08
3.94964e+08
3.80459e+08
3.47225e+08
3.6322e+08
3.59291e+08
3.4445e+08
2.69787e+08
3.55789e+08
3.35236e+08
3.74025e+08
3.29268e+08
3.62492e+08
3.68397e+08
3.36953e+08
2.61559e+08
2.70327e+08
2.36759e+08
2.35575e+08
2.0337e+08
1.95803e+08
2.01335e+08
1.84736e+08
1.90655e+08
1.7861e+08
1.67043e+08
1.66993e+08
1.68787e+08
1.72523e+08
1.61952e+08
2.11454e+08
2.30198e+08
3.43042e+08
4.09468e+08
3.80898e+08
3.58447e+08
4.13586e+08
3.70538e+08
4.09083e+08
4.60156e+08
4.81767e+08
4.72106e+08
4.79947e+08
4.2895e+08
4.38675e+08
3.80322e+08
3.13121e+08
3.37473e+08
3.89881e+08
3.65015e+08
4.37621e+08
4.95272e+08
4.83174e+08
5.49049e+08
5.67246e+08
5.9845e+08
5.96758e+08
5.92406e+08
5.55614e+08
6.06798e+08
5.43428e+08
5.29862e+08
5.58776e+08
5.79348e+08
5.22489e+08
6.61693e+08
6.50761e+08
5.45671e+08
6.82655e+08
6.86923e+08
7.30121e+08
7.45158e+08
7.42859e+08
7.25861e+08
8.74112e+08
8.32896e+08
9.16886e+08
9.80515e+08
9.96547e+08
1.02014e+09
9.18702e+08
9.91383e+08
1.08344e+09
1.0679e+09
9.89243e+08
1.09841e+09
1.17173e+09
1.20616e+09
1.23355e+09
1.23147e+09
1.27027e+09
1.19403e+09
1.20943e+09
1.08283e+09
1.28704e+09
1.22484e+09
1.27103e+09
1.3938e+09
1.41216e+09
1.40331e+09
1.32445e+09
1.33088e+09
1.19833e+09
1.05229e+09
1.16179e+09
1.26978e+09
1.33404e+09
1.42875e+09
1.35887e+09
1.40304e+09
1.55976e+09
1.81982e+09
1.79979e+09
1.64939e+09
1.82864e+09
2.04009e+09
1.96614e+09
1.99357e+09
2.17554e+09
2.02985e+09
2.09377e+09
2.19632e+09
2.17315e+09
2.08485e+09
1.99373e+09
2.07336e+09
2.21247e+09
2.36336e+09
2.14002e+09
1.95128e+09
2.09829e+09
1.84166e+09
1.93686e+09
2.01448e+09
1.83269e+09
1.689e+09
1.6951e+09
1.56963e+09
1.8676e+09
1.98443e+09
1.97989e+09
1.87811e+09
1.88973e+09
1.72514e+09
1.48034e+09
1.43634e+09
1.41616e+09
1.41376e+09
1.37352e+09
1.32441e+09
1.53101e+09
1.22867e+09
1.15268e+09
1.16759e+09
1.04517e+09
9.23401e+08
8.85207e+08
9.06781e+08
1.00972e+09
9.07393e+08
7.52266e+08
7.67456e+08
6.70065e+08
6.78642e+08
5.25032e+08
5.75604e+08
4.94147e+08
3.67359e+08
3.59505e+08
4.23882e+08
4.43251e+08
4.14245e+08
3.84867e+08
3.79131e+08
3.57788e+08
3.31242e+08
3.21597e+08
3.24554e+08
3.83033e+08
4.09561e+08
3.52867e+08
3.73885e+08
3.56324e+08
4.21701e+08
3.84586e+08
3.3658e+08
3.58757e+08
3.43317e+08
3.84909e+08
4.27502e+08
4.02248e+08
3.32979e+08
3.96903e+08
3.7504e+08
2.94734e+08
2.76719e+08
2.61312e+08
2.08113e+08
2.28616e+08
2.20166e+08
2.05943e+08
2.16896e+08
1.93254e+08
2.03232e+08
1.79184e+08
1.74056e+08
2.10584e+08
2.20516e+08
2.26583e+08
2.49602e+08
2.48031e+08
2.54297e+08
2.65976e+08
2.5862e+08
2.68052e+08
2.78858e+08
2.69494e+08
2.66878e+08
2.30986e+08
2.54917e+08
2.45875e+08
2.38585e+08
2.95871e+08
3.27644e+08
2.88855e+08
2.4631e+08
2.37197e+08
2.09246e+08
2.27568e+08
2.37708e+08
2.24618e+08
2.23618e+08
2.58432e+08
2.22186e+08
1.94892e+08
2.04276e+08
1.98991e+08
1.81634e+08
2.07784e+08
1.64347e+08
1.67e+08
1.63535e+08
2.1515e+08
1.72891e+08
1.48469e+08
1.72008e+08
2.48884e+08
2.67841e+08
3.02562e+08
2.82637e+08
3.03698e+08
2.99183e+08
2.57833e+08
2.6735e+08
2.42651e+08
3.58353e+08
3.32097e+08
3.20558e+08
3.813e+08
4.12872e+08
3.99046e+08
4.03337e+08
3.97837e+08
4.25523e+08
3.73622e+08
3.56067e+08
3.18951e+08
3.80266e+08
3.32749e+08
3.28372e+08
3.26739e+08
3.5448e+08
3.6974e+08
3.54785e+08
2.69748e+08
2.36361e+08
3.05302e+08
3.40488e+08
3.30202e+08
3.05859e+08
2.98807e+08
2.60292e+08
1.68042e+08
1.53785e+08
1.71805e+08
1.67505e+08
1.58706e+08
1.55846e+08
1.76582e+08
1.48185e+08
1.38527e+08
1.46085e+08
1.74173e+08
1.1429e+08
1.33982e+08
1.51436e+08
1.45021e+08
1.62546e+08
2.24951e+08
2.03883e+08
1.89364e+08
1.75616e+08
1.92606e+08
1.99272e+08
2.28812e+08
1.88524e+08
1.92133e+08
2.13155e+08
1.89116e+08
1.81735e+08
2.40322e+08
2.11551e+08
2.41607e+08
2.47029e+08
2.51546e+08
2.77539e+08
2.24166e+08
3.36518e+08
3.07769e+08
2.37433e+08
2.26303e+08
3.59143e+08
2.90363e+08
3.28018e+08
3.49369e+08
3.87237e+08
4.2172e+08
4.49082e+08
4.93626e+08
3.80927e+08
3.37766e+08
2.80174e+08
2.46698e+08
2.56428e+08
2.02407e+08
1.71614e+08
1.85738e+08
2.16002e+08
2.00978e+08
2.27367e+08
2.20847e+08
2.06937e+08
2.12496e+08
3.17598e+08
3.69956e+08
3.78692e+08
3.56392e+08
3.29949e+08
3.2158e+08
3.87751e+08
3.79295e+08
3.88677e+08
3.82596e+08
3.86242e+08
3.81419e+08
3.80466e+08
3.86922e+08
3.00764e+08
2.57997e+08
2.5486e+08
2.44439e+08
2.86943e+08
2.79494e+08
3.40026e+08
3.19601e+08
3.67512e+08
4.10667e+08
4.36698e+08
4.79686e+08
4.38391e+08
4.48963e+08
4.37762e+08
4.25125e+08
5.71921e+08
4.63869e+08
4.67817e+08
5.07364e+08
4.9987e+08
5.31731e+08
5.3174e+08
5.89487e+08
6.88013e+08
6.39339e+08
4.73782e+08
5.52467e+08
6.07935e+08
6.51576e+08
6.56846e+08
6.53306e+08
6.40286e+08
6.39393e+08
5.55474e+08
5.3703e+08
5.16054e+08
5.19983e+08
5.49515e+08
5.00272e+08
5.20059e+08
4.91612e+08
4.95782e+08
5.06147e+08
4.52142e+08
5.02577e+08
4.52267e+08
4.169e+08
3.56072e+08
3.37132e+08
4.97112e+08
5.54421e+08
6.30703e+08
5.98582e+08
6.3983e+08
4.97686e+08
4.96672e+08
4.36395e+08
4.25161e+08
4.87692e+08
4.65856e+08
4.76924e+08
4.37634e+08
4.13465e+08
4.81844e+08
5.10605e+08
5.83486e+08
4.65524e+08
4.27625e+08
3.64337e+08
3.67903e+08
3.55164e+08
3.85255e+08
3.37519e+08
3.88433e+08
4.38051e+08
5.22316e+08
5.72606e+08
5.83326e+08
5.95934e+08
6.99442e+08
6.48082e+08
6.81877e+08
5.22378e+08
5.25655e+08
4.83366e+08
5.17672e+08
5.0699e+08
5.31464e+08
5.37864e+08
5.47988e+08
5.33809e+08
5.44324e+08
6.12313e+08
6.39392e+08
6.64585e+08
6.88263e+08
7.26805e+08
6.9347e+08
6.4113e+08
6.14406e+08
5.89842e+08
6.00725e+08
6.74155e+08
7.5441e+08
7.54613e+08
7.09427e+08
9.17875e+08
8.46687e+08
7.75975e+08
7.37001e+08
6.57969e+08
5.91271e+08
5.86671e+08
5.65152e+08
4.92689e+08
4.55083e+08
4.43107e+08
4.87158e+08
4.39421e+08
4.07189e+08
4.51156e+08
4.75352e+08
4.85619e+08
4.7237e+08
4.37315e+08
4.37622e+08
4.5457e+08
4.39226e+08
4.1802e+08
4.33453e+08
4.11335e+08
4.44992e+08
4.73027e+08
4.67281e+08
3.88147e+08
3.61079e+08
4.53474e+08
5.19988e+08
6.05608e+08
5.06054e+08
5.34013e+08
5.65541e+08
5.87946e+08
6.03439e+08
5.63582e+08
5.4648e+08
5.40656e+08
5.09311e+08
3.87277e+08
4.04862e+08
4.7415e+08
4.13108e+08
3.86489e+08
3.47241e+08
3.28152e+08
3.11854e+08
3.46571e+08
3.89075e+08
3.95745e+08
4.06021e+08
4.86178e+08
3.90425e+08
3.4088e+08
3.01833e+08
2.92614e+08
2.72783e+08
2.69537e+08
2.19892e+08
2.05609e+08
2.16824e+08
2.18925e+08
1.83051e+08
2.00992e+08
2.80501e+08
2.71164e+08
3.13689e+08
4.22296e+08
4.56273e+08
3.76372e+08
3.4604e+08
4.09948e+08
4.27459e+08
4.42552e+08
4.89168e+08
4.5433e+08
5.39841e+08
5.32893e+08
4.52415e+08
4.38297e+08
4.4658e+08
4.86551e+08
3.84703e+08
3.39726e+08
3.97187e+08
4.71543e+08
4.35986e+08
4.65082e+08
5.98706e+08
6.15811e+08
6.93809e+08
6.83333e+08
7.85577e+08
7.34284e+08
7.43663e+08
6.94925e+08
6.84551e+08
7.02663e+08
6.56137e+08
7.11733e+08
8.21711e+08
8.37363e+08
7.22905e+08
7.18299e+08
6.45681e+08
5.80648e+08
4.76406e+08
4.56132e+08
4.72118e+08
4.1425e+08
4.80965e+08
5.46399e+08
4.77779e+08
4.61059e+08
4.40841e+08
4.65447e+08
4.85402e+08
5.22954e+08
4.80095e+08
4.61692e+08
5.46616e+08
4.26305e+08
4.02018e+08
4.26504e+08
4.27956e+08
4.1357e+08
3.83928e+08
4.22121e+08
3.08814e+08
3.31343e+08
3.28569e+08
3.49228e+08
3.93343e+08
4.87472e+08
4.71438e+08
5.03191e+08
5.80683e+08
5.53211e+08
5.93517e+08
5.63392e+08
5.36818e+08
6.14866e+08
5.35698e+08
5.57423e+08
5.51605e+08
4.7226e+08
5.38922e+08
5.22271e+08
5.38723e+08
4.6613e+08
4.45747e+08
4.89245e+08
5.63936e+08
4.91561e+08
4.90656e+08
4.68613e+08
3.95809e+08
3.6131e+08
4.06861e+08
3.2493e+08
2.8706e+08
3.33026e+08
3.51947e+08
3.3538e+08
3.79595e+08
4.02748e+08
4.16666e+08
4.6454e+08
5.23879e+08
4.34809e+08
4.05558e+08
3.87516e+08
4.45496e+08
5.48995e+08
4.34696e+08
4.38675e+08
4.29875e+08
4.78011e+08
4.63256e+08
4.72721e+08
4.49782e+08
4.95108e+08
4.74536e+08
4.82714e+08
4.42016e+08
4.61935e+08
4.75138e+08
5.779e+08
5.85957e+08
5.72247e+08
4.7186e+08
5.42166e+08
4.69984e+08
5.8885e+08
5.2607e+08
5.61711e+08
6.04192e+08
7.04029e+08
6.80215e+08
6.48662e+08
5.16032e+08
4.67408e+08
4.24724e+08
3.96513e+08
3.66066e+08
3.51889e+08
3.46359e+08
4.58655e+08
4.56354e+08
3.8305e+08
3.74821e+08
3.76713e+08
4.47089e+08
3.67067e+08
3.80611e+08
4.30211e+08
4.33713e+08
3.97537e+08
3.88392e+08
3.90295e+08
4.58422e+08
4.82536e+08
4.47256e+08
4.95779e+08
4.98036e+08
5.15397e+08
5.01822e+08
5.51841e+08
4.99862e+08
5.33612e+08
6.21375e+08
6.70919e+08
6.41824e+08
5.05861e+08
4.99782e+08
4.89586e+08
4.38859e+08
4.19063e+08
4.61698e+08
4.91003e+08
4.17728e+08
5.96781e+08
6.23728e+08
6.28224e+08
6.74968e+08
6.83031e+08
6.36404e+08
6.14869e+08
6.05292e+08
5.6849e+08
5.65549e+08
5.29927e+08
4.46852e+08
4.62874e+08
3.25656e+08
3.98288e+08
3.84072e+08
3.80659e+08
3.14256e+08
3.58173e+08
3.98862e+08
4.02499e+08
3.64701e+08
4.22747e+08
4.41696e+08
4.86244e+08
5.88028e+08
6.30077e+08
6.83004e+08
6.60265e+08
6.94071e+08
5.73343e+08
6.06668e+08
5.00931e+08
5.46358e+08
5.5132e+08
5.07351e+08
5.25171e+08
5.6639e+08
5.73053e+08
5.4238e+08
5.05441e+08
4.43359e+08
4.03268e+08
3.80089e+08
4.00559e+08
3.91467e+08
