248.567762
1263.3954714
507.586328
364.96748
956.896383
909.329488
1272.984406
1011.14555885
1324.919247
744.6484
677.840385
946.815793
725.2407436
869.3496187
410.994056
405.784055
1022.794448
1425.721611
394.8127435
791.549156
643.849991
1116.7467577
923.2964035
729.29628
1408.051231
486.7374
557.555955
1269.2415751
1537.561331
692.723495
678.9829974
243.909211
444.980213
647.32454
746.291394
420.810111
538.518671
316.460528
1245.133809
1381.310564
1185.125466
969.121355
980.628105
940.980737
1740.183365
206.685953
932.386668
507.490761
1099.3908719
1110.4581739
969.585993
621.5907061
1284.53557
425.4036741
373.2858349
692.4771819
1306.248685
694.6241624
1751.873947
1223.150935
677.80644641
1019.8424807
642.5183864
799.731216
1443.141451
858.259992
912.267311
1561.154313
1069.9146324
550.597062
947.785158
282.5472993
725.015567
649.393725
443.99962134
744.053532
1263.718084
1139.151698
874.367709
473.431602
1034.17324
1064.4947738
1633.167437
797.0384218
666.246501
1059.081607
559.8581409
752.882404
1251.3590725
882.567233
1477.192722
1033.8541616
313.73639027
1790.115549
746.116522
336.8895037
1372.7286118
1153.33391265
356.8175856
980.53573328
