-72.0272019
1058.680958
126.7091239
190.099846
517.168135
653.5312499
952.4012339
922.055241
996.5123489
442.080762
330.6167668
916.839558
353.123677
560.334919
168.403744
230.817159
955.8486093
1427.873065
81.2313638
231.188496
271.070987
958.5675901
492.3382506
364.719478
1186.176891
218.155042
217.501057
869.018309
1360.359175
355.4732439
409.85077
-284.23075209
142.494875
359.280997
498.308117
270.019258
313.988471
-119.6313341
594.4665946
938.604927
766.663009
781.3751386
855.455511
663.8789773
1363.623437
-75.604524
426.557185
265.8248853
864.926437
1007.1668511
797.38969
153.208513
946.025343
300.766996
195.5145872
372.550436
991.5076284
238.652529
1551.4243963
797.267901
289.369038
720.9424388
450.94286
384.990108
1300.21714
588.20254
505.221703
966.477626
521.47440317
41.2987698
714.0015844
-166.9360474
389.9820117
535.372529
22.0976699
426.111059
840.4613267
788.6713313
687.098853
288.905679
617.286214
552.457443
1216.9508549
442.55952138
275.3280449
738.293585
149.111089
443.356971
1091.487073
497.3690507
952.104061
718.856584
-110.298463
1478.512705
254.608561
-18.075118
943.658599
696.953734
38.5755097
756.427318
