-27.2584085
-40.9250253
-20.0206355
3.878676
50.426195325
14.1415465
34.18641767
0.4557556
-19.96333156
-84.390205
-47.831478
26.5220308
-7.09561828
50.6823186
-47.555127
23.1054621
-33.0994978
-10.536307401
-10.8422213
-22.46430844
9.70396087
4.531909
-15.572046
-2.46307875
-5.8451035
64.5969916
-4.1972606
24.2523255
-9.4171868
-10.4841956
-50.2991795
-4.90164091
18.2029127
28.86447229
-7.357144
23.3345646
39.1297729
35.0641838
25.98865997
-27.7644852
-43.6510471
-45.584723
43.414997
10.3512609
16.321922
18.2736637
-16.1447536
-18.6018108
-95.161487
-38.1461697
-44.2728245
-22.1193217
-0.9929525
-19.6618242
-61.6529891
-9.7529342
-1.8461575
-53.7882214
-40.03207142
20.0638669
-31.8441504
50.81795632
30.36150444
-25.112011
-38.9393007
7.7166119
1.0921597
-8.1796328
12.17344804
37.00442853
32.803389704
4.74048863
-6.3151824
-58.0760497
-21.81491405
-7.650808
18.5163991
31.47264763
-26.2907435
-77.81975608
-8.0858432
-26.8597303
-46.8417416
44.3215655
17.3442676
-32.7862195
14.1399197
6.2836995
-14.2299975
7.5001682
-6.58743952
-23.311114
-19.1041588
61.2904425
17.9471389
-53.5231172
45.4166228
11.8143745
3.9660484
-13.1603453
20.44887194
-1.4827457
5.671853
55.808642244
20.5778428
-13.3245148
-2.68468208
-28.2996718
-33.15474413
13.8878558
-29.18412808
-57.2514385
-17.54645115
33.3471722
-7.8091727
-15.49731174
10.58870985
-27.6722149
12.1876478
-23.2854997
12.074571
13.76509474
14.4329485
32.5146287
20.228616
4.862842
-9.045048403
4.5549747
-60.362573
2.7514696
-9.6454016
48.4501258
48.5569782
76.1620502
36.760792
-33.6165592
67.5318605
42.1599896
53.7204941
-25.155028
-31.264364
-8.6186403
-22.207157
-34.8976282
-26.4835005
-56.7597197
14.558721
-45.75812914
36.431234361
18.4060361
25.0381347
47.4999757
-22.4092695
21.197594
45.793885
-41.6064842
21.8458427
-19.95316994
24.72817746
89.1551461
29.0794929
10.4326231
6.442776794
35.4851467
-30.778421
29.3479875
30.66494126
2.2186798
-2.53340959
-47.0114654
2.610538
-10.4825904
3.7798363
44.6819509
-11.8252918
22.600241
-21.05098063
-0.195437
39.9727127
44.3345772
-51.7045847
-2.8465469
-33.5284792
9.4751349
-7.7712703
11.9884343
-27.671776
15.465043
-5.1987476
-70.1199832
-9.6758755
6.5059916
8.3448446
22.9041109
11.8282175
35.7673452
51.0109023
-21.68960268
-12.720318
20.2903403
-14.755284
15.3021716
61.8533134
-41.379893
-69.2303376
-8.5348741
-32.598679
2.92038492
45.3851276
3.2625866
43.6825291
-34.01457614
-15.9539509
66.887596
37.1060278
-4.785514
-12.588674365
-72.5284129
-11.0324471
-34.0318865
-47.970013985
42.5664256
23.0288954
-8.292713682
16.6480042
-66.2462437
36.2877449
10.830721
12.672915
26.4292089
8.10935666
-21.19634109
-59.630894
-54.257977
-20.3460615
-17.6597631
-29.5763289
-40.1685132
-5.204274
6.2630886
-24.8897002
25.90708484
-14.531334
29.4997802
-18.4197397
-0.1946687
8.773252
18.4007818
-28.2005338
-15.032514
