42.3851591
102.7323505
41.409866
85.8846098
63.926376295
31.0047725
52.92881102
56.1802947
42.943068
42.317797
115.7989647
46.3426081
57.1986737
40.97345731
91.2708579
107.7958919
70.3822528
47.5960435
37.41557474
30.777731
27.745479
-4.17196881
64.8035033
94.1435409
28.16505883
38.3340357
87.3163704
92.9064882
70.6578736
59.43656819
45.95590291
57.548768
49.070129
78.00380482
107.1081738
59.1194054
61.61566328
44.77948202
55.0860184
103.2472167
119.7869252
42.196723
77.7171589
58.4463398
44.8274036
77.9930952
68.3826292
102.1573459
80.1039709
52.0380283
60.830216
94.8023065
138.9763817
82.672781775
2.09681025
106.178035
65.91514112
109.342358
26.44820731
99.3238791
58.07227
109.6055959
77.65733276
46.795688
7.794819578
-9.5733438
85.5407029
61.3762173
69.5796752
28.8535704
100.2162107
100.25320681
55.54599953
44.4911762
96.6838812
6.930455
18.9498327
102.9802646
119.8941775
45.5319662
67.60861899
47.4654983
46.990529
66.0843415
48.1282792
45.7438024
129.7945289
76.57790696
65.761911
75.8309329
82.91106137
48.179763
30.5428427
109.60608378
97.3211027
65.1341738
35.9384575
119.5682364
45.6101098
50.8019995
95.9423081
50.04854735
-3.783781
69.37731121
79.0195585
32.436805
77.1040444
79.49579561
72.2134622
128.6203811
89.3126595
30.4289224
53.63199307
80.782582
86.0081362
99.2130717
85.9869438
49.0784254
63.8218225
70.5694613
-20.92861655
57.228246
34.57176455
48.1481762
53.53376366
56.5238868
82.4244093
10.979537
65.5559223
62.9846195
68.1152646
70.6685843
45.6397019
60.8609011
6.5254665
72.95820618
87.8766391
104.8771748
4.4248043
50.8782173
118.929998
134.0983886
56.647915
1.894672
27.3685151
79.4642557
13.1507543
2.17471501
94.2176355
63.814553804
52.474314656
48.2415536
13.6596745
46.77871537
9.8237063
79.71119066
112.70190792
61.9783311
111.8732113
44.29711757
59.92379774
25.3883029
33.4759719
103.3375739
86.2423502
34.0282958
76.6347855
54.0690485
56.7535924
33.0144138
57.5160738
37.474313
70.15237123
67.45903305
91.9405929
84.715313
40.3557109
41.4988051
27.0521889
15.570353
85.342304
35.1389639
142.4448868
56.6639402
48.7613112
61.2647246
118.0262003
39.3271998
48.7830417
56.8510541
64.7135535
42.6984486
101.4029016
109.8620427
4.1164965
93.979151
58.581459
37.4177834
26.1640052
59.485176
-18.076574
5.7541732
26.4714562
52.1421126
69.8779364
109.94520454
105.86648424
65.2744435
62.9790481
69.774871
44.0272919
90.6257564
73.5718857
111.66241611
51.2667391
-23.95105808
77.8351289
45.2888791
84.02348494
42.12088746
69.1047499
31.67570652
36.3782614
74.4383479
68.93429447
64.363925
59.6402158
83.9261165
72.7390955
68.40021814
89.37059258
1.3257382
85.4602475
110.915489
57.9587726
50.2782298
76.241801
53.78849799
68.1747086
30.9285521
38.4035193
64.21436509
45.2556968
60.889271
21.44132973
66.2354801
76.6873429
16.9607498
61.5515523
83.1229338
