-590.471
-975.892
-27.3481
-73.9906
683.549
-176.248
894.843
717.67
501.265
728.322
1057.93
666.166
1197.4
1995.05
1717.7
540.379
305.335
1236.78
1980.87
4040.03
7817.87
4980.45
3736.55
871.777
2808.53
3706
4424.58
5553.36
8978.34
8750.91
7175.02
6472.43
6099.67
7716.84
6204.55
7212.53
2180.06
1079.67
2260.28
4290.45
5629.68
10306.3
5271.6
4431.15
4280.57
8285.45
4117.65
3309.03
5180.31
5018.86
3414.58
4895.59
4725.6
4146.53
2899.61
2070.91
2811.99
2464.23
1723.86
1919.22
1071.27
418.942
355.736
1482.45
2550
3691.48
4119.51
6204.74
2068.82
9.26424
538.404
208.72
468.936
1091.44
3492.55
9313.3
9003.93
7615.59
4186.39
7997.48
7447.61
5071.88
2625.99
1186.82
4498.42
9429.27
10422.1
20096.5
9180.25
8912.44
8373.64
9083.38
16180.9
10435.6
10870.9
10684.6
5181.52
4999.94
3458.01
2760.19
4505.96
89.9591
321.756
1268.61
7248.52
4037.56
7298.52
5819.81
3682.41
3923.33
3374.6
6531.73
2404.26
2224.34
1638.66
3945.89
4656.45
1631.01
2543.58
2371.5
1119.08
3369.42
3578.62
3063.65
1445.51
211.193
-80.5471
763.094
2476.4
1869.19
1550.79
1633.98
1484.25
1554.98
2308.64
2142.21
3111.62
2993.98
1580.93
2737.68
1314.17
1566.88
295.794
176.007
309.285
366.518
1315.19
662.352
2124.41
3503.91
2197.46
2054.01
1988.65
-44.8508
425.035
1309.83
1371.63
408.746
787.761
582.642
998.75
172.069
175.045
368.35
2095.97
2855.93
1090.71
1864.65
1199.78
4701.98
1588.7
2499.37
2892.56
3046.04
975.371
2829.56
2363.55
4570.37
6348.73
8826.14
6991.77
8352.76
17319.7
15448.1
13408.8
15627.7
12166.9
7979.11
1690.35
1776.32
609.234
1751.53
1369
1206.48
954.35
360.252
298.621
-591.518
918.011
56.2653
157.927
-576.407
-256.597
666.175
5000.98
2070.4
1985.65
1771.62
3025.15
2045.12
2585.46
4912.26
2655.44
1840.22
3507.37
6410.83
9404.96
6308.52
3785.39
1615.5
1585.59
369.742
-109.657
1424.3
2228.01
3721.32
4239.82
9275.01
6837.08
5870.48
3750.45
4018.13
5036.14
3166.08
5414.22
6964.79
1997.36
671.975
123.161
351.139
1120.43
7483.4
10381.7
8429.29
3360.64
2575.03
2347.8
1230.76
2902.86
3441.92
1508.52
1991.54
2682.31
3161.99
2208.45
1291.08
1101.79
371.526
1404.63
1514.1
3243.14
2916.32
2934.8
2544.43
788.075
-1163.45
261.177
-238.76
574.747
1683.45
1559.3
1722.14
5430.22
8585.41
10145.3
7994.18
11483.4
17444
11862.6
11128.2
3829.55
2173.71
1747.58
5383.25
6405.18
5739.94
5742.38
5642.54
8568.09
6556.78
3570.79
3718.14
1524.49
3089.91
2507.01
4823.56
4828.74
4530.6
7477.01
7661.93
5453.47
3446.99
4863.97
2658.73
519.094
-254.218
162.203
-28.5272
218.296
671.006
2304.87
3216.45
2123.69
1928.6
2568.41
968.324
366.271
-983.06
481.599
1644.64
417.24
1586.82
618.86
2053.33
-134.126
273.204
174.187
-249.305
310.965
2564.81
954.276
201.945
-20.4584
1206.92
6304.98
4289.67
3451.89
3665.36
1104.95
555.85
212.424
3263.54
2085.64
2425.01
1867.23
2287.32
4439.91
2295.28
1658.53
4231.09
3753.62
9316.23
3311.25
4489.24
4076.22
862.172
539.032
587.668
730.828
639.49
1156.76
2532.17
1646.55
3186.59
2354.43
5377.77
9183.23
4969.32
1678.06
580.571
399.033
1104.04
52.534
900.427
2285.55
4048.42
6064.4
5405.31
6103.19
2652.2
948.579
1210.8
1924.08
1772.37
1006.88
2412.08
4677.39
2588.82
2209.4
4237.77
2558.19
1022.13
-281.229
2753.58
3432.54
4342.25
3898.98
3251.54
5164.39
2699.1
2781.91
3145.79
8197.9
9418
7735.47
4413.4
2307.49
710.142
946.161
1572.02
1472.83
311.154
-379.731
-7.83013
668.957
714.932
422.895
-140.566
937.172
3088.42
2829.47
3270.5
1859.71
2713
621.71
92.9753
248.903
1106.82
591.402
-42.7651
626.733
242.814
254.962
850.808
-282.59
1413.36
856.466
1360.11
5322.76
4740.97
8337.21
7053.13
3513.36
2507.65
-205.905
1769.46
2146.41
1464.43
2086.6
1558.9
2395.75
2575.18
2589.69
1793.75
244.18
168.614
857.728
1074.01
3107.13
4280.31
1098
-393.364
-125.87
45.8006
18.3342
857.135
917.416
1395.3
638.614
655.866
3299.5
508.117
1014.38
3673.36
7139.74
6457.18
10056.6
11156.6
15080.3
22321.6
24439.3
17949.6
12225.1
12946.4
9893.01
12827.3
11272.2
8235.83
5439.48
8733.59
5953.6
885.832
-639.37
-38.921
541.695
1431.45
1219.04
834.153
-217.431
325.879
754.257
945.498
746.281
377.758
3337.96
2370.05
1682.94
593.754
1069.63
1094.33
2734.44
2138.11
3998.4
6600.21
6865.78
6128.45
7461.19
4303.91
4613.43
2439.93
2605.41
2852.94
1881.58
953.526
2211.99
1849.74
1112.03
274.535
192.802
2053.83
3169.77
1624.59
1091.92
522.632
2753.4
1640.13
1984.29
3630.97
4402.81
4728.77
3764.98
5189.12
3683.79
5236.54
1267.16
2716.85
1391.59
-15.948
1990.27
1512.33
1390.65
291.414
-59.5226
-26.5104
627.059
1503.25
4117.89
1826.3
1280.41
5069.61
7060.41
5078.34
5359.27
4357.55
6692.02
8036.36
6247.2
6206.83
9900.13
11415.6
12356.1
11369.2
19511
20893.1
12559.3
6774.29
12069.8
10493.2
10654.8
4785.99
6647.77
797.901
188.091
1643.26
1273.42
1786.84
1876.99
961.681
1367.01
-32.0182
-169.543
-22.6678
455.862
-634.816
-94.4078
-28.537
-1372.47
607.416
2762.68
2108.54
1132.53
5356.21
1286.95
1477.07
207.472
2672.44
516.507
702.278
1604.55
2602.8
1416.27
788.674
2692.61
67.5087
206.416
752.25
638.045
268.003
130.147
1138.86
1166.72
1168.18
121.087
608.886
409.358
625.372
928.274
1475.13
360.154
301.478
1912.95
1282.62
821.529
349.251
502.505
308.916
314.619
794.668
328.315
-278.233
396.665
457.705
1440.18
237.901
1306.5
5033.34
4216.88
2075.84
740.03
844.495
151.686
-99.9358
39.1782
1692.87
2197.25
3289.7
4663.12
4887.95
4343.68
3976.93
3616.07
2987.06
3006.36
2500.56
2936.15
2912.85
2292.99
1220.29
1942.01
5192.69
2526.83
1138.67
1533.31
-105.615
-76.0219
287.991
228.177
513.212
1752.59
1351.02
1753.55
6031.95
4275.33
6881.98
3464.08
2544.92
1932.82
994.795
743.01
976.534
550.675
282.57
402.435
1781.63
887.592
801.5
-82.1377
-254.249
923.125
2181.24
4203.26
5998.76
6801.65
4981.51
2959.13
2184.96
869.989
2250.32
4383.91
5452.74
8692.36
7847.01
5609.4
3575.59
2158.04
788.685
1076.04
341.059
748.617
1310.79
1360.78
665.63
2466.06
2487.55
1433.79
1074.5
1491.58
4186.43
1071.87
3695.63
4066.71
61.5416
402.957
1137.14
848.097
173.499
1424.53
1871.65
2469.35
4292.31
8131.13
4663.1
7199
6845.07
6261.93
3500.02
2358.16
5078.76
2520.81
1220.56
2102.15
4302.26
5626.65
8461.67
6294.61
2159.36
3548.51
4384.43
5833.07
6624.44
9137.89
9800.48
5770.44
4852.17
1646.33
2935.99
1971.6
5138.89
11128.9
10200.8
4259.02
1852.71
1678.56
753.021
272.898
1146.89
705.485
-230.913
394.417
773.397
517.61
1626.69
2840.81
6028.42
6528.01
4009.38
3613.54
2247.01
1127.39
1986.25
997.966
2088.6
634.531
1426.09
1601.83
2288.17
8789.52
14469.2
18700.3
12819.8
17910.4
8598.97
6214.48
8916.81
4522.36
5215.78
5117.24
5234.31
4119.03
3658.05
6885.06
2828.11
2663.59
5661.76
4513.26
3329.57
2202.81
888.726
2262.73
1163.15
1962.52
3753.56
2985.39
2881.7
1143.95
2258.76
228.404
1745.53
1138.68
194.32
323.789
926.556
1538.25
2509.37
1752.27
1114.4
1157.83
1920.67
2826.3
2528.94
2656.01
2690.87
2073.39
2109.08
1243.92
432.026
2283.48
403.961
-544.966
992.531
1502.56
-305.141
1866.6
-99.0067
-771.651
-413.729
1047.94
2405.65
5187.91
376.438
538.805
185.587
1009.8
58.1731
1798.6
139.945
-745.172
921.704
1523
3268.32
5504.14
7837.68
5877.53
7797.91
7073.88
7214.41
2404.52
2509.69
2182.57
808.354
3309.53
1665.54
411.91
-928.658
171.018
506.792
653.835
917.584
2829.05
549.539
-109.364
-274.58
-379.919
1704.57
1379.84
1876.64
2560.42
2373.81
5382.62
11708.8
6458.43
3585.39
3759.65
1749.39
2404.02
1694.43
1021.79
481.359
1088.25
1422.9
811.169
1372.54
1617.87
291.875
649.621
-491.871
211.973
642.811
32.6112
2985.86
-785.354
1598.73
656.615
1091.27
505.955
360.353
1017.55
2824.06
5523.33
1844.45
4965.42
3469.67
2984.64
2252.01
2960.16
3016.83
6986.19
3266.3
3221.93
2543.61
3437.66
1000.54
503.684
244.046
1078.09
3133.77
1184.81
202.464
393.498
811.943
1035.21
1074.39
2918.41
4009.18
1914.92
3027.83
2307.11
3127.96
3171.64
2021.2
1090.43
-162.777
84.8151
459.055
769.288
2406.42
6611.03
4120.18
4296.62
1093.97
591.859
718.29
136.193
-498.667
331.453
2073.87
1247.89
1008.26
132.754
8.84953
631.169
3531.01
5083.78
5382.74
4661.83
5938.71
11445.4
5093.24
5158.73
5012.73
3414.19
743.81
7860.59
6270.78
6541.31
7758.4
10137.7
12911.8
4728.89
6752.98
2520.28
3463.78
1958.39
690.536
936.14
1109.61
1171.55
1362.47
1099.65
1180.1
371.623
1295.34
1450.04
1180.42
-78.8518
-115.814
371.172
-303.559
697.363
495.256
401.46
1780.3
3445.08
2548.48
4360.97
10589
8175.01
8947.82
5249.78
4237.15
4351.51
3629.09
3247.69
7705.73
7022.35
6454.69
11698
5223.93
6870.17
4836.89
3597.58
4884.58
2738.39
5532.78
4813.6
2027.14
5310.11
5339.02
273.216
-220.082
2759.63
4313.46
2980.03
940.166
3143.32
3167.16
2699.9
1282.81
1244.53
726.237
-10.35
2072.58
2109.28
4938.16
1172.89
694.442
519.543
391.486
601.145
369.972
774.341
3079.75
1570.71
-422.025
-648.079
451.861
2283.15
3291.01
1882.95
2641.39
2552.08
2240.07
1760.13
6424
5469.14
8067.35
4007.81
1438.76
324.246
-552.424
1101.54
1626.97
1565.01
980.572
180.02
775.015
338.682
858.446
608.7
75.4356
765.531
545.606
79.3133
1349.36
-11.3954
586.054
438.2
1135.89
1097.73
484.035
834.051
366.901
2001.95
5350.82
2598.06
975.14
3155.43
2805.85
336.303
1526.42
617.926
-251.264
3156.28
1905.69
2323.6
2403.17
1432.7
1901.01
1847.29
2791.73
994.251
7.89243
164.221
48.0651
-5.84385
123.161
-32.9856
23.4548
720.23
1287.01
822.872
2.98226
191.03
1402.66
901.675
1494.99
2798.81
1937.78
3232.31
5360.4
1146.53
1834.92
5367.02
7044.92
7528.84
7860.45
11148.1
12437.8
6038.98
1512.49
1235.62
1201.34
635.983
-330.749
1542.11
2206.56
5053.45
5051.73
769.678
1154.13
248.573
944.577
1867.48
1399.22
1043.64
721.11
256.229
127.234
333.732
1448.5
2697.08
2352.61
5525.95
2457.2
3619.34
3915.92
4372.6
624.782
2439.69
146.247
-171.504
1058.8
-173.902
489.678
340.792
79.3995
1511.71
1097.5
365.146
-923.757
-210.444
1110.47
1350.69
453.68
35.0612
179.105
30.8084
614.229
656.358
3057.69
2316.15
573.451
928.786
844.051
152.885
869.333
644.683
-451.09
665.936
2453.59
3143.45
1837.92
2656.92
698.226
24.1749
271.219
133.249
679.487
-53.4748
-526.356
279.978
1384.58
637.352
441.98
-175.423
-59.7828
73.2051
677.96
474.933
196.496
622.61
3889.32
7924.73
7493.92
3585.53
1841.79
1334.56
2225.78
2235.44
5523.9
4974
1997.9
724.168
2152.04
5665.2
2187.49
3915.16
3292.95
1141.8
1816.52
1217.76
931.438
9.41969
2153.65
1315.85
253.42
34.3998
-595.863
630.453
21.9973
2541.37
2855.91
5627.88
4100.39
3304.52
2611.75
3098.79
1987.99
3062.92
972.063
2715
2343.99
2678.71
4300.92
3018.94
2825.43
2564.9
9009.42
2493.17
4344.78
1956.65
4613.14
7262.27
6514.33
2222.93
-600.953
1227.81
1357.14
206.234
546.995
-153.679
1932.27
854.231
2548.45
972.218
-76.4456
1344.01
814.868
902.688
465.27
914.302
1526.89
1117.99
678.231
2981.69
1175.82
2116.2
1079.91
466.537
691.712
2569.97
2024.35
2539.79
1186.86
915.591
200.879
851.078
372.752
671.798
2773.02
1306.19
2431.75
780.654
939.087
61.8837
723.504
4557.99
6899.45
14694.3
18131
23242.2
14533.6
6495.79
5028.5
1527.01
2148.19
3077.11
2872.43
2037.59
1222.55
52.1338
999.812
856.821
587.864
2455.38
2276.4
992.294
1287.72
-110.102
1320.18
145.589
311.005
615.622
3204.22
1950.79
5730.27
2498.88
66.7963
2647.73
2683.69
4655.31
4539.57
5214.87
3825.49
1799.38
3830.41
4138.69
1371.31
339.323
1033.83
110.438
1441.67
3015.41
1923.16
3095.26
1541.39
1237.88
1159.28
2785.54
1383.33
973.333
806.341
134.682
430.801
792.487
325.615
366.953
133.78
1792.01
828.886
113.937
725.639
579.218
-145.435
479.328
751.994
962.953
712.312
2671.24
539.018
54.7307
118.945
520.342
1157.81
1051.62
142.228
102.346
431.916
900.286
652.519
939.593
2186.37
3660.72
2989.84
3761.27
3806.3
5509.63
869.073
2732.67
2938.14
2524.4
1966.32
2460.35
1902.3
1902.65
1972.3
1745.42
1524.31
306.727
141.23
-887.336
625.062
322.005
1163.93
3785.47
5135.04
6804.3
2423.48
4053.8
1609.9
2150.96
1579.83
895.124
834.728
559.818
637.036
2238.53
1362.93
1288.47
818.265
173.281
-407.001
483.985
911.19
554.547
2015.11
2538.33
1114.65
3170.38
362.726
202.588
566.64
867.506
2470.47
2883.33
2194.71
499.809
1623.29
2782.85
1348.59
2687.75
8104.82
6628.47
6842.76
7178.05
3489.61
4934.57
6773.96
10458.9
20321.5
14845.2
13707.2
9201.37
12400.7
8519.7
10601.6
4234.2
1297.36
2001.32
4666.99
5617.63
4979.76
975.921
1209.92
-386.739
826.172
820.491
1759.61
1643.67
6036.31
8473.79
7462.43
4567.6
5321.6
5148.11
3160.54
7820.06
6580.99
5508.57
2416.87
595.725
1540.75
296.598
149.52
825.497
1781.93
2402.64
836.051
944.438
8051.96
6649.19
8829.27
2890.62
3061.61
1387.57
2649.05
3000.43
463.693
398.184
2068.45
3677.92
3510.42
2889.18
1122.85
899.837
-550.396
146.586
185.523
1090.14
-98.5372
75.5442
1154.26
2414.43
1073.7
1043.79
2132.68
4000.07
2980.39
1577.19
2331.85
348.311
346.649
1387.24
2544.09
971.073
893.153
2503.78
4134.89
1922.91
4019.54
4648.22
2659.67
1957.12
1724.96
-323.304
92.4174
2427.93
2282.54
2294.52
3466.14
2563.72
2932.18
4780
1447.16
1142.19
358.411
155.537
-133.285
298.963
220.223
349.725
469.135
675.685
-543.76
1624.5
2731.14
2252.1
1739.22
2199.17
1650.72
7762.43
6394.49
7773.25
12325.4
8986.68
9142.86
8669.34
5438.11
7584.05
8245.47
5012.86
6054
5831.14
6476.6
3090.13
1745.02
2026.67
1097.74
2335.83
2370.61
-80.692
-410.06
785.712
1666.26
116.247
-308.366
157.794
2562.3
3095.28
5997.73
5232.66
1016.94
282.793
1043.15
1921.16
580.357
414.298
-470.921
1441.1
4121.84
4707.28
213.051
327.815
2552.59
1307.63
1783.78
212.485
633.395
379.416
580.779
3838.6
4774.52
1975.72
4111.85
3725.99
3690.07
1928.74
-0.0881091
1458.36
356.819
257.253
1883.51
1283.04
112.569
725.328
936.586
1397.6
59.3636
619.377
1875.29
6184.79
8315.52
10876.8
13713.2
9700.31
13341.3
11588.8
10328.3
8011.96
4519.62
5561.65
7785.87
5842.84
10768.8
13109.1
20548.5
6927.45
3515.19
3012.9
5970.76
5293.79
8639.31
4041.41
3628.58
5080.73
4332.86
1378.84
2537.47
1336.55
4164.78
3160.47
2609.38
3181.23
3145.42
3168.23
6056.42
2651.93
658.786
573.726
-0.397805
170.512
226.744
773.827
1104.48
2904.77
6121.81
3892.47
14655.1
9566.26
4392.31
5441.45
2456.16
580.586
63.7213
370.388
595.351
1406.29
421.421
-250.412
-965.048
1742.3
5278.68
3689.38
4971.18
6705.18
7650.35
1296.15
7979.82
6443.07
10159.6
9840.86
7846.15
4841.88
3049.68
4593.68
4012.07
4684.54
861.971
2192.02
822.236
349.059
571.025
244.354
472.019
53.0243
726.297
1144.31
888.471
989.31
3211.08
1097.4
696.259
655.462
21.2709
1043.75
183.882
323.105
-112.517
463.597
105.092
81.2033
405.18
1367.55
409.861
1979.27
540.026
1085.64
-242.545
759.473
1216.71
-34.9994
1832.08
229.765
825.96
723.946
3169.79
3665.58
4193.38
2652.39
1781.9
342.923
1712.54
1903.85
4448.89
3668.15
1264.82
8275.39
1762.38
-519.961
-594.085
-861.979
337.104
1667.09
2445.65
4167.45
2530.25
12304.4
9356.06
8985.76
7447.83
4081.2
1705.29
2622.9
1073.74
3912.89
2755.12
5243.82
4727.01
9255.68
6217.21
7293.24
3571.18
5758.25
7848.88
11183.5
13646.2
9029.11
6990.58
7534.27
11652.1
9402.64
7223.49
2797.83
607.001
1858.24
677.93
319.391
27.9527
2318.17
1646.09
1686.51
5327.1
9563.83
8868.58
9454.95
9980.7
5036.7
4772.66
819.778
2286.89
4433.59
8339.15
4996.84
5184.62
5277.67
2267.18
3759.34
3759.47
5999.33
4982.65
4755.98
8727.71
10404.3
12362.6
14745.4
14541.5
24269.5
16010.5
9489.66
11080.8
6070.13
4529.12
5845.2
6706.2
4296.79
768.726
969.945
567.416
668.744
265.261
-113.326
909.465
1386.29
952.795
592.306
2413.97
1297.71
627.812
346.183
282.782
46.8763
613.315
2463.41
1711.58
27.2401
116.381
-187.049
146.155
-386.59
928.774
-231.033
-794.514
279.486
141.531
-106.612
299.379
1280.44
1014.56
2663.05
2384.47
2120.18
2588.3
2039.09
1627.54
207.784
231.442
-7.46144
-82.2019
249.107
2127.45
2511.9
1439.43
4211.46
4416.07
3016.26
929.029
3135.14
9455.25
10250.5
7992.85
3513.06
433.635
1037.58
837.662
1055.77
795.647
1700.83
3417.71
4061.67
5391.69
2605.24
2572.08
1700.48
4277.53
2077.06
2020.62
2063.58
1483.47
2097.72
4869.62
2829.72
5760.62
2183.46
2016.56
2516.52
1359.41
1243.76
1322.02
250.879
154.584
-73.1072
1023.89
892.186
-96.3932
639.516
342.4
1746.27
2277.99
3050.01
1461.09
1810.81
3190.26
1905.96
2335.8
2052.67
1568.46
1553.14
672.288
1291.46
1175.41
2746.1
2543.11
1854.57
6678.26
7311.47
3599.52
2904.63
1644.2
339.904
3052.69
2451.98
-299.055
85.0031
667.442
1645.55
1243.24
1794.6
3528.3
388.689
990.326
296.677
8.36569
582.689
2202.2
1030.63
999.883
2081.42
4568.77
2492.23
5597.48
2688.37
7155.38
8314.7
10100.6
10669
10333.5
10699.1
7724.95
10442.9
7594.98
10498.5
5286.11
7644.38
5562.8
4591.51
7729.73
8899.71
5477.31
3049.68
2909.98
2354.21
7027.07
1885.98
2166.04
2621.78
3652.38
4664.58
1283.41
810.839
1681.93
3872.7
2543.53
2474.19
3678.6
760.378
2844.65
3033.08
1617
862.821
-37.9696
2548.56
1721.77
6204.5
10831.2
11632.5
15132.5
11707.1
9269.45
6643.78
6627.59
5976.81
7297.47
11910.6
3893.85
2682.86
5172.45
8761.96
13236.3
10954.3
4051.36
4961.77
3468.59
1297.64
1658.3
4785.78
1900.83
4191.77
5990.47
4925.15
2287.43
3852.61
2507.08
3913.13
2771.46
4337.56
2151.37
2563.06
1887.72
1421.69
1376.04
544.908
1691.33
4419.45
2567.78
2192.24
2773.75
4189.1
4135.16
2974.18
-241.373
-174.022
-534.698
1215.7
3597.27
2226.51
1128.59
96.4228
-144.304
1519.07
1876.95
1212.94
1835.47
702.779
1100.33
3039.61
3108.86
4554.36
3764.41
3992.91
3301.19
3526.11
846.855
323.369
688.414
-264.254
1974.83
3018.1
3017.18
-603.145
1253.03
2131.56
608.959
1786.4
3786.01
6691.04
6585.47
6159.12
5569.03
6880.38
6174.85
6889.92
13585.7
2260.15
4880.91
8241.63
5639.41
3351.15
1725.25
5442.01
6396.84
7994.27
6774.77
7766.18
3941.49
724.657
1268.58
1032.3
113.507
371.73
-173.18
2365.24
1341.37
345.392
1293.81
1713.72
2661.48
1559.28
1945.24
1736.44
1300.11
183.569
1309.91
135.13
384.775
603.354
380.503
1104.32
245.72
1792.12
1263.63
2412.75
723.411
2332.37
2200.35
3430.99
1871.27
1927.49
3304.95
3484
1576.76
1263.74
-81.5626
291.821
406.801
239.309
400.553
-46.688
219.949
68.101
744.848
1710
1118.11
-27.2583
865.363
1147.53
1859.63
262.162
-3.36417
2671.43
951.802
371.638
1606.91
5561.39
4737.71
2138.56
2380.98
6600.7
3354.8
4473
4986.47
1369.67
1093.25
530.921
4402.33
4423.34
4385.73
5998
1834.6
3519.43
2633.62
3844.77
2344.16
1549.12
1932.51
339.684
295.28
556.044
3507.8
1473.99
3651.38
2934.33
5622.1
844.113
1837.29
9100.53
11196.9
12996
11054.2
7486.11
6951.25
13769.5
8231.36
8029.1
1776.39
1119.59
-158.694
-346.975
380.596
1042.33
534.8
567.843
1590.34
938.792
117.465
2017.22
1443.04
585.624
-40.6065
1165.57
195.346
126.99
197.986
1142.25
867.947
1769.86
140.943
441.807
1741.53
717.736
-570.525
-23.7317
1307.02
435.169
792.756
448.883
769.598
154.131
183.394
512.311
528.953
294.426
898.793
1459.6
4434.27
9417.06
3788.86
7349.83
7016.34
6182.25
4021.55
4638.99
8512.25
8373.08
13852.7
11133.3
14253.1
9904.53
17539.6
15426.9
17763.8
20021.9
14893.8
15489.8
11507.3
9559.2
7190.42
7879.6
7940.05
2614.8
3997.41
3123.91
2774.46
2281.31
1816.8
-257.336
2094.71
928.601
983.249
-36.4766
571.236
1578.98
1384.09
-375.145
-136.743
961.683
127.339
1040.47
217.707
1079.81
1221.4
1703.03
3932.27
4409.57
7993.75
5972.3
3068.86
692.394
598.897
-354.291
-224.79
-27.9886
742.376
2261.15
1008.13
451.871
17.263
138.067
921.01
238.969
-147.985
344.647
2222.13
1534.38
593.304
508.996
788.468
116.401
919.796
1509.7
-998.959
891.638
859.201
-1275.48
811.237
-7.56106
-407.571
437.256
674.105
611.542
-700.968
161.322
-269.053
212.604
430.748
841.66
313.753
865.055
445.812
579.382
454.427
555.306
240.384
1153.7
1556.32
1564.89
2642.47
3408
2060.16
471.886
913.474
378.257
1669.7
853.83
1035.88
3990.9
7554.61
4310.87
1367.45
3920.05
7450.64
9182.78
3799.38
3425.44
7292.34
5986.88
235.028
269.222
1528.57
1332.56
4693.39
3626.81
2761.23
1366.68
339.833
2071.25
481.711
-186.228
4.21649
578.991
119.34
444.87
1090.28
2976.49
3915.27
4896.9
2469.26
208.647
381.458
572.563
1293.22
729.409
1390.51
314.73
675.361
-108.606
-811.93
-519.459
2128.98
8330.93
9345.53
11000.3
11986.1
2656.84
6180.86
7150.8
1918.59
2904.09
683.533
1433.85
1105.24
1179.32
4471.96
3266.26
1387.91
447.735
354.159
-137.729
-125.635
846.042
1671.78
381.855
-374.745
90.4907
150.275
500.685
1376.13
563.01
1098.12
3917.56
2611.07
2661.31
1444.29
1552.9
402.802
449.711
436.212
509.802
925.526
858.387
-357.756
130.203
-396.05
914.457
457.545
286.113
-844.285
-174.81
210.491
760.294
-3.91868
432.171
72.5476
1933.04
1930
1819.58
2338.92
1203.16
1639.72
1476.53
1676.12
883.469
1881.28
2317.33
4443.13
4168.14
3500.08
1003.36
1104.82
2865.51
568.263
2000.79
4757.85
4233.54
4697.35
5513.42
4739.1
3453.62
3814.03
3732.93
691.977
2785.78
4246.62
1431.71
366.515
374.996
925.429
-152.339
808.669
194.665
-404.268
871.496
901.633
267.06
3299.66
2187.63
3298.23
2976.62
1308.13
2891.55
1349.37
321.675
2326.73
3230.59
1789.84
887.931
2208.12
554.37
591.855
2219.98
2174.51
5308.04
1200.07
838.759
241.838
909.445
467.183
174.936
1072.66
2212.85
356.13
-131.467
-25.0818
1113.36
3441.9
4914.09
1411.84
1583.13
3330.97
3543.43
3778.61
2763.05
5210.89
4261.29
3084.37
5556.85
4950.59
2989.24
774.643
1091.65
1827.97
1587.57
3955.77
9570.1
7092.41
10421.8
9222.95
7304.16
6747.91
7963.31
10760
9193.09
10368.7
6522.97
8779.93
7468.85
5918.74
6061.63
3890.94
2405.32
1651.68
1773.06
2284.21
-12.7314
672.651
1157.35
1421.5
2470.69
754.927
720.873
199.836
213.714
824.864
553.949
-200.876
2512.07
2778.55
1099.46
330.091
1102.75
2418.38
1947.45
-267.296
-108.915
98.3514
369.353
809.323
1594.38
4095.59
2650.64
3239.49
4972.38
7363.16
2417.09
1368.36
2061.71
1837.52
1089.79
915.482
2546.21
1726.48
3010.83
3170.89
1270.64
344.561
695.099
3186.13
3634.3
1865.43
1159.76
4331.12
2917.5
292.727
1589.69
-59.9209
752.966
3071.47
5664.68
6021.49
3441.82
2734.5
2028.22
2180.51
1389.08
-138.092
-70.7737
1006.24
1882.06
1375.69
3474.54
3313.07
5329.31
2656.61
3719.87
4900.03
2441.56
165.333
456.532
1600.04
2046.19
-53.2567
-473.484
408.163
172.92
859.472
1316.75
1584.86
687.699
719.479
2404.74
993.521
735.764
1350.29
2339.18
3388.15
4750.68
3621.42
6340.91
5589.56
2563
2710.33
1880.44
1211.08
2768.04
562.518
528.746
641.228
815.119
1355.87
1112.6
2574.7
5020.2
4571.59
4370.93
4081.88
3839.94
4907.51
1959.19
969.086
779.351
3000.23
2572.11
6812.73
6799.23
5509.69
8159.42
6819.35
4924.21
2867.09
-163.725
1481
1613.76
1641.85
1207.29
-13.693
1575.42
1349.94
1856.74
5252.79
2764.57
1953.5
5221.17
8284.78
3626.71
3750.87
3775.82
3489.51
2322.39
731.507
63.7267
446.931
1790.21
3192.31
2418.92
950.811
1639.91
-98.3582
850.464
258.283
6.80369
887.811
517.73
4172.71
4776.88
2020.32
1860.89
3195.19
3435.81
2998.13
3179.65
1462.21
681.013
26.6448
848.809
87.7797
543.897
433.738
-29.1103
-110.153
1596.64
730.728
133.835
1043.49
989.183
-16.1267
836.971
1728.54
186.365
-561.559
298.321
437.741
-59.1252
449.478
268.08
428.334
-776.062
1107.84
4194.94
3880.12
2963.77
3563.86
1505.02
298.246
1482.4
-164.08
2176.94
2123.82
5767.04
9901.14
7521.31
4194.12
4967.06
6895.23
2506.29
3844.08
3588.07
8040.64
7018.35
8800.6
14749.7
17081.3
6792.93
5146.42
4567.7
10836
12282.5
8065.33
6267.81
7037.8
9703.22
6386.2
7499.42
1126.48
800.439
3905.22
1752.74
729.83
876.912
697.722
-443.621
-42.3174
772.858
1104.42
1736.11
2922.26
6061.99
5519.59
4536
7560.34
5058.09
3248.57
4691.74
5168.18
1457.38
51.4939
-296.985
-1175.99
-87.2795
1540.36
2933.54
4273.95
2356.21
1102.29
274.193
513.354
716.731
621.521
531.007
-186.041
300.527
744.681
332.336
725.938
1031.72
-197.434
-39.3304
1996.75
540.635
103.997
360.052
385.887
657.172
752.426
-672.784
-339.362
190.967
960.212
1362.26
103.19
1008.47
128.238
1025.02
4434.88
2907.8
92.9277
-494.627
-370.41
1981.57
1596.95
625.719
-717.116
856.271
1642.73
241.497
75.5551
187.731
382.192
2139.89
474.486
-555.103
2675.2
1632.01
1403.55
1011.19
1232.73
419.485
-152.593
96.436
692.913
6006.72
6249.49
4317.17
4165.59
4844.82
3996.02
2111.66
630.686
479.504
3089.66
-247.764
1499.07
917.943
1280.27
2042.33
896.33
234.519
150.08
262.941
639.571
1212.34
-14.7498
183.901
1294.79
379.95
373.867
568.278
3451.03
2809.18
2949
1570.78
1862.64
435.754
554.759
1566.65
2153.37
463.392
1577.29
4267.72
3834.85
4989.26
2459.59
2182.45
1923.44
598.918
-143.698
995.049
671.337
2120.96
265.697
673.624
2226.49
2317.5
2779.66
1424.83
1636.38
927.648
41.015
191.69
1018.48
1720.8
1415.16
1337.2
3651.82
2992.5
2470.29
4330.41
408.895
874.5
1214.32
1170.97
454.065
974.008
1141.72
1409.28
1770.64
2611.08
2093.39
1644.88
1638.65
1906.61
629.506
508.161
2790.05
475.112
994.151
50.1818
-46.7066
211.311
320.099
1563.55
3235.68
477.189
-43.734
545.753
377.793
-72.5446
295.854
170.952
1148.28
1477.12
391.508
1572.26
-257.231
2079.05
2754.25
1535.14
-314.666
1135.37
4644.05
4599.64
9352.8
7527.91
7626.54
4301.58
8698.74
9010.37
12391.7
9499.63
14327.9
10245.1
14287.1
17088.8
13018.6
7500.09
3232.03
3365.16
4546.07
2226.19
-54.8104
352.395
43.2653
789.084
1412.01
2481.7
2720.12
6177.71
5909.49
3051.88
685.377
1178.83
886.073
1746.74
893.862
1961.15
2302.32
1651.73
1627.25
3157.38
-215.135
372.907
1021.86
1998.25
1308.91
1287.56
1118.78
-37.5119
329.211
108.351
921.535
1360.25
2861.24
4808.43
3313.73
4589.95
5393.2
3195.62
9491.64
5162.31
7366.01
11106.2
9415.74
9717.29
11171.6
17781.1
15549.4
12348.9
7623.48
7527.91
8485.85
9601.99
17534.3
5534.58
9014.41
5833.13
5307.96
2756.83
1438.71
93.5597
382.529
2956.53
3137.41
1072.46
-334.189
-538.722
-590.298
1710.87
2665.04
3391.8
2688.44
2343.22
592.991
150.078
409.283
1493.16
1642.07
2084.2
1727.12
2598.77
283.734
2028.34
2327.5
1764.55
1062.65
3905.71
1346.62
2497.9
1372.47
826.572
1791.26
490.998
587.349
2010.45
1513.15
1002.53
154.902
-59.7342
308.17
1619.5
-143.243
1020.15
795.585
550.52
873.738
169.105
1117.63
3720.14
4831.71
4639.92
5636.98
2707.67
5042.95
2695.57
5400.4
2781.57
3391.76
3878.92
6729.55
9604.78
3553.08
2947.38
5423.63
7338.36
5814.9
5865.27
1643.98
3171.16
4910.28
8853.48
5865.37
4993.91
8668.58
3538.06
2979.73
5753.37
4710.42
1401.65
1897.29
-32.0949
2051.31
5155.63
9773.07
7028.61
5063.65
6935.08
6940.94
6711.87
7472.14
7239.71
6400.61
4908.94
766.247
-389.976
864.868
135.173
1790.01
2366.64
3151.48
643.073
3525.49
5530.8
6974.53
3816.59
5456.64
4761.97
5209.37
3299.94
2117.78
2749.69
1336.28
52.4316
4258.75
4538.26
6658.93
6118.39
1801.53
845.025
1417.19
1177.12
1871.92
3349.29
6039.98
3384.39
2599.58
58.3296
831.311
1986.73
1864.18
2806.63
2202.96
1348.93
4943.76
5086.88
9207.35
10801.4
12324.7
11374.2
7868.18
12261.2
11020.1
10883.7
11147.5
15373.9
13128.2
7865.51
7270.5
3952.89
1440.1
664.781
2474
1398.51
416.317
75.6621
-6.88595
1429.76
2419.73
1026.22
1922
2137.11
830.031
337.222
786.878
1063.84
2141.13
3616.82
1809.87
1073.13
1452.82
440.25
1531.2
466.809
1273.69
-299.728
1106.49
1505.3
5308.56
3423.94
1931.89
527.573
1550.35
1243.83
624.626
-231.783
746.528
1414.17
1600.76
864.226
2354.08
3359.19
3665.04
4508.25
3788.53
3891.75
4279.83
6610.57
7098.89
6977.77
9978.14
10624.9
10679.3
13296.2
11203.3
8647.13
4325.31
5505.89
4098.78
6086.64
5364.44
8267.83
6967.48
5869.43
897.402
2502.41
4611
3246.62
2023.64
804.586
-557.841
1453.23
-23.0279
253.578
1106.6
2265.55
3994.01
800.119
1076.29
1335.77
4226.87
4027.37
2268.34
-148.092
-1004.59
66.5737
-612.01
-342.734
310.905
521.828
1796.88
1494.53
2412.26
1160.38
1361.03
-202.053
153.762
-108.749
596.099
144.55
190.39
328.261
2487.19
3026.48
151.523
3510.61
719.961
1021.77
796.422
-197.847
439.516
394.338
473.291
471.71
3490.98
4077.19
1453.51
2383.48
793.042
3183.49
6023.9
8795.89
6590.02
2616.97
2365.27
4282.76
4483.31
5023.5
1156.27
2843.14
1919.27
2763.09
6738.47
6914.77
1923.15
1159.63
1184.14
1605.01
1411.3
1002.38
2342.58
1780.43
401.468
518.936
616.343
659.397
2038.13
2592.15
1884.17
1204.01
470.792
780.831
132.206
880.512
1434.86
1715.81
1285.81
1628.28
900.002
1524.72
989.925
572.954
41.4713
-309.249
199.161
1328.49
905.209
3163.67
1311.23
64.7146
754.161
153.953
259.892
1105.81
880.572
1026.22
118.462
-907.792
68.0414
658.509
1472.32
499.03
1978.61
4090.39
2818.94
2574.22
1514.82
-258.155
387.966
-247.476
125.134
271.186
-36.6426
653.318
302.142
359.952
470.424
382.981
1544.62
2103.33
3303.75
1529.32
1870.39
2528.42
820.062
242.519
-90.1185
1566.55
537.562
685.909
570.659
178.754
-191.862
1117.13
2810.17
7646.01
3209.83
3840.31
6442.82
1987.52
910.604
504.158
1400.04
705.208
191.058
838.606
1719.1
2866.84
1801.95
1032.66
2704.63
6039.25
7592.09
6622.19
6654.12
4987.33
9251.79
8728.18
7319.26
7180.48
3783.07
2597.92
2856.65
1890.53
2613.27
2864.38
5384.24
2948.31
4170.08
5483.86
8038.15
7915.88
6788.64
3037.41
654.686
1282.05
1043.84
1609.89
2806.1
1895.34
1700.97
624.649
-92.982
635.27
168.026
951.826
1256.12
1695.99
4188.78
2110.71
4663.85
4187.78
975.815
759.512
3169.28
4344.4
5084.43
2535.69
1996.35
1160.15
888.684
905.74
20.1041
-280.376
785.969
-92.2934
482.578
223.892
1890.95
2896.34
1907.84
1163.29
171.351
620.519
155.744
1643.79
4232.48
5774.46
5249.04
1655.02
1174
916.524
-104.196
-151.507
-97.0279
410.143
1574.18
773.901
1168.9
406.787
-51.6993
403.511
554.983
2747.21
7047.33
1180.68
2411.66
4136.21
3839.74
5200.19
6745.28
3539.92
4982.36
7450.18
2676.95
3079.92
4029.66
5699.72
1527.69
3795.43
973.367
2345.48
1972.54
502.121
238.53
2406.22
6528.43
5927.89
4397.96
2052.88
1351.98
461.433
311.414
147.04
-147.923
968.746
370.231
531.289
-402.45
451.396
3078.99
5063.88
5935.51
3642.69
3662.86
3304.01
5643.78
1959.53
4032.29
5424.35
3238.55
11126.3
11055.5
8952.81
12330
14227
16850.2
12399.5
14948.1
18577.7
17315.7
22439.7
14431.8
12560.8
11895.7
12725
9261.57
7926.02
6752.09
7632.98
12615.5
4640.91
5422.16
12979.9
9753.55
6919.73
6018.52
4063.09
4313.81
4859.55
7689.75
9265.72
11278.1
10940.3
7021.33
7438.28
9281.03
9474.7
17619.1
9927.83
8623.58
6294.15
3205.22
4988.07
7700.75
7501
4556.39
5512.65
8710.02
7692.14
7501.17
10964.6
7598.09
6189.4
4865.86
3565.6
2784.14
879.966
545.926
3730.7
1243.46
2336.2
1073.47
1565.81
327.856
1552.61
2327.81
1329.15
4945.81
4736.74
3179.3
1626.7
1277.6
5.13236
1144.06
3395.85
1687.19
2298.06
2935.95
4798.31
4897.26
4671.4
3599.08
3187.37
624.079
378.965
2.51637
334.851
810.469
279.328
190.027
383.243
191.016
527.186
277.017
69.2252
229.833
719.825
118.214
671.772
806.955
2754.3
1184.04
3783.24
7988.89
7173.41
8984.91
9833.83
8243.94
9858.29
10947.3
10785.8
9528.2
8462.35
8222.92
10413.5
10391.7
17207.9
14523.4
15035.9
9887.25
4269.07
611.866
1064.43
683.955
1236.13
-157.25
-408.055
-222.795
2593.01
1264.74
392.661
-22.0301
757.8
877.598
970.194
778.19
384.688
-181.348
6124.98
4048.28
5657.43
4664.49
3412.53
2713.64
6208.22
3137.33
1316.66
1974.93
439.497
-336.572
10.6384
2983.72
3686.28
9519.24
8130.87
5318.17
3734.57
2026.62
1593.7
824.505
495.618
306.455
514.908
537.739
805.317
1771.84
483.392
2079.16
204.386
-169.092
-348.144
-366.838
20.5841
1085.04
762.415
123.749
615.415
397.973
281.346
335.713
200.267
152.566
481.2
2306.57
3361.46
3756.01
3167.2
3215.32
3300.97
1351.21
964.801
13.9854
1411.53
753.294
2312.39
2126.74
1709.39
1365.39
1819.99
2554.64
5211.32
1599.34
415.469
1268.91
2781.08
4220.57
3855.47
6956.75
2840.06
868.336
1655.21
632.124
732.183
4938.3
3256.99
1657.1
683.43
367.428
-147.852
-595.501
-303.647
76.593
1316.48
2702.43
2110.91
1694.87
519.859
703.388
565.408
526.81
141.732
2318.61
3547.08
3235.7
306.503
1018.29
287.448
3045.87
1784.76
4214.76
975.762
394.21
23.7835
422.85
1155.76
2642.9
4461.94
3151.13
6881.99
7052.26
4810.69
7640.74
2590.66
1796.69
2246.26
1636.41
309.857
1463.89
702.888
599.58
2289.91
1431.86
1331.47
2782.66
660.34
1057.38
-368.012
748.428
3293.46
2257.74
3454.46
1702.67
781.858
293.398
89.9463
1012.03
1036.81
390.19
1163.9
3359.36
1161.1
1733.5
1024.14
3957.93
5306.67
1516.27
185.479
988.581
1306.48
4079.53
2953.63
4665.82
6054.85
6496.39
2036.92
169.727
2359.85
2568.13
4693.38
6829.52
6379.13
4180.56
2204.34
1419.7
2233.72
2804.54
5716.25
2321.57
3997.52
3720.96
1229.55
-85.4356
2674.91
1943.67
1462.34
1017.13
389.207
31.8974
1888.96
1808.99
-30.9157
803.519
525.712
271.21
3064.91
1282.92
2795.31
2516.57
1186.7
1980.19
3955.89
5303.77
3944.2
6265.79
2523.05
2550.1
5083.32
452.876
1464.96
3390.57
1042.85
1199.39
1763.28
2934.13
5980.92
5824.65
4260
4170.69
5038.56
7000.95
2770.92
1589.2
2241.45
2375.58
4764.71
3099.41
4946.45
3663.18
1140.3
185.468
67.0837
1624.22
1493.03
294.768
-61.0823
4990.82
4529.1
4382.4
4650.35
4436.62
4612.35
1970.15
3822.12
4320.31
7963.55
10975.4
9643.18
5129.6
2822.08
1540.14
135.584
-227.761
1960.87
1420.06
-29.5368
-169.839
1241.47
1293.01
1672.72
2031.16
4278.22
3191.87
2163.72
1191.44
2040.91
2348.26
943.108
683.569
618.746
911.755
3179.71
1373.9
2816.44
357.741
1578.9
216.395
760.894
382.098
345.883
408.772
-39.4122
-158.263
2278.67
2000.47
2575.42
5118.78
2535.17
1370.01
924.164
748.792
693.274
691.586
3287.21
1407.22
1328.77
3189.88
3660.52
1003.94
1284.54
4286.41
1930.97
4854.25
3073.02
4606.91
80.3977
1836.23
3351.36
5183.05
8467.19
6683.92
4249.59
1461.68
475.369
1195.3
-777.479
85.2753
571.623
1391.01
1444.91
-203.065
2097.98
539.785
4516.82
3789.65
1144.29
-37.2345
2455.47
2040.27
961.026
141.283
-73.6099
-174.739
128.248
1753.27
3233.32
998.828
553.397
2627.79
2559.02
2772.97
2475.81
4053.38
2098.26
2640.31
2122.36
893.682
-289.336
978.056
481.438
1587.8
1197.32
2196.3
413.019
40.2706
2855.49
2227.03
343.822
1488.6
-203.723
316.561
1643.47
416.773
1739.27
1135.11
1985.17
1385.93
1326.97
1217.14
-81.0592
296.185
128.074
71.2621
87.8935
1187.76
203.788
353.426
6108.16
4775.27
3599.85
3239.43
2533.24
1369.96
1496.84
563.729
1322.83
3076.66
1429.63
999.49
1860.01
1547.22
1291.14
3971.97
4474.73
2258.94
5421.86
3546.59
7322.54
2072.68
4262.88
1412.86
718.623
787.255
2010.83
-19.1742
1250.97
2490.88
158.101
575.428
-77.1266
306.37
-453.87
3601.95
1343.27
2473.07
1486.5
-170.942
-35.6336
62.7313
182.568
1326.19
1488.62
-431.845
-715.377
374.444
1031.02
1581.75
1469.18
781.481
198.334
744.746
968.448
161.669
1606.58
1726.22
3568.97
2881.71
3663.49
5644.4
3612.97
3139.59
2254.9
2606.13
1052.5
742.735
1034.26
4564.97
5840.72
3946.86
4027.21
1188.2
-233.269
667.622
841.671
-604.359
175.741
164.419
444.603
387.231
650.079
-88.0396
574.096
2647.64
2588.82
984.515
366.7
1170.18
1258.26
2460.7
736.493
514.784
1360.49
-435.659
575.735
1139.07
597.87
-539.539
425.825
643.284
317.07
317.63
253.528
829.419
546.719
45.9368
175.718
1552.83
4062.89
2758.52
95.3799
440.316
506.104
2853.9
3394.7
1433.21
-141.458
751.919
1448.18
206.128
96.357
85.8575
1104.43
3063.48
3934.37
8221.49
4117.88
2344.19
-18.3952
466.137
-256.238
-333.447
71.1063
368.995
1950.45
2919.18
3785.68
2621.83
712.965
668.143
423.441
1851.29
3572.95
1143.37
502.965
609.312
102.795
561.022
1238.23
1560.46
1258.29
483.289
54.1985
1738.55
359.068
1467.84
3724.27
6165.36
4255.81
1834.2
2407.11
2107.46
323.932
231.843
857.043
2479.87
608.896
819.968
1669.44
1061.81
2710.48
1422.67
3654.19
2181.1
2360.43
2046.25
2254.4
1603.21
7271.52
3519.29
3416.96
1196.11
2942.38
2212.09
677.082
272.74
443.283
2019.17
3413.66
7635.4
4459.26
12021.9
9549.39
10244.4
13067.8
5964.81
3807.88
3285.46
206.909
11.0945
363.167
156.272
1857.31
720.726
1111.23
972.433
2179.02
947.18
-533.545
671.571
856.646
192.583
451.182
813.591
905.498
881.695
821.819
632.007
714.573
814.09
-157.069
1367.33
-257.23
27.1546
265.405
1037.33
1582.04
5138
5398.82
846.566
2493.88
3624.94
2548.29
1881.83
1646.47
1566.25
1307.43
1034.1
549.309
799.991
399.403
1903.44
5218.25
4274.79
6743.25
7543.08
5253.85
6300.79
4737.25
5942.24
6356.43
6815.02
10190.1
14166.9
8443.48
7891.2
14527.8
7876.81
6229.95
4839.24
4402.16
1640.04
1160.49
174.849
2975.45
2865.55
4211.79
4705.8
3190.25
3121.02
2910.03
2232.35
884.61
2033.39
706.91
1409.3
315.403
-407.174
136.967
456.77
113.748
-3.13104
187.588
3486.81
7127.69
5451.88
6244.03
4052.06
3619.14
3253.83
661.06
1708.69
1653.79
4552.54
972.839
372.213
466.403
700.834
1119.15
2088.43
2146.41
3710.66
3389.84
1813.89
1161.61
493.809
73.8958
2002.36
2802.92
3618.18
4689.36
3666.66
1795.89
3687.64
7668.35
3151.35
6709.01
7182.57
6848.06
6878.48
4353.68
2239.68
2812.86
2649.83
1249.54
653.795
1634.32
2734.24
1729.38
-830.491
-694.877
1302
2852
9433.95
5657.42
2941.99
2935.3
1552.31
2388.21
783.196
134.328
1349.9
1142.12
1656.21
1472.04
931.488
997.989
2465.62
2442.17
832.97
1290.27
433.755
50.6717
999.256
1509.16
2522.55
378.65
458.447
1376.86
613.414
439.116
648.464
1144.12
1368.37
862.41
1880.8
984.098
298.667
85.7792
147.755
226.313
1684.84
1463.44
82.8773
-249.098
285.27
2010.61
2721.94
4031.7
8553.73
8498.29
6992.25
3199.28
2758.83
3190.08
3939.57
2312.94
756.21
1878.47
3261.49
2297.24
731.415
-75.8578
757.381
-131.476
304.109
2308.64
2329.53
1452.99
2393.91
4101.07
2493.04
1819.98
2593.55
1477.81
106.978
380.851
1400.56
2623.44
1363.75
2250.27
1870.09
1338.59
8445.77
7164.38
2025.36
-138.931
127.678
-163.875
287.729
874.213
714.844
1787.73
2123.91
4118.87
4588
5857.47
3851.29
2003.91
3753.55
823.678
368.593
294.081
-326.028
21.2451
-29.0372
394.49
406.402
43.1017
2166.15
4290.92
565.56
2056.56
1889.84
50.0168
-343.588
581.497
636.943
4288.01
2476.16
1187.97
1618.26
3982.67
1430.05
462.341
144.792
370.097
206.833
78.8325
507.437
11.3917
432.691
304.818
1398.22
445.628
1749.12
1512.17
768.6
1338.3
4983.11
4687.02
5259.56
3140.99
1830.6
3070.13
1888.63
2039.53
1488.03
1862.06
2058.55
298.525
1178.74
731.839
1081.13
932.419
1986.4
3866.3
1092.38
1987.93
1638.1
3112.58
4041.5
4278.25
2158.84
2187.17
-871.91
-57.2617
-203.236
436.28
251.727
1299.19
5613.41
945.136
1358.51
1573.18
2659.34
1829.99
1681.65
1908.24
133.116
70.2284
1964.86
2029.95
1176.9
4301.01
1329.33
5424.65
4986.18
6328.46
3190.38
3866.25
5224.35
5354.8
11053.5
4172.67
7080.71
3532.11
451.09
1022.12
1473.81
-166.788
-107.245
-90.803
1126.78
2141.23
1257.82
1402.58
2618.03
2953.7
3838.6
5791.48
7679.92
9436.84
4469.78
1748.08
5106.32
6537.9
10576.6
6036.91
6370.49
9002.88
6565.7
5989.34
6266.1
6407.78
5508.07
5520.33
8971.15
3885.46
3215.53
2687.05
4363.9
1051.79
2247.59
2603.83
3533.66
2758.55
2789.63
359.522
788.18
735.927
3136.35
4502.31
2222.77
-229.513
371.112
377.98
1647.14
3244.37
6395.56
10882.9
12069.1
15520.2
20925.5
17467.7
13231
6676.64
2954.28
4049.27
1244.62
580.087
1567.54
826.609
17.3956
508.33
820.509
331.5
-800.518
852.11
1413.62
-159.227
855.897
339.262
805.108
596.321
451.125
1267.12
1928.16
2216.64
893.686
952.458
90.2807
925.604
2085.04
1842.31
926.954
3386.92
2581.38
4571.34
5290.01
3269.67
767.973
365.613
1021.45
997.682
638.183
1387.91
1239.4
360.566
-63.1915
-412.364
1873.53
1418.93
1229.38
748.479
471.382
3681.25
1965.93
3294.18
3954.65
4448.9
3781.5
3574.13
1199.22
418
1418.89
1196.06
1017.48
1971.23
335.863
427.813
230.908
-56.954
264.205
682.797
-349.835
742.929
2434.91
3182.02
2168.96
7248.53
4924.2
5826.76
3827.49
5396.85
4937.33
3700.3
1409.12
241.126
177.136
-32.1335
682.46
158.07
3019.24
6547.99
6621.05
8320.32
6265.22
6227.51
5198.55
627.487
1210.89
1210.57
1663.86
5625.79
4006.81
5419.77
-343.859
963.205
1588.97
1724.79
1474.38
3763.69
5651.84
3198.72
4473.29
1683.66
4119.4
4131.43
1831.11
2271.94
1539.46
4108.52
2775.98
5314.67
2952
3616.78
6879.37
2107.82
1271.62
1893.02
825.998
-399.414
779.701
262.691
515.166
726.263
386.984
-153.202
1686.02
96.9882
83.9448
455.609
2641.42
2591.59
2516.36
1255.28
291.164
-322.009
145.82
682.714
-438.31
-166.359
141.776
486.937
631.276
922.525
675.298
330.679
3942.5
6401.96
3172.29
3994.36
2267.97
1789.48
1794.77
927.729
3773.6
3383.04
6942.82
10464.6
7164.38
635.7
169.021
1151.67
1687.25
2117.47
4998.58
340.035
576.216
981.318
74.1478
321.217
526.222
-577.621
560.865
716.685
225.301
390.658
1699.08
-756.285
1263.55
225.899
1125.88
2734.35
3838.25
3139.8
4054.83
1216.8
772.715
602.638
1374.04
116.18
46.925
2254.33
2109.81
3995.88
4818.61
2369.85
6927.04
2292.32
1560.86
847.253
618.071
3002.07
3382.65
1635.76
1494.26
678.961
2416.92
2707.72
666.351
3676.18
3365.92
4050.58
2888.74
5149.71
6452.86
11536.1
9689.55
16838.6
7823.59
9592.51
8216.93
4055.59
1005.21
1448.31
2105.74
3660.58
2080.84
2783.81
27.5032
1325.59
1417.16
1161.04
1730.52
1771.81
791.404
3412.41
4392.23
3018.68
5743.33
5136.69
1316.31
3183.82
5534.42
5272.4
2962.38
1749.95
7014.21
6457.46
2028.29
-89.4713
2729.22
1014.08
-782.803
1032.24
-662.097
4090.02
1133
2204.33
3508.33
4031.3
3385.67
2954.47
3395.35
1767.17
2905.76
1374.33
293.309
1029.08
3776.9
3393.5
4921.07
3908.27
4538.18
2404.78
1844.81
3250.23
3118.85
2077.26
1826.66
2253.8
1453.92
629.749
-430.459
-132.082
1135.31
3247.06
1830.64
1529.02
2029.98
413.292
438.032
939.017
2024.45
3849.01
1488.93
84.6504
808.004
1790.84
827.587
4213.76
1640.2
1794.96
3276.54
2131.67
1335.24
937.142
858.607
938.935
800.555
-44.3801
325.628
74.0197
1400.8
470.412
666.515
831.114
1969.62
1633.41
3251.48
3125.43
6198.16
4230.83
3936.81
3171.65
2387.4
3082.06
1499.89
250.216
551.722
392.122
69.7815
-903.376
-392.916
213.199
814.889
524.091
-664.362
2347.45
4377.57
6595.3
3951.15
494.805
430.771
1819.4
1496.66
2223.95
1761.98
606.433
448.033
982.827
961.404
376.249
565.336
1944.42
3075.2
479.598
481.054
360.259
2.73715
129.626
2410.86
2663.17
3282.2
2457.6
3515.35
1949.74
1424.74
2671.8
1762.37
2381.17
2731.57
3309.85
983.888
1381.52
2515.4
3756.98
4812.3
4672.12
6252.16
6243.1
6847.02
6124.52
2367
3188.67
743.194
853.549
144.08
2341.82
4683.27
577.687
852.936
856.534
132.422
738.487
280.077
677.534
192.622
-93.1082
728.774
-216.327
-590.776
794.273
3552.83
3114.2
4136.83
3018.17
2362.04
732.901
755.746
4525.67
458.962
387.567
1178.79
1349.95
2627.77
519.339
942.352
272.437
939.631
5069.13
4306.39
3062.64
2848.96
1048.81
107.032
521.126
1276.2
2362.81
1869.48
4021.01
168.31
-16.6791
7.31765
533.825
909.852
269.171
1728.43
1160.75
-168.616
3503.52
6964.59
14454.7
20194.8
20195.3
21337.3
16760.7
12486.2
12204.1
10910.6
9112.09
2827.79
1199.43
689.017
718.671
458.924
318.716
-45.3916
822.08
929.683
425.618
643.898
924.165
2145.75
3445.2
5907.37
5752.43
1710.98
900.683
5069.33
3795.07
1601.25
1099.38
777.443
2087.82
-594.551
-425.906
571.213
1761.07
2645.76
1403.34
1751.04
1899.15
257.328
241.137
1257.16
168.028
414.612
449.208
309.311
1300.17
340.737
602.829
676.837
3011.86
1843.25
939.739
2270.57
2796.15
672.796
316.527
757.332
1066.19
4433.51
4684.45
708.639
-18.3808
725.199
1673.56
422.923
368.309
304.404
-211.566
872.325
1582.07
2104.35
2987.35
934.994
1507.87
785.67
1413.14
41.5841
855.731
3803.47
2883.52
2942.86
3052.13
8292.19
2268.1
2283.68
3666.55
1726.89
656.173
440.452
2482.49
323.566
481.772
1812.89
9257.03
17777.5
15208.3
16252.2
6526.72
4224.28
319.32
2736.92
1490.84
211.925
906.785
967.078
935.716
502.17
-315.695
1095.56
67.3042
185.666
408.239
1025.89
658.516
2696.82
2038.1
479.865
765.179
-2.52624
422.984
-72.0692
-91.1097
1154
905.629
704.02
2023.1
1690.55
2433.01
2068.3
-19.1683
369.011
2296.68
402.001
2785.39
5764.92
5929.93
8996.88
10662.5
16943.1
14528
12018
7564.33
4208.49
4582.78
4209.45
8773.92
4676.21
3728.06
4092.19
4010.24
2820.8
3080.68
1418.29
75.4668
780.885
1454.3
651.915
339.397
2325.44
-205.758
35.2582
600.888
796.825
220.706
-263.846
717.539
2450.48
3242.26
3873.21
4707.26
12143.4
10958.1
7862.25
8603.65
6643.36
6114.72
4409.25
3253.44
3805.64
1740.49
2261.32
462.18
90.7858
628.809
674.378
-25.3497
209.801
-537.663
354.328
1506.19
1449.43
4502.27
1900.83
3470.91
2880.96
2147.37
5788.89
2164.22
1503.12
3998.89
2518.39
7350.41
6064.62
5971.32
3968.2
4089.85
4778.89
2836.29
3066.38
6244.27
2318.59
1007.48
2352.89
3159.36
-30.9817
288.715
864.576
165.477
961.787
621.968
209.693
278.428
887.074
-406.344
-2.33189
-301.198
-94.9411
1441.92
742.184
492.62
96.6195
526.151
791.299
1171.37
1251.8
1367.76
4424.05
1582.78
4581.94
4374.99
2927.77
3139.38
1492.05
2377.48
266.369
31.8718
-251.437
518.848
1320.92
486.008
1088.59
11.5449
-87.2254
878.886
1387.49
3386.31
6907.64
7746.08
8794.8
7714.47
12557.8
9007.61
7068.66
3631.03
7469.74
14286.2
12848.9
8502.49
7756.95
11387.8
7980.91
9173.2
4370.45
5134.45
2002.25
539.113
487.921
1312.04
4259.29
2308.22
2007.93
2208.14
4852.78
8047.14
7728.05
5060.21
2687.37
181.468
265.494
163.787
1018.44
117.533
388.375
688.61
-82.6691
2177.87
1533.6
-293.081
713.612
79.2618
1222.81
2210.08
3483.99
4320.19
3128.25
528.778
1849.5
1277.72
1049.78
-926.866
1147.21
-463.503
943.913
2550.96
4293.16
3602.74
1532.54
-355.273
765.697
-11.0711
1388.83
2079.96
203.934
1398.4
389.985
648.659
639.211
524.874
495.036
72.0683
1647.33
2076.47
3225.93
4062.28
4881.82
486.672
1654.37
878.315
2895.23
632.396
1013.94
1030.38
894.586
1065.33
1388.92
185.493
1082.76
269.715
2008.81
822.856
1941.86
1133.42
9628.66
8180.46
3731.7
4810.83
3252.21
1834.45
609.522
844.863
538.716
2017.75
2373.13
1911.18
576.962
880.077
901.921
1829.29
-132.925
2163.83
479.045
1515.65
2007.28
1319.41
1634.09
1019.23
1631.39
760.245
1103.29
939.582
-386.518
553.568
623.652
397.633
-51.163
3205.01
1902.49
2352.65
505.753
-239.484
498.016
842.409
160.299
-112.667
-174.085
357.965
1134.17
2132.66
-143.742
165.921
-26.2137
210.29
136.723
978.424
-323.03
1952.79
3560.29
1020.01
683.222
2151.89
772.391
33.3957
-90.9872
511.408
590.411
1065.36
2152.61
1801.11
495.582
971.291
1871.16
760.292
442.432
564.91
968.608
1253.49
2410.76
1105.03
2198.84
3142.08
3253.53
3226.11
1511.79
1371.53
2209.91
2984.4
4285.81
1992.18
2398.35
770.348
1988.54
6412.77
1498.69
1334.83
1296.69
1284.28
1764
1267.68
-4.22565
32.9145
375.101
653.395
573.67
-87.092
2174.4
2351.58
1978.71
1712.13
1394.15
1333.7
1530.32
-253.924
1489.19
1484.48
505.509
-207.276
3439.62
2420.69
2714.63
2337.93
1831.02
1009.53
3899.85
4065.52
1535.36
169.356
329.011
1096.93
3065.91
3831.18
2730.71
1935.11
1139.32
17.6554
129.357
-296.19
858.383
1413.56
467.332
1774.82
871.689
589.186
187.695
156.708
559.576
3418.1
1292.62
436.932
692.477
1392.78
1103.7
-631.988
198.92
1110.19
626.163
-105.307
-311.931
856.144
788.19
1132.68
1627.89
2606.85
1452.42
624.375
1085.73
2226.03
7152.99
1793.68
4213.04
6345.75
6542.47
3373.12
2766.69
1887.89
3814.44
2341.43
2618.17
1262.29
-312.04
606.547
1147.19
622.902
896.753
795.67
600.484
885.65
2788.04
234.201
634.46
2289.43
7947.95
7324.54
7246.67
8616.56
14055.1
8471.76
18439.7
22882.3
22053.5
24769.6
27941.7
14650.2
10796.3
9333.22
10110.1
6977.04
3214.81
4495.82
3101.03
3504.13
5741.76
5219.63
2505.36
696.839
894.386
435.873
769.13
1216.01
723.046
1994.25
476.763
2491.75
1427.97
148.607
-50.0032
191.711
1912.69
522.463
611.799
-78.7137
26.9266
1205.24
1675.44
3441.34
1496.44
1142.35
831.412
13.6353
94.4946
169.74
1558.25
2916.36
4729.23
2607.88
-220.551
61.8468
113.757
-103.011
982.311
2850.09
926.963
-400.662
1104.48
509.026
-5.32143
769.707
2560.84
2139.53
1015.94
2327.48
1257.73
134.876
788.396
1851.57
3660.11
2454.97
3788.45
1966
1488.12
401.454
38.6848
746.289
-82.4173
-269.762
1706.98
2644.48
2164.45
285.734
163.843
938.785
944.476
262.602
834.021
740.607
535.831
2632.08
2357.17
4608.76
1027.54
878.298
-609.639
282.256
1104.76
900.828
450.594
745.567
2506.19
2567.34
2664.01
258.734
-499.428
983.177
20.8123
220.228
24.0302
30.082
-149.539
496.862
2177.58
4152.34
4106.42
1889.82
1405.17
189.369
-193.699
-36.7221
815.685
1933.87
700.744
1485.77
1345.41
4209.26
3435.74
1178.72
993.882
170.246
474.504
1148.41
639.767
302.527
2455.41
4225.08
1518.13
1607
1856.66
329.105
750.494
4406.98
2698.16
1370.7
764.982
606.002
138.144
936.461
-84.0462
2876.5
1640.49
2362.82
160.431
785.365
185.929
1735.65
-114.698
-63.1866
1022.11
1199.38
1648.73
3224.07
430.602
3528.71
66.8723
4468.84
2557.95
2629.1
-27.9114
495.001
1294.75
663.8
-68.5561
552.699
2903.86
3098.81
3112.34
2968.75
3988.4
5039.82
3425.45
3985.84
6985.81
3130.05
1668.89
1034.9
-20.9027
947.783
1138.47
2512.88
3336.99
2533.99
2316.7
412.938
1873.31
3242.84
3343.95
2736.72
1203.67
3283.61
10442.3
7507.33
7463.85
4583.95
1299.22
6007.63
5924.62
6171.5
3415.82
5358.77
4463.53
2385.97
914.883
1120.89
590.157
872.613
403.521
3014.45
4784.85
5096.86
8390.19
2682.33
5844.08
10993.6
10922.4
3543.83
2223.88
4131.14
3651.28
3007.55
2530.51
3631.52
2896.5
3031.86
2562.45
1482.8
1221.78
1676.47
2333.12
3086.48
4506.44
801.939
-42.1138
957.817
506.735
1874.68
2371.82
4557.12
4133.12
1502.79
1696.16
1058.29
1929.55
1133.77
3071.53
1851.66
2650.27
1899.63
918.711
491.311
378.438
447.112
1964.27
3330.27
1383.86
3043.27
2802.84
3761.3
7059.89
9690.51
8562.41
9875.49
8552.39
4684.2
8308.64
4466.08
2698.85
415.124
777.983
2023.81
639.387
127.85
-72.1705
530.921
307.764
1578.14
3332.74
2631.77
1043.19
661.783
1984.25
1278.45
2546.68
6739.86
3898.8
4898.38
6013.5
17480.5
19283.2
34635.7
37155.4
37041.1
31004.4
30436.6
25130.7
16186.2
21267.5
21242.4
20404.9
18631.7
14594.2
9886.44
7583.55
419.647
-416.228
-65.6643
1407.33
76.9207
2741.85
-237.171
640.007
991.095
1403.43
1091.78
596.588
1506.99
1140.65
1249.71
1535.59
118.916
632.765
313.667
1373.75
3521.01
376.95
128.651
672.963
3239.01
2435.78
5013.07
4031.27
4087.17
2681.79
1971.72
1477.94
4098.23
5313.36
2194.68
2641.33
2880.61
1552.13
1149.23
4408.07
7853.87
2965.1
4975.56
7936.09
4655.52
3491.65
801.964
970.462
686.382
1181.35
857.488
1970.41
488.883
1487.05
1797.11
-267.143
331.01
1131.29
1875.41
4097.68
6638.32
9826.78
6777.82
5557.41
4789.13
3335.51
128.166
-256.266
-307.985
627.259
670.67
552.6
-141.109
1249.78
-376.062
193.425
1003.28
4136.49
5825.68
3291.8
3062.21
3770.36
2492.19
2208.18
2358.49
3931.7
6597.32
10223.1
3594.65
5977.72
9722.81
7391.22
9947.44
8458.49
11710.3
5538.11
5980.66
5848.01
2012.71
2697.77
632.271
3612.7
4186.24
4713.92
3565.9
448.564
-26.455
172.743
1693.43
1579.83
815.812
1666.43
436.432
432.977
-333.725
-422.012
656.901
2502.88
1787.45
1233.3
3343.37
684.513
173.573
2573.22
2870.67
1762.16
2398.13
365.157
794.316
1018.86
3094.45
3522.72
4143.52
472.953
177.459
186.81
2691.12
361.145
2055.91
1739.94
115.781
-733.793
2259.77
1150.21
753.585
214.533
1593.49
4010.14
1062.75
844.109
682.659
2606.16
536.371
1282.54
507.656
1111.32
466.747
274.502
740.879
1148
928.205
615.981
1099.89
2868.93
267.271
25.9533
1434.71
375.8
192.326
634.775
-1013.26
1091.85
635.286
40.6794
-692.993
761.318
993.119
2874.75
2778.87
3565.49
2109.38
-177.685
-402.237
1234.44
47.2169
1008.51
656.732
178.243
1492.41
902.259
322.032
-179.119
1468.29
1156.78
1451.03
2370.84
1299.14
461.753
-67.7518
3379.95
1176.69
137.031
521.662
-384.075
1480.25
-303.204
-186.716
1368.89
2802.58
2532.27
1399.35
1601.84
2463.71
3050.82
2945.58
3845.88
3217.6
4519.79
6336.32
10954.6
6280.28
2881.5
1408.71
788.728
1380.12
1822.73
863.057
686.449
420.298
488.373
373.47
915.592
1515.04
-21.5524
306.097
1847.69
2282.88
609.24
432.934
362.369
1333.83
1226.64
1171.22
555.75
-8.08213
493.846
-81.7868
-652.071
676.933
1976.86
872.589
520.814
980.838
153.95
-97.1127
-16.5226
586.758
31.9822
676.638
508.577
1511.48
799.186
2730.11
2254.52
1072.63
836.547
2690.73
4161.47
2119.33
1651.99
4042.04
5435.56
4425.97
4471.36
4895.46
9234.84
7951.37
8793.86
10549.5
8375.77
10332.5
8220.41
5445.72
1202.03
-103.541
1872.9
1542.97
461.574
559.669
429.84
1100.6
2998.47
676.027
2203.16
2178.39
1973.4
1352.09
355.13
-969.097
404.391
6.25225
44.9145
700.926
1877.54
304.978
-40.9618
-1228.29
-114.212
-82.3385
199.624
957.717
840.783
333.823
2746.29
1485.78
1029.5
209.505
38.9041
226.541
2784.41
2605.34
1483.69
1919.96
2058.97
801.719
866.869
2495.7
2200.05
1644.02
4658.43
3868.52
4297.7
1053.36
1036.02
4927.21
4687.94
-112.233
2021.19
1567.05
422.021
1683.87
2393.16
4041.44
4062.58
1150.05
2356.35
2886.48
5226.37
2853.32
6968.09
3541.75
2323.81
1927.68
1970.2
-772.141
696.599
579.297
598.254
1504.23
773.616
1401.76
55.7652
690.369
1201.11
1073.53
57.1832
271.36
910.847
103.189
1036.57
1278.4
1415.09
-1114.04
554.88
658.739
1792.06
-65.5646
352.508
1443.54
506.87
1429.97
2304.07
2173.67
1995.18
1998.96
1849.87
-410.615
803.964
472.909
363.505
1932.66
4422.19
1857.73
877.481
757.308
176.153
266.704
1893.74
445.294
998.97
142.182
2393.45
2700.25
1171.17
1528.43
3624.47
2606.07
3325.22
2481.7
2815.84
912.808
-111.185
993.79
4420.28
1397.67
787.867
1454
872.403
1453.35
3457.18
1996.55
5190.47
3861.41
5128.18
1660.8
1179.73
2387.34
1995.32
1394.81
502.516
1925.13
1013.18
2052.98
2119.8
1160.41
1439.49
-25.9209
-170.698
774.6
159.6
1447.89
2183.69
3160.41
2795.05
782.633
2315.38
1552.34
2602.73
706.548
255.21
145.993
1461.34
105.284
55.1431
1369.48
571.858
702.099
1904.07
1424.6
-620.447
880.066
3270.72
2748.59
1328.91
1198.73
465.321
-43.421
-2.58174
-330.832
220.084
-536.316
1731.63
9.70961
671.975
1202.88
2314.15
3320.44
2987.91
1764.24
417.982
2978.2
45.1405
169.926
1985.9
2604.2
611.521
2555.87
3197.18
2976.51
2277.16
2710.91
903.514
481.757
486.143
-521.279
51.8898
399.488
745.325
1741.63
2980.1
2141.81
2295.34
4293.14
701.724
1497.67
-217.793
320.389
-296.225
871.678
900.913
-831.557
-120.908
725.668
1118.07
-3.01496
336.975
233.719
721.954
800.674
391.61
828.942
3807.82
1978.66
2098.2
1927.16
2490.34
1552.79
6108.58
9796.75
16712
17203.9
12501.6
6355.9
5372.35
8493.32
16062.7
14026.8
4361.17
1723.32
843.681
1382.73
1378.66
267.736
620.288
787.261
151.421
1552.95
431.219
1753.67
136.209
1338.79
689.889
1439.85
2211.24
4262.57
4556.27
1171.49
4793.88
4504.71
6339.5
10545.7
6930.31
4537.35
2360.98
2948.74
1621.24
1916.67
162.507
36.5861
1536.19
4219.69
2880.97
2130.79
3074.06
5842.77
2801.36
769.469
3762.9
2129.25
5288.87
1783.17
344.513
486.95
1340.48
1197.78
3075.98
3907.15
3096.96
1464.15
1115.94
67.7918
528.841
5.98808
2190.62
1083.68
248.134
33.6408
-170.823
-146.264
1010.64
1397.29
1182.33
1181.2
851.202
3602.33
4486.86
5184.56
4151.81
2680.38
1841.58
221.648
948.309
494.725
1748.78
2952.45
1958.05
2456.52
5944.93
2440.48
6373.3
10454.3
15010.8
11494.9
14967
11066.3
8908.61
5619.15
4211.13
4940.54
13188.1
16675.7
11507.4
6628.03
10842.9
8742.54
3894.08
5414.02
1677
3291.95
1335.31
5716.26
9669.78
11337
12542.8
12093.2
11601.1
4688.66
7479.95
3494.72
4436.81
5293.14
5056.08
9113.05
6660.06
5689.22
3086.32
3438.75
2546.27
2494.52
3539.02
2637.55
4309.96
3179.37
1701.75
487.634
6318.57
5278.49
3747.85
5620.7
4798.94
5304.97
2871.67
1125.38
2417.08
2634.46
1159.57
2235.32
3890.51
1958.28
2610.98
4195.72
6122.23
2322.65
1683.32
1360.49
4545.67
5552.46
4861.03
2905.35
1363.28
642.285
1937.65
2357.99
3223.58
4031.26
2689.1
2216.13
2235.82
2619.34
2298.88
2361.56
1259.6
125.386
-413.919
958.821
3785.34
4508.27
2584.07
5431.73
9276.38
3311.32
121.687
1761.35
1296.39
1148.31
3688.05
3284.49
1413.38
1459.9
5701.46
3147.67
4215.87
3207.09
5281.59
2194.01
5655.46
9808.39
3183.29
1066.11
244.52
221.976
1113.59
995.063
498.847
-437.306
2207.07
1988.33
3777.56
4165.11
1338.44
1562.85
1031.54
1691.38
3262.56
632.415
1273.28
600.651
8.67801
296.599
708.95
452.663
36.6631
472.044
538.64
2487.39
3003.1
2314.65
2304.83
3486.75
3216.41
3940.51
6751.63
10220.6
11536.5
12469.2
7741.95
10225.4
15370
20580.6
18649.8
11234.9
6605.68
3505.47
5331.87
11540.6
11942
11486.4
9522.73
5898.36
7519.56
8639.77
6078.73
5650.72
5357.07
4246.91
2305.88
2414.85
4246.43
2001.22
5069.27
6037.11
7376.23
7605.8
21052.1
26906
26927.4
22632.1
15629.2
19341.6
20511.8
12270.1
13529.6
18545
20210.5
18546.7
10676.3
8447.53
6262.84
3940.28
1973.32
3103.09
1936.98
3730.55
2989.76
3721.49
1225.73
2113.16
1552.04
2317.12
2445.91
5312.82
4496.12
3674.88
410.145
-58.7169
449.73
968.695
953.385
158.634
1039.89
341.786
171.608
588.347
904.723
1375.63
198.632
924.138
-117.561
1084.37
1811.1
2356.34
1812.01
2350.04
3690.3
4159.23
7125.84
4527.4
1124.96
1086.47
295.218
-242.546
766.396
172.125
-42.0956
427.97
-530.4
439.146
2107.64
1062.69
1269.31
1335.36
96.5795
265.459
621.983
-68.8318
1717.27
159.799
331.38
1464.35
3617.52
6250.67
3705.08
387.185
-153.713
-111.359
185.134
-75.5173
973.255
2088.5
1615.36
1950.62
2260.98
2047.09
1317.08
1776.35
3314.14
984.379
328.679
713.926
343.132
723.369
563.032
124.758
452.071
466.256
752.839
1636.22
1990.19
535.527
121.505
1694.17
1827.69
1506.66
536.024
3855.73
2193.52
1898.22
3636.5
4229.16
1411.69
784.958
1973.56
287.472
583.739
675.741
553.728
3019.21
1831.4
2331.29
1612.4
835.152
904.43
1356.02
1810.15
1392.68
-62.4719
232.097
-119.639
113.443
-94.2431
329.467
1079.26
688.501
788.159
610.464
1051.41
696.554
-540.728
346.561
784.729
-108.068
1152.46
1106.91
1453.28
417.51
1.79737
-385.453
1249.48
1826.72
1382.2
2163.46
4153.39
3730.23
10358.1
7560.77
9473.32
7659.54
4550.16
1390.57
921.085
-113.647
53.764
788.729
2413.68
2696.25
3398.93
1527.09
1136.88
1161.4
3409.16
2424.04
464.883
40.9682
11.0474
-462.337
1584.01
1140.16
3916.04
3541.21
2137.8
804.964
1046.96
506.215
138.483
-43.8602
3196.97
1271.7
1309.33
1489.15
1551.84
2107.19
1981.62
1297.72
4467.77
4783.8
4410.79
4532.76
2215.21
2118.89
1349.96
2251.34
1283.3
461.837
160.15
2886.35
2300.93
3951.95
5596.89
2661.4
2409.23
3288.6
4837.85
1573.09
1185.31
129.947
733.521
343.456
-103.066
965.944
1279.09
152.598
-22.4455
416.351
1513.13
2114.15
1080.6
595.898
2130.34
714.39
-859.288
99.9484
-113.613
-173.617
2128.94
6778.86
4304.65
3485.52
3187
1906.16
1633.31
1635.13
5571.95
7874.26
8818.63
2523.98
1208.74
1286.15
1111.1
1007.31
2601.85
771
1003.98
588.951
1047
1293.5
2195.74
5940.34
5534.95
3804.17
1883.48
1877.47
3752.16
510.23
4280.89
1621.85
221.689
404.623
2128.34
2100.96
1151.76
-640.457
86.9561
-513.541
682.036
849.306
2292.67
1174.19
2430.49
1885.65
175.247
262.702
1060.79
1691.94
756.451
-345.055
1518.93
1988.83
1806.62
4003.54
3849.87
4113.11
4716.38
7204.67
2261.37
3616.46
6509.14
2252.79
1276.16
291.29
2866.83
6276.9
8943.57
10124.4
12201.2
5098.04
1892.03
1458.09
1600.56
-834.159
1060.92
346.394
-1299.9
133.923
2810.61
3989.72
6844.75
3597.2
1281.81
654.827
2199.61
1328.66
45.4314
1104.64
3068.47
4790.86
828.625
1412.45
1821.66
1399.59
1507.45
1269.51
338.106
1452.41
1129.88
529.266
927.161
1637.21
1002.37
301.659
-202.898
-131.054
2011.13
1074.63
887.728
1556.87
375.33
562.567
719.506
387.176
775.566
414.036
-92.0737
883.783
139.029
1799.59
1901.39
1021.77
2387.78
2678.91
1754.56
-883.543
-231.384
217.033
-181.998
2827.9
1223.07
1244.77
1096.57
1530.34
1385.51
1745.18
2019.88
744.089
2235.79
2130.78
2245.01
2098.78
282.074
2331.41
3284.41
5226.99
4805.88
1846.07
2208.71
4578.82
6086.68
7506.19
10898.3
6882.05
5898.22
7341.85
5268.9
2342.58
6626.61
10613.3
9842.07
4091.05
2635.56
344.706
461.577
203.672
1746.23
1631.28
353.751
1252.16
540.61
1616.06
-285.808
1165.49
561.675
375.383
1304.44
2137.84
4598.7
1358.38
1864.51
1546.02
3887.45
4132.95
2192.88
68.6056
1550.39
2071.41
1421.34
1848.69
598.798
321.325
226.156
491.663
40.0182
2820.11
3921.78
436.88
677.778
4040.45
1811.31
2669.61
1248.18
802.591
150.753
415.802
-0.152484
22.5405
995.636
2782.86
2625.78
1404.09
915.582
3358.66
1264.36
376.189
3964.82
204.072
588.068
365.772
1149.53
4087.05
2054.93
1905.05
2069.75
-358.713
432.452
2398.73
1311.71
6000.74
11336.9
5651.81
2484.38
2286.84
825.166
74.718
666.369
922.367
26.5752
365.618
11.8399
-344.314
59.4087
-583.757
659.819
-42.397
1306.47
691.692
318.18
213.129
406.134
1215.61
3721.63
1194.53
3310.21
2985.53
3831.7
1987.74
5744.57
10142.9
2200.25
2558.39
3861.68
5611.44
4530.22
9657
8149.78
11553.1
13225.1
6528.51
3902.18
4414.2
3371.77
1943.58
1496.31
1611.49
501.938
608.212
1830.75
1443.33
1970.84
2584.4
3459.39
3814.34
5384.84
3722.19
3818.61
2731.51
4918.53
2556.89
2181.8
1393.31
3195.58
4812.47
6474.56
7835.94
4484.9
5158.9
4466.87
4112.14
2912.57
582.047
1155.12
3951.65
2816.29
2006.98
2775.13
3081.06
2440.61
447.156
176.971
1939.11
1066.39
1324.19
2529.21
686.506
1317.04
2975.39
2242.34
1346.39
660.294
2002.49
2323.62
3265.4
1689.85
1830.73
917.198
1367.24
245.755
115.003
1879.62
2596.19
532.095
262.648
160.311
240.092
289.871
91.1919
-82.7149
767.492
2986.24
6777.18
3122.82
2355.05
2930.7
2883.66
5997.34
4563.39
2762.84
4585.34
5775.52
5344.82
6917.52
8175.44
6025.76
7253.14
701.657
1079.73
827.941
2283.13
2612
476.497
2616.71
2078.88
1870.03
395.158
1037.19
-29.4519
440.705
511.086
438.034
480.248
85.4897
434.212
-4.66453
1182.51
2658.5
2767.37
2068.21
242.492
551.755
2138.07
2968.48
1384.21
737.583
1181.66
-3.17151
627.885
1666.83
3704.09
1048.36
3143.63
1519.43
916.462
1819.51
4574.35
4172.94
4597.88
2445.73
1974.71
2416.69
2232.14
2306.06
2512.19
3412.8
2803.23
5167.57
4599.66
2706.05
2898.65
2748.16
1685.66
1620.29
842.479
867.439
669.174
1072.92
426.089
-734.957
1116.73
3898.16
2828.54
1267.79
450.574
799.966
878.86
1.60011
2112.42
934.835
1104.4
1111.65
271.438
166.295
-50.0192
1557.22
771.519
1419.47
332.758
652.667
561.785
-145.185
1282.8
592.873
-446.984
499.134
76.667
468.834
1047.5
1457
2984.46
1008.25
63.2488
874.96
239.085
143.209
-750.072
143.012
-284.395
-127.328
480.894
1318.21
1114.82
1063.68
-230.897
643.96
-24.7586
-23.6446
34.2278
964.509
177.878
21.5715
811.364
697.35
729.691
-93.9086
903.575
1791.76
1676.19
345.416
432.594
704.851
309.188
2417.76
1715.68
103.17
1358.91
2101.54
2652.36
304.308
1107.59
725.667
772.177
1832.56
3164.35
773.837
1004.24
-31.0766
1248.69
2255.23
1760.62
2458.58
866.794
354.853
1889.3
267.054
333.756
-291.997
1564.4
1539.87
1604.28
2287.43
2781.25
2680.96
5754.28
5389.88
5341.34
5479.65
3485.63
4056.9
5495.19
4090.06
2221.52
2942.21
96.4381
-189.475
2716.5
1799.8
699.153
496.912
612.598
894.404
469.72
541.573
655.735
-23.7627
422.398
1360.48
2322.52
1653.66
3415.2
4021.75
3651.15
1909.5
3603.15
2493.15
-487.388
-299.048
607.56
434.422
106.052
236.354
749.049
677.063
1723.14
2124.12
905.454
-20.4915
125.951
930.546
263.084
555.798
-285.398
565.285
1594.56
1890.21
2715.72
2666.56
2280
2193.86
1822.31
2718.99
2213.93
4363.11
3535.75
4218.27
2009.07
509.643
889.891
412.834
257.058
784.936
2193.76
4173.13
2286.01
4017.44
462.6
676.846
1129.73
101.652
-305.581
214.442
811.674
216.889
1813.12
563.036
23.0233
1219.17
398.046
424.695
829.778
2836.18
447.437
1559.92
2950.18
2073.99
14.4533
3128.99
1589.05
1190.62
722.529
1727.99
3854.97
1929.63
871.846
996.278
5334.61
4065.5
402.803
1304.07
1364.41
1732.81
749.998
-621.748
890.037
436.674
103.195
19.5561
629.734
2554.69
1109.02
3675.42
2029.84
2772.27
3656.2
-200.543
146.902
45.9544
14.6797
-85.6192
1136.51
4721.89
7617.91
4604.74
2496.76
2715.52
6484.84
3781.54
3616.62
5203.4
4892
1927.31
1152.75
1956.83
91.5547
2683.55
1919.89
3620.68
4409.09
4675.3
2537.1
1649.58
2998.19
3534.05
5850.1
6927.31
1446.29
2295.23
1419.34
2955.64
244.094
483.054
827.654
133.359
49.0141
1100.24
3967.99
3132.15
2065.79
-260.808
913.971
1950.37
1699.66
1486.74
1035.89
382.456
729.608
648.935
-387.615
234.588
-170.078
43.4639
-21.8732
1518.71
-499.13
-8.79119
732.364
1206.29
753.455
1545.58
2377.42
2192.26
-7.3276
665.198
5052.55
5636.51
307.067
3684.48
2831.35
5072.96
4505.74
3821.94
5643.64
2370.79
30.1994
1861.96
796.763
1624.48
4005.75
2363.39
2012.98
1477.77
706.002
2248.23
4440.87
1414.47
359.034
53.9449
937.605
1866.58
1042.89
326.307
-67.5194
-292.132
1265.21
1665.27
4317.16
4182.67
1640.7
1772.46
2986.27
2341.03
4375.78
3760.65
3791.6
3725.73
5692.24
7775.3
2723.12
5335.31
3755.56
4129.23
4901.03
2292.56
5390.76
1776.23
2406.62
4264.58
2070.97
5978.11
5873.64
3510.31
731.995
3697.89
4043.68
4551.21
2848.05
2460.7
2771.4
5478.32
5703.5
5088.63
10343.3
12859.9
10192.5
4273.95
625.92
807.811
415.405
1231.83
2776.32
1225.55
2230.66
-83.8168
1181.69
4327.84
2401.44
1983.96
933.116
6944.91
3437.42
3506.27
516.341
958.372
907.454
952.429
1178.38
1967.3
338.58
467.833
-332.94
-471.107
-52.71
634.041
1209.49
696.09
-271.774
1016.38
986.856
-255.374
503.2
-34.104
642.507
619.934
1724.15
-565.747
4333.13
1992.7
2014.83
1785.82
1514.67
-19.591
2571.95
734.895
2175.3
1953.25
6669.45
3512.72
2497.15
5890.03
3780.48
4548.07
4368.06
4167.69
6851.86
5960.47
7125.88
5808.86
6208.31
2687.21
2259.97
291.737
1348.9
3378.76
2059.47
101.735
-93.2063
785.939
1929.74
1475.3
533.054
720.787
-373.781
-160.431
129.047
141.975
-118.606
-465.849
624.912
224.984
639.054
1126.85
1608.7
3345.11
5411.79
4757.86
3340.13
1443.63
-69.8492
641.227
674.292
751.527
1785.33
1246.51
2170.47
1769.17
669.085
204.71
1332.98
367.138
1253
4632.83
1279.14
1442.63
4220.92
11689.7
10144.5
13849.4
22691.1
32722.2
25097.1
18787.9
21458.1
24948.2
20159.3
15960.5
6551.21
2688.72
644.986
-229.093
189.855
939.691
1138.56
4158.42
2991.74
2087.26
3136.76
11478.5
8059.62
7921.52
5630.06
7599.15
6983.81
3701.08
1988.65
2180.83
3889.1
1005.43
1145.25
1325.67
-109.834
379.575
1293
601.968
335.534
1325.64
1994.31
619.261
4449.43
2582.39
2226.83
-347.461
887.932
3041.73
161.022
417.156
82.3501
3087.27
1397.42
-71.1902
-107.3
94.3039
-207.681
-116.984
-121.805
1280.72
2130.92
4705.22
2520.38
1614.41
3248.33
558.326
1328.21
2327.4
6261.47
2534.72
3615.05
4313.49
3195.18
1838.12
3798.4
5155.56
6702.03
3751.97
4881.37
5802.91
5995.87
7707.11
7131.49
4799.71
5386.14
6602.15
5148.99
9582.7
15381.1
6411.5
7136.81
10357.7
9181.69
10556.4
6862.02
8038.39
5105.15
6938.99
5359.03
6187.82
3726.38
2551.85
1341.33
512.365
1634.83
1470.43
464.505
1031.7
1266.43
575.046
1398.94
1096.63
3595.19
677.916
59.9319
-437.988
443.707
753.922
1198.5
1263.17
510.552
716.015
669.667
321.9
873.385
3722.01
3780.51
1948.82
1089.24
1279.08
1747.24
-48.9855
985.708
-220.339
1254.18
1630.96
1048.08
937.581
1171.49
709.417
1022.18
1004.39
1080.39
1371.67
-1227.31
94.8369
-26.1626
1057.92
458.953
524.088
202.087
2534.35
642.643
82.3229
1219.92
692.9
979.834
2776.33
6592.39
7997.11
4384.31
1258.67
1037.62
614.213
1747.66
944.881
-874.355
214.279
977.227
4253.07
6539.95
7276.25
4190.47
5130
3709.64
3062.03
4524.01
3251.94
2265.41
4392.55
4800.79
767.022
1422.36
6570.76
1624.82
4716.33
3872.23
4829.01
3562.05
2623.43
3028.31
743.988
3417.92
2665.44
420.914
1016.74
-359.681
-423.815
2646.66
1855.58
501.739
990.397
266.697
1206.47
2201.41
2306.18
1845.63
813.881
1261.93
848.273
101.782
1420.9
577.402
685.924
324.054
1037.83
1039.85
63.4827
757.222
748.98
-409.215
1736.01
5005.62
746.449
3371.7
2080.52
1114.61
3151.54
767.828
371.134
2671.05
4367.95
1991.44
6502.66
7108.53
7913.38
8755.41
6682.15
2906.84
1941.66
3203.2
1292.56
2049.12
1605.16
534.219
322.777
-53.933
373.2
1389.83
865.101
-434.394
1367.34
2475.07
1874.99
1255.61
-95.4028
951.905
1086.31
364.448
288.245
4664.66
8061.57
8592
8929.39
8411.13
10506.5
5466.37
2535.96
762.386
680.219
1301.82
1627.57
1127.74
711.256
463.605
1136.49
951.176
-61.0089
641.976
2071.27
4524.59
1508.69
1438.3
1031.59
1505.9
1797.2
1504.68
3483.14
1486.84
1850.05
494.516
1307.55
-427.535
1947.89
947.832
2094.73
4290.23
1499.21
3962.75
4075.98
3395.37
2908.49
1141.92
40.5809
-751.581
865.851
873.03
1003.49
1418.17
607.647
1816.27
3545.42
3951.96
1617.78
1198.63
1333.52
366.293
-97.117
1685.94
2627.65
4783.57
3138.88
2609.13
2031.67
4552.57
792.686
694.806
63.9208
-706.176
592.68
1029.8
1776.97
717.312
-664.882
76.9113
178.97
837.398
39.1064
13.7321
583.783
376.142
678.581
1028.01
3692.68
6819.92
4978.21
3050.65
3617.83
4514.7
4307.93
1755.95
1541.54
762.445
334.496
1243.37
1140.25
533.372
163.024
232.185
510.889
569.355
1874.84
909.605
775.225
1674.7
1724.68
944.35
374.999
49.112
1124.18
1881.13
4867.72
1282
1478.24
695.237
1627.66
1775.08
734.073
-112.107
-345.31
352.316
-648.018
739.589
360.139
281.087
291.479
870.041
3959.79
3239.09
5278.61
5632.6
2979.52
5066.91
7994.71
10972.1
7277.37
3426.65
7568.44
3164.01
2527.65
2019.53
5206.97
7326.16
3860.52
2944.47
5085.8
6774.15
5047.99
7433.16
1307.52
2776.08
1326.4
2114.71
153.875
-96.4424
453.568
1555.49
1953.99
3517.53
4081.26
8264.08
10749.6
6121.57
6419.85
5474.3
945.365
3400.23
1312.35
3170.35
3122.12
5112.71
5626.18
5593.74
4145.28
4384.15
4353.53
6611.11
9186.01
5997.77
11547.5
13300.2
10024.9
4858.68
1580.61
2518.03
1975.71
4427.29
3544.85
404.874
1852.31
429.438
792.822
1429.79
2417.96
4363.11
2804.08
5756.77
5113.01
7050.04
5901.63
11415.2
12661.9
11178.2
10569.3
11373
15772.5
11817.9
10381
8875.31
5450.35
2618.7
3524
1021.14
1483.55
1614.52
4343.49
4633.58
3155.85
1762.36
3488.04
2247.75
2640.62
2394.35
1167.2
-793.261
320.829
787.52
1024.44
1051.26
1026.66
703.276
306.596
1687.43
804.928
1712.05
2684.91
778.214
443.137
628.346
502.774
855.226
961.889
1864.67
1399.25
809.418
382.867
-500.54
-573.985
968.4
2096.89
530.175
242.54
583.639
1209.82
1161.41
1491.84
-88.0521
563.957
258.447
211.997
1054.88
3433.72
4025.8
3864.22
5022.36
746.227
1186.61
1543.57
807.295
2194.87
694.975
3421.9
2239.99
3998.76
1119.4
1956.76
-71.1292
-199.558
576.761
1750.31
2092.74
1808.27
2389.98
3175.57
1765.79
1317.6
1043.64
-39.7737
942.743
327.017
1996.98
4489.98
7509.6
7836.3
1853.06
9.34457
1017.04
2674.08
1066.34
9.59535
2414.44
1960.28
5055.91
6696.01
7475.71
7290.84
14387
12991
19453.5
9750.12
5639.06
5590.75
3737.62
2415.48
3593.42
2991.76
2728.52
4000.62
7298.67
5614.72
10161
14628
17835
14008.7
11688.7
15451.6
9967.49
7638.85
7891.42
8426.22
6359.17
5329.75
5200.61
1292.78
2329.28
5640.34
3327.7
-10.2995
276.195
1139.36
311.94
538.476
-336.436
958.294
1560.4
1340.57
3164.52
2183.22
3085.78
7614.71
6203.15
6306.05
3115.7
3796.16
7140.58
7190.3
3043.44
4702.32
4222.89
1307.4
1479.22
743.08
1059.41
1735.82
4702.93
2604.99
1653.84
3625.04
3435
2240.96
3427.93
2306.81
3697.77
1716.46
880.198
1139.85
1293.41
2168.41
779.911
878.15
760.13
550.855
1186.5
1591.97
1739.38
477.268
1154.24
1704.92
2821.54
1695.91
1278.24
1584.72
1873.94
3857.95
3822.71
1072.59
1263.18
283.726
-122.751
318.229
420.303
192.629
1217.8
1328.15
1317.7
816.367
-1303.07
1121.81
668.437
1976.42
251.655
205.718
737.972
1334.86
1408.57
2211.92
53.6374
1203.78
-53.6282
-179.971
-65.402
93.7922
943.491
419.033
1486.68
-442.286
419.956
372.686
1310.32
-151.593
-280.295
-168.435
1002.34
1153.13
767.027
750.964
532.664
1840.54
185.495
1886.15
1131.95
1076.61
1099.76
472.218
871.56
1627.21
1341.35
-112.357
733.728
1021.97
328.655
290.5
275.465
474.945
360.844
1600.18
1522.02
1060.1
1585.38
1224.15
680.524
297.883
1792.2
1011.07
3312.9
1025.58
3314.54
2376.24
5478.48
9079.56
10226.3
4668.29
1920.76
2973.18
3007.74
1836.95
2344.84
1320.65
363.562
5560.73
6846.19
2542.08
336.102
647.904
1365.6
1942.14
2230.01
2803.77
2048.47
935.427
2863.25
5933.03
2720.24
1863.12
484.575
1869.74
666.857
521.46
-397.135
73.3911
70.5789
553.249
4019.28
5592.88
3601.27
2643.56
4028.61
2079.16
90.9991
-97.8412
1449.64
355.137
-230.204
726.556
852.975
525.562
322.73
1402.71
860.272
860.981
2062.62
-144.296
1761.69
846.037
2092.84
2975.49
1381.82
320.086
824.804
1509.46
1687.57
1657.48
2197.6
2161.99
711.026
-76.9827
561.593
398.077
1523.96
1352.26
3042.65
3025.92
2915.93
2108.43
172.288
874.376
724.084
1383.11
1859.04
460.655
1811.05
1804.67
3397.44
-49.3796
1045.46
1120.01
1921.89
1604.89
1907.45
1388.78
2401.55
2738.31
1931.59
2815.56
1107.44
2140.5
1903.87
1237.09
1691.09
2794.37
4387.65
4830.61
5752.31
5829.68
1351.31
2117.45
3011.21
9904.5
3250.35
1942.87
3738.08
6363.93
9685.57
5830.37
5191.4
7006.97
6792.76
9036.22
14096.1
7537.14
5215.62
4617.31
5013.11
3790.16
4649.54
3875.2
3438.17
2601.54
4212.55
8610.15
11413.6
7691.99
7088.31
7670.95
6364.85
3686.12
5597.64
4002.3
3487.36
1598.43
853.429
133.302
163.48
147.836
1135.25
5198.7
2992.98
190.56
2306.64
1741.17
3833.7
1442.8
2261.1
4897.17
9389.7
2536.03
2108.05
1257.74
2849.62
3218.46
3773.82
2103.83
414.248
-251.224
1033.83
1117.58
2476.04
2467.51
1849.44
2554.97
3441.33
5735.52
1525.73
2665.13
2562.4
1804.91
2099.49
12447.7
6890.95
4062.36
4666.88
6105.26
9186.23
6093.86
5813.71
6928.03
5641.74
6518.46
8037.24
4103.57
5317.67
7495.37
4112.78
3430.66
2593.46
7215.84
7472.83
4742.91
2339.48
2873.88
2189.75
1421.44
1322.96
447.17
732.531
450.036
202.8
3319.12
3002.11
6222.65
4722.42
2891.46
4219.43
4045.31
4825.07
2727.29
652.666
293.29
185.972
-335.68
147.155
1320.29
196.68
101.08
54.9754
195.771
1491.05
3780.88
2238.64
774.964
1949.33
3209.02
7232.01
5545.06
5228.88
3393.16
4386.18
3413.88
3662.12
1708.53
654.353
765.21
-486.916
236.616
81.1812
1578.61
1444.33
2758.91
3480.51
2078.49
960.595
784.073
2907.89
1721.64
2239.72
1164.21
1298.06
3418.86
3098.83
8522.18
11440
4676.57
6154.67
4304.69
4671.73
2423.95
613.437
1628.48
1828.34
574.402
628.625
642.515
346.045
1436.41
2023.6
4167.19
3139.51
4700.5
4699.71
2097.54
1143.06
521.51
468.645
1589.19
2536.9
732.171
1915.63
950.564
418.458
245.345
2239.23
751.798
316.461
907.779
3124.32
3076.52
3766.01
5959.6
2546.61
268.888
599.207
1807.18
2434.62
3243.77
4800.59
3093.12
3757.79
350.429
1909.87
4139.49
1754.25
2340.85
808.831
417.286
1152.28
113.72
1096.53
-43.8129
-62.5284
-10.9779
-5.34003
63.8935
279.137
761.297
553.436
1111.57
1656.73
850.103
3314.1
2128.76
1316.17
1280.98
-342.602
600.19
1016.64
1281.57
2011.58
1551.61
1123.45
2850.71
2132.78
474.827
1365.34
1038.6
286.394
-80.0522
727.034
192.044
2558.15
380.126
1837.64
1778.05
2277.91
106.26
1962.78
49.2163
-154.405
-447.503
708.01
706.271
755.924
2323.93
3713.89
5269.8
6004.07
8739.17
10529.8
6768.62
11961.1
13123.4
14657.8
8916.83
3980.29
7836.66
4122.59
3015
6408.87
6267.39
3994.63
5574.9
4941.18
3484.38
2745.37
3923.24
1599.87
3629.01
2666.92
904.711
678.037
2688.26
1194.44
-186.434
-114.356
451.87
562.402
258.312
592.321
853.535
3011.14
463.416
1409.91
-331.672
36.2057
2075.14
1326.24
3431.54
819.372
491.181
373.469
550.76
1999.11
181.804
512.373
1815.53
2111.77
3689.79
582.662
1433.99
1259.07
1756.28
735.952
2075.01
3288.83
5814.28
6610.81
6059.11
10867
15510.7
6780.76
9618.07
7973.04
9368.63
4566.75
5692.34
9274.68
3661.96
5448.97
4884.2
3261.72
6634.06
5446.02
6735.89
3067.59
3959.15
5828.94
3258.46
2786.6
3104.29
725.771
2791.89
2977.5
1261.97
2150.43
2013.79
1505.97
55.4727
1127.14
2249.61
1297.98
1232.46
1554.5
1354.13
-183.718
219.512
1902.18
4144.19
3477.91
2246.83
2901.54
857.96
1308.59
1711.23
1557.75
2915.01
5808.19
6913.46
5712.75
3060.81
3421.22
3293.19
1315.45
1676.14
4367.16
2441.55
3943.62
4312.97
2271.88
3728.83
379.907
3099.19
1479.78
577.831
-54.8421
951.16
699.856
1013.58
2258
2491.58
1741.58
812.589
1019.4
2034
1859.37
1856.92
1295.03
2035.3
1806.25
1012.61
164.28
2084.03
5116.47
4347.79
1930.94
2027.54
1453.76
2059.89
-40.9924
1143.62
161.939
290.325
525.294
1507.75
1122.06
1084.25
1611.33
6447.91
7206.08
4481.74
1938.73
-21.2052
523.257
702.302
1684.88
3369.79
2749.77
2912.96
7226.94
3293.3
1456.45
4926.06
4548.32
4350.24
2563.32
36.7878
761.302
3051.78
4316.45
3789.66
797.034
2535.7
1520.12
439.126
1170.61
-374.5
-234.986
-480.929
26.2444
395.305
110.767
1428.83
1136.01
2231.99
3570.1
1558.98
1115.09
1242.51
2197.9
6505.06
6672.09
6279.93
3437.42
1260.39
1943.98
3130.85
2668.89
423.086
2731.89
4565.49
1944.93
997.163
2410.12
1583.89
2494.74
1468.63
5092.7
5856.64
7410.2
6211.92
7032.05
7670.25
6589.6
6253.77
6692.63
11898.3
6416.95
10931.1
8545.84
8391.77
5487.8
4368.33
6184.12
11066.3
5496.32
4792.16
6036.4
3678.49
5415.22
4249.01
6902.6
9598.9
8325.09
5051.88
7348.85
5548.85
2325.75
1996.11
3063.13
4484.73
3548.51
5310.61
2824.16
3570.59
3980.95
2091.17
2268.11
465.875
478.32
3538.84
4282.06
2489.6
883.872
423.88
1568.94
2784.38
1262.22
1479.94
3977.38
5151.52
8573.98
6416.78
1220.01
3249.8
1974.43
1758.45
2307.2
713.289
1029.78
542.188
1110.62
1209.54
2450.21
1401.59
2131.86
1185.07
-452.514
603.171
334.269
716.789
1142.95
1031.02
2476.39
1576.92
4597.61
1893.17
1652.58
2397
1973.76
544.679
2467.64
2282.61
4011.69
3274.53
3318.95
-519.051
61.7719
1942.96
474.862
598.818
1168.62
67.707
-249.482
1259.16
1707.88
2481.44
1248.57
-350.758
476.827
-226.451
2252.64
2355.44
3524.24
2611.25
630.859
933.859
218.748
1627.19
1041.1
4271.43
3702.34
1913.25
973.062
411.662
1458.42
-26.8929
992.182
755.501
356.221
57.9892
223.022
720.018
704.152
2380.24
2154.32
2901.16
2984.02
854.607
761.363
1822.26
5294.4
7107.44
7389.86
5052.39
4934.85
6292.27
4528.57
4926.36
5970.39
2547.64
2411.42
230.013
671.234
754.393
555.378
284.263
-230.79
694.013
170.166
752.112
-46.356
1100.03
843.371
316.814
658.4
1896.88
2439.27
292.426
1067.42
3910.95
3100.98
3901.92
1262.78
666.255
3890.66
6259.42
4064.27
1562.37
1777.84
5744.59
1155.63
-69.8503
2024.97
903.767
293.682
2089.06
3915.11
10355.4
11501.3
7053.32
10545.7
6385.2
9634.21
7481.75
7682.11
6985.2
6012.74
2281.55
2623.94
4698.49
3699.76
1024.5
6088.89
5132.42
188.77
-267.432
1178.09
1978.68
2186.97
1482.47
1803.04
513.155
429.251
3996
1993.53
2195.17
174.005
-387.717
3688.3
2753.58
2816.68
3144.01
3111.07
1650.8
316.428
234.021
1815.51
2518.24
1829.86
525.777
159.293
1622.76
5826.95
10182.5
13484.9
16058.5
10275.5
14287.5
9093.91
7464.99
4712.16
4711.89
4806.08
3271.51
1629.15
2646.76
985.039
139.926
454.437
1178.41
1333.96
2757.66
232.547
-660.707
-626.461
1202.1
1407.25
743.101
69.9973
11.9112
225.468
269.652
-20.767
-67.9944
154.067
133.168
14.044
772.724
830.386
1816.95
2483.32
2971.7
3440.84
2958.44
5214.03
1296.57
657.646
-91.8749
2480.9
-117.654
461.95
137.52
2792.15
2461.87
585.704
3473.9
968.977
688.557
1425
747.785
850.639
2145.82
239.764
687.402
964.762
327.982
-117.146
469.79
1047.01
1311.58
84.4879
-56.3865
-487.354
1739.77
1089.91
1104.48
745.738
281.625
-185.743
271.677
1094.61
1062.69
438.804
847.3
472.287
2339.57
1090.06
3176.27
1459
1393.94
527.933
1135.25
385.171
478.243
377.23
468.386
30.7829
374.15
1978.01
776.017
236.242
-513.753
2951.05
2391.12
1055.37
1458.7
1355.09
2363.35
6064.39
2549.55
6321.26
6659.36
4747.41
1613.95
3342.74
4794.66
6658.78
8661.24
12073.7
9291.38
8269.27
6713.12
5733.52
5955.63
4491.24
8059.91
3928.45
5004.03
3219.1
3505.31
6150.74
3183.46
2395.19
-93.2131
626.723
2030.32
900.034
2826.95
1288.28
1343.35
2195.62
2059.8
1139.74
613.886
53.9691
117.689
286.231
197.598
298.448
-46.0647
-194.806
775.617
233.853
440.335
395.806
-281.745
670.656
730.939
-118.627
1220.99
430.194
143.789
772.195
-375.057
83.5554
538.459
1107.3
904.413
2822.99
3356.81
6090.11
6897.54
6591.57
6095.55
4585.06
2574.87
82.4507
-624.041
268.931
1215.24
3494.65
3756.23
2353.15
5559.31
10482.8
8112.98
8778.3
7265.71
8632.68
7876.99
6715.11
3720.39
1673.52
1057.34
598.839
-206.079
575.384
979.936
319.889
26.9578
1136.24
2657.29
149.172
738.121
1412.1
48.2917
894.61
711.543
845.529
479.01
1084.01
2125.3
241.348
-122.014
50.9801
1060.08
1373.67
1651.32
711.077
1095.96
141.352
2156.82
1890.01
1285.78
2792.67
-204.301
867.223
841.707
330.796
5255.72
3360.52
3283.99
2593.33
2342.74
2081.84
999.288
1074.19
628.282
469.948
1035.76
1406.83
2183.29
37.2746
751.066
1791.47
698.925
1778.34
1231.39
2147.52
1852.52
1571.97
956.821
1710.27
2320.7
2753.23
4182.55
244.32
1723.39
4644.31
5873.38
6103.66
5727.17
6599.98
4893.15
2277.53
5991.65
8096.3
11505.6
11644
5534.08
3162.24
3818.96
900.092
2402.68
2817.51
1604.62
1439.81
5.95431
-121.51
558.349
573.731
2653.91
1965.71
3843.57
3318.38
1944.93
895.05
1577.76
4291.77
1637.99
1069.48
730.024
1618.7
480.528
3521.36
1387.96
1572.24
322.033
2181.88
2705.71
1927.03
940.328
504.842
519.144
2870.34
5390.08
3312.76
4537.87
3662.29
4013.25
2193.09
2071.4
1806.12
145.001
-414.855
100.369
361.605
1668.95
147.821
489.351
493.193
310.872
-838.395
-126.831
851.302
-133.209
1301.11
1031.55
1668
2289.34
1869.87
1113.76
497.373
454.639
-471.741
1067.85
600.538
369.371
129.515
521.98
-134.718
223.677
1921.56
529.747
2052.78
442.153
-37.4573
599.333
-46.2424
271.069
-124.965
22.0937
-1.66748
75.338
2468.66
2645.74
1022.61
5379.78
4327.28
5504.56
4832.77
878.141
196.356
892.864
1282.34
1994.62
5041.15
6650.71
3067.51
2237.34
3612.52
3008.45
1321.63
1787.82
603.324
-252.951
662.704
1106.59
-799.313
1160.33
879.727
4289.83
3904.65
1822.02
1556.29
-234.443
-44.1444
751.883
1072.27
925.797
1747.44
682.007
2967.06
2845.2
2748.75
3260.22
2482.96
1869.85
1308.46
724.274
2707.21
2683.95
4221.27
4186.91
4463.17
5789.92
4896.97
6097.59
3930.2
6034.74
9760.71
7574.8
3542.14
8381.7
7748.93
5518.27
3945.37
5782.98
4821.42
7243.07
5223.32
2524.16
1539.88
778.428
2001.32
2942.05
1661.85
1594.58
104.12
43.2521
-108.328
318.651
327.258
-134.915
2309.54
1181.89
890.287
661.66
1630.22
2356.94
2074.27
2382.41
1563.71
4003.81
1759.37
2686.73
318.492
1135.83
553.068
705.618
287.624
458.731
216.593
907.654
730.288
892.224
2216.68
-423.548
107.146
1748.89
274.906
2435.77
5711.1
2240.09
790.094
-175.912
-326.689
484.659
523.606
958.983
739.387
259.432
1200.85
1661.53
3209.55
4318.61
5119.4
5827.24
1752.36
2503.36
817.129
349.036
273.447
261.356
-54.6716
1118.77
601.106
192.012
-37.9055
621.151
-464.805
658.995
4989.02
4526.07
3446.4
1650.4
749.442
-10.6066
250.81
92.5004
111.624
-61.3501
-234.607
1063.67
1318.62
737.129
195.086
2277.21
6018
4873.51
1111.81
908.6
