11620.6865075
37095.855
49362.0075
69666.199
88292.7995
21925.3546
16994.81805
45012.81545
24667.2125
32984.3135
37916.0015
87175.412
57356.462
28802.8355
17566.017
26847.86835
13335.78302
34333.0395
22058.96715
18990.34995
50307.6085
168208.963
104284.3245
136424.686
137438.795
