-192.393852
10048.131986
43763.2325
57717.13885
62604.029394
7237.4997
-4809.8943905
22161.871645
8877.4464225
17869.4400115
32564.5272
75842.211
35061.97755
10655.9172675
998.5164286
7267.9459725
-825.973651
21691.411555
10633.977825
4915.8582555
36427.0092
149561.343
93846.5265
96427.434
122500.7125
