1888.6443077
24519.981
39839.3885
61839.3295
75655.4275
13329.01539
3992.27616942
33664.101201
16194.73681
25561.6848
32484.1041
79142.3945
47211.2515
19698.13925
8915.990859
16792.093923
4835.665446
25951.2671
13838.58921
5404.0445648
43604.9739
158822.782
96759.6585
119508.1285
125624.0185
