-161.314
-624.093
-141.297
-398.758
31.5623
62.4897
-365.764
515.073
707.964
575.347
1731.63
1649.98
3910.65
6264.83
7488.12
4302.99
2653.11
3333.14
5528.1
6021.69
3849.99
2112.24
1617.46
855.444
557.998
637.866
-302.478
525.093
-328.298
442.851
29.6446
-333.532
478.852
1537.2
-572.409
1032.63
599.563
-680.837
-201.054
370.867
297.187
1134.24
2060.95
1001.34
2709.71
2393.03
1389.01
3253.86
752.847
-301.373
-911.923
-374.58
164.782
678.573
-300.946
-555.661
-403.834
-89.4392
283.918
146.037
-462.698
-184.318
-150.962
-1242.49
-195.051
-59.2835
-745.432
-1240.23
579.685
299.06
-517.313
-170.026
889.713
820.613
682.458
653.445
1323.24
417.904
444.497
355.662
319.472
1174.61
-509.68
189.284
566.685
334.031
35.1187
293.897
-140.872
-22.9187
479.741
-816.4
-748.303
-1517.22
-81.6885
726.214
242.507
-78.7758
-949.992
3.3985
92.2726
786.676
-46.5689
-87.8775
-360.066
1050.91
623.575
3086.88
9367.87
4424.56
4104.34
1101.32
2404.39
2561.78
872.279
3291.32
2067.67
542.017
933.746
391.655
1419.23
153.764
465.692
944.91
-293.989
-458.304
202.637
790.066
-415.059
-136.593
-124.017
1274.92
-292.349
200.736
424.812
1532.21
93.7661
4486.13
7996.69
10394
8521.69
10799.3
9240.06
12634.9
7566.58
8916.47
8035.87
5899.14
6220.66
6647.56
8015.12
4455.59
371.84
5075.29
5098.78
5972.83
4671.04
2492.4
4737.67
4564.73
7625.09
6010.75
8134.71
7379.69
10404.9
11005.7
10162.6
17558.5
13346.3
8242.67
10151.2
9102.22
10989
10174
14406.3
19425.3
18120.2
20234.4
11447.4
5702.41
4416.56
8352.36
6740.64
7678.64
4744.9
9241.96
9578.72
7446.37
8616.03
12237
10580.8
14115.3
11919.6
12985.4
13283.4
16220.6
15877.1
16099.8
14832.4
13262.2
13500.8
13650
10726.5
11037.8
9609.88
8096.79
3484.67
2295.52
1902.41
4158.08
4179.66
2741.07
1520.02
1403.94
5459.6
3259.84
4113.11
1835.39
3144.16
505.474
1980.73
-367.255
-14.1847
-224.05
226.859
792.969
3470.78
3023.4
3616.6
4883.93
1402.41
792.05
716.632
2004.51
1148.72
1590.79
287.569
-572.932
920.044
-587.838
139.288
806.26
1867.78
982.591
-134.946
2105.18
500.2
161.058
-31.3252
290.735
-45.9609
230.239
432.477
2118.14
90.4823
-741.712
-867.314
77.6913
386.506
-464.476
-153.721
103.089
111.579
-503.614
-867.422
540.225
-336.729
-286.652
-293.295
113.436
362.878
-168.493
-530.818
-548.38
-106.414
746.98
-583.066
-819.512
63.1699
164.179
182.285
1230.94
1148.7
3116.54
6365.46
5093.67
1043.15
1897.8
665.718
219.261
-234.954
421.201
616.749
144.854
627.528
-57.0706
709.832
69.48
338.845
103.571
171.798
943.042
1900.06
4130.44
2793.54
617.553
2412.05
101.228
670.881
1735.81
168.481
229.309
88.771
-126.116
41.4984
747.518
111.171
-623.511
-24.3089
-380.073
-1466.87
232.528
243.662
71.6871
30.8711
173.698
-232.422
843.508
95.6162
49.2752
434.252
37.0036
772.104
190.532
93.3946
441.122
-20.6685
-1770.28
-273.294
-1802.22
411.009
-1143.06
-1168.38
454.842
513.828
1076.46
661.02
6208.51
4550.53
7404.29
8024.36
6738.88
6430.94
4906.94
1698.78
-155.314
376.064
529.014
1450.05
2134.37
3907.17
6144.16
9645.95
7658.98
9649.42
3628.16
5610.09
7992.46
6931.14
7544.32
11761.4
5750.52
8370.52
12087.3
13460
14778.6
12707.4
12447.6
20399.5
17224.3
21087.9
15094.5
21213.9
22038
20410.7
13540.5
7434.17
5667.46
3543.77
1527.01
1837.97
3945.31
12975.5
13963.9
13061.4
11830.8
9798.46
11295.7
14294.9
12602.1
9029.44
12057.7
11983.9
13729.4
10960.6
10822.7
6266.62
9608.42
5861.05
3110.49
5547.97
2637.56
1313.76
1932
463.038
-98.1676
-273.136
1416.31
1428.66
2165.86
2298.22
1244.73
3293.18
2892.18
2262.55
2916.04
5152.19
4670.58
7289.79
4404.96
4622.48
9498.04
10733.6
5521.52
5403.1
5909.72
7787.08
5960.4
2984.21
12675
7671.58
3123.94
7633.28
2811.5
370.202
-388.933
123.858
190.45
-921.416
1.14058
26.5846
-45.2827
-7.4307
-357.22
-1091.39
-1580.56
282.178
575.91
767.113
-73.3469
-0.813341
-182.953
-1242.59
872.21
420.759
65.3674
690.776
143.224
-305.012
174.239
1838.45
2607.58
49.8888
138.904
755.03
458.214
580.729
-282.11
-546.25
-296.181
-491.356
-129.589
41.8344
55.9011
-193.024
-542.16
-72.7535
90.4809
-110.458
439.732
178.081
1087.42
1644.02
349.338
697.398
1623.38
1140.41
505.801
539.069
1151.56
419.198
625.779
1687.99
1402.07
-683.219
204.345
903.612
1002.39
1361.05
112.242
1088.6
462.364
-457.631
712.74
64.4134
267.069
-55.2128
346.532
519.069
357.372
540.485
169.17
-45.7833
-280.618
607.552
1170.68
-283.353
191.199
247.299
1465.48
670.197
369.792
296.781
338.067
406.796
509.176
1141.03
2559.82
2354.49
5694.74
5986.82
3616.73
1341.09
514.651
-1219.34
-66.4714
530.995
802.136
420.131
1984.65
3368.66
1727.08
-798.103
-108.481
-49.3687
494.025
1541.88
-36.8055
-525.303
-276.084
75.4275
44.5365
1172.48
484.876
-607.515
-125.006
-150.357
235.373
76.8544
525.135
688.686
1495.51
2134.11
1851.06
2750.57
288.779
-181.325
-527.709
320.225
3046.32
1396.98
5674.48
3732.66
2286.84
1032.17
580.879
666.178
-16.9869
-35.0725
-220.907
940.381
1980.85
2584.44
999.668
2102.74
2263.8
3555.85
2061.12
595.247
176.049
-358.548
-154.121
-232.992
-490.056
-418.613
1813.76
439.975
-212.587
930.988
76.9083
1648.56
3760.45
1738.6
-127.893
925.837
-497.181
1096.5
573.059
103.84
-156.843
312.817
328.762
-489.137
-1397.57
330.625
-211.883
-284
-29.0546
188.296
63.3944
-14.3687
-72.4868
1594.47
1840.76
556.387
-120.191
-43.5218
-348.502
172.184
-567.715
-24.6003
64.8723
-16.3328
172.973
528.409
1614.8
4110.96
3250.73
2207.44
3582.24
6419.7
8566.89
8801.43
8122.51
6965.6
8875.62
3832.56
6145.39
5113.67
4359.73
6305.49
10177.6
14081.2
8219.22
8524.41
9364.4
6409.3
6573.71
9115.58
5343.47
7296.05
3394.33
290.231
-632.234
269.481
324.454
-319.237
-515.424
-30.9737
119.738
177.139
1406.4
-311.038
2361.64
3324.05
3600.37
965.291
2180.78
744.077
150.335
398.025
487.577
548.842
734.897
-188.32
-0.879605
-115.279
-218.621
-560.629
538.831
194.746
-1057.57
-958.383
909.493
19.0466
-146.726
-1577.93
-944.225
-935.615
-325.17
1255.47
426.447
-799.387
225.319
380.103
692.527
-747.634
1512.26
-634.325
-411.43
-318.493
820.456
5737.51
4275.86
4268.72
4797.61
3359.39
3254.69
19.7584
292.024
14.607
-149.89
-533.29
1187.33
2014.55
123.881
262.631
879.585
398.453
-555.536
61.1146
855.318
2433.04
4252.6
1537.58
-188.207
549.043
-86.2843
6809.15
7673.36
4549.86
6170.63
3253.02
2955.63
1387.14
2362.87
997.055
-31.5553
169.768
253.841
-91.3224
-396.623
-133.882
831.848
151.657
6625.18
10639.3
10222.8
13292.3
14487.1
9802.49
6660.49
9601.22
9935.43
10562.8
12104.9
9593.02
7685.57
7496.72
6040.51
2921.01
3682.42
132.395
37.3894
1447.28
-182.781
192.553
-0.100817
-740.185
-203.355
1317.39
1694.85
551.048
-389.898
437.665
834.848
642.395
229.995
534.773
940.333
-597.502
109.303
-250.138
102.741
-490.65
86.2435
-268.258
697.745
1309.23
6898.88
3850.74
6769.24
5147.49
4663.3
3582.07
1443.34
2579.54
3257.34
6073.8
6905.32
7166.6
12847.3
13487.4
10436.9
7632.65
2057.24
2896.76
2600.66
1979.26
1259.13
904.717
4507.3
4399.87
1935.57
-95.4499
-136.991
-1524.58
-1790.92
123.228
564.483
1529.18
471.068
-18.0586
-179.566
-1201.74
194.835
1508.24
1860.84
-580.756
-137.314
1149.34
1932.72
-210.639
704.013
642.44
188.617
503.03
582.401
1133.97
-63.1073
-925.433
162.282
1686.59
2878.1
2038.37
1058.22
219.993
1572.69
1181.93
-326.088
-454.554
-271.7
223.215
-2182.25
1306.2
1220.07
488.23
457.896
1918.44
858.677
3256.99
3619.23
1801.01
140.233
357.5
2477.06
4664.51
6989.24
3324.66
3726.57
1213.83
263.326
906.98
998.682
651.918
-204.928
61.693
-71.2742
-61.7994
-100.946
628.225
624.479
613.701
1774.26
1547.7
1522.52
934.827
672.977
519.821
180.053
1168.14
1137.6
2962.93
7820.53
9160.81
9373.04
9525.87
12185.9
9431.63
11083.4
10074.4
7427.05
7320.77
5564.77
3331.37
3810.19
1254.03
1920.67
1234.46
1956.1
29.1815
-183.306
-164.1
2326.27
2554.55
3752.64
3428.83
2018.87
1389.23
7.79901
-786.105
-53.1913
181.731
-104.255
199.695
20.1442
-452.281
595.421
487.835
121.656
262.837
3775.2
9947.41
2843.92
3441.09
7474.34
8960.62
4812.67
6199.13
2957.96
5331.92
2819.22
1172.43
-2104.49
-1724.8
-444.644
443.382
-80.8315
-318.484
4.13585
-40.5852
-226.771
120.664
-1527.09
-2705.61
-3566.28
-1082.18
-531.231
-508.661
142.023
541.524
1390.88
3601.67
1306.16
1506.8
7797.6
6777.25
9437.96
6096.43
6149.07
3111.57
1220.32
1185.45
-489.463
-489.392
513.68
-180.063
-313.168
142.177
300.09
605.684
730.129
1389.81
954.63
2483.92
735.037
563.394
1983.96
4650.54
1734.3
-839.102
1191.63
4293.4
4840.21
4543.92
3469.89
3793.48
8191.45
8010.18
9328.37
16655.4
17497.5
17981
23256.4
21552.8
29495.7
21075.9
25079.3
16718.4
15053.9
14526.5
7518.5
8081.4
9331.72
7938.65
7914.99
7723.51
11285.8
13880
17666.6
22448
18780
24120.3
25037.4
19670.4
25102
20872.6
23461
22503.1
28108.6
26777.9
32138.4
24820.7
20592
10424.2
8433.51
7166.21
4800.4
6593.7
6271.93
11205.3
5987.49
1083.62
393.366
153.228
-711.374
227.188
241.94
1421.29
-322.894
94.5734
1370.44
539.729
-293.104
-502.309
-117.17
347.714
-1098.58
-365.941
265.769
1229.66
803.343
-214.421
141.01
190.856
1797.14
2633.19
1640.26
1686.41
-653.102
691.563
-107.395
178.713
194.17
3.24305
325.667
-167.782
16.2859
-132.104
-70.2293
-466.291
1687.75
3213.69
1452.09
2655.68
551.568
-163.347
-742.953
1979.47
527.126
942.271
-306.506
809.334
-129.481
2255.18
1015.74
-783.834
242.847
-359.13
1587.62
2061.05
5094.01
6946.53
7020.23
10113.4
10192.8
7368.86
9277.66
4234.27
2275.53
283.487
-663.714
994.391
1553.54
1242.38
1026.14
1346.71
807.969
-279.918
-378.8
1094.74
659.026
898.089
917.782
5271.02
7476.09
10292.7
6402.25
6046.89
8453.48
7456.56
4961.17
3445.5
4854.81
13757.6
5028.55
4708.63
4280.55
1991.4
2432.22
47.3321
1118.73
1458.81
424.428
2046.35
969.011
1599.18
2093.37
-58.8865
305.886
117.764
-950.147
-9.46512
-42.5232
1232.22
1401.43
2048.85
3441.73
654.336
-409.435
182.411
835.577
1260.09
1322.66
23.2644
-252.593
239.056
1289.65
664.159
-36.6544
1299.65
5263.78
3498.75
4804.49
5887.68
13919.4
10841.8
6285.89
3142.88
159.227
779.01
-1178.17
-23.5827
127.738
63.6674
165.202
1192.73
1864.58
920.548
466.862
113.665
-178.102
-265.819
-231.302
-276.735
-134.755
1707.08
52.7348
58.9222
621.136
-386.749
212.601
-281.285
-33.9659
348.69
-1056.86
-1510.25
-1845.07
-472.46
-310.21
82.5433
319.377
-926.713
-393.588
-56.3439
-69.0963
117.626
104.863
-317.146
-1116.73
44.5142
179.912
-1002.66
-1064.17
-211.868
12.8719
575.574
313.515
1515.03
1895.1
3612.18
1927.1
3331.9
2038.43
4606.66
5119.53
7153.89
5745.31
5040.02
5014.73
1995.61
2949.26
1286.58
-69.8047
-128.373
-1881.44
-281.449
466.805
106.766
-318.919
325.259
-154.58
-565.34
-138.163
-412.519
-1486.21
366.261
123.95
227.086
-16.6593
743.879
1030.65
718.81
55.0481
74.7322
487.343
-242.799
-677.86
274.294
1407.81
150.061
-179.848
370.452
266.461
-633.365
-143.754
849.573
829.022
772.003
371.453
-545.965
-15.273
-1197.8
-121.552
-1218.78
-1115.98
-23.3279
-658.533
1087.08
1817.95
4482.38
6335.79
7502.32
4789.89
8027.6
8940.22
4838.77
10320.9
5910.39
5762.97
1915.57
2593.36
2527.95
4969.02
3550.88
5487.16
4371.63
2677.26
827.952
1726.66
12.4579
3131.04
600.891
622.775
4210.84
1596.62
4039.76
4632.26
4141.09
1538.16
1769.06
3941.16
2117.05
1736.88
331.229
1236.28
1713.72
2852.76
4137.06
2151.81
1021.24
1133.37
848.35
-1363.57
-1072.6
1617.6
788.738
-416.912
-95.2613
-87.4607
395.943
277.874
-46.2893
475.54
23.1269
502.407
836.482
606.438
-433.216
-1014.39
-9.08105
-1534.33
606.892
-130.786
347.624
1295.01
510.846
1699.94
883.441
-212.59
175.752
138.157
-410.91
2484.94
1004.44
832.773
-139.213
-78.484
1476.66
2771.25
3023.55
3625.37
3342.16
2534.11
1957.98
-366.487
639.465
102.142
-407.776
355.973
-1440.57
-1926.74
23.4404
404.428
867.442
18.9423
1794.05
221.361
-251.751
426.092
-107.529
-499.775
588.445
134.439
426.856
1022.76
641.538
3322.54
4382.22
3361.52
4064.5
4635.41
5622.8
4313.52
157.762
-2248.42
-2602.49
1042.46
948.184
1981.9
1967.68
2688.79
1890.17
2545.21
-634.008
-298.405
-166.43
-239.303
-266.988
-526.354
-585.896
504.13
-42.1724
547.66
94.2192
-589.656
318.575
-110.498
377.674
825.3
1328.48
8211.22
6637.23
2197.06
130.59
709.456
470.68
-143.018
731.839
-2074.28
-2185.27
-140.784
1731.55
1118.68
667.063
1674.86
4302.09
4045.57
1389.34
1423.96
431.848
845.156
3278.46
2323.19
2149.32
4485.07
8706.26
4979.67
4229.92
3271.86
2235.29
2006.89
3832.65
-43.3746
1153.87
1018.18
1746.16
3895.89
3520.26
1162.23
1215.68
1096.98
332.186
-2078.14
-1234.29
-1164.17
152.91
35.0462
-60.511
-315.047
-702.257
5.67791
5.40706
-462.06
50.1372
352.657
-256.432
154.148
118.814
101.507
889.416
2192.37
2512.05
311.022
178.73
2078.25
2194.31
385.482
-279.481
-205.336
-130.483
-25.6022
995.937
4379.05
3263.62
6481.57
13699
11269.7
9877.49
12478
11792.5
10446.6
7539.07
5774.53
10788.6
14517.4
10318.2
7429.82
11621.8
10330.3
6464.44
9289.47
9199.64
15059.2
18082.6
15550.8
14928.6
9790.63
13098.5
18309.9
12854.8
7625.6
7568.39
7741.02
4683.53
9368.84
5581.54
5842.46
10523.7
9509.52
13012.9
18688
8901.06
19706.7
21286.1
19625.1
20470.4
25133.6
25293.4
23989.8
19916
14021.2
11279
11006.1
3668.07
4146.24
2115.12
6549.22
4343.45
6333.02
6996.7
6109.97
7086.96
8273.08
13324.4
13093.8
12146.9
21444.5
23375.7
18038.9
16464.6
19782.3
13287.7
10014.1
5103.07
3753.67
863.296
365.808
-195.208
153.437
10.2293
1071.98
63.3479
-814.362
-1587.49
1155.21
47.2425
1150.28
860.405
2078.96
1990.84
4543.45
3472.66
4027.71
4290.31
7881.14
4774.58
8888.81
2527.76
4065.87
3403.89
5186.11
1339.95
2961.94
1744.17
1276.18
1781.76
3555.94
3490.66
2853.82
839.221
322.292
3428.41
8654.59
6707.09
2854.74
2056.1
-49.6979
1010.42
2133.98
1991.5
2099.93
1498.8
2042.28
5005.37
3028.63
4786.96
4552.4
4904.47
4954.89
1000.2
2796.65
861.877
1498.55
2107.71
3283.01
4429.9
-661.821
2683.17
1069.28
108.302
346.249
-348.377
-170.175
138.641
-303.937
247.293
507.775
-97.22
-66.12
333.611
1775.74
2659.4
2417.2
2771.21
3931.38
3083.93
5615.37
4419.1
4105.89
5477.09
7993.75
16011.3
15791.1
15128.7
11380.7
6608.03
7030.04
9586.25
8632.32
9391.76
7471.16
5172.38
6636.66
6498.17
10613
7870.09
9161.21
10885.6
12853.1
14292.8
13556
7818.25
6442.85
7446.33
9932.95
5487.37
5450.08
323.324
216.22
1804.97
1693.41
-8.86742
-661.03
671.16
-55.9951
497.63
-277.733
1391.6
917.689
979.261
751.606
1186.76
0.261086
133.772
298.02
-194.294
-511.616
117.4
-124.695
-238.643
644.441
786.834
20.7477
-186.165
147.835
639.922
707.224
386.682
3266.23
1195.8
2937.56
4100.53
4210.16
2603.64
2596.87
2523.46
1346.38
1372.68
4244.39
1315.1
2408.83
6243.83
7277.41
3097.65
2499.85
1290.95
-209.569
-101.313
-113.862
232.589
994.723
219.271
1095.01
1442.6
1685.71
2056.81
6.83443
474.854
1450.4
1309.66
2074.38
2029.15
871.717
423.806
309.719
469.68
-900.279
453.375
248.461
436.597
857.369
1310.02
2777.94
10935.9
13747
11702.1
12000.8
11346.1
11511.2
13249.4
9158.4
10210
11695.4
18669
7492.17
7891.55
8161.26
8244.03
6519.16
1362.14
650.343
1929.05
533.837
389.412
-91.4432
-674.809
1676.74
-400.801
-394.943
1093.02
876.604
1397.85
627.342
-215.981
-26.4659
769.667
598.328
-1251.57
-1273.9
-347.573
372.798
43.0595
-352.761
-376.346
52.9517
307.583
926.208
-147.17
-608.566
1442.68
497.769
806.876
-277.595
-792.359
2102.85
105.18
1256.37
4071.53
3630.38
7113.14
9443.29
5292.96
9681.49
6500.74
5455.2
7362.7
9293.03
15847.2
15385
14498.2
13165.6
16387.3
14435.8
14272.5
5626.57
6141.98
6136.34
6028.36
2338.01
1077.87
469.329
333.666
537.468
-272.523
64.0153
59.774
-323.337
898.961
139.936
648.013
-592.499
-577.563
125.245
43.8795
-172.094
48.0999
-80.6135
31.1387
-210.249
-447.375
377.06
138.779
223.886
7.19846
588.989
3998.14
4910.59
2564.64
2579.01
1329.46
93.5501
-504.412
-1860.49
1489.34
3435.38
6840.29
2701.05
970.496
377.004
3003.64
4129.59
4353.8
973.276
395.998
96.9511
-207.739
-352.429
-1105.73
741.439
3969.79
4986.65
3526.73
-14.8692
2566.01
2295.91
-1446.8
3547.76
7193.26
4385.2
3361.35
3156.75
2562.23
5276.41
6052.45
6998.34
8046.44
8868.16
6564.21
8921.78
6911.51
3428.35
4803.13
-252.005
3178.99
1133.08
2848.09
3875.95
1385.91
626.501
61.9479
1345.64
60.3684
717.748
132.563
57.8693
-1698.47
-1889.12
-267.677
813.317
1061.93
-366.438
325.469
185.847
530.388
950.307
146.934
120.332
-1171.06
-843.478
1481
1908.55
1144.66
1305.25
421.089
-502.242
-100.074
1725.79
1029.68
1970.44
1869.08
9091.7
16698.4
14811.9
8187.09
12137
7580.27
7794.32
11714.9
10416.8
6598.77
6043.76
8376.96
5457.31
5419
3547.73
2183.48
4114.69
3060.53
4561.78
3206.9
-123.583
454.883
1492.42
1303.46
1497.14
1441.67
1060.69
-325.649
731.552
2831.56
4719.09
4147.2
4841.42
4062.02
3794.71
2022.36
3357.05
715.16
775.876
1310.37
526.877
2754.13
3801.06
4200.53
3956.67
8037.85
12367
9989.17
7802.48
6624.69
7379.26
5188.31
12128.5
9150.57
3475.15
1628.88
-904.186
-307.077
369.483
453.257
956.996
-375.358
1084.83
4661.96
3825.92
3901.17
2149.88
-278.101
768.314
406.975
-520.227
-20.4604
-194.185
-1189.95
-180.977
-621.191
4873.89
3110
3378.31
909.41
-98.5967
894.186
2421.26
1449.44
1068.47
128.474
91.8713
-525.638
-287.04
152.316
908.178
203.668
1607.45
1987.4
1744.14
1530.04
-292.433
623.937
204.637
794.99
-236.778
-1658.96
49.4586
2828.4
4804.22
3776
6698.86
11420
6126.9
2233.01
6875.95
9339.34
21584.9
26038.1
23566.4
30994.7
24529.8
35133.2
38498.3
32051
24047.7
20679.6
21156.9
12399.5
11017.6
11251.3
10389.1
12791.4
12893.1
9787.91
11178.4
16662
19466.7
14900.6
16739.8
19262.1
8358.59
6999.63
5191.83
2130.47
2646.3
2045.2
371.523
2202.04
151.645
1235.05
2228.83
2448.49
497.538
365.293
2400.72
4281.95
8182.4
9214.35
10734
4217.1
5384.25
2775.25
1210.18
1488.66
1853.07
125.495
557.769
1378.84
539.883
105.549
316.08
1937.84
3721.85
1902.09
1046.55
1575.56
2714.71
4307.19
1780.94
3474.19
6458.32
10229.8
12304
12577.2
9580.07
9787.75
7941.54
9335.82
11585.7
14722.7
19756.1
13594.3
12095.3
7316.53
11771.1
12675.7
14101.4
9844.74
7590.83
4247.46
7219.27
5641.44
8038.18
3623.07
6297.53
9415.49
9035.39
5386.94
7691.1
7407.03
5976.5
6608.6
6847.57
8954.93
13446.8
9399.65
5819.47
6722.61
4751.19
7665.97
13482.5
15598
14606.5
5519.16
3902.46
1326.12
4158.84
2858.75
1037.7
4369.45
7866.58
9624.38
9622.77
10326
4287.11
7192.14
3967.6
3275.81
4642.15
5594.16
4264.01
4430.04
4951.65
10049.3
5575.74
4325.83
2137.64
2835.64
466.047
1159.69
2533.17
1039.94
5623.99
6477.03
5256.37
4846.47
930.071
-912.545
573.797
262.079
498.468
374.823
807.404
1504.96
182.927
-42.1184
318.551
-367.764
-7.78647
-40.7918
19.5612
2018.95
5221.52
9340.48
13436.3
16831
19278.6
19164.8
15816.3
8132.02
3924.68
1265.64
986.472
1156.79
2535.69
4287.21
3382.01
5338.42
5694.36
5575.52
2665.59
6621.3
6053.9
4435.18
1730.9
2830.28
6754.07
5772.66
3992.69
5510.44
9374.81
6923.01
3653.54
3974.27
2096.65
1642.19
-108.312
-915.318
454.727
725.505
163.442
1274.63
124.095
-29.1516
2076.6
1560.8
1267.81
1857
3272.14
-356.981
1054.74
963.193
504.988
33.8168
-467.194
-800.108
-381.908
-547.488
298.407
536.666
1661.34
503.89
54.1899
950.714
604.553
561.199
725.477
1561.04
1606.65
2627.01
2024.28
1471.61
1264.62
522.056
6358.75
3225.03
5188.55
4897.8
3115.36
2451.98
706.638
3122.53
490.197
1450.12
2324.14
1224.18
4390.3
4921.13
1605.92
-1500.15
-454.252
-251.552
1031.83
175.976
-488.507
13.0348
-108.16
-192.247
-6.55526
335.999
698.562
3483.08
2115.21
3949.7
1206.92
986.797
-34.3521
-407.055
-44.1313
610.919
2260.05
947.315
108.651
1038.35
680.024
2010.7
277.427
1616.61
123.524
-873.594
781.7
-1004.34
273.383
-79.9098
100.767
-135.762
837.269
798.377
-200.958
-445.018
-1985.12
-806.456
193.02
102.498
-214.279
-655.651
-713.366
1021.41
167.365
-1140.83
-55.5818
425.593
730.633
1186.98
2449
2955.37
296.372
83.4109
1224.18
2275.18
2711.24
4837.55
7498.41
10063.5
4920.02
6736.44
3814.42
2000.15
-474.571
-678.293
521.187
142.185
509.717
260.975
596.224
760.895
1454.31
3215.96
1271.83
1074.89
8014.89
8430.91
5136.95
6490.51
5990.47
6709.27
6070.47
5131.14
3704.74
3936.2
1947.8
1870.99
781.573
1461.64
1164.79
620.359
855.777
-52.6329
854.839
2541.04
5883.62
3932.22
3516
5412.73
5029.24
2087.45
1451.45
1885.78
-312.648
-1153.41
-1347.2
219.164
-112.466
-1521.45
-85.8644
-133.634
-179.239
-2007.72
-574.356
575.189
1171.21
-69.8545
-76.8126
106.27
-1085.53
-26.7913
3579.68
691.947
3150.32
4620.86
5495.35
3224.5
3190.73
5454.26
1372.66
942.899
3161.01
2783.02
563.827
2449.63
3499.37
1942.02
4737.04
4948.77
2365.66
3406.33
908.706
1292.54
906.4
3394.02
3632.42
2708
2440.95
3051.32
42.2773
-219.974
199.641
1866.76
76.6839
631.376
1284.01
916.653
1857.42
253.421
718.419
1083.48
762.961
913.638
2901.24
4477.19
3990.89
3544.21
2170.73
2718.3
4578.07
2389.8
1940.67
1061.59
856.736
-1304.8
-2347.11
3039.31
4701.86
4761.52
8249.22
7693.13
9193.87
12933.7
12276.8
21613.4
24017.4
27448.4
30069.2
24908.5
24529
20080.9
14698.1
18311.2
11187.7
8092.83
8666.47
11142
8892.11
9563.02
14795.8
18693.9
10616.9
6914.62
1011.07
191.242
414.343
907
1510.71
232.807
-75.7259
1081.87
2062.3
2364.59
3109.52
654.742
1996.24
2530.76
3221.35
2090.27
2004.88
222.189
1063.1
-254.549
163.441
-1358.15
-4.97649
227.515
2077.14
1276.88
686.687
100.392
3604.77
6085.05
5252.29
4069.12
5792.77
3852.57
582.403
1217.42
89.099
2250.41
4254.34
981.893
736.032
1391.34
489.291
481.902
137.386
-288.359
-187.786
-427.42
-105.557
-716.322
135.865
-496.223
-131.711
323.897
-300.013
-33.0515
102.615
100.896
-81.4927
173.571
-528.377
-1039.56
-125.211
-90.3594
812.447
-183.218
4641.74
7466.58
8933.31
8934.25
6081.38
6136.04
9493.37
3034.63
1309.06
1881.02
3905.05
2747.82
1154.41
582.89
299.231
1057.4
164.268
-24.8064
131.525
-1503.13
1136.92
-64.7778
2963.27
3705.73
2098.52
585.071
998.187
603.142
927.979
1942
3243.64
581.112
138.387
-449.459
-37.2543
853.618
-105.738
1480.59
1253.74
543.607
144.939
235.592
1166.61
624.977
278.589
482.918
-629.838
-113.913
-411.288
824.082
-315.518
-662.705
488.38
-210.942
-537.102
1122.42
98.5059
137.619
-144.051
4329.37
3763.57
8001.75
7615.42
5284.42
4042.93
2698.28
1882.07
4540.26
2500.17
662.951
-757.343
-518.084
-88.2972
990.985
1428.83
261.442
1476.05
2343.74
7057.13
3762.97
2340.49
862.911
-2132.03
-1193.87
-268.58
-107.975
693.42
35.32
-1822.65
440.906
597.365
2363.32
3266.69
830.893
294.516
-172.627
-158.05
-318.529
653.652
184.638
-455.306
86.3015
978.886
718.972
155.524
786.242
672.286
351.563
-78.6586
135.46
-10.3108
-726.544
292.87
38.8193
-42.7523
139.448
-335.7
-1440.52
-154.595
350.017
841.353
-390.752
4083.99
2103.48
1636.5
2558.58
3569.51
8315.14
7971.73
7458.29
4880.51
6325.27
804.819
390.727
148.183
108.869
98.4572
-449.855
-511.766
294.094
396.886
199.355
279.309
434.295
1043.84
1348.56
2807.96
1680.16
953.777
-1.40363
-172.223
-445.572
-420.584
1178.74
1044.86
846.747
146.355
-1817.13
1270.33
762.118
58.596
-1009.15
876.332
1551.07
1875.05
2919.78
1036.11
1193.62
455.268
-158.81
720.232
1070.19
-272.816
-466.156
432.086
666.709
3031.55
4262.21
2504.97
-86.6819
2047.49
4294.09
6488.08
6702.75
7205.91
3708.5
8912.33
10365.8
15827.8
20874.6
22226.9
14933.2
11998.1
5244.1
10651.1
6934.22
4071.19
2946.96
3184.86
1781.89
966.162
47.6148
-275.092
-802.791
-155.705
143.566
2034.09
1295.17
-178.495
27.7279
-276.148
299.096
2594.48
-63.0668
182.224
279.624
157.658
1994.38
-1138.87
-1911.98
49.8317
-22.9285
-440.23
-896.592
-409.373
1377.53
3993.42
4575.48
1700.43
2943.78
856.206
862.669
972.599
3853.45
267.551
435.883
576.217
1876.17
217.403
833.684
2951.59
830.422
217.335
20.9951
203.036
-573.796
-76.9787
1792.09
2102.16
1203.23
-731.317
427.911
45.4342
1274.99
847.941
179.739
803.48
688.532
-62.2975
-451.221
-72.3601
-693.501
267.039
-769.077
622.726
657.909
488.449
-927.002
-484.827
-50.163
64.7528
130.086
663.977
2246.59
367.506
1847.13
953.569
1741.65
6097.66
6022.38
11090.5
11216.7
10345.3
10245.6
9367.09
4618.37
3428.28
5543.66
9500.24
13492.6
11306
5162.77
2426.2
1826.76
1765.19
1187.75
1171.66
-793.236
-694.439
1185.36
5518.14
8080.91
8854.64
8254.19
5386.02
5516.01
4693.61
3923.24
4102.79
7542.45
12581.4
5622.24
9218.42
9400.82
8010.91
8580
7499.17
6677.71
7426.66
3418
2296.94
1522.59
-338.67
-847.921
71.9686
646.412
-161.476
479.857
-81.3874
837.869
-107.83
-555.103
-197.517
38.0133
1274.61
493.808
1235.37
702.491
825.103
-367.267
778.426
430.306
1056.76
-48.6507
52.6095
-234.88
-1013.64
-398.088
959.752
2100.97
5665.24
9503.57
6857.11
7593.41
9093.09
8287.7
8583.77
8390.84
7024.69
7339.13
10522.7
10900.6
7963.67
4716.95
5629.07
5930.48
2005.88
2633.49
3282.03
549.232
-201.949
-41.4708
590.669
2665.45
6228.01
5237.19
1128.73
120.192
3063.42
2471.36
2713.85
2112.65
-28.0875
72.8833
396.552
312.276
2325.37
4802.92
3195.69
6679.21
6167.73
5393.9
4811.21
6391.41
6720.51
5598.4
5821.28
4931.55
7384.45
