124.0860821
54.26035
-136.2495001
3.237304
6.270772
229.8694873
-110.472987
-138.787221
41.152107
204.640438
-312.345871
-191.485798
168.584834
-286.378969
-1.549604
-159.2634407
432.1224654
388.087687215
-62.1865891
-115.01386745
-202.3969249
-314.326366
52.355909
48.4552013
221.260948
-537.601469
-182.1581823
-155.686243
-353.306768
-173.713448
-493.99922213
-34.104002
360.6092988
68.691362
-50.8852632
181.883994
426.714578
422.2939719
-38.8411281
-252.8424062
147.551877
-4.899489
157.283217
-9.2443935
-177.766668
201.460079
394.5539523
150.632572
-31.443004
-290.14459046
6.49180447
-168.5014161
-126.736
-119.522792
42.0339286
209.614241
-277.528577
-90.898839
31.745698
-48.088585
-201.3994946
-337.9405385
-300.5063887
438.834081
200.91156
-82.9409093
139.0931697
-292.3837769
61.7631985
-4.922708
-86.027889
98.789437
-180.538562
118.258042
-29.072446
-2.5340091
-366.0214186
20.766424
-350.312882
140.1679941
27.442403
-54.724763
67.641006
-285.6526432
-98.7435648
-188.7933945
-176.600186
-161.659738
-362.525513
287.027003
115.0147431
168.3199948
-147.8243477
11.385438
-40.300951
139.6153736
27.7572154
-43.907587
-185.6432193
-100.4369512
236.032773
-326.993688
-20.973133
-466.6433677
86.6110839
-40.897831
-91.048335
-85.1547942
-143.6550654
-25.923548
204.3477053
264.0875387
114.640365
117.6534686
123.278421
-109.9412249
46.325269
159.742366
97.4988
33.339792
-129.108162
-90.0924961
-288.650186
-44.218454
-58.135834
29.409688
-230.492381
192.581736
-69.8939314
376.222218
-73.214729
-28.115252
21.608412
-401.1902434
-277.410011
262.196872
-56.097980904
209.3521804
-70.4635756
-155.4660495
-54.0276194
65.5129686
8.7610747
82.521243
-131.8017966
-59.20665094
-268.0812323
45.465563
137.692061
-190.899973
-19.6732006
-303.0222092
-176.806895
-9.606061
-9.241481
211.655219
-71.309925
-198.648523
-304.4622866
-364.017097
-121.340123
-426.6551656
-186.59022
158.981733
-121.554931
-179.04468821
-64.85978
81.480934
-246.1544327
-526.804844
533.24359
-7.5065411
-111.5892962
80.424333
-331.54389
-256.131492
202.987081
-278.64606
-88.4103713
71.7228371
-114.796197
284.332729
31.2058866
38.436506
-52.974538
47.0353559
110.834843
-151.60358247
347.662795
-20.3564589
-43.159206
1.6203441
-238.4008554
28.8745964
203.338336
-509.582667
150.203337
401.730923
-64.7191119
-295.062166
22.2657636
-119.144641
197.634806
92.762659
139.366681
167.4795717
-163.8675649
4.9997
-424.451303
-134.8708024
-98.3009493
-103.97031
-264.922155
48.964506
-273.0050012
-177.359816
140.719322
-182.975256
42.80786907
55.7929
57.3347643
-47.9823991
52.539393
-106.1586809
-289.492493
173.2102131
225.336323
71.0450254
-304.4166984
178.20075
230.2660758
365.274979
220.54699389
-4.727083
-374.760712
67.8972126
108.494991
-88.300565
283.3091548
333.2111732
-1.023911
-134.010964
-297.9664697
-234.3096298
-135.267512
-30.329913
119.6455348
-284.4769917
-250.931433
74.53653
-220.562088
-198.081908
109.9612127
8.4863017
-212.1682727
346.1254905
266.3729673
298.490172
232.6925292
-106.598129
-95.961958
42.1456658
-401.956221
-193.266095
575.677767
-149.2605157
-96.394173
204.05083421
-131.965343
15.4453513
120.587172
24.1973148
19.7713057
47.922228
-336.2383865
42.966564
129.3396505
68.243299
-264.408981
-251.452388
-233.2324839
200.859145
-119.57448506
139.4120066
-8.01852688
-30.3266204
330.451955
174.2134523
-374.943334
337.191716
-187.1722404
-125.7781162
56.277721
87.218646
79.511144
-247.1532
231.8625068
355.8709586
228.4734282
103.7233353
-45.5026027
-54.830214
23.2348934
213.023936
-18.175631
159.834975
85.455590414
-465.104839
-78.165683
-88.6036715
49.168721
89.6440663
39.8809498
136.541393
-164.013304
72.379575
418.5082699
-216.610485
-166.310085
106.388155
175.559924
26.355524
-166.53133
0.508912
31.28729
531.37962
-130.334702
83.237549
222.485022
102.356793
56.26624713
109.322159
-298.896241
-230.6411332
-2.078122
166.94739886
309.7290405
174.866192
-10.6279957
-68.6910035
158.897446
86.208216
-114.974357
45.8728688
143.170195
-4.120852
138.302512
-220.156665
71.0253255
-165.692781
-95.821712
-18.744726
-160.555822
-21.2439711
-372.406969
-50.7512212
44.110284
-163.190428
343.3198792
216.86162
70.848462
-250.0218779
119.23921175
-385.049171
-110.6506684
-204.896307
148.31657972
81.114557
111.9030831
274.646685
16.701179822
12.7732663
185.401236
325.619844
4.2622102
-21.7458873
-535.055371
251.4822482
-290.4938089
572.0671464
-72.427508
-307.471734
173.271177
-301.6788152
161.40062286
-159.5837605
-132.3100568
-101.91369
277.88757512
-1.733991
97.563592
199.346844
267.166308
-246.311394
44.617111
80.9092326
-239.977405
-35.753172
-85.243688
-5.8608883
21.282936
-342.3613549
-35.643314
-116.6297922
116.842269
-489.9168678
63.4265426
-63.93758
-127.68508709
103.551067
7.8151626
-333.189877
-86.253132
363.8327891
-88.125668
-61.184521
-206.32844616
-15.41398623
-165.783636
51.186261
-35.014842
69.498091
137.069501
-154.0060755
242.9367782
196.3602201
-272.467411
58.916989
-163.4572494
-82.421554
-26.720489
-307.944807
14.5591644
-120.6889
-54.238984
93.839749
-215.061151
41.86837963
91.085832
-72.153014
-159.807110771
234.110861
120.4313371
62.436343
-58.6166228
-470.4743597
-399.036945
-83.556497
132.934158
5.151472
-54.9407255
-31.75313258
48.6899023
-314.60775641
4.050599
-93.9102714
-157.2796968
150.859757
110.7801908
1.023093
29.9627627
-378.402871
-143.310304
178.355759
257.3213303
173.429959
-332.2646094
-60.148712
122.0143114
4.9458452
-75.068675
61.148452
67.011157
-128.639576
130.920274
143.7854111
370.795035
184.524946
-6.389439
102.5341154
-50.258334
-213.422607
334.17064
190.9629218
81.694324
231.079651
137.8332762
-146.1558616
-8.0979702
-19.5356858
-127.60594158
-319.830997
199.879476
228.900602
-76.638664
-186.82044549
-15.355482
78.3847052
-187.0130797
-112.4201301
55.669085
83.211389
62.261797
327.785205
207.442602
-220.7814989
28.782312
55.054844
150.242687
240.9901817
-82.045187
83.952959
-17.6622434
40.4824481
-102.443104
-32.0093891
-114.5787343
-161.0244026
152.7724736
160.356564
258.14312776
202.001038
300.3429083
-80.673504
-29.773344
-179.890193
243.618875
-98.8030863
-81.547239
-238.3690627
-108.63648
-160.267142
-114.95080972
510.4203438
59.00334
151.1908048
188.903024
-137.710589
162.8516284
64.5594
-44.3612773
-91.539504
-29.2066387
234.0143304
160.234315
173.4756475
-248.565516
264.5758081
153.43663
-139.1033915
256.4561234
-137.84099
-40.253796
-187.883192
-118.34464616
-88.0682382
136.335244
202.9507384
313.868815
-63.3810315
240.5907121
-7.4285455
121.862604
136.831292
-484.762347869
-167.841884
50.3870878
-131.01476
-331.265286
26.827
-189.747284
459.526592
162.069532
-12.7745685
388.379105
-85.168675
60.847443
-145.856387
-101.625227
8.1740834
-292.751209
73.4390928
161.094165
-175.26569
71.157152
106.34535
212.9159634
-108.504598
-234.2080781
10.533009
-258.60389
291.320478
87.853867
74.751127
-6.921009
44.886482
10.953801
277.141986
-328.887779
-35.838554
-122.491302
22.838013
-327.566676
210.862792
67.0535329
173.026131
-394.968698
56.359718
-103.906186
119.190098
-197.1024791
197.395294
99.2939634
-73.6008404
-213.2113196
178.354056
-114.2362519
-96.280215
-278.123405
-64.937126
74.322964
25.3775105
201.120613
-319.2897178
16.3576807
13.890844
-130.282448
196.035141
243.213006
176.5786628
-84.749962
461.426104
9.904834
-140.60536542
-229.158012
245.197093
-176.578058
-90.863441
44.925866
209.705357
91.176201
94.277411
119.798128
266.997043
21.8132281
297.849454
219.157444
-154.828619
372.0430492
-131.1613327
29.802771
-147.177287
24.265493
19.922581
-114.005576
-102.186472
-443.1620722
-1.81889131
-1.8183555
38.3825044
285.1808335
-169.80965
-33.6041382
137.320311
-243.656816
194.365924
180.131177
-245.299819
182.485012
-336.760088
318.188024
-33.587296
-155.499714
93.175098
-0.282736
-218.0325578
-411.24104008
65.4569924
-45.94446461
68.612185
-150.270357
193.52565
-323.3982301
-98.730271
-353.923382
-49.649198
81.92974
19.573339
247.910944
-111.8649523
-368.125783
178.88072365
268.214797
337.2157852
92.038749
-6.211728
345.9364766
-163.138636
143.598914
-11.3324002
-175.92825
-115.582725
135.241018
-174.0989403
318.3608522
-170.251661
-35.4145905
-273.064425
269.0687294
87.7276259
200.8861834
-38.078531
200.747637
85.5237834
-97.161025
-111.7976377
3.860601
-101.723195
-349.96391103
-74.320505
-234.1966121
-48.408897
-194.875718
-165.174798
-343.68278
47.273331
-133.268225
-233.6194839
11.7121232
-127.3378549
177.0692368
119.023006
154.268079
-53.406452
-101.2404635
-16.950279
253.5994864
84.090585
-44.236627
-211.250643
-41.5880525
16.8199001
9.0154774
21.855082
-67.135673
-156.01990236
181.594852
-76.5450852
59.28309
-105.1551767
-283.73303343
309.6484937
318.359015
8.4207465
237.1451837
266.208331
128.0719531
25.3228082
42.8423743
-331.694589
197.277421
-334.157493
-212.971424
-90.956168
-191.623042
75.835995
-140.337398
64.100387
255.4127
-64.0242822
-62.57034
257.9331864
252.115381
-41.1483112
-106.0472223
243.792618
-96.7905619
-85.7912027
111.003706
480.3138276
187.994241
-84.426008
-277.627797
-75.9693474
-510.814622
-85.4556
-19.7581239
-162.6283552
-82.841679
-121.361974
-81.088648
402.186779
18.53487265
258.176487
-352.86477711
-102.202377
274.6828532
144.2944262
-67.728542
-164.5643122
133.30118
22.258195
-255.1896585
270.0337646
-112.974237
-159.3582167
-5.366507
-204.6171501
-233.4938024
111.5667718
-142.271808
432.554139
-111.073748
-58.9565232
84.3808552
8.5100476
541.999184
43.962715
326.3999928
334.7190805
177.4880915
-221.731177
-124.902873
-124.9722662
70.932968
75.5893975
-44.591402
242.8133914
226.964004
143.094131
94.873565
-216.355681
102.118793
-223.5768052
434.00833238
19.4999437
-242.9986845
-67.989756
-89.124042
31.2798299
42.688767
-0.400772
-17.8976759
-21.6306147
-268.730961
137.905348
66.80547
-247.8888603
233.4125145
-60.698378
-255.983542
218.9624823
105.422518
-58.58171
169.490728
187.433959
280.082111
-405.7954115
317.478323489
215.805741
-0.826243
153.420648
269.724752
149.02904547
-103.6990105
197.9607351
-293.9587641
-0.149386
-203.316784
-203.378519
88.4934
-236.7094822
21.9411064
83.922594
206.237019
-333.341271
-42.446546
7.630789
34.988271
-99.553774
-34.998646
155.480341
578.0249481
180.616223
180.9893005
-169.25869561
-96.329208
-191.58069797
94.653123
86.233761
404.03464
-343.2705526
-201.90072715
169.921405
93.954387
246.462665
99.4101452
339.4736751
182.1753622
-69.0092715
-52.074568
-323.94809
-79.593424
63.441626
449.171589
305.29801
-9.103151
-95.8613746
192.818629
64.6899627
418.539139
156.530355
222.843819
182.9778749
-156.5471665
77.6200585
-211.018216
77.678398
323.033036
20.083305
-99.8778468
177.324551
91.004252
-103.8459795
-61.581858
-66.331197
-65.85574
64.988824
-6.633578
255.039655
-270.757623
111.2887264
-44.21572
8.172689
-58.8003487
145.86007
-105.486698193
118.891413
165.224126
-399.7745209
163.8487473
274.600982
-37.742535
-172.237456
-96.8744341
30.1426889
256.441179
-155.434116
-198.9639291
315.95116
-230.318881
208.093615
-123.4340186
-103.861319
-194.300222
-205.8175468
131.936795
4.186783
-369.879475
-60.068511
3.20561
233.31795933
49.0972308
118.8461375
-63.746867
459.258617
210.04201
-229.3654495
-122.233767
-259.291575
189.8480281
-378.777704
260.245955
18.28106036
115.758494
85.138948
241.3908221
-25.3707481
229.7727375
87.0973694
108.54423
761.90778
-201.367561
83.084587
-149.591466
321.042297
-107.373855
-271.0635485
238.8830603
-409.693675
142.5083988
-132.394911
389.2406443
101.7902316
-319.0164804
-207.531898
-388.8640718
67.290793
-110.2603
55.5378466
