621323062.5
366714085.0
92420415.0
55593825.0
2840784100.0
1102898250.0
971585240.0
20080462500.0
3108874000.0
8639933000.0
54132555000.0
14450256000.0
25270710000.0
34126380000.0
13216936500.0
86848510000.0
1.1666234e+11
2.723017e+11
7.279307e+11
5.452289e+11
73491745000.0
59410290000.0
66306715000.0
44857040500.0
15430281000.0
3.0140697e+11
6.479334e+11
3.9746875e+11
1.90538505e+11
2.5629945e+11
2.07938635e+11
3.5734705e+11
8.0645e+11
3.4975875e+11
2.1454165e+11
5.8556382e+11
6.1719905e+11
4.3830585e+11
1.7816545e+11
1.0017469e+12
3.779907e+12
4.8112235e+12
2.659877e+12
6.375517e+11
1.3741906e+12
1.13591555e+12
3.8523346e+11
1.9804585e+11
1.43513205e+11
82333790000.0
95676858000.0
6078370600.0
3586268150.0
6437260050.0
13019194350.0
33122199350.0
57251245000.0
47273990000.0
12084333500.0
46231155000.0
7152415005.0
3189817300.0
9382207500.0
4440926300.0
15115292500.0
20917896500.0
33741985000.0
7508031800.0
2796952800.0
1018618040.0
4230615550.0
35248912500.0
7660111250.0
29733855000.0
46645180000.0
1.3914714e+11
2.72636525e+11
4.224592e+11
8.393572e+11
9.053377e+11
3.06211775e+11
3.8597405e+11
34808247500.0
6978937000.0
35008365000.0
37735803500.0
6248670500.0
2780852300.0
598422630.0
18651796050.0
31398047500.0
1.19895815e+11
80677930000.0
2.071378e+11
44130793500.0
27969588500.0
1.2984602e+11
84268625000.0
11000148500.0
74017870000.0
76662850000.0
19457879000.0
13936961500.0
61208890000.0
20144966000.0
53163955000.0
1.38738905e+11
99649845000.0
1.59390385e+11
2.849184e+11
1.4918463e+12
1.0014438e+12
3.7164205e+11
9.7858105e+11
8.512777e+11
4.125722e+11
2.785729e+11
3.2551385e+11
8.474538e+11
1.03988425e+12
6.0814265e+11
7.4868715e+11
1.7881063e+12
2.1753389e+11
81186635000.0
2.6188626e+11
5.453274e+11
2.55864875e+11
90867015000.0
38134600000.0
40143200000.0
15017404500.0
24159009000.0
1.5079121e+11
65960765000.0
66008905000.0
35729170000.0
60357690000.0
29982440000.0
31431725000.0
26696603500.0
53185080000.0
5816650500.0
16362073000.0
4027159339.1
1419492850.0
156638200.0
1369154300.0
1908723350.0
1.0056468e+11
3.1946095e+11
2.494974e+11
1.5267229e+11
1.17526975e+11
62874555000.0
28291990000.0
12494179250.0
-987585840.0
516131145.0
246050125.0
1360589620.0
7736645950.0
3793143500.0
36187762500.0
12706070500.0
9051101000.0
998594080.0
436197060.0
1203753045.0
5417567850.0
22529942000.0
19141591101.0
2.60023075e+11
2.82762e+11
95015075000.0
51415110000.0
56877225000.0
20639699000.0
36278763000.0
1.1532806e+11
44403225000.0
41348830000.0
8685193500.0
71810947000.0
26757855500.0
11988890500.0
51171710000.0
9010298300.0
9053604150.0
28160073000.0
3760686100.0
-517580485.0
2057227995.0
1638900300.0
2212644000.0
16502192000.0
6017219850.0
6047167000.0
21761598500.0
86359950000.0
50583914500.0
18154022500.0
28417663000.0
49834375000.0
1.45071865e+11
5.03685045e+11
1.19197525e+12
6.6483845e+11
1.7053023e+11
6.989721e+11
2.2541415e+12
2.388546e+12
1.8415055e+12
8.958909e+11
1.5073813e+12
3.6052075e+12
5.9149115e+12
7.628803e+12
1.77545e+13
1.43495295e+13
3.3722455e+12
1.2070132e+12
8.684539e+11
9.3515715e+11
8.9779165e+11
1.55890575e+12
6.7378945e+11
6.8266865e+11
9.8767265e+11
9.800588e+11
1.53135945e+12
2.7983475e+12
2.1890625e+12
2.353648e+12
5.0250015e+12
7.5663385e+12
4.5757005e+12
4.8099575e+12
2.3470095e+12
2.518808e+12
3.817793e+12
2.122098e+12
2.5535095e+12
2.2182285e+12
2.6976695e+12
3.875647e+12
3.329473e+12
3.125378e+12
1.6362008e+12
2.0441465e+12
