603.949
627.447
1227.6
1196.3
762.102
467.564
1004.81
1026.1
1426.25
1954.37
1695.66
3580.47
3957.93
5966.26
6658.04
5374.05
5942.2
4594.33
4103.88
4411.77
4168.89
3705.36
3000.64
2328.67
4119.19
2882.41
2850.73
4066.56
3922.54
3406.16
3968.08
3528.25
2744.41
1956.17
1808.27
1222.38
2002.57
2812.87
2486.12
2657.06
1828.8
2659
3096.12
2936.7
2146.55
2390.08
2439.76
2701.08
2215.43
2376.92
3447.9
3916.95
4673.42
4672.31
5378.96
4363.55
4881.02
4936.23
4879.19
4644.15
5117.05
6230.59
6821.43
8384.06
7538.54
7108.23
5739.26
5436.87
6488.8
7428.28
8803.82
9191.3
8555.82
7147.92
5820.44
6172.79
5334.91
4836.19
5151.68
3779.96
3886.08
5806.61
6040.91
5099.66
4332.9
3615.02
3840.74
4065.39
4606.3
5667.93
7077.32
5377.96
5179.22
6024.82
7241.78
6357
5711.49
5684.15
5343.31
6844.6
7496.9
7152
5886.03
4924.45
5017.86
7115.77
6874.35
7637.45
8703.58
7248.73
7886.56
7188
11160.2
12363
10790.5
9456.67
9117.34
8428.31
9616.7
10677.4
10783.9
10457.9
11994.2
11386.5
10944
10032.3
11862
10051.4
10974.8
14645.4
14672.6
13403.9
11263.4
10089.2
7807.88
8468.72
9943.7
10199.7
9363.23
7015.76
5243.37
5216.05
6753.5
4716.25
4716.5
5548.5
7691.74
6745.68
7625.38
9482.16
7756.29
8520.88
9725.58
9419.3
10532.1
9530.97
10114.4
10930.1
12233.2
11234.6
8544.16
8690.86
7867.86
7382.42
9077
8563.41
10331
11325.8
10144.3
11899.8
12218.9
9402.42
8405.65
8827.61
7661.41
8457.17
8228.3
7768.8
10016.7
8407.51
8696.9
10062.8
8865.88
8367.29
7826.11
8972.38
8996.24
8420.22
8367.92
7322.03
9071.94
12002.4
9112.1
10791.5
12678.8
12531
10294.3
10199.7
11503.2
12104.8
14383.8
14652.1
14414
13551.9
14730
18893.6
18704.2
16396.4
16933.2
15891
15064.1
15231.9
13601.3
13221.4
11010.7
11596.7
8980.24
8016.01
7275.14
6719.14
6471.04
7643.28
8070.7
8938.18
9356.42
7073.56
7585.66
6502.2
5246.53
5693.84
6647.21
6433.28
6421.29
5974.77
6058.09
5901.96
4742.34
5160.53
4529.21
4619.35
4451.41
3472.68
2264.05
2176.78
1647.98
1875.13
1657.88
2944.9
3132.78
2922.63
2944.96
2255.92
2604.67
3908.9
4705.54
4907.35
6455.83
6018.8
4083.75
3774.96
3279.78
3377.5
5100.57
4601.58
3844.12
2937.06
1887.96
1568.03
1994.64
1985.43
2239.51
2167.08
1981.76
1368.91
799.103
1607.21
1433.45
1244.78
2783.48
2006.44
1458.47
1135.53
978.923
923.116
1886.23
1403.05
1291.05
1688.28
2102.71
2042.82
1438.42
1480.34
1710.4
1814.22
1953.35
1742.31
1567.21
1528.62
1254.17
501.738
484.137
842.659
705.366
1406.94
1885.08
1408.69
2012.54
1982.33
2807.15
3678.91
4294.52
5467.47
4564.1
4368.89
3934.17
2843.58
4467.34
3839.74
3448.34
3815.33
4073.08
4139.35
3784.83
3489.81
4008.78
4506.54
4043.78
5566.82
4420.68
3904.82
4031.01
2907.21
2440.45
2187.67
2058.42
2039.14
1186.49
1002.83
1478.02
2458.77
2516.06
1929.28
2471.4
2467.89
2488.4
2691.77
3157.99
3315.04
3160.86
3308.02
4516.91
4810.9
5187.03
5643.23
6669.57
7471.47
9806.11
10653.5
9816.77
8180.25
8917.64
9629.97
11646
10464.2
8305.89
8498.29
8798.59
8180.54
8782.77
9017.33
8289.51
8950.03
10168.8
9246.77
8010.28
7985.25
8917.77
8808.95
6874.36
6865.29
8960.53
8015.91
7629.56
5332.59
3632.55
3506.59
4774.64
4487.76
4758.33
4083.25
5572.86
3490.1
3574.82
3118.29
3270.37
3054.68
2125.68
2344.26
2840.55
3711.83
3642.56
3825.99
3045.5
3226.65
2914.19
2649.36
3656.5
3790.91
4167.85
6990.14
6893.45
6199.83
5486.5
5845.39
5883.04
5906.25
5906.5
6896.77
6553.83
7830.42
6803.23
5328.77
5587.47
6010.08
6797.26
7650.39
6174.32
4376.02
3943.14
4112.01
3373.98
4443.46
4786.03
4630.98
5408.55
6297.68
6787.8
5927.33
7239.12
8372.69
7252.65
6488.05
6523.65
7236.14
7161.58
5837.48
5151.19
5682.34
6669.38
7380.16
7437.89
6353.99
7589.44
6932.14
8633.23
9756.6
11594.6
11544.7
11710.6
11237.5
11085.7
11628.2
12169.7
11376.5
8531.44
6132.22
5588.38
5529.77
7130.67
8429.12
7728.5
8019.12
7515.63
6719.11
8335.98
10160.1
10509.8
8262.2
7204.55
8517.8
7957.52
6284.44
6883.69
6914.36
6524.92
5954.1
6313.14
5809.59
5211.2
3410.1
4565.65
3511.62
3964.45
4043.5
3635.06
4219.95
4582.64
3747.46
3700.69
3559.9
3904.38
4494.9
4499.9
4054.69
4656.05
3440.51
4053.26
4847.81
4080.59
4842.11
4962.92
5395.96
5859.56
6469.66
4916.48
4957.94
4150.72
3909.93
3097.04
2971.38
3858.77
3824.68
4077.38
5879.29
7004.92
8689.21
11506.5
10367.7
10454.1
8711.36
7319.08
6963.42
6292.73
7875.87
7475.01
8305.62
8878.79
9231.6
11381
13759.9
11148.6
12258.4
12678.1
16176.8
15488.4
16415.5
15828.3
14882.6
14898.3
15473.8
15541.2
18858.1
21369.9
17146.5
18400.1
18882.6
21613.5
20256.7
19767.1
19105.3
21410.1
20328.7
19656.1
20171.3
18696.9
15984.4
15475.6
15797.1
16318.6
15119.5
14987.5
16991.3
15806.4
16212.1
15731.4
17117.5
17683.6
18794.6
20541.9
19413.7
21772.5
23811.2
24029.3
25012.2
24073.2
24713.2
26422.5
25258.6
24529.3
25539.9
20967.2
19003.1
17954
18081.8
15193.4
14419.2
13233.8
14512.7
14330.6
14730.5
12491
13002.7
9902.08
9462.65
9507.91
13626.2
12627.9
13314.9
12427.7
11714
11133.7
10256.8
9649.17
9204.13
8670.44
9189.26
7846.63
8886.23
9626.71
10983
10004.4
11652.8
11792.4
12165.9
10768.3
11782
11785.6
16213.6
17321.4
16197
17601.9
19266.6
18460.1
16847.1
15038.5
15354.2
18777.1
19488
16697.2
15915
14261.1
15402.9
15124.3
15192.8
14777.8
12913.2
12798.4
12191.2
11485.2
12940.6
12580.1
9420.16
8621.43
6296.07
6872.1
7147.33
8273.57
7611.31
8018.71
8117.34
8761.72
7938.89
7172.52
6953.4
6723.28
6313.21
6459.96
7007.05
6646.94
4793.58
4464.63
2771.99
2301.49
3072.79
3118.07
3645.89
2377.1
3781.29
4331.3
4487.76
5881.92
4948.1
4522.39
4092.85
4479.99
3098.6
3963.97
2970.78
2686.94
2606.77
2710.12
2632.23
1889.5
2465.37
1692.83
2054.31
2935.9
3531.05
3103.02
2097.19
2696.3
2577.91
1592.5
1625.83
2655.01
2777.44
2485.9
3450.13
3470.69
3096.67
3250.92
2140.19
2182.26
2580.09
2365.34
2453.31
2626.16
3652.45
2994.38
3418.31
3013.51
2865.82
2570.32
2796.39
3118.13
2985.18
2224.82
3100.45
4177.02
5133.41
4807.7
4833.78
5079.32
5154.63
5664.83
4100.72
3571.08
3892.59
4718.14
5594.24
7631.03
6112.5
6611.75
6082.04
7324.91
7068.7
5448.97
6402.06
6499.59
6209.29
5149.16
5948.43
6421
6902.29
5239.47
6317.05
4265.95
4168.75
5608.03
5291.17
6140.58
6522
6894.89
6724.75
7931.86
9030.57
9123.95
9133.72
8971.85
8742.37
9071.58
9104.24
11535.8
11783.1
10289.9
9974.68
7418.73
6835.34
6712.84
5919.56
6154.3
6300.58
5479.68
6236.14
7978.81
8678.15
6698.34
6490.45
7139
6469.01
7293.02
6732.03
5354.1
4867.18
4857.93
4945.47
4896.59
4966.22
4887.6
4944.46
5617.75
5546.5
5703.44
6883.36
8969
10769.3
10947.8
10191.4
9304.07
11657.8
11251.5
10449.4
12363.8
12689.9
12940.5
10889.9
14887.5
18082.4
17944.9
19031.2
16261.7
13442.9
12844.9
11901.8
11157.6
9749.91
10935.2
10243.7
10368.7
8889.31
9954.91
10500.3
9603.43
10736.5
9391.69
7931.8
7686.55
5811.24
5645.03
6378.36
7825.54
5478.25
4814.85
3638.44
4204.9
3998.74
4189.19
3859.07
5354.55
5488.94
4767.7
4236.79
4525.34
5122.91
4774.87
5423.73
7802.51
7724.52
8369.65
6123.43
4899.18
3731.57
2676.14
2693.99
3449.2
3446.44
3910.31
4070.64
3226.91
2618.23
3023.26
2613.56
3211.44
4396.17
4558.17
4396.62
5559.27
5766.37
5139.84
6558.95
6525.25
5535.61
5228.48
4492.76
4366.67
4933.47
5474.4
5569.34
6068.51
6041.74
5757.2
4004.17
5561.15
4537.07
5086.22
4184.42
4535.44
6334.37
7236.21
8196.94
8690.75
7753.52
7174.41
7400.96
8252.96
8549.25
8554.01
5807.11
6486.66
6293.96
6384.98
5217.97
4831.45
5522.01
5618.49
5128.38
5216.86
5991.37
7924.87
8747.95
10173.9
8563.65
7917.71
8108.06
8221.2
7763.95
6613.81
6593.88
7287
7061.19
5952.23
5483.15
6450.22
7263.8
7314.35
5970.61
5112.26
7206.71
9111.76
8163.01
8350.95
8108.4
7980.83
6971.55
7974.55
8919.72
8227.4
10411.8
9658.64
8237.11
8808.92
7994.17
7847.79
6104.36
6896.38
8331.74
7448.94
7106.91
6458.89
5915.64
5721.39
3579.02
2867.82
1923.18
1426.55
2059.74
1951.22
2430.69
3310.4
3247.74
3447.86
2505.6
3036.73
3078.52
2343.68
2750.97
4192.92
3465.58
3641.35
2627.04
4142.41
3785.68
3634.49
3499.95
3287.53
4743.81
3868.01
3980.48
4203.58
4391.36
4696.26
4683.52
5172.32
4663.68
5731.83
5402.57
5418.99
4920.91
4135.2
4131.92
3666.37
3815.68
2412.16
2299.98
3075.09
2301.97
1996.17
3101.98
2794.4
3521.58
3157.39
2770.18
2117.84
1970.97
1837.33
1429.67
743.624
853.669
1220.25
1303.23
1635.13
2449.04
2105.5
1563.22
1393.83
2647.46
2168.84
2485.33
2198.55
2561.45
2620.09
2297.59
1188.01
764.263
643.481
867.702
728.367
973.751
1971.32
1884.26
1087.63
405.442
577.949
252.068
569.822
493.492
492.937
1005.27
1435.46
1320.5
1934.45
2556.52
3544.73
3097.2
3074.88
4170.76
3085.2
2799.37
2185.77
3134.77
3081.82
2785.32
2327
1882.64
1711.8
2021.51
2368.61
2688.44
1386.72
901.841
234.595
471.265
360.077
553.291
1187.7
882.037
613.687
707.592
657.033
357.799
646.012
1870.11
2522.41
4040.02
2517.04
1719.08
1818.45
1318.27
920.448
506.702
873.353
663.521
442.458
687.092
224.88
723.457
691.576
1093.71
1840.67
2266.69
1318.93
1522.76
1478.5
1344.75
1062.84
626.898
1191.39
1798.98
1880.44
2061.5
1770.06
1021.04
1217.87
721.196
484.046
454.616
769.448
482.489
605.963
508.934
656.567
802.32
1790.54
1195.14
1557.7
1747.41
1943.59
2727.26
2820.6
1842.75
672.678
1535.76
1047.88
1584.65
2316.62
1863.37
2485.09
2370.46
2779.38
2796.59
1911.26
2377.39
2622.94
2124.22
1921.85
1855.42
1379.34
2282.37
1911.56
2143.58
2103.01
2942.54
2801.34
3154.69
3533.08
3631.88
4430.96
4753.78
4364.56
4397.75
3585.83
3502.39
2035.24
2800.75
3848.34
3614.29
4219.21
5241.15
5030.65
4731.31
5626.21
6505.49
5958.75
6220.63
5557.55
4665.85
5460.27
5519.36
6203.19
4707.71
5714.2
5370.65
7341.64
6932.87
6737.13
7281.03
6624.87
4390.51
2847.89
2541.48
2031.03
1454.35
1159.99
1476.12
1013.85
1581.61
1145.6
1577.83
1142.45
1466.16
2662.03
1981.7
2280.28
2683.06
2012.15
3647.87
3009.96
3130.9
3873.67
3072.05
3057.02
3398.71
4232.13
3573.06
3120.75
2110.56
1551.28
2733.94
3316.13
3319.17
2358.13
2241.38
1825.86
1958.34
2234.94
3149.3
2496.39
2168.04
2262.17
2039.86
1750.86
1660.91
2277.19
1824.8
1613.38
2351.27
2338.33
4637
5680.9
5167.83
4067.39
2935.29
3435.08
2462.06
1477.54
1073.02
731.896
507.628
1450.85
1595.58
1416.62
1598.46
1294.42
1297.63
933.953
2149.83
1765.97
1996.51
1643.33
1910.91
2588.47
1947.84
2386.28
1892.42
1262.62
1678.51
1686.42
1693.04
1944.94
2288.35
2717.96
2721.04
2319.1
1905.49
2397.3
1951.52
2398.46
2310.87
3124.31
3750.27
3434.8
4367.83
4047.85
3559.07
5410.27
5160.38
5465.71
5099.49
5094.7
4861.39
5265.29
4489.71
3323.87
3897.56
3797.85
4194.91
4531.6
4084.26
4064.6
3497.6
3194
2949.16
1491.87
2388.03
1763.02
2013.3
1661.22
1515.39
1889.21
1938.32
2360.17
1786.22
1155.07
1308.51
1758.67
1337.56
943.775
1114.78
1203.03
982.92
1489.08
1645.71
1634.27
1372.06
1570.16
2197.4
2755.66
2174.89
2721.38
2268.71
2867.46
2499.63
2065.42
1228.52
1505.92
1878.7
2383.3
1672.68
1605.68
2264.35
2298.48
2617.65
2942.37
2983.81
2761.34
2750.57
2527.5
3241.01
3175.82
2967.93
2663.71
4377.17
3954.65
3060.34
2548.7
2119.18
2748.67
2415.73
1597.21
2135.11
1732.41
2069.32
2974.1
3506.31
2593.81
2935.13
3739.11
3432.01
3545.6
3760.32
4048.39
3743.09
4175.92
4053
5471.81
6125.04
5797.42
7802.78
6294.34
7204.83
5439.75
5794.04
4389.33
2118.2
2293.54
2556.61
4018.42
4390.48
4736.27
5751.15
5257.16
5085.36
4420.63
4386.24
2804.36
2801
2377.3
3084.11
3444.33
3144.05
3329.43
3512.14
4239.53
3961.8
4657.92
3586.13
3736.03
4252.48
3279.81
3641.75
3933.4
4852.57
5532.77
6163.75
6103.22
6181.11
6699.95
7169.54
8273.1
8138.88
7848.05
5491.53
3998.72
3123.64
4550.78
4221.86
4154.86
6143.67
6838.58
5128.7
5030.06
4106.16
4690.34
4164.46
4555.79
5437.2
8003.14
8324.48
9456.8
11080.2
12583.5
15215
13762.8
12202.7
12769.1
12110.7
12306.7
11234.4
12713.9
9837.98
9276.61
8622.73
8566.82
8135.59
7952.58
7726.64
7629.13
8352.91
9991.2
8338.58
7852.67
6424.59
6420.71
6877.23
7819.89
7282.92
5592.83
6871.47
5793.78
6225.87
6359.72
5583.32
6865.77
6759.51
8091.92
9233.02
10998.4
10747.4
10624.9
12648.5
13868.3
15090.3
11507.1
10246.1
10044.8
9500.1
10723.2
9929.79
10423.1
9863.9
11005.1
14820.3
15388.3
14680.3
15441.1
15735.9
14710.9
15344
13270.3
15368.4
15163.2
14358.8
14111.6
13616.8
12041.9
10542.8
12465.3
7988.09
8030.38
8373.72
7225.23
6508.35
9409.75
9297.48
8781.84
11284.7
11546.2
12211.4
11988.5
11495.7
11657.5
11715.2
11438.7
9899.6
9978.93
9448.81
7653.37
6594.83
6826.1
6601.96
5664.86
5472.42
5654.39
5185.5
5774.98
5584.49
6390.59
6386.45
7788.07
8766.12
8823.31
7664.92
6781.69
4933.85
3129.81
3692.24
3717.28
3381.89
2911.63
3680.36
3740.84
3341.17
3264.5
3812.91
4387.97
4266.72
3723.01
2397
2447.06
3300.5
3933.25
5180.16
4754.69
3940.56
3557.06
4612.83
4442.29
5253.34
4198.93
5551.88
5827.25
6089.77
7072.16
6910.49
6438.5
6130.96
6261.83
6174.08
4841.15
5632.64
4713.08
4896.69
4754.24
4879.45
4460.35
3489.25
4081.41
4021.55
4484.21
5982.37
6106.3
7182.08
9477.75
9318.81
9023.01
9151.7
7374.22
6758.22
6235.56
7069.37
8386.47
7044.82
8116.31
9177.86
10981.9
12183
14330.6
16264.6
12006.4
11888.6
13638.2
13126.8
15623.6
17452.8
16825.2
18553.5
19412.4
21751.1
19174.6
17859.3
17415.8
16225.3
18641
16473.3
15935.1
15811.2
14636
12450.6
9434.53
11985.8
10820.5
10703
11804.5
11643.6
11418
10835.3
12339.4
11957.6
12199.7
11102.9
10683.5
12418.9
12919.2
14980.6
15712.4
16652.7
16719.3
17615
17791.9
20784.6
22824.5
23697.3
25118.3
25001.2
20754.7
20670.8
21910.9
20683.1
19981.4
19199.2
19822
22066.9
23669.4
20221.1
19372.3
20138.2
19685
17359.4
18676
16898.7
17486.8
20706.3
19654.8
20617.3
21262.1
17472.2
16819.9
16056
18169.1
19754.9
19599.7
19420.9
19620.8
19771.7
17121.7
19592.5
19801.8
18029.5
14567.4
12726.4
10644.8
14355.2
14338.1
13195.6
11765.9
10324.3
9528.84
10407.5
10945
12920.2
13622.2
12515
11684.3
11575.1
10462.4
10656.4
9230.68
9427.91
9915.05
11279.3
12988.2
14148.8
13779.3
14583.4
14254.9
14765.6
13869.7
15166.7
14828
18612.5
17958.3
18473.9
16276.4
14541.4
12657.5
13760.6
11766.5
13687.3
14217.8
12122.2
13983.5
11584.4
10647.1
10695.1
11060
10678.7
8169.11
8027.59
7250.32
5813.09
5805.03
5530.82
5558.99
6786.84
7117.79
8257.17
7083.55
5925.61
6219.1
7537.18
5166.61
5732.64
6175.75
7273.03
8748.11
8104.15
9408.86
8826.97
9018.98
7327.02
9944.78
9398.16
7406.51
7514.97
8333.5
7862.85
7259.32
8807.35
8834.96
9279.05
10292
10657.1
8755.89
9137.62
10009.4
10163.8
10252.9
11305.7
12181.9
11741.2
10667
11406.8
11000.6
10897
10580.5
11878.7
12184.7
11094.3
10133.1
9908.84
8280.41
8777.03
7701.18
7012.48
7217.2
6765.56
6136.95
8005.23
7686.77
6613.5
6671.14
6688.34
6104.14
6231.11
5433.46
3896.28
3297.99
3372.89
3315.06
4226.12
5064.03
4427.24
3488.63
2833.14
2982.51
3283.61
2507.93
2213.64
3080.46
3056.33
4674.18
4122.29
3555.24
2640.95
2378.54
2160.16
2720.34
1730.64
1753.27
1733.45
1987.27
1508.32
1682.87
1104.05
1375.09
746.725
1151.99
1200.31
1328.91
1599.44
1259.65
1495.37
1647.05
1751.83
1005.5
803.85
831.059
690.594
768.79
1572.33
986.937
1493.52
1075.03
805.763
905.906
780.249
750.125
937.846
687.117
857.286
532.065
905.812
765.317
837.202
1191.44
1254.24
605.181
1013.11
1080.3
1328.13
1450.1
1980.24
1982.33
2000.86
2475.91
1992.1
2571.17
1957.33
1301.51
1894.97
2324.51
2731.03
2850.45
3109.3
2573.08
2308.41
1990.05
1892.68
1472.33
1816.75
1979.07
1973.62
2861.92
1948.63
1808.5
1204.56
1807.48
1205.31
1193.03
1892.53
1478.85
1144.62
964.406
2107.14
1692.58
2264.96
3602.21
4057.72
3231.38
2591.75
2985.44
2050.51
2187.51
1810.68
985.008
633.621
1277.13
1977.12
2448.78
2130.44
1503.48
1513.57
886.84
1321.97
1303.7
1194.08
1413.4
470.365
1056.28
923.917
1520.57
1110.88
870.619
892.975
566.149
757.796
1510.61
1146.39
1652.6
1562.73
1876.03
2716.02
2370.79
3298.63
4741.27
4469.6
3935.03
4095.91
3409.51
3317.93
3183.86
3322.8
3023.58
2406.18
2084.53
1699.85
2267.15
1995.02
2639.47
1866.47
1448.53
1790.2
1366.46
2357.06
4515.38
3040.95
2017.12
1738.02
1646.87
1880.6
1440.61
1437.66
1169.23
1354.57
1557.38
1276.38
1878.15
832.275
1849.44
2020.47
2858.34
3550.63
4961.82
6447.74
4854.62
4074.1
4241
3375.7
4798.95
4295.61
3256.95
2211.08
2747.02
3529.03
3487.27
3317.37
2417.05
2316.01
2352.63
2083.99
2042.28
2411.57
3003.56
2987.9
2082.62
1943.36
2248.15
1296.2
1532.06
1886.57
2173.47
2158.72
2950.77
3116.7
4477.27
4010.14
4422.52
1882.62
2391.16
2789.62
3079.1
2622.01
3639.83
3215.3
2796.71
3391.32
3736.03
4096.44
5671.44
4450.27
3721.3
2152.15
1139.6
1070.44
1402.75
1932.62
1738.17
2155.29
2108.15
2392.06
2715.8
2740.11
3251.98
3523.61
3636.78
4460.4
3723.43
3844.46
4305.08
4631.25
4134.57
2747.43
3611.91
2651.06
2964.54
2503.37
1721.62
983.017
717.514
1226.19
1552.64
2106.86
1890.49
1997.43
1739.09
1775.59
1472.61
1241.68
1061.44
1125.11
1311.92
1990.79
839.395
1152.41
1394.59
772.979
1278.03
1233.65
1550.99
1993.02
1380.59
1170.25
1552.16
1637.63
2530.74
3202.07
2554.84
3233.99
2416.26
1810.52
2861.42
2326.36
3022.1
2301.22
1667.34
971.941
658.7
1657.74
1745.49
1309.14
1109.03
1724.05
1453.1
1282.91
1382.32
1153.56
1822.75
2621.26
2284.83
1975.49
1669.95
2157.8
1612.98
1937.24
2546.2
2687.84
2186.36
1426.8
1330.8
1475.35
1707.79
1872.45
2127.77
1928.25
1210.78
1144.92
2318.45
2049.25
2542.59
2770.28
2932.15
2318.02
1728.4
1640.52
690.15
950.318
2068.17
2604.63
3232.29
2385.05
2799.29
2924.37
2743.81
2121.24
2296.13
2655.85
3126.62
2613.7
2006.77
2899.3
3285.37
3940.72
4194.91
4509.31
3538.91
3108.28
2447.76
2407.18
2393.74
1319.73
1233.21
1667
2083.66
1448.31
1062.92
1205.6
1703.43
1801.18
2440.24
2712.27
2350.83
3216.03
2837.78
3043.65
3011.99
3192.6
1647.67
1342.19
1403.79
2444.66
2185.56
1818.66
1481.53
1795.87
1475.42
1753
2397.86
4370.12
5330.86
5106.14
4996.19
4763.13
4922.21
4614.91
4322.65
4505.96
3223.24
2085.52
2171.72
2579.72
2869.7
2792.45
2842.08
2488.45
4222.14
5403.01
4612.27
5193.94
6336.28
6230.66
4394.75
4617.41
5909.18
4832.84
4217.25
4793.89
6303.58
5791.34
4178.81
5362.08
4716.72
3986.14
3827.06
4398.33
3242
1808.57
1265.94
2057.31
1539.46
1544.11
1403.76
855.79
1654.5
1577.12
1333.79
506.304
1120.44
1075.13
1093.34
989.349
1256.91
974.087
567.056
763.708
968.119
525.76
1277.28
1115.89
2022.47
3291.56
2643.68
3698.33
3811.09
4828.98
4014.4
3399.7
3164.84
3222.85
3881.77
3570.75
4574.48
2994.83
3204.26
1587.93
1380.1
1308.45
1120.89
775.828
1074.06
2175.31
2237.05
2209.02
2318.38
1708.86
1617.58
531.732
1447.36
1749.16
3041.66
2678.19
1661.71
1279.02
1529.33
610.643
1214.11
2254.56
2595.16
2188.68
2656.17
1877.78
1318.92
2164.32
2012.25
3086.72
3672.17
4921.54
4755.59
4303.35
3063.32
4994.97
5360.69
5130.35
5080.98
4039.99
6509.9
4715.2
5890.51
5949.18
5402.79
5291.35
5105.07
3790.86
4681.71
3483.44
2744.08
1405.83
1949.54
1436.19
1735.86
2063.66
1924.02
1460.58
2335.75
3170.35
2065.22
2582.3
2570.11
2088.21
1967.53
2200.03
1812.26
3729.13
4139.88
3577.43
3752.25
4277.56
4218.74
3201.52
3655.78
2393.41
3589.17
3203.56
4040.33
4533.24
5081.38
4690.55
4379.12
3844.94
4066.25
4265.37
2858.02
2984.44
3536.17
4594.18
4335.01
4310.78
3578.84
3341.07
3504.72
3189.38
3692.2
4799.34
6497.53
4328.7
4861.41
6582.9
5708.01
5632.92
5900.71
5800.46
5605.47
4907.87
4187.87
3509.15
2353.83
2632.51
2745.08
2560.15
2143.88
2755.45
2010.67
2598.57
3251.24
2946.31
3426.05
4438.83
4645.45
3791.45
3265.32
2804.67
2524.2
3057.82
3200.56
2733.4
2561.8
2092.84
1706.03
3241.19
3631.11
3795.44
2564.3
1906.01
2394.58
2506.62
2337.3
1792.39
1845.29
2221.39
2163.2
2390.11
2459.31
2689.41
2826.41
2433.52
2166.56
1377.46
1544.39
1567.51
2008.94
1693.65
1681.05
2490.45
2954.15
2625.51
2911.89
1678.85
2056.22
1441.74
1183.13
1317.5
1458.65
2142.88
2259.52
2407.78
2288.92
1513.58
941.012
538.617
726.764
531.024
1034.64
1463.3
1218.76
1341.52
1451.83
1153.65
2183.73
2348.91
2444.95
3355.01
2830.58
3115.6
3430.97
3197.22
3103.79
3665.08
3244.05
3195.41
1793.68
2089.86
2300.38
1939.46
2072.5
1663.47
1143.25
2766.71
3313.58
2020.22
2060.98
2282.58
1902.66
2063.25
1591.58
1373.63
1282.81
1732.7
2990.27
3051.08
2895.75
2628.94
2592.76
1726.92
2337.2
2231.35
1954.32
3489.87
2936.5
2576.21
2306.88
2165.19
1815.48
1502.7
1467.68
2217.02
1790.5
2076.75
2267.76
2269.59
2114.58
2025.77
3325.7
4410.36
3729.15
3410.04
3031.7
3086.26
2630.98
1965.09
2499.15
1741.99
2952.33
3476.35
4729.75
3980.46
2618.97
2899.76
3792.15
3522.28
3019.44
3092.06
2929.76
1915.14
2942.02
3432.57
3425.71
4007.35
3838.66
5200.78
4483.47
4098.91
5143.51
6528.32
6197.17
4850.85
4733.65
5119.83
4289.4
4712.77
4284.48
5544.04
3772.53
4446.15
4733.86
5846.94
8943.28
9317.03
8243.43
8303.99
7382.05
8260.41
7808.09
6277.5
6828.24
4877.78
3297.35
2706.42
2552.25
1835.64
1544.28
1808.58
1879.04
1675.05
1950.65
1704.47
2643.77
2135.77
1724.08
1576.17
1483.56
2738.01
2641.57
2941.63
2289.14
1547.14
3265.58
3711.88
2651.16
1691.95
2969.92
3369.02
4178.92
4609.11
3705.93
4045.66
5458.12
7041.06
4453.56
3914.55
5139.39
3749.42
3687.84
3364.87
3498.04
4439.69
2506.96
1957.12
2162.68
1669.34
2570.65
1279.12
1009.25
1228.83
1707.78
1150.94
813.239
1235.89
1811.24
1807.32
2290.06
1396.23
1741.29
2024.41
1807.3
3097.63
5042.16
4037.39
3223.84
3487.61
2898.11
2454.65
1902.49
1914.59
1708.21
1974.56
1946.87
1238.13
1410.9
1204.3
827.825
1027.49
953.964
1314.91
623.322
607.553
473.514
669.812
889.067
1072.37
1278.04
2258.83
1216.9
2053.45
1296.09
1766.13
1935.84
2697.62
4167.95
3512.69
2616.36
1746.92
1502.66
1261.66
870.512
612.177
917.507
1462.56
1534.22
1418.89
1940.66
2326.76
3356.5
3597.13
4993.86
3016.18
3157.48
2857.11
3672.07
3550.92
4596.49
6794.72
4533.76
4060.21
5176
5133.47
4861.35
4963.35
4031.99
4046.75
3359.64
2717.76
2512.81
2351.56
2460.22
2564.55
2433.77
2323.67
1596.12
1459.65
1103.63
1344.32
1147.25
1563.27
2454.25
2862.02
2512.72
2476.43
2961.62
2733.36
2267.87
2258.65
2582.07
2059.25
2910.21
2001.22
1652.47
1361.41
1474.78
1103.32
1748.7
1918.02
2452.48
3003.72
2519.62
3016.67
3796.61
4766.03
6522.11
6117.84
6184.53
6417.01
6236.45
6418.15
5186.33
3802.64
4918.22
4492.9
5812.47
5133.96
6102.3
5187.21
4690.99
3258.99
3339.42
3135
3317.25
2843.65
3125.67
2310.87
1547.43
1212.21
1218.89
1629.86
1258.45
1730.12
1568.85
1860.22
3696.64
2904.97
2546.55
3435.62
2807.51
3865.37
3963.16
3916.37
3866.87
2656.09
3231.61
2785.05
3057.47
3196.22
2548.42
4207.11
5293.92
5661.21
5709.04
5513.16
5855.96
5907.92
6953.51
6472.54
5173.67
4533.64
4484.67
3996.23
4703.42
5220.28
5600
4568.75
3588.24
3411.35
3266.94
3028.74
3329.81
4243.11
3530.36
3145.23
3000.25
3112.54
2639.55
3061.62
2746.86
2418.05
2512.26
2733.56
2360.64
1410.03
1283.4
1359.74
1932.82
2508.49
2296.19
2962.63
2645.61
2398.89
2944.65
3426
2598.96
2954.98
2354.03
3016.94
3174.04
3499.06
2936.14
1975.05
1999.57
2389.11
2194.39
2915.32
3366.22
4036
5128.56
6096.02
4402.74
4709.03
3530.82
3371.08
3467.03
4092.79
3893.38
5111.51
4842.6
4648.38
3911.81
4029.71
3909.56
2801.96
2865.48
2269.01
2253.24
2122.63
2000.91
2046.65
2591.02
2672.37
2003.47
1972.35
1977.59
2067.32
1517.47
3001.31
3455.39
2217.48
2194.3
2640.35
3366.07
2583.33
2733.92
1747.91
2178.42
2285.53
2203.71
2449.65
1296.86
714.547
403.698
1069.03
2079.86
2391.26
3257.79
4131.09
4058.04
2801.36
3258.68
2635.5
1620.14
2235.9
2553.51
1586.74
1557.03
2179.97
2464.87
3543.39
2393.16
2558.43
2625.99
2312.74
1695.74
1104.17
452.242
323.276
554.374
990.339
1234.68
1505.1
1927.11
1599
891.758
1205.58
1187.18
1310.62
690.552
622.457
1582.38
1696.77
1510.36
1478.44
2218.34
2420.55
2447.76
880.047
776.488
351.852
381.806
515.681
522.303
521.821
1052.59
808.767
855.074
1854.07
1443.75
2036.92
3020.05
4202.75
3700.86
3418.56
3736.11
4146.1
3666.63
2736.09
3301.33
3397.55
3876.39
3698.6
3441.78
2533.07
2478.79
2623.54
2682.77
3903.92
3878.74
4509.72
3939.99
3078.4
1889.51
1509.18
1491.15
1423.58
1370.58
2256.42
2758.02
2346.83
1327.07
2043.54
1966.53
1942.64
2391.09
3079.37
2865.48
2552.13
3329.07
3371.66
3190.69
3649.35
4593.99
2595.76
3529.03
4417.14
4227.38
4509.71
2536.79
4325.67
4282.02
4564.28
4565.23
5908.16
5311.57
5811.86
5220.37
5046.07
4924.41
5274
5935.9
6943.82
6823.22
6821.34
5840.68
5147.76
3596.28
4834.6
4054.97
3555.55
4304.5
2973.42
2549.45
2145.92
2380.07
1890.74
2331.01
3246.15
