435.356
469.596
517.984
769.723
242.174
228.68
209.352
-133.115
199.045
151.353
13.7666
289.239
1152.22
413.504
1220.98
554.551
657.893
291.883
-1297.43
-1464.82
-945.017
-1234.33
-1506.41
-683.024
-1658.26
-1402
-1584.87
-2307.57
-1711.47
-1354.11
-1596.53
-1165.09
-1294.98
-280.11
-253.034
-428.161
-1398.24
-1998.04
-1646.94
-1583.15
-966.929
-1058.12
-1477.57
-1786.3
-1269.99
-1215.98
-936.845
-740.102
-116.413
-310.305
-486.813
-339.517
229.358
258.17
1238.15
888.677
724.969
1231.75
1555.64
2582.36
3322
3994.97
5128.29
6603.46
6050.49
5926.64
4911.03
4933.8
6249.57
7166.11
8189.7
8809.39
7947.86
6295.79
5019.58
5531.15
4336.59
3916.09
3727.86
2414.37
1246.83
3472.2
4042.38
2857.7
3562.92
2877.55
3626.11
3861.36
4449.83
5127.6
5356.81
3577.3
4044.16
4616.17
6353.03
5222.76
4804.22
5053.36
4606.76
5604.44
5706.73
4932.02
4055.08
3274.39
2477.25
3712.46
4068.59
4819.5
5489.2
3236.02
5188.16
5314.44
6349.61
6034.78
5234.43
5549.41
4885.16
4897.58
5690.24
6640.06
7168.73
7361.82
6709.1
7267.67
6935.07
6798.25
9222.29
7592.72
8911.29
11602.3
12684.2
11768.1
9665.41
8699.12
6492.51
7205.77
7724.17
7762.98
7014.48
5471.06
4070.84
3634.59
5279.44
4168.64
3851.67
4216.83
4564.47
2829.52
2523.05
3929.72
2172.48
3389.13
4296.89
4774.16
5027.22
4849.37
6110.54
6145.34
6353.42
4677.02
3700.23
4927.4
4411.88
4387.54
4128.92
3687.33
3587.09
3813.23
4213.12
6230.61
6131.23
4851.89
5329.89
5883.47
4940.1
4328.24
4772.37
3443.43
4113.48
2754.73
3889.86
5741.83
4656.93
3105.58
2122.89
2885.95
4372.08
5290.03
4825.31
4486.7
6229.98
7630.06
6286.89
8309.79
10751.7
10381.2
9063.2
8687.43
10271.5
10978.3
11839.1
11663.7
11937.9
10596.9
12028.1
15278.5
15291.3
13300.6
13716.1
12286.4
11483.6
10540.4
8393.96
9862.02
6816.95
8315.02
5807.16
4755.78
4268.66
3293.16
3310.71
4950.56
4206.94
3740.08
4578.32
3923.13
4689
4073.2
4070.06
4698.77
5590.62
5489.62
5171.21
4213.45
4677.79
4548.09
2878.02
2988.02
2965.6
3417.43
2972.03
1377.36
1114.23
278.245
379.978
-173.634
165.122
984.907
364.085
447.969
-612.285
-1184.57
-1203.55
-2118.16
-2568.18
-2305.15
-2646.07
-2444.3
-1759.15
-1491.11
-420.484
82.6879
-210.738
122.536
-555.755
-570.124
-548.399
-685.209
-764.065
-852.133
-464.619
-1050.49
-521.649
-272.073
-198.288
-489.098
-191.366
309.547
-11.1473
-452.525
70.1609
-268.827
-321.54
-154.963
-101.318
-207.305
74.019
-124.86
217.094
-258.149
-67.9365
-87.3014
-72.8764
-512.816
-325.933
-329.37
-206.506
-135.368
174.035
11.5632
124.836
256.199
-307.308
-723.737
-679.356
-369.477
-256.125
-175.805
-899.722
-1425.58
-1148.93
-259.697
-464.689
-988.998
-231.6
571.272
783.941
474.172
26.6391
766.741
739.785
933.631
817.077
907.732
1391.1
1803.36
1190.6
944.5
101.498
-437.994
83.2318
288.676
794.674
58.2804
-439.424
-859.732
-423.462
89.7185
-28.7343
-426.271
-842.388
-230.298
-838.8
-681.739
-1274.08
-1646.26
-2156.22
-1774.23
-2165
-1996.27
-3121.17
-2894.35
-3137.87
-3660.22
-4086.37
-4733.06
-6240.86
-5408.96
-5308.49
-4040.13
-4817.66
-4736.12
-6320.43
-5020.82
-4016.12
-4541.38
-5187.66
-4970.17
-5833.12
-6127.62
-5508.94
-5767.86
-6181.18
-4911.58
-4501.77
-4920.79
-5433.49
-4035.65
-3114.5
-2296.42
-2213.68
-1238.09
-85.2994
-171.692
-867.79
-1190.55
-2163.35
-1617.52
-1381.37
-1672.76
-1476.59
-1224.25
-1225.76
-827.095
-1087.98
-1050.55
-641.495
-14.3346
-194.347
706.513
32.581
859.255
1963.86
1629.45
1462.84
1137.43
983.626
1289.05
1154.01
607.915
1472.9
1464.78
1724.38
1269.27
2494.63
2212.79
4148.17
5414.15
5070.37
6531.21
5725.77
4179.07
3601.69
3564.84
3492.77
2337.34
2684.24
1102.48
959.483
1199.72
524.967
801.755
825.487
172.01
1237.2
1649.04
2589.05
1852.23
2053.91
2994.7
1889.18
1145.56
2022.61
3262.34
3017.93
2470.19
2395.32
3501.08
4382.54
5711.64
6038.95
5003.31
6996.7
6485.88
7713
7925.86
9587.87
9373.44
9531.09
9899.26
8634.96
8565.66
6906.91
7575.08
6072.14
4158.43
3330.22
3603.25
4212.48
4626.55
2056.09
2968.68
2809.31
2196.43
3198.76
4916.35
5099.79
4751.76
4301.23
4161.13
924.289
1373.6
1630.55
1801.69
2040.42
2025.36
2163.73
1408.59
1030.02
906.34
2405.88
1953.43
1914.1
1246.73
975.659
2040.53
1999.49
1234.37
1126.97
1515.28
675.754
1311.28
2264.41
2611.58
3296.4
2231.49
3269.71
3782.32
3677.92
4304.87
4781.06
4889.78
4671.66
4750.16
4088.46
3057.21
3609.78
3397.48
2884.27
2491.13
3053.01
3267.26
3566.02
5259.47
6124.93
7376.73
9918.98
8192.2
8687.67
7454.96
6011.72
5551.55
5226.27
5821.4
5995.56
6346.66
7430.56
7191.29
9246.68
11202.9
9766.48
11627.2
12242
15467.8
14801.1
15777.4
14677.3
13553.3
13484.6
14247.3
13696
17220.7
18248.6
15189.4
16418.6
17501.2
19853.7
19082.9
17508.1
17024.3
19370.9
18456
18128.6
18552.3
17151.4
14475.5
14089.8
14818.7
15693.9
14062.7
14177.1
15849.6
14582.2
14034.1
13840.5
15932.9
16120.3
17944
19131.4
18339.7
19924.1
22624.6
22508.5
22998.9
19487
21031.6
22025.2
19452.9
18999.9
20643.5
18069.5
16920
16674.6
16145.3
11088.2
8807.32
7357.96
8054.83
7672.56
8145.76
6843.94
7696.95
6030.85
5966.01
6697.76
10308.5
9307.45
8695.55
9627.41
8947.24
7498.17
6092.65
3963.46
3458.9
3964.31
2984.86
4115.17
4796.87
4433.68
5520.69
6176.78
7676.49
8659.74
6953.92
4955.39
3609.15
2791.22
4968.32
4975.85
4627.17
7517.4
8399.51
7832.84
6987.86
5428.88
6888.02
6814.81
6776.14
4862.28
5304.7
4218.82
5748.15
5345.62
6330.99
5950.01
5181.32
3816.47
3560.6
3869.8
3839.44
2826.17
3163.34
2649.9
1885.44
2754.7
2811.37
2210.94
2455.92
2122.87
1450.81
2083.63
1757.3
174.213
-8.33122
-81.391
-302.528
-850.066
-1758.12
-1623.86
-736.561
-1389.87
-1306.94
-726.231
-1224.43
-1752.91
-1424.1
-845.344
-1078.33
-1597.74
-2232.54
-2694.39
-2340.49
-2193.15
-1966.74
-2237.04
-1415.47
-1955.52
-1159.18
-339.223
-701.81
-255.057
38.3513
-60.5222
267.345
-515.584
-591.545
-960.197
-514.392
-135.058
680.9
1298.18
122.569
-114.852
-199.239
-1084.43
-844.946
-553.926
74.5917
-216.222
-51.6314
-152.359
54.7516
148.852
194.988
240.478
415.554
920.146
1472.64
1226.67
347.645
121.024
321.422
217.978
-229.703
-192.328
-505.685
618.12
1318.18
706.21
1200.41
727.915
1364.94
2460.5
2159.91
2643.04
1060.85
686.45
596.048
1202.63
1072.15
523.006
-1021.73
-817.487
13.3883
-1410.88
-691.775
-481.572
747.148
657.648
148.47
1391.61
1317.61
1247.37
713.099
949.804
722.55
-224.935
364.89
970.829
1216.3
1154.03
-186.348
679.176
786.144
1170.25
948.416
1148.89
2606.2
3989.64
5534.97
5997.46
6350.36
8568.64
8960.38
6959.2
4993.55
3100.69
4978.18
4044.85
2760.29
3066.35
3304.75
3842.89
2985.58
3759.84
3632.59
4275.59
3516.75
2915.43
1902.23
2417.39
1910.35
2745.63
2182.16
1779.24
1234.84
2463.67
2824.76
2591.56
2560.4
2310.49
1926.53
3333.06
3972.49
5100.54
7438.88
8957.02
8574.91
7704.14
9308.15
8246.07
8093.85
9247.63
8447.42
9242.51
8367.87
12224.7
13632.9
13220.9
13546.7
12360.9
9774.25
7751.69
7569.94
6575.4
6357.92
7478.87
7888.25
7464.02
7047.4
8493.16
7913.09
6972
7535.61
6281.41
5289.94
4100.3
3519.64
2898.04
1881.38
2523.8
3117.02
3151.66
2119.19
1158.75
2409.34
1727.44
705.988
1179.18
1017.05
1474.34
1026.63
1284.15
1806.67
1894.44
3633.15
3757.87
3786.09
3738.93
2466.32
2774.58
2298.82
1045.96
947.981
-269.907
-372.875
243.463
1334.22
634.647
1209.08
1203.49
419.684
1844.89
2291.38
1664.54
1259.88
3464.94
3492.43
3462.61
4150.52
4778.76
4204.66
3617.55
3202.17
2460.58
2385.1
3284.65
3324.69
4069.86
4046.5
3049.27
2056.85
2152.86
1484.76
2349.16
2222.34
3218.17
4329.33
4955.46
5998.24
7085.98
5932.85
5945.37
5416.83
5366.5
4889.3
3285.52
2418.2
3466.78
4499.1
4963.18
4172.94
3983.65
4724.08
4399.31
3235.14
2728.55
4102.07
5068.21
6580.67
8031.91
6872.34
6253.78
5325.04
6370.81
5975
5412.57
5445.26
5247.98
5027.52
3956.79
2654.37
3292.76
3917.28
4580.7
3727.01
3661.35
4156.41
6984.45
5864.14
5721.8
4794.82
3465.6
2971
3493.64
4298.75
3317.64
3470.67
3290.51
1547.72
1210.62
2030.14
1724.3
1311.58
1569.42
1358.27
264.669
1001.42
442.688
9.23391
92.5178
974.373
1171.89
1101.32
753.747
-247.44
-852.933
-1206.72
-1828.77
-1573.47
-1140.19
-992.369
-1202.26
-1153.87
-1192.18
-1561.23
-2472.53
-1707.9
-1980.11
-1746.95
-2539.33
-2150.4
-2041.09
-813.105
-995.98
-1925.66
-2279.77
-2305.19
-2485.37
-1986.9
-2273.23
-2903.83
-2777.14
-2316.6
-1514.92
-1493.07
-2218.08
-2612.33
-2578.86
-2375.51
-2441.52
-2165.68
-1108.54
-797.926
-449.901
-371.4
337.456
569.045
91.4373
-137.415
216.14
12.7697
240.899
163.966
-74.2048
270.289
-90.1038
-191.644
-110.059
-217.76
307.784
1144.21
351.722
390.322
312.046
830.515
583.436
583.787
443.357
139.272
268.405
116.986
179.779
51.3774
4.27859
23.7884
407.023
373.694
886.338
697.786
618.05
47.0021
68.1506
77.4509
-56.5743
-283.744
-282.47
-556.504
-983.951
-496.324
579.877
378.811
-110.109
549.049
172.379
-59.5966
-50.1479
-388.96
-822.545
-521.474
87.8939
65.9036
686.694
514.363
623.836
988.212
1613.88
1734.55
757.345
425.113
33.8011
134.211
70.0859
-162.577
-426.387
-465.269
209.637
96.1229
250.775
-34.7165
3.23486
64.6036
-179.342
-475.364
-630.313
-392.384
-568.146
-372.207
-154.499
51.1212
175.261
-90.6902
-117.129
-87.0604
63.4659
213.08
271.18
731.908
1144.57
1434.4
859.032
1158.92
1018.53
485.33
730.714
68.8777
733.615
558.738
647.873
867.384
806.899
821.992
531.729
41.0604
218.982
237.523
491.789
59.7047
-119.922
182.865
311.625
50.2066
-50.4137
-375.022
-262.504
-320.768
-412.066
-49.8928
-597.703
-726.144
-157.627
103.204
-442.651
-527.236
-738.689
-292.655
-696.378
-914.134
-1424.06
-1710.72
-1391.12
-1377.63
-509.576
-255.295
168.84
1118.35
425.724
745.538
633.805
57.5276
-385.034
-1469.59
-1142.43
-1218.4
-1440.51
-1309.16
-2238.02
-2165.29
-2422.71
-2182.36
-1770.63
-1240.89
-918.064
-1358.54
-1114.63
-838.407
-1759.65
-2250.46
-3070.77
-2953.1
-2607.09
-3232.73
-3111.09
-3248.95
-1807.28
-1303.68
-813.065
-2297.12
-1148.13
-520.819
-681.98
-520.505
-1431.8
-532.324
-1032.39
-483.546
-110.752
738.502
665.025
-69.9494
-95.9106
-121.91
245.818
-61.1111
-7.5547
411.177
779.514
841.7
663.929
509.094
115.494
50.9716
230.302
-18.4146
901.776
973.335
750.28
-0.350462
125.105
464.868
1128.05
1797.77
898.108
602.788
1387.11
1036.81
1039.21
1808.24
2231.32
1799.55
808.93
217.557
262.895
558.077
149.906
483.135
622.696
908.837
701.837
922.295
468.959
1118.84
1350.94
1177.69
1154.4
1489.16
1636.54
3645.84
2318.02
2765.17
2637.02
1459.44
1805.14
1859.07
665.113
702.675
466.828
294.013
346.38
313.8
-73.911
108.243
-48.5328
-468.546
-329.764
-1119.72
-702.923
-677.76
-893.704
-843.596
-625.876
-354.513
-358.876
133.998
223.073
189.916
-106.326
-572.165
-584.814
-875.785
-1637.69
-1785.43
-1252.9
-1087.24
-647.915
-283.898
-274.208
-371.596
-642.832
-1391.47
-1339.73
-1317.19
-1329.11
-1434.3
-2333.63
-2028.79
-1858.82
-1878.78
-1722.93
-1549.3
-1207.68
-593.515
-356.46
-606.339
-129.332
342.385
301.004
446.663
-720.95
-1405.91
-773.552
-161.03
14.7161
-1030.77
-517.283
3.78481
-14.2566
-249.116
-483.465
123.479
524.711
-214.584
-322.845
-724.339
-1017.61
-879.709
-9.03656
2.61276
-642.522
197.327
598.875
706.352
879.624
510.888
820.168
904.064
1060.01
206.719
20.3575
-82.5063
-10.6669
-350.513
-516.928
-300.186
-476.297
-947.182
-354.91
-560.382
-154.798
-432.116
-895.924
-1294.62
-1662.39
-1808.85
-1559.53
-1608.94
-1384.17
-1405.61
-1780.52
-1438.25
-1633.24
-2713.95
-2135
-984.355
-738.918
-606.245
-411.717
-363.805
-102.824
-182.717
-298.649
229.357
474.155
1157.19
1421.92
1728.62
2351.22
2510.99
2933.03
2974.68
3165.3
2856.95
3382.86
3368.24
5165.74
4640.73
4958.11
6415.66
5851.02
6917.68
4910.06
5543.95
4123.04
1751.69
1297.21
962.68
2090.98
1218.55
1919.3
2805.8
2805.24
1888.82
-270.834
-224.522
-316.608
-97.5173
173.586
445.564
796.409
1539.81
1070.81
1319.36
2154.31
2158.17
1987.71
2248.28
2821.94
2179.75
1167.86
576.298
853.92
1274.84
696.416
2134.88
2523.25
3426.68
3379.94
3889.63
4237.51
4273.6
4327.93
1520.85
57.9977
-81.5119
2318.82
1966.1
2107.88
3563.6
2191.4
1351.92
249.73
428.454
-38.6642
1508.32
2625.15
2960.38
5468.91
4289.35
2914.28
3379.49
2514.87
3284.27
3560.8
4320.39
3757.21
2824.36
2512.81
782.125
2482.82
3415.26
2483.49
1979.52
3268.06
3135.8
2470.38
2265.77
1021.48
1605.25
1701.22
-242.667
12.0173
1271.71
2248.46
2748.39
3961.58
3317.9
2991.85
3535.7
1839.37
2165.77
3122.46
3392.04
4203.69
4281.05
5331.66
6481.71
8331.05
7596.01
6141.42
7832.02
7300.15
7443.88
4223.73
5270.03
4822.52
6301.36
6960.26
6755.44
6847.05
5748.51
7640.78
9627.41
7987.41
7984.82
8175.89
10065.1
9993.07
10554.1
9165.47
10272
9916.08
9391.92
10197.5
10835.4
10083.1
9195.29
10628.6
7015.04
7463.68
8056.98
6829.7
6005.08
9074.23
9101.26
8376.77
10702.8
10948.1
11475
11470.4
10700.7
10405.2
10750.2
10875
9531.04
9657.36
9272.51
7197.73
6019.61
5205.15
4774.31
3695.38
3482.7
4274.14
3226.26
4293.14
4010.63
3810.4
3407.87
4558.52
5189.24
3648.72
4035.57
2149.95
1464.16
954.595
1142.36
1269.67
1064.32
1137.45
1192.13
1209.97
288.552
612.466
877.693
906.533
1422.33
2594.01
1607.45
1141.41
1214.65
931.249
1157.16
2084.6
1403.31
1991.91
2538.08
2939.69
3828.31
2863.42
3882.57
3525.16
2960.65
4357.01
4155.97
3163.85
4388.01
4805.92
4050.81
3274.82
4086.02
4023.12
4518.79
4196.87
4060.5
3176.62
2338.3
2652.39
2810.27
2518.75
3662.25
3388.97
4443.77
5270.82
5886.31
5712.23
5942.16
4950
4810.13
4996.72
5863.61
7401.69
6427.39
6977.09
7671.46
8659.1
9590.72
11918.2
13156.7
10170.6
10081.6
12170.9
12015.7
14668.7
15759
14781.8
17057.2
18214.6
20210.7
17734.5
16239.7
15430.1
14916.2
17171.5
15481.5
15187.9
14853.8
13774.7
11096.9
8924.95
11312.6
10595.1
10462.9
11558.7
10793.3
10594.6
10616.8
12041.9
11821.1
12060.8
10583.9
10209.7
11826.9
12105.9
14549.8
15547
16334.5
16431.2
16870.5
16029
18219.9
20745.5
21671.9
21581.1
21175.3
17038.6
16741.1
18355.8
17062.3
16768.5
16102
16654.9
19147.4
19749.9
17604
16932.7
16517
16684.5
14731
16412.3
13901
13352.8
14731.3
14239.2
16064.6
17482.8
14743.5
13932.5
12973.2
14446.8
15814
14000.3
13467.2
13195.2
12624
12341.9
14958.2
13945.7
13777.6
10159.4
8878.86
8858.75
11665.9
12088.4
10070.6
8571.16
7463.17
6014.68
5518.52
4055.84
6020.5
4508.38
4894.31
6005.57
6013.59
4900.02
5651.06
4232.58
4486.43
5535.81
5513.5
8255.73
7990.33
9966.31
10820.1
8990.8
9172.04
7885.62
8292.67
9832.8
12594.4
11964.9
11342.9
10330.5
9191.14
7071.5
8937.81
6674.91
7339.04
6367.8
6536.69
8038.01
7932.37
8936.7
8908.12
9590.28
9936.51
7576.42
7407.85
6169.71
4952.85
5092.26
4898.46
4717.58
5753.25
5895.78
7168.31
6219.56
5375.56
5462.43
6567.32
4340.17
4736.45
5421.89
5986.96
6173.21
5765.62
7861.83
7684.37
7586.1
6253.43
8467.51
7117.33
5655.71
6903.37
7431.32
6016.38
5784.32
7352.9
6960.1
7999.68
8831.49
7729.34
7600.07
7922.48
8517.12
8571.31
8261.23
8697.7
9298.6
7933.51
7762.98
8315.66
6545.31
5328.17
3744.48
3006.63
1176.84
197.662
-1498.99
291.774
-1354.01
-1531.13
-466.346
-1137.58
-1438.95
-1110.51
-1114.53
-106.147
943.785
1031.19
-757.051
-401.554
-331.215
-230.834
-1098.03
-615.564
-279.742
-556.706
-763.681
-606.829
-1646.29
-1476.13
-1542.11
-1246.83
-1166.23
-1297.38
-1041.52
357.326
1451.73
1778.49
1446.47
780.38
1293.18
1721.88
717.554
564.22
41.0156
50.944
73.2535
-80.565
-184.195
-140.493
-101.012
48.2293
122.535
86.8066
-142.375
-377.382
-811.306
-699.651
-549.577
32.9294
-37.3986
-597.342
-348.289
-305.458
-528.504
-38.6421
326.697
469.347
261.612
14.8188
-165.174
-259.912
-54.879
254.918
360.086
148.505
255.687
333.773
301.785
410.121
-20.1795
-285.073
-176.497
-251.43
117.985
-488.694
-575.847
-379.5
-170.731
108.241
263.608
354.518
1614.84
1214.69
1019.45
820.59
367.605
360.926
-305.855
217.119
327.709
1259.52
434.388
270.799
560.41
605.171
337.909
296.83
878.361
1180.48
1400.25
1164.06
724.609
690.116
1243.05
432.9
264.724
-571.397
-566.819
-290.809
-289.942
-765.924
-374.574
-30.4572
873.6
1009.91
-209.931
-306.814
-409.067
-701.354
-832.587
-629.249
-333.664
9.46454
-135.083
-369.001
-462.802
-742.713
-362.449
-65.5273
126.836
56.3756
137.56
429.193
345.131
85.1411
657.744
-88.9191
-688.412
-449.553
-26.4884
273.173
95.2719
217.288
-116.575
-158.421
-217.69
-13.1098
-362.972
3.41197
-235.589
96.7181
-548.035
475.615
882.292
1274.38
5.20611
-447.393
-1025.48
-569.95
-898.347
345.21
286.127
-58.9059
568.956
1507.68
2006.77
1233.02
326.393
1011.54
470.043
571.908
239.233
-489.538
-161.88
-224.705
-238.521
-603.396
-689.98
-560.271
-864.767
-593.811
-435.151
-382.362
-882.803
-3.92856
-398.225
-376.767
-537.442
-464.052
-962.351
-1213.72
-912.453
-816.619
-1066.44
-982.025
-1223.19
-1100.34
-1618.95
-987.974
-870.277
-1075.79
-0.618519
118.999
68.8111
561.118
1481.8
1284.07
1585.68
1616.96
2370.2
1889.02
1089.95
1171.92
1122.58
209.024
380.484
-29.2262
-167.439
-67.9672
681.881
349.591
1153.89
1580.75
2120.26
1235.89
828.459
577.498
582.073
426.495
1306.06
1869.98
1552.18
2106.89
2211.45
1062.09
1720.93
1747.93
1934.86
918.727
-58.2881
334.173
804.136
828.717
474.753
662.383
833.607
1639.81
1829.63
1755.12
1925.06
2041.39
852.713
1210.05
2083.16
2292.21
2159.68
3222.03
2831.98
1973.72
2536.27
2056.98
2119.14
652.5
240.62
65.0886
-166.179
-354.54
-420.499
-766.903
-317.616
-2.91419
-476.961
-408.455
-763.212
-739.624
-206.675
-121.717
-366.323
-502.76
-182.646
-122.53
-222.044
-344.732
-284.578
-358.625
146.99
188.643
341.764
340.35
460.297
-246.193
-364.714
-1182.08
-1173.43
-1233.45
-1059.75
-611.661
61.4542
446.354
189.645
513.094
77.0889
157.595
272.576
422.034
256.021
-396.554
-572.948
-348.635
271.173
238
-6.00434
226.598
218.679
313.098
494.916
224.795
1040.57
457.752
-74.6051
387.758
963.034
1139.07
1026.32
775.897
667.532
437.823
-0.944157
-485.62
-367.927
-420.28
-93.6665
153.213
95.6763
245.706
423.025
-198.069
-226.586
-583.859
-552.06
-784.43
-456.849
-419.034
-1070.85
-1210.37
-1064.18
-161.929
-407.531
-487.212
-760.118
-472.663
27.7288
444.294
388.592
200.447
313.219
494.184
-286.179
-373.05
-272.122
-431.938
-175.329
-29.0651
138.939
-34.4093
54.8449
-121.247
-320.155
-439.513
95.6048
124.487
-207.204
-637.342
-934.503
-1033.82
-925.326
-1110.25
-1426.55
-1941.81
-1601.82
-1544.85
-1678.12
-1956.4
-910.383
-635.351
-759.485
-1547.98
-1164.3
-1186.3
-777.175
-1118.58
-868.156
-1120.38
-1631.08
-2859.24
-3425.85
-3195.23
-3069.69
-2921.26
-3246.95
-3191.22
-2980.47
-2535.95
-1590.02
-585.582
-1084.82
-1360.5
-1722.53
-1633.72
-1824.13
-1658.1
-2751.25
-3509.99
-2995.72
-3237.08
-3698.57
-3931.31
-2165.78
-2282.42
-3307.9
-2492.98
-2079.1
-2133.22
-3145.42
-1698.55
291.614
-821.848
-918.414
-1831.12
-1570.94
-1608.8
-872.727
-684.396
-596.975
-889.173
-419.216
-64.1762
-32.7705
-207.444
-182.487
261.057
-49.2517
40.9334
174.095
151.156
9.75461
560.453
31.772
234.683
283.305
248.312
66.0143
181.213
856.486
675.174
1252.81
715.504
892.187
1234.45
1267.85
1790.27
801.212
1199.66
773.456
2165.22
2471
2421.76
2701.21
1553.48
1228.29
228.066
298.72
-64.2497
-235.121
25.0322
307.599
1072.88
1457.03
1169.62
1308.82
465.497
742.174
84.2431
-153.394
381.298
822.966
664.2
460.109
477.996
562.906
291.994
265.366
1113.32
1236.86
534.127
-108.114
-161.867
-288.425
-431.482
-481.663
-118.863
136.465
1042.69
221.123
859.887
1238.53
3869.28
3822.1
3996.27
4304.68
3381.85
5465.09
3559.32
4804.04
5077.88
4841.77
4393.8
4182.39
3009.18
3634.49
2618.2
1626.38
751.705
704.497
397.903
1083.46
1093.32
806.44
384.9
53.4741
-1046.97
-1010.68
-1382.81
-1464.33
-1057.53
-1140.28
-1400.22
-1238.46
-2171.6
-2444.86
-2158.76
-2278.6
-2392.1
-2708.82
-1992.03
-2227.78
-1337.19
-1831.03
-1655.57
-2420.6
-2534.41
-2353.68
-2450.92
-2009.06
-982.399
-1014.65
-1649.1
-772.942
-1038.86
-552.647
-931.81
316.026
1440.37
1586.56
437.324
526.348
1001.57
362.59
310.87
730.632
738.094
2294.59
3194.21
3454.79
3129.24
2867.12
2718.39
2894.3
1988.82
1678.9
1317.22
308.451
194.696
1008.5
247.593
-541.786
-1133.2
-1041.71
-1524.07
-1640.39
-1478.05
-1565.45
-1694.88
-1956.89
-1666.17
-1295.81
-718.834
-798.891
-291.83
-498.778
-636.782
-1049.7
-1169.4
-954.448
-1783
-2233.26
-2024
-918.295
158.148
-143.183
-122.623
-121.46
-119.385
-392.18
962.819
590.062
432.404
-46.834
497.254
609.439
-55.2919
-421.903
-464.4
-88.9346
376.516
783.589
466.531
844.141
1038.27
392.502
213.185
122.804
-18.9569
572.52
416.108
393.236
433.16
208.657
645.914
1043.7
1004.3
1752.63
926.702
382.383
229.921
119.843
-102.484
-5.36682
426.944
594.671
625.309
249.402
16.2631
460.186
773.217
193.197
-145.736
-1051.58
-1083.73
-1016.59
-418.077
-174.867
-275.263
-341.323
-171.466
-219.168
-607.278
513.945
522.07
300.224
411.345
374.358
1595.74
1808.89
905.55
1216.14
1818.84
1242.67
595.073
614.066
-92.8782
-512.81
-893.407
-1739.91
-1893.56
-1873.13
-1436.64
-1718.69
-900.766
-1364.87
-777.41
-699.909
-1319.84
-1304.96
-1154.2
-759.753
-1112.76
-497.151
-785.604
-98.883
-921.965
-239.332
-168.462
-382.136
263.556
800.725
87.5576
-344.787
-62.6431
-352.228
-40.6246
-541.794
-669.697
-1354.73
-969.116
-1180.3
-913.226
-1220.48
-1449.81
-1910.08
-1460.42
-1209.15
-1290.18
-1905.46
-1905.37
-1617.46
-1909.48
-1979.83
-1142.2
-1462.92
-1854.68
-1492.21
-1530.38
-1724.9
-2512.78
-2396.74
-1984.99
-3045.84
-3861.19
-4050.39
-3157.33
-2477.01
-2640.03
-2525.76
-3077.16
-2844.93
-3316.49
-2097.89
-2674.53
-2523.05
-2954.32
-2917.46
-1379.88
-2216.36
-1711.82
-1300.04
-1639.31
-1901.91
-2685.37
-2634.71
-792.513
-470.436
-321.128
-645.906
-686.791
-796.639
-781.107
-728.997
-698.123
-685.327
-986.83
-1789.54
-1304.18
-963.158
-578.182
-262.751
-907.274
-916.803
712.496
229.994
497.846
917.967
1536.52
1318.69
746.784
419.904
1047.49
1262.03
1373.9
2264.55
3273.58
3760.23
4499.51
3383.53
3135.77
2859.98
2159.07
2593.86
1919.05
2230.69
3187.72
1886.21
1315.02
1383.91
453.044
797.424
293.934
-62.7223
74.9378
147.261
1.33807
-189.658
-425.237
-479.602
-664.456
-565.794
-457.107
-1023.21
-1046.76
-477.84
-725.344
-1566
-470.56
-181.645
-380.402
-360.671
-726.079
-1117.98
-1403.18
-1047.13
-789.511
-1045.6
-697.286
-793.516
-563.635
-304.891
-250.238
-465.531
-375.051
-110.52
59.1325
109.678
434.196
245.256
477.627
1087.11
1471.34
654.627
158.912
3.35209
-111.369
-292.32
-715.865
-1479.31
-805.637
-35.7394
-880.421
-874.233
-442.014
-42.8455
-172.109
-179.221
11.2353
-427.386
-588.677
-715.116
-981.606
-324.36
-461.759
-1204.55
-966.715
-1120.88
-1145.98
-2207.22
-2040.17
-2357.24
-3771.11
-2469.72
-1945.51
-2561.05
-2323.44
-1286.38
-2071.92
-1439.68
-1323.19
-400.287
95.5704
-63.8531
-653.76
-697.329
-987.067
-1525.78
-1478.04
-899.968
-786.888
-737.498
-785.627
-708.305
-771.831
-1230.6
-1751.83
-1285.43
-1049.11
-902.375
-1177.35
-628.132
-247.299
-723.244
-934.897
-1252.79
-590.664
-603.17
-220.179
-342.636
173.885
122.823
679.07
638.452
913.233
958.712
1468.52
1492.84
2213.99
4020.79
4344.95
4880.99
4169.15
3957.14
3624.21
3525.79
2544.52
3550.55
3317.19
3661.8
2850.12
2787.85
1828.22
1641.75
1846.78
1574.01
1022.76
1309.24
370.389
27.1887
574.552
614.188
493.506
41.2416
-229.436
527.394
52.892
295.302
741.325
1242.96
1656.37
1521.72
2135.98
1928.96
2077.13
2624.79
2534.04
2017.81
1634.66
2337.89
1835.41
1743.38
934.975
741.001
1179.18
2483.2
3131.35
1984.14
2322.36
2166.95
3189.03
4017.5
3347.26
1753.21
934.215
1021.9
1689.38
1762.34
2448.89
1881.23
2396.26
1628.83
1860.3
2134.54
2126.09
2111.8
2451.15
2121.77
2316.52
1887.62
1717.48
1313.26
885.613
516.904
936.314
684.932
-330.705
-114.859
-420.834
-297.07
181.079
808.321
1076.78
-62.2824
469.963
1073.75
1728.96
2000.82
2604.25
1406.15
1080.89
812.651
1232.05
216.624
-361.552
-149.538
203.665
587.299
66.523
-35.9121
-627.211
-960.423
-667.864
-1824.17
-3024.3
-2554.75
-994.653
-36.9956
-768.45
-716.225
-691.168
-283.375
898.715
1155.97
343.559
886.631
1445.71
435.63
411.694
692.913
108.793
566.914
27.6048
-403.301
-480.777
-830.056
-628.982
-40.0333
-175.232
-180.955
-29.4799
-157.625
-304.775
342.532
359.51
653.593
1536.25
1885.87
1107.46
1885.61
1086.49
1389.24
1904.61
1319.1
1465.63
793.979
408.271
184.308
719.744
1598.79
1648.61
1812.57
2712.43
2390.82
1637.87
1328.69
1339.36
721.534
912.14
1590.03
233.446
544.439
813.588
-423.376
-1100.96
-789.792
-1170.92
-1082.66
-683.298
-797.437
-476.177
-193.57
-35.9561
-58.5669
-304.574
-165.506
329.121
247.277
-514.099
-236.862
-517.22
-311.278
-596.734
-80.921
-6.43976
204.837
461.475
-271.686
-645.012
-274.098
-832.191
-768.238
-99.9985
-218.13
-53.8919
-106.046
69.1545
-134.261
-172.939
-264.921
-161.061
-52.6707
-616.683
-746.454
-794.322
-584.552
-127.263
-194.46
-1183.51
-1466.06
-1397.41
-857.012
-593.928
-656.791
-1095.42
-1606.82
-1411
-1549.61
-1219.04
-570.72
-367.136
-363.184
-689.978
-856.283
455.665
517.21
40.8521
-132.98
-516.017
-693.47
-164.597
158.224
-31.5106
-73.4817
211.624
314.045
13.7413
-272.103
-217.852
-387.583
-429.774
-1446.74
-652.978
-244.681
183.265
-544.253
-1068
-1291.15
-737.218
-1229.79
-2067.47
-2069.4
-2357.4
-1143.52
-2520.65
-2273.51
-1889.73
-1442.1
-786.261
-992.7
-989.855
-628.588
282.051
500.456
-300.546
195.294
948.61
-199.698
-261.472
166.901
859.176
-211.155
-944.239
-980.705
-972.946
-1352.8
-703.231
-98.5853
-426.196
-1064.37
-846.077
-845.647
-651.383
