-15.1869
5.33663
11.5507
-124.614
-127.135
52.5022
77.2493
-143.155
54.7966
112.388
39.5132
10.6593
10.2555
382.518
673.404
127.61
-30.5599
266.903
259.154
108.142
-86.1092
-38.7975
303.947
1025.58
624.181
425.009
542.188
1120.98
1449.18
1619.55
1713.94
1090.14
1767.68
1452.16
1534.62
1083.74
151.253
212.388
628.118
699.246
985.2
825.355
820.814
737.376
463.434
642.538
447.827
885.944
1397.43
942.444
1739.89
1204.54
804.102
1489.03
902.114
536.443
581.388
461.181
390.317
561.443
371.385
569.969
95.964
14.9573
-97.3121
-30.098
24.9661
86.2617
106.89
76.2846
-80.7026
156.244
111.083
245.835
468.841
468.099
480.545
644.233
1155.27
264.79
611.04
971.278
1051.81
1199.08
217.996
325.575
-20.3515
107.675
124.182
20.0912
-95.5636
242.277
-53.5716
16.9075
-16.8065
85.3381
62.4819
215.306
254.61
395.18
1868.71
1564.79
1311.98
992.915
1531.04
1572.41
2277.14
2767.74
1990.33
3304.57
4064.89
5485.45
6320.37
7903.78
9687.04
10577.8
10713.5
6440.77
8331.17
7432.02
6542.21
7946.14
8650.95
8096.59
6940.95
6878.42
7106.33
6923.45
6403.2
6389.12
10274
11065.9
10374.3
14565.9
12477.2
14555.6
14740.2
13256
13207.6
13240.1
10962.5
14765.8
17499.3
19741
20587.2
17187.1
18827.1
16741.1
19757.2
19177.5
18197.3
17514
19297.2
21458.6
19490.7
15726.7
14605.7
16359.8
20475.4
21980.8
21919.6
23041.9
21343.7
18804.8
17612.4
18623.6
18150
17671.3
18874
18190.2
17136.8
19718.4
18244.7
15912.5
14564.5
11920.4
11601.1
10613.3
11556.4
11303.6
11737
10108.4
9795.2
9985.6
12849
13757.2
12119.6
10530.7
7207.14
8731.2
11232.8
10675.6
12769
14189.8
12850.1
11615.4
13363.6
14856.4
14205.2
11907.6
13293.6
14206.6
16830.4
16475.1
17312.1
19561.4
22749.6
19180
21741.9
21033.3
20056.9
18584.4
17804.7
20835.4
20372.5
20337.2
19179.5
21278.5
24787.9
25296.2
24418.3
25221.9
25210.9
25034.2
25144.9
28353.5
23435.9
23013.5
17051.2
17057.6
17052.1
12443.3
14086.3
14213.7
14711.6
14125.5
14265.2
11229.1
7628.29
7068.22
6416.82
6813.54
8023.41
9814.24
12696.4
12614.5
13031.5
9820.32
9386.1
8288.66
10811
9392.98
8988.94
8032.38
8861.07
9557.57
10029.7
12984.7
16074.9
19070.5
22673.8
20870.4
21541.7
25102
31482.4
32550.4
36045
32139.7
33505.8
29230.5
22529.4
21772.4
21589.2
25619.8
24191.3
19732.8
21328.4
22635.5
18178.8
20277
19557.6
19315.9
23287.8
22414.3
25730.9
30748.3
28686.7
33617.4
31339.4
32375.5
32540.2
30231.1
28084.3
30227.8
30457.3
28410.5
27284.3
25705.4
28398.2
27502.4
26258.6
26605.9
29357.4
30568.7
30051.5
29690.5
27029.5
27562.3
27152.9
26330.8
25816
24923.7
30946.3
33840.5
31427.5
29383.8
28329
24060.2
26277.1
27680.3
30885.4
31143.8
34856.1
35513.7
34044.4
33782.7
31717.2
36144.2
37662
39624
40289.4
37865
37582.8
38543.5
43537.5
42454.6
45969.9
46565.1
48381.1
45461.2
46566.4
47101.8
44074.6
42163.1
43975.3
43374.8
49696.2
56376.5
61467.5
57513.9
61372.4
66891.3
71938.9
75541.2
74296.1
76762.2
80719.6
83834.9
86308
82655.9
76188.3
81375.6
70801.6
68335.1
77354
78987.8
88129.2
89739.5
96890.6
109264
105819
101851
91745.3
92805.1
86603.4
87825.3
87201.7
92280.3
93644.4
95639.1
94411.6
89481.1
92388.1
91406.1
86769.2
95896.9
91505.7
87287
92248.9
94057.1
94747.6
97235.6
94424.6
95148
86671.7
88032.5
89243.4
92453
87283
86853.1
90673.2
96975.3
97561.7
99875.1
99467.1
98733.3
101157
104936
109075
108154
114550
112794
113682
123281
114034
110938
108181
111883
114859
111182
112758
110937
114744
116251
115441
115571
123990
125555
124810
125192
127165
131217
120297
118492
107277
101569
95817.8
89753.6
86468.2
78307.8
83188.5
82043.7
76856.4
71395.7
67589.8
66895.7
64326.2
64538.6
65069.9
62147.3
56485.6
53123.1
57563.1
58990
58332.4
58865.1
64368.7
62886.1
71864.7
71472.5
76741.5
78863.6
71864.1
75261.4
73624
62985.2
65080.3
57687.8
62757.7
62505.1
67877.2
67722.9
75589.7
72428.8
68737.5
66744.9
67649.7
64784.8
67460.9
74118.7
75500.3
76638.8
73011.4
74394.8
74955.7
75872.6
73064.9
71807.6
72602.1
72223.6
73684.7
75599.4
75399.8
79405.1
87794.5
90591.9
86418.7
86727.8
86467.9
88121.2
85303.4
87411.9
92575.6
95054.2
100335
99236.1
93479.3
99568.6
94118.8
97159.7
94352.5
100432
111995
114675
119160
121959
118000
119914
114634
118363
115724
120049
129949
128571
129008
133064
136551
150529
142252
150699
163083
164430
164448
157324
154887
147493
146543
151639
149853
148583
153634
169361
181700
178362
186851
196436
197154
191893
197078
181866
179893
183373
181285
182328
171030
171356
181317
173245
156727
153559
152448
157181
165957
148233
147969
150467
141000
148898
138671
140014
153995
154364
140471
135471
137163
142936
128517
128749
140319
136450
128881
133208
127523
121662
127285
126046
127357
143953
147994
145934
151827
145597
134078
129964
123131
126428
124167
135455
139102
134189
136953
149005
141432
139387
145147
143956
141948
144834
149022
144562
135887
142855
143649
151070
147891
142471
137834
146549
144506
149981
158058
159429
158864
167615
166902
173934
168860
168434
165622
177181
169579
155550
145841
149340
139447
143060
144716
146026
145492
147366
164045
164075
166886
159766
155750
155664
150221
151818
145472
142762
135764
130790
134081
126006
124908
120534
119961
115360
113826
120448
121715
113497
111017
105345
101858
101704
103073
99992.6
100606
104823
105583
105613
117369
113805
111121
107192
109564
110512
108159
108545
112513
118234
124613
129659
125925
127826
127808
130983
122534
125318
113658
121971
120235
125987
128044
127601
118210
115671
118056
120883
115385
111975
107659
110225
114674
112076
99038.5
98673.4
89787.7
85155.4
79781.8
82118.9
84414.5
77966.2
75230.9
73987.7
69426.6
67741.4
67324.3
72066.7
69908.8
76564.7
75381.4
74148.8
75993.8
78266.4
81561
75682
77538.5
81329.8
74499.6
71508.7
70423.3
62456.5
70121.3
61193.3
58508.9
51141.3
48262.5
44992.7
45385.6
44689
46533.8
41900.3
40589.2
44119.9
47140
52817.1
50391.8
48513
50062.6
61132.9
64033.3
62966.2
59779.9
64511.7
66022.3
60342.2
65943.3
63284.1
62239.6
60056.2
63141.2
63279.7
61400.7
59077.8
56851.2
55829.2
53620.9
56886.8
58471.5
61069
55771.7
53052.8
46762.1
48594
40490.5
39216.4
39252.8
37165
40260.2
41808.2
37682.3
32753.2
33041.9
33725
38184
40042.9
42821.6
40495.2
51730.2
45605.3
49570.3
51871.1
50040.5
53813.5
48964.6
50456.8
49999.3
52791.2
53012.5
48112.8
50379.1
48058.7
46410.9
52261.4
46877.5
45169.9
43420.6
39925.4
42486.1
41049.6
45191.8
51514.1
57945.1
56316.1
57712.8
55963.2
57540.9
58065.8
61559
61635.8
58474
57326.6
53825.7
52316.5
53970.9
55313.9
51405.4
56673.8
66272.1
61226.4
62456.5
61500.3
68869.8
69647.8
80458.9
76617.9
77801
75751.9
69837.9
71521.6
76082.4
65669.6
64729.4
59012.4
62558.5
66203.9
64386.9
62146.3
58042.8
65040.8
76701.3
86279.5
87256.2
83698.8
81527.1
80791.9
79902.8
85506.8
86524.6
83016.6
84080.8
77506.7
71331.4
70809.9
70993.5
66436.2
64733.8
65441.3
64889.5
62936
64340.8
70577.2
66653.1
66162.8
64406.5
74741.1
74906.6
74938.9
72084.5
70545.3
70238.3
74716.2
66042.5
64824
65496.5
67310.6
71754
67014.3
66609
69879.6
72571.3
74694.6
76704.2
74994
76489.8
71099.3
69933.7
67785.7
69987.1
73680
67995
66108.9
60998.2
62266.2
63268.6
59664
53195.6
55262.5
58594
59489.5
63430.2
62392.5
61496.5
62426
65172.2
75310.1
75187.7
70725.2
75499.4
77541.8
87089.4
91510.2
86406.3
89734.2
86862.1
82346.2
88395.9
85400.6
86960.3
88745.2
88887.6
93482.1
98770.3
103164
94100.7
96406.1
93350.7
100169
102329
103717
107601
100363
111444
116075
117263
106347
107962
109119
108337
100383
98949.2
92071.4
86313.7
89112.2
89779.1
92564.4
98694.9
92083.1
87936.7
80978.7
72340.4
69908.5
68482.9
71839.7
67519.4
68984.1
76093.8
86254.9
78026.4
74269.8
68109.8
65319.3
61291.1
51791
57178.7
54801.4
55104.7
52279.4
56503.5
56854.2
56652.1
56710.9
50160.4
50443.1
50099.9
46383.3
41921.5
44040.7
49188.4
51528.5
55458.9
57234.9
58090.6
57841
56215.2
62380.1
65937.4
65939.2
74838.3
74146.5
73661.7
69234.5
72466.9
71556.1
71772.4
72671.9
71346.2
67241.9
70310.7
72444.7
66128.4
64118.2
62874
59741.1
59163.7
54498
63142.4
64700.3
65258.1
67331.2
68255.1
66422.1
65852.6
67865.5
64143.3
61503.5
60675.7
56096.9
63364.1
64638
69004.4
68010.4
68875.5
71748.3
71283.7
75104.1
73190
69374.9
71441.5
70177.8
67211
68216
68415.6
74315.1
75429.6
72406.2
75403.2
73156.4
73933.7
69310.2
69471.1
79511.3
84980.5
89252.1
84560.4
86405.5
89108.4
90538.6
79350.6
72901
71060.3
70184.8
70159.2
68158.7
73650
76800.9
85877.9
92773.9
92767.4
92382.1
106094
102511
104006
107833
102881
103304
110595
110312
108512
104133
101389
101383
101564
96992.9
82852.8
81029.7
75134.2
74084.2
80040.2
76827.4
74748.4
75822
74078.9
69570.3
70362.8
83283.6
92726.2
86894.2
89141.6
86065.6
85552.8
84751.3
85957.1
83202.7
92283.4
92395.1
90501
96200.8
93444.4
94568.4
97089
107785
113902
108902
118298
117575
116199
124155
121815
123207
126041
130604
121144
124541
121797
113761
123045
126220
130746
145337
143419
148109
147184
143302
145866
144476
149780
141616
140817
137749
139165
142476
143592
139591
141357
142552
135495
137835
130217
124846
129597
129756
127521
127144
137852
149631
149444
145293
142305
141655
152365
150259
151997
149495
133656
134222
142571
138713
144335
132122
139464
140045
144365
138542
141503
132308
129689
126233
118758
111019
111142
113172
112636
111611
111444
107645
105337
105177
102846
101780
101776
103423
98497.3
97624.9
91501
94245.3
101186
96790.5
97366.4
93375.2
97231.8
91074.6
97381.7
98663.1
99803.6
100528
99775
103113
107497
105969
110191
106668
104985
105109
111854
110026
108749
103247
106748
108930
101920
98965.7
96650
101739
105948
103721
106981
108544
106964
100866
97380.1
98998.6
95650.6
97728.1
101547
98713.4
99036.6
92761.9
96682.8
99205.2
99466.7
94302.9
90137.7
95502.7
102507
98031.9
100031
102865
109575
111106
118170
125959
132103
133144
141058
141632
128238
123107
127092
124395
136093
135687
131040
122252
127441
129863
124888
129055
128518
128134
145866
145894
142970
149759
146703
144698
142122
139636
129782
129769
130324
129622
136738
133510
136797
136518
143952
138980
134789
134960
130487
138049
123228
122968
124864
134647
132446
132980
128644
128904
134929
138187
146164
150063
149970
144164
153206
162672
177533
184978
190163
192329
191964
207816
204608
191177
195366
193769
192607
181810
183291
180522
176009
177124
190190
194318
189450
195018
196888
202441
227484
230863
226804
227348
225435
228420
238625
236935
244917
252330
245504
253676
257204
248945
236892
235009
236267
233742
246049
237846
244868
255460
257156
254456
249592
245258
252811
243419
246033
256692
252620
251705
248797
242754
241516
241336
249403
253528
257037
248419
248766
258183
273657
253805
272423
273339
281568
278848
270902
289123
280004
284819
278453
291945
290706
293791
279045
289264
290558
295657
299552
305807
291635
285582
298870
299474
294193
296305
292260
307344
321356
313022
289015
294971
301291
306533
307848
292024
294012
307200
315466
315009
305487
307409
307349
302187
290616
283071
289906
294836
301520
290412
297501
321661
331434
334669
341102
352976
345503
343671
325282
328640
333551
346736
344646
335192
343229
331470
332197
345314
348656
354068
343340
349453
349796
336802
354953
365353
380716
392929
373941
380490
367956
366960
360879
366694
370391
374883
366490
359191
373933
382085
391821
394499
393058
374912
373906
377837
370365
361131
343029
344050
343033
342614
353100
344089
342048
343827
335180
336747
322586
331086
316617
315342
316448
318835
332085
340554
361731
347436
349769
340731
351828
353024
373353
351040
353048
349294
354665
357913
362201
365183
364095
372369
383342
373141
380637
379104
365280
371854
371004
371864
351393
355508
372233
356929
341714
335537
340795
333970
320525
311580
314678
314077
311130
316584
320536
335290
321824
318720
314649
323774
318524
313906
314241
306408
311419
316208
299537
294270
315332
303726
323586
317135
330798
335511
330314
331485
349211
350333
354326
340963
342922
353821
363897
379256
377610
379978
375540
369610
364599
369745
359367
374818
377070
384370
385008
369060
368020
372879
377256
371523
369444
358316
357190
357263
347790
358040
361452
365015
356385
357579
359800
346005
351556
349403
366268
381120
380588
372682
372877
368718
357650
364444
360600
346185
336464
333026
312989
311649
311997
316121
312848
329167
330645
325352
336566
333658
353676
325297
323884
316903
319278
315049
308349
314661
319165
302674
292372
285085
270429
264273
270275
278904
275556
266466
270933
278146
279982
286095
286755
306373
305297
322431
329170
337376
318237
308137
315415
301777
290985
295884
285887
294613
299484
311262
324813
313149
319054
309979
307912
314055
321973
325561
325286
329631
332785
332691
337594
350049
357736
355842
354440
351185
342002
359690
372602
364172
368499
378115
393897
387263
402826
392582
379181
372916
367090
348479
348753
349911
364846
379434
368644
382463
371646
362391
372387
381620
385142
403803
402495
397886
396490
407016
406155
400628
387484
370173
370283
367726
369804
365921
355841
364909
355722
368863
364614
351695
337137
345513
353428
335537
338303
341789
343920
350496
365450
355885
344622
336316
350163
353811
366332
389318
400645
410659
407857
422471
437197
429269
424885
415664
422407
406134
408513
418665
430266
431191
452375
447608
456452
468042
470837
457437
457120
447649
430063
442783
451904
471411
487004
486820
500135
489628
498642
510432
516110
516102
510089
506352
486150
490756
492161
474767
474526
495516
501897
501840
504229
520027
537576
508433
506595
512261
516288
536625
547150
531234
531180
517861
524859
525144
508192
510244
526962
525860
515970
512031
515726
511514
506227
515995
518759
512940
517831
508661
516835
502078
515302
521203
506205
505825
509501
497944
489877
495514
506838
514248
526101
538887
549720
567311
568689
567764
560196
555355
557253
549487
543914
549483
534679
528543
517731
517330
521770
531582
519848
535547
525760
541288
559464
547302
555498
553273
547785
576639
580296
574045
566155
578595
585110
578364
571103
568617
563799
566892
560843
554460
551733
572011
564253
575548
574228
586286
567805
578180
581038
602287
587562
577757
581364
580228
574456
574972
575011
574876
581998
584900
582148
576979
578764
603900
626490
620536
614075
619316
615991
623837
600636
631711
647405
629496
644299
631499
611207
605629
590671
590042
616122
622279
616623
596884
576845
564395
563647
536435
537402
535387
538045
536660
551803
562055
551158
552978
542301
514098
508137
524167
520930
522696
502739
496470
492888
497870
502220
511366
498753
503191
525051
511714
501398
506633
518515
527091
515087
513859
535891
525759
539556
539214
553482
558421
561252
558117
557715
556048
540711
529334
536042
523804
511909
513363
510920
509695
508316
514227
508454
521915
527578
512723
522756
514343
508030
500765
494040
485837
474185
471326
464821
457503
461576
452090
466872
470618
475533
477031
485764
501241
510516
492050
477359
466137
469166
463907
469968
458987
460631
477004
473156
478883
474133
475606
466803
470974
455847
466709
468577
479377
462289
466648
473642
442774
442878
437436
453516
445188
438122
432307
