811.18498423
474.843852
585.463087
1123.732359
696.7955044
1136.0482683
587.1526424
813.6065394
994.099499
583.8451656
1021.226873
984.780217
748.270016
631.677858
777.313841
158.0615324
599.325392
874.021834
667.009246
987.880973
1253.7029587
538.981871
896.50144
677.7461558
849.212973
907.4274628
895.946016
1045.694323
422.31454
835.605178
962.909965
883.097802
1147.61066
615.7228836
782.954382
982.2041443
791.928614
445.108524
1269.05416
1104.548455
1307.71251509
1204.4504016
385.7532512
674.234734
954.664199
953.83828353
1012.385
1044.222145
392.45821
502.738425
1339.019843
1127.410768
733.245315
763.9428824
1210.9358772
630.144202
328.691572
1178.118892
957.218626
720.653369
696.851655
1046.938155
425.4511176
969.509041
522.883987
917.34688
320.202297
499.046574
357.872475
707.069593
1366.078862
994.432672
1034.7727131
447.517199
859.2642092
641.609776
1033.329654
-36.8827989
1209.5765019
1332.7167719
820.47925
948.504471
762.585045
1094.920415
1159.108522
757.2543501
528.2674832
261.90814
745.9395897
560.86455
893.947948
763.7904335
1255.754471
993.55091
817.269713
732.52041
1236.7575
1533.5760689
1049.40089
752.27169
1231.744799
783.720647
1010.454548
392.583469
670.246417
1080.319649
752.5919626
1367.31039
743.01604528
973.3656022
1252.39060024
469.785224
996.896831
447.7745829
531.098629
1432.534547
262.709774
527.817354
476.023208
557.221849
690.522142
669.16836949
415.50573388
964.3855889
395.062713
967.138215
1058.3663366
607.1101023
622.790318
818.022605
992.095336
453.1181266
692.0437448
708.043656
1539.971169
183.060843
1565.103548
604.3305273
1069.5402525
750.400952
1042.58039
224.94738
515.5811767
154.364428
616.6412156
678.207891946
1012.399626
1312.8220858
1050.9080712
404.906904
781.247748
576.3388243
1069.642827
481.022151
929.038116
1171.43392
1028.966618
972.794506
702.733219
753.540239
154.078275
952.266113
1113.462439
791.8317181
577.800824
1236.2750953
943.170845
808.611426
670.329971
303.2814644
328.649549
1092.15552
895.482071
966.79533558
474.4358199
829.7731481
861.1184291
1033.961463
998.0606033
795.5256802
458.6941927
1243.8806521
1018.18845
722.5317854
806.623338
971.067313
1027.618807
953.724875
767.340402
634.514846
611.664583
977.141558
1436.4880303
372.018508
1040.121783
874.2187265
1082.303071
760.1615699
468.4585135
845.7943745
979.0917666
395.5957705
771.7647
711.907867
884.059313
1130.8164554
704.358491
989.85119
780.225429
761.0935632
988.25016
784.960585
1196.2198103
952.2682889
980.191052
1029.3867146
1335.881521
744.211674
929.1926742
810.143808
673.973993
809.65342
816.470427
660.796243
941.992923
1329.43127
717.579021
679.446305
559.029569
1011.852508
205.040448
868.7984919
922.468771
464.343067
1075.413712
1141.755088
730.907296
836.794869
927.65360462
1156.443225
439.213292
863.986344
518.657185
938.5776326
910.7863418
1122.227402
645.387276
845.8324011
735.260096
872.591436
1144.0176183
730.5105705
812.31084
828.16311103
620.1046675
841.826235
707.1761
264.714931
951.707431
620.164511
1444.3544747
1397.727906
1295.333641
910.828221
1057.202
871.471199
758.552863
736.994567
93.609288
582.855286
704.759053
1602.95424
496.727932
791.204594
1001.3239081
523.4450969
660.2697166
1072.8455
712.325994
653.31987352
687.9156692
1299.1059152
529.506647
802.947477
544.4227747
668.17826512
836.257181
337.031449
1112.540673
208.1982599
874.9703925
742.3599769
1123.650451
463.63868
734.8961455
444.3102176
482.5278249
1306.119024
714.060562
1224.4797075
545.14013
759.6996044
812.1231675
711.380694
619.203931
567.935046
1456.126492
533.498354
1265.055374
654.128759
698.850145
891.548076
691.1478848
617.237845
1167.475132
412.43713
474.3612228
435.14249
987.569028
659.1629449
601.197514
872.572508
595.9258837
218.3831966
637.8672457
624.313612
542.725759
487.510021
892.041227
1201.658909
714.5950451
824.455485
972.1968456
631.565635
1028.071852
837.703304
374.294099
797.3810216
744.557558
1405.974144
1261.085461
971.6891784
638.106793
474.899663
983.896732
918.58105
755.858647
580.36865399
566.057115
986.070023
924.4518638
1139.366579
374.5768956
1370.2470065
579.064152
1083.487828
662.0715266
848.640018
569.5460572
1082.781622
748.660349
653.360298
779.6521113
664.5789392
1165.28316316
843.627869
735.400947
1038.7512197
920.088531
982.813111
1131.5042825
623.012214
1077.017471
880.434876
1197.137735
1006.39654
940.534054
551.556606
742.526885
1437.22108
943.243178
1029.024743
647.481522
419.1149195
628.5820652
493.607056
1084.4564854
706.349141
440.551278
1004.9803438
490.4994852
625.482392
681.3884155
860.4930215
718.938309
449.136425
853.596328
1196.8985995
634.891561
835.748404
1611.273044
492.089697
847.994435
471.0294603
987.5746284
966.647547
569.888758
963.027938
906.442074
787.833251
1148.791626
745.716774
988.6251577
730.837633
655.269055
1013.723095
563.6374743
916.6037141
572.744171
781.574099
105.7594825
1136.840352
816.801064
1019.73878
578.622378
217.512363
969.0949361
762.674084
452.822429
835.224004
550.048264
1117.89118
1189.972087
608.8347076
729.215829
555.7491712
459.655448
690.726701
529.978954
600.7466483
347.815721
658.7843221
683.965472
975.729602
1454.774581
654.713108
450.52077948
736.503681
719.8352914
754.736884
731.3529781
734.6462158
734.8162829
590.0048223
1285.14714
806.6169304
678.49403
851.529204
1510.4202532
992.5092489
1170.496785
1204.338056
1236.607812
928.6555232
765.333562785
884.4191365
709.1146797
439.649369
910.179422
992.77662
695.87365
894.451403
678.771265
969.201663
715.22583741
856.678707
1434.619643
621.72278945
922.725512
760.039309
1337.3026638
686.7486347
1215.667349
437.986686
834.945211
490.898747
640.328254
659.949711
667.03843294
772.4060449
1109.581285
537.960611
861.191112
866.129935
696.574157
678.460697
1336.7995102
824.755869
1111.498101
1061.789612
728.700891
800.2351841
1057.4081446
997.913883
748.6987
843.319005
1400.603082
1224.436621
906.308034
1234.902817
745.467433
1161.089267
704.255722
809.43135
657.615957
908.789248
1332.047945
1225.730239
566.794007
879.243121
678.9702213
1213.3858144
910.25528
786.885415
946.463132
883.077043
507.0515696
1212.861298
656.3410789
530.916203
1136.4078728
890.978981
774.783713
976.2405132
798.655
1169.2062301
535.853992
809.525078
921.798518
862.812462
686.1071401
372.1310121
1200.8186154
569.500744
833.619657
812.118882
503.597571
607.445539
1053.3482592
1048.331071
904.934259
865.8504853
747.184057
1050.066358
711.815352
1454.186766
1024.2301271
839.329623
1061.8866742
767.234973
679.229618
421.3441186
1054.016772
633.753887
1072.0141451
909.14435527
1001.474084
652.61758216
893.867223
514.058689
757.779629
618.7822281
971.814456
874.3366981
899.5999296
1040.4257803
769.1011605
785.73091
578.957949
653.098077
886.3954689
732.590017
723.9752158
768.47848
1047.210702
726.833064
810.465874
658.690843
513.8647303
1127.24682295
598.631106
714.485848
808.012766
898.6953031
1469.9463858
474.759521
760.167973
1070.3286511
1113.5704429
788.6666026
706.4071887
861.5523952
213.4683563
795.470331
741.605312
697.1439575
1227.505286
1110.6029848
738.85719
822.390804
684.13379
852.025746
374.14818
1043.065034
826.0240928
390.776773
899.8063196
585.961703
468.0821575
613.685491
843.4031016
687.79999
674.596887
752.0064771
977.113649
906.662245
643.157677
800.7341357
845.3883473
449.78492
543.251551
1123.7306
884.8066669
1275.4880407
932.54011
901.44227
939.2373415
779.8906574
164.3953298
612.3411999
729.727074
1164.4424
1057.19519
867.312322
434.8326076
907.563811
1136.7305432
463.1769427
985.975074
643.254496
1148.413688
1266.34412
607.967181
1012.588603
636.548353
795.6256246
860.165696
649.906823
571.4946443
667.2632998
851.4877451
936.671156
920.5076351
1167.429458
693.606511
1819.732567
403.718488
1102.920959
670.3856485
1237.425743
531.820341
794.350939
967.09990011
986.200052
1418.9868388
480.846851
875.0407814
914.786478
918.930067
679.8192741
1027.7105789
796.631891
636.0056588
585.373541
1116.720476
1035.7327741
809.1069684
537.7529885
326.501082
1243.585153
812.05112
753.25633
1322.065499
1207.750134
931.704594
979.6672323
860.189965
804.914036
950.107283
1111.687687
981.078734
598.075009
618.8433798
865.7857621
451.34372532
1115.313134
809.2865584
771.7521517
884.169724
810.066842
939.348218
971.012041
896.062326
934.443039
832.214761
807.797064
823.850426
967.224469
1455.183733
497.735619
718.6336079
783.969164
1014.000339
1085.840095
1162.440848
920.810118
898.949189
698.54431
882.42682
949.2706072
1299.837768
494.1371362
1159.5479703
705.984553
474.8578285
799.799337
1029.0944609
802.174415
823.539336
892.306111
660.67959
868.881539
619.278655
563.574922
960.608421
672.0717174
309.6084208
340.656452
795.075087
991.7930721
1322.490189
636.3654147
941.01886
621.85957
878.720255
884.351696
711.384519
972.9579208
914.636879
366.9942238
852.560757
1029.190066
455.475077
909.722997
934.306986
635.7087788
939.792947
1076.038039
551.516121
607.891204
1146.287845
1032.432509
675.7555418
876.0187399
556.6545843
1036.212198
1255.463227
1042.8958593
703.8486137
878.737124
720.836515
403.240486
792.7453084
886.324772
386.7015407
1213.9551881
570.0703269
1281.965347
672.257075
762.304639
610.866041
682.398651
570.3871
659.353231
1036.019887
530.3633748
962.947372
626.298092
695.259607
1321.9407028
676.881873
958.823393
1199.190672
1109.625899
1027.026254
588.577098
850.9727788
566.207791
681.5201967
592.421081
889.409853
879.609928
455.5527014
906.449396
715.316995
785.953646
661.248163
1100.12995
866.0066792
875.2160303
312.494089
922.3702412
685.845092
663.13294
994.286712
1052.49841
1378.3922665
813.34810381
403.4909409
1261.7944456
1029.8565263
938.3063608
958.673492
839.009386
524.6841757
1241.4550492
956.38442743
287.856811
458.709356
658.4437367
619.490393
428.3063221
1206.342923
1114.80927075
843.053157
1090.928689
875.519199
671.183444
894.829145
494.301971
952.5388872
933.971529
557.308757
1009.9335739
983.64589
465.944137
626.1769379
693.77689
699.6658827
716.571461
805.084974
1486.314573
612.0837996
670.7642482
707.220853
772.508868
749.611458
423.68641582
583.4755996
954.5329823
350.041872
743.1770121
1047.90698
886.28046
1255.470849
538.259838
501.7022729
1058.3341259
592.7269637
1170.183306
789.3927853
334.842016
592.438907
858.284539
758.511299
648.9914746
836.803239
468.167883
1355.99998
1249.833543
566.6786995
675.091484
673.5025215
541.5346394
731.3381454
775.831202
562.849097
783.54532067
828.044611
1197.842741
867.213225
952.32389
693.410111
1194.528047
817.2363006
830.599624
683.696574
1019.517591
584.0201118
1161.32067
850.625527
746.5170924
450.882964
508.389648
1206.552193
1105.8948402
691.6331792
877.313891
291.348853
767.058067
1432.166445
1013.1551648
439.899861
907.364474
680.554958
861.1957967
1191.351392
675.0914882
513.151922
575.123729
255.3147114
613.88931677
1032.616723
1519.372805
410.898279
684.6842871
1137.05197
473.3026369
377.7560323
762.363019
943.69821
838.711327
933.8176891
928.415889
991.410453
1086.074168
668.59678082
1086.5792436
927.339113
1267.0575891
927.72942
1397.105289
939.9828198
926.6781652
690.35712
583.079184
345.796784
560.0128638
991.9776122
1329.17892
378.465965
942.420241
1369.36831
916.6204659
598.6881207
1259.338528
790.4158715
966.3283358
983.639403
1065.340664
1028.610934
1158.11276
757.942791
712.577138
1096.5797
580.937981
845.19858
1197.01507926
766.654403
1456.206383
604.546467
220.373033
975.117637
1053.295537
1015.8081436
939.822426
559.583672
712.37115
733.613066
636.256363
642.983582
298.46514
739.917833
488.883139
902.227691
996.0717559
647.070068
951.691536
504.798015
631.4875702
