507.7315314
99.224264
435.755495
901.773855
332.120227
724.795723
134.063056
526.519169
669.4383351
457.560096
655.034025
510.7318006
359.686753
206.114402
418.1202401
-58.417283
183.2132612
467.245816
208.819985
426.569647
636.876393
214.619883
458.1694354
374.226908
438.264581
485.670428
551.761806
831.26345871
-27.375482
339.8963821
674.054761
601.818399
710.784895
239.2298291
391.5401891
649.577699
375.3230097
-9.272846
686.939858
833.754376
950.9794617
903.524798
264.0297947
198.404255
356.468323
800.515018
626.9027702
671.507832
235.823895
239.3150025
821.660754
826.240391
211.935715
290.5426829
834.520824
293.5702091
-205.54971704
797.161128
674.7579249
571.820327
523.6891109
698.6182194
222.0751625
584.487087
452.7838299
285.5788044
32.304369
374.113462
197.514483
270.3456634
1244.474174
632.594273
650.869079
193.6728306
385.132736
435.0547573
922.239856
-268.79025
739.4436283
971.1067058
588.1051
743.71800486
593.021597
877.1881671
587.519411
611.568527
41.4090961
128.4108
257.454354
247.2897504
494.8396307
463.128663
830.184278
751.6663385
615.2790311
563.8232636
706.784386
1130.015709
543.843919
392.444716
1028.011799
443.7437483
444.494235
-83.863122
154.773632
915.619925
558.0327009
937.773328
303.866143
486.476969
720.2763843
259.4104875
403.901409
186.040711
366.501398
1178.731904
77.6158
322.2984746
390.903429
191.408896
246.999857
427.1975
274.7390117
615.59731283
169.7844313
408.073992
605.554386
157.660927
31.3828205
325.8553447
609.04243
75.827836
330.1893876
323.018567
1271.2479288
-162.845367
755.553497
232.969404
394.344497
481.815963
825.765587
-10.135323
331.0400043
24.29141
260.4579951
291.100374
619.126691
829.5560976
643.182273
176.066173
416.6027629
139.273109
1001.41465
106.983239
661.142714
779.932629
437.719151
560.575095
227.469681
266.92019
-112.241011
784.2501975
596.888735
498.578028
277.2672303
849.3439838
430.880699
501.597575
372.4083547
157.8373468
171.6543585
586.532826902
606.946319
567.696857
204.203659
412.1118851
563.210498
632.339764
770.857997
413.117521
256.335677
691.7458708
379.078202
389.426727
523.102196
735.831257
663.25678094
728.1514337
385.615556
100.635399
344.257149
499.2150817
1011.2819766
20.3456622
477.178178
415.9078877
402.90963
463.7368929
227.122317
451.836478
388.044965
153.615197
612.1817996
613.885507
523.5831277
574.1030262
196.58422
439.2702393
258.418959
319.7532421
660.215071
312.624016
914.549801
208.17062
436.2344626
610.709009
834.4919448
236.0199709
457.4540684
560.1377781
329.692271
353.182647
476.3420463
250.934698
283.2738917
871.137728
390.213469
280.5170977
175.7650629
438.179075
-14.189937
478.9778141
679.5781146
71.4760503
664.8853874
634.020189
221.804785
142.1914623
435.550016
907.681654
219.283607
589.061963
347.793139
691.94251
480.300319
938.044787
228.0224026
590.7985035
538.6931081
484.663402
801.204682
405.038624
724.512944
375.5558647
454.287801
373.2562578
443.413724
-29.98266
517.656483
276.211675
827.7261333
966.741613
958.584304
593.601876
795.097921
506.66369995
318.128654
359.4109979
-104.957044
141.2976461
231.898633
1146.10414992
195.319592
308.3562
787.659568169
312.0237414
330.200422
889.0273056
277.03095
209.97722
317.579543
602.8361707
210.48325111
425.240777
61.7464104
409.72786
314.1364689
22.363158
826.221005
-284.50292039
665.374927
236.325388
696.5064224
436.339491
319.936249
34.7093431
17.515237
769.311463
271.680949
834.498442
326.524723
371.227842
428.084425
350.450655
233.362242
444.580665
770.639307
115.884643
992.396206
255.963029
446.7005094
516.4428992
238.7435043
303.869749
842.7774185
194.870092
64.173559
30.773288
679.336623
344.7777201
85.347358
511.61621
261.46773
-323.679892
219.758753
343.769958
19.15975
25.140059
418.881712
768.8786127
601.319504
298.063845
411.87773408
189.322489
577.5494932
539.63519762
25.15770484
543.51126
362.285838
983.8947633
718.20261
335.6392941
345.3405548
39.097356
224.990668
610.07851
531.289258
358.3617138
194.5912666
551.387813
646.623014
662.958646
168.2175293
771.0050206
321.096545
553.054978
214.590225
336.77124
255.95216
674.321381
355.77269373
553.085149
418.9478402
589.6515798
672.7848144
207.970874
401.612395
692.592402
582.886652
485.4337098
725.785523
541.526739
626.60822
402.55826
866.554489
651.6505514
813.69209477
226.9791243
326.718088
958.0296093
621.7634
700.804656
365.703974
351.27359
307.355896
361.5782769
540.150709
270.8001908
18.035779
564.020747
287.667101
151.0045136
431.424523
522.835299
317.871481
194.23816638
248.96088
722.208925
327.1763317
276.760747
1335.652407
127.483425
280.327742
266.9438618
329.379299
279.863352
269.6455141
398.2584975
593.863826
337.741328
681.156686
520.069248
467.4883219
356.273525
119.204547
799.108006
297.576228
656.166023
234.2178967
571.309007
86.238124
819.835343
703.151686
517.980763
357.919699
29.9134188
352.567712
321.3581262
513.797151
209.293463
410.7850461
856.055936
697.784577
348.7881441
490.8737215
416.181808
214.11467527
250.671333
15.610063
125.35989165
-8.9927164
461.277428
355.5270969
731.4689216
993.379761
532.5795589
-192.7879472
526.587031
335.7908515
399.0462
325.6808483
513.329221
113.245682
38.910244
777.24123
426.259766
361.4438826
414.451059
1194.618128
735.9955083
722.436502
804.3873398
858.8728494
673.9063721
230.950709
535.36649
437.565593
39.925168
634.2562865
557.7114624
419.48391
596.673772
281.323484
543.64157
240.776207
354.687749
1051.401768
83.208225
457.35115
566.911226
771.3714187
460.306717
610.343839
61.51720701
474.36159655
94.8548819
222.719578
237.48697413
325.586378
428.221485
954.427151
260.3096334
570.855551
493.186011
360.832744
380.7618
983.751661
798.6469427
832.945192
617.7590943
329.979615
657.0187931
690.0481091
528.96875
453.727191
560.050346
1008.554203
776.244077
642.897863
760.0732165
343.696281
827.1757527
396.2977582
380.344798
351.979823
634.461353
745.172722
664.004803
106.191396
485.674132
415.45111277
792.3326628
495.341093
424.1858156
506.899755
304.31546
373.388024
284.558268
143.9690215
414.21374218
590.211147
655.696934
320.469657
659.4798567
283.3680311
584.97009466
385.6776424
317.4756484
655.3660228
427.263763
310.957383
113.92377
576.044808
69.4358763
559.84535085
318.539677
194.780033
208.0584519
785.024096
716.611964
869.2979519
246.4281806
380.7134111
625.7452899
460.9679366
849.461709
819.573492
420.227453
340.697453
355.780267
392.032197
162.051145
567.839913
85.602824
692.5362411
649.9011821
174.439605
407.625963
518.707141
-215.42778959
440.8088017
324.6284679
402.265789
576.608237
480.467523
665.511481
442.3161045
547.9268241
503.900524
147.4176989
466.683147
421.4816501
648.2362142
473.773933
348.7815126
395.762248
505.566326
301.391447
123.8764066
619.0200715
204.21065
254.451563
417.35018
466.620754
1005.475665
328.3520324
395.011329
596.50614
660.6513858
395.140435
617.585385
434.888958
-118.696429
334.4993761
403.981304
324.4644
1005.441152
929.4197341
514.940358
371.035994
323.92323703
595.000212
276.512779
848.173331
601.837742
259.433332
586.671154
96.6112607
151.94064086
341.429695
188.653303
332.20078
357.4027566
164.996342
553.731992
398.8574545
143.663398
340.7708352
648.921828
74.51772
397.0865266
704.539824
790.6034488
816.208519
495.3395474
372.024515
743.957776
340.642359
-67.394769
447.1257026
404.573648
440.17918
431.975196
557.7808098
113.464935
642.6643959
800.270602
54.078855
641.003107
264.195434
673.129668
883.327201
468.965457
703.698561
341.128909
523.567752
436.03409
264.3587704
88.745753
374.4717865
402.37235879
816.635176
672.964874
651.595128
340.9150195
1589.5262207
254.480273
552.026739
485.849173
1004.156086
330.345442
553.263672
325.70697007
534.259859
910.8257766
-39.219416
575.7020456
423.365435
937.1752979
423.525464
662.6971979
692.8736334
263.436229
231.455316676
853.7720808
708.836151
323.043625
127.691929
-19.66079
673.132768
346.6165352
460.149298
794.297215
979.0842829
668.680455
432.912233
407.708843
809.518802
537.7839352
675.655463
718.544124
-29.3484496
429.048703
504.9639072
34.631166
618.9914654
569.0563575
481.272692
448.657357
389.864528
693.2302804
496.96584433
296.271312
438.2123098
385.658368
558.5503719
649.9262291
554.847478
1120.48434
403.505169
318.532919
548.370609
785.419561
621.49177
590.82181937
607.8751359
675.700375
284.1460329
621.138097
798.4214349
934.168024
343.8714279
549.5413398
294.6905072
170.903742
391.830412
745.424866
429.08307
447.981304
353.52961
584.083704
524.353528
350.504701
-88.195361
557.830909
342.233778
23.2884997
203.0858973
227.418638
653.639354
1038.0338694
237.933122
578.924697
281.245408
545.9366572
514.064391
334.938056
316.869226
463.165766
-96.2619122
336.623371
759.117381
293.852493
376.9136465
675.100521
321.465429
738.794411
949.59873
165.113396
261.8864671
826.0668883
808.471868
243.762457
432.116411
67.161779
631.73541827
911.545469
594.19892
229.5212669
579.8591284
412.836051
152.65752
605.977274
664.57984
35.845814
519.1923532
206.452378
768.0661315
550.213032
383.753365
-97.5874339
685.551194
193.416756
206.5534425
488.945445
215.169593
358.9076756
273.2580266
277.507789
801.8824972
554.994767
551.801466
791.8392533
779.459655
879.478142
-28.970292
345.217277
374.235438
307.0624182
90.9748517
310.026114
518.580362
123.688545
696.402547
556.160911
675.695532
439.519738
819.463664
541.18203
361.29964
24.2531226
581.5526329
330.97606742
499.311893
695.706139
631.6290551
953.37086
479.582625
29.364772
809.970561
659.47367
679.283196
625.0375708
477.291621
273.443233
773.823891
384.070111
152.580885
231.007368
151.9505664
368.885874
-31.898757
591.3050341
519.272324
570.1616087
632.789891
352.769382
320.952059
439.529482
-93.44004126
601.611674
803.7445865
175.335119
543.0823804
506.6690803
273.006307
169.9995785
278.775125
171.557178
226.0272007
415.3837625
1127.770604
239.9604978
313.617987
347.93423161
331.2760641
509.255409
67.280846
386.10537
615.646778
-510.3153543
329.3449702
576.652453
381.6855722
863.8154209
175.4905513
98.833158
697.0425208
190.0377425
709.535747
290.3914069
-5.9260521
141.885468
620.9455613
335.509791
478.311105
453.569308
18.6947986
894.203351
1056.253298
-40.808717
170.6068192
643.476778
441.3581789
299.572125
179.585446
315.237801
445.33136
319.656698
833.7646915
384.125174
677.963784
260.57512
630.582364
383.463786
514.8156127
336.683474
440.528894
253.984815
782.805132
450.4103767
566.0625723
162.436709
310.194189
829.4680253
646.6316834
383.277098
472.3079436
-316.766712
490.4173016
734.452202
517.859556
525.643952
470.765287
452.552049
426.864899
792.9623896
410.21861566
175.585289
443.576325
-87.7743274
153.444658
469.43417
909.204091
396.875092
207.6945381
720.152974
156.6146684
-233.7911591
189.68772
726.5321024
613.720968
387.340931
844.932895
731.300425
592.6774793
346.4976852
861.114207
697.3766946
712.381466
431.356246
731.2456851
510.838849
1003.534633
407.8158465
196.766428
302.290447
209.999584
425.994362
673.8191984
341.578646
723.7213128
741.1346532
359.57144414
397.71147
612.750427
293.131024
348.953608
681.790119
681.689758
568.524887
770.954421
444.405309
268.7882794
788.097158
258.475418
316.962114
395.857465
662.179444
1018.205178
58.070229
-23.919005
558.461125
391.093749
514.0686908
529.7944933
-191.99107657
348.4483386
300.4628
86.7603343
317.3167502
-334.731586
264.08454869
173.5248279
576.958264
571.417487
757.9196268
409.9211693
-2.994825
491.028836
