2866.6207
9078.2465
36660.7545
45400.5475
7316.1749
6735.48005
17576.2556
16892.28155
25382.4745
14268.0145
9933.87016
23027.548
10055.543075
-1179.86455
1138.21515
2987.2758
5026.89555
2684.49917
15218.2478
3082.9221
25903.2748
57045.085
24230.6672
6054.270955
6603.61085
70665.99
10985.907
1002.0295
14669.8155
22582.125
14689.4562
6107.627765
10162.036
2259.5811
15235.24325
36071.6885
10048.44234
9370.40955
16487.6178
73450.425
37745.196
5192.501655
1919.70356
1352.47365
816.40455
6884.5426
3186.0311
13371.49815
10888.391
15576.4755
49806.072
27872.1791
5259.6863
6837.73005
5035.2076
3816.86645
4553.344705
-59.01781
5562.88379
25102.97935
22022.743
7297.602
14751.6288
44707.49
6516.41315
6820.1144
19141.112
24904.07395
3366.92645
1861.065395
3839.07505
3755.53834
17968.96145
26611.9895
3100.63736
131.7418955
6739.06295
9084.9185
23636.61033
17891.746
2156.2698
29725.9475
20465.5485
37091.325
9542.5335
3418.45085
4271.2753
712.38265
7258.377343
57513.765
49004.9
17517.4415
10524.757715
7948.5548
-20.9556
1816.953975
16311.90865
8630.4571
10574.26095
33524.13
8672.398
6357.41525
3441.29285
21660.3602
40594.4
26136.307
10918.46755
13136.64985
11658.5795
12369.98975
13834.18085
37847.8806
84525.775
59639.485
59645.935
18429.811
8385.37155
977.9676
2050.907375
24314.8515
19668.3785
6035.0949
2328.5094
5380.80785
5172.621
17974.2316
2964.8412
58.19985
1605.23425
3522.843565
9266.168
4087.58485
5505.4542
7623.16855
15789.3195
12909.6885
2036.178165
2344.1738
31920.3598
14825.9185
21797.84
28809.95225
23140.7948
8562.4658
8280.8791
230.5746
15899.5155
14117.60515
1876.3793
6993.92195
4378.33705
-634.31675
3429.802
-200.6811
1414.671565
1488.6303
7897.4735
11435.68195
22208.158615
20539.8171
1421.00824
18834.7575
1120.1546
9437.204
9209.14295
5284.50875
5949.7971
18927.4255
34727.2535
4080.5988
4359.57382
11503.004
6146.4136
3724.3315
4130.04557
2438.59743
4685.2033
3436.05115
22962.507
25755.8505
4594.239015
15550.196
47052.312
3628.94805
23695.05605
5133.63445
13309.926525
1926.20235
3823.11465
5312.20625
3252.8696
25534.2236
26883.5595
5875.55725
4967.8233
3463.2215
3852.57335
4700.12035
3370.03835
7733.5045
4695.635
14205.28795
21564.22325
2689.0761
22324.71085
44267.357
9794.810555
1959.56675
7459.868655
-674.73315
16471.1761
30122.23
8470.9189
4875.599445
9963.0395
5925.9076485
28473.2515
2677.60005
22053.2395
9581.1148
20406.7721
25404.3195
5657.48605
3157.50985
13434.24205
11343.8905
8603.05675
14978.2785
27890.5059
34129.86475
7075.6445
8376.60865
7296.8351
2527.8853
8762.538
42294.232
17719.483
4671.04337
14312.20775
1310.7401
2403.58105
4286.7492
7488.13475
4103.8731
1673.206
17792.27
53765.685
1292.85175
2536.89325
34617.8545
7503.4716
14418.1928
7512.3474
4192.391
4873.78005
10411.08935
4150.9335
173.30645
3076.03415
14849.34945
8595.55374
25151.1925
14438.9114
25521.904
11867.31375
14869.734
2165.11655
6869.78935
11545.4476
3794.869555
1817.20015
655.89919
12884.7823
-493.3388
26727.0485
31899.47
3923.39885
6316.8414
7400.50025
-1360.7639
26919.24685
34292.767475
2586.254
9035.4988
17522.3092
6181.6075
3693.83754
12764.1463
8498.4261
61.988125
2287.6911
4383.65125
13396.1138
4622.83175
23383.9385
18835.572805
38943.879
46002.53
31089.729
37402.47105
29795.96005
12981.0892
4936.3278
12549.22576
41060.5265
4219.8357
3224.22734
7258.6343
42367.18105
15335.2172
7514.22335
9698.95255
8363.24555
3818.66392
4310.0917
63241.02
42195.3265
21205.7109
15477.7872
15597.747595
22871.7355
1511.5199
8254.47735
16425.2535
28388.247
18839.9637
34381.99305
4378.9085
3864.13175
44813.085
15066.47645
2794.9383
10511.54665
14363.0835
4137.6477
9489.0908
19197.445
590.596155
8337.575965
10587.374235
6471.7629
2259.85915
23.40431
2458.629
11206.68833
13688.92755
12075.374
696.5339
6313.667075
8709.7859
1506.68855
1430.9657
1031.92375
43369.9125
15410.0905
27351.989
20141.318
-1023.36725
16892.424
41732.030117
41452.935
5470.6788
486.894685
3266.96595
13240.3665
2836.09035
672.235375
5827.95395
16974.36935
2714.182555
6857.1925
17250.81196
17944.6213
27078.885
9030.39943
16352.434
4980.35385
8841.55238
3911.43125
12270.7565
7487.3177
5942.2255
4557.98625
9244.5919
17821.978405
12142.3609
6722.81535
2944.72685
10676.02455
28852.238
18421.6435
27701.5995
2586.2504
4036.0676
5218.36245
7147.4855
4558.461655
21.369285
16586.554
3951.5016
14297.714335
6817.871918
9503.90725
6456.6189
7240.7781
9507.944525
2895.4609
50723.11
58240.76
28128.5525
6158.83315
6906.91505
15652.93737
23572.959
3127.152475
10047.63335
4962.77225
16770.70665
17379.23905
3155.510395
3901.55045
16003.7205
19138.29535
4354.605825
13115.3379
16557.7013
6314.0704
4460.1565
56797.562
57424.2283
602.2768
7009.05491
34171.879
12288.3565
6458.64955
7497.36105
8730.3915
16439.23545
2555.70655
7687.994
12807.95205
1079.20285
5873.41765
2835.2834
8405.6006
3951.20235
14997.6476
21499.087
14977.708
2600.85353
13300.924265
21280.89065
4098.5835
6786.4075
9251.26855
9030.95925
2921.71885
3764.66465
4439.63365
3136.6144
23599.83515
22320.10948
3564.02925
4237.5929
6290.4585
14055.5947
-2484.411
5075.2507
14942.366635
2252.08905
-1123.5055
23893.19
9282.7361
7558.1812
10055.5495
13114.5533
15324.2364
18286.255
9758.88985
1494.3893738
734.611515
171.0866
4473.6658
8912.432
5901.71625
11605.7643
80934.04
65786.65
2882.55625
3234.5832
460.006037
3660.676365
10654.941
3507.08465
2356.0973
5789.72305
914.74955
13479.539065
2397.4683985
19592.9638
