2698.173686
5236.40725
25599.9755
42619.077
1552.1682
-9468.57531
12785.1132
8157.9555
22197.8475
2237.2994
-3067.10805
19589.3045
-4358.192
-4293.637385
-2852.1205
303.04045
1662.77375
4313.89855
13799.208
1439.86195
25180.1023
35091.028
20235.403495
5104.818
926.6212
57859.494
-1583.50955
-2499.169705
-14439.982
11181.8205
-648.15305
2777.8963
5488.2577
-5988.97705
10010.34828
26125.117
-930.2242
-10470.0064
1840.26025
65589.045
37468.539
5773.37075
-5753.6019
-602.426195
-758.3504
2432.33245
2174.5848
5901.4085
2331.3929
9687.1234
33335.5045
26049.0505
2606.88105
4703.4097
1178.9815
-7643.3505
4471.82745
-587.4343
6009.27305
11056.183
19612.9675
9335.78301
12498.17935
42798.11
-5064.1895
990.50405
13115.8268
17810.4177
-7052.82525
-6452.7843
1799.7283
-1309.2533
16973.0687
19492.2234
-5345.96035
-87.979465
-15062.717275
8803.224255
16336.6896
12258.8371
615.188995
22006.7905
16760.3955
31096.6345
4480.84315
-1096.6622
1157.0825
-3857.48374
9829.5884
55284.36
50545.095
14755.76035
-16815.9216
5363.8295
-1915.62105
-1762.0478
7558.3828
7087.4242
-1906.73749
30706.421
4506.6992
1915.6809
-6863.89045
20171.07365
34822.485
22345.802
6186.06063
8191.97965
6544.8628
8037.5347
1180.3546
34525.443
85698.205
41287.84
49985.4305
17008.2325
8787.01935
2045.36665
-7181.6055
26460.6559
11614.8995
-12727.04265
1184.97582
-2657.44135
2590.7408
19499.74185
-1776.64405
-2407.88785
-3001.575095
-7988.34469
6665.2928
-7399.444
-3614.3064
-2684.6095
-2337.396975
365.8337
-3755.87826
361.12834
27499.78535
11565.04625
15617.91245
24180.50755
20402.52455
4675.42745
-8059.4172455
-1420.5995
11868.90721
5945.3145
-1343.28245
4917.404
4450.64955
-1324.869855
-2560.7022
-5828.6692
475.1525
-3683.1222
3363.837035
-5750.96985
15718.76185
11542.84335
-904.18242
12888.811
-4542.8243
5472.2281
-1984.881
-1260.60744
4980.9966
13287.50548
31981.21985
-7245.6452
1856.62032
1491.9997
6784.50395
-8010.67415
1053.849755
-3204.965825
-1274.9542
-4314.9015
20557.856
18764.75675
-198.76815
14920.4595
38549.3005
2813.96595
11375.67345
-2121.8864
7683.26235
-5325.1525
1488.613
-3305.48345
4584.73935
20093.49575
23120.499
3132.23595
-1011.62275
-2681.187145
-2188.5038
1761.99145
-1799.819926
-179.15265
-3445.6317
4779.85215
17447.50545
4165.7155
24073.47965
34963.7
8746.61455
609.44202
6614.763455
-1622.201938
5847.93505
22926.35855
6273.12995
2478.4766
11444.1683
4321.11235
23461.4545
-2342.3515
11679.3495
3228.7875
17430.496
14610.71445
3079.53207
-2991.829
4877.2602
7450.12135
3345.34755
15699.7004
20250.0668
33286.131
1594.59875
-600.2947
-3622.9292
-7816.0672
3587.47943
39412.045
4226.5695
-7543.17255
-8636.213
-4734.762235
-6082.5675
912.82789
8445.3942
-3922.87893
982.625375
-3952.987
52540.56
-790.93135
-2119.9436
30919.28335
892.0281
10579.4355
-1634.6636
410.271875
-2779.21705
4626.35525
-1189.91645
-569.25895
181.56695
3770.047
6451.85985
19712.251
6727.0895
21281.9425
10784.3492
16614.3394
-2831.876095
1411.0686
12344.52
-320.2609
-4318.7401
-1457.11586
11162.79495
-3297.73345
26456.9745
31296.755
1611.5255
-6277.6858
-5851.9184
-2229.613455
21321.2023
32624.291
-1738.00745
5850.25135
3205.17795
-6602.144
-3697.38625
-1123.7443
-9379.74405
-8140.51545
2122.88655
3678.28085
9122.7205
2844.193675
19979.36375
19683.37675
30357.0345
43759.4495
27495.0475
25182.10525
28861.7545
8644.8007
7647.7725
7989.70439
34468.474
3820.2208
-9246.6045
6152.621025
41134.3958
1054.738
-1685.12575
-2482.83625
-1305.13535
112.4505
2182.986575
60070.085
33588.6085
18403.27095
10760.74355
8602.45225
14388.5101
-4414.315955
4359.54328
13947.5435
23794.7096
15364.26165
26644.3403
1872.97735
-1209.96305
37914.6795
13400.33575
-2875.5965
9876.98955
13329.8508
836.5228
-302.8909
11241.2298
-646.493
-11425.63525
-9755.8029
-6595.21075
1928.251
-1197.4074
-668.63615
7768.096
2839.177
7110.65845
1681.84815
-1323.5275
4142.7156
-2610.1993
-2688.4875
-4026.87625
30733.1005
5129.6474221
24355.976
16603.4135
1322.06303
12422.2421
36914.4937
35539.2835
1145.04019
951.3546
2770.53215
12406.3553
-3917.78055
-3255.05415
4866.13105
14916.0988
-3481.1526
-1092.3924855
12891.9449
18897.82385
18880.3345
4896.8012
11634.869325
-3844.21115
8259.4813
2181.25
6341.2753
5294.6236
-959.22446
0.79334
5425.96885
18444.7877
8647.63169
3283.9365
2388.0165
1937.639
23334.473315
5522.1305
9787.0641
-2242.4318
-4078.6348
-1039.3712
1360.4915
4988.39415
-2176.033525
10942.88
2785.7692
12985.4745
-2827.668
8800.16415
-1096.5764
-3192.244
6125.5353
3060.58504
37724.42125
54874.04
23985.17755
266.42571
-11165.6585
14344.6455
20128.352
-4300.5285
8259.1067
911.63265
14602.4283
16232.591025
-5299.2131
-2588.16821
5728.034
20202.0926
-3213.0215
8613.17
16452.5449
3101.8503
-2972.2819
56553.243
42446.211
-1846.55485
4346.2808
32299.1035
6195.78435
-1849.0285
2081.33545
-8148.9359
6358.7255
2996.92355
550.1812
-2714.30265
-3483.4464945
-1637.54625
-3937.21595
7630.1991
6489.75995
7667.12495
14401.181
15241.8048
2044.77409
8429.99815
19384.7117
898.785045
-3296.89575
3155.9098197
9241.467
-1693.9385
-1420.58315
-7108.01445
1736.3613
17424.51605
18327.362
-2179.087595
-3922.38415
2011.9409
10350.684855
-926.983095
3375.9752
12119.39135
1488.8273
-2612.00855
17560.82431
2859.2363
1921.98105
1916.019
6984.9035
10856.1633
5829.823
5001.8729
-3251.55515
-3099.2693
-3572.63075
2404.7798
-2263.7055
-3302.7283
3738.52685
79288.09
63219.175
1877.08435
-5134.9915
-4370.4522
-1606.518385
446.11935
-1422.1275
-4769.58624
3962.56381
-3058.7275
7554.40525
2421.702
7326.62
