1062.55335
4900.08241
21896.36
43210.31775
1076.1654
-12985.26975
12152.5445
6748.1006
24082.37
-107.2205
-4159.206115
18896.959415
-8703.147
-4211.80035
-2486.695
545.08015
-721.3
3809.90732
14765.788
288.2586975
23174.6933
29915.6603
20146.66005
5666.3075
-2330.8658
54070.378
-4151.274
708.00687
-20902.865
8875.5266
-4539.5035
2524.44125
4326.2628
-6774.4332
5926.9645
24257.087
-4767.46375
-13826.22895
-1998.951
62222.335
37223.048
7029.43849
-7100.9246
-1111.97655
290.93385
1819.03205
4072.56075
3734.1131
-318.47255
8320.017575
29486.99475
27018.4511
1962.89505
4998.4605
3340.6494
-6820.6567
3450.12255
-97.0548
6416.3202
6474.5295
19353.413
11727.7405
11244.0675
41604.415
-5237.61665
1250.29215
10664.4881
17225.391
-8280.51442
-7783.8635
1294.66075
-3879.80931
15190.769
18191.8922
-7660.6204
510.43645
-18791.1214
10522.48615
15667.37515
10785.58665
-868.74045
22511.254
16894.759
29298.844
2904.4354
-344.7363
1794.3065
-3885.78298
10815.3294
55619.975
51541.74
15297.6815
-23431.43705
4598.1623
-1468.57935
-3647.86575
6938.9298
6136.1352
-5721.703
30698.179
4212.525
258.64815
-9195.190845
21609.4227
34156.4679
19863.221
5912.955045
7345.142
5806.09197
5665.7905
-651.81015
34371.049
84908.03
37340.6235
48128.023
18156.413
10366.79955
3080.26035
-8811.9233
26894.62415
9732.5505
-17694.874
1808.2671
-4454.17807
2002.605
21625.71035
-2790.55535
-1621.6874
-2309.7476
-10018.4164
8464.72465
-9196.17995
-5785.3254
-5764.8175
-7146.525
-3857.191
-4536.34
1748.06845
25375.9148
10991.0708
14689.4779
21160.144
21530.24545
3933.604195
-11590.4353
-280.6657
12051.44925
3515.6574
-106.29362
5879.808
3732.347145
-480.8851
-5025.76305
-5521.11105
509.124
-5552.35245
2312.6201
-9337.2371
13910.1905
9214.5655
-3097.655064
11241.8385
-4840.067
4151.08085
-4039.611985
-2990.12435
7386.2135
12632.82
32145.8043
-9559.1195
3073.2962
-195.6053
7073.41765
-12859.14585
-435.4905
-2373.38788
-2514.22975
-5664.939
19643.408
17223.2676
-942.687595
14140.76415
35630.1025
1227.60665
7794.926
-3219.19535
6435.58179
-6050.76865
1195.78595
-5591.7926
5458.5695
20458.661
22536.29565
3380.2142
-1319.10344
-3210.4861
-4466.40355
2016.30215
-2685.4715
1110.6355
-5241.75175
3272.40265
16707.749595
6644.873205
25477.85685
35285.7405
8793.9902
68.38975
7820.5191
-1466.17965
3226.75597
20515.03587
6662.72385
2523.06905
10224.49455
5190.07195
21433.4525
-2068.3292
10331.0555
2328.54355
17567.8255
12096.59185
689.96443
-3076.5553
2472.2885
7278.56255
2591.13255
16457.7605
18882.95972
32980.1625
886.56225
-2700.686
-7688.4434
-8424.916
2992.4109
37663.259
1400.71015
-10147.14295
-14016.4034
-4646.88225
-9244.2276
74.414765
5934.7802
-5647.85345
60.47207
-8586.56688
53053.945
833.9074
-2322.164405
29335.8476
-353.9141
10852.243
-3868.1425
-2026.455845
-3759.3755
4616.7178
-1131.6525
935.20255
-726.5631
1104.2774
5637.2036
19185.8075
5194.3611
21786.25
13547.30735
17872.19205
-3218.21772
-359.58365
13517.0538
-664.958
-4915.7443
-2757.35925
11349.1412
-2881.99535
25936.656
31459.81
2928.91555
-11460.1325
-7557.68911
-254.67975
20979.53895
31764.144
-1322.9375
5556.23052
1219.1609
-10135.12134
-5387.51989
-2995.8044
-13263.836
-10808.5105
2185.98855
4514.76938
7937.331
3508.04165
18902.8925
22916.426
29320.0277
43412.36
26621.151
24262.7425
29350.373
7583.34815
7690.27155
7067.6202
34553.833
6030.00129
-10979.7225
6820.08144
41989.6435
-438.6307
-3055.193965
-4641.5946
-2764.323405
-1884.3887
879.536
59544.95
30556.7253
18786.7865
10040.77245
7910.64335
14247.228
-5558.3751
2764.76855
16062.665
23302.63875
14714.8342
23666.879
191.2579
-2385.9058
34963.643
13846.52
-5531.364
11561.905
12914.1725
577.7389
-3540.06148
9114.0885
-1794.5881
-15946.405
-13214.047
-10874.388
2755.504
-9.31845
-1736.55885
9641.52911
753.964
6224.612885
1860.88545
-1482.129
4341.71225
-4150.83015
-793.07485
-4763.196535
28656.284
3064.6775
24481.89235
15659.6245
2943.23295
13752.4717
36156.1006
34907.01
1970.43425
799.733615
2099.805917
12526.1815
-4209.7359
-1962.56935
3482.1408
15379.52815
-4513.066115
-1447.81195
12086.3938
20232.2205
18318.963
4863.98075
10547.694
-3930.181
8873.21425
4125.8194
6075.9985
4979.55255
-3196.49865
-123.4887
4791.78325
19754.9787
9086.554
4363.4293
4933.23445
1232.6495
23673.6335
4111.8635
6663.5665
-3325.9019
-5814.2865
727.932
881.84125
5682.65015
-1790.780815
10111.583
4673.54395
12876.87965
-3353.61525
10514.421
-2245.129
-6184.48366
5219.20155
1760.03
34650.2415
55328.145
25168.61245
-1118.82875
-13831.5824
13460.348
19667.3045
-7206.336
7659.9892
-472.85692
15972.55575
14905.49885
-7276.8189
-3834.4149
4167.0665
20303.3114
-3673.258
6858.3005
15772.3609
3645.82481
-3443.6845
56167.396
38585.452
-256.66286
3281.3318
31600.89425
4854.42685
-2725.987
-511.6475
-9465.81145
3528.55735
2074.27005
-762.4035
-5739.51575
-2835.6988
-2398.18335
-3788.51005
7454.6494
7342.8195
6499.86919
13347.0765
15302.4505
1762.730095
7195.7213
19413.1579
1765.9806
-5405.65975
4072.304
10266.45992
-2511.55735
-1552.53885
-11042.30022
-1345.2155
16609.80359
18086.255
-3401.0929
-3961.764975
2315.1789
9697.73642
1439.5933
5642.746
14021.533
2825.3596
-1620.82
17881.8325
1387.520065
961.30325
1552.5724
6781.879
11118.438415
4150.107
4110.9635
-4391.67005
-1520.13624
-3325.8568
2702.28655
-4320.03115
-6220.7419
3303.7534
79259.635
62000.82
1074.22355
-3349.0454
-5911.66135
-1595.88455
-966.373
-2776.72245
-5724.57625
4725.97265
-4145.20415
7972.1685
2326.07
4708.6376
