6.33762
-1.29661
4.53863
0.462143
7.81847
17.8705
9.55713
7.07467
30.0985
3.21274
-33.5075
-65.2281
-93.9006
-107.016
-81.6306
-60.902
-63.5991
-28.7237
3.41013
-22.8218
17.1224
30.6506
17.7293
-2.0903
-17.6814
-3.53333
54.6049
71.4254
100.862
109.144
41.0292
48.0928
82.6125
59.0455
2.16735
-3.08299
-8.63944
-21.7008
-20.472
-34.3269
-48.0466
-61.1191
-88.8089
-118.431
-121.875
-125.06
-175.354
-155.194
-186.654
-188.23
-208.697
-153.366
-160.32
-119.256
-152.963
-146.111
-141.54
-125.475
-122.198
-123.087
-128.157
-95.9502
-107.437
-144.602
-125.816
-164.146
-211.201
-218.304
-238.135
-210.459
-193.787
-226.011
-185.43
-220.948
-197.019
-164.685
-139.367
-173.453
-149.881
-167.159
-167.168
-181.154
-139.708
-230.976
-246.652
-309.157
-225.646
-284.373
-249.71
-361.842
-253.865
-277.2
-334.15
-357.621
-508.645
-442.113
-531.33
-481.85
-481.802
-505.037
-457.144
-485.882
-393.552
-352.329
-378.254
-403.011
-455.344
-430.737
-439.558
-446.059
-453.984
-429.444
-390.211
-382.541
-436.386
-371.352
-415.144
-384.686
-430.954
-490.459
-526.031
-465.044
-435.481
-455.316
-397.981
-397.705
-421.861
-446.695
-514.616
-656.101
-632.424
-642.687
-596.131
-652.178
-712.961
-718.264
-736.094
-727.365
-814.059
-923.48
-929.984
-916.367
-958.274
-884.019
-833.338
-1016.96
-938.797
-1072.77
-1049.34
-1052.64
-1058.17
-1088.15
-1089.49
-1110.28
-1200.65
-1131.23
-1112.54
-1050
-1061.5
-1166.31
-1130.13
-1081.81
-1052.03
-1147.28
-1128.78
-1069.48
-1036.17
-1008.78
-1026.45
-1002.66
-1058.67
-1172.7
-1205.44
-1251.73
-1266.13
-1307.48
-1289.16
-1263.73
-1171.96
-1205.72
-1207.32
-1268.01
-1217.91
-1163.65
-1089.43
-1062.09
-1192.25
-1241.96
-1152.04
-1245.63
-1360.35
-1254.52
-1342.73
-1349.2
-1369.34
-1429.33
-1476.45
-1547.02
-1411.4
-1381.84
-1382.77
-1478.6
-1445.54
-1423.45
-1403.89
-1291.31
-1344.18
-1413.71
-1490.92
-1545.18
-1543.97
-1544.73
-1553.31
-1510.43
-1513.65
-1407.27
-1442.99
-1575.11
-1770.85
-1784.92
-1893.61
-1856.46
-1824.94
-1938.03
-2024.38
-2012.81
-2001.01
-1889.33
-1833.51
-1796.29
-1921.21
-2010.85
-1858.18
-1867.27
-1849.48
-1766.35
-1930.91
-2129.58
-1860.7
-1584.69
-1514.22
-1422.64
-1438.27
-1465.62
-1499.59
-1507.27
-1580.84
-1541.21
-1559.25
-1561.69
-1551.81
-1443.99
-1510.96
-1469.47
-1482.15
-1534.65
-1538.72
-1423.54
-1567.29
-1577.48
-1671.02
-1723.69
-1625.37
-1663.18
-1871.66
-1711.05
-1707.66
-1696.18
-1639.18
-1634.66
-1531.05
-1444.44
-1437.4
-1411.21
-1251.96
-1294.57
-1337.88
-1455.76
-1507.6
-1578.35
-1722.78
-1738.04
-1766.49
-1806.15
-1861.25
-1787.64
-1969
-1992.98
-1944.07
-1803.53
-1611.46
-1628.17
-1679.91
-1663.77
-1628.42
-1626.89
-1578.76
-1554.35
-1533.67
-1602.85
-1462.09
-1446.42
-1474.37
-1496.83
-1573.31
-1558.9
-1607.63
-1713.14
-1692.36
-1697.69
-1764.39
-1885.05
-1901.11
-1889.09
-1947.79
-1819.4
-1669.47
-1624.85
-1554.79
-1458.4
-1494.23
-1610.87
-1597.81
-1486.09
-1486.87
-1497.94
-1295.89
-1323.84
-1255.14
-1178.54
-1107.93
-1157.43
-1244.59
-1229.01
-1294.41
-1258.47
-1301.14
-1305.79
-1236.01
-1157.98
-1137.83
-1148.57
-1272
-1374.28
-1203.43
-1290.92
-1256.77
-1287.61
-1357.59
-1466.58
-1511.23
-1562.23
-1526.72
-1561
-1568.61
-1632.61
-1586.54
-1493.99
-1445.13
-1495.33
-1534.89
-1477.81
-1492.74
-1526.58
-1473.81
-1414.16
-1433.79
-1597.07
-1652.02
-1755.62
-1691.49
-1594.26
-1669.87
-1817.18
-1873.58
-1790.72
-1850.7
-1931.98
-1789.72
-1547.94
-1557.23
-1472.05
-1609.22
-1690.92
-1619.98
-1586
-1501.98
-1524.05
-1598.25
-1508.06
-1507.72
-1469.76
-1692.69
-1551.91
-1579.18
-1525.76
-1439.38
-1381.59
-1250.38
-1230.49
-1289.96
-1182.78
-1256.9
-1435.98
-1544.32
-1506.64
-1465.54
-1580.07
-1465.74
-1395.07
-1494.64
-1437.94
-1516.23
-1326.41
-1289.37
-1224.63
-1080.85
-1090.42
-1127.91
-1138.08
-1138.5
-1082.38
-1072.93
-1062.25
-1049.13
-1007.22
-937.102
-891.386
-694.823
-710.817
-725.593
-804.871
-837.766
-955.31
-1044.89
-905.221
-1054.95
-1048.45
-1045.9
-1087.02
-1115.14
-1088.74
-1013.94
-980.53
-1031.73
-962.575
-921.039
-909.449
-887.901
-995.759
-1008.37
-965.579
-952.684
-945.017
-857.003
-788.325
-786.011
-891.845
-927.98
-880.592
-895.098
-932.025
-832.962
-864.977
-852.241
-815.375
-861.9
-949.425
-887.965
-897.576
-922.148
-821.933
-831.394
-903.351
-907.523
-917.114
-961.422
-1066.32
-944.859
-919.004
-952.46
-929.861
-877.712
-855.588
-804.914
-789.355
-804.31
-729.565
-685.108
-606.203
-600.936
-611.319
-558.737
-568.113
-608.05
-534.86
-633.173
-609.371
-747.457
-806.686
-836.734
-693.674
-719.565
-713.445
-712.515
-532.83
-593.599
-519.363
-453.62
-462.427
-470.041
-457.22
-486.969
-438.351
-437.028
-467.67
-331.111
-270.818
-269.049
-264.529
-233.888
-188.319
-204.919
-234.244
-211.723
-148.224
-87.2463
-53.8416
-26.8764
-43.9558
-19.307
-19.026
-14.7312
31.9058
33.792
82.3462
24.4988
70.6519
86.7667
106.601
155.041
132.578
75.271
102.396
122.575
171.27
130.765
155.481
120.405
19.4697
-28.7971
-47.5058
-94.1404
-145.42
-129.696
-167.813
-132.915
-162.828
-216.164
-251.329
-253.952
-342.019
-370.737
-426.859
-386.827
-398.139
-410.773
-371.899
-392.996
-379.109
-366.345
-377.302
-381.385
-405.273
-433.801
-414.148
-399.616
-415.311
-352.001
-280.241
-303.946
-310.394
-265.75
-174.552
-124.426
-98.6787
-73.4951
-62.4655
-88.7932
-148.039
-196.906
-155.29
-109.052
-172.688
-140.122
-175.842
-253.416
-251.836
-238.39
-242.175
-211.405
-180.642
-295.47
-323.952
-297.65
-304.821
-278.478
-242.451
-235.382
-323.015
-316.983
-282.629
-205.927
-231.496
-199.713
-155.105
-153.528
-138.743
-76.0095
-108.018
-69.5736
-87.8818
-55.1258
-113.645
-122.025
-140.852
-220.045
-223.053
-215.11
-292.441
-285.768
-242.133
-257.735
-263.781
-298.62
-284.353
-302.358
-381.781
-408.294
-420.105
-422.177
-391.529
-380.075
-361.707
-404.799
-395.801
-451.266
-375.934
-394.546
-503.732
-395.119
-395.741
-282.962
-264.889
-283.386
-241.829
-215.086
-287.947
-229.043
-227.017
-157.843
-183.832
-86.8498
-78.2164
-63.7148
-83.8585
-65.7329
10.3395
-9.28788
36.7055
46.1962
-14.8463
18.6409
44.7013
18.2696
-46.5442
10.7926
8.75418
25.7997
80.8266
75.2172
40.8079
-7.36899
10.606
26.2468
97.5703
127.701
115.178
193.677
130.41
95.0424
30.0789
39.2763
-30.7364
-130.877
-113.57
-203.816
-182.533
-231.914
-184.955
-215.913
-187.648
-182.365
-234.43
-281.277
-251.773
-302.164
-209.853
-205.606
-285.247
-363.642
-382.624
-490.7
-533.1
-502.055
-628.381
-584.5
-619.205
-649.143
-584.567
-571.107
-653.42
-599.548
-599.394
-525.949
-338.014
-378.913
-371.137
-428.935
-416.575
-498.598
-442.366
-390.953
-433.267
-391.982
-445.184
-511.514
-556.781
-611.409
-604.233
-625.465
-643.139
-638.393
-634.868
-704.289
-606.865
-572.798
-594.221
-576.91
-535.25
-468.88
-447.162
-350.165
-370.841
-384.171
-339.824
-290.432
-300.598
-377.53
-338.971
-420.952
-401.768
-488.484
-511.17
-559.014
-590.59
-537.533
-439.261
-407.309
-335.017
-332.068
-340.609
-211.405
-218.582
-312.565
-339.061
-230.023
-283.956
-38.7586
-38.1147
77.9516
59.6655
38.5112
-10.0091
-47.6054
-131.98
-100.547
-97.6031
-81.2112
-111.609
-129.112
-143.568
-133.076
-136.332
-193.412
-274.69
-331.966
-346.749
-329.244
-265.129
-285.082
-234.606
-144.081
-65.9491
-100.742
-78.8212
-2.74763
33.5969
-25.5867
-51.8264
-3.63844
-25.7964
-52.0763
-108.769
-94.9018
-77.0728
-79.0111
-40.589
33.5598
63.6288
98.1078
42.3804
40.3507
168.155
197.95
167.067
192.033
184.61
164.574
163.172
75.0135
35.8681
-109.268
-64.0138
-45.7338
-8.19337
27.2794
81.8419
-43.5537
-0.621848
-43.0562
0.368006
76.3378
143.27
48.1733
74.6916
58.7353
67.1754
136.951
124.749
42.4133
13.3032
-67.6857
-102.408
-111.719
-125.845
-96.6149
-49.014
16.4737
51.946
-0.147907
-104.911
-96.0273
-133.183
-300.77
-338.339
-287.622
-233.869
-233.091
-278.267
-244.768
-258.562
-148.551
-150.701
-159.022
-200.147
-316.498
-245.254
-339.817
-272.375
-250.721
-238.648
-276.075
-241.886
-280.507
-385.848
-377.871
-308.355
-353.082
-261.267
-373.055
-308.355
-380.591
-253.277
-178.313
-176.724
-76.841
-158.523
-162.183
-216.578
-283.149
-266.729
-280.761
-217.553
-171.84
-207.575
-134.973
-201.841
-280.01
-283.381
-304.029
-207.996
-331.599
-278.729
-318.807
-326.675
-423.4
-362.639
-430.325
-467.153
-485.822
-374.421
-333.829
-217.498
-210.407
-137.798
-203.214
-206.434
-111.852
-64.7928
-29.2457
-156.754
-231.414
-311.875
-442.536
-397.403
-441.865
-367.375
-283.907
-333.454
-364.985
-383.44
-334.226
-335.799
-429.285
-401.072
-403.883
-411.461
-308.39
-178.888
-201.846
-211.592
-399.434
-467.488
-446.606
-321.872
-443.746
-422.201
-495.958
-613.1
-585.714
-417.244
-379.128
-421.428
-401.417
-459.033
-457.849
-536.365
-490.862
-472.001
-372.001
-520.431
-605.013
-599.959
-632.147
-627.386
-493.192
-524.191
-527.92
-477.977
-315.966
-328.265
-309.824
-325.186
-363.831
-429.964
-391.65
-346.012
-339.217
-486.916
-500.875
-469.445
-447.71
-529.903
-564.609
-556.347
-582.776
-479.299
-428.812
-393.511
-0.217363
19.3557
12.2716
12.5942
21.0469
59.0586
71.1296
59.1822
16.4181
23.4346
-10.6129
-17.1035
8.02268
-37.561
-59.9421
-42.4106
-42.2895
-21.8482
-50.0849
-37.2938
-17.3155
-13.8177
-62.674
-44.4383
-18.5062
-48.3143
-40.0697
-47.5827
-61.2091
-2.16821
38.7669
70.5506
82.1002
49.0899
63.1365
20.7073
-62.0062
-50.3707
-44.0448
42.5932
71.2955
31.3668
73.2268
27.5369
8.29641
-23.966
-14.7437
-68.1635
-55.3678
22.4292
15.4458
12.3777
-52.4379
11.705
14.3514
-1.62076
52.0409
63.4963
44.9878
72.8897
79.7487
66.1147
129.152
181.909
222.757
219.631
204.243
201.265
215.518
194.256
215.751
255.779
253.244
223.277
263.346
355.621
295.674
235.606
272.728
196.213
232.928
285.841
244.311
277.389
313.644
246.177
267.995
226.117
186.485
197.349
170.684
130.968
64.1489
81.3593
29.714
0.805019
-13.2419
-92.5988
-138.717
-118.45
-169.799
-165.799
-180.84
-261.184
-294.982
-252.633
-355.064
-390.525
-455.946
-469.319
-443.008
-362.171
-307.748
-259.297
-197.996
-188.045
-153.076
-103.775
-144.401
-82.5382
-67.2951
-62.845
18.9362
-8.15277
-138.314
-126.869
-220.497
-273.977
-264.485
-245.173
-139.666
-158.906
-177.297
-162.081
-32.4844
-43.1022
-53.7245
-58.7779
-60.5684
74.8451
138.361
113.881
117.031
218.67
209.569
116.738
97.1402
132.2
180.375
119.009
59.3041
2.4207
2.43101
-57.9281
-48.427
-29.6435
0.893472
20.9531
54.3294
118.459
96.8601
51.1996
79.8588
58.0963
166.654
216.857
194.41
192.609
173.918
170.322
125.014
115.249
105.619
30.5141
-21.8959
-56.3318
35.5416
-22.3194
-47.063
-77.616
-69.9673
-50.2952
-111.349
-147.372
-163.419
-108.448
-102.777
-105.243
-97.7944
-71.6261
-63.5484
-67.2291
-127.936
-141.782
-153.3
-91.0276
-123.11
-152.722
-114.499
-194.827
-152.256
-142.798
38.1689
71.4466
88.0587
104.911
224.334
271.111
337.711
300.306
325.422
333.9
335.861
200.392
168.575
125.488
88.8747
162.781
181.068
152.732
239.93
216.036
271.74
352.28
287.782
338.635
373.309
445.114
452.336
390.818
487.662
526.637
488.92
420.617
409.981
416.187
542.662
647.101
748.098
762.303
787.068
643.217
750.907
824.671
728.375
771.192
676.983
622.009
616.556
522.563
565.254
495.723
405.198
368.383
490.567
372.482
269.717
123.115
159.612
191.82
247.239
83.9845
58.0518
42.8428
68.0935
192.056
219.723
230.001
317.85
299.535
371.217
448.423
458.926
278.067
187.899
156.923
192.913
204.311
271.674
319.877
193.381
185.244
301.328
302.126
315.546
278.252
197.797
312.043
246.32
344.668
335.187
405.315
395.135
446.871
419.158
314.246
301.513
271.477
291.794
467.114
518.132
566.307
560.185
600.464
531.623
448.642
500.714
438.092
421.124
341.095
426.301
374.135
221.576
178.235
341.725
401.243
405.045
504.623
449.724
413.084
294.515
334.401
306.343
270.911
456.908
310.463
323.387
380.844
283.316
212.1
289.171
259.868
255.668
294.751
370.706
297.267
210.487
192.859
134.525
141.231
178.836
57.9808
-36.2298
-34.1835
-69.8479
-190.074
-257.485
-273.449
-197.663
-288.688
-314.073
-276.449
-300.219
-240.357
-282.386
-279.368
-338.954
-262.926
-131.759
-170.009
-231.719
-254.005
-275.26
-333.519
-348.478
-303.764
-254.716
-149.68
-155.514
-75.0128
-108.811
-81.9239
-111.109
-155.786
-205.266
-288.075
-284.587
-214.149
-132.204
-102.456
-113.792
-175.721
-215.281
-200.069
-198.456
-183.564
-250.133
-179.071
-207.004
-278.051
-228.546
-117.163
-98.2655
-159.367
-73.2956
-64.002
-51.6551
-82.7872
-118.224
-88.0039
-41.4574
57.443
23.3588
-12.312
-22.1485
73.5578
116.972
157.911
196.327
213.876
188.85
235.025
238.1
294.959
258.862
206.176
270.821
362.948
284.291
295.526
129.063
170.071
231.57
294.468
225.944
188.11
118.262
209.787
154.574
267.356
242.48
311.131
332.956
294.162
209.327
82.7694
94.4136
31.6535
45.3225
110.049
21.8737
19.198
-40.912
4.72837
87.403
113.828
62.2476
74.6334
86.2057
196.342
253.354
292.93
332.3
210.472
171.754
275.089
317.689
311.213
356.856
312.772
376.885
225.655
83.9861
10.7059
69.5022
161.335
134.294
150.525
209.114
163.327
97.8473
90.3039
63.9343
68.4922
58.1428
76.7977
143.309
165.978
116.01
157.683
267.497
223.257
239.878
219.482
151.454
214.667
180.608
163.145
148.657
20.1454
44.7198
45.3548
25.9576
60.4103
134.063
129.188
156.994
214.298
126.994
153.76
94.9392
62.5425
59.1696
53.5332
138.477
97.8541
7.24272
30.07
-3.57764
-93.4373
-177.535
-83.8854
-94.845
-50.6199
-76.4205
-85.6693
1.20222
74.1528
80.8911
201.963
118.611
116.36
-17.6807
15.3927
135.973
121.282
223.184
210.551
149.814
212.284
220.963
186.767
277.888
237.434
166.339
176.281
79.9858
54.2661
197.912
152.984
226.948
233.691
330.01
219.404
238.944
202.587
316.719
282.954
194.216
250.566
231.148
219.705
227.954
163.677
111.268
75.6679
33.0805
-17.9701
-194.33
-271.3
-52.2205
72.041
135.205
275.51
234.796
308.107
334.515
383.87
342.895
317.62
315.146
321.2
398.432
316.494
333.94
326.994
348.142
480.562
505.47
457.198
372.808
222.836
229.105
350.596
331.862
198.728
173.026
180.293
54.83
169.986
229.666
138.788
153.911
266.967
466.45
567.254
582.462
625.077
725.774
673.867
666.706
464.703
540.758
562.158
413.954
518.497
595.337
726.926
842.335
819.38
951.384
957.187
913.159
958.369
879.738
928.324
919.732
1008.56
959.178
733.683
824.306
876.27
945.851
965.014
1037.09
1017.09
1063.49
1142.69
1174.77
1119.98
1105.53
1358.53
1439.77
1476.55
1594.07
1596.94
1725.89
1852.42
1911.41
1874.09
1741.61
1582.2
1675.39
1676.22
1760.63
1917.91
1788.04
1721.72
1595.49
1697.56
1601.99
1544.77
1680.09
1842.25
1678.96
1773.77
1752.1
1694.64
1688.98
1628.26
1639.63
1615.23
1543.42
1532.99
1358.36
1503.67
1471.9
1472.22
1530.88
1511.9
1627.3
1599.76
1633.47
1564.5
1680.06
1700.52
1661.98
1688.11
1675.64
1520.19
1482.93
1320.03
1257.77
1346.64
1398.9
1286.18
1144.74
957.593
984.636
1038.5
1041.56
1072.67
1014.24
1143.33
1143.28
1226.77
1211.03
1199.5
1176.66
1138.63
1167.03
1092.13
993.636
1070.8
1028.35
783.042
701.172
647.556
669.374
625.917
648.853
744.677
850.074
871.258
909.307
794.828
712.625
822.277
965.241
970.019
944.99
822.356
714.628
770.177
668.33
608.766
690.37
712.569
738.663
729.999
558.53
578.485
518.104
537.755
437.457
346.858
509.506
578.959
573.235
488.79
553.336
647.276
729.193
789.147
759.332
634.322
551.321
589.172
623.85
639.886
745.144
910.36
955.655
784.522
843.502
896.33
911.785
850.608
935.978
974.653
1066.32
1144.42
1154.47
1121.39
1171.38
1170.79
1167.18
1160.55
1235.81
1286.12
1360.39
1352.48
1312.85
1153.38
1161.18
1126.76
1085.38
1103.93
1016.07
865.66
1008.41
834.306
921.566
918.746
843.165
929.825
721.344
773.748
708.354
778.477
723.423
695.971
667.65
607.269
606.235
641.195
636.873
653.315
630.18
728.115
914.66
971.17
995.939
957.47
897.47
923.059
861.598
687.716
703.015
662.553
726.017
797.891
1041.16
1027.64
1038.6
1068.88
1080
972.23
1027.21
1111.65
1147.27
1160.43
1440.36
1318.27
1278.04
1325.11
1354.56
1363.85
1373.77
1280.86
1362.17
1344.76
1347.42
1343.22
1426.78
1284.35
1196.33
1257.08
1457.07
1435.1
1395.06
1391.99
1262.81
1145.57
1021.16
920.555
950.497
975.678
898.021
931.788
961.164
1110.6
1120.46
1237.48
1346.09
1266.56
1218.4
1224.64
1411.61
1492.75
1549.84
1516.74
1459
1298.97
1449.01
1488.32
1239.31
1355.07
1348.17
1356.14
1310.9
1505.76
1619.3
1570.31
1490.4
1259.57
1228.45
1077.7
1004.31
1210.69
1233.87
1298.72
1460.4
1576.27
1621.72
1420.09
1377.19
1474.25
1518.12
1351.89
1116.19
869.639
733.016
899.794
704.126
749.492
912.428
904.244
936.498
901.202
882.625
840.051
795.492
797.621
713.998
799.727
760.578
817.981
768.496
985.508
924.542
781.121
704.707
770.337
808.705
705.685
737.243
807.188
830.383
850.431
900.597
934.36
953.151
973.672
919.875
933.327
932.993
760.8
662.607
668.617
709.136
915.679
892.008
943.644
1013.21
1114.87
1273.58
1243.99
1298.73
1407.03
1382.78
1540.51
1449.98
1407.6
1462.78
1429.91
1596.79
1453.95
1252.55
1163.11
1292.57
1345.97
1214.81
1184.56
1266.8
1294.12
1349.51
1256.53
1417.86
1363.07
1404.06
1496.82
1423.06
1314.94
1238.2
1196.88
1103.73
1115.65
1139.36
1045.19
1127.06
1280.59
1294.92
1357.45
1393.74
1472.78
1411.67
1417.63
1409.1
1391.23
1460.11
1365.82
1168.8
1242.13
1226.5
1113.99
1135.71
1144.41
1223.61
1186.36
927.041
1035.33
1021.13
978.148
1058.38
1226.97
1138.04
911.249
792.389
929.988
959.644
940.249
991.163
1109.83
1177.49
1138.58
1157.43
1063.57
961.34
1069.12
1217.55
1333.1
1216.32
1149.3
1217.79
1275.6
1314.86
1261.11
1247.88
1251.36
1148.56
1279.24
1247.46
1304.32
1495.35
1664.37
1686.6
1546.74
1695.89
1767.42
1936.37
1958.16
1890.14
1827.2
1812.94
1925.24
1983.77
1958.33
1982.68
2128.09
2140.08
2138.7
2028.84
1993.93
1964.19
2001.3
2256.55
2068.12
2129.74
1974.31
1953.07
1960.1
1746.76
1715.89
1640.21
1845.3
1858.93
1904.87
1685.68
1741.87
1575.72
1698.32
1493.83
1444.1
1704.15
1893.32
2034.16
2081.69
2062.01
1925.28
1857.65
1772.29
1831.6
1925.81
1867.94
2233.29
2360.54
2258.69
2070.18
1990.1
1938.4
1993.63
2111.76
2200.37
2153.92
2145.41
2338.81
2229.48
2154.03
2028.77
2066.48
2123.4
2151.77
2106.72
1937.07
2136.98
2208.93
1843.8
1893.29
1989.33
2132.08
2102.96
2363.27
2333.3
2418.4
2418.45
2699.35
2538.66
2600.02
2786.31
3082.14
3097.11
3103.44
2999.63
3168.65
3064.73
3185.95
3148.04
3185.68
3111.74
3251.57
3044.37
2983.53
2996.09
3042.36
3082.6
3103.96
3173.12
3440.99
3223.21
3364.17
3511.7
3587.27
3641.58
3930.42
3974.86
4144.17
4124.4
4360.27
4221.86
4236.8
4101
3804.51
3679.78
3758.86
3674.41
3821.24
3786.68
3848.5
3738.65
3806.42
3632.78
3641.84
3463.28
3636.78
3473.4
3599.58
3852.09
4101.98
3808.63
3505.93
3300.59
3098.34
2864.2
2938.62
3153.17
3041.39
3217.05
3310.56
3672.87
3578.12
3645.14
3710.72
3958.89
4125.71
4134.67
4280.99
4317.97
4455.7
4445.88
4475.21
4571.92
4639.79
4715.2
4817.29
4805.51
4898.61
4818.97
4597.66
4497.48
4399.45
4345.71
4492.83
4615.29
4528.18
4804.91
4607.42
4707.32
4980.48
4731.67
4453.6
4503.49
4372.47
4402.13
4479.15
4371.65
4464.76
4523.8
4469.66
4498.9
4328.72
4259.15
4235.56
4034.68
3921.64
3924.34
3756.72
3857.96
4003.99
4057.1
4062.97
4158.63
4373.46
4555.28
4542.86
4458.41
4419.14
4128.52
4172.81
4069.91
4192.79
4027.41
4175.28
3965.82
4062.41
4067.75
4435.48
4688.22
4420.84
4556.64
4361.25
4325.77
4190.73
4097.28
4137.73
4280.51
4412.24
4231.96
4381.59
4224.62
4111.75
4270.49
4137.03
4267.19
4174.61
3997.48
3851.1
3851.83
3803.48
3773.94
4006.53
4303.28
4163.94
4138.57
4119.53
4171.71
3973.39
3725.26
3710.83
3758.61
3836.63
3616.83
3596.71
3594.18
3697.1
3821.72
3836.6
3715.33
3758.66
3893.86
3866.96
3925.47
3745.95
3854.76
3634.45
3724.42
3868.84
3744.21
3849.26
3703.68
3689.44
3772.55
3682.44
3560.95
3673.39
3808.97
4013.14
4184.94
4113.84
4068.92
4125.02
3872.87
3780.98
3856.7
3731.21
3832.09
4041.72
4093.84
3899.14
3900.18
3872.94
3759.67
3664.35
3841.32
3853.32
3773.27
3881.55
3902.5
3944.09
3964.84
3880.93
3787.82
3480.1
3426.75
3183.11
3186.32
2951.12
3063.16
3179.02
3268.03
3120.93
3065.68
3087.87
3104.17
3105.8
3206.56
3196.03
3005.41
3035.64
3043.95
3139.43
3129.1
3263.04
3425.6
3369.11
3395.46
3373.93
3399.4
3368
3310.03
2982.91
3190.84
3373.26
3385.16
3558.57
3569.41
3423.48
3377.93
3397.24
3434.49
3507.64
3685.77
3707.34
3999.2
4003.63
3737.39
3718.13
3783.35
3646.57
3519.34
3516.83
3505.72
3447.75
3548.34
3536.09
3760.52
3892.06
3729.15
3702.97
3566.47
3485.66
3593.4
3789.2
3649.31
3733.51
3731.6
3734.69
3809
3885.92
3877.49
4112.96
3839.23
3790.79
3741.74
3694.68
3440.04
3251.16
3302.69
3481.28
3574.99
3487.73
3183.71
2976.54
3001.1
2972.91
3007.45
3184.23
2959.28
2881.23
2838.14
2796.83
2874.9
2730.72
2784.92
2704.63
2683.67
3001.15
2787.04
2876.45
3026.22
3096.71
3168.67
3208.52
3172.97
2998.27
3062.41
3140.75
3320.23
3453.66
3482.01
3462.23
3524.8
3743.73
3610.78
3806.92
4014.62
4063.34
3956.91
3888.47
3769.84
3700.75
3602.63
3629.61
3716.44
3573.81
3670.04
3627.77
3473.18
3580.46
3521.75
3408.89
3387.29
3343.74
3386.57
3582.37
3630.64
3562.37
3722.59
3788.43
4043.33
3907.84
3762.4
3768.41
3718.56
3786.34
3676.95
3568.63
3421.67
3195.2
3227.18
3016.92
3019.91
3110.28
3033.72
3075.22
3233.62
3606.73
3776.22
3630.14
3509.4
3458.86
3370.68
3541.77
3689.12
3699.15
3670.68
3826.44
4009.12
3951.89
4055.79
4030.4
3933.92
4004.53
3946.91
3964
3866.04
3863.13
3678.42
3727.03
3844.3
3883.05
3864.28
4037.58
3949.61
3894.78
3916.08
3858.44
3418.96
3259.28
3099.38
3286.81
3132.61
3116.98
3074.13
2834.06
2934.12
2961.06
2813.48
2956.66
3017.94
2963.37
2866.89
2972.77
3079.37
3115.79
3150.34
3122.39
3051.71
2985.96
2925.4
2924.1
2950.46
2696.41
2695.8
2614.56
2618.47
2582.54
2333.74
2150.08
2180.3
2379.76
2407.44
2454.41
2550.93
2578.98
2814.91
2739.99
2862.84
2862.89
2946.74
2746.26
2745.29
2920.33
2900.61
2809.48
2757.41
2645.88
2558.11
2538.27
2523.78
2385.79
2229.7
2198.53
2134.79
2122.27
2085.5
2143.61
2030.61
2054.63
1952.18
1931.05
1966.22
2011.94
2025.9
2107.16
2098.77
2147.43
2112.97
2182
2281.64
1988.09
1897.49
1978.1
2142.62
2125.1
1969.88
2026.96
1985.41
1843.72
1720.36
1684.68
1667.04
1539.21
1588.15
1533.03
1632.37
1829.58
1670.48
1749.66
1540.96
1464.87
1531.42
1515.7
1549.42
1611.58
1698.03
1600.1
1602.39
1580.5
1616.51
1636.91
1720.53
1905.83
1881.31
1926.11
1933.75
1856.42
1993.76
1943.83
1899.02
1826.99
1840.06
1816.28
1957.66
1853.17
1893.97
1919.98
1892.85
1817.5
1920.91
2040.28
2087.72
1925.58
1903.83
1863.75
1925.34
1774.77
1787.7
1757.21
1757.03
1753.78
1619.76
1537.26
1396.05
1308.59
1278.74
1257.87
1278.45
1260.2
1369.58
1411.56
1497.67
1278.31
1321.24
1403.78
1374.07
1417.56
1471.82
1452.48
1486.23
1401.1
1376.45
1430.28
1375.93
1406.6
1407.97
1458.69
1366.58
1511.89
1461.35
1461.44
1636.09
1696.78
1683.88
1861.82
1897.53
1730.37
1748.03
1903.6
1681.91
1560.77
1434.74
1339.73
1431.07
1255.62
1212.73
1087.72
993.876
1126.25
1297.19
1246.91
1187.66
1128.89
1069.72
951.904
890.21
781.573
824.22
789.638
875.953
798.026
881.071
834.946
871.239
830.095
800.833
793.935
691.049
748.412
869.929
831.118
684.939
659.393
699.638
676.253
660.946
683.361
788.107
764.551
623.658
644.159
576.09
540.347
629.915
583.242
712.215
627.275
608.51
571.085
560.52
519.924
545.523
636.589
650.08
584.77
591.578
637.859
654.205
562.759
582.387
631.197
638.363
671.913
684.74
649.164
637.952
684.262
769.241
800.586
759
1028.02
976.319
862.503
832.562
832.78
743.144
620.31
543.663
555.253
365.203
246.522
274.683
337.258
203.613
18.807
77.8576
-55.9123
-64.2418
101.531
-50.4304
-15.1983
100.544
61.0073
19.6779
-58.7848
78.8996
-12.3244
52.1238
87.2266
154.72
160.368
205.602
87.8003
31.6275
71.6579
-48.9973
-100.683
-106.78
-88.0824
-280.514
-502.598
-544.301
-449.843
-356.86
-311.45
-438.514
-360.589
-402.291
-381.603
-458.052
-256.181
-264.295
-239.206
-233.482
-345.667
-147.407
-169.926
-93.1886
-69.1364
102.784
42.2163
205.319
117.614
22.8076
87.7187
-12.8187
-181.234
9.30762
43.0074
-41.9902
-79.341
-181.831
6.938
-264.45
-188.681
-252.658
-319.373
-88.4557
90.4904
138.257
83.8227
188.853
219.825
142.181
154.231
204.795
126.925
251.367
261.86
345.677
415.504
331.53
396.052
501.553
416.631
446.22
435.635
442.997
202.437
106.29
99.6594
194.594
122.303
122.027
107.173
75.5622
132.035
107.805
279.985
252.098
243.37
146.192
87.3383
19.1019
-87.0117
-62.597
-239.726
-197.186
-125.27
-161.759
-217.883
-290.925
-299.926
-460.642
-349.356
-400.468
-372.647
-289.354
-273.283
-297.996
-359.011
-482.45
-501.934
-359.187
-346.774
-338.944
-315.553
-289.535
-253.489
-219.871
-133.902
-126.099
-282.528
-316.675
-210.958
-238.259
-136.183
-138.927
-165.705
-160.672
-119.468
-103.998
-183.685
-155.196
-110.169
139.452
231.749
284.579
308.212
323.056
300.653
272.736
265.188
258.378
291.581
264.695
418.086
456.305
505.326
419.228
419.754
467.433
481.988
467.726
487.413
468.519
422.725
364.136
455.484
513.52
491.852
473.455
454.027
380.235
384.95
301.159
229.476
315.507
320.758
325.41
276.035
195.855
265.648
301.09
420.942
366.225
386.409
337.234
255.733
168.005
138.897
157.017
151.668
73.81
85.2207
83.5189
205.407
205.202
170.368
225.443
238.677
144.666
185.06
167.132
176.913
201.939
195.575
217.511
190.077
204.544
271.566
283.907
314.968
291.846
313.76
311.248
365.261
271.982
298.338
345.173
308.032
277.546
282.789
374.583
316.749
460.512
458.055
560.319
498.259
377.347
461.277
526.927
455.987
501.399
498.216
570.255
663.889
666.395
641.619
704.237
796.93
671.812
836.364
832.806
991.613
966.537
914.77
767.947
862.257
866.804
889.657
860.09
875.741
882.905
990.984
1117.55
1114.55
1123.53
1211.55
1243.41
1286.35
1245.7
1294.29
1493.83
1586.42
1725.3
1649.56
1816.57
1890.9
1823.55
1832.56
1828.01
1886.66
1817.72
1914.24
1931.16
2037.53
2101.48
2071.5
2109.03
2227.62
2241.44
2157.35
2251.91
2408.49
2539.75
2472.52
2402.72
2304.7
2137.44
2319.01
2356.77
2264.91
2216.05
2201.04
2251.43
2267.63
2322.31
2140.37
2282.88
2055.7
2182.34
2004.86
1879.81
1809.06
1823.61
1900.41
1853.38
1569.45
1626.13
1694.88
1896.41
1796.18
1875.04
1798.33
1785.57
1531.19
1385.44
1513.76
1506.86
1477.84
1571.61
1481.36
1533.39
1618.13
1611.71
1546.35
1614.9
1615.92
1657.92
1671.36
1691.69
1735.98
1740.95
1769.39
1643.01
1597.08
1557.12
1825.39
1961.22
1893.97
1843.54
1766.21
1757.15
1739.65
1690.66
1756.01
1808.66
1824
1825.16
1695.09
1705.86
1676.67
1666.64
1712.63
1730.36
1826.64
1781.17
1925.54
1691.8
1543.42
1567.11
1542.96
1671.65
1727.34
1753.34
1816.08
1850.46
1700.55
1625.98
1628.87
1712.65
1600.14
1907.13
2048.94
2016.02
2197.18
2353.62
2385.62
2127.07
1901.34
2052.42
2000.28
1936.44
2140.19
2224.28
2295.8
2406.86
2155.96
2292.05
2367.41
2420.69
2239.68
2213.47
2186.28
2042.35
2063.61
2192.52
2332.31
2150.89
1965.99
1851.18
1908.95
2059.77
1972.57
1889.06
1682.48
1471.68
1358.39
1405.39
1319.89
1178.07
1152.75
1121.36
1106.44
1007.94
865.738
749.335
642.335
703.417
712.383
637.718
753.439
716.167
757.13
866.907
857.188
795.014
787.033
740.504
645.241
661.039
784.49
894.434
991.342
930.603
913.717
935.672
851.861
947.566
941.292
916.538
872.459
886.482
966.705
949.15
993.444
1120.41
1090.43
1150.26
1187.41
1061
1004.3
1020.3
1153.71
1122.86
1267.58
1288.93
1392.63
1462.58
1429.43
1448.26
1434.82
1478.43
1421.98
1365.44
1425.42
1510.82
1643.13
1660.14
1598.47
1491.84
1468.5
1421.58
1335.74
1333.48
1327.75
1216.26
1270.25
1336.14
1470.41
1365.58
1188.73
1196.66
1150.03
1132
1145.9
1099.13
1129.41
1135.62
1094.52
1216.56
1294.89
1273.7
1301.48
1331.95
1210.02
1152.96
1139.59
1063.09
1107.93
1025.62
959.758
930.904
901.932
916.421
804.615
882.944
1015.44
1019.66
954.639
984.202
921.553
802.586
759.671
804.419
781.663
724.178
797.364
823.771
792.077
763.504
612.476
570.72
556.047
525.544
612.015
527.021
565.104
530.267
474.765
517.147
444.381
505.487
517.574
497.226
487.137
530.13
470.045
411.558
336.304
365.107
315.637
299.66
257.811
289.984
279.966
86.2864
48.7652
-3.46619
-84.0773
56.1184
64.1129
28.9323
36.6636
128.968
173.901
217.903
285.356
281.724
354.741
360.911
371.258
404.358
337.785
407.929
378.441
325.483
264.987
274.64
302.821
298.13
329.137
341.333
342.341
409.371
394.53
230.62
265.143
286.519
310.619
363.187
329.94
354.508
255.896
183.373
202.779
151.807
185.635
245.765
238.592
179.7
132.429
103.125
120.575
154.409
173.913
223.877
274.228
263.359
243.942
342.486
274.553
296.722
282.254
257.394
222.916
233.451
233.979
207.256
155.105
135.022
97.161
216.816
290.631
330.348
334.399
355.05
381.088
356.088
315.338
273.593
237.773
157.454
108.949
84.9656
225.286
255.206
221.075
162.151
81.5428
186.625
204.962
210.904
141.665
84.2886
139.267
238.954
300.354
108.609
161.8
92.7203
-6.31681
50.8329
69.3431
108.995
193.528
207.536
250.716
191.77
292.336
313.579
329.199
335.525
383.559
339.457
366.003
262.572
265.876
264.887
325.469
306.722
349.24
299.627
278.958
317.343
301.375
356.118
357.66
299.649
291.13
294.381
278.102
196.491
287.168
330.36
374.858
453.443
481.553
443.172
275.243
297.478
423.879
454.252
505.347
434.716
494.87
479.401
473.819
326.228
447.466
434.333
367.422
294.938
255.829
184.848
67.0166
146.38
86.477
127.725
0.599761
40.171
50.3721
41.6315
-0.108745
-60.9767
-61.6074
-66.5188
-103.354
-111.242
-120.576
-113.035
-9.73534
-84.0113
-171.665
-156.507
-123.872
-99.0501
-75.5166
57.2341
-33.9067
36.2601
-59.644
-149.512
-288.456
-407.664
-342.415
-280.155
-292.68
-350.884
-345.364
-231.333
-258.332
-229.216
-186.85
-245.052
-231.748
-259.541
-263.624
-318.56
-385.457
-414.915
-398.483
-494.368
-471.963
-534.872
-517.276
-478.128
-414.554
-457.178
-398.787
-450.655
-460.684
-386.602
-303.664
-271.956
-291.356
-380.112
-434.996
-410.079
-487.793
-462.189
-480.571
-552.808
-463.255
-565.397
-641.296
-642.299
-488.021
-447.885
-364.958
-344.16
-320.222
-237.08
-261.773
-318.775
-212.477
-164.694
-142.278
-153.346
-18.0823
-102.783
-136.06
-73.4656
-10.69
16.631
17.4665
13.7887
-19.2269
-117.377
-127.706
-200.246
-250.393
-272.846
-300.738
-196.076
-254.477
-256.576
-157.3
-149.507
-65.4378
-61.56
-13.4512
-39.197
-56.0962
10.0347
26.9212
75.4574
93.6471
166.127
236.593
209.532
213.832
169.281
289.907
382.596
255.721
184.641
178.483
133.509
204.828
171.334
258.86
314.83
244.224
326.228
360.825
304.944
280.099
260.112
338.021
516.72
522.492
487.638
463.544
460.339
459.863
370.462
439.722
309.001
306.948
216.498
280.664
96.8518
153.878
174.25
116.582
-90.6313
-89.5487
-217.09
-227.202
-341.184
-321.275
-321.771
-255.26
-339.594
-496.102
-570.776
-631.824
-622.542
-645.7
-720.723
-616.628
-730.458
-803.054
-821.539
-739.421
-707.784
-659.072
-741.721
-861.36
-888.676
-811.774
-971.213
-945.068
-937.432
-863.494
-798.805
-832.041
-759.956
-834.822
-942.918
-889.691
-841.683
-826.566
-733.455
-688.627
-731.607
-802.026
-848.942
-794.704
-808.813
-765.723
-865.416
-919.871
-1048.68
-937.355
-1025.63
-982.876
-1006.32
-1069.48
-1007.76
-941.943
-963.205
-935.064
-887.249
-806.182
-907.288
-883.354
-938.019
-946.956
-711.943
-725.312
-792.005
-854.713
-941.175
-822.626
-939.82
-813.368
-803.337
-836.079
-977.351
-927.368
-874.433
-782.94
-797.977
-811.717
-797.423
-725.495
-677.705
-674.045
-785.849
-735.664
-678.542
-568.968
-491.11
-504.58
-448.813
-418.078
-471.438
-434.006
-373.282
-429.699
-517.118
-523.845
-378.958
-412.282
-321.889
-421.677
-443.093
-490.135
-520.146
-488.782
-448.127
-562.45
-594.063
-669.823
-651.431
-652.528
-584.313
-471.513
-530.037
-543.515
-378.882
-397.808
-435.712
-426.649
-323.165
-268.044
-283.375
-156.801
-235.324
-221.298
-200.153
-296.933
-316.606
-436.125
-435.863
-488.935
-588.298
-722.152
-723.771
-739.487
-766.953
-879.443
-858.736
-807.899
-784.011
-559.283
-719.987
-610.07
-729.949
-738.077
-792.028
-666.831
-447.141
-503.827
-461.775
-585.658
-562.709
-518.217
-413.326
-439.481
-435.083
-383.71
-319.299
-212.618
-208.86
-140.117
-190.827
-231.661
-270.355
-347.018
-356.946
-418.505
-479.624
-479.886
-473.502
-595.794
-506.388
-518.313
-604.62
-747.636
-809.802
-824.636
-765.9
-795.802
-594.651
-556.301
-586.536
-659.808
-644.48
-638.718
-736.123
-795.027
-748.736
-790.984
-658.542
-632.795
-693.776
-509.123
-592.656
-619.713
-675.679
-596.596
-550.171
-560.264
-539.883
-463.316
-471.317
-463.931
-442.784
-414.59
-291.893
-279.001
-259.907
-306.227
-308.059
-256.155
-297.473
-195.647
-90.277
-125.587
-57.222
-76.6711
-56.1567
-56.7526
-77.428
-96.318
-60.5325
-71.7588
22.2044
11.128
5.80511
-48.169
-65.2578
-130.348
-93.7418
-105.647
-142.282
-154.078
-218.309
-118.363
-132.128
-155.744
-160.166
-98.3007
-129.01
-179.715
-180.56
-272.326
-242.551
-279.302
-202.483
-226.502
-153.292
-122.061
-126.484
-170.787
-152.237
-155.268
-178.351
-154.884
-101.421
-122.975
-144.261
-86.3761
-76.7712
-11.9279
24.3252
3.15182
-22.5092
-109.681
-136.086
-152.521
-136.887
-183.023
-206.163
-197.715
-220.157
-267.848
-249.761
-356.26
-371.793
-394.847
-398.45
-405.4
-378.076
-387.822
-477.052
-465.023
-499.276
-485.178
-324.679
-293.909
-381.857
-343.855
-301.969
-289.745
-270.95
-303.104
-330.399
-277.599
-319.108
-391.608
-343.315
-254.214
-226.179
-281.578
-258.185
-194.94
-207.631
-231.657
-185.483
-200.625
-208.079
-167.871
-113.618
-133.014
-53.6401
-57.3687
1.77464
-31.3553
-30.5468
-13.4119
-44.5467
-164.463
-163.682
-107.841
-168.36
-143.816
-84.0892
-67.028
-26.9682
-34.5872
-52.7487
-115.742
-104.553
-41.8626
-122.936
-151.452
-206.61
-197.284
-256.992
-278.636
-294.292
-286.056
-244.142
-210.506
-165.62
-87.8565
-41.0359
-61.5057
-94.3826
-58.2278
-27.8037
-33.038
-28.8308
21.0009
28.7295
-8.76642
-37.1405
-34.3581
-63.3209
-39.6069
-54.6318
-51.0196
-75.8661
-73.1581
-103.163
-170.105
-131.147
-107.508
-97.7978
-109.859
-148.461
-49.602
40.4349
-14.1036
33.3701
32.6355
-23.828
-49.5128
-59.7057
-38.034
-64.1163
-113.54
-50.1307
-51.2007
-101.512
-93.6172
-119.086
-221.728
-241.692
-286.223
-296.714
-322.531
-399.911
-312.266
-252.943
-224.93
-328.454
-361.991
-408.518
-477.159
-516.518
-432.434
-330.801
-373.568
-301.49
-302.77
-256.447
-290.468
-269.734
-279.262
-153.276
-135.934
-169.813
-169.893
-134.167
-59.3066
-60.5789
-59.6344
-64.2323
-110.38
-126.427
-171.4
-185.949
-143.334
-125.986
-66.6072
-116.767
-213.099
-234.761
-180.854
-133.967
-129.404
-181.645
-194.395
-161.827
-132.656
-66.0505
15.1223
40.5916
29.1368
91.8268
88.2024
8.64433
-31.8436
-24.9169
-5.59699
25.5472
-21.3155
77.3243
95.5315
148.073
190.911
268.202
201.15
219.672
254.813
257.374
239.144
285.808
328.072
303.394
326.89
369.801
442.576
395.823
370.251
245.197
291.177
300.722
248.587
226.75
262.991
259.812
340.853
347.085
349.347
310.802
314.537
323.207
349.157
401.442
382.928
355.87
344.356
330.237
329.371
334.891
301.935
289.952
339.491
399.095
419.562
404.512
367.6
255.88
252.241
206.053
296.564
271.563
320.294
313.101
330.843
380.585
343.32
383.637
350.561
416.874
388.671
396.263
358.332
282.732
336.077
372.415
334.036
253.425
296.744
351.08
389.873
356.272
372.524
411.695
493.254
518.009
503.073
468.28
424.786
497.153
573.312
553.813
619.976
561.303
663.53
693.863
644.217
568.34
528.776
495.862
471.836
425.107
421.451
321.875
331.358
349.055
399.641
402.311
377.179
405.327
391.149
339.17
366.516
312.144
301
321.478
261.81
254.238
282.656
289.017
320.456
289.703
327.384
312.228
220.833
392.813
372.849
359.845
279.619
338.012
404.519
403.674
466.538
543.411
447.378
504.493
497.733
386.129
501.352
548.108
499.056
497.215
527.13
581.281
507.268
461.829
507.988
486.404
466.453
361.013
330.053
345.745
324.534
307.738
302.32
239.951
276.078
222.633
238.908
247.877
288.749
267.434
260.605
286.98
283.636
296.35
349.859
289.687
281.148
222.37
261.931
252.895
264.221
273.634
271.594
201.031
171.344
201.446
125.372
110.06
112.274
53.5273
-25.0163
-82.6609
-116.484
-182.85
-109.576
-117.513
-166.234
-237.206
-319.538
-277.951
-243.664
-353.944
-401.698
-351.117
-330.296
-256.281
-228.546
-223.431
-261.173
-250.091
-339.818
-240.009
-282.358
-226.337
-220.701
-175.153
-125.593
-176.545
-192.927
-156.607
-162.432
-109.924
-60.7001
-75.275
-140.422
-160.601
-228.537
-255.656
-315.909
-270.285
-343.448
-225.798
-187.961
-187.791
-232.202
-289.235
-260.287
-211.03
-297.895
-339.209
-412.129
-338.688
-305.581
-373.205
-398.722
-497.016
-489.132
-336.382
-332.197
-270.678
-281.082
-282.185
-251.154
-194.327
-137.564
-133.307
-67.5558
57.6692
8.02896
34.3517
17.8921
-1.698
-36.3271
-40.3399
-51.593
3.35331
-12.49
27.3456
46.5206
81.5567
43.1301
9.45171
-25.0868
-104.927
-164.947
-168.635
-97.1291
-59.8684
-71.3366
-54.8416
-143.799
-39.635
32.096
125.026
225.507
204.664
165.355
227.129
200.719
223.368
181.346
157.752
240.828
222.977
276.428
266.213
301.039
304.781
316.89
222.829
117.995
119.25
120.918
104.08
75.4887
95.0252
49.3777
51.9293
30.8283
48.4405
68.3923
111.999
117.825
122.605
78.7207
84.1735
22.4613
39.4504
23.5385
-27.4741
-21.9975
32.1418
-33.4037
-83.0044
-80.2354
-92.1341
-148.816
-232.801
-286.733
-362.953
-415.158
-506.599
-466.611
-512.235
-417.751
-450.204
-433.046
-442.741
-398.552
-409.141
-317.495
-403.496
-356.712
-439.77
-360.743
-389.488
-322.207
-199.139
-215.64
-179.39
-155.593
-161.214
-132.271
102.806
160.349
237.605
208.487
350.199
335.024
317.574
247.776
266.544
104.016
95.6086
-45.0925
8.88905
-223.524
-166.41
-167.018
-278.908
-237.355
-291.399
-334.178
-339.498
-328.943
-226.968
-213.258
-308.037
-200.077
-176.36
-111.553
-129.062
-8.2945
-25.347
-124.946
-183.29
-203.984
-167.848
-202.456
-211.142
-332.757
-343.084
-417.935
-505.169
-560.359
-487.86
-566.577
-623.785
-650.371
-675.382
-685.353
-680.105
-783.674
-782.974
-788.957
-826.75
-859.449
-799.248
-813.735
-842.125
-815.226
-832.815
-800.781
-767.071
-673.105
-588.541
-658.039
-719.415
-720.117
-782.033
-712.615
-598.322
-575.235
-670.718
-672.784
-683.711
-741.279
-619.957
-655.582
-592.1
-493.124
-446.36
-426.953
-415.044
-378.407
-376.986
-489.137
-536.052
-505.1
-542.624
-494.674
-418
-392.832
-386.055
-370.585
-321.837
-419.922
-450.89
-384.623
-371.637
-422.361
-408.583
-421.389
-476.195
-583.401
-571.873
-621.562
-578.643
-596.381
-617.811
-650.703
-572.942
-611.023
-594.495
-671.979
-623.323
-641.902
-637.519
-727.805
-814.279
-833.662
-813.837
-822.812
-873.866
-701.153
-697.311
-674.253
-591.6
-678.453
-748.641
-705.767
-668.704
-510.904
-364.753
-348.657
-337.806
-268.545
-230.774
-288.697
-224.363
-187.92
-202.954
-283.872
-349.752
-449.464
-572.493
-527.91
-522.016
-544.027
-644.548
-613.351
-561.777
-365.03
-388.21
-640.466
-542.843
-538.92
-535.477
-582.11
-652.473
-623.56
-583.5
-459.377
-375.746
-299.251
-163.872
-71.0763
-159.856
-309.465
-411.351
-404.805
-378.689
-295.133
-352.753
-292.159
-338.994
-442.667
-480.814
-566.891
-477.097
-326.827
-394.872
-356.561
-332.621
-272.204
-351.643
-279.273
-221.68
-314.13
-369.068
-137.886
48.0273
10.831
6.85831
96.3913
2.88756
-20.6344
-0.89732
-21.8571
66.7444
214.149
167.254
224.005
258.248
228.239
402.016
557.542
648.989
619.458
613.181
647.142
595.851
453.136
470.909
476.489
460.489
483.531
412.094
433.331
370.777
415.065
332.973
362.788
360.709
371.691
359.769
334.851
186.723
234.235
47.4776
99.912
187.122
66.6281
143.953
52.1815
112.282
-7.69241
-7.8908
-22.532
72.8529
23.0737
144.306
114.582
153.786
64.8161
32.4467
-58.9607
-212.586
-242.146
-273.94
-297.949
-359.644
-349.873
-380.478
-249.81
-232.601
-259.695
-123.942
-106.629
-47.2707
-81.4011
-124.387
27.6444
164.269
56.6786
69.253
72.7764
-17.3078
78.4403
4.38693
-15.551
22.8204
-21.4957
-62.8466
-25.0405
-182.448
-112.274
-228.404
-187.26
-104.823
-89.2592
-70.7694
123.809
119.977
165.444
249.794
401.177
419.884
506.995
443.532
371.173
268.319
273.93
234.032
245.83
310.2
295.807
347.635
433.559
476.59
483.753
481.269
379.896
436.116
427.239
450.045
402.509
347.368
259.554
301.058
352.254
338.564
304.911
189.757
291.366
391.212
407.041
462.122
464.309
560.69
520.422
614.114
642.62
593.609
636.537
756.22
826.888
837.271
798.117
815.108
928.687
852.257
886.403
843.85
905.939
852.693
844.481
669.482
721.356
659.604
597.646
577.44
657.352
610.513
521.652
779.015
783.201
546.096
526.404
567.164
552.432
414.278
473.981
396.622
445.894
503.296
481.567
445.839
428.377
400.201
455.577
380.508
507.404
435.017
620.795
555.08
462.57
474.443
502.246
447.378
621.512
661.776
758.969
640.976
643.891
501.989
669.583
593.892
649.524
656.968
580.746
586.255
655.903
629.021
408.308
453.261
474.698
490.61
374.651
380.028
427.782
407.363
450.371
507.977
505.941
503.477
415.879
357.166
326.843
151.932
157.626
17.4935
235.006
130.95
123.638
292.733
187.852
346.037
392
262.716
364.283
368.713
247.937
248.603
103.489
72.5777
13.8607
-36.9897
-16.3917
71.3391
168.545
178.138
199.521
215.335
271.477
250.062
210.883
372.971
303.228
223.992
273.241
158.779
135.661
133.811
207.673
214.376
199.152
203.961
294.201
246.073
200.097
293.939
263.701
230.394
232.576
202.06
256.448
269.644
369.334
273.096
372.049
510.996
510.26
399.529
399.339
408.18
627.963
697.192
685.757
724.795
672.586
656.964
709.541
686.662
637.45
642.189
635.977
563.871
600.8
442.677
394.291
326.032
512.993
449.128
488.599
527.033
507.674
441.675
294.806
333.659
306.269
237.203
223.717
248.732
287.718
222.978
258.338
254.132
246.698
286.51
353.119
342.966
344.706
393.632
446.115
337.161
220.059
326.079
361.592
185.565
110.964
40.3783
-84.9363
-179.529
-269.249
-261.44
-336.122
-387.136
-471.438
-431.573
-325.776
-193.687
-251.629
-213.794
-159.983
-206.147
-259.712
-265.03
-367.226
-524.847
-652.704
-685.041
-692.692
-846.613
-869.263
-818.437
-825.583
-932.852
-891.739
-982.325
-1084.61
-1055.71
-1027.98
-1052.61
-1126.66
-1009.5
-936.466
-938.355
-915.847
-784.522
-602.091
-850.699
-831.85
-918.574
-1024.8
-1057.72
-1104.73
-1054.41
-1134.36
-1029.49
-876.778
-900.552
-857.051
-807.458
-757.838
-814.17
-734.246
-770.962
-887.35
-964.256
-924.724
-1042.86
-1028.74
-994.414
-894.418
-1122.27
-1148.61
-1005.06
-1016.76
-938.631
-988.232
-1004.97
-932.401
-895.538
-1002.86
-896.79
-860.732
-861.173
-901.863
-957.178
-983.495
-940.926
-849.703
-770.247
-761.931
-635.188
-694.815
-503.672
-514.782
-550.496
-490.166
-515.111
-588.772
-626.885
-519.226
-383.389
-257.461
-343.563
-406.409
-576.704
-608.972
-656.884
-453.111
-533.168
-726.402
-448.362
-453.778
-475.582
-557.047
-574.046
-695.3
-785.264
-766.073
-704.027
-538.125
-440.153
