54691199.12
54409355.33
51586092.93
53955935.21
53140565.8
50531035.88
52185200.47
52385555.22
46286450.57
52594224.17
52858261.45
53621318.64
48328267.56
50734900.81
51823107.75
53299022.09
49777204.96
51161466.3
49118942.98
55648562.68
52752927.35
53400841.87
48940923.71
49095056.97
49803231.38
50785405.34
54057532.9
54259750.03
51321929.74
56040315.09
51827203.37
53138409.71
53422274.88
49291434.67
50746269.67
50061166.0
55946237.84
53569816.58
50649114.55
53788190.03
54763931.47
51141481.97
53483388.14
50230830.26
52740392.74
48940039.74
52408279.89
51610532.69
50633502.44
53379523.96
52731978.36
51175586.08
52350601.23
48750532.79
53099013.89
51704427.78
53010335.87
49420747.55
51725660.56
53764097.018
52738938.91
51748909.73
52129056.82
53157284.08
49748307.7
52361384.97
49817403.11
51621955.11
51201425.37
53312448.1
57420499.18
49381579.9
51923156.9
53840195.42
52481918.54
52444383.75
51915188.03
51674663.93
52778756.89
55701084.4
50598713.79
51680294.08
53747697.29
52130357.94
47641631.44
54893577.12
49546174.35
52897507.97
50232151.41
54160738.37
51141411.84
51176812.54
53498977.97
50479332.42
56023205.52
52523316.83
53138140.7
51049218.06
50931307.73
49384637.24
51464427.8
51263556.14
55574767.82
51039829.75
50654507.49
53228878.64
48226562.12
52763220.47
51695653.64
50560116.4
51790422.89
51431877.36
51097773.78
51772372.87
49945680.01
51881611.21
55837956.2
55438857.88
49838799.29
51500793.52
52794310.73
51066541.06
50207504.59
48267031.52
55771968.56
55749714.97
52526934.92
54941317.26
55631652.73
49471024.03
