45942622.79
45166320.94
42355320.92
44608754.21
44142875.44
42762351.98
42936351.36
43408145.23
38769569.46
42993020.18
44074019.08
45011236.45
40092088.79
42919349.48
43987967.33
44038191.28
41387594.85
41930430.67
41819749.13
45878342.67
45173941.66
43130923.58
41482570.32
41691891.57
42497740.9
42758833.15
45230901.52
44657398.55
43866634.36
45707091.39
43950682.77
44024716.46
44545825.25
42069850.23
44535552.52
42553724.78
45740268.76
44649892.37
42536544.1
44283930.24
44836154.45
42016720.7
44676184.17
43903202.3
44147219.67
41758075.27
44980597.3
44003112.75
42837285.92
44119207.37
45185817.33
42615168.6
43841890.93
42327651.1
43968106.88
42895083.29
45806138.18
41239259.0
42977498.56
45175264.16
44618403.8
43711333.1
44049468.93
45476399.96
41927770.13
43526018.85
41666242.18
43473297.13
43622256.3
44746281.09
47259528.6
41831691.77
43602217.57
45921153.3
43403270.48
44190547.82
44611843.48
43597333.04
43322599.79
46099080.79
42862256.42
42712571.32
44580009.21
44418010.53
41099402.84
45525003.35
40725980.12
44173330.53
42441784.42
44942364.79
44199966.73
43500385.6
44369384.99
42761411.65
44965597.86
44830857.36
44628147.15
43500132.97
43739342.37
41436146.87
44202652.11
42582211.73
45577696.1
43302164.94
41742495.75
43733429.27
40818103.52
44173280.03
43495303.1
43063115.67
44572656.24
43539425.4
42795135.47
44069755.91
40861233.12
44012607.01
46134516.3
44763957.03
42880324.38
43520630.42
44085585.98
42775893.44
42145768.61
42030596.61
45862167.53
46183300.13
44089876.76
45042968.49
45813056.15
41825520.01
