533856.05522
-1446260.1824
2362824.2042
1480498.8112
-3413431.4848
4346345.11796
-1865193.2168
-114185.1208
-1047491.8224
2908611.51
-549314.991
3735429.102
-1101579.866
188659.4438
3555445.03152
1214540.42946
4733884.50254
-433174.5314
2291426.5118
3355781.659
3238097.36
1248873.974
1860427.71374
-2983441.2732
2867257.678
486713.5712
-410737.9218
2988367.324
-2245616.865
6446647.955
-42247.723
1248610.104
-1276919.42624
3840259.2268
518720.7676
1509773.9516
2207336.55948
-267639.95
-32519.34
-1341560.99182
-553990.0426
-3447368.9604
2587716.6666
1102879.9058
2362436.7752
3528004.1524
-598515.73699
3066786.872
-1545357.28596
1564816.586
-2624697.1744
-302448.5728
-630576.778
1079305.2966
458071.844352
-2446732.6652
3243735.1024
6471658.2858
2064552.968
-3830586.57486
646346.632
1917841.3974
-775826.74662
30825.3562
2803213.1154
1181575.61684
1735073.6204
2108085.796
3908653.76322
1875598.3542
-903631.406
1338763.27046
1311212.356
-1970010.5232
-1484013.6938
-23206.8936
2944.14286
-979838.132
436154.263
1282218.179
985749.994
4599355.8814
63555.9776
1267147.4016
-1173655.4482
818748.85534
-1089660.4562
879425.27676
1291224.662
-1842113.3934
-1014851.26276
216400.378
882178.1814
-2912956.9328
1434886.6158
-2025909.45434
1995940.82514
-2630803.0174
-1003194.4908
-780788.0306
1288673.88
2637589.9796
-1791970.5822
705310.9884
3388650.443
1334520.7632
3447373.486
3159062.6596
1288962.8407
1147045.3336
2572172.03
-2427844.39934
-807409.4982
2414499.9586
1727335.328
-393888.7164
-2107453.187
-3595609.6208
-3474778.41454
2751715.8514
700040.1042
2563597.79484
4428706.67896
3345511.463
-1581612.374
595781.50864
-728776.97858
-1688226.9706
34648.428
-1604931.5502
646438.2438
2082839.2018
3258907.8654
-558004.40828
3622776.801
2105327.5168
1197378.31464
-359923.6162
1304835.3362
3350936.14
-1872157.2178
2807280.3708
3506165.4488
4848640.8812
-3662940.5822
-636168.49544
2401027.7406
3990686.2818
-729579.78662
2523222.06798
945179.4336
2532000.0198
-1721350.076
3773833.1586
-1208244.1004
-23665.6212
1111876.1658
-573592.284
-4428733.9712
36512.58856
1909277.7818
4476977.9854
475338.46
-460682.3292
1337560.5688
3613792.4906
-1338436.51
2270326.2978
2088343.346
5558548.942
627499.737
-2027688.6544
385716.8758
-733564.2754
1228516.6864
222023.7878
1318392.39894
4082976.6424
-149376.5754
1776200.7462
-1824282.028
1597451.3882
-75296.87568
447143.885
7073962.3892
915239.812
1442812.28634
3444335.70635
3984898.88348
-1115142.626
-316008.10336
-840972.0338
-743462.80694
679274.9178
3833233.4798
2566017.9574
9286.6892
2730145.7716
-3738337.3518
1561504.6574
3147947.1558
-836521.880216
385420.53708
-5596799.69444
2209931.9492
-2158322.3962
1256468.04346
2806508.4198
-3715089.0236
842182.20522
4535129.145
2215129.8968
2110167.859
573698.497
-176490.0878
-1477377.956
5949139.5804
-907645.5232
-1325720.7868
2023838.2018
-2581431.95269
3021411.304
229469.292
-1482202.4468
4623353.8128
-499874.3418
5970413.6724
-627876.1464
-2968426.5224
-930580.515
818810.0728
-3681220.57782
827541.91156
124114.31734
2505987.2828
593027.549
4515982.414
3519349.18824
-2020988.50058
4090897.15366
-1125752.8168
2346185.9244
2464688.294
664140.7202
-1081211.542
3873283.3424
357327.5962
392131.91702
4145211.5106
185730.76492
918613.0142
2902625.7994
-2244427.6856
-354823.6902
-2149130.6682
1714018.6742
613946.145
178321.5892
-1633041.3934
-2154136.5648
216550.4942
820858.7914
1340988.0566
-3325113.82
2911551.734
2061630.5189
-3354321.09054
2046975.8374
2806155.9084
2152587.3564
-384038.192
271642.3684
3528144.1626
112512.1846
1252642.7938
-3086980.9728
1860177.0862
-2644421.356
3031527.87
1981694.166
311506.7762
252442.9018
-1554726.8662
-4082554.8444
510217.6496
-470898.07056
1008096.8036
-572566.5662
3636874.475
3888752.5638
-2597978.778
-1750068.9722
-1270827.7588
-193044.9894
1260050.16898
3209351.8334
-72667.386
381849.7146
3189570.68813
-3340571.527
3687249.9386
-571354.3294
-3457177.6712
-862308.874
3600027.0964
2212221.92072
2834420.1366
2133169.4916
-335257.8452
3323894.5028
3509402.6458
169649.7076
3098767.48376
2550850.9858
5203998.1584
4058105.88669
2801460.728
-276438.69316
4608969.2214
3945629.8964
136062.0212
-2319606.4185
1723540.293
733022.2514
-497705.8894
1366243.6786
991262.3514
4341961.16116
3161614.3644
-1476536.682
1921224.4804
415079.10148
668267.6128
3705849.62
1045403.76
2809923.943
4906577.7598
1475092.5682
-126525.0654
-1225211.62168
-1898660.8282
2787201.1616
591101.648
1739269.0868
194350.22268
852802.628
1605727.5696
-1441138.0388
1313768.3142
-2501651.8474
2770773.0344
-3778654.63904
-1830888.2098
1711969.5884
2134795.0328
4157584.89194
649501.1202
4935500.6638
2067803.7032
-758995.6012
1315648.9846
-2263930.7424
1210402.153
978067.6344
-5244203.3314
490205.958
-4275907.5384
618261.118
947847.8016
1259812.3092
1233862.48272
1222376.7628
4524229.028
855443.627
2528219.1476
702670.8258
3294853.576
2524201.1842
4586678.5302
-4813021.4702
-2866065.71816
-621724.3696
2624225.51336
1045480.9722
2524437.052
2564826.7
-1229101.745
816340.3732
887745.3022
-603140.6546
-1538122.0006
207639.534
2798149.8742
-822562.752
7069901.2252
1774015.0478
128883.69936
219608.516
6733190.4776
3108428.4072
-75736.9758
-501058.9024
-2114744.67408
4609725.8454
6007163.2412
-1591862.96898
5358096.5994
3459128.22824
3731978.344
803080.079
6015689.004
-2231998.8956
-1376875.35166
1169735.2774
-1238392.4648
2400235.0753
4774028.4112
4872349.112
-1315462.40934
2222773.83
285895.4494
1235486.6658
2168504.3772
2836921.7602
-640328.2222
2935653.81078
5810238.4406
-872527.0926
-1172064.7918
842890.4188
2046629.6342
-85112.5776
780454.2562
1220810.0394
-494795.925
-991165.3142
3596887.8768
813239.35226
2527080.0702
-2534664.39386
4719162.7127
4686823.7775
-205353.0054
1052223.839
3783516.733
2950376.91402
705517.57354
2565465.8672
2750786.4794
42900.5282
-1154226.2652
1893764.5186
1588225.816
4035905.95
-670255.36484
610972.839
282437.1366
6045943.676
2861029.3384
737681.0822
3677205.99492
2414289.69438
2710010.3148
1912426.0378
4041662.837
1686971.5842
-310311.75
-1883762.23098
2468244.249
4189584.7378
-178489.96684
-2212197.2688
-897191.4216
2706850.7694
-1666610.9444
1634996.3566
-1841852.685
4314054.648
854464.191204
2896656.897
-3374859.726
-3408923.6162
-866836.13372
3220325.294
1366591.4472
834817.628
1118251.668
6749625.18824
1626910.18246
4133194.8096
-1225081.419
1109699.1536
4.768
2222773.8118
3234941.3686
4218858.1122
25348.2766
1974038.6068
2024321.8376
-3168347.66434
-4175128.662
527983.90182
3557357.6948
3679344.6706
680239.1456
2455412.986
-1420310.1026
-1516508.8456
893008.442
3600132.1658
230516.2406
-1161557.9482
-1134125.6434
-866525.342
468876.636
1918154.53612
284551.3196
1635190.0852
1147432.1562
-2302761.55292
-1554297.5202
-1353403.4616
3466314.162
726939.1322
4246821.37426
606937.4184
-1801977.3188
13175.5416
1060710.0914
-286790.0332
1302177.2148
-1080973.8686
2477575.3466
3487853.44474
-318023.34288
-5180387.4602
-900407.7822
106087.3768
5135070.71
-2502965.0074
-3510219.754
3812088.986
1754388.75
1196659.8778
2272933.7494
4922894.7626
-903238.545256
669544.0912
3794980.5404
-1664098.3814
3431785.4286
-3213994.3104
-919165.8946
271257.7818
5773257.605
-1912311.048
-23402.622
631751.215
2286841.8988
1134192.8856
4148430.1002
3791155.5598
2080213.02152
4308839.964
-936777.58
-10803.3776
-27780.9756
3253023.496
2674061.4961
2623161.4484
702070.10892
230655.4786
1169132.3842
464541.657
4145844.7244
-1345223.87
-142414.75552
4744691.3934
2409876.321
-3632083.11408
-2520626.9398
2287277.7484
250607.9734
-1188200.9424
-2379196.8328
-1607139.7862
-1283481.47976
1378356.43766
-1386177.7042
-792076.9563
2549679.08946
-718516.8556
-437899.311
-640789.391
6809343.79878
1324953.9278
-1493475.5578
1243908.8162
823205.5536
3142533.8764
-1025323.7296
3225621.969
6354810.9684
-1291822.271
858272.064
2050085.58396
854514.526
2310004.15
-1806894.6686
1153643.2323
3569873.946
2012839.8472
887411.2918
2202758.314
-693882.4892
792739.8882
1685788.0791
2751448.8526
-1087375.6676
2578888.224
665804.4812
2590897.63982
-1863142.3436
-983642.2628
-1939224.5488
368566.587156
711838.8342
807944.049
-997360.575
-1007892.9428
4866177.6104
-1927481.5192
85729.2284
1310377.7872
769482.229
-883595.606
-2862602.1136
3280435.51554
-720494.93356
-1422501.509
