5795061.9574
4550837.502
3627278.96834
4613974.2646
1758576.256
6610402.1414
3688089.2786
3154174.037
773462.85718
7961930.8546
3647463.5032
6710949.9856
4494051.78276
5388961.0546
6926464.063
4637517.4094
6605660.18422
6122547.548
1452210.443
5525884.246
4898427.60546
6743377.3554
4700684.096
7080343.4512
5098202.5866
7026432.685
6251532.039
7696596.31638
1735465.9728
10160928.7784
3969826.84542
6820311.4806
4815416.02
8197614.9062
5740833.061
182551.15522
6530862.152
3447179.9356
-432580.03966
1612674.68474
4372969.7886
3446510.5648
6254000.9242
3930186.1988
6840396.95847
3773062.2016
5466227.47286
7956641.8432
3154369.3748
4954107.0432
2276520.664
2129794.25586
2526925.45
5822407.7646
7539246.899
5250592.3151
9054857.43
8724476.154
8607388.28558
1968530.3996
2755423.852
4799176.2952
3386068.1784
443379.904
3538994.5704
2280806.05504
4786459.4158
2659413.2262
5256154.8079
8862722.1696
6791978.08244
3680887.9076
4802617.4432
4268636.39
1153390.56
1546585.849
8125386.5604
5877895.5238
2835515.7546
5746552.047
5680972.58957
4970320.8028
3692501.9712
4543550.4292
4974953.2166
4122477.4598
2564355.0264
1592590.9572
3951492.4254
2925548.84
390953.50152
5011002.3266
7857981.49604
3117368.083
1379682.78294
2943839.044
5651714.116
3039571.11694
2746213.2836
3409831.601
4027295.774
6127207.6162
6167022.382
8157758.853
6698067.5318
1247511.26536
4619246.4234
8961028.5218
4325919.78338
5080818.4428
1486681.8546
5579349.9236
4036686.9686
8322277.1283
4365741.5504
4164574.5682
4652393.929
3854370.7216
3361951.058
5262698.1276
10586456.9542
8685577.068
6369186.6746
5882276.47
6492505.0876
3194722.708
5548705.80268
5218702.15824
3423057.3282
1987731.71
4365396.6052
8470822.8534
6049725.728
7132663.5136
5335413.9738
4896363.572
2635768.4602
2707488.251
5147409.0206
6598324.6312
6211290.2906
5486376.369
4851785.79
7137714.16304
1148046.505
5449524.2716
7496836.478
5208719.0792
4418036.1946
2646355.27406
-1016411.2029
3451661.6762
3668002.9414
4643718.283
3729093.2472
2832485.6638
4636204.7912
3328819.60168
3533516.088
6036681.388
2361441.674
6879019.9114
3604866.48874
6234829.6252
7999069.3968
2757042.3536
3468163.3064
2841350.92062
6038882.84918
6434488.019
-179114.43562
3110989.8646
8320259.606
6607853.738
2553151.1883
2095361.5708
5120561.85474
8004890.782
6471174.6532
7505896.6833
2671512.563
4871998.5808
2198651.9718
4390181.58524
9878963.4162
2829188.0076
2950917.26
4249511.9164
6500497.5522
4238698.7428
3406567.3728
5199597.1248
5491313.0642
4958197.8236
3556405.0296
6488347.2162
3019422.3524
7729931.316
3967157.9652
7137524.131
7147214.2072
4509820.0622
5935100.559
352151.2698
5424530.0674
6418215.4564
2605909.9728
9348856.101
8537889.8412
3731088.88294
5500807.6606
2091624.0834
8344110.3548
-974648.3082
4401076.1788
2498880.4138
9413962.4258
6885620.5716
7134927.6456
4727819.882
808229.7786
6565922.4428
3891405.9242
4662681.9642
3342286.3234
5633710.2802
5081869.358
2498562.973
1857139.5294
2089228.12
9499590.8143
986177.7606
5098882.9346
6835158.33036
7254973.8458
3484524.8028
6742310.5232
4585776.3176
2088668.31495
7090303.9066
2134804.2802
2068120.1298
4817815.4004
6547518.5858
5321545.522
3270544.163
5278526.1084
6004196.2802
6724387.5222
3181481.1144
7819981.9014
4859802.5284
4156547.1256
4095825.9412
2554777.936
6009851.028
2763981.389
7591279.24694
8467250.662
5075430.9832
5315465.5066
6038794.3744
2051531.101
5161824.4078
5239401.876
5499848.88164
2440776.91917
5533749.12894
9013903.1184
5055811.3326
3431147.4396
4385958.75
3457659.5724
7876755.05152
6871697.7378
1321797.0056
4713370.1172
5627595.3446
3673874.91
7427080.9486
6625361.44
2497878.6256
3852140.2426
2197204.4995
2109373.2738
2355146.9326
1516395.635
1877077.5128
3950196.46568
1667976.66
5476646.944
2211392.73205
3371973.6484
2677792.764
4462663.5984
7730407.736
3788650.8782
4695425.12001
3913514.45326
4512270.3808
5020372.8236
6159930.0318
2472220.7248
1849887.22104
4791356.73404
4243824.0098
6386314.0126
5076796.2374
6308496.6962
3523585.173
5564502.47504
6178875.7988
4255837.0121
8669217.3964
5141009.774
5073129.4736
5319882.002
6101627.1768
7043538.84
9085670.6332
1516465.8026
3752583.1204
3204455.8536
6317597.8468
2627104.68838
4235115.50174
4039154.5288
5530573.4116
8804967.94612
2372612.5902
6783046.1558
6999205.92748
4829339.6098
4755911.773
4355129.7438
6262139.09008
10125190.1868
3652051.2941
2523301.1836
4772049.7622
7478655.52316
5026469.383
8103878.8438
4920918.4644
2976902.3864
1684416.0512
9104502.1984
3785304.4936
5935914.1258
4807510.5762
8092841.9422
2242079.2756
3905665.138
2786631.01804
3255030.6928
6569120.2818
3528497.35084
5810224.0536
5988265.388
3356376.7948
5314008.37214
3596503.97196
5492289.80766
2732915.7096
1545118.6368
2264082.4972
5108365.922
2958882.53368
2819753.376
6622257.4094
7723439.091
2383602.2454
3804640.6682
1403885.1286
5986519.1454
6622303.5558
11493244.7535
6096617.8122
9651788.8548
4582665.824
2809339.628
3689360.9428
6925263.99848
1495985.22938
4112034.2698
6266282.782
3620328.1242
5001439.1126
5702929.9968
2039068.7514
3437498.86
-681377.3358
8956513.9322
2448145.2758
7545228.49472
6790964.7793
8870121.56
4441445.264
8017132.5868
6986354.734
6431330.432
4548070.88
2453422.6916
6682972.69
8235733.21745
3627746.932
10196901.7644
9657601.6624
5744351.4688
5956856.976
7546456.014
6813327.786
3705001.5266
4721875.964
2862683.301
4544721.0372
6444584.542
8350723.4224
4652984.47686
8011470.7568
2886565.258
3376123.206
5470243.8988
9319815.1356
7078601.898
6563820.6346
6140008.2264
2795330.75776
4737785.0653
4789321.202
2759085.7336
5579376.671
8527869.19512
4654936.62908
4930126.70424
2656640.1854
5477702.40897
4072135.514
5622993.95448
3894651.2398
9357477.5364
3330635.738
5177183.375
8499846.8254
7522170.6162
4105692.3318
198248.1812
3806908.41324
8165907.962
3759740.1818
7441393.06324
2004210.254
9036058.4938
10124330.3672
5250673.2114
5051580.5186
6567806.5512
8462455.824
3664850.83972
2215896.122
5908053.9034
5837728.739
4356935.211
5850399.0174
6539771.6878
2841613.8308
6561465.75
1917005.2234
5464411.782
3065374.9196
5798792.904
3249090.412
2516241.9474
5626896.369
5099438.169
5735681.60546
636623.1848
7814453.6044
3292418.992
5366029.2872
3093726.15008
4814239.4298
4800205.901
5787132.4792
6616095.5751
1780335.5924
6750014.328
9346653.176
5593035.6312
6950831.58699
4430512.5378
1276399.9498
4156577.5154
5929135.23024
6062826.7252
5745453.27446
2180806.9452
6280516.6302
6347320.18682
2347352.3202
1072730.26024
7831920.9196
3921929.23526
6447282.1798
6358601.47
3952538.75966
1779.335294
4025170.6812
4777601.2794
6654287.7442
7013902.2506
2834100.6816
3979098.3148
3867345.9456
5160458.5792
4204050.3638
3279403.0438
-597902.8412
5953387.5846
6169230.8852
5174325.9942
3658948.767
6683034.175
2833813.7634
5835619.1954
6300284.7162
4238232.428
3117055.2806
4956816.424
5007630.3164
7422870.4092
3144512.318
5420657.966
5352364.076
4556331.7124
4358620.9956
8252667.76
5085287.68588
8329542.1616
2206665.92987
4132290.898
6383718.1048
6317276.3596
1216911.9996
7519581.0942
3234537.902
2491178.7046
5873292.9406
4388565.535
2869356.028
5325518.3996
1759996.663
6285511.02184
6378079.0736
7482254.21406
4747095.077
5683051.913
5793199.4718
6377242.72422
7538128.9876
8777568.7774
5464070.8088
7053232.8378
3708312.8764
1185767.386
6570066.4408
7909760.0155
5079397.9532
4912199.19
7294913.5262
5664567.2118
2263788.5816
5589535.5044
6378205.0514
2395386.7104
4206043.0112
5191701.9882
7757771.9594
4027024.098
3973032.65456
2479483.7744
7173402.50862
4197743.4402
3517281.9416
3284283.98541
3129522.0818
4407618.66126
3016019.5398
2936706.2518
5902921.2916
8254186.172
4256996.4288
6992026.0408
2542764.487
4713264.0
6380584.5076
4121173.114
2389646.99156
5345388.2622
3343022.5074
4648298.3398
1522590.96
8713532.408
3138893.582
4377689.6714
4211360.9799
5207931.4188
6590395.25559
5845965.6818
6763075.285
6731592.1718
4459432.65972
4251475.889
5843478.5176
3876261.01232
2884062.48
4890041.6906
3512154.0696
1864198.41434
2207191.29
3192082.362
2265987.7112
3531314.9344
2496350.50841
2814756.1278
2276982.6988
4003132.5386
8256289.8588
2106672.92714
7135967.2048
9325811.6392
2473627.7074
3769700.406
8370523.66197
3117088.60872
5273122.2032
1975835.054
7028236.868
2995778.428
2862966.7516
