946.818600283
795.29725686
690.695926732
1061.44468992
755.96059007
793.449560886
724.273316102
712.393717112
1257.38861796
885.34603512
952.77858254
813.70994937
1010.09940127
1171.77601617
1109.44749961
1242.44387789
1136.3646988
1073.81480883
1192.2156981
973.378199761
844.41259427
910.319326648
965.586041426
887.57436379
1030.56405114
797.98632433
899.82699039
781.75937351
666.59928681
907.298981359
948.1204287
773.966753257
944.98142011
1098.93357743
986.25808368
1133.75306196
659.59652488
826.148773201
933.843908783
1016.04167797
994.21881601
789.229902677
765.556929391
1160.4819028
1203.22797978
1057.07863999
983.500034942
967.72812674
960.783616587
966.69183516
866.426169767
1004.10792181
892.47869227
954.2933772
1183.89497047
928.68083432
967.621584636
733.222283939
737.21883357
853.20256376
1199.09294152
980.020742723
799.780024549
768.85903315
567.11375055
915.72789898
797.43230727
967.999566322
1070.87808091
1063.35026219
1104.52211025
821.42032331
763.594756128
854.311968076
917.83209023
904.529439185
1058.69104167
903.607067592
1320.66307209
1150.91862898
923.8787026
870.630554057
1005.92580608
828.02569707
930.334847499
855.7925026
876.979666725
1177.32603331
977.05275162
1022.54149438
810.205282331
676.133193653
718.70657591
1010.96556185
821.53285322
867.169485967
1142.18002482
1300.8300402
1333.39450131
990.375258221
884.955934788
749.171291137
841.76412141
763.51116818
955.94499178
1162.53094887
899.08144597
817.299183306
965.252657468
1063.57032106
940.255647878
856.471293688
706.628170396
1180.1572789
964.836594243
788.737396417
736.760970327
766.616446386
807.11102717
835.87569448
968.999986106
698.1039171
874.318088531
761.4900425
1157.2577614
921.998990892
1070.62438136
951.270135678
696.601496515
1157.94903415
809.657787564
812.68121323
918.56412056
683.06734146
885.68631425
1080.28711041
886.758103768
936.536577998
954.128025976
1008.03610537
988.572028376
683.77219432
938.314820012
864.837229008
930.76880478
1135.4818435
943.224691857
919.2244487
807.222437632
824.834895154
986.880439106
1038.64952437
1135.51183928
788.794337851
768.4343454
888.559378651
1016.4665972
955.01404667
888.383861168
721.824591336
836.619549729
972.142654454
887.38141143
928.76236083
731.627503856
766.942608046
1119.05723847
1052.54655135
1015.85566204
706.75545863
1051.09757939
1051.46130485
914.40302929
975.8954953
944.903748422
855.8605059
1096.11791001
1043.45599119
946.167745753
961.08276447
926.872253
849.814091137
915.622023925
879.967041497
897.221090518
983.94681723
1114.39309833
813.830685972
879.05393762
996.267298243
1033.73189525
824.300535628
932.594530652
719.053297799
988.515521783
1035.35403631
994.0399158
910.4793551
819.959002397
1164.45502511
781.075621
574.766919609
1162.0427908
906.27426345
1170.81817929
682.717449856
737.649852132
879.29637865
994.941237314
713.744785183
919.11560857
691.68146161
709.62553176
730.448600717
1003.88386533
1085.95321674
970.743877656
1017.27862162
956.557465744
970.780585097
1029.28471566
882.50225095
822.7900178
729.781379335
1062.77136263
973.156239737
939.630187247
807.96856394
852.481766729
869.46186596
1277.31573781
813.602041039
964.9341193
742.615208592
1142.4120899
1051.85543888
1027.13937216
985.2307391
802.811639945
1038.75186395
736.82443153
926.778072246
722.237911872
873.093187
651.718887051
907.52427266
1106.29413198
814.772567629
1009.44166228
852.7814506
764.801196908
1063.67737458
930.207928
901.7855506
1018.666367
767.735178388
762.881212889
741.224444318
921.086625098
722.700094837
1084.67786446
803.6559196
952.023524509
1057.30428879
807.240228174
1091.45606667
893.897801393
914.810109484
927.954425017
901.792657555
751.9016512
822.717894009
1050.64119886
879.359081204
895.33650426
843.166444278
938.898492504
748.218176514
892.058804108
1018.19338114
915.223927251
913.17648758
775.0418855
775.968077441
922.346924524
703.20442083
685.550416264
831.81167681
1037.26140083
914.087691646
988.359629848
890.365821133
1217.99652235
967.874775997
1136.92754185
931.43881929
927.902547074
760.546601651
977.62886051
776.740040174
756.06546451
711.22310769
956.08930554
956.925967349
900.132675901
1118.17751126
891.264761626
1086.4937709
948.64463931
966.049854616
848.772310893
1007.76563581
866.79034935
802.948603296
759.04852311
1332.06505953
901.798843012
1066.69554589
1075.6000994
953.831179
975.788275177
855.718126991
835.829596467
858.975203033
811.135315318
719.22886414
858.665093134
1031.687218
750.587528118
853.931626923
746.9986689
1031.37113455
883.75284988
907.896625024
921.8399095
860.32814462
844.15488093
820.90090741
812.539069857
977.862376037
913.413401561
897.162871588
862.5650726
1078.5789206
1071.22189628
1011.99439729
806.77570758
1009.58943975
814.614176963
805.529842284
863.666607528
885.8605294
890.02827203
835.220494166
890.65117042
866.757926741
1147.49986633
845.659834566
945.40523874
880.06616357
890.800952273
869.277593004
1102.29325277
1037.78184535
841.497676785
941.7217821
917.428869662
801.5901803
961.74387317
857.216503996
1100.98843336
902.000978699
1114.44083037
1018.70833034
887.064856605
930.24105934
733.912844579
881.56852999
847.687216699
1207.11877557
1013.05026356
857.322724664
894.305380078
968.3236957
740.280977652
1137.45648409
947.96564112
844.87479593
985.0868577
824.434633057
737.382870607
1176.63488847
1141.7527489
776.329630668
940.76933538
936.880965567
838.62864105
992.3954368
855.029218908
973.1778294
937.686652266
799.778968733
853.66668557
1041.67813366
975.485003137
972.4781859
727.316673422
1143.02126852
1180.14691001
1038.16472545
1103.90422572
858.730436313
1178.1509532
735.362394582
683.715220761
753.614602549
922.625414679
1161.8594243
995.537108426
699.1700621
983.624247583
813.48409051
979.0511573
733.577479381
777.361620102
901.109858527
673.46618978
939.528234577
797.8986904
741.228928546
801.69904914
868.646506711
852.348283955
726.03984724
853.737117839
773.798896704
806.764017656
1247.6743942
941.5255957
954.29375631
739.051268983
1226.7771701
1226.4505898
883.74159229
1178.03257439
865.0238471
952.61432203
939.599411931
611.387474347
1084.9089314
804.555396017
1014.2277581
873.463316323
919.96813769
729.30935763
1174.40407686
838.044855147
1004.3329323
917.803986179
854.15491909
753.022106116
991.898487885
1069.92964096
976.56217391
1032.70612947
1155.70075104
711.86261114
800.7742716
1080.983527
971.366814951
840.53875918
1120.54322328
1054.41797661
892.479726589
984.274761198
1060.25616498
927.5986954
1114.9471877
914.683258022
811.58127458
882.537804792
828.94613091
668.9170449
855.727370287
1041.48115188
675.438937116
919.17792944
891.18118494
1065.92527493
1024.10512878
862.04155325
959.313106635
801.603152112
941.9569477
1162.15266064
853.079979791
845.414564711
925.692240696
825.7555499
1068.6711367
1091.93535017
1047.80507282
832.824286395
1005.76483881
829.25601813
767.351712971
933.496612269
1011.28874612
844.12825101
888.020916993
704.133156928
1045.98435524
1144.04359342
1080.68814556
1081.24626193
989.02080437
893.88907153
839.750660741
717.78883776
1011.13552699
772.1456364
791.7945946
1016.44194294
1305.76359751
900.16732612
1189.99985107
813.846173152
1091.84883836
940.39291605
1083.3292778
790.09005804
828.397503054
1139.90844566
1010.3919256
946.453346233
1114.68980399
847.818411372
774.91004068
636.51296422
949.74126872
1056.49090794
972.432695041
961.4902823
1005.30827703
922.867869841
1288.659728
1006.42789577
810.995817028
805.965812805
935.885227901
957.18332504
1116.55811543
919.48758005
912.52322526
797.337021807
1025.70122288
1020.19510199
922.298035706
994.421470168
1132.8859242
966.916569196
562.176567009
1024.72335193
787.006485004
941.93482269
935.3299921
936.380067901
1294.20209338
972.750616195
853.9310196
766.868011757
895.9429633
989.547577824
840.133398982
883.230312257
917.407446
902.947588348
1329.31563295
1016.77276714
1158.18779065
908.83184164
1007.42912889
1088.97392126
887.428854965
967.54152881
905.513537715
813.98635842
829.8029398
1429.0061992
943.044524106
1083.97872957
1127.13699779
1149.9908981
1129.89730985
780.972176186
921.21318175
841.38219984
1023.64496317
921.602638737
945.89891235
1020.9599337
905.336402743
1004.45901801
783.722145527
1107.78598227
1084.67121922
1117.40240712
936.169896412
792.952246917
816.17259639
703.264482791
1038.65768149
769.442871319
977.21652757
1020.54714128
973.253433055
992.79045145
961.754369245
810.305315931
887.81632369
856.89026822
1024.28498297
667.771855942
854.853781671
827.22084944
1052.20055307
798.20271187
867.585847919
1132.57020793
836.4995634
815.511282215
853.566118037
816.157189771
832.12394014
961.76302419
929.0023824
867.07888121
717.5925515
870.637849137
764.27648751
801.991592461
854.90173025
732.05120632
827.93277466
829.0169258
795.7501863
790.090121859
1198.12105694
999.57019797
941.27915578
846.869583038
641.753180432
1043.09368051
1118.39689748
1168.55074992
1012.30587222
1328.3537007
1000.3311567
707.910926882
939.72215049
999.458290328
955.5984871
750.103983483
939.9165581
846.89547295
917.764596577
696.238129623
874.397311405
833.3792206
964.404031633
767.334436986
753.687589615
806.670079914
745.717163225
1042.81966598
864.944067627
606.23313568
782.11446705
1018.5211335
746.6836875
743.97636941
845.436976354
1043.81716843
1009.68001287
854.522390427
1134.73329683
1032.5512779
969.020927874
901.927659569
941.949364237
703.525957095
1004.44575587
946.35864265
783.926554356
1040.665051
816.88821052
758.257227809
937.518094071
866.597783291
905.21113699
1217.8435901
1267.60837509
684.771475799
923.524333693
977.758870526
950.915226421
941.38466785
1287.77135573
1117.66949927
862.14408072
1091.83257476
922.17276039
1014.79524981
673.21968375
941.664729691
723.396833001
973.469093318
811.772316295
913.64229171
822.8612164
900.753888724
691.604356472
1012.26958289
733.237627341
920.507711903
1058.20988117
1052.82127731
996.38178724
751.56342964
1081.9736892
769.6087829
821.497435175
764.90593807
967.640780029
1019.42363144
799.99016423
1016.37935127
757.413580538
1055.05851303
903.49461328
1109.41714362
821.71260265
1034.75365507
1124.87869914
1044.78731491
1053.48894311
810.155014649
986.543756439
759.96408572
1062.48984752
821.18500558
1039.91838391
846.73044432
1017.40911984
1087.2830141
1246.81185898
949.433336785
1194.60497256
775.14062779
803.62542163
931.074129373
1040.49630146
759.590437498
807.454348615
1188.5247024
1028.9855282
963.807136217
985.445948032
1031.9198971
958.517117806
997.4802525
1309.97430461
717.23414765
691.51745637
1082.62712699
888.31771277
1032.03221899
806.28545363
724.394677266
860.86566774
903.745240007
990.94615546
833.248135476
1353.34217842
866.419949907
868.09145657
1165.71990059
970.435130907
1407.7411374
1052.7758846
1029.19996847
924.0025566
1007.30406842
841.079636572
912.170185497
885.21808161
716.00494713
1318.06478348
970.383605
935.67795139
994.99861647
950.79869721
932.939676602
1004.88377629
783.512959593
1146.55809182
688.522362688
797.75711681
679.001847559
1111.99125453
958.8945511
846.379211717
840.261156387
1267.41797007
762.63089934
1075.33879207
924.393977754
975.79165117
958.839903657
930.02020429
876.716289035
1136.39119817
962.9788115
1046.37826259
1037.23786473
1176.17558855
705.786435231
767.155140328
923.22391767
818.606637094
813.105848348
994.995450908
905.1400043
940.80894144
685.703128016
722.1792414
831.045044849
703.17917408
675.79533681
748.28063267
1150.28461655
1089.50733203
933.10699994
669.942719101
858.64219259
751.0416785
1167.2158026
990.9414829
837.87923213
813.681723469
988.840507135
1021.46314491
1136.2391368
880.73257807
1101.85765301
847.79184928
1064.99977
967.402257204
1026.04602902
994.099240355
1020.46116403
1052.63318726
1057.09949838
834.192581385
1021.6230879
1044.55844918
1007.40753916
889.16070782
793.512650165
899.96611445
664.0834334
993.143401
928.800186912
874.3110686
733.36502133
884.362893716
927.004622797
833.76726894
1067.83642858
826.77708369
1263.24761215
1119.44788021
873.5133528
919.458881235
1145.88494634
853.878268088
940.367410819
979.30628336
926.59297813
1014.57166537
867.183037398
813.276723848
871.418480133
1140.80552442
860.13033604
732.005133666
996.94211855
986.249246675
1015.22395167
930.02119843
714.05085047
766.3921137
756.63110385
921.97202489
896.94276943
949.527172
1014.54555985
774.797274858
1018.63508532
803.67081705
835.984284533
675.920785123
789.90632592
773.335117583
1102.16053648
905.381654955
703.595020313
1163.65209938
1095.069319
858.6096279
