869.238408978
1113.88972416
742.41326066
882.22325761
995.4971959
1283.92163216
711.349495124
966.646151555
1146.86625727
969.46216965
1005.1497852
860.529619408
1260.4713536
811.89026373
931.068490917
994.591159596
605.7448546
1096.73119947
1105.04077907
683.33571504
758.98617931
922.341764213
699.40497641
971.67160696
758.343872277
887.748284412
948.928332412
816.84238782
966.37266566
1195.99558189
1102.3080926
906.533832926
993.521697417
720.0877438
1005.5521032
1040.6822905
1176.92003092
1176.96432923
802.261991882
776.284194806
874.724217467
819.9984581
838.98686832
1022.63932716
858.132015584
1072.88098393
1011.70626492
1106.52092396
1037.89818312
754.52819995
1068.11960369
701.60687772
818.276122591
869.114974886
933.735774309
875.6451409
913.29293338
909.317674007
713.841704855
781.07105824
1242.29657824
1025.42215725
1140.76823906
976.243934595
942.5463763
1032.18824638
827.694534467
781.146873258
1088.12165922
1122.42082754
826.461820013
608.67021203
1020.09976892
917.32667055
1285.04233948
889.97591986
902.637505257
732.70500174
859.97586237
1134.6292798
995.78272061
847.497019706
1156.04648616
748.159033715
816.22543488
1079.35178933
1038.93409927
931.818552945
753.36474543
927.65489818
1036.35589602
951.619719491
899.940518979
973.304806428
1188.40781811
791.36973109
798.735456894
802.96092885
766.49337534
1050.46595706
970.87819532
725.570920337
1133.39509005
662.999424846
872.584888963
943.638538065
1144.72430854
1057.4768796
1003.28775119
826.245534415
1022.7150588
774.608296104
925.88661178
1099.61948142
682.716695104
916.029829025
924.43319068
905.312997349
864.726610049
952.297593711
696.80386192
947.9812666
818.649448748
916.13796093
843.336391804
1036.74213727
1227.66753566
888.88817247
1107.01005484
656.875276219
1197.84726196
836.47149393
778.95539276
915.49815804
1256.9851342
987.828473297
959.284636383
1025.33126801
711.736848
1216.94602437
715.800545727
836.99184817
781.994115238
907.129190744
722.584440123
923.17284826
821.657452954
1151.72180122
1236.11603792
897.003169261
948.78082357
985.40013449
944.70131146
965.994436229
761.598052873
1012.83522465
970.258684651
838.267968862
930.928219436
830.653943982
774.599248226
844.00297356
756.3428284
1018.05504298
588.857043987
884.02799654
1030.58755076
893.619998271
805.77895731
969.0716439
1385.54261174
829.918421924
955.834953396
764.983727993
665.45686574
969.740007956
942.04784608
1261.38240005
797.86905716
1163.89333559
869.888767607
1070.70643484
1109.81610852
1102.62008148
931.2937714
952.541415028
1030.28030597
976.8962029
965.281742229
1124.46644989
1052.34979212
714.31127727
929.38991021
641.0950709
635.14355435
1003.04607321
843.52471615
898.32193406
854.962126985
953.763592738
1087.18070589
1082.38625346
797.45984154
714.97711148
764.093763006
746.29709243
1060.15020306
907.517995725
814.858805088
683.132821575
883.238369568
1034.87732711
844.362812053
1234.89662076
893.2422478
944.183949143
1105.08171277
879.66023192
857.62714633
987.2200949
1161.94930121
784.875904329
1197.98746948
961.112650256
1372.2458354
864.3718449
957.23068151
917.39248753
946.87090321
850.74050337
800.01230102
701.96543773
725.40048597
1165.46531586
879.877382994
773.28707186
1130.40165383
908.0503557
990.0284539
1168.63548235
861.49786259
852.02896741
755.331045161
912.388937642
873.82877074
1253.81530366
730.53134182
794.90051005
880.67233392
1124.20992351
897.15578592
893.709241803
1119.25982396
876.13369269
925.138782243
882.584248187
801.433046161
1075.07336728
1370.64887602
1045.86811313
917.9586998
939.992211527
986.897167238
956.405592964
862.630213251
1102.70857017
795.24799733
822.464196752
766.29975616
900.730012583
789.9544334
786.05502957
1114.9263151
1345.87298392
988.122088459
864.302652591
684.818742584
858.701831348
950.1211257
934.94687847
746.903360731
935.46127119
863.113288168
1229.88585319
1072.9041765
890.18309217
977.36760927
831.11687382
1094.29279368
1086.22203012
724.568797275
1188.39088912
721.8914577
1097.07246648
763.141550314
971.977605199
1017.40136573
1062.33761937
1019.25919684
922.668302188
869.648133771
588.863171049
1027.78570098
931.30686184
905.528246485
713.89257306
1066.41214
1115.62709007
937.05914234
1342.08170357
1127.71216411
992.67322951
935.816278789
1128.35023322
1102.88978696
1028.78220036
631.55558088
757.164426604
996.34692056
1137.29217394
985.275791711
906.64377421
1069.43116917
1057.35719206
849.88787869
812.137042884
840.102047305
861.650162037
866.439429629
1233.38646153
850.590983431
747.12666853
928.32499649
913.23147178
958.815792016
1172.34639289
786.51666325
1011.4217925
1200.19007786
995.12147837
1075.28315339
739.967645714
842.42009059
1018.65806592
820.91131739
1219.87665106
805.789376543
781.62878868
928.730405725
1009.23616831
858.894123063
1086.03125569
895.272947313
1065.97500064
1045.51607392
946.003576417
1208.5947111
927.92185285
980.9462472
959.358996292
993.798563127
925.76951285
937.71280141
646.45841411
779.37306752
1059.591741
881.53113655
811.947675389
934.42424503
1070.17036603
1082.25079717
862.4953865
1014.29827106
931.094021767
758.61734234
976.395959558
1016.8137868
904.928955151
867.100279353
922.93234082
748.480306022
740.70240498
944.8520351
886.187765843
935.26061685
844.186078204
672.19810932
860.28827649
960.52247362
717.627633701
888.539590645
830.1203843
849.406102234
1024.64754429
998.640592648
963.002772402
812.46982159
921.604618902
807.33477229
918.708493528
1147.62163837
859.645097494
947.22425837
845.34092764
1094.42305806
848.397647016
860.085567013
1172.61534283
911.303817737
669.94883342
903.96630685
767.31329143
903.66223407
946.836125444
825.0845163
959.319721654
709.596832518
837.2443496
778.127255358
1156.24683075
942.813806311
930.4332781
805.093813104
843.78398739
1038.97910396
722.771051401
1033.46544294
1030.60967853
1216.41759542
824.5555942
620.473769125
876.081981888
993.800138281
1174.10081201
986.541358
1046.25660603
1156.97203639
871.675818907
768.270360871
754.183128848
845.69061591
813.0407326
873.32653181
880.848643257
806.6134606
1047.54140212
1230.54521626
1138.81258487
860.129062764
877.6485492
883.664632225
709.014143097
930.98169624
927.0962991
907.79882155
918.01521003
851.77171859
788.311090948
897.619103179
727.773356378
997.494456991
954.471616444
939.4183347
953.320389646
1151.26461745
796.38390749
874.452815532
816.5773519
889.195017116
1065.64559329
825.044537136
1112.99294886
694.9998318
995.625133216
836.167156
990.6278917
968.030615916
1077.62446799
917.77482599
735.362974308
1161.7314342
1201.4676713
966.428035906
1093.29574191
763.79396619
579.30546443
758.25324938
1117.0171654
908.03063285
1120.09624207
1037.06036972
771.995159936
884.502917152
929.79218084
919.686836907
788.80621903
986.95382077
854.29832019
809.025715361
832.3722831
1047.03392848
989.768639418
994.29092284
724.118439532
958.13404171
881.404394578
805.52857803
907.46197334
686.466844631
984.78477894
1088.44251263
906.910805158
997.8450852
761.426255836
783.40543738
831.55409881
1085.18698514
872.07795785
828.9384454
1074.9697485
969.15882411
755.434674769
983.731287938
791.682403282
834.96338738
560.843442127
871.327611207
844.836295349
891.006918205
1001.83872961
1097.82567826
1184.1173119
1092.71396174
837.417241318
972.998642279
819.256563456
738.500170667
959.416207984
1243.68146651
821.65452271
848.592943124
788.413354916
812.34473205
1147.53643051
1123.2796325
685.9878908
991.729001366
809.792249402
1104.91714125
873.189063514
1029.92763943
967.824936642
867.839604874
881.827016019
796.77807873
998.217488152
1178.36417523
688.2633203
1015.25785927
901.4994875
995.02397911
988.23961661
893.37609337
951.900979136
1048.28665679
747.86973432
869.141951333
1214.26739311
1135.26898136
963.159623836
763.102878896
1027.76519041
934.83678701
645.78953972
857.979822855
812.031655153
925.20109897
948.604332724
990.239178771
774.186034044
1026.44024949
954.0763848
1052.59064257
1130.01249924
851.998631754
838.537667938
957.12047455
1051.326831
861.743190231
955.648780935
824.022544576
1132.60717053
1002.12084878
834.573426215
858.456045522
854.629785571
961.157396685
882.77943954
893.964855341
810.866457896
917.38651713
1037.06021982
1081.26723623
895.66029605
824.364609555
929.362059881
817.092134091
844.77682262
881.618494818
694.450197312
1026.56560489
849.470880394
1307.318378
948.149097786
1177.87777167
904.929658759
925.256463
837.34596814
931.228646382
670.142705693
1095.20250241
973.987070684
824.64342444
1021.71391665
759.15744364
779.09840844
867.643791457
860.87419333
869.643782732
870.805868322
856.339031024
896.448807901
1181.93259407
1048.92974558
943.54951698
753.40613972
1238.72939539
909.37446177
903.883957965
821.67132633
936.594624058
872.007220282
830.048553637
866.62253352
1137.42131973
874.78414431
906.55166332
925.508212483
620.262559311
1040.48230255
907.534845
805.26871292
983.10884857
891.106784864
789.427380158
946.076900718
622.607233136
934.625120148
543.98947983
917.10754944
885.19650284
945.086318435
786.070287281
999.242379405
896.3490447
940.60099377
982.437302308
929.766370409
832.037948809
869.2074938
1084.32608665
979.325439253
847.097184632
1019.5102248
976.97687997
1057.66744176
912.84467663
915.429049965
900.0143236
1030.39287406
928.490199741
829.339238644
712.462549875
926.026645659
1052.66581146
951.972898599
706.17101272
851.773977724
853.961244758
789.354142083
868.063303319
939.690995493
945.98236709
1100.96160792
931.20646425
765.24618285
947.242768606
1085.58163966
918.53710747
901.214739711
808.02246612
879.011282949
854.94940138
1200.401094
716.47903085
1115.8168526
1206.74712796
850.202099086
1335.65138624
977.89218416
902.585915455
669.839129
857.52511702
771.86228913
815.70073659
805.711399069
929.325241797
872.73204639
1382.14519377
884.823156125
769.179837848
842.292323102
1025.63893465
1149.28588665
994.465143403
1021.57603285
665.88540574
929.95676246
877.2777091
808.563574495
1001.48529515
840.01148632
1072.08484815
827.1145715
1010.34191425
1008.67435966
781.44688476
751.246107101
760.325618923
714.238698682
972.876844119
1002.53788736
833.992727378
1015.89563689
850.494086472
981.45016295
683.304689048
889.505836114
1292.79408161
1052.09109871
965.371424864
758.392810372
991.90876461
785.32362376
999.76733781
844.206417662
813.501696977
899.761314791
820.7559841
860.59089698
813.305055314
1059.87949127
1203.98284797
913.68848792
690.75492106
867.55864007
828.2853126
823.704030291
863.963156503
1165.93182313
806.262659074
772.415333755
1013.08931583
799.9966247
904.516677994
905.75810323
808.4573812
824.95746616
761.315595652
979.59684458
865.35722786
677.51574822
930.77370221
1145.94871272
676.248372282
946.7502567
885.273732098
1034.26424863
751.20623769
811.0849809
920.133610975
769.313669207
952.21710287
1032.424694
994.72171944
730.73772657
871.352316
1002.09057453
1064.03623884
1051.21595006
747.5678045
709.15720551
1267.5869204
954.651890209
1043.32710848
943.358662
849.898289356
922.35783639
854.850753532
961.99923458
1067.34382948
685.01667295
750.081239367
1065.63007536
1081.43143207
894.53088689
986.744141898
827.889301962
595.649582068
849.525899423
879.593858683
930.63631526
1072.18825531
1039.39687226
809.214257424
956.88152555
921.284953408
885.643542507
951.02239701
832.931843642
975.95182784
1027.13094517
1134.02298145
839.242910822
811.675229307
849.113321469
942.85806238
1036.25189729
805.164559868
955.606291024
748.26270241
849.584092482
1000.9191963
983.85585325
1005.01005322
927.81945921
770.1359414
755.947457908
890.511511456
886.99292801
1046.82824053
597.85967845
1088.5110745
824.7121602
1106.69773208
835.77159232
756.878681675
1064.53860257
865.416281848
1101.8480623
884.0706605
889.41483311
1069.50661441
819.80032476
1168.65227039
761.98272454
1012.6677852
955.015765359
1083.52667997
662.096519283
1102.8612867
663.948730062
1291.05652196
1087.90137722
844.7219454
1048.07836231
1232.35697837
922.09547917
1011.55607348
852.00430659
1029.92946637
647.737877555
826.408250471
962.18375608
887.153505358
946.227289131
1138.49714347
865.788866
1039.98688614
1032.43563245
775.17257531
769.946774781
905.596404047
746.498142885
901.771822201
1109.065495
816.879155108
738.94024977
663.588446771
841.649021974
818.935112561
966.19416916
865.801402791
883.1187909
781.37311714
955.97735939
1035.280351
866.38850147
861.560926887
954.251918703
1090.9402573
1030.20391078
1064.71681139
589.17482041
1058.6722886
692.733401726
924.43013801
968.543793044
732.843361348
806.39928087
