799.32019254
870.547514619
953.06928042
1149.89741009
836.59347853
1029.05168361
995.132607876
907.061225437
999.66450074
786.74290653
1004.90727004
1058.54746212
855.790940722
906.26652118
1048.51888885
918.264264454
1275.66876197
940.08513275
1104.68329665
1008.6185982
849.492659435
890.480293855
952.06588457
961.26495651
1049.22903236
792.269512461
998.109457824
759.77714651
939.711149378
933.042935608
826.905704413
840.669140347
683.827954729
1007.88622968
757.196891379
950.906261188
761.32102877
871.203740528
855.88245914
1105.69798846
823.558352944
836.667071077
702.031880889
1141.17687921
1130.46412736
982.142646338
948.667734085
946.50527462
702.204400967
813.74958846
849.20440949
947.61723326
906.374470886
1057.9077855
1001.65639921
813.34443999
930.925127223
850.888491945
860.0779782
970.492979799
978.48224606
938.495861943
572.877192789
1018.9654546
770.889113142
674.051899386
592.514051618
848.863303771
848.6898986
871.17872386
1087.14892966
1135.2177831
795.417629808
801.12931284
859.649158
668.176853871
825.60837335
1144.14664384
899.48547372
633.7985125
940.984090945
778.4915119
813.584037
907.296495772
784.345309754
863.945210896
893.57881502
1184.00067945
886.698447106
863.15447533
972.01111527
959.9230502
1243.59492822
899.51118963
868.537027873
874.38450905
1012.45118726
857.379710711
1024.72524559
984.834321909
837.00846471
1012.06457083
872.639356096
1033.79723031
1022.46906743
835.25027678
947.798007675
893.915806294
639.603378654
917.990193494
843.83336687
948.227007037
1001.76432497
888.390350937
618.890453868
1197.69710961
938.4424455
760.209015147
899.17265704
895.485092116
1154.64256601
1080.26765218
965.079007773
815.881106847
800.77342985
824.60480099
958.835716106
1084.71861056
1008.54726614
1061.501779
943.825583711
942.50139295
956.428035702
690.98056126
966.90726844
819.68641572
1046.65557079
945.67851078
867.251382687
1079.7958736
740.7192515
916.40164997
831.797743863
825.382167642
992.38801211
954.039004281
1011.7186697
892.90970013
972.039411235
1083.3805943
818.630342805
1041.34941889
734.57902572
852.058126312
800.464195582
821.835125867
1396.59084729
1125.10159123
823.417293514
754.3690194
789.73159766
956.473680875
1079.3514241
814.86060987
980.933566605
725.431887966
1266.23619757
761.86704982
915.02914044
876.529410538
961.12692817
1140.88638891
970.43464097
892.871201004
736.6527415
699.9327534
716.86067027
792.22483997
1121.90556181
787.459505086
563.8479387
874.279519821
1100.16240463
709.77803089
785.052199719
841.284762415
821.64381499
890.216497072
901.97280777
959.251548045
861.410676381
688.23785145
1074.35621629
996.51593711
1178.37936783
1044.30099238
915.455420655
1168.98451691
995.131531852
672.446812473
739.475072024
836.278763652
810.12107175
642.194921623
960.642276933
876.32559943
1069.06199678
1144.15579375
1054.56982317
909.67961355
1109.06582151
922.774136431
1000.65848947
963.490127721
887.70925274
901.758583814
1064.59082029
699.15902249
1333.57077577
1140.21835933
1073.73339494
957.3797153
958.24605239
1235.007787
1038.41274056
968.219878536
823.344545861
906.309484194
933.788659089
897.55731378
827.93755162
759.95319315
806.770683758
1115.72156545
877.76977552
759.32746303
886.35065176
999.388564206
955.86854416
1037.86784902
1080.32875836
605.23013118
758.85273707
1011.43619493
919.550393444
1054.44469086
858.84627721
1077.69678497
651.08553209
958.265321392
1121.0744402
808.73003316
855.977378248
878.9284914
1033.0963196
909.302865223
820.872088978
918.519614
1093.66815259
844.333484471
951.81162327
775.406223518
921.9362781
1118.877238
758.67012675
1157.76499458
885.934805991
789.69235964
792.598290035
759.021624492
1037.55951975
837.545855736
961.81349736
954.719979345
994.70631185
1006.30634825
949.139314429
1061.98768356
738.147179138
922.9411809
991.10517765
830.879262136
852.941947292
736.309748351
1242.19752446
827.296895148
862.400000425
1046.19518107
980.860695902
957.51725227
879.705167316
1033.46795219
781.72088869
1064.90310025
992.9948542
877.0035452
1314.63576381
743.138446057
1240.28887602
776.388231716
1012.3793749
857.495563175
746.9660248
1032.05575212
836.459052781
903.832265266
1129.0711254
1112.83738099
1042.10492832
988.179932848
699.432345044
1118.24632081
936.270002002
845.35004386
837.531353325
906.1879201
863.88557631
940.11182383
1203.38389837
825.12499441
926.740705513
878.642045905
634.067529341
991.323416309
755.595109094
1094.5065633
805.701268446
1482.27924746
903.8225362
1007.75773297
924.65348967
792.304198403
1131.02048288
757.245252097
849.347366695
859.191293582
911.882446108
859.27426897
725.932978658
712.660513565
1167.38818406
843.869942085
733.797186851
1011.41195626
748.737353411
892.61522479
899.00192548
1037.64996018
769.790536563
871.59043363
828.833303983
863.70257756
682.884048807
944.704348346
1157.28345256
958.191403661
975.65785109
897.25744528
947.096449116
1015.15222048
887.0308796
869.543597611
785.544888079
803.39229775
907.41154871
1183.05118321
752.467062741
660.34416544
900.6224873
668.972344265
1177.68071764
893.488020055
1028.07593507
853.725610422
998.368686396
907.64481941
991.961097995
1024.15883419
757.412787568
779.8698831
1116.46628014
853.7082169
853.77314438
802.867588511
986.57378118
1076.02491463
911.598532438
913.375242574
875.958609586
907.215147419
792.173740102
972.943921296
943.348937048
835.484995371
888.686209224
672.5865016
734.512825355
1042.70225259
887.028921097
914.6948463
776.53007445
914.587875592
612.160957
1004.13037723
1052.91537053
1039.23274348
680.31370005
792.792127214
1026.16945005
1014.59691458
1050.01956618
787.120750802
774.792134764
773.408856
1010.9661804
976.288591226
832.0650028
1030.65705353
736.300857871
911.26620579
984.755021166
824.474257098
813.07746753
914.420609057
923.788700861
970.767142343
898.298178141
1085.71864065
756.96927648
1049.05731163
926.522402775
829.64557288
905.250254654
1048.91683963
1024.1633443
1341.58464816
943.98546936
977.44074359
971.94566922
801.731109485
895.227337108
1035.34063292
1180.08401572
819.605465742
854.24975126
794.151641003
1068.9377026
710.157308751
1073.3863081
828.386576165
1018.36133081
1226.8226204
937.496992165
1048.07230163
881.04950598
875.42048761
933.17902204
962.030422575
960.076318353
956.194813909
1016.32660533
1082.62042994
1197.01929435
824.7951001
1045.38981917
811.88578989
1137.30463485
866.8528549
1113.95150483
1143.34545983
772.96451028
928.3674426
1094.07585358
862.37694172
745.867296233
1074.17300718
1070.12540115
1122.45356838
995.426464645
849.831185392
775.95717716
969.04889351
1081.9905278
1021.86548778
1177.59922231
1004.00151915
673.15546958
1202.41913996
924.04120838
897.29863269
988.735907949
1041.6060756
923.3845432
853.836081739
1121.75204922
797.121814168
963.314721239
779.539455584
768.51064477
1213.37222864
954.414969638
918.878136456
840.11034971
990.218482277
912.0149435
655.949218889
1082.51193402
826.50383873
1143.68007328
936.90241827
810.4652123
971.903781072
801.853680688
960.63460808
815.90473149
917.903725978
984.04054469
714.195290567
946.76372525
837.74079548
840.5599729
922.05125239
968.08614859
990.905152641
1022.17758749
811.863360004
972.9898872
873.603397009
694.035394905
984.831525414
1102.96933362
886.59694146
954.0271105
651.192695
790.687768023
840.17554731
930.1991862
1161.0190678
882.321740254
1037.73650356
909.384743778
886.660974746
962.73271409
773.18742486
839.330310435
998.07436248
883.772060659
883.738681425
1098.76876329
1283.37531341
945.844945089
894.86905114
819.93920558
1005.41536852
992.410065532
895.331990249
871.84380263
1003.49094906
827.61175845
1188.60942225
1103.89093487
624.41500153
738.385065008
978.2052211
1016.59210361
1064.90070876
882.15651997
787.881834123
697.613062543
1168.30472088
1104.99826458
971.4509976
682.27202402
646.57949445
950.122801504
842.47134
1023.75886291
1015.01694201
687.410273347
1025.91275902
1080.37602371
926.987496703
975.7000936
895.04994314
1378.42910252
976.17823665
740.966699249
946.74428359
1070.70131947
987.495215956
1144.48542516
994.09053357
913.5379548
781.637265832
891.7237298
939.72765302
927.986842204
1030.21237978
943.95560392
1255.17713748
906.831156643
1027.55703038
806.28371309
935.750191149
970.74942854
1094.71104452
952.36054298
820.6185817
830.12226551
899.94048999
861.758091526
795.500303318
832.3786552
1239.205013
923.0167378
737.299733373
860.957221776
793.6682324
1113.53535465
820.01074535
1203.29747877
905.74877357
870.98725838
713.016735116
889.380383598
1155.07375191
949.730458791
858.002497907
906.04085711
771.551468314
797.612684129
978.67012996
733.014626972
826.689852465
889.78094851
1105.3373025
571.409985822
900.61788263
885.0653553
1021.8812106
939.29059701
624.06443942
804.74015313
855.24372268
810.40974832
813.35044101
1304.41149208
953.854106159
1028.8920081
678.88971467
843.74882979
1031.68132706
1073.27300652
859.81931204
1177.68287449
1177.40958865
751.188768278
854.34522848
1090.03429148
1087.96763512
788.876331509
909.42086877
927.750658832
961.025536955
831.34092356
837.643309727
874.717977339
911.0996876
885.17302928
1093.87943184
923.998796958
775.247664
1028.47576171
958.84760054
944.373526232
1230.46949411
820.28908529
800.668806299
826.779712414
739.515068291
805.63516216
924.928594613
763.5987641
784.92821616
904.03139927
901.03757058
778.642035059
744.936405427
992.504008027
1095.87561376
797.9019034
991.01153
906.3784231
742.728277218
844.4703902
818.57141042
806.861581765
895.165592658
921.017779034
805.923300163
808.124209174
999.71553398
1014.7079382
846.290929412
1003.9537131
855.95178709
890.57948744
782.964123278
1101.40203739
1015.48328178
967.24672016
1226.35087878
854.123860144
747.677453852
828.341057037
928.085662577
925.75621332
811.7834881
831.03327545
1014.9592306
931.9631727
1164.43140191
786.270676735
1118.10271477
1173.86635172
867.8529497
1115.61887131
651.139687831
913.707877495
1149.23197724
961.6604514
891.88419675
753.9706381
883.485150445
1107.6605803
767.323911991
829.071903233
984.616259968
986.268832366
899.758227946
849.69652423
1149.65809153
858.934339623
824.82178628
893.543410313
1001.69969566
731.34056522
939.13319012
873.449068016
698.680433086
1150.44052674
884.0975536
1108.53781052
1015.3432451
938.812816606
800.082006057
945.08953135
1170.37138449
905.402929887
861.28087855
993.115793721
841.945496799
793.060036117
1130.88000037
1071.19955655
1023.1861495
983.67700064
884.065482509
975.96290545
942.5099247
853.827322496
899.82652317
1193.01187373
854.601596227
940.139249905
970.327872648
1270.19337128
623.94748821
674.088276738
801.663212232
1164.63768791
851.701334679
944.419390422
794.25644303
879.437377108
799.215413494
843.180378398
946.626688962
1036.11337449
942.525447108
740.891903239
819.77045071
977.540872469
909.822689789
601.785873749
837.80195389
873.39911587
980.15881337
984.771631319
871.33799026
948.221329287
1024.26200837
671.350255447
1272.64344785
1021.8331443
1062.5302147
1056.68999969
888.446544482
1161.7589045
902.4757662
996.87613223
979.61886812
699.072483947
808.105158709
870.940844448
773.6658376
800.737317383
831.163938614
948.8587069
834.03046753
848.4356792
874.205589445
784.102129687
969.283552
986.9473035
935.3363952
924.493550307
1134.08358642
1116.11284623
968.1689368
937.597627976
787.600931252
1047.63274987
637.781611057
790.65331365
679.006074652
984.858767039
785.5471761
824.795298262
733.37158156
1012.56622779
874.058747324
974.614817521
893.73506956
1070.10717572
1006.86716773
951.67094486
748.162622991
923.566955829
1015.2892244
907.218165927
741.3549051
833.655516227
1156.01467825
1314.8147862
823.956742532
612.19459953
702.136049276
744.509549304
898.708564358
1054.38885958
1276.64779438
1177.18136461
1019.3392419
1113.1165338
1118.89722893
992.235064077
809.32180632
1251.58104818
795.95029717
1069.0660034
971.93392937
851.390971892
1055.61432945
843.257358626
1023.3333858
829.358074005
857.618662067
916.6970454
696.534830039
1038.08706286
1195.93195327
928.88522641
929.604917658
820.883094712
855.72159781
1117.064939
1004.56419836
799.94273477
932.50300743
674.13423193
599.678052894
910.166793731
881.2590145
867.871824367
972.29750452
1044.11269838
884.98059675
1100.2738509
855.22223939
665.20060332
471.50122543
863.401751202
816.67016094
1219.9088701
1067.01494711
930.89955568
915.260701989
674.6193441
960.07508004
927.5456531
864.83935283
871.454849704
968.0504526
991.033725245
878.872476952
831.36092683
897.337066982
1147.41786724
878.3876987
