6984.31
3537.69
5571.61
4799.64
14289.4
1152.74
4358.42
5694.26
11327.2
15157.5
8863.1
7693.69
16368.4
18102.9
9327.19
7522.37
18326.1
6148.89
25204.7
20604.9
56727.5
64280.5
52904.2
22058.2
17511.7
10130.6
-786.638
2604.13
-3664.21
-6034.84
868.213
1705.22
6211.69
4038.7
8650.93
3828.05
13671.4
14156.5
3457.51
6288.91
-2976.27
-623.847
-4741.01
-79.0022
6815.66
606.997
10587.1
13512.6
10466.2
13188.5
26681.3
27709.6
48084.9
51121.4
48253.8
49198.2
52683.6
31655
36417.6
19576
13591.3
7197.43
7273.71
6075.3
6645.75
1693.59
-2115.67
964.955
-163.555
2995.05
-271.145
-455.131
13180.8
28898.3
17480.9
11370.6
14437.5
26640.5
11208.3
3852.9
2608.03
2619.48
9203.07
19267.4
32395
47383.8
50688.6
40756
39083.5
57017.4
38517
57586.6
33704.3
17672.4
18294.9
16791.5
21153.8
24792.4
12695.8
6799.35
3606.33
7612.85
2609.94
8634.3
12518.6
12243.8
15215.9
2457.27
8600.01
2995.5
8025.61
6287.25
15376.9
7122.4
9961.68
-1379.56
-3571.21
576.882
-3498.95
2829.13
4304.38
6134.45
7745.67
13474.3
6611.27
11746.5
13560.5
4463.03
6375.72
10889
32588.4
20522.5
16618.1
30998.2
36428.4
28837
34972.4
26946
19984.5
7422.62
4978.97
2671.97
1389.07
2975.11
9620.79
22.0707
-3689.1
2009.38
1524.3
2946.61
-3933.52
11882.4
26387.5
55705.8
49415.2
52952.6
64827.9
48142.4
35437.2
40188
17149.7
14274.6
17365.7
15609.5
6392.74
964.712
7040.35
13088.6
12278.8
2036.86
5095.34
15550.2
362.15
2415.14
3300.94
-6830.87
-217.977
2511.6
3120.23
1109.04
1198.55
4682.27
2341.06
1988.4
1406.46
-10582.6
-7690.01
4121.72
14523.3
22050.3
22202.2
6453.53
5477.96
2405.79
1901.7
-714.86
-1123.23
-3380.76
5583.76
10792.3
33844.9
27872.7
22010.1
26310.4
51963.9
54094.6
36509.9
29508.6
41736.8
26641.9
11156.2
881.59
-1311.57
1578.97
705.142
377.947
-265.292
-138.077
-99.7629
57.0918
3707.1
-3122.82
-2869.55
518.074
-1738.21
3259.62
6857.03
-746.712
9127.75
3357.77
3285.89
1698.03
1271.88
-803.229
1860.57
6812.11
6059.57
9443.46
11919.9
18427.9
7326.9
-6252.92
5908.16
-2813.92
-1093.73
-687.03
1498.14
9962.37
23712
26490.2
19823.8
19702.5
25341.9
61641
55063.5
46334
13668.1
28224.1
54750.4
38168.4
58015.2
46394.8
63632.4
60088.6
51432.2
34383.6
29340.1
24499.7
20623.3
9345.46
14583.9
12929.9
-4804.43
1137.04
329.744
-7879.43
1467.66
13848.6
6119.35
2651.83
4391.94
5650.85
-2383.64
-4559.19
-2247.45
-1813.25
1055.61
4997.36
-973.43
3028.52
17585.8
3955.53
-15119.4
-15436.3
1452.56
1546.34
1138.4
2361.44
2969.37
5279.83
6476.95
5804.11
4253.3
-1089.34
-4242.39
3095.22
-1014.89
-5079.52
-1702.34
5798.37
16132.1
26846.9
17828.4
24177.2
22117.5
24627.1
35150.1
21414
17168.1
37310
19642.1
10657.3
7430.99
14113.1
16193.3
5122.5
14465.8
11715.6
19636.7
21845.9
21729.5
29787.7
16328.9
18015.4
21383.6
12312.7
7199.66
11959.4
8868.55
10661.4
14029.5
11186.6
14432.5
25861.9
13986.1
23010.7
12214.6
12147.8
-1363.21
3276.41
5284.79
8957.69
8844.44
11128.6
13153.1
6445.23
-488.566
2879.01
805.277
-4313.82
-1266.07
778.029
5766.57
3834.43
249.02
-441.418
3515.95
-1991.2
-3277.08
630.452
-3729.53
-7168.93
-1132.38
1817.45
-1345.52
-2726.44
-4455.82
2814.55
7616.76
4542.41
367.029
-1743.6
-4740.17
-3754.65
4441.5
517.435
-1336.86
-567.984
572.335
-10569.4
-1155.77
5040.36
-277.353
12903.4
17352.1
20161.9
17363.5
35409.2
14591.5
13430.4
15787.7
3098.4
-76.3204
-7049.76
-863.684
905.616
1632.72
-183.012
-2507.36
1226.48
1434.73
-1811.09
-6760.4
78.9794
-2752.99
-745.764
2522.27
468.279
6724.79
-3739.82
-2428.84
-1217.23
9572.16
21359.9
17961.6
20559
46700.4
17808.8
4354.04
9095.85
22941.1
13195.8
4075.79
9228.02
9232.01
8399.96
10158.7
7897.9
12612.2
17992.8
27161.3
12587.6
3726.42
2957.2
-2343.8
-6417.8
422.983
-851.233
-4110.58
-65.6521
-585.646
3210.26
3874.52
-42.4852
8641.97
2212.01
7074.43
10670.5
2131.56
-13748.8
-4612.83
878.551
21.8078
3009.65
2125.89
-1804.41
-6662.52
3924.52
3619.03
11749.9
20546.3
14517.4
14866.8
15295.1
16837.4
8305.24
-1600.69
-3029.95
2782.47
1193.92
2371.05
5628.61
2158.24
5834.11
9936.8
5905.47
2964.89
640.858
3331.54
1219
8835.96
8413.05
1848.56
16785.4
22180.1
22016
13795.3
10679.5
1138.63
3207.52
7543.02
755.802
-839.318
-2579.5
579.793
-1869.87
-2744.7
-2102.67
-1076.08
-16293.9
-9681.66
3560.48
6604.38
14287.1
1773.05
11304.7
5019.16
4792.67
-35.7014
-3602.13
-2479.86
3338.11
13412.3
7547.95
3187.32
10314.9
4192.6
2848.21
1249.51
356.181
5395.05
10296.8
22504.5
5646.91
3834.72
4671.18
3554.09
13388.5
9457.63
14640.6
7078.58
7901.25
7756.89
713.78
7056.37
4160.82
2182.54
2335.13
591.137
-4449.11
307.228
2624.75
6559.94
2105.03
3457.1
8841.05
-1519.06
-1542.96
-6994.31
-713.069
6037.37
998.106
21.2687
-105.754
12783.4
4081.69
5216.79
4546.28
2569.8
958.117
2308.26
114.126
870.327
-7338.37
11387.7
2120.06
6738.46
8311.85
15566.3
16374
19848.6
45809.8
57067.3
64578.2
31243.8
25390.8
37305.8
32182.8
24683.3
27800
34436.9
52369.6
16440
10480.9
19015.9
19097.2
36958.8
16869.6
1162.4
5003.95
-2239
9178.6
7690.95
6906.86
9482.96
9191.97
14002.7
11741.9
11233.5
23988.8
44221.3
32594.1
33488.2
34558.4
34521.4
811.688
-5639.28
7862.8
4393.5
1773.36
993.207
5534.92
8943.02
9451.65
34442.8
44455.1
29246
28896.2
11239.2
4895.77
18922.3
43548.3
25648.2
25081.5
23424.5
23265.8
12134.3
13755.6
9508.9
3551.48
365.678
-5012.9
-841.579
331.955
-1290.23
-4002.87
3534.58
-155.318
2429.35
-917.163
-3668.65
340.636
3137.59
19838.4
32867.5
30200.1
37150.5
34196.4
21836.2
12646.7
724.594
12825.2
17884.9
56801.3
51890.3
36587.1
29789.4
36541.3
46061.7
25020.9
20149.9
24355.8
27254.4
10518.8
-3213.78
-6864.84
5158.98
-4927.54
-463.851
7357.28
4262.65
9141.01
20533.9
19389.7
1546.65
-258.574
799.709
3251.56
-6008.97
-1181.32
-1044.4
211.883
2269.65
2396.64
526.11
3280.71
9152.93
14742.3
8689.64
6085.45
2917.29
1079.44
-360.4
614.676
-7581.47
-405.084
5431.09
4290.25
998.069
-3366.65
8043.12
-4942.97
-14349.4
-322.093
589.664
2550.93
2668.87
4005.95
9142.22
19109.2
31986.5
39156.3
32598.3
36123.2
42089
34740.8
38538.7
32580.4
-1866.15
-915.772
1134.43
13588.3
19494.4
11576.2
7402.5
121.783
9344.7
12490.3
4409.87
-2081.78
4917.18
15148.4
4648.72
23312.9
26833.2
36904.9
4051.97
530.477
-1250.76
-689.119
498.994
98.8511
9065.2
-851.364
-5600.2
8496.56
13561.7
7492.75
7463.93
6090.86
9418.53
13171.4
9935.46
14977.1
15892.5
39165.3
19072.3
45773.8
20291
7465.23
12516.2
10887.1
7906.12
9282.8
13094.9
926.15
-902.02
4985.2
2760.48
5240.52
1755.27
4327.72
92.0137
-2890.46
-4249.84
-963.523
-4174.23
-5981.15
-5504.98
-7045.11
3595.2
-1866.72
7129.69
10271.8
1669.21
7325.5
6547.65
7475.4
655.52
4216.38
12530.4
10714
8210.6
-700.677
-1143.35
-60.7673
2496.3
11776.9
20770.1
40946.3
27988.9
39570.5
30944.3
38010.3
21346.2
27677.1
7940.99
10310.4
8913.87
2697.74
6289.73
7039.27
574.471
-1388.48
-2114.2
-792.585
-3674.81
-10190.5
7489.79
13361.9
6505.28
1242.94
29355.1
31553.2
35759.1
64807.4
71425.6
89740.5
85975.5
58683.2
62666.8
46867.5
32543.8
15377.4
4002.92
1539.66
12194.8
-1809.55
538.254
9.70402
-1770.28
6987.84
19406.6
27062.3
13885.9
15321.5
5168.76
11450.3
12057.3
2953.25
-4779.42
8929.34
11245.9
5476.83
6232.11
2616
-1243.98
-154.795
-956.114
4912.25
-6738.29
2651.49
-1063.23
1980.29
5248.72
4214.85
694.038
1677.06
5593.54
10924
13387.4
19572.7
34944.9
30434.1
15197.1
13332.8
14649.4
-3130.26
-5531.61
-10742.9
-1728.94
1449.08
768.152
8579.65
4780.42
4476.42
3677.1
5344.26
383.467
-1094.97
-3345.93
-5206.16
20198.3
16379.6
17444.4
18897.2
4130.68
14208.6
13157.4
6521.08
6823.07
5110.02
2558.46
2869.27
136.694
-1512.83
-429.565
3982.31
-2715.07
934.675
-434.125
-11.8432
-1513.18
-146.752
-1489.19
-2377.35
6675.82
2739.27
12648.2
10468.4
3348.01
2332.27
1994.14
-972.407
5684.15
17172.1
13622.1
10607
-3130.01
10410.2
5567.61
13691.8
15445.3
31227.7
33275.3
17833.6
7266.96
8708.52
9885.08
13719.8
5568.92
19492
13702.2
12482.3
6397.23
18519.2
15002
5365.46
15376.3
4362.12
-1454.66
-6989.84
482.762
11904.2
8700.95
3111.81
1916.5
16391
17779.6
32374.7
31680.6
27802.4
38654.1
14311
1565.02
-3344.99
-8861.78
5283.99
2141.72
2392.8
2563.75
-2674.82
-13435.1
-1965.87
-5835.84
-1628.94
5841.4
6231.79
4668.93
20973.6
9593
5017.68
6301.78
4583.11
4571.15
4094.81
270.388
-7082.18
1168.85
244.246
50.8744
-2696.74
-8291.64
-9757.89
-5008.84
1832.18
1884
7444.94
3046.3
8071.58
4477.36
14444.6
13548.7
23088
10543.1
3879.6
-7355.07
-6443.09
-8818.39
-6575.15
376.78
-4643.73
6789.78
3644.56
1502.77
7551.32
14996.5
11807.1
3583.2
-7652.49
-366.787
-1335.89
4396.34
1610.09
-3972.17
-952.108
650.306
2883.27
5597.37
7720.54
1927.56
1854.16
2676.34
-2926.24
-995.401
1176.63
5827.02
14977.6
4590.31
8024.75
10667.2
-550.443
5553.13
13440.4
19263.5
11337.7
15805.6
29503.7
31178.1
26911.2
36143.3
38909.7
16490.2
16312.1
93.1047
2727.01
7040.46
5945.44
1830.95
-893.211
3810
9158.11
7806.84
10669.7
32424.7
30231.7
25316.1
26677.6
26092.5
13288
5561.48
4552.52
4849.29
9027.5
-200.94
6904.78
1989.5
-1703.94
230.609
-2236.12
1610.67
600.671
-413.31
7855.77
4598.28
-2825.68
2021.67
-5752.28
-4787.69
8114.05
16775.9
-3006.22
714.768
-4918.33
-2833.72
10958.2
23949.6
24298.5
12629
12246.8
27208.2
5855.41
4349.15
2995.74
4279.35
-3436.9
-954.337
21677.7
15855.6
11851.8
4786.46
7244.72
788.751
1162.24
10161.8
13383.2
14439.1
4358.24
2590.42
-1204.5
382.705
10600.9
3735.41
5891.68
13893.8
11742.9
11958.7
13470.2
15146
14390.8
24020.1
13365.9
8100.98
577.616
-183.116
356.305
552.517
-2959.07
-3458.82
-4282.78
-2953.21
-3820.54
-3819.79
-1850.66
1887.21
1378.34
-1449.52
866.374
272.359
2482.99
5765.38
746.245
7268.97
13442.9
11922.8
22123.8
21506.3
15029.8
5789.28
3700.95
-373.762
-5751.93
873.507
10316.6
12336.1
11313.5
24058.1
14615.1
15383
250.562
4867.99
3138.98
831.272
-1527.08
2683.56
1274.8
-6616.28
4180.76
2274.63
-1148.86
6710.38
3127.46
7219.38
6099.07
8778.25
9731.01
18982.9
14239.1
21261.4
7188.46
6046.16
1639.68
-1396.59
-3388.68
-2675.99
184.316
4537.37
3219.75
264.019
-188.928
4332.42
11075.5
14813.5
7794.47
3301.42
-1561.97
5968.5
16257.9
15262.6
9775.28
9366.6
34553.7
9520.73
18791.1
13156.9
15210
13308.5
24391.3
17459.9
9036.79
64.7379
-184.382
1788.72
867.26
1476.95
182.295
2323.74
4544.64
3618.25
1603.67
10423.1
120.097
119.423
-3773.28
-3943.37
-5783.89
1698.7
10218
3435.13
874.919
-798.35
-1828.49
112.055
1331.72
-1779.54
3876.92
13681.6
9133.3
39865.7
48043.8
41236.2
37621.5
38083.8
78515.7
53735.1
35239.3
37604.3
11786.8
18091.8
18946.3
15758.3
20697.4
20265.5
19117.4
-1676.84
-2343.71
-1633.35
845.342
-991.952
2535.06
2466.53
4590.47
353.278
4852
931.665
1027.5
3782.83
11938.1
13538.6
7334.39
5551.39
3604.22
22846.5
7400.47
-4989.12
-3271.6
-354.113
-2984.52
-4721.28
-486.627
-5577.68
-3147.61
2275.81
2039.32
4220.14
14374.3
17297.4
13937.1
4300.33
7387.69
-931.39
-455.997
829.189
4077.75
-4122.02
-5255.7
-5506.08
-10955.2
-800.714
7515.7
19721.2
7754.36
8889.28
8037.69
11264.1
5111.28
424.585
1954.48
-915.441
-389.269
1253.99
1252.4
605.799
6055.58
13626.8
15350.5
11723.4
8954.67
6472.2
2663.49
5987.99
19250.3
8130.81
1573.49
6021.27
812.894
1277.73
8935.58
3724.43
3866.31
575.669
-3904.84
10768
26233.9
15789.6
13538.8
34749.2
44934.1
42062.6
27473.4
4430.26
12491.6
16983
13605.9
13360.9
6635.46
8403.32
15714.7
3318.79
-6719.65
8394.08
-4794.57
3057.07
1038.33
12342.6
11781.8
1989.92
-2069.47
-7371.82
-608.351
-994.056
9001.79
2361.2
2314.76
-9471.83
-6988.7
-3318.14
2286.9
-3779.76
-1563.36
1017
-2492.01
88.4486
7770.84
5732.44
4693.98
-2463.37
-11607.2
-1182.15
-605.408
1611.42
4349.74
4799.6
-420.227
5199.53
2679.4
7308.65
6788.8
171.396
2522.67
11747.7
8373.84
17673.3
5978.22
210.418
-1046.09
1023.97
300.96
6656.74
8161.47
16293.1
21336.7
16087.3
12903
2804.88
12899.9
921.325
2359.37
1875.91
1034.76
2088.31
-2617.5
-718.893
-2703.02
-1314.24
-5654.97
-5883.89
678.319
1381.92
-2454.63
5752.15
10.9927
21512.8
19638.2
3300.82
-3014.85
-5551.88
-3195.1
-5518.71
-3484.62
814.017
-133.293
381.789
701.922
-1395.76
-1634.29
-7224.63
-3529.63
-3751.59
-236.401
8356.82
-2885.79
-2058.98
11995.5
21534.6
15055.7
8974.87
29330
41056.8
46576
37822.8
68967.3
54013.1
67070.1
61295
86897.9
63310.1
77970.4
62153.2
94162.9
113387
119220
99124.7
101538
118845
114470
128254
113052
78878.5
96305.4
78492.3
63918.1
31374.4
52570.3
52370.3
47608.8
40543.5
22784
21257.7
28314.4
27518.6
33611.1
30269.7
25282.3
11185.7
-682.161
-3589.35
-9886.68
-8067.49
-4781.23
-2429.31
28034.7
54489.8
48994.6
35887.3
18041.2
32564.6
62545
64176.2
114867
144933
136146
124265
68275.8
70695.9
94660.5
81160.8
98531
74982.5
22200.5
22208.9
11046.6
-2785.9
5475.34
-1024.64
-2842.75
-2438.89
6115.69
13687.6
15261.8
9822.52
17544.6
1226.23
-6579.1
251.463
-2208.71
5421.63
-1893.19
-2523.88
5740.3
8863.36
2380.1
10682.6
-3084.65
2450.94
-2368.98
-2476.94
-874.131
897.652
13502.4
18019.5
23208.6
28382.3
7247.52
-386.585
9746.92
15448.4
13585.9
8588.58
12479.7
17965.1
-416.417
-2936.91
-1455.16
-1266.11
-379.453
5269.13
12330.3
11113.6
12117.2
20572.7
30921.1
16607.2
25078.1
20745.7
12951.6
7765.77
11596.4
1731.01
4616.13
5375.53
8378.2
6284.35
7218.74
3159.87
3374.06
-1175.89
2193.85
-654.288
-455.824
-1880.64
1765.3
2005.44
6156.69
19147.4
13610.4
13247.6
4198.3
7267.98
1437.45
-1415.54
419.771
4004.84
-1812.46
-706.561
600.577
5496.87
-3528.49
-1362.46
-1779.2
2746.82
31722.8
15936.6
-1982.42
-1912.25
8364.11
25923.3
40359.8
23572.1
16864.7
2360.61
867.508
2909.92
621.652
-346.93
-897.619
-8130.08
2972.92
10825.5
-821.855
-2700.57
5437.62
4909.45
7821.3
9529.04
7675.11
-2688.89
1823.56
2262.85
4569.56
1491.35
1586.93
4780.97
5403.47
1944.61
14312.5
38411.6
48995
44925.2
28735.6
37136.3
33658.6
30274.9
14341.9
12956.7
8006.01
11552.7
8480.94
11028.4
17895.6
8600.32
-905.896
-2173.47
4966.56
3289.94
2008.77
-913.844
2674.49
23903.1
18481.5
18418.5
6784.86
-554.623
-1175.7
4590.84
9380.17
5900.73
16915.3
17055.2
22074.2
24318.7
15667.6
10975
4137.26
-10018.8
-5504.51
33.0266
2208.06
6565.56
22073.7
8062.88
16092
18147.2
11372.3
41877.5
58931
86703.8
98487.8
79878
55246.3
77304.2
83558.1
60101.7
22165.7
20873.5
32534.7
31325.6
26815.2
27413.7
41808.5
21986.2
24812.8
24515.4
21661.8
14865.8
11897.9
11.398
-2408.12
-1675.36
2026.98
1919.15
-298.599
370.06
10174.7
15646.1
14303.2
24055
55550.7
46679.2
28063.9
23573.5
24878.4
13170.1
13452.6
22524.3
11235
31480.8
9078.54
3019.07
952.666
3984.21
5345.78
2562.85
1962.34
859.817
-2096.62
-770.666
-1441.81
-3169.68
-6999.68
4916.68
-543.631
-1698.26
777.762
-1278.09
4848.15
-1792.97
960.336
5446.59
16578.1
22749.2
20446.7
15352.1
15031
2867.42
32050.2
15881.1
31945.9
47224.9
28949.4
35704.7
25119.7
12055.8
9247.33
8608.25
5315.15
-670.745
-3412.63
-589.433
471.228
407.781
-2688.53
-1638.49
4383.92
2375.25
2798.24
-433.208
1141.35
5351.63
10117.1
9063.31
8034.23
6271.88
12825.1
10791.5
30377.6
31309.6
30457.3
33452.4
24722.3
33621.5
24673
23001
39638.9
30964.6
19688.6
21910.1
4965.92
6779.13
8753.82
4145.94
9242.74
2953.06
-4692.9
2589.84
3525.52
10811.3
29417
19057.8
12961.5
12054.9
14933.1
9996.58
13680.9
9545.51
30423.1
3673.19
8910.36
13883.4
11798.9
2392.17
480.249
1877.59
-80.7489
-4996.88
1567.74
1561.76
2363.04
14319.6
534.424
3574.86
4721.34
8681.81
495.527
-2338.48
-3008.58
-5005.75
-6254.67
4330.54
4711.09
5006
22275.8
31406
15177.1
9514.74
6744.57
3612.57
8875.22
4513.62
7267.59
2790.84
2887.88
2324.08
12142.4
9654.14
7538.68
-1731.05
-577.708
4460.98
-298.692
-8135.12
-14026
2629.85
-6824.14
-4451.29
-5148.41
-2513.32
1323.17
151.077
10681.3
2482.42
4408.32
-1743.63
-1256.23
-1927.81
-4517.39
-1937.8
300.517
3219.34
-2923.82
-1291.55
-1441.92
-5008.6
-834.483
2912.35
3402.46
-1646.88
2222.37
1913.41
6207.9
9341.96
8280
7954.58
1420.95
-1004.82
1514.31
-2733.69
5474.61
12449.3
8469.34
1483.98
2342.92
-1721.26
-2065.49
-1464.12
-2561.21
-4277.81
-1159.01
2417.01
2971.86
-807.809
-1377.97
-14956.8
-5396.32
-7455.36
-6058.26
9336.8
2514.19
7042.19
4740.79
13089.4
4389.95
9533.12
575.24
1904.71
4760.25
6448.61
13352.9
20186.1
20446.8
16630.3
14932.8
26757.9
16890.5
16143.5
22758.8
20998.6
18328.1
6590.01
2546.39
-1998.37
3561.81
16275.4
17910.6
17296.5
29894.5
27014.3
28666.3
25876.6
25961
19898.4
-1014.54
2628.67
-2666.95
-8854.7
1651.68
10650.1
4145.38
-4393.99
-6807.26
203.334
9197.24
4144.48
3897.79
624.496
3190.93
3203.99
525.241
-411.595
1524.55
-642.365
-2929.09
2675.7
1721.38
13756.9
15708.1
-537.569
4539.28
9894.39
8670.69
1373.55
3644.2
-1940.41
1809.59
-3926.48
-12877.2
-6920.85
-3405.79
-1384.63
9903.58
1328.28
-2283.92
-946.82
-2053.84
-4997.47
-2553.07
-6180.28
809.715
-6144.37
477.561
868.338
3492.09
3648.69
2492.67
1630.29
732.848
4647.55
-3231.87
-2750.1
129.833
-2.4821
17829.2
-38.6874
-4202.1
6742.55
3557.06
1904.69
782.037
1920.64
-3367.86
-1232.19
919.18
1482.12
3550.14
8775.79
11432.1
10625
4838.74
9956.5
6610.2
6013.83
14184.2
18891.1
25213.2
7538.95
13052
636.318
10110.4
-2795.71
925.771
4572.95
11995
1875.55
6678.22
10530
3734.24
5569.7
3763.18
-4379.08
3897.29
12522.9
19646.6
13250.1
21887.3
16733.5
24323.1
38368.9
31590.5
44426.4
40671.8
10870.9
7448.96
18909.6
12133
11436.5
13928.9
3330.58
286.874
-1746.72
-23140
-5567.02
16829
14247.3
11465
6542.68
4342
7591.05
9495.49
18137.6
12511.5
6155.9
5619.51
734.853
5347.82
3603.95
3289.46
17380.6
14170.1
27104.8
20111.5
23721.5
30683.1
19162
49149.1
69832.1
39740.1
69060.3
134361
142355
122619
106849
70732.6
62296.4
60590.1
68532.5
59804.2
33961.1
38678
50410.3
57235
51860.3
62371.4
101247
145995
135826
135318
164029
155985
146494
135911
91759.4
80419.6
67764.8
54565.9
49604
68609.4
60701.3
61174.8
33480.6
51478.4
28928
25459.6
40429.6
15805.3
7968.64
7598.19
14921.3
17814.8
17343.1
2560.69
3759.95
2649.22
-6265.85
-974.985
10333.7
15427.6
20621.2
21090.8
22554.6
30232.1
28095.3
21645.4
23018.2
16887.4
17081.3
23967.4
27397.7
31285
37218.8
54567
59728.2
47246.6
68393.8
45909.9
29565.7
23956.8
21045.6
12788.9
30677.9
16033.7
16503.1
5976.47
10239.3
4484.29
4700.53
-1979.91
984.399
-182.015
-6610.75
4858.38
5095.9
22004.2
2354.87
-922.443
-2318.39
-762.561
855.586
523.356
2346.57
5757.18
2461.71
6158.83
7816.53
10774.7
20269.2
3368.56
101.847
-2449.07
-532.484
5982.63
6193.58
6746.76
5739.48
12407
11136.9
18180.3
16461
23978.7
29971.5
31159.1
62605.3
56516.6
34059.1
38874.2
13095.2
11559.8
17914.7
8387.15
14540.2
10893
9846.1
17590.5
6732.87
3604.17
-1346.15
200.216
-155.304
-3537.43
-6460.01
11495.2
5937.26
10495.4
17457.4
9766.99
3768.87
20393.4
7590.28
12817.1
5227.6
2184.83
3983.31
3416.57
9042.16
2880.1
4499.03
951.175
614.621
5101.02
3038
6847.51
14512.3
15689
6921.26
1138.88
-2753.58
238.663
-720.011
-2944.96
-11472.9
-177.122
9070.81
5578.42
10117.5
23042.2
41849.2
25103.1
17327.8
8808.81
9609.49
13097
20345.4
28659.6
18818.1
7617.97
4611.14
-2887.67
7251.62
5234.01
6253.73
4013.07
4995.76
5366.23
1828.03
1733.49
2315.34
2893.68
123.516
5154.32
6337.26
13334.8
7832.65
-482.813
-8338.25
-5363.8
-2407.22
-7452.95
1324.96
2384.61
2542.19
2043.47
2837
2221.23
10242.2
5792.28
11584.8
5173.18
5871.39
5021.95
4257.18
6028.7
6508.42
7783.19
6421.35
7841.87
14144.5
8109.96
9709.56
1033.38
5431.46
403.341
-2609.54
-6155.39
5529.2
8088.81
-7609.05
-786.2
1372.42
2097.69
-12410.8
-474.061
1821.07
-3257.38
-2648.75
3971.58
6714.41
15161.3
9983.51
3315.58
5267.27
4200.76
3638.71
5604.79
10164.6
3938.7
20559.2
8870.64
17982.4
37054.9
37597.1
34023.9
29354.5
15545.4
19959.6
4460.73
3596.09
-195.991
1479.72
1329.89
852.031
19410.8
978.732
-812.812
18316.6
49191.6
23613
9080.44
9232.03
5487.24
-312.196
2040.45
1451.08
-495.437
4405.28
2120.92
5626.65
8257.16
10726.1
-1645.06
-1700.81
31801.2
17077.5
34172.5
7675.2
4542.15
271.82
1703.79
-2206.67
4423.85
7507.54
11200.7
-1374.79
-930.677
-4270.7
2505.23
6433.74
2662.87
11560.3
11048.3
9760.9
319.488
5537.51
525.879
3013.65
13311.1
3254.04
11682.7
9811.28
16538.4
24893.1
5620.66
-207.126
1339.3
-5176.33
-4072.96
3418.8
4964.56
-321.939
1092.13
1961.3
-2122.42
4735.56
8958.12
18783.8
22459.2
15099.1
6929.72
9357.45
6567
7985.66
6459.66
8214.3
8694.43
8608.03
4434.95
-7112.18
1032.6
16651.6
48609.9
57449.1
50174.6
64562
71189.6
82359.3
52185.4
40502.8
19548.1
33621.4
13198
11224.2
29227.8
25471.7
25825
26699.8
38425.6
49846.9
40431.6
72877.7
54491.4
51413.1
46675.8
73251.7
54863.3
47797.4
74857.9
72814.7
70437.6
31526.7
50768.9
73464.6
34687.4
28785
28445.4
33226.5
45051
30288.7
41005.9
34078.5
44010.6
59195.8
116471
114180
109316
93527.5
97540.3
95796.8
75410.5
55912.3
39699
58027.3
62476.1
29982
34962.1
20231.5
37776.8
30409.3
30012.4
22808.2
36747.3
29169.4
33247
27785.6
15266.8
37751.8
45456.6
33660.5
29388.9
31453.9
2063.18
13263.4
20173.4
26638.9
20977.9
15519.9
13768.3
1169.25
-8447.73
-5031.39
-4794.4
-5692.61
-3561.31
-7410.21
-4584.54
2804.47
726.685
-1596.46
-410.359
-1726.2
-2293.27
4843.19
3907.31
10056.9
7690.78
5747.26
3921.62
3499.02
5562.79
-1316.09
3556.43
-3498.05
2510.01
-1400.25
2680.2
-1909.5
419.53
9660.99
11486.7
36539
31859.3
23538.6
16645.2
7710.04
446.099
1151.87
-3482.87
-2972.48
2536.99
4583.5
10614.5
5755
7805.71
621.541
4346.3
4795.17
528.281
2757.23
522.578
5892.18
-3922.55
-1168.38
2461.53
10337.3
-4369.41
1068.23
7356.43
2151.24
1109.15
2163.5
15077.1
24580.7
31613.6
18853.6
7550.33
6596.45
3793.32
6261.11
160.539
4442.6
5288.87
13645.3
16996.5
17553.4
22797.5
26207.4
25827.8
31502.3
32488.6
11104.3
2058.11
7854.13
10971
7433.39
4013.68
5812.23
3060.41
-224.876
1797.31
701.166
427.145
1589.39
-4697.18
2663.62
7280.66
11354.9
6966.78
3291.3
13378.1
15237.3
10247.7
9497.28
11738.6
18075.6
18862.3
10306.9
24315.7
26526.7
25197.1
13312.6
-1811
7903.8
13480
6373.12
6517.72
8041.87
13584.4
-4274.51
-8243.71
1497.98
2105.01
7276.52
2388.1
5619
5439.58
1045.9
-506.824
10343.4
9823.69
12505.7
6243.7
5347.87
-1622.84
158.457
829.078
997.294
962.17
6228.28
2418.64
5124.85
11859.7
15171.9
1528.7
8426.43
16201.8
32858
34493.6
24145.3
40138.9
26535.8
20189.8
28350.1
7846.42
8666.1
13643.3
7071.34
21984.1
8711.48
12254.1
14572.1
8277.13
29922.1
18287.7
12172.2
17437.8
13264.1
16763.1
7641.8
4406.68
18086.3
8318.51
13448.8
14374.6
24391.9
7433.44
-3624.12
6256.19
24135.2
20332
11395.3
8322.46
4316.16
23924.7
40413.3
57679.1
26839.5
43178.1
33180.3
9838.02
13809.6
15828.8
563.92
6332.98
8381.55
6506.75
6735.01
6051.43
5982.64
10891.6
8322.84
3931.35
3146.88
9973.7
-438.723
390.746
1979.47
-3552.42
791.904
9498.69
16125.3
13892
1918.49
-1225.49
4666.49
-992.558
8914.15
5081.57
531.877
1581.06
9976.46
191.288
-1547.42
-2601.19
6551.94
11938.7
-3241.9
691.541
-12784.9
-5480.31
1158.98
-2642.32
3454.91
-1312.36
-1994.58
136.066
2038
3926.12
1832.94
1212.86
-4724.06
11620.3
15139.2
19828.8
12141
29143.8
32195.3
30751.6
37998
35716
15188.1
10273.5
19588.9
6464.8
5951.92
14388.6
32610.7
42699.6
29201.8
38014.3
29277.9
40836.2
20182.8
27658.5
13954.5
13862.4
13243.8
22761.2
15053.1
21675.6
23537.7
25241.6
21705.8
35254.3
29391.7
25877
9013.87
25772
26774.5
47874.1
46643.9
38847.4
45581.1
66759.1
75865.5
100270
45820.4
43209
48895.3
51250.3
42681.5
27513.4
26808.9
41904.1
40756.1
44516
63690.9
68325.2
51772.1
31823.2
27695.8
16047.7
12362.2
26950.7
20713.2
21187.3
18984.6
25716
34594.2
57237.4
61795.6
67077.7
51155
32273
22688.6
10237.9
16145.3
18788.8
21974.2
12856.5
14400.6
13251.3
32432.3
49534.9
37388.5
23968.3
34242.6
16743.6
5152.85
-774.123
3681.33
3188.28
1127.27
-292.219
-3.84184
1594.23
-355.529
-2208.63
4399.25
4739.12
-3818.68
2248.43
1751.51
1448.27
938.212
153.189
-7628.08
-994.9
-1269.56
-5305.8
1370.23
-1265.86
1135.86
341.218
-1862.83
2932.27
15235
14360.9
11149.3
8363.66
10241.1
2856.58
611.217
-1207.2
10156.5
13433.9
3907.78
2302.17
567.409
8163.85
14484.4
26903.5
16673.7
11420.6
24169.9
24517
24268
32041.3
18498.1
10189.2
5042.61
-927.861
-1072.02
5035.85
5315.28
2127.95
-436.243
-2167.51
-1393.7
-3721.92
-586.138
3834.99
3948.72
827.036
833.79
9666.57
-6583.53
-5945.79
-3221.59
-354.769
6057.37
12175.3
2919.3
-978.298
-4608.89
-597.912
-3521.46
2.3816
1905.62
3078.6
5181.01
-989.539
5217.32
1062.06
-4909.28
-5573.08
2693.15
919.298
9231.71
6310.58
6113.04
7650.34
3339.39
8529.69
6521.45
648.412
2467.81
395.312
408.945
16198
12713.1
22371.6
27495.5
22807.4
19176.2
9366.41
6386.41
9715.64
7519.5
-1542.2
5509.81
9809.01
7349.69
3137.88
-769.143
5292.67
126.06
-4944.39
-4612.14
-3697.17
6242.38
7216.41
14536.5
11400
16862.6
14891.6
11880.6
3027.62
-9546.42
-9266.96
2394.13
3099.88
2892.44
9531.52
-5425.38
-5018.26
-5923.34
-9300.81
-3877.95
-3709.34
2637.38
9055.73
10867.5
12656
18362.2
10310.3
7408.65
4664.54
4456.22
1066.39
6101.92
-2663.56
-4260.3
1814.26
3369.38
4782.82
-217.381
-93.4029
3952.26
-3206.15
4906.24
1214.85
7548.72
-5126.95
-11345.2
1494.64
-1731.57
390.624
1118.77
4105.53
11462.3
63.7264
-2250.13
-1789.16
-1712.35
-5244.17
-3708.67
-1979.01
9296.49
17673.1
28102.6
46114.1
46274.2
23997.3
21526.6
5019.24
22969.5
25188.7
18200
5216.58
8170.56
12153
10298
21156
21704.4
22711.5
33606.4
19984.9
19319.6
16897.7
5235.39
12856.9
14837.5
33513.6
23742.2
51373.2
40326.4
46478.3
30741.2
4322.73
1781.77
2402.97
16745.6
10738.6
2489.77
22473.6
2540.83
8546.83
11551.3
23367.1
12084.3
7861.75
34.1131
10686.8
6865.06
2752.03
-651.855
-789.358
-1766.7
-610.437
7104.07
13479.2
19227.7
27838.1
10789.8
8800.31
9769.17
5504.3
23514.9
3443.43
-2295.05
-2666.87
7810.22
4433.49
-2220.92
-297.421
826.993
962.881
-808.842
-1897.67
1021.34
337.234
4674.63
607.512
2574.07
2425.09
6974.51
14702.3
13483.2
14743.4
11259.2
8943.3
7984.53
-1117.93
3726.76
2799.2
2158.46
2134.31
6600.76
7581.08
15723.1
7017.4
3526.01
371.144
6019.73
4301.64
2986.91
108.665
-1272.05
5371.93
2174.65
6667.25
25257.8
34146.2
34866.8
43343.5
25283.1
25714.1
19801.3
18236.4
9591.89
33349.5
18755.3
13843.3
3221.99
1757.84
3412.3
3200.5
2749.34
10473.7
14013.3
13246.2
4581.06
979.881
5376.05
11825.5
6938.59
-75.261
9631.44
11458
25972.6
47559.6
23888.4
7277.69
3698.29
3284.21
26054.2
32306.6
30119.9
34886.9
54735.2
24430.3
40215.9
37984
19870.2
15326.2
29005.3
8485.87
8759.66
4874.67
884.252
2809.1
-771.507
1499.15
3190.73
5140.92
3477.62
11985.6
5770.08
1321.02
15609.6
15220.4
23440.3
6972.18
6837.15
2928.72
-6544.29
11749.1
6073.59
2838.23
-5200.9
-1728.79
1592.53
1211.8
-928.652
-1114.02
-2543.32
498.109
775.608
1287.21
-3612.7
-6067.85
-3792.74
-1388.95
-7315
1318.78
-3410.13
-70.8826
-3116.75
-238.015
29.0948
-3547.04
4506.24
2644.45
8034.37
20880.6
16258.7
19215.7
33498.9
21713.7
4527.27
4521.86
-496.953
-3201.51
4240.87
5733.25
-42.6177
61.4859
1256.98
-1208.58
-2400.11
-8429.74
-2610.6
-189.256
-739.575
-721.558
-5496.58
-991.449
513.291
2026.7
1781.65
2205.06
6569.18
7020.77
1918.73
8038.13
11067.5
1189.85
9591.26
13537.7
11313.9
290.576
-5723.7
-2011.79
-2208.4
-2273.75
8642.35
4283.4
7972.98
-475.614
2778.64
637.841
-3523.39
-2788.11
-5183.2
-2945.95
2288.76
-5297.2
5592.87
8776.13
12584.6
6864.4
1308.09
3202.2
-4180.43
14514.5
5927.23
4088.6
-955.022
3173.9
372.535
1416.34
4512.48
9039.48
7697.12
5715.85
26504.6
11745.3
11555.9
10852
20588.8
30575.5
22407.8
8683.38
-2475.72
-2410.64
-2757.79
-15301.9
-6278.93
-3062.54
19531.2
10689.6
19368.5
15941.2
18036
19957.8
19652.3
22629.5
28175.4
34054.9
24865.6
28958.7
26697.6
56882
57277.2
65560.2
61475
64299.9
50024.3
51257
56279.2
35131.8
35891.6
24894.6
28284.9
11292.1
-8186.66
-11332.6
-6901.07
123.372
1363.72
-5175.05
-8934.28
-9636.11
-7036.49
-1360.19
234.414
-17318
-9532.15
1289.72
6811.35
1381
-3243.5
-3634.85
-7035.03
2641.88
3610.79
931.387
1737.29
9928.93
7626.01
9352.7
6886.13
9051.75
4182.4
4211.17
-355.366
23981
21057.1
24910.1
22856.7
18358.8
5503.35
20862.2
31021.8
23589.4
21210.9
9919.16
45992.6
72311.7
79778.4
72014.4
75741.9
82134.8
81881.6
65909.9
49590.3
64175.8
56642.8
46611.1
32013.3
22216
10489.4
1154.64
13100.1
1859.95
14117.9
20365.5
8977.2
11891.1
10487.5
17241.8
29460.5
35236.6
23031.1
33008.4
37658.4
48938.6
67912.4
87952.8
89934.9
53886.2
32812.9
44153.3
47967.7
52937.1
29682.3
11990.6
9563.23
14529.6
16586.4
21652.6
27896
8793.87
4052.84
-6385.07
-4304.52
734.475
-272.399
8991.89
5678.16
2343.99
17852.6
20058.7
12457.9
1169.98
508.902
2191.33
13142.7
21103.2
14639.7
13076.4
8659.99
2237.59
-5424.38
-1953.74
-8794.34
-3461.86
4260.39
6908.06
26483.3
21283.2
40005.9
72067.1
72845.8
36038.1
21630.3
10721.6
62322.8
68558.2
105630
81143.6
38930.5
48612.7
64492.5
52238.8
63741.2
39847.2
34033.9
47762.8
37110.3
16991.2
31081.3
23364.7
26053.5
32931.1
22117.1
5952.39
6840.85
12894.7
19468.6
5429.67
1848.14
11343.1
20888.6
29434.5
22647.3
17547.9
34297.4
24324.7
19439.4
11119.1
7895.59
13852.8
23635.1
27539.1
19744.2
25025.1
20757.1
10230.7
8642.68
29087.7
28234
18880.5
23814.4
11176.9
24514.1
13992.6
19562.6
25753.5
15174.1
15069.4
32446.9
54462.9
57795.6
25833
10197
20344.8
26315.4
19068
10753.5
24048.3
36726.1
33515.7
21684
26100.2
8733.25
3836.39
4298.8
11122.3
1728.75
65.7901
3416.31
8967.49
23248.2
35803.4
45153.3
35647.9
37043.7
32680
35510.8
41416.9
42810.9
54271.3
34044.3
52143.1
68842.2
69951.4
59092.4
84896
58644.2
59561
87484.2
82167.5
51489.4
56655.8
53069.8
25669.7
28047.1
20383.8
37496.5
15044.9
14392.9
12746.6
12534.2
2249.89
18238.8
31706.8
29809.9
23885.7
13148
4328.29
2841.2
-516.831
4290.89
15458.6
7275.3
2318.03
73.3502
4098.59
-1283.38
-2422.26
-4303.38
-3246.94
3562.81
3644.26
2045.8
-8.66489
150.342
503.208
5806.65
1409.12
-980.078
1330.62
-5509.51
21.7002
-639.689
-5354.02
-4384.79
-7945.04
654.827
3785.72
1837.62
8028.3
43424.8
33582.2
25049.5
27016.3
12261.8
-1363.74
2599.57
2307.65
789.791
3136.96
4745.55
2546.21
6431.6
4251.31
-1305.38
1994.06
-3280.94
-436.985
-2608.01
-1723.93
801.535
-6055.33
-3007.12
2025.28
2789.99
1562.21
1443.48
2337.16
3608.96
5398.74
8575.18
30836
35987.6
12255.2
5554.1
2430.28
11301.2
17446.3
7425.43
10702.9
-5589.28
-3659.9
31.0175
2837.31
3417.63
-4286.8
1158.38
1122.57
-1682.78
5288.26
1784.53
6864.56
1025.01
11580.3
6188.61
4193.01
-736.491
10043
5304.18
9384.97
8083.36
7500.66
4908.43
-1109.51
6559.08
-5175.29
5970.76
10238
6152.71
3879.34
4171.72
7354.28
2032.81
1926.94
5809.09
5795.35
3294.77
2581.33
5191.12
12510.5
27824.2
34391.2
31490.9
25852.3
18848.5
30323.2
63720
45418.3
28154.3
17355.3
6036.75
-6382.07
-9113.62
-6944.81
-6865.89
-3049.99
3214.23
-3627.71
-1028.28
-5139.27
677.575
-491.424
4435.09
-192.344
5963.81
7115.93
7077.91
404.017
-3074.95
1657.19
2632.99
4036.37
13232.5
9222.74
4279.13
5611.23
6046.54
3784.96
47.1364
-243.919
-349.537
-2597.73
963.429
1625.1
405.479
4748.8
6353.99
3134.57
631.761
6824.66
5984.69
-3181.34
4466.15
-7172.27
11106.1
1618.36
-2082.96
3804.33
-3667.7
-4571.21
3439.31
5949.7
361.64
1604.28
4789.4
7452.5
-3924.84
-2946.04
988.412
-2066.49
-760.683
3198.13
-131.547
4905.77
8150.97
7313.27
3690.16
4955.21
-2063.27
-3351.74
1454.37
1166.39
3316.73
2622.71
4542.48
5320.98
5120.46
17546
30517.5
19145.1
31137.4
23447.5
25459.5
17450.6
14221.9
25311.7
30508.8
19290.3
35391.3
36783.1
26698.9
21569.8
5619.89
6954.55
-4549.38
-804.134
-1480.33
1084.81
6022.29
4671.07
8483.91
10539
-133.564
168.278
-520.458
3807.02
4213.37
-976.627
-3865.76
-5121.12
13903.9
14879.2
12669.6
23075.5
7164.91
18789.7
12835.8
11559.5
7081.96
14532.5
8502.19
10657.7
-1574.5
5251.56
10721.9
17284.7
17547.3
11142
-1128.46
8.16285
-1644.34
2804.48
-78.893
7998.31
31844.3
26852
21102.9
19861.5
25039.4
18724.1
28150.3
28348.1
15456.1
5711.75
7150.74
37769.8
60204.6
6649.95
4454.34
6878.3
-4820.81
1025.35
1017.7
5194.9
1697.96
1336.17
902.503
-2871.12
2163.4
8331.65
1561.01
-130.209
-4618.13
596.46
10855.4
16019.5
5610.66
5989.6
2794.23
-3796.27
-2047.61
2038.59
312.663
978.785
-1023.28
6240.8
-5384.12
-3337.96
2027.98
-1575.06
-2540.29
417.431
2371.17
4274.49
5485.49
20229.3
30147.8
27078.3
5869.14
18439.6
6633.13
5064.13
2957.07
3530.35
5711.49
6841.29
1319.06
852.491
1235.62
-1800.07
-1786.87
-13150
-5917.43
18542.6
10532
-680.216
-8683.89
-4608.64
1956.43
9236.9
1088.26
3267.32
9217.26
16416.9
16648.3
13914.9
15434.1
16952.8
10727.7
3271.76
7038.68
16040.7
5976.99
14926
30623.9
40400.8
34039.5
25721.4
50050
47118.7
11705.4
5744.7
3010.85
450.584
3343.85
4599.11
7268.27
11496.8
5670.9
6462.68
11029.7
8683.55
7201.27
-4698.24
1587.45
-1480.76
5227.25
9640.36
13839.3
18904.2
32845
15978.5
16897.2
20805.6
44424.4
24859.2
64669.9
82774.5
37542.3
40868
28295.3
27865.8
28590.7
37537.3
29582
45395.8
18157.4
5668.56
12639.4
14833.9
12762.3
10660
17107.6
12594.5
24174.1
36006.7
11460.5
30699.7
56683.9
48869.2
30759.3
26559.8
25232
17125.6
4592.81
-5687.93
-5757.82
-8170.64
350.088
1089.18
12336.2
8811.34
6931.07
6912.15
3148.03
6421.23
15969.3
11432.6
15499.4
9030.19
13068.8
9598.76
11576.7
2891.42
6551.13
25341.7
14443.4
21401.4
32989.5
24606
19940.2
25161.7
21863.9
14177.1
30944.1
30461.9
40580.9
16839
18877.9
9479.1
9559.21
-248.601
6832.13
24609.9
26072.7
33968.2
34580.1
27795
27387.8
10057.8
4515.22
1764.73
-773.123
-602.7
-779.231
-9677.62
-11339.3
-13055.5
8299.61
299.187
-280.505
2791.33
2186.16
1245.54
-969.842
18083.3
19808.7
31775.3
28046.7
21770.4
48367.1
27302.8
39198.3
44418.1
24612.7
17403.9
30115.4
19082
21300
13902.9
19338.3
16038.7
43510
52690.9
58187
35585.4
30793.8
28533.9
25023.1
37760.4
35830.7
43766.1
34063.5
7310.59
23250.4
16115.6
15897.8
16007
31615.3
49838.9
36989
54928.9
59658.4
41367.3
29046.3
28184.5
27601.2
42211.1
33323.8
35807.7
31154.5
40791.3
25537.8
23923.4
10408.4
12395.9
5688.44
11432.7
3004.38
7137.05
5332.06
3274.45
839.256
7991.63
3355.23
-546.847
595.812
1749.11
15680.2
31800.9
12846
11766
11987.7
27658.9
21326
29997.2
27764.8
1954.24
-1892.04
909.162
10225.9
14934.8
5507.65
2636.93
12183.8
2742.74
9423.52
719.777
3274.58
1564.23
-2293.38
11011.7
21519.9
20602.9
50182.3
67807.9
59923.6
52791.4
61271.9
88468.4
86660.6
65966.1
72611.4
66842.3
61247
37609.4
13952.7
10490.9
25777.4
47904.4
60587.1
36251.9
38933.9
29050.9
5525.64
9351.65
3020.43
5547.52
8132.02
6551.95
457.29
-2758.45
990.784
-206.169
-105.508
6406.99
9182.59
19212.2
42615.5
53366
57290.9
54465.5
57579.3
35198.6
27348
39368
22848.4
27203.7
17293.3
19958.7
8855.13
19911
31700.7
23337.4
11208.3
10377.1
8298.44
6804.38
-280.263
-3282.59
-11187.6
-3765.58
3306.49
5367.89
1204.92
2988.86
-1075.74
15368.4
20627.8
7486.44
4444.07
2806.47
1397.04
4292.33
4282
15344
13840.7
11524.7
5919.85
-4162.15
1605.58
9740.53
8383.92
7765.22
11485.5
10641.6
7503.89
14882.7
2982.41
9584.27
-1324.02
-6502.45
-4041.1
1253.28
-2638.04
-7198.51
-121.691
-1480.71
-3147.47
1387.27
-659.893
-6680.05
7662.84
2250.79
-8432.99
-3106.59
-1760.65
-4285.61
5851.16
3276.09
553.979
5366.75
-1954.28
4258.95
3145.12
2127.67
1459.12
2446.36
-2257.07
3680.77
13692
6014.68
8219.97
10081.5
3421.01
14270.2
21946.6
22702.7
15808.6
8965.78
7055.97
9860.09
10901.4
17314.2
15839.3
41143.2
48892.1
36011.5
32527
33939.1
33791.7
14477.2
7312.34
7378.42
4687.42
-6333.74
-3878.38
-3917.57
1239.35
-4466.45
1867.79
414.017
5095.06
7946.95
1936.79
-5338.91
889.544
121.442
-1893.32
1565.86
4044
1467.02
6707.43
1991.11
19954
10762.5
7561.11
5717.17
5383.13
5862.98
139.89
10160.9
10500.4
4037.02
1271.7
2717.46
1997.66
2604.35
-1009.5
-10677.8
-9433.68
1087.54
5565.26
3916.8
3044.97
-166.724
2126.22
34.105
1714.25
6200.1
5912.42
3562.49
-2325.69
629.778
6496.58
493.622
-2949.72
-1441.64
-1676.7
4785.52
8804.34
22194.2
22036.9
56068.4
27903.5
25128.9
29668
42178.6
36751.4
44627.8
53854.4
41738.3
56738.2
40151.9
26231
26099.9
38979.9
31399.8
38161.2
18399.9
6016.95
20902.9
27276.3
54335.3
35915
28956.7
9163.48
13651.4
6571.39
-2115.3
2231.45
-3766.81
-58.7916
-384.56
-5351.95
-35.6159
-2092.86
11245.9
7200.22
-1332.55
232.316
2057.8
6072.07
10597.1
4703.61
8462.64
19009.1
20496
10905.3
9362.03
-275.288
5258
4981.51
9883.93
6559.58
15863.9
8971.95
25489.6
1549.05
12740.4
18648.7
42573.4
48293.3
24640.7
25403.3
22400.2
14168.9
1977.02
7170.4
1666.08
-1802.69
-1136.42
132.921
-312.464
2471.83
-843.778
-1634.28
-1028.29
-2672.89
720.101
-3670.9
-7999.14
-3928.38
-2528.2
10425.6
18247.9
12927.2
13802.5
7787.37
16025.4
5065.2
4387.85
-1959.84
2225.7
9390.77
8510.42
4411.64
-4085.32
-4561.16
-7832.1
190.794
6715
6131.87
4068.02
8245.36
28294.6
59285.8
81939.3
55417.7
24333.6
42114.9
30136.3
28800.5
50640.2
53973.8
22505.9
7152.36
7736.36
5081.14
-1444.34
-1934.78
-1747.24
9541.87
7002.1
4624.35
3849.69
5352.83
3995.89
26.6208
-1531.83
-2127.83
-2298.1
4248.83
-1713.11
-2567.6
2658.9
89.3242
4255.22
-4237.05
495.287
1293.63
2070.7
1191.76
6125.51
3166.1
769.644
606.258
6954.19
1436.73
2062.32
-422.265
2422.19
846.691
1975.43
-1229.65
3279.79
1377.66
-5259.85
329.327
6102.05
-583.723
2766.3
4972.59
6093.06
7949.13
5996.38
-97.4549
-3598.02
2935.71
2967.41
-3916.49
1232.65
8250.61
11023.7
12051.2
-11929.2
-7594.51
2559.53
-1754.93
556.202
7812.11
11159.9
15520.9
6789.16
7475.48
264.979
-2199.32
-3405.62
-3322.12
1714.38
-3169.1
4318.17
-3651.03
-2034.09
422.956
3141.71
4841.18
6085.2
4886.02
3547.9
3327.78
-1816.2
-1876.38
-784.356
9159.94
1493.86
29411.2
44217.6
27395.8
28762.6
19051.9
28352
53069.5
14358.4
17492.7
15808.3
13996.5
1216.26
5503.03
5480.09
2574.6
5043.99
-780.674
-982.566
-749.032
-6543.27
2244.5
11692.3
15667.5
13266.6
11865.7
14801.2
14921.1
5621.92
-7349.72
4809.06
8634.86
5452.42
-597.589
-184.539
7628.54
3811.02
3762.4
6402.76
3827.91
3105.21
1971.03
-2697.05
2966.24
-1732
1101.97
-4319.84
-1434.86
286.135
3543.42
4177.38
22370.1
23429.6
14887.1
9693.66
11674.9
17743.8
14626.8
786.902
7261.35
10671
11379.7
1194.59
2687.17
550.034
780.2
-2296.39
3289.73
11010.2
23751
17244.8
10705
23756.4
14510.2
11623.2
21914.4
32729.5
32441.1
26536.9
32856.9
44822.5
22678.3
32057.3
22408.6
20522.5
38198.1
5598.29
10705
10201.1
29859.1
18540.5
49789.5
40470.2
64789
43925.3
29102
37024.2
32401.7
43696.4
34844
23928.4
38339.9
34814.9
28076.6
29556.3
11842.9
3180.15
1993.57
1749.34
-5897.48
14690.3
-3789.1
-2203.98
-1254.72
-296.018
6903.1
24175.2
10676.6
19369.2
24824
20564.3
19935.4
22312.2
19446.3
46292.7
38535.5
54583.1
44627.8
42196.3
42383.2
61326.7
59971.2
54538.2
82654.2
69333.7
59548.8
74785.7
52954.5
58322.4
56637.9
73053.2
80350.4
42181.4
35278.8
13663.2
26701.4
33503.1
28209.2
40106.5
23469.1
42801.4
25188.2
41180.4
41232.5
53572.6
25685
43698.8
32782.7
46909.2
41726.7
20066.3
288.426
2620.92
-1299.96
6691.18
68.3762
7905.26
7320.54
2302.45
445.828
7299.3
5487.06
20580.8
19048.2
18781.1
4655.51
5821.63
6572.62
3299.26
6679.21
3003.91
1158.52
2440.6
4005.88
1368.57
892.414
4965.06
10448.3
25633.5
14137.9
18661
8297.64
18450.4
19025.3
48986.2
19353.3
19570.7
17927.8
20024.2
20464.9
16820.6
5804.71
13344.8
11925.3
14524.8
8474.46
-426.466
4165.12
-1968.32
-3920.8
-1980.1
-6011.62
-2.89746
3099.18
1623.49
-324.799
-256.566
6783.37
762.033
1657.12
2255.89
10877.9
7529.98
18823.9
32233.1
19703
15165
28848.4
30385.7
62891.2
44621.6
48483.3
24576.9
23840.2
25699.1
21248.1
25190.5
24293.9
19751.5
11464.7
14824
4903.65
-3412.48
-91.1322
7803.8
6227.18
-2542.06
2202.33
5065.37
2391.43
4733.71
2233.19
6227.24
8825.69
633.258
6160.75
3120.11
-397.735
4571.81
2188.47
15395.5
2514.39
7818.87
-2454.12
-4762.95
12706.4
15445.4
3612.63
16792.9
17757
15666.3
25687.2
42762.7
54127.2
57855.1
76424.3
80957.9
71328.7
85736.2
80512.8
45974.7
37646.8
10688.1
18045
31713.1
36556.3
36814.9
30465.7
17166
3923.88
26719.2
24600.3
16335.4
20326.5
6317.68
-80.6219
-2027.72
1507.12
-1064.23
225.574
-1787.76
5154.71
1862.21
-2665.85
-316.413
-2575.26
-4267.88
8660.04
22505.6
5274.66
4613.55
-743.145
-3748.65
-1223.82
-786.374
-2024.23
-600.608
494.899
-1535.05
-1562.04
-719.247
1502.71
99.668
7840
-4809.78
-10688.1
-7334.66
9579.81
4039.79
9850.51
13746.2
20546.5
27124.9
29985
27656.3
19241.5
10538.9
5323.22
16845.2
32141.6
28777.3
59254.7
54545.9
53846.7
66510.5
92008.1
87014.9
54528.1
41048.4
30667.4
27778.2
15460.1
17904.2
15790.5
26643
18021.7
9275.79
15236.6
8504.71
10829
25131.6
20783.3
14135.9
33571.6
19085.3
22261.1
28691.9
21617.4
8079.75
13387.7
10168.1
17512.4
-36.9571
-496.01
-3420.02
20112.1
3774.59
-7177.8
-1423.58
-1260.34
-3906.9
388.764
1876.22
5098.36
17291.8
24659.9
24235.2
15744.2
16478.7
-561.611
6904.07
-188.919
-5802.76
-5879.72
-3512.26
-570.454
-1832.99
12499.6
22367.6
10842.7
1438.47
-110.357
3896.25
11647
4593.25
5522.66
8653.77
6512.18
3057.85
-5281.15
4174.93
8959.81
6627.67
8588.6
7899.35
7409.65
6052.35
6942.36
7119.01
-645.161
-754.166
1925.93
5734.36
-4650.43
1329.63
-575.054
-629.973
-3015.18
-1220.37
7068.84
3364.28
-1805.44
451.837
3550.68
1409.29
-1181.76
4698.58
6678.69
10591.3
2740.89
7216.93
6363.47
-194.63
622.335
4666.26
2978.2
766.728
-296.443
7925.02
3188.02
-106.39
2529.01
4968.91
5169.77
4123.63
2096.39
95.9002
2617.07
-5485.63
2905.25
3270.15
8017.5
8235.57
4964.01
7036.03
25716.9
15785.8
8270.89
6691.93
7840.95
11737.9
6865.23
12938.8
-502.045
10649.8
10348.2
15039.3
28893.2
33386.8
46618.9
68640.5
99306.5
87694.3
80704.7
58797
74786.4
85392.9
111327
116674
95494.7
86985.7
67047.8
41485.5
30857.9
32993.5
38258.3
55269.9
83011.5
72109.9
98749.2
108511
90354
111703
92183.3
106752
117057
94777.1
41627.2
84787.6
77334.7
79716
75771.1
59668.8
63778.3
74520.3
46768.5
12108.2
13087.1
11454.3
11765.8
10592.6
16076.7
16279.3
15076.8
22253.7
21908.5
17755.3
15379.8
8882.45
20903.6
4934.98
16207.7
11012.9
10165.9
5714.15
2981.63
1513.75
4974.73
6847.84
3525.43
205.21
4182.83
1270.23
-72.4135
5675.21
10088.6
14973.5
26998.7
12088.8
9396.51
9591.92
-303.722
2326.54
-32.5311
1187.98
4352.8
7112.21
3748.02
10078.9
23943.3
22145.4
9878.79
7636.11
3252.2
9394
9248.85
993.172
292.867
18498.8
15033.7
3330
3077.73
1489.07
2539.98
2964.39
7746.54
3564.85
-3952.04
-2192.61
-657.38
543.128
3789.76
1153.57
5529.38
3095.14
-9324.69
-13103.4
-43.2595
2316.07
9693.11
19138.4
25947
28508.7
28266.5
26856.5
40176.4
50758.4
59142.2
66904.2
128013
133839
118851
112100
106724
90133.6
83289.5
96797.2
99190.8
96290.4
103241
84723.5
12263.9
4832.87
4499.22
12371.4
14155
8457.78
12119.6
17809.5
13970.3
15132.6
15474.3
4092.93
3373.95
-4219.21
-1923.22
-4000.35
-7605.71
6622.85
-1319.4
-3059.66
-2414.82
-1695.01
11824.2
17974
33923.9
11974
3923.7
5488.91
3705.33
4835.02
3666.77
195.327
1082.33
5966.29
15570.3
4960.64
-2612.3
-1051.47
-1918.68
-4514.31
1209.13
13800.5
4298.74
7558.81
4440.54
5319.03
6745.09
-1461.97
1897.38
-2054.05
2672.43
-1898.02
-1228.84
-997.953
3923.64
4047
11523
19346.5
49268.1
39380.3
25591.1
26111.2
19175.8
11906.6
7037.43
9618
5627.51
11605.4
25822.3
8940.41
7849.16
2039.75
-1736.16
-2399.77
-1943.34
1796.78
2316.16
6831.9
3377.16
7096.65
14663.3
18305.2
14035.2
42057.9
31196.5
35617.9
23610.9
20327.4
18016.6
14431.8
8689.67
15812
7740.42
4049.55
13026.9
13608.5
15702.4
9750.94
1500.54
6547.15
1410.03
1061.91
208.063
486.371
1152.67
-565.22
6165.03
1045.31
-564.961
3217.79
1457.47
-3290.36
-2158.2
-2385.12
-4448.98
1497.41
-651.597
-4603.05
11966.9
26243.7
21254.7
25324.2
37823.7
19615.3
24005.3
19065.6
12482.7
-414.507
693.094
2325.19
1291.1
-1461.84
1281.25
-415.111
-2163.1
3091.9
2051.24
2902.51
7915.71
15971.4
11085.2
30565.4
27551.6
13834.3
21796.1
25148.8
55127.1
48240.9
38682.6
55864.3
49293.9
69873.3
59630.7
64955.3
48864.9
51462.1
42215
41273.6
40893
56230.9
30238.4
16450.2
31902.2
28561.5
21311.6
34134.5
42525.7
31787.2
35173
40124.5
23319.5
7672.02
13294.2
6339.21
4162.89
1083.59
-2131.61
6455.12
-415.432
-1072.84
-2433.71
3425.5
2737.9
11901
22283.9
52720.8
54989.1
28954.6
40934.5
10066.5
31727.4
41152.5
50973.6
17400.6
17663
18884.5
9003.32
-5964.84
-683.35
1734.61
-1615.88
2094.85
6262.95
4605.33
6143.83
1632.98
2086.32
785.074
-94.0478
80.9979
-3984.33
-2398.26
-1850.01
-1123.27
-1211.45
733.016
3366.83
7610.02
1889.24
2859.15
6118.37
1660.63
-1805.37
1781.7
15596.6
12402.7
1471.02
1475.25
-3383.67
-1732.73
0.254289
186.625
4410.36
8030.48
879.376
-3147.35
-971.934
3592.01
5311.58
4727.27
5652.69
4344.75
152.974
2635.95
11306.8
2117.57
675.87
4569.93
7624.12
6552.59
12443.2
6393.19
4876.76
16988.4
6145.33
12264.7
11354.7
3377.55
3182.15
3122.65
2908.77
499.508
-483.159
898.525
-2788.28
-2000.87
-2644.77
-3030.51
6546.31
11053
-174.361
-3422.78
839.365
1884.31
-443.634
6965.79
10969.6
20283.9
16102.9
11514.2
15554.4
3313.32
4593.09
4182.76
13163.9
22181
28344.1
30395.4
18140.3
45362.7
65007.9
53183.7
46471.2
46988.7
38142.6
30077.8
19453.2
25441.6
16302
16280.1
25480.5
18468.7
9096.15
32344.3
34652
42870.7
13360.2
43777
69959.7
62116
47361.6
40477.6
50600.3
64337.8
42029.3
39227.7
25393.8
23827.4
24236.7
42935.2
16141.6
35826.2
15497.8
7851.44
10363.8
10750.1
21957.2
19442.6
20401.4
11770.1
10691.6
15527.4
11843.1
2695.47
57.4087
8935.11
27648.7
13213.7
17347.5
20859
2123.02
4624.05
11316.7
14602.8
12140.9
8118.48
5673.23
10552.4
8796.87
5144.5
3698.36
3166.4
4720.66
8510.66
5568.4
5306.78
1572.37
6664.16
11422.9
1388
7152.17
2655.36
-2623.92
17664.9
12392.8
16316.6
21818.3
13451.8
17463.3
23802.8
14371.9
8520.54
12924.5
7692.6
15914.1
11546.8
12764.2
15487.4
5907.58
-630.4
1026.51
-1571.37
3072.28
3038.05
3309.4
15025.8
13140.7
3253.58
4187.7
-83.0108
2149.63
2637.51
-6718.7
7163.79
6171.92
380.792
-2103.88
4428.14
-461.927
11656.5
14800.2
2191.65
3562.01
-1354.41
-5949.53
-3501.04
-2611.67
-5641.7
-2678.24
-1887.97
2500.38
762.244
2683.84
4069.29
-2615.7
-5241.22
-236.173
3242.57
2566.6
-84.9736
-5071.87
5417.83
14409.8
17359.1
11834.8
22839.1
16676.6
10178.5
-3419.75
-12608.5
-2339
7220.33
5909.99
448.783
4944.25
2894.95
3074.72
-329.093
8093.9
-5555.29
782.04
1257.69
2303.82
-1675.09
1814.65
1441.29
2983.54
-1689.93
-188.28
-3658.35
-18367.9
-15591.3
-6246.67
3302.79
4021.33
4034.25
10989.1
11339.2
4045.06
1480.63
4659.71
21003.7
-9.82122
2931.02
30502.3
41264.5
33843.1
32511.6
40432.8
28629.3
11838.9
-2609.49
-944.215
-3830.54
370.168
5065.07
266.036
3277.61
2728.31
4651.01
12438.5
7113.74
6502.33
24747.5
23201.3
13684.1
8746.96
12681.4
6327.34
6462.21
6385.1
6609.36
12302.8
11337.8
6109.36
3864.62
8029.02
5704.24
20110.6
18402.7
12543.5
18075.3
10775.4
15819.2
19293.7
43593.5
59737
56047.3
32568.8
18827.7
14102.4
493.877
-314.034
4688.38
-3500.47
-563.246
1983.55
-1697.09
4715.97
14758.5
11586.5
8101.88
975.408
1983.64
1787.92
8493.86
19640.5
10202
13570.2
10220.5
16194.4
5146.03
-4166.56
1707.34
3273.37
6643.18
5427.27
5673.96
2414.11
4257.29
4559.6
3779.16
4413.52
-1642.48
2968.28
-1682.57
595.873
-5461.07
-8197.73
-19.1252
-9739.56
-3224.29
9291
3154.89
468.699
6261.39
3148.51
10451
15806.4
18394.9
5692.61
3318.34
-1646.77
-1139.53
6546.12
7621.07
1074.06
5328.47
18645
11250.3
6592.94
4393.66
10918.7
7501.12
13194.1
1027.41
7489.19
15378.8
15644.1
10469.1
4670.05
1001.88
-5511.68
1086.61
965.711
5043.99
6280.9
2642.16
10802.8
6301.3
5245.71
7943.79
3320.39
2354.06
4579.81
4659.31
5698.85
5129.2
5611.59
1792.67
719.743
4197.65
1406.49
4025.74
-2337.76
1549.87
609.933
2287.1
-1178.01
2388.86
-3997.41
1581.79
-175.356
18848.6
10587.2
17116.5
13082.8
21457.8
16042
36258.6
32236.1
23761.4
19263.5
31661
37059.6
41552.7
19118.6
23728.5
13095.6
24408.9
17696.1
27079.8
20997.8
7594.77
10912.9
23673.6
16731.1
11775
8432.03
776.621
2346.56
1470.99
907.437
2056.56
-988.345
8166.9
8338.73
3531.89
5441.96
1016.71
-2490.1
-1769.26
-2911.61
-6764.76
1708.7
3839.14
16493.9
11314.3
2725.73
2302.39
10559.2
38773.8
26991
11933.4
18967.8
36592.4
20727.4
37087.5
15572.7
9540.34
2901.76
7890.4
638.411
13.9351
109.331
-2602.78
1375.89
2418.3
560.822
806.968
714.486
-6896.86
-11243.1
1073.52
1062.92
5267.32
5813.23
2092.57
-199.191
-4080.71
-122.356
-414.955
3641.49
14258.4
12251.6
11432.2
27432.1
10682.4
2681.88
19336.3
19516.7
24447.8
12990.5
28704.5
25418.6
28937.9
16584.8
12266.1
14120.2
7878.45
9036.16
8026.89
2567.73
1471.84
8493.23
3453.81
2225.33
1666.67
5815.32
-2028.29
-6049.24
-7994.54
-3132.27
1021.04
2080.36
9393.94
12962.8
19210.1
35959.2
10608.8
5200.97
13334.4
22418
27613.9
30562.2
31728.7
35944.3
35838.3
38647
50702.9
48213.9
37682.9
12380.5
6552
1573.82
-4248.42
-1485.77
-975.572
292.086
7073.83
5671.47
-6744.73
-2214.74
-5410.5
3024.87
1405.17
833.273
2628.81
3585.74
6479.65
3067.44
-2246.66
6163.11
5239.34
4300.59
5699.32
-6387.91
-5116.14
-10743.4
-10555.2
-1912.05
3396.15
-2941.6
-3134.06
-4550.42
-4606.92
2206.05
17022.4
5966.7
10308.8
7993.54
5100.72
754.025
4037.72
4349.97
2142.59
-349.95
-328.787
-1485.71
7488.87
1883
14511.9
35404.7
22624.6
26057.7
19917.1
10879.2
15791.2
11740.2
7507.2
1234.21
2952.67
2133.06
4839.47
11820.1
-1581.55
5521.66
13397.6
9572.93
21365.7
26286.9
15717.8
9841.74
9943.22
7858.01
9184.33
9214.88
7574.31
14526.6
13847.5
8247.7
-5934.66
715.904
2829.38
4186.19
8265.36
16728.9
26575.3
19387.7
27182.3
36188.9
44607.8
36924.5
38055.4
64697.9
73549.6
58246.5
37390
52684.1
66526.8
58609.2
29630.5
10792.6
18778.1
6478.21
6812.98
1526.27
2291.18
13843.9
7745.35
5726.23
10618.3
15689.9
19754.1
13090.2
17185
15249
40666.8
58373.3
76652.2
87656.4
76344.3
71704.2
49956.3
55772.6
33613
21083.1
17922.9
3563.04
1024.24
140.01
11377.6
4578.8
2194.55
-301.021
-1313.39
-1179.86
7410.96
10347.9
5306.88
9405.13
9462.49
-1691.02
2181.05
5749.41
2036.06
-1610.35
3435.51
4888.71
5408.58
5856.53
5646.07
-2492.04
-1476.12
1708.64
8614.81
7130.94
18558.2
13602
18877.8
9841.67
10201
27950.3
30518.2
21858.8
11446.1
17788.5
22260.1
10340.6
10134.1
2765.4
-1437.44
1024
6996.8
789.37
4355.33
5655.11
7472.4
815.64
1431.19
-226.861
579.898
5195.81
9109.69
10401.8
10606.2
14609.4
32427.8
41606
15745.1
18774.6
33342.3
27555.6
4523.43
-656.938
9138.35
3891.19
4172.09
616.901
-2315.89
592.575
-4324.07
2645.85
5120.01
10833.9
8604.89
25559.8
29881.5
36209.5
28536.8
19759.6
25728.8
36241.3
25167.2
4372.98
10243.7
3111.52
1381.02
10999.8
3194.09
610.982
1846.83
1474.01
-3477.84
3981.01
1652.13
4742.8
-949.856
20598
17746.9
27486.9
23596.7
16369.5
3860.33
-462.983
-978.649
1247.73
-3959.65
-5021.68
-173.003
4751.28
-2308.98
2632.26
17674.8
17547.5
29292.2
50579.1
25683.5
18267.5
34192.1
15258.3
16321.5
4630.08
10305.6
9877.6
2648.98
3010.16
-730.329
-632.329
1388.04
-925.832
-1296.88
3614.7
4496.89
4990.36
-1906.17
-426.412
-2873.03
2825.57
4382.96
1164.51
-1410.37
-824.37
-4006.25
-6675.65
1087.84
-1028.78
1714.49
-7049.66
126.178
-597.147
-2026.62
-3137.44
-7135.53
-1464.38
4914.81
386.706
807.243
3688.39
3470.19
3100.16
3645.81
5108
-1977.12
7457.38
-2295.83
-1337.24
-2320.35
-863.075
23648.7
24611.1
26520.6
18368.8
10973.8
6524.5
1128.02
-3632.32
2319.56
-3982.6
11866.3
-2867.79
-2172.81
4341.16
1554.07
1339.46
8013.03
21981.2
7302.57
7829.02
5127.81
2441.64
9468.81
10385.1
2230.55
6874.98
3789.23
2549.02
3789.67
1366.62
5328.55
7956.36
-1236.12
2260.45
2171.5
8934.57
9425.91
19976.3
33229.1
3270.59
1621.5
-2390.51
2668.78
2532.11
-1762.92
1782.01
5168.39
1254.09
2311.05
4801
4662.88
768.816
3960.4
9467.41
6296.37
13316.9
14293.6
3298.68
-3244.53
-1109.41
-760.127
126.633
-3273.76
-3412.44
-3121.99
-8550.52
-8161.4
1381.71
-5579.61
-6020.42
-1915.94
488.95
14270.2
18328.4
18050.3
20555.5
26292.5
18316.8
24275
12431.7
1656.72
-12093.4
-8233.28
-5062.12
4074.11
3260.64
1891.93
-191.389
1032.71
-3156.72
-6601.64
2140.68
3441.87
6207.77
3426.59
6358.64
-3832.49
6062.46
-242.254
2511.93
1807.9
6536.11
17070.1
5334.71
994.076
-1060.71
5320.49
16409.3
27908.8
25905.7
6229.99
-3250.88
8891.96
8539.4
1325.09
-6691.45
10017.6
5874.04
2594.98
-2189.15
-47.5339
-870.555
176.171
4773.22
15766.4
12910.2
12149.4
2174.66
3541.56
-2002.8
9305.52
1120
343.554
1052.86
-3794.43
1210.92
2749.85
499.941
3200.45
-912.878
687.815
2196.82
551.792
-1384.33
-586.532
2496.09
8817.28
10693.7
7339.17
14779.7
5349.84
6958.51
3333.92
-2425.4
1333.09
-495.921
11354.4
540.398
457.501
5512.57
3746.79
-2840.57
-1388.98
-565.205
-3058.01
-13559.7
4166.97
8831.17
16178.6
16676.5
25202.8
13517.6
3143.24
-1179.32
8436.07
9373.03
7870.98
5108.51
40871.2
28414.4
33399.8
14574.9
25828.8
17720.6
12387.5
20956.4
14419.5
6300.51
8780.9
7058.68
7179.7
11180.1
5032.41
-3762.53
1525.85
-761.701
1706.78
456.291
-744.771
2186.3
-1994.5
-2518.02
-2081.54
58.9109
-4160.85
-1368.93
2852.72
589.054
-434.556
1624.84
-2271.85
283.336
2179.57
25139
23499.3
11295
12992.7
8179.45
23061.5
13114.2
20003.9
7483.93
18463
24894.8
23619.2
26627.5
485.89
4445.9
-5361.78
13438.8
4723.65
4307.03
3017.46
-233.657
5237.08
-8348.09
4615.33
13666.9
14796.5
302.021
7603.89
2281.12
612.91
14632.2
31196.4
2523.87
-779.191
-660.42
-7711.58
-664.136
-7490.65
1988.61
2079.92
5358.72
23724.5
35539.1
37579.7
49843
55302.4
44200.5
14815.3
21910.7
20669.6
3686.75
5249.02
992.593
-2495.5
2857.53
-129.358
5520.97
8576.44
14956.2
7635.72
1527.83
2624.13
14521.2
13785.1
11707
13525.3
19032.4
-7943.34
449.655
-3709.89
-5613.36
1573.86
2536.72
922.486
-1382.9
9652.25
4426.71
7756.53
7749.24
11205
7340.48
-87.0818
3380.1
-846.74
-557.673
1345.03
3557.07
1490.65
2181.31
-591.832
3273.06
-594.756
7749.52
11472.8
8015.04
-1688.68
-3811.96
-2392.42
-1954.69
23406.8
11962.9
7899.03
8017.96
25.8493
-108.66
530.735
4758.31
690.863
-701.906
3244.65
2687.7
7739.37
4005.13
-2353.61
3515.93
4841.84
1696.53
6035.57
13198.7
7523.49
-2932.84
1461.64
2882.55
5220.13
3574.14
1426.72
1651.96
5275.46
-1204.43
8345.7
10357.1
1131.96
6676.11
2401.33
-4872.63
469.908
1847.01
949.276
-3074.78
472.533
11795.3
11710
13473.2
13323.3
12396.3
13289.6
17654
10931.8
-5435.33
20849.7
14327.3
15533
19046.7
30377.5
73810.1
79016.3
124325
142754
154657
161377
136640
161661
110930
59916.2
99490.3
64702.1
35596
51223.4
35239.1
19889.4
17131.9
9165.74
6970.99
5689.69
1732.04
2734.93
12600.2
21282.6
48223.4
56310.4
64934.2
61823
45497.3
67532.8
59593.7
52619.8
51336.5
58976.4
34201.3
46028.3
33518.8
46092.4
31619.8
28670
34322.4
24642
49160.6
66714.3
82450.2
73215.3
65293.7
60357.2
53821.1
35828.9
16021.1
24652.8
21606.4
21805.7
24905.2
2887.1
4545.81
18223.2
75950.5
42159.5
30252.7
49121.9
74365.6
64022
68698.2
33675.5
24781.6
21670.8
5330.34
-3801.8
-2008.7
3476.75
1120.41
4445.59
1862.33
2434.65
97.0846
-960.217
3485.84
5458.57
4607.54
-683.813
2080.63
-501.576
-825.81
5796.12
2107.92
-1312.59
5207.78
9205.35
12025
16758.6
6983.67
4100.9
688.499
3294.57
912.944
-3064.48
-5231.23
61.5423
2435.68
1799.92
-3072.14
-701.569
-5276.6
-2442.74
2104.8
7550.07
4970.91
4941.93
1747.29
2553.44
888.451
-1525.7
-3414.62
2302.94
7153.87
3875.61
7192.46
-3473.27
16612.6
32238
42601.6
35732.3
21931.7
13363.7
15690.8
7306.94
3316.81
9815.55
8460.45
1968.39
1409.82
523.193
11409.1
15535.8
9819.12
7391.93
12207.7
5886.43
4580.68
14034.9
3767.86
2831.1
-2725.94
5558.76
1265.07
8348.03
3706.5
1877.18
1855.95
512.309
1964.78
4734.94
14925.7
18463.3
6773.31
5203.24
9009.62
18759.7
9257.84
8202.43
14969.9
12769.2
14243.3
22283.5
17997.1
614.239
21417.9
13642.4
9450.48
11147.6
25290.2
30895.9
16887.2
19507.3
1607.27
1154.72
-2064.59
-1212.72
2576.35
7950.75
7562.56
24632.4
15190
19111.2
11272.5
7706.99
10844.4
3803.39
900.666
1762.79
22525.8
9561.9
20728.8
9112.19
14127.5
32690.4
24710.2
17903.8
7368.45
5528.29
7260.24
5649.76
4319.31
3424.45
11151.7
13407.1
6940.12
8102.87
5855.6
1818.46
14142.6
27298.9
31466
32077.1
41428.2
36847
27273.1
32494.6
19406.5
26917.7
22136.3
22188.6
2702.6
1767.73
258.053
522.668
-1710.76
-2704.73
1113.25
5792.24
-274.116
-1035.89
180.854
2418.72
4725.07
8407.64
15493.6
22159.2
23691
5971.44
14444.8
11965.1
11147
4830.85
9977.01
4858.51
274.866
-291.904
8847.53
18441.8
21352.4
8542.49
13774.6
4133.48
5604.48
8144.34
4276.64
12249.9
37138.3
38830.7
36906.5
20216.9
22257.7
18283.9
2175.55
7581.26
11295.3
9949.32
4180.74
14047.6
5565.86
1627.48
572.766
7731.42
5875.65
15158.4
5555.78
5636.81
13258.1
21484.6
37862.9
27157.7
18565.3
59921.2
69937.5
58075.9
58195.4
29797
39827.7
32837.2
31145.1
41803.5
34483.3
36150.2
23752.2
19538.9
11625.1
19368.3
43347.5
23049.7
13342.8
6926.57
5703.53
-1491.17
-4373.7
-1224.12
-2491.7
879.729
-4051.93
1793.18
3100.59
605.42
872.019
5402.54
-305.335
785.275
2447.07
4591.97
13555.4
17060.4
6041.33
5383.79
12129.4
8165.81
8669.85
8443.08
3530.17
-2477.92
1678.93
-1407.3
999.802
-83.3625
3076.42
1431.28
10886.1
1885.4
-465.258
4712.09
845.405
7092.94
4319.42
4775.79
3108.67
-82.6874
2296.02
-938.101
-11638.9
-12306.2
3114.73
12332.3
15833.4
13436.8
10183.5
1800.66
10001.8
11042.1
14504.8
17443.7
2142.87
-5070.78
-4748.8
-753.344
2179.67
1228.63
18005.6
9380.01
25942.1
25553.4
10015.2
6566.95
3443.32
4741.92
5506.31
-1761.46
6933.35
4997.01
6652.84
2872.54
-8830.13
-7037.08
11839.5
17300.6
32411
20689.3
52833.8
36841.5
35284.7
29609.5
30860.8
15825.7
9330.06
-4990.1
10096.4
2825.45
-403
3128.28
2411.21
5258.94
7859.48
2724.42
-1169.95
1180.61
2941.45
3587.56
-1557.26
-1470.15
1600.51
-255.702
493.528
4086.53
2868.78
-459.112
-14164.5
-2427.93
847.107
2969.84
2371.54
923.802
1313.92
13966.8
11327.2
15894.5
19981.7
26625.2
35011.8
24429.2
24107.7
29680.9
29009.5
4595.74
-2450.5
13287.2
5844.04
5727.75
1268.75
-5731.67
-973.66
-3827.88
-1098.4
-1980.51
-1005.94
-2317.13
4288.62
2932.27
2386.5
2849.23
8006.57
7834.78
17373.6
11460.4
25864.8
49362.4
59720.9
44253.9
55394.1
67296.8
61025.4
59433.1
44548.5
35429.8
30008
22339.9
24346.4
19315.6
46671.2
57858.7
74350.4
72230.8
72356.6
81130.4
105408
102169
89612.4
94832.8
72406.7
64401.9
81678.5
67870
53669.1
59636.4
78120.2
88904.4
78495.2
51722.9
45533
37200.6
35630.2
14521.3
15395.7
-1923.72
6180.94
10617.3
29170.4
11229.3
-282.876
13116.5
7761.33
13935.9
9973.41
2104.02
8639.23
-4862.86
6675.28
4385.24
1643.05
-3215.94
-402.293
-1412.22
3137.97
1971.8
-10852.2
6722.42
9558.14
2884.04
-130.61
41.2235
-2353.13
5807.96
-63.133
342.449
7340.13
4936.36
5296.5
10832.1
3323.57
10177.4
15649.5
25016.4
6518.41
12799.3
10401.7
24366.6
18025.2
21865.9
29628.4
40062.7
64596.1
58163.3
90306.8
64820.3
24146.7
38669.7
27256.2
19945.5
29613.6
33542.3
31543.8
33721.9
34191.5
44768.7
33077.5
17127.6
16883.3
13963
23785.6
11700.8
-808.634
8125.92
-1167.36
-977.601
1902.54
-1722.85
-13927
-6672.28
-12780.5
-12529.5
-4900.59
5931.95
67.4647
-3058.14
-10297.4
-1366.63
7603.44
6237.21
1812.8
10852.6
10162.7
-2058.14
4084.08
969.551
-4856.58
-4446.24
-2679.85
-5871.16
-1607.11
-1754.84
10500.4
8351.35
-334.308
4816.55
1498.79
6273.47
7514.72
9969.91
15034.1
30863.2
23087.8
27857.1
22590
28903.9
30362.2
16704
7778.25
4121.6
9029.83
3856.34
7727.58
-229.075
9921.34
13674.4
5456.47
21472
9044.64
8986.24
11572.2
6999.16
2773.31
11715.3
15726.3
32175.5
62973.2
108904
94356.7
66230
36316.6
18581.6
34328.2
11365
10410
20487.1
19351.6
28518.4
15300.6
3523.27
1680.38
-2533.92
8035.5
4947.49
-1239.33
-3100.16
-7487.54
301.587
2976.27
48.2337
-925.654
3014.62
2904.83
1196.33
-1853.45
-2176.09
4598.53
11867
705.565
16084
21980.1
32277.5
36070.2
33417.7
29187.4
16421.9
11715.1
-423.114
6759.33
18127.4
11833.5
10073.2
12543
12380.5
13005.1
8153.02
8511.66
20544.8
28997.7
8347.06
7591.02
9328.78
1746.54
880.034
522.212
-3448.33
-7841.85
-3266.49
281.941
-337.861
6129.15
-2797.07
2809.55
1575.33
-6447.51
-3739.54
-3032.7
-1965.99
-106.992
817.306
5742.54
4124.45
625.186
1206.85
2992.7
2581.5
5734.23
4439.42
6316.84
8988.75
21886.5
13183.5
783.232
169.593
2198.31
3002.94
1123.1
4472.07
3198.1
4623.14
-5073.19
1865.03
2466.24
9254.78
9720.87
7284.58
4516.31
3625.31
13282.5
17466
4185.62
11327.2
3397.29
8762.96
7913.43
8654.78
4725.61
6267.49
6176.68
148.569
959.849
319.279
-943.283
8233.33
6392.65
3725.82
2004.41
862.837
-5215.24
-1737.59
-3397.97
-1252.97
-955.503
-59.9007
-7205.63
2720.37
291.129
198.835
-284.825
435.707
16295.8
14673.5
8526.13
9478.84
14906.6
23013.9
18114.9
22923.2
32251.6
31144.4
30944.6
29897.2
26788
21897.4
22349.3
21455.9
4439.04
8291.95
6320.12
636.294
-907.229
-622.727
436.654
3589.8
5215.62
-745.063
4002.97
4844.34
13128.9
6520.89
5320.65
600.391
691.672
3235.7
5019.73
3387.93
25763.2
12056.6
20685.7
23511.3
18344.7
15894.6
18438.6
13146.6
7948.41
812.313
2108.77
190.12
2249.86
9194.34
8365.73
2980.54
489.384
7623.81
8770.21
23569.7
27629.6
24884.1
57516.9
67440.7
32073.5
20605.5
38012.2
22817.5
41353.7
38496.1
38337.6
52061.2
42997.8
45513.6
28584.9
10342.6
8284.61
-2621.5
1255.86
9470.22
8407.33
3938.34
2406.34
-226.467
7647.49
16033.6
6257.55
1344.31
6127.77
-1327.32
4443.14
2562.81
4676.85
915.746
5696.2
7821.22
9047.13
-1939.23
-4980.39
23.4679
-2048.46
5751.05
12063.5
7125.42
23164
15263.3
-1666.02
7102.45
1680.04
10670.1
16191.7
25899.6
16647.3
259.083
-2020.24
5504.43
28555.3
10930.4
3072.24
11012
9667.7
2003.02
-1584.54
2477.59
6575.15
2418.87
10276.1
11452.7
10992.1
5370.26
6033.71
7523.02
-3949.08
-3773.38
-4459.26
4054.02
-7025.15
2094.51
15950.4
46510.9
25935.6
32806.6
12479.5
9266.48
9903.88
8576.57
17608.5
54434.3
57575.7
54770.7
33236.9
21117.1
23636.1
10251.2
20995.8
38269.7
37513.6
38875.8
79591.4
65265.9
69279.1
82594.2
47403.6
92279.7
74756
60670.2
56293.7
34600.4
10062
17831.7
19576.9
31530.4
53257.9
32241.1
54041.1
81725.8
59430.2
52836.9
39445.6
41467.9
56148.1
51550.3
55340.9
56263
52656.4
41825.7
48695.9
46793.9
61873.5
43896.7
55015.1
62098.8
66133
98514.1
88636.8
54984.1
70719.6
41515.7
48077.6
39205.7
21571.4
16594.7
3497.21
-353.584
2148.54
1087.39
24428.9
21542.3
35199.9
37876.9
57424.9
25422.5
16126.8
18076.6
26875.8
4937.82
9514.61
12847.3
6864.68
2421.28
2314.8
3199.98
7900.04
8497.95
8566.52
4973.77
3979.3
9461.09
2877.24
9051.28
7031.5
5617.86
-2032.76
346.091
1964.95
7318.64
905.477
4514.82
-1275.75
2311.19
7716.25
3140.99
5611.87
8652.1
-254.336
10221.1
-350.016
470.257
1313.32
9258.41
14682.9
19239
7678.44
1441.14
20239.8
12453.6
11119.3
6177.57
23271.5
10769.6
21649.7
25440.5
52697.3
46107.1
42966.4
56343.4
42418.6
10873.6
9352.23
8294.01
3507.47
5761.88
11669.2
-123.355
4485.87
13377.2
5063.92
8811.34
202.108
2956.65
1703.04
3811.74
7038.21
1018.89
942.138
2572.24
6307.24
4239.52
5024.35
4463.29
596.253
8314.05
5726.94
13217.7
16084.7
33592.1
48585.1
49983.8
44131.2
32289.4
18545
5118.31
897.22
13336
8414.28
3726.35
8336.34
12884.9
14395.1
11307
6098.05
7235.8
3137.52
-2843.52
307.967
-1364.7
-3888.93
1313.99
1675.51
6157.47
3347.79
2137.89
3558.04
947.46
-1735.49
-2088.12
4734.16
11660
2323.32
-4062.65
-867.443
1867.19
-1222.35
-7637.93
-2962.63
-8471.37
23539
34449.8
25127.1
21495.2
20314.4
27047
18297.6
34479.7
42729.8
31645.5
33861.7
9984.44
3946.39
18654.7
35181.2
26229
26118.5
39290.7
30702.4
30431.7
32930.1
38852.3
31728.9
27314
39052.2
22854.8
9109.03
9050
-2475.85
-3402.24
-3278.69
521.849
223.734
-1126.39
843.614
1653.95
-1375.26
1191.24
2173.88
15730.7
39012.6
36637.5
32696
34860.8
40997.3
46828.9
43928.5
37682.9
54679.5
35325
21965
38043.2
64444.5
50031.5
34015.3
25480.3
17643.5
8996.66
10329.7
202.351
-3407.12
3396.95
3301.52
5427.35
2493.08
6731.93
-2602.19
488.108
-2376.07
-183.58
32.0458
1792.38
-1040.96
-4329.47
2900.15
-758.971
1711.66
-847.732
-7815.92
2602.27
2866.67
2267.4
-733.108
6062.71
10313.6
7896.02
15708.8
1940.34
2357.49
3421.84
5384.61
5135.78
3506.43
4297.71
6444.38
6874.15
3477.75
1544.45
1053.12
6663.73
10409.8
4248.9
4294.55
1114.93
34473.8
28924.6
51540.6
65318.3
89116.4
40862
24995.3
25214.1
22972.9
10950.2
8438.09
11373.2
7987.99
11176.2
10041.4
8079.28
10709.3
37046.8
21488.5
21493.7
16200.1
7689.51
4372.2
14453.8
25932.1
25576.9
29499.5
7369.48
9985.91
-3073.09
950.252
1383.67
-2543.16
-1603.15
5175.85
4779.02
932.072
8698.6
0.705823
-10214.5
-1612.83
1428.3
586.734
174.709
1643.17
-269.897
-10481.8
-4710.68
-5210.66
1978.25
2058.18
-2176.68
2211.3
12687.4
27199.4
38522.7
28875.1
34614
41162.1
-1333.7
16097.3
19140
17996.9
14557.1
20442.7
11172.2
2530.49
13709.4
2816.99
2984.49
7672.51
6729.41
3664.46
2876.08
452.456
-7613.97
-2683.56
4045.62
832.552
-1007.52
-4487.56
-942.106
3737.38
374.327
-7939.28
-1845.42
3415.45
5552.25
8618.65
13291.6
15987.6
9578.58
1785.85
4840.06
7020.21
-328.38
1393.51
4103.57
6915.61
2382.09
2137.54
6712.8
14822.9
5619.51
8921.36
4980.04
1637.44
11885.7
11571.8
4827.64
-2850.16
4359.67
11821.7
5265.08
4177.29
2658.12
15049.2
11635.9
5856.59
7735.15
8306.04
-3367.21
3929.36
5056.11
4939.46
6440.76
9816.11
1101.46
-5789.4
-1498.86
2928.38
1200.94
1089.43
1915.7
-1878.4
791.194
-3224.32
-4013.08
-2262.19
-793.966
1940.05
-1534.88
2559.46
-441.268
266.355
3033.82
-3872.25
-5742.81
4460.06
11943.7
2849.11
5199.61
1600.77
7061.83
9799.83
6072.09
21734.4
5054.36
15613.5
15258.8
26293.1
46902
24514.7
37606.4
29198.2
9893.64
6151.49
2573.8
2564.59
4051.57
6174.47
6424.75
-3381.98
-2746.46
11784.5
5454.32
3746.52
11205.8
23048
13784.9
26608.1
13540.6
25553.5
18612.2
21867.5
19989.8
8740.48
18085.1
30011.6
32880.9
54678.7
65030
59875.5
72570.3
60837.7
60084.5
82609.9
28748.3
25811
15454.2
-224.597
-734.048
62.0031
938.753
-1008.62
1762.19
1043.51
1921.82
-639.686
4570.66
5538.01
-2389.09
802.512
-3863.88
-3248.75
-1892.89
1801.36
4870.56
1424.51
-12759.6
-501.284
4474.09
966.657
18578.1
12234.7
7628.2
7430.25
3071.63
2238.47
-848.527
5024.28
819.716
2309.42
452.746
8305.38
15485
32585.5
24516.7
25547.4
15801.4
17367.1
13399
14230.1
19393.4
16910.6
11089.1
10862.1
10430.8
17033.1
17881.8
29450.7
28560.7
32398.3
29795.4
34601.4
48923
27970.8
39281.6
61345.9
83660.4
89726.9
85226.7
102948
102989
68095.7
75024
62168.7
24888
39453.3
20431.8
24950.2
22607.2
37714.1
35726.1
40467.5
54414
43459.7
26543
24158.5
40226.4
27802.7
51906.6
31394.7
37632.1
43561.8
26908.8
52732.7
37719.3
53456.4
40783.6
24270.3
17732.4
15996.9
7765.64
2259.48
471.697
998.918
9736.78
3549.15
2975.99
5886.77
6399.76
-680.605
7270.29
5411.92
10692.1
32058.5
36484.6
22252.9
34478
12197.6
17003.5
23162.3
9406.12
14799.1
9431.92
15664.6
6416.52
6763.82
5291.52
8370.29
20634.3
16830.2
36069.8
24348.1
19546.3
6825.25
10695
15211.4
4284.61
1027.75
4538.52
4948.64
1065.02
2698.93
1414.3
8638.91
2811.81
-791.278
7373.31
5968.17
9068.54
11867.3
2738.62
1348.76
8774.35
-1294.36
-4114.61
-6286.1
-4122.99
-5023.34
1630.66
6382.87
7371.74
6102.05
2.65275
2273.13
-1264.65
823.927
7508.54
-2600.49
253.918
3219.75
2978.94
25047.9
21940
20547.4
14936.5
37565.2
40856
46913
38389.7
32624.1
19932.9
960.283
-1990.1
-1187.51
3925.23
-1502.52
770.908
3811.92
9533.68
7737.65
2285.58
4728.99
-2235.06
-1699.23
-1150.34
-445.746
-864.843
-4510.74
1996.69
12236.1
10900.1
5943.01
6437.9
12894.2
31599.6
44053
19683.9
7655.13
3753.28
-768.847
-1314.05
-566.537
1726.41
2807.05
-843.317
1584.47
-2489.9
4344.23
246.49
-883.398
-3656.43
8663.97
7853.09
18124.8
13002.8
5356
10865.1
14579.1
26747
19364.5
22750.4
33874.9
25607.3
33423
30673.9
24915.1
27616.8
22244.1
6718.16
15905.2
8214.87
2991.96
3679.24
11809.3
31956.9
28881.8
22892.7
25812.4
9132.49
12978.9
5696.32
7042.05
9481.58
15134.7
-3289.48
-1464.86
-758.046
4894.05
10704.3
1708.53
13413.9
36835.9
40333.1
28134.5
31790.6
34958
70575.5
56296
62129.3
67517.8
61787.7
91734.6
98090.8
100991
105624
105358
72679.3
82796.5
59925.8
51674.5
56234.1
78985.7
48621.5
40300.8
26152.2
38131.9
15623.7
9218.88
8001.11
8984.09
8472.33
7766.04
4952.37
1905.21
1143.47
3956.36
-505.983
2816.96
10968.8
6741.75
5057.3
-2539.6
733.926
2293.76
-2186.49
-10305.4
-8299.27
-2981.17
5115.24
3491.84
14781.5
2894.24
4896.68
13267.1
30213.4
26192.8
28781
35788.4
44521.4
21244.2
10071.6
8591.99
3771.17
-2250.19
2264.44
-758.179
2554.76
-4204.32
1355.52
-11985.8
-7406
-12429.6
-5234.33
-5219.09
215.851
4091.34
2035.31
742.424
-1918.56
-4974.89
6356.11
7147.8
9258.91
-1047.5
8650.1
4569.65
1556.48
8520.78
-1957.84
2264.43
6028.92
4240.12
3282.79
7029.09
15592.7
12194.4
6394.68
14539.9
9157.81
2512.35
1370.63
1050.54
-2162.58
4572.72
12702.3
16750.6
23800.6
12132.3
8280.94
5673.63
7172.33
12574.9
4813.39
12005.6
9788.36
16046
9212.94
4844.28
-212.537
2570.62
-8853.38
12436.6
25676.6
2373.25
5386.7
749.039
2785.41
983.251
-2835.12
3030.09
10497
18967.1
11061.3
13239.2
50824.2
59990.8
23655.2
39814.3
32779.8
50983.9
34155.5
34901.7
26554
24656.2
23014.7
6966.04
10737.8
10555.6
4364.02
5129.71
9431.9
12809
8310.48
15313.8
11898.9
5925.06
3611.53
8428.74
11313.3
26300.4
27149.1
41781.7
29928.5
23463.8
24079
19812.9
12484
12863.6
6191.44
6765.33
11282.2
10365.3
15435.8
14998.6
15483.9
5282.1
4025.77
-3274.69
4757.31
18891.2
15152.2
7319.35
5268.03
3000.14
766.401
1511.27
-6166.19
-7175.11
-5260.28
-3357
3474.17
-5495.44
-1015.43
4670.29
4301.34
11799.6
11050.6
-3470.17
2701.04
11634.9
16025.5
3362.29
15365
11179.5
4772.35
19438.1
9676.33
22113.6
31791.5
2639.33
-4854.08
-2976.22
2282.16
-4696.26
-13147
-6906.52
-8136.75
-10180.9
-2232.4
1989.79
8384.33
4168.46
995.223
-12.8246
-77.2003
3446.19
-709.541
2696.95
827.036
12262.1
6844.54
7465.18
-1116.75
1826.2
-1541.04
695.965
7770.34
16969.9
13240.7
14213.7
4794.28
4367.59
-3042.14
-4826.26
-4064.4
-5735.64
-2207.89
-6522.12
-1986.56
5206.8
-2140.79
765.934
3972.71
4074.49
9837.36
7009
20341.5
41398.9
42378.3
39732.7
39666.6
59592.5
46245.5
20209.4
31844.5
12802.3
12090.7
-2222.04
-2655.94
24345.6
28924.7
32244
32883
32220.8
15663.2
20018.1
25521.9
25187.9
16119.8
9428.05
15584
17012.8
10797.5
3641.02
5667.22
9180.04
11277
-4348.71
574.545
4162.66
-1425.14
1804.85
-935.548
-2498.29
310.017
-210.444
-1660.88
-1811.68
359.627
22404.7
4367.59
21204.4
28099.8
31231.6
14643.7
3533.99
17575.9
8566.24
3678.91
5900.07
6155.27
4484.17
4510.53
-1578.9
-259.591
-1583.45
-2948.08
1137.06
4349.95
5035.12
13858
10160.6
25075
45513.5
37933.4
28554.2
21363.9
12488.9
4661.79
5039.79
709.656
18359.4
8826.75
11960.9
12196.3
9756.85
11132.3
11239.6
7618.04
12486
9222.68
9041.22
23357.6
7048.73
10539.4
12422.4
15564.9
27609.4
10962.9
8875.41
-8000.11
-867.253
5282.82
6489.63
23065.3
13766.6
-3094.8
-2813.39
-3558.4
4814.31
3373.45
7926.09
8505.27
4405.29
-1345.96
3344.96
25318
30184
35700.7
56234.9
12280.7
11226.4
18618.7
18150.2
5914.78
10037.7
10492.5
12103.4
9600.42
10836.2
17460.9
7819.59
6048.13
1397.21
1296.5
2262.91
1206.01
-3044.66
-23.4869
3881.07
110.943
5219.11
1968.05
4162.55
2920.64
8135.35
-2443.13
2858.66
2356.36
-4689
-2514.86
-2665.12
-1308.95
-5578.48
10531.1
13028.2
2698.52
35684.8
42149.4
51053.7
40603.8
36956.6
32025
18729.3
31056.8
-3032.69
2611.32
8565.08
9977.63
6737.5
5667.48
-1602.85
1367.49
459.867
-677.17
-3510.34
3436.7
8530.23
11447.3
-10268.3
-5027.96
324.494
2867.03
-278.515
-1144.49
3968.92
9654.39
5501.89
30068.8
29484.6
14671.2
11810.5
16275.1
13833.5
19628.7
4423.8
9490.19
17103.2
1397.74
-2613.83
754.073
1377.11
6232.55
-566.266
4224.58
6365.49
6060.5
51.1855
-640.554
10863.9
5783.81
5547.68
788.22
-388.832
-2165.99
-6314.16
-4657.21
-5131.26
-8963.44
-493.296
-2621.63
925.933
604.699
-2877.74
-4361.83
-3354.85
1675.08
1713.75
1071.02
-3285.97
-5311.38
-1595.81
-2242.61
-3377.95
-1511.06
1193.02
3320.82
3752.16
1119.13
7091.21
710.185
3223.6
697.034
14979.7
24197.2
16619.8
6293.59
-8.4513
-2621.89
315.472
-62.7705
195.854
4959.97
985.96
3420.26
4201.72
-1688.48
4768.35
-256.208
1763.57
-1432.75
-2479.2
-481.954
1351.84
2019.23
3326.33
9892.69
2944.12
5079.11
2651.22
4691.89
-1182.14
4854.26
5813.84
-1156.27
17056.4
15277.3
7389.98
4393.54
-3910.16
-898.608
-2255.03
-3302.25
3971.69
5332.64
649.233
927.072
-118.91
7179.15
12517.6
12935.9
13389.5
4641.07
651.994
10756.4
10372.7
9321.92
17980.9
20292
26774.3
19636
25748.8
5774.5
6469.59
8467.12
8390.83
12673
6681.46
-895.474
-8650.82
-3608.4
2475.96
397.496
2159.94
4123.18
4508.48
-3044.2
11430.8
3734.76
1339.78
-1490.22
16824.1
8387.82
18031.9
19906
21188.7
33593.8
12085.5
30488.3
13922.5
18295
17484.3
15045.4
17425
11291.7
12649.5
10070.7
3325
-1821.97
19173.8
2880.83
2676.43
2469.09
3245.75
457.3
-5718.11
-1802.69
8989.02
22982.5
26619.3
35699.4
24707.4
27787.4
17024.1
9593.41
17352.4
32094.5
45676
34540.2
64572
96762.3
66344.5
32848.9
34155.4
45165.3
64261.7
57411.5
53887.5
28647
18875.1
27011.8
28801.3
35969.2
38934.2
28608.1
7651.4
17036.5
18079.4
22153
25789
40029.7
44432.2
46697.6
23134.5
22036.1
23236.2
28105
13927.2
19292.2
14642.6
12613.7
15601.8
17867.3
12530.1
12843.9
3712.21
3383.99
-345.033
4809.61
10560.5
17076.4
3334.85
1258.7
5316.77
798.527
9625.65
13020.7
17611.5
27410.5
30786.5
29864.3
12522
5167.31
8807.96
21987.9
11716
12723.8
18820.5
8327.74
4147.15
-2725.33
1662.23
2798.5
-5008.07
161.544
-3730.89
-1683.09
1535.96
3255.51
-512.949
1509.66
-1313.7
-2080.86
4038.38
7787.38
-44.1457
2823.16
1178.86
1225.92
4712.26
3131.93
2574.49
-4837.12
2619.57
-4129.55
-713.463
-2391.63
-197.306
1550.3
-576.387
1015.93
7164.84
-1034.54
2980.62
2877.75
-1903.16
4779.94
9476.2
13261.4
5715.04
3808.4
5644.05
4294.79
6191.09
595.034
675.504
-4119.3
-2785.94
3130.41
-3793.35
1414.06
4401.77
-279.177
3947.38
6421.49
1964.83
2237.32
7959.44
28088
76314.5
87510.5
108947
80596.3
52728.6
63694.5
56361.8
36951.5
14326.5
11155.3
21527.3
20543.3
44132.2
20001.4
28673.7
22131.6
44976.8
25745.1
28705.8
29649.3
22380.3
21413.7
39487.4
233.528
16316.9
1192.36
12720.8
4501.73
18351.4
22804.8
24468.6
15919.2
27576.5
26103
20406.1
17644.7
13519.6
30433.4
80502.5
49314.1
53826.5
21737.6
19144.3
13850.8
36412.3
49837.3
23875
13404.7
12873.5
1648.38
2869.56
1662.67
-499.951
1305.02
4126.4
2696.86
3219.73
2864.81
7505.46
3875.3
3965.67
8644.64
7106.94
3236.37
-7560.76
-3078.4
1598.1
-264.23
9015.22
5750.37
9379.83
5499.62
17862.1
11683.2
5878.95
15722.7
5668.67
9925.18
13034.2
2021.73
-17321.9
-3176.54
5153.53
17502.7
24663.8
6233.01
-38.264
23610.1
36703.3
42342.7
47237.1
30017
20704.4
24068.9
35799.5
41351.5
22417.3
17144.3
29658.1
34278.3
17749.1
13173.6
1106.08
-9359.18
-1708.95
2900.71
5538.56
43435.5
43805.8
53541.7
50036.7
45813.9
48423.2
41156.3
44311.7
46591.6
32136
20425.9
38647.1
39210.9
38945.2
51435.4
44084.8
25556.5
13493.3
20351.1
20917.3
20133.2
25586.4
47104.6
36765.9
32082.2
31787.9
16453.6
28968.3
33342.5
27729.9
28350.9
12036.3
17648.9
15355.2
3334.01
97.014
3506.53
6714.97
2164.46
4357.65
6150.7
4640.64
7953.73
1854.99
3433.9
293.196
-1274.52
3488.72
5797.54
2445.06
848.583
1979.1
134.603
2050.15
2332.1
722.084
-598.637
-1845
1904.74
7070.6
6842.21
4461.12
3543.06
12479
7607.74
9576.4
14267.2
7300.05
2283.27
7658.6
-5614.15
-4632.46
-877.797
-1328.4
14190
-2662.34
3147.75
2031.14
3828.69
751.416
-2688.41
1125.15
-1107.11
3144.24
7324.64
5097.74
7701.83
-654.061
-622.1
1529.79
3162.8
-3900.95
-986.555
2541.28
7139.14
6546.62
-587.563
-5973.01
-8385.42
-1791.35
8466.98
12968
6322.75
7380.76
29967.4
39572.6
51686.2
71281.4
71898
55618.3
51411.9
58868.9
51416.7
21146.2
28216.7
43908
38326.5
44574.6
39764.3
35307.4
17863.3
28258
16119.5
14075.9
20209.3
15007.3
435.437
4084.35
-2563.6
-1010.88
-112.3
3980.58
6163.29
11088
9307.85
10887.9
5782.98
-1777.35
11318.5
3698.13
-1777.39
-852.852
3912.36
-13.0974
3245.63
-2723.01
-3937.84
1035.11
-139.707
-1172.27
-963.794
-1369.53
-807.89
3959.66
4498.04
567.097
-514.108
-4254.95
3027.02
3265.21
2322.43
6680.64
8177.96
5182.11
5989.25
1947.62
15141.3
766.96
1900.5
3852.43
-2765.43
-947.324
3220.6
2713.45
-1024.93
1350.21
-41.3774
-2332.03
-2755.97
2559.66
-57.692
-981.622
-3216.66
1514.24
-704.543
-2883.74
5320.27
-330.048
1297.09
971.237
-5579.95
-6283.09
4233.5
4051.87
10330.3
25614.6
24385.6
12021.9
10105.1
4602.45
4646.53
3898.73
4091.62
-4968.69
-4061.26
1150.93
5927.39
9364.66
2768.26
-670.262
-2623.69
2253.06
6638.4
22283.4
9618.29
16489.7
5676.18
526.279
-3407.38
-1066.73
-3999.6
-9498.31
-5317.92
2942.81
-6647.8
29.3137
11580.7
15548.3
18470.9
27378.7
14026.7
26487.5
18979.5
21795.2
29440
35431.3
55878.1
74004.9
147370
157076
145810
124089
84707.2
94683.2
112872
100742
104269
110981
64057.8
41408.8
26458.6
44299.4
52723.7
30699.3
26063.7
28161.7
44484.6
64087.1
47525.4
60050
42662.8
69996.5
63373.8
35524.7
32612.8
34046.1
38326.4
45693.1
31805.9
17036.5
17631.9
4753.75
6455.82
10211.7
17785.6
49486.9
39870.7
30532.2
55525
38672.5
24210.3
28260.2
38446.3
4248.46
7249.18
4703.62
134.511
-4035.1
-5963.27
5078.24
4231.16
5792.35
2806.42
74.5623
-940.69
-15.4456
4963.72
6062.04
6933.53
6462.89
-1486.61
9286.52
16828.8
8414.36
5280.18
775.2
-7499.09
-4237.15
-41.7411
6366.86
4488.75
5030.59
1609.63
3374.9
5604.35
3970.32
1909.64
4085.34
5163.05
3506.38
15790.2
13212.1
17910.9
34133.6
26348.7
7921.06
7552.16
4012.16
3607.52
14768.4
12382.7
-9500.31
-4827.43
-2862.56
1316.46
3833.4
990.744
3945.9
4902.09
10711.5
13226.9
7081.55
3906.8
109.954
-1728.93
-3163.04
-8630.92
6414.06
10901.7
24545.8
15412.7
14330
26053.3
50814.4
64333
72768.3
48125.9
79136.5
82032.6
65923.1
53027.5
50306.8
43849.4
46811.7
47248.1
25490.1
20795.5
9688.51
8300.45
4900.81
1822.87
-442.909
-9004.44
1651.55
-1860.89
-939.24
3908.32
13930.3
13615.6
16357.2
3369.55
6366.38
10554.4
9247.28
14983.7
23597.8
24860.6
15381.6
1313.55
11485.7
8277.07
4411.49
4753.87
12160.5
8373.19
6435.96
7465.11
11813.5
11559.5
10915.8
7252.69
4020.22
-2617.55
3843.84
4184.47
8386.74
4966.56
10422
11246.5
20412
213.958
-3620.84
665.75
-3596.66
822.669
-7020.34
-4889.56
-2686.87
-1934.93
-272.325
-2875.42
1140.58
-3044.78
4190.19
2244.55
2265.47
6527.6
3581.01
8127.23
5212.03
18345.8
19192.5
11266.5
10065.3
2790.3
7660.01
4162.96
-1687.02
6423.29
-3266.64
-1233.33
5267.52
4401.62
1979.81
3271.17
2302.63
9838.25
3642.99
5471.99
9807.08
1095.5
3285.46
5326.3
3243.89
5764.83
11475.7
7322.49
10687.2
8622.31
168.312
5218.61
4356.44
4642.82
5646.58
-245.684
4347.45
-1243.46
-3891.05
1771.8
-175.142
-113.89
-1523.13
-73.9051
3013.47
1524.74
1089.23
-7196.25
-3911.68
3584.01
7253.23
11970.2
5158.44
3727.75
12517.9
22106.8
18874.1
14240.1
14529.1
11174.6
2917.67
4211.58
1360.22
-4064.85
5889.65
20913.7
8943.78
7800.01
15110
3481.69
-4824.45
614.065
4481.19
4213.25
11115
3418.8
5859.21
8402.11
23658.9
13858
11610
12299.1
11229.3
23272.2
26162.1
30654.2
14257.1
29143.1
20718.2
19098.3
23766.3
32542.6
43278
55247.5
38831.2
25299.7
13331.4
1518.06
7102.8
24983.3
20782.2
6733.22
10718.2
6001.49
4525.62
4811.92
589.043
1379.04
345.103
-1541.65
-3597.5
3275.97
907.456
5522.79
5637.47
661.279
2435.97
2383.18
3058.54
23263.3
11670.8
13174.8
15100.6
24071
9552.85
5372.27
11937.6
35404.4
20077.5
6622
1174.73
6306.37
1070.1
-924.596
-1083.19
1214.43
16395.7
17307.1
42386.3
22299.5
16260.7
-3073.49
-526.644
-2819.63
-2439.14
16590.8
12704.8
19772.8
22083.9
14165.4
29451.4
28224
36852.4
32422.1
33604.7
24381.8
23674.1
22817
26579.4
29370.1
22647.7
17149.9
4743.46
6018.65
-22.3786
-4149
8416.5
-4879.64
4506.87
149.157
3960.42
-200.489
-2587.64
-4215.19
10045.6
6101.23
8741.81
13998.5
9723.32
10902.8
9727.98
40542.7
40456.7
30622.3
3984.5
12693.8
1645.34
-878.624
85.5857
7844.31
9927.52
8147.19
4165.09
-5113.97
3892.8
2122.21
1744.59
778.133
3210.75
2042.68
-886.437
-296.286
-3082.53
8.73679
2915.24
3927.82
13477
1902.33
13430.6
17046.2
15299.7
71.207
-740.431
2058.37
4831.52
2497.95
4473.5
-3209.7
6661.23
8783.4
16367.4
18515.1
25177.3
51747.3
45587.4
26787.5
22209
22815.4
22956
37621.8
22357.5
19129.3
20003.9
2014.3
14472.5
15041.1
9969.93
6365.14
11960.1
4211.5
-4246.83
-2691.9
-4907.45
1954.79
3089.82
7059.81
6528.31
4407.05
5813.03
6004.99
25958.8
23414.2
25511.3
32825.4
23505.6
28046.2
30712.5
29708.4
4884.51
6019.89
9280.23
13683.4
8877.43
16189.3
10318.2
17189.4
9704.39
3086.65
13059.5
5102.24
-2148.1
6611.99
6792.38
5663.3
14373.6
10791.9
32540.3
33015.1
27646.1
45584.1
58567.4
52024.8
28456.1
23976.9
22197.5
31398.3
20327.2
12978.8
19300.9
18511.2
7323.19
-6231.93
-381.201
2320.22
1304.91
3566.07
5561.8
406.378
-3413.9
3326.27
289.948
5618.91
3450.06
21450.9
6187.64
12075.5
14523
13470.2
17724.9
35946.3
28033.1
48979.2
26441.1
2704.05
5723.3
8533.21
5451.33
5867.55
5976.86
3387.62
-2582.66
4036.18
8226.59
9539.32
2080.18
-1767.37
1973.09
7015.86
16444.5
10072.1
6180.2
9306.34
4100.81
2365.92
10354.5
13039.8
-133.681
5091.06
17538.1
16348.1
41197.5
26649.9
50857.1
65454.4
47148.6
79550.9
92707.9
89075
63439.1
44731.1
77985.9
77241.5
58402.7
47761
57596.4
58602.9
57751.6
41077.8
38042.6
16753.7
35659.2
37373.4
21062.2
27435.9
24046
19972.4
22665.4
4280.23
-3804.48
8572.5
7030.97
14007.7
31417.8
23253.2
41593.5
33972.5
29978.8
29537.9
34216.4
62237.4
46477.3
21200.9
41315
55508.6
51857.6
52404
61936.7
60760.4
32760.5
28742
26092.4
12732.7
-669.024
4969.19
7643.46
-468.565
3827.93
449.655
3241.44
1705.25
2572.39
-630.746
1480.12
3523.66
6392.08
13170.4
10230.6
3481.7
-5524.59
3344.85
6346.83
13300.3
9360.46
12198.4
29052.5
18100
14267
6316.11
4574.92
7815.84
1051.49
3774.21
-4391.46
39.2717
2875.81
4701.65
9815.62
-5379.11
2457.93
1820.46
9744.64
14374.2
18402.7
13639.5
13387.1
18220.6
6809.34
9288.26
22831
8343.73
15991.5
12640
22493.3
11898.7
-104.004
6450.67
5195.58
10830.8
1185.37
12113.8
5726.37
13117.1
123.921
1036.59
-2169.25
14758.3
5233.81
2706.3
2449.34
10790.9
18488.5
6280.86
7873.31
3077.74
13461.6
3091.75
-5952.11
-343.462
-493.325
-386.908
-320.008
12904.9
20933.8
24514.7
6362.62
9556.71
12562.6
8613.18
22726.8
23551
36022.9
27235.3
18290.8
32824.3
32986.3
29708.8
18378.8
9799.74
1951.59
5896.81
7596.79
11296.6
1789.01
3413.26
2613.86
-2263.92
6308.91
12312.2
13434.8
18199.5
17212.4
21327.4
45735.3
40426
57775.3
47735.3
69908.1
61866.3
47287.6
38367.4
61034.4
24647.1
44153.7
43444.3
58650.7
26923.8
43915.4
35653.1
41663.7
54080.7
48436.6
42978.1
48900.3
54525.9
58246.9
56588.5
86549.9
94663.8
