4181.96
10779.4
7512.79
2308.93
-12412.7
-5015.92
-1572.78
-1208.34
-5170.22
20.8241
-2008.74
-1514.56
-4914.29
-1094.48
-3464.82
361.798
2101.88
89.2651
-1124.5
982.381
-13595.2
-3341.49
-5107.19
-10594.2
-13203.5
5845.57
-3335.67
-2524.24
-1021.56
9083.39
5524.77
1636.28
2169.69
-2105.79
2809.76
5778.15
-1994.55
6302.82
2380.76
5274.99
-473.875
-2243.81
-9876.12
-6898.36
-4026.58
61.8315
3954.79
2182.31
916.535
-2423.04
-1030.45
1802.07
10399.8
7390.98
18464.8
9140.18
5351.6
296.456
-2100.06
11613.2
10892.5
6572.56
3897.42
27269.2
5925.2
7827.93
4401.42
7526.23
3880.55
3413.76
387.557
-3782.7
-1663.88
313.716
-3120.62
1728.56
4923.29
8798.66
4385.29
11852
33184.5
15213.3
13320.8
18221
11148.3
13169.4
15014.1
36015.3
37928.4
15702.7
12990.1
16867.7
6954.43
19678.4
4308.09
4872.89
7484.63
-5366.47
-2082.59
1356.21
9204.99
-192.675
-2872.1
-1201.18
-1264.43
-7749.12
-1045.32
-2857.51
2196.69
-7730.46
-7161.62
-1923.98
-3106.12
-11059.2
-3057.21
-1224.77
-176.128
9165.76
12387.6
-3975.43
-7856.57
-4233.72
-3867.77
-1705.37
1734.08
3879.07
219.906
1317.9
10386.4
14956.8
11192.6
1873.02
3939.23
5157.67
-2707.41
-10837.1
-1636.29
210.36
-1956.53
11377.3
13823.4
11037.6
4147.7
32061.9
19291.3
8929.91
24259.7
3854.54
3581.91
10980.6
16926.3
14217
6401.84
26641.8
37494.1
34162.1
42402.7
19007.4
4142.88
11633.7
8817.27
46599
27794.7
24895.1
22596.5
30744.3
20912
24601.1
21442.4
32953.3
21609
-839.006
4371.42
311.202
-2194.45
11796.5
12676.8
15626.4
32827.4
8197.03
-2985.58
-4674.39
9580.57
5767.03
2232.95
1916.7
4867.56
-6132.59
-3471.42
-4293.52
-1230.12
2086.68
-4447.58
-5252.74
-13323.7
-6501.03
25.8312
2740.34
2089.62
-3598.02
-4104.45
-2301.65
-2870.15
-4262.42
-2962.62
-3943.97
-6613.58
-7941.44
-3039.99
1796.91
92.6854
-609.256
-2467.74
-1580.89
8556.84
16296.6
12453.8
12507.5
7138.93
2596.18
701.822
693.093
182.476
-2402.97
-5719.58
-7930.24
-360.272
1092.26
-2359.97
1946.77
-1692.46
1598
12610.1
17112.1
5144.68
10182.8
27200.4
23952.5
11545.6
10956.9
9543.81
4330.46
17924.3
16342.8
-2125
-3154.99
588.281
3332.88
8419.42
3558.28
13616.2
10853.7
7046.99
-494.761
-443.8
-4450.09
8590.77
-6877.34
-3856.91
-6072.09
-17664.4
-12649
-6808.75
12885
14086.6
9045.7
1485.75
6280.03
8556.31
4402.74
16443.8
8884.64
-5416.13
-1198.68
-909.939
1997.44
6952.37
-113.983
-3805.15
-1516.88
79.0799
-2959.83
-6532.14
676.151
-8699.6
3523.92
2450.1
2894.57
8448.54
-4795.28
-7874.9
-8011.21
-8411.11
-4968.87
320.989
-1067.63
-10119
-6715.17
-4029.57
7267.68
949.334
-540.404
6863.51
18719.7
14649.7
19835.1
-7404.43
1753.35
-4836.21
-383.605
3743.87
7352.63
8586.19
3992.05
1233.02
-1006.97
-2196.48
-6336.01
-3758.99
-315.449
-1266.75
-4570.04
1155.69
6360.04
-3134.91
962.813
1469.31
95.3754
-6345.22
-11795.3
-12557.9
-8341.52
4.58699
-1185.21
-4267.27
-1368.29
-3614.87
901.696
-3256.97
-1773.7
-6966.37
-4386.83
483.673
2926.61
-399.346
2042.63
6685.55
10723.1
-4912.52
-2994.54
-2306.1
-5345.34
-829.937
-5497.13
-5326.75
-486.135
-55.3238
-9140.61
-7980.65
-2402.57
6102.05
380.719
7997.3
3927.63
3812.46
5778.2
2264.73
-2438.37
-1908.1
-3082.52
-2695.41
-1046.49
-5221.87
-7432.92
3971.79
-2648.83
2663.11
10799.7
24418
18560.3
-5371.13
-1169.92
-3587.94
-3253.72
2643.4
7373.54
-130.832
-3649.66
-6115.26
2662.67
-3141.81
23509.9
26092.6
27039.5
16746.2
21386.7
15587.6
16407.1
25295.8
19013.5
22688.4
-544.783
-1575.84
-10812.3
-836.048
-2140.12
-4006.16
-9006.21
-8145.57
-224.132
484.803
1510.31
1423.99
6647.72
2629.41
2651.2
1633.62
1818.58
-976.779
-5233.73
-11532.3
-242.977
-7190.6
3602.77
9943.21
5127.17
3165.6
481.055
-183.251
-3013.44
-519.124
2180.59
3228.88
-2391.66
-27.6523
-1481.73
-4001.57
9090.29
3120.68
1156.07
8242.49
-704.606
-3201.19
-2576.58
1651.34
-503.95
-2875.37
-4614.61
-1536.73
-1664.75
-8179.86
-2562.32
-3483.47
868.354
13619.8
-2301.09
14713.8
7650.06
4063.21
2069.83
-832.459
-6537.43
457.896
-8247.51
-4938.42
-4728.03
6645.84
4450.4
18302.1
20674.8
27766.4
12010.8
21426.3
8382.32
22298.1
16767.9
20239.1
30625.3
69613.9
39731.3
53892
85609
78373.3
87571.5
98541
44259.5
30088.9
49680.9
41974.7
49781.5
41762.4
30489.1
20568.2
4853.41
2231.62
9131.22
1228.33
3681.11
1977.08
14202.6
2549.4
8579.87
13508
10840.5
18342.3
2759.26
22209.3
15408.2
10035
-3851.2
-1141.15
-8305.6
-3950.6
1764.55
188.148
-5450.59
-3887.75
-1141.9
-3404.65
-1702.31
-4731.94
-1494.48
-2284.53
-400.427
3547.59
8455.76
17052.7
10995.1
2479.82
6852.93
1458.95
6936.13
58.3549
-4729.61
-9125.74
4652.9
-996.569
1783.03
323.724
1393.81
5129.46
11030
3141.64
3114.92
2246.58
8403.81
16797.1
26747.7
20851.3
5991.64
3270.25
5553.61
12124.9
-14031.4
-2336.42
4323.57
602.768
8586.65
22526.3
27650
40142.5
53991.6
46591.2
56657
46410.4
66825.3
60346.1
78184.5
48019.5
62920.1
56203.6
37582.3
50597
19265.3
13873.2
42305.5
41248.6
9142.19
10862.6
24598.2
21092.2
18886.2
15265.5
7006.55
-1980.37
16245
7591.79
3599.8
228.056
8791.84
-6040.18
3535.69
8837.09
6498.52
5879.06
-16045.9
-14299.7
-17747
-25786.3
-19116.3
-18246.8
-11901
-9976.57
10579.8
31387.4
15843.6
29387.2
31489.7
31084.8
23257.1
20480.2
26075.6
16641.7
9980.49
2376.27
-536.494
-477.319
3000.87
3120.26
-2289.48
2197.45
-7959.41
701.316
-4316.1
1669.2
4318.81
853.989
-3890.98
810.49
-2491.31
-4778.21
1154.16
3541.11
2073.53
1315.28
-1218.93
3194.22
-1738.3
-4157.07
-3103.31
-4936.22
-2861.44
-14480.5
-15190.8
-13473.5
-9867.38
-8347.94
-5944.47
2468.3
10891.1
9263.79
1108.72
13793
19007.6
26328
8306.32
5484.68
7003.66
11343.9
17320.6
-780.166
135.899
-3014.38
-1068.2
-5915.07
-8042.85
-6357.99
7651.53
2357.03
-5390.88
-6183.41
-6965.33
-1481.79
-10001.3
-3278.45
-393.052
-517.76
-10246.7
-530.506
-5103.31
-3075.83
-124.029
1354.19
-1575.15
-2281.89
-4981.36
-959.719
5806.55
-276.188
-1719.6
-1150.1
-5541.15
-4492.6
-3062.65
1087.93
-7689.97
-4568.22
-5854.22
2011.61
5631.1
-4159.58
2821.36
6411.4
2861.4
827.48
-2313.51
-643.349
6645.14
-620.602
-658.03
-788.644
3611.06
3905.58
15925.6
11460.7
34228.1
24197.5
43503.4
63832.3
101273
116840
76084
39870.5
38424.3
31022.7
64578.9
45730.3
43789.4
35400.4
45227.1
33515.5
18982.5
15689.3
11048.1
13240.7
14070
2615.26
-4425.48
-5919.98
-3424.96
2994.74
-2756.51
-3653.84
496.224
-4030.73
-1521.08
2472.09
-982.72
113.425
-1524.03
-797.977
1930.27
-8063.39
-10621.8
-1842.79
-1675.38
-1657.1
-3218.33
-241.865
-3165.74
1468.28
10090.9
11231.3
9273.47
33694.2
22666
12536.3
18357.5
20583
17431.9
14618.1
33758.9
44230.6
36448.5
30687.4
10529.3
-617.025
1913.13
19346.3
19778.8
25508.4
31052.8
64910.7
63112.5
32301.2
6316.03
55651.1
88603.9
79287.6
94484.2
73495
58482
35223.6
19604.7
16513.9
3169.56
-3279.72
-5418.01
23740.2
15497.3
32872.5
37039.4
28839.9
33105.8
61396
42152.9
28594.1
41631.1
22912.2
9551.82
15000.4
16530
22217.6
21385.3
20400
28696.6
46878.7
48381.5
49929.5
49652.4
51007.1
54776.9
46884.3
42164.4
59513.2
67464.4
59324.4
42287.4
29441.4
34079.4
47888.2
34972.1
33470.7
27198.4
26619.8
30338
28149.1
29790
29894.6
2989.25
5448.88
8575.95
-834.395
54.4092
2792.2
4251.46
1294.13
-6736.86
-13374.6
-14112.9
-16807.1
-3364.13
1005.75
9747.83
-497.258
-4550.11
6018.51
6877.34
15496.7
10185.1
330.54
5695.04
-7771.44
5673.19
16215.5
16641.2
22489.2
116.865
7129.2
5543.01
9428.16
-2385.25
-4702.58
-79.5217
-330.524
5216.54
2972.64
-2440.48
-2587.63
20004.9
22201.1
13048.8
21062.7
34853.9
13339.4
30736.7
37067.3
37951.1
58462
18532.8
6841.33
17294.5
5616.77
-3082.71
-3743.81
-926.481
1063.59
1633.84
-5267.49
-1182.54
-3768.84
-1864.17
-13724.2
-12366
-73.1779
-7572.1
-4881.31
155.297
-1763.96
5284.55
1703.69
-6684.29
7548.48
10558.4
22032.1
33472.2
24804.3
47844.1
34728.9
10630.7
3787.39
-507.349
-8824.38
-3430.15
695.617
-291.791
-1549.75
-814.968
-944.592
-2534.52
5470.34
-8677.87
2747.26
5151.43
-7093.17
3305.48
4319.39
545.488
-7493.82
-18469.3
-10258
-3124.6
-13118.5
-13566.6
-18838.8
-26050.8
-7243.55
-832.284
-6490.71
459.936
-159.759
-300.699
-1216.48
1544.85
-724.182
9667.58
26351.1
25049.1
11913.1
7198.65
4924.95
14030.3
16651.7
6488.58
220.988
2196.43
-308.379
-1188.78
-4356.32
8282.05
6566.66
6520.72
-4301.55
-6669.13
1130.45
-904.67
-1881.17
1404.34
2411.06
-2095.68
-3753.88
-7636.43
-2310.95
2979.97
14865.8
20990.2
13462
4665.68
-3104.2
-3266.4
-4509.61
-8154.79
-6055.94
-11627.1
-1708.04
-4168.34
-10534.9
-10999.3
-8169.35
3824.5
962.909
3546.16
9443.23
21433.1
28154.9
31694.9
25057.4
42014.9
43049.8
37203.3
67554.4
59608.4
91038.9
97232.7
116155
126600
164029
150997
174692
87721.5
115767
66150
62232.1
48811.6
59521.7
51189.4
25306.7
65347.7
50492.9
41763.6
53224.8
54524.1
31350.6
46632.8
34688
4056.62
22455.4
14107.2
23683.8
19963
26619
30600.9
11363.3
2704.52
1562.57
-4668.92
-13972.5
-11229.2
-5176.4
-2717.05
11643.2
1848.95
769.753
6142.31
-3702.84
-5008.91
-1952.09
-3465.94
-1306.01
-3459.54
234.919
-1289.1
4307.77
1100.71
2094.92
8864.3
14809.8
16965.5
10984.8
7584.97
7415.57
-466.772
5703.34
3637.11
3341.86
6265.56
6531.51
-872.566
3945.83
28144.8
14997.8
22745.7
2551.3
5325.22
13461.8
16255.6
3643.19
7811.69
-836.792
-1318.72
-1822.71
-5296.4
-7173.09
-5839.18
-7623.32
6.49067
12936.7
30102.6
14464.3
30466.3
13370.9
25902.1
17223.4
12482
2505.17
-4612.67
-2180.19
-1646.48
-2891.54
-2503.1
-7703.26
-17701.2
-16803.1
-7401.11
-11589.3
-17073.9
-12012.5
-2939.82
-4856.95
-247.815
3174.68
-4163.19
-8604.59
-6556.79
-5037.88
2126.93
-8116.75
-5518.46
-9986.77
-8085.5
-4174.75
8404.19
8910.98
-330.903
10905.4
15742.9
21874.9
11705
17662.2
21947.7
16459.1
27107.9
34567
-529.89
2662.82
4307.32
3949.59
7281.07
12876.5
10620.5
10210.8
6993.26
5786.43
410.111
-770.915
22792.6
10766.1
2688.6
3054.25
1257.35
3686.47
-1755.41
1652.27
-289.826
10117.4
2370.22
7116.91
1014.25
2055.84
5813.24
21944.2
44082
39636.4
32016.3
39613.3
26633.6
18722.3
5447.3
-972.422
3655.39
6251.92
14265.3
6733.52
2567.96
1475.24
16044.8
4695.01
9625.68
19080.2
28774
1510.23
-15839.2
-8199.05
-7113.5
8060.1
26627.4
13782.8
12967.9
17274
19336.9
6473.86
-251.485
10911.5
7237.31
2170.38
11385
32019.6
42977.8
32085.1
28753.7
12763.6
36436.1
51245.6
46648.8
66558.7
70372.8
49640.6
40614.2
34451.5
22535.2
23908.6
9604.59
39.183
9631.21
40989.4
11433.4
8812.66
7107.88
11253.3
8122.06
15363.4
39532.8
20025.8
32323.4
32605.4
35462.8
41369
48425.2
32664.6
8367.5
12464.3
-1124.92
16548.5
-1286.5
3312.84
-825.771
-547.209
-6157.37
-4800.06
-3033.1
2455.54
-4725.71
-2174.25
-3635.99
2096.41
3086.51
855.73
12488.8
7155.26
10312.1
15686.5
18553.3
31995.7
23284.1
21644.4
2515.12
12151.3
10915.1
14991.9
9323.78
6208.58
-6778.43
4530.67
-299.404
-5197.69
-167.452
603.721
891.848
-1549.96
-974.656
2875.47
-1385.29
374.193
-3625.51
-3368.73
-743.56
-6640.43
-4622.41
-6834.71
-4764.77
-3509.58
-5845.74
-2949.09
-3614.97
-136.833
1166.49
2220.21
2784.29
-2007.94
7716.51
-3943.76
1024.57
56118.9
61768
77374.7
59434.6
79228.1
64737.1
98984.3
86055.2
88360.5
48337.4
45994.5
53637.1
45050.1
20155.5
17598.1
45730.3
34650.3
38195.3
83395
59496.9
57063.4
75617.7
86169.6
27897.1
35364.8
48157.9
15974
16662.5
17875.6
27878.2
36604
50525.7
35187
24948.8
42247.8
30768.5
14064.7
-1323.69
-1376.56
1976.64
-581.95
1238.03
2335.89
-229.292
398.388
-842.242
-6398.16
5862.06
-482.905
18660.5
12069.2
47102.9
76749.4
63839.3
47698.9
6852.9
-11062.5
-1079.03
-2108.74
-6675.71
-10352.6
-184.283
-312.27
-2467.81
-1906.12
21314.8
44949.8
25534.5
14327.6
14318.7
17986.4
9497.1
10702.1
4337.73
14440.7
18979.7
772.03
2270.09
10534
12438.1
18984.2
2816.86
8570.78
7312.46
-2798.64
-2017.54
-3646.99
13648.1
9028.69
17990.9
7173.78
16010.6
7303.49
-4947.77
-7272.73
-6056.39
-5001.3
-1763.41
-1002.88
-1280.32
-2940.39
-1008.41
-1044.93
1566.38
3028.97
3914.52
2250.05
4202.96
5015.89
-2513.08
-1159.47
-837.6
4347.55
-5352.92
2443.07
10987.8
20061.8
7028.59
3675.96
-6031.67
-8.49425
-131.819
-5847.36
-2291.53
3831.45
-4755.9
1047.82
-1855.84
-475.523
1389.26
1183.32
-1099.12
-13228.9
-6264.43
4135.83
-3596.91
-5699.48
-16074.4
-7228.33
-3916.98
-2299.88
-3826.76
-3028.4
546.074
-3343.22
-5249.17
14850.7
26975.7
11936
255.614
7422.04
23368.5
13302.9
12082
12534.6
20101.8
10297
-13636.1
-11076.8
-1371.42
-10110.5
-10843.7
-3065.17
-16071.8
-7554.03
2940.65
-392.713
1430.19
-851.303
6496.02
2852.7
17135.6
2478.59
18993.5
9312.89
11961.3
17813.7
57446
63163.5
42774.5
37765.9
13574.4
6567.57
6842.34
2494
-9334.94
-8439.01
2110.51
-450.045
5780.71
523.511
-9602.33
-10849.7
-5315.11
-10143.5
-4820.96
-1283.3
-3573.8
-4516.81
-1774.39
-18398
-10793.1
-6907.01
-409.128
-2741.57
-8052.96
-2444.55
62.8149
-621.851
-675.15
-4229.38
3700.71
-5171.46
19477
2314.01
9761.11
6267.41
12477.5
4958.91
7106.93
-10.0154
10031.6
15572.8
33159.2
18165.4
10498.5
11467.3
-7190.94
6031.23
32350.7
41374.1
36292.9
27017.6
37439.3
15622.1
11505.1
2411.84
8254.58
3275.3
5142.76
-5974.93
-370.067
-4582.09
-3574.47
-5719.75
-4337.65
-1540.83
-1860.39
-5121.72
-10218.8
-6594.1
-2951.52
506.118
9170.86
6451.73
15475.4
-4408.14
-3717.85
-2308.14
3462.66
4840.94
6993.56
16844.4
23416
15859.8
15148.8
5789.95
-7536.56
-6903.83
6060.21
8701.05
21897.3
11674
16748.6
9412.25
34245
34428.6
30631.6
24009.7
33790.4
33099
17637
13869.2
14432.5
1469.4
17447.3
15449
35693.4
12149.9
5814.98
18704.4
4545.34
2727.7
13160
10667.8
-3742.8
2660.44
159.983
-251.395
3585.51
3051.07
5386.15
4809.4
4462.12
4382.42
7541.28
10046
1323.59
6321.45
1946.69
-736.431
3979.61
4641.25
6348.2
10507.2
3424.34
7534.97
9824.62
17169.4
12999.2
9856.14
-5568.09
-4394.52
-1247.34
8175.42
9164.01
21617.2
6553.87
-4386.53
6632.91
4835.67
5504.95
610.204
-1909.55
547.516
-4222.28
3191.07
11871.7
13729.2
10790.7
8093.88
18167.2
12602.7
7146.45
-91.906
-5865.98
229.8
-5691.33
-6810.34
6690.78
2073.16
-508.375
-2229.08
-696.127
1527.07
-5934.31
2414.85
-7156.27
159.993
-975.669
-3973.02
496.251
3783.92
-2893.38
340.723
1996.08
3445.39
566.081
8147.42
2032.62
7653.3
-1843.66
-1872.19
11565.4
7163.07
27091.4
19744.6
29277.1
36658.2
8907.87
1781.65
-835.86
23440.4
6429.74
11590.3
-4073.08
-4590.99
-278.769
-1329.25
5218.81
21878.8
21571.5
13697.9
5553.02
1262.75
-518.972
-4666.04
-12841.7
-10906.9
-6238.21
506.62
4526.18
11587.1
14422.5
19148.4
12631.3
20441.2
14819
16754.4
13542.9
13704.3
17337.7
23571
11375.5
18959.2
12579.1
17607.6
23989.9
20034.9
40306.7
12699.2
20405.6
39029.4
25184.1
28022
36241.3
65408.8
71707.5
35128.3
40572.2
35725
53160.5
43932.7
37728.9
18628.4
23254.9
18371.7
17394.4
5433.53
6789.81
-1008.2
634.69
-2825.36
582.185
5279.56
-7362.47
-11365.7
-6310.74
-8620.34
-7807.44
-15659.3
-10915.6
-7769.68
-6403.78
-9019.78
-10548.1
-7922.48
-2560.77
-7110.69
-7668.34
2719.71
19501.4
15736.6
15500.3
15501.1
6847.67
2684.15
1049.69
1673.24
6815.6
7840.01
-3033.5
-3000.17
-2461.71
3759.97
686.363
5859.76
9766.38
11110.8
19042.2
14129
20740.9
30840.3
20954.1
15462.9
11458.7
23554.1
10814.8
8286.78
7679.23
1807.6
-676.294
-1807.55
-2386.08
-4537.98
-288.323
-170.91
5183.13
-998.47
27742.3
7380.18
-3534.5
-4482.77
-1903.98
-146.122
394.352
-772.299
4426.82
-1754.01
3439.21
-6041.13
-5629.58
-902.621
-1709.29
-3214.42
2590.71
-2126.37
-822.338
-3244.2
-265.604
3998.48
-1824.9
-3853.77
-5802.63
-6240.95
-1513.8
-2869.97
-2054.39
-64.4086
-1449.89
-5207.86
-836.871
1338.48
427.756
-946.222
-3133.58
-772.478
-1624.59
-5620.19
-9093.28
-6149.21
-6698.87
86.2417
4670.68
314.22
-944.276
-5579.96
-1396.47
-5702.87
-3096.89
-2855.77
3359.11
1884.3
3119.36
20103.8
12575.4
9049.4
3001.54
-1210.89
-6621.1
-1526.66
-1130.38
-3209.62
2305.61
-12857.3
-8061.44
547.733
10905.6
26303.8
28999.7
36408.4
33697.3
48198.3
52549.4
52310.1
45994.8
43321.1
81068.3
56883.3
57503.6
66541
69414.2
63959.7
71534
54171
26932.6
5533.95
7928.94
13324.8
37897.9
21371
3663.41
-744.876
-2403.73
-6491.27
-7293.81
-4319.93
-2532.17
387.209
4329.58
-2546.3
-8045.67
-6827.33
-462.215
5734.04
12119.6
2263.2
-4698.42
-943.25
-1297.96
5477.34
1264.64
287.618
-1911.43
-6668.47
937.017
1664.62
-1322.71
-5833.9
2136.83
-6201.06
-412.387
8948.22
-2401.96
-2400.48
-2950.78
-5187.22
-1618.01
3513.87
-295.577
4732.24
2278.47
741.705
1523.94
-346.271
-4757.21
7240.46
526.249
4143.77
5575.16
-7812.53
3200.67
2592.93
13979.7
6509.52
10604.9
348.702
8949.67
14746
19265.9
-422.584
507.332
-5393.49
-2057.49
-7443.04
-55.0154
822.44
1967.15
-1319.81
-2848.99
1199.93
1405.53
298.385
8733.21
10322.2
17166.4
9771.82
2038.95
219.765
-10171.8
1247.63
1226.64
669.334
-4863.41
-3973.27
5370.5
5679.94
3053.9
1047.24
-6999.81
732.845
320.679
-3624.94
3045.98
-4527.7
-8312.37
-5251.15
1883.77
-9288.16
3547.16
6862.88
-68.8023
506.316
9555.15
3305.11
-1298.89
-4094.28
-12879.7
3749.17
20200.2
8283.08
9001.03
5118.48
11360.1
2425.13
1213.42
7187.09
14571.8
-2859.91
-645.52
9819.86
10349.1
2649.02
28.2373
18608.5
18637.6
11835.1
8133.29
139.677
1760.13
145.867
4104.96
-1922.89
2993.02
4252.14
-1116.32
23547
32984.5
20936.6
46247.2
54494.2
68538.1
49148.5
40582
33070.7
15981.5
12822.8
3451.22
3452.1
17342.4
4425.3
15840.5
-526.337
10382.8
9584.16
10804.5
16950.3
15653.2
3711.53
3325.62
-145.288
-322.654
-5322.27
1461.28
3200.27
4275.51
-2494.15
-4124.17
4562.94
3301.1
-1436.49
4790.97
8395.99
4513.95
4675.41
-2320.24
4969.45
9876.31
2445.1
-4171.71
-14916
-5882.07
-8363.7
-4471.56
-3750.25
-15193.8
-14525.9
-3685.02
-1273.25
-3315.81
6477.69
-376.548
-1413.08
-8207.81
1082.91
-5040.57
-8385.76
-5571.42
-1031.31
-4832.35
-5695.99
4222.88
6659.69
27828.1
47930.1
31802.7
20067.3
6532.6
-916.831
-934.451
-9630.23
-7128.55
-8679.57
-3021.32
-2199.62
-3118.81
-1177.85
-4323.22
-9.01317
7129.89
20211.9
21566.3
19062.4
3867.63
1707.86
11570.9
-2782.52
2787.77
4081.23
620.586
-5538.67
1192.66
-2572.72
-952.175
9466
2907.7
-23.1411
-3885.33
4837.35
-1240.65
3728.5
-141.874
-7515.93
-5327.86
-10410.8
-13404.9
-2081.8
-11818.1
386.239
472.046
-6263.93
-11056.2
-19312.3
-12356.1
-5132.17
-811.987
-2108.75
1551.36
-3340.04
20.3932
691.007
904.998
1071.36
15568.2
12571.9
-4634.7
-6075.54
-6777.31
-7258.16
-3340.31
-1423.87
5320.68
-5031.72
-1522.8
-8046.12
-255.187
-4247.02
-3295.99
-6166.78
-5900.34
-6969.98
-6214.82
3380.53
5189.25
-1161.31
-8091.11
-9128.02
-2186.45
-3417.27
-3221.49
998.658
780.487
5444.77
-912.384
-3874.69
1739.06
-2687.17
-3306.81
1146.36
9149.89
-2458.98
-1250.88
4009.67
1603.67
-7793.19
-4659.48
-10470.2
-4473.39
-12120.3
-13557.9
-19624.6
-11282
-15303.1
-7672.15
-3053.68
-3440.25
-4872.27
-3113.82
-7121.44
-4373.99
2026.56
1699.01
4874.57
9847.7
3116.95
999.78
1633.53
3248.31
-2114.07
341.52
-3980.27
-4911.89
-5186.05
14.1595
11303.7
3046.83
8633.11
12719.1
5460.32
-3862.55
-572.674
5839.68
-571.053
958.465
1490.72
2623.29
86.4454
4597.94
8956.31
7108.27
-5890.97
-2216.02
480.197
4339.78
-108.489
887.538
-1839.59
7873.51
11440.2
4884.75
-791.234
627.335
-446.012
25.7617
-1759.21
4334.8
-612.679
1380.19
4105.13
-7428.36
-4354.54
-9106.01
-9416.8
-2800.8
1293.78
-2199.2
907.174
-423.112
-2520.22
-1570.38
-2247.6
12634.5
9168.66
7036.41
9210.85
2824.06
5958.89
26398.2
6392.86
6453.34
-3284.15
3274.92
-5047.87
-3769.85
-2991.31
4219.97
-5204.2
-9300.26
-9767.28
-6459.76
2652.96
3437.22
-64.7046
-5339.91
540.135
-1921.53
31172.1
41762.8
34960.3
25477.4
22731.3
38539.8
21948.8
35571.1
25412.2
25012.4
15931.4
22103.7
19451.5
38995.8
16313.2
1247.14
1471.93
-907.377
2167.22
-3490.81
-131.822
-939.45
-6224.44
-638.228
-8367.58
-352.42
-5840.58
-922.008
36160.9
39954.5
17615.9
6989.22
21244.9
10136
11.8385
-5989.05
-2082.24
-667.812
877.49
-7850.13
-4484.95
-1563.11
-11359
-9594.33
-8818.24
-8919.75
-15514.1
-14884.4
-7024.71
-3511.17
-6004.6
-1393.12
10313.5
-2360.12
748.703
-5573.4
-7083.05
253.725
-276.24
7407.83
8405.02
3787.47
10825.6
7745.4
1032.13
-1729.42
-3706.53
264.078
-5507.97
-7635.46
-11828.2
-12666.5
-4217.53
-1200.6
-964.402
-1036.26
105.675
4119.5
16793.5
15631.3
23072.7
23515
18529.6
30427.5
18258
2848.66
2394.44
4171.58
-1692.9
-1803.62
387.778
-2714.52
-11114.4
-849.008
-7465.36
9734.09
4825.8
1016.95
684.818
-631.479
889.671
2353.39
-3845.57
-6636.9
3574.29
1784.44
-3177.64
-3140.98
-11323.5
-4120.5
-2308.1
-4880.32
-6434.77
4845.32
5976.71
1959.25
20065.6
9581.64
10740.8
19072.4
34824.4
30301.1
12773.3
16829.8
17438.5
59905.2
41212.6
48259.8
63076.3
82533.5
73087.6
46367.8
60795.4
38296.9
24692.6
13133.6
6725.55
5735.68
9943.78
5584.04
187.046
-918.795
-3158.36
-2008.05
-2904.24
-13493.5
-4620.5
5107.5
558.309
6070.36
8319.01
9684.45
4562.22
-3509.64
15817.4
22487.5
20377
12227.2
14949.4
-1263.19
-3581.46
922.266
-432.453
2276.54
17958.9
23254.9
15211.8
-264.391
805.237
-1989.34
465.467
-3137.5
-599.576
3853.57
169.163
-1167.44
1137.96
-3027.02
147.689
-166.014
737.689
-1321.82
-2382.24
-2190.73
2746.1
4408.55
-6760.7
-4777.05
-7375.31
-8181.63
5029.88
-607.864
89.193
5743.82
-6439.58
3604.55
8530.76
-669.155
141.719
7270.91
178.237
1910.6
5421.67
-167.807
402.925
8360.41
9068.19
14395.2
5463.9
-2715.02
5162.66
12429.9
-4606.36
-3729.02
8472.23
1874.97
3237.67
1193.81
11365.2
297.645
-290.265
-856.366
-2808.36
-193.667
1428.08
1205.22
1179.64
-4097.64
-2533.14
4200.49
-2746.79
-3504.91
-3546.64
-3311.93
1495.12
-388.387
-3152.64
-1435.31
3261.97
-1516.47
-667.623
-3736.3
1602.38
-2695.42
-3101.21
3078.77
3002.8
-1244.36
-8076.76
-5980.41
-3772.55
2111.79
-801.981
2808.56
1681.7
1237.67
1707.11
2051.72
-225.299
-1941.39
2012.88
4150.15
-14867.9
-9205.94
-7056.63
-3377.35
-5518.41
-1904.89
-3735.12
1756.23
12189.2
32602.4
37917.5
37157.3
56852.4
44649.5
52325.6
63447.3
42593.2
35803.8
44304.9
27054.9
27989.1
2358.59
32336.8
39786.7
30704.2
37828.3
24789
34594.2
29671.6
61009.6
64940.7
76309.5
81914.2
66872.9
50969.5
47414.1
33244.2
35424.1
24077.8
11717.1
20376.3
13681.8
15184.2
11342.6
11356.9
15489
2667.5
5450.37
2443.37
4327.53
15549.2
22584
11999.3
13621.2
19509.4
21122.9
44424.2
20173.8
23695.4
7874.86
2059.95
-7992.72
-5049.21
-3710.52
-129.537
-341.496
-6241.06
-8651.38
-8371.55
-5516.61
7396.04
-4736.6
-4570.95
22226.3
56240.4
22455
30181.2
21701.3
18857.5
8092.95
22772
47439.9
19889.1
13571.4
17432.1
15797
-97.4566
8677.54
6869.59
-1018.38
12762.7
9902.97
1213.09
2806.27
4451.25
-1749.56
-5462.4
-7287.77
-5299.74
-7803.48
-5593.28
8745.14
7095.93
3393.38
16185.7
12165.9
6706.84
-1924.21
-2909.78
-5371.5
3512.95
1734.01
1923.92
14607.5
6049.14
5170.78
-4424.76
1287.27
-2769.31
4140.58
-7948.41
-10742.5
10694.7
47460.8
24384.5
15913.2
18250.4
16105.6
1336.42
4089.44
1397.24
-2290.54
6020.58
-2435.35
-4499.73
-4291.81
-3468.99
90.3327
235.096
-4375.16
-171.052
2379.93
-4868.11
-2560.72
-4302.34
-2355.08
-635.811
-420.753
1587.2
-1934
5563.06
7674.93
6277.22
12930.9
-322.326
-5250.3
-5549.52
-719.097
-5728.57
-1274.29
-1394.8
-7452.17
-5590.38
1375.14
-1812.55
-815.637
10864.5
434.108
-5582.54
-3568.66
-13564.4
-3739.61
-13849.6
-4367.04
-2919.27
492.73
-7368.15
-6638.04
-1569.54
-8097.23
-4706.43
-5208.64
-10411.8
-2207.19
-389.213
5164.52
9217.58
12393.8
1009.43
3569
13255.7
4216.67
1963.48
-2089.12
-5910.96
-4381.78
-17706.6
-1480.65
10544.9
-1769.97
-4059.02
-5881.72
-6824.22
-5900.39
-1351.83
688.954
-1106.57
-1710.27
2290.15
2367.63
6884.39
-948.395
11666
2305.24
20442.8
8072.78
27091.9
20942.3
15385.4
29217.4
22254.8
18426.7
34085.5
16912.4
21536.5
29090.1
21919
15507.9
5159.59
15078.4
3417.49
15262.8
16661.4
17734
16836.5
39547.5
28076.6
21700.7
11714.5
12797.4
8702.06
-5913.06
8003.85
-1545.07
15514.4
2648.01
-2635.7
-478.996
-9755.99
-5467.87
-11200.5
-548.521
859.222
-4087.8
-7566.34
-13274.1
2987.15
4138.24
5795.14
1834.1
244.591
5024.91
-5806.31
-4672.97
-6208.87
-478.983
-5559.17
-6747.49
-2630.41
-588.558
-6320.31
2504.59
4816.16
7745.07
38218.3
54213.7
41726.4
24633.5
26537.4
24523.9
4528.23
2090.19
329.221
-208.668
-240.641
-586.255
-6091.3
-564.823
-133.117
891.943
-1010.59
8459.06
5389.41
15042.8
14873.8
5749.39
-1943.07
-923.785
-4885.95
-4799.04
-2977.3
-2453.31
-5932.21
-13929.5
-3705.84
-3391.09
-3641.98
-2732.53
-469.806
-3359.61
5156.91
620.201
6346.89
18205.9
7843.64
3573.43
-2630.88
9599.43
2617.07
-146.736
7821.54
7292.26
8726.27
3458.96
2531.52
-4140.5
1675.22
-1540.44
4312.92
7116.66
10147.1
8702.02
7999.11
2870.44
7418.36
1802.04
-6085.91
6833.42
4498.82
7415.89
7990.99
4823.58
-5142.69
3485.55
9735.87
14389.1
5283.27
1312.41
4864.14
11411.9
-1946.93
-894.087
-3253.39
1681.82
1771.28
-553.875
-1866.11
1584.03
-1428.69
-5137.83
-7449.19
-5679.21
-4280.96
-7362.53
-10262.8
-5413.85
-610.44
4605.15
4684.1
11898.6
11374.2
6378.25
8191.1
6477.72
-545.332
1424.67
1006.14
-3262.91
2524.3
3481.97
12043.1
15449.3
27607.6
25529.1
29404.9
2488.94
6235.33
9770.71
829.043
-823.065
1968.96
-48.4148
-397.018
-2715.35
2396.33
4688.23
488.635
8046.61
13823.7
10964.8
10284.1
7924.86
6495.94
1688.06
3147.7
12470.9
8705.12
23141.7
51861.1
49572.1
50849.3
37142.8
41464.6
72862.7
59238.8
51288.8
20018.3
34091
25209.2
-1257.69
877.451
-679.472
28807.6
45112.5
48651.8
78036.3
38852.5
55843.2
58644.4
52294
54734.8
38808.9
65054.8
15526.3
-3892.51
9701.56
2485.57
2657.85
1516.76
4789.05
-2112.7
-5338.81
-4098.47
-455.195
-2485.72
-1571.08
5948.36
665.17
2349.99
3552.18
-5987.45
7589.29
30605.9
45731.6
60812.7
47216.9
40881.7
25586.4
18339.3
5899.19
14259.8
9274.72
16179.3
3267.72
-21.8315
14683.2
21689.4
12229.6
15024.5
42519.3
59463
59189.9
60099.2
42284.6
3938.97
23781.8
19219.9
8919.01
8448.87
838.413
-418.605
1068.35
10452.7
5378.71
15399.4
30656.8
45466.6
26699.3
10800.8
17359.1
23446.6
19548
27803.9
39376.6
32958
50807.4
57267.9
24904.3
10543
25601.4
-261.861
482.435
1013.38
-1076.01
-2597.63
-10344.3
-10755.7
-8024.9
-857.642
461.261
10205
2107.51
-2258.4
-4486.3
1175.26
8883.5
1427.17
11.7664
-3283.55
-3846.36
-8821.65
-11302.5
-12185.1
-1946.84
1258.89
195.322
1242.04
-3737.85
10572.1
21607.5
17890.6
26100.4
32075.1
32258.5
21620.1
3640.24
8570.05
-1502.13
-1236.01
-8464.02
-5066.29
-3730.31
-1265.2
-3403.15
3404.62
1879.36
-480.229
1779.13
12797.5
6141.84
18738.5
5014.46
12929.8
2040.62
2376.6
14693.9
10883.1
16276.7
1595.21
-1622.47
-2168.98
662.82
816.623
-2813.78
-6619.26
781.49
-2754.38
-6513.75
-2056.19
-4302.8
-1315.54
-4070.98
-530.9
-2264.07
826.946
521.83
-7068.81
-851.377
-456.921
-1596.38
-2536.7
-3618.42
2030.54
10052.7
12230
16156.7
35664.2
15897.3
-3871.11
301.683
-1381.6
9979.77
8928.95
10054
15730
21628.1
26373.9
22579.3
23649.2
3945.84
-90.5174
-1291.55
889.816
11434.5
7467.23
-899.916
-5690.68
-5606.47
-2977.62
-4489.38
-4005.17
-17027.5
-17151.2
-17748.5
-9133.28
5027.91
17188.2
15901.2
1947.76
12777.9
20303
31377.1
30582.1
50400.3
85402
65252
35242.2
51636.7
34575.2
20570.1
105.361
2479.73
-2493.06
-6055.34
-6307.63
-13904.4
-4951.98
-5784.74
-9833.66
-5039.44
-3758.46
-1240.3
10916.1
25950.8
6819.51
13994.6
15469
5537.21
6167.32
2178.04
-3131.99
71.8351
661.689
7083.31
14162.2
-342.709
5359.61
-1765.69
-3280.08
5746.08
-4147.59
-7827
-218.562
3158.4
1891.73
-882.604
-264.343
9100.74
10412.5
26.402
11827
14820.8
1512.04
-1962.76
-2795.73
2113.52
-2448.13
-6907.48
-7676.94
-3612.89
6342.48
3418.22
3518.09
18486
17212.2
21529.8
11858.8
1079.08
-107.459
-1132.8
-19730.9
-9295.53
-17204.4
-8704.23
-3240.44
-3678.85
-3022.29
-1099.41
-122.26
-1296
-2902.52
6422.99
23950.9
51878.6
71633.1
54827.1
71004.2
44291.2
99690.7
72083.3
46460.5
36742
30761
24712.3
38375.7
23105.8
22144.1
10406
2739.19
-585.903
-50.9784
5641.53
2153.66
-965.685
-1790.21
8257.09
3731.31
6386.44
12629.2
14242
17451.4
35948.6
13192.8
-3082.3
2384.01
-4733.83
-5365.19
-4187.11
-7182.17
-9356.88
-2574.4
8246.43
6838.3
8887.44
14071.7
7858.6
7695.52
9872.76
4951.75
7673.3
2823.82
2024.15
-1519.9
-7722.77
-6687.89
-3932.56
-7657.91
-4622.17
3512.46
-3861.96
-3814.67
654.13
-5999.93
-6481.29
-6144.84
-6694.71
5523.41
2132.59
5551.35
1180.01
1827.59
-7484.23
-9408.63
-7937.52
-6485.21
-8562.11
-3599.01
-3150.44
-4005.51
-2565.29
-8630.37
-3960.65
-2326.63
10043.6
20480
26260.8
6088.97
5722.1
10570.1
9977.39
8449.79
-65.1611
-5893.79
-9819.51
-3547.95
3475.63
-4226.02
-11482
-6068.75
-6399.63
-5391.71
-13172.1
-9405.47
-11283
-1724.31
9804.12
12227.1
1922.36
-6789.76
-9939.54
-199.681
-3427.01
-3839.17
-1386.72
1092.22
-2435.06
-6974.47
-4309.93
-9169.08
-12420.4
-8743.85
-23495.2
-10603.4
-3091.72
622.781
-1807.47
-4103.31
3340.79
982.895
-4437.77
-5507.1
-7411.26
1057.91
5333.31
382.641
-1880.47
3324.33
3499.11
520.342
-652.846
7286.85
12497.5
-1825.92
-8250.34
6885.65
-1807.67
-1961.54
-1699.73
-3593.37
-456.83
-4327.14
-1524.14
-4369.14
-499.852
-931.858
1474.71
-1305.23
3602.7
21776
23062.3
31265.2
72410.2
114121
96168.1
117853
93238.4
74278.3
100135
102688
68137.9
82309.8
71755.3
75203
59162.3
56183.5
72210
71315.7
62051.2
70452.6
63098.8
80020.6
87667.8
93578.7
81049.3
43483.2
19661.2
12523.5
12714.7
20818.8
24642.3
38027.4
26474.6
21307.6
34074.2
53060.3
34745.6
24829.3
11054.1
19268.7
7687.43
23707.5
29722.8
16229.6
17344.8
11320.3
17720.6
6736.87
13594.1
1567.59
-327.477
-1903.73
2185.86
4080.85
-4726.11
-5355.76
-7531.47
-10915.9
-15722.9
-9602.27
-9365.28
-4682.79
-9190.39
-8556.88
-10662.1
-8284.62
-18635
-15127.7
-4791.39
-11751.4
-2858.87
-5310.94
-2440.72
1465.28
-1943.84
-200.414
1437.14
854.081
-554.544
7975.62
3978.2
24219.5
29805.1
20321.4
22416.7
15371.2
25910
21569.1
5567.24
21545.1
19767.3
9623.53
27170.2
23360.1
2944.3
5464.66
7436.98
24275.5
35957.7
34809.1
36968
12278.4
11341.9
7612.26
11397.3
-2012.08
6102.43
1618.7
8873.49
24979.7
20942.9
18081.8
28599.9
23015.5
18525.8
8676.31
3522.39
3877.98
-937.082
3823.17
3335.56
-855.078
2575.2
4485.34
8496.37
14999.8
8677.27
1616.94
10537.9
19681.9
15360.3
17921.8
36074.4
43762.9
33846.7
36004.8
12118.2
10088.6
17368.7
1418.17
-4044.32
-700.524
4631.9
12240.2
16269.2
6535.81
15909.3
17595.6
1346.93
7742.13
10267
5493.61
-5317.28
-6668.13
-2229.28
10190.3
10346.9
3045.61
7009.68
3222.91
11376.8
15460
13638.6
36755.1
30799.8
62725.4
63135.4
44686.6
54453.4
59288
40825.8
25449.4
27311.6
20836.9
13429.7
2639.71
-960.409
-1286.07
-876.584
964.649
554.775
-2137.41
-1313.96
-1940.35
2684.21
-766.526
-1067.53
-2334.25
7148.28
10578.4
19555.9
-3533.36
511.097
10447.3
10340.2
9530
2241.51
3377.57
158.999
-4021.18
2302.19
-14662.3
-10741.3
-7050.48
-484.883
-8438.83
-14078.9
-13562.1
-8050.26
-6451.11
-1075.22
1207.56
2966.81
5034.05
6707.07
66.9382
-1203.39
-441.206
1517.83
914.513
1698.35
-3121.55
-2402.46
-7597.44
6241.69
-8981.85
6249.73
-8560.3
-6818.23
-374.789
-7320.66
-4282.64
1323.78
-5576.76
-5211.55
-5799.4
-5374.12
-4819.59
-2773.34
-5544.52
-4928.97
-1785.1
-1177.96
281.512
-6968.11
-6504.63
-5031.8
4609.32
-425.696
1798.8
229.875
4276.61
545.839
-993.417
-4389.76
-3902.47
-6619.22
-3001.62
-1082.28
-1859.7
-124.899
3114.13
-2444.12
4253.84
7502.49
15053.2
19789.1
14013
6778.11
5960.94
9022.15
20323.3
16813.2
28407.7
20726.9
28276.9
22618.2
-3814.1
-2053.24
-1992.44
-3468
3680.31
-2470.78
135.038
8476.65
19361
10831
22576
17741
3576.05
2900.26
6718.97
8639.19
17834.1
20901.1
22657.1
20838.6
17772.2
13383.4
4258.66
6971.37
14411.1
40890.2
26256.6
39403.3
27715.4
29541.5
11959
13842
3066
4124.33
1358.5
-264.991
-1438.3
-3464.32
-47.1582
-2460.6
288.181
431.356
-1836.4
292.654
-6571.21
-4007.53
-3897.1
3120.1
15469.9
24263.3
3410.34
28063.3
34076.4
56897.1
66574.1
55012.2
65446.3
36093.3
18166.3
22704.4
34799.1
60318.6
54271
78883.7
44309.5
39098.2
13729.9
12488
9454.62
1043.08
4698.75
-3277.02
-5666.66
303.471
7322.56
8955.4
11367.6
6263.31
18213.5
16343.2
10637.9
3751.34
6781.21
6585.37
-5657.68
-4635.37
-4440.09
3548.46
1987.75
-8619.49
-9719.68
-4489.8
5052.91
1538.42
-8052.85
-1203.43
1015.4
5375.93
3059.86
-3023.47
1271.53
-170.44
-2351.94
-12118.3
-7001.09
-3291.63
-2817.28
-1288.1
-1322.28
1038.61
1595.89
2649.46
11148
9192.49
5049.17
999.676
4182.4
-3929.99
-525.445
2280.67
3942.87
2044.26
20869.1
17350.3
3006.89
1763.03
-5159.95
-1924.88
-5998.75
-7231.96
6101.33
4661.9
-1619.5
3469.92
8245.31
-1374.38
2787.94
881.679
-3796.89
-2092.16
3443.4
-8019.97
-10708.4
-6996.83
-4849.99
-2472.29
12767.7
4418.26
-4783.9
-1171.4
-1239.52
1771.58
1747.1
12659
9250.13
4938.48
-135.921
3283.27
8507.18
32846
29850.7
38237.7
34344.4
17710.2
28972.6
21071.2
8119.51
7420.71
-669.548
6053.45
4653.6
6005.16
8993.14
8548.56
12704.7
7177.33
7419.29
7672.34
7464.07
-1854.68
-10198.1
-5527.54
-637.453
315.295
1819.5
-2325.27
3525.51
8782.7
16224.1
7065.13
8808.58
15003.7
20174.1
20586.7
10743.3
-4059.66
-1920.59
-2491.1
-3703
8684.96
5502.46
3478.5
-2371.97
-1486.85
14196.5
22863.1
28294.7
25469
10744.4
-1046.71
-1355.78
4573.54
-8328.93
-4223.37
1388.97
6103.35
-2051.69
-5438.53
-8215.99
-3351.26
774.233
-1573.32
-351.201
-4338.23
-2247.92
241.477
3594.59
13683.7
1767.04
16722
15443.6
12143.1
19807.3
30108.3
17882.7
33994.4
10999.2
16035.4
9307.01
11756.8
24660.6
33016.7
31689.4
8882.98
11995
20067.1
18249.5
25833
17342.6
13987.1
19794.7
29413.5
13571.3
21538
15854.1
2596.48
5527.41
-2881.91
7312.71
11420.8
4627.74
3341.54
1593.53
-5580.64
-5670.97
585.535
-4790.52
-4564.71
2640.26
-784.562
3045.11
-6425.12
-5454.11
-8039.03
-10014.7
-3454.89
-96.0155
1135.42
6903.75
21431.3
2095.37
-785.99
-43.0842
328.417
-2355.96
-5357.78
-4114.38
3832.94
-4957.51
-7477.26
-2014.5
-5287.2
-1381.45
629.51
6755.6
6129.65
12967.6
27436.8
31734.4
26475.1
-922.639
-5425.98
-3671.69
-2909.63
-3340.67
-3730.58
2325.1
19150.2
36563.8
16634.9
22195.2
22595.9
30214
13132
21643.4
6820.43
4054.8
-3117.49
-4471.83
-432.134
6427.9
-1385.3
6976.89
6967.39
-3529.36
1674.4
-3969.53
-10167.4
-10162.8
-8352.88
11203.4
21141
32574.9
21432.6
14613.8
18099.6
24342
18417.3
12384.8
50.4331
7702.35
19.1179
742.195
1656.11
-527.974
1240.29
-845.624
-1844.62
1119.49
-4966.27
5005.76
12967.1
5542.36
-306.304
8221.8
4312.05
16101.1
-814.912
-8834
-8668.56
4369.13
1240.55
-2434.83
-1882.17
-2611.74
-1993.9
-940.235
-264.395
-171.803
-1713.45
-1330.21
1265.64
23007.7
10817.3
-762.898
-3923.79
-9144.33
-13804
-15185.9
6021.24
8151.9
16094.9
6632.33
19611
12807.9
3199.67
1497.9
-1506.31
-3210.68
-5793.83
1342.98
21089.7
27679.5
17078.3
35658.4
9045.55
3620.53
-256.618
-1788.66
288.683
343.256
3859.41
8928.99
11783.4
2829.61
-5345.65
4864.14
4804.4
-5196.15
-9302.92
-9225.16
-11186.2
-10626.1
-13959.1
-2963.64
-7341.1
-7935.73
-514.633
2180.7
7267.29
5269.49
1348.09
3868.19
3712.59
4852.51
32200.1
48354.7
27638.4
24623.9
21848.8
15030.1
-3910.78
-4132.96
-3670.23
1602.41
258.347
363.923
440.448
10019.2
1980.14
10749.8
32890.8
52562.8
57166.3
41733.2
35225.5
35151.5
24891.7
14288.3
26643.5
25654
23663.4
3948.75
1395.88
-152.75
-558.349
-4691.54
6014.32
540.364
4803.5
2066.34
-10452.7
-316.666
-4244.34
761.354
-7659.43
-5712.74
-7721.13
-2404.88
-1380.06
6007.43
3934.47
44194
36404.2
62197.1
52237.9
15218.8
35719.9
49948.9
26746
13392.4
3190.48
2525.78
1557.53
-1195.62
-192.774
-2429.38
9772.48
-851.592
652.347
1790.97
4536.8
-2716.19
913.635
-617.911
-9045.35
-1998.48
-1076.93
9289.05
2039.99
4490.25
1050.88
-276.018
-796.632
-1524.66
22930.4
9013.5
10336.4
22689.3
30053
17953
3166.45
-4297.12
-34.4888
-1304.74
1794.32
-8307.11
3027.66
6718.19
7628.21
1702.92
-1743.29
-2668.85
-12253.5
-16752
-23270.6
-13540.7
-993.825
16331
31746.7
52479.8
33433.3
29415.1
28101.4
20727
11792.4
25393.7
10191.3
11399.3
8075.04
7670.7
227.932
5212.6
465.57
5568.14
4370.77
-1533.65
858.568
503.416
1682.08
-4480.38
4708.8
-360.888
-1734.67
5725.48
988.747
4190.67
-1589.23
-1576.4
405.343
-2930.7
-1322.26
-3513.8
-7629.87
-10479.8
-9924.78
-5743.43
-2405.75
-360.408
-6028.81
-3218.05
-3888.9
-7816.21
-4084.91
-1436.53
-4239.38
-473.061
-1374.47
-1390.26
-5617.76
-1753.62
-3192.17
-2640.34
-7672.76
-16996.5
-12082.6
-12357.3
-10698.6
-3746.44
-1037.79
-1041.49
6938.29
9193.09
3473.32
-1825.03
-3189.32
-2594.23
-3722.62
6465.53
6668.75
12582
16237.8
8988.16
35987.5
36827.4
22418.6
15070.6
19727.8
-207.369
-2018.43
3871.28
3708.42
-1016.6
-2098.01
-4211.29
-12785.6
1295.93
-525.378
1954.94
-7365.26
1039.58
-427.487
-5085.34
-6909.98
-2481.51
-2940.47
911.634
181.681
-6224.78
-1871.97
-3031.46
-4811.66
-445.313
-1337.09
-1736.86
-2414.28
6889.55
16691.3
11539.9
18793.7
7413.58
4080.83
688.744
-2900.5
-2439.75
-10032.6
-5583.6
3880.43
-6011.62
-2043.4
-8628.93
-2673.59
-11603.3
-5890.51
-6331.62
-2557.83
3114.5
6893.2
1989.93
-2179.15
-3545.93
-3361.22
-103.907
-2154.09
-5118.94
-1410.28
-485.382
1071.95
-2006.92
539.36
2181.49
8.7876
-4141.29
-6769.33
-1664.94
-1444.8
-8674.3
-5510.49
-3346.41
-11114.8
-6632.34
-3956.3
1858.36
-2752.62
-7107.58
2468.89
-325.784
2061.5
-104.902
1039.15
-557.986
2904.87
329.872
-5809.27
-1223.03
-10826.5
-1216.3
-4727.18
-6753.42
522.545
-4283.9
-269.746
4772.13
5400.53
15983.8
23424.9
27793.4
36025.8
14636.8
-82.3646
-72.5232
2736.06
6239.05
12387.6
1764.21
-2546.55
-99.7357
7765.29
288.023
-8342.51
-5768.28
-1447.45
-1460.21
-2747.33
-1225.39
-2239.4
5629.6
4747.81
5759.11
2552.66
10971.9
-2587.48
-10191.7
395.514
-3799.01
-1288.25
-1272.21
-5651.95
-11900.9
1456.07
-7725.96
11586.3
10720
23993.5
17512.8
19448
31348.8
32940
52781.5
42951.6
12037.7
25800.5
31389.8
17844.1
15324.1
7089.33
3165.31
-13317.7
-4502.6
6545.74
2189.72
324.503
-2732.7
-5935.41
1769.6
-4454.7
-875.939
446.512
3537.12
10790.2
16057.8
18368.4
18180.8
7195.85
24250.9
26382.1
27782.4
17774.6
12110.7
1444.55
-984.606
-1856.9
-11617.1
-10000.1
-1035.56
4588.83
1074.9
-1227.85
-3505.45
-1134.53
2642.12
-587.58
-1278.84
214.632
495.054
-103.379
-4088.84
-1245.4
5608.47
-2329.1
4929.5
6473.44
-1601.31
-1267.44
-3427.11
-3375.78
308.86
1022.19
-5330.02
-1863.78
3780.35
4481.45
-4140.6
-4794.28
-6244.44
-8034.27
-2015.2
5951.41
-2584.13
13988.3
368.616
884.968
-2254.91
-5117.09
4233.26
-1307.97
-3762.68
-3963.25
-555.63
2748.65
253.536
4177.52
4046.87
6891.28
-13567.3
-5834.17
-9476.43
-1545.86
-10122.8
-7948.55
-5637.26
3787.78
-3687.12
-8401.83
-5225.5
-805.148
-3890.04
4478.21
2513.67
17269.3
10496
11322
44374.8
70351.9
49634.6
36097.1
21532.3
26562.1
22498.5
48520.5
28811.7
29463
51623.2
64473.1
48434.3
25395.5
33411.8
68206.5
115019
125111
129062
101841
96561.4
88033.5
64048.8
86776.7
91339.5
87137.3
63209.6
39277.8
35543.7
50387.2
31797.5
45141.9
42236.8
31677.1
37856.1
29477.3
38068.1
51296
46996.2
42595.6
23958.9
66360.7
53969.4
45562.9
29938
23548.7
8261.43
7060.02
-1618.6
-5642.59
6665.42
-709.498
-273.368
3174.57
-804.274
-6600.95
462.247
1359.29
-5960.74
153.311
-1741.54
847.876
3229.14
342.834
-2193.55
1553.21
-6579.74
-1278.5
-7514.84
6001.93
23843.9
22685.8
13715.7
24458.2
4691.7
561.768
2437.4
-904.043
-4767.77
-5744.82
-2699.63
282.095
-1382.9
-885.639
1208.92
-1105.28
10304.7
-2034.18
-927.747
2813.18
-1144.17
-1140.12
10119.6
25823.8
6596.61
3071.45
-3035.55
4277.68
6464.21
9875.92
-7712.93
-4604.58
3336.78
12115.4
12091.3
6767.01
-5505.76
12567.8
13934.7
19092.8
8834.51
22791.6
50300.3
45240.1
32143.4
19571.4
13931
10616.7
-5618.93
8156.01
26671.2
40663.1
42984.3
28273.3
22700.5
13171.8
8635.18
8478.61
18821
4029.43
14593.3
7236.07
15282.4
22201.5
30655.5
47113.6
23670.4
9996.18
9326.46
12403.2
20753.8
6188.85
15387.2
-1423.72
6930.75
15007.8
5540.81
5078.31
23507.6
33655.3
46478
28458.9
11785.3
2061.55
15729
8848.87
2002.15
811.294
-1458.78
4485.87
-4304.76
-2037.43
9054.99
8541.95
21251.9
50765.1
67065.8
56089.3
63812.5
40835
38301.6
62146.2
47690.1
27839.2
10374.2
18947.3
9655.76
22279.5
12495.5
22837.3
28054.4
54139.2
67549.2
85295.6
60414.1
60944.8
65050
88259.1
110054
117668
126108
95729.9
99559
59032.3
30848.7
29107.4
33350.6
11615.2
11641.1
14516.7
-2350.57
6987.04
23534.4
11249.9
5280.87
7840.62
7453.61
6971.43
10898.4
1293.59
6899.63
-25.9481
-5839.61
-13175.3
-4643.72
-1619.1
-2.14115
-9974.87
-3538.56
511.768
794.507
4520.46
12103.9
14296.8
15192
12914.2
31615.1
27484.1
53414.5
41704
31791.1
31152.7
46433.8
32086.3
24280.8
30391.9
44954.6
42624
50295.8
44444.9
44179.8
65057
47607.2
33265
37546.9
28488.3
9404.49
4494.18
-5601.84
4604.17
-11606.9
-14486.8
-3502.76
5131.07
6783.84
-2931.04
-1443.36
-2884.91
-3580.61
4994.99
1363.6
-5802.87
-9684.29
5139.22
3126.66
4729.93
8122.19
3646.31
2004.5
113.546
17299.2
13640.9
-525.787
823.854
-857.813
1749.73
-1283.89
-3965.43
1963.13
-4611.56
-5468.99
1366.96
-3181.88
-3043.89
9909.28
18276.9
17598.6
14630.4
31954.9
18922.9
41951.4
44388.1
48548.5
48850.2
19841.9
20581
24583.2
11776.2
37031.1
26735.5
34383.5
41665.3
24631.9
10582.4
4027.24
7639.72
19354.4
9854.82
15966.5
5160.33
8568.71
646.423
-6258.47
-7902.58
2544.18
3851.62
13313.7
7119.49
3641.31
-1153.09
51.6489
180.218
-4178.73
-3771.99
-6151.61
3264.73
2139.22
-957.92
-152.482
-784.848
4245.35
2364.39
248.004
-1060.84
2546.97
-1683.3
-1435.29
-4043.33
4868.38
-4591.49
-4855.34
946.121
-2490
-6780.62
-793.317
18127.7
29888.6
8060.45
11507.8
-7994.31
-1850.16
-6632.86
-2756.45
-942.329
-9202.94
-15308.2
-11879.2
-7140.48
-4303.73
-6233.42
-4421.19
-3714.35
-1168.75
-4997.37
-3808.35
-454.237
2135.59
-2104.27
-1440.98
6625.71
11011.4
27655.9
7510.51
25488.7
16853.5
2812.5
21747.4
9101.91
12195
25458.5
46849.9
23124.3
-8073.89
-7273.57
11504.4
16549.9
21515.7
19558.7
14434.1
19117.4
27161.1
73079.4
66211.7
49951.3
36625.8
44762.3
41798
26332.8
29082.3
28469.8
11237.4
11719.8
2563.49
6121.57
9684.36
3827.43
-435.958
-2039.75
-793.036
-2434.66
-380.568
22519.1
1825.27
5882.12
12215.2
8988.31
6818.91
2164.07
2002.5
9808.17
352.986
4017.13
-1901.38
-4709.91
-3396.12
-468.554
-4444.81
-3057.33
-2981.25
-5789.39
-4686.74
3347.79
3083.6
5658.79
9254.49
-199.746
-1242.39
-524.955
-4962.88
-4543.75
-94.3152
-3942.54
6739.9
27884.7
43771.1
43708.3
55614.2
78715.6
62992.8
46004.4
59820.6
15672.2
19134.8
28619.6
40500.4
32719.9
29798
16288.5
20955.9
5189.37
5158
12395.2
2877.06
-2903.81
-1426.49
1422.86
-2423.77
-5781.61
-6533.67
-7754.32
-8240.34
-1274.24
-1925.76
-321.05
8594.26
2519.23
2875.52
-2971.87
-4740.59
-5112.6
-7727.53
2.72323
-11221.8
-511.214
4567.12
10222.9
12024.9
2875.2
1982.98
5574.17
13719.5
10263.8
9656.21
6347.6
1986.79
10638.2
6062.31
8926
12337.4
23571.4
33390
57386.8
51249.7
34889.5
16504.3
24574.2
38388.1
28944.6
19339
29944.2
49116.4
33703.9
46628.8
34789
30875.8
48811.7
28478.5
8198.11
14245.6
24935
9230.06
-3678.47
-5370.76
-4602.11
11531.1
17209.9
7531.07
16856.7
20472.6
3559.08
10746.7
5131.46
4685.03
17645.9
35698
51418.7
66874.9
40113
33353.1
17342.9
24078.4
10200
-1327.3
-2884.01
-3118.04
1867.38
6897.35
-5644.75
1929.83
4924.93
10790.9
11169.5
5647.85
-2093.87
355.677
-15539.9
-5305.96
-4458.6
-1115.83
68.0413
-1992.6
-28.9623
2867.1
-1151.32
-2190.39
3849.01
7333.88
18376.2
9803.64
5315.07
1770.65
2845.6
8783.64
11964.5
8799.64
10261
25338.8
36324.1
16166.1
6977.44
4515.13
10366.5
8482.3
10743.1
19629.8
16464.5
1284.9
1513.55
8373.37
15466.2
15908
1931.11
-1481.93
-480.615
-2310.87
646.29
-3536.53
-5607.3
-596.29
1887.23
6186.22
6233.32
-27.0249
6606.11
-3065.58
-3433.76
-3286.59
-8218.16
-4255.46
-1016.63
-418.354
600.968
434.695
8339.29
19897.7
14933.1
20256.8
17662.6
5229.41
11301.4
10387.9
38103.5
57450.8
62793.1
58156
80468.8
70628.7
42641.1
29743.5
30586.4
27810.5
50428.1
46367.3
51260.3
63162.5
45587.6
27458.6
44221.4
52769.7
49429.9
35196.8
44246
70185.6
43497.1
61105.7
82395.2
72450.1
66285.4
19460.1
19647.4
-2460.83
6500.8
2072.42
5430.63
907.57
11681.2
22513.3
24818.3
21414.5
35221.3
14709
10107.7
12661.2
8313.54
4791.15
3246.58
22363.1
34245.8
21596.7
16017.8
28859.9
37096.1
19310.6
61360.3
47860.3
37345.9
39587.3
49410.2
34924.3
32686.9
39276.5
11631.6
22308.6
17381.5
27602.6
24862.4
78316.6
42144.6
44457.7
31182.9
42645.8
33743.9
26446.7
35839.4
67244.9
66293.3
54278.2
33535.1
4446
-2585
-1873.58
-3724.88
-12703.2
-17360.1
-11455.2
-5831.84
13137.9
-1677.06
3939.15
12520
1837.33
9203.78
6542.36
8192.36
4256.95
7913.74
9790.82
16886.4
5903.73
1543.69
953.831
-374.061
1983.84
-2704.49
4086.61
-1985.64
-1408.62
2380.91
-625.206
902.16
6293.92
13168.3
11397.7
13548.6
10035.2
8579.09
391.338
-5382.57
-1711.39
802.979
-420.581
-6494.03
-4345.04
1888.65
-5581.42
8854.09
1960.14
4054.19
-4577.92
3395.79
-3463.76
276.581
725.474
-2670.6
-674.349
-4719.02
-9073.48
-1365.05
-5784.45
3966.95
-1737.52
2213.62
-4816.16
-15179
-6360.83
-2380.61
3780.61
9356.9
10610.9
2676.52
-4179.63
1596.93
-5123.95
13327.9
37065
10283.4
11762
4740.2
10582.5
16947
17057.8
36991.5
17644.4
17917.6
10508.3
6224.39
11002.1
19595.5
15622.7
19537.3
15698.9
5373.89
5037.47
8457.05
25412.3
36521.1
71637.7
55150.6
64771.5
57707.4
51034.2
36424.4
23641.8
12837.3
19987.6
7235.53
8676.04
14350.9
5207.85
7444.67
9188.55
-1399.85
9360.62
-893.447
-5051.95
-2281.89
-3501.66
5651.77
8520.84
3753.45
-930.404
-8541.32
-2359.74
4973.38
-2272.69
-1190.91
-425.344
2055.98
3591.87
1652.43
3600.09
891.236
11417.9
2018.4
422.589
-454.873
16347.9
22697.2
8274.77
-11938.7
-18688.3
-5270.49
-4576.96
-4040.52
1468.06
141.861
-1910.87
-719.423
-1922.66
-340.717
407.737
-1003.28
-159.335
-1999.38
1591.43
-4410.14
-553.702
500.529
-3004.67
-6483.08
-5865.63
-3713.34
3321.9
-1922.44
1806.65
8433.96
12455.6
-933.995
4912.81
9864.95
2745.32
9545.73
-2385.93
3282.47
2670.52
-3175.94
-1147.74
2849.41
-3351.64
-2143.13
760.363
-3391.51
3648.66
-6553.88
8707.92
12006.9
4464.99
11253.2
451.284
-5584.31
-11855.7
-5807.41
-3495.33
-1447.34
-1806.06
15654
16088.9
9847.79
-504.866
-551.485
1939.87
4151.71
8676.92
8767.58
20453.6
16590.9
4465.77
1601.15
1246.58
-8968.44
-5710.19
-15415.4
-17403.5
-13332
1219.34
4217.71
443.119
13805.1
26051.9
40284.8
38886.9
32854.7
8064.84
3703.94
2092.32
-3853.86
-13819.3
-9759.37
-22974.4
-12242.7
-12988.8
-19667.4
-13026.9
-3144.16
4457.12
4865.01
-2103.21
-5368.36
-3196.08
-3639.65
4445.22
15860.9
13579.3
4908.55
311.087
4566.13
-2326.25
-8039.68
-9539.49
-17853.9
-8576.16
-11594.8
-2756.78
-4424.64
-6227.48
-6368.75
-5238.19
-4255.83
-2292.29
-1497.21
1843.41
-185.53
3954.98
6784.1
13782.8
12743.8
16289.8
4478.55
17927
9159.83
8995.6
2926.44
19658.2
33793.5
40066.6
46589.6
36131.8
12155.4
22253.1
20015.6
38712.6
17356.2
3737.5
10375.6
4784.93
-4189.01
-3372.42
2798.23
408.064
2711.65
16190.9
951.388
-2718.87
-5370.45
1458.63
-325.322
1549.29
16672
13331.6
26576.2
25167.8
18307.5
15346.6
1752.73
11964.8
4407.33
6988.58
20779.1
14421.2
11197.2
-6441.28
-3954.67
1362.75
7463.58
112.045
7962.76
4150.9
2528.83
5751.18
8156.62
24.8872
-2370.36
61.1192
-1543.57
-2912.29
-1706.79
3396.38
-3203.19
-2519.05
-631.564
-5133.11
1647.23
-1040.29
-1089.5
5554.03
3203.47
-101.507
-212.489
1673.68
-7174.58
-1843.02
-6359.82
-17841.8
-14514.6
2283.56
4850.29
12318.7
-3792.21
3453.27
-239.937
6869.45
9815.83
10267.5
1607.81
1803.33
-4982.08
1918.43
331.355
1038.46
12937.7
25344.2
17025.7
29567.8
34293.6
40640.6
35495.7
53855.1
57498.3
38607
20037.7
32411.2
23875.1
41736.4
45603.4
20858.4
3317.62
8401.27
14144.5
2017.42
8022.03
2149.35
6382.75
10871
-1484.55
-3184.54
-3536.99
-9062.28
-4378.89
-1351.96
-425.324
-1240.17
-6787.42
-7329.69
-9258.73
-5384.95
-3035.2
-2074.25
-5429.58
-5916.09
-6122.15
-3479.26
-4507.64
-192.181
1994.41
-41.1257
-10983.7
-10229.3
-5865.72
2593.59
-3107.62
16282.8
18982.4
7491.88
-1527.63
-4477.76
1575.73
-6038.08
-1343.42
-1397.24
-1167.61
-1105.97
-2227.57
5140.66
1321.97
-3461.47
-967.148
-1821.12
2758.42
3934.32
6765.57
5300.04
-7228.65
-4380.84
1279.63
13208.6
8673.8
-786.047
2041.33
5960.93
8599.5
3530.79
4292.09
4110.28
27136.7
17446.9
8360.44
8030.94
3486.91
7255.64
1224.88
1422.47
3162.15
1714.15
551.818
-1747.32
2730.91
-2278.07
-6086.72
3205.93
3597.95
6667.56
-2303.59
2244.92
-3497.14
803.488
1840.19
2158.23
4178.91
-3722.96
-5597.15
-5513.94
-6429.3
-1775.81
-2331.37
-898.507
-7065.83
-7371.52
-10288.3
-11789.7
-3898.78
-7398.46
-14981.5
-13290.3
-9815.26
-11771.9
-1487.22
-973.729
286.562
2370.31
-1618.87
-705.673
-8153.57
4757.54
3086.11
10664.3
9372.23
7655.22
4775.09
163.221
-3360.22
-1840.31
-7290.34
-3280.05
-2302.95
-586.897
-508.954
-662.157
-409.216
-624.389
-1338.78
-801.964
1234.32
-3369.41
-9823.81
-3639.03
6454.63
-3256.61
-2280.5
-9598.49
40.5839
94.6842
729.175
290.837
-1837
-621.667
3968.3
21626.2
11362.8
8760.26
17437.1
11186.9
14885.7
12913.3
1148.68
-606.641
1720.62
-1346.96
-3343.14
-2103.42
505.398
1917.72
14.477
-2384.8
-8597.54
-6434.26
16351.5
22599.9
55597.5
53385.1
50102.9
33845.2
38584.8
48169.8
23283.4
28666.3
31599.9
13191.6
3841.85
2121.89
12923.1
8602.66
4191.59
18963.6
9090.45
11973.5
7095.28
16931.5
1642.42
1523.4
2482.56
-59.831
-50.7657
4121.89
-420.202
14445
2947.11
9991.49
15498.4
8173.62
5367.45
8055.38
18826.5
26832.7
26941.9
41431
69175.3
51160.7
40163.4
16631.1
21338.6
35318.7
36111.4
22785.5
41248.7
43924.4
31515.2
19322.1
7999.05
4870.63
11273.6
4541.33
7510.5
-7106.71
855.798
-4704.09
-4953.95
-11165.8
-6779.68
-4266
-2497.8
2928.36
8159.48
8349.92
762.016
-8409.51
-1067.69
-3114.07
-359.76
-6271.31
279.97
4822.99
2274.14
335.793
13531.8
22798.2
14599.9
5293.44
2967.43
3766.49
4631.38
2312.18
2639.93
12719.2
30913.4
1720.62
-3911.74
-4219.29
-1551.44
-1999.79
1427.03
1537.19
17029.1
17540.8
18673.3
13315.2
9645.01
10781.4
8670.57
10683.8
886.225
12648.9
16011.7
26796.2
8391.42
-1410.55
-3122.4
-1648.55
-3136.94
-2678.22
1801.37
5775.01
-6291.4
-2626.06
-5133.03
-3577.21
-1660.58
-6114.58
-5649.52
-9618.37
-9427.52
-6542.69
-1824.44
-9435.27
-6802.39
-6833.6
-3499.94
-8167.93
-3084.65
-2926.99
-3280.94
6898.15
669.478
413.84
3351.76
628.265
-541.525
-4351.64
2355.46
2404.32
-7216.21
-5715.82
-39.0409
-1126.25
-1421.46
144.485
1258.31
-2397.85
-4226.55
-9361.75
-14773.1
-9203.02
-8723.06
-5121.31
-3219.34
-7780.83
-8389.81
-5327.31
641.246
2143.13
18061.9
18625.4
4128.45
11369.5
37140.8
5458.09
21084.4
38274.5
51658.1
27932.5
48462.5
47404.2
46433.8
30638.9
20931.4
42935.6
22761.6
7296.45
-9130.05
-6848.38
4657.37
-2667.03
-335.259
-2656.8
-1251.54
-4896.08
-12602.4
-1039.11
-601.822
-6164.48
1334.07
5274.32
9070.45
10100.5
13864.5
6863.42
2961.27
11940.1
9632.38
34954
20873
36315.9
37027.1
49375.3
11348.7
-1272.13
-8497.01
-24166.6
-13801.8
1601.54
-7429.14
-1444.11
4421.9
6788
7263.19
2543.84
4923.03
3701.91
11759.1
4458.19
2747.25
554.408
6026.34
1153.45
-4119.96
-3934.33
-2275.91
1249.93
4408
19869.2
15076.5
22141.6
32181.9
29249.3
35001.2
24602
5668.07
3011.97
8983.77
3378.32
1016.47
-4228.09
-5367.3
-4386.51
-1755.99
-2018.51
-3037.23
-6204.93
1015.89
1355.06
5809.16
14344.8
8299.3
3460.85
14251.1
10249.6
5284.29
7730.87
7075.33
19697.1
9018.91
2356.59
1054.92
5728.79
1766.98
4763.99
-502.543
-812.605
3218.79
2401.21
1082.78
8376
-433.242
-4090.66
-4031.64
16087.6
6953.3
104.006
4406.81
-1953.7
-8646.61
-10718.5
-15886.8
-16059.3
-2208.37
-3621.78
-3193.36
3431.85
1936.88
-6074.76
1466.1
-4661.18
-1553.72
-2503.3
-9800.16
-9554.84
-5913.79
-2758.36
-910.028
-3437.87
-362.941
-9752.62
-12910
-11165.1
-9482.56
-3226.92
-2608.28
2649.39
2951.79
7323.9
-2515.88
-3456.47
-707.378
899.135
-839.103
-1080.45
2176.45
-1927.25
-6148.2
-4874.56
-4716.27
-361.703
126.088
-2850.19
-3076.61
-9509.28
-225.014
445.244
8125.68
17559.7
16253.1
22326.9
19886.3
16432.4
23226.2
17369
13739.5
-5754.45
2652.22
7693.78
40951.4
55690.4
63485.4
38184.2
15494.9
15932.1
32605.9
45927.2
36246.4
24012
23620.9
27365.4
33314
25810.4
46329.2
61013.2
16495.4
15023.7
5615.46
-2785.83
-1046.89
-5486.28
-4918.19
-1696.66
-3829.06
-924.13
2470.58
4455.24
24952.5
18946.3
10541.9
29494.7
79615.7
56019
53822.8
106578
88192.7
70014.7
103049
77325.9
49648.2
27273.2
16502.7
16109.5
9315.16
-3441.38
-5987.51
2792.2
16327.6
12993.9
12075.7
33545.4
25838.4
24038.1
24868.1
44895.8
37989.8
43135.4
61919.4
66529.2
67811.9
58765.6
48133.1
19829.5
7872.74
3785.91
6018.24
2473.02
17028.3
3973.91
5442.28
2133.86
2461.69
-2652.94
-1132.49
3426.8
2896.46
-2197.68
-2625.65
-3512.24
2666.4
385.395
-2076.07
-2651.02
-1201.68
-499.799
-1620.26
2089.81
-250.801
-3659.48
4333.83
10817.7
-915.648
3464.88
2461.36
-1668.05
-373.997
2535
3279.49
7715.14
-5544.57
-120.116
35367
39904.9
37788.8
54422.9
48351.4
44921.9
62835.3
100416
98420.4
88610.9
96728.9
59754.7
31438.2
42232
44670.8
77342.1
57542.9
53741.6
62919.5
37571.2
17570.5
14774.1
7531.87
-2547.53
-2919.41
-343.429
2867.64
4680.85
3987.8
1886.6
-2537.82
-3689.23
-1760.48
-2313.09
958.395
-6725.3
-10189.8
-6481.06
-1892.58
7127.26
11624.5
5515.04
29614.7
28710.9
41278.4
75995.5
87944.5
85255.3
95952.9
82020
67962.3
91015.1
121100
136406
162469
86993
88509.6
84996.6
51645.4
69911.6
63390.9
70876.5
60185.4
64896.4
32335.6
35293.1
19690
21248.8
32386.3
31861.1
59541.9
71198
55768.5
61306.6
50121.1
56238.7
51773.7
50091
44934.9
26847.4
34663.7
27204.3
31212.5
32807.4
43801
51819
58919.8
34244.9
10610
5016.47
9955.02
7354.56
7103.69
-594.644
-3021.5
-3506.96
-16347.2
-6553.19
-1536.87
-1752.41
-3938.48
-6226.94
3576.24
16263.1
14887
8949.98
8660.5
5993.28
-2686.36
5335.02
49774.3
39027.7
23772.3
39694.9
10085.8
18126.2
6414.75
25896.9
20975.3
17804.9
4822.05
3584.3
-4466.2
-6800.29
-8513.48
-6107.66
-10578.3
-3399.42
-5415.48
313.734
1124.39
1439.1
15515.6
18291.7
6281.47
20317.6
25893.1
45304.2
34362
40713.8
40595.8
57115.6
28040.9
30134.7
9951.38
23757.1
24917.2
38454.5
32011.1
24835.9
4274.88
-1982.06
-2655.57
3684.64
15751.7
-941.747
2469.06
1664.68
-5039.84
3603.22
8569.98
10598.3
1423.03
2335.28
-3958.23
2507.45
-3711.31
3080.22
3573.55
-868.836
-7464.83
-5417.38
-7094.05
-3356.8
6333.56
8743.19
12496.6
19233.1
20616.6
-4871.62
8737.32
2627.34
5588.77
4478.87
-4098.35
14768
3547.69
6682.69
577.367
1942.93
658.174
4106.47
-3443.36
4446.74
-1273.94
7976.99
12447.2
28738.8
35388.4
20960.7
-901.446
-762.05
-2066.97
-3154.34
-2901.71
-1587.54
71.8191
2996.17
-10306
-8945.89
-4849.61
-3429.16
6760.12
3012.04
334.59
168.625
1563.59
-660.662
-1421.37
951.69
-4349.67
-5709.48
-5078.6
4736.04
749.691
-1065.65
-6247.89
-7687.2
-3957.4
-14850.2
-18157.4
-7205.28
-572.595
12655.8
14009.9
17432.3
31039.9
21638.6
15148.3
5552.18
7688.63
16119.4
24989.7
4858.27
2940.05
-11269.8
1294.95
-6438.16
-4260.69
-5959.53
-8382.77
-2926.27
-4127.3
-3868.19
-2239.13
1660.49
3570.64
2130.48
8020.14
7503.37
14360.8
5994.02
14178.8
23298.5
16687.7
7262.58
-2068.06
-4694.56
-3447.9
-5892.9
-6733.41
-4072.09
-8687.14
-2445.27
-4632.41
-2798.37
-6019.03
-5468.05
-12479.4
-12298
16962.1
2008.72
15158.7
26796.3
39392.3
20514.1
39998.4
10308.4
13008.5
15480.2
8342.22
14146.7
22327.9
16068.6
25923
10944.3
20789.9
25304
17294.8
23320.3
14024.6
13746.9
-1352.57
4035.47
-508.43
709.45
-739.824
-792.331
4364.76
3487.5
5951.74
15861.2
24893.6
19488.1
2774.06
-4840.19
4199.67
8256.08
19332.3
11562.4
26728.1
14541.7
24886.2
25118.1
35040.8
23763.5
31093.8
13222.5
8466.04
20166.3
28919.2
12553.6
3882.64
7027.23
4706.38
23070.7
12874
11352.4
22435.1
-2888.75
1913.7
-1718.98
-3057.69
6763.76
4099.98
-10001.7
-9017.95
-6126.5
6709.6
140.745
-3072.24
-8315.58
-10924.6
-7981.09
-7465.7
-2687.87
-5825.38
-12713.4
-2926.24
-4684.92
2213.92
-885.138
9092.12
6825.47
4248.7
1192.39
2116.01
7841.22
14527.4
18285
9198.23
-481.374
3855.05
-2703.44
1384.22
-9974.13
520.203
6607.91
4319.59
395.804
-274.734
-3326.09
-3290.18
1773.13
-3092.99
-2112.22
-3673.07
-10388.5
-3209.69
-10537.3
-4536.8
-3334.41
1647.72
3356.29
1818.29
10598
2489.09
-2756.94
-3890.09
-5207.17
-5621.12
-355.182
847.06
-796.504
-4296.37
568.309
-6647.63
-7259.1
-4621.9
-622.955
-5151.55
2270.07
-5453.49
-2767.82
180.714
-13175.5
-8266.62
-5992.4
6264.27
8928.95
8700.74
17169.1
15640.2
4837.47
-4794.55
-8555.54
-7730.5
-2734.48
-6764.2
-4203.14
-3818.91
-327.554
27652.4
12572.1
14679.9
1018.89
1171.26
2087.49
-2963.14
-5458.94
-2482.36
-2080
12596.3
35481.2
38677
26855.3
17447.2
18667.4
5996.93
-3994
-593.691
-3439.22
-497.967
15083.4
16337.1
28160.6
20129.8
15431.8
30990
55060.7
39861.7
25909.6
-543.012
-5958.19
4425.42
-188.53
17721.6
11280.2
14362.4
-1321.76
212.041
-880.695
7664.81
-6266.56
-2862.09
-4233.03
-698.467
1301.34
4933.25
4553.63
18747.3
21756.9
24912.6
24271.1
30918.7
7130.12
-9400.73
-13686.3
-11829.3
-22128.9
-15699.4
-10973
-7289.65
7113.2
-14414.9
-7739.44
-9908.4
-10066.1
-7210.31
-8470.47
-1866.02
-2210.39
-3192.06
-13759.2
-16405.1
-9895.56
1893
3410.47
19487.6
14089.7
928.155
-417.622
305.411
1659.01
691.537
739.258
2575.77
1712.24
2785.8
-1931.94
-2635.75
-9444.96
-5043.79
-2989.74
-74.0402
6079.12
12271.5
201.921
1453.51
-6713.92
-8026.55
-551.82
5421.46
-2358.34
2343.79
3953.12
-502.985
2087.12
-5935.06
9341.43
8967.33
8956.21
12405.9
-2469.84
7096.36
11653.3
-5187.84
-2494.09
-6295.98
5708.41
11960.7
14648.1
623.05
15546.2
6479.05
-4672.44
-1205.9
2373.95
132.745
5499.79
21513.8
21430.6
15690.3
8917.36
-8569.72
-3655.63
3149.79
5315.29
22321.9
27004
16480.6
9402.9
5914.19
24944.8
10900.8
21112.9
10809.1
20843.3
23629.6
30788.9
13359.6
8398.64
-3415.47
-4547.41
-4589.27
3624.38
-3615.85
-7023.36
-1976.34
-1612.72
1770.96
18376.1
5504.77
2293.32
951.293
4998.06
345.063
-2995.06
-3893.69
-5383.47
-4008.82
-7772.41
-440.997
-7510.17
-8477.85
-11638.2
-15954.3
-6554.12
799.673
-725.885
-3144.84
-1005.46
351.878
-18070.6
-9051.63
-12204.2
-9697.95
-4918.6
-6251.3
-9373.21
-4858.68
9235.95
11870.4
6384.6
2722.99
21484.9
24540.6
12890.8
14519.2
12766
26573.2
19182.1
21637.7
18859.1
18007.9
42848.8
24185.9
35805.5
28354.7
6891.37
-2745.43
-8539.54
-11978.1
-5642.89
-5824.23
-2071.86
7927.2
6668.95
9615.52
7765.09
3380.78
-3732.08
-8908.32
-10379.5
84.7863
-267.616
-162.092
-999.135
-2183.02
1702.33
-1328.53
-623.8
3811.25
-1769.12
-824.879
-1719.67
2722.16
-639.084
-3440.9
-8985.49
1113.27
1827.43
-818.127
-6058.24
-4032.13
-16526
-904.28
-4020.7
-2493.4
-1346.46
4205.25
-1710.3
-435.373
-4888.89
794.208
-724.856
5685.69
4022.2
5205.42
477.98
9415.81
16987.5
26574.8
23650.2
8747.5
15630.7
23204.3
20108.9
1048.23
889.014
-1536.37
-4924.09
-1954.17
3279.73
-397.832
-1031.15
-1226.09
-98.195
-961.281
-5133.53
-4894.39
-36.2265
6666.26
4802.66
4275.16
8841.14
6396.14
1950.29
-6209.4
-6863.96
-7669.93
-7888.82
-7619.42
354.528
1682.87
-4196.47
-2595.14
-5534.53
1280.18
-3626.32
1383.39
2048.3
999.189
-2144.97
-2646.31
3979.74
-1637.21
-2943.51
-3797.24
-4115.47
-3528.33
-9596.5
-8428.58
-10019.4
2977.56
5825.56
2348.02
10510.2
6676.99
4559.43
9076.56
17318.8
36577.8
40779.4
25863.3
27666.9
65566
89263.1
85153.9
70533.8
54564.6
68684.8
75648.3
63027.2
61846.2
41817.3
10480.4
461.671
-10375.8
-4119.59
-3765.11
-2766.16
2549.06
-5527.17
-8444.09
-10660.7
-4468.39
-6898.27
-6003.96
-8341.58
-6107.37
-9478.81
-7751.55
1666.3
7499.1
-1251.95
-2883.53
20636
31950.4
29372.2
34374.8
44632.8
34824.7
20360.1
27100.3
22872.7
10731.1
18184
15512.6
35257.9
31128.9
29181.3
20810.4
16678.7
7478.35
8206.07
11684.6
11428.2
1891.22
6129.13
6331.9
-8778.15
-8163.03
-9476.13
-5109.89
7303.5
19235.4
19451.6
27545.6
24416.4
23303.3
18033.3
22126.3
-1020.02
8147.98
5630.94
-2430.1
20624.9
32127.1
17341.1
11073.2
10301.1
4561.84
4432.25
7859.38
9868.83
7810.29
-3160.56
-3086.48
-12901
-10023
-13805.6
-4577.65
-1375.53
-1559.18
-3439.69
-1412.32
-832.823
-1710.81
-345.695
221.694
5796.86
-7735.91
-3935.07
-8302.59
-8258.42
3594.49
3231.93
5913.61
6829.15
-1542.08
7319.28
-5086.02
-1916.97
-1068.38
-4078.59
-4616.11
822.076
-1157.99
-1668.39
-7421.61
-4969.59
-8382.92
-551.826
1217.79
605.642
-3647.65
-8584.21
-2994.31
2505.09
10055.5
2120.2
-4907.74
7726.87
-1948.6
1891.33
2958.33
-1990.92
-2038.93
-1616.2
-850.786
485.24
-3149.75
4839.15
1329.21
3053.5
9941.74
6257.58
6309.03
6456.85
8610.2
892.219
3332.81
3997.69
5653.47
-694.427
271.437
5453.47
18016.1
17373.4
19645.4
1018.47
945.714
2163.36
38532.1
34402.9
55901.4
64028.3
47527.2
22148.4
10772.8
13021.5
13090.4
18413.1
27472.2
32095.1
30126.1
27560.3
33001.5
33507
26662.2
-8466.08
20799.7
4277.65
6317.83
16720.1
23140.8
28901.7
12541.6
20994.5
10411.4
10507.1
9919.81
-3311.9
-3952.3
4891.28
5725.84
1586.8
-2010.44
2832.73
9113.56
3579.44
12426.1
17459.5
4581.06
1272.34
6417.96
3453.2
-745.036
-2353.59
106.6
2470.23
-5532.01
6238.15
13082.5
385.238
-1273.81
849.746
-451.781
1814.34
7461.01
3526.19
-435.666
8988.08
3286.6
12562.8
-342.374
-3789.94
-9990.91
-7129.76
-5898.05
85.7394
3964.49
-3968.47
-6870.22
-4940.83
-9106.94
3655.1
4153.88
-5664.45
-7251.54
-1250.84
7336.4
1439.5
15376.7
6210.06
6775.02
2310.53
5232.58
17838.1
16608.9
13959.7
10759.8
-353.621
4350.67
5383.27
-539.367
-952.99
-5337.22
-3949.64
-188.667
4205.36
77.618
-797.041
9655.54
-982.169
-854.307
2069.06
-4859.52
-3023.87
-12255.8
-5922.81
-1522.86
-4979.93
-4648.56
-2416.1
-3991.94
-3185.47
-3531.42
-8027.72
5854.12
3026.91
17703.7
12347.7
13616.5
2627.46
2149.89
3589.96
-1219.25
7442.7
3093.45
6886.06
3602.72
7030.03
863.204
-1941.63
-2994.46
7406.25
7862.94
-2990.86
-376.479
4062.82
-3640.25
-5170.15
-5345.15
-915.26
-411.014
-4089.03
-2766.41
-1322.6
-3195.18
-679.156
6610.81
-234.057
3873.69
1727.9
5737.52
5989.81
3653.32
6792.22
5959
-2595.33
-9867.95
-22114.1
-10659.6
-4571.68
-3663.86
-2966.63
-9328.07
-6705.05
-6703.49
-506.476
-2271.77
34.6256
-1878.67
4075.27
10785.1
9399.31
10387.9
9959.31
10287.3
-268.024
8.15832
4182.83
1145.02
-4574.14
200.803
2650.83
1047.99
3173.19
10648.6
3667.54
-3333.04
12556.1
22298.3
53635.3
24618.9
22090
26162.8
20304.7
2468.04
1800.68
-2591.86
5014.46
10231.4
2962.34
-1105.89
-2781.7
-6741.91
-1729.07
2470.02
-2794.56
5438.33
3209.46
67.9719
-2172.97
-4045.32
-377.691
-627.258
8836.95
27535.8
10444.8
9114.16
19770.8
37477.5
50015.8
45119
41008.8
14735.3
2431.68
848.313
-5022.31
-3975.49
-5134.95
-1029.04
65.6006
-3801.79
-469.445
-10920.1
-3276.2
-4872.52
3067.86
2974.18
-2104.75
-2397.74
5891.04
5890.75
1650.19
-590.559
-2288.88
-4550.01
-626.551
16427
11828
15510.2
2683.27
2735.55
11544.4
18464.8
5812.54
-11811.3
-525.777
7706.72
13349.1
12738.1
22065.3
10029.2
17447.7
28338.4
15875
26961.3
25868.4
12882.5
7701.39
5715.74
3530.57
2594.61
-4754.82
6861.08
6673.78
6543.45
3622.95
-445.032
-8958.02
-8756.89
-9100.23
-3990.15
-7993.7
-600.953
-8165.93
-9150.76
-9530.18
-5489.73
1345.15
2894
-1358.37
-598.223
7113.19
4886.83
7265.68
2144.78
-1455.63
-5450.25
-3304.64
-1396.02
-4524.73
-1570.3
2349.63
-2075.69
-1243.97
694.475
1015.7
-3218.53
3462.68
-2169.33
-7883.05
-11844.8
-8202.51
-8142.91
-3099.76
1792.81
-3142.59
7299.08
7394.83
1319.87
2186.4
1262.9
685.159
-6059.15
-3032.76
2218.7
610.774
-166.784
7376.12
3742.55
26933.2
21721.3
48280.4
36967.2
27535.7
28651.3
7212.68
39792
47379
59460.3
39728
41546.1
62615
30054.7
33170.6
6991.39
15062.6
23260.7
27522.2
22993.3
27654
34260.3
22304.8
17711.1
22781.9
22279.2
44686.6
37668.4
24462.1
20213.5
15336.8
2341.1
2708.91
-2477.77
-5574.7
2432.73
8587.25
2882.67
-528.547
-3316.63
14264
29778
22352.3
34396.5
14562.7
20185.6
21873.3
27240.5
14881.7
18126.4
11373.7
11405.7
12722.1
3394.38
883.405
-3161.71
1427.64
-682.005
-6704.54
1540.12
2252.88
2140.13
6350.99
873.688
4445.64
210.706
1906.2
4969.18
-2572.84
-2726.92
-1716.18
-3069.92
170.714
2933.19
-1733.62
-631.433
9901.37
-3237.71
1522.59
3722.46
9393.38
10313.4
22209
18365.7
14423.2
14455.8
12017.5
1630.29
-43.0832
-7250.09
-5437.08
-3537.63
2201.66
-6581.97
-8495.41
-17264.6
-4698.27
-9984.03
-6405.4
-5275.03
-3671.47
-486.109
326.181
-405.926
-746.082
1534.9
-7375.4
-8727.5
-1567.6
1669.97
6257.02
5099.22
4798.53
7980.2
4825.27
-3011.58
1349.19
-8432.63
-1709.1
1376.49
5329.64
-2617.45
1757.75
534.22
-5730.29
-6511.64
-492.152
3867.29
-1891.49
-1620.17
-7427.94
-1098.18
-5460.4
-4169.9
-4269.31
-8278.44
-3858.41
-4086.8
4964.48
4439.99
18161.4
15647.3
72.8338
1849.42
-4338.77
-12215.2
-6126.08
-3331.45
-3666.97
-16797.9
-2397.43
422.252
10597.7
9303.61
13851.2
-1906.85
-2880.32
1294.45
-243.475
16840.6
6865.08
9273.81
8236.97
13203.8
18813.8
12762
32231.2
35396.4
19048.8
2221.36
10595.3
18846
8269.99
14280
-2262.65
-13150
-9303.55
1180.61
-2465.5
-8961.43
-17730.2
-10516.8
-3156.17
-8166.31
4561.82
7760.87
21119
4955.98
2711.85
5853.38
7692.26
4838.31
4200.17
-2359.77
-5666.59
-9753.65
-5681.56
-9446.64
-4178.47
-6811.72
-3521.99
-13640.7
-11825.9
-10176.9
-6468.96
-6815.59
-7464.61
-9092.91
-6258.17
471.157
-480.964
-4198.26
-9586.3
-16475
-11727.9
6005.23
4206.79
28379.8
17055.5
29695.1
4031.87
10882
-5060.83
-15259.3
-13386.6
-16513.8
-1294.11
-3419.61
4751.45
10319.6
9904.95
9251.1
1614.12
4460.21
10285.1
-7906.33
-10067
-825.537
5499.2
3420.21
5663.79
766.275
-2964.02
4683.8
8794.12
4241.89
259.599
-2468.98
-2000.79
-6321.97
-7810.39
-11099.5
-5372.33
-8215.23
-9507.3
-1684.5
956.671
2280.96
14612.8
5166.55
-1602.16
105.277
-4481.9
-1232.65
-1057.27
-2137.66
2250.65
4192.99
21713.6
6131.4
1138.24
4263.76
-5258.43
-8801.55
-10512.8
-10872.9
-3483.6
396.124
12442.9
21154
37684.4
3324.88
2273.14
-5683.25
-9187.74
-333.838
-12531.9
-12676.2
-3846.06
1120.61
-1623.33
-136.489
2905.04
4464.06
11643.8
8772.3
5828.37
3149.63
1371.71
5718.6
4863.7
12068.5
-1753.53
340.297
823.352
-3623.5
-4248.78
-4241.97
-1695.61
-3146.31
-2671.66
696.434
-1800.5
-4474.85
-374.456
-5284.79
-5618.4
-5371.06
-1985.48
1650.71
-8552.5
-4124.23
-2938.8
1451.13
-2266.27
-195.759
203.851
-629.889
-30.645
3093.96
8875.74
12136.6
6203.12
17268.4
12372.8
6496.6
1088.24
8440.24
-2670.65
-2105.39
3167.23
12136.8
1491.33
-2482.77
15559.6
30434.4
28859.3
19929.3
21583.5
25754.1
20359.2
9694.16
17972.2
27385.4
30123
46174.4
40454
28115.9
28004.9
17282.5
11453.8
-4380.17
21981.6
10618.9
-7718.14
-2707.92
4251.54
12778.7
26365
24823.1
32511.8
44201.7
52559
38905.2
9569.82
5030.1
6840.3
10901.6
47210.1
16735.6
21480
24381.3
19205.4
16389.1
6779.04
4290.92
-3909.91
-3761.07
-2775.08
-3327.46
-10145.9
-1996.48
3838.92
510.043
-1442.97
-1332.41
-2207.61
-449.314
-1192.83
1881.19
1663.84
-1318.08
9010.63
18106.2
1879.19
4181.09
-1297.57
-2666.06
-2371.5
7495.66
2348.03
10871.6
20016.4
16375.9
9602.51
1490.97
1670.43
5095.48
-1885.36
-2552.3
-5526.32
-9158.99
-143.718
-7269.88
-18.3631
-10097.1
-958.248
-3750.56
-3057.44
455.5
-3560.75
-754.163
-2439.65
-2741.51
-3573.9
-625.299
-4508.98
-1744.41
493.056
-1213.14
-7718.31
-1630.23
5334.67
12165
8795.06
9065.07
-1203.28
12392.5
15020.8
30796.4
22479.7
16691.4
44857.4
50263.8
89271
87476.6
53777.4
46751.8
31739.5
38642.3
35635
52881.3
14887
42221.6
55858.2
62593.6
36736.3
41595.4
39212.2
36113.5
2889.84
10703.6
2989.34
9964.35
6868.81
13951.6
28274.1
26814.4
15950.4
37763.2
17998.2
33450.4
19540.6
47952.7
43429.2
48857.7
31859.5
24544.6
13776.3
10871.1
9697.86
4363.12
-737.243
-2619.48
-8234.7
-8075.11
-7806.87
-7600.02
-9067.19
1993.5
4052.68
-914.875
-3755.66
-2195.97
-3568.98
6573.72
315.524
-1628.47
-1186.02
-4679.66
5818.31
-2748.71
3752.73
231.982
2884.88
742.722
-13765.6
-5406.32
-4141.37
29.961
-7046.99
19640
5507.81
-368.108
-4678.01
-388.542
-2134.53
-2714.51
-11501.4
336.549
-1181.21
1003.98
-8491.94
464.285
1881.22
-3713.15
3785.32
1154.66
-5499.39
-5835.09
-2202.31
-5939.41
-3362.28
1302.06
13730.6
21678.1
11123.3
20430
8352.42
4761.21
7481.28
2464.06
6385.89
496.988
-9955.82
-3968.57
-1260.31
470.599
-4615.26
-5192.59
8652.94
905.993
1612.83
1031.81
727.455
-1262.77
5963.28
13220.5
365.514
2063.18
3231.25
3071.18
7583.5
24043.1
15388.1
22713.8
35169.2
29698.7
20719.2
52947.1
51103.9
52359.6
28418.7
36710.8
26839.4
19614.7
2078.88
11990.7
2522.24
4523.28
-4469.79
-673.256
-691.354
-6938.75
-7070.84
-8794.49
-6896.47
6947.33
-351.059
2781.36
3661.76
50.0981
873.544
-6730.64
-6165.53
-1663.67
-9504.49
-2818.2
3048.57
801.048
-1538.46
7867.43
16413.6
12363
17561.4
13371.4
5859.8
-4287.48
-3954.26
-287.45
-4597.82
5956.67
5017.76
14129.5
-2016.21
3551.17
3235.95
-4271.67
-17642.1
-10649
-634.971
-32.7979
-3751.86
208.846
-4276.96
7622.29
289.197
-857.729
-6107.03
-6316
-2980.41
-637.71
1173.85
11487.6
3897.49
68.5029
739.036
3114.76
6226.43
890.235
-2624.76
-2413.35
-3479.42
-5557.79
-1715.09
-2784.31
-7717.71
-472.975
5400.65
5694.81
2835.33
3628.64
5053.1
-949.152
284.738
1556.02
-2337.75
-244.55
-517.209
1282.86
-3840.78
11424.5
17000.6
16385.1
56859.4
63153.8
36514
23496.9
44910.5
36399.8
34536.7
29149.9
1896.03
1109.31
1612.61
-3514.99
-5370.15
-1509.99
2372.26
6903.54
25679.4
11221.4
11906.9
20600.7
28103.9
20188.7
11050
17605
6144.04
-1907.37
-329.574
-6657.8
-594.532
-1640.41
8709.1
6528.41
13021
6647.82
9011.25
26901
22559.1
25879.4
41352.3
21337.1
31309.6
54926.6
40909.1
43143.1
40864.1
35803.9
29906.6
25706.5
40675.4
30546.7
36731
53281.7
54453.8
39905.7
26709.2
16362.5
29480.5
26185.6
24742.9
37649.1
19711.4
6076.33
7460.54
-2828.33
-1849.68
1155.26
786.177
-138.3
603.16
1825.68
712.26
-1849.55
6010.41
3655.82
205.783
-823.985
-88.0737
588.616
4394.81
5416.06
5418.06
8225.34
4671.83
-4870.64
2086.26
8888.8
14274.7
24546.3
9050.06
4037.95
-2268.06
4956.05
-1395.78
-5967.3
-2523.88
3878.92
7232.35
2401.68
-7192.4
-2881.5
-1875.7
2384.48
-6158.52
550.779
5358.98
11491.2
16037.6
5494.52
8647.12
-1908.31
63.0645
16399
33020.4
42472.8
41301.4
55461.7
56072.9
83195.7
84193.8
50209.9
8037.34
17327.2
1925.68
759.369
6418.06
-5403.4
3846.74
-13103.7
-3307.59
-379.733
990.403
-3173.81
-2456.51
-3313.19
2456.05
3789.03
4363.17
7063.12
4697.82
15339.3
14859.3
4817.37
13997
25482.8
33353.6
31370.9
34304.7
30505.3
35448.3
14186.7
7445.34
-5137.91
-6123.43
8179.67
13244.1
8475.29
4586.26
9108.44
11472.6
6920.76
269.841
12040.7
10112.8
-1428.76
-835.972
-4981.03
-2316.31
-2367.78
-4107.77
-2453.18
-8741.15
-10792.4
-6026.42
1992.91
211.122
8752.85
3117.49
-14322.9
-13769.5
-29628.4
-18190.2
-11831.5
-12975.8
-6009.26
-9172.56
-6711.37
-4026.45
-6025.26
-3639.76
-693.078
-8202.21
-4851.04
-4179.63
7940.18
-811.436
-663.326
959.119
-2639.06
-1506.56
-3444.98
3542.85
25748.4
13849.8
8748.51
19944.9
14999.6
20855.5
23172.5
7742.22
-1935.25
6546.83
13596
14057
-5369.27
7571.5
17825.1
20106.8
8141.47
9240.52
20726.2
14076.7
9062.72
20463.3
17103.7
24183.2
5193.57
21452.8
13816.8
8524.92
11043
13062.9
12919.6
1426.88
-1291.09
-1289.27
1193.49
-2538.3
-1213.87
-1892.21
717.494
3378.9
6405.71
3801.64
8723.06
7129.14
-406.718
-2823.57
-2156.12
-1393.05
-2689.56
4902.54
16384.9
-3854.8
2854.77
-3615.96
-5753.22
-1490.27
-7401.87
-1024.36
1537.62
2798.13
6583.68
9297.98
12203.9
10803
3757.74
-3634.83
-1788.78
437.398
-6822.15
-3032.17
-8000.88
-791.047
-5919.72
-6418.84
-2127.99
-3957.7
-3992.65
-4140.99
-5995.05
-6384.39
-2738.82
-1081.71
-420.674
-2650.46
-2554.97
3132.76
-4457.47
1885.53
-1015.81
-217.975
-2958.66
4284.24
-5381.49
-4649.75
790.361
-749.393
-11589.4
-11336.6
-11477.9
-3882.19
-3986.58
364.337
1135.17
-6273.33
-2537.63
-5320.87
5137
-5721.65
-1015.54
-559.005
-1287.26
-2893.22
-6907.15
4425.88
-4555.62
-4129.46
-7759.29
-4840.83
-9014.49
-9607.48
1534.03
-4039.83
-3384.53
-3959.28
-403.05
3239.69
5481.81
15929
8292.28
13450.2
-3031.32
-3420.11
-1349.03
-1119.53
-5080.08
-195.518
1993.82
-6412.93
-7755.93
-2399.58
-7984.72
-1924.15
251.015
-2811.58
-4595.06
-89.2575
1790.78
-7928.83
-9590.72
-8498.14
-2093.43
-3176.43
-1641.81
-4911.76
-4978.37
4961.31
5343.58
9396.88
5807.62
-20.8409
5583.08
6640.65
5122.32
7316.37
8936.25
-3013.15
-7917.99
-4220.03
-3072.08
5143.49
6710.43
739.252
-2635.65
-3048.64
5802.31
14515
24677.8
9249.36
-385.309
2042.06
8977.62
5948.94
8395.57
11939.6
33530.4
45361.4
40330.1
31532
20493
35232.3
16150.2
28630.6
46040.7
42064.6
33629.2
11968.1
6639.41
-449.442
-3221.56
-48.7946
4093.96
2313.62
-1195.46
-3935.19
-6315.63
-3175.06
54.3111
-3841.93
-6655.45
-1641.38
4616.13
-1712.6
427.729
-3317.68
-3155.03
4777.61
7730.67
4739.06
-250.707
4497.92
6386.82
8475.14
7625.28
17205.1
3206.21
1706.88
10822.3
7282.07
15703.4
20628.4
7679.78
7751.1
8770.93
3733.63
10069.9
10632.1
2340.62
-7437.93
-728.298
2127.09
445.256
3345.02
-1667.13
-4393.49
-6036.95
-13381.8
-9770.01
-4391.14
-6927.01
2064.61
-2416.78
3045.18
-7095.95
-5621.02
-2576.22
3767.09
10801.4
-198.816
-4279.51
-2648.46
-8578.85
-957.886
-5770.86
446.842
-4629.08
-129.818
-3013.1
104.795
-1940.66
-1620.88
-11189.5
7586.13
11038
721.707
3956.12
-2748.59
-1009.34
-4605.61
-4235.54
-2413.38
-263.819
-12259.1
-5975.84
-5212.26
2591.95
-990.247
-1004.3
-769.517
-493.804
3370.2
-3734.01
-3336.34
-10644.1
-2899.69
-3634.66
-2986.93
-5892.46
-3148.64
5544.13
1957.22
9501.68
12675
4922.13
-7042.44
-5293.26
-12637.3
-19628.6
-9310.16
385.648
12005.3
10971.5
2562.93
-2584.37
-525.512
-3627.96
-2527.69
-3672.88
1589.74
-1840.17
-272.955
-4444.18
-4100.27
-11534.3
-8117.32
-9405.11
-7530.74
3932.09
-4095.82
9695.5
7973.29
2755.88
19464.9
22020.5
28308.3
48925.4
47231.9
22937.3
14946.4
10459.7
18605.3
15562
3963.57
4417.51
7989.8
-6523.93
344.372
4989.57
-1295.22
3998.75
8551.33
13668.9
16637.6
4890.93
-542.622
888.567
2327.21
-2027.31
-3586.15
-8788.29
-6079.76
-1072.49
-3241.38
-6271.49
-4129.37
8455.25
13785.6
11827.4
-1037.6
2599.59
1675.22
-1847.34
1339.5
1775.68
-5380.17
-14796.8
-8349.57
-11748.9
-14923.2
365.356
2778.37
1300.99
-7101.35
-3193.92
-3238.59
6320.43
1181.47
28735.6
6206.23
11463.3
12231.7
13755.3
22371.1
30731
20108.8
19989.5
13109.3
-3323.12
-3654.88
-1319.06
-7719.01
-7975.48
-9382.32
-755.468
-5356.38
-3790.13
-14375.7
-16536.8
-3474.2
-4756.9
-606.192
976.709
-2026.24
1411.04
4233.28
-289.986
23193.3
20589.9
-595.239
-1664.18
3500.65
1598.15
2389.84
-3110.86
-3548.32
-10129.7
-5872.25
-5376.44
-627.065
-2837.4
-8058.72
-16290.2
-7366.83
3940.4
4088.26
6224.33
3974.2
3750.16
13412.6
4998.17
13790
20047.5
17253.1
5874.22
-1534.94
-7808.95
-7628.04
-1171.47
5218.84
160.43
-25.8154
10410.2
17267.9
6461.49
5579.12
-766.806
-35.3626
693.519
-1545.82
6527.83
17199.9
8053.97
-61.6899
-811.694
1244.1
3479.63
16247.5
21740.7
1167.72
2377.81
12263.5
33970.6
19782.4
6497.98
1004.2
-5301.65
-6484.77
-18890.2
-12343.3
-10866.7
-702.791
3384.35
10849.3
6389.43
16550.5
861.497
-10700.4
-9138.35
-4278.99
12266.2
-927.978
14651.6
5083.68
3436.97
3006.74
-2786.67
-4204.67
-2093.4
-2802.8
4082.75
-1053.69
1507.61
4041.92
16640.5
7551.56
-1005.14
-3344.34
-14476.5
-10958.3
4793.52
-2690.63
-519.09
52.3937
-5602.8
-6610.09
-3665.91
10983.3
6417.68
1663.87
5982.28
100.402
-2271.56
1624.08
-4795.39
-5261.72
-358.283
2006.5
3589.38
14000.7
11346.8
12226.4
20567.1
17945.7
29930.4
16344.1
12495.3
24636.8
28499.3
29311.7
14611.1
14585.7
15600.9
17315.1
3340.92
4512.52
3429.64
4532.23
1658.33
-625.988
1298.25
-1319.44
1010.32
-7725.79
-6640.3
-4993.85
1873.01
-2020.95
5401.72
16086.4
19818.6
23838.6
11124.5
10451.1
8662.6
18541.5
21375.4
29848.6
49010.9
53546
35664.8
23642.8
10667.1
5641
19260.5
16923.8
19693.1
6696.87
7057.98
6017.61
5087.38
1780.68
26040.2
11817.2
2027.35
7074.74
-675.608
-6101.05
-6018.43
-1624.56
-4987.71
3727.59
1615.01
-1473.23
346.149
4187.83
162.453
-1254.33
4603.7
7484.27
4651.25
6167.12
-4185.46
-2571.16
-15364.4
-9117.5
5815.07
-1466.53
-2868.45
5594.63
6586.16
2953.2
-7912.62
-6608.08
-8206.74
-8428.09
1404.66
16587.1
15789.8
10946.2
8191.54
6213.43
9365.15
-3699.35
-9026.69
-4079.43
-5743.87
7912.68
4843.5
11275
22621.7
42613.1
14215.9
25685.7
24974.6
16081.1
18738.7
18255.5
10047
9004.58
16080.9
9566.74
1760.24
-10432.3
-10067.6
1383.18
946.813
3823.55
-3081.79
-3004.43
-511.39
-6091.28
-2077.89
-5689.7
-1105.87
-3018.91
-915.304
-2383.75
-127.502
-4769.07
-3835.8
-6416.9
-1535.51
644.036
-4544.25
-3231.03
-6080.42
-3440.92
-12401.6
-4342.96
-1604.14
1745.52
-3995.49
1092.76
-6503.21
-3465.74
10564.6
812.289
-9269.17
-6464.57
-5767.9
-6198.44
-2631.9
-943.913
-1485.38
-4218.8
-734.823
4878
2563.8
-4309.29
-4632.48
-5351.83
-2508.24
1860.34
-695.785
-755.096
-2143.39
4057.46
-2698.73
-655.145
555.52
-9558.71
-1010.9
5008.43
9473.07
11416.6
13734.2
2866.53
1020.38
-1159.75
-1068.98
-2528.11
1881.01
-753.56
2902.69
-5660.16
-3004.09
-117.048
5836.32
-2910.74
-3451.56
-16370.8
-2137.34
-3683.46
-2756.74
-1371.32
-6127.78
-5244.64
-5301.86
-10366
9359.23
27560.2
29995.3
43617.8
36641.5
23117.8
20303.4
11532.8
18828.8
6177.02
-64.6157
3045.38
-1146.57
-4255.2
4952.07
22757.1
17256.1
13160.7
12496
10628.8
16985.1
22980.3
26505.5
9630.25
10412
7593.62
4896.81
4609.62
-1236.18
3370.01
992.909
-3043.26
7357.88
17332
7432.96
4346.19
-1076.87
-2370.11
-4622.12
-3240.71
-3740.55
-2685.24
-9399.93
1107.96
2454.65
-1858.95
16390.8
21805.4
13147.5
118.667
-162.317
-3066.1
1237.28
-543.866
236.824
3203.36
-249.678
1053.37
-1443.84
1852.64
-9424.87
-1567.91
-87.8322
3.31034
720.901
-858.266
-9.2619
-5528.05
-4079.62
5160.4
3682.59
5131.77
-220.746
126.353
-4408.08
-6736.99
-11096.6
-8176.34
-2162.34
-1647.66
2766.27
4850.72
-399.185
1195.66
-5122.95
-14069.1
2940.86
-5723.56
-6407.78
-3384.63
-2313.44
-19.5507
-9076.89
-451.2
-4316.59
1157.41
-1680.91
-11023.1
-11246
-2174.88
-4418.59
-4409
-8058.72
-13679.7
-13969
-13447.2
-12296.1
-11570.1
3646.85
19411.1
12460.5
12183.5
6878.27
9094.62
7329.57
27932.5
42635.8
41332.8
9288.26
27742.9
74585
55381.9
18628.5
19408.1
27622
20865.3
-411.852
5648.17
13562.1
7190.07
17887.1
15125.5
-915.723
6784.03
4375.25
18402.1
5255.56
6171.48
-7025.36
9744.23
-3045.88
9594.2
2706.16
-2014.94
-865.617
-47.8146
-2187.47
-5876.82
-2762.59
-4402.33
-11616.6
-13864.9
-15570.4
571.44
-315.176
-4082.06
3666.74
6499.41
15041.3
7255.66
22900.5
39003
11444.8
408.033
-4136.16
3734.52
-10062.6
5437.65
-5103.66
-1125.13
1505.29
4329.94
474.53
4339.94
2605.68
-1060.68
794.732
-1653.18
-2827.76
-14736.6
-10326.3
-3553.39
-6185.81
-157.562
11219.5
10168.2
31428.6
10505.3
17100.5
23371.8
20085.6
38412.7
36066.3
35759.6
20318.1
35982.8
38727.7
55812.5
118006
91285.8
50487.7
54158.8
38304.6
32475.6
17491.1
12702.2
10058.7
5969.38
2422.43
-5584.88
-18589.9
-11750.5
-3403.73
8560.54
3985.73
1533.34
-6041.63
182.59
496.865
-2754
3912.14
2725.42
11785.8
11829.7
8838.08
3051.69
8524.47
22354
11369.4
22786.2
63659.6
85826.7
65811.3
23203.3
28754.1
43425.8
38660.6
18256.3
9243.31
1407.98
-3793.65
136.583
8955.33
28742.8
3079.03
149.808
-592.299
-5822.13
-292.961
5085.15
1548.34
-7210.56
-9614.85
3445
23282.4
37617.7
34769.5
19745.7
40239.9
27802.7
11096.9
3737.96
2140.7
-3180.99
3135.18
4377.61
-2651.7
-1057.05
-1691.47
-7036.94
-9796.78
-6230.6
3902.36
1889.22
6749.42
2189.45
15440.6
2424.82
2046.75
1510.84
1323.58
148.28
-10263.7
-7672.71
-117.843
785.077
-935.869
774.137
3864.05
1020.82
-6713.8
-1036.86
-1676.58
-3825.86
1675.57
-2986.16
-13727.1
-15018.8
-4101.91
-13056
804.193
-4444.15
3301.55
6365.88
-1563.66
1950.78
2841.92
7318.91
6567.45
4816.76
11244.3
9938.15
-2211.18
22812.2
-2894.13
-3283.53
6.33968
-5700.72
-2956.14
-1353.89
-527.776
3178.63
-3587.45
6254.59
-5734.53
-1848.24
-2676.76
1405.19
-5381.92
-1469.8
-14188.7
-9907.78
-5429.38
-4332.96
-6046.5
3079.63
15358
11218.9
14928.8
335.475
-4456.33
-6453.89
-3099.72
-1374.78
-2488.59
1869.38
931.42
4736.7
3574.29
-6710.32
-14141.8
-20633.5
-10751.1
-11437.3
-4463
-10582.1
4010.59
7555.07
5778.66
13192.2
254.55
-17981.4
13849.7
9787.16
13978.7
12214.6
1163.57
2018.89
618.147
316.899
-314.414
-2536.66
5383.59
4363.25
7159.61
9406.66
7196.63
6988.61
28893.2
11739.4
37606.4
32851.8
28949.9
23974.1
12910.6
6107.63
2054.49
-20002.6
-7163.88
3928.71
1156.88
-10519
-5507.7
-2685.38
-7711.04
-1958.19
-4442.19
6620.46
31635.8
12619.4
728.871
4970.77
9059.93
3293.3
1569.06
3591.99
4821.1
11939.4
1679.37
6598.9
12980
21731.3
44513.2
16736.1
22536.6
37071.9
23864.2
9897.14
3454.64
-4017.89
4636.25
11149.9
18604.5
5932.57
4582.96
12607.7
20012
34704.7
26927
50882.1
45157.8
45563
36221.6
20065.3
14530.8
7679.43
3797.85
17502
26377.6
15092.7
6842.72
15322.3
21535.6
11515.3
17732
11907.6
2988.87
3237.61
4819.99
6754.88
-3443.04
4846.76
3784.35
91.0062
-2150.05
6270.69
17660
2846.17
991.897
-1871.38
848.411
-13189.6
-13815.8
-10440.1
-17340.1
-2928.91
-4800.94
-12925
-24522.1
-6869.25
-2718.6
-6909.9
-10594.2
-11229.8
-7543.44
-4797.38
-5629.19
-2498.18
10522.6
-974.559
9728.97
25670.3
18190.1
11071.2
10660
1162.5
11799.1
18999.8
4355.86
2363.6
-3639.54
-5132.29
-10336.2
-1775.72
2588.13
-255.873
-5338.56
-5995.5
-11239.1
-9108.27
-3536.71
-7083.91
-2611.99
-1510.32
-7196.69
-9152.19
-15062.6
-6955.91
5228.25
3953.17
11375.1
3079.66
999.98
21503.3
8100.94
-691.475
866.169
9536.2
19627.9
16779.9
21990.6
23838.9
27024.2
6713.27
4893.31
8655.63
7106.79
-10783.2
-187.221
1381.36
4786.58
6854.38
-1261.09
-3079.66
-1837.7
7783.99
7883.62
626.71
-2361.49
6397.06
-3591.63
127
-2690.51
3108.47
-2772.29
2014.96
-3096.87
-3369.3
-4573.71
-10337
-1451.16
2272.13
-902.233
-411.37
-465.889
334.001
2499.03
3951.38
2348.11
4896.37
4742.19
2375.22
3091.65
3214.38
2082.71
-1573.96
-1432.2
1086.88
5557.92
1098.82
19396.6
4309.84
2040.52
14496.6
20414.2
18835
21255.6
22618
20647.7
26103.5
6663.78
10544.7
9819.88
3022.8
-1344.47
4627.74
669.457
6282.08
-2034.44
5461.43
8461.13
-3334.22
-3388.45
-125.411
4502.6
6942.51
8401.55
4991.01
14574.1
24716.9
35962.5
51313.4
26979.6
20598.6
11315.3
13012.5
-4547.25
-464.255
2271.92
-1438.11
-9505.09
-1846.6
1104.31
1634.92
1001.83
-9.65419
2950.1
320.914
27908
5376.04
6767.14
-3114.44
-1677.24
-3008.21
-10526.3
-6644
-1806.57
14738.8
24103.5
23729.2
10251.2
835.599
-6517.84
-5229.59
-19607.1
-8085.18
-944.058
-1254.63
-5213.99
1993.9
703.089
-1678.28
-3040.37
406.518
6785.31
19078.4
9844.77
9643.25
23265.9
32662.1
36166.7
25113.4
8398.07
30760.8
18301.3
27894.8
21364.7
29750.1
4904.54
452.756
3891.37
204.601
-1745.13
747.1
-249.375
2935.97
5186.81
2993.1
-6092.47
2615.3
2636.49
-3150.84
-2103.08
1120.95
-2552.66
-525.324
-3752.65
1462.21
7952.45
-2218.79
-4144.51
-987.782
-2112.84
1501.36
-3206.65
-522.243
-326.122
-2093.22
-5383.17
712.558
7868.32
6530.6
-4893.61
688.558
-636.156
-5723.58
-8406.97
-463.547
-11547.2
-18188.6
-2529.23
-390.057
2846.41
-2015.2
582.354
-7445.21
-13349.6
-6671.4
2245.27
10789.9
6553.19
1853.49
673.752
5296.22
1468.34
1312.78
-1464.3
1839.1
168.287
3747.81
-5664.5
-1891.97
-1760.62
2268.22
-651.284
957.551
1092.39
-302.254
-1377.42
-3923.07
-6970.9
-2053.93
-1025.77
145.207
8363.33
24231.8
10278.1
24775.2
18266.5
8182.04
2152.2
5513.57
6323.06
32231.2
43332.1
23737.1
36423.8
34610.6
26874.4
6850.75
1826.64
-576.322
16017.3
5087.08
23238.1
42427.5
62309.3
80226.9
57495.9
80184
82811.7
57374.2
37708.8
33116.1
35796.8
45328.9
62650.1
75571.4
63870.1
75418.2
71933.7
85862.8
83536.6
69271.4
78718.9
88201
45435.4
47185.7
14989.6
206.201
-7449.09
-7680.08
-3347.69
-970.742
-638.148
-5980.01
-8243.51
-2513.17
1495.7
-1678.9
1953.07
-2699.21
10042.5
-2338.8
4144.4
21351.2
6755.73
14205.6
30738
20623.4
9084
13175.2
230.502
2756.55
-6106.56
-428.073
4260.68
-1033.09
587.109
6253.92
6758.67
-5383.08
-3881.06
-8535.43
-2750.73
215.715
36.6542
-6721.43
-3704.24
4753
-3821.35
-1176.18
-6785.78
6799.79
1372.6
1150.12
-1201.96
5002.62
-326.07
-5685
-1052.82
-2206.08
563.284
990.99
992.417
-326.379
-3655.77
3517.55
-8531.43
-5798.33
-1742.61
-2364.41
661.345
-4977.23
-6583.77
-5592.62
-3580.79
-1418.9
2641.64
6421.09
-5973.12
-14032.6
-3959.87
-3957.86
-1927.42
-204.32
-1138.69
937.591
-1427.28
988.218
2699.65
2734.37
-1269.61
-120.46
1061.29
1236.16
-2138.29
-2888.19
797.225
3248.66
-2040.96
7086.25
28282.5
25890.1
4893.54
1832.7
9585.52
-1435.05
-1236.88
-3542.49
5094.68
-907.286
5673.9
6909.09
-5450.11
6018.01
10676.1
-870.672
-5272.51
-4250.13
1378.31
-2571.33
-832.276
480.782
-5985.7
-1558.02
-555.753
3325.32
22957.3
19335.4
6254.42
16728.4
7371.1
-3190.21
2596.65
11115.4
-287.119
3945.95
-524.549
-3076.46
-1136.29
233.456
2381.74
