363.736
-683.878
103.756
115.044
-269.986
-653.509
-105.485
1016.16
790.623
1392.07
2176.64
284.893
-839.264
-732.966
-599.826
-600.361
629.868
-2142.12
-1943.86
-2937.96
-3668.7
-3265.06
-2302.84
-3821.05
-5811.32
-3627.61
-4106.79
-4554.23
-3261.84
-3542.78
-2853.87
-2701.77
-2092.29
-2700.13
-4175.49
-3095.71
-1831.67
-2704.45
-1950.25
-993.532
-1840.73
-1162.31
-1818.59
-1836.62
-1011.99
-744.474
-425.166
-1288.34
-905.642
-1671.73
-3378.54
-3299.06
-4670.32
-5555.21
-4782.54
-5947.18
-4603.5
-3804.4
-4636.81
-3527.48
-2445.29
-2674.24
-793.206
-1054.47
-1674.51
-1872.82
-424.682
-812.016
-1622.77
-1128.81
-1263.09
-1533.72
-2880.22
-3092.32
-1763.68
-1428.46
-1320.95
-617.894
-342.823
-517.125
-278.73
1744.63
950.908
1197.38
211.99
-2008.98
-2150.1
-2027.47
-2520.69
-2380.15
-2380.62
-3203.43
-5294.49
-6571.05
-5840.93
-6709.07
-5164.52
-4900.71
-4521.43
-3801.09
-3633.91
-1432.99
-228.166
1382.14
496.447
756.289
-1776.3
-870.942
-3956.11
-3331.12
-1752.88
-4508.7
-2863.44
-3970.54
-4671
-7236.26
-6221.07
-4844.39
-8009.08
-5994.71
-6727.6
-8471.01
-6138.35
-7302.85
-6506.06
-6548.88
-4338.77
-3818.29
-3044.86
-3562.21
-3066.6
-2776.1
-3689.69
-6802.21
-3440.32
-3589.67
-4681.4
-5497.37
-6135.19
-4272.06
-4772.38
-4252.31
-6222.22
-5555.66
-4098.71
-2102.7
2996.38
-2542.54
92.4755
1599.26
4005.57
1842.52
3639.58
2332.71
4218.26
2764.68
-30.9227
2171.32
2037.87
3364.07
936.426
3043.67
3117.76
2837.89
2782.94
4498.04
4420.82
6601.38
5696.66
2383.43
5314.89
5056.57
2890.29
3167.12
1363.66
1884.89
716.347
2464.38
3323.94
2939.35
4518.88
5484.54
4892.12
8159.36
11526.1
12110.4
14034.8
16160.8
18010.5
17238
15746.8
13254.6
11868.4
12235.8
17507
16652.7
15037.9
10479.6
9415.92
12125.1
12777.6
16042.9
21577.8
23865.6
22874.7
24534.6
26015.9
25718.4
22609.9
23582.1
18713.4
18144
16209.7
17035.3
15400.8
15915.2
14726
14238.9
12702.1
9052.44
10570.6
9133.58
7088.35
7641.22
10425.9
13494.3
10335.8
12128.4
8885.98
14474
12185.7
14911.2
13978.9
14393.8
11911.5
12694.3
12255.2
12983.7
12865.6
16615.6
24928
26815.1
24931.9
30402.1
31801.3
26666.2
23749.3
19909
23290.9
27908.4
25396.3
21631.6
19803.7
17176.6
13856.8
15723.6
14875.6
18681.9
25938.2
30082
28873.4
29744.7
27715.3
27294.4
26818.8
21343.3
20804.8
18144.1
19487.1
18830.7
19403.2
17777.3
15453.6
16531
14181.4
11841.4
15292
14959.3
18606.5
16738.9
15871.5
14320.9
15268.8
15722.8
16867.8
15695.2
12876.8
13013.5
19915.4
17292.3
19550.4
15915.9
17072.5
18732.8
17526.5
23711.1
22188
21429.2
23105.9
23945.9
22561.5
25547.3
18744
21766.7
20284.3
25653.9
32088.4
25470.1
21353.5
24355.1
22244.3
24063.9
22837.7
18138.4
18149.8
17373.4
19314.6
18894.5
21089.1
16729.5
14852.1
13189.5
8552.39
11327.2
15075.4
17625.3
18036.7
18589.2
13533.2
9066.93
12575.8
11854.2
13744.3
15592.1
16075.2
14253.3
14566.3
16558.8
17938.7
14496.1
15869.7
18537.8
17585.8
20696.1
21182.6
22224.9
20139.1
18085.4
19676.2
25982.3
26096.6
26181.9
21745.8
20857
23034.8
16620.2
20434.9
18805.5
22580.5
21047.7
23571
22985
22439.2
19451.5
14019.8
15915
15516.5
23479.7
30642.5
31356.3
26334
23496.1
21651.1
24292.1
24749.6
21651.9
23121.1
21128.3
18159.4
19469.7
21534.5
18717.3
21176.2
25096.3
29027.7
25385.9
19889.6
16859.8
15162.2
16472.8
22241.7
18633.1
19091.3
20929.6
23096.4
25439.8
23013.3
19917.2
20344.9
22626.7
21062
17146.2
16482.7
17552.1
20659.6
24587.6
25000.1
17668.1
20632.3
16835.7
12848.1
12123.9
10981.3
7415.38
8706.8
5817.7
6811.08
7467.89
6238.29
4351.61
10617.8
7093.57
4769.22
4251.16
5846.49
6566.83
10955.2
12922.3
16287.2
11113.8
9463.96
10000.7
3534.18
8358.72
7469.39
12477.7
21218.2
11077.3
12311.1
15902.3
21600.1
23237.6
23977.2
20728.3
20396.2
18988.9
16470.6
19007.5
14464.1
13422.1
12365.9
12010.1
15609.1
15177.5
16017.8
16278.2
17474.8
6740.28
10412.6
11448.2
12369.2
16426.3
20127.8
19874.9
17878.2
20139.8
22870.1
25749.2
21629.8
24322.4
25416.5
22244.4
28592.2
23295
22299.3
20843.2
30554
24840.8
20267.2
15787.8
15879.2
14109
14613.9
16432.8
14707.8
19494.4
21326.5
20751.3
24350.3
25411.4
22750.7
19646.1
24518.3
25545.4
23388.2
27385.7
21202.6
20297
19917.6
19316.2
19288.5
24818.1
24905.6
27274.8
34008.1
36364.2
31794.8
36129.5
42802
51281
52329.4
63424.2
69476.7
77246.5
71052.5
76776
81219.4
74570.6
77059.4
77980.9
79213.2
85411.4
97426.9
102048
93065.6
84409.4
83544.9
85053.4
76398.3
77540
83680.5
82811
76612.5
77427.7
74830.3
83767.5
88394.5
93607
97770.9
94585.5
92528.7
88260.7
86008.1
86333.2
80304.8
76638.8
75634.6
67182.5
72160.4
58063.1
56876.7
64743.9
67292.3
72861.2
77760.5
81889.6
65882
70793.5
74448.1
70542
59088.8
56999.3
56397.5
50775.2
45782.4
48217.8
46624.6
53013.8
49829.6
54596.6
58023.2
53077.4
54185.1
49825.2
47282
47390.5
58534.6
58075.8
57756.7
53335.4
45074
43845.7
47051
43867.8
45309.3
49867.2
56859.9
59910
45229.8
38388.1
34610.4
37955.9
32364.5
43051.1
45030.4
42064.4
42833.1
46404.9
44042.3
41425.2
42240.9
40573.3
42405.7
45066.4
51296.1
53019.5
51769.8
59472.2
73314.5
59163.4
66182.9
61055.7
63317.7
62889.9
66939.3
55857.8
53247.8
61193.3
56235
55089.6
54594.6
54269.1
58090.2
49975
58745
52805.4
48367.7
50642.7
55542.4
58085.5
55142.4
54218.9
57056.7
60563.9
72733.3
73271.3
69302.1
70799.8
60682
61305.5
67346.8
69750.4
72034.6
77484.8
79247.3
88852.5
95094.4
89871.5
100156
100180
102235
102936
108130
103080
109350
106904
103124
105508
95709.2
82389.1
75067.2
74550.5
70325.4
73230.2
81155.9
73199.6
67495.8
75607
79114
74703.9
79250.3
72689.3
64099.5
64177.7
71611.9
68762.9
77235.6
65537.6
67621.2
65486.2
63076.4
68106.3
66041.7
70492.4
63424.8
54174.9
57722.4
58330.5
57572
56769.2
51513.9
52673.4
51278
51524.6
50955.1
49682.5
48501.7
49555.5
49564.5
51567.5
43505.2
42276.3
31765.7
34270.4
43424.1
42668.3
48487.1
50480.6
49913.8
53876.6
52562.7
58452.1
54962.8
64847.1
66480.2
69756.2
68601.3
70593
54895
59188.8
66998.4
67737.1
58643.2
51741.1
52585.8
44969.1
48515.5
48941.9
56406.6
51288.9
55640.5
60555.6
58137
56644.7
58598.4
57479.7
64908.2
65862.1
66808.5
72410.7
61899.1
65408.8
59812.8
62649.2
63820
73322.6
74231.3
77736.5
71651.4
66164.7
66435.7
67149.3
65541.2
65761.7
63298.5
53027
47003.2
44475.9
42107.4
40024.7
33449.8
35306.6
28488.2
24790.2
24390.9
25333.4
27314.5
23626.5
25187.9
23283.3
28946
30336.8
29695.7
27205.6
29965.8
34868.1
24575.3
28187.9
25084.2
27212.7
26442.6
35970.2
39461.2
41740.6
42486.3
44754.8
47002.9
47151.5
60352.7
68277.4
65917.5
65019.3
69815
57703.8
64863.1
66757.5
76996
88581.8
86933.5
97404.1
90520.7
93487
104869
109655
113457
104101
121411
112723
123744
123466
122163
121391
101771
115491
128591
130334
133970
132253
130233
141233
153571
151515
155620
156973
151094
137172
127967
131199
138960
139338
130889
114470
125633
121546
124388
120288
116285
124180
118387
113995
106430
103414
99097.6
99045
105134
104180
113973
128894
123506
131435
127719
127217
123410
117924
119271
122598
117571
109469
110739
116161
104777
97453.4
103897
92698.7
93079.8
84694.3
76819.8
77387.7
73997.4
65681.2
65975.8
60436
56570.1
54378.3
57953.9
58140.1
59432
65114.4
75438.8
72223.5
76401.7
71571.4
79957.6
78997.5
79161.7
84919.1
76529.6
80935.1
81072
83416.4
91114.9
81405.7
73221.7
76367.5
79781.4
86342
78980.4
82347.8
75432.2
76311.8
72942.1
80035.3
88680.2
89628
88398.4
86147.1
77290
86855.4
82494.7
77068.4
85745.9
86279.3
79408.3
74500
71099.8
74488.8
64158.1
68280.3
69463.9
57520.6
53742
58630.7
50622.6
51019.3
53970.9
61137.6
62644.8
58054.4
49726.9
38900.6
39463.2
40032.9
49963.5
37549.5
32185.3
28712.6
25237.5
18823.3
20705.3
20983.5
22307.2
20922
21738.7
18940.3
16794.5
21026.3
18986.6
25605.7
22081.4
22095
22422.4
21343.4
17118.8
15838.7
14612.6
11052.7
14237.1
13516.4
13308.6
11541.9
13304.8
12029.1
15300.2
18096.6
14265.4
13351.3
15291.3
12006.6
11342.8
15448.3
18377.8
18986
16323.8
17950
23952.9
20379.7
20028.3
22376.8
23730.5
24524.1
36180.7
27907
25081
21119.6
17633.1
19539.2
20994.8
18273.9
17347.8
13639.5
13096
18935.6
26808.6
27866.6
26553.2
21406.2
23742.5
28573.5
32935.1
33609.2
36265.1
35590.4
33545.5
36073.4
32158.5
27398.5
22391.3
24493.7
25275.2
24403.6
19836.5
19742
19580.1
17560.7
17910.6
15976.5
10544.2
9805.69
10815.5
9747.74
5993.62
3328.3
2859.76
3032.76
3616.87
3543.81
1357.66
1600.86
3150.99
2680.35
2741.4
4536.93
4592.86
4776.99
1489.02
2339.78
32.2169
-1691.98
-2829.71
-4152.93
-2646.9
-2720.67
-2245.66
-1888.57
-2012.8
-2160.02
-2750.49
-3377.59
-2771.51
-2359.67
-1288.11
-359.44
-971.155
1203.45
1273.18
2193.04
2346.72
8246.41
9444.15
8298.59
7028.62
9336.21
12413.9
9237.48
7953.63
7826.98
7437.8
5565.09
7134.79
10500.7
5987.03
2726.1
-429.976
347.018
-1389.14
-3690.97
-3930.87
-2670.84
-1871.83
-1417.04
-833.845
-575.265
760.189
1163.73
843.166
-616.346
454.125
-119.504
-1194.35
875.602
2564.11
4529.67
9032.3
6920.84
9219.18
5771.68
7807.73
8589.85
7918.88
4924.32
7537.46
8440.08
10472.4
8971.54
7331.04
10282.2
7518.23
7957.13
10978.8
8545.84
8952.61
8521.58
11263.7
13499.8
9376.96
12969
11622
18641.3
18194.1
14031.5
8100.7
6527.41
10906
12227.2
15871.9
12268.5
9345.92
4734.08
5660.66
1640.73
6447.25
6353.3
10925.6
11357.4
11880.2
9629.33
7115.97
10725
12060.1
16943.9
18883.6
14137.9
14423.3
20837.5
26621.5
30514.1
26873
33675.1
36271.3
29766
29305.2
28358
29258
29071.1
30971.1
31980.8
28214.2
30812.8
32712.8
30377.8
24973.2
25388.5
20229.5
19779.7
17974.7
16891.5
14181.1
17186.1
20542.2
18375.4
16408.7
19572.1
19240.7
16974.3
19536.9
18582.4
18119.2
20233.5
20475.8
21357.6
17086.9
15084.9
16857.5
17448.2
15158.7
17086.3
14294.3
15541.3
13378.6
15844.7
14845.7
15092.5
13907
9852.83
5668.04
5050.08
4030.63
3881.22
4247.86
4564.09
1961.63
1897.9
534.787
759.699
-1231.93
-991.871
-292.284
1671.55
1272.03
999.371
-1438.58
-861.488
-1265.4
-2649.61
-452.066
-424.425
-1902.1
-922.568
-2619.82
-3175.53
-2381.49
-2539.2
-1117.51
-1457.13
-2648.91
-1892.79
-3143.22
-3401.97
-2426.96
-4434.68
-4693.42
-3963.4
-6147.04
-5900.17
-7366.08
-3539.09
-4544.45
-3174.52
-2318.95
-3293.09
-1617.51
-1203.82
-1881.09
642.064
2431.31
1091.66
2346.63
780.824
-2217.8
-1808.61
-1881.59
-2016.25
-1740.47
-1226.57
-928.89
-98.9862
-2262.9
-1514.5
-2211.31
-5204.64
-2157.96
-697.319
-931.815
-1379.46
1038.75
1633.92
4314.12
1579.06
2878.46
3127.13
-213.135
1261.63
1583.29
-1245.93
809.589
234.971
2820.7
4286.74
6142.01
4103.09
-1157.64
-215.875
-3285.46
-202.614
-116.468
-961.427
-488.15
-53.9688
269.573
4352.85
973.156
1179.5
438.23
3150.38
318.496
2679.28
1928.62
-1978.51
-4077.79
-1794.95
1531.68
4840.51
1261.32
-36.0371
-4133.27
-4862.32
-3198.87
-442.636
-864.437
942.588
-2006.2
-348.277
6744.37
4417.19
2897.43
2269.93
2464.25
1710.92
4487.36
6379.49
6817.82
6029.23
6483.12
10140.2
5313.95
5061.73
5871.64
7692.2
3510.34
300.216
5389.88
4767.76
6961
5987.1
5129.54
4683.12
5195.34
4502.66
6727.42
5565.57
4766.22
4567.13
1173.76
2654.96
705.256
-1099.27
-1357.27
-2556.62
-1402.92
-2020.77
-2158.62
-1943.48
-3433.16
-6177.03
-5061.55
-6266.22
-9533.08
-9470.11
-6583.45
-7797.41
-5016.43
-6857.33
-6550.33
-6546.55
-5997.88
-3958.86
-3808.83
-2262.4
-1604.79
-2450.3
-2062.34
-4018.81
-6199.03
-5127.03
-3363.41
-3443.4
-6042.34
-5478.68
-5339.72
-3854.62
-3980.6
-3660.98
-3715.8
-3930.02
-3379.03
-2931.14
-1899.47
50.6424
1825.53
884.461
3452.37
3180.38
1951.48
2988.73
1222.53
152.903
359.302
2646.93
982.239
-369.396
554.167
694.869
488.175
-418.902
-1815.72
-1001.84
-1622.02
-1399.04
9.29124
-88.501
-499.389
-1334.93
-952.974
-737.925
-1256.28
-966.74
-907.726
-3222.63
-2605.74
-3242.23
-2235.97
-3274.9
-1481.11
-2542.92
-2764.54
-1647.39
-1370.98
-747.617
-589.113
-329.484
-1965.49
184.399
-1422.2
-3662.67
-3573.07
-4405.49
-2797.96
-2882.17
-4225.03
-3304.59
-4472.31
-4591.92
-5134.85
-8532.84
-8329.99
-7543.53
-4276.69
-5797.82
-4530.06
-3819.63
-1325.36
32.6931
2403.16
4564.91
5295.53
4402.71
4935.49
4828.94
3637.52
2667.15
5375.36
6798.31
8543.63
7857.12
7221.24
4260.2
2681.01
1901.83
7268.1
5287.07
3331.56
3452.44
3098.4
4877.34
7281.84
6765.08
8027.12
5957.72
-919.999
267.827
1901.15
441.967
5414.76
3286.03
3634.36
4548.49
2813.28
2507.09
8039.88
7620.43
7897.28
6154.9
9334.51
9247.95
11131.3
14910
14331.9
13379.6
15293.5
16635
16774.9
14235.2
13566.1
7748.89
11780.2
12961.1
16876.9
22100.3
24478.1
21811.3
22894.2
29314.1
35944.5
35309.8
33084.9
34992.3
38530.7
38422
42254.3
40929.8
41090.6
45382.6
44083.1
45843.5
48413
41828.9
37652.2
37125
34663
35105.9
40564.9
42846.4
43988.5
44976.7
44783.7
46086.9
39997.7
40822.7
38403.7
48277.2
56114.6
60810.8
66404
64932.5
64251.8
57877.1
71768.3
75153.3
70388.5
65103
71443.6
74477.8
63838.7
72834
68764.7
67246
76025
76385.6
81298.3
91195.9
90093
96668
94810.1
80704.1
73034.4
73767.8
69797.4
69357.5
76063.2
73014.9
67850.9
64293.8
59616.6
54972.4
58517.6
63874.3
58958.2
61992.2
61936
60217.5
66417.4
69116
68452.2
62283.9
72396.5
80571.4
82407.1
77647.3
83539
87440.3
81638.9
88721.7
89547
93637.5
94670.1
83045.1
80220.3
76964.4
76589
81150.5
87666.8
81459.3
80260.8
77229.1
63703.3
63950.4
52442.3
50985.8
52083.3
51838
43421.1
47497.6
47783.5
45614.5
47810.8
47558.6
45200.1
43796.4
44385.1
48205.2
53749
55882.8
49311
57869.4
60726.3
58916.7
56181.5
51239.6
48506.6
45608.5
45571.9
48609.9
42908.5
38972.7
37816.7
31006.3
33410.1
35333.2
32617.1
29875.8
29327
21148.7
15102.1
15469.8
14533.7
8490.79
9549.93
8568.7
10835.6
9539.98
8930.31
9066.04
11389.1
11919.9
9439.1
12101.1
8602.34
4533.42
4515.71
2233.43
1540.94
364.341
28.3779
-347.685
892.284
2515.87
-1028.31
-1852.59
-1581.87
-446.565
-14.382
155.515
1821.45
825.959
-473.484
66.718
-578.476
-870.246
-3218.85
-1805.6
513.883
2737.39
1783.42
1447.41
382.678
-1209.77
-167.605
-1824.43
-2585.29
-2956.05
-2761.63
-2556.83
2321.83
6742.56
7798.49
7052.28
6023.36
7213.58
16828.7
11621.8
13056
11420.3
7462.46
9465.42
11561.8
13743.1
13924.4
10235.8
9581.38
8120.03
9069.53
10159.5
10875.6
12376.3
9829.79
6416.54
6645.17
4807.18
6323.92
6253.05
6075.89
4743.32
4230.77
3505.52
2122.81
367.311
2801.89
-750.465
-2431.19
-1615.16
-1346.51
-1313.01
-2056.98
-1904.12
-981.475
-172.777
737.056
1787.65
2657.01
1318.65
-898.755
-2116.37
-1014.52
-2759.15
-3286.71
-5115.29
-3414.61
-2135.64
-1260.3
-1536.24
-1078.33
-929.695
-380.226
-428.741
-1580.35
-1801.09
-436.602
-581.147
-1070.53
-2825.91
-2787.91
-3078.55
-1639.55
-1414.95
-1444.5
331.554
-806.361
1041.5
167.497
-847.022
-2388.61
-3194.14
-2991.98
-3623.52
-3949.71
-4116.29
-2348.37
-1978.05
713.318
-50.5488
180.166
2288.89
709.8
-78.5869
1161.84
1508.67
834.785
288.716
3450.33
4148.6
4341.19
8111.32
11583.9
12516.3
17622.8
20676.6
20908
21166.8
22273.1
15205.3
17204.5
17028.5
21039.4
17517
11804.4
11604.6
10598.7
12342.8
16434.4
17647.2
12334.6
9127.64
10670.8
9642.97
9028.89
9135.92
9255.43
10444.8
12182.9
13564.1
15649.1
14919.8
15810.8
17950.1
13475.8
16028.5
16823.3
16784.3
20279.5
20272.7
20753.9
26459.4
29897.8
27880
30048.6
30932.3
27385.7
21086.7
20551.4
19231.3
21500.2
14669.7
17380.1
14949.4
16598.6
13651.8
13425.5
12371
14519.4
13307.6
11533.8
9421.71
8840.36
9127.8
9114.21
9590.65
12243.9
15386.4
18613.9
21392.2
22550.9
17759
21554.8
23395.4
23732.9
20024.4
24197.3
26927.2
19683.4
17762.5
17997.5
22292.4
20390.6
19699.1
14230.5
13968.9
11746.9
17329.1
12045.9
10459.4
14048.3
15251.9
12737.6
13674.5
16441.5
15383.3
16216.8
13164.8
9595.29
11218.5
12747.4
18840.2
18518.5
14342.4
10363.8
9565.14
10437.2
12420.1
13623.3
16171.4
12764
19487.4
22432.1
21249.2
24338.6
22259.3
27479.9
23429.2
15485.4
17696.2
20136.7
19873.2
18348.7
25600.7
30163.6
32188.3
30740.4
25532.2
22296.2
19116.1
20993.6
19722.6
22069.6
24772.4
28895.4
30252.2
33694.7
35669.9
42662.1
41743.2
51716.8
47075.6
48800.5
51616.2
50615.1
45483.2
46759.4
47722.1
54709.8
44505.8
48290.6
44792.9
42270.7
40352
48258
47721.9
45115.5
40498.4
43956.2
49996.4
38636.1
34761.5
37964.2
39151.3
29852.4
29791.3
25244.3
21200.1
22168.8
16945.4
19955.5
18781.1
17382.7
19322.5
19017.5
18322.6
18028
17352.8
14980.3
21290.6
20958.4
22488.1
23058.6
16888.2
17448.2
18716.4
12728.1
11326.7
15406
22552.4
22452.4
24414.9
24257.7
26587.4
35399.3
34148.4
31396.9
43080.5
41578.9
46413.3
44454.5
48072.2
48523.1
46054.3
43836
44012.1
40574
37487.6
37279.6
37548.8
45809.4
43186.3
46089.2
45239.1
42699.8
40696.3
33122.2
33499.6
32274.5
28000.9
31810.1
28367.4
28331.8
32982.3
35837.2
34934.8
33048.1
36773.2
34120.9
27325.3
27991.8
31900.7
28016.1
21124.1
17752.6
18175.9
17438.4
13484
8827.69
8262.7
13118
12058.6
13006.7
13301.8
9756.74
9561.3
11815
9605.1
6759.3
7341.1
9013.64
8976.75
11810.9
15459.7
19893.7
14378.1
12318.2
13917.9
13647.6
18402.3
15460.4
17599.1
17348.1
14284.2
14778.4
16310.8
13210.6
19010.6
19731.7
24704.3
23158.3
23247.4
24174.2
29373.6
31199.6
32248.7
34253.8
39000.4
36920.2
34415.1
33836.5
29904.9
28602.3
32931.2
37778.9
29841
25563.4
22235.2
20683
21288.2
20571.9
19234.5
12189.4
11413.3
9854.7
9750.33
10337.8
12226.4
11601.9
9806.92
11640.1
10975.5
18813.7
23869.4
25795.3
28839.2
29395.2
26646.4
32017.2
29318.5
28521.5
36257.9
33686.9
29305.8
33284.3
28456.6
23320.5
23641.2
19393.2
20771.5
18509.7
19220.4
25198.7
23617.2
24381.7
25720.6
24703.3
28726.1
26375.7
24977.2
30507.4
36513.5
40445.1
38015.1
37563.5
40085.3
35471.2
29566.6
28963.5
26268.4
34218.6
28394.3
25694.7
28939.6
28212
33615.2
48431.8
42429.9
40112.2
38742
36513.9
37530.4
37364.9
38232.6
38346.9
33741.9
33367.8
34297.4
29447
32891.4
28304.8
27211.5
30524.5
31234.5
33847.5
35971.8
40797
43982.2
37661.2
45829.8
49131.9
49269.6
52258.6
48291.6
48010.3
46698.1
49509.8
50493.4
55361.9
49942.9
51282.1
48962.6
52941.4
52553.9
41270.6
44362.3
39352.2
35344
53101.8
50594.9
57879.1
54244.6
58013
58305.8
55783
54121.1
65769
64366
60151.5
57943.2
61634.8
54899.7
50412
47957.2
46037.7
56401.2
50678.4
59733.8
61975
67457.8
70467.3
77802.3
82743.7
93654.3
94704.6
95964.7
105000
113602
122862
127976
129457
117648
124543
124985
119361
123671
120348
116353
116418
118189
118474
112477
117517
120844
116930
118419
109109
102503
106428
96897.9
103842
115352
106869
105996
97928.4
90405.6
92915.5
82987
84712.9
80563.1
81386.6
69643.7
63576
60742.2
69219.9
70689.3
69464.5
68335.9
74260.7
65089.7
62400.3
71365.6
66568
66980
66770.6
66149.6
65754.7
65236.6
67976.4
64486.4
63657
65662.3
66786.4
62995.7
71649
82071.4
83771.8
89847
83792.5
91816.7
101761
94492
93750.4
94590
105017
110567
108382
115956
121617
111851
114105
106576
110148
106530
99089.1
84951.1
89095.9
90283.4
99966.2
100163
101113
101130
94684.8
94172
92957
97225
93421.1
97865.9
94917.2
94128.7
88090.8
79847.3
87501.3
86849
77789.3
72200.5
64939.9
70828.6
65579.5
65183.3
69190
77251.4
78845.4
84203.4
88447
87321.6
81182.1
80234.1
74002.7
66001
72387.7
76078.4
65882.7
66271.9
66887.7
60871.8
64742
55618.5
50387
46281.8
49987.7
42350.5
43748.4
43058.6
51749.6
52258.1
61809.7
56214
52537
57945.2
57956.6
55676.4
62625.9
53054.4
52103.7
50724.4
48047
49623.9
50561.8
48410.4
43752.2
43047.5
37231.1
42159.7
44835.9
49500.4
50447.1
43804.5
45462.1
41802
41532.1
43095.1
49442.8
47359.1
47099.9
45010
51156.4
54114.1
50216.4
47813.5
54727
56114.3
57574.3
57277.6
59871.3
65521.6
70781.7
64349.2
68396.8
63515
70915.3
66689
68905.2
59444.6
48026.9
46152.6
54173.2
56706.8
54531.6
55699.1
61617.3
67116.9
66034.7
69029.1
65430.3
75984.6
78437.5
80273.6
69964.8
69897.1
64386.2
59102.5
52932.5
51249.4
52083.4
52498.7
63866.1
60504.1
55357.5
51164.8
49089.5
52032.9
51149.9
49420.4
49521
49541.6
45547.5
48170.7
51545.2
47540.5
48249.5
46664.8
41269.6
46085
41715.3
43444.9
46223.7
40885.6
39166.2
30313.6
35338.9
44758.3
44726.8
52263.9
60464.8
66552.6
65036
69282.3
79068.4
82194.7
74072.7
75076.7
81165.9
87755.5
95464.7
82950.4
69032.4
69634.6
61473.2
65974.4
64233.5
60551.2
56754.5
60885.9
57697
61345.8
73333.7
75028.6
60568.9
49969.8
37023.4
40190.9
40151.4
38126.3
45097.5
45134.1
37936.1
32564.4
33349.8
29758
24964
33460.7
32587.4
25395.6
25050.1
28691.3
26183.2
27063.8
28847.8
29560.4
26236.9
26962.3
28890.6
31189.2
30737.9
32310.5
33104.7
34580.5
30601.8
35500.7
42462.1
34767.6
29588.4
26062.9
23445.1
22950.9
29043.6
28362.3
19735
19705.6
18071.7
17366.3
21305.8
20935.1
24732.1
25649.9
25527.5
30068.2
32410.6
40974.2
44881.5
42490.4
42608.6
51497.8
54688.8
50974.1
47756.7
48469.1
51692
59023.2
58932.1
60537.8
63442.3
69697.6
54316.5
56296.2
42927.8
35306.3
39736.6
44701.6
45873
48764.2
49079.7
47945.4
47653.2
42674
44563.3
50519.7
51684.5
54022.1
52433.4
51124.6
41894.6
36640.5
48592.2
51084.7
50154.1
50680.7
51098.5
48075.1
55595
49392.6
45932.3
37547.2
42498.8
40662
30812.2
31115.6
30767.8
31472.2
27034.3
32372.8
37703.3
40457
47756.8
42516.3
42242.4
45936.5
41179.2
47894.5
41174
37610
31197.3
33279.3
27890.8
26061.5
27052.2
26849.9
26632.4
20914.2
18156.3
18877.3
14803.1
16934.7
17653.3
18920
22905.2
25140.3
21679.2
23584.2
23983.7
24937.7
29330.9
29541.1
24966.4
26027.3
30653.9
34180.5
31354
33555.5
30000.6
36577.5
40408
29471.8
37162.4
39934.5
43497.6
38406.4
29328.6
25857.3
24994.4
30203.3
28924.2
27328.8
28790.2
23291.9
20945
27685.8
26574
27018.2
24983.5
26489.8
25685.5
17019.3
18629.2
19155.7
23284.3
20917.9
21798.2
19240.9
14090.9
13222.1
13908.7
11637.1
9131.37
8126.47
11840.7
12788.1
19763.2
14181.2
10262.1
11298
14221.7
22045.9
19162.6
18789.1
18323.1
18274
18495.2
19321.7
19604.4
23506.7
18880.9
13130.7
13373.2
18221.1
24523.8
30599.4
36544.4
28732
33643.4
41118.1
41598.6
34773.3
32955.8
36298.2
34020.8
32388.7
33390.1
31060.3
33826.4
33595.6
35482.3
31585.7
34604.2
29398.4
32565.5
34425.4
39847.9
41238.4
43603.2
40525.5
39119
34403.4
36353.7
34074.7
31123.5
27278.2
16426.4
18072.1
18497.6
19033.6
21095.4
20507.9
15325.2
15064.5
11422.3
8777.07
12161
11962
9282.06
16583.9
15808.2
14480.3
12207.8
17430.3
20061.8
16851.2
12039.2
11610.5
11340.7
12231.9
8863.04
11575.8
9489.71
7735.52
5656.11
6055.26
8828.93
7608.61
5446.44
2516.89
5394.5
8777.96
6159.94
6586.3
6699.06
6940.7
7458.94
6986.48
8942.04
6024.02
7190.82
3953.35
4579.17
4509.81
6552.26
7500.92
10185
7307.85
11060.5
10115.5
7094.24
8404.42
10306.3
14074.3
13913.3
12976.8
11321.3
13296.5
11231.5
12809
9370.12
10069.7
9399.26
9864.05
12811.7
12671.1
10939.5
8637.34
9758.62
9713.11
10115.8
6025.46
5621.82
6363.56
5153.48
5888.13
3385.39
506.176
307.359
-273.484
535.088
941.867
1068.96
-669.365
2975.63
4239.16
-1241.83
-500.876
1775.17
3090.45
4013.56
8075.67
8220.66
8890.93
8009.37
7031.55
10426.2
11617.6
8723.33
9947.65
13699.5
12917.5
13048.9
11931.3
11403.4
7668.51
9021.64
9656.48
10820.4
8423.91
12534.2
9161.15
6601.49
7227.6
4909.85
8671.49
6218.74
11284.7
17001.7
19162.4
22820.5
20812.4
23752.4
30170.7
32700.9
23681.2
23456.3
16020.3
17363.4
13887.6
12692.5
17265.5
22120.1
22621.8
23106.3
24697
32206.4
22802.6
27190.6
36513.5
37987.8
32582.8
28686.1
25408.2
20147.8
21902.9
21525
19881.2
15574.6
8952.56
3983.24
5359.36
5400.52
1706.13
984.19
114.546
2637.37
-495.933
-665.008
-1869.13
-2756.47
-2050.98
-1922.44
-1925.6
0.396484
-1540.03
-2270.07
-663.314
118.462
-1358.84
-1159.93
-874.02
-2691.85
-2580.46
-1194.93
-1408.01
-100.594
1522.33
91.5887
-1933.06
-3003.23
-1389.33
-1682.4
-2517.8
294.508
-1804.82
-2079.94
-1874.56
-1339.04
-435.974
-86.532
-6.28815
-1561.46
-1033.92
-2257.21
-611.531
462.455
563.043
766.697
-159.461
-1527.02
-1209.73
-319.069
94.7649
-1001.88
752.489
3387.58
2748.34
-1046.06
-1080.8
-2535.51
-2117.86
-1140.09
-1084.8
-1357.34
-2093.17
-484.895
-2795.1
-2170.03
-2120.63
-944.602
925.728
2253.23
1651.14
1572.13
768.334
295.979
259.713
844.42
1203.49
1700.98
791.439
1008.28
663.197
-920.792
26.0966
1260.44
2477.89
893.098
407.981
-624.107
-1469.34
-2117.03
-2351.15
-1641.13
-1942.15
-1277.25
-1801.28
-907.626
-1384.57
-1439.92
-1603.25
-1386.2
-1175.21
-1322.16
167.917
668.253
1269.48
-246.607
-1390.34
-772.233
-1192.37
-1955.67
2892.23
2410.01
1889.41
1270.76
1483.45
3160.98
2773.44
2323.19
-958.602
-4317.66
-4576.83
-4723.19
-4918.76
-4881.02
-3398.63
-1385.08
2425.24
5736.14
6175.76
5966.01
5071.58
7222.12
7845.24
5095.42
7329.5
10461.8
10702.6
13227
14838.7
15774.9
22338.8
21717.9
18525.4
17202.1
13241.8
15294.8
12264.9
18424
17187.9
20014.2
25574.7
25747.1
23864.7
32328.7
30098.6
27367.8
29147.4
24263.8
23225
25346.3
21920.7
23665.9
23947.3
29631
27399.5
24759.2
15966
13227.5
16761.4
11318.1
15067.7
16249.4
14929.8
18604.4
23032.2
24187.5
25559.8
25650.8
30699.9
26404.3
25631.7
29645.6
27770.5
28276.6
24999.7
27259.4
27981.4
34181.2
28703.9
26954.6
27548.4
36133.4
35737.9
35013.2
29933
25761.9
29259
30496.4
27952.5
24341.1
17861.2
18258.3
15664.3
15382.9
17346.7
19819
19734.4
19451.4
24876.4
25485.7
26328.7
23884.2
24566.7
26739.1
23644
25648
24706.7
21960.4
18590.1
20748.5
17430.1
16703.5
12619.6
9835.46
13435.2
12945.2
16305.9
18557.8
18586.1
12781.7
12703
13568.2
12494.7
16482
15279.8
20126
22043.2
26028.6
24644.2
27199.2
22746.8
22186.9
18540.7
16401.6
17188.7
14303.2
15060.7
15865.8
11145.9
6420.46
6304.06
9597.02
10624.5
12827.7
12951.7
14770.6
15169.4
16845.2
19156.9
14173.2
12550.5
15977.6
17598.8
13339
13415.4
13488.9
12186.3
15891.3
14829.3
15381.9
20272.1
26165.3
24555.2
23977.9
26362
20720.7
20496.6
21165.5
20981.6
21392.7
15159.8
7859.01
8317.36
4739.57
3401.84
5143.68
6480.34
6069.76
3851.94
6111.49
6928.17
9015.37
3895.43
749.519
81.3322
-2788.21
-4917.43
-4067.94
-5285.84
-6415.27
-9324.35
-9617.78
-14015.5
-13698.5
-11377.6
-10274.2
-6247.49
-4888.31
-6056.07
-5736.36
-2898.4
-275.855
128.113
-1388.06
-1530.52
-1723.64
-1388.12
-1943.22
1164.88
4114.73
1920.07
3124.83
3460.25
1675.05
2066.99
1034.03
1086.08
543.716
1776.12
1544.89
1024.29
1197.53
1495.01
956.305
-478.853
-449.792
-544.639
829.202
97.0606
-926.851
-23.9862
-1035.75
-123.998
48.982
-359.238
-536.433
240.185
-626.537
-389.663
-1274.36
-1129.77
-1539.72
-1041.4
-54.2209
-257.596
526.556
-154.337
-392.478
-467.815
237.287
793.172
260.324
1917.33
880.869
209.754
-115.06
-608.198
-2818.47
-2333.84
-5662.93
-2328.41
-2254.84
-2662.77
-3433.37
-6317.42
-5033.52
-3248.75
-3124.29
-2866.73
-363.698
3185.62
3522.84
4084.16
4406.64
3850.75
1404.31
1814.93
4141.36
8870.14
11076.6
12891.2
8418.62
10132.2
9082.12
9754.69
7299.01
5673.1
2785.27
4181.84
4258.52
3485.91
-208.431
1166.16
3258.98
8166.38
3815.47
6132.86
2999.67
5602.33
4021.1
5841.34
8427.1
9243.67
12112.6
14585.1
22287.5
17331.5
14944.8
8030.51
12095.4
9459.93
11308.4
12450.2
10520.8
7966.63
6789
4581.95
5163.29
9696.75
9461.3
9545.77
14574.1
12710.1
17401.2
15675.4
13756.4
11162.9
9043.66
9860.49
9123.85
9110.76
8036.95
8047.24
11210.8
6765.99
6132.41
4765.3
4453.58
6503.25
4873.76
3246.9
2495.42
1522.18
-488.262
761.031
-277.909
-284.06
-615.744
-221.302
665.396
-446.808
-2539.55
-1826.03
-3390.46
-4446.04
-2974.87
-3218.4
-2388.63
-822.532
-2910.02
-2474.7
-3717.48
-3539.8
-4830.18
-3951.18
-3748.46
-2346.75
-1566.52
-1037.65
-2205.65
-2667.96
-2973.13
-3882.98
-3034.8
-1848.87
-488.232
-1781.35
-1692.37
-1370.05
5.01209
-193.983
-988.944
-1200.9
-517.416
-1491.59
-851.405
-1187.7
-1083.74
-2999.48
-2349.41
-630.581
396.112
-371.15
-883.79
-1372.51
-2168.82
-1019.06
-803.213
-2490.76
-1512.52
-926.455
251.117
-793.746
-1144.97
-3517.82
-4594.04
-3012.61
-3178.47
-3147.27
-5208.97
-7157.16
-9337.66
-7757.54
-5070.48
-5925.35
-2777.21
-1894.7
-2840.22
-777.271
-10.2258
243
4815.9
7132.68
9965.72
11453.7
9580.54
7370.27
6068.87
10471.1
12110.3
13245.4
10463.3
9350.41
9357.54
8940.32
11823.8
11679.1
12472.5
10312.2
6812.16
13154.2
11289.7
10627.4
9779.19
9061.24
13015
13879.7
10996.7
10780.1
5703.27
3738.34
2323.22
2358.42
-182.115
-1207.98
-1864.02
-3992.35
-3923.03
-1314.69
1128.25
-1533.48
-1562.95
-735.497
-2484.87
-1993.77
1470.28
1555.3
1941.02
4567.26
2406.5
4101.01
9080.31
10737.2
12114
11700
15120.6
12777.5
9275.11
12380.3
12694.4
14163.6
14697.2
15922.4
12282.3
18076.2
18970.2
24087
21602.9
29964.7
38874.9
37270.7
32310
32966
31807.9
31925
31350.6
34676.9
34966.3
41481.2
44796.6
52018.7
54888.4
52405.6
48253.5
40720.2
33423
34708.2
39733.5
41663.8
41813.8
43379
49534
57142
57502.4
50394.8
49948.6
52939.6
48424
45887.2
47967.7
46268.8
42337.6
33853.1
29908.2
26509.8
18994.6
20201.1
22976
25992.6
31800.4
22256.6
26030.9
21715.4
21481
23128.9
27222.9
31684.2
32603.2
40135.4
34875.9
31751.6
32345.4
33102.2
30021.4
23086.7
25435
27979.5
28836.4
24447
21200.8
21176.4
24531.5
21438.9
29367.4
23128.7
27793.5
23882.4
29130.4
30754.2
32480.6
37938.5
42420.4
35914.9
37145.3
43222.6
33210.2
28365
28353.3
27376.3
25221.8
25363.4
30050.9
29126
28456.4
26675.7
22949.7
22500.6
25512.9
26173.4
25371.7
24997.9
17682
18449.4
16689.7
16944.9
16374.7
18006.3
20751.9
21275.6
18436.5
17091.7
15592.9
17977.9
22244.5
23717.1
25876.5
31808
26661.6
26058.4
19926.2
21829.1
18837.6
10630.8
9712.69
12047.7
13674.9
12806.6
13446.1
10513.8
14278.1
10124.9
12418.4
19635.6
26364.4
25209.8
28734.9
27861.1
27852.3
30415
29398.7
30290.7
24800.4
26800.5
25500.1
24722
19959.9
20431.5
25170.3
21503.2
17287.7
19187.5
14869.6
15186.7
13893.1
19672
26546.6
22803.7
25151.4
28560.5
30238.5
33082
33687.5
25321.6
30041.7
32459.7
31664.5
27836.8
25129.7
27358.3
20613.1
25218
20105.5
19999.5
17355.9
16721.8
17212.4
19850.6
16346.4
17070.1
12536
16861.9
17380.7
16316.5
17378
19962.7
22589.6
22346.1
18324.6
16857.9
18734
20219.3
19012.1
21382.4
14742.5
9678.47
5709.15
5700.18
10407.8
16879.7
20323.9
18789.7
16943.3
14700.4
14583.9
13311.6
15119.5
15243.7
13562.1
17460.8
14835.4
13406.7
10183.9
8192.37
8877.71
10951.3
14280
14564.7
15352.3
9444.05
10273.7
8899.13
8832.38
6750.48
4991
4744.26
9041.56
8960.32
6130.3
7538.33
6434.71
8520.53
7732.26
9464.24
8966.86
9281.11
10531.3
11294.2
11011.5
9157.63
13697.6
13279.4
13236.7
17030.4
16066.3
16168.6
21414.3
19987.5
18902.2
18643.5
18567.3
20229
16807.6
16799.5
16901
14388.2
13385
16646.9
13823.8
14734.5
14636.8
15371.8
14445.9
16430.9
16300.6
13273.8
12235.1
17989.8
17132.9
16320.4
15051
19551
19094.9
17975.1
14280.4
15834.9
13396.1
18174.5
13791.2
12295.2
17111
13680.7
13869.3
19081.8
19283.3
23235
26936.3
27376.4
22309.8
21436.7
21339.1
18456.6
15864.4
13744.5
13335.5
13402
14450.8
20290.2
18150.8
18355.5
12146.8
14390.7
12903.5
9272.4
6300.61
6094.93
154.852
266.884
-1144.51
-10.3985
2751.99
2252.26
3683.97
2286.35
4204.38
4184.37
2654.64
1743.93
1158.25
-901.632
464.489
623.491
-498.319
-1848.59
3836.14
632.125
3111.9
2379.9
6198.73
5116.87
2905.34
2301
259.856
237.38
2990.41
2811.78
923.714
970.278
519.33
1483.57
1680.82
2316.29
3665.25
3930.29
5451.9
5526.74
4391.81
3503.23
3096.12
4788.37
9163.94
7321.99
3166.82
6665.96
3061.02
3064.93
3522.1
1256.77
1936.81
-354.859
1147.91
1796.79
-554.973
-336.469
2331.33
2073.06
-531.192
-1129.46
-1816.13
-2413.93
-3069.72
-3760.75
-3121.09
-2767.37
-4204.53
-5347.02
-6012.87
-6458.39
-4947.26
-5066.16
-5195.07
-2396.37
-675.47
874.398
-2604.77
-4265.8
-3019.39
-4513.86
-4469.76
-4309.66
-2847.73
-3015.37
-1841.92
258.066
62.1965
519.758
-1350.3
-1696.66
-935.548
602.404
-1358.02
-1873.85
-1207.2
-1371.49
436.533
-1191.39
-1571.72
106.994
391.926
3093.84
3168.21
5068.11
3495.51
5961.81
2575.96
1374.03
2880.22
4762.38
2525.57
5728.85
6491.73
5949.5
6012.75
7629.66
4455.64
2020.85
1729.24
2382.72
1718.07
2215.56
3116.81
718.569
2893.79
921.42
-4089.36
-2915.22
-5968.81
-7673.48
-8820.45
-4488.92
-5862.98
-4349.12
-6871.37
-6302.18
-6526.58
-8233.94
-8506.74
-7272.18
-5673.78
-2538.6
-896.334
-3295.69
-3606.23
-5096.11
-5110.37
-5228.1
-8170.28
-11195.7
-11074.2
-9939.56
-11498.8
-6936.75
-5853.45
-5125.92
-6709.38
-3183.43
-6662.52
-7108.61
-6170.14
-8401.72
-7609.11
-3954.69
-7913.61
-4603.15
-7071.58
-7022.26
-12298.9
-12983.3
-13064.2
-15840.1
-10796.4
-15025.9
-14834.9
-16672
-16507.6
-13386.8
-14047.9
-14992.2
-13946
-15801.8
-7637.78
-6396.57
-6502.96
-1824.87
-1542.18
119.599
-1474.99
1303.39
1316.17
-3072.85
-1369.54
-3316.03
-1594.21
-18.739
2734.82
2222.5
3818.85
4762.67
4736.61
5698.96
5688.95
4972.17
8503.89
8433.86
9546.22
10583.1
10283.5
12478.1
17508.2
10636
11381.7
14174.5
16137.6
10889
10605.4
9988.07
10920.8
13337.5
14765.7
11554.8
12092.1
9715.19
10526
9989.37
10037.4
7245.64
11350.7
11155.9
13627.5
9997.09
9209.77
6951.17
9022.31
12526.8
10763.5
14812.3
14846.1
19953.3
14623.1
22511.6
27156.5
26051.1
25975.1
29156.4
39940.6
34435
41623
42413.1
43377.3
42099
39581.8
41856.8
34587.6
34730.7
30694.5
27962.1
26002.2
24309.1
21668.6
24710
24892.8
21295.9
21800.4
22284.3
21102.7
21983.6
20936.1
16611.6
17152.6
15728.7
12445.1
12111.6
10730.2
7408.42
11135.1
9033.73
8222.87
6128.8
6931.75
8664.48
6154.42
7477.57
8263.8
8666.03
6082.27
9197.94
5775.65
4563.54
10048.8
10433.6
8671.09
7651.86
12033.5
10778.6
15707.6
19139.5
13702.4
15396.5
18609.8
23025.9
23721.2
21730
17761.3
14228.7
10402.4
14250.2
13915.7
18233.6
14575.3
19378.5
16787.7
22412.7
27194
23093.4
20527.6
21626.1
19410.4
22360.3
20517.8
27850.5
28117
27472.4
25266.5
23889.1
24506.2
26230.1
27600.3
33079.8
35491.1
37983.5
40917.9
38386.8
38649.9
33226.5
29987.5
37862.7
37900.8
34335.5
36417.6
42833.5
41453
40872
35035.2
35199.4
43946.5
42789
32068.1
38632.2
36727.5
35697.3
34330.4
33900.8
28891.4
35605.1
44011.4
40904.5
42008.8
38919.6
43187
43866.9
39346.9
40415.4
38731.1
35308
46381.5
51390.2
58845
56144
47796.1
49327.2
57845.9
57646.8
59384.4
71474.9
72117.9
71317.3
81871.6
80531
84069
83020.8
87290.7
85321.5
79663.9
80218.7
91466.2
84634.1
92152.6
75824.2
75565.5
78446.2
79198.3
72689.8
60133.8
59505.4
54742.9
56347.3
58032.3
57576.2
57705.6
51209.3
46213.1
54258.3
69115.2
66060.6
65763.1
59183.7
53528.6
55367
44290
38331.1
45670.5
49972.8
55841
61313.9
57858
61144
57405.6
59457.8
54237.4
56528.7
45124
41477.5
36994.4
35738.5
28583.2
33171.5
32541.6
33090.5
22528.3
21918.3
23969.5
23281.8
31683.5
40218.9
45500.9
44490.7
44735
50414.7
49904.4
53493.9
58239.3
59594.8
55608.7
63347
65869.3
58822.2
62606.4
61609.5
72744.9
85957.7
94344.5
105769
111562
109170
108966
104798
106620
98807.1
99462.8
110130
116281
133281
128362
123567
122025
121138
118187
115056
103788
100040
103235
101752
106710
102504
93244
94458.6
92232.6
91361.1
91132.2
85884.5
92091.8
92259.4
92442.1
88023.9
95955.6
103487
108060
102690
88430.9
93991
94632.4
102639
91112.2
91025.5
81559.5
79475.2
86698.5
81390.9
82170.1
79094.2
80065.7
83120.5
83066.8
88049.2
83401.8
78261.7
77274.2
80167.8
85346.2
81032.7
96283.3
97544.9
106761
98468.9
95745.8
94099.3
94593.7
81023.8
80841.9
71290
73813.2
67592.1
64907.1
70531.8
65744.9
71831.6
70219
68463.8
75360.5
72747.4
75372
73690.8
85940.6
89117.9
109524
123814
115459
111422
117111
107803
115092
125059
131223
133555
133742
124754
127705
117451
106042
108948
115696
113997
125404
135434
133132
139800
136468
141486
141054
140621
137320
142829
133887
131697
132160
135503
123929
141214
136106
128937
142845
144736
150655
155993
159352
155684
171100
171342
179410
188238
192171
193356
182125
189317
199988
197886
190056
199002
209866
211985
214403
214832
219764
213180
215445
202975
220752
213910
218779
229883
233197
230623
222906
224918
212179
194520
202758
206860
213590
222186
216915
221922
227241
242209
246704
239213
252380
269769
266438
270461
285207
272905
274989
283597
280889
279189
274427
281184
289637
297309
279936
262906
275680
255467
258752
262148
252180
240932
239283
228795
250464
258680
262247
251217
252492
241255
225346
215476
217257
218975
215745
213181
221771
206327
196619
200455
187019
174187
168960
172809
182188
169303
148563
156431
144326
147524
129061
138259
130586
112873
110369
119976
121853
117876
115758
115091
114644
108796
106008
105838
114983
118136
106849
110010
108956
120134
114536
107987
112888
110735
113082
118397
114884
104690
107415
102318
91891.4
88156.9
85543.9
78182.4
74680.2
73113
75525.4
80241
74649.8
70318.8
65500.6
64206.2
71975.6
77608.2
77760
80253.1
84811.9
84449.2
85757.8
85931.4
84609.4
86143.9
88506.2
87540
87464.3
89771.8
89282.8
86621.2
94180.1
100340
92549.2
81250.5
79106.2
74480
77051.1
81331.2
76937.3
76108.3
79404.2
72995.4
69186.2
68989.3
66010.6
70856.6
71121.6
65000
66418
60840.4
72283.5
63888.5
61253.3
67190.5
76022.2
80853.3
92636.6
85811
92477.5
91632
86323.9
88322.7
87850.4
104434
99568.6
91958.5
101459
107060
108697
107443
111238
111590
104836
106443
99641.2
109609
104872
104889
103765
106451
106233
104064
91445.6
83631
95682.3
100646
98907.2
98877.8
95690.1
86601.4
70418.3
69316.5
70559.4
69715.7
69383.2
63854.6
67594
59192
61915.6
67205.6
70466.4
53613.6
57006
61081.8
61263.9
66573.4
72427.4
69671.8
72333.8
73700
75812.6
78594.7
83173.2
73475.6
78462
83283
76759.3
75887.5
85049.2
79378.9
89887.9
90071.1
88520.5
96925.3
88316.5
108394
104973
94691.3
89426.1
114116
103206
107541
110534
115176
121835
122694
128058
109090
103537
89226.4
85584.8
82868.8
73108
69088.9
73866
78697.3
78098.2
83660
82712.6
81724.7
84845.1
102385
113153
113337
107712
105674
99977.9
110463
112969
116190
114337
112594
108503
110090
114035
99024.6
92344.2
89644.8
88782.3
98596
96675.4
106574
103260
109826
113375
119640
124676
122882
122938
117669
113406
128090
116733
115414
122434
120955
124855
125941
130718
149505
143921
127394
135433
144878
146827
150069
148732
144870
143706
140783
138370
136724
132988
139931
130121
129270
129559
130549
133179
129524
131428
121046
112901
105636
101044
129082
130592
139841
138341
139490
123176
124194
116372
115722
124474
122755
122777
112262
110292
119463
124945
127909
115414
109571
100406
101286
97812.8
108382
97465.1
109256
117014
122496
129612
128438
125986
134251
129912
140213
119270
118378
110137
110034
101778
106210
108867
109412
112464
116202
128133
132440
136472
133432
138766
135402
120619
113224
109243
109880
118494
122299
124653
118078
139226
132846
122937
125035
117337
114559
114661
119650
110496
106328
101867
104910
96607.4
93106.8
100347
97395.4
97903.8
100034
100901
97553.4
105243
102673
102323
104633
101201
104786
105184
97436.1
91028.6
87806.5
93867.4
99803.7
106412
102040
108762
109168
112982
111163
91657.5
91900.4
95228.6
90389.2
85331.5
82363
88533.8
79856.9
80728.7
71789.1
68338.5
71132.4
74701.4
87268.5
93588
98537.2
105365
92805.9
86504.1
91834.1
86989.1
80265.4
81583.5
73558.2
73039.1
71108.3
73342.6
67579.6
66503.8
83081.8
82001.3
92003.7
104475
106017
95651.6
94212.9
106672
104051
110858
115030
108255
112571
113077
106115
100890
93307.5
100186
93313.3
92525.2
106590
112288
100597
108184
131925
139634
149723
148514
160902
155153
155458
152844
150626
154856
148053
153748
160649
165429
160233
158490
148889
142657
128794
125707
128493
118650
122574
136256
130033
131228
128217
131373
131869
133838
127972
128274
138858
120369
114013
121311
120435
120031
112974
121730
102348
103323
104917
109407
117111
131303
128529
129105
140076
134015
139406
138022
137744
143775
135815
136609
133551
122688
130944
133770
136683
126186
122302
122536
132364
120624
121813
120332
107514
97675.4
106017
92611.4
80848.3
94454.6
90015.3
91081.6
93312.3
95722.2
94736.3
105384
110667
97850.9
97582.6
97210.9
106656
118596
109038
103234
104737
107376
107739
108978
103428
100349
97692.5
99527.8
94120.4
103835
107947
117071
119601
119472
109157
121880
116108
126022
117651
126075
127502
137946
139450
133979
121210
111784
110356
110568
100158
98538.6
97639.7
111129
110457
101745
98608.3
98046.5
100888
91936.3
97686.2
105358
107267
103262
107041
107291
113229
114626
109632
115867
116472
113901
118275
126207
122574
129801
133643
135768
133493
125752
120662
119048
115218
112443
123547
125733
117247
142900
147322
147893
154025
150840
148524
142731
141502
138679
134176
125875
115482
116780
101275
115693
114315
113174
101162
101219
113363
115525
106693
116695
122655
128922
141628
143843
151865
152820
158789
146074
147390
134268
135510
135640
130621
134359
136433
138639
133836
131601
119254
113559
111641
114970
107693
