-47.8526
-20.6589
976.233
2143.47
1529.2
3815.87
2252.69
3985.69
4891.84
7487.43
7627.56
7252.4
7477.41
5829.92
4958.94
6421.05
7041.72
6854
6325.13
7058.59
6941.11
5974.87
7665.79
7415.09
9979.79
7918.19
7145.04
6648.63
6033.69
4422.75
3866.93
5072.7
3319.79
4977.41
5310.81
3026.8
3396.95
3388.58
2479.91
2202.09
2743.99
2824.78
3956.94
5420.3
4597.94
4514.06
4313.03
5427.83
6188.62
6044.12
6446.3
5727.46
6657.48
8231.4
7873.34
10078.6
6462.37
5303.64
5540.48
4615.24
5383.12
6413.45
2480.03
2699.87
2544.91
3829
1886.65
4083.71
5159.18
5749.67
4328.42
4957.57
5902.69
8807.93
5758.25
5737.49
4542.13
5014.3
7438.19
9710.08
13826.3
14643.5
14194.1
14052.3
12272.2
11209
12308.9
11636.8
12050.2
13136.4
15420.6
15587
16058.4
19201.1
14832.8
14594.3
10572.7
12260.1
13507.9
15131.2
12400.1
13452.7
15100.5
10442.4
12104.5
9300.24
8226.18
9555.9
14209.7
13998.6
13646.2
16857.8
12431.9
11995.7
10767.2
12680.9
11816.6
9987.57
10676.9
10489.2
11920
11836.6
10420.9
13824.3
12762.7
15602.9
17725.1
14598.1
16987.6
17362.7
15553.5
15959.1
14656.1
14169.2
15948.7
15393.5
22135.5
20236.9
19313.9
18266.5
21343.1
19050
23811
31228.1
35661.7
34065.2
30842
34182.8
32216.4
29550.3
31896.1
27543.4
30121.8
26184.3
28480.4
24168.1
19827.7
19388.9
19885.6
15188.2
13751.5
13445.4
12241.2
11284.5
7748.42
11122
13236.4
15304.2
11591.2
10377.6
13047.8
11210.5
10062.5
8900.83
5594.84
9524.09
9467.1
9377.42
8567.7
7084.53
9146.96
11889
9697.41
11616.1
11800.6
13347.3
14821.4
16212
18930.2
18790
17034.2
14378.8
14249.8
16871.5
21867.6
22039.2
23971.4
21691.4
19562.4
20892.7
30150.4
31829.5
32783
30740.5
33498.6
36026.5
37315.9
32439.5
31473.9
32918.4
27266.3
29099.8
26102.5
30333
31122.8
28559.5
28083.2
30715.4
33824
29249.1
24970.7
23568.3
19596.7
18899.8
21857.6
23492
18582.5
17232
12828.2
16912.4
16851.6
18607.8
16966.4
15971.6
12888
14972.2
17909.2
16272.4
15718.5
23194.3
29070.3
28430.3
26348.4
33570.1
35043
31493.9
30309.4
26852.8
27226.5
29340.6
28158.5
25843.7
27102.4
29431.5
21397.1
22129.4
23426.1
26590.4
33416.6
35607.5
36956.3
37584.9
34915.5
33880.7
35813.7
31326
26108.8
21345.2
23799.1
24301
25303.3
26721.1
26481.6
23776.7
22254.1
23528
25252
21350.5
25146.2
20735.4
19938.2
20037.2
22604
20677.2
19231.5
17879.1
16371.5
16412
21267.4
18846.4
23135.3
18300
18757.4
19757.3
18227.4
23450.8
22347.6
21304.4
23390.1
23645.4
21118.2
28020
21412.9
26903
26032.1
30773
38097.1
35994.5
33527.9
37912.6
39405.2
38313.5
38792.5
31918.8
30548.1
29593.3
28726.9
31616.2
38122.4
35777.2
27129.1
28492.7
29000.8
31701.4
31710.5
33760.8
37171.9
35722.2
37403.4
34085.2
32006.2
38420.3
33480.8
34111.3
33385.9
34619.7
38150.6
43628.7
48176.1
45975.8
40674.2
45227.1
50924.9
52982.5
57901.2
57447.8
51016.6
41958.3
42523.8
48305.5
46498.9
52050.7
55559.1
51036.2
49828.8
39908.3
43689.6
41166.2
45098.1
44611.3
49707.9
54987.9
60648.2
62152.2
59464.3
64558.4
65036.7
66859.2
79155.1
87901
75965.5
64839.3
67094.3
78528.1
79848.3
68299.5
71655.8
78008.2
76607.6
73868.6
73161.5
68144.6
65911
69387.2
71188.3
65960.7
67878.6
67868.6
74695.9
67141.8
63358.5
59331.4
55993.8
50027.4
52959.2
52345.1
52189.9
48759.8
42568.3
42192.6
43461.1
40173.4
32843.5
36561.4
36551.9
38788.9
38507
37444.8
38369.9
34092.2
34832.3
30697.8
34565.7
34955.3
32574
35397.9
36888.6
28795.4
27975.8
25403.8
26238
24174.6
22531.4
29669.5
29677.5
32344.9
35385.5
33527.5
35781.8
36758.9
38930.3
44822.5
43665.9
37041.9
32872.9
36609
41026.8
33242.1
30368.5
33264.3
41733.5
43616.2
51148.5
49505.6
51101.3
48893.3
41861.1
39123.5
34197.5
29514.7
27310.5
26672.4
29104.4
23368.4
23657.3
25862.7
27462.1
23791.8
28398.4
31811
31814.3
41664.3
39004.4
39524.9
35447.3
43458.6
38809.7
41807.1
38649.5
31406.4
29688.6
27542.7
31735.3
27244.4
25344
24884.2
31925.6
24382.9
20360.5
16516.1
15583.5
14696.3
15584.8
18472.1
15593.2
19809.5
22359.9
23026.7
26242.4
26953.7
25335.5
27556
30608.2
31067.3
31759.1
33022.2
25727.9
24246.6
24938.6
26037.9
26358.4
32343.4
32932.6
32897.1
37186.6
41504.2
35351.1
39597.3
45975
54490.1
55843.5
67012.8
76090.5
83241.2
80678.3
85617.1
86234.7
80727.2
87535.9
83370.3
86488.9
92142.4
100350
106694
96530.9
86952.1
84257.9
85140
75891.1
76924.2
82933.7
81776.7
76623.9
78241.9
75435.4
85991.6
96256.8
100164
105260
100835
95377.1
93189.7
91706.2
90604.8
82085.3
78575.3
78372.2
70187.1
74249.1
65315.6
60677.3
66646.1
68772.7
71597.1
78657.9
83496.6
67582.3
71733.5
74539.8
70802.7
60021.9
58760.7
57111.7
52339.3
48451.5
49488.1
48198.4
56978.8
53238.3
64374.7
64571.7
57133.4
59063.5
53847.6
51111.9
51887.2
62713.3
62955.9
63858.7
59851.4
53277.4
53867.2
56818.5
52754.3
54417.6
64458.7
66944.9
71530.3
53806.9
49018.3
42339.8
46569.9
41123.4
53771.7
55432
49324.5
50585.6
51479.3
51143.5
48952.6
46973.7
44030
44846.9
46644.5
51936.1
54011
54585.3
63178.5
77670.5
64238
68953.2
63691.9
67106.6
67504
69196.1
57455.3
57607.7
64643.9
62558.3
61318.4
61099.8
59638
65872
56593.7
63658.1
57853.9
53033.2
55245
61447.8
63924.2
65527
68031.7
70829.7
74488.6
80856.2
80535.7
77357.1
78438.9
70976.4
69854.5
76215.4
77164.6
74602
77284.5
80940.6
91196
96874.4
93530.4
102781
101291
103424
104462
111679
109633
118549
117416
110350
113092
102357
87348.1
80917.2
79063
75335.6
75461.6
81934.4
74659.3
70142.3
78939.3
81784.6
74297.8
80097.9
74855
65530
65246.9
71739.2
69460.4
77633.9
69240.8
70463.3
69161.8
65729.2
71372.2
70208.3
75259.8
70163
59684.5
65951.2
68804
69114.7
66911.7
59695.3
60438.1
57525.6
57451.4
55022.9
54091.1
53035.5
54313.2
53873.9
54418.3
48473.1
49392.2
38614.3
40039.3
48996.2
46127.5
52622.9
56936.1
58198.9
66465.1
65444.6
76910.1
78095.4
88834.9
83992.9
84840.6
85086
91897.4
77760.4
87453.8
85760.8
83237.7
74079.4
64998.4
64016.4
58983.5
65214.6
71194.4
74809.4
70589.8
71856.5
76501.3
73851.9
72839.9
72465.3
73147.2
77572.2
76966.2
75626.6
80015.7
67663.8
69846.4
66030.8
64503.3
67339.2
77607.7
80104.8
85263.7
78936.6
78030
79403.8
78088
76939
76113.7
72676.1
61969.8
56279.8
54289.7
52557.2
49996.1
46910.9
48975.7
43888.7
38663.5
39081
37419.8
45454.6
42723.7
41208.5
45880.8
45236.6
51310.6
46189.6
46795.4
48818.7
56516.5
46691.6
43189.6
41104
43415.5
46958.7
54065.2
56778.6
56671.2
60690.1
75759.9
75063.4
79193.6
82356.8
85973.7
86418.9
80805.6
81579.7
73682.2
84138.4
94094.5
107816
116380
115236
133924
130782
132193
142569
141334
136597
132206
151060
147335
153201
157611
159432
156533
137438
142273
150743
152928
151588
150726
143291
150007
167402
169275
176925
181168
183108
167075
159032
159056
159031
154215
149517
137878
148313
139085
140236
136381
130158
137593
133468
130529
121584
122269
117976
117919
124204
119943
127840
149835
140869
146477
141876
140301
134670
132456
132818
136282
130906
122772
123785
126377
112307
105008
111410
99739
103046
92445.9
83692.2
81372.8
78495.7
71893.7
68991.9
64463.2
60424.9
59863.1
68209.9
64966
67548.6
74694.9
88155.3
88174.9
92536.9
86813
95207.8
95310.6
91091.8
99350.8
90567.1
94832.7
92338
97279.9
105230
96632.6
93312.2
101598
106105
112168
112205
112163
98343.1
97343.8
96543.7
102092
107656
110700
103051
97893.4
91673.8
101480
100317
92689.1
98896.1
102013
94538.4
84104.8
77563
79105.7
71824.7
76857.5
78390.5
69194.1
67190.6
71422.8
65853.7
65949.6
70678.6
73091.8
76449
75935.9
66896.7
52717.6
54334.2
52153.3
65286.3
58841.6
50688.4
47864
42964.8
36782.6
37481.3
39335.1
39921.8
39598.6
43449.1
45389.2
45507.4
45774.1
43260.4
48748.7
46631.7
52160.1
48757
50407.3
45975
36436.6
42244.6
37709.8
38791.6
43473.5
44538.3
46288.2
50255.8
49983.9
49603.4
46691.2
46517.6
47845.5
52102.2
49727.1
46608.2
40251
39463.4
37376
30822.7
37294.9
41054.9
34444.9
34163.4
38403.9
37662
36499.3
43761.5
36397.3
37432.3
30437
29066.4
31710
34676.4
35023.5
33543.7
29684.6
28993.9
32130.4
34911.8
38301.9
33636.9
29063.9
33119.9
39910.5
49046
51592.7
53245.1
55888.4
51775.5
52256.3
44521.2
34799
31395.8
32974.4
32595.8
34330.5
28874.2
29142.9
28734.8
24227.1
27003.6
25101.7
21292.1
20030.2
18564.5
14203.7
9392.85
9403.23
9454.98
8426.9
6920.96
8748.87
7809.86
6957.44
9399.17
9321.4
12288.7
14500.9
14821.1
18179.8
14829.5
19497.7
18405.9
19445.8
19014.2
15404.6
14496.7
11265.1
14167.7
13379.9
13016
13538.8
10382.2
12122.8
7166.28
7343.39
6149.38
4534.05
4446.24
4971.97
9313.43
9272
9338.85
14764.2
15952.6
12091.7
11515.7
12785.1
16502.9
12323
9773.03
10747.2
11129.6
14710.7
15343.7
17290.1
11741.5
12251.9
13213.9
13934.6
13144.2
13347.7
13924.6
12661.8
10775.1
9043.62
6920.66
9062.24
6931.27
7910.4
9557.82
6154.82
10000.4
10967.1
13422.6
10787
9274.61
13168.2
16875
16698
20486.9
23358.9
21477.3
21572.1
22677.4
18874.9
19268.3
17381.8
18957.9
17746.9
16990.5
16880.8
19964.8
20364.7
24674.2
22682.6
23753.5
21664.5
24225.1
34100
36132.8
41152.2
35457.7
36655.7
37661.8
35748.9
32223.4
30412.1
35526.7
35932.9
38612.3
37318
34304.1
24471.7
20650.3
23227.6
29579.2
29418.2
35572.1
36101.2
34359.6
30390.1
28406.6
26223.9
25528.1
32028.1
32997.8
24940
23479.3
26662.8
31953.1
36512.9
30964
37669.3
40647.3
34457.9
33002.1
32903.3
31416.3
30919.6
32674.4
33926.9
29558.7
31369.6
32747.2
29729.2
25862.2
25927.9
22071
22512
19809.3
20266.8
17782.5
20690.8
22501.5
20036.5
20311.1
21816.4
21288.6
20327.4
23643.6
24768.9
24857.5
25740
25696.5
27711
29976.7
22448.5
24003
26324.9
27461.6
30983.1
29150.6
28717.4
25790.7
29196.6
29289.3
28966
24775.3
24120.3
17818.1
17449
19937.7
20502.7
20767.5
20256.3
16651.5
12268.4
13865.6
17990.9
15888.5
14324.5
16213.6
14600.1
17045.4
15717.3
20469.3
17486.5
14150.3
13245.2
10949.5
9269.49
8454.31
6907.93
7770.28
8308.94
7809.68
7222.47
11301.1
10627.4
8356.72
8460.1
9126.46
11766.1
9298.79
11500.7
15223.9
11795
15419.5
15770.9
15462.6
15997.7
18402.6
21292.3
23976.2
24190.1
19473.7
13974.5
14129.8
12756.4
16722.3
16801.8
18908.3
19612.7
16218.7
15199.9
15426.7
13228
8149.14
10878.9
10273.7
10933.8
13586.5
11607.6
10275.4
11514.6
9034.91
7985.58
10224.4
10469
13207.4
11463.6
12404.6
11232.4
12691.9
10080.5
11448.1
9431.77
11405.1
10603
12040.1
9825.55
11366.5
14837.4
14433.9
15965.8
15686.4
14507.7
17264.9
17362.3
14460.4
14479.5
18591.8
20785.5
19782.1
24092.8
23710.1
21721.4
19277.5
24557.6
21956.9
22658.7
25869.4
25377.9
25624.4
22981.4
26384.5
26755.1
25491.7
20619.2
23588.8
24585.5
22125.8
24963.5
24764.6
25444.7
25289.5
27765.2
28450.5
25473.1
24709.4
28415.1
27473.6
29664.8
26821.8
29786.2
25971
24746.3
25067.1
28344.3
26283.2
27715.8
30435.3
33169.9
29327.2
24592.6
27114.3
26528.2
29086.2
30072
30984.2
25782.2
27029.2
24223.2
24329
23300
26925.3
25537.1
22560.3
24827
17508.9
18273
16704
17226.4
23221.6
24114.4
18556.5
13555.9
11501.4
12850.9
14434.2
13308.4
18868.8
16244.9
12210.9
13747.7
13827.8
18555.3
18397.6
15584.4
17039.9
16700.6
13715.7
14945.8
13058.4
16056.3
13118.8
11683.6
16085.9
14786
12892
11481.6
14996.2
12436.6
13026.6
10678.8
10501.8
14932.7
19029.7
19732.2
13424
11605.4
8686.93
8496.86
3953.39
5329.87
5913.63
7879.5
6459.65
8821.46
9807.09
8687.19
8785.22
14679.4
16567.6
16600.2
20321
15622
18782.1
14952.4
16076.4
16469.7
16144.8
15123.9
10529.3
9169.21
8494.1
10818.6
13219.9
14983.1
15371.7
13799.5
17986.7
17611.8
16689.4
13674.7
18671.1
23488.6
27945.1
25852.3
26266.1
26186.6
26718.6
27651.2
31851.7
31135.2
29428.4
25917.8
26500.9
21286.2
22998.2
20881.6
16984.1
25043.9
23667
24595.3
21040.2
18516.2
22794.3
24547.4
24511.8
22379.7
20738.5
22059.7
16088.7
13968.5
9599.98
11464.7
15449.7
19038.9
17545.5
19450.8
18844.3
17884.8
17470.4
17558.9
20230.3
20257
23744.7
24514.7
20154.5
18786.9
22054
23490.7
27562.4
26865.4
26210.9
22629.8
24839.2
21856.6
25977.1
23037.3
24738.9
21578.6
17205.3
18412.5
23423.1
20068.1
25348.5
22127.3
23075.4
22085.3
22430.9
20758.2
20940.5
23647.9
21178.7
17800.1
19088.6
23357.4
25500.2
32107.1
35593
34166.6
37850.6
36026.4
39262.7
38748.3
35639.8
28978.9
33064.9
30098.7
31480.9
37435.2
40908
40192
38323.4
42350.1
48497.5
42421.7
40942.3
41376.8
46176.4
47590.9
50705.4
51200
52050
58120.7
55229.8
61105.1
62042.6
56343.9
50904.9
50964.3
45582.1
48023.7
58623.4
60164.3
57844.8
51584.7
53063.9
50186.3
45156.2
43499.6
42064.9
49264.6
58796.1
64229.1
69195.8
67317.4
71486.1
63215.9
76733.9
79199.6
74339.1
68712.7
73884.9
77268.6
68780.7
77798.2
74511.5
76836
83465.6
83029.8
87754.3
100222
98998.8
110363
107597
100113
89321.7
84501.9
77747.6
79542.1
82061.7
80059
79402.8
77894.1
70451.1
66748.2
75106.1
80110.5
76507.5
77287.4
81666.2
80386
83499
84486.2
86338
81636.5
95155
101680
94598.2
93700.2
94768.5
99953.1
96015.8
99343.4
99532.3
101267
100077
87179.6
87699.7
81081.9
83213.9
90897.2
96907
89939.6
90411.7
91035.3
87571
79345
66108.7
58144.5
55142.9
53924.1
46606.6
51193.6
51634.6
48779.4
50244
51199.1
50035.8
47421.5
46783.5
52457
57806.2
62744
57444.8
64989.4
69130.6
67701.2
66205.5
63062.3
60120
62415.8
67571.2
68473.7
65007.5
56898.9
55830.7
48638.4
48863.4
51334.6
47360.7
48652.6
46619
35369.4
29761.1
27489.9
24677.6
19739.7
17255
13734.5
17879.7
15863.9
15194.2
14858.4
18515.9
20727
20799.8
23768.5
18099
19920.4
16721.7
13706.7
13612.5
9729.88
8110.08
7948.03
11968.6
10970.2
10265.5
11420.5
9809.32
9021.4
11997.3
11161
13661.9
12673.9
11389.1
10497.7
12826.2
11652.6
13416.9
14266.8
15090
13627.2
18858.4
18478.4
17564.4
18795
19094.6
20992.1
21209.2
18586.8
19781.7
22565.9
19710.8
21908.2
18511.5
20406.9
23228.7
25634.6
29029.7
30730.2
29108.1
30847.6
30901.3
27678.6
25921.8
26600.5
22978.9
19688
18461.2
14380.4
14729
17993.1
21165.7
19155
17239.1
13330.3
14611.8
11734.7
14100.1
16802
19928.4
17476.6
18387.9
21013.3
13725
10151.7
13890.7
15907
11023.4
10855.6
10746.3
9692.49
9816.18
6167.37
3973.98
7546.27
8715.05
8044.99
10134.4
13518
10744
9759.5
9487.41
10761.5
8598.81
10285.5
10423.4
9348.73
11547.5
11725.1
9896.37
8695.69
9824.19
11954.4
17740.2
17483.2
16139.2
11886.7
9722.76
12040.2
13345.6
13953.4
10672
11419.1
15613.5
9705.27
9699.28
9534.24
9121.94
9039.98
9790.87
10150.4
11564.3
12657.9
10198.8
6745.21
4205.75
3092.32
4705.16
4609.06
5237.68
5690.94
8149.05
8557.61
9753.24
10030.3
13931.2
11487
12002.7
12848.1
12652.5
18454.8
19311.8
17838.7
25671.4
31801.6
31675.4
33481
29036
23759.7
21642.2
25081.6
32307.3
32614.5
26725.3
25228.3
22133.5
25467.7
28077.8
27633.6
21060.2
17122.4
20479.3
16720.7
17759.8
21434.6
20150
21185.7
23923.3
21764.4
23022.1
22046.1
25996.8
31929.6
32226.8
32372.4
27657.6
30079.1
35711.2
36978
38229.6
46418.8
49233.9
47984.4
49944.7
45788.8
38283.6
30846.3
30961.4
32805
39001
35830.8
36092.2
32663.1
34825.1
26293.2
26176.5
24439.4
24349.2
24819.6
24013.3
27225.4
31714.7
29521.3
30806.5
29145.3
30103.5
33064.7
35764.1
42644.5
43177.6
38366.9
44769.5
41599.4
43082.3
38334.2
42202.5
44094.8
36118.9
38029.6
42300.8
43210.6
45159.6
46069.5
44838.2
42241.5
40317
43796.8
37974.2
38820.6
36946.2
31279.6
31409.2
32264.9
30281.5
28549.4
28138.7
24717
18195.8
20607.9
23301.1
30715.4
27431.4
24586.6
19598.7
19873.5
16895.6
17556.1
17577
19625.7
17207.1
27262.9
31052.6
29283.3
32656
28811.2
31846.8
28611.6
24455.1
23615.1
21170.9
21936.4
21743
29406.5
33118.4
34137.8
32768.8
27265.9
25228.2
20042
23298.2
20572.6
23423.9
27675.4
29979.2
32189.7
37159.2
43634.1
50356.3
48647.8
56591.6
53754.1
55902.5
56052.7
57158.9
55175.9
55586.8
54691.1
62242.7
50183.7
53973.7
50756.7
47021.9
45536.1
50189.1
51887.5
48794.3
43531.1
47726.9
52742.3
42567.8
39166.1
39081.9
39714.2
30756.2
29741
25526.4
21793.9
23274.4
18356.1
21170.6
17896.9
16506.1
19163.6
18935.9
21291.2
20509.1
20537.4
18010.9
23891.6
24723.5
24118.2
24493.6
19521.5
17792.6
18285.8
14105
13074.5
15906.4
25003
26149.9
27070.4
27522.5
32690.7
42176.1
39976.6
38756.2
48107.9
45307.4
48716.5
49473
51328
51581.8
47624.3
44778.3
44109.3
43849.2
40805.9
41645.8
42644.3
50287.2
48558.5
50913.4
54381.2
50901.4
48174.2
37106.9
39474.5
41810.9
38097
41466.9
34624.7
33875.3
36994.5
36994
35430.9
34349
36068.3
32340.7
28854.7
29511
34074.7
32243.1
24691.1
21708
21185.8
20149
17655.2
13053.9
14904.6
18111.4
19314.4
18257.1
18314.6
21616.9
20571.8
22240.7
21821.4
20391.8
20518.7
23593.3
18286.1
20727.2
24171.1
27057.7
18562.2
19960.7
17685.4
15543.2
19762.1
16972.3
20902.5
22312.1
18362.2
16907.3
19557.8
17218.4
21264.8
21427.3
27619.5
25238.8
27857.9
28894.8
34212.4
34036
39808.8
40072.4
41982
42636.3
39989.8
36781.6
34275.1
32074.3
35319.8
40753.8
32783.4
29948.3
27385.5
24538.9
25727.9
23697.3
22369.1
18053.2
16908.6
14614.5
15591.3
17063
18966.7
18187.8
17696.2
16297.3
14417.1
21284.9
26110.6
28264.4
31937.9
31437.9
28699.1
35120.9
31447
30920
38898.6
40866.3
38799.2
46250.7
38446.1
33044.7
38084.9
41238.7
34933
31974.3
32183.9
35164.3
31282.1
30281.1
29296.8
27566.6
29326.7
28720.7
28503.1
31482.5
38828.6
45247.9
42092.9
39062.8
42423.4
43321.2
39804.7
41250.1
44674.9
51458.1
45813.2
43496.6
42231.1
48708.3
54164.3
64764
54505.2
50668.3
51832.1
44119.6
50667.9
49819.2
49123.8
48137.9
40268.6
35720
34786.5
30055.5
33324.5
29660.4
30441.1
34081.9
35766.2
36912.2
39864.1
46405.1
47387.5
39713.2
47335.9
52398.6
50912.7
52709.8
50135.5
48988.2
50495.5
55111.5
54998
59155.4
56994.4
57262.2
55049.1
56940.4
58557.5
52399.1
54948.1
54248
50687.5
66413.4
63658.9
68721.8
66074.4
66431.2
67707.2
65854
69416.5
79258.8
76856.4
72190.8
66610.1
66666.3
60615.7
55073.6
51397.9
50490.1
61926.5
53521.7
64211.3
68862
72631.9
75751.7
83844.1
88807
99137.2
99723
98675
108829
119146
132300
133034
135953
128293
136141
134178
129931
131795
128286
121790
124782
126282
126232
121202
122737
125104
122121
119594
110838
108157
110897
97567.4
107972
116312
108443
108064
101934
95618
97736.5
93661.9
97350.7
91381.2
89651.6
76955.7
69868.5
70817.4
78506.8
83690.5
85024
78081.2
85375.7
73129.7
71902.2
79369.5
75236.1
78655.6
76807.8
74171.6
71861.8
75486.2
83428.6
82149.5
77156.4
76579.1
81024.1
76475.5
86462.7
96612.4
99967.3
101326
96330
102938
110334
103229
103687
103829
115550
119720
121700
122273
127682
116199
116218
110353
111219
108455
103252
88977.1
91035.1
91576.6
101794
103985
102832
104526
98923
103193
101151
105329
100983
103574
99017.2
97890.2
93816.4
84238
90217
90651
79434.9
74067.1
69942.4
75329.6
71375.5
70271.2
71669.7
78852.8
81022.4
85423.7
88273.5
87568.7
80368.3
80855.7
76430
66949.4
73265.2
78627.7
71544.1
75731.7
75794.8
67696.2
70532.3
61844.3
55172.7
50622
52620.4
46695.1
49936.2
50580.3
57187.7
57320.5
69720.3
64654.7
60793.4
64480.6
65471.9
62857
68763.6
61423.2
62241.6
59077.2
55956.3
58503.8
60237.2
58416.1
57489.1
56455.1
55884.1
57106.8
59229.2
61521.2
62371.7
58171.1
66045.4
63948.1
61290.7
64307.5
66895.5
64031.4
64712.4
62447.8
71269.1
78626.8
72875.6
77289.3
83317.2
83023.4
80352.2
81264.5
82527.9
87674.3
88960.1
84735.3
88196
84396.5
91814.2
82936.1
85377.4
78136.6
66962.8
69367.7
78190.3
81314.3
79216.3
80861.1
86864.5
92568.3
87989.8
87973.8
83883.6
96222.3
94085.4
95434.3
82774.4
79040.1
74613.2
75257.9
65243.9
63404.5
68623.4
67872.1
80822.1
78256.6
73938.6
73335
75592.8
77239.7
69989.4
70013.5
68219.9
66020.9
57816
61258.2
64550.1
57347.7
58545.1
53523.7
49111.2
59463.1
55205.4
57959.5
62138.6
65591.8
61362.4
58047.8
57898.5
66930.8
70104.7
80431.8
84195
90450.9
90460.2
94872.1
106740
114612
113421
116936
116727
115271
126580
119674
104075
106305
104020
99288.2
101586
99220.1
94336.6
87631.2
82927.5
79183.7
91804.3
99482.7
85937.1
73916.9
61439.5
65891.2
64501
58210.7
64722.7
56697.5
53064
50033.7
49466.7
46536.2
42781.3
50420.9
48250.2
44639.4
37699.5
39930.4
37231.4
39184.8
40551.6
39146.2
35709.9
33343.8
32004.7
36074
34142.8
35278.8
36138.5
37496.3
35471.5
40656.3
47673.4
42440.2
41637.1
34984.4
34990.2
34525.5
39097
38860.5
35127.9
36751.9
34099.3
38101.3
40777
35508.7
37153.7
37245
33741.2
37249.4
39245.3
49098
53784.7
52167.6
54027.4
66358.2
69270.7
68307.8
63954.5
65244.3
62765.4
74661.1
74771.9
77715.2
77095.7
81353.4
65993.8
68282.7
55605.8
49671.5
55427.9
59195.6
66584.2
65135.3
66203.6
63923.8
63641.2
60617.6
66660.9
70105.9
74139.7
73169.1
72621.5
71738.1
61327.6
56441.9
60469.2
69062.1
62996.1
61412.2
61036.6
56130.1
62614.4
56462.6
52108.8
43247.8
49490.9
46615.4
35628.5
36605.8
37347.7
38435.2
32096.4
36081.8
41265.9
43636.4
50643.1
45392.6
46783.5
51510.2
47718.9
53476.5
46918.4
44063.2
40217
44951.3
39185
42886.6
39821.5
38510.1
38083.5
33548.6
28398.1
26592.4
30360.7
27364.3
26979.9
27667.7
29713.2
31181.7
26835.7
25265.3
25885.4
26421.3
30054.8
30394
26896.7
30769.4
36033.4
38667.2
34041.6
36944.2
32404.2
40262.6
43915.3
34235.3
40031.9
41846
44382.4
40546.4
32352.4
31975.5
28170.5
31187.9
30538.3
27154.8
30008.2
23921.5
22615.9
29191.6
27841.7
28473.2
26446
27313.3
25862.1
18506.9
20273.9
21122.1
23926.9
22485.3
23678.5
20619.9
18189
18205.5
19951
18352.5
16260.3
16440.8
18471.5
17809.8
23495.5
19845.4
18064.1
16323.6
22276.8
26941.7
24562.8
21897.8
21668.3
22320.9
23180.4
22883.7
22462.4
25162.3
21295.9
17885.8
16540.1
19882
26986.5
33433.6
39896.7
33591.5
34473.7
41784.8
41197.7
35926.4
35299
41037.3
41352.2
40850.1
42276.8
41991.3
42851.2
46512.9
50882.3
50391.7
50260.4
43117.6
45071.8
47281.4
48484.5
50347
51852.3
47193.7
45606.1
47941.1
47116.6
43181.1
38694.6
35984
31741.6
33683.1
32080.5
29052
29977.3
29722.2
25090.9
28629.3
19301.5
17559.5
20554.6
25137.3
28234.1
35965.1
36204.8
38557.4
35546
38704.8
40110.4
40698.9
34373.8
31158
29883.1
27593.6
22064.2
26876.9
28608.5
26503.6
23326
19928.4
22566.8
21618.9
21656.6
18098.4
22662.8
22899.1
22361.8
24996.2
29861.4
28792.3
29311.3
28496
32010.2
24287.5
24597.4
17048.9
20560.5
24053.5
24640.4
25498.5
26538.2
21853.2
25745.5
29450.2
26515.7
25036
24409.9
30717.3
31930.7
29978.5
27503.9
29946.4
28846.5
29544.8
21637.3
22033.8
24859.8
28180.5
32931
33932.1
33179.6
33065.6
29954.7
30649.9
27322.2
28848.8
25111.4
23388.8
24034.2
24823.7
22654.6
22159.9
24017
24896.5
27592.6
28026.1
26443.3
26147.4
27471.8
25653.8
26590
23832.2
23016.6
23825.7
24364.2
26028.4
23278.3
24128.9
20610.5
18463.8
25658.7
23334.1
26505.1
25171
22131.4
23387.6
24807.9
26571
23360.2
18850.4
24007.1
18196.6
17632.6
19144.9
19354.2
17798.4
14372.2
17107.6
13909
16129.5
18821
19252.2
24235.1
23403.7
26608.8
23759.3
28337.9
34727.3
36047.8
28925.6
27662.3
23044.2
23904.8
23359
23956.8
27490
29137
31203.5
33218.5
33788.6
40634.2
32339.8
35536.9
39963.8
43962.6
38762.6
35525.5
35970.7
35563.4
36037.1
37091.8
31480.5
23519.9
16360.9
14819.1
15987.5
15751.9
10943.3
11092.2
9554.7
10214.4
10477.7
7784.54
10438.9
11501.1
10257.9
10529.3
10659.2
9283.36
12344.3
14593.5
15388.4
13416.7
14299
14316.3
15007.7
17025.8
12819
15141
14639
13267.2
15430.5
18981.1
22011.1
25873.7
22741.3
24498
24833.6
25848.8
28729.3
25005.3
18341
18650.8
14340.2
15504.7
14377.1
16578.5
16024.1
18543.8
16496.3
15381.9
13183.3
9038.8
8236.36
8995.74
7662.08
5272.03
5988.79
5713
5110.29
5829.61
6557.48
8290.86
10313.1
9616.18
7582.96
10026.3
12101.9
12953.4
11703
13750.7
17586.3
13448
13347.3
13340.2
11754.3
8229.76
8819.68
9679.87
9324
6047.71
5281.69
8228.48
6149.82
6502.75
8212.46
8551.69
5989.54
7819.78
5064.64
5975.65
7042.06
7028.16
9577.29
8996.83
9793.45
11206.1
9362.73
7973.66
8310.94
9680.35
9558.17
8021.3
10999.4
10238.5
12900.2
10653.6
11583.6
10063.9
8378.33
7613
7281.8
8534.29
8985.44
6693.54
5418.24
4930.08
6429.04
4990.07
5979.21
4280.24
7243.71
7201.35
9769.92
10879.5
16613.6
15982.2
17749.9
17603.3
18260.5
21972.1
21120.1
13989.7
16920.2
14307.8
14553.4
14181.1
13813.5
13696.4
14970.3
16287.7
22279.7
27863.9
25962
26030.3
24827.3
24894.4
33577.8
31664.7
26849.4
27787.2
27427.2
29198.4
30974
39808.2
41077.4
41304.6
46006.2
42168
41824.1
49388.6
46565.1
49092.8
52925.2
51936.1
51072.8
54655.9
51828.4
57796.8
61340.4
62012.5
57934.5
55214.2
55713.7
55844.4
53599.1
50063.8
49271.5
41083
44530.1
48658.9
46623
44665.9
45672.7
47459.8
49280.4
50437.4
50209.6
51191.1
49380.5
51993
51978.3
50548.7
50050.1
52376.2
41543.6
40360.6
45066.8
52738.7
51882.8
57058.6
49717.7
46936.5
46100.5
40621.2
40688.3
40520.2
37384
32736.7
29080.7
28701
30149.9
35863.8
34962.6
34012.4
40771.5
40577.7
40309.2
39977.6
45562.7
43841.8
45992.1
48675.3
48790.9
41443
40216
36926.9
35047.6
29082.1
26287.3
31516
29975.6
32367.5
38808.9
44344.4
40226.2
34362.3
28512.1
23721.5
20988.4
24148.4
26027.8
27711.5
33765
37627.4
37398.1
42453.3
38592.1
35902.7
34226
37396.6
38530.5
30475.9
29575.6
26333.2
22599.2
18327.7
17997.1
20324
20919.2
20198.9
18865
19446.6
20350.2
22213.9
24406
22779.2
21896
24378.4
25052.4
26093.8
23874
21261.4
21736.8
23917.9
21953.4
21703.1
26054.5
32928.8
31801.5
31310.1
30355.1
24186.9
23882.7
25697
25940.3
27130.5
26589.4
20578.7
20154.9
19025.3
16801
17835.5
17946.7
14931.9
12473.3
13792.6
15385.9
13036.5
11115.9
8590.1
10683.3
6688.34
7293.65
11725.2
9645.31
12556.9
14444.4
13326.6
18094.8
18612.5
15513.9
13950.5
10168
10210.6
10891.8
11589.1
7906.94
12105.8
14331.8
11511.8
8427.2
6439.26
5245.56
5791.34
4703.37
4478.98
4505.51
7595.37
7733.08
6773.27
7493.1
5959.78
3770.11
3191.62
5009.75
4650.7
3904.6
4597.69
5381.57
4992.31
6661.12
6889.51
3594.98
5838.27
7492.86
8120.19
3815.64
2099.48
3618.61
6487.85
3363.6
2454.54
3235.72
2828.06
2794.23
3996.54
4126.3
5026.14
2428.84
2536
1374.38
1446.12
923.724
1217.06
4027.9
2592.86
3216.41
3308.39
4955.32
3083.75
3353.27
5081.62
5197.22
6974.33
7728.96
8129.37
9600.88
7093.48
6305.09
8119.98
14285.5
11542.9
7752.69
10855
10654.8
11141.8
12328.9
10246.3
10379.4
7743.11
8993.4
11336.5
11110.5
15542.3
19420.9
16794.7
17483.9
14077.5
14683.1
14169.9
16144.8
15499.5
14844.9
12474.3
13471.5
13538.6
16933.9
15689.4
16188.4
14985.7
15304.1
12022.2
12565.7
7752.11
10921.8
11262.5
13951.7
18181.4
20810.8
20315.2
23567.2
29915.8
24857.9
22482.8
17897.2
24070.2
22059
25406.9
26489.9
26637.2
24490.2
25616.8
23067.8
20763.1
23615
26622.3
26372.3
30549.5
23865.5
27909.3
25407.3
22167.8
22039.9
22593.9
19096.4
14407.1
16495.8
18083.5
17578.1
17893.8
15425.1
13230
14608.4
15354.5
14119.7
13829.5
13912
13120.4
14108.5
14314.6
17094.6
17895.8
19768
20001.3
17115.9
19570.1
18389.7
18610
17084.9
21301.8
25621.9
20833.5
16011.8
15352.3
16808.7
14249.7
11524
13471.1
12073
11224
12964.9
12467.5
11142.7
10086.6
10558
13169.1
13865.2
9826.83
9651.67
9339.77
8502.33
7888.97
6440.55
10233.9
7945.1
8857.76
6194.93
6307.97
5149.47
3995.4
5950.86
7303.21
8625.75
7098.43
7590.87
5113.96
2656.03
3707
3951.73
9269
9259.17
9067.92
5469.19
9116.91
9757.33
9472.2
7690.78
7375.32
7398.83
6893.71
11072.2
13641
10035.7
8755.97
10499.8
11744.3
10146
13959
11821.6
9922.49
10179.3
9858.47
5937.91
7528.47
6849.74
7530.27
11427.2
13350.2
17940.2
16999.1
17520.5
17115.2
15360.4
15185.5
16778.6
17307.2
18912.1
13617.7
11832
12332.3
9877.71
15371.3
14439
16014.5
11415.1
9287.78
16176.4
15797.7
14601.4
14355.4
13501.4
20759
21705.3
20510.3
21364.9
21305.4
19003
16867.4
15677.6
19437.7
24091.3
23285.6
23298.4
24515.2
21823.1
21051
20715.4
15107.6
19403.3
18692.2
14644.1
12632.6
12962.2
14331.7
15509.4
15185.2
14861.7
18601.6
19895.9
23753
22497.9
26530.9
26796
25188.6
27381.5
28617.8
27851.9
26318.8
24892.5
22539.4
28794.9
33588
37754.1
38950.4
42818.9
55909
53597.2
48441.9
48872.4
48375.1
48029.8
46476.3
47025.9
49328.4
55140.8
58987.3
65986.6
64813.7
64010.1
58765.8
49968.4
45014.4
46889.8
52391.4
51079.1
51188.2
49867.4
59041.4
67484.1
69558
62803.2
60943.9
60413.4
55969.3
53694.6
57093.1
57886.6
54491.9
49323.8
49743.8
44176.8
40369.3
48597.6
49405.6
44454.1
47200.5
37321.5
35972.1
31955.9
32927.2
32387.2
34992.6
39638.7
42511.3
48159.3
45376.4
39374.6
42929.5
44193.3
41506.7
33839.7
32958.8
36289.8
35404.1
30240.6
27030.5
29850.3
30621.9
27760
36107.9
31673.5
36363
30682.7
34183.6
35640.2
34158
41125.6
44312.3
38128.7
42228.6
47484
41432.5
33285.1
34005.2
32907.2
29429.3
34211.2
37041.7
33496
36682.7
35447
35594.3
32402.4
33876.1
33619.1
33294.6
31915
27439.7
25446
24187.9
22877.1
23783.1
19998.1
20607.7
21985.9
19050.5
17688.1
16813.9
18408.2
25972.3
29607.3
35788.5
36568.7
32682.8
33186.3
24348.2
26196.4
21495.1
12296
11495.3
13395.4
16187.4
14667.1
15634.1
15370.8
19708.8
18211.5
19624.1
24924.7
32809.6
30549.8
33215.3
30932.1
31287.2
34255.7
31003.8
35046.1
30042.6
34347.7
35136.2
36857
36276
41212.2
43029.3
39171
37853.3
40729.3
36687.2
32193.5
29014.7
29774.4
40901.1
36089.7
34436.8
36970.5
39252.9
39437.3
40223.9
35575.1
36299.2
42058.2
41628
37360.8
31230.6
34821.5
28442.5
32364.1
26990.7
30028.3
26277.8
21297.4
24444.7
24829.5
25727.5
27117.5
21781.3
23088.9
26557.9
30312.1
31265.4
32173.3
31543.3
33180.8
30492
28371.2
30973.1
34402.7
37877.7
36167.2
31801.2
23077
22063.8
21881.2
24536.5
27071.4
26943.8
24667.1
23089.5
20759.6
21835.3
20247.3
20298.3
21871
17936.6
22422.9
19617.7
15192.1
12196.2
11672.2
11188.9
11388.5
16535.7
15641.1
15560.7
11181
13036.6
12992
14777.6
14384.3
17783.6
17143.7
18633.4
18225.1
17830.8
15830.5
12881.5
17422.8
23081.1
31055.3
28396
31645
34931.2
34377
34201
33764.3
36052.9
33400.2
32101.2
32619.6
29014.3
30182.9
27850.3
26336.3
28251.9
27060.2
25134.5
25809.1
25359.1
29097.6
26637.1
21923.5
22547.8
19314.2
13955.8
17715
17180.3
16824.6
15083.9
15535.6
16349.2
14186.7
11747.6
16097.8
17530
18454.1
18906.3
23779.4
22889.4
23253.2
20252
20282.7
18073.8
25107
21532.5
17901.5
20572.8
16797.6
20754.4
24587.2
25252.6
29802.4
36670.6
37580.4
37480.6
36749.5
34792.2
29681.4
29835.1
29834.6
29539
27605.7
25551.1
30413.7
34783.3
32033
25687.2
28938.6
28634.9
29456.1
29209.1
25735.8
19774.6
15453.3
11880
13831.9
9987.76
13216.6
13850.5
18143.5
16915.1
18772.5
14104.4
16544.7
13304.5
13493.5
18616.9
19227.6
19688
14771.7
14816.6
9909.22
12647.3
12768.6
11106.6
9962.65
8993.31
9356.07
9175.88
9858.36
9343.68
10488.9
11590.6
14927.9
20297.6
15873.8
17457.4
20486.3
18905.9
16870.4
15382
17166.5
14576
14172.9
17756.5
22920.9
25021.8
23870
20503.7
21834.2
15224
17891.6
20020.7
14798.8
20115.3
16887.7
16137.2
15192.2
18124.8
23054.9
21843.6
19756.8
12464.3
14315.5
10756.6
12293.7
15852
13814.7
11139.5
11860.7
9806.25
12324.2
15289.5
12749.4
11430.1
12768
12749.7
15924.4
12272.3
8076.11
8631.51
9275.65
9730.9
9018.1
10221.9
10563.6
6287.27
7332.59
6633.26
4252.15
3486.64
3913.93
4688.45
3008.78
3501.25
3632.07
6455.44
9621.42
9657.91
7478.7
9161.51
9045.69
7990.9
6856.59
5576.76
8517.19
9962.68
11320.7
10529
12897.9
10471.4
10279.9
10923.7
6832.59
5408.49
9577.88
8406.93
8631.45
8070.15
6417.55
5599.53
4487.35
3856.48
5036.17
4686.85
12338.1
10851.2
11684.4
14436.4
15204.1
14237.3
14321.7
12318.2
13355.4
15141.6
14890.4
13207.8
15750.6
15484.7
14742.1
16132.6
17430.7
15930.1
14817.8
12410.7
10684.5
11063.1
15162.7
16977
17005.1
22832.6
19001.7
25119
25871.6
25566.6
27544.5
29929.2
29038.9
30195.6
27797.6
28222.9
29698.5
33019.2
31089.9
23075.3
23879.6
24273.5
25936.3
28205.9
28819.4
32162.1
28022.8
30482.2
31921.1
36667.5
40189.8
39517.1
43754.8
43806.5
34821.5
32172.1
26541.2
25294.4
29469.3
29338.2
33163
32848.7
30767.3
26254.5
23520.1
18410.9
21063.6
18241.4
14713.1
13976.9
14706.5
12700.2
9387.71
10537.5
13350.5
14742.5
12115.6
13550.1
9662.95
8853.96
9599.86
8909.91
9099.38
12036.6
11682.6
10419.1
13318.7
13184.9
15426.5
19776.1
15118.4
15118.5
17382.3
20202.5
16389.5
18202.4
16573.9
17294.8
19798.9
22732
24634.5
27225
24299.6
21795.4
20419.8
17166.5
14795.5
21534.4
17414.3
19564.9
20527.4
20729.2
18502.3
18696.2
21369.4
22751.8
29776.3
27990.7
33598.6
31783
37495.1
41948.3
40034.6
40343.5
40075.1
51589.4
46120.3
47288.8
49113
49518.3
47869.3
44780
45596.5
37847.1
38127.5
34924.9
33309.1
32504.9
33210.4
28315.2
30520.2
33094.3
35571.2
36998.4
40068.2
33800.9
29725.4
28159.4
24799.6
25295.7
23564.1
20481.9
19427.7
17176.4
12329.9
15174
16340.3
14062.8
13047.4
11797.4
13774
11493.5
11411.4
13418.3
13013.2
10178.4
13513.5
12524.2
13934.8
14116.3
14469.7
14772.8
16357.7
21010.3
18130.7
22329.2
26634.4
24856.2
22445.3
26471.6
33251.5
32401.2
31552.8
23888.3
20286.3
17867.1
21484.9
21779.8
23726.6
20204.4
23725.7
22084
29845.1
31772.8
26322.5
24630.3
23098.5
20031.3
25248.2
24673.1
31928.5
32851
31446.7
30025.3
32054.6
30312.3
32065.5
33056.7
38000.9
38490.3
39238.8
43850.8
40650.2
43156.7
39420.3
36365.4
43614.2
44717.1
41446.7
46767
54613.7
51706.8
51150.5
43668
43377.8
52829.9
50577.8
39209.4
45633.9
46346.8
44349.6
41328.7
39894.9
32498.6
37228.5
44357.2
44857.3
44170.1
40657.9
46053.4
50164.5
47337.5
51846.3
53448.7
53479.7
63721.6
70609.8
80356.9
77915.6
68956.4
69823.9
77278.2
79447.9
77989.6
87332.8
85521.3
88919.8
100056
99521.1
102662
100972
105503
104115
99132.5
105014
113727
101525
106874
89467.8
92787.5
97399.7
97322.1
91947.4
84082.9
78865
67392.9
65706.8
69174.3
64849.1
64301.1
59763.6
57462.4
64315.2
78599.7
80219.7
85302.5
76430.7
73374.3
70721.5
66010.3
65390.6
67784
70020.3
79103.9
88021.9
76565
80668.9
76756.8
76646.4
71558.3
68219.7
53085.9
47924.8
41273.2
39471.3
35861.3
37057.8
35790
34881.9
25730.9
24214.7
26201.1
24834.8
33407.2
41042.4
45221.8
44760.6
46443.4
51420.1
50414.7
54661.3
60270.9
63966
60006.7
68087.1
71738.2
64339.5
72312.4
72131.9
85968.4
96885.6
104588
114921
117758
116526
115411
111262
113826
105391
108921
119172
128343
145172
144386
137734
136018
130686
135015
135722
120474
117827
121743
119534
125647
120022
113000
115963
111904
112296
111451
111029
118062
119653
120279
117488
122898
132669
136634
126069
110481
115582
121310
130051
130136
132302
113783
110044
111906
108687
110584
103387
103584
106950
106111
116765
113286
109469
106042
109496
109489
101489
118492
117918
122379
114300
117247
114958
113523
100709
100658
90429.3
88880.3
83055.7
80963.9
83923.8
78366.4
79869.6
77512.8
77210.5
79346.7
76330.4
78934.3
75727.9
89776.4
93640.6
113973
125503
119021
115211
122581
115795
120731
128115
133505
134605
135601
125895
127963
118183
107659
110525
116295
115997
127002
136125
134787
141677
143824
146084
146176
148656
144676
151312
144095
142316
144169
150709
139711
154472
148702
144816
160637
166774
173896
171907
169215
162670
179452
176818
184472
191323
195441
197503
185984
194638
202675
202309
196032
205574
214412
215669
216310
215516
220557
212549
215829
202386
222402
217279
222380
230627
234126
231629
223776
226231
212684
195552
202877
210029
216262
224940
219738
227368
233308
249165
250438
242827
257608
277143
271133
276331
290108
279507
284837
292324
291255
286364
278772
284903
296111
306112
291005
281368
292771
273324
280783
284672
267097
260644
261926
248176
273030
280274
280424
275793
274354
264019
246140
236755
238590
234720
229528
228172
241307
221450
213720
218475
203892
193016
186323
189961
200597
189450
171333
172371
160499
163990
142580
149161
137737
117659
116798
125690
128343
125992
121911
116212
116603
111825
109023
110259
119629
123239
111472
116938
117211
123226
116641
110579
115219
113215
120228
124688
121350
107445
115298
111387
97694.7
100066
94887.9
85147.9
85727.2
84764.2
85345.7
87420.8
85043.9
85128.1
78504.4
83472.1
89636.5
92293.2
91229.6
95137.6
97030.5
98739
98410.1
95944
97862.9
101266
101108
101874
94388.9
95900.9
96829.3
92287.6
101172
107582
102304
92194.6
89722.8
83924.3
87895.6
89625.3
88643.2
89574.5
93330.3
88473
84065.6
83295.5
81670
80638.2
84831.7
77786.6
80468.4
78737.7
90606.6
82829.5
77094.4
80935.2
98772.7
101465
111000
106037
111291
111087
102354
100798
98123.3
120226
118528
115158
124903
128576
124165
119632
121716
125220
115867
115008
107312
117878
111780
110969
110862
112862
113499
112678
99782.4
92891.3
103681
110629
107093
105341
101986
93151.6
75953.1
74188.3
77872.2
77575.7
76434.8
71615
73460.4
65788.2
68292.9
72322.8
78922.5
62835.2
65575.6
70656.6
69627.7
76280
85539
81584.8
80686.3
79193.5
84214
87259.2
91369.6
80750.7
84072.4
88228.5
81025.7
80180.3
91969.2
87825
94604.4
93762.3
92458.3
100415
90855.2
109612
106084
95148
90198.9
114989
103274
107913
111473
115674
122797
127557
133123
119438
114175
102479
96225.7
101087
90075.8
81444.9
86937.1
90710.8
87596
91761.1
87678.9
84856.5
88655.5
106712
116590
115933
111800
111200
109901
121682
121815
122572
120814
121633
120512
118582
120333
107101
100160
98557.1
95168
103738
104250
113470
108902
118510
123479
127769
131864
129600
129604
130301
128069
145958
129593
128193
136563
134798
140113
141434
145722
161476
155235
135470
144624
153173
154682
156167
156673
152602
151158
144397
140697
138837
136695
141176
133901
134040
133242
133804
136975
131735
139326
130316
124231
112577
113914
136882
144674
152604
152029
155906
138132
139575
129021
126622
136537
132963
132737
126859
123600
133911
139320
147919
132679
126051
116485
114902
111784
121192
110658
119545
127714
135316
147423
146012
148347
159236
154336
162766
148068
147728
139758
144098
141535
149541
150012
149983
145247
146765
154791
155809
159207
164785
168517
165475
157624
153183
148957
152685
165814
178156
176117
172401
192685
180826
175545
176743
167198
165010
167409
168457
164919
152931
149413
150325
139993
133883
134572
139942
143594
146824
142981
148249
148621
142596
143483
141492
139228
138965
142934
136487
134277
132320
135401
147243
155377
149000
154633
157162
160731
156090
149568
144630
144712
141837
125625
126037
131010
122136
121332
113028
109241
109097
113680
120593
122833
122115
132180
123308
114298
109293
107090
103436
103572
100122
98719.9
102723
102288
99392.8
95652.4
112203
110438
119163
135301
136991
123971
118130
129019
131522
134609
141491
136124
143934
143543
130128
126817
121816
129956
120002
112690
124303
131599
124640
128189
149177
152651
161831
160900
174089
167917
165070
163109
161936
165309
159875
165633
174292
176657
168534
162122
154235
148807
137293
132638
133928
126736
135684
145854
136200
133811
128988
133909
136781
141227
132077
131658
142898
126324
121761
128033
128817
125816
118973
125445
106100
107806
111332
116282
126100
137917
137950
141425
153974
148140
154464
149971
147280
153818
147261
148272
149358
135908
140341
140685
142763
132050
131158
136002
143556
135684
134449
130524
120925
112132
123341
114769
108977
119649
120830
119829
127688
132870
137781
143630
148787
138747
135205
127342
133360
151757
133612
128161
131717
139160
137126
140795
132466
133428
131909
132547
132203
137472
141062
150955
153512
150984
135125
146321
141641
155577
144169
147906
153568
164270
162272
159059
140603
132526
130245
124103
116828
115835
114360
128464
130992
124295
119702
119752
132336
124726
129058
133339
133954
128469
120831
125803
134388
131355
129438
133619
135465
138636
146261
143670
137968
139178
145942
150952
151786
139976
135444
136053
128242
121951
128982
132992
124939
151441
156350
156433
164414
163459
156896
148312
150742
144540
142178
136384
125008
127181
107899
122036
120371
118671
107422
109484
119723
121005
112787
122822
129261
133102
144645
145760
153215
152589
157900
146729
151030
138259
141164
143748
138933
142453
143076
144930
138009
134427
122708
118783
114988
118670
113974
