466.045
531.426
1872.81
2415.77
1000.69
1239.73
1608.47
3280.21
2951.09
3067.08
4046.04
4055.75
3682.24
3409.71
2997.54
1468.28
-1642.91
-725.308
-975.16
-1715.61
-485.147
1854.75
2787.94
-182.962
788.117
1624.9
-684.316
-1568.6
497.997
114.151
1359.04
647.227
641.174
1437.46
916.434
1348.13
697.401
-371.334
-1314.7
-568.372
-405.135
-543.077
-589.777
912.211
1217.38
2239.92
1351.26
203.36
-71.5242
912.153
1586.76
710.673
238.209
227.854
-259.639
-1884.56
-604.693
-209.105
-979.766
-632.229
1285.35
1492.66
939.186
-580.854
-795.977
-1806.87
-79.3444
-369.05
6.04579
-1443.62
203.845
-710.67
-1873.12
-3439.16
-2613.16
-1441.77
-315.751
62.8986
575.574
1676.88
3072.87
1663.12
2116.3
4194.28
3313.48
1989.39
3585.95
4726.45
4778.31
5546.56
7324.25
7929.05
6538.36
10293.1
6629.35
8757.66
6005.44
6747.14
5943.63
7005.56
5565.83
6112.9
6786.41
5002.13
2867.78
1705.39
1721.67
3579.55
6521.53
4890.33
4043.47
5576.73
3639.58
3358.98
-635.44
-2020.3
-1330.59
-855.913
-956.775
-57.6274
-2853.63
-2715.77
-149.664
-631.403
1218.24
2902.95
2927.21
4534.96
7523.87
8799.67
7630.44
5210.03
3573.79
2144.01
5583.48
6268.2
7880.21
5040.85
5107.7
5680.75
4339.61
3949.58
2169.87
7326.71
8203.29
11773.3
12210.9
12471.3
13236.4
13544.5
18133.7
15330.6
16404.5
13513.2
18127.6
14357.5
9727.41
10285
12081.1
8533.89
6132.72
8010.45
7425.25
5976.31
4292.91
6959.21
7690.35
8360.05
6609.09
5717.01
8288.72
7256.31
6540.03
6971.81
3202.11
5594.56
5851.28
6231.8
6401.05
3549.16
6817.13
9817.67
7095.25
9414.21
11765.6
12911.6
15145.9
13530.7
15176.4
16888.9
14327.1
13136.2
14091.1
12813.2
15175
15361.6
17537.4
10896.4
10419.6
16053.9
20863.5
22785.2
25747.7
25657.4
26674.7
29407.6
30505.7
28075.9
27335.1
27378.1
22414.8
24274.1
22189.3
24943.4
24591.3
22710.5
23272.6
22749.3
24701
21411.4
18153.5
17212.7
15534
14376.8
17473.9
20078.9
14478.8
14106.9
11164.2
15637
13678.5
17396.3
15510.5
13774.8
12259.8
11102.2
13465.6
13209.2
13741.6
20395.3
25413
24976.2
24359.1
29793.5
29992.4
24684.6
23512.1
21052.3
19570.3
24060.3
20640.5
17943
16325.4
17142.9
15074.4
13508.6
14402.8
18602.3
24001.2
27795.3
25977.5
28877.2
28708.7
28460.9
30404
26106.2
19834.7
18383.2
22588.5
20850.8
21138.8
19343.6
19946.3
17628
15625.3
16746.6
18965.9
18738.1
21982.2
18970.2
17616.2
15513
18057.8
18570.6
17864.1
16383.8
15848
14449.7
17598.7
13891.7
17218.4
14640.4
15296.9
16404.6
17952.4
21407.9
20954.1
21097.4
22780.8
24098.9
22098.1
26092.7
19401.7
25380.5
23131.1
28405.5
34904.1
33649
29940.3
33083.6
32265.8
32501.6
32298.9
25255.8
23102.7
21030.8
20976
23548.5
28810.8
26841.2
20617.6
18560
16426
16728
16367.9
21818.7
21683.3
21035.4
19352.5
18374
17775.9
23825.2
24676.2
24812
23624.9
23058.7
24886.2
29666.6
32183.7
33898.7
29329.2
30904.4
34167.8
37482.2
40984.2
40095.7
38718.8
32762.6
33833.6
38608.1
36652.2
40536
42652.9
40177.3
37889.3
30268.4
33531.5
31995.1
34233.7
33006.3
37466.4
41993.9
44150
43048.5
40857.6
43041.6
47026.4
52253.2
63453.5
68181
59059.4
50411.3
51240
58869.3
60518.5
51031.1
53315.4
56003.9
55390.3
53698.5
51713.7
47945.4
48348.3
51624.9
56345.9
51582
51837.6
49516.8
52273.5
48607.2
47236.6
42639.3
40541.6
35980.8
37657.7
38084.3
36520.9
36353
31968
30092.5
27931.6
27370.7
22119.4
24361.8
25899.5
28898.9
30630.9
25560.7
27056.3
24284.2
23505.1
20599.1
20222.4
15146.2
13466.4
15976.4
17613.9
15490.6
13935.9
11966.7
15773
12698.1
12638.7
15344.6
17191
17756.1
20282.5
19561.5
23698.5
20589.3
20648.5
23153.2
18758.6
19657.8
18113
21743.1
28598
19578.2
18217.3
22785.1
27582.8
29939.2
34474.6
31807
30577.6
29262.3
24783.3
26751.9
21255.7
19074.9
17698.6
16368
18594.2
15533.7
16404.8
17910.9
19228.9
12574.5
14373.8
15853.8
15735.9
21896.5
24951.5
24915.9
24270.2
29019.4
30870.5
31172.6
28081.5
27507.8
26344.9
23461.1
28234.8
24211.6
22222.2
18030.9
26483.4
18873.5
13808.5
10339.6
12850.1
10609.6
10620.3
12522.4
10445.3
15990.3
20499.2
20733.5
23162.7
23971.7
18540.2
18774.5
20926
20593.5
19403.2
25802.8
15411.3
17808.7
15635.8
17951.2
19212.4
22563.1
24205
26797.4
32105.6
36485.3
31110.7
36850.2
43540.7
52413.8
53814.7
65217.1
73673.4
80716.9
77100
82060.3
83382
78153.5
83122
79874.4
81870
86784.8
98118.3
104558
95933.5
86539.5
85108.1
83136.5
73590.9
74732.5
80043.8
77893
73951.9
78168.4
74628.3
84491
90989
95558.4
100002
97595
93987.7
91260.6
89515.9
87489
79760.1
76057.6
75533.8
67999.9
72807.1
60783.6
57316
62455.7
62450.4
69074.8
74719
79073.1
61274.1
67139.1
70500.4
64181.8
52826.3
51894.3
53485.7
45824.6
42447.8
47144.8
47187.6
54870.8
49835.7
57565.6
58295.4
54840.1
57588.4
52612.5
49420.2
50197.1
60022.3
59782.1
60816.7
56469.2
47487
48572.9
51552.1
46739.2
48596.3
55147.6
60340.3
65503.3
49660.9
46013.7
39064
43154.2
37969.9
50338.1
52598.3
46614
46713.6
47488.8
46744.5
45803.1
44302.5
43350.1
42927.5
41930.8
48340.8
50679.3
51345.1
59857.3
73490.8
59979.2
63837.4
59516.9
63273.4
64625.2
66213.7
54634.2
52954.4
61913.4
57579.5
56214
57704.2
57700.5
62900.9
54027.3
62381.2
56286.6
51406.4
53009.7
58414.5
61972.4
61345
60727.9
64277.4
64245.4
72849.9
73118.7
71692.1
74379.9
65210.4
65169.8
69630.6
73812.2
74516.4
78313.7
80616.1
89001.7
94210.1
90790.6
99177.7
98243.1
100102
101317
108089
103240
112132
110076
106890
108591
98144.1
84840.8
78288.9
76730.1
72466.6
74398.5
80364.9
73532.6
69366.8
76816.9
81017.9
73408.9
79320.8
73005.1
63539.4
63821.2
70223.3
68339.5
76695.2
65811.7
66416
64006.1
61079.7
67058.9
65136.8
66577.7
62197.3
49787.1
56297.6
55940.8
59055.1
61564.1
51056.6
52480.7
51999.1
51365.6
49542.1
48893.2
49600.1
50377.5
52098.4
54019.6
47293.1
46814.7
36209.3
37116.5
44483.1
43347.1
47279.7
50702.6
53595.4
60005.1
57833.5
67347.9
66944.7
77750.5
76563.1
77983
75949.1
80532.9
66783.1
76630.2
78552.6
74659.4
65965.7
57404.1
55022.3
51795.7
57365.7
61069.2
63882.3
58479.6
62076.2
65538.4
62409.9
62119.2
60727.8
61303.8
66594.3
66971.6
64552.4
71705
59182.5
63144.2
58718.8
58509.2
61321.2
72366.9
73908.8
79469.1
73667.1
72350.3
72373
72832.7
71872.8
72362
67964.5
58083.6
54230.8
50192.2
48561.6
47465.3
41261.4
42798.8
37201.7
32896.3
31989.3
30732.7
37911.2
33381.7
33506.5
34773.4
36185.6
38403
33868.1
36106.7
37726.3
43134
34943.1
35962.1
32845.9
35139.6
36887
45537.8
47016.6
49012.4
52100.9
60457.1
60645.6
64846.6
72808.7
78631.5
75845.3
72181.3
74623.2
63375.1
69652.9
78400.3
89986.8
99845.6
98664.1
113650
109811
110244
122732
126866
125330
117691
133388
126468
136371
138172
136456
134306
115601
127486
138599
139291
142682
141774
136448
144727
159066
160898
164181
169677
168447
153055
147494
147910
151381
148516
141526
127298
138576
128928
133678
130429
124720
129744
125956
124890
114345
114359
109558
109159
115239
113228
123057
140965
134653
140238
135502
132780
128717
125516
125406
130040
124831
117287
118178
121839
108285
102292
109068
97557.3
97402.6
87626.8
79806.4
79215.1
76920.7
68053.6
67243.5
61622.5
57282.7
57580.6
63312.3
61270.6
63422.5
70475.1
81100.3
81117.6
84440
80252.5
88960
88977.1
85719.5
91646.3
83574
88082.7
86423.4
88594.4
96200.1
88222.8
84725.4
88048
91314.4
96527.6
91922.2
94490.6
88019.7
88655.3
86506
92090.8
98174.7
101241
95265.9
89314.7
85529.7
95643.9
94918.8
87959.2
94946.3
96419.2
89191.2
79883.7
75187.3
75948.4
68286.6
70653
73354.6
62495.5
59804.1
65959
60906
59213.3
63530.3
68577
71016.7
69557.5
60777.1
46981.7
45997.2
46476.6
57665.1
49395.4
43648.7
39175
35794.7
29437
30519.6
31095.9
32347.8
32108.9
34682.9
35610.8
33982.5
35745.9
32833.5
38912.7
37312.4
41618
39080.5
39868.8
35440.3
27748.5
31840.2
28573.1
29631
31641.4
32335.3
30201.2
33980
34769.9
37927.2
37208.9
33640
33858.5
36894.4
34244.5
32208
29654.8
30281.2
27606.1
23156.2
24403.4
29332.9
24165.4
25838.5
28972
29096.2
30638.5
41205.9
32266.4
32313.1
25306.4
22965.8
24800.1
27081.5
26467.6
27091.7
21551.5
20345.5
24273.9
29189.1
31706.1
30001.5
26657
30282.5
36346.3
42266.7
45455.1
47473.1
47506.9
44912.1
44598.8
36656.1
30753.3
27670.2
29287.7
30637.9
30218.9
24871.5
24768.3
22872.5
19906.1
18947.7
17229.4
15683.8
15033.4
14318.3
9705.58
7051.23
6666.75
6239.31
5638.56
4449.94
4791.26
3148.58
5256.07
6449.23
5393.3
6796.62
9571.73
6338.65
8623.19
8755.17
11867.9
10667.1
9849.81
9318.15
6892.46
8279.12
6961.56
7899.13
8436.76
8040.43
7535.72
5762.44
5830.26
3659.49
4227.43
2589.21
2182.69
2177.66
3192.99
3359.45
4762.97
5864.14
10651
10549.2
10062.6
8767.75
11964.7
14141.7
10964.3
8706.12
9793.76
9966.81
10165.7
10231.1
10720.8
5412.55
5424.72
6510.51
6608.3
4512.04
4054.14
3892.51
3882.06
2307.52
3539.76
2879.26
5128.46
3720.14
5317.56
4551.55
1268.77
3515.34
3691.88
3740.01
5429.56
5833.32
9800.46
13122.1
13852.2
16993.7
16925.2
16859.9
16750.3
16280.5
12376.1
9846.07
3095.78
1421.09
5093.46
4994.83
9174.38
6902.41
7797.18
12142.8
10203.6
14603.7
13014.3
14026.5
22786
23639
27622.4
25123.4
29953.2
29408.3
26354.2
20556.2
15666.4
22598.6
26018
27631.9
24121.9
21730.6
13902.7
13907.5
12583.7
17237.2
19014.1
23319.6
24437.2
23197.7
19496
18038.8
19677.8
19385.4
25879.9
27117
20742.5
20982.9
24700.1
30408
34563.2
28942.9
33981.8
37611.3
31762.2
31239.7
30650.7
28975.5
28040.1
31379.9
31504.9
25869.6
27334.7
28395.6
25573.3
20237.3
22467.7
15647.3
15669.4
12575.3
9567.91
10695
16648.2
19888.3
17511
16738.6
16388.5
13941.5
10168.5
13885.4
17341.8
16157
20116.8
21114.3
21989.5
20699.8
18178
20941.2
22955
21381.1
25993.1
22112
21705.2
19992.6
20365.6
21145.3
23318.4
18822.8
11259.2
10379.6
10491.6
12411.5
13053.3
13104
12118.5
11279
6913.62
8628.78
9431.06
9861.28
8839.06
9339.86
10374.9
10454.2
10243.3
12049.1
9528.68
5290.29
5340.93
3527.01
1937.46
2015.75
1743.62
-586.046
588.597
2143.75
2244.35
2857.45
2446.24
554.441
1822.29
1788.06
2264.51
2030.85
2774.67
5089.25
4015.75
4516.47
4137.68
4391.26
3547.54
6011.72
9933.22
11599.7
14602.2
10035.3
8485.08
8641.84
8943.72
11487.1
10592.4
10955.6
10780.4
9941.79
8238.93
8074.36
6944.14
4472.36
5735.19
7215.03
6884.1
6713.83
7016.7
5643.17
7142.76
4831.33
5788.82
4406.31
4123.4
7961.65
8997.49
6368.46
7829.34
8818.76
6569.75
6054.34
4480.47
5346.59
1699.72
2342.43
909.903
1569.12
1488.56
2600.72
4000.67
2955.58
4045.23
7045.53
8911.63
7565.3
6271.63
7800.76
8630.01
8113.48
11824.8
9629.05
10245.3
9148.9
12244.5
10538.9
11029.1
14137.4
11082.9
8966.05
10369.9
13342.3
16339
13336.6
10706.8
9894.08
10519
8478.68
11096.6
11720.4
13197.5
12107.9
13905
16752.6
13476.3
12183.4
13266
14761
17411.7
17045.3
19654.9
16655.3
16906
17206
21555.5
18266.2
15591.5
18031.8
21410.2
16421
13293.5
17146.6
15691.8
17731.3
17473.1
20338.9
18509.1
18068.8
16702.9
17479.7
14910.7
14471.7
11995.5
10920.5
12369.2
7473.94
7387.1
6492.37
6427.97
7874.63
9534.59
8966.28
4171.81
3103.87
3582.64
5943.18
3669.93
3696.38
3304
4470.03
3774.35
2838.45
2779.88
3106.81
2471.01
4093.14
3337.22
3027.53
3714.33
3872.31
4405.53
4489.31
3385.41
4580.56
6951.68
4667.82
2672.32
4590.56
3990.11
4269.45
4192.26
1741.69
3061.06
5898
6253.42
5164.76
4422.44
2178.2
4772
2254.77
1636.38
-2991.86
-1498.29
902.764
1755.83
2560.57
2117.59
583.372
2452.74
7651.01
8943.86
8387.56
6071.57
5702
4283.65
6638.88
7641.22
6990.99
6940.78
4072.75
3642.43
3699.08
5237.48
5292.66
4830.12
5274.54
4251.6
6786.1
9374.07
9556.21
7495.66
8315.91
10666.9
12936.6
13102
14031.9
12200.6
13585.6
13232
16179.8
15355.4
16255.9
14950.5
15569.5
13026.4
13232.6
12454.6
8938.75
12071.1
11773.9
10432
9331.24
9634.44
10311.8
10079.9
7367.08
5982.03
5526.99
6601.47
6176.91
5304.32
3014.33
3667.25
5367.52
8841
8662.13
10601.9
8808.45
6247.98
5325.33
5898.92
9984.87
12397.9
17339.1
18093.5
14165.6
12314.7
14585.3
15246.9
18902
17538.3
16925
13683.8
16797
14361.1
15951
12995.4
15150.4
14263.2
11157.5
11519.3
12931
9275.03
13963.7
12791.7
12850.6
11471.8
14451.2
13956.8
14673
16979.4
14837.7
12433.5
13509.8
15043.8
16227.3
19719.2
18434.4
17906.7
19152.9
17575.3
20133.2
17229.2
15128.8
12278.2
20065.2
21478.5
25094.4
30814.9
32945.8
31109.6
32254.8
36315.6
39346.6
34741.8
32076.6
35330.5
42120.1
42531.9
45411.7
44662.5
46514.9
52339.3
50118.1
57093.9
57105.8
51005.2
47091.2
46467.2
41870.2
42872.7
49957.7
51083.4
49410.1
45459.8
49189.4
47089
41038.5
39609.9
38563.2
48606
56876
62349.8
68308.8
66635.9
69285.7
61795.7
73396.1
75502.9
71676.5
65286.3
71181.4
73853.6
65614.4
73927.9
70291.9
72605
79324.5
78421.4
83966.2
96035.1
95054.7
104443
103041
90927.2
81263.4
78138.1
72261.2
74054.6
78700
77277.6
75851.2
72559.8
67093.4
60990.8
67675.7
71632.7
68788.8
70330.3
71672.1
68925.7
73896
76093.3
78655.1
72204.5
84794.2
89143.5
87627.6
84049
88752.8
93336.5
87775.6
91550.1
93766
96719.9
95448.7
82221.4
80350.2
76177.8
77355.4
83851.1
87500.6
80574.4
83030.1
83743.3
72620.7
69492.2
57940.7
54339.3
52810.1
51871.3
45148
49153.6
48584.9
47501.8
49444.6
47878.7
45079.2
40405.1
41941.1
48147.4
53430.3
58094.8
52920.1
60016.5
63511
63977.2
59407.8
55860.4
54621
53182.8
57967.8
60459.2
57080.9
49570.6
49524.8
38497.3
38024.7
40078.1
36907.8
35775.8
32492.7
21692.8
17251.8
15203.4
16423.8
11239.5
10909.9
6782.72
8433.38
12143.2
12050.9
13615.6
15546.1
16589.9
15668.3
17400.5
13398.5
14246.8
12117.5
8863.69
8273.77
6483.41
5898.51
4508.81
6721.91
5788.36
3581.88
4288.69
2700.55
5235.25
6998.38
6616.98
7342.4
6665.03
4849.76
6494.28
5539.07
4680.75
3075.77
5837.02
8888.22
8576.6
10411.1
11645.9
10552.7
9004.41
11106.6
11938
10795.3
8614.85
10726.5
12028.9
11866.4
14100.2
13086.5
14973.1
16105.7
18094.9
23622.7
23551.7
22483.1
21714.7
20435
21121.6
19782.8
19841.2
19176.6
15406
12537.7
6541.19
10709.3
13845.1
17323.1
15576.3
12215.5
9386.15
10348.6
7089.24
11895
10063.4
14086.5
13460.3
11736.6
11032.5
6844.58
5262.85
6539.69
7484.86
6925.96
6118.02
6318.53
5634.85
5491.53
3109.47
2917.94
3435.75
5586.79
6513.5
7157.56
7711
6451.84
5247.77
5977.45
5647
3013.09
1098.87
1959.16
4321.82
5582.41
4749.91
4704.76
5131.18
7002.31
7627.9
9970.6
10322.4
8458.16
6232.37
4243.05
4310.94
4881.83
7558.76
4257.29
4739.03
7907.02
4053.82
4255.02
2147.23
734.637
501.68
1229.93
2105.48
2428.34
3218
967.254
1902.93
1107.45
188.912
1238.58
2051.74
2401.31
3674.44
5676.95
5730.35
4919.04
4473.43
9341.79
7667.77
8587.72
8886.09
8760.75
11323.6
14537.2
14255.3
21848.4
25873.4
26261.1
26432.3
23497.2
17759.7
18374.3
20461.4
24454.1
24905.1
20365.4
19443.6
18232
19351.8
20633.9
17849.9
15301.4
13369.9
12874.7
10552.5
10171.5
14291.4
13512.7
13138.2
17645.3
16494.1
18129.1
17744
17673.4
21962
22536.7
24390
21808.4
24077.6
25516.2
28652.2
29008.5
35830.9
35778.1
35865.8
39674
40068.4
34123.4
27683.5
26863.9
26955.6
31271.2
26872.7
28406.8
25926.4
25752.8
19976.5
20188.5
17029.9
17262.8
16140.3
18255.2
19353.1
21595.3
21718.5
23046.4
23635.9
23480.4
26029.3
28906.5
33265.4
35651
29323.4
33873.2
34026.6
34661.7
27607.2
31643.2
37282.4
30740.6
31638.2
32502.9
35118.1
35458.1
36189.7
33659.3
31854.3
30216.6
32988
27358.7
28780
28776.8
25914.6
26085.6
26203.9
26111.3
24540.4
24118
20578.1
14440
14471.3
16938.1
24644.6
23182.3
21296.1
15595.7
13579.2
11754.6
14109.1
16409.4
17918.8
16171.1
23461.6
26804.1
23594.6
24051.3
19002.2
25172.7
25445.2
18675.7
16983.9
18580.5
18799
19520.4
26019
28586.2
27808.7
23060.2
21114
20321.3
15896.1
17716.7
14472.1
17658.3
23777
26452.7
28739.8
32216.6
38658.5
46115.6
45798.5
51400.8
46355
50902.5
51011.3
54333
47884.4
47543.7
48287.2
53477.8
45489.7
49164.8
48202.5
43636.8
42051.6
48904.9
48903.6
46487.1
42740
45786.6
50337
39826.8
36288.8
38474.7
37742.4
29068.2
27497.3
23290
20201.8
22884.2
17515
18377.4
16832.9
17325
16658.4
17615.4
17389.8
19149.4
17673.6
15414.3
22234.9
20924.7
22011.4
22839.9
18357
16003.2
16955.7
11285.5
9292.61
13777.3
21942.1
22469.4
23330.6
21096.7
26545.6
35977.2
31765.4
30319.1
43343.9
39662.9
44756.6
45115.7
47430.2
46754.2
40520.6
36366.5
39935.3
40634.6
37021.9
35389.3
38216
44911.3
44227.6
46525.7
49468.3
45983.8
42072.9
34061.1
34925.8
35491.1
29981.8
33636.7
27628.5
27819.7
33254.3
36488
35786.7
31686.7
32953.7
30683.9
27166.8
26709.6
30984.7
29998.3
22506.4
20656.8
18545.3
18448.5
14860.5
9980.47
10926.5
12415.7
13926.2
12456.4
12080
13273.3
13743.5
16625.4
14709.8
13690.3
13292.4
15621.6
12476.9
15213
15082.9
18825.3
11746.5
15100.2
15002.9
13662.4
17981.5
15444.9
18429
18996.2
15405.9
13690.2
15926
14477.9
19368.4
17820.3
24024.1
23617.6
25573.8
26964.2
30022.1
30539.5
36240.8
37805.1
40491
38654.5
35446.8
34612.9
30768.1
32330.6
32061.4
37320.9
29130.1
25669.5
22734.4
21382.2
23121.6
21668.5
19757.2
16268.7
14831.2
12346.9
11244.5
14063.6
14092.7
13949.6
13006.1
14064.4
13052.2
20031.1
25066.7
26741.6
28958
29737.5
28966.7
33194.8
30809.5
29691.9
37116
35817.7
31569.8
34017.2
24869.6
20192.6
25494
23756.7
20371.7
18232.7
19367.5
26644.6
25389.6
26340
25745.9
21667.1
23477.2
21642.4
23946.5
27338.2
34208
41525.4
40631.2
39322.9
41215.3
39247.6
33112
34452.1
35048.1
44352.9
37397.3
34632.5
31964.8
36046.6
43126.9
56997.1
48230.2
45748
46587.3
42040.7
48432.9
46644.8
46025.3
46388.1
37870.4
34098.7
31485.3
27309.9
28690
26270.6
27305.2
32692.5
35088.2
36633.6
38775.3
44749.2
46641.1
37670.7
45417.1
49529.7
48071.9
51605.7
48423.4
48490
48057.9
52008.7
51973.8
56689.7
53475.8
53255.2
50581.2
54973.9
54391.2
44877
48004.9
44923.7
40320.9
58161.1
57000.3
62693.8
60097.3
60417.8
61352.3
60324.1
59730.6
71604.5
69893.1
64939
61820.2
63515.9
58279.1
54240.6
51695.4
49063.9
60134.4
51709.3
61044.2
64887.4
69508.7
72933.6
80351
84518.5
93779
95280.2
97280.5
105382
116029
126826
130515
132422
124097
132258
128355
124871
126651
124162
118689
118825
120259
120067
113950
116445
119282
116134
117203
107555
104450
108812
96868.5
105552
115872
108901
106826
98948.1
89710.3
93451.3
85960.2
88547.8
83562.8
82214.3
70272.6
64711.4
60923.3
69673.8
72029.1
73483.7
69513.9
75060.8
65543.1
61072.9
67741.6
67424.5
70498.9
70614.9
68532.8
65869.3
66497
71794.5
68458.3
64978.5
66030.9
69338.4
64040.1
77384.2
88488.9
89851.8
96368.3
89871.8
97256.3
105240
96672.7
96659.6
97907.6
108347
111491
113403
117386
122951
113757
114270
108632
108633
107171
101224
86744.6
89360.6
89193.3
100586
102207
102186
102253
96514.9
96976.4
94924
98615.5
94286.1
97072.7
93274.6
93180.7
87749.5
79820.9
85181.4
85474.8
76701.5
71283.8
64572.1
70011.1
65143
65305.4
67928.2
77084.7
77697.8
82492.3
85854.1
85079.8
77460.1
76326.2
74444.6
64750.4
70573.9
75554.1
67031
70662.7
69238.8
64473.3
67229.2
59594.7
51381.1
48023.1
49679.1
43652.3
48108.3
47336.1
54958.4
54216.8
66296.2
59838.3
54471.4
58349.5
60155.5
58326.8
65784.8
58915.6
59358.6
56938.8
53398.4
53985
56778.5
54981.3
52676.9
52083
47632.9
49303.5
51501.9
55856.6
56901.7
52663.1
54412.4
52334.6
50381.2
53495.9
57143.3
56328.9
55627.6
54211.9
59664.9
66327.2
63251.2
64329.5
68622.8
68053.6
68063.9
67418.9
71926.9
78881.3
81944.8
76963.6
78710.9
75583.4
83499
77111.4
79458.3
71470.3
60396.8
59418.1
67239.5
71211.4
68912.9
69978.7
75378.2
79279.9
76775.1
77399.7
75451.2
86728
85880.8
85611.9
73346.1
69581.3
67496.4
65804.3
56936.5
56698.1
60848.6
59403
72348.7
70402.9
67686.8
66329.4
66668.4
69418.5
62189.2
61641.1
61214.4
60065.3
53674.8
56140.1
57726.1
53288.7
55439
50895.1
45327.9
54895.3
49952.2
52026.2
52549.1
54112.3
51277.3
46703.1
50681.7
57772.5
61218.9
68784.5
75535.8
81143.9
77957.9
80566.1
94218.9
101739
100225
101833
103768
105998
114986
105586
90923.9
92449.4
86594.9
85730.6
87081.8
84967.8
79592.3
74995.4
71846.3
72083.7
81744.3
88142.8
70997.6
61361.2
48845.4
52793.6
52067.7
47613.7
55662.6
51421.8
48473.5
44259.7
43747
39803.3
36670.6
43370.2
41169.8
35776.8
32215.4
36074.1
32030.9
34225.9
35183.5
35703.5
32855
30895.9
31431.5
34948.5
33706.5
34283.4
34507.9
36699.1
34514
38761.2
46123.8
39651
36762.5
31489.4
28475.5
28169.5
33359
32535.1
25860.5
27926.6
24328
27588.1
31545.5
29802.7
32687.6
32859
29941.5
33282.9
35538.1
44019.2
48552.9
46992.8
47700.5
60082.9
64270
61739.2
56327.4
57805
57950
68650.4
69591
71971.8
70344.7
76494.3
60042.3
63945.1
51670.5
45752.6
49433.8
52756.8
56941.2
56484.5
54790.3
52957.2
54295.8
48142.5
52474.3
54204.4
59106.1
57460.5
57106.3
55951.4
47157.3
42373.4
52507.5
56112.3
54622.5
54669.8
54828.1
51366.1
56741.8
51675
48880.2
40230.7
43529.7
41522.2
31241.5
31614.5
32328.3
33510.4
26690.3
29912.5
34171.3
35948.8
43798
38768.5
42149.2
46613.6
42995.5
50625.2
44098.2
41296.6
35348.9
36235.3
33424.3
34776.9
33378
31456.5
30973.8
23877
21988.7
23255.4
23194.1
23240.3
22118.8
23172.4
25878.4
27604
21520.4
23189.6
23902.1
24658.1
28165.1
27432.6
24872
28243.9
33677
37145
32848.4
35674.3
29397.3
36294.9
39572.6
31007
37399.7
40992.4
44402.4
39383.9
29516
27731.7
26991.7
29687.9
29088.9
24640.3
24608.3
20287.2
21352.3
28527.8
25240.5
27656.4
24374
25921.8
25259.5
17407
19693
20040.6
22969.2
20257.5
22282
19823
15521.4
14953.5
17072.3
13824.4
12236.8
11053.5
12839.5
10338.8
15222.7
12445.6
12787
12906.3
18071.2
23686.2
18732.2
20170.7
17883.4
18753.5
17962.7
19230.9
19881.1
21800.6
18401.3
14352.4
14222.7
18913.2
24581.5
30648.6
36797.1
31199.6
33415.5
40147.8
41210.2
34568.3
33140.5
37315.6
36436.3
34079.4
34537.8
35497.4
39136.4
40331
43989.5
41448.9
40636.5
33325.2
38334.4
41476.8
45126.4
45032.5
46779.7
41145.3
40289.9
38217
37802.7
34713.7
30611.1
25740
19816.4
21581.3
22056.2
21809.7
24102.3
22850.6
18745.8
21307
14418.1
12478.7
12346.3
12062
10850.2
15990.7
20396
24425.4
21860.4
27603.6
31362.2
29382.9
20110.9
16869.3
15401.9
15587
12803.2
16084.2
18890.7
18156.5
15945.4
11141.9
14107.5
13335.4
15956.2
12213.9
15205.6
15264.5
15063.3
17390.3
21450.9
19546.1
20193.2
18355.2
19956.7
16667.9
17054.7
10572.4
14527
17320.8
16977.1
16388
18625.2
15740.9
20773.6
22666.6
19828.2
18753.7
18569.6
23179.5
23812.7
20534
19613.8
20924.5
21487.1
22024.2
16097.5
16658.1
18180
21785.6
25028.3
24910
23134.7
22327.2
19866.2
22233.3
17140.1
19333.1
16838.8
16025
17120.9
18318.6
17437.8
14436.8
15119.8
15355.7
19102.2
18349.1
15613.4
15110.5
15750.6
13112.9
11726.2
8608.46
11266.1
9899.67
13080.8
14092.7
11980.2
13417.2
11569.4
11650.3
18151.9
18311
20636.4
21004.3
18140.5
19958.5
19839.9
19897
18027.5
12763.6
15861.3
13829.1
14285.9
12057.5
13790.2
8902
7207.76
9854.95
8059.4
9597.27
10897.2
13273.3
17596
16498
18311.5
17971.1
24388.1
30320.6
33255.7
26429.4
25097.6
19092.8
18075.6
16061.8
13368.2
16264
18220.8
19169.5
24601.8
25001.7
29127.6
22288
28705.2
37295.7
37696.8
32545.7
29262.1
30246.2
26994.6
29176.8
29712.8
26566.9
20561.2
13483.3
9522.05
9821.13
9483.4
6308.58
6733.74
5205.29
5398.56
6097.26
4486.84
5990.55
5820.4
6671.89
7255.69
6862.05
6078.7
6299.04
10324.5
11438.8
9571.9
9481.02
11060.9
10396.6
10727.7
8500.09
9031.78
8882.47
7963.96
10076.6
12781
14293.2
17568.1
14566.1
16092.4
16680.1
16621.7
17660.1
15463
10913.2
11761.5
8506.66
9253.71
8403.41
9377.52
10010.5
10562
10196.5
9290.3
7743.91
5910.55
5011.55
2941.3
1134.12
829.451
805.289
-375.9
-1011.85
-890.819
-2092.85
-2468.81
-831.607
-3177.94
-1365.65
-609.751
1705.08
3010.04
5219.55
6178.03
7867.05
5271.59
5082.05
7201.62
4404.72
3263.91
4493.41
4753.07
3699.93
2734.8
3358.3
2153.46
1511.49
336.189
1461.44
-1615.97
-1297.46
2585.05
517.449
487.959
-336.305
-161.288
21.697
894.782
3116.02
4001.44
2551.13
1640.81
2075.28
2538.03
3750.38
2717.83
3876.45
4096.68
3941.58
4930.08
5574.14
3935.31
4115.52
5374.35
4662.99
5047.55
4886.76
3212.7
1945.53
1307.92
5577.03
4615.86
5376.85
2665.05
2942.37
2315.3
4578.09
3619.95
3927.92
1474.55
2909.67
1924.88
4598.27
6189.2
3369.51
975.805
6284.81
6566.07
7511.58
8783.72
8416.67
7709.39
8784.41
9544.54
15276.7
19351.1
18131.6
19897.5
19885.9
20754.8
26297.4
26226.7
18562.2
19071.2
17237.3
21325.4
20228.3
27597.2
30394
31580.6
36340.4
34595.1
35452
40740.9
39470.8
41208.2
42746.6
40625.2
39683.4
43042.9
39120.3
43516.7
46499.2
49221
45176.9
41853.2
40737.2
39797.7
39140.7
35360.5
36047.8
30118.2
31698.4
35677.3
34459.6
31593.1
34489.3
34229.9
38971.6
38785.7
38449.2
40192.4
38832.3
41114
39406.6
39699.7
38208.7
42911.9
35115.7
31558.5
37809.3
43456.1
45301.4
46680.4
42468.8
39407.7
39760.6
35769.9
31965.8
30240.9
24539
23093.4
20731.9
21478.1
23916.6
28835.3
24807.8
23482.9
29386.3
29260.9
29706.9
29175.6
33231.1
30846.1
32811.8
38687.5
38968.3
33518.2
31442.3
30689.8
29103.6
24971.6
21531.4
24128.1
25173.4
25266.2
29293
34999.2
32209.7
27378.7
22784.3
21130.6
17303.7
19284.1
20548.1
23498.4
27169.2
30552.4
31553.4
35456.7
31948.7
30209.8
27926.7
29004.9
28466.7
21539.2
21414.7
20720.4
15377.9
13417.3
14845.5
17795.6
17672.9
17749.5
16160.9
17916.2
18658.6
20302
21509.7
19197.9
18624.9
21297.6
21787.7
19657.5
18561.8
16748.1
16467.5
20375.9
19109.6
18087.8
21733.5
26863.9
26429.9
24372.3
24834.3
21404.2
21725.3
23409.7
23197.3
23753.9
21792.6
14441.6
12518.1
12185.3
8908.25
10062.4
11742.1
9893.77
8930.1
10697.5
11312.2
10435.3
6991.04
3204.02
2850.6
300.286
-407.231
562.579
870.728
-667.294
-1466.15
-753.833
-2746.26
-2461.23
-2569.35
-1197.5
-216.301
803.595
1062.81
3238.84
1812.68
5703.51
5939.58
4390.52
1731.91
2207.92
1512.69
259.979
1570.22
2457.31
1980.03
4712.41
5419.28
3520.05
2951.12
2466.35
501.576
-475.994
2562.83
-285.538
-2113.08
-2203.83
-1318.78
-354.539
2439.5
2662.84
1891.91
1983.06
3574
1946.14
1936.49
2022.52
1953.22
2861.76
1587.19
1155.18
745.719
1431.22
1134.52
475.609
179.526
2106.34
2303.9
1077.46
349.702
276.542
-105.201
462.131
2671.07
3301.81
2576.02
1053.51
2975.99
1477.71
-22.8334
1582.47
2343.31
1883.1
2855.21
2114.36
3511.95
2696.62
1757.35
283.385
1811.34
2750.58
2300.46
3050.87
5189.91
5289.61
5908.8
3298.48
2526.81
1863.5
4301.57
5973.88
5223.55
8600.65
14377.2
13593
14166.7
11731.9
11919.4
11582
11868.9
10729.6
10027.7
8360.3
9129.22
6142.61
5161.07
2814.3
2245.35
4141.3
6486.44
5753.46
9704.17
5925.31
4118.06
2557.57
7740.89
12209.3
12978.5
13468.4
17564.4
21277.1
15646.9
16936.1
13099.9
19630.6
16188.8
18721.9
20648.5
21043.8
17911.9
17163.6
15429.7
14015.6
16535
19209
17406.6
19856.7
16947.4
19814.3
17486
13481.8
14809.3
16187.2
15654.9
11413.8
11994.4
14250.2
14153
14933.9
13075.9
10972.1
10794.3
9898.69
8726.32
8189.58
8600.53
7108.29
10025
9447.24
10359.3
9511.52
9340.03
10155
8964.43
11079.5
11827
10065
10853.3
12361.1
15775.9
12246.8
9795.13
8908.69
9400.09
7333.02
5501.62
5570.19
4584.85
5177.21
5186.53
3327.2
5025.62
4598.27
4229.06
3995.83
5949.12
4163.05
1909.47
2366.44
2053.54
2537.01
1609.56
5032.79
2620.34
2848.42
2471.03
1179.45
1974.55
1469.89
2547.22
1272.22
336.987
1757.3
1025.32
334.194
434.369
-114.939
1214.67
2955.39
4467.75
5443.49
2533.75
4643.81
5124.16
4859.98
2573.61
2391.89
2955.99
1177.04
3023.94
4488.9
2595.61
1645.58
1240.93
-319.331
467.606
1279.41
37.1027
-535.307
78.0129
525.649
-1348.93
-1950.19
-1622.03
-323.368
-658.727
120.979
4163.34
7656.79
9421.19
7746.5
6454.39
6621.25
8033.1
5838.15
5300.18
3908.08
3231.9
1960.24
1174.92
3070.49
7162.46
9218.97
6973.68
6365.09
13902.4
13421.6
12392
11583.2
10629.3
16925.2
16438.1
13556
14226.7
14057.8
12411.3
10728.3
10305.9
11377.1
11805.3
11386.2
9927.4
10090.2
11092.7
12461.9
10742.4
7400.79
10360.9
7150.48
6023.07
5255.67
5502.76
6940.93
10248.2
8489.09
6077.28
10714.5
12632
13909.9
13905.2
16647
16375.6
15443.3
18115.7
19557.5
18215.5
18383.9
19571.8
17389.2
24590.2
27364.1
31301.9
30030.4
34643.7
45544.7
41822.9
38131.6
37451.8
39443.8
39593.3
39653.1
42754.8
43885.1
50320.9
55374.5
61439.8
61975.3
60457
53790.3
46364.8
40341.5
42612.6
48048
48758.6
49529.3
49734.7
55901.1
63149.8
65374.1
57891.1
56762.2
57793.7
53355.6
51543.3
53831
53706.3
50024.2
40093.3
38767.7
34068.6
28612.4
32385.8
35202.1
34839.4
38601.8
29016.7
29793.2
26226.6
26468.6
26553.8
31423.1
36193.7
38719.3
44986.9
41228.5
36402.3
39211.9
40382.4
37100.5
29452.7
29239.5
32306.5
29941.6
25028.4
23578.5
24475.5
27192.4
25009.4
32889
27444
32404.3
27302
32039.6
31283.4
30229.7
36147.1
41724.6
35796
38786.7
43547.6
36539.5
28241.6
29687.8
24878.6
22853.1
24328.5
28659.9
29535.5
29877
30205.9
28197.8
25311.5
26676.2
29745
29107.9
26470.6
22149.8
21599
19339.6
19489.4
19320.2
18312.6
17389.4
18630.6
16549.1
14324.7
12955.2
12143.2
21008.7
21557.6
28412.5
34585
29085.4
28577.1
19121.9
23044.7
19208.1
10694
9936.45
12035.9
14436.1
12400.2
9506.69
9796.23
14851.4
14670.8
16005
21131.7
25510.5
22940
26196
24132
22836.5
27579
27607.3
26674.7
23424.7
28452.4
24782.7
27874.5
28442.1
31304.6
31558.3
27200.8
24155.6
26745.1
24873.4
24682.6
23272.3
26752.9
34209.1
29986
31108.3
33529.3
34031.3
34727.4
35309.6
28303.9
28737.2
33153.7
35034.2
30521.9
26173.8
28787
21740.7
26992.9
22615.1
22400.6
18915.5
16632.6
16634.3
20140.8
19962.4
22244.3
16730
17454.9
22778.3
22864.8
24276.5
26026.6
27240.5
27353.6
23800.6
20833.7
23516.1
24813.2
29224.9
29847.8
21510.5
15257.5
13063.9
14473.9
17956.2
22092.1
24992.5
22310.2
20374
18123.8
19053.7
18070.7
18803
18056.7
14707.9
19581.4
17852.9
15982.7
12511.4
10637.2
10841.6
11494.7
15305.1
14150.5
14787.5
11175.2
11854.7
10483.2
11797
10717.9
10423.4
11283.1
13712.7
14399.8
13241.2
10793.9
9480.42
12664.1
16627.7
24224.1
21682.5
22357.9
27067.5
26717.4
27338.5
25842
28316.9
26607.1
25471.9
25761
23150.4
25531.4
26411.6
24287.8
24396
23771.2
22245.7
23629.6
21436.5
24352.9
23036.2
17303.2
16757
17561.9
15335.6
15071.1
13702.6
14723.8
14594.9
15177.3
14203.6
10530.8
10593.6
16376.4
17043.4
17033.6
15011.2
19103.8
17443.6
17855.5
15471.1
17240.2
14259.2
19575.9
15654.5
13901.6
17082.1
14834.7
14991.5
19837
20221.7
24214.9
29392
29151.4
27082.9
27086
29294.1
24030.2
22398.8
20292.2
19833.9
17029
18850.4
24611
23447.1
24278.1
15658
19927.6
19608.2
19560.2
18515.7
15844.1
10769.1
7882.45
4725.96
4737.47
4588.37
6849.85
8792.17
8946.36
8206.28
7788.52
5650.82
5027
2971.61
3750.6
5908.38
3998.48
4298.35
2098.16
5048.16
2988.77
5001.23
4473.45
4811.66
4200.92
-1220.62
-385.416
-2159.85
-3096.47
-2878.94
965.476
2253.91
5071.25
9594.71
9476.95
8060.12
10200.7
10347.7
10954.1
10254.2
12068.7
11789
10685.7
13366.2
15850.8
19072.9
19184.8
14914.5
18013.3
12361.2
11969.5
12090
7400.65
11893.1
10753.8
8805.69
9400.6
10210.6
12041.4
12162.6
9829.72
6430.71
6817.57
6871.47
6898.63
7707.74
5052.66
4189.68
5532.12
2401.93
3228.26
5640.48
3337.29
3423.37
4383.09
4114.2
6688.53
5032.53
1933.95
3096.79
2388.19
1215.18
-539.613
-74.9386
500.017
-391.259
-335.047
-956.334
-2808.5
-1764.62
-361.336
-10.0851
-897.955
-394.183
383.371
186.932
-864.431
-1173.44
-536.264
120.684
-394.129
-469.06
403.785
1617.17
6294.7
6252.71
7283.74
6267.53
7740.49
5376.45
4149.42
4090.2
3557.64
2856.39
6435.12
5063.64
2527.75
4084.81
7129.01
5253.85
5445.05
3029.78
4281.19
3872.24
7575.2
6479.54
5745.82
4973.72
3450.91
2471.06
1454.43
69.7251
-1135.56
-788.375
1978.25
611.403
2079.28
380.45
1550.53
-330.525
-3723.55
-3544.21
-4488.66
-1866.19
-783.833
202.052
-1816.64
-186.792
4477.9
9128.62
6534.59
6704.4
4563.12
6625.57
8249.05
7408.04
9213.55
9694.41
9275.79
9993.53
11108.5
9076.65
10041.9
9625.1
9051.21
7599.5
10679.1
10385
12261.7
13589.2
9418.49
5892.6
9465.62
14674.4
15333.3
18574.7
18889
18076.7
9567.19
8434.68
6263.86
4351.38
6264.17
5880.01
9137.17
12101.2
11490.8
8355.64
10735.8
8079.96
9122.35
6818.29
6833.63
7622.46
6622.21
6716.71
3167.41
4987.21
6786.44
9698.73
7514.32
9190.07
7208.88
6413.11
6946.69
4249.11
4223.72
7090.41
6903.56
6829.41
10492.9
11089
12789.8
17956.1
13122.4
13934.3
12620.4
14342.5
9093.45
6328.02
5752.63
7618.01
9754.08
13303.5
14140
16170.4
16486.1
16620.2
15844.8
13122.9
9390.65
14367.7
11047.1
15041.8
16870.3
16031.6
13527.5
12752.3
16849.9
16789.2
20684.3
19237.8
25455
23090.9
28492
31777.6
27116.9
29604.3
33126.2
45924.4
39674.3
42005.7
43483.6
45267.5
43682.5
39002.2
43115.8
34014
36941.5
33322.7
29624.7
29133.8
30149.2
25639.4
27626.7
30514.2
29064.1
29533.5
31501.6
26982.6
26429.4
25175.6
21691.6
21537.1
20628.6
17385.7
14287.9
11112.4
7398.81
8632.58
10383.2
9826.61
7191.45
9139.77
9138.81
8067.88
8288.36
7638.66
9373.42
7607.54
12134.4
9537.63
11173.3
15195.7
13469.7
13653.2
14750.6
19940.9
15980.6
18556.5
23116.2
19851.7
16480.7
19702.2
24129.8
26081.9
21352.3
20271.4
17421.8
14638.6
16984.1
17990.2
19718.9
14313.1
15517.9
16052.5
24103.9
29253.9
23909.7
20290.8
19762.2
15004.6
21761.2
20493.6
26004.5
24303
21394
23282.9
23969.4
23716.5
27374.9
28778.3
32569.7
33480.7
36034.9
40908.8
39422.3
41153.4
37222.1
34463.3
40996.7
40761.2
37904.2
40877.7
47446.9
45410.4
46842.8
41190
40545
49907.4
47639.2
37741.8
44585.7
42975.1
41106.9
39478.7
36791.1
30149.6
34582.1
40636.9
39153.3
41394.6
38553.2
44036.7
45856.2
42916.2
46039.2
46225.4
44659.3
56019.6
61702.2
70945.5
68418.1
60528.1
60428.8
71722.9
73152.4
70911.7
81439.6
80156.8
80118.9
90603.5
89857.8
93378.9
90531.2
94735.4
96206.5
91181.1
95578.2
104553
94639.5
100014
83602.4
85337.4
87835.8
89582
83511.6
75991.7
71009.3
62622.8
62070.4
65668
62266.7
61512.5
54992.6
51889.2
59670.1
74340.1
74817.7
78231.6
70257.1
66300.5
64007.1
57180.8
55985.4
59838.7
62305.2
70170.5
78403.8
68181.5
71525.7
70400.4
69454.6
63941.7
62373.8
48994.7
44931.4
38410.9
36995.3
31128.8
35509.2
30747.5
29341.3
19567.8
22721.4
24832.3
24750.5
31787.8
39840.5
44906.4
44302.5
45951.1
51091.7
50493.2
53672.2
56779.8
61876
55148.8
63495.3
66108.9
61641.3
65958.3
65504
78489.9
88665.7
97339.5
108958
112740
112617
112252
108047
107592
101540
105123
115182
124160
140653
139131
132048
130158
125949
128092
128958
116065
111043
114764
113218
118943
113706
105257
106781
104414
105861
104061
103188
107707
108190
108058
104202
110351
120314
124707
117856
101771
107805
108185
117934
115100
117936
102688
98788.2
101632
98548.1
99887.7
94351.2
95464.2
98611.6
93259.7
99792.4
96127.2
93371
88480.8
95246.9
96135.4
90052.5
106687
109434
114803
105864
106730
102694
104860
92170.1
91891.7
83369.7
81479.1
76013.3
72916.3
78085.6
72896.3
75565.1
73957.2
73322
77852.9
75087.3
77431.1
75225
87409.9
89580.8
111803
124012
117336
113368
120185
109658
117026
126269
131164
133265
134587
125231
126642
116479
105303
108911
114553
114421
127146
135915
135086
140504
138614
141883
141991
143890
141609
147073
139771
136837
136770
144252
132852
146594
138883
135891
149391
153247
161483
162603
163491
158513
170926
169651
180307
189160
193325
193306
183364
189460
198936
197797
190818
199561
211154
211683
211681
212573
220140
212870
214609
200550
219551
214058
220834
230007
234007
230336
222718
226047
212109
193923
199308
204531
207522
216370
214559
219635
221206
235442
239903
234683
250188
268870
263263
271183
285312
271541
277452
287585
286420
282503
275113
282350
293317
302907
285562
272492
286383
266352
270795
272153
259334
250489
251661
238755
260270
266815
269018
261557
262302
251204
235154
225120
226240
223077
217750
218082
226758
213032
203017
208545
192967
181640
175904
180747
188003
176027
156817
159698
148681
153248
136259
143538
132506
115490
111192
122483
123651
121086
119193
116650
115719
109974
107807
107986
117639
118355
106306
111833
113018
120431
113791
109653
113701
111459
116615
122606
115120
101353
104874
98935
88721
90785.7
87094.2
77473.4
78452.6
80754.1
78884
83944.1
79878.3
77368.6
70901.5
74962.6
81809.8
85622.3
85419
89583.4
91667.2
92071.5
91235
90941.4
90551.4
92594.1
94481.9
95611.5
91153.6
91813.8
91910.9
85712.1
93505.7
101038
96968.4
84972.7
82325.8
76749.1
82916
86644.5
82723.9
82222.5
87085.2
82279.3
76513.2
74423.2
71293.9
76116.8
79857.7
71547.4
72704.2
68562
82186
73014.7
69171.2
74589.4
87634.3
90772.7
102416
98105.8
102472
103949
95892.8
95819.5
93587.7
112453
109577
104815
114234
119690
115987
111798
116426
116996
109163
109164
100638
112006
109739
108057
107430
110929
111753
108737
96068.5
90005.3
99245.6
102909
99855
100511
95591.2
85508.6
71038.8
71047.2
72940.7
73923.7
72668.1
68172.8
70739.5
63408.7
64762.1
67844.8
73864.6
56999.3
58448.9
63101.8
64490.1
71632.3
83463.8
79771
78609.3
78084.7
81116.5
83022.7
85550.9
74825.4
81180.8
85820.7
78513.8
77669.4
89447.3
85406.5
91509.9
91726.7
90607.5
98053.7
89182.8
108726
105086
94286
91173.8
115028
103668
107123
107294
113515
119716
122599
126810
110606
103972
88841.1
85616.5
87966.2
80621.6
73413.9
78285
81200
80789.6
84488.5
81508.2
79261.6
83978.4
101801
112702
112106
107014
107744
103519
115389
117176
118730
116742
116755
114090
112941
114230
101401
95324.5
93822.2
92136.7
101601
100238
110088
104261
113365
119034
123034
126680
125499
125157
122674
120530
134515
122386
121192
129477
127320
130181
132642
135627
154190
149565
131414
141453
150279
148904
152451
152218
146763
146001
141214
137040
136981
131138
137258
127645
127503
126937
128329
132094
130083
135723
126657
119102
108538
107236
132264
135038
143165
143202
145675
130242
132698
124163
121356
131017
128297
127743
119355
118882
126779
132067
137210
125671
120012
109973
109600
106308
115903
106694
116840
123172
128986
139486
136109
135591
143754
142087
153926
138332
137486
129936
132659
126171
132546
134232
135526
133759
136172
146774
149013
153403
155763
158613
156751
142810
137388
134877
139374
149013
157400
156756
152161
170231
157300
146510
150775
142207
138412
143250
146978
143261
134763
131753
134352
122470
118641
119659
120960
125403
128217
128129
131517
134090
127764
128002
126341
123868
126576
130219
121890
119308
113696
114952
126007
133896
131412
138350
140741
144429
140763
128410
124802
126883
123339
112645
111631
115723
106579
106075
97665.6
93612.1
95306.1
97875.5
107602
110395
109947
119816
111822
103418
102816
98623.1
94893.3
94752.7
91761.6
90282.6
91597.5
92501.8
89220.9
86953.8
102961
102091
110009
123279
124569
112617
107707
120409
121471
124729
129227
123074
129938
130642
120082
113113
106298
113703
106154
100875
113066
120473
109603
116410
138647
145340
154859
155815
168254
163250
159331
158365
157227
161235
154972
161622
170906
172567
165343
158167
149048
145605
134326
130019
132835
123180
132438
143485
134051
132203
127491
132838
134903
137913
129360
128652
140844
122898
119184
124337
124671
123967
117977
125763
105990
108514
110003
114141
121497
134736
134201
135926
147987
141194
146241
144752
142601
147237
141312
141611
139978
127723
135516
136254
138592
127889
125338
128146
134999
127054
127771
124566
111302
102065
114081
102808
92999.7
105854
103664
103367
107224
111153
112759
120741
125770
112482
109435
109240
115325
131621
118088
109963
113830
117894
117113
120809
113396
112213
109737
112501
108892
118037
122684
130680
135305
133257
120885
133701
128810
138009
130061
134483
140432
152030
150277
146207
131441
122495
122577
118862
109555
109285
108596
121615
122209
113841
110710
109553
118040
109885
115024
122712
121099
117237
114621
117235
120506
117087
113731
120460
121334
121269
129971
129884
127817
132777
137759
140496
137429
131716
125584
127611
123231
117769
127275
130920
121982
147626
152092
153964
160463
157389
152466
146506
147144
141080
136204
127560
116510
116674
102781
117398
114099
114036
101639
99257.9
112481
113289
104839
117272
123124
126663
138029
140122
148322
150108
154199
144795
147402
135351
136488
137612
131369
137887
137205
138853
130421
129420
114817
112982
111143
114085
106401
