235.456
-123.989
-618.948
-602.291
-946.726
-3076.73
-2219
-2139.81
-3326.99
-3736
-4277.53
-4004.76
-5901.93
-5103.11
-3842.73
-3944.45
-2842.13
-498.243
-278.691
-958.565
-372.796
506.043
-1764.11
697.682
798.006
-1673.24
1228.35
4312.75
2510.86
2465.72
1680.88
2764.08
1872.44
2115.63
2390.19
793.893
-1204.52
-175.966
1050.43
718.982
616.964
-663.629
-1278.72
-1414.47
-3289.76
-4856.31
-3407.1
-2133.27
-3558.73
-3200.41
-1549.97
-593.787
791.103
441.326
1903.99
2839.55
4419.55
1719.09
2822.31
1628.98
-977.809
-2803.55
33.4847
-1299.78
450.426
300.632
-475.845
-887.74
-990.106
-418.528
-151.08
-616.355
547.833
-930.362
44.1072
-588.043
379.307
-1038.59
-3062.31
-5766.94
-6631.39
-7233.74
-7543.92
-8245.66
-4108.01
-1408.74
-1206.69
-2166.42
-2097.8
-4085.36
-7060.32
-8012.79
-11347.7
-14008.5
-10058.3
-11604.6
-6445.94
-8736.31
-9666.6
-12181.6
-9506.85
-9182.47
-11634
-8700.47
-9127.44
-6229.9
-2767.09
-5977.01
-11458
-10177.8
-11834
-10893.6
-7975.62
-7671.57
-2430.28
495.129
-400.664
3148.76
4046.49
2719.78
2857.28
4207.41
2488.41
-617.938
-932.844
-2530.25
-4294.42
-5583.52
-7195.36
-7325.85
-8483
-6363.53
-3627.15
-1478.03
-7384.26
-8483.65
-10477.6
-3473.78
-2806.95
-454.321
-79.8138
5126.96
4881.61
4112.92
6190.52
9180.71
12234.5
10732.2
7905.78
4203.5
373.909
-2517.42
-3399.15
-7758.93
-6415.58
-6507.82
-7362.83
-7297.6
-5430.32
2152.96
3587.32
2258.27
3455.39
2475.36
2647.1
5634.64
6857.04
8523.49
8506.2
5609.29
7615.95
6810.08
4640.81
4949.34
2102.9
-1053.88
-3866.95
-4322.06
-1058.44
-930.691
2718.38
5177.72
6709.35
8980.38
12281.5
13077.8
13435.2
14336.5
16268.9
15407
12581
12040.8
12435.8
12644.1
14653.9
16335.6
15330.3
13594.7
12001.2
10197.5
14399.7
17938
24652.7
23649.6
24545.3
28728.8
28677.7
25523.8
23028.5
24467.7
20293.6
18040.9
13235.6
11736.7
12113.7
11154.4
8445.75
5185.48
47.9027
-2669.45
2183.94
248.057
16.5444
3607.37
5145.65
8395.42
6503.11
10419.4
7732.87
13340.7
15885.9
17327.5
16392.2
15477.3
13354.8
13988.2
14830.9
13061.2
14008.7
22195.2
27478.9
27326.7
26187.1
31711.9
32391.3
27533.2
27028.4
24412.3
22084.1
25469.2
22680.7
20431.9
22929
25695.2
20852.9
20238.8
19599.8
22375
27933.9
29744
31116.3
29523.2
26242.6
25405
23500.8
20053.5
17118
14647.6
18015.3
17169.5
14905.2
9194.36
7316.47
10908
10802.6
11160.7
14410.4
11681.5
15876.1
18592.4
17799.7
15592
17822.5
16312.3
13368.8
13499.9
10983.8
9791.75
15956.8
15929.8
20533.5
17620.1
16517.5
18037.2
18839.2
23071.3
21379.8
20467.8
22471.2
23306.2
22169.2
26009.7
20183.4
25913.4
22942.6
28693.3
29425.6
21031.8
14991.9
16768.9
16567.1
19990.1
19144.4
18462.7
18339.8
22589.1
20897.7
23563.9
25931.8
21189.5
16419.7
18650.7
12945.5
13186.3
10734.5
7113.83
9258.81
4130.62
-894.821
-4189.58
-3161.61
-8078.27
-1753.25
1498.35
2775.27
-1914.36
-2348.29
-7211.67
-3146.76
-6677.21
-961.769
-746.929
-459.999
3125.06
6152.77
6818.6
7254.28
4395.84
4493.85
8208.79
8370.82
5842.18
-3456.35
1095.88
1878.14
-775.674
3497.49
3725.69
9545.39
6573.78
5497.7
-1200.45
-6710.06
-15270.6
-18767.8
-18335.5
-17522.1
-6474.68
-729.506
-3040.04
-5252.86
-54.9342
-6707.07
-11712
-12158.3
-9276.5
-5914.88
-13656
-13957.6
-8144.34
-5891.01
-7395.94
-5399.15
-1220.66
5.25579
-1180.23
-10254.5
-11063.6
-16174.8
-13644.1
-5664.55
-3131.53
-3831.03
4374.22
4373.1
8564.1
2706.21
2017.59
8978.92
15171.1
15926.2
17683.4
19452.4
25195.5
22853.8
27719
26367.6
21351.9
25027.7
20936.2
19548.9
19053.7
26111.5
22281.7
24005.8
25805.7
25915.9
26351.9
23665.6
23432.1
22336.9
22378.2
22282.4
27798.2
27478
28527
31827.6
29098.2
31468.4
29028.5
32385
42516.3
39339.8
34959.5
30426.7
34544.6
36206.6
27208.8
27494.6
31151.9
39583.8
40269.4
49301.3
49054.4
50561.4
46500.8
42091.4
39360.3
33535.9
29873.4
27764.7
26517.4
26206.9
19763.1
20598.7
20914.5
24613
22187.9
26660.6
29192.8
28827.9
40929.2
35746.2
37658.5
35433.7
42763.1
38484.3
40740.7
37261.8
28818.1
28479.5
24763.1
27776.4
24702.8
24484.7
21303.7
31039
22503.3
17653.8
13734.8
14319.8
12473.8
13360.2
14337.4
10728.1
16472.3
18949.6
20709.3
22427.7
21901.6
16787.1
17374.9
21146.9
24392
24409.5
24348.3
16403.2
17675.7
17705.6
19170.8
21100.7
26811.4
27529.6
28959.2
35390.7
41236
33236.2
36993.5
41148.3
51926.6
51283
62831.2
68162.9
77264.6
67719.8
74215.8
78358.3
72561.1
77123
77515.5
78227.1
83467.4
94382.2
100723
91385.1
83155.3
81068.1
83209.8
74345.8
75212.6
80650.4
79859.4
75370
77327.9
74803.2
85053.6
90623.6
92833.8
96493.6
95532.5
92296.7
89003.7
87318.9
86044.9
78975.9
77354.2
77092.9
67792.8
69582.7
54744.5
54123
62513.6
64001.1
69382.1
75396.3
80031.5
61943.9
67205.5
71200
65663.6
55142.8
53408.3
53974.8
46661.5
42287.3
45430.9
44064.2
52349.9
49413.1
56816.8
56283.3
49156.3
50786
47595.5
45222.3
43985.5
57497.5
55520.5
54391.1
48444.3
37047.9
36166
38558.4
35023
36843.9
40542.3
46788
49837.6
37674.6
29540.9
28369.2
31720.6
26092
37554.5
38391.8
36068.2
38064.3
42589.1
41149.4
37232.1
39939.8
38197.2
38706.9
41977.7
49216.7
50429
48727.5
57834.2
74079
59094.4
63711.2
57540
61137.7
62616
65160.3
53439.4
49739.8
57988.4
53343.2
52158.3
52609.2
51743.3
52868.3
46096.8
55676.6
50440.3
47271.3
51151.1
56453.4
58240.6
54094.2
53188
55637.8
64523.8
76531.7
77528.5
74091.1
75911
65949.2
66217.6
72587.8
75838.6
74439.4
78628.1
81626.3
89578.3
93609
89959.5
98945.1
99107.9
103009
102627
107306
105430
114405
111473
106961
110625
101869
87975.3
80170.8
78316.5
75590.2
74731.6
81404.4
73436.6
67418.2
73490.6
78508.6
72992.7
77930.4
71959.5
63719.3
62773.1
70738.8
68530
77527.3
67365.4
68040.5
66012.8
62543.8
65124.3
62414.4
66013.4
62575.7
51725.2
59581.5
58765.3
60501.6
58362.4
52271.7
51194.1
47531.4
48923.3
49447.9
47076.2
44020.5
46059
46022.3
49653.6
41764.5
41280
30941.9
31048.6
39685.7
39548.2
43041.2
44528.3
43938.8
44160.5
41135
45359.7
36157.1
46023.9
52802.6
56244.2
55346.6
55381
40554.2
40813.5
52779.1
56822.6
48507.8
42714.9
45405.4
41034.3
52308.9
51936.3
61789.6
53383.9
52911.7
61358.4
56278.6
52910.9
54273.8
56472.4
63175.1
61554.3
60769.9
69419.7
56355.7
60788.3
55251.8
57996.3
58617.9
66972.8
67136
70640.6
63816.1
59622.9
60175.6
61627.6
58422.5
62166.8
67043
55669
47001.2
45158.4
41174.6
38228.2
31591.7
34853.5
30673.9
23519.5
17660
21361.8
19071
16614.1
15109.3
10951.3
19429.5
21692.6
20154.9
21543.2
25395.5
33360
24663.8
26065.5
26790.1
26601.6
27014.2
34350.4
39734.2
44146.3
47141.8
52307.2
54706.9
51774.7
61301.7
66946.9
61283.2
64185.5
70119.6
61915.1
71536
69463
84763.2
93679
89989
101172
93801.6
101209
115113
113092
113476
104774
128753
127047
134519
140585
141526
135487
112591
117455
126369
128867
130933
123509
120570
134291
144733
145642
152153
153612
136770
121772
107659
114173
125890
128984
118479
100251
108925
108084
114382
108701
105828
117344
106614
103619
96272.5
93157.8
88958.4
91209.3
95506.6
96114.7
107006
117597
117456
124191
121409
117882
114014
109648
107005
111222
107495
100030
101176
108854
100654
92148
97875.4
87526.2
92721.7
84694.7
78119.2
78428.3
74617.1
69273.2
68588.1
62027.6
56174
53551.3
56345.7
55015.3
55850.4
60695.8
68516.1
67817.6
74063.6
63514.5
72271.1
71544.1
71919.1
73420.9
65035
67939.7
71194.9
72197.8
81742.6
69224.1
60221
62380.6
63223.8
67417.5
65580.7
76504.3
70875.8
70440.8
63476
68051.3
73456.7
74805.8
77890.2
75608.5
65727.7
73694.1
70797.2
66644.1
77954.6
76277.8
69728
66145
65755.5
69794.8
58871.2
61540.4
62532.2
47459.9
43858.7
47045.1
39598.3
46188
48771
56243.6
58218.7
51900.9
44228.3
34272.9
33649.4
38398.5
46243.1
28644.7
22406.4
21411.9
20335.3
12623.4
17021.2
17559.6
17128.2
15826.8
11515.5
5568.39
2087.42
4989.32
3215.17
10731.5
7790.53
5110.01
5293.62
447.86
-2448.77
710.068
-5361.41
-5853.1
4578.89
1553.58
256.653
-6707.44
-6221.28
-10089.3
-4007.16
4656.25
521.89
383.362
-831.77
5121.41
2407.07
6520.71
12398.3
12209.1
10545.5
11764.3
15940.7
12204.4
13683.3
20760.8
23087.4
21076.6
32638.1
26665.7
21167.8
21399
21080.2
21133.5
18044.6
15762.1
13792.1
9337.61
9201.01
15409.8
25213.7
26985.4
23536.9
18644.6
20391.8
22997.9
27521.3
26172.5
27056.2
26400.9
27000.9
29792.7
27356.7
24734.6
20253.6
18689.9
20575.7
18237.5
13178.2
14400.3
17522.3
15679.9
16403.1
16410.7
11122.5
8909.17
6651.78
8287.15
4337.08
3086.91
2326.24
3856.43
3666.7
6402.09
4855.71
3816.45
3880.09
1261.55
1256.16
-261.284
-4870.5
-3063.36
-4191.15
-7834.39
-9531.77
-9838.96
-9841.97
-11445
-12607.3
-11111.5
-13240.4
-12904.5
-14392.7
-13770.7
-9426.13
-10682.4
-5786.57
-6397.17
-4183.17
-2125.53
-2261.58
-414.4
-4196.69
-2114.8
-1709.77
2144.72
4830.94
4897.62
4796.18
7633.07
8824.95
6425.55
7033.35
6506.89
6037.99
3209.62
4202.86
4260.04
1643.41
340.718
-2345.19
-1899.51
-4246.29
-7122
-4708.94
-5155.49
-5112.51
-6567.44
-2914.84
-3213.84
-567.753
296.812
-24.2818
644.544
4774.19
4711.72
5917.05
4293.72
4345.31
6573.08
10925.6
6974.84
6656.74
-2609.84
-1767.67
-697.327
-3055.77
-4838.39
-1634.78
-2386.73
-887.383
2078.67
-676.648
4159.93
1117.28
3862.03
3403.38
1082.04
1484.21
3597.93
9415.8
12595.7
9211.87
13724.8
10248.4
15375.3
14074.8
11168.4
2872.25
612.832
10116.5
13724.1
14129.3
11818.9
8883.54
2328.1
488.186
1870.05
3948.87
3331
10325.9
7337.99
9337.26
8375.48
5157.38
4816.42
7456.54
10020.6
12356.3
9975.78
11862.5
16976.5
23288.4
28279.2
23357.5
29095.7
32438.3
27129.2
28506.6
26780.1
27435.5
28107.9
31023.3
30581.3
26247.1
28226.5
29369.9
26260.8
21435.3
23912.9
18612.2
18630.9
16359.6
13638.8
12496.1
17280.2
20075.8
16824.2
15503.1
16188.6
13958.5
12435.2
16283.1
20907
20761.4
24524.2
25391.6
26710.6
23517.1
19918.2
17247
12007.1
14292.9
13149.4
8439.39
7352.29
2467.66
5313.42
3768.36
3288.83
2209.4
-6603.1
-3327.16
-6213.17
-6529.26
-9582.24
-8525.29
-7800.29
-5401.94
-4748.99
-8915.12
-11401
-10330.1
-12002.9
-12143.4
-7257.52
-9349.34
-6796.29
-14858.5
-10290.5
-8848.9
-10382.1
-7994.32
-7190.61
-4934.91
-4888.76
-2075.77
-2587.08
-4041.38
-2610.09
1454.86
35.6899
3979.44
4443.97
4461.09
2701.74
3299.58
-1008.16
-4272.95
-6846.4
-6097.25
-6766.01
-7127.87
-9735.93
-10381.8
-18009.7
-22046.1
-23001.4
-17092.4
-13895.2
-14294.5
-10222.8
-7742.46
-10635.7
-10798.4
-12621
-12852.8
-11135.7
-9202.22
-8448.57
-6397
-8328.33
-9196.56
-7654.22
-7931.62
-7898.64
-6365.1
-8408.65
-7052.87
-6776.14
-7823.21
-4509.26
-4813.49
-965.508
-1134.74
-3909.25
-2871.79
-22.4687
-652.658
468.073
48.7691
-1336.44
-562.142
-3963.41
-4196.85
-4890.24
-2389.79
-1045.37
-3294.7
-1758.78
607.897
3543.96
3412.6
7030.54
9727.38
9794.01
9171.44
15187.8
15085.8
12680.3
9731.1
7369.87
4537.22
8882.7
10384
10820.7
9457.12
6326.63
9367.97
7167.14
6216.76
4275.47
2728.81
-1986.45
-833.029
-119.342
-539.178
54.5491
-3325.91
1914.15
4357.41
3342.99
-3219.94
-7458.74
-6080.46
-11261.9
-7679.22
-7220.89
-5768.8
-3152.62
-1910.3
-217.228
-2894.8
-4691.98
-4355.43
-4190.1
-6544.53
-9113.81
-6659.83
-9369.86
-9005.2
-10393
-14813.2
-8024.93
-6896.81
-5597.99
-5516.85
-7929.93
-8922.48
-10701.3
-10071.5
-12036.2
-6569.82
-7976.61
-11071.3
-9559.16
-15405
-14647.4
-13552.3
-9646.53
-6983.98
-4806.45
-6714.94
-4250.01
-667.063
-3157.65
-6705.34
-5099.07
-7724.33
-7974.69
-6609.67
-5065.88
-7630.14
-9079.77
-7468.37
-10535.5
-9454.51
-11006.6
-10846.4
-7099.79
-6507.18
-10435.6
-8065.54
-5004.37
-4349.83
-4390.32
-5529.54
-3430.97
-3106.78
-3867.43
-3384.79
-5568.96
-5961.19
-2227.97
-1290.25
-675.095
359.352
-3427.16
-2554.63
-2333.38
-2076.07
-2444.79
-5967.31
-5714.54
-5950.46
-10451.6
-13376.3
-14492.5
-18801.5
-12876.8
-16003.6
-13469.6
-13925
-14046.7
-13479.6
-13320.3
-9596.74
-7799.98
-8372.47
-10540.4
-13155
-14410.6
-15552.6
-13645.4
-17512.5
-17845.8
-15184.4
-13560.3
-17802.6
-19078.2
-24125
-21814.2
-21572.6
-20319.4
-19108.4
-17710.6
-19223.4
-21047.8
-21772.7
-17938.1
-20153.9
-19366.3
-21387.7
-20435.6
-16847.5
-24488.5
-19017.3
-20697.2
-16326
-15865.3
-18396.4
-16144.4
-14305.5
-10130.9
-10282.8
-11307.6
-6381.38
-6460.13
-6146.87
-6415.48
-5944.47
-6361.78
-3417.75
-4843.94
-4916.98
-6756.2
-2708.39
-3203.01
-5988.6
-3450.35
-2345.32
-4269.92
-4827.89
-7338.52
-12473.9
-13050.7
-7180.55
-11176.8
-12897.2
-9290.94
-14413.1
-8702.61
-7145.17
-6059.72
-4575.67
-1981.38
-5708.71
-6008.7
-1418.19
-3370.46
-3015.5
-2709.91
-2703.05
-1394.1
-877.773
-744.866
3351.33
2266.05
7132.96
4811.86
9477.25
10790.4
8972.46
13872.4
12349.8
7383.54
8198.02
11346.1
14502.9
10939.1
10370.6
7177.03
10253.7
11486.8
14745.5
14351.7
15660.4
11024.3
16924.8
24410.6
34433.5
29712.9
28753.4
29832.3
32239
28561.3
33636.4
33038.9
33904.4
36452.2
35440.7
33709.9
38783.4
35665
30704.5
27699
27176.2
28343.3
33212
35910.9
36669.2
38620.4
40271.8
41560
38548.8
37034
33891.9
46153.4
53721.9
57561.5
64909
63118.8
60139.3
54434.2
67021.8
72689.6
68032.4
64546.4
71767.4
73956.2
64253.2
72420.5
68064
63533.3
71386.5
70911
75544.6
84211.8
83696.4
86942.5
87065.8
68851.6
60275.2
63723.6
60913.5
66423.7
70191.8
67773.8
63179.5
62664.5
58794.6
55076
58177.8
69223.5
61912.3
61698.8
64109.1
59694.7
61987.1
66766.1
66542.9
63310.4
69977.5
85185.2
84512
86352.6
86212.9
90498.3
88166.6
91919.3
93215
90784.5
92539.9
81782.1
80288.4
73878.6
74122.9
76452.9
84529.5
78313.6
79622.7
75161.2
69948.3
65311.1
58066.6
52213
52396.2
52631.7
42532.3
43666
45674
42728.9
45933.2
45379.4
42945.8
39719.5
40606
44980.4
52396.6
54004.1
50523.9
57425.6
57129.5
55510.7
53683.9
50590
47986.8
44283.2
42948.8
45436
36799.6
32280.9
29039.6
24696
27538.5
27733.4
24244.3
24452.2
21649.2
16794.7
7573.85
7738.86
8550.45
3592.63
3984.03
1503.59
928.531
3024.09
5512.1
5215.33
10258.9
9531.96
6224.54
7647.12
3321.73
-1050.44
-2133.71
-2013.26
-807.488
-1714.03
-766.058
-945.111
-2878.1
-1594.69
-3396.32
-1948.6
-4662.3
-2887.34
-4099.89
1387.11
-19.0351
1439.58
-2329.4
-699.989
1202.61
2697.42
-1081.91
-1914.09
-1420.41
-831.821
1619.76
3144.52
1904.63
-2217.4
-4570.15
-3899.24
-6443.84
-5552.88
-6783.23
-6197.75
-6486.72
-5828.3
-475.137
-509.187
-317.543
4125.37
11431.3
4159.82
8639.73
10111.4
2909.15
2990.41
6134.07
8704.34
10385.5
6761.67
9152.03
9755.84
6449.14
7276.7
5853.2
9069.65
6311.49
2703.14
-782.818
260.231
1466.46
-1646.34
-4505.52
-4207.8
-8297.87
-11379.8
-7469.81
-6425.12
-7026.86
-10160.6
-9858.91
-9046.94
-9473.1
-8955.73
-8986.93
-4123.13
-2495.15
-4148.06
-5797.43
-3450.67
-1924.09
-6614.87
-5370.32
-4620.08
-4476.01
-6691.08
-4355.74
-3163.27
-5820.9
-6602.47
-10364.7
-8865.57
-7493.38
-7536.12
-8503.66
-10671.3
-17412.5
-17020.7
-14346.2
-10350.3
-8791.5
-11067.5
-11879.8
-14290.6
-10039
-8641.69
-14991.6
-8180.66
-9253.58
-6596.6
-7825.18
-5764.14
-6566.04
-6453.27
-6544.34
-7215.83
-3237.42
-1556.32
318.429
935.994
811.658
1602.54
1897.82
4443.5
1349.17
-2432.46
-2796.71
-1447
-3070.8
-2428.23
-391.327
-329.853
843.22
2536.08
10460.6
13021.4
18972.9
22342.8
18540.1
16829.4
17426.6
12244.7
14078.4
12796.5
16003.7
13309.6
6895.53
4258.74
4732.32
4929.43
6799.69
5591.17
3345.22
3625.24
2391.13
3175.4
1701.45
-170.44
2800.11
7055.17
4456.98
6421.44
10194.2
8452.3
6084.45
4931.22
1225.08
4296.61
7608.85
5962.77
8394.12
9505.19
10436.5
14128.5
13190
13453
21027.4
25353.9
25523.2
20904.4
16354.8
14139
18284.6
7384.23
5170.02
5570.34
5900.1
3076.98
2727.99
1042.7
4808.52
3100.79
1693.2
-4306.28
-8772.21
-7164.37
-7575.91
-4780.45
-2750.79
3007.23
8692.51
8351.42
10282.8
5893.8
7713.26
9710.2
10737.4
5468.95
14123.4
14964.5
11692
9793.6
9519.24
13423
7156.68
7084.08
-2025.67
-3769.26
-4785.56
-1025.53
-6470
-8941.42
-1498.17
4804.71
238.948
1475.05
7568.27
7546.88
6973.36
4035.59
3678.62
9049.9
9440.21
11917.1
13655.3
10981
5826.51
7306.25
10224.4
9331.8
8977.68
12964.3
10855.9
16276.5
23480.5
21608.1
26028.3
22432
24660.4
24870.9
16823.7
15153.4
16909.1
17246.5
16135
22679
26333.2
25538.4
22687.5
21619.6
20057.5
17037.7
19258.3
17261.8
19330.5
24759.9
26080.7
27186.6
30254.7
32734.7
38876.1
37036.9
46756.6
38993.3
42356.3
44931
45705
44114.1
46445.7
47808.6
53353.9
42621.8
43662.4
42772
40265.4
39051.6
47229.5
49430
45547.8
41569.6
46547
51850.8
40073.2
37838.3
38218.5
37716.7
29323.7
27785.7
24799.2
21720.4
21682.1
16749.8
19568.4
18311.7
18458.8
18501
18102.5
19830.6
19325.7
16682.8
14134.7
20974.6
21339.2
22502.2
22816
17139.4
16539
17236.4
11073.9
9952.26
14503.5
21513.1
22111.8
24560.6
22068.9
28081.6
38687.4
35813.1
33742
45819.8
41975.9
46353.6
41724.1
46102.3
47756.6
41002
39732.4
42505.8
42205
36731.3
35561.3
38075.8
47159.1
44843.8
47252.5
48742.4
45102.2
43742.7
34875.3
36323.2
36758.8
32820.1
39199
32454.1
32411.5
35045.5
36232.8
34304.3
32049.6
33634.5
31586.3
23977.6
23273.1
31174.5
26160.6
20691.6
19370.1
18381.8
16656.5
15054.1
10792.9
11047.6
11184.5
12851.9
14955.1
13540.1
12449.8
15798
19805.6
17174.1
13392.7
14996
17016.7
13269.2
12445.1
15898.7
17874.5
11965.8
12505.6
14760.5
13048.5
18849
15892.1
18748
19475.6
14449.1
12388.2
12666.4
10123.2
15799.7
15581.2
20950.1
19958.7
23431.1
24555.8
29120.6
29175.8
30913.7
32185.1
37254.8
39156.8
34108.9
34233.7
30014.8
29088.6
32172.3
37713.7
29074.5
23355.4
21341.2
17659.9
18032.8
18994.5
17172.3
12093
12208.8
12669.3
11392.2
12302
11446.2
10246.3
8476.67
11563.7
10939.1
18942.4
25213.3
28129.8
31627.2
30428.9
28986.3
33795.9
31493.8
28270.4
35128
31536.9
28213.6
36283.9
29104.6
24203.8
28839.8
22838.8
21287.4
21376.1
23296
27525.1
23242.7
22499.4
23842.5
23398.5
27259.3
22818
23163.3
29134.9
33285.1
37896.6
35497.7
35651.6
37610.4
31758.2
26700.5
24217.7
23386.2
25772.8
21279.7
17469.5
22296.2
22035.3
31689.1
47060.1
42702.5
41835.1
40294.1
36613.6
35722.6
35591.4
35690.7
34136.1
29079.4
30078.9
32135.8
28494.1
30656
26781.8
29141.3
32290.9
34958.2
35090.2
39148.7
45658.3
44518
38509.6
45791.2
49564.9
48771.9
52688.1
48047.3
48227.1
48804.3
54017.1
53802.2
57710.6
55967.5
57027.3
54866.7
56755.4
58442.8
51647.9
54539
51858.8
48198.7
61621.7
55880.3
59735
58719.9
61734.2
64785
65726.3
67354.6
75854.4
72868.4
69380.1
63133.7
63425.9
57146.3
50218.1
49199.6
45724.7
53467.8
48272.5
57348.5
62327
68467.8
72465.6
80326.8
81166.8
94181.6
91777.8
95410.2
103820
113840
125304
127282
128055
115212
120547
119745
113942
119457
118164
118296
121985
122919
124420
118904
122579
124208
121375
119556
110487
108126
111550
97809
106644
114558
106473
104401
101666
92919.5
95318.1
91886.2
93632.1
87170.5
84789.3
73341.9
68216.6
67409.3
74821.4
80013.8
76870.2
71567.8
79502.7
67175.2
63879.3
68933.3
67496.1
70573.8
68558.1
68180
66364.7
71543.6
77603
78345.3
73721
71422
70982.8
66217.1
76287.4
84984
88604.9
91170.3
89835.7
95988.4
104331
97686.6
96232.6
99947.6
109854
114078
117956
118290
123605
111224
113256
106360
108730
106002
98314.8
84046.7
88015.2
88050.9
98127.1
99539.1
98141.3
99093.1
95133.4
97842.4
98245.9
101661
100491
102813
98931.5
97539.1
93905.4
84778
90184
89586.4
79654.7
71705.9
61515.8
65295.2
63177.7
61559.8
67044.1
75081
76302.5
81572.4
86201.1
85491.3
78342
76996.5
70290.8
62859.3
68625.9
72234.6
61143.4
61654
59886.3
56963.9
62921.2
56209.3
49240.7
43870.7
48089.9
39416.5
41598.4
42777.3
51878.9
49957.7
61020.1
56670.6
52481.2
55037.8
55230.6
56162.2
59247.9
50109.7
47789.5
47857
47296.2
46202.5
46227.3
43330.1
39675.8
40378.4
35003.3
42949
45520.2
50072.8
48085.7
39127.5
40233.4
37963.5
36728.2
36923.2
43078.3
36613.3
37560.9
34712.1
36984.3
41109.2
39860.2
37923.5
46766.5
48119.1
48579.5
45351.7
53435.5
61874
66520.1
62331.8
67702.5
57502.2
61072.1
56355.7
59548
49387.8
34028.1
33274.8
39790.7
41871.5
38323.5
39876.2
42437.3
47707.1
48835.4
52936.7
50711.9
61111.6
66085.2
67842
61037.8
62668.3
56777.6
52685.7
46653.5
43642.4
42242.9
41107.9
52539.9
46699.4
43271.6
36956.3
35004.7
36728.8
39144.1
39211.8
39925.8
40430
39121.5
40314.8
45622.1
42439.1
42191.8
42078.5
35784.5
36711.2
34320.3
32527.5
33855.6
23527.2
24186.2
9182.1
18712.2
27308.5
24540.8
30026
40321.8
48780.5
45489.1
51171.6
60625.2
61278.9
50366.2
49886
61874
70966.8
74363.2
62625
49080.3
50567.1
38007.2
43411
39190.4
36635.5
33497
43265.5
40043.1
47680.5
57991.4
55720.1
41349.4
32899.5
20642.3
22884.7
26293.9
27901.1
30376.7
34353.8
28813.2
25876.2
29496.8
23413.3
17503.5
27776.8
28981.9
21636.6
15780.6
22357.5
18660.2
17681.2
19956.6
23735.7
22112.5
26232.6
29292.7
29549.1
30068.6
31086.9
32096
35738.5
32382
34859
41754.9
32810
25090.3
24489
18310.3
19527.1
23686.1
23976.5
15326.4
18678.5
18418.2
13627.8
11480.7
12756.1
16426.6
22304.7
20159
24942.8
26674.2
33501
38918.9
34106.3
34020.5
42247.3
45086.6
38511.8
32780.4
34563.7
42373.9
47224.1
48257.3
48663.9
51326.9
60027.3
44978.5
49122.3
34195.6
26095.4
29354
36152.3
37694.2
39410
42815.2
42532.8
41196.8
39868.9
37141
40493.5
42838.1
46987
51900.7
45187.1
40704.3
35005.8
45455.5
49719.6
50179.2
51268.5
50218.6
50969.3
57628.1
52095.3
50236.9
40914.3
46523.5
46140.1
34865
35311.2
35672.3
36425.9
30244.3
33479.8
35096.5
35774.2
44174.8
39894
43621.2
45909.2
40359.4
45444.1
40656.7
34615.6
30350.2
36429.9
25010.1
21912.6
23599
22367.1
25486.1
23299.4
19344
22271.7
18223.9
19980.5
22770.4
24042.6
22801.8
24942.5
19323.3
20725.3
21788.1
24327.7
28146.6
26580.5
23268.4
22259.5
26914.1
31973.1
32634.9
35706.7
30980.3
39226.1
43612.5
34523.8
40141.6
41987
45219.1
40639.3
31225.3
31954.7
27160.8
29880.2
27419.2
24774.4
26856.4
22369.9
21426.4
25254.3
23544.6
26198.8
23581.6
26474.8
26301.2
17966.1
18936.7
20073.1
23043.8
19278.1
20322.9
17689.7
14761.6
13902.7
11925.9
8589.24
8790.9
5321.34
7008.96
6886.38
16400.4
14770.9
14998.5
14299.2
18298.7
23845.4
20194
19785.1
21427
20477.6
18660.8
20148
21314.7
23832.2
21149.3
15923.4
16194.3
19080.4
22779.1
28828.3
37132.8
30430
33783
40270.9
40220.2
33120.6
30534.7
31422.8
28578
25117.9
24421.1
23818.4
30979.7
32594.1
35856.4
32904.9
31889.3
27471.8
26797.1
28730.9
36967.4
39353.3
42707.6
39444.2
38601.3
36835.3
35722
35669.5
31532
25192.2
19276.9
23150.3
22277.1
22943.7
22928.3
21857.7
15582.4
13088.5
11613.2
9700.84
8649.93
7056.06
-44.7779
4089.48
453.863
2025.79
6775.19
8116.24
13364.3
8078.31
1736.93
3234.75
-794.467
1750.18
-2851.19
-2965.61
-6646.27
-8923
-7870.2
-6349.98
-2604.15
-5359.96
-5006.69
-7180.81
-2532.95
-1473.69
-6191.77
-8073.52
-9792.38
-9252.24
-4405.54
-7378.61
-10053.8
-8494.05
-6900.24
-6799.56
-8386.96
-9489.57
-6676.63
-7170.3
-1054.85
-1190.09
1281.9
1197.08
-932.602
63.9999
2388.73
2216.66
1012.41
-413.475
937.518
496.411
-1899.6
-17.1925
234.892
5974.84
2639.79
5167.33
5335.91
5411.24
-2387.71
-6121.12
-373.629
-2671.18
1503.6
-5881.75
-7037.97
-2194.62
-5844.84
-6745.42
-10137.8
-8783.86
-12104
-14044.1
-16792
-14484.1
-16898
-13409.8
-6103.94
1142.49
-1521.32
1833.1
-2924.93
-2382.07
-6719.56
-5287.54
-4314.27
-4220.71
-1849.26
-2294.95
-3117.27
1442.82
-4298.92
-195.32
7456.13
5342.16
3205.1
-289.288
997.098
-1694.23
1189.7
3697.34
6893.03
7237.78
10257.2
5864.82
3260.05
7018.07
6341.97
9282.95
11033.1
9270.72
16582.3
17269.1
19823.8
18263.2
20933.3
29090.8
33106.8
22982.5
23059.3
21033.4
22131.5
21152.5
22133.1
26119.3
27279.2
31469.6
32959.1
33162.6
39359.1
30806.2
33445.8
38157.8
38417.2
32408.4
27932.2
26696.3
21632
20670.5
19404.5
14091.6
11272.3
8400.36
3818.3
3251.92
3336.47
-772.885
-681.432
555.167
1697.1
-306.535
-1636.21
-4215.89
-8326.76
-10317.6
-10835.4
-9647.31
-6958.89
-11780.2
-14666.2
-11729.6
-9537.47
-12668.5
-12872.8
-13091.9
-16337.5
-12225.3
-11505.2
-12019.7
-11575.7
-11065.5
-13541.1
-19182.4
-24997.4
-20265.4
-19685.9
-21378.1
-18833.8
-24336.9
-21144.5
-14610
-11787.5
-9692.05
-12520.5
-12120.3
-14964.7
-13596.1
-12776
-12586
-10786.1
-8631.15
-4582.6
-7044.83
-5133.34
-4842.64
-4005.92
-2779.96
-1880.15
-73.5302
103.309
-755.968
-1637.7
-6131.74
-3555.6
-5016.51
-7445.38
-10646
-10559.6
-11218.2
-13503.4
-14734.6
-10377
-11604.3
-12468
-8393.85
-3374.55
-3197.42
-4993.08
-6170.67
-4698.87
-4607.7
-5921.17
-5750.68
-5197.82
-5889.73
-6971.93
-5886.48
-5863.37
-2869.52
-3479.3
-4484.2
-6103.01
-8244.59
-7840.81
-7201.14
-9597.53
-6383.77
-5774.85
-6149.78
-6882.94
-9118.47
-7639.99
-10349.3
-9025.95
-11787.5
-9128.86
-7915.11
-8635.4
-6831.05
-6047.19
-4274.14
-3743.63
-3946.16
-2434.43
-3117.98
-1224.56
1145.46
187.189
-1037.18
-896.409
-3208.1
-1699.04
-2254.78
-4506.46
-6969.04
-4869.4
-5101.76
-3088.79
-4570.59
-3891.16
-2185.15
759.939
2872.85
3672.35
4051.84
5982.11
4723.02
7082.04
5447.96
5967.29
8776.14
7048.53
2881.85
5135.4
9756
12711.4
18053.7
17467.2
16976.1
11574.9
5035.56
9219.21
6159.82
8130.39
10648.6
15160
17341.3
16645.8
17678.6
26166.6
21879.6
12663.3
11793.7
6422.12
6519.49
8880.39
3588.23
583.356
395.909
9507.3
10605.4
11784.2
-1222.3
-2099.05
1410.73
-6137.16
-3604.23
8498.07
8467.35
3177.3
5905.22
8848.78
10213.3
6337.56
14475.3
5410.97
2843.79
9999.39
9043.72
9413.72
5759.04
9620.4
13379.1
24164.8
22648.2
21211.6
21809.1
35578.9
29916.1
29395.5
20210.4
16602.6
19394.3
23502.6
19879.5
15735.4
12686
11729.1
9126.39
6656.58
12692.3
13749.2
11961.1
8044.72
13799.2
12694.1
13968.9
9709.7
9911.19
13166.6
7570.93
12025.5
15244.1
9353.57
4643.92
9982.39
5706.92
7963.91
3569.65
-4819.14
2416.16
1130.95
-562.164
199.646
2605.4
-3147.94
65.8137
8446.99
7340.32
11641.8
12014.4
16016.3
16390.2
17139.3
14069.7
16599.4
11781.1
13439.5
9271.07
2914.58
3889.3
5504.06
4246.22
7536.19
2934.97
-1205.35
37.9763
1293.43
3318.33
9180.29
9997.6
10594.7
11847.5
11983.6
15264.2
9486.89
7565.38
12744.4
16818.5
13101.7
12480.6
11455.1
12455.3
13964.1
14992.5
14545.3
19078.9
25392.4
24800.1
22799.1
22832.7
17025.5
17314.5
19539
16549.4
18489.1
14560.4
9340.08
13182.6
11468.9
11320.5
16055.1
14730
13219.7
9789.25
5953.69
8277.17
9668.61
7098.38
7808.9
9902.51
7517.68
7433.75
9543.28
7984.32
8050.5
8548.09
6273.12
9287.3
7841.14
7136.44
6848.78
3646.12
4119.81
2479.09
74.3733
-3039.78
-4600.35
-3094.3
-2662.17
-969.124
-2560.14
-975.767
-734.708
1382.68
2643.29
971.036
2447.95
1515.83
-2266.39
-2106.66
-1340.58
-1083.44
-2458.13
-3201.28
-3737.81
-3189.39
-3668.76
-4746.11
-3594.09
-6493.75
-7132.71
-2929.67
-4793.02
-6770.67
-7381.48
-2967.53
-2860.86
-3677.71
-3881.31
-3096.15
-2874.93
-2321.11
-2299.49
-2206.24
-4123.82
-3420.71
-4880.01
-2753.91
-2160.69
-1889.17
-2282.62
-1234.32
199.848
-499.445
532.525
613.366
827.991
1453.41
710.913
318.24
-164.222
-423.386
-2056.45
-1396.77
1472.23
-927.202
-310.887
249.356
3662.63
7089.83
4106.77
1783.79
2519.09
1127.02
3517.78
3120.02
1030.36
2320.39
1651.57
1905.83
-764.363
1043.75
1600.97
6351.71
7396.51
8704.95
5098.2
7847.99
7241.14
8989.77
6934.74
8064.74
7593.68
5596.32
8913.6
12802.5
11908.5
10246.7
7424.81
9077.19
3906.9
6923.64
3790.34
4617.83
5027.27
8368.86
11262.7
11873.9
12375.3
13958.8
18783.4
11527.9
12636.4
5537.47
6459.76
2154.29
892.913
1412.25
-1117.25
-3251
-6166.31
-8389.95
-6704.74
225.753
-2003.02
-1490.56
3251.17
4112.43
8652.7
8357.68
4041.46
2269.64
-783.035
1448.66
2928.23
2422.38
3601.3
1345.2
6973.73
4361.84
6621.51
4094.45
956.306
-1015.68
-722.158
-3166.1
-4539.46
-6276.79
-10581.3
-12606.5
-13969.5
-15627.2
-14951
-13490.5
-13519
-14211
-17038.7
-13531
-17791.9
-21533.4
-16464.5
-15241.2
-14582.3
-13440.4
-11529.5
-7345.71
-9602.02
-7928.65
-7470.34
-7435.6
-6325.47
-6865.27
-6709.67
-7218.81
-10456
-11873.6
-7487.66
-4473.73
-5189.1
-4208.68
-5301
-3687.27
-8966.31
-6672.06
-6952.89
-3812.3
-2253.69
-4207
-2057.65
-4245.28
-4759.49
-4682.7
-4033.42
-2986.01
-1866.5
-1719.56
-1645.91
-2429.1
-7751.97
-7529.91
-8318.4
-4634.63
-6649.9
-7969.45
-7107.01
-7082.54
-6163.79
-5470.59
-4625.56
-5391.26
-6829.44
-4355.1
-1563.57
-369.085
1371.3
1053.04
281.255
1576.69
-2318.85
44.5151
-2634.15
-2006.4
2188.15
88.4028
1287.46
1900.21
-2316.25
105.981
1462.94
3666.57
3064.91
696.572
139.531
2157.1
3485.99
2670.24
1937.94
2306.46
982.628
3629.79
4520.43
6013.08
7572.1
6861.38
5165.7
10910.6
7387.83
7513.62
6203.84
5408.17
8900.56
9941.84
5060.25
6430.59
1831.06
523.945
3096.18
3373.42
4048
8618.39
4003.4
1271.78
828.449
-1877.94
-1789.32
-3571.39
-1352.8
-722.685
-3190.53
-1854.65
65.7994
199.309
1844.48
2292.7
1512.55
4067.28
9188.68
11536.8
10727.7
7297.13
11366
10651.1
7364.48
9530.69
9642.02
12035
14025.8
14619.3
11868.3
18732.9
16659.6
21535.6
17965.9
21127.8
30594.4
31786.2
28452.1
28793.1
28935.9
27500.3
24278
30980.5
31168.6
34453.8
35314.2
42006.4
47951.2
42611.2
39079.4
34831.9
25757.7
26722.9
30315.9
35270.4
35779.9
38401.4
47483.4
55839.7
52892.8
43965.9
44019.8
47003.7
46189.4
40142.9
42701.6
38433.1
39484.7
37630.3
33641.2
30052.1
25304.7
33168.9
37803
34494.3
38716.6
25923.4
30151
24796.1
25344.9
25187.8
24620.1
31276.7
33429.1
42123
34165.4
30447.2
28101.7
27722.9
26573.1
26064.1
27236.2
27919.9
27501
23605.7
23806.8
25898.5
24131.7
20521.1
28167
19939.1
25123.7
23828.4
28733.8
30393.8
30786.6
38069.8
42017.9
33683.5
33788.3
39627.5
29457.5
26456.4
25070.2
26394.4
21128.6
18717.9
23497.2
22095.2
18736.5
17070
11964.7
13544.9
19175.4
22130.1
23747
19883.7
18043.6
16574.6
17349.3
16699.8
15393.1
17325.8
20214.5
21087.1
18508
15958
15713.4
16457.1
23236.2
25921.1
33936.1
36643.9
28579.9
28514.6
21255.4
19432.4
16611.2
10017.5
8588.81
10716.2
12952.3
12770.7
11110.8
10359.1
13930.6
11690.3
14693.2
20391.2
25918.2
23505.3
26317
26176.3
25161.2
26913
26745.4
26888
21638.1
21429.4
17889.5
16461.3
13073.8
11662.5
16610.4
13354.6
9426.15
8741.43
6861.77
7237.43
5301.7
11351.1
20657.4
17969.2
21153
25795.8
27300.6
31925.9
32491
21493.8
26581.1
31644.8
32138.5
26797.8
26796.9
28121
23988.6
26823.5
23449.6
22528.6
17310.5
16087.5
15691.5
17847.2
15953.3
16536.9
14035.2
14906.8
14492
20211.6
19180.4
22155.7
23606.2
25355.2
22911.3
17818.1
21183.2
18594.7
9521.23
15697.6
13637.9
8718.6
8450.97
8716.97
11587.3
14392.7
18015.5
14743.2
11848.6
11517.5
11456.7
11553.1
14272
14234.1
12857.3
15755.3
12968.4
12794
10989.9
9701.57
10156.3
11095.5
15489.8
14730
14438.8
9016.1
9349.04
6919.59
5111.45
3013.74
2941.97
996.441
6053.12
6005.91
1314.72
2199.15
3085.76
4103.51
2077.48
-4327.1
-2973.77
-6156.47
-7820.22
-5348.25
-4916
-5511.25
-604.153
431.412
-1306.16
5188.32
6160.72
6700.22
16652.4
15972.2
15914.1
15560.5
14837
15939.4
9850.76
6834.63
8804.32
7567.95
6209.04
13448.2
11530.4
11885.6
13351.4
14776.4
14594.9
15586.3
17074.9
12920.3
10789.7
16042.5
16735.8
17751.5
17613.9
23459.1
21306.8
22597.9
19479
19636
17199.7
20506.6
17924.3
14282.9
17436.9
14120.4
16076.3
22343.9
23281.3
28404.4
32632.9
34986.4
37156.6
35279.5
34516.6
29509.7
29571.5
26931.9
22434.4
20179.9
18599.5
21896.5
19872.3
19118.3
10690.2
9197.91
8146.05
4103.64
8300.99
12177.2
5876.49
4625.24
4894.49
2190.39
4168.58
3637.17
3720.98
3810.31
3301.65
4120.65
2200.16
2136.38
-103.704
-384.552
5238.37
5070.29
7319.79
7823.05
9406.63
6523.03
5028.73
4327.28
4635.91
4321.12
-110.726
3359.8
2138.58
2192.76
4190.94
5716.09
3918.04
3749.84
10619
6429.01
7346.27
7590.03
4928.27
1692.32
1447.19
2126.44
-2560.35
-3012.99
-4059.22
-6214.79
-234.979
-1604.81
-4987.11
657.956
-1226.73
-78.5897
-2614.16
-6068.78
-4220.54
-4409.44
-4894.24
-4124.83
-9130.91
-8956.95
-8032.5
-9905.32
-6584.05
-7122.7
-6714.51
-5757.03
-6460.55
-1454.69
-2140
-1465.2
-673.413
-745.49
-4227.87
-2402.86
-2589.31
-1445.12
-1628.08
1858.87
1154.93
3644.84
-340.269
-235.165
-107.649
2623.73
2840.22
4386.7
5309.78
6089.5
2770.49
3181.33
2085.66
2914.07
2071.49
1538.57
2515.48
3039.52
2459.56
2439.04
3171.25
1915.16
3555.2
193.84
-687.411
-717.138
1501.38
2302.05
-561.413
1523.32
-276.28
2205.03
-1260.47
-1016.46
-1095
1863.61
1343.92
5718.68
6069.2
4585.36
5662.87
7049.67
3732.18
3502.22
2616.66
4483.48
3648.82
9014.23
7529.32
9071.71
8928.06
8485.35
5794.29
6965.05
9150.46
11959
12994.3
12217.4
12254.7
13285.3
11563.9
10175.4
10302.5
8494.05
10352.7
6825.47
2257.76
-798.591
-4333.42
-5626.47
-2297.51
-2669.8
-8237.96
-5792.46
-5553.29
-2513.53
-3403.97
-3128.5
-5978.65
-8231.74
-7114.53
-5873.14
-9519.05
-10453.1
-9652.07
-5159.88
-4489.47
-5946.11
-2861.37
-4882.41
-2691.72
225.452
-3395.27
880.694
3943.7
-2808.43
-15865
-20309.3
-20533.7
-21357.9
-16640.2
-7967.17
-7505.59
-6360.91
-2503.65
-2294.22
-3821.68
-4190.67
1330.4
1735.89
2364.81
766.859
-805.627
-701.868
198.875
4378.61
-542.023
-2737.62
-779.99
-485.187
1242.54
1245.63
2433
1583.86
-1859.1
1836.03
4240.48
2650.78
1270.95
-984.282
3631.38
5555.33
5843.58
6255.43
7913.3
10281.3
14905.7
8562.87
10231.6
11812.6
15670.6
8914.24
9544.84
8303.54
6787.34
6858.63
7700.56
-67.4317
-3021.93
-3376.09
303.566
1614.37
3207.62
925.212
4266.21
6021.19
9290.88
5043.17
9299.46
8398.12
8261.6
9569.13
7444.01
18701
17990
22710.3
22609.8
30301.7
32998.4
28204.5
30352.1
30432.2
39278.8
36569.5
40535
39038.6
39991.5
39296.8
35301.9
39571.6
31741.9
32745.9
29986.2
29231.2
23409.1
24075.4
22050.4
22671.1
24392.4
16954.5
16729
17570.4
11288.3
16276.3
13457.1
11787.6
10792.8
8908.94
6639.66
6009.95
4937.18
4856.62
7030.21
6983.31
5625.92
2528.45
4425.39
3794.79
6453.41
6286.22
7640.57
6756.41
4384.69
7480.8
6880.98
3759.09
6350.71
8312.16
6627.39
6132.21
7671.86
7285.29
10482.8
15803.5
10039.2
10331
14321.9
19163.4
17257.7
14610.3
13665.2
12390.4
10684.3
15518.9
13717
19402
14610.3
17593.6
15853.1
21853.5
29423.4
23948.4
21240.4
20507.1
16789.3
20228.8
19316.7
27555.1
27945.3
24257.4
25779.5
23210.7
21985
24241.2
27201.2
30950.3
34022.8
37801
40868.8
39809.7
40542.5
32039.4
26906.7
34462.1
33563.9
30841
32244
37560.1
36109.7
32839.6
28582.7
32743.9
40323.8
39911.5
29731.1
35926.7
35094.8
33750.5
33378.9
35393
30002.2
35934.9
43696.6
41829.3
42141.3
37773.3
44649.1
45675.7
40442.6
38586.5
34627.5
32460
40433.6
45458.5
52604.7
54162
41593.5
38597.7
44563.2
43082
49920.4
60962.2
64784
62094.8
71448.8
71425
77247.1
74653.5
77456.7
77245.7
71981.4
73362.9
82928.3
80100.2
89754.9
71205.8
72308.5
75160.4
73583.3
66657.5
52589.2
60268.1
54098.5
55258.7
56717.1
52744.5
53059.7
43214.2
36435.4
49439.2
63548
59144.7
51573.9
46906
37509.4
43952
29265.4
20438.5
28772.8
33467.2
38020.7
42402
43541.1
47634
42102.8
46081.6
45930
51233.5
41299
38268.5
36616.4
35552.7
31054.3
33653.5
33384
33265.6
23430
22586.9
25927.6
23626.7
32307
39897
45191.9
44308.5
42857.7
48731.7
49513.5
51180.2
54497.6
55847.7
49514.5
57550.9
60543.4
51183.3
53357.5
50070.1
60425
75144.3
84371
99087
105901
103552
103727
101949
101807
96507.6
100081
109408
114751
126040
117469
115843
111513
112214
106895
102263
93517.7
87783.4
90106.3
91663.7
96429.8
90846
84875.1
86480.2
84283.3
80792.6
78458.4
70015.3
80189.7
82505.1
81505.1
82258.3
86986.4
92837.6
93987.4
90470.5
75543.7
80091.8
76982
90032.2
71029.8
69822.4
60157.7
59573.2
69845.2
63690.5
66581.3
65867.2
65967.1
73034.8
77715
82633.4
72343.9
66786.1
62771.5
62342.7
68613.8
66618.5
82586.8
84035.3
96225.7
87843.9
81397.8
80379.8
85873.5
70453
71582
67587.5
66866.1
62470.4
60303.3
63416.6
58658.8
66483.8
64519.4
64760.3
73614.6
72049
74818.3
73131.2
85004.6
89927.2
109248
123527
113246
109029
114366
102424
112098
124073
130790
134087
134566
125302
126716
117017
105605
109418
114400
112976
123673
134829
131898
138611
133850
137340
137386
138322
136785
137247
126812
124238
121465
124899
112335
128744
124595
118790
130290
134387
143510
149143
153472
148174
162628
165005
175224
186129
189739
189291
178215
185458
197793
197528
191191
201283
210878
212528
214630
214032
219767
213044
214147
201096
218091
211030
217050
229102
232519
231009
223304
226036
210986
193515
199390
204066
208545
218183
215695
224045
225347
241009
244583
237846
253136
272515
268366
273423
286131
273263
273758
279250
278242
275239
271270
278607
285241
291539
273155
254974
268066
247778
248244
250926
241316
231955
234472
227543
251468
255542
258428
247406
248244
236513
219442
206655
209140
210511
207352
210630
226273
211104
207196
208710
195885
187119
176372
182846
192091
179894
160273
161923
152789
154780
136022
141107
134397
114717
114108
120923
124363
119609
116433
113534
113776
109486
108405
109457
115295
117247
105888
110732
112059
120911
115463
109517
114111
112195
119073
122745
116409
103504
110101
104249
91352.7
96295.1
88992.8
81292.1
75557.4
71605
74115.4
78704.3
72639.5
66857.3
56207.4
51246.9
57787.7
65855.5
66754.7
70127.4
74982.6
73994.8
77079.4
78555.8
76901.7
76983.8
84265.5
82705.2
84562.6
88008.6
86822.3
85951.7
90687.5
96692.6
88745.9
80532.8
80608.4
71119.4
70719.6
75095
71843.6
71212.8
73994.7
68171.6
65745.7
65191.3
64640.1
68714
71572.5
66544.8
68471.1
67315.6
77667.6
69334.4
64047.3
69108
79025.3
81803.8
90753.3
80212
90817.8
84747.5
79608.4
80418
84169.2
102735
94318
88394.3
100057
101388
102621
97490.8
103327
102928
97171.7
101453
96286.1
108305
101346
102626
102581
106357
105077
103068
89354.5
78242.8
92765.4
95515.4
91760.3
93360.7
92576
87209.1
67989.7
69209.7
71543.2
65678.1
69293.6
60315.7
64587.7
55744.1
56218.4
62148.6
66742.4
53481.7
54326.3
57462
59025.8
61382.8
65538.4
64464.4
67728.6
67711.3
68429.4
72253.1
76212.2
67371.2
75994.3
82948.2
75155
73926.3
83702.7
77376.4
87477.7
88894.3
91541.7
99035.9
88916.6
107775
105441
94454.1
90321.1
113634
103097
107422
108417
114784
120986
124332
128085
113860
107706
96722.5
91410.6
95196.6
84744.4
77656.4
79564.4
84925.4
83738.5
87776.5
83572.5
81522.4
84774.2
100471
110011
111596
106744
103957
102578
111673
112685
113826
113439
108953
101491
101838
107263
91605.7
86214
84801.6
85103.1
95987.5
97261.2
105237
100625
109410
110914
117594
121014
122156
123455
121048
113042
127998
109473
107566
114929
114838
122950
126640
126765
143010
136496
121867
130877
141232
141801
143730
141426
140430
139670
139224
136067
135412
134504
140675
132109
130483
131208
130047
132626
129302
132097
120431
114225
104670
102896
129150
132017
138786
139574
137641
121779
120601
112861
110600
121943
120209
122219
112424
105153
113036
121432
129089
110729
101369
95044.1
97180.2
92594.9
101783
89661.6
101523
109111
113258
115511
113423
106321
110837
112043
122779
97468.2
97553.5
90390.3
86225.9
76133.5
77222.1
79844.3
83517.8
90935.8
96882.8
110259
115635
120258
111799
120195
114545
97867.7
89986.2
90903.2
85837
88566.1
85303.6
90770.1
82420.9
100520
98548.7
80755.3
82303.3
78358.1
78019.3
81409.4
86528.2
77132.8
78219.4
72522.2
76595.1
74806
72763
78405.1
71017.4
66758.2
69408.8
76644
64218.2
76490.8
76724.5
77409.1
85058.2
80090
85176.4
83254.9
73414.1
62534.7
64096
66419.8
69869.1
72592.5
67842.6
78628.8
78718.2
82025.2
82158
59130.3
64682.8
68891.7
61391.6
60891.8
58485.9
72866.4
64901.5
66028.8
59908.3
57394.4
53040.4
56119.6
72913.1
77012.6
85150
85926.8
73841.9
71437.2
81310.6
72569.6
63605.6
65168.2
53147.6
56166.6
50212.8
56757.7
48093
49919
63331.7
61353.7
73329.8
81637
81937.2
75848.8
82002.8
97947.9
92268.9
102641
103331
97372.4
107222
103419
99941.3
103952
97456
103876
99937.7
99215.5
113601
119159
109585
117757
138517
142559
150300
148977
160437
152346
150267
147234
147401
150503
146466
150571
153173
159032
155617
154214
142803
136776
123263
121496
124596
113501
114283
129070
126177
128222
126872
130025
132257
136631
127103
127332
138329
121608
117463
126035
124477
122025
111093
118924
100741
101882
104749
107148
111811
126623
123431
122728
136364
131905
136782
133045
135291
144797
135749
142336
140720
128155
132175
134275
136232
126609
123180
126845
135982
125311
127867
124848
109654
100209
110560
99057.5
91616.5
108003
108043
105421
111623
117885
122827
132690
133992
123525
124347
115313
119272
132281
122630
120360
123038
129156
125771
129472
120707
124283
123882
124830
122686
125929
127575
136865
133765
125346
116807
123734
116412
131503
118740
125448
125917
130226
133450
124252
112884
97745.7
99466.4
102317
98019.6
96869.7
91692.1
104895
98460.3
90359.9
83996.9
84831.6
88545.9
74990.1
81216.4
91230.1
93141.9
90866.9
94911.3
93460.5
97700
98392.2
96956.7
102383
100113
95850.6
104509
112842
109674
122436
122163
122305
120304
114605
109192
108624
106566
107111
120616
124953
116361
141085
144201
143349
147087
141344
141407
139630
135771
132918
131834
122005
112405
120116
105798
122120
118705
118168
106818
103030
116168
117377
110112
120368
126052
130037
140248
139732
149313
150469
155521
144384
146633
133520
133645
133524
127819
131949
132569
134017
127865
127218
115140
111216
109312
111199
101788
