784.516
336.594
1404.27
-4769.52
-818.767
-4659.56
-7205.45
-4167.71
-6243.46
-5109.01
-2997.17
-3796.7
-4693.09
-5520.67
-9152.02
-6908.73
-10039.5
-18826
-12463.6
-19044.1
-21796.9
-19960.2
-23953.7
-21866.2
-21989.1
-14018.4
-13188.5
-13400.7
-12901.7
-12986
-4722.92
-10736.4
-11648.8
-8335.53
-8879.27
-9223.9
-2728.51
-173.999
7094.63
-1249.1
-2381.68
-3257.9
-2083.24
1567.21
-1405.77
-4365.34
-4542.04
-2451.5
2804.06
-6983.28
3917.78
13464.2
11835
7950.6
10383.2
7187.66
7018.48
9038.73
12490
9219.04
-194.019
-6153.66
-4006.33
1302.1
5874.12
7809.44
5346.17
2725.26
2978.78
4418.68
4623.26
1654.77
-6904.39
-7324.12
917.519
3008.16
5021.73
340.391
4377.01
4584.08
145.149
1577.99
2426.03
-931.111
-1581.22
-3641.99
-4758.34
503.558
-4407.31
-1800.56
-3281.84
-404.638
1805.24
1253.78
1702.25
1178.38
1476.88
8310.55
2466.4
3017.88
2771.08
1341.72
4493.71
2900.28
-2469.85
92.0712
3200.72
424.334
7351.55
10568.3
7471.44
2462.62
-2610.74
-4018.33
-6237.71
2724.21
1670.8
-2147.68
-868.758
-9260.15
-4304.17
-5323.57
-2613.63
-7073.05
-3339.68
-4953.77
-5909.21
-9711.49
-8574.44
-5177.04
-7596.4
-6314.13
-3723.56
-4308.71
-2481.01
-1850.18
-5243.1
-8244.47
-4390.92
-1310.47
2417.18
-270.486
1740.94
3414.26
4566.11
5894.85
-1199.15
322.048
-2575.91
-630.084
3716.58
6587.19
6657.08
4128
6790.36
-1621.56
118.627
-2767.37
-1002.46
-11801.1
-14965.5
-9311.5
-4719.5
-5770.87
2667.63
241.458
7871.75
7572.24
4801.8
8651
7800.05
8758.09
14945.6
17938.6
8816.96
14677.6
9684.24
1563.61
4030.66
7334.57
7107.4
1638.09
-597.965
-2458.01
-2889.12
-8482.95
-3993.58
-2477.49
-185.243
1475.96
1421.15
-779.059
4201.29
555.636
4006.76
1315.19
-2800.73
-2637.85
498.765
-3814.55
-4988.22
-7431.33
-3968.91
-4766.12
-6346.27
1146.93
-6229.82
-2494.47
686.34
-208.322
730.215
136.751
308.093
-1666.3
-796.384
-4306.63
-2489.66
2209.52
9854.92
16565
11126.2
3481.43
5253.31
513.965
-1525.85
-3884.98
3050.46
4384.17
4583.45
5619.79
3213.04
6164.26
1485.7
12221.5
12432.4
19152.5
9678.68
3344.3
-1794.57
849.861
-761.133
-1233.1
-2240.75
1687.84
-1030.79
-605.564
-4482.2
8.68481
-1764.95
-6869.41
-4316.75
2909.26
-415.563
399.711
3986.36
5950.93
4855.13
-537.089
-112.714
2260.91
-1099.14
-2189.5
-12020.1
-5404.25
-6270.95
-2176.01
-556.501
-936.023
997.232
6068.15
10832.6
8525.74
2073.44
4451.11
3465.4
5354.08
15600.4
10168.4
9230.54
8694.83
14510.1
11568.6
6600.98
1590.42
6355.18
1093.55
9851.97
8031.63
11613
7416.26
4220.08
1541.54
6417.15
5546.69
222.628
3662.8
5277.82
9443.39
12367
1492.39
2557.25
-1674.96
-868.65
1091.52
4964.17
8912.08
7606.32
4717.83
458.279
9424.27
-1257.99
671.47
3513.12
-2181.49
6257.86
9317.66
-515.571
-8881.78
-6451.63
-76.078
-679.985
1414.61
-1337.08
808.375
-1486.33
-6026.38
-1583.18
-6796.71
-5175.62
-3006.41
-3010.73
-1417.07
-826.755
2460.45
1667.46
-2614.88
-11710.5
-9794.1
-2814.34
6236.27
4364.36
-3071.01
-6240.51
-3417.9
-3062.61
-2957.88
-1120.06
-5322.39
-2283.25
140.198
-3682.34
-2638.78
1168.12
732.26
-284.772
2876.62
715.03
239.159
749.76
-307.267
2939.28
3108.31
5629.91
6128.14
9935
11758.2
11735.9
7912.59
20197.5
19206.2
11631.3
6297.05
10834.6
7406.09
9144.23
12336.4
25426.6
26210.3
34950
25007.6
14949.9
10916.9
4488.34
15753.4
14670.2
21592.2
24422.3
18862.6
10968.5
6989.7
6699.04
4803.63
7306.56
909.073
-1773.88
-2764.03
-1040.04
3320.19
1308.45
5393.9
13135.4
10921.1
14246
21425
16693.4
16901
26791.6
33477.2
19922.4
15234.3
9712.12
3326.85
-1196.46
-522.352
4927.42
2662.65
1012.86
323.25
1556.46
-1507.87
1388.1
1989.59
-5751.88
-3901.11
-860.085
-2922.09
3880.94
52.4949
3567.03
1999.83
3642.35
5524.61
7968.24
2678.51
2168.16
4472.73
8189.95
10484.7
12867.1
7871.3
8651.79
8884.25
13614.9
15729.3
9593.31
3469.87
8998.65
-2099.9
-6343.38
-4638.38
-9763.65
759.803
-5796.26
-1892.59
158.864
2052.68
-1246.03
5977.93
2744.23
2455.06
3689.25
566.945
1734.21
-3933.18
174.024
-413.181
2666.24
918.286
6559.53
3661.35
1108.33
4537.77
-5249.51
-2584.5
-4672.61
-11789.6
-2606.71
266.954
1460.73
-6194.91
-7518.89
-8760.83
-4065.34
-5045.16
-3780.93
-7147.44
-685.858
4320.81
10870.9
10717.6
16211.3
9463.5
9178.22
8988.28
4985.23
2839.57
6487.5
10769.8
19669.2
18471
15770.2
8490.11
6325
1120.18
934.433
-3947.66
-5929.52
-2121.97
-5870.84
-3676.85
-2006.88
-3068.45
-2059.47
-995.058
-1195.89
2457.35
5573.1
6507.99
4818.44
2017.01
3847.81
5303.36
-925.145
2731.43
3983.79
-2843.32
-4033.66
-4385.99
-7348.23
-7134.32
-4557.72
-3699.08
-1851.34
1099.43
910.818
3378.64
861.785
5575.36
-2867.84
2867.3
-1474.32
-2453.78
-330.908
-2074.99
-6557.53
-7570.92
-656.072
-110.054
3999.07
4647.7
9142.27
1168.03
839.05
2105.59
3577.65
7006.94
4328.77
-334.102
-245.414
-2000.37
-1736.66
547.168
1064.03
-19.6942
-832.167
3336.13
6738.27
-734.573
2118.3
296.265
245.745
916.767
-2121.85
-2906.54
-244.81
-2012.13
-532.96
-1264.44
-1874.84
5820.23
1387.54
5557.03
4931.44
4063.59
-579.831
-1406.97
-6164.59
-1901.78
-1057.8
-1255.02
-4256.91
493.996
1683.71
2893.25
789.308
-1609.34
868.579
2153.16
-848.637
-1132.18
-3499.69
-338.757
2699.4
5562.16
939.165
4967.27
1396.5
300.192
-649.801
-2873.19
-3814.48
-2106.49
-5249.14
-1501.43
-3807.13
-6617.31
-3916.8
-5660.64
-2956.06
-431.745
329.722
-2264.48
-2745.97
-3345.18
-10299.7
-10328.7
-12034.8
-5824.48
-5214.88
-7964.29
-12722.9
-4111.85
-2931.02
140.68
-552.317
210.075
-2334.3
908.274
2879.24
2171.37
-4049.22
-3372.19
-3061.55
-4216.95
-9092.11
-9685.89
-6317.01
504.463
4466.56
8696.68
5756.37
138.203
-851.746
-5093.72
-8376.57
-879.491
259.137
3003
5213.49
5010.37
5859.35
7462.52
14792.7
9965.42
10717
8066.94
16489
22737.8
26079.8
27538.4
19985.5
23714.3
18887.7
12493.5
9096.35
2717.93
5605.46
13877.8
5737.18
8995.86
11263.3
14256.3
96.7745
8597.71
1148.21
-153.093
2885.98
4174.14
-230.757
5571.55
-236.345
2592.35
-3895.41
-3882.56
-5898.4
-1116.65
5084.24
3826.46
3261.64
172.425
1439.3
-1431.36
-6582.41
-6105.88
-4025.11
711.842
3997.74
-1196.96
-29.6196
-4639.99
-2567.33
-729.283
751.773
-2012.36
1264.53
40.3417
2187.42
3438.27
3148.45
3465.81
4850.88
-30.3443
-9073.19
-6023
-5437.17
-6216.21
-4243.32
949.651
1544.72
3270.6
159.858
-790.801
-1434.86
-7710.68
-6248.67
-3866.15
-6666.6
-4123.78
2299.23
6040.36
1045.7
-350.682
3918.71
10882.9
-1350.5
-6120.96
-10201.2
-15143.1
-4205.72
-4834.66
-2312.6
-380.038
-10496.4
-15247.7
-13476.1
-4669.91
-4012.99
-4570.69
-2664.41
-7724.22
-2840.93
1715.28
2008.02
2594.06
-1855.46
823.887
266.688
4492.46
3630.89
1632.13
2079.65
2819.31
-2564.26
-961.539
-1708.99
1569.38
780.173
3684.62
2292.35
6691.22
954.255
4242.75
2954.28
3278.16
6971.69
7193.33
7269.59
4328.77
185.116
-1182.71
3323.98
3191.48
1787.69
4823.23
2827.46
-6.98876
8.52142
516.881
3956.93
8483.67
11664.7
9227.72
623.089
10613.3
4188.73
6824.81
9958.1
8642.48
6104.79
306.292
13542.2
9538.85
8393.44
2371.2
-2692.93
-5283.65
-8395.07
-8245.71
-8217.9
-6225.44
-3183.75
-6061.56
-5753.41
5762.12
1096.98
3526.72
1640.94
1535.41
-6438.16
-15747
-9384.81
-7293.66
-3200.61
-61.7211
-721.888
2947.96
1454.04
5065.65
2637.2
1790.63
-2780.87
-1058.99
3431.41
-1222.02
-386.658
1546.44
4917.45
4364.36
8687.19
9102.87
6062.12
5470.72
6801.23
6771.54
10419.1
11374
15459.4
12073.3
6807.6
6507.53
10483.5
6097.18
4991.64
-2441.32
-3816.82
-1827.41
-6204.88
-2723.14
-4617.85
-5707.43
-11433.6
-7177.35
-8385.85
-9153.82
-2659.69
-7205.19
2548.86
1599.21
3804.72
2303.56
-7965.79
-4935.37
-3279.32
-6209.51
-448.311
-3645.82
-3281.87
-115.478
-5341.29
-3951.71
-391.294
3587.84
1331.7
-4890.83
-3240.85
-12476.4
-9656.63
-5458.27
-2067.77
-5638.01
-4597.47
-1889.46
-582.447
1283.1
-1703.86
-7480.01
-6069.02
-8326.07
-6048.29
-7928.95
-204.293
4620.28
4087.2
2657.72
-469.769
-320.506
-737.585
542.054
5804.52
-91.0767
7413.41
6676.42
1019.47
3028.44
9842.45
-1255.35
-518.345
-9260.29
-4999.06
-3999.55
-914.99
1481.8
439.432
-2869.29
-5232.11
-7495.15
-1107.4
-7.13457
56.6733
3984.21
2371.14
-3130.62
-3073.77
-360.401
-498.322
762.896
5763.13
-1080.81
-1801.79
-1658.48
67.2475
3985.36
14360.9
3159.86
4687.5
3459.25
1987.26
2190.1
-846.666
-355.653
4578.24
-351.367
-2341.37
1453.56
368.652
-1672.06
-3096.21
-11041
-9076.87
-9312.4
-9192.13
3758.72
11304
6474.46
5874.93
4515.03
5585.71
2775.33
2139.1
1286.01
2617.98
4422.9
2513.66
819.274
1613.41
1751.73
3466.65
5344.8
328.835
-6270.65
-808.845
-7759.43
1857.79
-301.117
-3986.06
-2023.06
-3515.51
1158.15
1278.33
-5007.47
-2587.49
-43.1129
38.3867
168.353
-1140.9
-3066.34
-2318.81
1338.8
-2661.73
896.533
-210.565
2113.06
-3549.37
2986.53
11877.8
13301.4
7914.02
13037.6
10290.1
-539.125
4971.56
-3046.81
1534.22
2031.11
-3714.08
2457.62
12015
12287.7
14300.2
24534.3
21862.7
18728.6
18046.7
6069.68
6117.31
338.462
6276.87
668.148
-717.108
2873.93
286.143
1214.6
2130.37
6271.37
8055.57
9062.5
3517.46
2960.15
226.308
-6067.2
-1954.43
-730.893
568.015
-3333.3
-5172.49
-2202.37
-4945.89
-3007.66
-765.162
2154.14
-2758.68
-1533.47
-1185.87
-2490.53
844.335
1310.97
6275.18
8751.79
10393.9
6115.73
-3012.98
-10758.9
-7616.23
-10700.4
-17865.4
-10172.9
-10162.5
-4298.64
-3058.22
-852.629
-4731.76
-10557.3
-3747.97
-8385.57
-3208.23
3072.15
-330.894
5096.74
4839.99
8853.67
14273.8
7177.65
2586.52
11410.6
-4823.11
-10987.6
-15976
-6699.01
-2290.03
1034.07
-1476.54
-4266.39
-67.4462
-1129.95
-182.094
-2164.97
3435.75
1197.62
2393.58
6565.35
2352.23
429.022
1777.02
4843.65
-1963.84
-2762.89
-1979.77
-4925.68
-1344.03
2582.86
2984.99
-2047.05
1674.82
-1928.88
-664.92
1750.25
7714.75
9988.21
8942.1
7485.51
2026.36
149.1
-2998.03
-5703.02
-4368.84
-1838.18
-6084.34
-10933.4
-7878.66
-5720.28
-3136.16
-2318.07
-1774.09
-893.331
358.942
1676.31
-1415.93
-2029.9
-5545.8
-4954.22
-3103.66
-2659.65
-949.906
-2253.36
-6433.3
-3251.92
-7545.9
-2002.36
-6115.63
3459.5
6040.21
5716.01
4503.85
1803.43
-102.877
582.521
-3143.27
-505.55
4571.71
3947.04
4067.03
391.042
-2672.16
-1321.41
-1170.54
1239.97
1778.18
-3075.38
3665.92
3146.05
-144.415
-6189.35
-3370.53
3422.34
-3357.39
-7700.18
-6505.45
-6920.08
-4847.59
-6000.76
2161.66
999.918
-2112.98
653.503
1163.46
4221.81
3425.74
3614.35
4726.92
3284.93
-979.725
-6823.11
-5516.81
-5297.96
-4912.87
-2872.74
-2385.04
2611.98
1710.34
720.877
-152.877
8453.1
2907.34
-1386.57
1054.7
5472.81
2161.06
2830.88
1522.62
-509.415
6781.53
4043.43
4758.02
307.385
5402.46
4703.86
5316.19
2181.49
2976.38
748.269
-1771.37
494.824
-2045.94
-2472.02
-7606.64
-7423.11
-6236.91
-7079.06
-1905.4
-5828.75
-1370.5
1306.31
-5002.52
2335.49
7444.85
3150.69
-1438.99
-1965.8
-9770.11
-7452.92
-6310.88
-15736.1
-12734.4
-14543.1
-13194.4
-8018.18
-9050.5
-12547.7
-11887.1
-4405.12
-11249.2
-10659.1
-2468.78
1690.06
-1322.93
4845.06
-509.761
8775.93
7155.01
-5924.19
-3813.17
-13386.1
-9460.2
-5987
-5622.28
-5024.22
-9064.79
-5045.25
-7346.02
-6640.25
-8807.1
-15688.4
-14657.9
-5281.2
-797.065
1296.46
-1754.44
-2293.3
-2676.86
1080.64
1919.08
6659.4
345.566
4429.85
6841.95
6619.6
5892.25
1722.69
3604.21
8910.31
8850.72
10777.4
8241.49
5880.03
8612.46
-3357.44
4763.61
4122.79
11110.2
5980.6
-230.886
347.557
-527.232
613.611
4525.62
2095.55
-1371.03
-763.601
1869.92
1701.65
-2684.4
-6789.64
-7500.17
-7346.71
-364.16
-2916.23
5217.06
2623.74
2878.52
2176.01
2139.13
2409.77
1403.12
4091.41
5460.36
3882.62
1646.06
167.289
-4932.16
-5994.79
-11452.1
-9637.57
-14050.9
-13449.3
-142.193
4540.07
3599.92
3328.36
1087.6
2359.52
4900.23
6474.65
4894.59
9361.6
12053.8
8102.57
6997.54
8835.43
11743.9
6939.17
-484.602
119.037
-2225.51
1176.97
-81.5226
-1507.18
-1172.18
2185.35
-1035.33
-2949.95
768.095
1352.58
911.926
-7356.51
-4200.46
-3984.36
-3665.97
-3977.43
-6286.22
-21277.9
-11517.4
-10790.9
-5569.61
-4151.54
-11667.2
-5153.19
-2188.44
-3279.37
-1043.06
-253.67
-3716.15
1189.72
3255.85
4039.79
270.973
-1984.51
-2541.09
-3911.66
-3636.06
-5375.93
-2774.39
-6083.84
-162.671
1841.5
2065.12
2871.51
3562.44
3616.66
1002.27
863.116
4649.12
3184.15
2333.85
1200.7
3990.22
-1518.58
-4010.65
-1044.46
-4007.38
-8155.99
-12102.2
-14840.4
-12956.8
-8807.74
-4388.75
-856.394
-6933.86
-575.635
-5947.78
-9517.86
-13776.8
-15577.6
-16108.9
-7116.32
-10889.8
-4049.31
-5057.67
-2882.48
-578.503
-8245.32
-686.276
4365.19
569.651
571.522
4292.5
7226.56
3791.68
6452.69
11746.6
12770.4
7035.62
8332.99
6289.01
6043.36
2893.38
8772.33
20408.2
18015.3
12003
7795.19
11802.1
10491.8
7433.49
4567.26
6610.79
2219.41
647.355
823.4
2327.06
-6271.78
-3959.82
-6205.86
-8148.25
-2295.8
-4011.39
-5792.84
-1542.34
-5756.51
-4102.75
-3899.97
-1541.47
-6432.11
-1032.43
-2042.8
-5164.88
-4077.56
-278.071
-309.36
2593.34
1643.02
-1247.66
-7654.18
-2965.6
-7784.81
806.873
-1798.75
-2837.5
-572.336
1770.96
10792.8
14971.1
14783.9
12757.2
11923.1
10934.6
12910.9
1622.12
2855.91
-1045.52
-1847.86
-1711.11
678.112
3201.51
4182.64
-2589
-1455.83
-2164.15
4489.73
8347.99
3701.2
5384.33
6717.65
12560.5
5062.77
7674.11
727.461
4259.77
7344.32
3758.99
10594.2
7967.04
26301
24608.7
13896.8
6061.35
5819.41
-726.395
4952.71
-2485.89
87.3058
-2892.9
4093.98
6892.97
2845.71
4393.07
6364.82
-34.417
798.612
-942.405
-2306.47
-3888.99
-1463.77
-492.069
2612.53
-1290.43
-2167.44
-3178.87
-3382.6
3641.57
3554.81
926.306
351.326
-981.024
-8798.74
-2763.87
2423.91
1733.56
1359.59
-68.3986
1177.65
-2852.53
-1699.83
-1549.57
907.027
-1028.27
2973.23
6910.96
2590.91
1605.79
-689.296
331.497
-2785.46
-3410.29
-4364.46
-9554.18
-15050.8
-6010.49
-12149.7
-10146.4
-4597.42
-2539.3
-5239.48
-14458
-5363.04
-8736.07
-14340.2
-11570.1
-14798.3
-10889.6
-16931.6
-13967.2
-10863.1
-2693.96
5879.82
2933.84
5212.41
6762.07
5005.04
4782.24
3695.41
-2786.46
-5109.52
-8022.99
-13490.9
-9772.02
-10988.2
-5790.89
-965.469
-1771.57
-4639.93
-3297.82
-2250.89
-6195.29
-3620.99
-2910.04
-5071.22
4077
3320.88
10602.3
4119.49
11502.3
8042.24
8932.99
11450.6
7150.65
1339.86
-2480.42
1456.47
4994.6
-6085.6
-6127.61
-5013.29
-952.809
4526.32
4214.75
4675.99
2672.75
3107.41
1314.6
266.169
-1898.18
342.08
-35.8185
119.578
2102.96
2544.34
2634.02
11487.8
14269.3
15089.7
19389.6
14494.9
8593.14
20358.9
15241.8
17735.1
18899.9
14906.1
10839.7
3437.68
-543.606
2607.05
3062.04
2400.79
-5039.26
1833.83
3657.07
6987.44
-4379.02
-4498.44
-4717.9
-1498.15
-5099
-2075.8
531.966
3472.75
1889.66
-2072.22
-711.668
-4737.2
-6528.36
-6037.13
-8229.36
-8309.74
-4781.73
-2658.03
554.307
2960.43
4209.71
-138.719
-248.32
4641.26
-1778.11
-3798.04
-8735.28
-13442.4
-10573.9
-14736.8
-14009.5
-17690.3
-19558.4
-6441.34
-5926.73
4153.57
3622.71
4697.73
6305.19
266.533
300.021
-99.6981
288.197
1820.1
610.081
64.3306
-674.01
-6539.1
-6416.46
-5983.72
-10461.2
-9773.52
-5178.27
-3913.61
-4209.02
-7566.51
382.306
-870.337
-750.97
-2889.74
-1272.49
-181.613
2444.74
7941.63
10269.6
7222.05
-812.808
2579.18
2155.77
3725.34
1922.32
731.62
-807.152
3036.2
5035.37
2799.37
2128.37
2546.59
4974.47
5740.71
8009.93
2208.72
3798.23
-431.792
-162.012
-160.608
-1298.45
-3431.72
-2146.23
-3360.09
-403.961
-4458.12
1380.48
3420.98
3610.53
4633.96
8142.14
8671.44
4059.1
4310.62
649.958
-4298.05
-3475.06
2061.22
2584.3
6717.78
3892.08
6464.25
3032.52
655.011
4925.11
4164.12
1593.19
2435.52
-822.193
-1560.17
-5302.84
-6362.37
-1937.09
2893.82
-964.852
-3983.43
-5351.77
-8727.39
-2623.44
2391.67
7580.6
3323.39
1486.57
-1237.7
1659.27
-925.914
-4547.16
-3355.84
-724.146
-3115.94
-3204
-4986.27
-5821.98
-5519.83
-6109.17
-3882.13
-2667.29
4802.02
19069.5
13100.6
9446
12542.4
6073.48
4219.97
18628.2
17101.7
15146.5
2982.99
-838.694
197.233
-107.123
-1865.79
2399.32
-1058.03
4425.04
-4562.22
-3882.05
722.078
285.747
4048.72
3506.75
-2185.85
228.755
-377.387
719.929
-7232.08
-12515.4
-10734.1
-13365.5
-7918.26
-7176.75
-3131.24
-9631.37
-10630.9
-10480.8
2074.17
-1025.25
1366.59
-129.051
-6226.94
-4534.74
-11669.7
-11714.3
-16373.1
-12412.2
-11942.5
-7648.61
1806.2
-1093.07
-6590.52
-4121.66
-5100.24
-12242.7
-4822.56
-11539.6
-9929.39
-9780.7
-8241.65
-9423.3
-13199.4
325.729
1921.94
2393.86
3112.37
-598.543
-3329.35
-805.368
-4093.77
-8057.58
-5324.99
-4967.68
-7726.48
-5242.15
-6305.78
-1106.38
119.856
1555.54
4232.04
3666.63
-5867.7
-4859.82
-3500.12
-3392.99
-14901.9
-7599.86
-4531.75
-7994.49
-1608.17
243.33
-3221.31
-2455.82
1414.24
933.452
8008.37
5032.12
-1178.24
-2338.21
-2216.34
-2659.55
-3100.34
-3832.75
1890.23
-1561.16
4300.71
3120.87
2646.3
-1293.82
-6438.04
-4220.69
-1434.24
-2975.08
-632.358
1524.95
910.842
-2225.72
-807.42
636.98
-2200.14
-1171.6
-1935.61
3672.43
2596.71
3518.53
-2624.37
4941.82
-536.177
650.566
-1099.69
-1709.5
-1077.56
-1442.47
-2290.59
6764.84
5505.27
5038.67
6212.15
5177.2
-3485.11
-809.959
-1737.74
3582.29
3014.93
7243.03
-4124.36
-4579.15
-1553.35
158.532
-713.695
-5006.45
-6390.48
-7458.6
-1562.32
-6825.3
-1373.4
-3023.37
-1713.68
-3634.67
-1692.32
-442.939
3168.23
1719.64
8698.38
-1210.86
1446.26
3093.33
-64.7376
-6438.08
-6144.99
-5895.59
-3426.96
-1061.66
5639.64
4629.99
4727.47
-1630.61
-12.4286
1788.44
-3712.79
-2107.03
-12338.9
-8568.6
-3780.23
-2670.36
-4993.85
-9266.3
-4748.54
-1734.76
2452.4
1514.78
-2249.95
1353.47
-4623.03
-771.559
-699.407
6913.51
13668.5
4446.65
3814.75
8046.45
3293.76
3696.5
5209.84
5955.3
6835.28
8120.44
5492.62
2456.4
-706.301
2055.92
2845.58
5078.19
4113.84
10429
9862.97
16345.7
14063.6
18481.7
17855.4
12075.1
5880.81
11395.5
4908.84
4403.09
11050.9
6693.92
5293.51
6317.84
15651.5
16015
9642.25
5660.45
17221.9
11991.7
8200.89
3518.79
7802.7
11281.4
8408.4
5774.27
7667.45
4525.47
5243.2
-4435.47
4729.33
4105.03
-1689.95
-1396.35
-2551.07
-3730.43
-11601.9
-12796
-8861.96
-10906.6
-8077.36
-6107.71
-5961.42
-16048.8
-10215.9
-8431.65
-7953.14
-11668.3
-15543.5
-11817.7
-15637.9
-23883.6
-19947.4
-17845.1
-12890.2
-10259.2
-6998.65
-9806.76
-3894
6703.01
6512
-602.736
-3674.4
1133.84
1124.36
-3190.9
3202.76
-256.77
-3258.45
-1789.01
-4265.39
-5266.43
-3599.23
2552.03
2018.8
4664.71
3994.76
5373.57
3703.65
1532.5
2138.77
3399.82
3957.6
7163.72
8693.51
8623.34
8664.56
3418.45
-284.985
5481.7
5012.89
8278.37
13196.4
26532.7
26634.6
28953.3
22709.4
17325.9
12617.6
16439.2
9452.43
9016.2
7817.05
8170.99
12485.8
3725.7
1061.68
3110.79
1387.31
3104.31
-1149.22
1367.08
-3900.26
-6822.14
102.065
-2844.15
-2817.99
-1544.8
-3802.81
-8149.95
-2477.82
763.514
9471.67
19101.4
13429.4
22510.7
28752.9
28754.7
22083.6
17503.8
24350.5
13321.4
10665.7
5262.86
9542.4
20966.2
14083.5
13153.9
15929.2
15239.1
2538.37
-3633.57
-6604
-17172.4
-27112
-15615
-19713.4
-10762.5
-1796.59
364.997
-7104.31
-14101.8
-16795.8
-18035.1
-12635.8
-4036.13
1897.46
5002.86
7885.28
5731.54
4626.99
3609.17
-2493.34
977.633
1827.56
-507.715
976.354
-5618.1
-4550.11
-19.5536
-2802.89
9031.48
6430.49
12189
22008.2
19240.8
18952.5
12679.8
15635
10286.5
6312.55
4637.01
5295.3
4647.28
5907.65
2916.73
6010.95
6381.96
2768.66
3525.87
4514.73
-6699.49
-4005.59
-17049.4
-17436.4
-14848.6
-17386.8
-15914.8
-8819.32
-2444.94
-2510.84
-4509.31
-8673.11
-5197.04
-7255.55
-57.2714
-315.734
1357.19
6010.78
7017.97
2753.22
4703.84
-2475.29
-11753.3
-13315
-8993.59
-2550.35
7561.07
3007.08
2685.65
1422.04
4613.21
1302.2
-4781.53
-3230.06
7112.1
5847.82
7367.99
5051.31
-4360.94
-1236.98
1031.32
113.15
-2269.99
-4850.78
-10507.8
-4494.1
202.161
-613.567
583.567
6214.18
3131.45
-837.783
1439.24
-705.949
-761.329
1819.42
-566.282
976.163
-2016.58
-1587.59
-2218.31
-10.8028
6040.71
3755.1
9786.32
7659.95
8594.21
14761.1
7111.42
-761.244
-4740.43
16.0794
2962.19
3242.89
-2270.49
-1835.88
-4805.8
-461.308
-2190.66
-688.835
355.191
-835.426
-730.903
4833.52
3780.96
4192.28
-1085.87
3887.62
4271.11
-1125.84
5198.87
11338.3
7906.63
-1142.13
-1336.46
-5870.9
3477.92
-2457.12
2085.79
405.585
1252.01
-1168.1
478.628
1727.73
9220.5
10386.3
5101.2
4738.62
4000.93
5274.23
522.442
2987.85
2420.02
2445.5
-3153.27
-7812.02
-117.818
4869.9
1376.65
891.745
3285
1563.93
-2372.87
-2877.34
-3854.07
828.519
2511.87
4305.23
4648.07
4150.64
1939.26
3102.88
1350.66
4653.96
5403.98
-747.125
-6575.33
-1197.11
-305.389
721.396
-6105.68
-1420.22
-1789.4
-4083.91
-10479.8
-13413.1
-6789.78
-4503.89
-493.417
5104.75
7242.57
3359.78
5437.73
2218.08
-917.112
1346.21
-684.425
1557.17
-1299.02
-2324.44
-1077.23
-1163.27
-33.3736
844.431
-1036.49
-38.8687
-1345.04
-6188.19
-4462.38
-829.496
263.863
-2029.39
-12.3767
-3446.99
-2102.9
-6249.81
-4743.97
-4709.06
-6121.41
-5187.97
-12140.2
-7762.88
-4034.2
1325.86
-1969.12
1339.98
2989.67
-1007.01
1601.78
2633.75
9548.97
7176.01
13310.7
4516.25
15885
14990.2
9872.37
4166.61
3059.33
1808.94
2796.06
1023.19
-1448.63
-636.925
-458.833
-2561.82
-4234.25
-7528.46
-11401.2
-8641.34
-4531.58
-259.769
7385.98
5408.99
1523.7
10551
6417.09
2369.92
7924.02
305.225
3011.9
7662.89
788.67
4331.16
-3101.27
-6355.87
-16845.1
-6484.21
-5301.11
-4343.57
-8981.08
-13582.3
-13407.8
-15438.8
-12009.6
-11631.5
-1788.11
9195.93
6721.7
-2199.77
373.455
-3834.51
-3242.04
2188.22
-2030.01
-4332
427.108
2894.52
2030.32
-362.22
2779.3
-1292.92
-693.321
-1882.14
-5819.27
-7518.06
-2523.78
-5679.52
-3742.64
-1766.69
-5131.39
-4648.21
-1579.81
-2497.18
-5662.6
-9557.9
-3920.89
-1277.86
-3820.96
1063.56
502.414
6147.07
4675.84
7124.44
10618.7
9083.82
7984.41
16804.3
11773.6
12941.1
16467
7416.07
7596.98
3470.36
6227.27
8194.66
9284.76
15044.5
20160.6
26120.2
24952.3
26194.4
21960.2
9340.09
6659.02
4154.45
4592.01
1016.26
1112.35
3756.35
5941.21
176.542
5279.1
5709.44
2653.53
7277.19
9336.81
9141.63
927.57
4410.44
6571.3
8308.48
9391
5483.81
5516.12
2190.83
5569.12
1145.57
998.171
-1988.28
-1605.96
-5045.27
-3439.87
-4370.03
-2192.61
-3120.16
-6982.4
166.562
5726.49
7272.34
5126.27
2832.99
2613.27
3796.13
-4615.08
2772.76
2195.28
-8705.12
-9290.13
-1389.05
2343.61
3367.64
-5317.69
1280.7
428.215
5253.69
-259.217
4925.77
4871.52
3112.16
6681.87
1653.06
649.712
6502.45
14991.1
13882.6
10865.8
11237.1
6156.9
3820.48
2073.04
-3408.03
-6035.73
-5852.73
-9044.16
-5063.4
-3446.29
-2141.25
-2743.62
-5720.15
-11121.8
-9241.34
-11424.2
-8407.48
-4715.51
-12940.1
-11923.7
-5666.2
124.087
-4356.96
-6034.56
-7553.14
-3680.63
-7503.5
-5757.63
1177.2
3474.74
5464.48
1834.93
1995.71
238.651
-85.1436
419.434
-27.0185
464.818
42.9817
2268.88
1047.12
-2768.52
-3280.73
1760.62
1900.21
-658.135
-3373.74
-2137.08
-594.432
-2563.65
-2704.88
-2646.38
-1978.56
999.804
-5369.97
-4725.23
-2242.49
-2546.23
-1880.2
1516.04
1575.08
2133.9
2982.95
4659.81
7884.3
6721.69
5866.75
10073.2
2248.02
3383.41
4240.39
4251.16
8961.1
15265.4
11305.5
5624.95
472.349
6031.27
267.326
3499.99
-1846.88
1287.05
-834.894
6180.43
-1953.29
-4444.25
-775.921
2941.01
1926.2
4313.05
3671.87
1489.82
1783.81
-5018.26
2058.03
1857.66
443.454
-2010.5
741.591
5022.75
4028.4
7156.67
5005.17
4341.8
7585.49
596.021
-8795.08
-3105.4
-7440.28
-20397.3
-12900.9
-12122.4
-5492.7
-1341.97
-1009.36
1030.21
-465.543
110.349
-612.812
3533.3
-3101.36
-3100.26
1487.86
-536.457
3792.22
5338.72
2152.93
4107.22
-7651.45
7816.3
10200.7
6163.88
3885.96
6112.09
4751.58
5059.93
1620.22
-717.667
-135.005
9975.08
8319.32
3921.92
749.995
-2539.16
1479.4
-3714.01
-3602.32
-5742.91
-5674.41
-6250.97
452.871
4305.34
1777.56
-1588.38
3700.84
5993.52
-3893.62
-1606.77
6749.96
8024.39
4029.99
4284.49
5727.7
3662.34
4959.8
12640.2
15361.8
8701.13
6929.68
3898.35
13273.2
14037.9
11159.2
7077.7
3861.08
1606.38
-1088.21
-5690.02
-4848.52
-3791.15
-1169.48
-2622.45
-5029.25
-2509.67
-2303.77
-4392.17
1278.2
1861.87
2363.78
3876.08
986.989
4671.86
12392.9
17083.6
21544.4
9652.22
11188
4016.6
8014.06
6398.25
-12798.9
-9508.78
261.036
-2107
1910.5
312.799
1306.48
13783.8
13847
1541.82
816.473
-4014.19
100.358
2126.38
-324.894
604.301
83.5279
-3785.82
624.984
-1969.67
-2340.9
4705.92
5691.09
5574.32
6333.74
1094.77
-1819.81
670.625
328.465
2699.78
-1660.75
-2083.68
-9288.78
-3442.45
-10504.8
-7394.19
-1621.71
-879.275
-959.607
758.5
181.444
2167.76
44.0443
-672.375
-223.806
-2439.52
2176.36
-1318.74
3146.08
-707.541
-4871.57
-2363.66
-2379.76
-3793.68
-2973.85
-7721.33
-6825.02
-48.2043
-1737.81
163.479
-4683.98
-1596.84
-1223.87
-9492.09
-2289.79
-2447.91
-7627.4
-8223
-2535
-7653.01
-7177.48
4374.98
-647.706
468.301
2122.56
1632.52
3653.33
6010.25
5529.24
11836.1
4988.89
3546.73
-1253.36
-922.111
828.525
-8374.5
3149.35
-6013.89
-242.104
-2546.91
-1743.7
-4454.78
-6654.84
-4703.42
-7959.33
-7088.73
-4011.37
-4487.11
-2237.14
-4618.38
-84.5597
-3214.4
-6082.48
-213.002
167.191
1918.01
3521.92
4191.44
3403.37
-3352.44
-10812.4
-3080.2
4057.89
1359.9
2774.71
6356.81
3624.39
2493.53
5801.54
3918.48
7490.91
5442.38
2778.3
2890.64
1280.55
-4859.56
1045.45
-1523.96
612.231
649.296
1406.11
2198.82
41.4043
-3212.29
-2261.28
-3869.78
-7061.87
-6312.29
-7962.24
-9124.12
-2054.71
-11939.2
-10200.5
-5117.56
-3630.13
-9395.2
-4377.96
-6916.67
-2020.26
-3029.32
2699.75
3951.94
15500.8
19030.9
17454.9
21504.9
10305.1
8012.19
2720.51
1046.1
-785.163
-9194.9
-3506
-3200.99
3244.15
1311.9
976.833
-2349.33
-6178.48
-8141.47
-1997.97
-5346.14
-6426.29
-3300.92
-7333.53
-414.559
7283.98
5967.13
2519.25
-5006.05
-3660.16
-3028.1
4198.47
-2428.39
-644.475
4324.34
18348.5
22147.8
23759.2
17057.2
13165.7
5638.57
3976.51
-598.905
515.207
-5078.79
-5930
-9003.66
-4294.19
4009.7
230.351
-3929.18
-679.501
-3085.64
2377.61
1687.59
-1913.28
-2930.44
-1321.5
-7843.51
-8850.27
-8969.83
-7047.39
-5469.32
-11180
-4944.83
-4184.81
-609.127
-3747.16
-1507
476.157
-502.602
-3308.66
-828.444
993.118
1474.43
3164.26
883.679
4153.66
4838.49
3640.7
4418.2
-1012.99
5266.44
439.628
-2424
-1325.52
-2990.17
3211.55
666.774
3512.43
2832.03
-68.2167
1808.08
-136.229
2315.04
49.7284
-3846.33
3173.45
-5292.2
-1069.9
834.236
1943.76
864.426
406.004
-1274.85
-352.123
-1437.56
-2318.62
-1216.89
-610.74
-1438.05
-927.174
2628.82
2510.22
1396.21
846.186
-4702.63
-5773.07
-5851.98
-7907.06
-11609.6
-9576.93
-6366.94
2793.13
-240.259
-6461.17
-6748.94
-7262.46
-11222
-5322.73
-3019.74
-2630.5
-2064.14
-6884.64
687.507
1445.05
5236.8
-1029.84
-2386.56
-4331.56
436.251
-3440.16
-179.302
-4306
-6026.1
449.437
-2099.04
-4096.37
-6980.67
-4447.5
-5734.91
-2266.03
-7150.79
672.672
6584.22
686.899
3203.86
6789.88
-1559.91
748.31
1320.05
3201.86
4374.97
-1117.64
713.135
-3286.59
-4970.29
-5207.97
-8583.37
4049.99
5971.42
4686.14
3996.78
-2258.48
573.756
-2375.17
-2847.43
-1922.04
-5080.96
-2563.57
-767.905
-3054.97
-6756.3
-3912.39
-1844.46
-1329.72
-5583.51
-4176.25
-943.723
4332.08
201.078
170.672
818.946
1590.07
-5078.4
-864.529
2094.92
-3459.42
3509.59
2911.8
5142.68
742.503
955.414
1344.92
846.751
-1644
-624.077
1431.24
3083.44
4598.28
6211.66
3311.4
740.57
2129.55
3307.14
2526.89
647.75
2411.23
7119.64
7466.96
6243.51
6681.76
6597.67
4157.66
1942.05
-21.7713
2563.23
271.376
353.685
1863.2
4203.61
4702.44
-794.289
2851.25
2955.46
-153.674
-3849.35
-2628.36
-4628.21
-2846.42
3539.76
1719.15
3368.35
6942.47
8510.8
3546.08
-1793.78
-1421.46
-6424.54
-3382.81
-7121.2
-1961.31
-3587.92
-5105.48
970.373
875.143
-1743.03
-80.9515
-1921.81
-9710.75
-9409.17
-12753.5
-24308.3
-14596
-14578.3
-13010.1
-9704.52
-8119.32
808.321
-4887.08
-2645.67
-6749.5
-7911.06
-10925.4
-8833.71
-2190.38
-2709.44
-6741.24
-7850.49
-3404.89
2472.61
5871.05
615.02
6.50971
344.504
5113.61
2701.07
10645.3
9532.14
-1091.74
-9687.76
-14278.7
-7058.98
-7262.19
-6621.99
-7257.12
-13633.9
-22312.1
-21506.3
-23817.1
-7922.8
-9204.01
-10706.8
-5479.57
-3043.7
-3490.02
-3149.77
-5249.17
-6408.63
-3615.65
-5628.12
-1505.75
-9679.83
-513.728
-2425.95
-695.993
1873.12
-1218.56
848.664
-2483
2091.28
-2619.86
-1567.9
-791.555
515.328
-104.076
-1783.58
2444.07
9057.87
3845.87
6583.05
-1748.69
-1265.94
-1333.53
1375.53
1539.56
741.633
1209.34
1092.1
-930.419
-390.982
-311.815
-2092.95
-4634.65
-3446.64
1845.94
2290.09
2733.56
1701.59
-129.103
129.901
8763.94
12105.3
13328.6
16237.6
7443.07
2359.7
4761.45
4557.13
5500.81
113.115
2851.37
5352.18
1408.73
7565.84
7496.2
9138.81
8275.91
4215.32
4698.21
3526.86
1611.07
699.473
159.696
3680.42
2556.73
4771.3
-3959.79
-3768.44
-836.214
2711.26
-31.8036
-2655.44
756.148
12308.8
9858.24
3022.65
4968.49
976.644
6673.03
3383.25
-418.818
2474.79
245.684
279.069
-1365.79
-245.105
-3468.62
-2307.99
-5940.02
-836.9
-2966.51
-11480.4
-15523.7
-13103.9
-8924.58
-6433.14
-6555.1
2491.52
-861.556
-370.124
116.817
1766.82
-7439.35
-6956.63
-6411.11
-1676.15
1313.24
-5981.97
-7194.27
-3790.88
-4802.93
-2508.69
-1089.36
596.116
6242.69
-392.545
-7117.98
-11017.3
-7981.49
-13248.9
-13797.5
-8707.17
-14469.9
-1202.54
-564.906
-730.616
-1191.61
705.978
1801.98
2035
5767.16
-4872.78
-2191.6
-947.028
-650.922
-1377.43
251.131
3247.89
-3597.57
-2648.04
4417.16
7302.35
11755.2
9591
1988.44
4384.81
5931
15699.9
13452.2
18091.9
13670.8
7086.38
4153.45
4579.73
-5639.04
-4196.76
2531.48
2301.58
13341.1
20507.7
19249.8
10623.1
9144.69
7436.86
4656.42
7230.42
3848.87
1468.8
3598.43
2222.71
587.867
3579.69
4030.72
-5146.75
-2629.23
512.776
-222.418
-2343.2
-717.855
3378.02
1240.83
-1244.5
2823.34
4349.17
6909.89
4796.57
6404.66
7248.64
15457.9
15352.2
9237.37
10100.7
3467.25
2471.12
-103.705
7007.51
10164
8644.45
10383.8
4759.7
4955.48
-9910.82
-22777.9
-17629.9
-5446.08
-5537.87
-921.636
808.655
1824.39
2821.22
3452.37
11800.6
7111.56
2592.72
-1822.19
-6189.88
-8447.32
-19290.8
-16600
-15040.8
-16844.2
-13142.8
-9603.46
-4158.23
-1259.08
1306.16
839.207
1058.42
3407.9
4692.92
6400.21
-3006.42
1299.49
3055.04
7164.87
10869.9
7561.37
8893.2
7240.68
-3343.6
-7168.92
-6840.39
-4207.44
134.576
-4423.06
-5808.9
-1430.87
-66.8325
-4423.33
508.209
-6.81225
-296.748
-2690.49
-178.564
1076.32
1422.16
-1016.05
-3835.11
1020.4
3801.82
5570.91
2340.59
1026.19
-4126.66
-4293.94
3315.07
950.833
2803.72
984.564
-5139.71
-4716.57
-3528.85
-242.001
-1778.95
-3765.68
-4515.09
-558.928
-1390.61
-3362.64
2179.52
554.398
2887.77
3766.13
3582.36
2314.11
-2290.36
-590.658
562.994
-5839.56
-3307.45
-2350.72
-902.265
-2052.94
-1259.72
-2221.53
-5410.22
-8103.43
-4445.36
-2716.11
-4181.87
-2150.08
-733.614
-4494.43
-4350.66
919.118
-3397.54
-14855.9
-9345.46
1111.73
1877.67
-153.179
114.048
-3906.59
-1689.69
-1930.76
-2929.33
-502.734
-3723.58
-3068.23
7359.6
11736.6
11130.3
7231.44
202.91
-3099.04
-2793.59
-701.042
-931.586
891.131
165.858
-563.26
1777.31
1133.32
-104.253
-2702.93
-3701.5
-3768.68
-5496.08
1971
36.7136
580.586
-7137.65
-16736.8
-13978.6
-17498.1
-8679.5
-7728.35
-17060.9
-8031.24
-1934.25
-4208.22
-4301.97
-6099.98
-6409.31
-2480.02
6306.07
7736.68
7953.65
6835.04
8470.17
5800.46
468.546
-2014.71
1726.11
-2634.5
4517.22
9613.71
7024.9
6428.44
7924.68
2968.3
1931.78
1778.4
5325.59
4749.69
-2064.24
-4244.6
-6595.55
-4692.88
11.2857
-3341.35
-2246.1
-756.356
-1011.03
904.308
-1116.19
802.092
-230.648
-4536.28
-3242.36
-5498.21
-7098.83
-3180.48
3828.49
-349.833
-2239.14
-5994.42
-5715.22
-6077.47
-2968.06
-12795.4
-8174.61
-4756.08
-1335.01
-2136.43
533.551
-1144.94
-3573.15
-1801
1007.68
1649.99
4078.16
-435.719
-2709.58
-702.666
-1391.17
-2516.16
-6866.09
-6445.19
-2243.09
-6089.07
-1787.55
-918.563
-965.819
1540.31
-2191.43
-344.581
-1700.05
111.402
-2469.23
-1617.55
-2229.86
-2598.51
-670.909
-1702.26
-176.934
76.4953
-898.147
322.711
-722.116
-3102.46
-1911.09
-675.85
85.7922
467.967
-3520.05
-1875.61
1094.67
-534.699
-4529.03
11.9753
2356.07
255.187
-5433.33
-637.051
-993.084
547.648
-2148.1
1363.59
-168.947
-459.745
-6789.56
-8347.07
-3090.87
2428.45
1733.97
-3045.53
-1310.67
-196.127
6492.81
9676.07
7038.48
-6458.3
-4050.42
-6821.39
-3895.99
-9814.12
-10838.4
-6378.38
-2497.39
352.935
4764.84
585.069
1801.01
6838.4
8735.31
1445.09
-1991.68
-4043.44
-2739.7
-1207.62
-3702.04
-4024.8
-1743.65
-2758.72
-646.866
-3371.72
-6223.81
-5391.5
-7791.1
-7037.33
-7568.63
-3047.54
-4869.3
-8184.1
-6347.26
-9211.86
-7535.05
-9172.1
-12303.4
-13222.1
-7744.62
-6811.34
-7750.99
-10194.2
-7947.07
-7871.94
-1821.76
-5257.84
-3376.02
-12100.5
-8399.76
-5852.9
5513.46
5356.2
7823.61
7367.98
6726.14
7291.55
1129.49
1898.52
2886.9
1245.03
1667.03
-739.34
-421.155
-1756.22
217.067
-1295.46
-1554.69
-154.758
-3881.84
-460.6
1957.01
2893.32
5366.51
352.52
-275.673
2399.96
-2436.86
5304.42
12259.1
6506.86
9612.22
7142.09
10095.7
6290.52
10173.1
6492.43
952.507
3335.97
1418.09
3906.15
3254.05
1065.09
1242.54
-4140.1
145.703
-1279.14
1332.39
1340.91
-627.519
401.219
-225.087
8200.17
5585.03
7714.54
431.514
2029.08
-1267.54
-7606.95
-1714.06
-2917.03
1817.98
6061.38
5787.74
1876.36
6795.76
7509.99
-3774.37
-3572.24
-3458.83
-3950.71
2330.62
5460.65
1754.79
241.004
623.061
5130.91
8015.86
15697.1
18936.3
14131.6
11192.4
7091.19
14734.3
13996.7
9266.92
8529.25
8208.64
8770.48
1514.37
5683.07
18007.6
24453.2
32746.6
21060.2
20864.5
10879
6123.74
5832.2
1174.87
8208.53
349.17
3525.45
6134.94
788.338
-774.449
2447.02
2816.24
2673.82
2994.74
1432.24
-161.934
2193.28
1680.31
665.47
819.629
5886.42
1820.62
1439.91
1127.66
-1491.39
-3824.75
515.007
855.94
-4211.77
278.092
-2299.49
-4840
539.018
-3167.04
-3866.95
-1570.97
-201.278
431.778
3859.34
4900.79
3072.67
11690.9
3753.24
-1173.16
5045.33
4776.57
978.111
-2858.44
-1435.27
-884.128
-3605.87
524.354
-2104.25
3259.65
1309.69
1008.99
-244.008
1842.16
-74.6875
4565.89
2637.13
1971.4
2313.4
380.831
-3192.5
-5947.31
-4039.97
-2275.11
-3558.86
-4780.43
-8084.26
-5811.04
-2573.02
-188.754
2237.93
9162.1
2539.54
101.609
-315.989
-3981.47
-2125.62
-3577.09
-2255.47
-777.2
152.284
-1653.64
-461.058
-5191.3
-1593
-3574.76
-1186.38
-2987.78
-1249.96
-4140
-4544.64
-2456.36
-4666.87
-952.347
-2515.18
-1805.29
-834.812
2744.57
-2514.69
-2333.88
-898.873
267.807
-1783.77
787.402
-2573.05
-1566.24
-4219.66
-4021.45
4305.36
3160.76
3858.35
3832.06
3088.49
4814.67
743.056
-535.963
-1138.64
4173.83
-4575.22
-5052.23
-7555.08
-11929.7
-14047.9
-16063.2
-17081.2
-8322.66
-18459.6
-14906.6
-25321
-14086.9
-6833.52
-4848.58
-114.383
-739.699
2016.1
68.6365
901.521
7976.56
5330.17
4243.07
1686.75
4690.32
-8322.11
-5920.75
-5705.61
-6936.71
-777.23
-9765.34
-4327.88
-3707.82
1093.18
1740.18
1857.23
1663.33
-1034.49
-1887.46
-3985.47
-4666.83
-5558.05
-6909.57
-1549.74
-3244.99
-4891.44
-6758.73
-2899.86
-1717.9
-532.741
452.226
569.35
3964.76
-3.5777
-2016.3
-1017.1
-1314.44
-7940.9
-6938.14
-4722.48
5396.71
5647.84
4698.38
3529.76
5018.22
10580.1
10565.7
1942.4
-5134.01
54.1378
-3335.86
-4285
7680.18
3233.98
-176.509
-4438.67
-450.974
-1613.48
185.706
653.71
-3048
-10047.1
-4282.39
-2638.11
-5198.01
-7259.22
-7637.46
-6343.39
-15729.6
-10862
-21567.9
-25450.6
-17164.3
-7157.2
-8619.56
-1078.25
4537.99
7759.83
13945.7
23726.4
28999.2
42764.7
31354.6
20836.9
25286.9
12773.5
9748.02
7637.07
8752.45
13827.2
5094.69
3717.28
-1948.99
-1000.89
-2568.55
441.613
-4388.57
-7542.95
-5505.15
-890.553
-3312.91
-881.603
-1322.25
5277.24
-3076.02
232.076
7176.36
8273.43
5110.56
9626.6
7467.2
9118.78
9388.27
1306.41
-3830.12
-229.869
1063.15
-2833.92
-1044.78
-5557.89
-1677.2
1671.75
-444.815
2699.9
-2600.82
-2706.57
2519.23
3045.76
4112.15
2693.37
-2053.99
-336.922
239.663
238.274
-1337.04
-1333.6
-467.954
-214.612
-1846.05
-2081.48
-1144.04
-3196.86
1975.12
2707.05
2.85261
-5107.34
-4748.13
-676.729
-1843.89
-3139
-264.971
-360.061
-357.507
-285.066
-4564.74
366.214
627.28
9246.55
2140.21
-1556.4
-10609.5
-2506.38
427.343
-1562.77
2151.23
2681.46
-3482.26
-4958.54
-7197.54
-5135.31
-3738.11
739.457
-2257.1
-5465.75
-5608.27
-10160.1
-6527.44
-296.398
-2314.28
-2731
5558.91
1702.33
313.12
6063.28
630.636
0.998808
480.35
-3547.66
2489.92
2751.79
5120.74
8393.25
34.0633
-3698.38
-3061.45
-5500.09
1980.15
-2848.86
-654.008
-1528.09
-4726.82
-6870.02
-9532.18
-5111.76
-621.445
2825.23
643.702
10089.8
4410.69
1721.45
-191.396
-8.25896
2451.94
472.615
-1391.45
-246.112
5330.82
-3616.75
-2472.73
-3716.13
-16853.5
-17281.8
-12523.4
-12749.1
-10039.3
-4445.43
-8403.16
-11232
-7476.34
-11432.5
-17848.3
-18179.2
-27624.8
-31506.7
-24747.2
-17673.1
-6183.07
-20312.5
-10718.8
-6789.28
-2281.52
-4693.86
-5105.56
-816.269
704.271
737.343
4613.07
2689.06
-2684.85
2503.81
6892.15
3939.25
-406.221
2615.97
1684.16
4492.42
5450.66
199.729
10180.2
5785.87
6759.38
-1693.93
-4432.11
-10039.5
-14036.6
-4332.24
-2652.22
-1483.36
-2322.72
1012.09
-1454.03
-3517.57
-110.412
2469.04
368.709
1022.95
-1312.99
5273.1
3237.57
1223.66
1255.96
4058.23
-2181.89
-5173.97
-1588.39
-5070.77
3381.71
3959.64
-1541.74
-12199.4
-16850
-7967.77
-5842.22
-1752.09
-4964.76
-3354.58
-1400.26
2320.98
2412.55
1901.36
6489.8
7346.17
9495.92
4038.2
726.313
-861.137
3242.01
6723.85
-254.34
571.766
446.95
-1653
-3517.12
-3230.12
5055.75
-6106.33
-1681.48
-1671.91
2785.62
1365.51
-1512.69
1456.91
3628.31
4357.16
3053.76
3362.64
1410.23
-2861.12
-4085.52
-10442.4
-7383.69
-2601.77
-2181.98
-2786.46
-1774.99
-5510.07
-136.098
-2091.74
-238.688
2760.23
-985.458
-4071.71
-105.585
-2070.45
-834.147
-2704.29
-3852.82
-1560.65
1828.37
3660.63
5564.92
5532.22
433.774
2403.88
592.32
1135.96
-870.879
1133.66
433.64
2373.19
590.271
5991.35
5348.08
3196.63
7190.22
5787.12
5057.71
3698.24
7483.87
8949.71
9351.87
8542.41
2836.12
7635.4
14400.1
18808.4
2044.91
9302.18
12921.8
3274.8
7434.03
2786.96
459.033
-3161.39
-828.254
-14.6851
6603.01
2798.62
2029.34
-923.713
843.13
1853.26
5811.2
10842.6
7513.96
6555.52
5455.67
5746.17
1928.98
-247.302
101.585
-2077.93
-489.098
-336.973
6409.79
9262.41
12169.4
6165.78
2849.76
2273.55
4772.77
14679.2
12656.1
6949.86
10405.8
8957.46
4407.8
684.539
2622.33
-2856.06
-5694.21
-10272.2
-15738.6
-6884.59
-4113.93
-5513.18
-3455.3
-171.739
-1855.78
-5549.01
-2303.81
2979.31
2387.63
1192.56
2154.92
8566.6
7407.49
6159.48
7948.96
4589.78
2665.44
-1744.32
-2674.95
3784.51
-1276.83
-346.86
-2555.96
3309.56
1165.31
-1093.56
1941.96
-1685.91
-1022
870.769
1053.12
1245.68
-1912.82
1971.98
-2117.74
-2652.78
-6243.67
-4474.96
-488.284
-4290.38
-6848.9
-2639.59
5830.42
4016.83
11421.6
6753.85
7417.07
-342.422
-3070.5
-3540.67
-1195.6
5996.96
4400.7
6153.83
8455.38
2862.42
4756.57
7910.8
6592.57
4706.54
-399.899
-2728.09
-3491.95
-2205.91
1285.59
2386.07
-3973.46
-3147.69
3459.48
15089.5
11825.4
4499.83
1036.48
1078.67
4148.91
-129.042
-1473.19
-149.897
-1462.88
4632.63
-1286.97
-11523.7
-11534.4
-25319.9
-19358.6
-7115.29
-1102.71
-7388.76
1554.92
6376.57
6912.07
5788.34
5650.57
5470.66
2674.29
4967.6
-3550.6
-5651.44
-1130.67
1562.3
5716.39
-1564.41
3465.04
2527.79
1045.32
-1885.96
138.053
-1433.49
3776.09
1544.67
-74.6222
-2688.37
-3907.2
-1735.87
-844.227
-639.43
1879.54
538.818
2185.1
396.717
3801.49
-74.6388
-3928.42
-2183.7
-6205.58
-2073.15
3315.3
1507.69
-772.497
-379.557
-669.064
5245.71
6552.13
10300.7
7746.71
4822.81
19994.4
16455.5
20868
31378.4
26918.3
15618.2
20277.7
9455.71
8941.8
9349.8
10832.5
4896.43
60.5243
-2725.37
-1488.32
1825.09
2739.22
346.371
-1171.22
-758.961
892.719
132.359
-3379.87
-2684.28
117.711
844.547
2572.28
-1186.58
1168.41
-1609.51
824.213
2341.91
-29.1658
3738.74
1562.6
-1743.56
1382.35
1668.93
5484.78
8064.2
4448.83
-3948.38
-227.204
-940.006
-6285.08
-1491.03
-798.431
1299.39
4979.28
5135.08
5430.41
5561.9
3123.95
17625.8
16026.5
14495.8
16317.9
12459.5
10150.1
6201.25
7738.41
2445.13
5075.38
5621.43
1750.71
-7545.79
-7524.28
-10099.1
-16899.6
-10996.5
-18227.5
-16008
-9544.25
-9159.53
-10949.6
-6951.74
-6080.24
-797.151
2548.02
-193.029
3272.09
3619.48
3449.16
1248.2
4105.51
6734.63
1287.48
1675.86
2085.78
490.409
-1504.11
-1926.87
860.611
-8903.82
-3554.09
-8780.82
-2335.34
-2395.95
-3793.89
-3736.53
-5664.49
-16.7541
240.101
1365.14
165.929
-803.946
-319.482
502.364
816.021
1113.88
4253.58
-2446.91
1875.44
-1434.01
594.804
-3747.96
138.766
-10304.3
-9192.29
-6537.02
-4237.37
-2144.68
-612.671
-2110.71
-719.681
-2243.72
-1632.95
-5844.08
-3100.12
1063.19
-1357.71
-5966.48
-5977.45
-5800.71
-5001.83
-6969.77
-8853.46
-5059.3
-3018.19
-792.778
-2189.34
69.3351
-454.691
3237.06
-3760.6
-6741.43
-7139.35
-7197.64
-2542.84
-422.281
2897.95
1858.53
-918.331
1438.7
6397.14
7740.78
9104.8
6833.94
1330.08
5825.08
4797.29
-5755.47
-1973.83
6115.72
2101.02
-1174.48
-1398.33
-6679.47
-2099.27
-692.118
-424.15
-2881.63
-3736.38
2296.35
503.153
3462.41
-532.839
-3491.75
3725.38
320.064
1925.01
7704.27
4996.15
2770
7602.83
835.873
-650.81
250.346
239.304
-1005.72
123.711
-744.81
1172.78
1789.4
-2074.27
-1677.91
-5554.72
-1967.61
60.676
1583.99
-1328.8
-2671.01
1516.67
-78.7532
3305.56
2022.49
-2982.69
-4847.89
-8007.11
-4864.46
-2499.85
-5399.9
-6198.74
-976.893
433.942
713.132
2401.01
4362
3217.24
1672.7
3162.73
637.748
4783.42
11175.4
9275.61
22091.2
16044.2
22152.5
16885.9
19317
14711.4
19164.4
8420.32
12509.1
11666.5
5936.45
8347.86
8863.14
6448.01
-913.183
-1610.55
674.217
1296.25
3326.3
242.361
-113.699
-2398.35
-12005.6
-1801.36
-1507.43
-2254.57
-1064.11
-1.65351
-22.3599
-5888.71
-7204.29
-5050.95
30.8171
858.309
-1344.71
-1402.27
589.793
-1726.36
2094.99
2162.33
4313.98
2315.96
1145.58
2807.09
2260.4
1614.2
2709.71
4804.9
-1661.96
920.785
-1967.01
751.082
3596.77
15735.5
15444.4
8882.22
13159
9770.86
9789.01
3576.06
-4462.1
-2954.75
-1407.84
-5638.24
-8985.15
-13565.1
-6463.44
-2320.82
311.794
-4479.63
-9903.43
634.751
1342.82
2658.69
14071.2
17355.3
16131.2
6650.17
11654.6
5928.62
524.812
5271.03
6707.72
9611.21
1198.59
1270.04
4185.66
4457.61
2616.21
-876.741
-2892.67
-920.965
-3479.42
887.806
760.541
3866.47
3394.6
1378.75
2805.41
3280.76
270.959
351.957
-1487.23
-537.188
994.679
971.477
432.531
-4772.03
1379.2
6965.93
12164.8
21286.7
23629.8
17750.3
20814.1
24905.6
20817.9
14842.4
8964.61
10862.7
12449.5
6367.76
5240.81
4875.98
4994.8
4787.5
1682.31
7823.22
2549.49
3560.96
3164.06
844.045
2001.85
2302.87
8885.77
7429.41
11849.5
7992.13
6898.28
5079.5
9008.86
15900.9
6499.89
10449.7
14900.6
14513.2
17434.2
22626.8
21973
15720.4
1761.75
12302.9
16686.6
14016.6
20989.4
16983.6
11801.2
9383.91
17577.3
17845.6
19137.8
21377.3
15547
20170.6
23558.4
44902.9
31356
29819.2
25743.9
30710.7
35843
24259.3
20648.4
20150
25119.7
17780.2
15916.8
24855.1
20846.3
23841.2
20046.8
24965.9
21555.6
15537.7
19508.8
4850.73
6330.59
10363.2
10455.8
18578.2
28009.6
34739.6
18916.8
7428.19
-7433.98
-2543.34
-2831.23
3507.66
8498.22
5792.66
20307.6
12129.1
6837.35
1052.69
-3448.38
-5335.98
-3477.8
-6542.78
-3596.04
-2363.52
-1936.14
3820.68
4256.78
14083.9
14279.1
15014.1
13439.8
12677.6
7781.9
9850.33
259.837
3367.04
3009.07
1221.18
327.74
-3723.78
-1899.96
-850.165
-9279.66
-6308.53
-6350.87
-6745.35
-3129.58
-3474.77
-638.518
-3305.16
-5552.58
-8409.34
-11456.4
-10827.3
-8151.13
-5786
-598.709
-1720.32
-3017.42
-5497.06
-659.057
-1.07047
3902.08
6830
3323.19
4136.36
4003.49
-1272.5
5408.56
10425.6
9721.12
4183.64
3577.52
6492.78
8754.17
2148.85
2101.97
-5178.6
-4124.8
-4623.4
-1176.65
-3006.96
-2748
725.432
1321.26
-796.828
7100.95
5074.08
-1203.09
-4270.71
-2358.12
-1338.73
-2281.21
-4632.62
-10490.2
-5921.35
-2200.12
-3103.09
-6723.52
-12864.2
-5959.19
-3995.94
-4210.88
-1495.38
-1274.62
229.814
-1872.21
-4200.43
-4306.44
-5857.05
1971.48
2530.51
-317.973
1588.86
446.134
93.4028
2247.18
-1926.98
-2651.09
-2591.78
-1066.48
-4966.79
-7901.07
-7801.06
-8606.01
-5613.1
-13640.7
-10755.2
2376.95
-660.081
-3026.23
1825.5
-5222.92
218.573
-4134.75
-6511.82
-3192.33
-6213.96
-4898.4
-6328.8
-2807.02
-933.057
-717.627
5048.48
-4930.52
-3159.9
-3347.42
-576.442
-753.943
-3380.77
-5014.9
1933.99
1941.56
6371.01
85.0792
846.438
3264.51
-1160.93
-128.515
-292.955
-1764.33
-952.879
4303.91
5665.55
3341.53
5451.31
877.613
-864.935
6365.07
201.035
610.565
4181.97
2145.76
1230.06
5865.7
5399.33
835.679
-455.489
-2036.79
635.689
3290.19
432.576
3832.18
12683.5
5374
8708.11
7134.24
4995.18
5250.16
1531.66
5738.13
12527.7
9815.87
-483.702
3204.81
9280.02
15844.6
16993.5
5972.19
-3768.6
-490.657
-2171.43
-2020.46
-767.27
-2855.88
-1609.98
-1021.55
2773.4
-420.513
3267.85
2626.57
1154.46
1164.86
482.367
1759.89
4634.21
2393.19
3515.07
-4441.21
4035.2
3229.31
4259.11
-498.632
-6614.46
-3708.64
2599.58
1090.6
-4921.93
5104.09
5317.34
6897.05
6445.45
10238.6
7252.33
12057.2
4523.61
3641.98
2089.46
-1411.49
-3347.93
-3680.75
-1871.6
-3607.52
-935.537
5692.54
3621.26
1888.33
3011.21
7559.02
5563.44
7255.99
4265.05
-918.954
-3261.56
-2986.39
-1948.81
-1911.84
-4714
-4626.95
-1990.24
-6368.92
-3172.28
-3377.88
-10213.9
-7231.9
1267.35
1119.73
375.571
-2540.67
-5896.53
3914.19
919.194
-320.383
-2415.37
-4700.76
-5579.46
-6014.72
-7050.46
-4854.21
-919.127
-2072.44
1401.7
3515.45
3347.12
4109.46
-2397.06
-2950.39
-3969.7
1670.85
-623.159
2478.52
3402.54
4327.21
4440.35
13416.6
9824.54
12149.9
2907.7
2602.13
61.3363
-374.388
5331.23
1207.11
4077.26
7898.38
9939.67
9672.08
8626.52
5549.48
5938.85
3600.6
1705.14
-3926.69
5481.23
529.509
2377.55
1296.06
7489.15
8284.39
5411.08
5431.47
3165.53
8235.49
4422.45
7393.25
10801
6787.73
5144.25
-44.6789
-4495.28
-14537.4
-14923.4
-10564.8
-5776.94
-6612.08
-8498.76
-178.591
809.849
-879.675
1241.08
1696.48
3176
1604.37
236.619
-1284.76
821.062
2853.43
-2009.02
-5231.21
-2248.56
-4655.09
564.552
-6541.8
-7453.1
-4422.71
-4250.16
-14181.9
-19277.4
-16757.4
-18676.7
-10296.5
-6490.25
-1442.55
-2655.12
303.618
-3121.1
-3124.56
-1931.81
154.344
13900.2
14902.2
6023.97
7532.25
1645.74
-711.221
-6267.22
-3802.41
-1419.24
-436.95
-5904.85
-1757.48
-2218.54
-2842.67
240.526
-1813.48
1443.82
657.312
305.205
-1091.54
-2413.55
-2603.93
2655.36
-824.409
-1159.93
-2722.81
-4013.82
-7119.97
-5187.31
3449.54
6082.24
7899.51
1678.41
-2581.49
-210.001
-3530.9
-2722.54
-9391.45
-4107.23
-1189.35
659.698
-1078.66
3107.21
5527.15
-1428.9
-3612.2
-2124.16
-2879.95
-1029.58
-6391.44
-5160.72
-6405.84
-1628.64
-2515.29
10976.8
16910.8
12887
18044.2
7628.44
13558.9
12527.6
13135.5
4347.15
3300.66
3504.75
1005.71
2750.42
8803.81
8066.51
2994.16
4327
2288.27
869.234
-3715.89
-4052.44
-3670.91
1355.68
-2896.08
-2401.02
-9746.78
-4339.03
1907.95
-736.159
-4002.3
-265.743
-2381.44
1176.14
4832.04
2342.72
1522.84
-1784.62
-242.299
803.551
1337.78
145.918
3292.25
9164.26
15215.4
9679.56
6924.37
-4334.32
-3362.84
-2305.6
-1466.85
-652.705
-5178.38
-3247.61
-8340.72
-6143.36
-7330.42
-10848.4
-8277.6
-12377.1
-8003.51
-3803.75
-4309.6
-3804.1
-6660.14
-15447.4
-15954.2
-9195.55
-7144.34
-7924.12
-6517.98
-5694.97
-3388.84
-4641.47
-6388.01
-15879.5
-14611.3
-16750.7
-21708
-12040.1
-19609.4
-9633.4
-11392.8
-7178.2
-5914.63
512.597
-10473.4
-16230.5
-12614.8
-2402.2
-1589.93
-7654.7
-10697.3
-1900.31
-1769.49
1887.07
2148.88
302.995
966.507
-3968.94
-2246.73
-1820.76
-2750.11
3031.65
1909.08
38.1829
-4751.28
-8871.92
-5904.6
-7903.28
-2895.42
-4460.13
-4828.57
-2113.55
-8530.39
-3564.77
-1263.04
-85.5176
-2858.66
-3503.93
-7906.56
-3710.29
-3460.84
-399.208
-847.031
-12303.3
-8354.02
-7513.72
-3648.02
-9876.94
-13975.1
-6446.39
-9528.05
-4241.73
-8379.99
-5322.6
-3037.06
1033.42
-1574.97
1238.54
-594.301
979.099
-1686.02
-2820.64
-3245.73
-3805.18
-1411.09
-1706.53
4145.94
9283.92
12769.4
5115.35
4004.61
1500.47
2093.02
4150.77
1672.28
-911.115
4242.26
1395.07
-3500.35
-3200.97
-765.586
-1945.92
3573.03
-777.564
420.218
-1931.9
-2760
-944.746
-163.939
-4740.76
-7849.95
-1879.13
1311.34
2223.86
-1661.67
2155.34
3975.33
-1799.43
-9398.91
-8900.36
-13204.5
-9592.11
1659.37
3948.74
4151.12
4838.02
-3574.02
-5065.93
-1020.09
5117.3
960.328
-352.997
-5494.25
-2618.3
-920.078
-799.341
2690.86
6000.5
8211.31
1141.67
-3927.42
1891.17
498.383
2228.02
5419.94
-1394.74
-1145.45
-3198.38
-7869.59
2034.94
-466.544
1822.88
-984.894
755.372
-807.174
765.348
-5009.87
549.23
8047.69
9118.7
2091.47
711.414
2419.48
3770.47
-3250.2
2039.57
1527.05
40.1136
2126.85
788.893
-1779.76
-1236.62
1882.67
2427.13
995.26
-526.314
-1673.85
2119.24
1694.69
627.156
2826.74
1692.26
6893.51
1212.83
3666.75
6221.94
1414.81
2996.49
9143.58
5542.16
6803.03
6863.25
-803.095
1731.78
-3952.29
-2878.31
-4762.02
-3533.39
-2470.21
-6859.72
-8489.69
-5932.44
-9505.74
-6104.2
-1818.74
-3407.94
1638.23
-3803.49
-1652.52
597.2
-91.4765
828.914
-2219.31
-1382.17
-3298.63
-1943.48
-583.445
-759.408
-2728.15
-780.816
447.733
3157.06
4931.86
8459.27
7334.95
1927.83
-496.232
4110.18
6480.22
1661.29
4742.97
-1665.22
-2425.84
597.389
-9341.48
-3589.7
-1825.25
-419.469
13032.7
2192.61
968.872
6295.38
799.299
-1320.08
623.591
-7175.87
-12949.6
-7805.21
-2808.11
602.351
-2469.87
-2945.71
-4950.41
-1413.25
104.303
566.319
2859.35
-2906.78
-6841.48
-3378.85
-6171.21
-1696.64
1353.44
2510.2
501.915
183.317
1706.81
643.794
2193.91
4142.44
2727.26
5382.39
1280.63
4418.4
4456.76
4346.72
-1470.89
-5819.65
-906.838
1320.41
4983.56
3337.1
574.054
309.64
1949.7
-684.034
1662.11
958.551
881.964
-2642
-4009.68
-2979.18
840.563
1948.71
-640.079
-941.095
-3274.14
-2191.27
-6002.09
-4054.45
-3713.68
1776.23
4394.08
3103.23
2879.17
-346.535
-5210.09
-4219.65
-1097.89
-2222.06
3233.75
5323.82
3294.01
621.706
2170.12
3111.13
7338.12
5537.02
7913.64
-2268.36
-3354.81
-5031.62
216.669
-8368.76
-13412
-5664.69
-5993.86
-5279.99
-11551.6
-10956.4
-8446.27
-12254.8
-16565.2
-13379.5
-9853.97
-7424.67
-10946.5
-10452.7
-11445.8
-14186.9
-8585.68
-8113.02
-2574.15
1333.74
1346.5
15194.9
11325.1
10111.9
14135.4
7336.57
7841.37
15631.1
16623.2
17352
9119.15
14117
14128.4
11712.7
14097.4
10353.9
6978.33
3725.68
10513.6
5008.88
3996.39
4546.22
3857.55
6536.52
5965.81
658.298
-4370.86
-3530.05
1547.81
1122
2657.83
5608.72
2221.64
1906.03
-1889.87
-971.344
-637.029
972.875
6927.88
15132.3
12361.7
2943.49
8718.4
4662.2
14771.4
9778.18
11141.8
19868.3
17897.9
19168.4
15686.1
12245.9
10165.2
4259.93
4563.63
5952.36
8775.79
5753.36
3866.93
10535.7
7161.8
7861.1
6482.02
6043.48
-1155.16
2498.04
3308.84
1517.11
949.815
1542.04
-3107.91
-3433.67
-1134.9
-1654.13
-1170.07
-3522.28
-1654.63
-4004.44
-4787.66
-1965.18
-4434.16
-14.5475
-1856.28
-506.422
-2910.95
-2731.08
-1709.11
-9626.38
-4414.6
-4400.81
-3181.23
-3940.12
-3006.09
-960.914
125.654
104.698
938.317
2169.45
1409.56
6621.67
4617.09
-314.55
339.531
5600.01
2663.21
873.324
-4574.59
-2357.79
3534.79
-1565.56
1315.68
-951.73
-8771.68
-8391.58
-2212.48
-2500.09
386.135
2893.27
-4904.23
-5427.26
858.476
2157.35
2237.94
6935.33
3554.82
6696.3
2254.2
7172.6
11660.7
5710.82
12311.4
8448.22
2133.33
2434.85
7812.15
12499.3
11131.6
1147.8
-4632.54
-7907.39
-11578.6
-24789.9
-24083.9
-22261.2
-13209.1
-14774.6
-11346.5
-11462.9
-9453.94
-1941.04
-260.961
-1042
-2598.79
-723.378
8057.27
5691.84
661.573
2603.68
3702.72
399.924
-1384.18
-853.933
-276.26
91.2408
-3013.91
-3526.39
2542.2
11039.5
8583.08
8097.86
4387.39
-3831.33
-4246.22
-2342.09
-5346.73
-7967.02
-3932.01
-1144.26
-1467.73
1691.38
4314.76
1470.67
3920.12
1610.88
-3218.21
-675.024
-4235.4
-12069
-14725.9
-10428.9
-5819.2
-7847.04
-2953.66
-4689.92
-190.542
-6964.6
-5571.61
-6521.11
-5849.54
-2924.89
-1252.32
-1518.93
1670.54
248.871
-2394.58
4610.54
3227.08
-642.486
1544.59
1936.38
3112.02
1000.23
80.2861
-924.637
-2368.33
2288.52
462.945
-3770.52
-3910.49
-275.143
-6325.72
-389.33
-155.881
-2589.32
2274.41
4078.41
-2899.75
960.693
-4510.29
-7523.21
-6115.77
220.037
-2561.12
1707.04
661.135
-518.164
1206.38
-3478.26
-4589.06
1118.88
-468.64
1626.66
-1021.24
1118.38
-4386.23
-6549.61
-5527.33
-3125.79
-1392.35
-3829.95
195.234
484.643
-1978.57
-409.024
-3734.71
-2606.08
-782.124
-100.928
-2002.69
-167.289
-1894.74
3983.37
7476.21
-653.761
-7466.75
-3441.75
-7401.23
-8160.29
-8601.11
-2104.11
-1721.34
4477.14
24778.6
29370.3
27095.7
21044.6
20067.9
26303.7
20752.6
24751.5
26264.9
17595.4
14360.5
5239.48
10713.3
10803.8
11809
9528.12
1712.26
-3783.34
-2419.05
-990.861
232.888
-2733.62
-1885.2
2441.29
-331.436
1119.9
-359.806
-2379.53
-3003.01
-621.563
3170.36
-803.778
-860.557
-1519.59
-1165.3
-1268.38
-970.893
2081.71
-3445.17
-8645.14
-8321.58
-7957.15
-9002.72
-8663.5
-15560.7
-11871.1
-7678.61
-4013.84
-10000.2
-7477.49
147.437
-6512.05
-4451.14
-3931.22
2118.75
1394.42
4579.04
2822.97
1191.42
-190.971
-8142.49
-11327.1
-9301.17
-12658.7
-9369.41
-11894
-6373.31
-3574.03
-2882.48
-5522.8
-5280.36
-2030.77
-4330.16
-6245.02
-2145.76
974.633
-732.493
3166.24
5357.7
12089.1
10741.3
2313.15
986.181
-1148.62
-2239
2872.56
3856.74
3577.01
4902.21
3252.74
8150.36
5828.49
2148.77
-4090.11
-171.97
481.821
2065.44
-1278.66
-3257.37
6353.38
3557.1
4738.27
5108.1
3218.28
6565.33
9288.9
7505.99
5274.17
6813.21
7159.42
2114.59
13827
7753.66
3383.62
7187.78
8848.28
297.022
-462.572
-2875.13
-4457.32
-3811.37
1103.11
5604.32
1147.15
-1189.51
-8204.23
-5453.3
-665.042
-2245.94
6467.84
7563.68
9662.03
6885.16
2250.19
349.204
-4307.42
-6483.67
-9563.85
-3864.08
-5188.74
863.39
-4686.86
-5696.66
-3423.35
-7025.85
-5039.24
-5068.78
3280.29
1791.01
3656.5
1825.59
5452.32
8106.44
8481.98
3324.7
2243.37
-329.044
1976.6
-2750.92
-668.956
-2364.1
-1717.92
-6540.15
-4258.07
-7076.92
-10649.2
-19160.8
-17189
-6432.3
-2581.12
-4424.43
3833.46
1129.01
-6894.03
-8403.81
-10309
-4766.65
-8394.24
-2521.02
-1182.15
-6630.09
-1084.42
2611.89
-785.551
-358.535
2488.5
3579.81
2504.86
2331.37
5183.8
6437.47
4986.27
765.218
56.0437
-318.575
605.64
3900.49
3559.13
4783.16
1590.63
-3777.42
-5995.64
-7215.91
-1410.8
-3942.99
-6517.56
183.67
2117.24
-2227.11
-23.3702
-1333.6
-1934.21
2459.41
-3334.19
-2334.18
-5574.43
711.728
1434.7
774.144
-1010.06
-866.674
-3249.46
-2502.34
-3108.76
-829.791
-2704.82
-7383.5
-2670.77
1908.04
6390
5303.01
4003.83
2368.54
-2465.23
883.354
-3998.91
-150.508
82.5923
-1887.01
-3325.37
-6398.43
-5467.27
-3590.6
-5881.61
-7615.95
-9054.18
-15748
-6726.12
-6699.91
-5018.33
3570.74
-2161.39
2732.86
4810.29
-616.737
7570.5
6832.84
5909.19
6023.6
1765.66
7095.78
2413.29
2048.02
-62.902
1570.64
637.433
2092.21
3523.27
362.782
-985.925
162.263
-4955.85
-1121.05
-2791.38
-3923.53
-5056.99
-2958.15
207.452
1004.65
-2031.14
-1251.61
2320.01
1428.99
2565.34
524.228
-3187.4
-1297.61
-959.382
-2251.48
-586.913
-2091.6
-3744.24
226.618
1940.15
-4421.18
-3355.47
901.334
5802.24
2183.69
2823.42
93.5032
-3369.94
-6091.66
-7087.5
-8849.35
-4466.72
-4929.31
-3257.14
-2437.8
-1643.27
-1451.75
1112.77
-1568.58
-1594.8
-5191
-7018.75
-2561.35
11949.8
19016.6
19172.7
17218.4
15160.7
14804.9
18924
13598.9
13358.5
3365.01
6481.58
5781.13
8551.82
9924.52
13156.4
1887.5
4653.51
3055.93
1309.45
1379.38
-441.049
3491.35
-1850.85
461.427
-2844.79
-5119.85
115.271
1941.08
3896.53
-253.163
3163.02
3160.17
-2203.53
11.9131
-2678.45
-1924.71
205.98
1231.24
553.745
1606.51
3778.61
6132.71
9496.78
12645.7
10749.4
7772.68
1158.11
4525.08
4448.58
434.238
1916.54
-1225.54
2703.72
1302
2436.37
3887.41
3429.81
3245.5
5355.56
3413.77
-5359.53
1140.51
5301.18
5036.7
-1444.97
-1151.59
-3642.31
-5015.14
-5690.38
-7019.05
-6990.66
1086.19
-2378.8
-2223.57
2084.11
1422.58
-1234.42
-3705.28
1875.12
-2320.08
-9826.5
-9382.6
-8933.53
-6835.57
-5685.19
-9701.08
-6228.73
4545.46
4458.26
647.158
-1378.94
-2961.25
-1823.26
155.301
-3022.19
-2161.24
-502.561
-4224.24
-4026.29
-6174.69
2382.55
1069.36
-10.6418
-2597.28
-3318.47
240.511
-3419.98
1613.25
-2370.35
1407.88
1030.47
5240.68
-248.503
-4212.69
-2260.81
1956.59
-3259.9
-201.449
-683.436
1354.64
-3154.67
1293.51
1295.19
-128.655
-2330.98
-121.146
-3400.12
1516.53
1928.63
6053.16
4292.2
8138.72
4147.48
352.879
127.544
-90.0791
47.8814
-1861.23
1588.31
773.028
-50.8367
-1102.85
4309.25
-875.792
-1619
-1748.98
1403.57
2606.13
3005.94
-91.6294
4769.43
6369.14
9365.85
8233.97
16346.2
20795.5
17625
8479.75
5600.43
7847.39
927.267
650.392
-2840.78
-3965.89
-1254.64
1702.78
-2314.59
-3246.54
440.739
-3756.08
-7378.46
-3514.11
481.849
745.792
179.47
1268.05
-2769.35
-923.662
878.618
-1121.39
-1971.98
-5518.92
-261.497
496.42
604.526
2758.72
2007.36
-5283.07
-5599.49
-5382.21
-6297.42
-10339.6
-5774.34
-7199
-3013.72
-3299.98
-1126.08
4434.22
4738.34
849.372
5725.49
6933.84
11267.8
451.477
4025.46
5869.04
5086.24
7593.83
3550.32
-3561.72
-6066.71
-6798.58
-6304.26
-200.699
-5139.05
-1622.52
-1767.1
-786.191
-5854.07
-5736.86
-662.889
1521.26
-6162.38
-10351
-4019.8
-2737.85
5451.52
-100.074
1906.38
4044.64
-1559.97
4402.11
2330.66
-3468.54
-2096.55
-6790.28
-9091.35
-14058.9
-8615.67
-9556.62
-6757.61
-7262.35
-2020.84
742.426
-2869.95
-3287.64
-3288.97
-6683.93
68.8686
-1542.13
-2427.12
-3490.53
-832.713
1674.12
5346.72
-4004.07
-2230.04
7944.27
10014.9
13095.5
3908.31
-1195.91
-1961.36
-5158.75
-7178.38
-1065.06
-7744.84
-5418.52
-4771.27
789.573
-972.409
4669.68
3526.69
12802.3
17694
23013.2
33663.8
32106.7
15446.5
11251.7
6405.16
12688.3
9595.45
6786.57
16218.7
14634.6
5236.65
696.847
1147.24
3575.75
1196.44
-2738.38
4320.98
5095.63
173.674
-81.6251
-3184.13
-5524.21
-4637.97
-570.86
190.429
1502.49
2204.17
5905.82
3429.91
1761.27
-2064.84
-3867.23
-9117.88
-6731.26
-4279.25
-2584.92
-5737.18
-8755
-5781.82
-9257.12
-9460.68
-3714.18
1634.2
1013.14
-6290.3
-3469.36
-4134.96
-4199.86
5225.03
5106.07
2523.55
3009.17
1604.88
4592.43
-8115.69
-8068.75
536.373
7500.7
12252
11935.8
11570.7
12192.5
9966
2728.51
8088.33
4654.45
12251.3
3323.48
7509.15
8601.08
8269.74
6239.6
10007.6
9864.61
15749.2
13766.7
20777
9084.21
9538.96
5731.49
3225.35
-604.281
-75.48
-6071.91
-2831.7
-5877.7
1875.57
2441.78
533.986
516.507
-3608.01
-4745.02
2643.25
804.157
-2222.66
-131.385
-1144.05
692.46
-7396.47
-7924.42
-12392.8
-9773.74
-5701.59
-2805.83
-2504.71
780.532
3970.51
2810.16
-2870.4
-2233.08
-3060.61
-7523.47
-4497.36
-1276.78
-514.942
2352.96
-3763.95
1191.87
4481.3
1150.19
6071.22
7495.95
2624.98
784.473
4047.86
4102.25
-117.014
-123.055
1538.17
11897.1
9856.45
22705
9612.65
13562.4
19158.4
14831.9
9985.92
7350.48
5627.05
3702.57
-1173.92
3598.35
-858.716
-2568
-1911.04
-2555.86
-359.418
-1453.69
-2674.4
-2731.04
-4696.82
-529.66
-2657.33
-2823.32
-5235.8
-11350.6
-3766.29
-403.955
-506.6
-3779.28
1085.25
-4903.92
-2930.2
3108.63
1850.4
1418.36
-499.411
-2920.82
396.219
3925.21
3365.11
-173.168
2521.09
4264.1
2123.09
-392.298
-1812.77
6012.32
5249.05
2065.81
5389.6
5869.55
7296.41
2042.8
-614.017
-1214.77
2419.79
503.258
58.6867
-967.441
-2714.65
12.5045
6497.65
336.566
-2972.44
2045.3
765.942
954.553
-298.969
-1520.4
-5415.32
4734.08
4176.37
5135.03
5306.71
3161.97
-561.328
-755.703
3943.94
1251.65
-592.207
12.0526
2913.19
2893.89
4678.92
2323.84
591.32
675.104
35.7163
1970.71
-3436.77
3316.13
3765.96
-1934.99
6053.45
4537.64
8495.11
6461.54
4776.63
1815.3
-1069.04
5684.13
4812.41
8560
8990.76
3004.28
4026.86
2273.43
-2035.63
-10328.3
3341.29
846.923
-75.8913
-3885.46
218.993
1273.91
-2015.93
-855.26
2168.82
1404.58
-4215.48
-5824.57
-5616.97
-2732.45
-9824.07
274.689
10324.7
-7748.4
-7359.46
-11091.2
-5631.52
-4.87338
2656.31
-2132.13
-486.217
-4075.76
-3518.47
-2053.95
-7003.22
-5776.83
-8221.58
-5903.24
-3185.86
-5227.14
-6847.28
-251.49
-755.342
6415.58
4022.43
1235.61
1302.27
2772.4
6427.29
8580.95
6493.67
6515.75
3043.2
875.359
860.584
99.0312
-813.988
2212.77
5212.67
-1521.39
-5371.11
-2093.64
-949.574
6465.04
12664.9
18851.1
19970.8
14235.3
13548
11330.6
6003.9
1036.73
-5140.75
-8379.92
-8987.15
-7917.57
-10541.4
-10299.8
-12282.4
-7768.02
-3865.3
10241.9
2370.75
-1333.54
-6567.98
-10987.6
-9530.86
-3043.96
1438.3
-2017.98
1710.97
1531.16
4145.84
2526.86
-1177.53
373.871
5733.78
2735.97
12297.8
8518.25
1231.78
4538
6846.03
9642.71
7315.76
3062.71
4030.29
-2152.86
331.269
549.727
-438.183
1877.63
-3538.88
-3407.41
-5017.13
-1827.72
-5641.55
-4026.35
-2186.03
-912.572
1863.34
1853.82
2214.7
3177.96
3111.66
796.316
-2802.11
6266.79
3266.33
5169.19
-1796.38
-3391.47
-6761.59
-14501.5
-9478.78
-6404.32
712.942
3870.37
7248.55
3199.72
-4018.36
-13956.3
-4405.76
-11696.5
-7398.55
-2460.85
3180.4
1157.99
-352.867
-6925.62
-2329.73
3463.16
1408.51
6953.21
8864.23
20930.3
9580.28
575.988
-2381.17
-944.274
-707.174
-4768.84
-1987.78
-2845.55
-9054.06
-6666.21
-1720.76
-7579.71
-424.247
-23.8511
-3159.54
-4860.79
-7238.65
-4770.46
-11160.3
-4014.87
1001.53
3413.76
3230.69
-129.045
4190.4
6621.97
5942.26
5020.61
2941.91
37.3685
-1481.85
-1210.71
-1938.35
-4790.38
-2269.18
4560.82
2707.34
5682.17
4917.12
6631.28
421.979
-8703.35
-12277.8
-6914.89
-5893.21
-4457.01
-2865.82
-4657.24
2611.86
11749.8
11969.4
18257.9
8239.4
4032.87
3465.24
4543.17
10131.1
4731.07
6891.75
10078.4
9248.8
8864.79
9826.09
9210.06
10943.6
4203.89
12932.6
7146.86
3606.39
-3020.02
3139.47
-151.639
6000.69
7159.36
2434.79
3168.64
-2999.36
-1790.4
-285.517
120.077
-165
33.3248
2859.56
-1484.77
4013.19
6129.26
5647.98
3582.41
1216.11
-4401.32
2020.46
460.093
-1707.73
-948.58
-3137.5
-5800.97
-4175.36
-4304.39
3471.13
1490.68
1193.12
-592.735
595.819
1858.99
-556.983
5243
5743.9
3613.39
9022.31
10199.7
4452.41
-261.668
1554.91
6594.8
4325.41
6738.33
-1235.92
-1491.73
-2160.24
3602.12
3637.42
40.8022
-4028.77
-1676.52
995.629
735.751
1066.03
-4999.14
-4751.39
2626.95
4775.83
1453.01
-951.025
-11.0828
693.495
-1615.78
1331.95
5024.22
6590.94
3227.4
2110.62
108.012
-4399.9
1006.79
477.083
-1740.85
-1491.44
2700.91
3314.17
538.717
-166.606
-2386.95
1822.37
6128.49
-8251.99
-7529.44
-1673.56
411.396
-485.032
-488.294
-748.557
-2711.83
-2693.74
835.072
1684.02
-2817.28
-1049.47
-1996.01
-2248.11
-4329.78
853.463
1095.04
-1904.27
-1854.07
-2255.78
-6915.07
-10455.4
-7361.66
-11444.7
-1050.76
-3277.38
-2747.43
-4187.01
-11927
-5804.7
-7331.7
-3226.45
-843.717
1140.74
-2195.58
-5944.65
-3523.65
-5579.03
-9535.24
-5349.72
-1823.13
-310.381
82.47
496.432
7473.1
2855.19
6945
7172.13
7551.01
2489.62
-3218.21
-3199.45
-1462.39
-4986.98
1927.97
-3165.5
-7888.22
-4160.88
-2009.76
266.333
1456.23
5473.61
1712.17
9108.16
15095.4
15309.6
9341.04
5476.28
3585.11
-498.349
-573.002
-2770.34
-2389.23
874.536
6041.05
6780.53
8063.01
10123.9
7152.08
3053.41
-87.1736
-1624.95
-4361.31
-481.588
9389.05
12832.2
11701.6
14321.9
4091.25
1016.01
-2389.88
-354.957
-5354.23
-3288.2
-1899.58
-2620.48
-6440.91
-5887.33
-747.815
-4759.44
1558.45
7021.88
3154.33
8315.49
9842.52
4035.64
7711.23
3258.27
3777.55
3776.61
3413.77
12309.7
10595
12835
15175.2
11605.2
9393.99
20512.7
12609.3
6305.98
4104.39
6448.5
8343.94
4675.43
-549.086
-1159.58
-1591.42
312.69
-7861.47
-61.77
1697.74
303.258
2231.85
5334.8
14040
8867.45
3270.82
6024.18
-1797.05
-2420.09
-11552.6
-6747.68
-12795.4
-5577.71
-11060.1
-2091.39
-3848.28
680.213
2046.57
8133.89
2965.05
3359.44
-4985.84
-2154.86
-4233.46
-4891.98
-7716.24
-9159.5
-8394.49
-9019.11
-8237.01
-9358.18
-12774.3
-17090
-17709.5
-6930.13
-5322.25
-10376.7
-7334.34
-9920.01
-10134.1
-5744.87
-3207.02
-1603.37
-4031.23
-2673.97
2352.1
2316.45
6929.53
5061.34
-5167.45
1049.15
-814.215
-2574.64
-2685.04
2228.27
5329.28
828.522
2923.97
5127.88
3468.85
-163.573
-2286.32
-3929.74
120.578
6100.37
-3075.44
-2722.74
-3889.22
-6364.61
-11050.9
-6143.6
-6224.49
-5536.51
-1573.57
3341.19
7582.83
3882.01
4731.93
7315.31
3025.35
-1643.75
2125.33
1384.57
-4722.23
1240.98
-1111.34
-1937.93
-1188.46
-3752.19
180.922
-6508.81
-3202.74
-3096.31
-6028.58
-5986.29
-4210.1
-5624.46
-2899.49
8500.61
13171.2
-1104.22
-6129.79
-8176.61
-2241.49
-3676.79
243.484
-1276.75
-4905.61
-3509.74
-143.006
-4213.38
-3829.89
340.333
-1106.91
-1937.2
-1449.45
-2709.22
-2404.12
-1031.1
-4658.51
790.494
445.228
-2438.33
-1773.46
-4456.06
-2058.11
614.86
-1502.67
-2850.65
-479.082
386.792
-2858.7
-2009.76
-3793.28
1309.69
-660.169
-673.418
-2414.91
-1375.6
684.222
-1706.36
2367.59
538.129
-22.6343
-7.33233
-603.128
2460.73
-1424.96
-2768.07
-1227.24
-4028.9
-733.829
526.477
-1493.96
1243.63
1448.39
-4125.58
355.152
1736.47
-351.38
6936.84
8776.83
13068.1
6944.5
14771.4
9043.6
5012.79
4366.39
6154.44
8666.23
10191.2
7070.48
5645.9
9550.75
5853.19
8910.19
11098
4677.66
10000.2
9240.09
3723.4
-2623.23
-3059.25
1205.24
-2633.75
-6701.07
1407.21
3423.31
-152.884
-3493.81
232.334
3467.72
1883.45
382.391
-2630.52
-1296.41
-21.7701
-2663.69
-5214.18
5329.61
4981.18
5671.5
1304.79
-2912.87
-566.973
754.851
890.086
325.71
1562.47
493.639
-2242.88
-4621.31
1749.61
1514.27
6712.86
8357.33
5847.45
8553.13
8853.54
8237.01
10954.1
8656.58
-77.9889
-6542.18
-5618.11
-5789.13
-2740.6
-621.917
-2234.61
-3615.24
-3169.8
-23.1247
1298.62
-3958.24
-3581.34
-1263.97
-2267.73
1032.09
2963.41
-120.077
1613.48
1399.95
2268.01
3793.45
584.262
2479.33
931.484
-2102.49
-3324.64
-2999.04
-4151.73
-3502.49
-4345.98
-5124.49
-8157.11
-7488.79
-5631.74
-5573.07
-1530.82
-1263.47
-8153.19
-5253.1
-2067.28
294.677
-910.41
-1468.72
-2993.94
-7275.12
-4008.97
-2919.14
-435.43
-5967.35
-10152.7
-7687.03
600.525
-4173.09
-6352.62
-10777
-14492.5
-9334.69
-4043.36
-4591.51
-8807.17
-3808.93
-7092.91
-3483.8
-6510.08
-52.3507
868.139
-5006.62
-6661.71
-8964.8
-5290.98
-5059.25
-3705.87
-5794.42
-7331.94
-9317.68
-10014
-6603.16
-7729.47
-10242.5
-20190.5
-5680.65
-5563.93
-10850.1
-6446.99
-3988.98
-10081
-13329.7
-7074.83
-15038.8
-18377.2
-20410.1
-27410
-25025.1
-29655.7
-27762.3
-26737.3
-41814.4
-31603.9
-18741.3
-6963.74
-4015.38
4926.28
-2654.08
1251.59
-2398.51
-2495.67
-3314.08
42.4279
-3115.85
-3643.09
-2250.93
-4488.29
-8478.32
-5655.79
-4028.82
652.566
8614.56
-2499.97
-300.954
-6196.79
-4535.53
-5395.37
884.801
6667.34
4978.23
3927.62
234.695
1433.81
2274.5
-3780.71
588.816
3775.59
3887.92
2894.6
2.52528
-4424.35
-4894.87
5043.81
2390.61
2280.55
626.025
682.727
-2305.64
-3337.6
-3469.53
583.51
3943.37
6764.81
6695.85
7952.14
3878.29
416.903
-1993.12
3729.22
436.189
-703.237
-893.695
348.548
-253.73
1924.5
3356.05
12663.8
7466.04
2677.04
8541.61
6058.69
-2671.33
1033.66
-2420.65
3308.21
-159.842
-1852.73
-4233.71
-6659.41
-4271.79
-4813.15
-5534.33
-7815.17
-10992.5
-8868.92
-8544.78
-4991.87
2979.63
82.5214
-2929.24
3885.42
8776.68
881.203
8723.12
5551.86
-6639.85
-4308.01
-1604.92
1095.72
-149.736
2619.33
-272.342
-2911.46
-3531.99
-2120.75
-1845.66
-1834.38
-866.196
-1170.6
-3035.8
-1501.2
1846.73
-4314.18
-1448.74
-4345.72
1820.06
5447.13
-2364.32
-75.9458
-2040.56
-627.465
-6078.38
-868.259
-64.3709
-4594.55
3219.84
562.303
-590.319
952.355
587.727
-599.569
-1311.88
1317.46
-350.112
1829.49
-1593.95
-6385.72
-3332.08
-7773.8
-1614
-813.165
-4994.84
-1420.55
-1266.75
-94.9202
240.837
-3318.26
1366.61
-4489.79
-1601.16
1666.59
2310.63
3823.12
5355.93
1783.47
1997.57
-191.095
-577.331
-1838.21
1479.79
2120.85
2483.89
-4749.2
2754.23
6760.67
1820.86
3467.6
1896.74
999.913
6737.86
3965.69
3438.4
4436.59
-800.524
-3699.72
-718.151
775.132
133.147
-2544.53
-1746.96
4407.9
13023.1
6048.54
875.619
-146.044
3190.68
3412.86
1052.48
5215.43
-3336.26
-1675.74
-1963.3
-2883.62
-1836.32
-5046.03
456.423
4829.39
-648.35
2083.69
38.6353
-1552.86
3214.67
4311.52
939.708
3759.84
-924.728
1578.69
4995.04
492.044
-1405.55
-2336.99
-3913.76
166.887
-2523.05
-8239.23
3412.93
674.803
-7049.8
-7744.96
-14351.6
-12479.3
-14753.1
-10909.3
-17440
-22815.8
-12157.5
-9692.87
-11654.4
-8462.12
-5237.92
-154.56
4365.07
5056.55
515.088
4733.99
-634.515
-6513.81
-5333.33
3626.98
-5362.86
-4275.6
-2569.18
-5093.6
-2824.39
7550.5
10109.2
4901.86
14509
16838.5
7092.62
1036.97
5691.33
2551.01
4239.16
8567.23
13194.7
13653.9
8117.32
17388.3
18870
19034
7250.45
6198
5451.19
2745.08
7572.34
3478.47
3524.66
1112.39
-1438.4
2523.83
7477.18
5944.9
5996.22
5083.29
-157.358
-766.467
2142.42
-404.431
111.434
-3164.87
-1501.68
-3470.7
5295.98
-3204.74
5358.88
985.014
-2948.76
-1042.52
-1112.46
3189.93
4594.45
-1343.78
3768.24
9482.41
13157.4
2366.39
-3189.57
-3674.6
-10051.3
-11684.4
-10722.1
-17702
-8966.69
-2318.23
4097.24
3041.75
1060.14
-2364.85
-3371.89
2146
-5657.4
-211.175
-3981.54
-4436.87
4378.05
7934.8
7148.34
10110.4
8832.91
5957.15
-810.641
-4372.29
-183.625
-2524.82
1335.12
-2142.87
-7215.74
-4881.33
2996.88
4725.95
-94.4443
-702.933
731.041
3233.87
226.435
1594.86
-9150.35
-8431.4
-6675.86
-4757.1
-9390.11
-8407.66
-1402.7
2994.01
8627.81
2849.56
27.0045
-3972.25
-6195.05
-2748.16
5519.23
4160.35
1841.78
-2452.73
1900.33
1261.39
6724.87
1706.85
-1393.82
-775.532
4925.55
3348.87
-2695.4
4551.89
-2033.56
-3165.36
-8357
-1311.81
3341.51
-1020.99
-2714.59
-4461.62
-9865.34
-9699.06
-10791.2
-12869
-7476.5
-5181.76
-6744.81
-4404.75
-3854.86
-4278.12
-4395.78
-3701.48
-5519.97
-2261.06
-5842.16
-3756.38
-7199.06
-5896.85
-3573.69
-2913.32
1525.53
-1871.75
-1350.2
-280.773
-3463.43
-3119.31
-3004.7
-3120.22
-4939.71
-7084.52
-1127.54
-2511.04
2429.81
-3239.42
-11357.7
-419.117
3824.79
251.409
-990.4
-1934.04
-131.17
1918.86
992.539
966.355
218.816
3027.85
-3340.76
2541.52
4159.17
7809.45
6922.96
4124.97
7467.75
5512.33
11905.7
4583.94
11737.7
4015.85
5060.44
-188.134
-80.8741
5212.13
2858.42
-3991.53
-1775.91
1448.4
-1599.22
-409.149
-3365
-3082.77
-1142.78
-4090.05
-3549.73
-4362.41
-2371.9
1408.73
-1423.26
-4470.02
-5263.72
-12538.9
-11389.1
-4229.08
-3374.18
-5973.57
-3289.91
-4757.37
-1320.91
-1101.62
-2342.15
-1154.28
943.507
1381.42
-13066.2
-13729.4
-10805.7
-3287.61
315.747
-4338.82
-3167.1
-2918.27
-6975.29
-8523
-2925.89
-6179.28
-8375.31
-7754.17
-4134.13
-2746.13
-1451.19
-1448.85
-1331.15
886.393
6296.72
629.864
-602.315
1412.73
419.429
1313.07
3982.67
-2562.07
-5991.39
221.762
-4360.64
-2295.79
-1826.57
-2554.86
-1693.06
-2992.27
-1804.15
-3453.02
-5128.11
-6403.23
-8187.96
-6493.82
-7840.58
-1578.35
582.159
3645.07
293.822
-3322.86
-4265.16
-3255.2
-2866.2
2408.39
2232.39
-796.832
-2070.27
-1024.63
-6503.62
-6355.5
-6405.15
-6225.12
2112.91
5868.53
9041.8
4172.68
4616.13
15349.4
7534.62
15930.7
11874.8
9035.06
8753.32
12059.8
11083.2
13620.4
16603.3
6739.24
-2093.25
3000.74
3159.4
1588.85
-6712.53
-1316.1
1825.36
-5776.83
-3818.87
-4503.1
1223.64
-1363.87
-6211.99
-1028.54
-3240.43
-2988.43
716.758
-3916.87
1343.72
1228.25
5566.63
-2202.93
851.812
-2456.83
-3622.54
-3737.05
-1014.5
-2456.25
-3394.23
348.629
-995.986
1442.87
3369.53
3232.16
1872.91
-132.159
2609.31
-47.8846
-5901.82
-447.894
-12866.2
-11672.7
-6249.63
-1967
-1868.81
-3807.2
2226.85
4418.98
7398.15
7835.51
2242.71
2471.03
6578.65
1063.77
1683.86
1857.28
-2664.37
-3770.05
-1667.6
-1423.83
2447.77
3181.02
2063.62
-521.829
-1036.97
-1186.8
3597.86
259.154
3242.11
1849.45
-1583.63
-1958.85
-2410.75
-1336.94
-661.731
572.737
-267.605
991.305
45.0088
4697.71
-279.819
782.141
3313.96
2977.33
2316.55
6861.75
5446.52
12082.8
1085.06
7097.06
7342.24
13758.6
2000.08
20283.8
7356.56
6215.47
-249.66
8848.13
1483.34
5743.16
5865.06
6251.95
5847.48
-2492.6
518.385
1685.11
1134.72
2363.52
-268.976
-1670.44
-736.036
2443.1
676.805
2863.33
-2071.7
-7767.37
2653.59
-1092.44
11742.9
9973.01
3547.16
12255.7
7936.23
4154.28
3275.2
6949.09
9550.32
11386.9
8623.08
5370.08
5976.63
8982.76
12062.2
-897.213
-617.348
-2481.89
1387.02
6350.61
4456.78
6895.94
-1068.55
-5113.76
-3841.43
3145.36
1870.17
399.291
4699.8
-2293.48
-4325.36
2539.59
-624.809
118.459
7511.48
3739.93
3648.32
2343.71
6304.22
4155.7
5882.26
5274.14
10687.3
8239.2
9650.53
1209.71
450.962
2944.08
6804.55
5708.36
-1158.52
-7765.65
108.716
-4090.04
2664.03
1746.67
-344.356
-6375.85
-3155.86
777.347
-414.653
-902.787
1006.01
-2837.32
-3095.19
-3984.5
-5352.53
-790.393
-5109.75
-6351.61
-12490.8
-9978.59
-5521.6
-6430.32
-5136.04
-4426.86
-4242.84
-1641.41
-1530.41
4216.75
4355.77
1438.98
-3368.08
976.713
2929.04
-1863.86
428.263
962.988
874.7
-1092.18
-943.947
-2255.48
-12422.5
-9268.95
-13919.2
-6470.32
-2789.7
-5282.27
-2566.63
2355.85
1512.45
-1115.08
-10443.2
-230.346
3109.13
-6102.59
-2916.9
-4108.46
-9945.21
-10307.4
-7485.89
-9276.55
-2833.06
-2724.5
-1539.57
-898.603
-1950.79
-5522.84
776.548
-2385.57
-221.8
4302.31
2032.96
-1633.96
2695.94
-784.612
560.885
2805.51
-797.091
812.241
3165.21
2268.74
3002.53
7120.89
3624.95
2478.4
4781.81
1992.86
4032.56
4210.41
-770.892
-481.345
57.7488
3682.98
600.469
-4995.04
-5628.53
-2344.56
1727.41
-3590.12
-4883.25
-401.216
-2406.94
-561.718
2273.77
7555.38
5632.63
2949.74
5793.64
15551.6
20492.3
21443.7
24897
14169.7
3227.36
1832.48
1243.11
2375.47
-1946.69
-4270.04
1738.16
-1227.49
281.444
2611.49
3468.09
666.18
-10106.4
-3524.67
-5910.58
-4317.77
777.337
-2804.35
-2218.97
-4631.98
-7116.45
-7292.21
-12666.3
-6647.2
130.103
3635.59
-1532.85
-2409.2
1428.62
4551.47
6299.17
6598.86
5348.69
1669.69
483.154
1615.15
1990.15
325.409
1966.45
-108.333
-7152.93
-7922.54
-565.714
383.322
-2315.26
2263.65
468.056
-374.055
-2457.77
194.354
722.172
66.922
-1521.04
-399.987
-4090.55
-1096.5
803.169
4759.82
8911.77
12285
10873.7
12483.3
10809.8
11672.7
12914
4556.5
20535.7
19781.9
14300.3
12131.2
11940
17088.5
7430.17
3181.94
-2536.61
1548.99
-690.172
2555.93
2436.71
10355.5
4641.13
3937.39
6233.9
10280.7
11511.1
6155.62
70.2497
1730.15
3179.41
11779.6
16415.6
20679.6
22730.5
7552.43
12015.6
29138.8
40590.5
54196.8
40616.2
17475.2
9586.76
6253.63
1026.56
-7846.01
-12843.2
-11557
-11837
-19355
-9640.32
-11853.1
-15986.8
-10478
-8758.44
-8902.36
-4678.65
-2707.77
3815.23
-286.934
-4329.67
-5885.03
-1726.86
-651.276
-1111.68
-223.296
-4017.67
-4747.67
-7678.94
-6128.51
-8827.39
-7413.41
-4505.24
-5720.2
-4120.06
-7697.5
-7832.97
-6446.56
-10038.4
-9683.94
-18527.3
-12803.8
-16106
-12201.4
-12653.8
-7352.41
-13489.7
-18082.9
-16557.8
-9472.04
-2318.55
-506.017
-1.89509
-8758.6
-7639.03
-2236.59
-1043.67
-810.663
-7561.57
-4879.9
230.516
-5082.07
-2009.03
2874.86
5016.74
6739.79
2332.35
-455.778
2949.37
3454.18
4457.99
4713.29
-2026.24
3776.78
-2821.15
1781.84
1461.72
-2863.62
-2773.36
-5996.41
-4830.17
-6044.5
1998
-2394.75
-3862.48
-1559.4
-1103.11
277.412
376.569
7558.23
9622.52
12676.3
5067.02
-129.019
-407.134
-690.703
3253.5
761.22
-316.871
2670.53
3848.24
2765.66
-4091.73
-89.585
5552.98
5657.47
3176.94
4653.69
2129.88
627.823
357.949
-2042.78
140.554
4051.19
986.664
-6653.35
-3729.7
-5873.04
-4576
-5907.82
-11305.1
-4738.67
-3993.92
-6668.94
36.559
-1749.96
-3243.81
-1192.64
-3475.16
-7361.64
-7203.5
-7741.12
2019.22
4090.6
3002.88
-1506.28
1645.77
226.406
3651.61
3078.18
2368.77
-1319.22
1952.51
3441.6
2541.49
24.5108
3727.01
6716.01
5666.7
2804.87
3815.26
2421.16
3779.45
5016.5
187.621
1560.38
2805.16
8266.58
9656.07
9680.6
4588.05
-797.084
-2959.84
-4541.44
4310.39
5570.67
-498.272
834.762
4628.47
10573.5
9752.64
4597.66
3171.73
2500.23
5726.05
4308.91
10037.9
5056.01
3058.04
2103.49
1187.33
3263.97
536.179
-554.722
-65.7189
-3297.66
-3755.93
562.747
4653.31
1795.85
310.163
2187.85
1920.75
-3149.27
-531.533
-1817.42
1025.5
2852.32
1280.08
-502.034
-1007.36
-148.872
3567.11
3312.97
3458.74
-553.476
-650.955
8195.87
2638.52
4441.4
1903.52
-1732.56
-1955.5
-506.221
1206.2
1156.3
5509.1
6184.64
9257.48
2494.35
3930.05
1300.23
224.462
-5513.89
-8300.67
-4781.9
-14055.5
-9750.28
-21190.2
-25324.7
-30171.9
-7736.9
-5395.07
-13112.4
-20649.2
-16228.1
-18976.8
-12433.4
-7289.77
3568.48
484.253
309.842
1012.82
-2651.3
-6595.48
-2793.04
-6999.11
-3722.06
-331.479
4193.13
2372.23
-4069.18
-4035.27
-9940.25
-11207.8
-8453.87
-13284.7
-8591.07
-14322.5
-6958.33
-5701.73
-10620.9
-17305.1
-10251.2
-8931.06
-2418.79
-483.799
-3109.2
-2561.65
347.453
-995.711
1323.85
-1351.62
-1879.28
-1276.84
2375.91
43.673
-754.388
-2685.36
1988.45
3126.35
2872.97
-340.777
2079.71
948.316
648.205
2811.7
73.808
634.981
485.946
-6108.02
-4699.37
-8188.18
-10467
2559.98
2556.4
2638.07
2334.37
4320.34
7079.25
4936.77
4854.7
1896.58
-248.977
-14471.7
-10930
-7725.98
-3567.12
-3409.06
-7292.72
1973.58
1224.59
2781.37
1525.53
5345.54
1764.96
542.137
-1955.15
-1519.55
-438.151
3083.53
2120.28
610.779
3907.31
418.456
5445.36
7054.34
3987.77
13936.9
12540.7
6232.71
2024.58
-4125.4
17.8403
-2403.12
1139.58
2185.12
4777.88
9848.87
13950.8
15516.9
12863.4
19028.8
20506.8
7199.87
6229.44
7915.88
8472
4386.17
3999.23
4122.06
7938.13
6611.57
5459.55
1905.41
1461.17
-1383.94
705.738
2194.3
7179.86
-271.694
-7306.18
-1828.24
-2003.74
251.931
1968.78
6260.57
10349.9
6841.58
629.53
-1554.39
-357.541
3108.44
-1840.44
-1125.74
-2182.57
-1697.05
-1784.25
-1839.48
1554.93
2205.88
1310.96
557.763
-1670.56
-4342.2
-3155.77
-280.114
5308.12
-1067.17
-5972.5
-2892.82
3700.22
-4684.98
-138.962
-2416.64
2132.53
7918.88
11958.2
22000.3
8590.41
14350.8
25620.6
22416.8
40977.7
53083.2
49022.4
66909.1
59564.2
53993.8
45844.5
50758.6
32563.1
36699.3
22538.2
22773.2
13263.7
14001.6
14424.8
21364.2
13421.9
7848.98
10171.3
7635.83
7540.76
7292.61
530.761
-317.687
1284.77
-9740.03
-6298.45
4229.27
1617.79
1274.66
1305.39
1733.3
-81.2921
628.258
-3285.26
-4699.62
-8633.31
-928.929
-1908.2
-5039.57
-5412.75
-7378.58
-4089.68
2057.07
2037.8
-2890.94
-4059.04
-1569.14
-2773.31
360.097
-1727.69
-3322.38
-557.303
-4238.58
-5893.19
-1209.31
2173.82
5824.47
9104.9
4083.46
3921.34
1790.05
-94.2799
3609.19
2164.05
-3277.22
-2844.16
1741.3
-695.803
961.56
1884.59
-2391.97
-4648.24
-3927.54
-2111.96
-1058.35
-1415.17
-1842.82
3139
3337.65
5053.25
-1647.86
-1212.49
44.7171
1285.67
1778.66
2363.03
2197.78
-914.194
2527.05
4698.59
1020.05
-391.39
-7469.95
-11264.9
-8461.82
606.213
-1911.09
-2093.35
-2861.57
-4728.72
-2134.75
-7198.51
-3852.45
-2146.05
-9056.7
-6688.76
-7256.81
-8682.95
-1593.44
-3114.15
-4497.88
-4286.27
-5724.51
-4345.45
523.469
1918.59
2671.95
8695.41
9623.55
10834.7
15802.7
8557.69
7804.54
15169.9
15299.1
14922.1
16305.2
13867
12820.1
14524.9
12649.8
6680.78
188.152
1276.66
8386.58
4241.87
3086.9
3469.52
-4353
722.425
-6388.97
-3585.89
-318.96
-1428.96
1477.84
2495.78
8442.07
7613.5
-720.022
530.131
3601.54
818.029
3763.71
357.168
789.92
-1016.77
135.55
-2025.62
1564.09
-2785.55
970.707
-2754.18
-6677.08
-3612.89
-4107.41
-4958.07
-9662.88
-13631.4
-7908.87
-4128.57
-15761.4
-17834.7
-29264.8
-13531.3
-8586.69
-11888.2
-3991.61
-396.101
3868.91
11477.2
16824.4
15845.4
8414.31
17453.4
13279.8
18270.6
12758.4
17542.2
13479.3
6174.71
19907.5
24093.6
17708.8
20223.3
15169.2
19839.4
11977.6
17459
11248.4
6793.12
5948.77
2743.85
-293.372
-309.554
-5255.81
-7735.36
-5053.28
-4795.47
-2727.74
-4849.69
-1395.89
-3128.6
122.731
3134.53
4458.33
13757.9
8576.61
6550.73
15457.6
18161.4
27787.3
21215.9
20360.2
17651.5
12070.8
14321.3
11453.2
10608.6
8179.65
8034.92
5812.15
4985.61
977.947
4165.99
4420.46
1981.37
-267.465
-792.646
-1943.99
1583.39
-2909.15
-3081.24
-4171.21
204.827
-1634.27
329.362
-1032.19
-3159.49
-1610.57
-5765.21
-1292.2
-3936.5
2578.23
-4769.3
-233.886
-548.453
-5126
-4930.11
-5445.1
-3222.41
-4087.56
-4095.58
-6697.09
-2667.14
929.812
476.574
-2920.46
-2688.74
-2654.4
2596.76
2355.07
2143.65
-0.916663
-647.194
-1930.24
-723.47
4442.51
3153.02
4885.02
2722.46
2257.77
4039.77
8042.57
5109.2
6518.1
9660.65
3142.94
1876.9
-1707.05
-2917.59
-73.6457
760.409
-2200.36
2126.9
7433.47
3326.21
-1641.86
-3827.75
-1600.8
676.082
9191.39
585.012
4072.56
3651.92
1436.36
-5241.36
-4176.08
-5154.01
135.837
-834.937
-2825.83
-3068.13
2435.32
3125.25
-2821.76
10870.2
5130.52
-2979.42
3582.81
7250.99
8721.92
11880
2011.15
10872.8
10073.7
11384.3
11628.5
15646.8
15893.5
19359.4
22975.7
14609.4
13292.8
5610.7
989.629
-2109.42
4743.27
8509.43
7046.49
470.592
1856.57
184.274
-1374.78
-3481.31
-1245.8
-237.802
2832.22
314.821
1571.89
-978.262
4984.3
15739
15087.8
10630.8
11895.5
19439.3
8134.29
4403.49
-4842.51
-3029.44
-5373.37
-4920.75
-7869.89
-5969.02
-4947.21
-14457.9
-16261.2
-7229.09
-4403.5
-1369.47
5466.72
-946.221
-7043.48
-8413.78
-4022.06
-7898.77
-6524.57
-9308.65
-11156.2
-19851.5
-12339.8
-14049.8
2300.01
6446.48
4899.98
-5210.49
22.6914
1918.24
3103.57
-3510.83
1152.86
-5490.81
-4831.29
-5637.54
-1814.4
2817.74
5344.26
1890.5
-115.922
3137.9
4097.84
448.437
-4551.46
-5947.47
-1046.8
-3050.54
1713.22
6166.59
6450.1
-958.178
1015.15
-89.5973
3981.66
3466.47
2019.26
2416.33
-3010.12
99.0892
-1687.53
-3342.19
-6753.61
-4550.18
-2070.11
-8954.19
-9043.31
-5308.18
-10903.6
-10364.8
-9155.16
-7073.64
-8350.13
-6399.48
-4310.94
578.198
-949.258
1112.01
-2639.81
-3303.43
-1502.41
-5642.88
-3931.57
-10352.5
-4324.27
-3115.77
-7742.16
7890.62
10808
8076.47
1173.7
-3559.56
-12278
-11994.3
-11264.2
-16357.8
-24003.6
-15614.6
-14603.1
-15502.5
-8022.05
-2158.76
50.8798
2142.82
-1241.35
-2675.37
-3780.06
-5979.85
-12681.9
-1754.7
-5901.43
-10614
-11259.3
-11975.8
-20118.9
-32346.1
-29057.7
-32069.1
-24595.9
-25093.1
-11019.6
-5597.92
2685.68
3042.17
12850.6
10868.4
15229.2
14288.8
12214.6
13117.9
6993.52
6454.65
6014.23
-1461.92
-621.136
2451.52
2559.24
1083.76
-561.002
2010.09
6832.08
4242.67
12312
547.393
5871.99
8596.31
13560.7
13207.3
9731.55
5301.05
1522.45
4653.91
8857.11
3007.81
1545.15
-1064.53
-2831.9
2000.5
1519.33
3223.38
-2229.3
-3503.23
-2703.58
-611.494
5248.5
1993.84
3470.18
5265.13
6645.42
14998.7
22107.5
14490.3
18681.8
9494.59
7656.63
6170.64
9443.34
-286.841
-1191.26
668.125
547.786
2491.24
1853.47
-3147.86
-827.965
-1389.26
946.483
-4930.45
-11257
-16321.9
-16304.8
-10168.4
-12815.7
-11646.1
-6490.06
-8807.78
-4813.67
-1072.88
550.003
1266.28
2273.62
7456.07
3453.93
-549.239
-523.414
1423.11
7092.12
5391.29
4934.12
-315.243
-374.908
-1109.66
4724.92
3054.96
1594.86
-1813.76
1422.27
-2516.09
1246.88
-21.6076
-826.09
-568.966
-4254.88
-4151.12
-1721.54
-1838.85
221.374
-1841.4
-2289.4
1790.05
8676.03
1881.27
-2060.09
-6451.17
-5996.29
-1422.78
1445.76
1534.14
2033.66
-2152.42
-759.337
1925.9
1310.73
1864.21
-1047.76
1760.73
4035.53
7334.7
3803.08
4820.51
-4409.47
-4165.02
-4474.6
-4648.34
-5982.22
-4445.96
-1560.3
-2442.63
4811.66
4547.33
6763.01
3000.89
4437.3
12248.6
3741.13
4184.84
1756.99
-819.084
430.61
259.237
-1111.31
3765.67
2953.67
3992.1
5090.13
1539.35
4289.43
470.434
-516.733
-924.665
2169.73
393.858
-786.79
-430.282
-936.576
1902.58
-2504.85
-841.438
2171.67
4146.5
-356.376
1391.15
792.319
992.972
-2291.12
-2568.21
-478.905
1594.93
-1425.21
5575.19
2180.93
-931.229
865.79
-160.959
-19.7401
-835.363
-1040.45
2515.93
6207.07
9756.52
12903.5
16492.5
9278.88
6929.37
7478.34
2661.8
-1864.54
1194.52
-656.719
-1936.53
-911.32
-5341.12
-3978.92
-1557.06
-2944.32
-9969.95
-6572.94
64.5187
2781.87
8904.69
909.711
-3125.39
-4961.56
-2255.77
-3724.59
-3208.08
405.225
322.67
383.085
-2710.44
-2634.39
-1141.9
-1599.8
-3012.89
-2112.82
-1665.04
-10217.7
-8157.33
-6944.81
-6399.18
-7540.84
-5751.91
-3783.82
-3786.51
-9962.57
-9039.7
-17283.9
-7256.39
-6179.02
-7461.28
-9027.86
-5753.36
-651.103
-8038.26
-7260.81
-10396.8
-7214.57
3643.65
1828.27
-1999.74
-1406.48
-4572.16
-8169.09
-7726.46
-11203.4
-5563.39
621.056
322.53
-5915.73
288.313
2603.55
495.616
1815.28
-1918.8
-2070.36
418.032
-1615.38
-1072.95
-3870.63
2645.45
7469.39
6109.51
4036.67
868.601
2376.77
2939.49
1756.09
1549.26
2412.54
3012.88
-2277.17
1523.98
-873.417
1491.64
36.3512
-2190.92
3835.13
1208.31
-297.945
1179.01
-3493.24
-284.837
-1786.88
1570.77
1327.96
487.864
-1401.03
-175.077
282.584
3056.65
3247.32
4446.26
-1143.4
833.083
-744.87
-2399.41
1664.11
-1107.04
3491.73
5649.33
8961.48
9961.86
7015.38
13036.4
10180.4
14358.7
14120.1
9819.11
10442.7
4545.63
3103.84
7627.82
8538.28
834.706
7606.29
-6613.94
346.053
4443.75
6275.71
8879.4
-107.177
2658.04
4544.06
-3875.96
-7585.08
-1805.72
-4647.76
6554.71
11478.1
13924.5
-2542.73
-9787.69
-6372.92
-3883.69
-969.379
-1620.28
-4873.26
-284.556
-2411.94
682.051
169.482
2817.51
-977.165
-1565.05
26.5773
-2311.89
-5012
-463.553
-2550.21
-7633.89
-5234.1
-4827.98
-3598.51
-3174.86
-6724.1
-3766.87
-1585.76
1894.14
7960.18
10227.7
9300.46
665.861
9216.88
3848.42
7488.84
2557.01
2060.05
-8322.71
-5089.03
-7081.82
1306.39
3873.8
4157.32
1327.56
9511.04
15271.3
14068.8
27783.1
17582.8
8773.35
25317.4
13265.3
-2882.97
4530.55
-1469.95
-4048.45
-7203.73
-7158.68
-3804.3
-919.806
436.56
1701.75
-2281.7
32.0329
6290.73
5998.01
4049.07
-1850.91
-2815.19
4857.35
4641.53
4372.74
2229.5
2420.34
4823.39
6358.03
7894.94
9361.98
6173.89
10416.6
13861.6
17590.4
14242.8
3508.21
4557.28
5073.48
-270.192
-687.978
-1739.17
-2409.86
-6654.34
-3982.14
-8004.71
-7916.59
-14949
-28649.8
-9757.14
-17098.5
-18324.4
-23008.3
-30342.7
-26101.1
-14137.6
-16130
-19595.2
-9584.32
597.027
1308.71
832.969
328.617
1124.13
2960.11
811.349
3620.92
-3985.28
3215.2
872.934
10501.1
9738.29
7127.07
4645.72
831.23
-138.376
-5467.43
-11934
-5813.64
394.721
3048.7
-3348.02
5922.28
6531.4
3590.23
5308.6
4265.56
-3823.56
-6126.9
-1338.82
-2203.62
-1855.19
-4363.3
-5097.2
-2695.46
-5871.07
-5107.58
-2435.53
894.439
-5644.77
-2216.83
554.794
-482.98
14.0171
-1606.71
766.428
-4082.71
-2286.84
-2326.65
-4733.97
-1290.91
-3213.4
-1178.32
-12166.5
-18590.4
-22204.1
-16998.7
-12227.5
-15948.2
-9269.64
-12332
-6268.09
-2822.76
-5407.86
2623.57
2052.57
684.031
1930.4
1158
-1439.35
-1820.18
-1606.53
290.38
6.47871
-1030.44
-3424.97
383.373
161.535
569.03
674.862
139.532
7129.86
494.751
-3562.58
-546.289
3491.74
