148.754
1046.55
107.37
-670.923
-277.611
1323.93
3121.08
5238.75
8751.83
5693.64
7586.79
6264.71
11335.9
11113.1
19071.4
17193.1
10806.8
8004.45
9301.2
8049.34
13367.6
12312.4
8343.5
5350.83
9210.45
6218.54
7345.92
10742.8
8280.2
4395.56
-536.463
1273.67
962.775
2776.57
-425.5
990.423
-3005.02
1993.11
4673.28
5490.92
-2281.04
1241.65
2221.07
3451.89
4755.59
4415.64
4371.61
4254.66
19327.7
16442
11706.5
8651.34
12645.2
17985.2
14843.9
8734.28
4899.01
7354.06
11727
16691.4
10878.3
10313.7
8587.25
10423.4
7038.87
3375.27
-859.052
-159.841
2579.19
-947.259
-1283.88
1767.13
1339.45
1352.98
-3848.76
-6272.57
-5479.71
-3045.06
867.665
-2062.2
3813.38
1568.69
-1451.1
-106.702
2730.61
900.368
1155.13
7268.48
8302.07
6196.55
-2699.97
2845.71
3378.57
1698.92
10541.7
4991.84
5146.24
12140.8
1858.06
2492.33
5207.39
6450.94
4964.34
8517
5141.55
3735.28
-2104.01
549.645
1330.24
8770.08
10060.7
3483.61
8192.81
10562.6
13180.7
11660.5
7385.04
8323.19
11473.7
5614.06
4019.26
1306.23
1860.51
1032.32
1886.93
-1218.88
-755.663
2658.49
5581.07
3381.79
3515.73
6722.2
2913.06
-2697.53
1048.21
4272.73
7765.59
7214.51
4253.52
1818.06
5369.76
3434.9
3670.87
1975.39
2205.46
4517.61
2098.22
2446.15
4089.35
3335.15
5479.84
6125.89
1529.9
2236.5
-1641.3
-4036.39
792.358
1210.17
3910.64
3428.07
3977.85
842.76
1292.11
2911.02
1591.13
3771.83
10333.6
7836.06
13171.7
11507.7
24.0638
7450.9
13791.1
12966.1
9772.46
4271.28
9561.02
1564.87
4614.31
2396.88
8868.48
1857.69
-4056.24
-1625.01
-1250.48
-2161.05
-2652.94
-2575.26
4307.11
8963.52
6114.79
7765.73
4697.41
5572.75
4673.25
3772.87
1190.31
-603.888
622.254
644.257
-3253.09
-4658.97
-6782.66
-2688.68
14.0802
8955.13
-918.244
-1057.51
-2381.66
-231.239
1008.84
-1650.96
-2364.83
-2841.25
-622.747
-695.696
694.535
1601.26
6933.13
4268.79
-1416.79
2414.64
8456.09
2820.58
-1009.96
1932.64
2818.58
1937.38
600.8
481.299
-2516.39
-1979.09
3848.97
-755.453
-3888.69
-877.216
4938.35
7639.71
7996.91
4060.61
6118.1
11648.8
12399.4
9016.93
8577.61
10404.5
3643.09
3180.67
1291.71
228.803
4072.58
-729.733
-2064.67
181.012
-2300.33
2951.89
3015.98
6767.36
2614.33
4468.63
757.979
-574.27
4042.37
2696.32
7368.88
6760.69
7765.94
7721.66
4099.31
3366.72
2890.99
9202.21
3713.45
2807.89
4830.1
970.701
-4254.89
4790.46
12380.3
9067.7
14943.7
7248.85
3793.79
6468.76
15189.1
15146.9
16586.2
19686.7
20284.5
12192.9
8779.7
5151.36
3506.9
7451.88
1934.65
11963.5
10621.3
17570.8
20273.4
11491.9
7043.75
9868.08
15210.1
7218.35
-3166.39
-555.657
-3502
-6682.29
-8948
-7568.75
-3065.89
2272.65
5706.77
607.906
1206.1
2775.17
8010.71
14218.9
10269.8
8573.29
12175.1
8053.54
10557.5
11310.2
9994.84
7411.47
1389.04
6756.38
3427.73
-491.246
-1191.8
3504.48
29.5517
2440.29
-2443.64
4495.93
1320.85
3283.78
997.221
-798.75
-4505.09
5182.62
2991.03
4663.21
1647.55
-2887.43
-28.3281
-1486.41
-2225.97
-1498.89
954.175
2366.31
518.416
2681.85
5079.82
3341.36
1517.37
4058.76
1201.9
160.735
4202.62
4104.44
5767.44
3815.53
2567.88
11327.4
9882.25
9472.79
12977.8
19582.6
23149.8
18828.5
22719.5
17652.4
18739.5
19757.6
30533.9
34356.7
35375.3
32778.1
24426.5
16615.4
13390.6
19492.2
20937
23607.5
27895.6
30574.4
16581.9
8775.7
4840.76
6229.5
5547.35
-248.699
2730.13
1489.17
4167.6
-2356.84
2491.41
9582.06
13738
14946.4
11768.3
11308.9
21452.9
22406.3
30685.2
36711.3
25181.4
23284.6
14813
18894.1
8601.95
1895.9
-138.524
-1681.91
-2034.88
-2253.81
-6555.46
-829.63
-2622.49
-1260.88
3758.99
7792.24
1326.5
2803.94
4177.83
1824.81
2126.42
-264.411
4383.93
7679.53
9748.05
13307.1
16010.7
9713.7
7967.31
10462.6
9666.91
6485.03
9783.96
10948.4
12225.2
5145.48
6792.24
5153.86
10560.7
10881
-66.8859
1183.18
1221.55
-770.185
2980.64
11577
14361.3
1737.55
5301.12
1815.26
6066.2
11676.2
12557.8
10086.5
15061.5
15687.1
9989.25
10272.6
9014.23
4269.02
-1686.49
-2008.33
462.266
6213.48
3236.41
8603.07
6371.84
5232.98
8027.62
3051.3
3069.64
1174.62
-2243.88
-2.66643
1597.05
1308.82
5052.11
6025.63
9198.54
11661.9
18132.1
17104.1
20258.1
8249.25
10034.3
13164.2
5491.19
-291.166
5875.54
4421.19
14937.7
8755.02
992.39
6222.35
2811.98
408.886
5037.72
12853.1
12791.5
5889.68
3188.49
2952.15
4311.5
1014.83
9518.97
2953.59
3413.87
-1664.6
-2485.43
-8248.32
-4348.52
-6958.34
-5728.79
-7744.39
-2372.54
-3722.46
-4776.84
-2254.48
5296.91
3929.58
8003.75
5793.34
-616.133
549.911
2676.7
3027.66
5559.33
-262.254
-1413.32
-1634.31
203.504
-1682.5
-5695.95
-4075.29
-5447.35
-1015.01
-1714.92
3023.02
-1147.74
426.644
-5475.71
-2968.07
-5210.18
-2178.56
-2692.13
-2794.88
-1119.48
-2213.94
-101.856
2754.83
7142.02
9140.07
11131.1
8788.6
4481.99
1595.36
1406.29
-127.643
913.57
2153.44
-2313.11
891.637
21.3336
4237.94
4134.36
8741.1
5330.4
1600.52
3250.45
926.004
4481.73
-726.47
-2273.95
-4186.34
-1181.4
629.113
2909.81
6217.99
7787.95
3787.09
-2533.68
-196.25
1794.07
-138.776
137.081
-360.242
-326.795
-476.913
-3508.89
-579.798
5184.77
6924.91
-2626.72
-3050.69
3669.75
6572.2
3508.01
-3318.01
722.72
2706.7
765.446
261.813
-1290.6
-1787.94
-890.409
1444.57
2392.92
7277.92
8282.96
4511.53
2334.21
-2062.93
-2853.89
2542.64
3681.81
1019
4312.6
4167.42
1672.23
1144.75
3426.9
2487.77
1975.64
634.1
-2557.03
999.65
-1963.75
-1345.88
-1099.07
-5576.08
-3220.67
3329.44
-1120.81
-975.477
-2799.03
-6377.5
-1186.95
2156.45
4168.32
3139.77
4143.88
-15.2778
-2300.17
-3235.85
-1420.2
-569.543
116.676
2825.51
2563.6
7482.1
7175.46
14305.8
19844.5
6217.58
17152.2
5480.28
2650.52
17164.4
19823.6
23685.9
21851.3
23503.8
17682.3
25999.8
20844.9
11009.4
6167.55
4681.74
7388.68
11773.5
6218.51
9835.61
10206
9563.55
8058.35
9328.96
3755.66
4117.41
2231.82
3274.64
332.867
-2356.88
-1647.48
-225.694
-2849.33
-3542.55
-9059.18
-6847.94
-4846.26
3167.7
4764.61
266.916
3911.4
5775.02
4918.09
6366.87
5554.11
9185.43
12608.8
13467.3
13271.7
4224.04
8753.32
14304
13469.2
12193.5
12700.1
5335.44
-1495.86
4387.82
5433.04
643.613
1563.42
1360.69
1132.95
-1518.58
2523
1477.34
6839.41
-151.215
-4510.76
1786.28
-4101.73
3208.37
5637.37
5575.27
7675.71
3282.75
2214.23
4352.64
5814.54
9906.85
6338.62
10353.4
9135.46
-1818.41
798.17
4723.92
7990.32
3391.65
6151.3
5723.73
8084.71
3712.67
15324.1
12783.9
20436.3
15870.3
25644.2
6387.2
6600.61
13248.7
16258.5
20574.4
13941.7
5950.88
10910.9
7457.59
7582.32
4910.11
1862.66
7598
10463
5626.37
9270.66
4104.54
6222.03
855.714
3208.24
2947.07
-1482.66
1237.63
-2001
-3286.69
909.703
4815.14
3973.95
-1437.98
-9291.71
-8388.08
-8166.48
-4690.22
-4124.77
-1573.98
5819.58
4032.14
2736.58
8196.25
1314.47
1778.92
6389.68
8662.11
8185.87
7376.76
-1823.9
837.18
-2337.34
1875.24
6324.92
3659.38
-710.186
634.465
1397.67
6950.35
7965.81
5006.75
1803.19
3120.52
3824.69
2929.96
3575.26
3208.33
8074.92
7338.59
8553.5
16037.8
9375.39
5309.55
3513.53
-1792.52
1800.95
5619.28
2753.29
1427.76
1200
-3832.19
-3022.14
-3268.39
-4063.47
-3436.45
-893.898
-2261.54
-927.27
2481.03
7030.08
2595.53
-785.304
2440.52
2187.69
-4954.08
2732.74
13189
1186.43
12239.9
16878.8
15306.4
22658.8
19858.8
18909.7
22309.9
14469.1
18500.3
17081.7
17482
18084.9
15016
21998.1
17105.9
14397
16751.7
16168.7
14129.7
15860.2
12278.9
8939.42
11465.4
7455.48
10279.4
1547.04
-3377.58
-8735.32
-5455.12
-615.364
1439.93
2228.54
5253.54
3932.93
11639.4
9064.56
6542.97
5607.4
11422.5
11064
8980.13
6971.52
5299.74
8341.55
-1242.03
1004.89
2099.08
-463.026
-3604.37
-2066.4
-1242.67
2415.13
1257.87
790.177
-7954.98
-6993.03
-3668.65
-7498.69
515.979
2236.23
179.248
-1122.34
-3650.48
396.701
-683.023
-1533.97
1398.61
4323.14
4683.16
7258.77
10252.9
4630.96
3155.38
3202.2
1988.7
-369.911
-8.86995
-1128.11
1147.33
32.7639
-2945.94
-1005.55
3057.94
1000.3
5296.5
7691.26
2188.31
5814.46
2477.4
5211.71
4552.86
8800.51
-1549.36
1400.84
2177.29
7202.72
4694.5
3638.32
4298.37
3109.31
781.2
11408.1
2587
2061.74
312.174
1555.57
-1644.91
799.194
-875.068
-3322.06
-1617.38
90.9012
3031.85
8278.27
9327.09
2823.3
6546.21
1681.95
3162.74
8474.63
6062.71
7544.05
2347.64
84.9803
-1977.95
-1306.07
3715.24
-1237.13
1855.79
-2900.53
-3073.49
341.395
647.586
370.06
4889.7
8085.27
12014.7
12601
3808.47
2825.79
3584.69
7574.55
7759.45
-167.912
980.072
4556.93
6828.44
4164.46
3887.53
1338.75
3482.18
5453.84
7086.56
8884.55
11314.1
7776.41
2211.84
7389.26
7269.37
4513.39
8070.83
515.928
168.151
-2262.02
779.412
-2819.99
-2868.41
2637.08
5410.03
14877.3
26529.6
26905.8
16225.3
19667
17752.8
29538.4
26168.1
29703.5
41846.2
40369.2
37468.7
42088.8
32245.5
37361.7
29774.1
21691.1
18300.7
16315
19827.9
20254.9
17033.9
25487.3
29526.6
13118.6
18975
15073.8
23982.1
19572.5
20989
15821.1
17049.5
15000.3
9480.22
4480.84
522.725
5059.27
8194.82
4201.23
3158.94
3183.92
4367.47
3100.68
2898.51
6541.37
7942.5
14041.3
19416.3
14940.5
21420.9
12793.6
10367.5
2099.35
2970.71
3400.02
3231.7
1735.46
747.483
1887.58
60.3242
22.0198
2718.03
2792.76
2508.48
7394.94
16259.2
10920.7
12749.4
13401.2
8963.23
14248.4
6962.21
-6787.71
96.6612
4325.88
6323.52
3241.98
-241.807
-272.299
2655.93
1683.98
757.692
1025.54
-194.265
-3296.67
260.706
-3073.8
-4113.83
-5386.99
-6332.38
221.134
2097.89
479.487
-2122.16
-1447.98
3855.27
4597
5637.6
6322.63
2063.01
-2021.1
-1652.24
3330.7
-1453.55
-2826.91
-652.872
1333.46
1674.95
3866.8
7599.24
2081.95
5775.01
7472.88
9061.69
7370.16
6371.9
5282.94
7136.53
72.726
107.632
4235.44
5238.86
7509.54
6133.1
7808.9
12005.7
4051.47
710.569
2149.44
-15.6395
1379.16
3208.16
2486.63
832.884
3840.62
4290.56
2848.12
2459.79
3760.85
-118.746
3775.44
507.23
-830.961
-32.8461
-1567.17
3141.92
6960.53
2016.96
7996.85
1942.04
773.742
-1498.65
1036.38
173.878
4717.33
3208.64
2453.09
-3079.12
739.565
2217.25
5545.88
3032.38
4275.66
6753.17
4755.77
15349.7
7623.41
9347.06
5694.06
5716.36
4226.2
4699.31
1832.77
74.6119
-2615.18
-1919.71
-3500.58
-1766.55
-892.65
-358.776
4091.96
2981.62
8815.39
2194.42
-2035.23
-154.898
-24.8133
-802.002
-2765.13
392.534
565.726
-6418.9
-4903.32
148.687
2511.69
7261.79
5367.93
-301.128
13519.2
15073.5
8402.81
18198.3
17371.7
20571.2
18169.5
12276
12491
15035
10801
8285.09
4075.65
1025.02
-424.229
2640.43
4038.11
3486.46
4709.41
7016.54
7509.02
4375.87
1567.38
4409.59
1139.6
5067.44
9738.92
9722.37
9178.91
8074.94
12100
7447.64
19434.9
29733.8
25824.5
22879.3
18777.3
17814.9
27396.1
31434.2
34836.5
18324.6
20542.8
28892.3
26112.3
24027.6
28023.8
30766.3
32162.6
29925
14345.7
11364.9
7263.86
6509.54
3132.04
5019.35
6681.16
2177.93
5091.59
1812.27
-3397.08
-865.33
3823.74
-599.776
-2145.51
881.578
-1022.18
2965.75
4383.58
5028.1
10158.5
14901.4
6277.07
-1939.97
-2903.08
-3795.24
3784.14
-1574.54
2558.15
2998.07
3836.33
5235.41
5656.16
2684.56
1861.75
4716.86
8545.86
7022.73
2538.12
7935.55
6769.1
4256.88
506.537
3219.86
-4137.16
-1469.62
-1428.94
-7.94651
-7019.25
-2689.22
-3496.25
-2695.49
-4996.84
2476.01
-70.5249
1629.34
-32.4958
4605.89
2278.99
-1467.07
-4758.32
-5376.88
-1244.03
2983.24
3743.64
168.54
-4322.4
-4143.32
-6852.16
-5703.65
-1845.6
2088.77
3200.14
2517.25
7504.99
7305.07
5365.98
3404.16
-2670.38
1364.19
12695.3
6514.1
6397.25
4046.8
3689.85
2378.3
3897.98
1973.6
2327.25
-5581.4
-11744.9
-4634.39
7364.66
1132.98
4983.23
3124.3
9805
9540.13
3455.08
1714.29
-1067.47
40.2635
-331.432
-2088.95
-325.343
4224.27
4053.22
6655.06
2557.54
8756.83
5208.97
7858.53
4868.03
6337.35
4782.4
8276.69
13130.4
4504.73
6597.15
6357.15
11113.4
10367.9
4608.35
8768.09
10197.6
7638.77
11816.8
8575.65
7518.69
10346.5
11430.9
9701.17
7692.91
9119.1
5524.02
5190.01
-1220.2
-1442.63
-1329.6
4950.59
1016.41
5524.95
3694.1
8851.51
9293.15
6437.04
2564.36
-2942.31
3256.6
-1073.39
569.961
7477.46
10260
5750.2
7235.24
10747.4
10134.9
9907.14
9378.09
5668.26
3361.77
6361.41
6767.83
9847.55
5593.79
2506.2
113.247
3152.15
3797.8
7644.13
6747.73
4411.54
4842.1
5823.33
1479.63
1412.22
2172.42
3269.35
4315.64
6527.97
14387.2
16807.1
12517.9
10056.3
13297.7
6422.19
15585.5
16268.8
35915.2
35781
31362.5
22109.4
17319.7
12723.9
9416.46
7442.12
14232.5
11420.2
11807.9
17972.8
16538.4
12455.9
3522.31
4611.13
7570.59
5231.66
4144.91
4753.62
4525.99
7182.18
4575.52
4115.12
5821.03
7331.83
7303.47
4352.28
11196.3
7695.08
7000.94
7068.25
4728.09
5767.48
-509.434
2449.28
3554.94
5968.54
5558.9
946.005
5078.13
-188.878
-743.985
5354.02
8331.39
11156.7
13176.8
11721.4
11935.6
16817.8
14738.4
12671.4
7446.72
2627.21
11861.6
8530.15
3672.83
1677.63
4939.13
4373.1
-2280
6041.1
5689.42
-840.621
1927.96
3601.84
10745.7
7191.17
7183.16
2026.91
1307
1228.32
5885.58
3521.47
9250.49
19946
25412
14115.8
13150.1
8437.96
8528.13
7100.4
-1211.53
1285.82
200.65
2719.79
466.634
-188.006
749.272
-3484.75
1449.42
2874.39
5819.44
4004.41
4112.45
1175.93
-1334.85
-693.137
3592.65
1904.79
53.5923
1703.74
2097.78
4570.78
-5388.98
1675.8
7122.64
8725.71
2052.55
-2425.45
-1100.28
1572.13
1714.98
-175.847
917.129
4947.51
7188.09
-1181.7
2003.31
-3147.07
-1987.41
-1136.51
-1141.33
-6316.92
1701.2
5645.1
2783.81
-1953.11
1603.71
6503.17
13282.9
16373.6
3926.89
2614.07
9111.78
10478.4
13237.8
19122.6
15219.2
15961.3
13726.6
9837.51
15222.6
5643.32
8510.23
8474.65
7674.14
13106.3
16934.8
11330.9
7551.79
6497.98
14755
15703.2
22119.8
23352
23877.2
18832.3
21895.6
15357.1
18108.6
16980.4
9234.73
9884.67
7856.03
5318.27
4556.17
623.521
5083.81
9867.64
14604.7
12465.6
9609.35
5751.72
11099.5
10965.1
10093.5
6753.53
581.32
3698.4
1634.22
-2387.15
6701.13
-3092.26
1161.22
-527.018
-188.845
2390.42
6769.47
8310.49
10657.8
7643.35
4035.62
1830.64
427.533
-460.827
-360.903
-4760.22
-797.586
2444.73
5072.73
13482.2
9738.33
15164.8
10703.7
11375.8
10018.3
16985.3
13463.5
20440.4
22128.2
22842.2
23689.7
12912.5
13616.5
9509.9
14315.1
17906.8
27325.8
19070
18802.3
12162.9
15961.1
23039.1
16178
16574.7
5315.1
3782.71
6541.87
8589.15
5172.8
5918.09
10891.9
8498.18
8032.75
4018.7
5251.86
5764.22
9681.26
7088.8
1144.18
657.638
1865.64
4862.97
2030.23
2070.98
8423.78
5288.43
4559.53
7594.07
4874.98
6431.73
14629.6
15913.8
20010.3
14827.8
11527.8
5530.02
5890.93
5517.65
6255.03
-1723.54
-627.847
-73.8659
219.868
-26.7495
-263.755
-774.596
2563.23
4877.02
4101.08
7200.94
9513.03
8215.78
7610.23
10115.1
6246.8
-2693.76
-118.88
2680.06
4799.24
4477.42
1502.66
13705.3
19542.2
23429
20860.4
23118
16294.2
12354.1
3162.49
3162.65
-755.726
5427.01
3071.34
15468.2
9190.26
4885.61
9369.18
4242.71
2267.27
6926.12
3384.5
459.909
-2132.34
-2977.52
-1612.98
-1039.92
670.217
-2430.36
-685.686
3475.07
9202.81
1339.8
7814.57
-382.737
5762.04
876.058
3643.27
1545.2
3731.58
4012.33
1140.31
-8.94663
-2379.38
3432.26
-4700.61
-3767.07
460.763
326.042
65.477
410.673
587.649
1632.67
8131.41
6124.8
4982.38
10300.7
11812.6
13191.7
7863.97
5070.45
1649.68
-504.152
3499.83
-2391.42
-4092.41
-4725.09
-2708.73
2573.04
2460.04
122.111
4550.76
-5432.17
-8363.73
-4766.48
-3346.87
-422.079
11300.6
9556.52
7024.42
11324.2
6497.55
6109.74
4443.8
5136.53
15062.6
13682.4
12727.1
16915
25835.8
21206
27525.8
23937.2
14510.5
13843.6
9330.64
2737.19
4918.75
3045.51
1153.76
-1813.95
-562.182
-4384.07
-3068.6
-226.281
-41.5829
5854.29
6252.37
4977.13
1088.43
4142.02
2512.62
-2814.11
-7188.41
-7267.89
-3257.33
1444.49
4397.6
4946.56
1026.92
2322.56
119.572
2912.12
-880.889
198.279
2481.05
3874.42
2276.29
4777.66
2579.48
6698.56
5901.13
4827.98
3978.45
6703
1922.29
6432.57
4761.9
1809.25
1489.31
4370.1
6782.88
9118.72
10165.2
11509.5
7194.66
7877.16
13556.8
11064.6
6748.03
4422.54
8504.51
9322.35
6126.78
9086.93
18538.9
16426.3
12383.8
15726.1
14567.6
11620.6
6730.4
4800.78
13108.6
8969.79
6846.26
9056.14
20375.4
14043.9
21009.6
27391.6
21291.2
17297
17018.3
16034.5
15903.7
16219.5
13226.4
15691
13271.2
12490.9
15266.4
13330.2
15382.7
1607.71
3253.19
2561.94
6201.84
776.969
-948.045
-931.518
93.9106
935.166
2896.46
1842.92
2060.26
773.101
4486.42
1794.62
2321.9
5439.86
5206.6
5712.06
2004.69
-2055.01
-6706.42
-1048.99
685.148
359.684
-2780.52
-8037.78
-4182.02
629.375
-1082.26
654.106
5740.35
2186.12
-2457.89
-719.893
-409.72
-418.661
-3461.57
-4016.96
-5350.8
-5260.65
-1877.02
3007.46
928.687
1531.96
-6121.04
12761
13539.5
13934.1
14890.9
22690.6
30605.1
26170.9
16883.3
7774.09
7722.49
2211.13
4951.38
10227.8
12375.6
7888.33
907.275
845.256
-1363.98
3895.63
5658.07
5897.01
5643.78
2956.82
-1840.87
3568.86
7464.41
1377.57
4335.69
3606.92
2268.51
-1825.36
826.365
1468.78
1207.47
161.331
2326.04
7285.34
11197
13406.1
10625.8
7130.11
7539.19
5323.37
5914.41
4261.35
3772.63
-839.814
-2876.76
-2892.49
1128
3380.98
6532.36
8076.97
4683.6
8829.7
10472.9
5415.85
3050.3
-4270.29
-392.855
1631.64
-3467.17
-3735.29
1931.41
3246.17
3802.77
1894.04
1561.6
-766.445
301.57
5961.21
8824.84
7323.21
13123.8
8817.61
8955.54
1803.95
8936.28
4199.85
7861.32
12569.6
10990.9
12031
12266.4
15390
11187.3
8273.34
3586.98
5443.28
10760.3
12791.7
4209.27
10031.7
13063
8121.72
6897.17
11045.3
9855.47
8560.91
8123.99
17903.8
16013.1
10232.8
10516.3
8463.21
13928.1
11382.2
7729.32
5174.74
11058.6
8002.64
10872.4
14429.3
10116
14629
6383.73
6347.19
7931.32
8238.78
4572.53
1382.19
781.454
5964.37
5675.71
3240.79
3322.18
4430.98
6261.91
5243.59
12404.2
4680.25
1261.64
-127.897
2016.81
2455.19
2083.98
3472.66
6214.35
16389.2
13357.6
6546.88
4649.77
1628.93
-445.482
1103.96
-3662.52
-1986.61
3231.16
623.342
2383.62
2002.05
6384.52
5630.38
5234.5
8097.37
2605.03
130.103
4459.6
4599.67
6338.57
14506.3
9070.77
10820.9
20102.6
21275.2
20976.7
14254.4
17399.7
14332.1
9471.83
11582
2434.47
8060.59
7711.4
11372.8
6814.86
-2253.84
-4482.69
-1815.56
-2252.99
194.005
-2627.14
-1136.96
4547.84
5989.5
12153.6
10530.5
6477.94
10729.2
15269.3
17621.8
11727.9
16439.9
29911.5
24891.6
23862.8
37964.2
38246.4
33358.6
26636.6
25284.6
11781.3
4057.45
6009.94
11511
17243.2
13375.5
15207.1
14969.4
14773.2
12442.3
1830.7
4234.89
18455.9
16956.2
17857.1
16614.4
6900.73
-1799
-5380.05
-1763.47
7015.46
5318.93
1869.44
1961.27
-211.197
6845.74
6676.54
11664.1
3663.26
3179.04
1502.86
-374.063
-2558.33
-1137.83
-6600.95
-980.18
4999.26
7297.3
3154.3
11339.1
21319
9119.08
18915.5
28968.5
23007.6
26299.7
20512.8
18183.6
5921.76
2387.77
-339.326
1906.8
973.362
3285.16
-5605.9
1189.04
2838.91
4369.77
3807.88
7155.22
14699.2
15904.2
13501.7
10120.4
14885.5
18618.1
13484.4
10685.2
10807
6715.26
15324
8259.15
17289.7
7186.57
14399.7
11440.9
13525.7
19936.9
19056.4
34224
21964.9
17649.3
17982.6
11574.2
12638.3
5624.64
3236.92
-2693.03
-3844.21
-3685.66
-3967.85
-844.748
3688.96
3734.39
6122.94
8378.95
9505.28
14548
19182.8
10799.9
8635.88
8479.72
5630.99
11043.5
8559.09
6356
4566.2
6815.37
4863.29
4535.61
2012.9
3352.74
-1131.99
-2773.76
-3539.79
-552.447
-1354.32
-1406.18
2116.29
2248.3
2204.05
1694.02
5354.96
-1276.97
8623.4
7236.58
13053.4
22439.7
20588.3
13109.3
17750
12993.6
12490.4
16381.2
9615.02
7682.49
4339.05
1083.85
-2273.19
-1211.57
-3478.38
275.255
-598.894
-1450.09
-751.621
-1930.35
-543.518
-3055.43
93.997
2901.84
3274.72
9180.74
11327.2
3171.1
5594.15
3349.25
4947.55
4904.92
5059.86
-409.764
4200.41
-327.663
-1024.19
-913.082
-2185.74
-4115.79
4156.61
5123.04
9295.41
2089.26
6044.72
7422.86
9450.71
8519.36
19658.2
17754.1
17270.6
16704.6
10612.5
5945.04
5057.23
9484.36
4935.76
7685.75
52.3971
-673.664
-2535.29
2538.02
952.929
1372.62
-606.864
-1316.91
294.057
-1190.6
3660.44
5802.3
4967.87
6852.24
5509.8
4880.1
6140.59
6923.64
6945.52
410.163
2214.22
-3546.64
-1864.84
4051.34
2306.21
7559.29
2652.06
2357.28
1963.96
5116.96
2007.85
-870.933
-2108.39
-1930.43
-893.411
-734.11
945.533
-826.651
-2172.15
-4027.41
-1187.09
-3199.11
-657.198
-3151.43
-1790.86
7179.6
5708.7
7217.03
11568.7
10437.1
12940.2
6665.84
8057.83
4824.57
-1111.2
-766.756
2235.27
4630.82
4551.92
3735.29
-1217.37
1689.51
-1159.83
-330.838
-766.286
3043.63
7618.63
13332.7
13766.5
7570.28
10580.4
15742
6973.47
3747.05
4864.3
3944.39
3255.55
1686.58
3979.63
9516.28
2764.92
9530.07
11066.4
6429.99
2968.68
9016.82
12292.6
15484.4
16075.7
15951.9
22285.8
19965.1
10299.8
10792.7
8333.61
6912.09
4021.59
3869.71
3294.38
4504.25
11010.8
16584.6
21917.1
16161.8
32504.7
32752.1
28462.6
34257.1
25648
14910
20248.5
21723.2
13123.3
13019.1
17392.3
17461.1
4405.07
831.07
4272.25
-53.516
905.37
391.751
5694.32
1721.94
4707.19
5950.48
6457.32
8539.07
-921.574
-783.217
-3037.58
4682.24
10049
6067.39
5915.39
2930.6
7406.52
7701.34
10548.2
14320.7
20891.3
17872.7
12516.1
9561.95
8881.9
6931.43
3930.06
-338.947
-2179.32
-4860.65
-9104.07
-3891.51
-3602.69
4859.3
-977.914
189.68
-387.633
3593.2
3308.38
2814.53
1075.39
7815.64
9217.51
18484.8
20776.8
25894.6
28117.5
24961.4
26446.3
13295.4
11431.6
14794.5
20040.8
10702.5
8886.1
7524.7
14024.9
7426.28
2415.7
2371.39
7203.77
566.674
-5112.59
1745.07
-2976.21
-475.255
1317.08
4421.62
5826.04
-652.476
-3808.03
-3498.07
-1084.31
5383.86
5982.89
5006.79
6409.87
15778.2
9694.02
11218
7209.08
10826.1
9419.11
12564.8
13616.4
7489.88
19494.1
11777.1
17316.3
18934
10087.1
5479.95
7591.74
3806.62
16488.5
11603.9
14971.4
12093.5
8893.36
7985.37
6089.57
12933.4
11231.7
7857.04
4901.05
3451.93
8856.39
143.66
4109.81
8115
15815.2
22964.9
12935.9
15326.8
19190.5
14492.9
12458.5
7714.57
4802.13
4342.74
4472.28
10200.6
12791.4
14748.8
3615.03
4438.7
12303.8
13911.8
9757.42
3651.87
7533.61
8557.38
3819.37
8574.67
5638.75
2126.98
4868.18
4493.29
7208.39
3217.49
2226.38
1931.23
-2935.12
-5671.23
-4838.61
-6653.12
-1946.43
120.764
-4267.15
-510.889
-204.167
3803.87
3067.98
1296.77
-1861.5
273.277
3256.18
510.518
976.85
698.805
3713.46
3834.46
6668.35
9661.34
9308.74
12113.5
8777.62
23794.1
21529.4
14941.2
6650.41
5118.48
7313.98
8079.34
3825.7
-595.961
10514.7
11404.4
10740.5
13669.9
10063.2
8403.26
17067.5
26099.5
19355.6
29020.8
28935.9
24265.4
25863.3
21056.5
19933.8
9150.08
5402.98
6524.85
10170.5
10537.1
10685.7
7551.72
-542.224
-3559.51
-2660.71
-2779.34
-3012.36
-1842.62
153.441
-4800
827.578
-3218.24
-1163.07
1750.06
1255.6
-1954.67
-4072.06
-5600.1
-4924.41
-2938.07
-4949.11
-4234.42
3464.14
2923.73
1612.26
6423.96
9971.11
5996.57
-1040.46
3229.27
381.102
2180.94
3220.04
754.515
115.359
-5046.93
-1585.23
-5482.33
-2392.62
-981.528
1035.77
1625.73
-2695.97
2222.41
3365.51
2778.9
10080.4
10657
3341.93
8465.85
10587.6
11868.4
4730.86
7849.86
8491.83
14263.9
14045.9
10599.4
9684.07
7173.42
2182.82
8119
-2252.89
-668.278
2819.28
4152.78
6987.17
22.7413
992.631
-5235.18
-3280.27
-3838.94
-2174.4
-1428.62
97.5194
4701.81
5569.96
4537.45
10734.6
11228.1
10454.4
15153.4
16519.3
19016.7
14497.6
8732.31
4439.16
7258.1
1954.84
2536.89
5110.83
11151.2
12738.8
14550.7
14833.1
11696.8
12119.1
11981.4
9082.08
7005.77
5140.14
3310.35
-36.63
-3404.95
-2851.87
2300.39
5313.38
4563.23
2503.16
10226.2
11484.3
22753.1
7918.5
13206.9
19624.6
32005.6
23978.9
15548.4
14643.2
11862.2
8368.24
8171.87
8392.38
2165.09
3831.13
5810.16
1712.73
-382.577
907.426
1999.92
3604
4589.65
1193.47
24.8004
377.989
2567.43
4265.89
410.742
2298.32
856.623
389.846
-527.542
752.499
-149.189
4166.57
12007.6
6838.81
4213.97
6001.53
4043.45
-472.018
7541.27
6301.96
3449.34
5209.85
4971.97
6274.27
5034.24
8039.87
6038.27
2449.36
5828.03
9065.69
6359.96
7130.74
10177.1
10587.2
13296.7
20440.8
8885.11
6800.53
-229.992
9404.7
-31.2779
4449.23
6105
8818.78
9682
12349.3
6155.49
8416.18
3642.37
1619.94
1950.18
-1945.99
-4177.42
-1631.34
3346.99
12779.9
8300.7
4789.38
2550.24
8631.78
9601.69
8229.55
10643
14490.2
3843.82
5317.9
2107.78
-11.5055
-977.021
5433.7
5613.96
-1255.39
4563.93
3370.23
-1425.01
-1155.1
4176.4
-941.81
4689.94
-498.123
-3164.24
-341.867
347.774
5708.96
1628.04
1620.78
5101.24
-1955.59
3768.23
1320.9
-553.002
2794.73
189.949
630.088
4236.91
1418.92
873.661
-2283.41
-2565.95
-5483.98
-3138.52
2756.81
-1184.5
-4358.13
-7985.57
-4550.94
-1085.48
-670.088
-5085.01
1522.9
-1596.22
1687.2
903.575
717.764
4273.43
3073.44
3190.08
5182.64
6559.56
8091.22
3680.34
12205.2
8935.77
7512.7
14018.5
13729.2
23356.5
33603.2
35303.5
40689.2
34838.1
35475.2
23541.3
18432.5
14097.9
17873
34465.3
27361.9
27789.2
23070.6
9311.51
7377.5
7450.14
6992.94
2203.54
1698.71
3434.4
4280.16
-1294.32
2514.3
-91.3692
1508.01
3781.23
2399.51
8198.04
2514
3115.84
9649.84
11235.9
11294.6
12723.2
17349.5
13321.3
11693.8
6638.59
9584.98
16621.5
12757.8
6521.84
7345.69
15323.8
19809.3
13575.9
8061.44
7453.31
6258.39
2876.94
2734.35
2999.48
-245.75
3628.94
3020.45
7711.11
8486.1
5616.73
6796.53
14037
13622.1
13892.3
20365.4
8336.53
13794.9
13898.1
13777.4
21318.3
19985.3
19201.1
14093.6
23046.9
14552.4
7147.71
8406.97
11111.4
8319.2
8313.55
10637.4
7399.75
3699.69
4534.74
3449
6832.29
7571.1
6597.67
5052.89
9129.78
3001.79
1303.43
7272.44
5784.98
2519.1
1743.23
-2217.86
2515.44
6297.19
11423
8910.52
1033.98
4365.35
-106.964
1069.49
-673.788
2684.25
-1364.28
1535.54
501.535
733.433
8531.65
8755.32
9703.16
2377.61
3292.94
-2217.15
-2374.34
-2736.66
-3348.47
-383.355
1911.99
1699
5522.59
2886.43
1770.57
9765.86
5846.06
125.503
278.862
3563.12
2274.6
4600.08
5503.11
3204.61
4966.29
7556.83
2873.83
2371.17
2621.35
12.8318
3797.48
-573.393
-966.361
3955.57
-505.97
-1560.75
-2533.09
1814.41
3501.22
-1107.74
381.515
1858.93
8231.24
6140.37
-1710.5
2469.98
-166.881
-600.311
3024.21
6083.92
5086.83
11250.5
12386.8
17474
11522.1
8906.52
6091.94
6680.98
2061.4
1133.23
-1411.58
8163.09
3904.39
4598.32
-792.168
5558.73
10123.9
20138
18174.8
8645.71
-1219.09
-1981.79
-10532.5
-8750.24
-4194.9
1478.61
10847.8
11282.4
4838.41
-170.259
483.214
2869.08
-52.7529
-2957.32
801.361
2999.13
-833.232
1499.8
5780.24
-4429.54
-7444.03
-1513.14
3150.82
4699.86
9351.89
-109.306
-181.762
4227.68
3847.57
5047.08
6243.91
3720.87
2456.99
3076.93
2413.31
4220.59
2279.39
4613.8
8019.85
10757.9
7114.5
3398.22
1495.41
-3706.61
-3228.7
-2334.69
-831.426
-1919.43
-621.084
-2982.55
7012.39
9508.54
11464.9
6759.56
4662.34
5161.06
5508.78
5346.01
8586.82
-775.809
-3096.73
-439.316
-1615.51
-663.1
-374.764
214.677
-610.548
4269.38
6948.13
3160.14
787.398
-466.467
-6503.44
-2107.39
2096.86
-1080.58
-475.112
-106.939
-1924.02
-7141.32
638.907
-5353.75
-2565.99
-2735.82
-1157.49
557.185
1434.27
1343.18
1559.91
2513.85
1734.49
5399.46
3271.15
2493.48
9257.01
5197.22
1671.46
-462.587
3038.28
4220.4
5778.04
5479.86
7015.96
5139.02
4795.25
3892.88
5603.58
514.783
3464.29
4039.39
1158.04
1577.71
4655.38
4842.83
13518.6
14089.5
17867.3
17429.5
15796
27313.7
25834
14330.4
13358.3
13693.6
14808.9
18130.2
18217.8
14716.9
13651.2
7687.56
7644.6
6209.1
10785.6
4909.27
8492.5
6824.82
10911.1
8463.95
9843.18
6507.65
5463.8
5220.27
3131.86
-864.428
2703.82
6980.99
20.0769
3884
8817.27
3102.95
988.702
1477.86
4250.02
6720.54
5177.56
5326.23
-4277.83
-10577
-6663.69
-3628.77
220.94
1933.82
1428.27
5930.71
8571.75
10950.4
12844.6
6560.01
9629.61
11273.5
6635.65
15826.4
9222.74
7965.21
6874.63
10521.2
14500.8
18182.7
13663.6
11882.5
15960.2
13319.6
14172.9
13809.5
6503.91
9550.08
9059.79
7576.57
11363.8
8180.3
11452.9
11663.8
12935.1
15680.6
5332.79
6406.95
5588.38
1944.62
3174.28
5296.53
7190.12
9058.52
15935.3
10168.1
8261.27
298.021
306.637
-871.402
5415.66
9800.25
5961.91
11036.9
12167.3
19182.2
13336.9
8570.21
9810.02
5223.82
10504.6
6956.22
-2964.08
-1782.88
3619.09
2322.43
298.618
3588.38
2085.39
330.848
1165.48
-898.243
3537.44
12400.5
4363.99
133.714
1718.77
4082.57
5120.81
865.063
2400.48
1008.8
3008.35
2108.76
1475.55
-1771.11
1371.15
5747.8
2956.17
10413.4
8900.96
10229.6
16494.6
9499.62
11117.5
11177.6
3191.06
8820.75
11754.8
9221.18
8128.68
4263.8
4987.75
6727
8399.5
7990.77
3608.12
-1354.27
-645.619
-924.773
-7077.76
-4571.53
-4681.86
-9459.14
1753.16
547.454
8165.82
1264.5
-4186.99
1572.38
-1688
4809.4
5155.42
11224.6
17279.3
4766.94
6227.88
11691.7
7007.27
12499.4
16133.4
17588.9
17282.3
16459.8
27696.5
34612
32635.8
32053.8
28893.5
22306.2
28516.3
23644.1
20079.2
23030.5
27167
18762.9
12284.1
19635
20014.1
12264.2
10513.3
11060.2
2943.9
1161.63
-4902.36
-4634.93
-5453.05
-308.761
-4225.15
-1458.35
-4760.23
-2103.54
9188.53
8036.6
6205.07
75.6792
3173.98
473.256
-3012.17
251.058
2576.34
11729.9
9843.62
2903.91
2390.32
4376.72
-1346.68
-3260.45
126.444
6203.12
12228.5
6377.43
2774.65
6190.4
6073.78
1131.38
128.086
-297.713
1779.76
5412.29
8213.97
2668.05
-349.706
-9722.78
-9611.45
-5590.82
3759.01
2550.11
1097.08
2010.26
8563.11
7838.19
9858.23
5476.91
1399.75
2173.32
3325.42
3269.96
2017.35
1373.66
790.161
-1975.5
-5340.67
-3275.34
-2155.24
1315.53
7245.48
7950.05
6931.05
-994.249
60.7358
870.399
-904.997
-8528.93
-4951.27
-1975.43
-1495.93
-1793.84
3784.98
-1454.12
-2876.95
-2131.71
1615.88
116.988
-2669.57
-3296.75
-3160.51
986.211
4327.52
1104.34
-523.508
2243.46
-2074.22
-4608.33
-5585.95
-5487
777.422
200.176
-1691.09
-2459.51
750.272
1431.02
146.877
-1700.72
-2014.93
-10953.8
-6020.16
-3731.96
-6095.89
-360.924
933.189
-975.693
-37.5519
-601.396
2513.3
-2484.39
-2670.16
-2785.1
-1356.27
-3626.07
616.83
2363.77
2725
-106.723
-958.725
-4380.58
1057.13
3014.27
1682.62
-430.561
739.779
-1336.95
2572.05
4318.67
3664.26
751.18
2472.59
6537.34
17555.7
12542.1
208.553
4272.58
3381.5
-1057.69
2687.88
4774.06
4437.82
1484.2
7364.73
5653.68
7259.36
16475.8
17891.1
13314.3
6618.31
2468.99
-1694.91
-2354.27
5903.02
-1660.59
376.558
-3280.31
-1939.56
-2041.84
895.019
4116.29
2927.93
5844.03
-2482.8
6068.39
4829.19
5411.35
5009.94
8738.88
12643
13547.2
12601.7
7554.14
8197.98
5580.01
9744.5
6607.16
2939.26
4857.18
6811.39
6348.32
3002.68
4608.08
5537.98
2983.32
5775.72
7588.72
9359.39
11966
7410.9
7181.55
9900.16
4105.97
-4236.89
1669.34
-8139.28
-4232.8
-4212.87
-3849.8
598.113
-1243.91
-2531.07
-941.803
4544.13
-814.335
578.884
353.837
3185.47
7820.19
4762
4012.4
3504.92
3625.11
2355.11
3541.34
8580.86
379.208
-5723.19
-3105.17
-1651.87
737.288
-179.527
1171.1
3572.97
714.257
2538.43
5200.2
7284.76
4438.17
1964.45
104.663
50.4223
643.467
-1147.96
-3539.61
-490.577
-1971.01
334.655
878.352
1090.22
-511.424
-1695.87
-939.44
1047.1
-5511.98
-9096.21
-5307.48
994.026
717.987
-2960.29
283.727
16.0779
3140.01
2201.91
1795.61
6382.52
9510.08
13368.7
4281.24
2441.1
6981.81
948.246
659.594
-1446.52
2394.02
2251.35
5713.14
3689.36
2325.72
-1603.1
-1635.73
818
-327.599
-1824.6
2496.98
-1462.41
-107.274
-60.3176
4709.12
-2176.33
-4528.36
-5521.94
-2413.79
2825.94
2983.58
6148.87
9458
13669.6
13565.7
14509.7
10769.1
3370.39
7149.99
5388.58
7567.41
12846.7
7046.08
13464.1
10565.1
7896.76
-378.665
6874.08
10643
13909.6
8252.99
5116.67
4266.73
-214.993
8266.17
9832.08
1287.96
7209.24
17209.6
4790.94
6971.95
8723.04
4077.5
4172.7
8400.32
12119.3
9940.47
5340.27
4945.86
4540.5
9412.85
9736.99
9623.61
2440.5
1731.21
9022.51
17083.6
13134.5
9146.67
7829.26
13178.3
8436.41
4873.77
5174.73
3192.49
-1332.82
2248.25
-72.0082
7445.77
5372.2
4164.59
2401.88
7772.23
6325.14
1890.92
5670.93
4178.66
765.597
1563.94
-6173.75
-3433.84
-1565.35
1509.37
-2834.87
-2949.29
2155.29
-618.982
1657.53
3345.91
-258.158
-2231.11
1376.48
-1536.68
1738.53
1603.71
758.862
5814.73
2454.75
2612.42
-962.716
-1507.81
-1844.08
6127.05
12913.7
11758.7
13652.4
23442.5
14934.8
18693.1
10674.6
11567.6
6022.49
-423.998
-2402.47
2458.32
2511.24
-56.0332
5117.76
2452.1
-2856.67
-2038.08
-2571.86
2027.54
1646.52
7969.46
4904.33
1326.19
6082.77
4715.35
2424.38
3574.97
7859.74
5483.9
9918.18
6498.92
723.623
-4207.55
521.164
-3873.22
2428.21
7472.96
10672.8
7313.83
12945.3
7070.21
5765.31
372.526
2286.74
11552.8
11861.6
7302.02
5798.22
7049.75
6803.31
5335.97
9123.47
11073.3
14118.4
14835.1
16756.7
14422.7
3694.96
8373.36
13028.8
12632.3
27599.9
23327.1
19314.4
21012.5
18390.6
17760.2
7961.63
14841.4
13504.6
10725.4
5873.76
2360.1
672.358
1007.82
5533.38
5765.68
9753.59
12291.9
10956.3
9090.01
5401.81
-261.626
-865.037
1394.67
-1924.14
-1181.8
-3065.79
-447.161
15.7442
2288.6
1527.46
3127.35
-1593.98
-2465.13
-629.544
-1220.66
5265.12
5406.95
11236.6
7138.11
11807.8
4311.03
8769.65
10761
7506.52
432.189
-3188.95
-5398.89
-6654.66
-6342.27
-6149.07
-9880.26
-2988.02
-5682.33
1956.24
3045.29
174.197
-2619.19
-2116.94
1109.55
-1080.14
292.439
-1487.94
1589.21
-72.2709
-959.516
4690.33
4441.7
11236.2
1663.61
2922.48
2694.76
2593.88
-1169.52
2004.82
2386.34
6802.48
2155.1
184.267
4619.05
3229.06
8538.5
5823.37
6085.65
1305.5
-1819.35
-2269.34
-18.4592
-4912.75
-771.259
-1797.08
-6686.39
331.068
-1743.98
-281.775
1941.11
46.2181
4668.15
1060.78
-1535.23
1787.61
2978.59
-781.803
1244.51
-179.633
1990.41
-1015.48
135.885
3988.08
280.383
-262.645
3587.62
6283.39
7433.42
2240.53
2626.7
-3414.25
-5236.23
-247.32
6826.04
13167.5
10488.8
14223.1
9620.05
3951.44
10677.2
11355.2
12142.6
18627.8
17735.2
12504.6
9223.92
8790.25
12718.2
11718.6
4777.24
7452.55
6467.62
5083.94
4954.6
10475.3
8264.54
9735.39
12662.3
10662.2
10914.4
13352
18403.2
18898.8
18282.5
32355.2
35834.3
28940.7
22731.4
13714.4
9343.85
12134.5
13455.2
7584.64
13299
3198.68
-409.428
639.2
4167.59
3216.05
1948.77
1815.05
-5443.81
1574.77
4500.96
4391.02
6609.39
4333.24
6095.74
248.742
2818.58
-836.99
-1159.03
2883.48
81.427
1898.87
10968.7
7760.92
6616.8
5994.31
5638.23
7691.42
7271.7
-44.0703
1710.4
-1063.31
-6251.06
-4871.28
-3823.11
1182.36
2222.5
5981.54
4506.47
3184.93
8168.19
10189.2
7063.16
3261.14
3048.11
-3216.4
6707.51
12872.9
21569
27134.9
15836.8
13072.3
6059.14
11299.9
10763.4
17065
12474.4
12347.2
14266.7
8007.44
11047.6
12566.2
24099.8
18210.4
21502.6
20880.2
30041.2
30995.7
31356.4
43748.3
34465.7
23419.3
24304.4
6868.52
3051.87
1636.56
-1724.61
3353.55
-1776.89
-457.079
-2282.04
2799.88
4874.77
3224.71
3704.16
2281.25
7649.98
3034.91
2450.67
3200.76
7537.53
10824.4
8219.54
7994.29
9177.73
9722.51
3230.13
9292.97
9842.31
9232.44
9956.52
-469.233
-1930.76
482.63
3649.38
482.931
-1304.55
-281.051
-19.1361
420.278
1455.01
-1513.46
-2008.11
-1389.02
325.769
224.541
-1413.87
-5116.22
-5494.92
-3826.61
31.9271
-703.084
-4197.71
-190.409
-1246.78
-1629.23
-27.676
-1961.64
5868.88
4664.59
5002.02
2716.59
651.999
-3633.18
-2638.49
-2210.6
-967.05
-225.525
-1737.78
-2662.67
1397.42
1425.57
405.462
-2144.37
2329.89
489.182
3215.26
4073.12
4900.06
-6215.42
-3777.35
-2407.47
-3975.49
-5659.5
-3396.38
-2187.72
-404.139
-1455.42
73.8347
-521.887
361.488
500.332
3036.33
6703.16
5527.36
2602.65
726.515
-1959.52
-523.244
1568.86
-1490.04
-7115.38
-7483.94
-4755.58
3314.92
4789.7
4293.65
9432.93
11242.1
10397
7522.89
7937.92
8223.74
10556.9
10863.7
6836.29
6897.42
12927.5
7644.91
2228.43
-777.892
2600.26
757.006
8001.2
9580.61
12563.4
2525.63
3790.95
-285.322
1614.83
2264.51
1337.48
-532.296
-1171.69
913.562
4098.03
6255.09
3046.91
6377.56
668.781
-3471.87
-7019.41
-5604.79
-5498.92
-743.206
5083.92
10105.6
11896
16349.5
16610.6
18392.7
16727.1
20432.6
14424.8
12368.6
9293.73
12625.3
19601.5
8036.67
9186.39
8665.14
1418
796.908
9230.91
6465.21
1434.39
-2577.23
-4071.25
-1452.35
-3171.14
-3262.96
-4513.94
-1745.26
557.464
4901.96
6089.69
6287.16
7429.62
13821.8
6496.48
10579.8
8351.64
7218.56
11651.8
8460.72
14016.1
9968.15
7330.56
6765.02
5186.9
8936.41
10986.4
11881.4
5100.95
-487.232
-477.435
3224.06
-5038.33
-4831.9
-3808.72
-2221.44
1091.35
-1164.8
111.651
1496.22
1851.84
6454.34
4189.51
2501.73
1236.2
-1634.23
-289.142
1526.45
513.509
1855.2
-1079.9
2025.48
3415.29
2458.03
1400.02
4079.91
1740.37
-4134.89
-1262.99
2023.53
1572.17
1592.24
4338.01
4649.04
1153.93
1231.31
2186.12
1605.33
968.775
2540.35
4618.15
2711.8
-2929.19
-1538.83
5880.2
6266.74
9015.15
5779.29
-443.225
-23.2923
1099.79
4617.07
5637.51
10831.7
5570.48
-2030.14
-6000.44
-1954.31
2959.74
903.668
5560.25
702.942
12.5123
-326.029
-1410.01
238.052
-338.337
-233.746
376.973
1745.43
-495.973
970.362
-2651.71
-5084.85
289.759
3461.54
1227.76
2388.47
1616.92
1958.59
81.8974
556.578
727.236
-3517.36
4801.4
2944.45
4438.57
10245.9
4068.66
-2404.17
6328.06
3310.52
8420.4
5040.21
8945.44
5318.95
9150.67
17433.8
23457.7
16682
24049.6
15753.4
20210.9
16500.8
10845.8
10680.2
7335.08
3475.31
6329.3
3742.77
3406.11
150.334
5305.88
1726.13
5614.53
2927.79
3647.34
11799.7
3057.7
6462.4
4557.78
-416.454
-4138.66
4321.56
1946.96
5967.24
10973.7
7776.5
5985.04
4663.65
6176.79
552.883
1464.3
1157.5
6246.55
3924.23
7487.2
13168
10629.6
7408.13
12374.1
18063.3
19756.7
20167.8
18322.4
19027.1
16043.2
8318.67
12877.3
9645.67
7991.91
10945.3
16303.7
3888.23
4918
-285.394
1161.53
-1032.81
-8946.13
-6381.75
-6487.72
-4531.07
-6047.46
-4002.12
-1158.33
-3168.61
-2477.29
-2062.34
755.671
2741.72
5429.14
6296.49
-29.2336
2724.65
3024.75
2703.62
554.196
189.392
2273.93
152.321
1833.92
962.66
3913.11
6235.07
3648.12
-5599.02
-216.045
4419.86
466.45
5441.19
3779.2
-3131.96
-1102.87
-442.424
860.31
3249.53
3246.55
3377.71
8909.34
6207.25
2718.96
-1849.54
8193.17
7686.22
11937.9
6942.47
7706.05
4831.15
6988.6
3547.74
896.978
-1297.02
4010.58
3394.63
4026.42
6445.12
17494.6
9958.08
6893.75
2948.81
3444.31
12525.2
5944.35
4194.55
6121.16
9182.49
13255.1
10778.6
11195
11654.5
11750.2
10468.2
9824.29
5542.57
879.715
7077.99
9848.84
1241.72
2990.84
2066.96
1613.81
-2857.57
1751.44
65.0154
6421.13
16024
13074.7
10257.7
4486.34
2664.64
-2189.36
-558.964
-2131
-5198.16
-6703.16
-4104.33
-359.763
1328.38
3264.23
4813.33
2891.1
-750.079
305.873
-2715.18
571.443
213.982
-2636.41
-6140.61
-1032.45
-2524.52
-1732.45
-2783.06
-2240.84
-4055.77
-4683.68
-114.703
-1012.59
-2425.43
5007.87
-1822.51
13373
14713.6
13679.5
24244.8
22663.4
31306.6
42787
29853.8
17853.2
20925.3
11093.7
9811.22
7260.23
10450
9460.48
-421.638
-3149
1298.6
-330.592
1897.02
7458.44
7356.8
2457.2
6475.68
16170.7
19048.5
4379.16
4607.71
4965.58
9396.03
7129.51
865.392
2290.87
3273.28
4570.72
9330.11
11394.9
7211.77
4572.87
7221.52
5539.7
-1923.58
-3916.41
-2551.26
1092.07
2942.31
-51.5261
-1161.67
1886.19
-883.727
1415.64
7974.05
624.549
2148.8
10008.2
15493.2
18933.1
18316.2
20125
10500.5
15072.1
17109
11347.1
8366.81
4644.33
19010.8
25380
13854.3
15011.3
10208.1
12548.5
9198.21
19124.9
11730.2
7522.67
8925.02
2428.83
5220.76
223.344
-5304.05
-3677.29
1190.82
3432.86
1469.42
612.113
-964.123
-1164.85
-5494.03
-6137.48
-4866.9
-2452.34
923.406
-621.872
-3031.66
-2910.54
1581.39
1745.18
1949.31
2705.56
-223.983
525.38
301.665
-1050.36
2389.1
3868.3
2027.77
-244.517
681.898
1686.31
1862.75
3026.63
5532.76
5749.57
3193.08
2288.22
648.494
1628.15
3138.59
4062.25
716.492
5972.64
2585.86
1748.78
-1347.52
-2304.8
-1517.92
3049.9
5836.35
7293.45
5300.16
4480.32
7489.56
17150.2
9446.5
12924.3
15652.3
9996.18
896.71
2518.07
2779.08
-5194.76
-2486.27
1279.42
3720.9
2394.65
630.68
2126.81
4711.95
3886.12
-202.151
-2229.56
-2552.96
-1491.19
1841.04
-2679.68
1779.41
830.701
3609.02
2630.86
641.252
314.737
-633.18
3408.45
1437.68
-781.667
-1574.16
-1926.82
3521.31
-1323.38
-3558.41
497.388
2218.33
-285.24
2051.24
1635.68
7956.07
8398.45
-1961.88
7645.14
9089.13
7493.37
12691.5
10208.5
7930.52
6514.46
1982.26
-2525.27
47.4567
1050.8
2047.77
3045.09
1975.51
2689.89
438.393
-644.3
-840.133
1004.2
4160.67
4631.24
4679.62
9887.3
19081.5
14488.9
16490.4
2044.72
9566.24
7802.52
3320.16
2964.96
1999.53
-3413.36
1538.44
3600.31
2584.31
1069.56
-4222.33
-4093.45
-3128.08
1664.31
639.243
2617.61
3528.88
1489.93
1287.41
-731.384
-4856.62
-1531.25
12806.6
20670.2
27554.2
29944.2
29680.3
34220.9
28006.3
19739.9
12610.1
15465.3
7955.36
4218.28
8230.8
7772.08
4794.17
4231.56
2536.54
3937.16
1441.46
5392.54
1851.47
3852.8
1657.84
15454.6
8539.02
7234.43
5863.43
2656.29
1453.43
-773.918
-76.1483
-3155.59
-2593.32
937.22
-471.654
-223.412
-79.9415
-3289.62
-895.561
-3073.53
-132.911
1735.46
4396.76
4578.42
2644.23
370.922
-163.831
-1796.58
-5889.3
1069.02
2923.4
1899.68
3717.48
10298.9
16034.8
14186.1
7806
9012.51
2753.35
7391.2
1315.36
-923.017
-1833.2
760.601
1722.34
-496.904
4384.29
136.517
-2778.1
1106.42
3425.56
4998.25
229.141
-1237.82
-4172.04
-12835.7
-13438.3
-9463.69
-10140.5
-10675.9
-9027.78
-939.734
-1867.45
-3831.87
-8500.91
-3986.49
-4927.12
-3161.52
600.18
8656.71
6964.38
9387.46
5521.83
143.334
-6421.86
-1318.1
-3520.37
-4817.78
273.754
-4941.35
-2581.22
2136.4
2134.01
-693.964
7323.8
4425.72
2723.65
2841.26
808.204
1449.83
6794.83
9796.05
23184.2
24358.5
13177.7
18650.8
13219.3
10408.7
10231.2
5552.49
5706.69
8454.86
16768.4
7636.59
5131.62
3788.56
272.556
-2802.71
3065.22
6662.71
4195.63
-3016.67
1341.25
9.44927
114.787
6113.68
6490.15
7977.47
6405.05
3752.16
2749.54
7361.4
16548.3
6838.1
7184.01
12318.4
18139.4
22052.7
26445.5
24064.1
18065.7
8981.2
16549.6
9218.43
7482.9
16087.4
12855.4
7846.9
11990.6
24710.8
15756.9
20106.1
22897.8
20286.8
16618.8
21897.7
44695.8
34521.8
34012.3
36962.3
29542.9
32315.9
15687.8
17613.9
28410.1
30778
30552.7
31470.7
26171.2
25000.7
30477.7
22245.3
27531.8
21152.8
17584.6
25483.8
16388.4
10690.5
12929.3
23485
39980.3
54142.9
63380.1
41971.8
34555.9
21198.1
22701.6
20116.6
18176.1
19441.7
17528.4
12624.5
13633
10361.5
12269.5
9525.26
2232.17
729.512
5244.27
10942.7
10905.4
19041.1
10957.5
13464.3
24905.2
30105.8
29415.2
29577.2
22947.4
9709.54
12928.8
3351.11
3868.02
2986.68
921.268
-1389.95
4471.51
-57.1373
407.014
1826.24
177.095
6264.46
6127.5
4067.77
6175.21
7505.71
1393.2
576.693
2722.51
4304.62
5678.43
7698.52
5142.12
-1288.65
-1337.88
388.043
5240.77
3204.06
4858.09
8814.53
6886.02
4047.35
4108.89
11807.2
13631.6
11347
8216.61
13999.8
8290.55
5899.81
8716.07
9497.61
3749.87
1231.21
-800.291
-2877.4
1379.17
-3613.49
-3489.82
-2072.62
-114.866
8943.21
5982.13
5128.32
20.3096
1676.55
7338.15
10772.2
6481.15
3947.44
3600.76
3946.98
4765.04
8676.9
7906.94
7107.58
9873.1
7739.25
5103.46
8540.96
5918.44
4913.36
1587.15
-3646.29
3884.77
2861.58
2578.8
5154.17
7348.2
-938.2
-4007.87
-3330.57
-765.736
-1752.44
696.59
681.065
23.3454
1254.2
-1212.19
7367
10586.3
8333.1
4993.4
13152.2
11215.4
12346
17577.5
17431
13926.6
8316.11
2750.99
2706.63
-2489.11
-1937.74
-1162.23
11007.3
16162.3
18972.6
12001.4
6987.55
6689.07
4405.43
5164.12
-3422.48
-6571.26
-4160.94
-2329.33
2582.79
-1439.26
-4612.13
-3502.4
-1914.43
1433.1
1134.73
3383.82
3464.13
207.343
577.381
2776.56
6960.44
7029.49
3551.68
2069.92
10049.1
9336.19
6109.55
4118.97
2682.52
7337.01
8542.59
2402.46
9094.12
10568.2
12873.9
11650.1
12003.9
16848.6
5873.83
7542.15
13818.6
17424
6218
12084.6
10464.8
10613.6
9267.11
14442.4
20062.7
27757.2
22538.5
15427.6
4007.07
8070.64
21316.4
17255.6
11585.3
2870.01
4217.06
5657.82
5801.79
5362.5
-3218.44
798.469
8949
8469.63
11083.6
6587.31
2675.6
4174.85
7058.23
9855.1
5940.23
5560.84
1866.25
3751.61
11556.9
7519.74
11975.7
11106.9
13953.7
12943.6
7439.12
21456.6
20345.4
11505.9
12950.8
13431.9
5939.59
12203.8
15650.5
8941.53
7021.06
147.861
7098.6
4490.57
4072.56
4903.25
4048.65
1247.45
-638.435
-2207.37
-3383.52
1344.07
742.81
-1188.69
-6330.99
-4500.59
-4930.9
-7140.38
-7257.73
-9508.61
-2594.24
-511.987
294.578
-1528.9
740.576
2119.48
2886.88
5365.6
2787
944.324
4098.35
1689.07
-757.548
-2128.79
3643.98
1012.6
-1383.15
3157.2
3725.34
3629.07
1359.15
1067.61
-1525.9
-9198.38
-3097.78
-452.261
-1353.79
-1429.3
-2243.63
-4561.53
-3574.34
-1127.56
175.763
5581.78
5776.2
577.227
860.589
3842.34
3596.86
8051.47
13514.1
13657.9
11199.3
1678.01
5259.53
3889.81
824.498
7889.8
4704.78
1062.57
-819.101
-1926.48
-347.811
-2546.86
-1464.98
4645.27
2854.12
-1525.06
4771.01
11333.9
3227.94
-299.388
1777.69
1122.45
11609.8
8184.76
3207.85
7735.84
11079.3
12729.6
11671.3
9792.95
19693.2
12003.3
6605.34
17530.5
19060.4
11827.6
13303.2
7342.6
5136.26
11200.1
12353.2
8474.93
11857.8
4029.27
12107.4
14775.4
10398.7
12079.6
8947.94
6174.99
6457.82
2482.2
620.051
-3850.34
-3837.28
-1635.9
1004.75
35.0715
2170.81
-2091.67
-3619.29
5579.09
10302.7
9582.58
9418.33
10435.5
8496.15
14545.9
16813.2
14876.4
17799.4
11953.1
16731.5
19475.8
17205.5
11540.5
8346.92
4408.56
-3623.61
781.525
3428.48
2171.91
97.3214
-1704.71
-1178.61
1017.31
1182.25
-787.08
48.5543
1632.93
5842.14
5134.46
-50.5464
-1582.45
-4136.79
4334.66
8322.49
453.114
10617
11790.5
8323.51
662.983
2097.74
6791.34
9480.35
8208.59
-198.862
-2548.33
2618.37
-3431.6
5690.5
5470.9
4202.75
-1229.28
1158.82
-2173.73
-7986.06
-2588.13
518.903
2585.74
3047.75
720.496
4871.74
7508.16
3693.1
18261.4
22155.8
25147
27561.6
20479.2
18935.1
13683.1
19753.4
22677.9
19669.8
13988.6
15983.6
19755.4
17892.7
11351.5
14713.6
11928.4
11416
25100.4
21501.4
15531.7
18571.2
22597.4
23149.9
26234.1
30203.1
18855.1
10092.8
8944.13
12016.5
10900.8
4814.31
700.575
2308.79
2236.61
-3454.56
-107.107
2116.35
3722.25
215.815
824.964
1869.14
10476.8
12944.8
23485.4
28341.2
15762.7
15262.9
13128.1
13348.4
26887.6
26021.2
24004.6
13667.7
8000.12
12106.7
7354.02
18108.5
25667.5
24071.4
21310.7
15259.7
6060.32
4509.22
1098.61
2704.02
11732.2
9871.06
7064.4
7125.06
3538.98
5932.92
5512.7
5671.23
5014.35
9765.58
6029.58
4717.06
9326.71
14227.8
7959.29
13601.6
7083.7
8657.84
4110.93
10874.3
3848.17
7351.29
15856.9
14530.6
11576.9
6574.11
2565.51
-830.711
-1337.25
-4166.34
-1953.59
-51.1041
-3675.74
4581.86
5650.05
1156.26
-3788.41
346.369
-2259.01
-3311.16
961.249
1819.87
4694.75
1756.44
1177.11
1582.57
4220.44
4548.4
4548.53
9566.53
1719
-3429.82
-2023.89
3038.5
8407.49
6029.61
7268.87
7311.64
6668.1
6270.1
15859.7
16232
15731.9
4644.35
10705.7
9486.47
9490.6
9263.28
1931.64
3468.91
2877.06
942.789
-2598.4
78.0067
-151.325
-2412.5
10818.6
8883.91
7602.34
8065.86
8673.63
10164.8
4129.35
9175.71
10836.9
9471.77
9525.31
14629.6
10707.1
8709.97
8946.87
3722.43
4023.02
3479.93
6876.48
5062.62
1062.86
6726.86
3407.89
6541.84
7501.59
6646.11
7566.88
-228.827
-1073.81
3479.08
75.7499
906.726
-1898.18
2778.8
3254.8
530.35
2181.75
1253.12
234.352
4968.91
7885.17
10375
2299.94
15946.2
15494.5
9948.74
3564.26
2183.16
8582.55
8015.35
12558.2
-322.609
4007.02
2466.23
329.815
5668.55
-476.214
-6.86376
2860.3
3996.75
5451.91
2157.74
925.53
787.499
3317.19
5898.16
3157.92
2581.46
1778.14
2939.98
2141.92
-330.689
4437.46
8260.57
6434.71
10445.4
12217.7
3077.23
-453.011
1088.63
1321.03
-588.453
1396.57
1241.78
-8171.39
-4835.08
-7481.24
-1930.42
1723.26
1216.97
-934.159
-1955.33
4541.55
694.248
339.014
-643.154
7202.98
9526.87
4634.71
1008.26
5207.77
4837.8
5290.58
4064.57
4211.04
2169.25
3684.76
1482.52
-2223.41
4111.05
4118.74
6448.37
7183.15
12584.7
22257.4
16317.7
15023
23978.1
21084.4
21011.2
29267.8
42076.2
32000.6
29206.3
25836.9
14222
12806
7090.44
15168.3
11104
5439.04
1523.12
1577.92
-2907.6
-36.9173
11699.9
6215.06
5715.77
10812.1
15348.9
2136.75
5498.87
-2540.92
3800.87
-1063.24
-735.834
2718.11
226.736
-2425.91
-6260.31
54.3845
-2617.81
-3376.7
4354.07
15572.8
18439.7
9017.21
10291.1
12393.4
17882
17799.9
16982.2
18916.9
18217.2
24005.5
17259.3
14535.1
11580.3
16076.7
14889.7
7116.39
9240.18
6233.82
1505.95
3700.1
-5274.43
1845.77
-1340.47
1166.83
3316.57
1675.39
3399.98
125.186
4638.53
-84.5732
-827.145
-1037.77
158.044
-3635.19
-2836.59
353.318
-970.212
7283.78
826.847
2799.27
3367.16
1329.5
710.491
4777.26
3184.55
2245.8
1293.2
-1836.99
5999.18
124.485
2079.18
1735.97
5258.62
1614.48
5061.13
475.427
-13.7167
-1439.58
5088.96
2306.91
671.057
3575.85
530.039
-28.7514
4254.95
3393.54
2135.66
4272.33
1157.33
3487.81
950.551
5321.06
5849.75
5227.76
6384.37
3005.79
6105.08
-462.229
-1510.53
905.072
2359.92
2915.4
3211.02
3524.43
4645.22
-1649.56
-464.335
99.2872
-1161.16
4893.76
9302.48
2781.95
-757.04
4047.96
2516.53
442.988
591.106
4012.59
1778.54
131.415
754.491
1933.04
5478.32
5112.34
1569.11
7454.78
9971.57
11334
11296.1
14439.3
16397.2
15453.7
13362.3
14771.2
11737.7
5063.42
5828.62
6473.18
5361.21
9565.8
2874.57
5994.76
10498.9
10344.2
11205.1
14477.6
13237.9
12301.4
12609.1
7444.85
5893.68
8374.12
4557.84
6029.4
923.215
237.53
-809.176
-4115.28
-2757.13
-2421.67
-1840.35
-1406.75
-2090.9
596.294
797.976
1301.45
1337.65
9014.3
16378.7
5120.32
5299.99
16554.8
14344.1
5302.09
19242.7
18475.3
14711.1
21423.7
22388.1
18732.8
15234.4
12947.8
12584
7100.74
5092.73
12156
11332.6
11380
14824.1
20082.9
9154.23
15141.3
5770.88
6200.66
8365.62
5011.46
7416.01
1730.26
5175.31
1251.8
-3414.39
-2436.97
-3250.63
-1451.61
4953.46
4310.65
11635.4
10898.9
23120.1
18085.6
17717.7
9210.68
10691.9
9771.47
7265.1
6779.4
5918.98
3923.28
922.055
1870.78
2001.74
5783.96
5783.04
4858.04
2723.03
-466.396
-4045.22
-1005.91
-4553.64
3228.33
4353.43
1864.49
1161.02
3954.08
3802.21
7766.98
13975.4
24086
13241
8699.36
9227.35
15489.5
18390
17689.3
20089.7
13045.8
11058.4
11100.6
14962.2
18916.4
20306.4
13392.8
12555
1259.88
-3576.36
4368.39
9373.89
12001.2
13310.3
9007.38
15660.5
11832.2
6909.22
169.605
256.669
-1391.55
-1175.58
285.547
3698.7
4472.6
2603.07
8885.92
6689.57
8242.32
6539.37
7653.54
1755.97
4559.88
3551.86
1204.16
-2116.46
-4200.99
-10.5943
3742.8
6783.46
4531.79
-138.95
3183.17
-519.837
-125.479
1692.64
591.371
-68.235
-1894.45
544.791
4844.46
6276.07
2931.37
6368.83
3015.84
6448.25
4793.4
3676.55
3828.94
2474.03
-3401.75
-684.027
-988.206
-977.197
3347.35
-1380.09
-4167.83
523.804
1210.82
1177.03
-1206.42
2908.26
4079.62
5524.69
5278.85
2453.71
3420.86
1974.8
117.463
1715.9
4766.55
6495.24
3862.88
-978.882
1736.04
1438.01
2777.07
-2567.03
-1574.84
-4367.98
-4536.53
3524.86
4486.86
785.188
-519.972
1956.78
39.9126
-961.92
1382.24
146.061
1253.64
-210.505
211.637
600.142
717.589
4377.21
-519.063
476.17
-241.425
-4205.11
-3662.26
1294.32
-1077.29
1857.04
1123.26
-1006.2
1626.82
3558.66
1093.7
4377.4
-373.152
-143.389
-4750.26
-2975.58
-2790.44
-7787.58
-7782.98
-3671.86
4652.6
7194.64
5350.91
9459.66
7186.29
9030.88
9776.88
7016.68
5984.27
2627.36
-2959.12
595.3
-2237.88
-1456.28
2201.58
4526
3213.67
3219.86
6011.77
896.596
-2424.06
4737.58
8437.33
11328.8
7631.46
9214
14789.2
21376.7
30560.3
40540.3
36842.5
34084.2
29164.4
34097.5
33479.8
22710.7
32046
26906.9
10902.8
14186.9
16141.6
12497.4
15799.5
16361.6
11361.3
8373.14
7387.89
4713.74
2151.78
-2254
4342.65
213.193
-5047.27
-4471.99
-2199.99
-4007
-1625.91
-1538.17
-6093.3
5027.75
-199.845
1430.02
-675.938
650.987
-51.054
698.48
-3749.01
2966.5
1845.51
3492.49
3911.75
2584.74
3617.91
7061.98
4036.99
2276.62
-3813.45
534.067
-838.255
-1781.86
2140.19
4008.29
4104.31
3602.86
11754.1
7740.54
7388.19
7398.79
11517.9
14198.6
20698.5
26165.8
19284.3
22009.9
27986.3
22462.3
14480.2
15090.1
23014.1
18588.5
19066.1
17714.6
6454.49
5045.66
1470.04
6550.2
8137.93
13134
2954.81
-2323.35
2920.45
-5107.02
-5727.61
-3038.31
1018.88
-2432.98
1247.85
-2745.63
-964.572
-5980.9
-8047.91
-4792.34
-3434.03
-1691.77
-53.89
-400.238
4404.66
2022.82
-504.248
-354.454
500.62
2183.94
657.444
3463.83
5168.44
14967.3
7165.63
8885.54
6736.28
7383.82
13730.4
6700.45
7808.52
7605.72
10321.4
11238.5
8955.77
3791.33
1133.71
4686.53
3199.03
4249.45
3604.5
-2094.84
-1057.36
2075.31
1092.43
2481.58
6085.75
13730.9
4074.3
-1379.77
-1673.34
-1808.46
-2944.29
-5227.29
4961.02
7836.71
8046.09
1499.27
2386.94
-866.411
-442.559
224.021
-1083.91
1012.94
7984.37
3641.66
-1459.95
-4209.86
-4086.71
-1013.18
-1179.34
-677.022
11544.9
13541.6
17164.6
25262.7
20888.6
20606.3
19175.8
19802
17964.8
24419
20016.7
29763.3
27061
12498.9
10837.2
8859.65
-26.9908
263.534
-3143.48
5873.31
6532.66
4339.6
2721.78
1484.11
73.1851
-1005.77
-332.54
-976.594
503.881
1143.58
-955.973
476.89
-1415.48
1884.16
7718.14
8674.46
453.453
4160.91
2299.49
3223.52
4881.87
6686.92
5946.57
6452.6
13273.4
21270.2
22329.5
23075.6
14703.4
19427.2
19444.1
25124.2
28696.6
32494.1
25908.7
24281.7
25747.1
19967.5
23882.3
17192.4
8968.09
6793.72
9071.5
6559.88
10860.7
13691
13242.6
20589.5
19803.6
11048.3
7716.99
8732.88
3005.9
-36.5654
6277.51
6402.06
4171.35
-1886.71
-344.233
72.7766
-2751.59
-1810.77
937.572
-1531.04
-589.51
7209.93
10009.6
5487.64
-2468.79
-955.316
4554.68
3933.49
5076.98
1243.71
4609.48
4625.74
2837.83
2955.67
-551.337
1427.94
13978.4
16538.8
24216.6
16522.8
14622.3
9087.85
5084.13
4680.72
333.86
3737.42
-467.568
1435.09
1374.36
2484.81
2337.8
728.485
1957.29
2353.96
-5168.98
-1776.2
1426.49
1146.84
7093.64
-1354.81
977.453
-2523.22
-1598.65
-2247.4
-4404.2
-2375.76
-3833.07
-1811.22
2980.7
6552.64
8459.61
8022.58
8406.19
5765.61
3699.23
51.1285
2990.88
-177.094
-4059.66
1026.38
622.712
-1545.48
3092.9
6165.52
5666.74
2634.13
5531.89
6332.41
10984.7
11508.8
7631.66
7389.82
7957.83
13411
3836.71
770.039
7154.68
1776
-2219.57
9939.95
15206.6
968.983
7645.64
10833.5
21179.6
17057.3
9552.25
9363.8
11659.1
16855.2
11195.2
10589.4
11969
3813.34
2980.7
-2104.07
416.253
4201.23
1198.19
-2964.4
296.276
714.213
2898.28
2386.42
5647.72
2609.89
-2429.15
-321.379
-221.732
-1780.12
4076.43
5403.97
5157.19
4619.78
3970.7
7899.33
11595.2
12413.8
7917.75
3820.39
-2324.01
-8605.23
-8589.56
-6576.14
4765.54
3492.46
6274.54
6806.09
1990.22
2166.8
-1454.12
-4268.32
-6217.15
-3174.31
-4121.38
7885.18
3913.12
7464.1
15746.5
20814.1
30056.6
27238.3
23259.7
17814.8
12923.3
12015.7
18351
9075.05
10411.8
9343.53
6799.39
3441
1962.92
3407.34
-1960.36
-2370.81
-1500.99
-47.6552
4803.37
1538.7
3663.44
5296.23
2487.08
-298.432
5598.86
5513.07
5727.92
2885.31
4053.27
8588.55
4222.59
2228.36
108.981
293.203
-1313.09
447.698
943.908
106.588
-5135.54
-3608.57
-909.409
1851.45
1705.72
1144.02
-2332.38
-2924.56
-1736.42
-1403.47
-801.546
769.812
4310.6
2682.98
2526.88
1047.67
2510.17
6283.21
1989.89
91.0116
-3311.4
-1122.08
5450.69
9170.76
8009.57
6971.84
3656.21
7225.38
2837.64
-2664.46
-7063.87
-7370.97
-5521.21
-5975.83
-3163.13
-2078.63
781.187
1396.98
3559.67
223.016
-4517.81
-1089.07
2212.25
3172.03
2047.36
2009.29
1511.44
605.974
10003.9
15724.3
11572.2
15622.9
17444.7
19719.3
22845.7
16887.9
8917.39
3576.01
-5307.99
-5691.23
-280.547
7469.85
7167.85
7473.57
20362
27224.2
32086.7
22686.5
21558.8
29879
25023.3
21526.4
13305.8
18801.9
15744
12030.3
19212.1
11572.3
6576.59
5986.42
6225.11
1576.5
472.178
1831.47
2474.88
6793
7782.02
8830.37
7464.3
9903.91
9024.13
7115.36
10506.7
9632.15
11379.4
13421.7
28162
15916.6
10376.2
9113.56
5713.49
12480.4
9218.14
11008.9
3547.79
-2478.35
-4118
-2054.56
-2328.25
14.5343
1427.64
-1770.3
6141.5
5685.37
15690.1
13186.2
8852.32
9154.07
9121.43
5789.38
13090.3
7702.76
13290
15680
14282.5
12539.1
7802.24
12707.1
11697.5
10967.1
11484.3
7826.33
8360.64
16872.3
16366.9
32062.6
30482.4
31067
21779.2
19235.6
14367
13485.6
8033.03
7178.22
11499.5
7578.23
14775.9
5062.55
1304.26
-307.083
5165.82
5165.26
14482.9
15914.5
10351.1
2949.92
5556.7
6839.3
-451.58
7867.64
6097.66
12882.2
5886.5
5674.18
6460.31
1958.06
2986.75
2561.03
398.728
-649.175
-782.978
-559.687
10505.9
5983.72
10643.3
19370
31520.5
28416.5
17417.2
10349.7
13958.8
14647.1
7201.81
7827.95
16820.1
11315.3
6092.96
4996.99
5872.69
6665.81
5815.13
7009.38
9896.32
14899.5
18426.6
7721.87
10526.5
12195.2
15038.2
6028.09
5032.28
680.573
1716.29
-5408.1
-3285.75
1450.66
1538.5
392.157
6315.97
-305.73
-328.672
407.796
1688.57
6003.14
5847.89
2363.57
6120.94
1584.11
4320.02
7882.83
4982.76
4273.43
3800.17
6672.55
4270.81
10588.4
12342.2
9005.56
8580.63
14957.5
9679.32
14877.2
9516.85
8343.01
2283.79
-3840.82
-6045.69
1205.73
3133.48
6207.12
7765.17
2622.88
13451
7097.31
7406.39
8786.78
9092.89
5411.39
8582.04
10331.7
10491.1
7422.39
3498.79
-4752.09
4992.83
1689.76
2367.45
-253.557
3259.65
1228.85
-723.701
337.457
2832.91
-1095.83
-3436.73
3712.19
1533.95
-363.052
6971.31
6358.11
6581.84
7162.78
1918.57
1645.1
1719.15
3116.64
447.733
-2941.51
-2221.75
-1875.27
-1405.01
2877.88
4568.37
6868.54
10819.9
4810.27
685.309
-1627.23
2865.92
1031.61
2024.7
1271.32
5641.78
3295.34
4148.73
4113.27
5399.81
4361.93
2573.91
-2323.31
949.13
3429.19
3903.41
10797.1
7585.8
19635.3
15435.5
17205.7
20454.3
21338.7
28055.2
17359.4
15401.7
16095.3
15117.3
4608.42
2561.13
6303.1
1635.52
2137.45
-2642.26
-3174.3
-3681.53
-2559.96
-4500.57
-622.84
4575.1
5670.14
-748.987
-1351.51
-4589.37
-512.97
-2032.18
-1181.47
1096.35
2895.29
-1507.19
1017.58
-1000.9
-8253.87
-673.557
-5724.79
-4617.07
-3601.39
3031.6
-1423.61
5190.19
-1978.89
409.128
-1088.13
-1642.02
846.984
5372.83
-1439.37
-2180.63
165.842
-661.895
-2991.53
-727.473
104.156
-653.992
2222.71
187.737
7655.57
4710.25
2086
5531.87
3626.67
4041.41
6905.97
5990.78
7010.13
2801.75
1768.15
9396.38
11179.4
9886.71
11374.2
12395.7
7986.04
2002.61
3367.51
-1111.24
-935.45
2264.16
1203.92
-195.06
-4696.95
-1239.39
-4389.23
-4574.39
-5118.65
-4617.4
-128.73
1677.14
6426.34
5045.32
3434.58
975.497
2712.01
1927.78
421.265
-4634.19
46.8371
-2565.96
140.143
-299.411
-5207.14
2094.05
7756.98
-2320.71
3932.06
5995.58
7157.7
11889.2
5296.12
7220.16
4769.58
3122.24
8955.25
6000.62
7360.03
10638.2
9651.9
8918.63
11892.3
17534.6
22439.2
19519.5
14697.1
17712.4
20312.4
21243.5
23759
23937
15553.8
9826.39
12464.9
8818.39
10798.2
14095.5
9873.96
10462.4
5229.77
6538.36
2430.63
450.907
-2465.74
-2283.3
-551.959
-349.266
3345.38
6997.08
2935.87
-3017.95
-8660.03
-1671.87
-229.328
538.043
4014.58
4609.2
-361.116
-2459.66
-377.741
-1783.67
-3561.99
-3364.42
-448.3
-4637.03
1676.97
517.885
655.437
2533.7
8047.12
7174.56
9636.59
2944.61
-266.093
492.618
-10041.9
-8179.79
-4226.42
1041.66
8376.4
7044.63
12296.1
4707.72
1503.08
4714.56
1539.02
3253.77
3132
1645.86
3157.15
7561.79
20571.4
18956.3
16841.7
11986.5
7612.62
8698.27
6030.85
-214.045
3405.92
5988.58
8994.9
4068.38
-84.2628
8856.3
7303.79
3025.67
4347.31
4967.17
8395.44
9063.08
14491.6
23807.3
27935
15659.6
10043.8
11469
10757.1
17167
13818.6
5255.26
2150.79
2808.65
2833.48
1860.63
-2582.93
-1444.72
-5437.03
-3557.84
-4899.27
314.449
1951.08
4047.05
-417.581
3993.94
2851.38
1208.37
-6695.92
-3421.79
2623.28
4224.88
5860.91
6263.37
9459.81
20880.3
18878.6
17158.9
15189.7
13203.8
3645.51
2218.34
2693.75
2723.11
2484.71
4227.38
2193.27
1925.66
5806.25
15645.4
17749.9
13143.4
15409.2
7976.34
9790.39
5014.01
1277.19
8414.17
3956.79
2294.92
2081.29
3774.9
-2001.6
-4009.35
-4346.92
-7075.43
-3177.59
-1602.58
-366.654
-1989.43
578.739
2464.1
1958.32
1010.07
-5325.36
-7909.19
-5685.49
-4400.92
-5804.95
-2754.08
-1634.53
-2855
811.586
6728.86
3638.91
4226.28
4007.26
10174.5
6990.36
2556.28
15030.1
21029.2
22974.8
21552.4
23566.4
17896.6
9058.21
819.528
2543.56
2765.52
5919.06
6610.24
6377.52
7091.77
15654.8
18122.1
10268.4
7788.81
8851.65
13523.6
8170.05
12388.3
13982.5
20773.1
15437.8
9505.84
12369.3
11928.4
6480.4
16626.8
16044
4758.05
2495.12
4110.8
-332.054
645.299
-593.215
-4064.47
-4702.35
-1162.24
2896.85
2145.05
-976.997
-965.853
-711.01
-3606.39
986.959
3550.6
4067.61
6194.99
3970.79
206.381
2252.79
3213.34
-3672.45
12.152
1585.24
14158.4
13635
8666.35
5987.61
6975.05
7495.35
8158
5148.21
6235.83
4888.96
2426.54
3364.03
2867.64
7.50436
4314.45
7459.45
7570.7
5143.11
4619.59
-106.876
835.46
4240.48
6976.47
7563.19
10762.8
457.948
187.892
8322.07
9657.39
20237.7
21750.6
12349
6438.27
7028.8
8991.21
2655.27
-1994.01
-1147.14
4392.4
2603.91
-94.2203
3925.41
3314.8
-3192.89
-3552.86
-61.8386
-1988.55
-3304.32
-6476.43
-1784.62
-1076.62
-1812.02
-692.752
4453.26
-1669.36
5755.37
3245.08
8005.86
11698.6
13027.5
3777.03
5992.93
7278.13
-131.574
-848.963
-1376.67
4009.96
7396.91
10257.9
7817.8
10179.7
-3459.69
2731.68
3348.38
8628.39
11101.4
10284.4
7324.43
9568.82
5208.08
6936.95
5154.42
6260.69
7427.72
3337.14
7534.3
12036
12598.5
13839.7
10037.2
4989.99
2395.14
1460.75
6969.18
3451.7
-5158.38
-2748.11
-5784.24
-10121.4
-10629.1
-5694.19
-4131.99
-2604.78
-746.617
6623.85
-3236.45
-4770.37
-9734.49
-10139.3
-5244.19
-3169.14
2771.32
2638.14
5045.82
669.76
1508.16
2705.6
1072.54
683.451
2470.74
6500.41
2632.72
4812.28
13502.7
16881.5
15283.9
12051.9
12343.6
12026.4
-992.101
-1887.11
-1698.39
-724.906
-1021.83
1796.71
1518.31
4545.13
-3930.16
-6095.2
-4698.32
-3196.23
954.886
834.806
681.824
7694.49
13084.7
15570.9
11849.5
13914.3
6440.64
5907.63
9760.04
7493.2
11778
6040.5
7542.5
14552.4
12800.7
10554.6
11979.7
11754.4
19965.1
8027.21
9376.85
14796.9
13312.5
12175.5
11361.1
12428.1
7931.51
1270.56
1423.56
12359.6
4586.64
16050.6
12869.4
11836.2
8634.94
17745.8
19321.7
19706.6
16108
14637
18535
19629.3
17841.5
11470
11131.1
4540.84
5461.14
3660.42
8718.15
4857
3403.8
3872.55
4603.03
1687.77
5410.97
1703.46
7989.04
6096.22
4931.52
-312.873
47.1897
3842.21
7141.48
1533.14
5841.96
7256.48
1410.64
5045.81
1480
2950.15
2754.78
1509.6
7727.88
7784.86
6244.58
4978.49
9072.37
18559.9
11768
14223.6
15683
21014.3
14421.1
9778
14992.2
16301.1
11264.9
13809.3
7439.62
7311.96
10757.8
-252.346
-6680.02
-3160.27
-3353.82
-2741.61
2087.7
1535.16
-352.986
-4230.31
-2367.93
-1068.67
-2285.38
1764.14
2410.48
807.897
5600.02
9828.68
7081.93
2492.46
1617.02
2538.2
-1980.03
-984.32
2010.16
3239.21
-311.121
2881.13
7494
5791.64
5075.39
5826.5
5789.52
-1583.05
-2651.55
-1433.39
-2108.45
-846.149
-2183.64
-974.487
-278.747
2747.56
7692
6288.22
1217.86
-1991
4652.14
7007.05
7625.35
15356.9
11071.6
2934.82
-5409.16
1074.13
-2275.35
478.686
-1675.31
-6058.73
2561.1
265.794
4224.71
4526.29
2942.94
-1505.43
-4558.13
-2131.32
-4128.04
-2613.06
559.648
1595.84
-579.422
1598.07
-1798.08
-479.751
1206.08
3349.58
3570.03
4080.78
5366.93
3831.61
2139.01
2792.58
1916.39
199.584
-410.231
-1086.68
4870.2
4144.48
4863.4
3966.1
3076.72
3648.16
3496.81
7718.46
2443.75
-792.334
3000.29
-307.879
-1416.76
3132.62
2386.61
8849.07
11978.1
8948.42
1808.79
7094.99
13639.8
17751
10089.8
9478.61
6798.26
1308.36
2991.6
-2219.37
1843.28
1463.72
1142.12
-1683.31
-807.785
3124.9
11750.4
11725.3
397.625
-1459.65
-2321.03
941
1173.4
6548.58
10155.7
14995.5
14809.6
11887.8
13043.7
10238.8
14302.1
8313.37
3254.01
7737.13
13274.6
14343.7
9516.22
11262.6
14899.9
14281.9
15256.7
12632.4
12047.9
9186.69
4050.24
786.018
3079.91
2947.35
7086.88
5948.49
10431
8149.99
13482.8
24780
11268.1
4017.85
-907.186
3515.62
5081.89
767.895
3661.82
6.82955
-4323.31
-397.758
625.945
-2579.47
1360.55
-133.451
1084.8
5954.51
2778.94
8209.99
14304.1
3369.56
2539.73
4456.41
3939.88
4316.83
5311.43
5354.41
3870.69
7013.69
8780.55
6331.62
2594.21
-3060.71
1430.2
4309.31
8496.35
2371.39
5060.38
-92.7449
-1621.84
-54.8097
2970.78
1264.83
1535.32
3818.99
778.792
179.467
4225.82
9716.48
9450.24
13123.7
10103.8
16471.2
16303.1
11154.2
12833.5
16099.9
21790.8
20381
9804.43
8635.56
6318
-578.244
8899.92
3103.79
8928.08
7981.05
12412.3
5418.76
10640.8
3351.86
1322.45
-675.926
-1345.12
23.9676
-2955.81
-2896.15
-555.618
3905.99
1531.55
1919.34
3876.41
6961.64
2462.23
3231.41
1100.02
8302.86
2170.92
5752.02
2009.18
3343.45
1571.29
-15.8165
-280.785
3876.44
904.8
167.059
3217.84
1346.74
2423.58
6019.02
4206.52
3472.26
7743.16
9804.8
2867.75
1010.82
7511.91
9147.93
11410.9
15094.6
29858
27708.9
19249.2
14042.5
11340.4
20011.2
17174.5
15463.1
15115.2
13129.8
19338.9
11243
6210.41
340.603
-1998.83
-3304.2
2412.13
3253.46
4865.44
8598.03
1863.57
5353.96
5481.09
12764
5011.17
4261.74
6056
11523.1
6100.33
7018.87
5885.52
7044.15
2904.38
2300.6
3933.36
-2366.03
-8471.43
-6091.44
-5316.46
-6306.08
-5447.05
-3050.82
-966.831
2342.55
768.12
-3451.03
-5505.47
-1052.85
2059.22
4909.82
1419.2
4397.2
8820.52
7148.32
9157.18
2063.28
1066.46
2308.91
2633.74
7248.32
8214.35
11873.3
4523.12
6824.67
672.626
1552.66
580.362
-818.906
240.893
-2084.77
-1089.32
-1384.1
4902.86
3233.23
5168.69
18110.2
18160
22666.3
28953.4
27292.8
14452
12120.7
2703.54
2847.87
3252.83
-256.533
1874.59
1435.69
2823.31
2887.49
-105.442
-67.0308
6734.48
-1096.38
-3806.7
3451.54
5283.5
8917.66
5912.92
4641.81
8807.39
182.3
-1856.98
789.954
-8123.3
-4178.15
895.384
5285.62
2495.44
3642.43
9076.01
4764.84
3190.17
2218.4
-2393
-1930.62
-4457.14
367.535
-117.31
-1804.28
-2288.71
-4669.07
-3684.77
-1895.89
-74.8455
-3295.46
-2338.61
-3706.53
-301.338
-2833.43
-3373.97
-5725.65
-8148.66
-13502.1
-7903.62
-1832.72
-139.218
2783.5
-141.942
1408.18
7687.94
4750.82
4377.25
400.6
1839.98
-1325.02
-3331.68
-6330.9
-4947.73
-8.17081
2102.82
-2066.23
-256.821
-1062.24
1864.84
-2722.77
-3230.07
-3649.21
-3997.65
3018.66
-2689.47
-174.106
210.694
3107.5
1737.2
719.543
3214.08
-5356.24
-2268.64
-2328.22
-3069.09
-4897.45
-4444.45
1145.86
2234.87
-2388.71
-2340.21
254.96
110.591
3686.28
4139.92
3843.83
927.046
-1029.6
-5113.47
-2544.72
-1590.23
1300.41
-930.01
3612.24
2295.34
5354.47
-1279.66
37.558
1052.57
6947.13
4339.06
1854.96
7376.99
13571.2
14150.7
23563.7
24379.8
15802.5
14709
13375.2
17310.9
11297.3
2559.16
5304.88
8597.7
6803.27
5277.14
-4178.35
-5207.1
-2607.58
-5700.16
-1871.13
-2817.41
-1663.12
2635.62
-5046.14
-5149.48
-7370
74.5373
981.911
2341.37
6116.51
8225.84
8271.44
8741.25
10578.5
5732.45
2002.59
2776.87
8613.37
9074.02
8156.88
11353.2
9670.59
10195.7
11446.4
10816.6
9524.38
12226.6
12454.7
10623.6
4100.21
2558.65
-3383.72
-1504.27
1923.8
6105.5
4506.5
8778.84
5482.2
10333.9
14082.2
2511.57
633.251
3396.6
-2850.9
1420.72
5286.26
16320.5
10360.8
6650.22
12148.2
17489.3
25438.8
17658.3
15065.9
12715.4
16005.3
14766.7
23868.7
17417.4
12549.3
808.465
1101.05
2679.11
9609.76
2013.04
5024.01
5208.24
6375.92
4003.46
4561.9
3646.87
2552.11
3509.72
2290.88
862.728
1678.85
1849.87
6177.52
3201.04
4001.78
2693.78
-2333.91
1611.24
7332.33
12027
22416.4
31751.9
26197.5
15105.9
14611
22266.6
19176.7
10742.5
14432.9
15966.4
14751.9
19914.3
11857.5
7582.57
2192.52
-137.574
9593.64
4645.22
5654.23
9766.1
4714.57
3827.79
10495.1
10867
19200.6
11792
11587.7
5108.37
13237.1
6194.06
6160.51
9106.25
1455.07
3331.26
2580.79
-411.557
-3737.4
-2936.39
672.646
-5.0973
-5258.53
-3283.44
-1473.9
-4293.99
-12674.9
-9373.06
-4981.16
-3702.19
-6261.32
-2425.88
333.879
-202.608
-2557.54
2242.28
4021.65
6340.21
-1670.16
2761.3
7296.02
-154.751
568.404
779.145
3102.32
5758.89
5924.59
1193.16
3393.59
5858.97
8173.88
7127.4
10967.4
4354.18
408.875
3247.44
2182.97
-1902.43
-857.416
-1239.07
2316.81
4721.3
2825.38
2926.4
682.26
11184.4
6380.34
5131.19
7356.6
7143.22
4883.13
4274.86
3825.69
1761.89
554.339
-1000.58
-3661.23
347.601
602.319
-1642.94
-755.237
608.354
-2577.84
1003.04
568.544
12389.5
7541.48
10464.7
4284.29
2629.68
2804.08
8967.77
4623.62
-58.8311
-952.041
5071.93
-82.4474
1476.01
1773.72
-376.528
-701.007
-1658.85
-593.389
-904.415
-2905.08
-1715.45
-3369.6
-5699.06
-5603.31
-6413.17
-3824.68
-1140.32
-1249.89
3426
1174.16
-8616.79
-2310.35
7726.39
5898.76
3231.75
3465.24
9500.05
13355
7225.59
-3279.61
-1766.13
-2536.8
888.724
-2268
4671.04
1535.37
-564.335
3691.66
-2447.8
6375.82
8425.91
19237.3
21420.4
22744.4
12387
6352.71
12092.2
7886.28
14560.6
16042.6
23247.3
14952.8
12873.7
6511.49
11393.4
12626.6
7900.02
6921.83
10074.7
17020.9
9149.74
3156.08
5.5291
415.337
-436.486
-1195.62
2473.79
2977.09
379.681
66.9864
-2942.7
-2728.89
-4781.14
-3121.63
-654.282
2613.5
6520.59
1569.6
2908.56
-4427.67
-469.505
-780.859
-1222.09
-1744.67
1319.96
-514.148
2905.26
-3535.2
1231.91
1593.86
4820.96
6958.8
11079.2
9028.7
7403.95
7281.14
-2762.25
-2354.54
4962.18
5584.82
-1559.58
6456.26
2397.05
4846.67
8762.08
6122.4
5481.12
8088.93
10073
15056
11652.8
16031.9
15992.1
11563.7
7543.28
10339.6
13899.1
16949
17179.2
14718.1
17723.1
19869.1
15024.3
29762.1
15767.1
18837.8
9292.29
10931.9
12517.3
9855.95
13870.8
15056.7
12970.4
8550.41
8125.99
17047.7
15849.1
22026.6
21072.5
8553.57
7244.25
4226.13
6518.19
4694.6
7218.39
1871.63
2179.45
2409.56
1841.49
-441.063
949.403
-836.815
266.562
2433.8
-3813.29
363.135
318.999
-1084.72
2637.22
1810.07
-923.222
4996.04
-588.503
7846.21
7399.61
9654.84
4198.69
1221.53
-1372.31
-1226.38
-2502.31
2665.77
6017.46
1887.86
6518.66
4386.36
3649.79
5377.63
4298.89
3997.85
-2134.09
-2652.58
526.613
943.282
187.562
-2962.18
-3657.8
-3453.45
-3625.53
-2326.18
91.2749
518.363
-4468.27
-1818.86
-3851.28
1711.45
70.0042
7531.21
771.918
920.578
-5361.46
-4059.25
-2708.74
-2441.02
-4106.08
-4358.05
-2390.43
-184.294
-2062.06
1144.9
3316.45
878.469
5258.9
541.206
4532.98
237.687
-110.316
-1278.66
4011.18
7226.55
4872.96
8466.67
5720.57
19511.8
20672.5
29094.5
20724.8
37839.6
39777.5
40067
36523.4
25893
18732.6
20166
11266.9
10838.8
8895.23
4661.34
1766.17
1304.43
2121.68
-302.219
46.2497
-2308.95
-2981.48
2249.68
1783.2
4902.71
4334.69
5023.56
792.796
1962.64
4345.79
1988.21
2146.8
-2686.06
-195.443
7728.67
3494.77
9343.3
9097.75
11809.4
7522.33
6400.86
8574.47
3863.27
11945.6
4472.38
8033.52
7817.76
7845.79
6790.13
5054.76
8564.24
1403.33
3455.05
3145.87
6905.74
2863.44
-837.195
-2593.29
-231.925
3336.6
1540.43
3995.12
1968.47
5654.34
5355.36
4983.45
2349.13
5759.04
-741.934
-2412.21
2677.16
6747.35
4394.36
5555.74
-2606
-328.689
86.4951
-4188.19
-6107.62
-193.134
1117.67
470.631
-2495.19
-801.244
-3990.21
-1425.44
202.028
4698.92
457.31
1372
3623.07
4061.64
5188.49
8745.47
7357.18
6430
3221.28
3913.18
-2159.74
-4147.23
-1907.43
472.583
5293.02
4121.77
2238.28
4504.14
7628.04
3479.77
-2627.57
4202.54
5559.68
4025.31
-621.384
2973.85
364.002
-4500.05
-1727.74
-2759.04
-2655.76
-4573.57
-1220.79
5087.03
3565.82
2996.59
389.988
4979.17
3732.05
5271.14
2429.9
5967.01
7299.08
-241.626
1384.29
3492.47
2763.84
3115.57
7124.86
6030.94
7719.22
10254.3
14538
11678.3
9990.29
10368.3
12098.4
9194.66
6662.38
3217.36
11228.7
1581.41
7815.85
2687.7
4483.47
1905.92
2834.38
4310.06
849.76
6321.98
7842.56
1530.86
2228.63
2363.43
-5250.77
168.27
2813.18
-1926.02
-165.283
-1174.87
-2229.98
2077.62
-1342.11
-3223.4
-3895.83
-62.2778
-1188.72
4195.98
9372.67
13268.2
9858.66
14669.8
13695
15043.9
20133.5
9822.8
12696.3
15303.8
8288.33
14919.6
24723.7
12753.8
12078.9
18078.4
3382.98
4960.4
704.783
1735.23
4331.85
-1012.51
1021.19
-1099.81
-1522.19
-1330.75
-2201.69
-2989.41
-2046.35
1067.03
-1020.26
1457.78
-651.96
1846.42
1157.19
2876.74
1464.75
-1019.51
677.124
6077.33
3601.9
8280.64
2312.45
4217.12
2378.71
-3200.64
8044.43
8521.19
7860.57
3919.91
-430.67
-242.256
4433.19
1723.98
3935.15
-140.037
-510.461
7238.38
6624.26
2414.74
6035.72
8391.01
13704.1
13568.4
11341.3
8517.73
11798.1
8643.2
2850.31
819.987
7947
-514.756
3879.38
6556.16
6143.8
12579.7
14721.1
11168.7
10176.6
9297.85
18580.2
18316.6
11246.3
28475.6
27336.9
22931.1
20974.3
25136.6
25954
18532.3
7397.57
5139.48
4367.82
6281.59
6752.17
5244.48
974.084
6813.71
1366.06
174.27
4443.13
7937.76
8011.82
7033.72
9633
9419.56
16795.3
23351.9
27915.2
33305.8
23388.6
25167.5
41308
52244.2
58274.4
43181.6
26123.2
21984.6
21463.4
20613.3
10801.1
14218.5
13269.8
11086.1
2582.35
7665.27
6823.92
6824.43
16379.3
11412.4
1899.17
7992.18
2588.05
3905.92
2003.43
-1198.68
4734.14
10557.9
17681.2
18500.2
20104.9
21443.5
27351
24847
24229.5
20482.8
17304.4
16386.5
14884.5
16882.7
15200.6
11636.4
11703.5
1030.19
5843.91
11080.4
4008.31
12725.7
3197.22
5394.61
14738.5
16642.1
8752.39
12924.5
8210.49
3188.38
4875.02
5498.45
4965.98
1003.34
-2019.69
-5318.67
-1712.05
-7768.81
-12149.7
127.53
1350.05
-1333.55
792.712
3225.89
8068.91
1893.47
7949.75
4779.46
4633.68
6622.94
1015.57
4993.21
2417.66
-3271.98
1254.32
-2070.71
-5916.28
1626.68
-260.231
-2076.37
3270.89
2363.46
3187.55
-1593.76
-3792.2
-1591.31
-1943.47
-2931.22
-3984.68
-4764.5
-8621.24
-2417.88
50.7962
-55.7217
3696
5552.45
9.27258
3102.27
7892.36
5631.96
5679.1
2533.78
8294.43
8746.59
9980.14
11480.6
1773.32
3103.35
4050.67
786.258
1883.87
1687.65
4930.62
-2797.24
-2484.15
-2231.52
4081.77
2962.6
2050.93
2900.22
1498.72
4024.91
2758.71
3222.53
5147.67
3432.88
5782.21
5902.31
9800.65
8210.36
8265.89
3160.15
2867.57
-2435.64
-1533.04
3593.5
3112.64
7346.56
3398.6
5120.39
1352.08
-2495.83
-2010.43
-1680.78
134.231
-3379.5
-2642.39
-1808.57
-2313.54
-1383.78
-2726.11
-1322.57
-5044.38
-3921.81
-6544.66
-2237.17
-3311.74
1589.35
3865.97
1763.85
4639.36
5365.62
6338.03
4512.22
4021.31
281.948
5156.05
5032.19
5051.22
4123.21
-1339.83
2409.96
-172.116
1984.45
-4288.99
-7393.03
-4927.45
-2253.67
-2472.58
-2837.84
1480.44
-2998.59
-2754.82
-4658.93
-5165.8
-4328.37
-5551.06
1666.93
902.445
932.352
-824.744
-402.956
685.453
-2255.13
1100.69
4402.92
-580.603
4767.41
691.967
1804.76
-1387.27
4239.09
2542.87
2963.96
-1746.17
-6575.71
655.928
-1102.23
-319.482
7431.64
3045.16
-1793.64
-1112.88
275.911
878.978
-1676.94
4828.54
15722.5
9857.47
7334.05
-835.732
-4226.23
-1688.36
3149.06
6198.1
13077
6965.17
14758
14565.2
22684.2
21038.3
10904.6
3708.18
11984.4
11572
6772.84
4909.15
12578.3
1508.14
6131.28
3717.09
4953.3
2650.56
6480.78
5406.17
-352.896
1198.58
519.48
4041.89
9267.44
11400.2
9581.36
6379.82
4339.92
3107.8
-1075.44
-2529.83
214.408
1605.25
-2607.77
2214.21
7592.68
5503.97
1969.19
274.981
-4603.7
-56.1924
-5034.91
-691.393
336.167
4745.57
-638.478
999.317
-134.265
1163.37
-1184.42
-3580.52
-5841.59
-2132.56
-99.3207
-5275.47
-3680.38
336.36
-1648.56
-1111.75
-2702.61
-5044.95
-3233.37
1514.81
-2878.67
-289.728
2397.46
5934.47
3174.55
7462.42
4161.21
6082.65
9559.53
9517.3
6027.72
6496.48
7773.11
15242.9
8846.77
7457.25
7440.57
3585.82
-606.274
-951.411
-2930.41
1943.28
7322.14
5447.72
8336.85
5221.06
1646.23
5601.12
13091.2
8940.49
8555.52
651.209
6275.25
6112.48
10997
13436.9
7523.78
2089.59
3060.65
11523.2
10653.4
2794.67
757.78
-1845.63
-158.319
1377.24
1078.24
918.186
11323.9
13898.9
17456.1
24086.7
16972.1
16861.4
7264.25
-1192.7
-592.674
-4287.45
-2465.79
-2566.97
3188.19
-1916.03
-1290.93
-3651.11
1693.76
-3065.78
455.044
2886.44
10292.8
5879.78
1662.31
7271.56
4901.77
4318.88
6602.19
7481.44
3138.14
6296.24
5453.99
2752.8
4415.3
1437.33
2343.7
2226.87
869.314
6064.01
7359.81
9223.55
6035.9
12496.8
14238.7
5045.96
5231.94
7824.03
8063.74
5451.14
7007.44
14058.4
10146.1
8367.05
14714
16162.9
12020.6
19054.7
12552.2
14993.3
20573.8
28655.9
36250.6
19457.3
29943.8
44122.7
46763.6
57531.9
58648.3
55849
50628.8
54624.1
57735.6
48302.9
46963.1
33348.9
38732.6
27900.2
24515.4
13610.2
17324.8
18496.3
19444.5
17767.7
17183.5
17357.2
9510.09
11285.3
6037.29
2230.12
2932.48
7249.43
3416.46
2725.03
-3177.88
-6715.31
2696.93
-123.024
3779.27
5849.24
1866.07
6230.25
3713.55
8338.74
12195.7
16204.4
13329.2
12741.7
9640.1
14406.6
14700.3
14912.3
15906.1
11367.4
11171.8
13871.4
10137.3
14627.4
12468.6
989.471
4382.79
1781.63
-2327.94
-5679.15
-6298.44
-8477.79
-2730.72
1020.96
3934.14
-919.316
1209.27
-939.795
-6559.11
-3392.58
-1329.89
2614.13
-1016.96
-565.493
3119.1
1272.5
-2245.04
3011.31
4858.84
1190.63
6737.58
2973.4
3727.78
4475.71
5412.78
6296.7
5570.79
4460.8
2874.06
-1642.2
3984.81
-736.072
-2542.38
1989.48
983.28
5693.12
3637.72
2273.33
566.907
322.859
6052.85
9496.82
8259.66
-316.834
-4391.28
-5979.97
-3611.87
3339.26
-4022.14
3324.4
3063.01
7056.76
6312.92
4984.89
5199.28
5960.59
7965.99
3812.86
1647.19
1677.42
8699.11
10012.1
17856.8
22826
20055.8
18171.3
14112.5
21464.7
18518.2
15281.5
31700.3
25509.7
21241
33763.8
27801.8
20767.7
12705.7
10627.5
5163.89
-418.079
-584.279
-6.68843
-661.865
1475.64
3761.5
3317.7
4470.66
6467.84
5886.23
4751.94
-3226.05
5979.63
4083.3
1986.01
2722.7
2502.53
-444.886
-1514.6
-3711.35
-1984.96
-2769.28
-5663.85
-694.164
-656.983
6406.22
3927.14
7424.39
5335.47
7729.02
1855.39
62.5601
5145.33
3727.98
3502.6
4476.81
3175.36
9361.46
1530
4319.68
7218.29
1409.63
3542.24
9038.01
13440.2
14818.8
17825.4
15266.6
23118.9
20792.3
17873.2
11772.8
21128.2
33265.4
32551.7
32867.5
31306.4
44945.1
44028.9
39699.7
39582.9
36093.9
35838.6
28243.8
25473.3
24487.5
13192.3
17295.1
10878
19918.3
14001.4
13007.5
15218.4
16243
8676.03
12033.3
11561.8
15769.5
12614.4
11047.9
21868.3
14901.3
9892.71
17683.3
20079.5
32345.1
21881.8
23307.7
20339.4
11301.5
17965.2
7349.96
17170.7
11555.3
12289.3
12298.7
3961.05
-1459.03
2059.66
-4221.31
-2469.28
716.34
-27.8091
4055.48
335.927
690.2
2832.24
5072.69
884.859
4203.91
807.154
2144.26
11137.8
2846.46
4794.93
2253.85
542.471
-6713.66
-516.097
1215.76
1903.53
-543.186
-1766.69
-659.725
-582.498
1232.3
3987.05
2755.17
1380.79
-857.568
594.444
188.687
2483.04
-332.009
536.233
-3277.48
-1500.38
1926.31
182.631
884.53
-1801.18
1462.4
-3997.42
838.087
1240.6
5999.63
2945.31
6880.41
11319.6
8800.92
5765
2237.8
251.973
5718.89
1681.69
-592.613
-1956.84
4518.02
5305.45
7331.64
23291.7
19691.7
33603.8
23797.8
11695.4
7157.41
123.377
2258.13
950.911
16.8295
-1539.12
154.578
2256.01
5491.19
1347.72
3465.89
14240.1
8520.98
9325.9
4485.04
10169.8
11838
14393
9094.38
5900.06
3374.81
9409.62
14230.4
6996.58
3929.24
-5631.48
10375.2
16603.4
10641.6
17559.2
20498.2
13640.2
14382
7582.18
3524.82
6278.44
6938.33
9901.78
6232.96
-2446.99
-1052.92
-3001.85
2309.13
1928.07
-306.328
1783.1
-1511.45
588.97
668.115
1187.45
2113.79
5421.15
9992.91
10731.5
9379.76
15707.7
7166.85
8131.07
4978.14
1271.12
1941.61
5274.16
11167.3
12680.8
13940.2
18071
8223.35
8498.96
796.85
1280.84
-4953.15
-571.431
-108.335
1788.45
85.5094
3501.8
1252.89
7228
18609.3
18136.1
7813.1
2165.78
-1171.54
-1336.29
8410.19
12341.7
8674.69
6101.24
-2038.6
2163.6
-603.453
5463.69
1605.65
2204.96
1808.23
1620.79
-2052.07
-4074.78
-444.499
-2209.65
355.787
-2630.43
-2939.91
-1032.18
-3064.86
811.776
835.654
-1438.64
-4191.08
-1345.15
521.461
1771.5
-430.463
1604.01
-2485.97
-1037.91
-725.451
-801.106
6116.09
7673.98
9938.3
10135.2
5741.89
4101.56
6302.65
14846.6
8044.04
4106.64
4052.67
3849.09
-1122.89
-5694.3
-1567.74
-649.762
-903.033
-965.321
564.4
5412.09
534.058
76.7951
2595.39
2532.36
3394.7
13300.6
16496.1
21970
21178.7
25571.8
21617.8
26212.5
33919.6
29796.4
35564.3
43372
38518
37283.9
36740.6
33027.8
31033.6
27220.6
25059.5
23708
23241.4
33496
35446.8
32055.4
25724.3
24672.4
19105.2
12479.4
12898.2
17322.5
15378.7
23614.8
25060.1
27342.2
12082.1
15827.3
19529.6
26760.8
26041.4
16140.5
24379
20351.4
18049.6
19626.3
12620
12197.7
10981
13046.7
13878
23315.9
23368.6
18272.2
15959.7
14612.1
12509.7
9945.62
18317
11156.4
16270.3
5292.28
4767.91
11284.4
16511.5
12103
9501.04
6417.41
833.415
12480.4
12161.9
9702.65
5965.14
8637.71
8441.3
3605
10964.4
10329.1
12563.6
9789.3
11107.9
6866.2
13338.7
3362.97
2956.1
5342.36
9337.63
12023.6
15197.8
12501.2
18930
21290.3
17634.3
16365.7
30484.6
26975.8
28909.3
18610.6
9895.59
5572.6
9865.5
5924.3
9448.99
11552.5
14813.6
10626.4
7483.57
7946.59
8491.24
5881.3
4562.95
10077.7
14092.3
10195.3
5842.87
1858.79
4206.02
-240.041
2709.86
7873.78
8180.99
5567.07
8307.23
11060.6
9009.74
11453.6
6877.43
7885.02
11559.6
9871.77
5650.25
1981.44
6636.56
8428.21
7010.42
3292.42
3546.88
6257.02
5369.45
4999.01
10257.1
18102.6
14619.4
18336.5
19309.3
14922.8
17751.4
8024.53
6721.06
13576.5
11189.9
4838.57
1965.58
3885.1
1354.29
-370.353
-1606.42
1569.71
311.232
-1320.63
-256.85
5367.27
53.9578
4744.62
6317.03
485.413
574.074
-3528.91
-2209
780.44
-2394.16
2828.13
868.123
-1066.37
1743.04
2190.36
14998.7
12396.1
15167.9
10527.3
8551.03
8298.9
3158.89
-1587.79
990.074
4102.94
785.189
1749.19
3628.52
9719.53
9641.61
1701.92
5947.65
2833.55
5309.98
2474.1
-1557.01
1175.73
-811.686
1091.85
1730.2
1303.78
-653.988
655.184
-2579.89
-1848.33
798.695
774.421
1863.65
6740.85
8543.19
1877.36
4504.58
2975.83
-535.16
-3294.76
-1396.85
-3954.09
-6158.97
-1823.91
1093.72
1904.65
1515.7
-2095.21
-5333.28
-6210.16
1618.95
2543.64
6412.81
17010.6
10470.2
15183.7
17741.6
9113.94
6982.7
10604
11341
11723.3
3990.74
5169.29
3379.1
426.661
-993.08
-1801.21
-1856.27
-1548.12
428.879
-329.988
-588.539
1428.65
395.258
-2300.22
-1728.67
-1048.15
-3370.49
-3353.39
-1209.63
9137.56
7500.34
1758
1583.15
1507.51
790.231
-1127.3
3992.69
1236.07
-1413.39
-36.5339
-1275.57
418.488
2101.54
6396.46
5214.87
3137.1
5770.64
11916
4514.17
1913.07
3390.01
2707.1
1055.41
2006.84
1338.19
4846.14
5402.09
552.562
-923.033
-3751.43
-6045.15
-1525.75
994.204
3377.12
4603.04
1993.21
-279.367
-5285
-4652.03
-2603.54
798.316
-82.3336
-488.003
2818.62
-255.311
1752.05
-2029.78
-1526.58
-121.438
7215.54
2010.52
6251.37
7153.81
9788.1
2053.14
2105.35
1571.76
4141.68
3615.71
-2691.63
-9252.19
-4741.86
-2832.53
301.903
-88.0999
1589.14
3949.83
678.457
-440.618
-4550.63
-4136.44
-2639.57
-1818.21
4815.08
2227.55
-1829.76
5690.22
7438.83
2011.32
5338.32
7675.66
5573.73
2496.66
1714.4
-1947.95
77.1084
311.896
3381.55
5306.83
10528.6
13255.9
13943.1
10935.1
8769.26
9566.12
11702.9
9597.78
2901.41
5588.07
6450.88
9149.37
12834.1
12971.3
16546.1
13882
5946.48
2934.49
7575.5
2283.64
2670.02
4883.47
7699.76
13881.4
2331.39
5689.02
7319.31
6494.75
13808.7
9246.14
16417.6
10445.5
8664.09
4388.97
907.075
-4776.18
-683.291
-1635.37
-2462.43
566.981
971.075
561.732
5672.81
3441.15
1594.14
556.968
162.068
-2851.05
-83.35
-2360.75
-4041.48
-526.175
-1270.17
-3517.61
5763.32
5372.55
7987.45
7049.37
9066.8
7056.19
6785.21
14259.1
5522.79
5515.68
5081.59
3756.22
7863.96
12789.3
8619.06
11618.1
9849.21
9402.87
12666.7
5509.34
5006.65
8004.58
15255.4
16451
32070.3
14784.8
13976
30040.6
29275.6
18424
9587.27
7770.27
9940.77
14161.2
13833.1
9493.08
8928.57
5702.48
3023.79
7770.98
177.924
6113.48
6417.95
11630
10492.5
2732.6
-5199.06
-3693.97
292.686
-680.217
2257.05
5188.35
3794.17
7180.91
6928.41
7391.05
12132.6
10066.1
15844.8
15553
6788.07
2350.32
-2132.3
-6855.42
-3404.25
-2157.68
-4517.35
-2014.27
739.932
-175.339
4259.8
5722.91
10427.4
7237.15
3925.14
5969.56
9027.99
11711.3
11008.2
6053.55
5460.41
7316.12
7156.96
1837.26
-946.198
2990.41
3029.09
3609.19
-2769.01
-2316
1450.58
7935.87
15333.7
14487.7
9405.97
9711.26
3111.67
-1453.11
-4745.1
-3666.43
2965.56
5875.64
5952.5
4552.29
3621.45
-1556.2
10799.8
5451.54
4864.37
4814.56
1157.28
3775.16
3746.07
-241.973
-3538.85
-1427.21
-2775.43
599.844
3608.22
3140.53
4389.19
11065
9694.66
8105.22
3117.41
504.744
1132.66
3348.87
5482.54
1031.94
7053.77
8521.71
593.884
4606.66
6055.56
11429.3
3572.02
1741.57
2245.48
6356.4
3149.12
7872.56
15616.3
5980.7
2729.25
981.373
4278.75
2265.54
3320.03
1691.99
-3047.46
-1057.98
-1579.02
2405.14
-197.49
1353.3
-1013.29
256.32
-3479.34
-1668.6
-802.824
-3420.6
-3277.4
-1396.97
80.9657
6352.7
-808.289
-2409.98
-779.569
-2302.13
