31281.10485
22004.2263592
38018.678158
26712.382981
25907.76121
41194.232324
48235.56613
71348.891964
52060.523629
120756.8025
36006.6281332
102352.21295
70730.30934
50870.860644
31901.287771
16558.407817
15250.951912
63838.442721
71661.549364
58056.9119
51956.2396215
16875.52998
101187.81914
37401.1386
80651.64032
18548.282465
31064.86229
24829.315431
54955.300544
43113.37334
21291.843326
105505.58492
48863.83289
85567.90187
88244.59774
31759.27064
57836.5185822
56956.733887
49609.813898
13998.083388
46875.55538
51944.68038
59481.23169
106917.924148
47534.3391
43923.09693
54635.53776
69210.57631
43090.060649
55106.70329
130416.5623
149261.028426
35149.56011
26748.0226473
41940.20083
182899.02376
28466.98499
38037.74731
26024.456258
71399.503487
66346.680236
94272.28056
82737.28297
26265.56961
34002.466886
66898.129591
72846.86487
25991.998561
37843.738493
21666.248853
55552.2902
96988.23624
15833.3260765
39599.063936
68664.20551
61714.94149
23438.8254342
26378.5099199
36301.48478
49929.49488
56905.254311
16025.67434
14367.37073
45956.412488
59115.709162
86852.64346
51194.56141
42950.778551
79703.17877
64792.75095
16377.69524
31407.338046
157030.76754
26919.47546
36580.355142
98497.894691
42345.39401
63711.71102
95671.955568
78769.707646
