-139562
-9.68752e+06
5.73689e+06
1.96214e+08
6.89961e+07
1.08612e+08
-8.59522e+07
2.88884e+08
4.2928e+08
1.3634e+09
1.18492e+09
3.27465e+08
-1.192e+08
-3.71362e+08
-3.69135e+07
-1.10774e+09
9.46944e+08
3.90438e+07
-3.31841e+08
-1.03008e+09
-1.42287e+09
-2.99635e+09
-1.92728e+09
-2.00531e+09
-3.23256e+09
-1.86087e+09
-8.95814e+08
-9.81328e+08
-6.27485e+08
-5.24113e+08
-4.92944e+08
-3.41212e+08
-1.0642e+08
-1.56295e+08
-1.27832e+09
-7.75586e+08
-2.28319e+08
-3.02522e+08
-1.69362e+08
-1.58614e+07
-1.43271e+08
-7.44476e+07
-1.63069e+08
-5.8003e+08
-2.56023e+08
-3.63666e+08
4.22402e+07
-1.71047e+08
-1.70066e+08
-5.53905e+08
-7.46549e+08
-1.1864e+09
-1.83845e+09
-3.03128e+09
-1.43416e+09
-4.14987e+09
-1.73304e+09
-6.78633e+08
-7.37039e+08
-9.70282e+08
-1.05114e+09
-6.45739e+08
-3.11362e+08
-1.18284e+08
-8.90277e+07
-1.80825e+08
-2.13956e+08
-2.26543e+08
-1.33743e+09
-1.74609e+08
-2.81197e+08
-1.78342e+08
-6.42854e+08
-1.4013e+09
-3.46539e+08
-4.10259e+08
-2.28259e+08
-2.6399e+08
2.75038e+08
5.4602e+08
-5.38818e+08
3.07841e+09
5.75908e+08
-3.49731e+08
-1.60838e+09
2.6797e+08
-4.97981e+09
-5.977e+09
-3.33756e+09
-4.15334e+09
-5.05178e+09
-5.61778e+09
-1.3953e+10
-1.4607e+10
-1.4148e+10
-1.01713e+10
-5.38413e+09
-4.59993e+09
-7.62641e+09
-9.21076e+09
-9.98502e+09
-6.90945e+09
-2.83204e+09
2.59847e+09
1.14672e+09
-2.62964e+08
-1.82355e+09
-2.50354e+09
-7.57851e+09
-9.27371e+09
-4.70584e+09
-6.65077e+09
-4.64457e+09
-3.15515e+09
-2.42717e+09
-4.83927e+09
-6.85239e+09
-1.82779e+09
-6.37073e+09
-7.3584e+09
-6.85173e+09
-1.04532e+10
-6.60237e+09
-1.4605e+10
-7.23384e+09
-1.5312e+10
-1.32601e+10
-6.68129e+09
-7.12929e+09
-1.11706e+10
-3.76952e+09
-1.27206e+09
-6.32613e+09
-1.17503e+10
-3.27952e+09
-4.08679e+09
-1.809e+10
-1.08402e+10
-1.11183e+10
-3.57459e+08
-1.57566e+07
-8.9871e+08
1.18712e+09
3.70375e+10
4.40212e+10
2.42567e+10
7.52282e+10
2.25433e+10
1.65372e+10
-5.37821e+09
-6.22618e+09
-2.47746e+09
2.26059e+10
2.52953e+10
2.3974e+10
1.1186e+10
2.03509e+09
4.1529e+09
2.20966e+09
2.14758e+09
1.76475e+09
3.10493e+09
3.93853e+09
2.94448e+09
8.00354e+08
2.9124e+09
3.60235e+09
3.22958e+09
1.88576e+09
1.03092e+09
4.09679e+09
1.40678e+09
-2.01745e+08
5.85192e+08
8.63794e+07
5.97696e+08
4.97785e+08
1.67909e+09
1.17013e+09
1.39304e+09
1.41276e+09
3.19784e+09
2.76549e+09
3.97026e+09
3.37483e+09
5.00768e+09
5.48843e+09
8.09274e+09
9.56449e+09
1.04758e+10
9.3226e+09
4.15392e+09
4.82342e+09
4.47543e+09
1.60545e+10
1.36372e+10
1.4112e+10
9.6763e+09
1.33679e+09
1.36002e+10
4.6118e+09
1.91048e+10
2.82332e+10
3.38937e+10
3.91793e+10
4.50329e+10
4.7145e+10
4.17052e+10
3.65205e+10
4.78449e+10
3.35753e+10
4.02773e+10
2.40641e+10
4.81915e+10
3.64562e+10
4.25799e+10
2.87974e+10
3.67094e+10
2.67337e+10
1.7783e+10
2.37864e+10
1.2958e+10
5.82015e+09
6.62303e+09
1.11272e+10
1.31774e+10
1.00337e+10
5.0915e+09
2.9074e+09
8.27427e+09
4.64949e+09
1.12917e+10
4.91318e+09
4.62037e+09
5.23798e+09
5.37758e+09
4.56569e+09
5.72279e+09
4.34963e+09
1.08857e+10
2.17156e+10
3.43453e+10
1.88782e+10
3.33269e+10
5.37299e+10
3.99861e+10
2.93027e+10
1.60534e+10
3.13997e+10
4.54176e+10
3.54449e+10
2.44732e+10
2.20379e+10
1.95307e+10
1.05122e+10
2.0249e+10
1.3672e+10
2.76147e+10
5.9299e+10
1.1588e+11
9.23415e+10
1.20215e+11
9.27858e+10
6.38843e+10
6.00879e+10
4.40294e+10
3.66127e+10
1.69454e+10
1.54397e+10
2.2641e+10
2.07507e+10
2.74199e+10
2.24683e+10
2.23434e+10
2.75114e+10
2.01431e+10
2.29194e+10
2.47795e+10
3.05638e+10
2.0199e+10
2.01012e+10
1.44952e+10
1.1967e+10
8.60959e+09
1.52805e+10
1.23561e+10
9.47335e+09
9.49232e+09
2.68891e+10
1.60152e+10
1.75672e+10
8.56505e+09
8.6646e+09
1.49698e+10
7.26547e+09
1.89887e+10
1.54959e+10
1.20639e+10
1.55225e+10
1.61011e+10
1.37445e+10
2.25285e+10
7.68392e+09
1.22711e+10
1.10649e+10
1.81915e+10
4.60542e+10
4.76762e+10
6.21773e+10
9.31821e+10
5.98632e+10
3.82728e+10
4.40914e+10
2.55909e+10
2.32547e+10
2.76212e+10
4.11971e+10
2.83338e+10
2.7667e+10
2.61098e+10
1.57529e+10
1.79206e+10
6.76944e+09
9.43274e+09
1.90812e+10
4.80811e+10
6.93146e+10
7.04973e+10
3.4588e+10
7.07609e+09
1.72826e+10
1.99063e+10
2.85257e+10
4.09712e+10
2.87096e+10
3.51019e+10
4.03971e+10
6.85036e+10
5.98107e+10
4.41335e+10
4.26422e+10
4.80584e+10
5.0542e+10
5.03298e+10
5.95128e+10
6.68281e+10
7.96302e+10
5.80592e+10
6.18632e+10
1.12899e+11
1.3017e+11
1.25224e+11
1.26969e+11
1.05353e+11
1.04497e+11
5.23289e+10
5.72231e+10
4.87519e+10
5.9572e+10
6.15221e+10
6.33879e+10
1.16625e+11
1.24712e+11
1.30171e+11
9.87384e+10
1.44284e+11
1.26959e+11
1.80306e+11
4.15974e+11
5.54557e+11
3.29989e+11
2.50695e+11
2.16807e+11
2.77325e+11
2.6426e+11
1.78782e+11
1.77967e+11
2.79665e+11
2.88968e+11
2.60221e+11
3.15888e+11
2.77486e+11
2.54484e+11
3.09297e+11
3.39131e+11
2.99216e+11
3.07943e+11
3.76932e+11
3.50317e+11
1.98032e+11
2.74319e+11
2.23136e+11
2.10885e+11
1.26245e+11
1.39396e+11
1.48461e+11
1.46317e+11
1.03629e+11
7.60911e+10
8.70825e+10
8.18554e+10
3.5894e+10
2.85426e+10
2.51768e+10
3.93721e+10
6.60302e+10
5.41773e+10
3.27412e+10
2.51514e+10
1.86948e+10
1.97476e+10
1.04302e+10
9.67872e+09
6.61707e+09
1.72481e+10
2.16674e+10
2.23006e+10
1.03472e+10
1.00355e+10
4.72395e+09
9.86495e+09
5.26015e+09
9.34729e+08
3.65989e+09
1.26974e+09
-5.83433e+08
1.57602e+10
9.23617e+09
1.27505e+10
6.78095e+09
1.85394e+10
2.98149e+10
6.4868e+09
6.07304e+09
5.28374e+09
8.07881e+09
2.08695e+10
9.21817e+09
7.16028e+09
9.76093e+09
2.83127e+10
2.57775e+10
2.2697e+10
1.68454e+10
3.32311e+10
3.18363e+10
2.6875e+10
3.3047e+10
1.62533e+10
1.01711e+10
6.90911e+09
7.2183e+09
9.84722e+09
1.06313e+10
1.05913e+10
2.21968e+10
2.30208e+10
4.62605e+09
1.0328e+10
1.21129e+10
1.65321e+10
4.22816e+10
3.46101e+10
3.65331e+10
1.88453e+10
2.47124e+10
1.8833e+10
3.4009e+10
1.86851e+10
2.08832e+10
2.99705e+10
2.27895e+10
5.29873e+10
3.11626e+10
2.51503e+10
3.20492e+10
6.6782e+10
4.04168e+10
3.31668e+10
1.5556e+10
1.38205e+10
1.0774e+10
1.77102e+10
2.64747e+10
1.67573e+10
2.99571e+10
2.1345e+10
1.79269e+10
3.73793e+10
3.82494e+10
4.74438e+10
4.86857e+10
7.82931e+10
5.778e+10
4.89328e+10
6.50328e+10
4.6158e+10
3.81972e+10
4.51338e+10
4.12486e+10
4.02277e+10
6.71084e+10
5.67825e+10
4.8824e+10
7.43591e+10
7.04286e+10
4.74034e+10
5.64495e+10
8.69129e+10
1.15544e+11
1.33266e+11
2.18901e+11
3.13622e+11
3.93537e+11
3.69916e+11
4.35103e+11
5.04424e+11
3.92103e+11
4.18895e+11
4.94033e+11
5.13221e+11
6.72225e+11
9.39133e+11
9.5152e+11
8.0921e+11
5.60477e+11
5.25586e+11
5.1541e+11
3.88402e+11
4.74268e+11
6.59553e+11
5.8442e+11
4.53838e+11
4.1388e+11
3.79178e+11
5.10132e+11
6.63036e+11
8.77316e+11
1.19616e+12
7.60057e+11
7.56574e+11
6.86136e+11
5.81038e+11
6.24897e+11
4.82866e+11
4.14098e+11
3.81668e+11
2.55663e+11
3.61781e+11
2.3518e+11
2.14963e+11
2.65819e+11
3.29871e+11
4.44772e+11
4.39233e+11
5.73687e+11
3.61113e+11
3.92141e+11
4.77522e+11
4.1461e+11
2.72646e+11
2.2665e+11
2.25907e+11
1.7874e+11
1.46768e+11
1.53516e+11
1.4937e+11
2.03165e+11
1.47381e+11
2.4834e+11
2.56252e+11
1.85455e+11
1.74587e+11
1.22292e+11
1.07931e+11
1.46802e+11
2.0437e+11
2.11141e+11
2.61001e+11
2.05177e+11
1.5545e+11
1.6106e+11
2.44519e+11
1.72637e+11
1.88425e+11
2.57599e+11
3.58017e+11
3.73363e+11
1.71733e+11
1.48349e+11
8.50811e+10
9.58027e+10
6.64236e+10
1.25612e+11
1.72146e+11
1.1697e+11
1.03055e+11
1.32315e+11
1.16117e+11
1.25014e+11
9.97753e+10
8.6333e+10
9.86007e+10
1.09255e+11
1.43705e+11
1.78139e+11
1.46045e+11
2.26912e+11
3.97076e+11
2.68348e+11
4.02152e+11
2.89386e+11
2.76325e+11
2.52224e+11
3.20773e+11
2.17107e+11
1.81877e+11
2.45711e+11
1.93228e+11
1.85892e+11
2.13951e+11
1.81752e+11
2.53038e+11
1.57477e+11
2.21896e+11
1.68151e+11
1.14461e+11
1.32106e+11
1.67492e+11
2.23015e+11
2.49931e+11
2.46464e+11
2.84712e+11
3.30745e+11
4.77822e+11
4.3168e+11
3.34669e+11
3.09622e+11
2.33802e+11
2.11719e+11
3.33809e+11
3.00562e+11
3.33512e+11
3.93812e+11
4.2243e+11
6.05757e+11
8.132e+11
6.91976e+11
9.72395e+11
9.20668e+11
1.03996e+12
9.79267e+11
1.11767e+12
9.69875e+11
1.09847e+12
1.05574e+12
8.67507e+11
9.51257e+11
6.30633e+11
4.02393e+11
3.45397e+11
3.30507e+11
2.78785e+11
3.40028e+11
4.75507e+11
2.9269e+11
2.47415e+11
4.16189e+11
4.25508e+11
3.56419e+11
4.45e+11
3.26323e+11
2.55727e+11
2.23261e+11
3.17563e+11
2.56349e+11
4.39459e+11
2.88846e+11
3.22052e+11
2.77912e+11
2.53353e+11
3.22558e+11
3.25594e+11
4.42132e+11
2.93137e+11
2.29349e+11
2.42121e+11
2.77429e+11
2.92945e+11
2.52668e+11
2.20638e+11
2.12854e+11
2.20303e+11
2.18384e+11
1.87668e+11
2.15427e+11
1.80069e+11
1.32374e+11
1.44159e+11
1.57409e+11
9.56214e+10
1.08347e+11
5.43637e+10
6.19842e+10
9.96062e+10
9.47581e+10
1.78979e+11
2.01665e+11
1.90053e+11
3.43808e+11
3.5444e+11
4.62668e+11
5.28852e+11
7.56528e+11
5.54664e+11
7.33816e+11
6.36292e+11
7.98017e+11
3.84909e+11
5.48403e+11
6.04938e+11
4.96497e+11
3.764e+11
3.32735e+11
3.65014e+11
2.0785e+11
1.79742e+11
2.02753e+11
2.41323e+11
2.28892e+11
3.08475e+11
3.20157e+11
3.06988e+11
3.5577e+11
3.7125e+11
3.4646e+11
4.55398e+11
5.52545e+11
5.11964e+11
5.10344e+11
3.57073e+11
3.7134e+11
3.31925e+11
3.25175e+11
3.49311e+11
5.00205e+11
5.44453e+11
5.76216e+11
4.70348e+11
3.92009e+11
4.01366e+11
4.01833e+11
4.25561e+11
3.44685e+11
2.84705e+11
1.72769e+11
1.74644e+11
1.45763e+11
1.25896e+11
1.20395e+11
8.46714e+10
8.4393e+10
5.26007e+10
3.8762e+10
6.66774e+10
8.69136e+10
1.08539e+11
9.49742e+10
8.76068e+10
8.64687e+10
9.68677e+10
1.09138e+11
7.87949e+10
5.87415e+10
9.55865e+10
1.14885e+11
5.8618e+10
7.52111e+10
5.12953e+10
4.93372e+10
5.22373e+10
9.87583e+10
1.19697e+11
1.10435e+11
1.38485e+11
2.42868e+11
1.97747e+11
2.6132e+11
3.92508e+11
4.86479e+11
4.8803e+11
4.16045e+11
4.73681e+11
3.05437e+11
4.25457e+11
5.35856e+11
7.49063e+11
1.09293e+12
1.06546e+12
1.51629e+12
1.32921e+12
1.35227e+12
1.50531e+12
1.66773e+12
1.64143e+12
1.47901e+12
2.19692e+12
1.45385e+12
1.96324e+12
1.82963e+12
1.82629e+12
1.99541e+12
1.39747e+12
1.72437e+12
2.27089e+12
2.45205e+12
2.49701e+12
2.48173e+12
2.39636e+12
2.75269e+12
3.87459e+12
3.45688e+12
3.9707e+12
4.02119e+12
4.8325e+12
4.24023e+12
3.36921e+12
3.2751e+12
3.18314e+12
2.78553e+12
2.70335e+12
2.13575e+12
2.90721e+12
2.54909e+12
2.24647e+12
2.18106e+12
1.84717e+12
1.98793e+12
1.7867e+12
1.60805e+12
1.40288e+12
1.39186e+12
1.16349e+12
1.22099e+12
1.36556e+12
1.28028e+12
1.51276e+12
2.30977e+12
1.89848e+12
2.30791e+12
2.08361e+12
2.17523e+12
1.92876e+12
1.79379e+12
1.98895e+12
2.07021e+12
1.73031e+12
1.43093e+12
1.59509e+12
1.66949e+12
1.16319e+12
9.29994e+11
1.1281e+12
8.07533e+11
8.30242e+11
5.98025e+11
4.10436e+11
4.08276e+11
3.76158e+11
2.61246e+11
2.46712e+11
2.05297e+11
2.1384e+11
1.90635e+11
2.16998e+11
2.26993e+11
2.61595e+11
3.60801e+11
5.97064e+11
4.79717e+11
5.63607e+11
6.46364e+11
7.10519e+11
6.83136e+11
5.88583e+11
7.4371e+11
6.12462e+11
8.29712e+11
6.42556e+11
7.0178e+11
8.45857e+11
6.89344e+11
6.97891e+11
8.81688e+11
9.74208e+11
1.26483e+12
1.39808e+12
1.1933e+12
8.59454e+11
7.36611e+11
7.01033e+11
7.40809e+11
1.13363e+12
1.11289e+12
9.58311e+11
8.08852e+11
6.63975e+11
1.02363e+12
8.31761e+11
6.90605e+11
7.74309e+11
8.64574e+11
6.88636e+11
5.51149e+11
4.22833e+11
4.80816e+11
3.62006e+11
5.08641e+11
4.93503e+11
3.70593e+11
2.8332e+11
4.12667e+11
2.73053e+11
2.16905e+11
2.32387e+11
3.32523e+11
3.05846e+11
3.62845e+11
2.53087e+11
1.61303e+11
1.54395e+11
1.50351e+11
2.56864e+11
2.00585e+11
1.45927e+11
9.38845e+10
7.16763e+10
3.87361e+10
4.722e+10
5.37648e+10
7.97403e+10
5.9224e+10
8.92618e+10
7.71536e+10
7.82139e+10
1.07499e+11
1.22214e+11
1.48612e+11
1.20465e+11
1.55363e+11
1.50309e+11
1.77346e+11
1.40042e+11
7.17703e+10
8.69236e+10
3.80086e+10
4.75389e+10
6.57328e+10
7.54602e+10
8.33351e+10
9.60153e+10
7.62998e+10
1.13147e+11
1.20287e+11
1.07546e+11
1.1469e+11
1.11545e+11
7.88213e+10
6.03798e+10
4.85923e+10
7.46223e+10
6.50283e+10
3.88915e+10
7.49749e+10
1.16116e+11
8.56124e+10
8.36954e+10
7.28413e+10
4.94462e+10
5.25374e+10
1.04273e+11
5.37985e+10
5.91566e+10
4.41549e+10
2.1333e+10
3.01616e+10
5.22747e+10
4.70437e+10
3.8889e+10
3.79376e+10
3.11142e+10
5.71675e+10
6.38349e+10
7.39064e+10
8.17708e+10
3.90356e+10
5.49571e+10
7.37135e+10
1.13006e+11
1.36435e+11
1.26232e+11
1.56022e+11
1.27132e+11
1.45406e+11
1.03981e+11
4.42898e+10
2.98604e+10
4.83408e+10
4.19567e+10
3.44186e+10
2.59624e+10
2.8592e+10
2.32044e+10
2.0504e+10
5.01993e+10
1.78027e+10
6.43391e+09
8.22408e+09
1.02373e+10
5.5405e+09
1.32899e+09
4.07415e+08
1.03631e+09
4.37577e+08
3.78914e+08
2.1851e+08
4.73005e+07
-3.18075e+08
6.45681e+08
5.05404e+08
1.074e+09
4.79401e+09
1.37802e+10
1.4105e+10
3.38824e+09
6.53201e+09
2.9856e+09
-3.1676e+09
-2.34559e+09
-3.08802e+09
-1.58447e+09
-1.53735e+09
-8.7437e+08
-8.94688e+07
-2.34369e+09
-1.3545e+09
-1.68188e+09
-2.51626e+09
-4.17851e+08
-8.35688e+08
-5.06696e+07
-8.5874e+07
-4.98695e+07
1.53924e+08
1.49126e+09
1.30204e+09
1.19929e+09
6.89974e+09
5.84089e+09
3.31961e+09
3.51069e+09
3.59435e+09
6.95269e+09
2.90868e+09
1.94783e+09
4.19846e+09
3.39601e+09
2.86251e+09
4.16741e+09
6.40414e+09
2.2438e+09
9.74143e+08
-1.47389e+08
-5.84548e+07
-6.14282e+08
-1.53219e+09
-2.28712e+09
-1.54907e+09
-7.88314e+08
-5.05325e+08
-1.58445e+09
-6.18721e+08
4.40754e+08
9.63996e+08
2.49729e+09
-2.37914e+08
4.67841e+08
-4.4795e+07
-1.34406e+09
-2.8279e+08
1.36858e+08
7.50767e+08
4.14841e+09
1.5348e+09
5.06775e+09
3.44136e+09
1.38214e+10
1.85863e+10
2.47881e+10
2.56637e+10
3.08499e+10
2.1842e+10
4.10549e+10
2.20718e+10
1.67751e+10
1.56622e+10
2.01439e+10
1.65978e+10
3.08029e+10
3.36063e+10
2.73072e+10
2.0156e+10
3.01351e+10
7.0469e+10
3.29139e+10
9.13948e+10
4.72212e+10
5.77356e+10
6.36957e+10
5.34779e+10
3.91348e+10
3.10566e+10
4.45417e+10
3.37519e+10
4.62644e+10
4.13476e+10
3.19308e+10
8.52551e+09
1.15654e+10
1.3089e+10
4.03496e+10
2.50075e+10
3.39149e+10
3.40562e+10
2.86369e+10
2.05238e+10
1.2944e+10
1.76534e+10
1.84989e+10
3.73747e+10
4.07083e+10
2.5317e+10
2.13419e+10
3.11613e+10
3.91369e+10
4.94821e+10
4.21899e+10
8.44861e+10
8.55907e+10
5.07309e+10
3.77659e+10
3.33575e+10
3.72281e+10
3.39621e+10
4.15409e+10
4.96448e+10
4.40269e+10
4.98081e+10
6.66527e+10
6.3884e+10
3.62869e+10
2.71053e+10
2.80162e+10
2.60875e+10
2.36055e+10
2.31868e+10
1.29917e+10
9.90197e+09
1.61621e+10
1.99561e+10
1.47745e+10
1.74254e+10
1.90553e+10
1.90721e+10
2.22998e+10
1.38251e+10
1.7674e+10
1.91398e+10
1.75538e+10
1.93061e+10
2.52193e+10
1.01759e+10
1.69107e+10
2.81289e+10
1.188e+10
2.12096e+10
1.30764e+10
2.06076e+10
1.89513e+10
3.28976e+10
4.22448e+10
4.94395e+10
4.19022e+10
3.40987e+10
6.47378e+09
7.19349e+09
9.3119e+09
7.0137e+09
6.98387e+09
6.24867e+09
3.01312e+09
2.40653e+09
2.05865e+09
2.5378e+09
1.06064e+09
6.18078e+08
2.47391e+09
3.41037e+09
4.47076e+09
6.12451e+08
-1.78474e+08
-1.53557e+08
-1.14579e+09
-1.23551e+09
-3.06346e+08
8.45081e+08
-1.85989e+09
-3.7368e+08
-3.91695e+08
-2.58544e+09
-1.3208e+09
-3.59358e+08
-6.15967e+08
-1.21433e+09
-9.93879e+08
-1.5328e+07
-1.69072e+09
-3.63969e+09
-2.26698e+09
-7.37415e+09
-9.58435e+09
-4.49121e+09
-5.79984e+09
-1.13828e+10
-1.15729e+10
-5.14856e+09
-8.01643e+09
-3.9093e+09
-4.15829e+09
-6.71477e+09
-1.37572e+09
2.25209e+09
-3.00037e+08
2.33919e+09
4.37911e+09
3.39337e+09
9.29654e+09
1.53731e+09
-1.36112e+09
-1.21184e+09
-1.18896e+09
-1.48659e+09
-5.94794e+08
-1.4489e+09
-1.6273e+08
1.6568e+09
-8.30186e+08
-7.84575e+08
-1.95145e+09
-4.37247e+09
-4.2868e+08
-1.23785e+08
-4.94159e+07
-8.67335e+07
-1.35707e+08
1.30876e+09
8.77599e+09
2.29062e+09
3.83907e+09
2.56937e+09
-7.20444e+08
1.84168e+09
9.26781e+09
8.52918e+08
1.26334e+09
4.73577e+08
9.94062e+08
3.81424e+09
3.63989e+09
5.14929e+09
-7.5454e+07
1.72129e+09
-1.00883e+09
1.35572e+08
-8.36075e+08
-2.98844e+09
3.92612e+09
3.16976e+08
-3.00206e+08
1.93686e+09
2.7029e+08
3.19014e+08
-3.34999e+07
3.89371e+09
-3.91043e+08
1.30578e+10
2.24224e+09
-6.36173e+09
-7e+09
-4.69577e+09
-5.42683e+08
5.64866e+09
1.462e+09
-2.53912e+09
-7.89665e+09
-2.21295e+10
-9.59456e+09
-8.25523e+08
-9.01521e+09
2.72963e+09
-3.8296e+09
6.71275e+09
4.11235e+10
2.46964e+10
5.09174e+10
4.54169e+10
2.03066e+10
2.83275e+10
3.38712e+10
4.03069e+10
2.3972e+10
2.10494e+10
1.75178e+10
2.6953e+10
1.79369e+10
2.65082e+10
3.46804e+10
2.49885e+10
9.9167e+09
1.05624e+09
8.56851e+09
9.52353e+09
2.09571e+10
2.06686e+10
1.40526e+10
6.97846e+09
9.01032e+09
6.98593e+09
1.01938e+10
9.38858e+09
1.18892e+10
6.97148e+09
5.79402e+08
8.75673e+09
3.12057e+09
-8.03636e+08
9.60185e+08
3.02706e+08
4.14053e+09
2.29717e+09
-1.03108e+08
4.27066e+08
-2.71951e+09
-8.49724e+09
-7.69869e+09
-8.88941e+09
-3.62299e+10
-4.03646e+10
-1.22145e+10
-1.56294e+10
-4.39453e+09
-7.24662e+09
-4.84289e+09
-5.19177e+09
-4.3965e+09
-3.86445e+09
-2.19605e+09
-2.39673e+09
-1.78442e+09
-1.68022e+09
-7.87787e+08
-1.57156e+09
-6.24189e+09
-5.08712e+09
-1.58872e+09
-1.3015e+09
-4.47455e+09
-4.39177e+09
-2.84433e+09
-1.39461e+09
-9.40762e+08
-3.52361e+09
-3.65334e+09
-6.1443e+09
-3.48584e+09
-2.37365e+09
3.02224e+08
1.01463e+09
1.33619e+09
3.47092e+09
1.93108e+09
3.82593e+09
3.73748e+09
3.39331e+09
5.66224e+08
6.55639e+08
3.80836e+08
3.04444e+09
2.64265e+09
1.66495e+09
7.07419e+09
3.24393e+09
1.71226e+09
1.72673e+07
-2.60483e+08
-3.41812e+08
-6.74417e+08
-2.62547e+08
2.98609e+08
-2.13714e+08
4.31972e+07
-4.04488e+08
-3.90628e+07
-8.01859e+08
-2.22016e+08
-3.62095e+08
-9.26396e+08
-4.23058e+09
-1.77328e+09
-1.78997e+09
-8.96727e+08
-4.589e+09
3.10494e+09
-4.81671e+09
-3.35533e+09
1.28815e+08
6.72771e+08
-2.64254e+08
-1.06265e+09
3.34484e+09
-1.70257e+09
3.76121e+09
1.53793e+09
-3.96124e+09
-2.12137e+09
-3.17564e+09
-1.09947e+09
-9.4354e+08
-6.73878e+09
-2.95221e+09
-2.92781e+09
-4.4905e+09
-5.17718e+09
-1.80279e+10
-1.9658e+10
-2.08392e+10
-8.73853e+09
-1.04489e+10
-8.40217e+09
-5.88771e+09
-1.22048e+09
2.36428e+08
6.44426e+09
1.35533e+10
1.38516e+10
1.61244e+10
1.40413e+10
1.02235e+10
1.22225e+10
6.54176e+09
1.88777e+10
1.64813e+10
1.38803e+10
1.48748e+10
1.15134e+10
3.7769e+09
3.18347e+09
2.67176e+09
1.16508e+10
1.41955e+10
9.14736e+09
7.96448e+09
1.07895e+10
8.29751e+09
1.47852e+10
1.31882e+10
2.66964e+10
1.05294e+10
-1.06522e+08
-8.65543e+08
-4.92516e+08
-1.8816e+08
7.70345e+09
1.44761e+09
2.83665e+09
3.19073e+09
-6.64864e+08
-8.36946e+09
6.40777e+09
5.93917e+09
3.17782e+09
1.11196e+09
4.3248e+09
5.74388e+09
8.50351e+09
2.50548e+10
3.81238e+10
3.84749e+10
3.75275e+10
3.26365e+10
2.76398e+10
2.96916e+10
4.19752e+10
8.57638e+09
2.0527e+10
1.65389e+10
2.42965e+10
5.89979e+10
6.92718e+10
7.71813e+10
4.25744e+10
7.20983e+10
1.11022e+11
1.20581e+11
8.25477e+10
7.79309e+10
1.08289e+11
1.57687e+11
1.71113e+11
1.50603e+11
1.88639e+11
2.25034e+11
2.20357e+11
2.95771e+11
2.63667e+11
1.32349e+11
1.5552e+11
1.495e+11
8.92833e+10
1.13777e+11
1.29547e+11
1.40021e+11
1.54437e+11
1.5558e+11
1.21603e+11
1.17739e+11
7.27681e+10
9.81414e+10
7.76393e+10
1.32826e+11
1.93096e+11
2.27296e+11
2.36666e+11
2.6584e+11
2.94163e+11
2.23579e+11
4.25663e+11
4.34546e+11
3.51038e+11
2.71467e+11
2.98309e+11
3.60863e+11
2.3637e+11
3.81167e+11
3.83366e+11
4.19546e+11
5.72193e+11
7.14364e+11
6.22886e+11
9.25326e+11
1.0038e+12
1.40409e+12
1.1556e+12
1.0549e+12
8.65405e+11
8.36694e+11
5.93427e+11
4.50981e+11
5.3369e+11
4.28836e+11
4.1578e+11
4.00796e+11
2.65423e+11
2.13456e+11
2.60641e+11
2.52745e+11
2.14432e+11
2.84126e+11
3.07057e+11
3.37313e+11
4.85325e+11
5.66024e+11
4.4082e+11
3.07429e+11
5.02152e+11
6.35048e+11
5.25088e+11
4.45089e+11
5.5364e+11
6.52886e+11
5.75752e+11
8.18955e+11
6.72376e+11
8.84006e+11
7.63858e+11
5.51525e+11
5.70413e+11
5.27466e+11
5.03743e+11
7.8299e+11
9.64145e+11
8.69621e+11
7.31759e+11
6.23669e+11
4.71275e+11
4.05399e+11
1.87809e+11
1.56554e+11
1.28246e+11
1.30834e+11
1.08227e+11
1.39481e+11
1.12886e+11
1.08489e+11
1.18142e+11
1.44745e+11
1.4503e+11
1.40756e+11
1.40835e+11
1.51679e+11
1.62625e+11
2.14322e+11
1.21396e+11
2.06277e+11
2.79507e+11
2.22364e+11
1.89481e+11
2.06294e+11
1.30486e+11
1.50393e+11
1.99988e+11
2.34765e+11
2.12007e+11
1.13752e+11
1.22147e+11
9.74361e+10
1.09035e+11
1.49463e+11
1.18875e+11
9.76606e+10
1.44794e+11
5.46932e+10
3.65863e+10
3.25906e+10
2.19528e+10
1.22545e+10
1.29781e+10
6.25976e+09
1.61499e+10
9.21862e+09
4.70047e+09
6.59283e+09
5.9737e+09
8.99075e+09
5.84364e+09
1.06448e+10
7.35957e+09
4.93141e+09
3.45622e+09
8.99453e+08
6.15553e+08
2.17652e+08
-8.41084e+08
-5.40598e+08
2.22066e+08
2.06032e+09
2.109e+09
-3.60588e+08
-9.16132e+08
-2.25236e+08
5.41998e+08
-3.91499e+08
5.69448e+08
-3.39729e+09
-8.60452e+07
-1.39752e+09
-6.0822e+08
-1.1024e+08
-6.4487e+08
-2.22504e+09
9.79034e+08
3.28142e+09
1.14506e+09
1.36883e+08
2.55733e+08
-7.05129e+08
8.15445e+08
3.80089e+08
-1.36341e+08
-2.64609e+09
-1.97865e+09
2.921e+09
5.09781e+09
1.17643e+10
8.0367e+09
1.31192e+10
8.17553e+09
7.53574e+09
2.03089e+10
1.68893e+10
1.21474e+10
1.54664e+10
1.40628e+10
7.97525e+09
8.58267e+09
2.03726e+10
1.82371e+10
7.88306e+09
5.6372e+09
5.67798e+09
6.72423e+09
1.58126e+10
2.0548e+10
1.02968e+10
1.67411e+10
5.2889e+09
7.61663e+09
2.1883e+09
4.75837e+09
9.73236e+09
1.55106e+10
1.25014e+10
1.00988e+10
1.74864e+10
5.4497e+09
1.35645e+09
5.17458e+09
7.79598e+08
-1.15966e+09
-1.05787e+09
-2.20309e+08
-2.59033e+08
-1.57599e+09
-1.0203e+09
2.82285e+07
4.82073e+08
8.43025e+08
8.22916e+08
2.97432e+08
9.52028e+08
-5.49333e+08
-4.49202e+08
-2.44485e+08
-9.92937e+08
-1.04481e+09
-3.94751e+09
-2.77121e+09
-1.94891e+09
-2.14792e+09
-5.48831e+09
-2.50551e+09
-7.6749e+08
-2.2411e+08
6.76318e+08
-1.81169e+09
4.32419e+09
8.90913e+08
1.97121e+08
-1.01235e+09
-7.94633e+09
-1.00874e+10
-4.21455e+09
-1.20258e+09
-1.35266e+08
2.02352e+08
5.04262e+08
-1.12272e+09
8.14219e+08
1.90376e+08
-8.69387e+07
-5.48879e+09
-1.03966e+10
-3.81384e+09
-4.63814e+09
-3.56824e+09
-8.81018e+08
-2.02313e+08
-6.09125e+07
1.51382e+08
-2.40914e+07
4.89137e+07
1.96363e+08
1.31111e+09
2.76733e+08
1.7667e+09
1.74166e+09
1.89591e+07
-7.09204e+08
2.37037e+09
5.46601e+09
5.33509e+09
1.75819e+10
2.08104e+10
1.29378e+10
1.64805e+10
2.72382e+10
3.0613e+10
4.14904e+10
4.51646e+10
1.70191e+10
1.21314e+10
1.94175e+10
3.84698e+10
3.42931e+10
1.8396e+10
1.28182e+10
8.75445e+09
1.21829e+10
1.80262e+10
5.24041e+10
3.11059e+10
9.13927e+09
1.84928e+10
9.73421e+09
1.36612e+10
1.59289e+10
1.7198e+10
2.29778e+10
3.98803e+10
2.63614e+10
2.77113e+10
1.71845e+10
2.52033e+10
4.16111e+10
2.39963e+10
3.72771e+10
3.15402e+10
3.81496e+10
4.26162e+10
5.18984e+10
4.53481e+10
1.21908e+11
2.02596e+11
1.11548e+11
8.57772e+10
6.61559e+10
7.78831e+10
2.61907e+10
2.53847e+10
3.2465e+10
3.60829e+10
2.53592e+10
5.12653e+10
2.56264e+10
3.78484e+10
2.58988e+10
2.97053e+10
3.00431e+10
3.03382e+10
2.27444e+10
1.65045e+10
1.79872e+10
2.07925e+10
3.40351e+10
4.03434e+10
3.29482e+10
3.81704e+10
3.85892e+10
5.49235e+10
1.07581e+11
8.99548e+10
8.07494e+10
1.12085e+11
1.06166e+11
1.00856e+11
1.24069e+11
1.48776e+11
1.11676e+11
4.0499e+10
5.9633e+10
3.44422e+10
5.1841e+10
6.16659e+10
5.05141e+10
5.11486e+10
4.88031e+10
3.91235e+10
7.21351e+10
4.36607e+10
4.79414e+10
5.17959e+10
4.65262e+10
3.95323e+10
3.81842e+10
4.5353e+10
4.85006e+10
5.76674e+10
5.00283e+10
1.0125e+10
2.17707e+10
2.91737e+10
5.01076e+10
3.43101e+10
2.5553e+10
1.69948e+10
1.90313e+10
1.03855e+10
1.37577e+10
1.19018e+10
1.3945e+10
6.92329e+09
2.48267e+10
3.24163e+10
2.96784e+10
4.57348e+10
4.87906e+10
6.67682e+10
3.67398e+10
1.81992e+10
3.79989e+10
2.08189e+10
2.2204e+10
1.98155e+10
5.55555e+10
5.99821e+10
1.10072e+11
1.30205e+11
4.51316e+10
2.56722e+10
1.43933e+10
1.96021e+10
2.4404e+10
2.40121e+10
2.90731e+10
5.55364e+10
4.87517e+10
8.04763e+10
6.97433e+10
1.12948e+11
1.00579e+11
1.76362e+11
1.74726e+11
1.52565e+11
2.018e+11
1.69751e+11
1.33166e+11
1.37431e+11
1.45782e+11
2.11023e+11
1.07425e+11
1.53475e+11
1.12456e+11
1.06498e+11
9.39061e+10
1.47156e+11
1.32872e+11
1.00687e+11
6.74608e+10
8.21565e+10
1.17774e+11
6.83223e+10
4.71617e+10
5.20003e+10
5.70261e+10
3.11798e+10
3.74606e+10
2.10269e+10
1.22489e+10
1.504e+10
7.10525e+09
1.35379e+10
1.18678e+10
7.4101e+09
1.31518e+10
9.7773e+09
1.01523e+10
1.07748e+10
7.05963e+09
5.82743e+09
1.17539e+10
1.70606e+10
1.60114e+10
1.79803e+10
6.73494e+09
1.07181e+10
1.80749e+10
5.29738e+09
5.05051e+09
7.54226e+09
1.75651e+10
1.87979e+10
2.4063e+10
2.82947e+10
3.53399e+10
5.15681e+10
6.32138e+10
5.03468e+10
8.92185e+10
9.55296e+10
1.2238e+11
1.25388e+11
1.44829e+11
1.49874e+11
1.40615e+11
1.38241e+11
1.18199e+11
8.80923e+10
8.40104e+10
1.00996e+11
6.83277e+10
1.11537e+11
9.68242e+10
1.0872e+11
1.02777e+11
1.00722e+11
8.18743e+10
3.91548e+10
6.41571e+10
6.21127e+10
4.92666e+10
4.53734e+10
3.02436e+10
3.21718e+10
3.55415e+10
4.17597e+10
3.5673e+10
4.83497e+10
9.4915e+10
6.97061e+10
4.11469e+10
5.33967e+10
5.23622e+10
4.177e+10
1.85872e+10
9.97891e+09
8.34205e+09
1.06594e+10
6.22835e+09
4.35817e+09
2.87549e+09
1.16662e+10
8.88331e+09
6.82469e+09
8.07885e+09
7.4441e+09
5.01598e+09
5.52372e+09
6.60449e+09
3.10516e+09
1.32795e+09
6.01912e+09
2.46172e+09
4.27892e+09
1.10026e+10
2.91666e+10
1.3474e+10
1.10073e+10
9.35893e+09
7.30292e+09
1.017e+10
6.35385e+09
8.03232e+09
9.40815e+09
9.24728e+09
9.89904e+09
1.14588e+10
7.91109e+09
2.03834e+10
2.76828e+10
3.32269e+10
2.80372e+10
3.01406e+10
2.74102e+10
8.7886e+10
5.56808e+10
5.33067e+10
6.91174e+10
8.62633e+10
7.45542e+10
7.49041e+10
4.74339e+10
4.21591e+10
3.63568e+10
7.89638e+10
9.94726e+10
7.16059e+10
5.113e+10
2.85524e+10
2.16474e+10
1.86345e+10
1.79272e+10
1.85683e+10
6.62958e+09
5.89469e+09
3.24612e+09
3.30481e+09
3.98603e+09
5.43052e+09
4.72579e+09
3.74057e+09
2.66592e+09
3.12196e+09
9.68072e+09
1.69827e+10
1.98881e+10
2.79573e+10
2.97333e+10
1.99367e+10
3.2309e+10
2.69834e+10
3.09066e+10
5.55857e+10
7.1489e+10
6.02742e+10
7.20685e+10
8.799e+10
6.45425e+10
4.89761e+10
5.48473e+10
6.05206e+10
4.44305e+10
4.5619e+10
4.75687e+10
3.63777e+10
2.92183e+10
4.73966e+10
3.30151e+10
4.64186e+10
5.27007e+10
4.16878e+10
5.50196e+10
8.52634e+10
9.6819e+10
8.7432e+10
7.45924e+10
7.39748e+10
9.75021e+10
6.39409e+10
7.95214e+10
8.00819e+10
1.34418e+11
1.24381e+11
1.2154e+11
1.41595e+11
1.89902e+11
1.82572e+11
2.38753e+11
1.59223e+11
1.24794e+11
1.49716e+11
1.32971e+11
2.50057e+11
1.31134e+11
1.08596e+11
1.18416e+11
7.05274e+10
5.36824e+10
6.00639e+10
3.14846e+10
5.99502e+10
3.62495e+10
2.92747e+10
3.5297e+10
3.35384e+10
4.84938e+10
5.06011e+10
7.14128e+10
9.58025e+10
5.57124e+10
8.84717e+10
1.39799e+11
1.56291e+11
1.35035e+11
1.17132e+11
9.3869e+10
1.01054e+11
1.35015e+11
1.26101e+11
1.64099e+11
1.04645e+11
1.16819e+11
1.00515e+11
1.308e+11
1.21588e+11
7.59626e+10
1.27511e+11
1.1303e+11
7.40747e+10
2.07311e+11
2.3598e+11
2.54965e+11
2.11991e+11
2.21173e+11
2.22371e+11
1.62453e+11
1.54196e+11
2.52282e+11
2.3419e+11
1.83706e+11
1.82246e+11
1.92923e+11
1.74237e+11
1.20716e+11
1.10245e+11
9.78602e+10
2.01274e+11
1.57242e+11
2.55327e+11
2.54429e+11
2.63499e+11
3.12623e+11
4.27531e+11
5.98448e+11
8.16523e+11
7.92188e+11
7.68931e+11
1.05141e+12
1.24808e+12
1.69532e+12
1.68413e+12
1.85186e+12
1.75328e+12
1.85993e+12
2.02285e+12
1.78779e+12
1.89955e+12
1.60113e+12
1.45714e+12
1.52855e+12
1.46858e+12
1.38324e+12
1.1768e+12
1.36512e+12
1.49684e+12
1.35667e+12
1.32662e+12
1.07312e+12
8.59095e+11
9.14651e+11
6.92464e+11
8.49634e+11
1.1497e+12
9.93948e+11
9.95706e+11
7.74223e+11
6.62035e+11
6.84961e+11
5.48202e+11
4.96128e+11
4.71845e+11
5.24976e+11
3.81817e+11
2.95648e+11
2.70017e+11
3.7985e+11
3.85899e+11
4.53701e+11
4.30483e+11
4.83694e+11
3.8551e+11
4.27358e+11
6.35008e+11
4.00231e+11
3.174e+11
3.20705e+11
2.98992e+11
3.09468e+11
2.8594e+11
3.22866e+11
3.24796e+11
2.7689e+11
3.18794e+11
3.3637e+11
3.13961e+11
3.58297e+11
5.17221e+11
5.23864e+11
6.37618e+11
4.67449e+11
6.79034e+11
9.07989e+11
8.23165e+11
7.96697e+11
7.07373e+11
9.76651e+11
1.13625e+12
9.70679e+11
1.29297e+12
1.4222e+12
1.2665e+12
1.24525e+12
9.87589e+11
1.15351e+12
1.00158e+12
8.14432e+11
5.39673e+11
6.31543e+11
6.73324e+11
9.07071e+11
9.07581e+11
9.47049e+11
9.58978e+11
6.94394e+11
7.36054e+11
7.24447e+11
8.13537e+11
7.4249e+11
8.21774e+11
7.90709e+11
7.33362e+11
6.50812e+11
4.67561e+11
6.36819e+11
5.81826e+11
4.01203e+11
3.41183e+11
3.41251e+11
5.15481e+11
3.82852e+11
3.05588e+11
3.1965e+11
4.07315e+11
4.63054e+11
5.19769e+11
6.772e+11
5.91384e+11
5.01557e+11
5.34308e+11
4.4267e+11
3.13946e+11
4.15169e+11
4.51341e+11
3.56798e+11
4.82999e+11
5.00456e+11
3.14252e+11
2.67932e+11
1.73581e+11
1.53128e+11
1.40807e+11
1.77293e+11
1.14721e+11
1.09201e+11
1.04624e+11
1.47496e+11
1.73669e+11
2.55726e+11
2.00605e+11
1.83782e+11
2.58632e+11
2.34875e+11
1.7363e+11
2.57952e+11
1.60023e+11
1.72891e+11
1.62416e+11
1.12883e+11
1.71345e+11
1.77698e+11
1.58351e+11
1.45088e+11
1.38768e+11
1.17987e+11
1.37241e+11
1.62161e+11
1.55634e+11
2.02288e+11
1.5578e+11
3.33388e+11
2.22287e+11
2.28658e+11
1.75795e+11
2.06849e+11
2.65736e+11
2.31612e+11
2.18022e+11
3.27885e+11
3.70893e+11
2.67547e+11
3.12613e+11
4.43404e+11
4.36689e+11
4.78001e+11
4.8597e+11
4.92062e+11
5.27112e+11
6.20545e+11
4.58339e+11
3.99947e+11
4.06118e+11
5.74484e+11
4.91514e+11
4.7645e+11
3.24207e+11
2.85593e+11
2.84303e+11
3.97119e+11
4.01582e+11
4.70802e+11
4.1028e+11
6.05628e+11
7.768e+11
6.52021e+11
6.55286e+11
5.7857e+11
8.51703e+11
8.53442e+11
9.41877e+11
6.63243e+11
6.27761e+11
4.82177e+11
4.55106e+11
3.82408e+11
3.55736e+11
3.58075e+11
3.87511e+11
5.75377e+11
6.24695e+11
3.42693e+11
3.72033e+11
3.31158e+11
3.75106e+11
3.22109e+11
2.38684e+11
2.37663e+11
2.45951e+11
1.55561e+11
2.09226e+11
2.05817e+11
1.45484e+11
1.63292e+11
1.57387e+11
1.254e+11
2.24735e+11
1.71263e+11
2.43665e+11
3.20396e+11
3.67121e+11
3.47476e+11
2.66257e+11
2.58807e+11
3.23088e+11
3.9325e+11
6.60216e+11
8.48126e+11
9.20378e+11
9.88402e+11
1.0621e+12
1.32713e+12
1.50107e+12
1.58734e+12
1.64741e+12
1.6067e+12
1.47787e+12
1.98623e+12
1.6811e+12
1.01536e+12
1.11273e+12
1.10259e+12
1.00881e+12
1.15028e+12
1.13667e+12
9.6167e+11
8.50875e+11
7.49583e+11
6.36387e+11
9.3347e+11
1.0848e+12
7.47834e+11
4.0586e+11
3.03776e+11
3.58511e+11
3.33307e+11
2.05456e+11
2.97323e+11
2.57313e+11
2.06299e+11
1.5039e+11
1.35618e+11
1.36538e+11
8.94596e+10
1.42995e+11
1.41447e+11
1.22209e+11
1.13688e+11
8.96792e+10
9.09992e+10
9.34301e+10
7.91309e+10
6.97293e+10
4.10958e+10
3.48809e+10
2.52903e+10
5.21467e+10
3.60836e+10
5.2199e+10
5.59835e+10
5.86815e+10
3.91889e+10
5.41099e+10
1.04477e+11
8.49429e+10
9.28971e+10
4.28691e+10
4.74826e+10
4.56738e+10
8.72385e+10
8.11703e+10
7.39022e+10
6.52568e+10
5.47819e+10
5.75402e+10
9.70525e+10
4.69056e+10
5.4941e+10
5.43656e+10
4.44205e+10
5.30875e+10
6.1941e+10
1.48418e+11
1.48681e+11
1.59674e+11
1.665e+11
3.2153e+11
3.12281e+11
3.11598e+11
4.10273e+11
3.70431e+11
2.82388e+11
4.87558e+11
3.38955e+11
4.11665e+11
4.71277e+11
5.42012e+11
2.68067e+11
2.24296e+11
1.45458e+11
1.3319e+11
1.77847e+11
1.89335e+11
2.2965e+11
2.42065e+11
2.41437e+11
2.28137e+11
2.36805e+11
1.68636e+11
2.19956e+11
3.69679e+11
3.92977e+11
3.88396e+11
3.05113e+11
3.49902e+11
2.04006e+11
1.52278e+11
1.80537e+11
2.61493e+11
1.98743e+11
2.06731e+11
1.96926e+11
1.32888e+11
1.66663e+11
1.12718e+11
8.17396e+10
5.67124e+10
1.02366e+11
7.1126e+10
3.43533e+10
3.59753e+10
3.51302e+10
4.61612e+10
2.68972e+10
5.24742e+10
8.53243e+10
1.14589e+11
1.78649e+11
1.47518e+11
8.70797e+10
1.23028e+11
9.25906e+10
1.2987e+11
1.16283e+11
8.44249e+10
6.42052e+10
8.67624e+10
5.64481e+10
8.4652e+10
5.86593e+10
6.41076e+10
6.42834e+10
2.94624e+10
2.52226e+10
1.97527e+10
2.46083e+10
1.65864e+10
1.72496e+10
1.58346e+10
2.74839e+10
3.01265e+10
2.56013e+10
2.88882e+10
3.09635e+10
2.53464e+10
3.69317e+10
4.06111e+10
2.40382e+10
3.48504e+10
6.70155e+10
6.39451e+10
3.94799e+10
3.54946e+10
3.64208e+10
5.54517e+10
8.00125e+10
2.70182e+10
4.77359e+10
4.96432e+10
6.39195e+10
4.82287e+10
2.96431e+10
2.53155e+10
3.15588e+10
4.71344e+10
3.6371e+10
3.02853e+10
4.53294e+10
3.37122e+10
2.34218e+10
3.44578e+10
3.17538e+10
2.24829e+10
2.67964e+10
2.83469e+10
2.38627e+10
7.39165e+09
7.33483e+09
9.41538e+09
2.09079e+10
1.75946e+10
1.65184e+10
1.53123e+10
6.28898e+09
6.54882e+09
1.01862e+10
1.18146e+10
5.50596e+09
7.6985e+09
1.28205e+10
1.75285e+10
2.96596e+10
1.46511e+10
4.27045e+09
3.89783e+09
8.47254e+09
2.82833e+10
2.69115e+10
2.38638e+10
1.14597e+10
1.38556e+10
2.71117e+10
2.87664e+10
1.36657e+10
2.0657e+10
1.11285e+10
5.85807e+09
5.24283e+09
1.32961e+10
2.57849e+10
3.61026e+10
5.37795e+10
2.32859e+10
3.66319e+10
6.96453e+10
8.3116e+10
7.07754e+10
6.46173e+10
9.38374e+10
9.88089e+10
5.87844e+10
7.79317e+10
6.09333e+10
6.14535e+10
6.54653e+10
8.23131e+10
1.02444e+11
1.26694e+11
8.79983e+10
1.05027e+11
9.89909e+10
9.63543e+10
1.07385e+11
1.12717e+11
9.3272e+10
8.21281e+10
9.70566e+10
1.17657e+11
6.41201e+10
5.95611e+10
6.14989e+10
3.51992e+10
4.36511e+10
3.30472e+10
2.47279e+10
3.01549e+10
2.52914e+10
1.60042e+10
2.45375e+10
9.93886e+09
6.9729e+09
1.92109e+10
2.68166e+10
4.99202e+10
1.04537e+11
1.21582e+11
9.79972e+10
5.89668e+10
9.35186e+10
5.81215e+10
4.50552e+10
3.1341e+10
1.60554e+10
1.6137e+10
2.21909e+10
1.93416e+10
3.8325e+10
2.99708e+10
2.5076e+10
1.50285e+10
2.70897e+10
4.82783e+10
6.28917e+10
1.44488e+10
1.97229e+09
4.02646e+09
1.86111e+10
1.50116e+10
1.11917e+10
2.27207e+10
1.47305e+10
1.68632e+10
1.82616e+10
2.06181e+10
9.60675e+09
1.46438e+10
4.8983e+09
8.08586e+09
1.00745e+10
2.11804e+10
2.06646e+10
2.26051e+10
2.49413e+10
3.34608e+10
2.42016e+10
1.44493e+10
1.6081e+10
1.23972e+10
3.60111e+10
5.33792e+10
4.69069e+10
2.49769e+10
2.833e+10
2.39863e+10
2.51052e+10
1.14417e+10
8.14511e+09
1.25862e+10
1.45265e+10
3.75143e+10
3.73272e+10
5.84606e+10
6.20954e+10
3.34003e+10
3.40866e+10
2.37168e+10
1.57754e+10
1.25288e+10
2.27055e+10
1.62451e+10
1.41071e+10
5.82987e+09
-2.77789e+08
2.76319e+09
1.56147e+09
8.1001e+09
1.40434e+09
2.12556e+09
-4.50888e+09
7.58895e+09
-6.3224e+08
-8.07258e+09
-1.39471e+10
2.30381e+09
2.7698e+09
2.63293e+09
2.13704e+10
2.43472e+10
2.7089e+10
1.44697e+10
8.57469e+09
1.96866e+10
1.41861e+10
1.13043e+10
1.37625e+10
1.04831e+10
1.073e+10
1.69604e+10
1.70556e+10
2.23553e+10
7.20404e+09
7.49628e+09
9.06609e+09
1.05051e+10
3.70744e+09
1.06007e+10
1.08798e+10
6.91792e+09
4.44584e+09
1.28293e+09
4.17237e+09
2.94381e+09
9.54935e+09
1.97989e+10
2.87181e+10
5.02125e+10
3.28268e+10
3.239e+10
3.87218e+10
4.24069e+10
2.76519e+10
2.90163e+10
1.4972e+10
1.44245e+10
1.63738e+10
2.23291e+10
3.07016e+10
4.71065e+10
4.99206e+10
3.6974e+10
3.6901e+10
8.37864e+10
3.59107e+10
3.25198e+10
6.81754e+10
1.03056e+11
7.42737e+10
4.25745e+10
2.63142e+10
2.35492e+10
3.26741e+10
3.19779e+10
3.50066e+10
1.80297e+10
7.51472e+09
4.69374e+09
5.45505e+09
8.35585e+09
5.89656e+09
1.00825e+09
5.22958e+08
4.33176e+09
-5.8703e+08
-1.82694e+08
-1.07306e+09
-1.09319e+09
-3.97808e+08
-3.76888e+08
-3.28206e+08
6.3504e+08
-8.77049e+08
-9.26554e+08
-3.44431e+08
4.03505e+08
3.37659e+08
6.98327e+08
1.32258e+07
-1.60525e+09
-1.01008e+09
5.23536e+08
-1.0105e+09
5.82629e+08
2.00777e+09
7.75362e+08
-3.18704e+08
-1.79728e+09
4.85349e+08
-7.5976e+08
-5.67634e+09
8.57563e+09
5.39808e+09
1.92196e+09
1.26009e+08
-4.63901e+09
1.37247e+09
1.76642e+09
3.74148e+08
-4.12134e+08
-8.32364e+07
-1.4081e+09
1.62019e+09
1.88587e+09
1.4199e+09
4.75134e+08
-1.26882e+08
-1.04644e+09
-2.59609e+09
-1.61399e+08
-3.5758e+08
-9.51026e+08
1.27262e+08
1.19921e+09
8.41516e+08
-9.41274e+08
-1.40885e+09
-2.46892e+09
-2.14355e+09
-5.12528e+08
-1.39496e+09
-1.03194e+09
-1.80106e+09
6.08783e+08
-1.16457e+09
-1.44116e+09
-1.71686e+09
-8.83383e+08
7.63439e+08
1.45639e+09
3.78619e+08
6.05478e+08
6.33843e+08
-4.37197e+07
1.84058e+07
3.04531e+08
4.19978e+08
4.40707e+08
2.15958e+09
1.77581e+09
1.40813e+09
1.84047e+08
1.05694e+09
1.69436e+09
4.41901e+09
-9.06085e+07
-9.22186e+08
-6.24128e+08
-1.0595e+09
-2.91257e+09
-2.20189e+09
-1.27129e+09
-1.54263e+09
-7.79055e+08
-1.25183e+09
-3.5133e+08
-4.26153e+08
-8.91641e+08
-1.7498e+09
-1.03543e+09
-8.51319e+08
-4.91109e+08
6.41317e+07
5.47743e+08
8.20805e+08
-3.13484e+08
-1.21101e+09
-4.51113e+08
-9.10069e+08
-1.53121e+09
3.6326e+08
2.59485e+08
3.24236e+08
2.01457e+08
3.52067e+08
5.99298e+08
8.55e+08
1.77531e+09
1.3383e+09
-7.37504e+09
-8.69502e+09
-5.21077e+09
-7.33997e+09
-9.87551e+09
-3.95663e+09
-9.89421e+08
3.44777e+09
8.11828e+09
8.66572e+09
7.10697e+09
4.1206e+09
5.82466e+09
1.11213e+10
9.01109e+09
5.36766e+09
1.6498e+10
1.65747e+10
1.73136e+10
1.62479e+10
1.42169e+10
3.63789e+10
4.57657e+10
3.63933e+10
5.10316e+10
3.43528e+10
2.66511e+10
2.60449e+10
5.98537e+10
4.1201e+10
3.538e+10
4.9061e+10
5.63125e+10
4.79394e+10
9.19311e+10
7.75195e+10
9.99235e+10
1.49581e+11
2.04802e+11
2.37417e+11
2.50613e+11
2.55153e+11
2.54311e+11
2.53498e+11
2.36944e+11
2.1831e+11
2.03799e+11
1.15233e+11
1.11854e+11
1.49795e+11
8.27899e+10
9.98319e+10
4.3773e+10
4.0732e+10
9.12023e+10
1.31408e+11
1.16605e+11
1.55688e+11
1.70004e+11
1.79504e+11
1.72647e+11
1.79063e+11
1.62164e+11
1.42885e+11
1.27674e+11
1.03501e+11
1.3899e+11
1.16239e+11
1.23891e+11
6.27578e+10
8.62997e+10
8.34394e+10
9.76518e+10
1.14174e+11
1.3727e+11
9.34896e+10
5.71474e+10
7.36918e+10
7.99718e+10
1.31481e+11
9.15236e+10
5.09704e+10
4.58123e+10
3.78293e+10
3.77635e+10
3.73601e+10
4.52542e+10
3.69873e+10
4.72866e+10
7.48197e+10
7.6733e+10
6.76081e+10
7.14082e+10
8.74357e+10
1.09727e+11
9.21801e+10
1.00788e+11
5.15736e+10
5.59397e+10
5.8563e+10
3.97624e+10
3.61134e+10
2.17486e+10
1.59968e+10
1.92388e+10
2.69015e+10
3.18084e+10
6.32154e+10
8.37272e+10
4.90808e+10
2.70245e+10
2.75095e+10
1.82215e+10
1.09056e+10
1.51119e+10
1.5634e+10
2.06996e+10
5.36485e+10
7.5591e+10
7.26069e+10
1.07754e+11
6.25201e+10
6.33085e+10
4.19633e+10
4.45963e+10
4.9095e+10
2.62819e+10
2.8824e+10
2.34759e+10
1.20751e+10
4.241e+09
6.80935e+09
9.73885e+09
8.92856e+09
1.04697e+10
7.63179e+09
1.12235e+10
1.29741e+10
2.0583e+10
1.87543e+10
1.66199e+10
1.30955e+10
1.87923e+10
2.43668e+10
2.03864e+10
1.48611e+10
1.64687e+10
9.69256e+09
1.90593e+10
1.296e+10
1.66151e+10
2.91429e+10
4.74506e+10
3.95116e+10
4.35744e+10
4.12186e+10
1.78348e+10
2.21259e+10
2.132e+10
2.44559e+10
3.44334e+10
2.00433e+10
7.29616e+09
6.52567e+09
-1.3146e+09
1.87847e+09
3.72741e+08
2.72038e+09
1.23217e+09
1.32203e+08
2.53331e+09
3.26611e+09
3.21073e+09
3.90383e+08
-1.69755e+09
-1.00602e+09
-8.21211e+08
-1.4527e+09
-1.6004e+09
-3.13392e+09
-6.08195e+09
-1.11571e+10
-6.05036e+09
-2.12334e+10
-1.53194e+10
-8.21637e+09
-7.94063e+09
-2.62435e+09
-1.77039e+09
-2.87126e+09
-5.08126e+09
-2.80699e+09
9.61367e+07
-8.79136e+08
-3.70311e+09
-5.15924e+08
-2.43777e+08
-4.22602e+08
-1.42836e+09
4.91549e+08
1.06928e+09
6.35184e+08
1.40312e+09
1.90189e+09
1.32784e+08
1.02963e+09
7.48764e+08
2.22056e+08
1.71095e+08
2.05589e+09
2.85459e+08
-8.70158e+07
2.08401e+08
3.88737e+08
6.75051e+06
-1.42226e+08
-3.15676e+08
-1.70514e+07
2.08257e+08
1.14506e+08
1.19964e+08
1.32903e+08
-2.46313e+08
1.47916e+08
4.44788e+08
-2.70173e+07
1.64754e+06
3.3519e+07
-2.81784e+07
-1.31247e+08
-2.01334e+08
-3.99005e+08
-2.40508e+08
-4.05365e+08
5.11705e+07
-2.65887e+06
4.46757e+07
-3.65109e+08
-5.80006e+07
3.83617e+06
1.8364e+07
1.2641e+08
8.10796e+07
2.20636e+08
6.84639e+07
-9.55725e+06
5.01692e+07
-1.95007e+08
-1.32791e+09
-5.27428e+08
-2.27435e+09
-5.6449e+08
-1.658e+08
-3.71431e+08
-4.65074e+08
-3.34211e+09
-1.90091e+09
-8.5455e+08
-2.49054e+09
-2.78854e+09
-1.10505e+09
2.49433e+09
1.77121e+09
1.21833e+09
9.08022e+08
6.15484e+08
2.8483e+08
5.90405e+08
8.76834e+08
4.80089e+09
6.83209e+09
9.9199e+09
3.60247e+09
5.15066e+09
2.72234e+09
5.28152e+09
4.0716e+09
2.41665e+09
3.19239e+09
3.54928e+09
9.79872e+08
4.62041e+08
-4.21886e+09
-4.62115e+09
1.28615e+09
5.1547e+09
1.23503e+09
2.42486e+09
3.64651e+07
3.26806e+09
6.74288e+08
2.53554e+09
6.1521e+09
7.71752e+09
1.00401e+10
1.4278e+10
3.00878e+10
2.05474e+10
2.11122e+10
6.79454e+09
1.55144e+10
1.55148e+10
2.44296e+10
2.30315e+10
2.49638e+10
1.68138e+10
2.8932e+10
1.57883e+10
1.08284e+10
1.43165e+10
2.28877e+10
1.71646e+10
3.53397e+10
2.52427e+10
3.11467e+10
2.56661e+10
2.21447e+10
1.31509e+10
1.21883e+10
1.32459e+10
5.18628e+09
5.99898e+09
5.75556e+09
5.02115e+09
9.11955e+09
5.33149e+09
1.93376e+09
3.63267e+09
3.11425e+09
4.91529e+09
2.01148e+09
7.63012e+08
8.87077e+08
1.53121e+09
4.68113e+08
1.35559e+09
1.05633e+09
1.75368e+09
5.35016e+08
4.69648e+08
1.49697e+09
-8.93116e+08
-1.63049e+09
-1.9761e+09
-8.39904e+09
-1.20373e+10
-3.43756e+09
-1.92074e+09
-6.40171e+08
1.39704e+07
-3.88585e+09
-7.89333e+08
-3.59643e+09
-2.42703e+09
-5.95042e+09
-6.09489e+09
-6.82983e+09
-3.57313e+09
-2.20046e+09
1.61133e+08
-1.8552e+09
-2.10688e+09
-1.51813e+09
-6.93917e+09
-3.10451e+09
-1.05923e+09
3.37713e+07
-3.79322e+08
-5.77938e+08
-7.13023e+07
-7.99719e+07
2.69159e+07
-2.32436e+08
-3.04592e+08
-9.47281e+07
-2.39761e+08
-2.89086e+08
-2.19282e+09
4.28972e+07
-1.16166e+09
-1.08954e+09
-1.1088e+08
1.4346e+08
1.38065e+08
-6.79415e+06
-1.40761e+08
-1.17385e+09
-6.22653e+08
-4.95408e+08
-4.07322e+08
-4.71961e+08
-2.85833e+08
2.29962e+08
-3.14561e+08
-6.58471e+08
-2.07049e+09
-1.85619e+09
-8.0759e+08
-1.68684e+09
-3.20242e+09
-4.64685e+09
-5.75982e+09
-1.28317e+10
-1.55843e+10
-7.75464e+09
-2.88165e+09
-1.53823e+09
-1.49995e+08
-9.18726e+08
3.96168e+08
2.98001e+08
1.18142e+09
1.33567e+10
1.86297e+10
2.01693e+10
1.08199e+10
1.05468e+10
6.11729e+09
7.469e+09
1.58163e+10
9.74608e+09
1.55238e+10
7.1924e+09
8.44742e+09
1.58901e+10
7.79619e+09
1.5321e+10
1.31237e+10
1.04027e+10
4.11072e+09
2.05305e+09
8.00241e+09
5.71323e+09
5.8049e+09
4.36442e+09
4.45911e+09
1.23091e+10
1.32129e+10
1.09316e+10
1.16343e+10
9.69201e+09
1.93354e+09
1.02926e+08
4.40316e+08
-1.7857e+09
-5.85429e+09
-4.79525e+09
-1.24306e+10
-1.26575e+10
-7.07047e+09
1.23211e+09
-3.13519e+09
-2.77377e+09
-1.42628e+09
-1.56929e+09
-4.09749e+09
-5.63103e+07
-205468
2.91337e+09
5.61841e+09
2.24239e+09
-9.58264e+07
7.83103e+09
7.38454e+09
1.35134e+10
2.32749e+10
3.12221e+10
2.82537e+10
1.83222e+10
2.20393e+10
2.73785e+10
3.10288e+10
2.10254e+10
2.20118e+10
1.60654e+10
2.27514e+10
3.52107e+10
4.66074e+10
7.96796e+10
1.55596e+11
2.21911e+11
1.64972e+11
1.11221e+11
1.5599e+11
1.11492e+11
1.2568e+11
9.82278e+10
1.15485e+11
9.60385e+10
1.43534e+11
1.80091e+11
2.63953e+11
2.26737e+11
2.78738e+11
1.87643e+11
1.19437e+11
8.29514e+10
8.12006e+10
1.21391e+11
1.6362e+11
1.58523e+11
1.53216e+11
1.78656e+11
2.93935e+11
3.32078e+11
2.28436e+11
2.24006e+11
1.95219e+11
1.61421e+11
1.51231e+11
1.65333e+11
2.0923e+11
1.33981e+11
8.83919e+10
8.38605e+10
6.58858e+10
4.08414e+10
7.41794e+10
6.08661e+10
5.73976e+10
8.29402e+10
3.88344e+10
3.79301e+10
2.96512e+10
3.22688e+10
3.30843e+10
4.9038e+10
5.67352e+10
6.22251e+10
1.04192e+11
7.80828e+10
5.58736e+10
7.33002e+10
8.12124e+10
7.55404e+10
3.62457e+10
3.11801e+10
5.03003e+10
5.43566e+10
3.27871e+10
1.60949e+10
2.45387e+10
2.61065e+10
2.30452e+10
4.50441e+10
4.31179e+10
6.15901e+10
4.04093e+10
4.72961e+10
4.63241e+10
4.34675e+10
6.56068e+10
8.42699e+10
5.54476e+10
6.66326e+10
1.16253e+11
1.02525e+11
5.50267e+10
5.29034e+10
5.42696e+10
5.53215e+10
8.26266e+10
9.05325e+10
6.68967e+10
1.03779e+11
9.49073e+10
6.39519e+10
5.40315e+10
5.48643e+10
4.91133e+10
4.52672e+10
4.36783e+10
2.66939e+10
1.93024e+10
1.43997e+10
1.30348e+10
1.43016e+10
1.56878e+10
2.55703e+10
1.78391e+10
1.45372e+10
1.20891e+10
1.54941e+10
3.66424e+10
4.41076e+10
4.6853e+10
2.71241e+10
3.18555e+10
3.61527e+10
4.17213e+10
2.98488e+10
2.59142e+10
1.42898e+10
4.2084e+09
2.74929e+09
4.69419e+09
5.93097e+09
4.47619e+09
7.6769e+09
3.12584e+09
1.32026e+10
6.85161e+09
1.25787e+10
2.41171e+10
4.87307e+10
6.19508e+10
5.14785e+10
4.70363e+10
5.29967e+10
6.0729e+10
4.64922e+10
6.26861e+10
3.38785e+10
5.46754e+10
7.27673e+10
5.80379e+10
4.66411e+10
5.68425e+10
7.30029e+10
5.74205e+10
3.96718e+10
5.48472e+10
3.57952e+10
3.77268e+10
2.24676e+10
3.98164e+10
7.23063e+10
5.00615e+10
4.37738e+10
4.26083e+10
5.94109e+10
5.76765e+10
5.28504e+10
4.36719e+10
8.35259e+10
7.75516e+10
5.8632e+10
4.6895e+10
2.8248e+10
3.81088e+10
2.01148e+10
3.0923e+10
1.34411e+10
2.60435e+10
2.61518e+10
1.24804e+10
2.74156e+10
2.33913e+10
2.05291e+10
2.39228e+10
9.7456e+09
2.03217e+10
1.66543e+10
1.46195e+10
2.09166e+10
2.57313e+10
2.34993e+10
3.12205e+10
2.33938e+10
2.37535e+10
2.34535e+10
5.03183e+10
6.38401e+10
6.29435e+10
3.10569e+10
1.06339e+10
7.57924e+09
4.5087e+09
1.42738e+10
2.68418e+10
2.40222e+10
1.80013e+10
1.71813e+10
1.3783e+10
1.04603e+10
1.26917e+10
1.27662e+10
1.15062e+10
6.88145e+09
1.43485e+10
6.29932e+09
5.74507e+09
3.39057e+09
2.09541e+09
2.01656e+09
2.93775e+09
3.10927e+09
4.45361e+09
6.47599e+09
4.9351e+09
5.98796e+09
8.49011e+09
1.22228e+10
7.3029e+09
9.67028e+09
1.14286e+10
2.0115e+10
1.09818e+10
7.97847e+09
1.17e+10
3.24697e+09
1.36971e+10
1.4003e+10
2.00796e+10
1.76972e+10
1.78176e+10
2.83261e+10
3.34363e+10
2.98573e+10
3.21799e+10
3.30268e+10
3.54967e+10
3.08836e+10
4.80914e+10
3.44501e+10
3.31928e+10
2.667e+10
2.04691e+10
1.53152e+10
1.62184e+10
1.53631e+10
2.86018e+10
1.95781e+10
4.29096e+10
2.73941e+10
1.80633e+10
2.92872e+10
3.00757e+10
1.22573e+10
6.12642e+09
5.50032e+09
5.71121e+09
5.4048e+09
8.47086e+09
1.01038e+10
1.01117e+10
6.95039e+09
1.84504e+10
7.83228e+09
9.06632e+09
1.42006e+10
1.05015e+10
1.28116e+10
9.66932e+09
5.62464e+09
6.69117e+09
5.32723e+09
2.00366e+10
8.97029e+09
5.05522e+09
1.24113e+10
7.8565e+09
1.52796e+10
1.66153e+10
1.47197e+10
1.77217e+10
2.71345e+10
3.66717e+10
1.79866e+10
1.67636e+10
1.79154e+10
1.18171e+10
1.00371e+10
1.14709e+10
1.4245e+10
1.24578e+10
9.15046e+09
2.46895e+10
3.04813e+10
3.46186e+10
2.38096e+10
2.56687e+10
2.3296e+10
2.32998e+10
7.7557e+09
6.0062e+09
1.39683e+09
4.86325e+08
-3.35723e+09
1.35874e+09
1.86094e+09
6.15695e+08
2.66756e+09
5.07317e+09
9.02941e+09
5.26869e+09
6.04599e+09
8.42784e+09
5.13747e+09
4.61383e+08
5.20513e+09
4.89228e+09
3.11742e+09
-6.243e+08
2.12593e+09
-3.09393e+08
1.70806e+09
2.36502e+09
3.25088e+09
2.3686e+09
2.28056e+09
1.77653e+09
9.9555e+08
5.78592e+08
1.31936e+09
2.06805e+09
2.46149e+08
9.01337e+08
2.05635e+09
6.20548e+08
3.41713e+09
1.27206e+09
2.89298e+09
1.16128e+09
3.26445e+09
2.79834e+09
2.70325e+09
1.94275e+09
3.4248e+09
7.60453e+09
9.9997e+09
9.12742e+09
7.56841e+09
1.61193e+10
4.44635e+09
3.72803e+09
3.05936e+09
7.88264e+08
3.57924e+09
-1.08653e+09
8.65278e+08
6.85512e+08
-1.01163e+09
-3.34228e+08
5.20264e+09
4.87597e+09
2.26433e+08
-6.85334e+08
-7.45365e+08
-1.49574e+09
-4.89152e+09
-2.12125e+09
-1.4432e+09
-2.34814e+09
-1.67433e+09
-2.74124e+09
-5.58001e+09
-6.00281e+09
-2.35506e+09
-3.36606e+09
-4.41264e+09
-6.42698e+07
2.2787e+08
7.6771e+08
-1.89868e+09
-2.15318e+09
-2.8994e+09
-4.40157e+09
-4.50973e+09
-3.7996e+09
-5.85056e+08
-3.96402e+08
-4.38504e+08
5.93319e+08
-2.43932e+07
1.11657e+08
-2.17802e+08
-1.65974e+08
-1.18919e+08
5.54826e+08
-2.69194e+08
-3.19294e+08
-2.30404e+09
-2.50326e+09
-1.54846e+08
-7.98251e+08
6.57921e+08
3.89563e+08
1.25257e+08
7.82414e+08
1.59412e+09
2.13544e+09
1.36251e+09
4.78706e+09
1.16934e+09
1.46475e+09
4.52224e+09
3.53238e+09
1.18072e+09
3.14363e+09
2.77681e+09
4.55677e+09
3.4053e+09
2.46843e+09
1.38054e+09
3.03722e+08
2.31097e+08
1.34297e+08
3.69697e+07
1.34496e+08
5.06538e+08
7.194e+08
3.53102e+09
4.42325e+09
-7.90526e+08
1.24627e+08
-2.73466e+09
-2.43e+09
-4.231e+09
-1.03942e+09
-1.96138e+09
-1.39393e+09
-5.69177e+09
-3.65846e+09
-1.84755e+09
-4.62404e+09
-2.53176e+09
-2.50392e+09
-4.89257e+09
-1.58053e+09
5.78393e+08
1.08971e+09
-4.72593e+08
-3.12117e+09
-7.43745e+09
-8.70114e+09
-1.81501e+10
-2.56926e+10
-1.85636e+10
-1.82201e+10
-2.28607e+10
-4.04087e+09
-8.26379e+09
-9.42264e+09
-1.45821e+10
1.30013e+09
-1.07568e+10
-8.01566e+09
-3.82657e+09
-1.50753e+10
-1.81581e+10
-1.14579e+09
-3.22717e+10
-9.0181e+09
-1.98026e+10
-1.31425e+10
-4.10879e+10
-7.72517e+10
-6.80838e+10
-1.00083e+11
-5.47141e+10
-8.92911e+10
-9.81364e+10
-9.56551e+10
-8.21436e+10
-3.87233e+10
-3.78658e+10
-5.90967e+10
-5.38436e+10
-1.05539e+11
-4.27239e+10
-3.0518e+10
-2.05565e+10
-5.6941e+09
-3.21955e+09
-6.10195e+09
-1.48238e+09
1.13232e+09
1.45591e+09
-3.94598e+09
-2.25227e+09
-2.70972e+09
-1.55578e+09
1.19836e+07
9.6414e+08
2.47262e+08
1.81858e+09
1.80966e+09
1.32874e+09
4.2121e+09
3.83762e+09
3.76245e+09
5.31584e+09
3.39328e+09
5.22876e+09
7.95193e+09
8.29346e+09
8.19304e+09
1.65894e+10
5.89221e+09
3.79448e+09
6.84529e+09
1.78502e+10
6.85213e+09
1.77387e+10
1.10821e+10
7.93333e+09
1.36381e+10
1.88386e+10
2.10633e+10
3.05814e+10
2.48485e+10
1.87473e+10
8.00766e+09
1.15455e+10
4.51254e+09
9.00698e+09
8.70786e+09
1.28187e+10
1.52306e+10
8.83929e+09
4.848e+09
9.70247e+09
2.03234e+10
1.73329e+10
1.85046e+10
1.64105e+10
2.81399e+10
3.00679e+10
3.84732e+10
7.33096e+10
8.21765e+10
6.2462e+10
5.52907e+10
1.07443e+11
7.8979e+10
1.15312e+11
1.25782e+11
1.31924e+11
1.05161e+11
1.05962e+11
1.06685e+11
6.69623e+10
4.99157e+10
3.40255e+10
3.21941e+10
3.84985e+10
2.23625e+10
1.63619e+10
2.31754e+10
2.76079e+10
2.89095e+10
4.34493e+10
4.99519e+10
3.77694e+10
2.74322e+10
2.65708e+10
1.28924e+10
1.83971e+10
2.54498e+10
1.63602e+10
1.25213e+10
1.353e+10
7.91992e+09
1.59019e+10
1.03958e+10
8.2134e+09
6.42816e+09
3.2502e+09
1.08511e+10
2.47943e+09
3.29161e+09
5.41156e+09
4.76554e+09
2.24626e+09
2.2914e+09
1.19867e+09
2.13572e+09
1.23125e+10
1.20272e+10
5.98495e+09
2.51995e+09
1.01008e+10
6.62872e+09
1.22309e+10
1.76194e+10
8.86881e+09
1.22821e+10
1.44376e+10
3.07187e+10
3.9589e+10
5.85611e+10
1.65756e+10
1.10772e+10
6.98381e+09
1.25934e+10
1.40769e+10
1.59112e+10
1.44964e+10
3.65375e+10
1.99974e+10
4.2199e+10
4.20909e+10
2.80033e+10
2.18697e+10
2.51561e+10
1.90094e+10
3.2999e+10
2.30699e+10
3.22535e+10
3.93038e+10
4.49218e+10
2.35898e+10
2.76785e+10
2.9315e+10
3.31251e+10
3.67438e+10
5.87999e+10
6.9139e+10
8.41217e+10
9.03884e+10
5.40674e+10
6.7979e+10
4.92996e+10
4.38175e+10
9.38904e+10
1.04479e+11
7.61198e+10
1.0734e+11
1.99122e+11
1.71836e+11
1.39618e+11
8.79087e+10
8.44528e+10
1.15868e+11
9.78031e+10
4.84191e+10
7.84388e+10
7.81557e+10
6.06031e+10
5.9324e+10
4.27281e+10
2.5915e+10
5.35515e+10
9.91271e+10
8.19025e+10
8.47327e+10
6.78035e+10
9.89932e+10
1.04141e+11
6.61327e+10
9.42098e+10
1.27334e+11
8.46907e+10
1.519e+11
2.29336e+11
3.52359e+11
3.30987e+11
2.49892e+11
4.02991e+11
4.68205e+11
4.83401e+11
3.76242e+11
5.67717e+11
5.52878e+11
7.18697e+11
9.4535e+11
9.48348e+11
8.73598e+11
9.71976e+11
1.11264e+12
1.04478e+12
8.98781e+11
9.75943e+11
1.33091e+12
8.23167e+11
8.50474e+11
5.58718e+11
5.74901e+11
6.45855e+11
7.01017e+11
6.10187e+11
4.25081e+11
3.862e+11
2.42061e+11
2.40246e+11
3.24385e+11
2.91154e+11
2.47406e+11
2.30775e+11
2.06094e+11
2.28322e+11
4.08666e+11
4.18466e+11
5.45126e+11
4.64174e+11
3.80113e+11
3.77423e+11
3.36596e+11
2.67668e+11
3.05507e+11
3.48595e+11
4.57699e+11
5.33754e+11
3.94173e+11
5.17287e+11
4.37747e+11
4.57893e+11
3.49874e+11
3.17734e+11
1.44131e+11
1.10287e+11
7.23573e+10
6.86132e+10
5.80821e+10
5.57182e+10
5.73612e+10
6.02296e+10
3.48165e+10
1.73849e+10
1.58804e+10
1.76804e+10
3.49722e+10
6.09099e+10
7.84219e+10
7.41657e+10
8.27799e+10
1.16086e+11
1.13091e+11
1.49395e+11
2.09988e+11
2.35042e+11
2.64865e+11
2.84779e+11
3.39289e+11
3.36967e+11
4.33163e+11
4.34513e+11
6.49085e+11
9.18342e+11
1.08654e+12
1.32177e+12
1.40978e+12
1.27484e+12
1.20282e+12
1.10772e+12
1.25836e+12
9.1058e+11
9.30062e+11
1.17465e+12
1.49008e+12
2.27317e+12
2.40033e+12
2.07889e+12
2.01037e+12
1.87997e+12
1.98635e+12
2.05862e+12
1.33339e+12
1.41314e+12
1.62315e+12
1.40218e+12
1.5734e+12
1.60172e+12
1.33607e+12
1.41795e+12
1.28506e+12
1.28608e+12
1.41442e+12
1.51733e+12
1.47892e+12
1.48644e+12
1.83091e+12
1.3911e+12
1.85353e+12
2.3175e+12
2.53952e+12
1.89824e+12
1.25065e+12
1.459e+12
1.90912e+12
2.02813e+12
2.07563e+12
2.06089e+12
1.61337e+12
1.43647e+12
1.6149e+12
1.393e+12
1.34449e+12
1.07812e+12
1.12325e+12
1.19879e+12
1.2927e+12
1.81437e+12
1.60782e+12
1.37799e+12
1.43674e+12
1.5671e+12
1.40491e+12
1.03527e+12
1.74668e+12
1.50672e+12
1.83865e+12
1.72259e+12
1.83359e+12
1.87289e+12
1.4247e+12
9.74762e+11
9.84233e+11
6.87837e+11
6.12717e+11
5.02061e+11
4.16815e+11
4.67718e+11
3.86372e+11
4.66612e+11
4.48553e+11
3.58538e+11
3.69739e+11
3.50508e+11
3.73124e+11
3.72721e+11
5.21441e+11
6.33853e+11
1.06051e+12
1.40283e+12
1.27188e+12
1.11133e+12
1.43782e+12
1.30656e+12
1.36571e+12
1.54206e+12
1.70762e+12
1.65606e+12
1.72158e+12
1.45301e+12
1.60651e+12
1.23404e+12
9.21789e+11
9.33527e+11
1.22183e+12
1.12146e+12
1.53549e+12
1.84678e+12
1.77399e+12
2.12671e+12
2.2893e+12
2.53626e+12
2.71526e+12
2.62512e+12
2.04475e+12
2.66328e+12
2.43276e+12
2.60481e+12
2.60251e+12
2.77028e+12
2.49513e+12
3.56822e+12
3.51635e+12
2.95276e+12
4.05143e+12
4.03821e+12
4.05075e+12
3.68593e+12
3.73599e+12
3.92337e+12
4.88409e+12
4.74268e+12
4.63818e+12
4.95342e+12
5.35785e+12
5.87328e+12
4.87464e+12
5.65172e+12
6.47047e+12
6.09774e+12
5.36002e+12
6.00712e+12
6.51388e+12
7.17603e+12
7.33837e+12
7.14987e+12
7.36451e+12
6.80872e+12
6.97167e+12
6.04735e+12
7.91904e+12
7.46895e+12
7.43133e+12
8.47337e+12
8.60956e+12
8.46241e+12
7.61277e+12
7.61852e+12
6.72483e+12
5.30538e+12
6.52979e+12
7.02031e+12
8.2096e+12
9.06067e+12
7.81243e+12
8.08637e+12
9.60706e+12
1.18766e+13
1.19771e+13
1.07435e+13
1.21288e+13
1.4393e+13
1.45506e+13
1.37815e+13
1.62844e+13
1.55424e+13
1.60334e+13
1.72334e+13
1.64543e+13
1.57273e+13
1.49618e+13
1.57725e+13
1.73514e+13
1.93902e+13
1.74563e+13
1.58399e+13
1.73072e+13
1.40138e+13
1.57387e+13
1.67667e+13
1.46408e+13
1.25436e+13
1.17418e+13
9.72724e+12
1.25866e+13
1.43757e+13
1.45443e+13
1.39888e+13
1.44689e+13
1.2559e+13
1.04164e+13
9.80161e+12
1.0024e+13
9.60916e+12
9.08041e+12
8.66128e+12
9.99012e+12
6.74578e+12
5.70416e+12
6.31568e+12
5.70897e+12
4.24855e+12
4.1861e+12
4.08804e+12
5.12676e+12
4.35193e+12
3.205e+12
3.44957e+12
2.64108e+12
2.93223e+12
1.9056e+12
2.71591e+12
1.7759e+12
1.07372e+12
1.04901e+12
1.3312e+12
1.38812e+12
1.38356e+12
1.25395e+12
1.34525e+12
1.13613e+12
9.72746e+11
8.78978e+11
8.52317e+11
1.24335e+12
1.42769e+12
1.1826e+12
1.31687e+12
1.16057e+12
1.45053e+12
1.19434e+12
9.37559e+11
1.09098e+12
1.03735e+12
1.08379e+12
1.28685e+12
1.28083e+12
1.00293e+12
1.224e+12
1.13565e+12
9.28224e+11
7.32297e+11
7.11548e+11
5.32244e+11
5.17597e+11
4.85087e+11
7.0007e+11
8.28044e+11
5.44429e+11
5.7637e+11
5.84386e+11
5.58952e+11
6.90719e+11
7.32698e+11
7.41899e+11
7.50366e+11
8.72428e+11
8.40785e+11
7.86221e+11
7.8959e+11
8.02719e+11
8.68974e+11
7.70529e+11
7.02304e+11
5.86389e+11
6.79409e+11
6.88634e+11
6.31625e+11
8.7514e+11
1.0369e+12
7.85643e+11
5.72715e+11
5.35781e+11
5.16756e+11
6.35262e+11
6.51926e+11
5.82215e+11
6.38084e+11
6.62449e+11
5.35603e+11
4.63542e+11
5.6635e+11
5.46882e+11
4.89117e+11
5.15018e+11
3.77213e+11
4.42281e+11
3.73993e+11
6.62541e+11
4.63223e+11
3.74792e+11
4.5413e+11
7.30636e+11
8.54436e+11
1.13143e+12
1.05732e+12
1.12654e+12
1.08557e+12
9.26527e+11
9.90641e+11
8.43047e+11
1.38809e+12
1.46438e+12
1.44087e+12
1.6737e+12
1.70817e+12
1.60276e+12
1.5949e+12
1.49004e+12
1.65075e+12
1.30473e+12
1.2038e+12
1.00221e+12
1.26942e+12
1.09237e+12
1.04891e+12
9.83865e+11
1.07918e+12
1.15532e+12
1.11893e+12
7.69023e+11
6.52923e+11
9.14114e+11
1.25353e+12
1.21265e+12
1.09942e+12
9.32399e+11
7.2783e+11
4.45323e+11
3.4444e+11
4.27572e+11
4.36914e+11
3.74594e+11
3.6201e+11
3.59522e+11
2.63595e+11
3.01476e+11
3.69499e+11
4.53132e+11
2.26353e+11
2.39064e+11
3.17096e+11
2.71216e+11
3.82843e+11
5.10792e+11
4.48567e+11
4.36307e+11
4.49879e+11
4.88947e+11
5.19464e+11
6.36729e+11
4.71892e+11
4.79425e+11
5.33109e+11
4.41705e+11
4.16909e+11
6.11674e+11
4.60775e+11
7.27679e+11
6.80848e+11
5.87688e+11
7.26002e+11
5.45251e+11
1.02524e+12
8.52863e+11
5.83306e+11
5.08568e+11
1.05795e+12
7.965e+11
9.26512e+11
1.18268e+12
1.2768e+12
1.44918e+12
1.57181e+12
1.93784e+12
1.37756e+12
1.26091e+12
9.45256e+11
7.66124e+11
7.78483e+11
4.72905e+11
3.15861e+11
4.48334e+11
5.31423e+11
4.62301e+11
6.0913e+11
6.22754e+11
6.05639e+11
5.55489e+11
1.07759e+12
1.25944e+12
1.23753e+12
1.18362e+12
1.07983e+12
9.76404e+11
1.28761e+12
1.30701e+12
1.39249e+12
1.39572e+12
1.43588e+12
1.4769e+12
1.60798e+12
1.64696e+12
1.13437e+12
8.37323e+11
7.94223e+11
7.0555e+11
9.97524e+11
8.59805e+11
1.11724e+12
1.0194e+12
1.25223e+12
1.44544e+12
1.60796e+12
1.78822e+12
1.52428e+12
1.52831e+12
1.54127e+12
1.50234e+12
2.34695e+12
1.754e+12
1.69753e+12
2.01913e+12
1.96978e+12
2.01184e+12
2.00191e+12
2.3119e+12
3.24116e+12
2.91896e+12
1.96691e+12
2.27642e+12
2.78083e+12
3.03549e+12
3.07418e+12
3.27904e+12
2.84341e+12
2.78893e+12
2.11398e+12
2.08346e+12
1.95879e+12
1.93119e+12
2.20783e+12
1.93002e+12
1.90535e+12
1.77952e+12
1.82845e+12
1.98646e+12
1.60851e+12
1.73848e+12
1.56113e+12
1.34484e+12
1.06328e+12
8.67715e+11
1.78618e+12
2.14956e+12
2.69863e+12
2.47489e+12
2.89529e+12
1.90928e+12
1.95166e+12
1.49619e+12
1.64356e+12
1.82201e+12
1.66758e+12
1.59963e+12
1.34497e+12
1.34987e+12
1.7038e+12
1.76788e+12
1.80521e+12
1.47982e+12
1.45803e+12
1.1888e+12
1.19638e+12
1.22073e+12
1.35532e+12
1.08385e+12
1.47715e+12
1.60219e+12
2.02348e+12
2.36365e+12
2.49303e+12
2.83358e+12
3.58171e+12
2.88015e+12
3.41925e+12
2.59999e+12
2.7046e+12
2.2687e+12
2.54086e+12
2.16742e+12
2.84691e+12
2.82358e+12
3.16114e+12
2.89059e+12
2.62138e+12
3.18462e+12
3.27934e+12
3.60894e+12
3.74247e+12
3.95935e+12
4.33035e+12
3.48969e+12
2.92172e+12
2.87361e+12
2.95531e+12
3.79802e+12
4.99179e+12
4.59576e+12
4.27705e+12
6.22225e+12
5.14937e+12
4.89524e+12
4.73417e+12
4.22046e+12
4.21424e+12
4.38342e+12
4.63205e+12
4.04119e+12
3.03372e+12
2.91835e+12
3.25741e+12
2.59505e+12
2.17392e+12
2.50198e+12
2.82632e+12
2.86847e+12
3.02223e+12
2.69821e+12
3.0745e+12
2.93426e+12
2.65167e+12
2.87995e+12
2.80827e+12
2.77001e+12
2.88044e+12
2.87708e+12
3.0316e+12
2.60416e+12
2.79553e+12
3.28433e+12
3.57246e+12
3.91894e+12
3.24167e+12
3.47615e+12
3.53454e+12
3.70688e+12
3.25736e+12
2.62914e+12
2.58074e+12
2.86653e+12
2.7763e+12
1.7816e+12
1.58565e+12
1.88875e+12
1.4473e+12
1.38814e+12
1.13684e+12
9.20534e+11
1.08619e+12
1.3456e+12
1.59835e+12
1.60235e+12
1.65049e+12
2.46282e+12
1.60749e+12
1.23623e+12
1.03488e+12
1.10939e+12
1.01228e+12
1.08476e+12
1.04935e+12
9.00779e+11
1.05199e+12
1.0277e+12
9.53456e+11
7.97103e+11
1.28166e+12
1.27982e+12
1.54008e+12
2.45078e+12
2.63546e+12
2.0549e+12
1.52015e+12
1.85484e+12
2.0707e+12
2.06503e+12
2.45092e+12
2.23866e+12
2.80413e+12
2.87729e+12
1.9527e+12
1.58287e+12
1.30768e+12
1.54502e+12
1.09636e+12
1.01022e+12
1.25324e+12
1.45444e+12
1.23619e+12
1.35973e+12
1.95819e+12
2.21257e+12
2.71884e+12
2.66632e+12
3.60471e+12
3.1934e+12
3.59716e+12
3.2752e+12
3.0247e+12
3.19084e+12
2.6314e+12
3.10337e+12
3.79803e+12
4.0061e+12
3.26676e+12
3.27084e+12
2.9053e+12
2.48052e+12
1.84949e+12
1.65217e+12
1.92239e+12
1.45637e+12
1.92132e+12
2.36909e+12
1.79812e+12
1.7735e+12
1.69902e+12
1.84109e+12
1.72866e+12
1.85987e+12
1.78117e+12
1.76978e+12
2.24589e+12
1.46796e+12
1.39162e+12
1.55376e+12
1.40632e+12
1.31858e+12
1.30383e+12
1.5343e+12
9.37939e+11
1.09963e+12
1.01353e+12
1.07972e+12
1.65038e+12
2.02249e+12
1.93891e+12
2.1586e+12
2.36478e+12
2.19858e+12
2.60751e+12
2.40762e+12
2.23925e+12
2.47849e+12
2.10277e+12
2.02649e+12
1.98049e+12
1.77759e+12
2.13963e+12
2.18767e+12
2.13819e+12
1.54543e+12
1.46648e+12
1.49611e+12
1.90932e+12
1.52725e+12
1.4168e+12
1.35411e+12
1.11897e+12
1.02894e+12
1.29847e+12
7.854e+11
6.32653e+11
7.49249e+11
7.44789e+11
7.85254e+11
9.0703e+11
8.64511e+11
8.92664e+11
1.0395e+12
1.47679e+12
9.62363e+11
9.10876e+11
8.94083e+11
1.24154e+12
1.5967e+12
1.13029e+12
1.23992e+12
1.16516e+12
1.45434e+12
1.492e+12
1.53955e+12
1.24506e+12
1.18552e+12
1.10888e+12
1.14616e+12
1.06655e+12
1.14148e+12
1.44282e+12
1.82768e+12
1.77488e+12
1.94046e+12
1.44788e+12
1.88593e+12
1.52443e+12
2.2181e+12
1.68329e+12
2.06753e+12
2.15993e+12
3.05856e+12
3.12632e+12
2.81033e+12
2.05923e+12
1.89777e+12
1.60461e+12
1.49174e+12
1.14336e+12
1.03912e+12
1.15023e+12
1.63745e+12
1.80582e+12
1.64141e+12
1.57597e+12
1.54369e+12
1.92552e+12
1.67513e+12
1.80396e+12
1.87329e+12
2.22437e+12
1.75126e+12
1.5348e+12
1.66264e+12
2.15217e+12
2.2734e+12
2.00938e+12
2.36324e+12
2.42147e+12
2.933e+12
2.59157e+12
2.60676e+12
2.24479e+12
2.17694e+12
2.80648e+12
2.8759e+12
2.84796e+12
2.21835e+12
1.96856e+12
1.90273e+12
1.63765e+12
1.42592e+12
1.64534e+12
1.65836e+12
1.33246e+12
2.34463e+12
2.66184e+12
2.73115e+12
3.07083e+12
3.33622e+12
2.95552e+12
2.52836e+12
2.61434e+12
2.60155e+12
2.26437e+12
2.44731e+12
1.87353e+12
1.57112e+12
8.36298e+11
1.14166e+12
1.16345e+12
1.06815e+12
8.3065e+11
1.08104e+12
1.2476e+12
1.28105e+12
1.02343e+12
1.25603e+12
1.46045e+12
1.75838e+12
2.42166e+12
2.70294e+12
2.9417e+12
2.7805e+12
3.31399e+12
2.35977e+12
2.3464e+12
1.80136e+12
2.08647e+12
2.05201e+12
2.03055e+12
2.07272e+12
2.3082e+12
2.49172e+12
2.39684e+12
2.02e+12
1.75036e+12
1.50054e+12
1.27948e+12
1.42921e+12
1.38852e+12
