499.6487945
480.3918453
585.60832135
404.1192316
418.974531085
586.1624392
569.06722965
663.5788087
593.64334395
529.19111915
427.58755925
572.66148765
455.68702295
384.60642405
535.207171025
403.55974325
580.034610395
522.2890953
439.9326929
361.991866
339.3194319
528.2860499
308.939715
328.2824742
450.7797039
521.3511759
395.1622693
463.6353805
511.78039995
503.8333107
511.84493955
553.71717835
577.45504135
583.8967871
588.43946955
462.716230755
474.8006454
394.02349251
557.46475905
263.943418
395.61237545
447.7134016
542.83685315
637.961851
444.41730715
441.4539562
540.2841459
472.54907685
607.07945475
474.5610859
657.7968084
408.0232696
462.8658632
581.5907908
546.93629545
633.29527025
498.96792285
428.48858495
519.69968047
384.624097035
545.5049285
430.4938477
526.1021858
506.112351
591.08920855
626.2836562
471.09244845
469.4643904
537.553141
406.9492493
621.12067215
503.82994005
481.45572135
377.05445485
471.508298
566.8781845
392.25976955
406.004551
439.95606802
531.160273585
403.667267
429.578124
495.69865377
421.0714659
443.67662605
664.0605685
448.74068595
647.91588092
537.36247425
532.9225715
446.04090295
347.0311285
579.2258051
467.20160705
567.7875728
488.17225675
396.6996021
666.875064575
568.3375034
496.50917525
