5251279.82
5016304.185
5122880.715
4840822.585
4977596.5775
4648297.855
5499942.825
5156589.115
5108528.385
4859021.18
4909004.565
5323271.74
4539711.675
4722883.205
4701929.74
5651866.78
5184498.3
5008393.805
5692269.64
5363700.745
4832280.275
5094967.75
5000269.75
5374045.47
4644806.81
4884627.12
5120371.0
5023184.25
5505360.035
5454782.13
4727294.07
5180424.105
5162154.37
5183991.21
4689845.95
4761807.28
4651291.315
4532613.15
4694133.675
4466130.1
4768162.68
5306752.815
4746792.615
4725600.955
4866554.815
4405311.38
4318802.59
4429423.435
4935627.2
4793766.03
