889.899971402
898.338329581
884.189918702
928.124420344
899.97912449
815.307075833
1023.32356565
982.356653274
996.088222786
988.207961403
821.362451125
1031.96076227
818.327419631
847.873287636
899.856514062
1010.3394423
824.512509737
972.548405131
925.828794992
894.414418727
946.519469175
982.522975338
925.98308105
915.604784077
946.280405723
929.195405903
800.165041828
832.114355861
957.511196725
869.507168148
860.641400513
922.35551539
935.533457938
795.411753672
997.577510607
961.671667882
1005.34146127
878.227021956
940.600325224
842.043240326
928.194934844
928.790718877
847.270037803
864.574730394
875.111332806
921.239857299
882.139351598
990.334498245
1020.48434629
983.251915545
860.697599254
978.721021152
867.107027637
857.169239189
1006.96293667
880.135689153
1062.56327623
1023.39452357
885.821969658
921.991087239
875.397842386
959.061336262
922.870024574
858.100456566
830.488506108
973.028431307
849.322735514
974.240445035
931.262616005
885.175647696
890.698146359
974.694530768
888.459731262
1000.00816649
888.061473243
890.011762907
859.696917296
985.211213857
855.49330943
839.933189503
1014.4634134
842.263827174
922.536791565
886.464649859
952.811660537
886.847409249
993.963671655
889.860404132
893.398149752
795.085420993
987.512980048
824.871654488
897.03335499
965.969273544
891.097028363
874.254988112
1013.84293841
878.596512787
845.043679089
990.541260435
1006.38948708
832.78307056
927.434533078
893.506454428
948.704529921
883.172493982
951.89868297
755.611945236
885.16321168
894.417520237
887.536130503
978.876123381
1040.68358118
1003.72750893
1040.78605131
873.151966406
917.425980406
865.007900815
902.49874492
888.211191643
1000.93189826
885.000831578
822.686499493
874.591424304
955.344226124
865.615593362
840.826942393
886.043947224
1013.26331524
940.084124812
937.570636543
906.318853115
940.801919251
925.190313864
998.42360705
969.171033637
807.408598176
930.282860294
810.249432694
979.745019548
915.765316561
880.294960873
960.785185706
1003.94469721
808.092535954
749.290373961
955.794731808
835.561620294
995.267359863
1000.16071837
1011.29686604
881.126854443
893.700540944
889.16392295
953.66536556
879.820311235
985.250157509
909.727080924
884.674252591
933.989311249
986.457455633
963.061820104
881.485718965
949.192489871
917.455658761
951.46311647
827.797846144
926.041742121
989.411051631
886.038498982
977.143738584
987.352678704
877.462455562
945.48124733
862.820472534
895.319988393
972.766567382
1049.21060074
864.955054962
922.950458998
885.948319414
898.404514768
929.332176595
848.290198273
909.259553823
989.904150174
1033.04150367
829.724532975
969.378957951
875.71224665
962.145949263
1008.44058651
850.693371148
985.489378953
963.89952142
929.877346682
887.799431664
856.415547508
892.088958266
972.030578628
1039.84051342
926.644298553
930.318361073
901.617007358
1038.46937856
921.051774365
944.297606071
853.484075808
902.365998199
973.437875656
976.069799507
945.598669311
941.428228145
892.428063777
889.383102182
811.809299139
944.397255387
893.197215888
923.166440199
828.951219365
1002.23748439
896.589274558
956.560086453
911.586416403
831.686009768
926.267568091
935.979143052
1057.65450136
882.426318559
965.56388292
951.724328535
915.268347653
864.018003596
812.884683735
863.51271787
853.284033604
973.93674529
886.256949707
887.703503229
906.482487617
917.940002224
1001.32638323
945.328246818
977.841639349
897.51732786
917.521666738
907.83238102
865.004109578
973.070860031
914.007749031
922.491906498
908.934650095
939.074803383
895.760747885
959.472212357
921.006117927
832.587652174
903.516129701
1020.41971034
965.020620621
890.981275713
942.66536613
895.038054829
1040.63245032
955.577277522
901.030466677
1035.39448669
958.478188589
851.533688131
1006.95208444
1028.02946016
783.583902293
836.293781172
947.264449811
1002.47092604
872.383497857
1013.2069472
878.873717308
781.098316192
1034.8454391
943.163875312
856.203497215
834.07575694
890.562955807
1033.1315249
940.259208866
940.508548374
909.29789439
937.737460115
883.587506615
996.099518325
899.384089333
845.08159523
938.733508787
944.964508055
874.336748206
1060.65733568
857.108334907
992.787072694
919.657440065
892.436546781
942.05437113
863.438633553
963.152650545
989.656893375
883.267485813
1012.16940787
825.683929547
933.462069487
948.705283474
1025.83670727
993.337670124
873.932366855
989.696454671
868.922380793
959.819177721
889.438963796
845.037170444
1005.23992011
913.192432579
814.938053263
926.753506541
982.823771965
866.948027505
901.029461506
1003.18099651
1001.00163058
942.02111172
941.142743729
891.338776402
952.364029407
806.441330781
995.319016964
1018.60154355
824.614890468
850.973843041
935.241264003
813.251631442
926.208198094
865.831074364
967.188736034
827.117028995
927.722375237
1093.30646181
1024.98061958
884.158018819
855.76914691
829.455461955
944.484639091
812.741432599
935.14648563
933.949376009
913.707091284
884.392236771
1020.14315203
889.033997865
931.80421422
977.166796447
886.308280362
926.766094082
883.477750855
1001.99379225
954.017445964
885.463146222
952.892245037
924.678339108
950.508030273
886.912812665
919.081998831
915.295787243
960.522610877
777.214280897
1034.8989451
976.460446233
985.969866713
943.086874074
933.815873704
964.690174634
887.138398189
941.495613029
956.712710469
943.509584924
863.19182542
807.033956061
892.85596999
908.861454776
864.644856316
949.055076318
852.50991215
901.597246162
942.727549584
1024.82778546
996.607363917
797.84222033
1003.31612509
795.854076238
986.374840443
956.382457764
931.387231258
919.76212507
828.751126172
964.966302617
938.116191349
929.895720456
906.066367845
1005.89064719
894.875146868
917.802840074
882.680983872
902.865344523
882.197672547
898.872964316
1056.12009183
963.156302547
967.708043273
829.104218783
893.676557989
913.639014287
980.52050118
880.727190382
849.071680422
963.634469476
952.638720422
926.237300839
867.702060831
999.531634965
866.276470353
788.823115301
954.824030338
1064.71508858
944.358295926
951.506756212
885.399274939
807.003312322
827.513021427
889.894457777
930.213614847
824.96765099
885.02173897
909.936979551
947.391898631
882.778011501
845.418663826
845.075996813
918.503196674
872.645397734
874.984403552
1001.61848234
981.959214865
975.723828416
889.30440913
839.64342361
1012.97280236
958.073726902
938.071820252
937.577452854
1031.51990943
813.35630196
930.349429201
900.963217944
997.183325417
939.964138803
947.493167295
819.880536059
854.865143444
912.023361406
828.208830853
871.310037019
863.111470079
840.697876313
838.491764739
926.594564941
960.522385028
896.546657614
860.757963992
1091.94827541
970.920494919
1099.52206523
872.826681585
967.043622336
1005.53557601
906.317241354
895.522832986
1017.64373233
913.734717789
989.156968267
825.914557665
978.02037195
924.983396062
895.013486859
1018.5988174
907.020761669
845.154476881
1048.50404274
836.226601214
889.387268809
903.504601366
890.680367634
888.781666638
1062.85696894
848.777093529
975.886334083
831.630076593
847.520737817
989.154936808
860.043435796
945.425177681
948.177370802
904.789541704
921.796373484
920.958797301
881.291828731
942.28245198
1031.39342307
856.548368238
985.604636454
894.616958871
996.454593135
862.994067696
828.607441128
995.873752907
1018.36029956
1001.98103343
979.456109622
781.339980641
824.229922441
897.66183834
939.640059257
981.472899993
853.040856482
861.998721373
916.478108394
950.692837033
890.527153365
923.401331456
786.526919773
796.461964241
895.724301442
946.991064493
982.899188896
889.022405186
968.466819444
918.729895121
834.423003713
915.03757216
909.436959986
938.164649423
862.97337466
949.390269573
911.16629411
968.649980791
890.851033986
964.162398148
1000.17567999
1020.30916011
918.605706492
910.943759535
937.384251768
843.661050404
904.973447549
851.56805135
956.443216849
858.764211866
975.696895376
984.500843563
943.355388169
887.977073648
1022.02141454
879.168187961
878.769189678
860.581634847
913.161794356
950.72891742
941.941308413
906.123297893
846.476833318
868.229751955
960.17725364
983.198976803
975.923401649
818.799232816
904.587246263
962.917257982
900.554247394
806.295423313
889.844589454
808.174497981
864.981924739
803.786775619
889.652865769
883.879975064
866.646814424
887.005863174
875.57107037
961.729518096
949.868041692
974.44323605
873.208949025
791.127118797
880.894804688
914.916003532
813.428520311
953.210932739
908.58360415
932.707250797
756.888481708
844.244693067
944.179072124
1062.17764833
824.21956646
931.240220249
860.296678993
960.635494604
1019.03514938
843.247965003
901.014280033
857.626296161
822.92097351
904.092506499
995.368199194
899.454422437
760.259709251
923.105140501
848.957355011
938.861258584
902.049005024
1009.93234765
896.411952188
930.615786079
897.35985762
987.376059424
867.730195988
939.575147028
883.7120931
925.342635334
929.675436491
846.932321328
882.70028397
901.912065542
887.577779595
