3559548.4054
426164.43044
-2751396.9246
-2184366.87658
1809002.3468
2494827.42554
-289669.92936
-156202.90506
-538606.3854
5945740.7244
-449170.92646
-335284.5487
520351.745
-375551.7166
497608.7676
-2211116.707
-51152.83708
3907056.5016
-3322950.5182
-519286.9722
