2575422.75224
367338.9492
1176383.07226
2225618.86782
3006318.7922
3665840.507
-139617.0278
126558.300668
1075644.2706
5626098.6926
2884405.9742
1454466.228
3156356.39636
2525619.5854
355771.74802
-882203.5154
1581796.34984
5481488.21062
5842248.0653
202277.296
