3518.23
1685.81
6206.97
-35.3551
-9586.46
-5840.64
373.43
7062.96
310.162
-3862.16
3619.74
6242.39
987.665
2064.52
17961.9
2991.09
14373.1
-4049.74
12819
-1215.27
7546.05
4689.55
25182.3
-5632.04
-4650.24
1414.47
762.543
-1630.29
827.9
10535.7
11401.1
2067.78
15395.2
364.938
20710.8
4680.79
2271.06
3610.28
-4123.45
-5567.46
-5805.8
-498.258
8025.43
-4305.64
-3348.98
12237.4
-3712.05
-2580.63
-5971.51
3921.16
13251.5
-2599.29
-4645.01
5634.34
5465.16
4901.53
-48.0172
-2553.9
167.525
805.053
-2395.17
3042.93
-1421.13
3053.58
6236.42
2897.8
10289.2
2558.47
3940.34
2393.29
701.751
-335.583
-4757.81
506.454
-5740.13
474.767
3863.84
2339.48
-342.183
1148.84
129.702
559.921
-19443.1
-879.508
-986.208
2158.67
-1910.48
1626.94
-3165.63
-5825.2
1302.03
2921.79
-3364.64
-3868.29
-1780.27
-5255.38
9970.48
16871.6
14379
-1501.08
-1648.66
1756.95
-4633.65
-1973.54
6663.84
5642.33
2923.48
4216.62
145.41
1542.47
-1800.24
3497.74
5361.6
-1104.12
15326.8
-2956.91
3230.77
1286.52
2638.73
-914.321
-1075.48
-2206.43
107.994
-767.339
-3113.66
1608.1
-768.384
2417.26
412.127
-6256.18
-1072.2
-5735.74
13493.2
4534.72
-3431.15
795.88
-8787.36
1193.02
1493.62
3901.53
-1693.63
-2289.35
-10906.7
-1237.01
4181.51
-7.68015
6910.25
-1306.75
6529.88
-7198.55
4254.07
99.651
-2505.41
2816.79
-969.906
4007.75
-931.346
2386.52
-4116.4
-2096.29
3650.73
-1242.3
4913.1
7726.59
-561.959
-273.195
-653.063
3426.25
7954.82
-1162.12
-6372.95
-5327.23
-2756.34
-82.718
-11.7533
-7700.97
-3009.5
-2503.01
2583.15
3882.19
-1002.28
-321.078
-2177.2
556.654
-1670.71
-603.974
-405.873
12705.1
403.605
2046.17
-11536.3
-1958.32
-2519.24
420.859
-4278.5
-110.516
-6622.64
-3531.9
-6793.77
-693.626
-347.169
-3256.43
-907.217
1632.39
-4005.71
-2553.18
3182.08
-328.486
-9355.16
9717.85
2328.56
-302.054
-4553.17
-2180.91
815.027
6276.56
343.239
-176.815
-4991.85
316.429
1188.87
7739.88
3336.38
3100.83
5045.56
-3331.8
-4351.81
382.194
-997.643
1114.28
657.033
8308.81
2985.1
4959.78
-1307.25
14908.9
1843.79
-1011.22
9746.21
10486.8
-8537.46
589.267
-827.435
6615.04
4331.51
-3409.84
3768.93
-912.87
-604.859
1836.75
707.286
-757.675
1925.62
7697.91
-103.518
-4223.04
-2987.6
-208.989
1314.29
3853.31
122.654
9706.04
-330.797
-608.466
2585.09
3228.31
-2166.5
-8886.24
-2925.99
3550.03
1410.85
-6783.62
-1320.24
11538.2
-79.9217
5127.82
20684.1
7972.17
-2239.81
5828.28
19735.2
-1224.21
5435.03
-4046.04
125.298
-752.408
-762.145
-2609.85
-4584.99
-7162.79
-5447.14
3954.39
3185.26
11153.1
62.8754
-5115.83
87.1091
-8172.19
1811.92
-352.99
6857.72
-215.246
-4868.77
-1990.66
-13343.5
548.891
15067.4
9423.91
-732.147
10644.4
3466.14
9311.07
-5865.81
6824.06
-6304.58
9406.67
-1104.26
3047.29
-7116.3
837.291
1027.7
-1745.78
1276.95
251.574
-1961.56
-3024.82
-1087.22
4591.39
-3100.08
-3435.3
22443.6
2280.92
896.2
-8040.56
-5681.27
159.952
932.247
-1575.99
6776.76
2326.84
20737.1
8638.84
-2800.83
13211.5
811.872
286.567
6418.05
6317.32
1808.02
453.987
4406.41
-2471.43
-2246.34
-861.122
38410.6
-7091.18
-1856.85
1047.83
1013.53
120.62
-771.359
649.706
-15344.4
-1701.5
-5682.96
16183.9
-933.185
-245.408
4540.45
3871.05
9189.11
-6553.01
-4750.35
5140.86
940.086
-297.23
-3289
4663.53
6161.02
22787.5
-910.997
9494.32
-5015.21
-658.83
4880.9
75.8681
-2286.82
11175
-653.241
13879.1
920.004
-804.377
-7705.31
-510.788
3351.32
9087.2
-3232.88
1935.89
68.896
11413.1
1016.11
-5124.62
-813.8
-1535.39
24420.8
17912
2506.9
5651.03
28142.4
2509.68
-4157.14
-3486.58
10281.8
4661.67
3616.05
1426.98
-1025.47
-4992.27
-1990.99
3463.76
-9203.07
-155.557
-5054.55
-484.02
3646.24
970.137
-2264.39
4991.9
-788.377
3751
2293.14
-4584.15
3634.94
4224.82
11867.3
-414.097
4314.57
-12188.5
-2130.45
-1358.31
-934.001
-4474.34
-1164.48
6335.51
13359
-5207.11
8378.62
-1551.18
-973.053
334.18
-456.005
10785.8
-1483.64
-2698.06
2012.89
726.333
353.901
2883.93
-7378.76
3556.64
-1008.3
454.854
-3952.11
2150.16
5090.66
1075.18
-184.287
-3505.8
4427.29
-6992.64
-625.916
8101.84
-2057.06
5887.37
-3512.54
-6690.61
-4915.24
1783.73
9681.67
-5288.93
6985.85
-194.816
-2218.74
648.868
72.1514
-9318.7
3075.57
8994.33
-4851.67
489.185
-950.189
35035.8
1471.92
1269.11
8779.87
-917.097
-5219.27
5117.58
105.485
2509.41
2289.8
-7453.76
2637.73
-5659.68
1838.33
11922.3
-1752.36
2532.26
-2183.21
2698.37
6330.64
-8481.58
-1706.57
789.889
1261.3
-148.773
7044.85
-10457.9
4439.57
303.445
-6491.91
-671.303
-7416.57
117.565
-2116.97
-45.1845
976.804
-794.576
9473.85
-3423.39
1400.51
-337.816
-9792.06
19916.8
-744.124
-6431.84
-3304.19
43.2623
5312.98
1346.43
68.3884
-5479.66
-2693
-1129.73
-2429.91
7613.34
6021.68
637.877
-860.379
5659.85
-497.414
-629.349
5174.32
7495.67
2268.82
7051.55
-2330.74
-2898
170.393
-11600.7
-2704.68
3012.98
-3226.24
649.799
-4068.99
6474.59
-137.428
1808.96
438.527
4231.47
-5862.6
-6757.57
7445.45
-8271.19
-2006.03
-2843.47
-643.645
-5065.31
3209.52
-465.325
-1769.42
5097.53
3553.43
3846.86
5463.14
7692.36
-2536.63
7943.08
-557.282
-2330.37
64.016
523.261
-11581.6
114.583
-401.184
-2970.14
-236.527
-5223.08
4591.5
-1503.51
756.531
-506.971
-2250.66
10.359
1265.13
-4772.81
6539.81
3057.15
232.19
2361.27
-1765.66
2944.76
3200.18
7027.71
-1103.98
-2341.4
3509.87
5468.94
190.465
2443.73
-3171.95
24150
6501.45
267.051
-3361.45
-6921.6
-2629.89
1301.65
13317.5
-1828.74
-146.21
-7004.06
1423.26
7784.59
-5064.77
-2638.13
-94.6538
901.022
11165.9
-1727.08
-827.037
-1561.74
-968.345
-5883.08
12871.8
-3140.38
4907.32
6639.5
11631.7
-15754.3
2677.06
830.863
992.028
-8167.91
-8452.48
-1047.96
-1354.47
1462.84
8951.74
2758.03
-1413.81
-1672.86
-2997.73
-4458.05
3133.73
-380.487
-4253.56
1742.83
844.623
-8262.48
-5679.93
-2961.75
710.195
-338.063
-521.886
1433.4
524.062
529.147
256.773
3263.71
-946.23
3148.73
1005.19
2396.04
3745.98
-435.121
-5511.97
-3816
-7054.62
925.05
423.326
1901.92
4395.59
18628.9
3464.91
113.69
9119.39
-1171.26
-1939.03
978.736
-5677.05
-1732.18
32.9767
-2476.36
4730.35
-686.464
3204.61
-385.106
6649.41
8061.6
-11886.5
13053.2
-5285.1
141.855
8074.2
11331.2
4067.89
74.3032
-1682.19
610.779
641.658
6796.35
-2570.57
-1856.42
106.68
13667.6
-8483.94
-2689.99
-14371.6
406.798
-1219.89
1240.15
-5411.27
2592.95
6379.73
4160.59
-802.392
32217
-2958.63
-611.35
12218.6
776.817
4324.71
-651.321
1671.84
-4932.75
-4720.93
9665.36
9968.1
27299.3
186.93
9389.75
-4740.62
-2669.52
6484.86
949.496
-55.336
-6344.78
-186.424
1903.45
5987.72
-2131.36
-679.225
-1382.6
1150.61
12074.6
10169.1
3212.35
-481.047
3710.93
-1795.22
-3855.57
1687.19
7161.78
-778.489
3361.78
766.987
12871.2
2068.27
6985.3
15.6668
2519.48
-1546.47
-579.684
-2377.35
2206.09
3648.67
7750.26
1616.02
7684.81
1414.19
8708.65
3054.47
-112.303
8845.72
18502.3
2195.13
-506.902
2286.17
-79.4318
3771.95
5261.46
4367.5
4356.04
-2206.36
1084.74
7942.22
-545.892
-4523.19
864.165
2189.01
-3108.31
11950.6
-2229
-3808.13
-613.161
-2269.96
-747.904
6423.04
3223.29
-791.869
-2353.86
476.265
-11178
11270.9
-288.571
-1147.5
-2533.96
-4743.23
2939.93
18085.6
-3667.52
-11728.8
3035.36
-410.154
3305.97
701.773
-1961.46
-1770.69
529.998
-257.662
4898.56
2581.56
-2382.01
9429.56
6871.37
24.6644
8554.13
-505.859
891.477
-113.964
2748.33
471.326
8930.03
4760.4
2021.21
-402.52
3819.67
-576.223
-602.666
-1533.48
4856.04
6963.18
10523.5
13558.3
-3002.21
-2807
-1101.77
-635.104
-677.209
-1106.76
-4415.02
-4725.43
-934.92
5139.15
11357
-5534.21
-2453.65
-464.228
-8709.9
10503.4
4085.74
-1226.35
-427.984
3975.98
-2583.8
-4142.7
-870.383
2890.6
6313.37
2792.9
1948.22
-816.407
3208.37
-2833.49
41.7732
3232.67
-2642.84
716.796
293.352
-371.922
-803.023
2842.8
3555.76
34837.4
1762.62
688.124
4042.36
-3303.66
11933.7
2336.79
29752.9
-1037.76
-2517.8
6250.24
1336.45
9938.69
9206.08
7176.35
-12449.8
1237.73
5745.99
381.259
-5269.34
-3611.84
-605.366
1720.59
173.268
10021
-6587.22
72.98
393.853
-299.089
-458.228
20745.2
12361.3
10101.4
3630.6
4398.66
-6481
4140.23
-23.957
3281.74
-2887.09
4383.43
-1441.18
-1004.98
562.116
-2127.06
-8004.12
-4946.54
4302.59
10831.3
-3481.35
-2287.97
1320.32
21833.7
13488.1
10675.5
-350.37
4943.77
5994.79
13582.1
3455.53
3257.77
5597.48
63747.9
1767.39
7779.58
941.159
2117.12
6074.22
361.299
11665.6
3880.86
2831.91
-285.418
-1768.64
2261.03
789.484
5471.47
333.773
-1770.88
5415.34
347.352
5874.93
251.292
4249.14
2322.99
14168.9
3955.26
-2493.76
-585.797
-6589.39
-269.054
-247.074
-948.644
409.128
-12854.6
609.594
1848.76
-1671
4612.88
274.1
-1200.33
7912.55
8426.96
2027.25
240.29
3503.74
-6301.93
-9469.65
2647.81
-1165.5
3476.85
3519.66
2261.21
1353.12
4555.56
257.744
11870.9
5648.64
3500.51
-4167.13
1331.74
28179.3
3033.65
-94.6377
884.629
4282.69
229.31
7214.16
-2083.62
6431.14
4800.61
-833.345
-3158.19
1243.17
8927.54
-4429
4924.28
1071.11
3010.03
1544
141.94
3896.58
423.964
-2665.85
6881.68
-2670.66
1104.99
-4281.63
8547.09
-3235.06
-1155.32
1834.36
18277.2
1220.89
1947.73
3561.1
-3184.57
6538.38
-905.076
-4468.46
3388.63
-1577.1
1636.6
8522.76
-10642.6
1381.09
-186.036
-2799.04
-60.0176
-8250.37
4256.07
203.774
-1510.24
178.239
-796.456
4999.85
-3724.31
-2320.23
9367.07
2935.53
-7874.33
479.01
7740
-2911.31
-350.61
4057.8
-69.7717
2294.63
-4711.68
-6786.16
5052.94
-1449.48
-11574.1
7878.45
1063.96
5305.26
-725.088
659.024
7379.04
-9852.72
-11989.7
327.738
2195.77
195.461
28466.5
4216.74
627.595
6785.82
2964.65
-2174.92
-8928.8
-609.048
3292.82
1889.54
4252.44
230.678
-11.8094
-1499.85
-105.997
945.706
472.737
-5809.19
-1907.49
9491.95
11412.7
434.438
-1351.45
1560.78
-700.23
525.244
8163.36
-3447.74
1621.11
1707.61
-857.061
3752.13
2493.56
-2962.53
-8258.27
72.282
-2649.39
887.406
1301.4
-1242.65
8004.23
997.376
2632.94
4714.11
5909.07
395.695
-5546.33
-2221.25
3484.82
-10897.7
1600.02
467.8
-2238.28
-2955.45
-4309.88
4481.94
6012.06
-1765.48
-1140.06
-3885.19
4566.49
-4240.47
-3088.34
3424.24
-855.47
-4746.2
24643.3
-340.99
-165.529
-6294.72
4734.62
4540
109.306
-535.313
742.557
9570.86
19757.6
-2375.89
2224.32
-969.872
2860.69
-779.685
-779.753
1084.95
-4986.01
2113.22
-575.544
-2778.21
-878.161
-2185.72
-552.732
-2705.49
9469.95
-1537.83
3442.51
-3097.58
11460.3
-5463.57
-3387.37
13329
-2138.93
5782.67
-8620.72
-9684.98
-4286.84
-2356.08
3710.09
3688.97
-2143.13
9394.93
11249.4
22062.3
-16335.4
-2681.78
59.407
-704.913
-11386.2
6717.53
-179.525
-644.225
-2174.35
11076.9
-1797.83
-5312.53
1009.8
1278.82
4423.45
-4479.57
367.851
375.229
4148.55
-3361.58
2861.73
4892.17
-5594.14
12834.1
-1270.33
2678.52
2631.32
244.635
499.573
-2028.7
7921.18
2237.7
-5181.72
2408.9
-1595.17
333.347
4266.13
6620.38
3418.13
5528.65
-7522.47
5400.4
15163.9
1982.55
-4273.52
2234.55
-2382.99
-3914.54
10197.6
195.68
1732.58
847.073
-52.3739
678.4
-345.971
-9835.65
-3736
1045.3
1919.27
5131.2
-2330.94
-3515.54
-535.125
-3666.31
5507.69
-5328.21
2637.9
1492.84
-874.522
1280.39
-4116
-3048.19
-299.837
-6804.42
3124.72
-4211
-611.569
-1627.72
-778.182
1531.07
-1215.01
1673.59
1986.99
2361.09
1721.45
620.861
29233.9
29169.8
-125.849
1192.22
9641.15
-5358.33
5781.93
2887.75
-747.148
690.663
8730.79
1606.25
-1808.89
2675.82
-3689.9
-1099.08
10837.8
5649.04
3068.29
3488.19
1755.68
378.682
16420.1
1471.2
-2529.65
2165.7
-22.8587
-3216.52
3521.88
-3174.53
3653.9
2345.77
-1894.5
2898.15
-2970.61
2187.56
2410.85
752.609
2389.42
1093.93
-64.3897
3359.08
4211.64
-318.264
1047.2
-1367.12
-1402.8
-3741.42
6921.77
16244.6
6532.62
1452.48
1236.24
1936.17
-611.96
1749.43
-1225.37
4032.52
5713.35
-2787.57
1305.17
-8455.43
12153.5
-1079.83
-10937.5
19710.5
-383.952
-9324.33
3807.29
1630.87
-2729.06
-242.049
4016.74
1775.58
5862.94
-4075.03
15144.4
802.151
-6508.33
2104.8
-1312.88
4308.76
-3306.86
-4653.64
-2453.16
-3587.95
136.315
-2308.91
4551.95
2450.81
-1101.13
3775.69
12848.7
57.5337
1411.65
-5880.85
-1577.95
3932.78
-6593.64
1391.76
115.384
-4043.49
-3713.27
-3930.16
1499.88
5422.25
15781.3
12936.7
1600.73
-5737.65
658.43
2658.22
13128.2
605.833
-2351.59
-4103.47
177.714
7296.79
1742.11
19.8936
6377.17
4772.23
855.718
5075.31
5535.76
711.007
1045.79
10495.8
2477.85
-12077.2
8440.9
-160.222
1798.78
-466.926
8271.12
3610.71
2979.08
1136.36
7284.92
-1157.4
731.229
-1384.2
-5446.02
985.65
1094.89
2137.81
-4378.79
3300.22
-809.656
2669.19
4459.14
10483.7
-1621.42
-255.789
8379.05
-418.353
318.914
-7541.58
307.87
17994.3
15918.6
-711.564
2212.62
4651.38
4630.15
4729.16
-2174.43
-860.182
-698.325
189.023
-857.204
-1805.9
-1048.04
-4517.56
-3389.66
-1850.89
319.729
4841.56
-2105.4
643.161
2712.93
-2437.14
11558.9
-5500.41
28937
-641.671
10.1591
-454.125
71.2342
-3146.39
5210.28
-5287.59
-2403.41
20034
1455.6
-5838.47
97.123
598.286
-966.231
7509.47
166.837
16923.9
-1865.72
1198
-3374.99
-1533.35
-2997.74
-4155.22
3078.51
-779.057
4015.12
682.243
1028.78
3542.79
2454.67
-500.739
-9109.74
-3432.76
4245.6
7987.69
8593.17
1646.47
-4695.05
-1264.08
3574.78
22473.5
6052.27
-10257.4
3494.35
331.402
280.021
8227.3
10873.5
1324.91
8721.91
-2885.98
673.626
1807.35
8355.76
-6360.56
696.777
10062.2
-237.337
243.96
12935.3
9214.49
-2794.27
-4036.8
-772.874
3197.77
-2038.64
-16641.8
-5657.69
-161.334
16000.5
6394.13
1913.71
28227
17333.5
-3474.76
29756.7
-2582.91
-6266.4
-517.822
-643.35
-2535.66
-8541.43
3774.07
-1161.8
2004.72
-5115.36
559.393
1251.73
6521.75
-1636.96
6399.29
6745.8
297.446
1514.74
1843.56
-1043.19
8348.28
20203
-3875.1
4831.9
16104.6
11269.9
-4900.09
-113.801
-3211.95
-1496.38
-2472.76
-9880.05
5440.82
-6299.72
-397.635
-7247.81
14890.1
17291.4
-1556.71
2538.33
8081.25
2244.16
6949.16
-4043.12
268.82
-545.837
-395.733
2303.85
-300.601
-1262.95
-3632.72
-4806.44
2805.47
-2520.88
-8171.01
2498.45
-4251.21
-5955.87
2956.94
-634.701
-2307.72
874.772
1911.24
-2966.89
1011.41
826.736
17600.3
361.551
2172.27
-794.799
-2092.03
-2154.34
4117.05
1749.98
6708.28
-11254.9
3092.91
171.609
-2872.64
-2069.52
10259.1
-505.067
4529.92
2719.15
10059.7
3188.35
-1815.05
1658.77
6864.26
-948.456
-5335.31
10814.5
-2663.4
6330.82
-4573.59
-850.832
-1369.83
-2624.36
6563.51
68.7393
-3593.29
-13987.1
-3827.95
-2193.78
3415.01
-2283.43
-658.06
-4262.42
1475.92
8054.06
4234.09
-297.517
-555.743
-1720.02
-6895.46
-1026.74
-6968.41
-8929.32
6923.79
8586.81
-1309.79
6796.47
17291.2
-9559.06
30550.4
1589.88
-1576.5
-6375.42
7373.25
-8760.02
23023.1
-1855.09
8876.02
4423.99
1594.42
5052.59
-431.358
-341.986
-3185.79
8646.86
-5951.25
-4473.34
524.956
10140.4
-3028.71
-3577.16
479.304
1561.55
-3706.7
4038.55
-1217.09
2374.05
15044.9
-1441.91
2964.21
-20160.8
-2618.84
4705.19
2566.15
-918.464
4881.86
-3528.44
7170
-678.365
60.1216
11477.6
944.217
16312.9
-3476.78
-892.657
11.808
1404.52
-1823.98
2164.58
-9075.23
-8637.67
-4560.28
17562.5
1140.6
11411.5
-2312.92
-566.013
-6889.21
202.917
2877.57
-1385.21
880.644
2170.05
-973.191
-1850.33
-957.721
1902.96
-2330.09
-17617.9
544.592
3587.39
673.052
7182.6
-8609.5
3687.2
-6859.14
-6887.37
-6099.33
-41.947
1357.39
10.6096
-1142.07
-5212.49
17052.9
9992.22
1548.68
-588.978
-3438.72
-5541.4
-9683.88
-4726.93
2359.27
1582.45
-1036.21
-6551.14
-1934.43
63.6252
-997.614
6135.11
29416.8
29097.3
18898.1
754.861
1228.65
4860.84
-1264.5
-8045.23
5008.58
-683.529
-5065.3
-1935.09
794.788
3969.77
-607.243
438.213
13871
963.638
-6993.03
773.043
2684.65
-2914.43
-1924.29
224.789
860.491
279.731
-11364.2
27264.9
5347.34
-600.372
5447.47
-7783.7
2399.81
5637.18
-38.57
-1851.91
4661.67
-8519.1
5232.99
10524.6
-3502.81
516.034
-2551.28
9911.57
3635.68
1594.91
-2081.61
1132.12
-1719.9
1088.52
-14038
1766.22
4589.9
6276.4
-688.19
-4376.07
1575.98
6086.4
-235.344
32935.9
2369.11
416.837
3107.23
5911.21
7286.99
-6403.83
460.87
8638.36
5124.54
16788.9
5324.91
-5209.41
-1181.01
8553.85
-451.475
2387.26
-8334.2
1100.63
805.112
-715.721
860.38
1714.11
1517.59
-2138.71
-2928.7
-7459.36
1667.07
-430.584
-4276.02
3211.62
-12573.6
5351.8
-3244.51
-3019.95
-2877.88
-534.051
-157.316
2897.64
760.794
6100.24
19453.6
11050.6
7645.71
-1184.22
9141.44
6107.18
2869.05
722.556
-13217.6
7454.1
3587.12
-10855.1
-2306.84
5499.83
-1997.48
-755.649
-2435.1
27.1215
-4292.54
-7192.44
12324.2
-641.513
8381.55
-1092.91
10886.2
-5202.79
7462.12
7307.95
-4595.15
-3328.05
6430.18
-5445.01
-7803.52
-333.623
-1155.8
-3096.16
-888.377
-7599.52
1165.05
-911.492
2276.18
3563.97
-975.044
648.731
16909.5
-7671.89
899.08
-5925.53
3390.08
4696.52
-1892.01
-4605.8
1956.22
1016.25
477.343
6388.27
-3686.15
-1117.1
1384
2313.38
134.309
832.278
9763.02
-1412.31
-4448.69
2464.37
-243.529
-3384.48
-312.626
5042.01
1470.82
-435.674
-2733.47
-518.542
1880.62
-4111.64
-3695.61
-963.311
-226.242
-3485.03
5397.44
261.674
2240.94
7541.8
1659.32
6514.53
1402.89
-964.743
-3084.73
789.427
-7176.27
2533.05
6469.74
7251.7
-2732.65
14325.5
-3877.4
-120.458
-3733.39
-4076.49
-686.781
18694.9
22801.6
816.168
-1039.64
4622.72
2651.84
622.69
-391.938
10287.9
7481.42
-5154.45
4299.5
12562.4
5983.96
-2389.49
9421.95
-3556.67
-3640.66
1319.38
9851.36
-1644.28
-4437.19
4726.67
-220.584
2445.73
506.814
-6482.46
-676.694
-3525.23
-6109.54
3295.55
14101.3
-4398.78
-2406.12
-2022.17
70.6271
-1206.87
11629.8
8116.95
14605.4
5321.62
-2024
5912.71
-1711.73
4922.77
2692.02
-502.237
12922.8
1311.1
8954.82
273.626
-6645.77
5080.82
3321.35
-1544.84
3864.69
-6120.31
1458.94
-1877.37
-5345.24
8259.14
4207.75
7394.31
576.609
1287.39
4160.1
3072.74
-1485.12
1011.41
-2515.81
5639.85
-14101.6
8642.86
717.065
-6265.93
-4260.66
-98.7092
5081.89
8703.28
1547.77
402.478
1259.29
-2656
-12781
8183.9
-2598.32
4875.15
16925
2354.89
3462.37
10461.6
-433.84
-1816.19
22993.7
35463
20421.2
4157.67
851.068
-4111.89
1309.61
-5511.84
-8917.79
1580.52
6584.9
3692.13
-684.403
24122.7
395.347
328.717
-4184.42
483.266
445.018
8892.15
-1546.51
-2309.38
767.995
-2209.82
4152.34
28249.7
17823.3
-2778.2
136.661
-663.746
-4753.94
13886.4
334.362
-1601.9
-5758.88
-1274.16
-1037.26
-989.011
-298.866
759.628
985.654
3095.91
-133.379
-5938.62
5937.93
3812.7
-209.125
-1098.03
3316.6
3575.41
-4249.68
2363.34
-1493.8
-2878.31
-2258.98
7910.18
324.987
2158.41
-1116.57
1447.12
-2571.15
-7265.66
2379.1
13863
892.763
397.509
7972.31
14553.4
-6216.45
-4648.79
-3763.05
2795.34
1555.14
-3475.91
1999.16
-5844.54
-845.201
7466.58
2111.29
8168.02
1524.87
5930.33
4435.85
-525.914
2860.86
18278.5
-2299.66
4096.03
97.4431
-3813.68
7320.09
-3816.07
10086.4
824.293
1376.31
-705.288
-6119.96
4168.23
6353.13
8424.86
5495.7
-1681.56
8613.22
11764.8
2756.18
-2104.7
-1875.72
7259.62
6918.84
4009.23
-2247.31
13042.8
-12517.3
11415.6
-1717.21
11701.1
599.272
11794.7
4652.31
266.895
-507.378
-1857.55
4376.71
25723.6
7536.8
5820.59
-7387.3
-5486.19
4261.81
765.451
1289.7
-786.758
1885.27
4162.91
5814.1
-7712.47
813.899
1607.24
-2816.48
7603.48
258.11
501.771
-1894.45
9441.07
-11426.1
1663.39
320.995
4618.62
3220.11
3100.6
9060.22
1190.83
-1715.09
10223
-1378.81
3231.83
9988.46
8565.75
2002.28
5287.42
22896.4
1203.88
-2105.27
-3300.61
228.506
-304.601
676.627
2538.01
4953.93
254.628
5336.71
786.499
-87.3887
132.24
9577.3
11918.4
-567.11
695.46
9746.81
19434.1
2883.05
2054.23
3665.85
7470.74
1342.02
6185.84
-892.589
5971.49
2515.95
3346.91
9627.66
1861.49
4341.61
10929.6
1565.05
13261.1
-147.14
-1988.32
21727.3
6831.82
3148.63
6718.37
-1733.26
291.368
7517.65
98.5249
693.693
5385.69
-1552.4
5871.67
409.226
-9722.55
-805.784
4620.08
6114.82
-227.963
7613.27
13028.4
-3219.32
2700.04
12141
973.47
12937.9
2911.19
-6001.13
-672.482
2219.11
2416.78
7651.82
-225.106
3269.22
6333.71
439.884
-1564.97
1656.23
-5547.34
594.854
-1009.1
87.8948
-3670.37
12816.9
14601.8
491.167
225.585
16805.1
-152.535
-4371.91
-5213.24
119.938
-12879
7849.18
-1565.31
-4453.84
7007.42
4802.85
-5550.02
-3447.78
16662.9
-16377.6
-5944.86
-815.018
-1023.71
-2305.75
20202.1
-1309.77
-3157.56
-2288.22
-1129.25
-955.097
2468.55
1551.48
1310.96
-80.7152
7370.12
1595.85
1684.48
4687.3
-278.925
1086.65
3901.59
24481
-3127.55
-332.533
3834.45
457.76
18070
5907.78
921.473
665.019
7843.45
-14065.6
-9026.58
-8439.93
3777.29
2040.49
266.393
1086.83
-1307.71
2722.27
1744.74
2261.96
1826.56
399.468
-4812.7
2071.61
3667.11
2966.9
-5044.3
-372.364
148.338
24.1828
5777.73
1276.63
-942.255
205.313
4107.81
3278.08
2640.3
2858.44
-2532.06
502.788
914.839
4879.1
-1820.95
10057.5
-5468.05
1254.29
-12074
3230.62
522.794
2343.37
-428.13
8564.28
1165.12
3499.52
-6208.89
-7600.79
-1197.12
7233.58
-6124.5
-1508.99
3261.77
743.856
3408.61
-406.677
11356.9
-2682.03
-2079.25
980.84
1266.94
9781.23
13427.6
8089.38
5082.26
-5178.85
5351.88
-1179.75
2913.65
-622.252
4052.2
-1552.56
-6488.09
-430.784
-3543.42
8338.81
10657.5
-4954.54
7202.03
-8312.61
1971.79
1023.14
1000.97
207.274
-488.608
-3370.86
-2183.46
2957.4
-5025.56
3129.64
-3847.87
1186.49
-806.531
-1483.11
227.787
1827.67
966.442
1469.7
1975.93
1669.92
5016.76
-1876.82
4733.98
4280.45
-5010.6
3017.49
135.543
1133.89
14980.1
799.837
333.636
-4547.84
-1702.79
6840.18
-3634.71
14368.4
5046.59
927.215
-1905.99
-1913.87
-1936.87
-9439.75
2241.19
14920.2
-1364.42
1524.45
4019.73
-694.002
3162.64
-944.209
4771.06
26111.1
3188.63
-259.748
3579.73
7350.42
1627.85
-6983.89
-5520.99
6899.13
-5274.54
100.968
21575.8
13243.7
-6186.53
6736.84
1645.43
6539.85
-12291.6
10733.4
-1975.55
-9484.29
12003.4
6752.74
7196.38
6959.09
972.955
-694.836
-845.228
-8593.82
5.50104
-944.07
5032.72
1046.85
174.593
-1715.11
-11.4551
2449.59
-216.336
7281.58
-4175.68
13862.4
1753.53
8865.34
4712.94
7240.89
3065.1
2881.97
11862.2
-4321.02
1612.73
14892.9
-9106.89
-3071.2
1890.15
2788.3
-213.726
3626.04
1427.59
629.445
19767.5
61.9532
-2999.14
-8040.1
2056.4
1742.2
7785.15
7739.54
-549.972
4597.56
28861
-278.535
7802.78
459.915
5963.75
6011.87
1404.7
958.267
3363.54
5636.56
3026.55
2463.44
-1167.2
5726.88
-2091.77
-1749.16
-1090.39
-1645.98
-278.715
-2650.71
2283.47
-1146.31
492.349
-5893.37
-5263.22
4898.69
1540.51
-793.415
196.503
986.506
1527.09
2322.64
10008.7
-427.955
60.1695
7937.67
-6158.17
758.586
5501.48
2065.27
-3851.25
-682.546
-9004.07
5831.36
1247.53
21137.6
2053.85
4049.74
-3032.41
7325.64
-1308.83
-2875.87
-255.592
248.529
-2807.93
-6439.75
3548.54
12907.6
-11648.3
4766.87
4332.32
1688.32
5.45809
-534.341
570.611
14425.2
94.221
14909
-112.572
1450.85
1636.44
-117.631
-7516.47
6096.58
373.437
-1543.82
-4454.78
-359.54
-8571.35
6481.99
-2628.54
6412.44
-3635.6
-2119.98
1242.41
5846.96
1046.17
1620.05
-7996.33
9483.4
5033.1
1065.82
-4925.95
-1892.7
343.302
-7347.41
-1797.83
-1248.73
2134.8
-3065.66
-5465.99
-1093.76
695.722
-1982.77
-369.995
3869.42
-15547.7
-626.601
1236.19
-2587.4
826.902
4874.32
4150.26
-7327.95
-3030.2
7194.83
1678.23
-726.863
1194.01
-1271.6
1532.09
-2607.72
-14010.6
-4283.32
2726.13
-610.111
4335.36
-1235.53
-1343.22
1529.1
1152.53
6621.26
5437.91
6171.78
1300.69
-2293.94
-4327.69
457.548
3757.53
403.194
-169.171
16878.6
-93.223
10300.8
3394.71
-181.471
993.503
-416.809
5081.26
3524.93
-59.4041
2392.15
6417.96
18510.4
180.141
-2761.37
-4286.63
15121.5
-2637.99
267.041
-1990.76
-8072.68
-857.233
-13493.4
-1493.43
-169.209
2638.66
-5368.59
759.125
941.858
1007.34
3312.45
4205.07
15198.5
9006.79
1780.43
-3156.63
18.188
1252.81
1889.32
3340.24
7063.65
-1693.34
-464.587
1456
7018.62
3390.52
17219.2
10405.2
17079.2
-5958.59
4348.81
293.466
12864.1
-1918.89
1607.15
239.75
-6610.85
-1484.79
3151.93
4911.55
1390.31
2332.24
7711.3
1619.56
-2269.06
748.37
9696.07
-354.488
13556.6
-2306.19
3191.4
22751.9
-9767.47
-1170.67
-7148.32
-5104.22
-1676.96
-6147.85
10508.9
168.882
12384.4
5792.38
-14919.5
199.562
-1122.64
381.488
2803.18
20396.6
9672.24
5971.16
2932.51
-10232.7
-471.3
-1265.33
7563.28
8343.63
3950.88
-7725.5
-2441.66
2811.15
-4739.72
-319.51
-9502.96
1734.14
16331.5
521.115
2936.81
13190.7
-1379.28
19147.5
-5724.88
1863.16
-4159.96
-361.461
5371.98
19208.8
2468.61
-168.936
-2886.06
-2210.46
-2297.47
-430.923
-4855.48
4516.17
-8237.88
-1489.53
2282.89
-1578.58
1700.82
-3248.86
1293.43
-2073.98
1419.1
4406.25
-2765.92
10621.1
-1296.45
-495.226
887.046
-414.771
961.613
-93.7682
-852.21
-1191.11
1748.71
5392.76
3313.33
2498.67
-1141.91
-14781.3
-3909.62
29285
-686.644
-5515.25
-2797.56
-2079.62
-836.444
794.825
4789.68
-1497.76
-4166.42
1068.69
1029.93
6647.52
-1390.52
7305.66
18607
-3384.6
120.197
2584.53
-896.269
1671.02
2898.45
-1318.1
417.421
-3293.34
522.395
-449.565
1681.09
-3819.12
1330.13
675.37
1527.24
1739.18
8708.86
5411.55
21091.7
5370.13
2883.9
4971.97
1811.99
-3714.55
-843.37
5103.11
524.101
-1675.54
1491.1
764.506
-826.247
3532.05
4317.18
-1234.78
-431.642
1144.3
8779.52
-7218.32
5244.42
-3329.99
-2762.7
3042.77
-3465.36
19927.4
-11745.2
-774.92
1288.72
-957.197
-703.583
9209.06
10481
-1982.24
4986.54
865.333
-2231.32
2381.44
-873.554
5564.14
2093.54
9564.71
4636.49
4757.84
10113.7
5393.56
2916.06
1237.67
3831.62
2336.04
-1006.34
6883.37
-1221.99
3187.81
-1727.76
9551.41
5524.21
-1963.04
1526.02
3114.9
-5360.31
-625.376
-2918.74
4579
-1614.68
3974.28
20346.7
-209.24
351.91
5513.41
-12866.4
10618.2
868.463
5484.74
864.269
16308.6
1074.82
-2024.68
1695.51
496.506
-8653.09
-4718.57
-873.316
21507.5
10351
4992.77
5013.91
4681.71
-15193.7
2107.9
-647.518
-1927.64
-750.558
4050.27
347.411
-4427.33
-1393.1
-610.906
275.071
