-236.579
745.189
-40.4107
-60.924
24.9038
250.06
-136.747
409.861
-30.9346
-55.2996
-18.945
168.678
-45.7012
-865.662
729.173
1165.59
-566.766
-41.9
799.966
-720.961
338.089
-579.877
582.003
-727.584
786.424
765.667
-994.508
208.572
513.578
-154.274
258.276
-245.149
188.912
-321.333
1042.23
-325.95
571.617
-403.628
-1115.3
507.546
862.504
-296.784
287.565
656.335
140.791
-429.689
-268.625
-270.698
716.149
138.288
172.991
-120.044
16.1351
-348.577
86.6633
-38.0135
233.707
107.216
-314.524
471.627
229.936
62.0314
-39.2937
371.174
-93.8371
247.864
761.887
-555.129
152.488
196.548
-341.691
-359.28
1004.38
-16.4821
378.929
-264.818
650.323
-156.83
38.6243
-790.597
401.85
-382.351
60.1664
512.368
504.532
272.142
-284.087
-576.667
-2.00952
-7.61307
713.928
923.038
-290.34
-545.726
617.122
356.699
-108.105
-145.045
770.103
-25.3676
-261.443
-137.912
-136.628
-20.9839
144.319
383.618
-176.945
269.025
-412.184
512.353
-190.686
-341.25
711.69
-42.6459
261.595
-753.155
27.2343
104.416
-50.0227
556.559
-91.3665
248.039
630.126
-342.722
-384.142
6.12658
800.712
-358.925
-188.781
-238.41
390.854
617.501
985.079
572.61
-441.561
-91.8487
413.006
93.729
320.359
65.742
673.768
-633.559
-7.17067
-26.6795
443.283
400.432
-27.4045
617.675
-66.2651
256.235
-125.771
-113.406
-82.6398
-28.6054
-60.7661
1375.99
-760.847
471.69
35.7052
-394.42
361.905
287.77
275.544
50.566
-186.512
-74.7185
453.447
632.478
867.998
1136.31
-245.705
-67.8671
540.999
7.96884
125.958
-501.43
-70.1532
216.479
-1572.01
-281.952
-474.976
491.814
416.108
-822.772
-453.32
496.583
-143.384
-822.105
401.432
310.896
24.5399
-196.507
126.314
-204.374
-221.934
-1210.15
530.725
-234.591
1009.67
-27.4986
157.329
135.784
310.351
1292.66
-620.666
-325.866
-605.892
304.648
142.794
-401.775
47.3121
436.278
-302.675
84.8085
-240.251
121.016
-35.2959
-948.039
-299.828
-209.295
259.945
-65.6841
-14.1573
249.911
365.715
-287.864
519.067
141.597
-299.365
458.415
-20.7108
-113.746
138.125
-178.643
149.858
665.082
-156.613
272.291
394.511
348.11
371.934
-470.112
1022.85
147.014
99.6413
566.187
77.0515
229.304
-129.844
681.727
-718.529
-271.542
560.537
20.2048
-555.618
210.32
33.972
-420.421
-544.37
509.622
182.73
-297.7
-516.017
384.502
-157.798
-145.458
-368.607
-1.21499
-256.783
-311.901
225.842
309.833
-232.768
234.383
-561.926
-255.796
128.768
-247.773
-295.896
385.135
-534.641
-577.66
-201.622
-51.0339
37.5504
66.0912
60.9991
24.0055
-821.708
32.2146
-750.178
746.74
344.989
-223.189
-441.974
-175.064
109.139
666.287
840.031
-363.925
220.061
381.962
437.335
-373.633
741.9
15.6483
-490.125
294.167
-88.5836
126.14
-659.207
91.9839
14.7639
-397.212
-781.998
324.589
83.5226
212.111
508.412
278.861
-62.3702
-385.116
180.227
96.8627
-141.467
352.388
94.2876
-1117.73
-124.364
-742.619
259.213
992.862
-749.855
601.568
-333.042
-489.527
-192.589
210.051
-667.231
249.352
278.117
-87.1439
442.77
250.029
-536.236
78.0958
-200.11
4.42581
620.072
123.9
881.789
-357.254
-956.04
229.261
782.59
643.141
-409.055
146.61
313.187
676.539
1195.96
-35.9292
-69.5192
205.434
240.756
-25.6902
-35.6764
261.257
-182.423
-977.08
318.512
949.755
361.21
195.016
349.09
641.85
467.336
333.393
-64.0944
-169.477
-195.056
-117.603
-664.294
-224.935
-15.3216
-81.0418
295.03
1035.45
-350.331
-908.044
-252.004
1040.34
416.827
296.814
-297.736
-425.336
-193.981
255.639
726.431
-168.196
-30.9247
-158.669
-727.525
266.185
468.928
512.733
-612.35
-1742.78
-64.1588
314.494
-592.672
340.829
455.09
-270.275
-269.084
228.12
1202.31
679.38
1009.62
-70.6022
45.2448
529.179
-14.6096
-233.373
-467.484
689.026
-232.752
607.212
-30.052
-219.506
-368.309
-51.7013
776.239
572.774
-503.526
203.989
-1073.6
-285.371
-440.619
-357.13
-237.647
71.7111
-29.178
109.626
-903.844
-1233.81
418.105
-549.504
173.813
47.0091
1282.89
-302.509
-297.07
-367.561
127.747
-235.674
-211.99
713.015
-309.502
165.843
-754.171
-428.989
901.714
127.421
-28.3606
620.51
-182.785
336.53
-158.245
-599.877
-454.507
475.946
20.104
-263.181
135.583
-466.527
423.328
-129.093
-594.135
852.447
-1312.45
-4.31533
-599.891
19.9184
534.03
168.68
-689.716
-164.512
-286.322
672.065
39.6187
78.5665
-1090.16
-53.758
-80.096
37.5254
-179.83
-239.275
142.48
-132.722
490.144
-299.366
354.19
-262.038
242.988
-217.385
-298.804
95.0145
-286.526
105.302
-167.192
441.565
-608.69
1350.86
-489.176
94.982
407.45
-391.176
-1231.52
-214.847
-163.373
477.972
-519.662
363.967
-158.229
-318.912
32.6251
301.429
-215.094
24.1624
84.1834
455.062
262.639
26.5561
-50.7506
232.505
-441.255
-214.159
-94.1564
-498.223
-256.368
-892.824
-148.919
296.233
-130.581
561.143
1182.36
-101.151
-536.794
-257.426
-190.975
486.205
496.123
577.119
209.63
-183.45
-315.337
223.674
-224.573
-98.0053
250.364
-479.819
-270.114
-137.56
282.005
583.02
-118.715
448.83
325.191
-375.079
-126.317
156.243
-167.342
1130.02
-137.489
-305.148
324.113
181.842
169.365
-583.084
762.461
132.964
298.148
-76.6321
362.511
-260.328
-130.819
288.1
-658.608
-727.577
437.394
-253.092
-384.758
-208.309
-222.406
210.818
-450.959
-329.669
-106.392
-441.407
-132.241
688.583
231.455
880.881
-43.229
339.64
467.864
260.229
797.304
404.562
145.586
-100.087
-477.639
-431.797
15.1905
-234.942
-79.9034
529.814
517.369
998.211
758.092
-458.982
-680.416
694.468
-183.496
-414.403
16.0124
7.47858
-134.09
-494.935
354.821
-64.6231
-342.262
-43.3935
857.822
739.618
-146.199
-180.966
361.447
526.755
-1345.13
528.701
-136.796
331.316
449.193
195.954
-447.169
-152.78
-358.818
-323.422
-404.507
461.086
379.303
-878.712
-990.205
-8.77032
574.946
615.086
34.9784
333.789
-454.208
161.418
202.138
-257.418
257.995
-400.516
-85.108
-628.174
-439.751
791.32
60.2209
309.278
-565.496
-453.732
280.625
115.705
370.39
416.517
380.189
-180.34
413.772
58.5158
-48.0926
-428.352
-675.469
-343.74
-113.272
334.119
207.174
277.17
174.674
-450.915
294.288
-167.987
-439.271
78.7547
289.589
-25.842
-762.728
-436.896
-86.4546
349.678
533.366
-304.942
101.057
164.54
109.644
709.662
308.242
-183.483
278.013
-174.369
-342.56
778.752
-755.034
572.658
17.5714
748.012
586.68
131.569
50.3906
286.257
-864.438
-1475.58
159.092
-54.0906
-279.51
467.947
467.584
212.737
487.333
829.188
1.36253
898.708
38.8881
16.9364
-118.988
-339.448
72.7786
327.259
-147.304
-442.043
335.459
289.394
59.3293
-371.493
119.594
264.966
-191.511
-496.631
165.581
-217.736
-456.432
228.188
-314.733
474.423
391.979
-475.417
-216.792
-394.317
-1367.28
-259.793
-287.244
-53.1209
-49.8719
176.195
141.069
-269.543
-674.615
541.328
-24.5441
52.5007
100.477
-104.813
527.611
-256.649
-157.144
298.528
102.725
-507.212
-204.371
-128.876
-431.302
-719.86
-331.14
-150.626
-243.563
-250.719
-600.064
-922.837
-6.7964
786.998
245.695
220.653
-654.042
38.5358
-5.44289
640.413
172.138
284.96
229.744
311.618
203.242
266.804
316.844
240.014
-227.54
667.05
-823.052
-342.047
-314.472
638.491
-25.3102
-61.7075
201.695
-497.675
815.312
253.422
50.6083
-228.565
136.559
556.111
-60.0632
-1142.07
-576.324
287.716
-289.08
-176.076
21.0291
-149.458
324.762
-219.139
244.578
65.4408
282.682
172.195
-375.167
400.954
223.719
117.867
879.855
286.927
240.47
439.798
-473.434
271.631
545.765
-447.369
528.664
693.372
813.026
198.754
193.821
-160.948
-649.748
93.5737
348.992
-627.299
4.45205
442.364
79.6407
-68.4044
129.296
65.9569
-457.781
-649.872
-328.522
-215.208
60.2151
819.496
617.535
-580.682
345.332
-364.514
449.234
-46.9271
625.446
700.401
277.853
381.597
-97.3391
-143.096
-63.2494
76.8889
-50.2807
236.624
1909.3
-476.67
-44.335
-188.66
-79.1988
478.925
381.179
-8.39882
-1036.55
11.163
-225.591
-918.305
-479.886
858.535
305.899
337.679
-116.16
301.002
-245.731
892.725
14.201
-682.462
364.647
402.402
267.451
220.337
137.807
575.241
143.509
-0.62344
392.809
-527.59
-3.57624
-404.503
-226.193
534.325
-17.9761
-169.496
-162.881
-381.069
-179.287
-166.947
310.727
-146.436
-350.61
-228.171
-803.433
-539.309
-947.577
369.456
219.628
498.451
-286.71
72.3483
56.1844
-1147.83
-106.964
-381.917
123.268
425.845
-709.885
-734.507
-446.855
-578.13
654.69
-258.285
-737.032
41.5277
17.6296
-126.684
1160.14
-117.463
-1066.06
-326.897
-222.88
-401.743
-69.8963
91.5601
-396.554
-28.9767
-154.373
-246.551
-442.341
-6.83524
380.819
681.893
-778.784
562.151
240.481
-646.255
-94.0906
76.4836
-255.581
367.528
-1192.31
-15.9955
-314.169
643.284
-587.664
-359.02
-17.0419
-235.032
447.556
179.508
745.564
240.384
-196.894
365.962
-409.586
-164.569
-49.0123
24.7947
-51.7256
223.742
1407.45
155.988
-439.092
-114.771
-378.508
-217.475
-501.671
-59.075
564.664
-331.842
-22.7474
-14.9462
-533.151
-49.8245
670.668
323.747
-171.027
-214.745
258.451
-124.371
-281.309
-78.4104
-84.3595
146.676
-530.314
782.747
298.741
522.832
-1795.83
398.967
547.395
952.416
-403.037
10.9517
-93.6778
223.109
1055.01
352.015
8.14121
-75.402
342.565
-94.5157
291.217
-405.447
-570.23
-333.927
-365.385
-256.561
-297.776
-548.268
203.396
612.205
262.673
9.03583
-1204.14
1211.77
-1015.38
-633.133
-601.613
77.3632
-414.301
158.915
-546.716
93.1635
910.354
-856.836
-191.567
343.245
460.005
522.683
-1168.75
-120.23
-426.562
-182.396
357.231
926.341
455.186
-319.613
512.798
67.8964
271.045
544.16
-297.716
25.7835
-256.657
-192.629
-324.75
-29.5564
-3.66511
962.482
-737.465
407.123
48.6061
114.499
86.3678
46.7705
-63.0091
-485.673
-305.214
93.4598
790.247
598.832
344.283
183.549
417.663
-568.357
-777.414
-246.294
21.5156
-60.2287
-227.907
-19.5865
155.681
-252.015
441.359
506.346
41.6929
657.997
1467.25
210.079
7.23333
-205.953
718.784
12.2796
485.691
145.35
-251.701
-245.042
403.431
532.414
-264.199
-451.399
-30.522
102.247
202.131
472.464
39.0636
-125.337
473.827
652.999
-54.181
-217.43
996.125
459.673
-324.344
500.538
-400.973
448.878
-12.0646
-529.936
-810.076
286.611
-603.251
-120.566
-692.356
63.5122
-162.503
-168.093
-25.0734
463.226
214.373
-248.904
-28.8828
-438.164
-10.498
-1476.07
-62.0596
109.964
130.85
689.329
-656.281
-681.541
-314.872
-420.661
61.4485
-248.354
869.145
121.039
-743.009
-332.812
671.542
-658.52
-19.4542
267.731
291.816
48.4667
317.468
569.111
167.152
-539.109
-123.809
842.627
374.847
447.788
-247.473
-278.599
-154.51
178.834
-132.571
-335.469
519.642
-53.6446
82.5347
390.868
-449.082
195.815
-1107.69
197.076
-182.005
-555.256
-156.692
896.223
-280.882
963.306
425.127
141.756
-124.202
-164.936
-91.6959
-736.063
441.975
550.14
558.692
209.394
181.886
-468.849
474.609
-201.993
89.6231
-201.423
22.4278
99.1421
-338.498
-26.7978
288.235
138.745
-721.245
36.9451
-908.177
441.361
244.301
103.319
588.831
-254.939
18.3427
649.49
404.759
-696.247
-318.57
-36.1367
364.294
-99.4416
424.632
-551.797
-327.676
15.5461
957.418
-319.079
-320.962
-362.961
455.567
361.675
-243.772
170.37
-551.959
232.598
-437.354
132.026
766.222
173.397
461.939
52.2447
-15.9465
311.985
440.465
282.657
-222.488
-225.984
641.392
-106.857
533.962
-128.022
635.679
-45.9892
439.651
491.195
634.886
-74.3016
684.949
-454.712
-417.481
-214.062
-150.125
-238.748
-88.4789
773.432
-346.398
-206.242
-823.633
130.364
-287.8
-173.738
-713.561
224.137
-403.926
-342.807
684.827
-195.242
-313.019
153.427
-665.387
316.548
-51.3301
181.115
118.226
-106.2
-265.663
-930.336
544.165
928.459
42.9212
-367.489
286.478
371.84
-377.311
-356.126
627.203
232.811
-883.878
64.5242
390.895
-346.349
-172.704
-83.9634
-29.8078
336.816
278.496
-528.403
-293.543
397.164
-793.14
733.005
-404.745
260.182
170.273
-135.686
-346.813
75.4427
285.934
-565.088
285.147
-77.2333
243.043
41.2237
454.694
-209.007
22.4068
147.042
-16.3604
-257.925
-380.055
-95.4861
115.831
822.677
-396.437
-215.229
-310.565
898.506
255.786
616.343
371.3
-81.7751
385.655
-368.491
534.677
-45.1169
263.998
16.7923
-423.887
-281.293
-246.695
701.748
1085.84
-1418.33
-265.198
-137.699
627.806
754.65
-372.146
-522.363
653.641
32.354
-178.29
65.1416
-495.973
-303.001
-74.1001
272.831
-310.389
100.98
-287.838
-20.1702
247.65
-1246.48
298.163
55.0295
478.692
868.231
-378.413
383.725
869.929
37.486
507.118
545.963
375.518
-807.011
-231.462
625.433
-488.094
-38.4783
-273.689
366.124
151.455
710.145
-877.162
335.444
91.3372
199.59
173.538
-48.3981
-707.079
-129.213
648.259
-558.103
290.178
-408.344
128.075
-184.315
-238.469
168.251
52.1507
325.934
175.352
-165.921
114.589
10.4914
-170.301
196.92
387.446
247.71
-197.951
-200.491
-628.576
63.6707
833.776
-279.559
166.377
-10.6384
-345.856
713.157
-365.178
47.6449
224.861
-251.521
218.168
220.255
-406.805
-159.296
384.345
3.78963
277.14
-555.379
110.141
-371.685
-275.37
-422.549
340.14
268.383
-41.5133
-711.94
422.802
304.41
1193.12
793.143
-184.182
233.187
-118.578
637.735
292.084
-622.95
-249.532
272.168
-269.5
-641.262
304.799
661.098
-7.75577
-217.506
-636.563
341.028
-88.3577
-224.963
-458.947
560.081
-456.078
-191.27
-2105.66
308.063
-178.353
-252.792
-187.868
-169.497
-355.314
-89.8356
270.163
-474.278
-235.314
427.024
519.494
715.422
86.804
761.394
809.428
902.319
1311.35
310.961
584.909
657.96
157.198
-254.68
188.558
210.001
-30.1609
499.573
-376.221
-583.11
281.007
-242.837
68.5631
975.376
-55.0383
-260.957
562.118
563.15
-106.512
-262.86
759.216
393.242
-404.349
196.063
84.5593
-403.145
-3.09007
-86.8309
-604.308
340.815
76.7586
1091.81
-94.8786
445.641
852.139
-198.763
-202.524
526.879
-378.769
293.661
937.588
150.491
-447.981
-56.5127
234.801
79.1258
644.263
-288.013
-35.34
181.814
785.013
-128.96
3.07747
-421.042
-118.308
518.875
-420.556
-89.5769
-325.753
351.459
15.1994
783.549
334.043
553.927
166.034
-478.607
-209.306
-808.495
-204.099
-317.813
26.6767
151.577
-825.38
345.456
527.49
80.7818
97.5612
-159.009
-1155.82
-133.66
-96.5112
-351.329
417.579
-956.763
511.1
-734.588
-68.9674
334.781
165.076
575.035
-424.279
350.032
-299.31
1085.15
-141.615
-109.644
-164.357
258.49
-211.1
132.902
-1098.27
-396.994
726.544
-3.40331
386.716
-47.4596
494.867
-15.9731
-115.629
459.28
426.498
-484.805
-194.265
175.529
977.257
801.97
-181.21
-281.969
381.33
-175.072
1197.53
337.93
-273.188
-67.7742
-44.9346
-81.1953
-26.2941
-184.599
256.176
-515.716
-55.1057
-538.397
425.841
289.56
217.665
502.15
340.672
290.291
504.178
132.284
-372.835
-1.50086
518.466
-516.022
-63.4629
-190.211
-977.654
-140.778
409.972
281.206
-142.633
-621.702
-106.545
186.129
-242.817
-1300.51
-199.405
-430.599
-405.907
1621.27
-920.303
-868.753
8.39203
-33.9311
193.284
233.805
-182.151
381.618
785.76
209.17
456.064
20.4352
656.494
512.894
622.38
-555.839
242.52
-775.915
328.017
-320.099
1137.94
418.822
461.737
262.977
630.444
-598.424
79.114
77.6645
267.391
-791.909
-112.075
132.95
499.615
-162.431
228.345
122.876
294.815
302.615
-277.983
-309.094
473.705
-451.475
254.693
83.9443
197.818
-195.942
859.056
-43.3964
419.918
940.788
-5.11488
-288.452
469.483
-184.462
308.224
-313.878
-638.197
425.402
68.3068
544.296
309.358
44.6226
110.741
-52.8128
-1089.31
506.87
357.929
196.718
671.394
167.884
285.029
167.323
39.8978
528.505
736.215
-129.343
300.419
109.868
-306.985
77.2369
-462.836
436.219
856.58
8.94133
-279.192
464.749
547.194
-413.54
-182.1
468.638
189.834
288.178
-835.135
416.207
265.869
325.292
281.708
-32.3185
-225.246
55.3384
-344.253
534.851
153.056
721.411
-69.0242
-73.2428
389.195
154.084
161.512
272.159
-12.255
55.6625
-151.807
56.7378
1024.27
1171.76
92.6795
526.273
162.879
442.441
-192.222
294.529
311.16
270.795
-403.661
103.066
-1698.95
74.5795
541.342
276.267
3.60521
-887.9
395.384
325.071
556.343
262.878
-181.899
-23.8982
-399.715
105.093
30.4411
-156.482
-185.699
-372.088
-271.131
-305.611
37.4073
98.7168
-329.381
-333.012
-5.63419
-390.274
-977.077
566.403
-448.507
-284.695
564.075
-521.358
311.363
507.137
128.503
316.294
284.62
-488.885
134.302
-238.186
1784.15
-225.346
147.469
-188.671
205.226
-60.9471
-402.153
-761.583
-63.3678
-123.382
772.282
48.1274
-773.012
-117.588
-137.965
159.189
421.695
173.33
-326.45
-978.897
518.697
-478.009
401.432
-272.732
-68.7746
873.048
422.763
-599.543
1154.81
-55.5867
-269.787
-415.581
719.767
437.664
-369.662
-1336.66
-553.161
-356.367
876.621
54.4532
-243.363
52.0007
-543.568
1045.12
-151.889
106.365
445.202
-29.1006
338.302
-365.948
-159.231
-536.249
-275.274
-58.5835
150.118
296.471
-221.652
622.18
-264.221
-1161.82
26.5564
66.1982
69.1488
278.241
41.4756
-1268.35
-258.65
-68.4513
-208.805
-3.73743
29.2647
141.904
-92.8038
309.077
-719.343
574.185
-425.246
-43.8677
469.723
-165.823
-356.344
-183.373
616.592
-416.875
30.268
189.645
-106.311
156.672
-206.929
-67.385
130.309
300.946
-136.389
-655.888
142.995
29.9998
16.6071
249.346
181.637
-395.828
757.558
777.933
59.1869
328.894
19.9711
-507.24
-120.738
-751.168
-299.701
-66.7976
93.1358
197.541
-279.875
-319.353
-551.097
-142.69
556.88
-1129.57
-677.697
-291.666
-188.471
-885.338
-137.85
-168.92
104.725
110.095
-221.481
-241.833
-410.017
-670.582
86.2753
-82.6918
-346.164
-165.955
7.69461
-638.457
753.674
-886
-814.93
516.54
104.447
-35.8875
78.3913
-299.707
417.863
66.6558
383.649
37.5166
191.945
-246.586
200.934
473.047
-719.639
554.723
-87.0174
31.3307
-230.269
-38.642
-111.65
313.514
282.308
372.095
320.366
165.978
346.187
173.643
160.406
-359.486
127.846
29.8121
297.388
-367.35
276.375
45.7491
882.775
-66.3692
1218.02
-107.002
-472.473
-391.012
-197.957
-230.75
-484.763
-452.471
-80.8966
629.371
-183.478
-238.17
-51.1752
454.836
500.319
191.756
1170.7
383.953
-78.1011
-620.788
339.137
-187.162
365.411
-366.581
-172.87
-396.327
7.60033
1108.63
-1239.78
-597.373
638.031
223.115
-582.731
-632.599
513.043
-129.183
-604.913
-9.11664
54.6168
68.0494
540.078
-88.5843
-180.869
-113.123
610.776
772.345
378.589
216.053
-317.429
-469.536
-86.552
-693.94
844.39
228.474
328.894
-338.993
610.386
-553.463
1250.91
492.552
450.765
-66.0555
70.1349
569.755
-295.622
348.96
-236.912
-323.312
-190.76
-298.485
-254.289
655.154
-269.839
-748.794
358.358
-75.3537
520.388
400.468
356.469
28.6607
-18.1389
-484.181
-1124.14
-401.266
806.476
346.417
425.85
-574.837
191.962
-216.88
30.8681
-785.067
-1291.56
-230.318
46.2277
194.929
-218.731
137.943
-442.257
-66.6888
398.689
704.101
-143.238
-169.019
-511.109
187.399
441.086
-208.103
259.865
-1057.76
229.59
562.912
293.606
177.224
177.073
-125.685
547.18
351.119
-488.207
-143.672
-105.032
-304.136
228.298
124.648
669.511
-131.226
-568.564
-184.677
71.5713
176.045
-217.274
346.696
317.833
-106.726
1221.88
638.276
-242.581
-24.7898
99.3545
35.5087
-222.515
331.21
-8.14273
129.49
792.386
-501.628
369.413
229.971
254.433
50.4679
236.623
-34.0457
177.603
1239.26
545.267
-83.4813
-430.543
-6.19926
-166.183
-368.182
61.2435
-392.293
712.403
-13.3672
-534.494
30.6018
-13.4547
106.563
-532.915
-173.728
118.898
397.789
-485.256
141.527
98.1278
-580.235
-81.0453
-132.361
115.151
533.433
116.154
-1013.79
1069.67
-176.125
-654.459
154.371
52.7823
443.766
312.013
-67.3527
216.443
42.6346
37.5004
661.327
-914.038
484.891
-68.2371
539.992
308.5
410.276
152.177
-262.219
814.082
559.621
-364.998
205.282
104.512
-127.346
621.127
-134.615
319.031
-322.572
923.973
599.891
-266.167
-128.572
-866.79
-176.981
-238.813
579.425
387.766
-192.04
107.595
-237.39
98.6891
-240.103
273.602
-475.654
243.827
29.0062
-779.454
-146.399
68.5569
-189.877
31.993
217.408
-242.638
-989.005
269.926
-105.311
-13.9543
-350.027
690.727
442.446
-38.5119
-796.242
-1295.68
90.1663
-561.734
-72.739
-25.0697
8.38168
144.076
699.214
-14.4018
165.151
-18.7302
275.507
-455.781
331.481
-11.4951
-220.506
223.722
-512.936
624.316
442.253
-373.181
-440.462
50.0126
-196.031
100.458
304.76
-350.178
456.228
295.577
-485.483
4.89026
166.186
1178.04
702.109
128.092
-111.235
751.036
-397.583
-14.0836
710.507
102.075
-414.235
618.88
408.645
-932.169
491.6
283.828
-373.731
120.067
-524.363
-169.459
47.9942
214.312
-429.479
-239.315
-709.408
-148.256
901.905
666.704
1413.79
-31.2296
-453.329
-24.2353
-488.423
344.288
54.4649
-847.717
-166.376
-177.728
47.1776
-123.923
64.1954
-600.843
222.278
-786.799
-344.017
-213.89
-387.775
98.2096
270.148
42.5079
-234.281
157.919
113.003
-153.983
-192.303
346.163
-182.063
269.394
-225.69
-381.332
232.593
-171.198
-286.138
-261.708
330.007
49.3306
43.1157
113.004
353.489
434.838
-340.167
-414.077
-355.011
450.198
831.066
1258.39
-489.215
-3.85798
-60.8696
28.6498
483.85
597.472
-428.431
696.386
1096.18
-307.119
316.762
-303.989
369.412
283.621
-787.277
720.711
-189.833
-217.343
868.191
-67.7584
-250.701
236.701
520.548
-163.446
498.484
-9.34193
-531.701
326.718
146.675
-255.107
123.802
283.224
-0.376767
327.258
283.724
-120.188
-626.84
676.834
233.9
-68.9204
1049.02
-429.569
207.216
-387.615
143.547
-162.345
189.61
-324.784
-357.518
412.398
-261.945
-165.076
-198.088
323.184
-8.13401
-271.781
-891.899
-685.324
-423.39
-510.534
944.749
859.455
109.981
1164.32
128.495
343.132
42.7757
171.001
-663.89
147.583
60.0649
62.9231
-18.4556
-148.894
469.723
361.133
553.289
172.037
-9.83936
-760.574
171.69
-557.789
-374.996
-315.724
-77.9763
576.954
8.15327
20.2395
-191.18
363.718
237.284
71.5566
-285.504
-5.39426
-741.718
511.678
678.441
68.6684
920.359
-539.03
97.4795
-121.203
-58.4887
-174.368
240.117
-138.543
59.8422
-86.5246
-285.477
-462.262
-182.508
-876.323
98.7346
-89.4451
-278.976
-59.9377
195.558
15.8131
-455.506
-400.048
121.413
119.825
246.474
90.3261
669.182
354.676
1210.34
-102.209
338.181
-238.892
11.65
7.54776
95.6057
-808.65
-206.5
521.124
6.45141
-856.821
-1141.8
205.353
-679.189
-645.191
-714.707
-322.151
-590.68
-264.571
-241.058
-399.401
298.442
130.091
-78.8243
-764.399
-135.237
176.737
-880.563
-459.594
-180.39
474.157
217.508
-146.272
-381.809
275.19
-271.872
-177.656
-79.6006
-535.879
-223.581
78.7269
55.3181
537.131
380.487
790.301
231.238
-226.337
-172.813
748.475
-240.418
405.974
272.682
-435.695
-286.816
-242.208
232.601
415.272
-39.9537
-277.789
-677.579
66.8778
507.966
79.2395
78.7953
0.692503
-131.299
-267.939
-378.889
325.758
42.1459
-93.376
-451.13
-298.78
-443.645
135.219
-320.214
-388.993
536.414
84.7692
-874.565
49.3714
121.02
427.695
-521.322
650.624
63.9252
397.939
675.668
-259.225
-409.138
-404.169
1367.42
-364.296
205.124
-1143.2
285.726
-826.584
-404.386
-1088.16
-292.009
-496.32
-268.898
-484.644
1112.73
-359.805
267.522
-464.595
499.151
-506.917
446.979
-244.945
618.12
345.437
344.259
619.644
238.457
-604.131
583.894
-156.935
601.449
43.9815
-715.205
-40.8082
-10.2235
-153.882
-88.2575
48.3111
-172.113
-141.617
881.813
-595.194
60.8574
32.2803
270.987
-464.58
230.859
303.357
-413.124
5.75205
23.3205
-289.944
227.423
1264.99
515.648
252.628
299.003
271.252
129.292
-265.396
-210.829
28.3609
-445.49
858.914
368.303
-460.317
62.8821
370.739
-16.2576
-530.65
246.505
-92.653
774.966
-18.0191
-388.207
-946.022
-474.013
284.602
-7.27011
964.946
335.938
-421.616
-435.388
130.696
-495.035
-188.005
127.061
362.889
-505.519
152.39
-11.6144
-321.108
149.972
-101.026
37.7968
121.866
260.439
-226.681
611.192
98.0009
-280.816
579.069
67.3439
-270.691
-660.276
525.769
430.132
55.8112
624.383
-138.992
-128.115
480.421
-277.006
170.619
-288.853
445.961
177.922
261.825
202.985
-526.39
107.184
431.063
-322.971
-615.67
47.237
445.389
-335.571
293.781
297.005
-431.032
-462.033
-139.397
-677.411
-111.465
405.477
227.598
-474.899
-674.787
-503.695
-632.821
970.99
279.054
431.693
607.448
354.942
-169.051
20.2788
11.7327
624.982
-28.0268
-115.169
-9.98692
489.412
390.781
20.2336
-58.252
379.02
-275.594
-656.266
538.867
229.484
-356.704
-165.608
8.4321
153.896
291.006
-119.542
-58.5422
303.297
-254.661
-776.083
255.539
-9.2572
246.709
612.634
848.971
354.006
-425.688
139.897
-748.556
458.359
-566.769
705.734
411.382
-527.9
-89.6766
-8.82704
-496.947
-442.249
-266.525
-38.8213
609.253
-32.7009
-545.283
-223.839
-261.53
153.878
-715.515
-63.3498
4.54857
269.101
-77.7842
-170.854
377.626
303.269
529.5
-646.185
170.019
-119.222
-33.5173
320.815
1181.88
-461.581
-362.244
-311.086
-514.698
508.418
12.184
150.003
358.015
-373.783
259.288
-322.882
-662.101
-237.219
-51.0415
14.0623
-437.994
282.373
160.5
-397.456
11.6707
505.527
-676.599
-117.082
1065.33
-474.968
379.547
634.107
38.7075
-100.228
-211.152
-745.58
832.199
1138.3
335.787
235.158
-214.544
289.289
-102.269
-328.59
-531.932
-778.273
101.153
-176.06
693.263
392.094
-747.133
-488.331
468.814
-116.161
250.281
243.326
420.008
173.714
13.9499
-158.501
540.13
-473.21
-113.843
311.438
-468.208
-400.545
128.576
-97.7292
89.8851
84.732
-396.432
-304.783
-353.918
-408.556
131.763
-257.027
-876.863
216.232
40.4091
-901.585
-630.643
296.777
-164.43
-158.456
158.762
-481.058
-91.9157
-402.744
-468.306
-323.548
-207.163
-121.083
105.565
615.531
527.601
-32.5126
370.982
-180.488
358.462
-129.209
-340.915
324.956
-794.733
-1103.11
415.909
153.402
-346.143
-340.813
1039.57
-186.48
-622.421
982.834
-522.11
-1139.81
-155.087
783.259
-327.297
-51.809
55.7248
-39.9604
2149.88
37.1089
149.737
147.515
-655.778
1025.52
612.478
360.988
125.317
-204.77
207.679
-568.583
693.491
221.296
-797.618
-428.309
345.739
102.337
-426.733
-16.635
-240.408
1184.76
-267.416
154.231
-735.852
694.909
82.7247
-230.274
-178.193
396.67
466.65
231.53
33.9476
-176.658
7.21506
-1022.33
-473.166
-117.586
-391.534
382.022
-937.517
-505.266
-195.098
-294.467
248.605
-129.471
-4.81158
-253.401
-49.3459
-1036.07
532.264
882.156
17.5173
18.9432
184.069
-492.259
-466.979
-333.218
-50.9543
191.241
610.54
-114.295
1288.78
136.96
-330.343
-1497.48
214.113
-728.776
77.7599
949.823
114.145
-338.153
458.998
-78.33
-262.159
-800.453
474.793
-158.381
1262.02
-299.862
690.439
208.812
-137.463
-1140.05
-26.1735
-100.925
-1011.62
-177.677
-139.093
-433.393
-94.2509
788.105
272.943
8.81008
547.71
-179.396
267.392
-229.99
246.073
-399.887
737.906
179.403
-523.147
-275.917
673.239
-88.0003
-113.728
44.7938
26.245
19.6171
-312.533
123.019
436.001
3.13733
-295.912
373.849
316.16
95.6441
-109.113
154.743
-451.507
183.24
195.926
126.423
568.539
-237.129
-307.782
-450.493
-266.739
-641.879
187.904
-339.085
-165.697
-175.105
310.111
121.325
243.991
261.76
-537.926
76.1603
-238.88
-178.061
200.651
448.011
-400.528
678.929
136.015
768.309
876.532
491.943
-99.4672
-346.921
315.94
-219.847
-196.937
-135.263
780.32
66.0295
-692.195
123.993
-1001.06
628.349
-167.739
819.157
55.7383
80.6433
-111.172
-408.958
-411.136
-55.9926
-372.446
221.11
392.618
-12.5032
-126.094
-62.218
173.479
341.089
161.133
287.398
-494.57
247.487
-121.841
107.204
-119.481
-1201.96
-150.13
101.508
820.954
213.959
-311.484
-573.177
-477.264
-97.7294
-344.22
-680.53
170.028
-51.341
-91.4742
-6.10497
459.399
-359.27
123.997
-1261.56
36.2831
-214.339
-779.787
-109.79
-614.876
455.127
-65.6887
178.744
349.514
86.2255
325.406
-327.865
261.646
-272.934
368.636
744.084
-96.4377
-362.415
135.703
-60.1162
62.2823
301.809
-33.6008
-399.24
276.368
376.576
106.723
8.52127
237.207
-564.858
272.363
-929.05
-309.866
238.546
-310.17
-294.392
-545.015
-186.107
-659.952
372.755
169.342
332.454
-410.606
395.364
176.57
456.05
-65.8521
1074.19
210.415
-510.515
260.33
477.956
267.136
-581.467
-85.2363
-194.682
-394.261
989.757
71.4076
-94.5874
32.6816
-699.045
50.2911
-804.412
229.361
509.018
-241.598
28.8724
-767.731
194.385
976.335
204.114
-8.52836
-352.108
698.682
122.928
45.518
12.4306
-832.19
709.784
-822.416
-861.865
414.325
-358.379
-327.189
954.382
333.132
-1027.72
212.448
-554.818
-631.015
-404.65
666.089
266.494
-1108.32
128.407
142.361
935.531
365.044
-148.625
-525.658
-46.0593
571.325
-333.566
-442.408
-185.311
121.781
108.421
-773.007
294.062
268.228
26.992
133.457
-512.577
-108.657
-334.605
-21.2413
252.945
-1297.26
-365.143
184.543
123.043
306.102
-274.567
54.0002
801.864
136.44
-102.568
225.368
409.843
685.131
-252.244
60.2595
-705.151
284.891
-359.021
-231.649
-110.493
521.337
-880.077
655.941
272.261
-597.843
365.001
851.733
131.675
-191.818
855.007
23.6358
27.5473
513.733
207.2
-880.231
-1205.65
676.462
429.475
157.136
-623.11
400.095
-89.4551
595.857
141.761
-54.6667
779.546
380.336
494.061
-497.955
532.884
-195.155
-334.182
81.6554
-336.257
229.653
316.013
-402.878
-245.306
-105.651
-236.447
154.465
681.974
544.669
-24.4374
39.6818
224.901
35.58
279.024
-849.956
290.449
-510.814
-171.389
288.209
388.739
-386.983
232.748
-69.539
319.149
273.194
180.993
38.0659
-321.938
727.009
-856.796
29.7845
394.371
268.531
-901.199
-140.86
-1348.48
242.398
2507.33
-528.203
254.169
112.14
58.5508
1142.62
327.262
511.94
444.025
-628.234
309.603
28.6118
-223.467
-262.751
464.045
388.163
-887.672
902.947
227.125
495.377
311.828
-40.8281
-248.168
-331.704
99.9025
-352.109
207.333
384.134
-175.244
39.4944
424.938
561.288
-356.481
626.717
-454.913
276.979
497.759
10.7721
793.159
123.234
-856.067
-599.32
-551.78
141.947
121.222
54.2802
-522.764
55.5594
-394.204
-31.3402
-17.6235
89.0503
540.362
889.49
-226.398
55.8663
164.449
-22.2618
-1051.84
-150.707
-55.3525
201.995
-137.637
-330.282
-59.3065
67.4242
48.4663
392.297
-54.3579
64.3472
632.632
-303.629
530.711
-1414.06
-129.633
-300.779
629.336
-662.408
-147.059
-721.549
918.853
-703.452
19.1444
-305.311
-682.56
480.53
-174.844
272.968
-64.6162
5.60364
-444.603
207.709
385.752
234.142
-289.861
737.598
-232.186
-259.756
113.249
849.48
204.971
-203.828
320.068
493.49
-326.725
-305.534
144.314
-126.581
-255.214
149.754
396.287
486.943
-292.518
362.816
69.6929
-509.959
64.152
211.625
-431.909
77.0553
-667.992
386.425
-203.813
194.176
-220.764
508.893
574.497
93.0086
76.1493
-145.443
-106.481
415.416
-451.479
-314.149
33.7573
-205.649
-277.628
199.252
-60.4501
590.453
47.7918
-10.4017
-508.351
-326.971
-211.639
-232.69
122.438
-169.445
187.162
271.778
-207.741
657.618
451.687
10.0132
4.93935
229.841
-330.868
39.1778
-70.7706
338.844
672.312
-876.433
123.289
193.85
-1575.71
75.7605
-577.997
-120.558
-43.462
-323.127
1021
-518.96
-319.638
-57.5316
237.691
221.52
343.817
32.7618
802.755
210.209
51.5081
-253.516
-482.499
-36.6532
-45.4844
-270.271
65.3964
192.602
240.264
440.776
-1100.05
-59.0037
315.555
-394.36
-29.964
582.751
-4.16666
798.251
-690.248
93.2139
487.072
165.16
125.465
299.065
-180.663
319.5
-472.577
39.4881
-392.641
-374.727
26.5188
-732.153
285.761
-338.367
497.806
-769.328
103.755
165.84
-269.656
355.098
-224.858
167.157
606.601
-44.498
1088.39
63.5089
436.497
686.403
-502.306
-186.926
-219.763
505.225
707.306
-127.891
447.149
97.2911
-363.737
-238.406
849.694
-82.4077
-213.722
367.665
293.215
-652.333
-188.886
168.504
-16.1758
10.7733
-402.209
243.953
192.881
-54.6766
-465.349
563.907
-487.6
-10.1592
-197.618
529.9
-271.646
-192.886
-174.32
-1559.83
182.844
-86.8034
197.283
1150.96
1050.63
350.472
-84.9912
6.25477
40.5164
92.4723
123.242
-407.645
900.756
-1240.52
194.486
71.7099
37.4396
303.747
-887.742
-367.008
-109.574
-847.245
-32.0266
318.382
429.186
-987.097
388.583
279.337
-122.307
719.807
-393.47
261.366
-51.782
36.7712
-272.558
-733.596
-236.391
416.167
94.3288
-325.129
-593.56
528.257
-16.8587
-366.795
-298.788
-257.452
206.199
-506.631
-165.704
71.4643
-334.903
108.733
262.35
-939.544
-378.748
-314.988
-324.941
565.681
815.168
-292.008
976.764
-808.168
-201.639
-56.4947
282.552
435.005
-141.215
-495.261
-391.637
194.568
39.012
-526.223
-733.596
-434.131
-430.346
370.104
-416.903
69.7295
-205.665
38.5986
181.389
767.519
467.121
387.935
267.746
515.969
-202.704
-207.496
-617.674
-749.96
316.932
791.503
-288.176
317.706
256.726
248.145
460.8
185.785
778.164
140.646
47.9065
-1347.33
-656.035
-203.053
-913.45
-93.1823
569.075
237.621
-107.708
498.216
-399.862
-493.792
-379.962
154.882
172.771
-753.896
491.452
46.1628
194.101
-511.279
-554.71
-130.795
-422.693
-271.245
-353.798
583.415
-387.834
161.399
216.64
516.213
-295.441
-694.253
-366.804
1220.82
500.698
-639.744
91.6663
-172.125
-392.344
-152.581
737.323
726.613
253.829
309.688
-97.213
39.1555
112.576
-64.5839
-29.0023
-166.039
-95.5276
364.36
-193.913
90.4932
-652.487
-64.8451
197.985
296.985
-1025.05
216.791
-224.696
-92.6514
-1027.08
-456.101
83.0832
34.7422
1431.8
-481.934
86.382
514.178
-533.925
1069.54
18.5524
-276.879
135.833
-139.769
-188.109
56.8392
81.2857
-91.327
47.1987
109.137
-298.927
-953.728
732.76
-371.061
-24.4366
-332.89
-105.575
-452.741
620.093
-760.52
-614.274
-39.047
-109.79
227.445
585.59
205.97
542.171
303.537
168.738
218.783
497.701
-337.342
-1243.79
-394.185
462.638
-1606.17
623.558
464.742
31.4515
460.502
-604.58
-87.2081
418.168
169.804
-445.699
-37.0088
758.496
-506.583
50.0861
-18.9498
-180.483
2.4383
127.62
-153.872
269.357
-206.017
921.748
596.964
-21.8312
-409.164
142.792
22.3028
358.09
-25.3418
-592.008
-346.743
14.5226
-111.313
665.134
-694.078
-206.339
-285.394
565.274
679.139
-322.412
9.01588
737.696
-674.067
1167.33
542.166
171.497
387.937
34.2344
210.895
548.528
-210.061
-308.746
-98.5486
-231.729
439.462
592.02
-1025.4
-572.277
151.249
-510.237
-501.067
86.4635
281.785
-64.9453
-55.0068
63.5753
99.5693
249.87
-489.172
-146.764
-98.8337
-70.6922
-252.455
-345.053
412.208
-659.927
-388.819
-632.202
1010.13
-451.692
-297.496
-308.718
210.775
155.39
-363.365
1025.25
-12.4731
-1117.3
63.197
61.1199
-24.6365
-747.102
-779.82
-263.549
403.149
-270.397
-107.3
39.4128
-288.25
200.324
-294.186
-163.044
-797.182
-332.851
-629.722
949.054
33.8185
326.984
-29.6889
-61.1258
-67.5676
439.742
955.413
-270.901
19.0123
-51.9217
602.139
-599.378
617.378
-160.075
-118.452
-354.467
163.122
245.435
-175.095
713.971
51.5439
606.922
-196.658
631.875
445.224
578.437
83.8219
-385.194
-136.863
646.941
266.724
586.362
-380.117
99.0204
-114.874
-361.387
64.6895
-277.549
-450.306
407.188
178.017
-321.8
238.652
635.419
602.351
61.9766
349.302
265.642
-175.821
-246.351
32.5718
-515
682.67
-3.40119
901.569
-39.929
-139.082
-2142.49
-247.196
-316.236
261.818
-181.062
9.91434
467.823
441.544
132.459
-65.4203
92.7568
22.8149
424.985
-25.6268
49.1755
499.209
-205.854
14.8955
181.554
-871.568
-157.48
-55.233
-512.86
761.239
-229.685
-223.966
1033.28
912.332
188.747
251.338
-106.409
-170.657
-185.584
-286.032
-676.181
266.604
326.842
554.01
22.8273
-46.604
36.715
-234.631
211.715
-843.467
-177.493
571.496
-878.411
387.42
-12.7379
-137.127
-611.856
-324.594
820.623
-219.346
-314.662
-33.4789
30.3936
-244.03
-421.379
-1465.48
-409.393
-552.139
363.078
-1216.44
707.767
-35.8378
-582.148
86.3341
-459.965
695.251
99.9055
-221.12
-33.2787
-97.6785
1163.46
-101.3
291.405
646.755
-298.041
-355.569
-35.5391
409.677
-141.583
-21.0711
643.953
-626.301
501.249
531.8
-905.372
-69.9254
-364.659
240.708
-558.482
-282.835
-123.412
-627.703
313.072
309.323
-294.086
704.47
448.313
-674.862
534.67
-103.052
-652.985
-773.255
-519.003
3.79947
441.603
893.796
-4.13944
-579.588
-173.721
-406.065
-355.247
158.435
-37.1988
-49.7332
271.093
-183.128
-281.257
-372.878
-83.035
-299.854
-260.638
-321.801
-111.798
-73.0254
147.351
626.617
208.647
1055.15
220.793
-286.852
-173.291
512.883
149.991
-106.861
-521.73
-19.726
138.719
187.358
-580.378
111.095
361.871
-154.975
-75.8182
1317.28
77.6302
-302.98
-184.85
-227.048
-198.434
-550.729
163.172
-316.697
-520.075
-335.987
582.528
303.505
192.746
-120.805
268.732
1149.74
7.26142
-239.579
-208.914
-118.264
465.188
347.365
-205.021
768.701
-984.25
-657.207
-36.9992
-162.911
-483.236
-146.006
381.412
565.438
166.929
172.381
-62.0932
1261.59
-446.702
-1103.42
-133.854
204.446
225.394
408.067
-656.319
689.138
50.815
679.5
831.206
-1258.92
422.026
-65.762
134.897
-302.873
-506.905
401.889
-1047.29
-72.3843
593.807
-182.635
-56.3002
-509.619
503.963
65.7655
-267.792
-299.949
-383.557
245.365
-301.56
161.851
513.617
296.45
507.096
-641.59
250.055
-637.394
689.016
-831.645
-220.69
-715.582
568.023
-258.572
-112.243
169.467
307.01
55.4424
201.96
867.937
-175.155
624.856
200.274
-123.847
38.7378
-315.371
556.185
315.455
80.7592
31.8375
-330.583
-116.127
469.758
-106.491
189.26
114.631
-518.347
218.44
498.336
-377.842
657.229
-179.309
414.973
524.9
-427.971
-10.2268
-75.4475
825.056
439.551
-37.4866
-360.346
202.726
-146.174
30.7984
-549.281
181.686
32.2613
1247.59
-25.3422
-609.547
-225.026
18.2754
802.781
674.406
-163.292
121.903
-644.635
-183.958
-666.455
-206.087
139.795
420.69
509.291
294.11
-12.7959
-1118.67
368.72
-247.29
-599.799
-677.188
842.307
-263.092
-297.261
340.007
-702.824
-201.32
59.964
46.2982
888.323
638.446
-361.307
504.666
-49.9073
214.098
-218.455
133.342
-286.031
183.784
274.499
137.995
-295.193
-337.848
175.106
-841.35
-436.204
347.706
541.717
-908.576
19.7616
-1038.44
358.995
-719.516
-686.417
428.382
-387.237
-442.708
335.772
-166.897
58.4881
-336.407
-30.946
760.075
-401.101
-419.771
-731.984
-105.006
515.376
-45.105
-611.306
-668.703
-381.852
-95.55
-39.9243
-99.1231
-215.227
2199.55
-246.343
260.992
-657.065
200.319
-865.708
256.34
-596.802
-1032.46
111.19
532.166
-68.3894
-198.853
111.734
-160.614
44.1216
-137.658
-153.256
-182.745
12.708
-415.65
-194.627
-961.502
-117.904
-93.3267
525.105
-82.4623
-215.945
-164.22
-24.1208
514.607
-20.4169
-102.655
12.2018
-511.608
646.376
-736.769
-219.591
-626.306
832.213
264.406
-287.55
-386.678
-847.221
-92.3033
0.242186
-548.965
55.3785
-114.903
685.037
639.041
-7.06039
0.569783
593.102
267.674
-392.854
-955.962
-144.526
-380.334
-163.166
-430.57
-212.713
-581.282
-240.879
-684.196
-518.4
153.136
158.092
182.478
290.429
-9.23956
-481.74
-465.653
-1047.82
-47.8095
-969.074
-108.911
-111.813
-424.273
59.4199
-97.0938
743.511
131.205
849.466
272.957
665.253
515.522
33.918
-225.352
-213.629
-484.412
-83.3312
-263.846
-208.367
-287.184
-118.538
173.858
-281.474
659.771
-222.926
-793.204
1056.45
339.408
28.7035
-926.881
508.851
249.26
-242.768
-109.894
182.491
130.117
372.532
-191.924
402.999
443.31
198.971
-936.511
306.251
293.602
137.491
-1344.6
-460.95
160.995
-263.252
-117.932
185.528
-208.926
636.366
112.265
-62.3553
105.606
-760.788
-84.0604
-709.411
-83.2676
-51.0536
-652.329
-43.6678
87.3248
1236.7
-190.522
-58.6426
-170.759
-32.5139
-35.4706
-866.878
369.766
224.564
-8.33136
133.455
332.051
103.322
389.105
-746.911
-49.2093
351.991
461.896
306.994
-320.384
195.601
-269.512
-202.311
130.092
-263.227
456.157
-436.691
364.801
-478.374
-220.243
530.01
11.4069
-144.094
518.932
-680.526
-423.297
1342.7
78.9579
-304.9
39.3135
-234.845
-388.22
-41.9806
251.721
-585.153
238.804
254.646
404.769
214.184
65.1919
-1490.28
-344.463
223.529
563.096
28.2833
224.547
157.06
-684.815
-289.957
-746.778
-49.846
-140.857
544.446
552.218
-612.608
-179.632
-393.016
422.979
-733.804
396.7
-357.094
-37.0465
213.505
-12.6584
-479.144
-66.2836
104.724
872.092
-230.33
161.339
-208.626
603.232
-167.044
-507.495
-599.844
83.2758
4.69916
1150.84
-242.145
385.021
-759.301
246.126
-92.0891
32.8064
-50.4888
774.621
-145.113
352.188
1924.44
-301.993
-749.216
-526.992
70.8337
93.3617
-128.044
306.401
318.785
-91.8169
-552.175
-443.428
-316.994
-194.303
368.471
-700.515
-461.048
90.2933
340.758
949.744
-93.0438
-51.0683
-44.7241
-162.885
732.632
-837.903
830.288
-979.116
-262.573
5.80288
378.442
635.115
-173.659
-391.129
123.123
-106.433
642.975
-476.402
-352.523
-675.681
155.562
167.468
261.911
18.8563
-948.808
-924.953
707.426
-394.638
253.081
342.436
328.376
-429.402
135.685
-348.323
-111.819
-561.314
-491.534
-222.205
-487.511
-199.673
552.771
-110.07
-91.3856
536.753
-10.7175
-114.219
-367.67
484.244
-274.492
830.515
-387.649
-169.025
484.276
-424.563
68.7332
-511.754
161.119
-751.532
-149.486
-47.1648
243.678
100.243
345.903
-459.977
-321.002
-459.329
511.5
-213.865
552.192
-112.154
109.646
166.027
524.34
-1183.44
503.711
384.357
-121.644
193.078
-406.662
-564.382
1003.06
30.7754
-67.4454
11.5459
361.217
-359.274
111.165
-157.701
-592.994
872.994
-118.418
772.915
-301.662
472.656
-236.595
-300.713
208.359
-110.928
-104.514
406.411
73.0176
260.776
-70.8836
-315.525
42.2677
-486.961
-29.5356
-41.1467
300.499
-9.95515
-38.1387
502.478
-0.0204981
310.946
206.72
177.984
9.90963
4.01719
617.872
-336.196
579.815
-402.095
-398.652
842.741
217.764
502.465
78.6903
88.0428
277.526
117.002
-705.689
-10.7714
52.6077
191.312
-491.852
-234.412
-739.691
-9.66784
355.541
-110.208
545.295
-558.588
-197.43
296.624
45.1725
-828.423
239.834
-7.83781
-241.518
-127.774
-233.109
-181.978
-195.042
421.043
-533.644
-678.464
-391.971
212.377
-247.773
-62.2714
124.9
943.515
-120.679
-898.249
-379.497
169.815
-85.3353
-198.959
33.5117
-1999.58
384.337
-795.225
158.532
-156.476
-73.2877
392.388
-57.6555
617.977
-402.181
123.756
-453.457
-553.921
-591.512
-81.6376
322.191
-398.207
584.608
-624.041
1182.08
187.021
-439.775
172.395
-156.967
387.979
-203.883
-389.665
-318.572
-502.752
-212.359
440.537
-74.3081
862.843
17.6223
-846.997
615.666
273.056
-328.581
324.618
489.632
-576.364
358.048
-159.653
41.3301
70.8412
706.972
433.858
-309.807
261.891
-100.614
273.3
957.375
191.395
-920.771
235.36
-788.031
503.073
-53.7806
-536.422
459.673
-313.559
-529.261
719.742
-430.142
232.427
-32.5437
-4.96778
-606.417
267.871
-52.7797
95.476
-141.3
-185.909
-56.319
-26.9109
-340.46
-306.383
426.308
661.016
102.508
-396.708
-194.612
-449.525
-59.7665
-859.49
-124.469
-464.591
-202.783
461.43
197.608
618.434
228.893
-220.006
-29.9061
119.24
130.18
-321.66
9.50268
492.246
462.817
280.462
-300.923
50.1834
185.569
626.731
-1551.11
-449.9
-125.486
582.128
-7.89115
-269.417
596.055
219.75
-183.374
42.9306
44.5208
508.707
-128.931
405.776
1110.92
-701.469
299.82
-39.9769
605.951
-56.5524
-65.7982
-306.351
-311.761
-531.918
-996.236
-541.26
-74.6216
-246.819
550.713
-505.095
303.304
724.012
458.728
136.512
-51.3755
700.03
657.108
-321.141
-492.447
21.4975
-1003.35
15.4437
-194.578
86.2338
332.115
378.676
252.451
128.05
-106.471
286.092
91.7765
285.499
244.564
-571.816
402.904
-180.677
104.069
-819.623
585.087
-137.285
268.417
-583.026
-542.885
37.2079
537.8
233.776
-329.14
-158.343
791.124
380.791
624.455
194.681
-731.013
-863.152
322.022
64.919
503.159
-1433.85
-578.069
-434.75
-901.848
-678.691
-13.003
69.4033
20.873
-190.76
-284.461
-121.826
-204.154
-810.024
-224.446
203.683
-365.784
304.659
-660.999
288.537
60.2001
-66.985
831.311
-265.33
502.699
69.4119
35.6761
-200.082
-351.853
-500.525
-901.672
60.9984
223.401
198.575
-956.668
9.26925
19.0496
238.695
-306.409
384.213
226.116
117.141
-66.6648
-78.7421
451.866
145.493
-331.253
118.614
31.2864
598.538
60.3395
-200.942
10.9575
120.213
536.401
116.215
317.929
163.113
-406.194
420.339
57.4546
-452.542
-64.0545
-238.607
-625.654
393.168
1156.96
-442.35
-430.025
-150.408
-563.61
-132.687
30.284
-354.971
-406.213
935.686
329.4
443.892
38.7713
175.696
-113.455
-195.151
327.057
146.578
-716.947
-373.425
241.655
66.0042
53.853
188.55
-9.22648
-146.639
-399.954
684.502
-130.194
-166.149
-1009.11
-341.827
781.466
-586.099
-647.216
-578.942
-213.117
583.742
-377.408
-376.347
-555.749
161.282
534.873
324.9
-398.604
334.589
228.584
-437.973
253.175
-275.683
-252.452
92.0504
140.339
270.228
-374.544
139.578
-601.028
382.161
-279.965
-268.067
-83.3413
604.64
-461.965
-607.337
-465.217
-206.876
-501.272
542.857
605.853
-112.383
609.827
313.363
-161.497
51.5641
238.134
-332.952
-179.929
-205.201
-529.104
-147.456
-75.3082
-211.454
-252.002
-500.636
120.082
283.886
370.271
-654.973
-926.338
-58.7916
-31.6241
554.209
105.634
-560.021
-20.6458
20.112
-567.855
944.366
558.857
-674.637
1165.94
-24.4352
-401.555
-381.813
-771.683
-74.8043
109.923
-223.697
-247.977
560.635
-925.802
-403.542
-889.392
224.032
-318.496
-38.8188
-158.976
158.018
534.047
766.684
-207.093
83.821
301.309
-19.0161
-302.252
451.218
868.474
61.7457
-403.602
-384.098
18.1954
627.676
-823.128
158.495
283.267
155.276
395.282
-75.5288
673.548
-358.803
-267.242
414.748
-213.72
473.16
156.849
105.196
1381.95
-183.767
-257.44
65.4677
-637.887
90.6316
12.8389
76.1178
1329.77
995.432
-127.548
-669.011
940.653
-201.864
-98.2589
318.623
-426.729
-204.813
-357.188
432.656
-234.491
338.455
-245.191
428.314
-158.985
185.363
160.789
-310.69
188.349
71.6657
1.79548
604.369
388.748
288.282
684.472
125.545
-170.92
38.0576
-81.2463
755.453
33.3871
-159.561
-85.3051
-88.0894
-10.9722
76.7729
-373.098
829.714
-148.48
-284.696
-354.428
296.689
-1131.28
217.092
-364.79
-456.853
-611.624
-83.0159
181.331
-549.565
-198.593
-461.738
-1128.18
87.4731
188.403
-402.629
-254.823
31.2314
209.451
368.34
446.012
251.385
179.567
-352.532
-210.528
-228.535
205.622
172.186
-250.788
-226.737
-490.459
258.476
565.938
-398.709
-460.275
-224.413
-449.351
-315.86
-486.309
-33.8925
-181.426
-330.427
-92.9077
-240.716
-292.023
112.607
249.453
-118.936
693.8
142.568
-558.452
28.8683
1156.26
17.5087
102.422
829.946
38.176
50.6698
-565.269
154.992
187.121
93.173
369.443
-430.217
-146.339
-2208.69
-356.19
-297.656
553.128
449.35
-658.635
-394.353
713.451
799.297
797.594
475.834
246.962
633.239
173.782
-296.195
177.331
668.684
528.905
-264.768
-429.708
235.187
-94.8405
347.263
-22.2201
-615.629
-239.166
233.531
695.82
-599.444
540.763
575.315
163.772
72.3139
-843.657
470.593
550.181
-59.9528
-433.609
-605.46
-72.8753
-13.6634
-249.949
540.474
325.574
-204.325
189.875
658.993
313.919
426.172
-647.156
-403.112
-365.072
-270.55
35.1623
-313.811
-5.56387
181.648
16.3069
-353.323
-712.424
66.94
-262.072
-50.6588
981.948
-344.15
-470.642
-157.633
693.188
1387.86
228.889
155.6
-59.9175
-271.737
-27.5305
-463.508
481.852
170.455
28.1011
111.831
357.644
-143.549
-42.2665
-155.056
235.155
227.677
-29.5126
32.7767
-96.9936
342.031
-513.043
-89.4678
63.6267
551.992
113.04
66.599
-160.723
245.437
-284.957
105.003
608.489
-458.185
99.1404
75.3569
201.04
-716.199
-166.658
376.201
-93.121
-307.31
-285.15
-199.351
1006.31
-230.233
-167.828
83.5434
-208.24
95.556
125.249
167.591
1066.67
-824.447
597.445
-482.409
543.951
49.9395
36.6119
-63.7165
-13.9377
-395.555
133.177
441.661
956.225
-274.34
313.724
-275.28
-47.9712
-1175.64
374.488
367.599
-612.356
397.649
-88.4849
350.855
262.847
245.363
-735.566
-676.766
252.374
994.332
-234.171
205.645
149.096
252.754
92.4751
862.527
-95.0321
-428.044
-36.5895
-172.748
542.607
245.875
708.476
-304.925
-921.304
-429.72
285.226
-194.033
97.8731
-203.664
-391.382
58.4727
-68.0133
552.057
223.33
31.3417
310.623
143.604
-235.157
-25.2133
-35.2
215.641
218.313
38.1658
835.668
494.316
-42.2685
-340.564
-439.53
-375.393
133.771
-499.989
296.227
920.586
-50.351
-75.5519
-150.804
208.888
-17.6656
-154.719
-137.405
-61.0548
598.844
-148.362
221.923
48.9753
-102.675
-971.787
-1018.83
-208.923
79.8867
-1003.75
-398.579
438.624
-208.052
-160.407
819.749
71.0378
774.159
-564.703
-210.607
-141.117
179.114
469.649
149.689
-829.76
-399.071
-107.181
198.884
-563.012
-934.109
-895.812
294.09
1015.13
458.275
44.3445
-173.682
831.148
-87.9745
898.171
453.058
90.1201
-236.405
-419.484
-180.769
54.6518
-39.2834
-555.43
-148.301
-122.023
-199.404
115.12
72.9659
-245.776
527.981
347.146
1012.69
174.101
-336.241
-546.723
344.293
-436.517
252.895
897.523
42.2114
8.02554
-546.293
-458.17
-197.705
110.191
236.058
-392.691
69.04
813.04
-523.546
375.944
-33.4555
-49.9814
-246.695
-80.6774
-67.504
835.331
-58.7587
-370.688
-98.4225
-325.247
350.326
42.0938
224.584
495.775
-864.476
-683.15
383.875
673.17
243.768
64.3684
-45.8622
99.3509
479.764
-225.426
89.8674
73.3444
160.698
-297.275
487.674
17.0405
-631.609
688.353
290.485
-497.405
-173.332
-631.289
-191.175
-492.442
599.939
471.315
-335.11
571.458
-426.027
158.815
-374.983
11.782
-124.032
-417.162
134.421
-1015.07
-614.176
515.118
-88.9891
-83.5212
186.678
-687.219
-59.0444
-34.9025
-152.926
-363.301
614.697
-1172.31
-407.306
336.756
-489.199
238.419
-10.964
-519.887
-481.259
-87.0544
-126.737
-82.6763
-763.261
-708.04
68.8492
545.65
-401.757
-46.428
230.192
452.313
-799.982
407.125
-472.064
-61.896
-563.918
371.244
484.228
-264.621
-506.667
-146.131
-308.459
177.868
17.0135
-892.904
-575.989
402.929
238.931
-231.925
440.666
-18.7986
-225.617
454.869
-296.56
225.832
-54.9994
440.881
-931.996
-100.135
-1029.62
-792.26
-472.695
-423.529
91.7767
296.641
362.023
-23.7536
364.846
227.942
892.408
238.013
-168.872
-1049.31
-488.887
395.576
-317.976
-63.6679
-58.9095
-376.614
-505.351
515.597
374.902
480.541
-105.204
270.289
264.498
52.5666
-80.9809
100.174
-338.297
-317.995
659.947
56.3549
-700.443
94.1884
-139.73
-129.583
-339.656
63.2367
-713.009
577.385
-442.401
-120.347
-62.3816
-225.454
877.165
-458.941
396.605
461.217
-112.311
-229.149
447.584
33.6695
221.625
657.568
325.344
979.279
691.813
-215.58
301.472
834.877
-187.354
363.754
330.388
-31.9778
-427.721
0.842525
-64.0793
-584.219
-685.897
-467.491
689.472
-449.547
767.815
706.234
242.537
-251.897
200.223
832.829
-581.31
-56.0765
-313.098
361.542
-525.032
-175.442
137.31
-737.931
0.905763
201.978
-1154.93
63.23
-484.172
11.3228
219.163
-630.456
269.088
230.592
-3.04456
351.08
-308.68
128.784
81.6179
-326.184
-675.288
1498.02
-745.04
-328.073
-314.42
150.822
-471.95
-559.836
-271.835
-294.257
-385.788
455.213
-615.869
350.12
167.357
-104.229
333.593
-56.8182
-202.357
81.446
129.803
668.235
284.553
243.17
-435.794
116.443
232.523
110.36
-113.227
-152.856
-335.371
-395.07
-114.842
439.616
209.837
337.93
-264.985
467.222
-439.077
402.147
313.464
70.7528
280.253
-159.475
321.735
304.202
595.595
128.303
-434.332
-25.4887
897.698
256.188
201.125
-40.0863
-339.465
-395.404
93.4042
-227.729
-524.35
-583.617
23.6094
132.033
-320.478
-3.18866
-806.008
-78.703
694.298
-503.392
247.74
-218.559
281.795
597.985
-303.893
-167.484
-384.08
-204.487
-373.009
-63.6929
320.833
322.07
-295.014
585.926
201.564
-599.243
-74.7457
181.602
-426.732
-248.267
386.897
-195.661
123.629
-130.811
-494.235
-948.623
357.882
346.95
-643.8
-184.219
343.667
248.172
-866.083
202.648
-282.651
-726.107
-104.316
-440.174
-305.515
14.4684
501.158
-909.088
-284.396
153.781
63.8002
-307.562
-288.953
320.285
402.256
44.3769
112.813
-27.0052
-573.056
191.032
212.035
-158.053
-798.649
-709.601
-59.1524
201.651
-486.826
-14.9923
440.983
255.822
30.2671
294.133
17.6712
-417.623
-310.534
-171.055
-833.387
350.61
-474.585
-171.182
650.637
72.3542
-115.338
-227.011
-148
204.39
-387.028
-98.4484
-471.231
25.8174
-1124.74
-155.451
97.9247
107.806
-542.985
-460.88
543.865
-181.349
-641.875
896.908
-418.382
194.792
-245.18
-357.177
185.829
294.762
-133.706
-220.549
-64.0214
-1130
-168.613
-673.845
-562.192
-190.254
-1372.3
2.48732
65.2589
305.915
607.584
-9.27239
-363.729
849.018
243.774
-290.523
-147.07
143.449
557.718
-551.419
1351.41
-171.427
571.138
517.408
215.764
-222.708
-46.595
92.8534
-19.1284
-470.185
95.8027
-454.486
385.529
102.166
-287.058
237.511
-246.147
-506.655
-308.262
36.4313
57.6466
-420.273
661.177
20.6627
638.706
-249.023
-877.453
833.154
-55.4203
-51.3598
-119.906
72.1574
369.672
162.249
295.748
-117.81
114.856
513.001
801.81
-364.728
14.6276
-801.467
-20.3742
-11.5569
-90.9122
-424.559
-40.5129
1039.44
-325.623
416.615
371.718
-438.174
-794.991
206.899
348.77
138.101
-843.636
-285.783
20.296
-589.549
-197.765
168.663
-126.095
-365.264
342.559
-249.706
54.3312
-375.968
-301.173
-283.152
-548.746
-192.155
490.409
441.024
-102.237
573.98
401.65
-280.812
1837.72
215.935
347.451
-488.689
236.543
505.967
-486.816
-195.085
404.893
618.808
-32.8866
-281.195
926.667
-314.46
-38.2035
496.744
-168.593
-352.484
-674.309
318.959
15.3708
530.788
287.513
230.694
129.157
578.584
-221.104
-504.736
268.099
-48.6296
-406.478
156.783
-564.462
191.341
-358.709
977.307
282.024
377.608
-394.044
281.448
524.149
353.757
-409.943
-398.849
164.739
-524.635
-333.776
-613.541
88.7484
-230.019
-242.094
51.6337
837.006
668.455
-561.223
14.7283
-25.51
665.852
360.308
38.6928
-444.323
-17.0454
-284.831
103.81
123.144
-186.963
-114.424
16.2467
-109.578
487.006
33.4407
79.9326
1091.15
11.4297
83.8403
-1054.76
-603.506
728.125
-659.877
243.89
-155.845
731.111
-121.258
164.562
238.533
241.116
537.41
-35.5939
-107.73
-66.2583
173.591
-119.999
-17.4529
-688.028
273.53
-28.8085
-622.221
-1016.56
-45.2912
-679.458
383.985
413.062
-127.497
-433.122
513.481
-523.371
-136.21
27.8146
25.9529
79.349
127.812
-167.719
-224.113
31.149
-361.404
-57.0452
-302.565
-89.4336
0.756216
1507.61
207.323
544.326
-466.967
405.027
373.674
177.917
348.42
789.668
-588.378
621.146
361.751
-154.495
-106.416
260.991
-88.1293
27.467
-204.938
-130.244
-169.131
-63.0155
-346.788
197.858
51.6834
-898.647
-96.888
181.993
180.07
-592.121
-461.942
-120.975
41.8193
678.402
-225.011
152.14
-319.204
-225.705
-531.574
11.8852
-583.508
-373.983
14.7923
-285.832
-147.596
70.0159
-45.2631
64.9642
611.312
-204.445
-54.8748
-52.7565
-831.021
-645.654
90.5602
416.256
583.386
-404.863
-133.245
711.312
686.001
581.631
157.537
-326.608
-142.091
996.283
32.1314
788.601
287.083
132.073
-504.169
106.748
-998.195
-414.586
17.7536
-254.64
691.706
402.168
-438.9
-163.474
-41.9385
201.931
404.499
338.603
-445.047
1172.56
-375.222
-199.534
-37.4587
-164.789
-645.55
-340.443
-1093.79
886.774
-331.819
169.005
66.9201
1038.78
219.727
617.551
-68.6907
192.668
198.989
-214.753
-104.103
-219.144
121.148
335.379
-123.245
-366.352
-1613.34
-74.3416
-250.087
96.781
-70.4811
-917.726
118.871
247.076
328.494
-254.652
254.479
313.648
-106.301
235.495
113.846
89.1515
504.128
339.889
-427.563
-43.9856
778.091
-325.229
1019.61
404.9
-86.7365
-86.55
598.148
1229.18
-443.333
-64.2583
-189.189
493.963
130.828
421.401
-186.285
-38.2886
114.758
-338.384
14.7839
294.772
-440.621
574.403
-691.153
-344.022
429.041
-1610.44
733.133
-176.541
291.914
-542.618
-59.1855
-241.893
321.124
-71.9831
58.2471
22.8448
-810.86
-140.356
-233.354
-297.443
1367.83
-760.963
-221.901
-220.999
-168.133
354.467
-355.556
526.808
-393.92
-568.692
-377.917
65.9315
-150.004
482.973
502.284
655.861
110.202
723.346
491.309
168.298
-97.3619
13.6102
-173.925
299.964
-118.669
926.169
-107.851
-52.114
394.45
100.616
391.951
-362.889
332.747
-189.27
-133.762
-251.828
-306.467
360.878
16.4894
-47.2601
354.009
44.6321
-8.81955
-127.927
-183.553
733.562
241.036
533.136
38.0956
-285.441
141.557
-220.457
625.135
280.252
49.0176
968.396
-195.012
-132.966
-287.038
226.025
123.415
-365.382
231.38
131.174
120.034
577.646
7.70615
20.3216
-17.9976
642.813
-200.114
-456.577
-1219.63
79.6347
-554.004
-535.629
64.3625
-539.186
-551.657
598.509
-39.591
-146.457
-654.125
319.009
-322.526
423.832
574.492
-574.213
313.545
310.862
47.6487
-335.691
-40.5003
-9.37294
173.99
-526.547
-358.711
-50.0645
327.207
-72.2877
-61.8622
89.7698
117.499
311.007
207.571
167.527
-300.081
635.713
-208.53
-570.893
-354.542
816.591
-13.4887
-642.824
-67.5447
216.548
187.028
-5.59765
359.841
-404.639
-3.45051
-47.3376
-253.758
-154.99
-254.72
25.1486
-131.277
-684.75
576.415
238.888
325.597
1107.91
-316.975
-285.221
-91.0072
199.694
826.822
1055.03
70.1357
173.362
176.872
-1078.36
216.13
384.558
381.964
-542.284
-7.81058
713.884
-146.713
486.76
-263.478
-1004.96
36.6868
-942.166
-24.4428
-600.232
306.409
546.304
-286.096
373.739
295.649
-244.629
-753.077
-26.8191
-366.923
-148.929
250.661
552.939
438.921
-880.273
-464.675
4.62762
908.937
-353.63
697.274
200.67
511.981
-16.2122
-68.1559
-120.312
-501.752
102.219
207.119
150.109
-455.727
-174.302
413.381
175.086
421.15
557.636
-733.443
57.7955
817.874
-467.827
324.911
82.7819
-294.013
209.777
693.025
-214.06
-397.652
-70.3511
-441.721
761.861
-134.574
248.588
73.6198
-12.6992
-341.47
-259.649
-1019.31
271.494
18.9149
68.7237
386.617
-830.083
-62.1912
-264.613
-1294.05
-345.002
-11.1403
-19.6244
-290.851
552.842
-138.044
55.6377
-1007.77
-65.9102
296.456
-291.233
78.2924
55.2502
171.998
629.144
1016.71
800.361
-423.536
277.034
-126.289
-92.62
94.7734
-47.4456
-792.494
-1222.18
-515.038
1174.48
-464.384
-427.8
-836.491
810.155
-443.374
-237.631
-403.663
630.627
-288.51
-572.043
144.709
174.77
-748.815
-129.148
-311.135
-651.525
243.845
430.441
-282.728
163.38
-465.044
-302.087
835.837
-26.6077
-1301.43
-802.353
-109.035
-338.227
-112.302
192.77
-104.915
-621.471
-494.595
250.009
286.284
945.557
-200.266
-36.2887
532.929
756.299
448.612
-186.175
155.97
569.336
61.8717
-82.8773
-17.3721
-434.074
916.601
-805.578
-721.395
199.942
-118.986
403.419
-395.801
425.981
-412.746
-222.179
-270.09
110.54
322.798
281.606
-308.642
-108.773
112.405
12.4894
-476.506
712.719
293.375
-209.507
682.613
-381.323
845.607
716.397
275.325
-50.2821
-604.361
-127.478
189.872
-249.597
-178.481
-687.446
-276.2
-378.729
600.982
-441.89
158.437
84.6446
19.8184
-69.2387
59.083
74.79
826.052
287.413
-594.248
175.077
575.787
974.634
1052.65
-467.44
-109.524
-185.713
192.328
792.634
-125.851
-149.299
57.841
441.961
587.444
-502.353
-825.63
175.035
-465.416
472.884
-220.575
-798.072
97.4332
-205.882
480.43
535.126
76.3261
194.25
-182.683
-64.7985
413.013
-453.313
-591.06
-244.112
351.614
-578.577
-223.277
-69.5477
265.155
1036.35
-28.3578
-396.257
-604.689
-271.697
117.971
-205.509
333.93
-321.645
-276.846
-13.0808
-173.41
-864.38
-493.987
279.722
38.599
168.829
71.4641
1.17109
337.085
181.75
345.635
99.2974
388.693
301.142
-225.786
-550.931
-48.5524
57.5474
197.159
-931.368
279.198
35.679
-111.798
500.656
207.733
714.316
155.198
538.606
337.407
346.042
-151.208
291.205
-245.626
400.64
-70.5619
202.205
36.9567
-88.427
-724.895
-22.7507
-58.2686
-242.482
82.437
305.596
-484.195
-35.6473
-557.049
-16.5625
509
337.625
175.925
-263.919
390.909
-387.536
328.809
-39.7538
-225.681
-478.216
73.6194
-52.2773
-15.3145
-855.634
224.762
-563.425
422.915
44.0022
105.682
525.879
-409.766
56.4997
-19.1039
-334.448
-243.823
-588.771
-8.47
69.0063
133.131
-344.132
-58.4601
-15.4428
200.206
-83.3417
895.044
-127.822
-248.913
277.956
-159.44
-472.714
-885.679
60.7242
-36.5738
110.691
-720.821
-469.543
270.663
-105.009
-1059.64
-24.0317
-452.599
-97.1249
409.121
45.8019
-400.63
-99.1122
-873.94
-749.913
107.507
-586.481
-192.667
499.367
254.607
177.492
-512.716
307.136
70.4297
307.244
306.842
82.1298
-353.188
175.285
56.9038
1343.31
-203.4
422.513
506.393
-86.4992
607.387
-887.283
-417.482
-658.007
478.169
-149.341
-1.8736
-451.982
428.293
208.918
188.805
357.611
-43.8273
288.776
654.337
-41.4904
96.9209
538.539
1089.67
683.494
-473.017
149.684
596.087
-10.0653
623.903
-284.526
-630.55
-51.2503
-579.311
-156.536
99.8129
7.59645
400.264
-654.008
-46.9897
75.9502
-479.397
320.895
96.705
102.57
226.273
83.0375
437.069
23.5744
-467.484
-301.697
-452.779
-226.16
-721.266
20.2365
-466.293
115.193
696.242
-528.046
-757.328
141.06
129.405
-136.218
-316.057
291.193
186.783
-46.384
189.735
456.798
73.9516
304.836
214.456
-400.862
569.822
237.427
-502.969
-324.17
463.282
115.083
189.016
-447.198
-584.606
440.82
-199.22
-40.1685
-262.555
2084.83
-726.877
43.5514
-199.298
69.9523
462.272
148.13
-1287.07
-549.846
-180.637
-1208.7
-134.024
-448.277
450.925
-334.974
-298.452
355.347
-285.903
-204.2
221.147
1093.48
45.0071
131.921
370.314
43.8263
639.51
709.143
322.003
18.3858
-27.8725
-68.9649
349.718
-143.765
32.2563
-60.5122
767.286
832.647
67.7595
0.684961
335.875
442.388
-716.85
-1091.71
-135.013
761.304
-665.495
273.167
183.829
31.3963
-260.081
423.02
957.119
1002.08
305.4
69.0772
263.837
23.3923
427.851
594.689
201.208
-618.996
669.337
-125.606
-56.5027
34.7488
312.47
-515.184
-737.454
519.269
174.977
-62.4672
-439.592
-167.958
760.972
141.292
-114.191
-101.205
116.805
91.2403
-1041.38
-72.5308
-686.886
-91.4518
34.4991
90.5482
-657.899
236.013
413.381
-407.284
53.7156
-493.264
-135.835
-265.155
248.533
175.131
355.573
272.832
-108.026
419.429
242.562
-427.367
-271.78
-854.703
-912.629
-299.001
-1480.22
155.63
-1340.02
188.534
-381.667
373.823
-350.793
410.007
362.428
132.555
350.998
221.522
22.7533
-201.254
68.8191
473.674
-340.448
-9.82864
-995.625
193.334
-302.283
1030.84
74.8487
-74.4397
194.05
-201.726
-174.99
258.317
-490.88
-101.972
-104.008
73.7663
70.8696
-252.697
-1046.7
91.4433
-653.315
126.734
-45.0176
-649.764
-511.582
54.0473
135.5
-486.335
-314.074
-15.5213
-42.4377
-49.8367
-951.985
709.229
-721.207
365.021
156.754
312.613
-180.231
-101.566
104.032
187.028
-59.2709
-320.847
1466.91
79.8946
492.747
-119.412
677.346
467.517
-196.336
285.084
110.104
667.89
-266.112
508.479
-692.408
216.663
-807.56
52.821
-204.636
-783.53
-13.7353
-282.189
-661.613
-168.898
-114.682
-960.758
-15.4574
-689.168
257.642
-230.31
-370.458
-25.6201
-37.3595
276.494
-1021.58
224.003
-720.31
-663.578
50.6906
-301.123
-64.4167
405.205
-19.0124
-74.1416
-205.51
689.467
286.96
390.349
114.549
-2350.73
76.8574
-452.725
62.6219
-408.312
205.134
255.089
322.416
786.57
48.9128
22.4924
-562.776
355.086
445.955
480.812
-554.77
836.291
769.134
122.385
259.999
870.569
244.966
131.425
17.5278
-68.5667
415.004
-323.83
-142.35
257.548
-144.792
-291.546
-140.356
242.725
-343.755
-616.055
-101.28
-414.201
-800.053
131.328
240.028
-645.122
-60.3267
-172.012
-663.211
-127.387
-862.883
-497.521
-112.951
-379.113
98.9543
-362.383
-588.735
374.365
538.545
-530.659
-488.481
108.294
-304.93
-247.032
245.986
140.036
-169.39
-53.4884
-207.887
-492.173
-253.414
-193.817
385.281
238.15
807.383
78.8888
87.0334
948.015
-483.309
338.399
-17.9604
-808.69
-112.803
199.835
438.691
30.3936
-25.0382
-69.8149
483.683
388.603
95.3653
-199.774
389.6
-493.717
66.0835
-454.357
678.42
153.915
-209.379
-104.886
236.556
-32.1662
-24.2454
-323.539
-225.298
-73.4699
-879.388
333.463
-143.624
-645.698
615.787
343.15
-543.875
-94.3515
582.74
556.026
-169.613
-187.893
211.048
512.027
-241.355
-539.12
-301.206
-104.885
-47.8958
-17.9954
38.8802
129.103
-173.461
527.575
-595.51
331.252
-119.847
-469.235
115.736
465.807
-213.431
-411.664
99.35
-291.113
372.699
483.623
-275.812
-298.121
1094.29
14.7288
-165.404
283.089
333.575
-412.45
-362.069
-145.024
51.162
-252.618
-19.3489
56.4054
-410.791
831.266
756.191
29.1004
104.185
251.105
-406.788
527.827
186.758
-546.908
-62.3199
-384.493
404.081
260.122
277.686
-304.211
-841.667
404.018
39.6327
413.399
157.018
-519.099
-909.216
388.882
5.67417
1016.72
108.352
259.149
161.589
-557.397
-34.3036
230.548
-110.044
-171.554
-498.055
-394.102
959.29
278.434
160.143
275.58
433.14
27.202
-172.325
-574.877
-20.6903
289.224
-135.847
-1000.92
299.84
146.785
-314.148
258.738
319.903
-134.358
250.722
-302.544
-458.395
25.3691
1008.33
254.538
29.259
101.239
185.609
-79.4109
-32.4062
590.795
-63.4799
52.9562
104.603
243.159
75.957
-480.153
-5.29722
13.9881
-149.489
865.524
-113.923
622.397
-204.762
-700.717
-269.621
4.56845
-745.076
431.456
-799.613
47.5697
650.309
250.744
243.653
-409.563
423.289
1175.35
102.371
471.998
162.088
325.094
479.63
244.446
-112.718
-426.314
-297.873
-498.107
-24.838
-113.428
-14.8544
-434.515
1437.66
187.254
217.812
195.323
-505.534
422.554
-519.156
-607.169
-598.645
-181.828
-258.994
78.1484
-344.268
-66.4838
315.136
-390.454
160.588
-607.729
102.305
826.535
4.62973
44.056
542.048
-86.4794
1089.26
343.555
470.277
-40.299
-647.077
-306.544
-617.294
136.458
-347.015
31.016
-15.8743
-178.444
-1091.78
9.93632
-128.561
646.074
125.467
491.536
-510.016
-1330.08
183.157
16.609
407.156
121.183
78.2646
7.55641
250.068
-520.044
120.313
-152.89
-3.03556
-391.572
265.849
-197.67
168.082
75.2985
-31.2532
-230.559
-75.8345
-108.876
-540.838
-97.6269
41.261
-275.251
-238.142
-1324.08
-869.719
222.052
-461.621
-546.128
-459.634
481.827
414.748
-158.549
-103.743
294.625
-282.768
-483.818
-432.396
39.0209
154.712
-397.649
-108.88
462.009
401.472
-247.516
-331.277
56.611
368.324
476.07
1131.93
473.415
-217.109
-727.007
-542.207
13.6193
370.751
-101.004
-650.331
525.87
-247.782
304.854
5.73378
-335.35
86.9194
35.8955
396.198
115.693
-230.469
261.9
-455.623
-1654.44
37.68
161.99
-885.247
208.515
-4.96684
193.549
233.01
-65.9384
242.65
266.63
252.575
-370.107
-149.623
-211.558
27.9025
-344.334
98.629
96.5322
-314.38
71.134
-339.952
281.191
-21.2766
258.993
315.818
-741.809
-456.575
345.379
-196.229
502.151
613.331
251.222
507.408
-91.0057
-81.3965
-18.5368
-168.462
459.694
-556.937
145.522
86.7648
423.833
913.726
-376.793
7.57056
85.8876
177.813
-385.846
-92.287
600.327
-80.739
-237.044
-61.6859
-296.911
-455.793
298.074
17.3257
-228.355
-251.056
34.863
637.644
-119.461
138.779
-285.11
327.82
-417.006
54.7
229.731
-149.304
8.18795
-51.7266
-581.212
-240.939
-72.3773
-96.6619
-73.665
88.3224
821.997
-214.735
-334.325
-192.675
-305.288
-307.053
128.948
-979.508
-130.25
-78.9408
-493.272
-70.0637
-301.388
341.255
571.458
-298.947
180.95
58.4421
1091.19
-115.062
133.9
-79.5347
-674.599
-314.966
-349.377
-453.182
983.402
-42.492
200.196
334.009
-254.576
554.207
-92.6766
679.919
651.095
-670.787
68.774
-194.687
650.708
559.923
141.35
-74.273
-259.008
-93.4534
399.381
-627.015
8.91009
915.324
-32.067
-562.958
-140.778
-133.376
-184.746
540.517
-90.1668
566.976
550.776
90.1106
-260.106
-702.303
410.987
102.502
237.304
175.053
-167.307
-216.363
303.934
-528.698
64.6347
-250.646
878.921
795.359
-112.91
-27.9817
-80.3977
188.228
-93.5246
-345.929
-339.123
267.828
-223.493
-807.537
-122.498
334.139
-220.376
-5.49162
-85.7537
-577.185
-482.309
930.045
569.001
115.249
204.016
-696.365
-126.815
-695.291
209.195
-393.161
221.403
-759.235
-210.893
-387.924
-14.6237
-74.512
-119.063
114.729
-607.32
-868.641
-313.194
168.267
-106.427
381.163
-312.274
-932.25
-491.411
441.968
292.34
86.7009
-299.057
-608.152
390.736
-190.92
221.135
-60.372
513.282
22.3206
-173.741
43.5639
-247.586
-145.907
-79.4751
-473.17
-82.4081
-1131.53
161.782
130.959
158.272
57.8339
-43.4114
118.636
643.182
862.434
54.3259
-244.855
-3.5242
44.6624
157.009
-34.9962
18.6927
-123.166
118.645
-199.011
-623.737
416.349
439.704
-560.481
-126.942
334.946
-386.345
-227.903
-338.407
702.346
100.962
227.106
-787.843
64.7674
431.983
72.8067
-670.547
248.541
603.376
-267.909
-614.097
-288.972
-204.509
-546.667
-668.219
187.364
861.558
109.806
-22.1967
142.568
-353.89
239.964
-305.65
-368.511
-63.2104
342.811
-654.836
789.02
1126.35
-304.973
-160.769
-163.008
615.921
128.405
-335.975
240.974
-80.0791
-294.335
636.962
-832.08
-543.863
-713.061
-364.354
117.119
576.735
302.871
-283.959
-114.543
-303.169
-543.579
-173.683
-660.66
-530.705
332.578
754.271
-850.138
414.132
-115.154
-269.252
-794.167
-521.865
563.057
13.892
-1448.74
-361.807
172.087
75.8366
-106.86
-552.214
400.884
402.972
-249.892
503.234
-283.422
181.093
306.298
-88.5244
127.37
-98.3156
482.331
344.729
211.2
-171.961
-4.22353
448.715
237.546
1271.68
-72.3637
-471.726
-272.632
-120.211
327.654
158.449
2181.69
35.8849
-571.953
-313.443
-237.214
-801.11
62.8508
-72.7511
418.33
50.3353
-145.347
-259.716
926.973
91.2454
-674.437
-525.571
-175.657
171.931
-86.6604
394.172
-637.258
362.143
-174.434
414.813
241.623
405.925
-294.616
177.192
-145.063
171.364
72.0383
189.316
-363.611
-164.733
-184.358
8.86351
784.868
-11.2623
-754.751
57.5456
-393.087
-257.627
168.902
-26.7035
-127.135
-118.532
406.997
-58.013
845.409
-411.974
-214.856
62.3928
-153.859
-395.738
784.927
233.892
-48.8055
229.902
-30.6246
522.736
-134.651
-454.804
-368.512
-109.456
473.696
-375.667
-337.464
-591.911
-701.785
-983.597
-319.727
326.586
671.907
-42.9402
314.958
6.79251
-650.89
-309.409
-261.06
395.17
185.799
-187.603
-143.228
-206.672
-402.374
11.1476
30.3867
157.977
-17.616
-239.052
-84.368
-483.452
556.351
304.229
-407.085
-384.371
-390.587
602.927
197.264
-214.074
138.828
-514.927
1107.5
426.945
-670.976
-527.928
-5.38827
-39.4078
-290.12
-811.716
459.606
1208.62
157.369
323.686
467.329
501.269
302.77
-152.757
-770.437
-225.891
1065.51
-1329.49
328.82
404.581
-360.348
-484.139
-248.395
43.2153
968.568
405.1
463.751
-291.45
-107.575
647.711
916.768
541.294
107.595
93.205
-323.199
393.481
-361.324
237.652
-573.955
77.7634
-234.044
770.579
-439.853
-643.497
648.591
-430.247
192.381
261.56
764.913
387.788
-81.7171
-265.388
337.249
848.362
-1036.44
1.89604
179.95
-89.7212
-425.83
-419.204
559.961
27.194
-570.224
-722.615
121.472
1045.73
-338.547
356.32
-139.485
73.1388
-331.882
-29.1042
-309.172
62.5396
366.355
68.1989
-58.0257
-95.7821
-23.6769
-1338.69
58.8191
-744.016
109.045
493.166
-311.695
584.464
163.485
-201.684
211.292
594.13
77.8507
-346.933
25.2845
607.621
-378.184
-469.807
-60.3447
106.125
311.625
570.205
-25.3609
130.388
158.911
-483.031
-714.004
-865.281
-314.683
-307.688
176.124
35.0072
-343.146
-824.365
-403.975
292.679
311.711
295.408
-422.087
125.498
-194.688
-118.645
242.349
-393.519
-83.4898
-10.7988
197.807
-245.832
548.705
479.878
-716.991
45.3302
630.141
68.9898
152.283
647.162
-127.839
268.742
-446.164
196.688
5.61782
-7.21512
616.436
109.39
-223.77
572.182
750.935
9.68496
255.024
-369.623
-116.24
-315.279
393.093
-234.194
353.143
-37.8341
1402.45
-541.161
170.772
-187.478
-6.19338
-308.896
-637.616
12.2231
253.157
-583.625
-228.325
-596.536
-1456.78
639.466
163.574
-427.123
-533.052
-198.125
-99.5084
-231.156
74.2573
201.397
-220.827
-463.6
-154.199
340.309
431.868
126.549
-512.166
-138.092
66.0726
790.388
645.762
416.608
-449.261
-210.172
-451.452
38.5051
411.037
-345.833
169.538
-190.653
-322.199
6.06032
-354.173
-181.481
-553.464
354.432
-757.194
-37.8351
221.33
-262.878
-603.414
-339.977
-961.245
-198.208
304.015
7.20884
307.053
394.608
-820.687
121.89
-265.849
-166.82
-404.71
-176.032
-573.35
622.192
-387.488
-597.417
-180.726
943.112
839.504
31.8108
-41.428
-19.2594
-151.684
612.845
-985.615
-893.401
90.9318
25.8016
72.7854
-309.643
-436.115
-102.639
253.04
280.204
-88.0332
411.106
74.5462
945.085
-438.081
474.386
256.011
-459.882
282.264
-132.747
-513.264
-67.8602
257.447
-755.224
397.685
-433.054
-239.415
-13.1249
-6.15323
-76.9916
-633.815
184.513
36.0169
-557.002
723.943
-430.01
-220.687
-578
292.799
101.969
69.6434
782.937
1140.79
-66.4431
147.072
164.416
776.62
48.6042
83.8068
152.394
-74.8991
24.8195
-90.0079
710.606
-148.536
-54.1951
-117.627
-151.309
583.211
-356.324
-558.89
-1334.17
222.936
-623.71
442.211
-32.5862
315.938
-132.897
487.884
37.442
738.427
-1243.24
-40.4208
-262.768
394.832
353.965
168.74
-247.48
