5.42863e+06
5.35074e+06
5.15008e+06
4.98378e+06
5.03574e+06
4.87626e+06
4.66531e+06
4.91999e+06
4.94117e+06
4.91163e+06
4.94138e+06
5.06104e+06
4.62327e+06
4.85086e+06
4.56424e+06
4.82659e+06
4.69651e+06
4.2486e+06
4.15697e+06
4.42225e+06
4.55275e+06
4.48652e+06
4.44551e+06
4.50904e+06
4.64564e+06
4.61097e+06
4.88439e+06
4.75682e+06
4.98706e+06
5.32108e+06
5.55427e+06
5.4686e+06
5.5403e+06
5.51013e+06
5.65656e+06
5.77805e+06
5.71733e+06
6.0732e+06
6.31897e+06
6.27915e+06
6.30772e+06
6.63043e+06
6.7013e+06
6.48441e+06
6.6564e+06
6.62062e+06
6.79596e+06
7.22488e+06
7.55919e+06
7.23576e+06
7.45793e+06
7.32246e+06
7.54607e+06
7.7856e+06
7.98743e+06
8.00161e+06
7.84011e+06
7.88779e+06
7.96854e+06
7.6255e+06
7.52719e+06
7.24406e+06
7.47688e+06
6.76984e+06
6.67626e+06
6.42246e+06
6.01389e+06
5.88564e+06
5.82422e+06
5.40325e+06
5.61663e+06
5.38999e+06
5.33147e+06
5.09674e+06
5.04679e+06
4.82484e+06
4.94305e+06
4.88686e+06
4.82309e+06
5.02521e+06
5.18534e+06
4.97624e+06
5.17385e+06
5.36737e+06
5.63313e+06
5.52418e+06
5.20776e+06
5.00721e+06
5.07302e+06
5.28085e+06
5.2463e+06
5.29659e+06
5.19618e+06
5.09878e+06
4.76637e+06
4.704e+06
4.49094e+06
4.2658e+06
4.10079e+06
4.13779e+06
4.19138e+06
4.38959e+06
4.21082e+06
4.3747e+06
4.59691e+06
4.44731e+06
4.94849e+06
4.93973e+06
4.88918e+06
5.08879e+06
5.07225e+06
5.12933e+06
4.86201e+06
4.86461e+06
4.65751e+06
4.58252e+06
4.73483e+06
4.93553e+06
4.90465e+06
4.87818e+06
4.53112e+06
4.46223e+06
4.61041e+06
4.55013e+06
4.78684e+06
4.91637e+06
4.80615e+06
4.66081e+06
4.87595e+06
4.93671e+06
5.03955e+06
5.09013e+06
5.18953e+06
4.88852e+06
5.15433e+06
5.31204e+06
5.35602e+06
5.26858e+06
4.97941e+06
4.94247e+06
4.94319e+06
5.16363e+06
5.51685e+06
5.66132e+06
5.76222e+06
6.30701e+06
6.13144e+06
6.49108e+06
6.38514e+06
6.53392e+06
6.88625e+06
6.79011e+06
6.13968e+06
5.943e+06
5.90375e+06
6.17921e+06
6.20607e+06
6.1466e+06
6.11866e+06
6.58581e+06
6.6005e+06
6.47392e+06
6.08712e+06
5.72455e+06
5.72635e+06
5.58154e+06
5.63342e+06
5.56288e+06
5.81394e+06
5.70305e+06
5.46878e+06
5.37059e+06
5.59881e+06
5.53413e+06
5.80729e+06
5.69389e+06
5.84353e+06
6.01159e+06
5.88446e+06
5.87099e+06
5.75013e+06
5.63438e+06
5.31054e+06
5.32217e+06
5.14651e+06
4.92176e+06
5.03262e+06
5.05248e+06
5.23125e+06
5.36881e+06
5.47796e+06
5.59631e+06
5.10617e+06
4.97637e+06
4.90438e+06
4.84834e+06
5.11678e+06
5.2295e+06
5.45597e+06
5.45797e+06
5.37309e+06
5.2329e+06
5.2324e+06
5.29634e+06
5.84995e+06
6.12397e+06
5.78533e+06
5.87618e+06
6.22088e+06
6.02062e+06
5.88237e+06
5.88479e+06
5.89532e+06
6.10444e+06
6.06096e+06
5.85133e+06
5.45854e+06
5.24545e+06
5.30847e+06
5.57988e+06
5.77099e+06
5.51046e+06
5.70302e+06
5.90876e+06
6.05208e+06
6.25123e+06
6.2017e+06
6.30585e+06
5.73805e+06
5.70871e+06
5.66987e+06
5.50653e+06
5.3501e+06
5.33344e+06
5.56092e+06
5.37787e+06
5.88941e+06
5.58754e+06
5.52444e+06
5.54267e+06
5.58975e+06
5.60197e+06
5.73663e+06
6.1914e+06
6.0384e+06
5.5749e+06
5.38651e+06
5.4059e+06
5.34043e+06
5.23084e+06
5.22589e+06
4.67545e+06
4.42315e+06
4.10251e+06
4.0929e+06
4.23804e+06
4.01956e+06
4.14334e+06
4.17879e+06
4.0086e+06
4.21234e+06
4.64639e+06
4.59991e+06
4.64711e+06
4.58718e+06
4.98692e+06
5.35661e+06
4.99684e+06
4.66381e+06
4.68957e+06
4.83938e+06
4.9471e+06
4.78522e+06
4.89459e+06
4.89902e+06
4.92215e+06
5.2143e+06
5.67718e+06
5.34802e+06
6.1241e+06
6.62979e+06
6.70309e+06
6.62505e+06
6.19925e+06
6.21985e+06
5.88405e+06
5.99724e+06
5.91298e+06
6.29743e+06
6.37345e+06
6.34757e+06
5.96274e+06
5.91583e+06
6.01433e+06
5.84062e+06
6.11817e+06
6.07415e+06
6.13194e+06
6.06233e+06
6.06817e+06
6.02622e+06
6.39244e+06
6.46053e+06
6.32335e+06
6.63981e+06
6.54837e+06
6.72718e+06
6.97158e+06
6.68974e+06
6.37676e+06
6.38688e+06
6.36681e+06
6.10164e+06
5.8718e+06
5.53735e+06
5.67639e+06
5.76345e+06
6.01031e+06
5.96044e+06
5.97746e+06
5.80614e+06
5.91615e+06
5.86648e+06
5.44264e+06
5.45517e+06
5.40644e+06
5.3411e+06
5.31614e+06
5.33431e+06
5.28761e+06
5.80419e+06
5.74311e+06
5.91929e+06
6.07882e+06
5.68624e+06
5.79923e+06
5.48328e+06
5.73128e+06
6.20906e+06
6.22862e+06
5.93924e+06
6.1529e+06
6.00931e+06
5.96506e+06
6.07622e+06
5.57294e+06
5.57447e+06
5.77247e+06
6.03858e+06
6.08209e+06
6.17444e+06
6.45506e+06
6.3918e+06
6.23289e+06
6.05657e+06
5.63805e+06
5.49947e+06
5.20911e+06
5.22619e+06
5.14061e+06
5.41764e+06
5.29359e+06
5.11535e+06
5.2158e+06
5.38039e+06
5.4518e+06
5.05631e+06
4.80998e+06
4.64874e+06
4.73237e+06
4.75361e+06
4.47442e+06
4.73478e+06
4.67977e+06
4.24033e+06
4.18739e+06
4.24872e+06
4.29367e+06
4.3173e+06
4.80635e+06
5.03957e+06
5.36848e+06
5.29011e+06
5.24043e+06
5.12395e+06
5.23197e+06
5.32792e+06
5.21292e+06
5.37572e+06
5.4049e+06
5.36251e+06
5.32305e+06
5.18363e+06
5.18192e+06
5.21954e+06
4.92066e+06
4.75626e+06
4.94627e+06
5.09974e+06
5.24972e+06
5.05322e+06
5.01364e+06
4.85408e+06
4.66321e+06
4.55451e+06
4.3556e+06
4.22983e+06
4.24667e+06
4.11084e+06
4.01219e+06
4.04547e+06
4.09991e+06
4.09264e+06
4.19596e+06
4.18276e+06
4.3266e+06
4.21581e+06
4.46756e+06
4.28574e+06
4.0395e+06
3.7862e+06
3.4995e+06
3.29887e+06
3.37603e+06
3.3636e+06
3.18192e+06
3.05833e+06
3.04305e+06
3.01501e+06
3.13373e+06
2.98997e+06
2.86015e+06
2.78105e+06
2.82312e+06
2.7399e+06
2.73149e+06
2.68526e+06
2.82426e+06
2.35334e+06
2.33448e+06
2.35105e+06
2.4213e+06
2.62458e+06
2.67931e+06
2.83203e+06
2.68721e+06
2.77042e+06
2.52034e+06
2.53958e+06
2.80687e+06
2.73998e+06
2.69895e+06
2.97003e+06
3.00851e+06
3.10408e+06
3.19529e+06
3.09403e+06
3.05311e+06
2.89931e+06
2.74134e+06
2.64808e+06
2.83951e+06
2.53944e+06
2.48683e+06
2.52822e+06
2.09959e+06
1.90006e+06
2.02826e+06
1.74277e+06
1.55286e+06
1.77179e+06
1.82193e+06
1.77755e+06
1.78884e+06
1.61845e+06
1.73256e+06
1.85867e+06
1.84852e+06
1.78676e+06
1.67867e+06
1.57801e+06
1.54845e+06
1.53134e+06
1.37205e+06
1.19444e+06
1.12907e+06
1.31902e+06
1.24106e+06
1.31552e+06
1.23417e+06
1.11927e+06
1.07265e+06
1.03089e+06
1.06739e+06
1.11684e+06
1.07157e+06
1.33075e+06
1.43817e+06
1.68704e+06
1.69748e+06
1.73085e+06
1.72659e+06
1.78235e+06
1.70635e+06
1.64516e+06
1.70758e+06
1.57135e+06
1.54842e+06
1.64776e+06
1.65076e+06
1.79126e+06
1.70746e+06
1.83264e+06
1.85483e+06
1.60966e+06
1.77821e+06
1.70578e+06
1.61285e+06
1.73777e+06
1.84491e+06
1.88984e+06
1.98747e+06
2.1305e+06
2.16277e+06
1.94496e+06
1.94214e+06
1.96101e+06
2.16512e+06
2.13224e+06
2.22744e+06
2.2969e+06
2.32291e+06
2.51328e+06
2.4774e+06
2.46824e+06
2.61056e+06
2.55154e+06
2.56553e+06
2.50341e+06
2.60545e+06
2.69763e+06
2.90954e+06
2.83601e+06
2.7078e+06
2.71999e+06
2.76292e+06
2.93945e+06
2.68533e+06
2.59956e+06
2.42524e+06
2.58526e+06
2.58292e+06
2.49653e+06
2.53055e+06
2.68837e+06
2.8855e+06
2.80905e+06
2.75885e+06
2.6014e+06
2.51925e+06
2.68527e+06
2.80274e+06
2.89006e+06
2.82622e+06
3.25697e+06
3.23192e+06
3.13313e+06
3.0731e+06
2.94301e+06
2.71806e+06
2.79102e+06
2.72384e+06
2.79212e+06
2.34325e+06
2.45134e+06
2.57332e+06
2.60122e+06
2.4964e+06
2.51336e+06
2.47664e+06
2.4947e+06
2.514e+06
2.32474e+06
2.47503e+06
2.33211e+06
2.50596e+06
2.32761e+06
2.42656e+06
2.78736e+06
2.99407e+06
2.83151e+06
2.62888e+06
2.52586e+06
2.62862e+06
2.70586e+06
2.78682e+06
2.63766e+06
2.61368e+06
2.73828e+06
2.55178e+06
2.52872e+06
2.36222e+06
2.25645e+06
2.54227e+06
2.50401e+06
2.44865e+06
2.33002e+06
2.1798e+06
1.80142e+06
1.79834e+06
1.7309e+06
1.49225e+06
1.40126e+06
1.50501e+06
1.42001e+06
1.4515e+06
1.48587e+06
1.73119e+06
2.00338e+06
2.06207e+06
2.10414e+06
2.02719e+06
1.9567e+06
1.94705e+06
2.00889e+06
1.71782e+06
1.74192e+06
1.63048e+06
1.58429e+06
1.45945e+06
1.4739e+06
1.65814e+06
1.68176e+06
1.64763e+06
1.66906e+06
1.77111e+06
1.60964e+06
1.53368e+06
1.59106e+06
1.50755e+06
1.55339e+06
1.64745e+06
1.37849e+06
1.217e+06
1.41073e+06
1.51465e+06
1.6797e+06
1.49038e+06
1.54224e+06
1.67156e+06
1.43397e+06
1.4958e+06
1.43896e+06
1.44871e+06
1.3136e+06
1.36041e+06
1.49787e+06
1.4678e+06
1.44459e+06
1.34458e+06
1.32703e+06
1.31249e+06
1.33324e+06
1.47279e+06
1.58074e+06
1.61346e+06
1.44162e+06
1.51383e+06
1.44587e+06
1.33243e+06
1.33874e+06
1.3262e+06
1.463e+06
1.46687e+06
1.43871e+06
1.4597e+06
1.55878e+06
1.6546e+06
1.51943e+06
1.63433e+06
1.52862e+06
1.5236e+06
1.66095e+06
1.6309e+06
1.69486e+06
1.52129e+06
1.78987e+06
1.63068e+06
1.49921e+06
1.44793e+06
1.65521e+06
1.74091e+06
1.94302e+06
2.16023e+06
2.21529e+06
2.0252e+06
2.14514e+06
2.01526e+06
2.10042e+06
2.16722e+06
2.15536e+06
2.26272e+06
2.28726e+06
2.16298e+06
2.28845e+06
2.10029e+06
2.18354e+06
2.13894e+06
2.17256e+06
2.10865e+06
2.16791e+06
2.11149e+06
2.0928e+06
2.08831e+06
1.86795e+06
1.84985e+06
2.07862e+06
2.04177e+06
1.91932e+06
1.92222e+06
1.99353e+06
2.02098e+06
2.04519e+06
2.19229e+06
2.15712e+06
1.9353e+06
1.94831e+06
1.98178e+06
1.85638e+06
1.67556e+06
1.53538e+06
1.51285e+06
1.68682e+06
1.57488e+06
1.58284e+06
1.5231e+06
1.24665e+06
1.13851e+06
1.02325e+06
880761
1.02643e+06
884886
855791
800844
769066
821409
897877
693249
534201
579314
636398
630147
588584
661041
740325
753088
678962
662263
683509
735830
552524
583026
539601
497926
433561
446006
491020
510019
506607
507043
521906
454931
446688
447867
445566
405736
377202
348925
427719
367996
290643
254730
182256
148367
148410
134949
154676
207469
206951
251463
242575
277894
283036
295624
405469
477204
486259
527705
625760
738618
734897
770509
666454
497448
491961
501058
489283
494170
567539
622722
551097
473078
410129
269479
273046
262824
142035
87862.9
83143.6
76935.3
91076.7
112311
160137
190499
123690
123635
134625
122855
140106
148591
109076
100282
64699.5
42270.6
87583.3
158357
207517
271371
192733
139065
185287
217862
325788
360294
426592
414618
442500
456994
525293
500476
508397
555124
455963
435948
423551
451670
481652
456954
375295
265951
248054
372821
385752
420490
343192
310115
345562
308614
286688
285578
329781
345301
325010
313272
329462
346084
238627
223725
227757
269371
311164
314442
232508
326947
417623
411490
390458
380616
416802
393083
418722
394382
343369
266832
319887
316495
292030
246236
246118
255137
302161
339829
260371
211782
177485
207825
206472
229018
247894
220013
300962
364224
395775
296796
377056
288853
247405
281831
228776
174955
165337
99857.3
77368.5
88681.1
92876.4
135638
120229
109429
55574.3
66232.3
60150.9
58684.8
65109.1
69420.8
81562.1
89263.7
117373
148077
151356
152832
143203
119175
147716
234697
234124
224004
191343
188675
171124
235098
190621
194362
136014
87730.8
86118.2
62040.6
79302.7
62697.9
101034
179636
217832
207303
143814
182402
125429
140167
169623
131687
205546
239990
258414
293380
188585
204301
171901
187964
225877
173534
149809
207584
176040
194508
236663
182129
212793
172033
216181
248177
292962
455275
469101
489426
479483
502561
464533
465321
364114
479429
392504
428240
405354
314420
300817
332391
284453
263528
284605
316308
274734
239707
328626
333420
354891
373722
244453
282399
206576
194792
169493
131471
168510
138008
155433
135172
87867.2
129249
162593
168017
173861
186873
189873
245892
234289
208743
198199
200329
185415
150830
154782
128013
110908
110577
132305
200084
158412
147848
131650
153714
143459
80488.9
101007
83022.5
88317.3
86232.7
52438.8
37166.4
6769.83
-205.34
748.03
-1028.62
3806.76
34111.4
76725
81483.1
86799.1
65949.6
103679
110049
71091.1
89362.8
43448.5
48704.6
59928.5
64484
37355.3
30223.5
28178.3
24809.1
29895.7
28362.4
35152
16473.7
16955.9
30986.8
20894.4
16295.6
20395.3
44913.6
125668
125261
194421
191566
182752
171823
167424
244462
227393
194813
217191
139176
126880
93003.6
59759.3
74023.2
84828.3
85197.3
107135
146056
147284
103448
91593.3
84948.2
121152
79129.2
91501.3
80027.3
35161.9
58371.8
71558.8
58645.7
42867.4
29936.2
17638.3
24260
50612.9
47399.6
38172.9
14729.4
946.669
4612.72
-628.465
2925.99
8871.84
-2124.44
-212.278
-932.641
-1328.66
-1049.84
330.97
238.482
-4477.42
2459.41
398.438
-698.429
11703.6
2125.69
-401.069
776.115
5093.54
13480.4
17241
2683.22
722.911
3052.88
8476.74
15559.9
55352
80270.6
63628.5
50805.7
50027.4
25752.3
26904.1
44312.8
34037.9
9132.46
33875
7207.53
4561.48
29984.6
25394.5
17418.6
32302.6
29795.9
47406.6
20554.5
18478.2
14900.8
15144.2
15901.1
47401.7
37262.8
44227.1
55691.2
107007
104797
73705.9
56977.9
62855.5
109496
71865.5
51047.6
99591.6
101015
91211.7
78665.4
94646.8
129101
160634
194861
234679
307174
335304
348113
358670
404085
385006
326696
355067
355724
387405
337027
258351
276953
257355
187439
110558
124238
68048.1
52280.5
58104.1
58261.4
50401
70902.7
20950.4
2129.09
-3056.18
-310.75
-2857.34
-89.1192
5692.88
5136.71
-1668.1
10013.9
4793.25
6797.85
1581.83
11022.4
29983.2
26175.1
25233.3
25333.5
48796.9
33043.7
32377.5
51247.9
52558.7
46802.1
56345.4
71801.7
71137.3
95995.3
92524.6
46078.4
14437.3
20757.7
8295.88
4099.16
8066.96
-872.45
3923.54
-2717.13
-2736.04
1791.39
4764.01
11478.3
9473.99
38840.7
34720.8
33442
34762.5
31111.8
39181.5
34797.7
25197.6
42904.2
30784.8
34853.8
37088.2
10893.9
6392.72
-1357.37
1193.72
5603.29
6012.6
11875.3
21927.4
23966.1
62687.4
54934.7
46927.6
52629.9
25984.9
23383.2
25247.4
39534.9
17076.2
14645.4
15900.8
3479.9
14828.5
8619.73
16561
48527.8
18989.3
31679.3
24182.8
19536.8
24759
31563.9
26920.4
18052
16975.3
31550.6
32850.9
12549.2
745.501
2043.44
7907
9132.43
-80.3831
-596.308
-2015.7
1196.8
-1563.33
2036.93
-559.963
5820
4325.26
403.815
1159.56
13282
4566.73
15836
21183.7
9581.13
15029.9
4977.02
8674.71
5953.16
-475.647
-4984.29
-2644.75
-401.994
-434.049
3357.73
9861.6
27748.5
31680.7
26244.2
15975.6
10496.1
247.846
-2892.89
-426.031
-3876.72
30638.7
30315.2
8205.94
58.329
1427.22
3147.57
18835.9
1470.68
3175.42
9472.14
15672.7
1714.54
9537.03
14821.5
13389.9
7086.6
-334.971
314.272
1366.65
-206.748
2732.88
575.276
4723.48
68.3305
-406.852
-888.449
-676.11
584.238
-722.651
816.995
3477.68
5242.66
4571.12
-487.983
661.77
2946.23
8883.8
5439.72
5267.62
12126
11482.2
4979.23
15644.1
18733
10496.7
12396.1
-1339.39
2784.3
-293.285
-669.564
1582.55
-14.9346
1249.27
10519.3
8782.44
4571.62
-1238.74
-2702.27
2195.13
6035.59
3275.16
250.189
1669.57
-1772.5
-571.217
-357.774
-281.842
1150.9
23.058
-300.385
7323.15
11714.8
12809.3
20080.6
53454.7
65134.1
47246.4
46713.6
45397.4
21071.3
11344.6
33803.8
12239
712.693
19965.8
28730.8
22520.3
37346.3
43190.3
37175.2
61019
74346.4
76506.8
71048.6
89389.4
108297
94829.2
56892.7
83645.2
50386.1
36619
55428.4
120139
176753
199308
172244
173541
142166
93451.9
66161.2
39247.4
25198.8
50745.7
75305.8
75908.6
52513.9
68178.9
29446.4
24470.6
11410.6
16286.3
16562.6
23838.5
788.735
1503.68
2238.25
3452.12
1219.49
-246.401
-2352.16
6157.14
4785.11
689.98
1867.91
196.824
5058.9
12072.1
18891.1
36582.6
33391.8
19786.2
12215.6
22352.3
14409.7
6788.14
463.038
5067.67
8442.83
14150.7
28160.4
39980.1
37131.6
90456.9
95753.3
106813
78600.8
50461.7
68294.8
35681.6
31085.4
13143.3
8583.11
15885.5
2037.8
20234
-31.7295
-29.5803
-1045.94
-394.375
-497.037
9898.51
2105.86
-1837.85
-125.117
5519.48
12171.4
22783.5
9268.83
10558.2
15005.7
501.612
4142.22
2651.79
2170.95
-3120.34
-2191.4
-377.003
-420.413
755.252
5742.47
5951.33
2801.29
409.197
-525.81
1742.32
123.879
-124.244
-272.493
8139.37
5211.01
14971.9
22235.8
50462.6
61011.1
66035.9
44612.1
33625.1
94306.4
106173
104740
118156
156007
166853
144487
110103
156922
232513
182396
154736
148131
156910
160168
120770
146008
213128
214098
217288
152479
254188
253353
193403
197003
330476
293402
212610
206703
212227
163983
150467
180227
211632
234601
240409
190275
159259
206789
174830
125778
152224
89752.6
98116.8
74955.6
61226.1
84480.5
49918
32000.9
40628.5
63921.8
61352.9
42330.8
-1556
6046.74
1155.07
922.455
-828.061
4068.98
1552.51
4972.95
14790.1
15361.9
3065.83
-2278.87
2023.72
-1588.73
4495.76
4934.3
2257.25
1228.53
4586.88
1616.52
3909.57
17479
13973.6
20741
19186.1
27893.7
31127.1
34390.2
74429.8
129265
145899
198964
188756
142986
145828
112409
131276
100971
150280
184408
201035
226228
221713
183708
249695
234949
193901
213895
155223
131709
152039
162842
152931
173684
191832
189114
144984
107116
112728
141918
134584
106574
102683
96196
86299
51438.9
48202.5
10859.9
12319.9
33186.4
45922.6
21270.3
6867.48
-51.3426
1611.53
2773.1
8402.69
17332.4
3834.42
4393.19
-653.002
462.171
-306.227
-2252.66
708.09
1586.83
7169.13
2466.08
9689.06
8193.75
3835.3
1614.71
12021.3
3257.05
4047.13
-980.974
-666.716
3188.96
4801.36
7448.28
15989.3
20819
39417.7
77164.2
82929.9
108318
30424.5
46353.5
9694.91
3435.22
13468.2
26280.4
41038.6
55281
54549.6
46230.6
89155
105865
48246.2
61956.6
77497.1
88161.1
88103.8
80798.3
43845.5
42772.5
27313.6
55363.6
82802.2
54791.7
20962.2
23866
39834.8
46237.1
38145.6
45233.8
69263.8
46628.2
59924.3
33782.3
66911.3
58400.3
27689.6
31222.5
14018.3
3553.73
2440.86
4046.04
9705.54
10584.9
33396.2
59301.2
58351.3
45834.8
88975
46261.3
66823.2
83301.9
68089.9
93406.1
98235.1
95437.6
105991
163004
77168.9
66136.3
77245.8
83694.2
59180.2
39816.7
29058.5
32443.3
52268.6
79645.4
64658.6
88171.3
130302
116893
78116.9
103086
58020.9
95257.8
45817.2
68865.4
71910.7
21493.3
30877.9
22459.1
18675.7
4070.29
7853.81
9643.04
13531.3
4753.96
6470.48
2570.06
10964.3
1711.77
14192
24606.2
25165.6
50506.5
102249
143874
144412
115021
92197.3
83982.5
54095.1
14722.3
19430.5
3728.84
1854.85
-456.603
2081.24
13166.1
14045.3
34409.4
20552.5
53863.2
64032.1
62192.6
97636.9
98095.2
77880.7
54837.3
29115.6
48556
51232.1
36387
12950.8
51059.1
42553.9
81658.1
51044.2
50783.7
52140.1
33967.3
41832.3
34884.8
23125
23073.2
15792.6
18753.8
35121.8
38636.1
30214.7
15348.4
11037.2
21306.5
8348.68
7618.75
12090.7
7956.04
104.818
2101.9
-1524.34
878.314
128.856
4287.89
9914.4
6937.65
5341.64
30351.7
32890.2
46495
72337.9
23910.1
30926.3
41912.8
47816.3
50516.7
69898.7
85481.9
62931.4
70296.7
86881.5
64949
66818.8
40511.9
84998.7
95991.4
85454.7
81395.3
72782.9
117321
185817
165399
210278
210028
217357
184344
153148
134732
62210.6
56357.3
28078.3
31303.6
52734.2
99441.3
72533.1
68693.2
60074.7
68667.1
90937.1
65732
73384.1
63300.4
85774.7
89558.5
109339
198635
191433
203302
259363
322805
311516
306943
400151
347408
471400
514182
471038
398509
407554
455558
479189
481476
477749
487667
525416
478595
397760
480548
426337
465681
493653
449098
416249
393718
338161
337735
311378
334368
350767
333332
356782
418296
389575
373711
404185
374041
337228
301615
265420
247547
338546
306099
226561
298419
325391
326059
351722
235062
281872
311348
372929
442223
402745
437872
423065
518232
512864
455285
490897
487894
477182
555073
530634
616110
670975
802590
924328
876544
868767
903907
802761
900468
924650
976099
1.18174e+06
1.21894e+06
1.23272e+06
1.27267e+06
1.33302e+06
1.4058e+06
1.37956e+06
1.42646e+06
1.54378e+06
1.58316e+06
1.57347e+06
1.56147e+06
1.57113e+06
1.58746e+06
1.69688e+06
1.65108e+06
1.6008e+06
1.52975e+06
1.51555e+06
1.47604e+06
1.30071e+06
1.41898e+06
1.41527e+06
1.38236e+06
1.32435e+06
1.37096e+06
1.23017e+06
933730
1.00499e+06
1.1237e+06
1.15246e+06
1.20319e+06
1.097e+06
1.13024e+06
1.07733e+06
1.00892e+06
848334
712119
659581
652972
669881
566177
585861
566825
529771
521433
548132
590417
636739
629206
566415
561756
472733
575409
512875
410011
485931
404022
307336
368701
321576
384006
392783
380459
389842
361879
321472
218794
241628
279406
240537
384081
372631
343556
361556
405228
509244
452053
433559
374563
373188
331883
277472
233918
285493
334747
313182
262193
373219
501507
611266
637630
570156
611794
524031
451655
485565
494688
472242
470400
564507
469196
582098
555410
638780
577089
501821
486916
469680
474980
413014
430924
492162
524050
491131
580765
640901
691221
671752
807464
845055
941227
909602
975866
1.1489e+06
1.17071e+06
1.10535e+06
1.14297e+06
1.07083e+06
1.24512e+06
1.30971e+06
1.37059e+06
1.42027e+06
1.39421e+06
1.4678e+06
1.43317e+06
1.25007e+06
1.16064e+06
1.01071e+06
947221
847292
900108
917937
1.09344e+06
1.15486e+06
1.2623e+06
1.34985e+06
1.30879e+06
1.32724e+06
1.27247e+06
1.11965e+06
1.25163e+06
1.12713e+06
1.08138e+06
930857
1.05092e+06
1.01323e+06
1.02384e+06
1.07166e+06
957086
902853
918411
851989
1.00811e+06
1.02756e+06
1.09206e+06
1.20654e+06
1.34471e+06
1.6646e+06
1.63544e+06
1.55529e+06
1.52383e+06
1.47997e+06
1.60044e+06
1.59471e+06
1.62346e+06
1.65427e+06
1.64154e+06
1.69142e+06
1.45059e+06
1.55969e+06
1.41362e+06
1.19002e+06
1.15197e+06
1.16476e+06
1.21998e+06
1.15769e+06
1.19199e+06
1.31217e+06
1.49604e+06
1.43378e+06
1.35723e+06
1.34282e+06
1.39376e+06
1.32283e+06
1.37821e+06
1.49281e+06
1.43074e+06
1.4909e+06
1.59663e+06
1.71685e+06
1.55126e+06
1.51662e+06
1.33907e+06
1.30384e+06
1.32327e+06
1.30029e+06
1.23491e+06
1.30463e+06
1.4024e+06
1.26821e+06
1.15538e+06
1.24011e+06
1.31663e+06
1.34282e+06
1.21719e+06
1.10381e+06
1.0756e+06
1.14946e+06
1.13595e+06
1.19208e+06
922965
890371
920747
908935
960938
1.02862e+06
1.05732e+06
1.00749e+06
1.1729e+06
1.15206e+06
1.14721e+06
1.14083e+06
1.16183e+06
1.39818e+06
1.46646e+06
1.23249e+06
1.09425e+06
1.23691e+06
1.35645e+06
1.58793e+06
1.67995e+06
1.64502e+06
1.65632e+06
1.54659e+06
1.30137e+06
1.24095e+06
1.36754e+06
1.53533e+06
1.88748e+06
1.89234e+06
1.93882e+06
2.0302e+06
2.01174e+06
2.07092e+06
1.97859e+06
2.12968e+06
2.23927e+06
2.17972e+06
2.08832e+06
2.233e+06
2.29215e+06
2.19889e+06
2.34561e+06
2.23551e+06
2.11108e+06
2.09303e+06
1.95746e+06
1.89649e+06
1.73945e+06
1.70127e+06
1.6793e+06
1.75484e+06
1.74261e+06
1.57267e+06
1.6879e+06
1.75805e+06
1.54594e+06
1.52078e+06
1.49553e+06
1.53894e+06
1.65262e+06
1.89122e+06
1.94589e+06
1.85219e+06
1.82699e+06
1.92748e+06
2.03605e+06
2.20956e+06
2.13322e+06
2.34587e+06
2.10266e+06
2.00157e+06
2.00449e+06
1.91218e+06
1.92358e+06
1.84119e+06
1.96397e+06
1.82658e+06
1.85049e+06
1.9523e+06
1.95485e+06
1.86736e+06
1.89333e+06
2.04192e+06
2.08564e+06
2.26226e+06
2.35059e+06
2.27223e+06
2.21594e+06
2.15682e+06
2.35542e+06
2.44212e+06
2.54171e+06
2.54656e+06
2.40718e+06
2.47415e+06
2.46112e+06
2.37625e+06
2.55433e+06
2.42385e+06
2.1401e+06
2.20706e+06
2.01657e+06
2.06959e+06
2.12778e+06
2.16559e+06
2.11577e+06
2.00256e+06
1.98918e+06
1.82391e+06
1.62463e+06
1.5209e+06
1.50438e+06
1.51061e+06
1.66896e+06
1.69961e+06
1.50973e+06
1.53206e+06
1.64149e+06
1.70734e+06
1.67766e+06
1.66085e+06
1.73231e+06
1.79074e+06
1.83281e+06
1.8158e+06
1.77953e+06
1.94964e+06
1.83021e+06
1.70725e+06
1.56012e+06
1.65502e+06
1.68488e+06
1.80263e+06
1.73809e+06
1.72783e+06
1.69018e+06
1.68237e+06
1.86464e+06
1.99383e+06
2.17449e+06
2.32707e+06
2.20093e+06
2.25801e+06
2.3309e+06
2.2856e+06
2.30932e+06
2.17662e+06
2.33933e+06
2.236e+06
2.03952e+06
2.03765e+06
2.05101e+06
1.98163e+06
2.12784e+06
2.05262e+06
2.0209e+06
1.91076e+06
1.94094e+06
1.98017e+06
2.01574e+06
2.01501e+06
2.04405e+06
1.8995e+06
1.75211e+06
1.70534e+06
1.63573e+06
1.56418e+06
1.79988e+06
2.00035e+06
1.97452e+06
1.93038e+06
1.94787e+06
1.98924e+06
1.83018e+06
1.8787e+06
1.74943e+06
1.77977e+06
1.86479e+06
1.93602e+06
1.93676e+06
2.00866e+06
1.98248e+06
2.11043e+06
1.86952e+06
1.85487e+06
1.8398e+06
1.70876e+06
1.61943e+06
1.67202e+06
1.71922e+06
1.66983e+06
1.83659e+06
1.85748e+06
1.8606e+06
1.97529e+06
1.95616e+06
1.96535e+06
2.13268e+06
2.00966e+06
2.08284e+06
2.21654e+06
2.15689e+06
1.94434e+06
1.99277e+06
1.96134e+06
2.14709e+06
2.24751e+06
2.23178e+06
2.30141e+06
2.44004e+06
2.60409e+06
2.69384e+06
2.71309e+06
2.7596e+06
2.54142e+06
2.9103e+06
2.56672e+06
2.32805e+06
2.25372e+06
2.22997e+06
2.27359e+06
2.41744e+06
2.38363e+06
2.26068e+06
2.33294e+06
2.45413e+06
2.36174e+06
2.23719e+06
2.20973e+06
2.35913e+06
2.39018e+06
2.55465e+06
2.46199e+06
2.38223e+06
2.35844e+06
2.38026e+06
2.22464e+06
2.32371e+06
2.27368e+06
2.27424e+06
2.28972e+06
2.5237e+06
2.64006e+06
2.78585e+06
2.48915e+06
2.35452e+06
2.46232e+06
2.42234e+06
2.76387e+06
2.41465e+06
2.44793e+06
2.33952e+06
2.3221e+06
2.30531e+06
2.285e+06
2.1289e+06
2.16678e+06
1.94645e+06
1.73915e+06
1.85259e+06
2.05433e+06
1.96159e+06
1.68036e+06
1.63576e+06
1.59479e+06
1.70067e+06
1.69235e+06
1.69516e+06
1.76898e+06
1.74129e+06
1.93391e+06
1.95634e+06
2.09255e+06
2.19833e+06
2.27823e+06
2.33214e+06
2.49582e+06
2.30804e+06
2.21869e+06
1.92982e+06
1.67411e+06
1.65536e+06
1.61955e+06
1.46268e+06
1.59567e+06
1.67824e+06
1.64306e+06
1.7258e+06
1.4836e+06
1.60062e+06
1.68377e+06
1.6004e+06
1.63909e+06
1.59731e+06
1.47456e+06
1.39767e+06
1.24866e+06
1.14354e+06
1.12865e+06
1.19538e+06
1.17733e+06
1.23789e+06
1.09722e+06
1.20866e+06
1.10106e+06
1.00871e+06
1.03769e+06
1.0322e+06
841457
920675
987826
954184
895526
941356
903137
1.07177e+06
1.12878e+06
1.32538e+06
1.26071e+06
1.17025e+06
1.0653e+06
925940
854221
921447
1.05675e+06
1.03748e+06
993823
1.02177e+06
936545
863557
971708
865471
782153
760395
677045
570378
663355
591388
469697
478959
528720
561239
528719
577986
617150
615936
511615
485630
456703
455291
395999
412798
383132
367570
381119
452205
395894
455051
430095
513106
598142
633000
597545
565828
467348
517784
560094
494360
493019
501365
498325
500934
577688
603963
665604
660324
609048
546289
641748
728938
865022
694730
688375
662792
558823
616207
703967
663971
545043
467160
347375
384908
374003
516786
579005
592644
636580
663683
578899
542924
536981
663164
642770
721586
713970
599465
525625
594539
714134
765761
769806
730590
796854
844546
845319
804367
714060
814666
871534
1.00158e+06
1.0431e+06
986545
1.02439e+06
948772
806486
795430
758755
864102
903094
895257
705716
625361
653850
708138
531147
628169
630249
514376
460121
428458
453459
476011
585078
523801
562548
667557
825440
959551
891857
831403
865812
816555
799164
750902
630803
645893
708743
713840
806880
785445
747265
807442
787260
963708
939868
942849
779791
884048
956361
971342
937262
959513
905482
849724
919260
1.05932e+06
1.21155e+06
1.21021e+06
1.1721e+06
1.28414e+06
1.07043e+06
1.14866e+06
959613
1.05822e+06
1.0507e+06
978205
982614
790005
698645
784166
667176
686747
787861
703933
881158
701669
784635
754378
775824
729885
703533
818830
824865
837930
812559
831131
980197
1.0291e+06
1.19724e+06
1.16215e+06
1.03603e+06
1.0815e+06
1.12878e+06
1.22572e+06
1.17332e+06
1.0353e+06
1.01536e+06
1.27689e+06
1.26848e+06
1.31982e+06
1.33473e+06
1.50766e+06
1.61587e+06
1.62182e+06
1.61631e+06
1.57458e+06
1.53401e+06
1.59686e+06
1.5392e+06
1.56664e+06
1.70636e+06
1.60188e+06
1.71895e+06
1.96893e+06
1.93387e+06
1.78107e+06
1.88882e+06
1.7957e+06
1.81324e+06
1.81419e+06
1.75299e+06
1.80932e+06
1.76351e+06
1.54971e+06
1.59379e+06
1.63832e+06
1.53374e+06
1.47749e+06
1.72082e+06
1.4803e+06
1.67215e+06
1.57079e+06
1.62484e+06
1.78585e+06
1.68436e+06
1.49667e+06
1.45756e+06
1.445e+06
1.38783e+06
1.45945e+06
1.28727e+06
1.54873e+06
1.48698e+06
1.38488e+06
1.48399e+06
1.58556e+06
1.47101e+06
1.53933e+06
1.40579e+06
1.32122e+06
1.3292e+06
1.53751e+06
1.5203e+06
1.61931e+06
1.64809e+06
1.70613e+06
1.82005e+06
2.11462e+06
2.27373e+06
2.30351e+06
2.41365e+06
2.50764e+06
2.41592e+06
2.41268e+06
2.56396e+06
2.47115e+06
2.45448e+06
2.24272e+06
2.16757e+06
1.91253e+06
1.94083e+06
1.75499e+06
1.79172e+06
1.7089e+06
1.76313e+06
1.55407e+06
1.31457e+06
1.14837e+06
1.37186e+06
1.31718e+06
1.17475e+06
1.09439e+06
1.10018e+06
1.00344e+06
793179
773233
750673
732184
780185
673472
521561
579099
572824
636488
526442
526147
503832
490369
592051
549600
618763
525316
544918
602799
677446
836684
820552
885205
914202
936418
897641
880361
758584
725795
713680
667522
751520
728384
658391
727945
685824
753107
652506
535554
523034
556232
611829
438903
436082
472237
563889
595054
616722
645187
590821
489254
630336
611209
636624
749354
942686
1.03195e+06
1.042e+06
890653
1.07983e+06
1.03807e+06
1.05113e+06
1.0554e+06
1.02085e+06
1.1491e+06
1.05512e+06
964705
1.01103e+06
960672
1.09612e+06
1.1195e+06
1.08051e+06
1.08012e+06
1.10593e+06
1.02832e+06
962457
959042
1.08358e+06
1.12793e+06
955241
918637
869173
816546
796890
928308
849897
915571
859600
811042
764919
835201
776629
832370
794313
769372
697030
635023
594074
634409
704348
606036
527396
527736
505276
491483
511100
569405
557369
503522
431318
448534
501658
554209
779261
909925
824988
831362
817120
705634
600408
542930
586163
663347
820033
756887
708342
558132
413409
542894
590564
643286
689828
551053
368330
404691
288042
317439
231721
395483
311264
301469
339791
374363
272006
398018
458929
507718
427584
466541
404406
373164
485426
524931
608804
615372
561965
679319
587326
483882
417881
391252
379430
266009
184390
155373
184912
220622
253588
292235
397184
396060
465404
491972
454881
422677
544339
633861
559026
548015
552055
411885
374672
428117
374014
368472
395178
307150
346884
342082
390849
334766
368830
418786
547677
586388
586796
463658
447004
377286
272244
250259
264930
206262
220504
154039
117266
148833
126226
92968.7
114308
87671.5
125255
108331
132696
122374
133875
150624
95506.6
57027
70189
101046
119211
169490
193600
216881
243288
295017
306797
254413
390743
370354
325308
339256
397339
398479
403829
416595
396956
447780
364522
384510
375199
417679
402896
387323
572092
506854
571207
541070
654082
670098
765822
851059
718128
596375
660879
688756
643699
613379
672306
672853
680868
564071
614303
615108
560387
697756
520030
467061
562463
590845
592469
592520
699601
657755
717301
762558
730663
845067
858990
784148
706375
641687
462795
544763
546446
646166
628409
569078
595969
459357
509333
468393
436057
433159
527968
594832
749282
782918
830243
769452
731968
738177
825511
771227
932966
807007
754319
635891
731539
748279
845879
861260
973564
984827
968567
790363
741855
759181
736722
844767
866318
966581
938681
1.0537e+06
948284
882193
1.07504e+06
1.14157e+06
986742
1.10011e+06
1.01548e+06
1.21771e+06
1.08804e+06
896834
900736
1.01324e+06
879736
981235
1.0483e+06
1.167e+06
1.08862e+06
1.00177e+06
853833
731565
726349
774577
806638
816211
783485
907004
842977
895910
934004
820170
846335
817871
780122
893605
938468
877887
903464
776794
820264
749139
814425
884386
789163
796470
758362
803660
573064
597182
587092
656446
657279
697797
604228
453819
399129
380173
424771
388071
366119
421997
357987
352376
425026
338249
262818
313356
234497
257308
297569
212625
252993
299268
284001
256617
312189
183713
168548
171492
143885
146091
181578
202972
190994
266768
323001
261471
278702
295764
285677
246926
227392
200885
213615
229234
262576
192894
214484
192374
172883
149343
126766
144712
132075
107947
108459
99111.1
91051
154880
181682
203680
176856
266973
326873
316479
275139
242823
255175
194541
223451
313245
297034
308718
341342
328289
267345
214237
249231
289348
317279
266526
254334
317808
310266
253591
315695
207525
173820
157935
100742
99745.2
104124
102827
61640.5
24124.2
39585.5
78385.5
98931.7
54423.4
67284.5
40048.6
13601.2
12244.4
818.648
3198.42
-1050.69
-245.044
13367.8
18359.3
4233.11
-39.1897
4138.08
4116.56
14593.1
27950.8
23774.4
34562.2
30879.2
44721.5
50406.2
56778.4
51818.9
41847.5
90701
106302
75059.1
71187.9
104805
97396.4
63275.5
72967.6
89279.4
78704.2
60880.8
53596
56358.6
89402.3
114272
143922
127731
102673
160749
163248
180920
226839
130659
116013
85414.4
62900.9
78839.6
89229.5
116648
102720
61299.4
60411.8
42082.6
29176.9
37094
34622
57114.7
60534
44276.1
67883.5
113432
41445
36813.9
35274.7
25757.4
5407.23
-416.383
-1187.66
-1007.04
5472.37
54.9172
313.533
1539.05
38.7006
1333.8
-1522.5
3395.63
-642.491
103.934
-43.897
2116.93
-1228.91
528.834
23111.7
20936.7
34957.1
35595.7
42406.6
44840.6
87029.6
76374.1
54395.5
90369.3
82228.8
77345.9
84251.1
26055
37200.9
36713
41453.1
104227
112654
140745
149174
95773
81028.7
55650.1
46951.7
47744
62588.1
97577.9
86616.5
153825
157455
154571
177561
113989
128143
121797
115893
148271
143621
126031
116759
136151
119111
114748
132290
123085
82813.9
62880.7
36623.4
23475.5
2904.5
244.732
-114.364
433.825
1869.83
-2339.86
-417.57
-1257.05
-938.357
6139.13
4963.01
15856
10096.1
6602.58
-3513.84
7186.52
-1971.38
-5809.09
4467.8
8439.44
13610.9
12949.2
4065.26
-1665.81
-1741.75
196.706
9150.23
16261.8
16686
23816.2
28361.6
17643.2
5513.8
2706.74
22787.7
17917.3
12153.1
3778.62
16621.4
3181.47
9570.09
23835.1
13880.4
9968.71
11456.1
17515.6
32640.2
56839.7
59609.9
30638
23621.5
9370.15
2495.76
3377.29
2470.51
-637.235
-742.924
-290.866
10487.1
38848.7
50068.7
42922.1
33196.5
28319.9
31441
65818
69357
53027.6
63457.5
82289.5
48264.2
48006.6
73943.5
61378.6
67235.3
83593.2
116011
158718
185794
140496
160643
208709
159121
213780
225381
189281
173930
208029
161802
144432
184383
143042
208334
222159
213768
285489
324059
311388
310629
272974
259601
282259
325843
192873
251640
266536
304880
280967
334036
275518
216971
226279
189459
221432
263028
315080
347138
376000
322157
275866
359158
316084
378806
347651
269703
291621
235210
246503
266187
289429
253817
221188
365576
320655
390682
431335
335600
371263
326447
350297
308250
339404
314610
241526
268014
257910
306927
365440
382654
369437
420933
446206
433741
442777
367751
393721
382528
386383
342288
330518
332605
331847
397441
438507
549708
508698
558052
492842
577354
663920
706849
681948
798650
831989
797270
726912
852693
866417
898031
935316
994263
1.0009e+06
1.00117e+06
1.0032e+06
1.18887e+06
1.21774e+06
1.17223e+06
1.06689e+06
948878
880629
864609
904408
879182
831269
892608
868163
858249
901539
971799
909151
840713
822699
773726
788421
819022
902486
805110
704040
672091
718043
633294
683041
677019
701211
606097
600345
575407
626862
647088
594951
615286
514979
555292
530345
451218
454872
494041
485897
508663
411102
292954
370800
413373
362915
360975
320006
384197
507114
460766
453291
428451
498766
504606
396282
382949
383086
376120
378171
483455
518046
435406
392532
462539
497341
408762
427311
541033
622981
733850
653007
636100
462880
329390
374123
467885
506022
487482
317181
284042
296716
329974
317346
330556
396635
334530
354503
264634
289445
264519
328446
375316
389089
320964
304153
329680
382753
250572
237630
182769
178460
150091
130979
174091
208388
157049
138068
142964
157332
209541
234470
213239
202184
296179
238585
187681
166262
194381
275712
261316
273538
225756
264210
288893
346888
352431
356958
325481
304217
318478
360973
363298
304987
365081
314202
390705
296820
290339
315831
246787
287077
404516
322957
286526
261262
255552
253212
163152
141662
132631
122344
91773.1
98690.8
120364
105252
155874
125547
160330
132984
172564
199892
186097
165894
207482
268655
210057
203980
261426
313143
307972
242703
342096
313363
189192
225642
299785
280841
226115
226811
178466
184166
160869
199195
234133
206571
254357
392868
405601
398300
412899
460671
448838
374366
282519
262734
206226
172130
130983
138605
114097
116421
145229
159089
157348
134820
156458
201227
223313
158672
115732
110056
101929
157262
159064
205299
215802
187320
137183
175587
184174
154012
116037
78302.4
83059.4
101205
88436.7
66896.6
63371.4
57378.1
23870.4
20195.7
8323.14
16290.6
2804.99
4298.38
-139.625
4578.82
395.795
1854.31
-291.599
-2201.88
-330.599
477.615
-333.102
807.345
132.577
-377.794
-867.502
-2332.06
458.461
-1496.68
-4222.7
-372.396
712.057
-827.479
-1466.94
16597.2
13780.7
22675.9
36771.2
24824.7
31249.1
33531.9
76997.3
82675.3
103100
91236.8
64841.4
116314
87976
121386
141615
160971
201109
263261
215465
253908
238644
171023
123108
153107
94472.8
77183.9
90132.3
125531
100431
122422
117288
124936
110115
144942
180932
175054
134615
146390
165681
133205
110280
84508.7
59722.6
75462.7
137532
141576
136017
121132
111232
114104
86269.6
43915.4
70574.8
47779.4
31653.9
48294
29222.4
26773.9
31904.5
16482.3
10535.3
668.385
85.8781
3233.2
979.635
4956.55
5842.69
39565.1
18990.1
8063.58
363.802
7137.93
13843
24259.2
34711.9
55058.7
37993.9
23493.2
3926.73
13411.7
11855.9
12506.4
1790.15
3458.33
-1290.4
-264.354
1283.28
2400.78
3205.42
-971.743
8759.42
586.546
-2489.5
-762.525
-385.897
76.4124
624.445
3754.16
4024.54
7565.57
11846.3
5308.35
278.385
-3488.35
3287.15
2659.42
1669.21
58.2996
-1659.09
-628.243
-1316.94
-887.821
-674.178
2857.27
24433.1
20996.8
47157.6
66198.4
65923.5
38594.8
38722.2
36988.7
33056.7
15064.1
8902.04
31656
21799.2
24227.3
11817.8
8274.86
5308.08
-2261.89
5394.85
2522.99
2467.37
-50.2325
1863.1
8619
17895.7
34931.2
48840.6
86364.6
108447
76424.5
137626
131087
173825
111784
123781
97699
159205
149529
173812
218501
239124
257395
307456
257259
205548
223897
237224
260817
201890
298834
327690
235010
251833
167707
184680
121075
127388
131761
123082
170857
252844
205671
157787
157808
210112
193632
156662
121667
152599
69014.3
63937.7
73087.2
38161.2
51835.8
10701.9
12831.2
12393.9
16746.4
3509.81
9233.64
733.511
-2866.55
-1725.78
1358.15
16424.7
17290.9
20075.4
12594.1
20217.4
21906.4
39316
58485.9
88626.3
80411
105678
91818.2
43517.6
38089.3
53096.6
61848.5
40848.6
16510.1
19521.1
13654.8
37219.6
26569.6
15954.6
27056.1
28860.1
19930.6
-941.702
3625.71
3110.1
2467.85
4647.81
3805.23
1093.76
18435.9
5051.68
16734.4
7351.5
4030.52
3483.14
-1107.67
718.502
5901.42
3926.72
6717.94
14049.1
10121.6
2838.01
5399.91
13002.9
26005.2
7963.07
24188.1
13524.1
7612.43
5794.97
-33.1483
-410.607
2013.09
3462.29
1898.93
12635
12934.7
7197.26
-154.767
829.706
-45.6065
1444.7
1064.95
3035.74
10779.4
587.959
1140.25
-991.5
1261.72
-104.158
-522.293
-1440.59
4721.97
-2075.69
3767.07
4975.6
13698.3
13198
11242.5
6898.33
7208.1
6902.06
16764
21985.7
30945.7
32765.5
30684.5
90276.5
154907
196209
145028
122393
137720
138378
126531
148107
154815
154312
129506
172585
134169
208037
207926
229921
177335
167006
245733
241496
192775
190114
182730
165887
169200
196062
233701
280063
388349
434716
437544
473963
412722
398288
419172
452281
573266
559457
578842
782286
757322
847329
726255
726664
813478
1.04115e+06
1.08849e+06
1.02166e+06
1.08742e+06
1.12348e+06
1.16195e+06
1.26884e+06
1.26114e+06
1.16493e+06
1.2032e+06
1.23481e+06
1.10028e+06
931337
988452
1.04525e+06
1.1538e+06
1.11589e+06
1.21207e+06
1.03137e+06
810971
793355
684614
737576
820113
851849
777797
868564
832360
861269
856884
859300
927217
977662
988466
782874
890784
911995
944378
1.09027e+06
1.01508e+06
919484
949849
919863
931098
1.04868e+06
1.13062e+06
1.004e+06
1.09701e+06
1.08001e+06
1.26083e+06
936489
751107
747203
675428
738270
767721
816265
993453
967257
941474
881562
1.01623e+06
937297
846074
856919
910007
803115
842976
902933
851580
899404
744673
646120
716414
683809
683546
662005
745001
734088
909831
661866
572812
489158
482820
532134
507525
454716
489253
499105
419311
494287
422649
516688
509460
526665
359106
336975
283008
217404
202583
228030
246661
297756
228233
232697
207008
210690
228605
280768
241280
214045
288612
339617
399070
361003
376242
384105
298930
280397
276964
312009
278224
314409
391439
365370
451574
445592
525178
495692
448643
449299
355753
391623
386588
395105
356186
343669
406214
400915
296161
259707
266447
264525
251855
228916
193028
141226
147945
178618
156666
152821
156098
162766
212923
124494
157550
199660
182340
131307
96325.5
142318
111401
105486
137187
90144.2
69921.9
78156.5
47107.7
55537.2
43624.9
77861.8
54890.5
52041.3
43174.7
42969.2
51014.5
55143.2
132527
118159
158158
79002.8
54267.4
54233.3
93274.4
87929.2
76207.9
46211.1
36977.1
67466.8
74504.9
79486.9
76659.3
51780.2
68252.7
77701.6
83389.9
88610
121890
191848
132014
89901.1
61466.7
55424.6
53272.5
100547
57012
50621.4
27390.8
13894.7
8863.13
7735.55
3490.5
15999.2
20609
31432.5
23316.3
14459
19973.7
29986.9
43390.7
62039.7
72622
67322.1
106616
106821
80352.4
86339
112477
131386
149553
139486
197667
278713
327760
280970
342407
455660
406531
454322
534844
574067
586960
561482
517216
551419
554346
571456
651316
745501
711320
788672
940046
842432
985528
865905
951856
880073
895500
886872
846458
754250
816829
837602
902424
977319
966110
889015
725195
723447
729538
828736
790659
842240
859612
786527
815778
867881
721737
636682
563598
561295
486819
445792
476953
522381
523194
462116
540746
441547
573731
628813
513986
432402
405645
493106
572357
452061
482035
533319
526443
540130
521075
536785
611423
558463
552902
448747
347475
399259
401199
498757
625229
510427
584996
503335
422978
449020
528961
554268
408593
387153
395782
591993
548980
505190
486473
523281
600969
532005
485154
519213
490791
395913
388662
409322
410628
510643
520178
495155
544735
661498
702322
675637
720915
763048
887239
850703
979835
1.05153e+06
977345
861350
833909
805818
743049
741146
701301
596666
483828
522349
469846
492444
486544
374649
406619
413549
380306
359377
325571
264780
296873
278383
221035
177324
179942
207626
200592
214883
186232
214528
247269
268643
217755
211992
180033
156679
213543
233724
263286
270164
214325
235394
219841
206910
176689
198707
175539
142725
154978
141363
224116
171069
149331
157079
142688
151424
120015
84134.3
69418.1
50634.8
66088.6
63955.7
90490
104442
76894.4
41235.6
57638.5
50518.1
47957.4
19870.9
12997.8
10846.9
-1112.87
3454.76
2014.68
4373.16
-1069.19
3893.06
998.116
1270.57
1715.82
2259.68
1128.1
77.7473
1812.21
-432.757
-654.319
-1303.49
-2227.22
38.1322
2901.19
5161.15
3240.22
4976.49
18848.2
60241.9
92004
51494.6
68475.8
37411.3
25330.1
32476.9
34012
56017.8
77248.8
103731
140892
83184.5
63178.3
60350.8
67211.4
24511.7
44732.2
42299.5
29169.8
52940.8
40759.6
44376.3
29334.2
33205.8
55765.2
54420.4
82587.6
113216
102250
81020.3
88425.4
139952
147667
171099
177826
171361
199001
215027
240804
254271
217630
166728
192003
316740
278399
274348
242950
275463
269402
266535
302927
271164
331274
429550
401303
493061
478766
445265
529017
479654
487577
477703
460432
478124
460344
387034
307456
277996
175677
184145
215658
208839
225349
229843
229633
256951
301472
182306
156243
114910
153272
145691
93983.9
88013.7
72092
68817.9
113164
125834
95589.4
150087
126384
211231
242344
303096
278369
229610
231849
264638
334953
398165
335289
425203
523474
434985
493325
542724
613716
509673
558399
473059
542921
622058
556303
528826
507073
413859
415380
321358
341185
327691
243437
148883
145915
217681
181519
170896
145633
153953
160289
199704
104783
55976.8
78728.8
122770
120167
91927.1
114958
152582
169207
187650
235794
203328
233670
189495
205426
156242
144653
188089
195872
170712
153775
138469
133755
167340
200631
224769
224649
191933
137548
86395
32386.5
29155.2
38143.5
23146.3
16961.3
7349.68
15162.2
40077.1
14193.2
27553.7
34122.4
12526.4
16723.4
2051.38
7621.63
35133.1
37707.1
52072.9
76550.9
74716.9
40710.8
38823.2
32655
26984.8
7689.49
2718.36
2665.53
-612.349
2474.78
8251.12
18399.6
9426.35
3613.19
511.368
-1505.93
-323.01
-2900.28
415.655
2932.03
1262.38
-89.1028
160.737
6396.8
2589.64
5925.94
-941.403
-1949.23
-1228.73
-2153.62
7960.38
6567.55
1262.34
1121.54
-2978.89
6364.69
4928.08
1757.68
3683.96
1478.93
885.047
-3720.18
1724.56
-954.395
1251.76
-821.188
2474.38
13.2441
246.206
-2223.89
-621.099
651.249
-2285.67
8633.55
5462.19
30852.7
28212.2
18148.3
5376.67
39506.6
22792.5
2390.53
24272.6
33896.1
59328.6
40865.3
92820.9
126547
138955
155672
101418
99364.6
79841.9
75263.3
82917.1
32570.2
48892.3
67711.1
49796.9
43240
40233
39509.3
25330.1
33865.7
21209.4
10887.8
-231.31
45.2234
-1606.88
15302.4
8018.3
2010.19
906.471
-1049.12
-1479.35
3827.56
-203.866
317.165
2813.46
18859.5
27129.6
21050.8
14683.8
11108.4
8019.19
13200.2
11593.5
1679.16
6682.14
25118.6
19823.4
16851.8
27595.9
19224.6
5291.78
196.942
818.555
4608.84
12789.1
17157.7
53902.2
49485.2
42270.3
43066.2
90523.2
122481
188922
178540
211556
165776
150556
134702
107961
137801
166982
128040
84663.5
65996.6
123085
103301
90329.3
92591.1
60922.7
96845.2
82678.5
78122.3
85827.6
57310.3
49481.3
41989.6
42176.6
55854.2
34183.8
51142.8
28000.7
35202
12279.7
9836.15
4142.03
28714.9
48781.6
9952.42
22949.8
37299.2
42591.1
21156.5
25648.4
44807.9
42298.9
32318.9
50592.9
51563.3
42658.4
56729.4
59869.5
82515.1
85394.3
48465.6
50864.2
71800.1
75439.8
71427.1
83419.7
122448
123261
164509
144694
270858
319451
350166
342495
307929
323113
313689
313281
258982
289654
277284
249252
250966
307232
243683
261499
287658
222962
214204
190182
164528
190432
167938
81746.9
65793.4
104809
137775
92480.7
80379.6
60197.7
83409.1
51192.1
63455
54781.7
40098.7
56082.7
36398
26734
25701.6
38038.1
46870.2
88657.1
88268.3
105368
103051
116036
198281
270688
319801
367534
316189
298903
351801
316960
333208
237559
208536
235961
213026
218141
263498
268415
181073
185220
259103
270581
266857
285689
397399
445853
371102
363225
421676
391789
420956
360841
254755
302718
208834
221370
165857
155648
153261
127918
105835
103728
95550.7
107373
146991
175479
157579
55448
33681.2
29120.8
28485.2
28271.4
14613.6
14669.3
30819.6
35025.7
34309.4
19544.6
22848.5
25142.9
33713.3
31197.6
22361.6
16892.2
8930.85
12387.2
13626
2650.92
-506.188
1820.67
1068.95
-320.666
449.484
1869.97
3955.37
-1018.01
152.946
4171.52
18730.4
24983.9
31002.8
28598.4
19799.4
13301.1
312.569
337.116
-1931.92
2125.54
18054.7
18213.3
16408.8
14111
5412.6
2607.44
1775.28
-2657.19
-1308.02
9341.65
1338.76
-257.602
-161.981
2077.09
-896.916
-776.705
506.998
-3294.65
5308.68
29024.1
35555.5
55458.9
66805.3
67052.5
65930.9
99186.3
109074
84580.3
87595.7
56677.1
50273.5
82393.7
138519
198514
156326
162106
186105
171892
239295
248220
234922
335036
263338
254144
324744
262016
288880
224806
184801
167129
104190
175559
168904
129659
190772
192334
191559
189272
104377
134444
113254
136468
127616
147652
151378
106877
112607
227861
277920
281998
266181
232658
147890
124047
161757
207985
247464
275250
226076
206228
165622
100046
129553
146195
192246
167781
258279
288321
241876
226541
278192
299570
335872
303296
373489
423302
449731
395276
282199
411045
484067
442233
451991
539554
477493
411002
475910
469420
429317
546985
614492
700342
654398
563324
504446
515158
552631
663376
899055
976510
863966
952912
953191
891688
788035
904131
1.06047e+06
1.13497e+06
1.1809e+06
1.05452e+06
1.05602e+06
1.12006e+06
1.23071e+06
1.2837e+06
1.38356e+06
1.4983e+06
1.48273e+06
1.71205e+06
1.65993e+06
1.75104e+06
1.77293e+06
1.72692e+06
1.84765e+06
1.90934e+06
2.04576e+06
1.97107e+06
2.14123e+06
2.05156e+06
2.07736e+06
2.19293e+06
2.07175e+06
1.9672e+06
1.81606e+06
1.67811e+06
1.8889e+06
1.87723e+06
1.97819e+06
2.02808e+06
1.80405e+06
1.76977e+06
1.64153e+06
1.79698e+06
1.67962e+06
1.65182e+06
1.63035e+06
1.55933e+06
1.61616e+06
1.49392e+06
1.41466e+06
1.19215e+06
1.19976e+06
1.13649e+06
1.18112e+06
1.13222e+06
1.18545e+06
1.1686e+06
1.13176e+06
1.28298e+06
1.12067e+06
937123
761853
739368
585564
642889
823530
983080
847923
907933
1.14515e+06
1.28645e+06
1.1352e+06
1.27126e+06
1.25441e+06
1.21532e+06
1.39431e+06
1.35712e+06
1.2621e+06
1.25722e+06
1.18204e+06
1.26569e+06
1.2574e+06
1.25367e+06
1.28337e+06
1.16662e+06
1.18836e+06
1.15825e+06
1.25804e+06
1.26415e+06
1.28151e+06
1.41093e+06
1.44584e+06
1.31757e+06
1.14145e+06
1.1273e+06
1.3116e+06
1.39578e+06
1.50262e+06
1.66295e+06
1.59465e+06
1.69463e+06
1.53082e+06
1.50897e+06
1.56593e+06
1.55478e+06
1.48304e+06
1.52207e+06
1.50724e+06
1.55412e+06
1.57204e+06
1.68087e+06
1.75982e+06
1.86885e+06
1.86825e+06
1.81198e+06
1.55758e+06
1.71002e+06
1.84178e+06
1.70902e+06
1.61076e+06
1.71627e+06
1.70045e+06
1.61955e+06
1.44727e+06
1.53776e+06
1.33523e+06
1.23313e+06
1.21535e+06
1.32053e+06
1.45912e+06
1.31466e+06
1.28802e+06
1.3203e+06
1.30113e+06
1.29617e+06
1.28764e+06
1.18628e+06
1.19918e+06
1.16414e+06
1.10533e+06
932666
1.04615e+06
1.18242e+06
1.35481e+06
1.31199e+06
1.19099e+06
1.39456e+06
1.31961e+06
1.31079e+06
1.31982e+06
1.37904e+06
1.35267e+06
1.33237e+06
1.22852e+06
1.33458e+06
1.34849e+06
1.22777e+06
1.30883e+06
1.12739e+06
1.2068e+06
1.16355e+06
1.1922e+06
1.30382e+06
1.20865e+06
1.15983e+06
982434
1.12425e+06
1.07092e+06
1.0226e+06
1.14649e+06
1.18479e+06
1.15026e+06
1.14773e+06
1.16979e+06
1.09271e+06
1.15635e+06
1.34656e+06
1.33453e+06
1.47192e+06
1.38968e+06
1.37424e+06
1.25267e+06
1.24237e+06
1.26239e+06
1.39677e+06
1.20078e+06
1.29588e+06
1.32089e+06
1.33978e+06
1.47453e+06
1.33271e+06
1.33684e+06
1.18093e+06
1.31837e+06
1.28647e+06
1.1701e+06
1.03022e+06
981633
963014
957070
1.19458e+06
1.47758e+06
1.34437e+06
1.49306e+06
1.49684e+06
1.40129e+06
1.37186e+06
1.45398e+06
1.55387e+06
1.50737e+06
1.61898e+06
1.72996e+06
1.53674e+06
1.27045e+06
1.18397e+06
982308
1.14182e+06
1.13721e+06
990329
1.03871e+06
946616
847841
738266
781770
810334
829315
942131
1.01889e+06
918449
931064
849252
980458
846967
817883
851775
823911
919526
813052
748380
863737
795467
650962
676093
636294
518262
511264
379338
404832
463330
381315
303184
326562
240456
249953
276318
291772
173904
202397
245080
302361
250591
243731
321150
327180
353297
265936
305641
200081
192652
192071
210879
270511
265714
237118
250922
252387
265109
219696
212730
255890
130092
78718.4
25090.9
45661.6
56562
38897.5
19101.5
10053.5
17072.6
14663.4
26888.4
90572.3
46811.7
46616.4
53676.2
83005.9
100421
152869
89452.7
68265
86456
114978
87783.6
79963.5
102179
126903
102140
90392.7
79846.5
112897
112268
131488
153782
222056
174052
182902
133296
112658
75658.4
48931.9
72440.6
53423.5
39566.3
29666.2
19068.4
11152
5473.92
945.932
-2513.43
-2338.68
-557.381
-354.837
11677
26465
11548.7
22902.9
14441.6
7934.13
-1174.75
-3373.26
-713.609
539.739
246.493
5581.82
17495
901.549
8955.09
636.639
16128.3
15442.8
9261.52
-817.966
-3687.42
-1862.18
1488.49
4172.88
8630.02
13151.6
12848.2
8641.16
6454.13
-3173.51
1158.45
3673.32
-1799.43
-170.404
3769.17
9237.64
3622.54
10654.2
3238.94
-470.81
5496.21
2460.97
1350.01
-4028.26
68.6966
1958.44
207.895
4309.98
3522.41
1688.35
-846.777
-308.369
3964.83
9537.88
31660.3
47498.8
61437.2
107437
87579.1
84829.5
66768
65918.4
73991.7
76555.2
83940.4
76909.9
83201.2
57618.6
96051
88795.3
63791.1
29044.8
25427.1
37406.7
18330.6
27936.2
48237.3
79328.2
75343.5
80749
39882.1
63133.9
92769.6
122286
138688
151865
116706
92937.7
166732
149190
160927
180196
207894
172509
159703
198617
207222
262999
303499
214895
212108
228875
250031
244862
214290
333214
364161
376657
320138
261662
243532
237321
191268
178049
168635
208526
180037
161781
166970
184482
182698
181486
153393
164780
190561
166305
126271
178758
216802
229445
227432
198401
220178
272594
303750
331246
431282
442040
494849
527558
549898
647775
729083
754520
670087
709810
817927
666758
537849
691815
688479
639466
708890
865183
802780
700120
599662
578776
622384
608270
724455
805411
677274
664764
722120
595704
467300
528876
611192
662203
515342
594221
557138
494887
538960
434550
454445
497036
586869
535587
552258
677352
562603
493724
519748
518826
560827
592002
646109
670236
671846
522923
627819
532386
588984
640131
754700
839747
794477
878034
761318
795447
758431
898209
899934
800865
860804
896351
1.07039e+06
1.14669e+06
1.0588e+06
1.20878e+06
1.17728e+06
1.07781e+06
1.08511e+06
1.05659e+06
968228
986828
1.0104e+06
1.08748e+06
1.05756e+06
1.09801e+06
1.04457e+06
1.01842e+06
1.13753e+06
1.33462e+06
1.45256e+06
1.49709e+06
1.61504e+06
1.4451e+06
1.49846e+06
1.46601e+06
1.60831e+06
1.68708e+06
1.69727e+06
1.47282e+06
1.40227e+06
1.39983e+06
1.49518e+06
1.47066e+06
1.5167e+06
1.55089e+06
1.48983e+06
1.45334e+06
1.5247e+06
1.50972e+06
1.61489e+06
1.60414e+06
1.54491e+06
1.34959e+06
1.2856e+06
1.27771e+06
1.18389e+06
1.27547e+06
1.33874e+06
1.461e+06
1.64126e+06
1.65019e+06
1.62258e+06
1.60627e+06
1.50522e+06
1.34659e+06
1.16203e+06
1.11354e+06
1.3306e+06
1.20063e+06
1.30289e+06
1.08897e+06
1.10059e+06
1.06161e+06
917077
926937
945237
907062
841028
787461
685233
570181
626226
620114
537835
564491
563112
590995
671974
701560
629943
706771
822709
917127
947876
929511
958805
901544
1.00759e+06
793978
936140
1.02278e+06
940595
949624
807782
955869
971747
983287
925962
913204
760268
805030
813853
883023
925466
874127
1.12633e+06
1.09087e+06
1.09816e+06
1.12497e+06
1.17283e+06
1.03734e+06
945004
1.0354e+06
978307
999874
1.05087e+06
1.05613e+06
1.10428e+06
1.34973e+06
1.5737e+06
1.53465e+06
1.55286e+06
1.59842e+06
1.49779e+06
1.47718e+06
1.61517e+06
1.76219e+06
1.65862e+06
1.65533e+06
1.92746e+06
1.84592e+06
1.93122e+06
1.88745e+06
1.9056e+06
2.12034e+06
2.11527e+06
2.12129e+06
1.93817e+06
1.87919e+06
1.90238e+06
1.75025e+06
1.74569e+06
1.62156e+06
1.46246e+06
1.68973e+06
1.61687e+06
1.6557e+06
1.6793e+06
1.58579e+06
1.60117e+06
1.46079e+06
1.55701e+06
1.44668e+06
1.48346e+06
1.55378e+06
1.72534e+06
1.73385e+06
1.77533e+06
1.86223e+06
1.9486e+06
1.98056e+06
1.91398e+06
2.00661e+06
1.89871e+06
1.84637e+06
1.80617e+06
1.7473e+06
1.51311e+06
1.41714e+06
1.27981e+06
1.16468e+06
1.09271e+06
946989
900935
1.04849e+06
1.1359e+06
1.15449e+06
1.08943e+06
1.2701e+06
1.17843e+06
1.27937e+06
1.27536e+06
1.30298e+06
1.43463e+06
1.47904e+06
1.49316e+06
1.45493e+06
1.44747e+06
1.32754e+06
1.36205e+06
1.35776e+06
1.21247e+06
1.16164e+06
992772
972783
1.04648e+06
888225
953940
964970
965618
996963
985630
1.01213e+06
985356
822487
837126
772792
912416
1.03546e+06
1.02088e+06
860051
1.07004e+06
998698
944617
923415
890111
1.04421e+06
1.0836e+06
1.16023e+06
1.12784e+06
1.13052e+06
1.12123e+06
1.17884e+06
1.21792e+06
1.2882e+06
1.36303e+06
1.43851e+06
1.6275e+06
1.76548e+06
1.81518e+06
1.81547e+06
1.89862e+06
1.74739e+06
1.70546e+06
1.66939e+06
1.6124e+06
1.59817e+06
1.6188e+06
1.63568e+06
1.67013e+06
1.64569e+06
1.5802e+06
1.64083e+06
1.55745e+06
1.69719e+06
1.66478e+06
1.59633e+06
1.62853e+06
1.65194e+06
1.56568e+06
1.3956e+06
1.29081e+06
1.56441e+06
1.58307e+06
1.58979e+06
1.64004e+06
1.53232e+06
1.777e+06
1.81781e+06
1.88725e+06
1.9416e+06
2.04131e+06
2.10374e+06
2.12316e+06
2.00115e+06
1.82721e+06
1.70158e+06
1.53116e+06
1.36877e+06
1.51415e+06
1.78659e+06
1.68736e+06
1.60661e+06
1.36401e+06
1.25822e+06
1.06216e+06
1.04949e+06
1.0986e+06
1.16563e+06
1.23616e+06
1.35566e+06
1.44468e+06
1.4775e+06
1.59625e+06
1.54494e+06
1.51415e+06
1.40323e+06
1.49479e+06
1.53618e+06
1.44217e+06
1.32619e+06
1.45423e+06
1.71892e+06
1.66158e+06
1.46008e+06
1.45651e+06
1.58049e+06
1.74275e+06
1.89722e+06
1.79298e+06
1.80566e+06
1.96413e+06
1.9945e+06
2.18937e+06
2.13711e+06
2.27388e+06
2.56223e+06
2.45741e+06
2.59567e+06
2.36113e+06
2.42976e+06
2.13438e+06
2.34266e+06
2.33438e+06
2.13366e+06
1.97883e+06
1.81367e+06
1.96309e+06
2.04408e+06
2.16602e+06
2.33689e+06
2.33944e+06
2.43584e+06
2.41565e+06
2.52066e+06
2.58645e+06
2.70987e+06
2.68407e+06
2.64091e+06
2.6883e+06
2.70821e+06
2.52943e+06
2.4989e+06
2.32921e+06
2.39715e+06
2.61351e+06
2.48523e+06
2.71749e+06
2.81633e+06
2.59103e+06
2.4654e+06
2.45693e+06
2.79176e+06
2.68683e+06
2.6515e+06
2.60943e+06
2.68699e+06
2.33527e+06
2.46565e+06
2.59577e+06
2.69191e+06
2.58927e+06
2.63017e+06
2.76152e+06
2.638e+06
2.78408e+06
2.60007e+06
2.53034e+06
2.76198e+06
2.6628e+06
2.70481e+06
2.64857e+06
2.81105e+06
2.89979e+06
2.81826e+06
2.59656e+06
2.66833e+06
2.40891e+06
2.60381e+06
2.63498e+06
2.59342e+06
2.4993e+06
2.81797e+06
3.05071e+06
2.93918e+06
3.08457e+06
2.85236e+06
2.72865e+06
2.7349e+06
2.5847e+06
2.52538e+06
2.3682e+06
2.29046e+06
2.61865e+06
2.20596e+06
1.96919e+06
1.81668e+06
1.8815e+06
1.73332e+06
1.87638e+06
1.88706e+06
1.76688e+06
1.68074e+06
1.94932e+06
1.67544e+06
1.85321e+06
1.79628e+06
1.65188e+06
1.81926e+06
1.96562e+06
2.0036e+06
1.85016e+06
1.63752e+06
1.64301e+06
1.65366e+06
1.50727e+06
1.48086e+06
1.29379e+06
1.35961e+06
1.21389e+06
1.30728e+06
1.27252e+06
1.22264e+06
1.26942e+06
1.29402e+06
1.25383e+06
1.19643e+06
1.00316e+06
1.14894e+06
1.0784e+06
1.02429e+06
1.02647e+06
1.20252e+06
1.17566e+06
1.32175e+06
1.37608e+06
1.31553e+06
1.45315e+06
1.51126e+06
1.62301e+06
1.40582e+06
1.33799e+06
1.51306e+06
1.56174e+06
1.62149e+06
1.57627e+06
1.54668e+06
1.38311e+06
1.3142e+06
1.39414e+06
1.33133e+06
1.17998e+06
1.06923e+06
971854
899422
1.04176e+06
1.09789e+06
1.02455e+06
1.15279e+06
1.22639e+06
1.19046e+06
1.21177e+06
1.19865e+06
1.05573e+06
1.00483e+06
1.04172e+06
957854
947320
979877
935769
881901
702765
637665
759500
771390
734125
660989
545393
473240
413609
495656
528306
595695
567245
572773
475228
513541
526852
689832
641889
584517
572728
501738
388454
354935
367133
415584
474602
513309
546153
607909
558304
471903
345340
367330
380994
356905
398486
416425
358301
394288
469831
394858
266715
228584
230436
229866
215190
168311
182875
186646
108297
166666
186852
175006
216522
221803
158770
193965
215841
199035
228708
235540
236466
221550
248724
177514
174808
180886
247737
250278
301346
283876
266756
270400
270552
243248
231719
229281
227007
249678
190062
136087
165380
213009
240824
248528
273037
264577
296698
323953
253930
263780
308493
321943
308432
273523
195570
152817
179670
229202
218138
244417
184310
187935
230087
244903
221333
163209
141217
125679
167996
215373
259112
329684
337407
281569
301136
352922
482813
604047
565975
755375
875338
875138
809334
781899
824412
729023
772042
820191
732804
892057
754501
778222
772427
701417
736770
838702
801881
757009
958283
922738
967446
1.0103e+06
1.02426e+06
1.19559e+06
1.27435e+06
1.11275e+06
1.05375e+06
1.08886e+06
1.17022e+06
1.06843e+06
1.23537e+06
1.25676e+06
1.39664e+06
1.49747e+06
1.44093e+06
1.49611e+06
1.44661e+06
1.4367e+06
1.33332e+06
1.15715e+06
1.13631e+06
1.05537e+06
994568
862204
908499
949504
947170
977407
901181
812572
786835
911905
843489
802233
756081
787275
809931
800863
796497
770887
676244
540183
636101
752300
759525
727412
741170
686333
666626
842153
908321
891157
969066
1.0649e+06
1.01304e+06
778777
774895
632439
556392
562061
556726
445747
374484
344754
291230
402286
360177
362370
403882
454049
453780
480235
453531
351770
383106
409101
411759
392873
313109
258304
307339
226894
328520
291452
302703
348902
298744
299916
319959
297877
336437
265861
246631
209480
270938
298775
249132
174311
159761
175690
151749
123002
109490
83127
85398.6
74016.9
52807
51924
46182.2
84683.1
96406.9
71637.1
56008
99242.7
95135.2
78635.7
82427.9
166129
94122.5
84751.8
76825.3
49430.4
24440.9
12148.6
3829.82
1642.23
5152.73
456.023
705.882
1964.88
10131.6
33947.8
34081.1
40466.6
53219.8
79549
73543.6
102081
74472.2
70792.1
106325
46786.6
38449.5
61115.6
43529.5
62547.1
63458.9
41762.7
32739.4
33400.4
28216.2
27126.1
24691.7
22457.1
14947.3
7988.01
19831.2
32902.7
99235.2
128213
137117
137956
112056
71436.3
73563.3
101785
147270
128178
102935
68967.2
75113.3
119019
84941.5
120016
113642
169975
178907
165768
148414
128204
130877
144504
116035
115356
92915.2
111815
129354
129178
151305
87983.6
74657.2
50019.8
99256.9
89500.3
120723
187695
175386
122904
86501.4
50084.3
55420.5
40849.8
44292.4
8483.2
4072.26
4481.55
28399.8
39948.1
15248.3
40824.6
83332
107313
48755.9
59673.7
76832.4
40832.4
20993.2
28499.7
47361.6
23722
21142.5
40773.8
43858.1
24794.8
23854.6
35542.3
52811.8
73910.5
55014.3
36903
27149.1
21565.9
7996.07
432.291
921.476
-976.906
171.87
-135.613
-986.319
614.824
93.4781
9441.81
11505.2
501.866
-8.26155
-3181.1
9597.85
11028.5
30437.2
29076.2
28992.9
45220.8
40345.5
27121
52978.4
98153.6
107440
88081.8
81387.7
101532
170634
145222
127487
102856
114914
130334
138296
173267
249865
319469
362211
443024
495081
524320
544029
582718
508488
493514
500324
467386
421007
397177
305129
355007
364681
464781
364500
384136
482002
564558
516253
619664
727903
577716
559901
489981
585669
455489
435743
407228
474744
460371
392455
384798
336194
372087
400511
358026
287056
297263
213467
130594
139161
155984
130192
126556
146398
108056
74777.9
47479.2
57805.5
17752.1
58650
71367.2
69772.1
91716.7
84306.6
45568.5
68781.7
103715
59322.8
73782.9
108332
73146.8
69491.5
112871
102452
126256
110755
165124
144273
93743.6
72595.9
87592.9
101297
91665.3
65150.6
52272.6
65398.2
45707.7
59427.6
30577.7
18651
22898.6
12315.8
10902.8
10716.4
3766.56
8512.25
14240.3
26141.4
15560.3
22136.5
23225.1
58797.8
53654.5
33933.3
36975.2
41873.1
77802.4
60610.3
33239.2
33681.9
25628.7
6892.29
11533.5
2438.03
3202.68
11758.1
29089.3
25343.9
11684
8332.22
1320.69
-112.036
435.234
1200.01
2971.47
6802.36
-619.981
-2436.11
3615.06
12084.9
-496.883
161.669
2738.68
1727.88
1791.36
749.207
-35.648
14842.2
4729.66
5106.86
14225.1
10539.9
20948.9
11184.5
15625.6
24506.3
23925.7
30933.5
13576.6
5637.37
9885.47
7168.39
3381.35
9344.85
5661.49
-134.91
930.051
309.499
-529.181
-189.231
-637.136
-503.396
5521.7
1737.51
-921.661
-400.131
-160.955
2850.36
3459.29
8444.68
11680.8
14251.7
190.437
-1072.94
821.913
1053.51
976.03
1360.69
2367.34
3820.42
-1177.64
-1330.11
1032.59
2818.88
21188.2
11474.5
11336.4
5190.07
-1301.2
618.587
-59.1236
1208.36
1120.34
125.042
-2920.58
-1180.19
-376.552
-1307.33
5975.42
3186.18
1327.06
1915.03
2267.42
5817.95
-1008.95
3292.06
4734.83
8791.72
-1186.71
-917.664
-817.699
2231.37
273.404
3047.27
4683.61
752.669
-1102.07
-2300.45
1020.76
1382.6
1378.57
83.779
2121.82
-559.55
-41.0782
-697.935
-19.0701
2729.98
2332.78
-944.673
-3555.8
244.661
7364.97
641.107
29.3424
3804.37
281.59
150.864
84.8967
4483.75
32038.9
26252.6
16446.8
10723.5
5348.67
4662.45
3542.56
-1100.72
-110.227
2044.39
-772.347
-667.1
-173.704
-456.221
2129.54
1998.13
775.513
-1291.19
-1838.23
15805.8
11012.5
33173.8
31862.5
27148.9
38423.6
5900.04
5160.54
20490.2
11169.9
20424.4
11038.4
14187.2
38665.5
23036.3
2973.67
4232
5536.21
4174.99
7442.56
36504.3
7755.09
10290.3
5083.99
12578.1
-1318.65
6080.33
-1828.22
-69.4217
653.15
663.844
2878.93
-136.481
4708.83
10636
2952.75
6318.16
12933
16459.3
7332.51
1844.24
10628.9
6603.48
2074.86
-612.849
-2938.65
-1304.08
1142.92
3161.46
-105.587
-838.199
619.847
1257.23
12.4186
-814.719
-933.928
-638.475
-1243.26
2699.68
1911.96
-670.845
1744
8360.97
20840.1
21572.3
28415.7
35852.4
8446.49
1620.31
-297.864
1942.8
18160.1
23248.9
28855
23616.7
52742.9
58032.3
52268.9
97741.1
115164
86606.7
104444
98676
58105.5
61098.1
56302.9
41040.2
39700.9
15147.3
13506.9
364.699
-295.011
3724.11
11975.9
9128.34
12625.2
8265.73
-73.2508
853.628
2207.68
-632.463
-1783.29
-1638.19
1709.04
11749.8
19519.7
22869.2
25513
15051.4
7066.65
6784.68
10968
4837.59
2976.85
-840.954
299.429
1941.41
404.468
-520.291
745.292
5240.89
2031.17
839.875
583.084
-1652.86
-1378.41
1341.91
6125.08
-56.9933
-5586.11
-514.81
19532.7
49898.1
48426
50571.9
49903.2
53175.1
18820.8
3791.03
203.7
-1159.91
683.506
3845.74
6529.14
1613.4
15663.7
20786.9
7649.12
9692.45
3076.22
8266.08
12938.3
19836.3
6979.67
9133.94
10247.4
20086.4
13086
9613.4
3999.77
934.868
4770.8
12850.8
16014.8
3135.54
3208.44
324.95
-655.123
2507.07
5399.6
22126.6
25387.3
19075.6
15811.8
22419.5
13394.2
5552.94
1311.54
254.674
5210.67
40977.6
29122.2
24362.2
34062.5
43004
77305.8
57421.4
52738.5
87305.6
75114.8
63532
137910
199246
212867
199060
184298
180915
78500
48659.1
37627.3
52572.8
69485.1
51220.1
34011.5
45807.8
56957.6
98536.9
83550.4
72032.9
80834.6
77910.2
79243.4
41371.1
6623.88
-828.901
-792.826
-2097.37
310.787
-667.386
-2436.52
3739.13
710.758
-958.441
-123.151
4211.63
3164.59
4735.56
8030.93
18916.8
26820.5
38372.9
17405.4
1197.94
11007.1
-4650.38
-653.904
-3006.48
12169
6573.67
1592.91
2097.63
1405.46
-1149.88
715.268
2722.1
6243.54
1447.34
-804.123
3120.28
10346.1
29544.1
1711.51
16214.2
9443.65
5694.19
-1950.01
-989.06
-982.293
-474.25
3620.26
14350.5
37227.9
26932.2
11518.5
50227.2
23049
39178.3
32502.1
29887.3
41004.3
33991.2
66162.5
63104.6
66551.5
106436
38766.3
55095.1
66546.2
44592.7
68627.6
64007.7
62866.1
77272.7
108294
58841.9
67437.8
66640.8
76159.2
85549.9
54537.3
34476.3
20605.5
13270.4
21865.6
28926.6
26006.8
11672.6
10847.2
3755.02
5.06796
-733.811
10271.9
14472.2
17822.4
23222.5
20707.4
13683.3
10126.9
5906.43
8232.67
4297.63
8716.74
20378.2
27188.9
34322.3
43918.5
47555.4
119252
101005
54103.8
38985.2
41338.7
41598
87621.2
78830.3
108779
123920
176480
200135
222325
266441
274731
169529
122989
173771
138392
132022
58660.5
35852.5
48638.2
43754.9
22382.7
5915.94
-6861.39
-617.451
463.131
5553.55
29536.3
36583
45418.4
75983.1
89202.4
116562
117784
141274
130869
93030
76365.2
41519.4
39083.4
10330.3
29258.8
20419.8
45335.4
58723.6
39488.7
6907.7
7082.66
39630.2
43444.4
45171
65465.8
76473.1
88884.9
136761
105059
61228.4
67765.9
39398.7
47881.8
42951.1
44271.3
45694.6
59073.1
63403.7
52619.7
27870
50100.2
37908.6
30889.2
27285.1
13371.5
16765.8
15381.2
25868.9
31517.8
55106.2
41310.9
63276.1
64024.5
66488.3
135795
189481
152304
201840
187975
135835
110546
109823
100628
109068
109107
104849
113015
93002.6
94797.7
115844
135887
161943
200198
234115
332448
298283
314032
297840
268245
249227
212421
256947
245897
222564
192925
109132
146287
151414
152631
134602
91624.9
108718
113235
125808
164989
222453
228707
221536
213145
259463
339916
360446
367778
320410
299024
236839
247496
168842
162491
142198
177112
271825
212379
210963
178416
132430
176558
213150
204340
224767
246324
266231
227761
182723
202860
184900
129410
113590
113252
71264.6
94778.1
58402.8
76452
24674
29444
44004.3
30078.7
26785.3
13903.5
8043.72
21000.3
-33.2323
11683
8164.66
6982.55
19263.3
4777.31
1277.68
-155.648
-1457.62
3370.07
3020.6
3165.59
7527.24
12274.4
13869.3
11709
28702.2
79849.9
115575
100649
83165.8
98519.8
106098
160088
143358
122083
117306
130475
180192
176079
213597
204631
141322
181466
215024
192218
260819
223744
191115
129253
127210
232813
296392
242019
248083
244655
235740
236446
221033
223553
252949
229567
284597
331815
321312
258381
243088
228009
208764
169123
146188
167191
192353
164865
99527.2
87635
84757.4
98774.3
96614.6
125460
148917
178686
189126
192221
205757
228599
237911
278484
238330
330059
367081
282615
223912
212506
187398
214437
198689
210359
211462
281122
215966
241638
169874
143602
129622
176867
133543
70461.9
41194.2
58057.4
39384.4
22064.8
13701.5
16465.4
15927.6
19996.6
26874.1
33158.2
11223.8
20879.3
27070.2
18058.7
10390.9
26508.2
32110.9
27078.8
19827.5
28778
25028.1
21064.9
24358.9
24033.8
12524.3
4605.1
452.95
764.582
-448.229
13974.3
28356.7
23189.1
37849.7
37487
50647.1
103070
110668
193847
225391
266828
386545
309200
281515
248917
273069
259743
230536
219689
187734
138057
144382
171320
142575
80054.4
47037.2
92149.2
148757
171270
255481
240416
249513
254807
226475
189407
96092.9
70830.3
68918.5
70213.3
80158.9
52324.1
26884.6
26599.3
30602.5
25374
35358.8
42536.5
47619.1
69944
89367.7
73299.8
67409.6
59087.9
72406.5
68285.1
101113
88592.4
90777.3
84259.6
132081
123731
167641
174625
182258
228681
205210
149936
171525
196781
227121
184228
166153
154350
128436
90378.7
119136
126518
116808
137383
113492
82686.5
105420
110418
123591
88709.8
57948.8
39321.7
41988
33698.6
41587.1
34933.7
54630.2
39584
53535.5
53002.7
36855.3
33986.3
26461.2
18447
29368.1
48171.1
62284.2
25858.2
16643.6
-1293.66
414.55
8158.69
8882.1
-2988.73
2196.57
-1640.74
2635.38
-293.463
411.133
-182.302
-94.7664
-21.4342
1521.22
9479.34
10239.8
13805.3
17765.4
25924.6
33233.2
56198.4
90284.2
78282.7
104574
107511
143150
156820
97480.4
87631.2
110231
137472
96119.3
151990
169998
179438
181772
260406
251191
234293
202708
178897
247807
289476
223329
208546
206479
169114
241314
199200
210061
156625
149946
94273.5
64961.9
41175.5
16291.6
16877.9
6244.57
22780.1
13231.9
3436.79
5245.67
-824.764
-3280.51
212.161
18716.5
18896.2
1961.43
-1769.73
2590.16
816.554
13313.3
642.594
12529
2338.29
111.152
125.985
-737.991
0.842733
-290.506
-996.78
-2979.78
-789.154
-2134.09
-75.9402
-1112.56
-184.082
728.678
5829.86
5159.04
7833.16
1374.62
1620.03
4542.47
9168
4514.61
12953.6
7209.39
20533.7
24007.3
5833.66
2706.5
5020.32
-2201.75
10716.4
11764.4
18936.2
20408.2
39386.8
64217.7
93595.2
114132
149652
120499
75873
96046.9
35638.3
27274.4
44312.6
41598.3
41140.3
46350
88260.7
42897.7
38711.6
25922.5
12491.8
10367.4
23090.5
4661.27
3569.35
2264.05
-94.3468
10545.4
-5470.21
-3772.91
-441.095
1593.29
490.918
6581.37
2926.01
35.2873
-329.273
1962.41
-1195.88
4525.4
11469.5
7343.5
11051.5
11153.4
41570
50484.4
79564.5
94449.4
86407.8
84929.8
55041.8
45768.4
24835
35678.7
5728.19
10489
4076.99
453.369
-238.933
-3010.03
-479.797
-286.598
-448.723
-735.244
-310.676
5506.48
14996.1
21203.5
8186.21
5539.13
5027.08
9232.51
7630.81
4413.32
7996.99
11917.3
14816.4
22999.1
13210.2
9072.49
11476.8
30882.5
47038.8
48692.5
515.859
6884.23
8194.39
13867
10986
9357.53
14735
1070.38
3944.03
-3473.56
3608.02
22432.5
26800.2
22620.6
22441.5
12456.5
26694.4
46353.1
32862.2
33584.7
58642.1
70753.1
96091.4
98498.1
107149
68324.3
29584
33116.4
51848.6
44727.7
54808.2
58711.4
71621.1
92805.4
83962.8
98974.5
108505
97189.8
86046.8
109575
66726.6
67734
43909.8
20303.2
9937.03
105.208
9575.36
1766.69
241.042
2416.98
-180.187
-1780.97
469.259
-489.847
3371.75
-1112.26
-2567.68
62.0023
-2564.29
-611.653
553.682
8942.31
2124.17
5333.38
42.0016
9300.79
2896.38
758.054
1668.96
-3239.66
3952.43
3759.17
8403.87
14607.3
4764.34
2098.58
-302.075
2503.64
-189.347
-1169.15
-1386.27
503.844
-698.091
359.681
-238.821
-1367.35
1556.51
1054.96
-462.554
-2973.02
-1857.87
-326.946
-180.156
4183.42
509.686
322.784
-3050.23
-1572.96
8415.96
14485.9
24613.7
18073
29005
12128.3
1792.43
-443.624
-147.128
-1415.5
3407.93
16971.1
7282
14627.3
14306
4086.17
14943
8754.46
-537.238
4420.32
12066.5
5010.41
701.218
-1727.2
375.316
-1213.26
1455.59
3876.84
4588.86
5467.78
1424.24
-299.652
263.209
-1196.53
-1381.84
-1602.8
-1108.08
-2385.01
402.462
8832.15
1383.41
12063
7512.67
3822.94
773.529
-307.042
-875.129
-53.0781
274.346
-1364.42
12214.4
9964.83
12313.9
16914.2
13690.8
11642.6
3240.48
1861.93
189.519
7597.87
29021.9
27758.3
17108.5
13779.2
27699.8
23962.4
22082.7
31743.9
26986
71408.8
85566
72097.1
75123.8
75490.9
63519.4
33606.5
15209.2
33357.7
50406.5
38121.4
66911.6
49659.7
53216.2
24570.2
32747.7
48398.7
58338.1
61097.5
79991.2
129429
87717
117737
128582
121454
82941.9
114683
115112
107856
154091
210795
193657
162320
187339
213286
222205
196421
161142
166864
147508
161894
177471
256396
232500
193924
172738
157771
143784
136133
118893
113520
130054
112629
126138
111178
145261
206967
204433
213746
172342
175143
111521
160043
88543.7
118412
124331
125339
131455
116216
179384
253457
264051
223958
307251
304200
354451
387539
354482
350225
372557
431134
450372
417485
459928
372021
321984
324061
393637
229219
148444
179102
168134
179048
122102
218791
210118
217311
215491
297409
244398
304841
421085
515838
538748
639288
741847
692260
811057
742400
773487
625910
474795
375285
365026
469803
512000
478454
484336
522918
410844
476574
481085
492355
553469
460950
349252
337654
399597
466260
395940
410416
448515
401269
396125
328080
407462
313289
348836
296549
376631
438543
516706
555487
600413
630159
634698
582665
626789
711972
629690
767304
788695
886735
897653
886184
901401
914841
790424
738118
673340
708308
742148
670486
636897
651004
727706
692967
653728
683803
710549
810599
760014
722103
666653
816796
783782
822152
886247
752501
797761
885571
787753
837686
973979
1.14055e+06
1.28686e+06
1.28923e+06
1.14958e+06
1.12481e+06
1.04837e+06
856464
968875
982727
985849
845484
869562
972702
1.10337e+06
1.11611e+06
1.08142e+06
1.29852e+06
1.34322e+06
1.42433e+06
1.40314e+06
1.60176e+06
1.58013e+06
1.37461e+06
1.53192e+06
1.51195e+06
1.59989e+06
1.56302e+06
1.61128e+06
1.4147e+06
1.23456e+06
1.04998e+06
1.11189e+06
1.06463e+06
1.00405e+06
825404
768052
811507
801366
709105
786839
664853
832905
822657
853410
790465
807434
866580
927380
828159
777188
744288
781458
836262
779680
702429
692413
563037
501331
423722
469504
512008
548753
480746
508817
538243
569879
468066
516700
570532
613282
553174
580720
669946
700940
584338
585545
449567
422645
400746
320459
354791
362811
388736
375238
386403
394139
465491
411725
373647
468827
490272
430177
505650
463034
517312
471881
445279
393886
334964
317078
322990
274649
311541
346601
376367
364935
369715
356139
340968
351764
319285
344599
325442
291805
321589
326746
343689
364382
404625
398331
465259
491943
462133
384324
461595
451307
470913
419979
465853
536726
498470
556987
524608
501449
459990
511724
501361
399849
382850
394640
432531
410069
435288
301353
273724
255357
212751
173125
191218
246363
247826
217470
246961
282816
199840
286228
220243
256116
308886
223499
236614
299926
342450
369679
295272
250712
235723
210124
157049
76059.1
143034
164156
117331
98374.9
78495.3
48750.7
52181.6
59934
95531.5
122849
160908
188674
208823
204182
286127
326297
276888
239210
261692
245660
179475
123071
108645
114886
87693.5
91740.9
103163
106454
161418
180701
198286
231724
257935
281846
272856
308065
269597
280549
289970
287638
334720
412652
433928
381163
347113
399229
470628
493791
467538
456970
547359
458133
496941
490416
392214
365637
287385
307525
278057
213648
179540
258683
298229
308032
303974
282643
333067
325602
360230
335935
299447
254315
229096
244023
153206
118749
203674
184535
180815
178869
211622
215724
171569
115325
116708
112324
103393
110157
145707
127624
91164.1
111411
143303
151183
154200
111405
148836
187174
183733
150243
112391
132155
125271
94943.5
91305.5
108399
123071
118443
115642
87393.6
121354
149573
197519
229482
158454
162896
119068
174956
201916
152512
160143
107682
156470
158728
166232
200974
287332
292607
250805
276749
316530
293279
296872
329732
197722
209506
240809
318360
324909
244126
191303
229199
279407
400548
402055
369751
369059
354742
319656
354809
374664
354369
366369
377864
345700
342036
347269
266588
297276
179845
149007
147921
131976
100392
148103
161956
177262
132929
103171
96994.8
81586.5
61973.9
48158.6
22631.3
52337.9
77831
96756.5
116943
138788
147511
181901
174601
191434
191066
216515
172174
184179
128648
198764
218570
145150
153794
95516.7
51521.1
55943.3
56747.5
40522.5
38661.3
45674.4
54513.9
67311.9
87703.4
114232
160900
133752
123406
147874
166912
134763
210007
197772
193791
221052
222380
220943
223304
269107
287590
273697
321490
342154
336040
311951
255466
270310
209640
221732
223823
253394
300615
291789
201470
193653
172255
159959
226939
321883
299890
281648
287122
283348
244063
166068
177588
161229
243211
294913
309828
352688
305723
237356
140051
115342
165982
155408
163167
155915
126663
84547.9
63685.8
66164.2
40703
36954.6
53498.9
47885.4
45273.2
38236.6
20139.1
11003.9
10882.4
9672.47
3580.35
10647.5
8358.38
-3015.15
5941.51
20810.1
18798.3
56409.8
18599.4
20144.1
2924.3
14661.4
22046.2
6317.29
25005
22440.7
25489.4
29697.9
17684.6
40036.8
76049.8
119879
75488.8
26593.4
26663.2
36204.1
32574.5
76376.6
90785.3
91949.8
65642
64946.2
120544
110736
115828
153372
162905
157343
161003
127672
136907
146281
147334
134510
116193
110652
105717
151425
266921
286769
317005
388638
469603
470705
385265
465726
543846
605684
620551
534720
599320
528364
524208
483193
411691
455773
438196
455368
502499
519000
587280
663425
800623
621591
706120
761343
757905
705251
707116
633956
674258
609742
569950
627269
678204
574523
691043
753131
757881
728812
714884
769248
790807
958307
827457
1.06192e+06
1.03757e+06
1.11555e+06
1.23396e+06
1.18345e+06
1.03898e+06
909687
1.05556e+06
1.08282e+06
1.02258e+06
967764
1.10174e+06
1.18613e+06
1.0075e+06
1.08938e+06
1.26157e+06
1.22417e+06
1.19933e+06
1.271e+06
1.38203e+06
1.46623e+06
1.47303e+06
1.52363e+06
1.56311e+06
1.66867e+06
1.45379e+06
1.34349e+06
1.32119e+06
1.40384e+06
1.40109e+06
1.38125e+06
1.29263e+06
1.23922e+06
1.33376e+06
1.27763e+06
1.40879e+06
1.30641e+06
1.40553e+06
1.30628e+06
1.25759e+06
1.10212e+06
921173
1.07267e+06
1.26606e+06
1.21272e+06
1.0817e+06
1.14393e+06
1.0407e+06
855154
786511
784679
833246
733390
703841
692744
727160
736361
799632
860284
927719
954178
1.04929e+06
1.17773e+06
1.15478e+06
1.18612e+06
1.22917e+06
1.10825e+06
1.05982e+06
985848
984253
1.01234e+06
967126
1.09271e+06
1.32494e+06
1.24181e+06
1.24629e+06
1.36136e+06
1.35215e+06
1.38233e+06
1.29508e+06
1.23357e+06
1.13031e+06
1.01492e+06
1.0994e+06
1.04293e+06
1.01373e+06
1.02883e+06
1.0113e+06
1.06699e+06
992844
1.0074e+06
999754
980702
863649
844186
770027
764154
931900
935636
973844
903561
691374
809796
776284
714215
724089
672601
612063
704680
727201
651300
677484
813157
922972
827936
726845
810895
998456
1.08445e+06
1.07589e+06
996159
949167
938472
914876
1.02148e+06
999096
1.06285e+06
808856
833559
851900
815462
757319
706597
686203
697007
677601
669612
602428
534354
492254
376618
405071
501418
493588
475043
463620
424768
351888
339489
360555
291076
228178
209756
210214
184925
111843
115939
142008
194054
230752
199544
193118
147283
215100
324576
416318
538554
564710
605184
558211
635004
594406
602448
555950
551185
484291
459065
453015
458768
411344
344104
304115
303095
337231
328278
375116
491214
497018
519919
582938
550269
567510
639531
642084
641901
509211
496864
536836
410818
319486
373627
339326
385455
451869
442483
438656
506796
481225
520841
343680
301891
238103
175854
283867
329351
301176
259747
245383
258125
278359
277993
310278
308921
249058
229745
205829
220131
156959
181527
211115
144325
83184.5
80162.6
58390.8
73728.2
60326.7
68945.5
43575.2
51858.2
25954.9
10806.2
45563.3
16627.5
5135.34
12783.2
2471.86
1233.77
6695.15
1900.12
-1425.11
595.566
8059.7
15636.8
25336.8
19502
45674.9
43298.4
43704.8
46215.8
69877.9
77464.4
44799.3
8858.47
2561.97
5484.81
3373.68
1427.35
-904.125
2696.64
-739.338
-2054.75
727.039
1087.88
9686.16
-902.628
2973.83
7434.61
12743.3
20826.9
34868.4
55913
97781.5
111483
111085
103760
56198.6
91614.3
116478
75400.4
64100.3
100469
111458
68716.7
53614.9
44667.8
62956.9
48165
27012.1
53397
44208.7
38600.8
18350
3506.35
-326.208
6101.85
5722.07
1759.39
2779.66
-305.957
20187
3337.95
1952.95
-627.298
2269.79
4020.74
15448.6
16457.5
29819.6
27212.1
15013.9
11246.7
26656.6
20396.1
12313.5
427.519
165.51
20663.1
6944.55
8589.11
10031.1
1581.41
2099.59
4252.69
-2613.06
-711.133
-1231.08
3494.07
16570.9
7622.08
3225.03
21724.2
28530.4
34343.6
1745.21
4024.54
19053.6
20297.8
15093.9
2960.13
5545.82
9615.21
42241.3
7169.14
-25.5894
442.968
565.164
-192.454
-637.897
-2401.03
225.867
1972.42
-600.544
2677.03
12366.9
19287.7
461.713
2576.7
5681.46
8434.81
4357.35
22845.3
29153.4
28473.3
43276.3
41042.9
41824.4
37339.8
45785.1
45835.8
55348.4
50056
88408.1
68153
71970.5
55566.7
84233.3
101491
102698
105002
30168
58307
86842
107485
195201
148925
168499
149363
109339
80443.2
127427
100279
81565.3
75455.7
142795
131250
172035
197631
260082
230253
212793
174672
158723
204949
212255
214149
208269
199204
209192
176327
212031
269936
300981
276035
277597
283381
324117
388477
393894
444179
536022
508624
532620
475394
593590
553736
555788
588531
737417
614620
551953
542544
688294
774128
621520
555796
508119
553544
571151
665411
721418
786156
747723
687545
670073
689629
794429
916438
839177
906878
822991
650299
587486
571389
513175
389470
413418
383449
451251
626840
551161
480325
435192
413417
393923
385672
349461
382494
346762
336997
324149
332552
337778
358559
374202
290131
228368
237094
336722
329848
342044
370129
398631
386565
360656
396580
397636
417455
496975
573557
555959
695260
699413
613990
717615
652685
683821
740391
782698
866699
1.0408e+06
1.03402e+06
1.06438e+06
1.13522e+06
1.16883e+06
1.1331e+06
1.11809e+06
963308
984526
1.04181e+06
1.06393e+06
1.18709e+06
1.09019e+06
1.10293e+06
1.2916e+06
1.18837e+06
966240
920393
952669
948086
967748
988249
946546
963609
894229
794434
678723
930035
889099
749652
730814
690136
605181
537113
452002
475610
417698
364624
371327
315141
367621
424721
438432
511689
479633
517822
402834
507124
479052
445082
487950
519454
537382
521788
498112
435627
459506
390891
310236
318746
354561
347874
319056
287296
290116
255389
242856
174508
190387
148938
138619
117530
97817.7
92191.3
137312
90827
38733.9
37483
28081.3
39981.1
36486.2
35337.5
30215.9
35899.3
28412.8
10498.1
19515.9
18004.6
52.9779
6693.41
24279.4
17361.1
20579.3
35087.5
47803.1
48638.3
29135.3
13265.7
10959.9
10925.6
2330.44
94.7203
-444.841
-74.6281
912.777
3185.7
5738.86
4578.21
4008.72
2355.84
-906.651
4836.06
-458.395
-1084.51
1029.7
5187.49
2663.26
24699.1
54196.2
79626.1
80954.7
85825.8
72471.6
51096.8
129713
136718
126744
66531
50843.1
50892.2
51824.9
69205.4
56534
89934.2
102727
84683.5
76835
64306.2
81988.3
75682.9
49393
47205.9
76369.2
83039.2
56966.9
40911.6
46458.3
118878
120541
122255
105838
54886.5
87437
82179.6
87711.7
65502.1
113947
154980
180224
139497
183780
229577
309709
422750
418873
404056
457192
423440
610391
702434
568669
493368
518728
424913
411102
346862
376954
426503
427478
448903
384195
336294
334515
359363
323123
298453
403643
369528
260168
190604
142272
134906
114735
107152
76695.3
69662.2
73490.3
153863
79094
40343
74373.3
135815
99732.5
57247.3
35877.2
33641.6
41107.3
45381.6
27160
60529.2
30189.7
57412.3
91328.2
51180.4
77207.5
70496.3
79879.2
86768.1
95474.9
82410.3
67308.8
84797.3
60181.1
44243.8
55053.2
32517.3
10248.5
10757.9
2770.63
3896.78
6977.5
17364.9
15358.6
1870.46
1607.08
9232.72
722.853
-128.699
2950.97
-3137.44
-883.689
1583.51
17402.9
11462.5
26301.1
64426.9
64323.9
71966.5
66201.6
62195.5
128631
167974
170706
199999
193392
204529
193863
234581
217091
202974
165878
118495
111550
112109
136978
136573
122163
109683
210870
256114
365733
444343
413777
442616
390293
299360
388957
441199
500391
494646
429988
430700
521953
625543
665518
694022
750255
880810
984389
912994
877873
934063
952657
1.0031e+06
981332
986026
956665
1.03922e+06
1.1927e+06
1.35561e+06
1.33497e+06
1.37361e+06
1.35767e+06
1.24166e+06
1.34311e+06
1.44835e+06
1.41358e+06
1.43847e+06
1.48798e+06
1.52681e+06
1.40193e+06
1.2358e+06
1.3031e+06
1.35193e+06
1.56719e+06
1.55947e+06
1.33486e+06
1.2899e+06
1.32878e+06
1.13816e+06
1.15984e+06
993038
1.02706e+06
1.02468e+06
1.06408e+06
1.06143e+06
1.20916e+06
1.21531e+06
1.3751e+06
1.33686e+06
1.37153e+06
1.28836e+06
1.16806e+06
1.30397e+06
1.33232e+06
1.48573e+06
1.3422e+06
1.32543e+06
1.35149e+06
1.36369e+06
1.208e+06
1.3157e+06
1.24565e+06
1.24949e+06
1.31713e+06
1.38299e+06
1.44194e+06
1.63798e+06
1.93732e+06
1.74437e+06
1.7583e+06
1.63882e+06
1.52949e+06
1.39871e+06
1.3907e+06
1.24825e+06
1.37327e+06
1.35037e+06
1.23259e+06
1.39843e+06
1.39014e+06
1.38121e+06
1.31153e+06
1.4085e+06
1.4174e+06
1.5323e+06
1.63936e+06
1.68441e+06
1.7133e+06
1.84949e+06
1.92637e+06
1.72118e+06
1.71141e+06
1.78984e+06
1.72124e+06
1.80597e+06
1.73422e+06
1.7174e+06
1.68888e+06
1.63161e+06
1.52104e+06
1.52624e+06
1.57319e+06
1.48395e+06
1.38403e+06
1.41817e+06
1.44002e+06
1.31826e+06
1.356e+06
1.13323e+06
1.23502e+06
1.34256e+06
1.39202e+06
1.44104e+06
1.4554e+06
1.34217e+06
1.24788e+06
1.05775e+06
866628
888813
1.07755e+06
1.09793e+06
1.05635e+06
1.05693e+06
1.06782e+06
1.08014e+06
1.12158e+06
1.01873e+06
975566
907201
970614
896147
772927
876526
993170
1.04526e+06
1.12429e+06
1.02902e+06
914902
776954
812683
866460
795461
879517
775543
742688
836155
877887
740078
626857
538986
601423
472090
471812
471748
429387
429681
342783
286287
248487
227532
273996
287069
241956
173166
192121
247986
297911
269546
221634
164592
112050
136700
190216
201189
230561
263719
238182
210756
241232
315996
402729
437720
345451
350769
295423
324565
341293
402214
426583
444189
591128
601490
578665
589941
505819
448661
439993
498369
406423
398505
526438
592460
579610
744049
810092
855679
856464
931782
950387
912853
1.10538e+06
1.12964e+06
1.15982e+06
988598
909978
880378
848661
965716
922065
891726
878587
710044
737943
672652
626486
513392
623062
663531
580636
608132
551072
527703
534589
514090
495672
489109
354643
359450
320459
236381
256515
276973
255192
281539
260574
313454
256820
246761
353371
280265
221217
230288
220102
300439
282011
261903
289874
234510
245870
266983
220030
210418
203537
244017
232109
290975
225112
204191
238401
265231
293573
430319
413602
316768
244986
282291
308802
298607
243280
243856
260215
363172
455355
431406
357017
366546
322349
334733
370632
390643
402867
345043
312132
283465
344694
257074
225706
230794
150020
166669
178160
232488
239043
314070
360811
351131
318656
329731
324052
301276
316527
366136
349685
316351
374644
453516
417610
442127
425974
467863
461092
538899
657271
596272
653993
507985
517019
488534
515939
468942
514541
525966
450693
426343
341321
313702
199105
235919
274539
267981
248250
288031
360442
449706
511112
566473
552495
611421
692555
775370
768222
676302
740848
553652
588479
594867
767318
748730
788393
640721
720030
882692
896051
944004
838519
897123
895011
873069
837817
791079
745020
744928
715616
703121
840558
911908
852065
939180
960777
899401
864030
831181
876403
831592
768187
798067
864795
806070
882359
1.02924e+06
1.21222e+06
1.20777e+06
1.11417e+06
901373
901618
795004
746115
668786
747527
793023
697776
735211
607418
680932
640815
502513
527305
561815
650741
609757
579209
556152
496923
559963
674464
800132
930067
933372
884558
941596
866342
717764
757202
644560
601845
622621
641410
810893
603011
599217
584062
610741
600445
465135
516898
417346
379039
405290
490915
588020
552720
572995
496709
495413
452417
377700
458825
499360
588981
632403
599799
617081
617253
642317
605329
639949
626528
685436
590787
573226
471563
558310
522003
