694855
-2.14194e+07
1.66005e+07
1.259e+07
-3.48101e+06
6.86502e+06
-7.89563e+06
-8.09055e+06
4.57911e+06
7.30602e+06
7.84008e+06
1.12668e+06
-4.2061e+06
-7.02042e+06
7.49277e+06
5.66142e+06
3.46575e+06
6.50971e+06
4.52407e+06
6.62831e+06
7.94927e+06
-9.48717e+06
-360020
-4.44672e+06
3.53032e+06
-1.1142e+06
-6.19217e+06
-1.01797e+07
1.89242e+07
-3.67515e+06
2.56844e+06
803456
1.23846e+07
-241584
-4.01578e+06
-3.27732e+06
7.2743e+06
1.46543e+07
-720203
4.33143e+06
-4.34839e+06
-2.48092e+07
-3.45191e+06
-3.27788e+07
6.12286e+06
384052
1.26256e+07
-7.61728e+06
2.19216e+06
-9.6274e+06
3.23894e+06
-8.8722e+06
-4.6914e+06
-4.51973e+06
-1.08702e+07
3.34696e+06
1.20655e+07
1.01184e+06
-1.21937e+07
-5.67467e+06
-6.38316e+06
-7.90484e+06
-1.64857e+07
1.18948e+07
-3.13977e+06
-8.17099e+06
-619483
1.62483e+06
-3.96199e+07
746605
4.4109e+06
-3.40678e+06
9.08953e+06
-1.3781e+07
-1.5173e+07
-476260
-1.50047e+06
-3.1077e+06
8.34525e+06
6.39357e+06
7.128e+06
-5.89129e+06
-1.56335e+07
-7.37105e+06
-1.78739e+07
4.42526e+06
1.51538e+07
8.71018e+06
2.40853e+06
4.20928e+06
6.71606e+06
2.58702e+06
-105321
-9.22587e+06
2.57406e+07
1.14953e+07
-2.59769e+07
-1.94464e+07
7.9396e+06
9.52925e+06
-1.40371e+06
1.13934e+07
-1.09356e+06
-1.48907e+07
-1.19896e+06
910640
1.70769e+06
5.42297e+06
2.42823e+07
-1.43158e+06
7.17788e+06
1.4341e+06
4.97503e+06
-2.00864e+07
2.1965e+07
3.4713e+06
5.8344e+06
751614
1.5219e+07
164055
-7.86071e+06
1.72827e+07
1.9147e+07
-4.992e+06
-3.08702e+07
-719511
1.33771e+07
4.35305e+06
1.27174e+07
-9.82304e+06
-2.00104e+07
3.15231e+07
-2.21322e+07
1.26693e+07
9.38328e+07
4.8699e+06
-1.10505e+07
-522112
-7.93272e+06
-1.14311e+07
4.73602e+06
-3.37831e+06
5.4323e+06
6.99865e+06
4.61841e+07
1.37061e+07
6.13759e+06
3.35019e+06
2.80228e+06
-2.4779e+06
-4.49166e+06
2.343e+06
-1.13078e+06
8.43313e+06
-5.29791e+06
-9.0128e+06
2.89584e+06
-3.84354e+06
1.23836e+07
-1.05539e+07
-2.19432e+07
-6.62298e+06
-3.22901e+07
2.56468e+07
-6.7992e+06
2.11139e+07
1.76326e+06
1.11864e+07
-3.58621e+07
1.1346e+07
-1.70372e+07
-8.60349e+06
-2.29899e+06
6.18302e+07
7.37291e+06
1.00447e+06
1.13799e+07
-1.58153e+07
-1.50186e+07
1.15361e+07
-2.27749e+06
5.78566e+06
-5.21462e+06
-1.18328e+07
-5.58616e+07
-38500.2
1.03609e+06
-2.964e+07
-6.24592e+06
-2.11626e+06
2.5346e+07
-1.10185e+07
-6.22753e+06
-4.00912e+06
-8.97957e+06
-3.39187e+06
-1.04379e+06
-3.1004e+06
-1.13265e+07
4.94348e+06
1.57372e+07
1.63066e+07
2.35691e+07
-6.16196e+06
1.97114e+06
2.22237e+06
1.57122e+07
-1.15288e+06
-3.15924e+06
-1.4314e+07
2.32555e+07
2.29405e+06
576880
-4.36112e+06
1.14636e+07
-4.5953e+06
7.79381e+06
8.6241e+06
-566561
-1.22895e+07
-6.07184e+06
6.78765e+06
-2.47434e+07
-3.10335e+07
7.97158e+06
-1.30176e+07
1.68658e+07
-5.78998e+06
-1.10268e+06
-1.68895e+07
3.31409e+06
-5.5907e+06
-5.72353e+06
-2.10985e+06
-3.71865e+06
5.84973e+06
-1.78458e+07
-7.34408e+06
-9.97841e+06
-4.87361e+06
-5.33667e+06
2.28844e+06
2.22902e+06
3.72745e+06
3.98181e+06
3.97218e+07
1.8838e+06
2.13043e+06
-5.8555e+06
2.7865e+06
1.04933e+06
-6.88377e+06
2.86808e+07
7.61887e+06
1.10378e+07
2.20441e+07
4.63043e+06
5.98501e+07
215335
1.55474e+06
-3.52717e+07
-8.24708e+06
1.24691e+07
-2.66865e+06
-6.84296e+06
-5.85839e+06
1.07918e+07
2.88321e+07
-4.21253e+06
-7.28126e+06
-3.28856e+06
-5.28204e+06
-3.22129e+06
-1.10648e+06
1.25987e+07
4.04673e+06
-1.60152e+07
1.39082e+07
8.8004e+06
3.42441e+06
-6.59263e+06
3.40441e+06
-2.71027e+06
1.12968e+07
9.70147e+06
-1.95225e+07
-8.42411e+06
1.32535e+07
1.5934e+06
5.11579e+06
-4.04269e+06
5.83898e+06
-5.60367e+06
-3.1626e+06
-9.43258e+06
-2.92834e+06
-2.04771e+06
348900
-3.84346e+06
-1.90124e+07
9.69353e+06
-2.8555e+06
5.00712e+06
1.34838e+07
-1.23017e+06
5.24552e+06
-8.09884e+06
4.85817e+06
673594
-9.78653e+06
4.16382e+06
6.34561e+06
-4.45458e+06
8.49496e+06
-8.26758e+06
-6.30648e+06
-1.47765e+07
-1.3522e+07
2.0527e+06
4.04658e+07
3.36074e+06
2.58301e+07
8.161e+06
3.48759e+07
-1.85818e+07
-90105.8
-9.98335e+06
-6.67208e+06
1.909e+06
-62433.2
2.92185e+07
868895
1.90709e+07
-4.18315e+06
1.24948e+07
-4.11108e+06
8.11645e+06
-1.9077e+07
-1.85563e+07
-4.3059e+07
5.39205e+06
4.68854e+06
-2.84169e+06
-5.12524e+06
-6.44276e+06
1.29391e+06
-9.29111e+06
6.57415e+06
2.13348e+07
8.42803e+06
1.1559e+06
5.46005e+06
-1.69706e+07
4.76946e+07
-1.59809e+07
6.60106e+06
-2.35206e+07
-4.86257e+06
-6764.84
-6.57958e+06
7.76939e+06
-1.70054e+07
3.06564e+06
2.08296e+06
4.26786e+06
2.05438e+07
5.79926e+06
-1.82266e+07
-3.7258e+06
-5.61581e+06
-1.76159e+07
-2.78472e+07
-915589
7.26991e+06
-2.06951e+06
4.48029e+06
2.5334e+07
1.24412e+07
-3.68529e+06
1.54126e+07
-1.23181e+07
4.9058e+06
7.02321e+06
1.08211e+07
2.04059e+07
1.12667e+06
-2.03733e+06
1.76581e+07
-113081
-1.56989e+07
7.66758e+06
-4.34254e+06
5.64922e+06
2.93955e+06
-1.4869e+07
888156
-9.42006e+06
6.12047e+06
-1.03198e+06
-1.18622e+07
7.46536e+06
1.46584e+07
-1.12749e+06
9.13896e+06
7.00182e+06
366322
-7.39352e+06
-1.0512e+07
-1.63184e+06
2.32117e+07
3.1461e+06
1.80778e+07
5.51172e+06
6.99413e+06
6.74501e+06
-4.49111e+06
-1.28297e+07
-408961
-2.09238e+06
-7.50621e+06
1.37468e+07
1.32901e+06
1.07002e+07
-3.55769e+07
5.19794e+06
9.34201e+06
-5.44806e+06
-5.27481e+06
-5.88691e+06
1.5102e+07
-7.84789e+06
3.11523e+06
1.1236e+07
5.10436e+06
-3.85506e+07
3.44362e+06
-3.57875e+06
1.57807e+06
-2.0069e+06
2.30513e+06
-2.40446e+07
6.43718e+06
-5.51895e+06
3.52018e+06
-1.348e+06
1.03402e+07
-8.63081e+06
-5.78549e+06
-2.87742e+06
-1.53672e+06
2.51767e+07
8.74988e+06
-1.01304e+07
-1.67782e+07
229933
-4.98581e+06
-1.97003e+07
3.24159e+06
2.26348e+07
4.09505e+06
-8.21638e+06
1.72076e+06
-2.0325e+07
-487614
1.81143e+06
-3.94139e+06
1.37947e+07
2.04062e+06
-1.77239e+07
1.3297e+07
1.4433e+07
2.31147e+06
1.26991e+06
-1.79046e+07
-8.83425e+06
-2.49991e+07
2.25739e+06
780642
-5.65406e+06
9.20619e+06
3.4871e+06
-9.38473e+06
3.62085e+06
-1.12215e+07
-3.39837e+06
3.31624e+06
2.32362e+07
-3.16442e+06
2.37729e+07
-2.53005e+06
-7.50472e+06
-7.34256e+06
-1.38623e+07
4.66522e+06
-762439
1.67588e+06
1.98082e+07
907106
153705
-1.46097e+07
-1.41739e+06
-1.42559e+07
1.04236e+07
-3.18469e+06
-2.79454e+06
-7.35427e+06
-7.1382e+06
1.42161e+06
-1.52009e+06
1.20614e+07
-1.48756e+06
-2.62345e+06
-1.11518e+07
-2.69168e+06
2.2037e+07
1.23371e+07
-2.34705e+07
2.49547e+07
-2.66877e+06
-1.33587e+07
-9.91726e+06
-1.24453e+07
8.45595e+06
-1.28931e+07
9.30859e+06
1.5656e+07
-2.48117e+07
1.80696e+07
-1.97166e+07
-2.06142e+07
-2.2274e+07
1.79174e+07
-5.02059e+06
-8.59386e+06
6.22702e+06
1.56111e+07
2.346e+07
2.80318e+07
-2.01476e+07
1.55273e+07
-6.53108e+06
1.76012e+07
-2.95501e+07
597994
7.11701e+06
-823439
-4.30008e+06
-1.39311e+07
-1.56509e+06
-9.33918e+06
-2.57149e+06
7.58308e+06
2.63203e+07
-9.4656e+06
-1.08541e+07
651669
-8.79537e+06
-7.64488e+06
-2.09416e+07
4.65178e+06
1.80927e+06
2.57742e+07
-3.72882e+06
-1.09242e+06
-8.84634e+06
1.06444e+07
1.95642e+06
-633963
1.00917e+07
1.31906e+07
2.04826e+07
2.03618e+06
1.60242e+07
-2.83346e+07
551045
3.15101e+07
-1.12476e+07
-1.14774e+07
7.76752e+06
-2.84254e+06
-3.34918e+06
7.37699e+06
8.96666e+06
-9.6846e+06
2.62155e+06
181787
8.85231e+06
-5.74503e+06
-6.68592e+06
-9.99366e+06
5.79048e+06
3.17809e+07
-8.82947e+06
3.26545e+06
-5.10805e+06
1.36794e+06
1.6385e+06
-1.19951e+06
2.0738e+06
-1.89569e+07
-262628
9.00421e+06
2.10395e+06
830009
9.79397e+06
4.97948e+06
-2.02824e+07
1.93639e+06
-1.11962e+07
1.79658e+06
3.98245e+06
2.07626e+07
-3.73984e+06
-2.49864e+06
1.3585e+07
5.18637e+06
2.4817e+06
-8.1788e+06
4.52214e+06
-4.05479e+06
1.6939e+06
-8.37868e+06
3.9345e+06
-4.14357e+06
-8.50677e+06
7.94872e+06
2.14925e+06
-1.88772e+07
3.3398e+06
-2.28085e+06
9.59817e+06
1.44602e+07
1.48197e+07
-5.97648e+06
8.22644e+06
-1.27865e+06
1.97565e+07
9.19606e+06
-7.5986e+06
1.15506e+07
-2.53359e+07
2.81149e+07
-1.41923e+07
1.53355e+07
-6.44422e+06
-7.99112e+06
-1.84765e+07
-4.63111e+06
2.01743e+06
8.75443e+06
2.52422e+06
2.44999e+06
-4.97182e+06
-2.72022e+06
1.03492e+07
1.82861e+07
-8.75057e+06
2.0862e+07
-1.16141e+07
-1.33517e+07
-3.04362e+06
3.80807e+06
1.11315e+07
8.04311e+06
-3.87283e+06
5.95363e+06
4.5023e+06
-3.05809e+07
-1.4958e+07
3.37917e+07
912165
-6.58326e+06
-5.10353e+06
1.1598e+07
-8.29178e+06
8.72863e+06
3.54207e+06
-3.12722e+07
-1.78558e+06
-1.13994e+06
-9.37218e+06
-2.42167e+07
-5.442e+06
-1.77962e+06
-1.25856e+06
1.48102e+06
-4.09255e+06
1.32344e+07
-4.8646e+06
2.18364e+07
1.37548e+06
-2.83711e+06
1.33953e+07
-7.20391e+06
1.96888e+07
3.35854e+07
1.25739e+07
6.194e+06
3.89087e+06
2.33157e+07
1.22543e+07
1.57955e+07
-5.24828e+06
-4.92698e+06
-1.49383e+06
3.8204e+06
-2.59909e+06
9.9533e+06
16094.3
879936
-3.11885e+07
-9.379e+06
3.42454e+06
4.34921e+06
9.75658e+06
9.48601e+06
-7.12204e+06
5.2022e+06
5.26495e+06
-560727
-1.18344e+07
-2.7778e+06
5.23829e+06
-2.53504e+07
-1.20389e+07
4.45387e+06
-7.45833e+06
-5.51013e+06
-1.23138e+07
-3.29051e+06
-6.76296e+06
-2.00415e+07
-4.94438e+06
6.32623e+06
1.01495e+07
5.76665e+06
1.94803e+07
4.32322e+07
4.78426e+06
4.59208e+06
3.91908e+06
1.26062e+07
3.46618e+07
1.62147e+06
1.31793e+07
9.7909e+06
-1.06004e+06
-3.696e+06
3.88449e+06
2.28285e+06
3.44117e+06
-2.5897e+06
-5.3191e+06
-1.94817e+07
1.55365e+06
-6.66602e+06
54690.3
37053.9
-8.92835e+06
-1.89174e+07
8.57666e+06
4.78362e+06
-7.63833e+06
-5.09542e+06
1.82495e+07
7.01692e+06
1.79469e+07
-935910
4.2926e+06
-1.40116e+07
-1.07792e+07
-1.02062e+07
-4.894e+06
-1.22437e+07
3.34294e+06
580682
-584803
-8.35394e+06
573312
-2.77738e+06
1.62728e+07
2.46851e+07
7.36319e+06
-3.9097e+07
-9.86265e+06
-1.69138e+06
-2.33295e+07
389647
1.01308e+07
4.56775e+06
1.45224e+07
5.55079e+06
-1.35625e+07
6.77088e+06
-2.44637e+06
-8.99753e+06
-4.98287e+06
5917.51
-2.05022e+07
3.28986e+06
-7.55909e+06
1.98011e+07
-3.26901e+06
1.57578e+07
1.70032e+06
2.03305e+07
1.24925e+07
-1.57322e+07
3.94922e+06
5.6865e+06
-1.72936e+07
-2.21425e+06
1.41821e+07
411964
6.69388e+06
-1.08768e+06
-4.66775e+06
5.9081e+06
2.27107e+06
-1.75893e+07
-6.45107e+06
1.37673e+06
1.06768e+06
-1.24515e+07
5.78629e+06
-2.38652e+06
-3.79155e+06
-3.6343e+06
-1.54132e+06
8.04285e+06
6.5149e+06
-3.3954e+06
4.61989e+06
1.01142e+07
8.71066e+06
5.15713e+06
-4.56925e+07
-1.11321e+07
-7.34537e+06
5.94336e+06
1.61285e+06
8.23588e+06
-3.32945e+06
-3.80974e+06
-3.85701e+07
-1.48961e+06
-1.01181e+07
9.03726e+06
2.22545e+06
1.04531e+07
-3.8832e+06
6.49687e+06
-6.56027e+06
-1.35139e+06
-1.64391e+07
3.61741e+06
1.15471e+07
-5.71403e+06
2.03727e+07
-1.16262e+07
-1.74255e+07
-4.32885e+06
1.91358e+06
3.23971e+06
-1.09869e+07
-1.19946e+07
-3.81649e+06
2.71308e+06
1.88607e+07
-4.83593e+06
-1.24773e+07
1.91674e+07
-5.87821e+06
-3.50644e+06
-6.59952e+06
-6.78448e+06
273781
-8.88235e+06
1.92426e+07
-826843
2.13754e+06
3.19662e+07
-9.61424e+06
-1.29653e+07
4.44237e+06
-1.1896e+07
-3.82431e+06
-6.16918e+06
-1.48022e+07
-7.6558e+06
-1.18132e+07
4.6477e+06
2.94793e+06
4.85677e+06
-4.89641e+06
73899.5
6.53096e+06
2.60174e+06
8.29166e+06
-1.59254e+07
-3.92681e+07
-5.3476e+06
4.13869e+06
1.59415e+06
-636045
8.71913e+06
3.52554e+06
-5.59966e+06
1.08754e+07
-1.24204e+07
-9.38913e+06
1.77635e+06
-1.26433e+07
-4.63699e+06
3.06342e+06
-1.35125e+06
-1.3948e+07
-7.59021e+06
-5.53784e+06
-2.16508e+07
-106863
-7.1779e+06
-2.00283e+06
-1.49652e+07
-4.4299e+06
-2.98452e+06
-9.7875e+06
1.99255e+07
6.84871e+06
-1.8862e+07
5.77297e+06
-6.9322e+06
6.24469e+06
3.89822e+07
7.38294e+06
1.04508e+07
2.17658e+06
2.02066e+06
-2.40098e+07
-2.0919e+06
-1.46621e+07
-1.89076e+06
-60666
-1.35568e+07
3.78927e+07
1.23146e+07
-6.43989e+06
3.80429e+07
-2.62204e+06
-2.40994e+07
203222
-8.86925e+06
1.00718e+07
-9.03433e+06
-1.55664e+06
-9.55889e+06
-8.76244e+06
-3.78524e+06
-4.53331e+06
2.14266e+06
-5.05964e+06
1.24689e+07
-6.55544e+06
-491505
2.16427e+07
1.09801e+07
6.25709e+06
-5.54087e+06
1.11436e+07
2.0634e+07
-2.56677e+07
-307090
3.29745e+07
-3.42953e+06
-4.64799e+06
2.79333e+06
-2.34342e+07
7.62577e+06
-4.58871e+06
-1.81691e+06
244506
-3.44478e+07
-4.36297e+06
-63929.6
4.98521e+06
-1.54654e+07
-7.70244e+06
1.57277e+07
-1.45515e+07
5.85001e+06
1.12036e+07
684076
-2.0975e+07
-2.00452e+06
1.82845e+07
1.15148e+07
-1.52734e+07
-1.51549e+07
1.14771e+07
-2.55836e+07
2.78396e+07
1.66174e+07
8.3357e+06
-1.56898e+07
-893857
4.20608e+06
-1.62964e+06
1.49026e+06
-1.60986e+07
-1.91151e+07
9.84232e+06
5.27036e+06
9.0192e+06
-414128
1.64171e+07
95680.4
-303718
8.65576e+06
-5.13405e+06
4.76647e+06
-2.51505e+07
9.00259e+06
4.54906e+06
1.64137e+07
3.02566e+06
-601126
8.35432e+06
-6.80042e+06
1.53993e+07
3.96997e+07
-1.12539e+07
4.14274e+07
-1.96692e+07
-1.02768e+07
1.07349e+07
5.74681e+06
3.17386e+07
2.11484e+06
4.5532e+06
1.14396e+07
7.6923e+06
1.22802e+07
-1.93428e+07
1.64663e+07
-488996
2.25532e+07
1.14499e+06
3.75545e+07
-966248
-3.65971e+06
-1.91888e+07
-1.06728e+07
1.56321e+06
1.11453e+07
-6.53211e+06
-8.75332e+06
1.05389e+07
-6.18743e+06
-1.02274e+07
-7.8408e+06
-2.33729e+06
9.11775e+06
1.1503e+07
4.64023e+06
705376
5.65645e+07
-7.30624e+06
-7.57482e+06
649233
2.03958e+06
1.79182e+07
-1.35599e+07
-1.40069e+07
-733645
7.58491e+06
-8.97446e+06
-6.83637e+06
9.52498e+06
2.01766e+06
9.47422e+06
7.14766e+06
2.10899e+06
1.27944e+07
1.01419e+06
2.076e+06
-1.57631e+07
2.89809e+07
-9.36314e+06
669323
2.942e+06
-1.38707e+06
-5.0319e+06
-4.64608e+06
5.87468e+06
-1.36206e+07
3.37354e+06
-54317
-4.46671e+06
-1.36401e+06
5.55209e+06
302315
1.93891e+07
-2.91657e+07
-4.30778e+06
1.29482e+07
3.35867e+06
-2.11744e+06
7.4001e+06
-4.61391e+06
-1.62673e+07
-416908
-5.20584e+06
-4.47747e+06
-5.69388e+07
-9.86315e+06
4.00749e+06
1.67934e+06
1.0496e+07
-3.54241e+06
-9.99535e+06
4.88224e+06
73438.9
2.1598e+06
5.30572e+06
-518934
-1.04547e+06
-6.07514e+06
-3.52154e+06
-5.85547e+06
-1.24853e+07
972117
-3.07445e+07
6.57202e+06
-2.49982e+07
-7.85341e+06
-4.81973e+06
-5.93604e+06
-7.06822e+06
6.28546e+06
3.98365e+06
9.01973e+06
6.74957e+06
2.45902e+07
4.02201e+06
-5.49309e+06
-2.32441e+06
-9.42434e+06
1.28948e+06
-6.32588e+06
4.12146e+06
1.15217e+07
3.10236e+06
-6.21348e+06
1.42621e+06
-1.12862e+07
7.59222e+06
-6.04318e+06
5.4655e+06
-2.35627e+07
-8.00093e+06
-8.41131e+06
-2.1432e+06
6.42937e+06
-2.74105e+06
-2.28563e+07
-2.30524e+07
-2.40484e+06
-7.71219e+06
-486551
-1.52929e+07
-211570
3.92513e+06
5.28807e+06
2.44007e+06
-1.03021e+07
9.59082e+06
-1.25735e+07
4.85488e+06
-1.09584e+07
-85852.8
5.91582e+06
239592
412898
-9.12731e+06
232181
1.90008e+07
1.25221e+07
1.95797e+06
-2.91464e+06
8.29574e+06
673015
-5.76462e+06
4.26146e+06
7.44879e+06
2.18103e+06
-7.18446e+06
455515
1.28645e+06
-2.59669e+07
2.93646e+07
-2.70529e+07
-6.62235e+06
412285
-2.23692e+06
1.54051e+07
-2.60866e+06
1.14543e+07
-6.27553e+06
1.73796e+07
2.54533e+06
-8.78276e+06
2.24265e+06
5.67655e+06
857519
-6.23626e+06
4.35025e+06
-6.29811e+06
-6.54439e+06
-1.92765e+07
-7.47931e+06
8.09332e+06
2.20435e+06
-1.27651e+07
1.71845e+06
-1.3173e+07
7.06808e+06
-2.03252e+06
4.30838e+06
-3.65166e+06
1.41894e+07
-1.14719e+07
-1.0705e+07
9.00947e+06
3.38693e+06
-2.09508e+06
488249
5.15037e+06
4.29365e+06
5.67873e+06
5.75024e+07
2.68313e+06
2.44594e+06
1.1085e+07
2.34774e+06
-3.1363e+07
-554687
-8.21988e+06
-5.40027e+06
2.97509e+07
-1.6403e+06
4.45027e+06
3.54043e+06
-1.50328e+06
-7.83558e+06
7.11054e+06
-1.36101e+07
-4.95783e+06
1.47574e+06
-9.00826e+06
1.57517e+06
-1.68832e+07
1.57387e+06
1.87973e+07
-2.95642e+07
5.65104e+06
-1.08265e+07
3.2608e+06
-3.13883e+07
-1.03965e+07
636790
-1.38875e+07
-1.50327e+06
744632
2.91655e+06
1.00628e+07
6.37579e+06
4.55175e+06
-1.23129e+07
-2.65649e+06
1.14624e+07
-2.82794e+06
-1.60685e+07
5.684e+06
1.84254e+06
-1.66073e+06
822621
-4.54873e+06
-2.25015e+07
-4.27978e+06
-2.12114e+06
3.84882e+06
-6.39673e+06
1.44062e+07
2.03088e+06
-4.31628e+06
-3.42794e+07
-1.63088e+07
-1.08415e+06
-3.03567e+06
-1.52845e+06
2.12069e+07
3.33545e+06
-1.31607e+06
-1.24828e+07
5.91929e+06
1.54597e+07
-3.60086e+06
1.11902e+07
2.0414e+07
4.20749e+06
-1.02477e+06
1.67576e+07
-363810
6.9407e+06
-2.25976e+06
5.00366e+06
-1.41222e+06
-5.65799e+06
-1.77553e+07
-115022
2.51103e+06
-5.53189e+06
7.81054e+06
1.39069e+06
2.16699e+06
-2.20565e+07
1.18838e+07
1.69722e+07
-2.38925e+06
4.48478e+06
6.66398e+06
-1.46893e+07
-2.86861e+07
3.81765e+07
-9.02515e+06
1.19139e+07
7.27926e+06
-1.37603e+06
-545048
2.03138e+07
-2.24379e+07
-4.98688e+06
-2.5643e+07
2.97512e+06
-2.37923e+07
2.17005e+07
2.93471e+07
7.55142e+06
-2.4026e+07
-1.1743e+07
5.23151e+06
1.31539e+07
8.15308e+06
509508
-1.32501e+06
-8.67963e+06
-2.11729e+07
1.96211e+07
4.72985e+06
-1.93005e+07
540816
2.76464e+06
6.93484e+06
8.22907e+06
-7.00405e+06
-2.0804e+06
3.61278e+06
8.24169e+06
5.04518e+06
-2.86141e+06
9.92746e+06
1.11613e+07
2.31742e+07
1.9536e+07
4.49969e+06
-6.23931e+06
8.98205e+06
5.55536e+06
855423
-8.28674e+06
-3.06229e+06
8.84601e+06
-1.25977e+07
-6.72654e+06
-3.46027e+06
1.42691e+06
1.28948e+07
-1.1854e+07
-3.07634e+06
3.22744e+06
3.12936e+07
1.45386e+06
2.39332e+06
8.82884e+06
667272
4.36015e+06
1.37557e+07
1.99123e+07
8.59934e+06
-2.85174e+07
-8.06541e+06
5.29176e+06
1.11184e+06
-9.18079e+06
-2.45891e+06
3.0106e+06
-2.14146e+07
-1.4086e+07
-7.80049e+06
9.16225e+06
-1.4009e+07
1.54842e+07
3.26995e+06
70852.7
9.8327e+06
-2.36973e+07
-2.5162e+06
-4.60096e+06
-1.28109e+07
8.52587e+06
1.38322e+07
3.53603e+06
3.95742e+06
1.14817e+07
-1.3314e+07
-6.83923e+06
-2.86966e+06
3.8543e+06
-2.07359e+06
3.80216e+06
1.55691e+07
1.57162e+07
-9.7854e+06
1.7438e+06
1.18185e+07
-6.75083e+06
9.35657e+06
1.42582e+07
3.41234e+06
-5.84853e+06
-5.80454e+06
1.85374e+07
1.98806e+07
1.90955e+06
9.46432e+06
2.4767e+07
7.83075e+06
7.93631e+06
-1.52987e+06
2.65672e+07
2.59545e+07
-72271.9
932934
-5.61579e+06
-7.43871e+06
5.70454e+06
-741786
1.78941e+07
-9.94749e+06
1.23525e+07
5.00871e+06
8.05434e+06
-8.95458e+06
-1.86207e+06
1.9119e+07
1.08455e+07
1.84332e+07
-2.57202e+06
1.15342e+06
-1.06765e+06
7.19367e+06
-4.66585e+07
-4.20993e+06
-6.05569e+06
-1.53605e+07
144691
7.14471e+06
-4.44451e+06
-1.81542e+06
-1.32014e+06
-2.80874e+06
-5.09275e+06
7.072e+06
-1.2869e+07
3.22376e+06
2.4531e+07
7.09137e+06
1.84696e+07
4.21874e+06
3.44869e+06
3.41447e+06
3.75466e+06
-9.72903e+06
-3.2256e+07
-6.51921e+06
1.35678e+07
2.80999e+06
3.15135e+06
-9.20704e+06
-6.90992e+06
-37260
-1.24395e+07
723294
-2.32453e+07
1.3382e+07
1.24474e+07
-1.29071e+06
-5.17316e+06
2.41653e+06
1.03909e+07
4.7975e+06
-2.19705e+07
3.69004e+07
1.6361e+07
4.10978e+06
-951123
-7.62686e+06
4.08632e+06
-3.05951e+07
-3.43014e+06
-7.80663e+06
-2.62026e+06
-1.15808e+07
-3.16405e+06
-2.822e+07
-808251
147483
-993792
-5.43646e+06
-2.04242e+06
1.01745e+07
5.2645e+06
-5.98185e+06
7.61452e+06
-692628
-4.03992e+06
-2.84877e+06
-1.99332e+07
1.62413e+07
-1.21565e+07
-1.43495e+06
1.60946e+07
1.46215e+07
1.76801e+06
-1.24341e+07
1.16212e+07
1.00788e+07
1.93747e+06
-1.57442e+06
1.26938e+06
-9.68215e+06
4.91059e+06
-4.26446e+06
62802.6
6.41147e+06
-4.83568e+06
-3.24007e+06
-1.57253e+06
-990854
4.40061e+06
-4.24068e+06
2.01892e+07
1.85747e+07
5.26648e+06
5.57446e+06
-9.64525e+06
-259987
-9.59559e+06
9.58947e+06
-317215
1.07254e+07
5.67953e+06
5.47621e+06
2.08896e+06
-3.84445e+06
1.33544e+07
1.75266e+06
-2.79269e+06
8.00741e+06
-4.84032e+06
1.98083e+07
2.03827e+06
99534.5
9.54606e+06
-6.59261e+06
3.06828e+07
1.08674e+06
-8.0153e+06
1.23243e+07
-3.56884e+06
-7.24941e+06
-79963.1
4.14819e+06
-1.19702e+07
-3.87578e+06
-6.36592e+06
-9.25382e+06
1.28589e+06
1.88283e+07
-928870
-9.2538e+06
-3.03232e+06
4.65152e+06
-4.19622e+07
5.08543e+06
-1.96464e+07
2.67703e+06
2.96092e+06
-357179
-6.50259e+06
-2.53623e+07
8.90813e+06
1.63456e+07
-2.99371e+07
596525
-414978
-4.15466e+06
4.9068e+06
-1.10593e+07
2.83472e+06
-1.44227e+06
3.88274e+06
1.3796e+07
-1.12509e+07
-2.19339e+06
-1.3359e+07
-2.6061e+06
3.85369e+06
-5.46854e+06
3.9655e+06
7.97051e+06
-8.98425e+06
7.03713e+06
1.3219e+07
-5.42677e+06
8.03602e+06
-1.65963e+06
5.48554e+07
1.99894e+07
-1.044e+07
7.57077e+06
-8.75799e+06
7.09174e+06
2.41386e+06
-2.70127e+06
4.29696e+06
-4.13681e+06
-1.59034e+06
5.73616e+06
9.91931e+06
2.70016e+06
-6.67469e+06
1.23227e+06
-8.65319e+06
1.54274e+06
559418
1.16873e+07
-1.1955e+07
3.2727e+06
1.43218e+07
1.75137e+07
-6.58962e+06
-1.40173e+07
1.97444e+06
-5.59545e+06
4.87242e+06
2.6371e+07
-9.80345e+06
1.31418e+07
3.73596e+06
4.25446e+06
8.66154e+06
7.61965e+06
5.27734e+06
5.22278e+06
3.29572e+06
-1.96161e+06
543759
664293
-1.80535e+07
7.80388e+06
-1.52064e+07
-214041
-1.58671e+06
6.59557e+06
-8.75883e+06
1.03096e+07
-288204
2.77295e+06
1.13144e+07
-8.4305e+06
-8.68097e+06
1.10995e+06
3.4803e+07
-180693
-5.85234e+06
-1.45957e+07
-5.98893e+06
-647255
-2.11436e+07
3.11228e+06
9.84272e+06
-1.91634e+07
4.73833e+06
2.6917e+06
1.79538e+06
1.00306e+07
2.84695e+06
2.5283e+06
-2.10963e+06
-6.16704e+06
-8.07146e+06
5.27676e+06
-2.93183e+06
-984945
-6.4499e+06
-1.91326e+07
1.82258e+06
-86024.1
2.74622e+07
-3.72341e+06
-3.01735e+07
2.9747e+06
-2.03847e+06
-1.28793e+07
8.07412e+06
9.48483e+06
3.45988e+07
9.94086e+06
8.45806e+06
-6.48859e+06
-1.35972e+07
-4.18654e+06
1.21786e+07
1.67073e+07
1.44267e+07
6.51221e+06
6.92434e+06
287248
-4.53729e+07
-1.48333e+07
2.14657e+07
-9.96045e+06
-204798
1.76593e+07
1.20502e+07
-2.4765e+06
9.04909e+06
-2.78341e+06
3.37555e+06
4.67185e+06
-4.44423e+06
-4.85576e+06
1.66718e+07
2.95361e+07
6.54342e+06
5.13857e+06
-692100
6.15371e+06
7.21227e+06
-1.7166e+06
3.39307e+06
2.6978e+06
-1.26913e+07
636882
-2.11335e+06
3.16194e+06
6.76466e+06
1.12088e+07
-920011
1.62482e+07
-3.91926e+06
-1.7037e+07
-5.98634e+06
-2.02247e+07
879272
-1.47017e+07
-2.95522e+06
-3.02368e+06
-2.95494e+06
-211421
-1.4364e+06
-5.23158e+06
-4.73784e+06
3.75961e+07
1.85918e+07
5.65531e+06
-1.47918e+07
1.66655e+07
8.88914e+06
1.07047e+07
1.45733e+07
1.03464e+07
-5.46971e+06
8.50332e+06
9.93966e+06
-1.93509e+06
-3.07768e+07
-1.15732e+06
-1.29063e+07
-1.1642e+06
3.89117e+06
7.11798e+06
-5.04621e+06
-7.20523e+06
-1.57841e+07
7.16873e+06
4.62961e+06
-1.01402e+07
1.72805e+06
2.46469e+06
-2.86533e+06
-1.21024e+07
-390263
-1.55551e+06
-7.62611e+06
2.04562e+07
1.78642e+06
2.30188e+07
-1.7364e+07
-1.1829e+06
2.41556e+07
4.51074e+06
6.64518e+06
-9.90435e+06
-8.02538e+06
-4.21751e+06
4.20211e+06
-1.20823e+07
-8.0553e+06
9.47859e+06
1.75103e+07
-3.88628e+07
9.4071e+06
-6.5321e+06
7.7123e+06
-1.86968e+07
-3.12382e+06
-2.89102e+06
1.59224e+07
-1.32758e+07
780198
7.02959e+06
-5.26476e+07
-1.38806e+07
2.997e+06
325015
5.57281e+06
-4.11978e+06
-2.23297e+07
1.13355e+06
-2.91778e+07
1.72484e+07
-3.55e+06
-2.81681e+07
7.14422e+06
-1.20712e+07
3.38266e+06
1.79689e+07
-714168
-1.92363e+07
-5.215e+06
986725
1.97167e+06
5.60455e+06
-4.80971e+06
1.76944e+07
-1.77077e+06
-394042
-1.02731e+06
-8.94538e+06
-2.48157e+07
-2.43175e+07
-9.65434e+06
1.79327e+07
-7.38721e+06
4.01533e+06
-1.02104e+07
-3.60539e+06
3.22832e+07
5.77276e+06
-4.76492e+06
2.36974e+07
9.76344e+06
-1.27516e+07
1.75303e+06
2.32132e+07
-386358
1.21804e+07
-1.00849e+07
-2.64587e+06
1.52596e+06
2.80709e+07
-4.4549e+06
2.0467e+06
-346497
-117638
3.83942e+06
-4.66769e+06
-9.80964e+06
4.44709e+06
9.02236e+06
750237
1.73496e+07
5.78564e+06
-1.59273e+07
-2.41046e+06
-1.21565e+06
1.87001e+06
2.35916e+07
3.74955e+06
7.83773e+06
-6.16824e+06
-1.72166e+06
4.11756e+06
-1.17497e+06
3.56885e+06
-3.30215e+06
2.21394e+06
-1.12897e+07
-1.97591e+07
-7.78146e+06
1.17426e+07
2.41965e+07
-1.53549e+07
1.03964e+07
7.51106e+06
-5.76348e+06
-3.42129e+06
-386493
-7.65265e+06
-7.29935e+06
6.77367e+06
-6.25803e+06
-564223
1.65812e+06
-2.0643e+07
3.87813e+06
1.9604e+07
9.57209e+06
-3.67086e+06
-3.53626e+06
-2.04955e+06
-1.36966e+06
5.01152e+06
-1.00811e+07
-6.75915e+06
1.29565e+07
-6.39592e+06
4.7811e+06
2.85246e+07
2.03394e+07
-3.07981e+06
1.35002e+07
-6.98274e+06
-7.14627e+06
101556
6.2869e+06
-8.96765e+06
-242811
2.47912e+06
-1.53209e+06
5.76515e+06
1.62774e+06
-1.08012e+06
3.77361e+06
4.20047e+06
-8.18559e+06
-1.28658e+07
4.1988e+06
4.302e+06
-2.02421e+06
8.12851e+06
-1.25522e+06
-2.11278e+06
2.35411e+06
6.21325e+06
4.89137e+06
-1.70632e+06
1.00915e+07
2.31675e+07
-3.17648e+07
280132
1.66017e+06
-1.69e+06
-1.03281e+07
1.32225e+07
3.08508e+06
-2.92838e+07
-3.71015e+06
3.07492e+06
2.1472e+06
-1.95781e+07
1.30686e+07
-1.2921e+07
1.03253e+07
-4.61586e+06
1.98459e+07
1.71201e+07
5.44785e+06
-3.26987e+06
9.75678e+06
-6.24395e+06
2.26993e+06
9.06157e+06
4.26775e+06
-1.45316e+06
317251
9.64865e+06
3.94398e+06
-3.73322e+06
-1.61979e+07
925212
2.12278e+07
-3.23715e+06
-8.9055e+06
9.91325e+06
-1.66138e+07
1.88721e+07
9.10324e+06
92219.3
-3.89006e+07
-1.74011e+07
-3.09312e+06
-1.79589e+07
-1.8809e+07
-1.13668e+07
3.2568e+06
6.10163e+06
-1.94276e+06
1.35061e+07
-6.72332e+06
-5.44857e+06
292393
-1.61631e+06
-7.63652e+06
-7.77812e+06
-2.24867e+06
1.22565e+07
1.29458e+07
-7.69543e+06
25869
1.20789e+07
1.87794e+06
775291
-1.01854e+07
3.64208e+06
-8.24537e+06
-9.73531e+06
2.41831e+06
-1.84714e+07
-1.31359e+07
-1.10899e+07
-869176
-737198
-1.11135e+07
5.64869e+06
-426159
-1.9946e+06
1.68942e+07
-6.87322e+06
3.07414e+06
7.77303e+06
1.66569e+07
-2.32305e+07
-1.2935e+06
-1.91306e+07
-2.8542e+06
-3.15578e+06
-1.4426e+07
-973073
-459215
-3.64965e+07
3.68902e+06
5.673e+06
3.00045e+07
8.38535e+06
-3.45891e+06
8.5954e+06
-6.56064e+06
2.26034e+06
-7.11892e+06
-2.04138e+07
2.00506e+06
5.99e+06
1.29594e+06
-8.1086e+06
-6.88259e+06
4.77479e+06
1.0596e+07
9.0806e+06
-4.29875e+06
3.28144e+06
5.12515e+06
1.22207e+07
1.72965e+07
3.88995e+06
-1.31024e+07
3.35517e+07
-2.47206e+06
4.0961e+06
-6.69772e+06
1.17668e+07
-9.86014e+06
1.37643e+06
-1.44284e+07
-3.7103e+06
2.45538e+07
-16086.4
9.90184e+06
-8.23481e+06
3.55134e+06
1.47952e+07
2.28603e+06
-4.7013e+06
-3.35844e+06
-2.20332e+07
7.35765e+06
4.829e+06
3.67626e+06
1.56318e+07
-7.08457e+06
-1.66245e+06
2.54424e+06
-2.21508e+06
-5.72536e+06
-9.12782e+06
-3.23962e+06
5.62936e+06
-1.15839e+06
-1.85308e+06
-8.57043e+06
3.3743e+07
-7.76428e+06
2.22565e+07
7.52893e+06
4.92481e+06
-9.50829e+06
-2.83173e+07
-650782
9.60102e+06
6.66535e+06
-6.19008e+06
-3.91929e+06
532794
2.80359e+07
3.06345e+06
7.791e+06
1.11889e+07
4.64595e+06
7.3809e+06
-2.03628e+06
468712
1.95548e+06
-1.1599e+07
-1.38197e+07
360043
4.28248e+06
1.29007e+06
-1.81944e+07
-1.25029e+06
-3.16998e+06
-8.37881e+06
95674.2
5.23395e+06
-1.04106e+06
-8.77988e+06
-2.07338e+06
-828516
-7.88575e+06
8.75195e+06
-4.04393e+06
4.42858e+07
-2.36014e+07
1.19504e+06
-1.75942e+07
5.33239e+06
-82847.1
1.77801e+07
-2.24829e+07
7.30702e+06
3.10544e+06
-1.16011e+07
1.00383e+07
-7.3918e+06
-3.7129e+06
2.30431e+06
-1.55442e+06
-1.16839e+07
-2.39789e+07
-5.7676e+06
2.71993e+06
1.25919e+07
-3.28013e+06
2.47822e+07
-1.66145e+06
-4.98679e+06
-9.3477e+06
3.00403e+06
1.84756e+06
-4.63206e+06
1.9675e+06
3.5872e+06
893815
-3.16189e+06
2.67076e+07
1.73943e+06
5.29409e+06
1.74353e+07
1.69454e+07
4.44633e+06
-1.0304e+07
-6.29257e+06
-9.63717e+06
-2.04247e+07
-1.24856e+06
405844
-1.35123e+07
4.40224e+06
465153
9.99252e+06
-1.7736e+07
-2.52843e+07
6.28759e+06
958509
-365704
-9.9395e+06
2.39125e+07
530151
3.84006e+06
5.14201e+06
1.71365e+07
-8.55e+06
1.59241e+07
2.06247e+06
-6.89347e+06
5.57343e+06
2.68351e+06
-6.46243e+06
-7.2238e+06
8.60989e+06
-9.36167e+06
3.76605e+06
-2.53868e+07
-4.44066e+06
2.62954e+06
-2.05955e+06
-1.56878e+06
1.87577e+06
-2.74709e+07
-5.74323e+06
9.70394e+06
4.59077e+06
-2.51355e+06
-2.95415e+07
-8.22824e+06
3.57111e+06
1.43198e+07
5.10591e+06
2.64489e+06
-1.99888e+07
3.53955e+07
-7.19848e+06
6.37595e+06
-1.8502e+06
-1.52263e+07
7.77094e+06
1.15436e+06
1.08878e+07
-6.53656e+06
1.16544e+07
3.28005e+06
-1.61395e+07
1.19224e+07
2.29903e+06
-4.47302e+06
6.74841e+06
6.36596e+06
2.83698e+06
-5.98616e+06
4.1062e+06
4.05298e+07
-4.13259e+06
6.68078e+06
49661
-2.24997e+06
2.12404e+06
-2.54617e+07
-1.53218e+07
2.52608e+07
1.60128e+07
-6.34604e+06
5.18499e+07
2.13249e+06
-7.98664e+06
6.57237e+06
3.72349e+06
8.71726e+06
-6.86385e+06
3.33862e+07
-3.82671e+07
-1.23484e+07
-2.80484e+07
-6.75222e+06
5.81474e+06
5.03005e+06
-3.42996e+06
1.55655e+07
-663051
9.80174e+06
-3.01069e+06
2.48618e+06
1.73238e+07
-6.35476e+06
3.08752e+06
-2.68523e+07
-2.44293e+07
5.12963e+06
-146407
-9.01739e+06
4.8571e+06
-1.13092e+07
9.49928e+06
1.93412e+06
-4.48007e+06
-3.27433e+06
4.5558e+06
7.96713e+06
1.36813e+06
-5.16937e+06
1.15544e+06
-8.31011e+06
-1.92471e+07
8.06073e+06
2.68332e+07
-5.11477e+06
-9.41626e+06
1.67063e+07
-7.65406e+06
-2.29218e+06
6.04327e+06
-9.48851e+06
554011
604232
-125367
-8.42992e+06
2.58701e+07
5.61357e+06
-8.46659e+06
1.1626e+06
1.20989e+07
-573995
8.85827e+06
-4.61043e+06
2.98136e+06
1.01678e+07
1.09451e+06
3.46848e+07
8.62923e+06
-1.64215e+07
1.13662e+07
-3.42086e+06
-901193
1.55424e+07
1.05764e+06
-8.82673e+06
1.23776e+07
5.88442e+06
-2.35861e+07
-1.17839e+07
-1.19154e+07
1.77649e+07
3.422e+06
-4.03068e+06
-2.10061e+07
9.54336e+06
2.79474e+06
1.09974e+06
-445471
-2.16713e+07
-1.45129e+06
2.52452e+06
-4.19822e+06
-1.64862e+06
5.71963e+06
-2.67733e+06
-1.36456e+07
3.84963e+06
5.34731e+06
1.9566e+07
-3.71643e+07
-1.86495e+06
7.7495e+06
6.49604e+06
-7.81399e+06
-2.77085e+06
8.44523e+06
-6.79989e+06
1.51905e+06
2.59771e+07
1.0658e+07
-2.57494e+06
-3.00382e+06
-3.06028e+06
2.76231e+06
-1.93162e+06
-187212
1.34976e+07
2.02524e+07
-702680
1.66516e+07
-8.78489e+06
-1.57355e+07
2.15597e+07
6.68249e+06
-132992
-9.39846e+06
6.31494e+06
-2.27275e+06
1.48572e+07
4.82639e+06
2.6432e+06
2.32165e+07
1.18485e+06
4.34127e+07
4.48829e+07
-7.58339e+06
7.31392e+06
41185
-4.29007e+06
4.36287e+06
1.32926e+07
1.61411e+07
4.29595e+06
-4.50431e+06
-99492.8
9.07013e+06
3.45085e+06
9.69918e+06
-8.87279e+06
9.38447e+06
8.24108e+06
2.08659e+07
-1.63868e+07
5.34086e+06
4.0916e+06
-1.9323e+07
9.71711e+06
-1.08664e+06
-1.19807e+07
-1.00834e+06
9.27212e+06
1.11138e+07
-7.03633e+06
5.41694e+06
5.56541e+06
1.082e+06
-264817
-2.31234e+06
2.07121e+07
2.42757e+06
1.62147e+07
-8.39842e+06
-1.25746e+06
-5.03534e+06
7.17025e+06
-7.90159e+06
1.856e+07
4.37442e+06
1.49609e+07
-2.48434e+06
2.06088e+07
4.13215e+06
-7.35264e+06
-1.26503e+07
-8.00818e+06
-2.94214e+06
-2.55432e+06
-1.09664e+07
-2.58085e+06
3.08335e+06
1.88067e+06
5.58493e+06
-7.1363e+06
-6.88831e+06
8.7564e+06
9.42154e+06
8.69271e+06
2.20344e+06
6.67165e+06
-1.90568e+06
1.11637e+07
1.03053e+07
-2.41208e+06
-1.61797e+07
6.17305e+06
-1.2567e+06
-568157
1.22038e+07
-1.12548e+07
1.34636e+07
-5.68066e+06
-4.18437e+07
-513784
-3.29453e+06
-305261
-1.40035e+07
4.32494e+06
-1.30967e+07
1.18478e+07
2.56514e+06
-5.30906e+06
-963936
9.43438e+06
47490.8
-1.18383e+06
7.41358e+06
-1.06375e+07
3.25513e+07
-1.78624e+06
-3.62055e+06
-195998
-1.48351e+07
-1.75579e+06
1.32823e+07
-1.38991e+06
-6.34829e+06
-7.43701e+06
1.06125e+07
-1.90585e+06
2.40266e+06
-1.59101e+07
-1.37136e+06
4.15911e+06
-3.39093e+06
-1.5683e+07
4.73435e+06
-5.55509e+06
-2.04135e+07
2.81787e+07
-2.69378e+07
-1.93177e+07
2.83683e+06
-1.68684e+06
-1.10526e+07
4.13254e+06
5.34707e+06
1.56698e+07
1.34672e+07
1.89412e+07
5.17875e+06
-1.16253e+07
1.63861e+07
6.90306e+06
5.92243e+06
1.83423e+07
1.79919e+07
1.03696e+07
1.73895e+07
1.48132e+06
-6.1953e+06
4.03422e+06
-2.04716e+07
-2.5263e+07
7.57935e+06
-6.52452e+06
1.83772e+07
-8.98294e+06
-4.08836e+06
5.44013e+06
1.22971e+06
2.89218e+06
-2.25744e+07
6.29604e+06
1.10849e+07
-1.34905e+07
-1.61849e+06
8.86715e+06
3.14488e+07
-3.53979e+07
1.99688e+07
7.17639e+06
-1.27525e+07
1.5512e+07
-4.32679e+06
9.07175e+06
-4.44604e+06
9.14962e+06
1.19296e+06
824051
-2.80018e+07
-7.89056e+06
1.12868e+06
-9.9793e+06
2.19185e+06
9.34481e+06
-671335
2.67109e+06
1.0372e+07
-1.87522e+06
1.53213e+07
1.33198e+06
-2.40885e+07
-2.73316e+07
-8.34471e+06
3.47779e+07
6.58685e+06
1.00054e+07
1.68364e+07
4.67117e+07
1.31773e+07
-796293
2.95231e+06
-5.12187e+06
1.09445e+07
1.08939e+07
-2.36018e+06
-7.84055e+06
2.12859e+06
-4.64853e+06
1.65442e+06
3.76092e+06
-1.16861e+07
3.80164e+06
1.05604e+06
3.47589e+06
-737258
-1.52478e+06
1.37302e+07
-1.12076e+06
-1.88862e+07
1.8843e+07
1.19895e+06
1.36899e+06
-129912
4.09999e+06
1.87761e+06
2.17349e+06
1.52414e+06
-419985
-1.72939e+07
3.83226e+06
-1.23254e+06
6.07533e+07
-5.80191e+06
-784455
3.9682e+06
-5.11966e+06
1.01765e+07
-6.72541e+06
2.91431e+06
3.19899e+07
-4.2498e+06
-5.95341e+06
-1.40874e+06
-2.72673e+07
-6.58812e+06
2.46082e+06
-2.54571e+07
-1.85125e+07
-1.04639e+07
-1.37517e+06
4.94057e+06
1.16669e+07
1.55819e+06
-1.57673e+07
-1.17048e+07
-1.44324e+07
-5.16123e+06
1.65435e+07
-2.21965e+07
4.44588e+06
6.49202e+06
5.13164e+06
1.46436e+07
116989
-3.7411e+07
-8.73865e+06
-2.39004e+07
1.33436e+07
2.67798e+06
-1.15738e+07
5.19464e+06
-1.55551e+06
2.26795e+06
2.94445e+07
-240168
-2.05168e+07
4.90773e+06
-6.47694e+06
-2.05807e+07
-9.72699e+06
4.95497e+06
-3.16874e+07
-1.94324e+06
5.97694e+06
1.06938e+07
4.4239e+06
-4.73178e+06
-1.49265e+07
-1.44094e+07
-3.09246e+06
-7.30097e+07
-2.21029e+07
-5.62543e+06
8.9202e+06
-1.59879e+07
512188
2.23204e+06
3.03852e+07
3.703e+06
-1.33922e+06
-246352
232876
-6.73895e+06
1.14733e+07
4.79283e+07
5.53426e+06
1.67656e+07
8.58599e+06
-1.5029e+06
-6.5785e+06
4.9813e+06
5.32927e+06
-1.17229e+07
967728
-8.71561e+06
-2.29667e+06
-1.37358e+07
-6.2013e+06
3.10694e+07
-3.90319e+06
540323
-1.5371e+07
8.37253e+06
2.12438e+07
6.97938e+06
5.67488e+06
1.99445e+06
2.90018e+07
1.95233e+07
6.72984e+06
2.1834e+06
-4.27105e+07
9.67468e+06
2.58984e+06
158618
-1.8737e+06
2.19065e+07
-2.88001e+06
-1.86732e+07
1.88656e+06
-9.90445e+06
9.6851e+06
1.17978e+07
7.69749e+06
-1.12034e+07
4.06383e+06
-8.41657e+06
1.4805e+07
-5.95246e+06
-1.77443e+06
-1.25254e+07
1.13207e+07
-1.57067e+07
-2.7347e+06
9.98286e+06
482237
3.47156e+06
4.31771e+06
-4.46149e+06
1.22386e+07
1.55449e+07
3.4778e+06
-1.3794e+07
-1.57374e+06
-4.65219e+06
4.3524e+06
3.04121e+07
1.75296e+07
109988
1.57415e+06
-9.24736e+06
8.81309e+06
-8.93105e+06
-2.41577e+06
1.15477e+07
1.2754e+07
-6.44828e+06
-2.31671e+07
-5.18299e+06
2.20631e+06
-1.75181e+07
-1.45285e+07
-5.34435e+07
4.41854e+07
-1.02359e+07
1.69138e+06
-1.04567e+07
-2.70248e+06
-4.89662e+06
1.76067e+07
-3.20718e+07
-5.52635e+06
5.10706e+06
3.15275e+06
2.17291e+06
107162
-1.22849e+07
-4.46086e+07
-1.99972e+06
5.35329e+06
1.07849e+07
4.25299e+06
-6.90106e+06
-7.6172e+06
1.54623e+07
-956891
-404860
-1.1046e+07
-1.43998e+07
-1.37808e+07
8.51118e+06
7.99082e+06
3.17961e+06
4.46574e+06
-9.29542e+06
-5.65616e+06
-1.66544e+06
4.06935e+06
2.76887e+06
1.59872e+07
4.42573e+06
2.52695e+07
-1.40052e+07
-535210
-1.46026e+07
1.60855e+06
2.60843e+06
3.15111e+06
-163715
-1.68239e+06
-1.11617e+06
-2.16743e+06
1.84977e+07
-9.40114e+06
-1.81772e+07
6.31004e+06
1.36863e+07
4.5881e+06
1.41192e+07
7.19196e+06
3.71465e+06
1.21429e+07
-9.23442e+06
3.68162e+06
-1.78676e+07
-3.33349e+06
2.59718e+07
3.08855e+06
-1.75614e+07
-8.82181e+06
-2.71246e+06
1.21464e+07
-6.13157e+06
6.72231e+06
1.28374e+07
6.33375e+06
-41689.2
2.65579e+06
2.53771e+06
-2.21359e+07
-2.32806e+07
1.78898e+07
-8.43016e+06
-3.68584e+07
-6.06251e+06
4.31407e+06
-1.28594e+07
-817294
7.64576e+06
-3.59367e+06
589906
-1.29716e+07
-2.16478e+06
6.882e+06
3.37392e+07
-386171
-1.07882e+07
2.00635e+06
-2.41206e+06
5.71327e+06
-1.13158e+07
2.99804e+06
3.921e+06
6.98706e+06
-5.42131e+06
-1.85769e+07
1.18761e+07
1.81055e+06
-4.61771e+06
-1.92132e+06
6.57068e+06
4.10083e+06
-1.22957e+07
2.54038e+06
-1.46803e+07
-1.07831e+07
2.3747e+06
-8.64415e+06
-1.53604e+07
-1.98571e+06
-3.30759e+06
-6.85502e+06
2.78941e+07
7.48829e+06
-5.19627e+06
-4.10838e+06
3.06332e+06
-3.49779e+06
7.39956e+06
7.13369e+06
1.07469e+07
3.97889e+06
-8.88636e+06
8.88329e+06
4.46821e+06
-1.08236e+06
1.25203e+06
-1.67333e+06
6.80912e+06
5.0471e+06
7.27592e+06
3.98715e+06
-2.46404e+06
-3.40472e+06
2.388e+07
-1.82776e+07
-1.08107e+07
-2.84932e+07
7.75907e+06
6.93288e+06
1.04105e+07
9.99601e+06
4.54478e+06
3.79782e+06
-614792
1.22996e+06
4.69002e+06
-2.58275e+07
-611461
-6.35601e+06
-5.43891e+06
3.31262e+06
-2.7154e+06
-333862
-1.18551e+06
-1.74283e+07
-1.95459e+06
-593582
-4.0642e+06
1.0544e+07
1.38721e+07
-3.88625e+06
-7.16088e+06
1.96847e+06
-2.07629e+07
-5.31677e+06
1.02235e+07
-2.04653e+07
1.21726e+06
748378
1.74503e+06
1.22004e+06
-1.52387e+07
4.81255e+06
-6.54759e+06
-2.51113e+06
1.14885e+07
1.23192e+06
-2.32312e+07
1.64004e+06
-4.14238e+06
4.24518e+06
9.54098e+06
-8.28757e+06
5.76753e+06
192042
-1.51346e+06
-1.12484e+07
-1.18245e+07
-416072
-3.09185e+07
7.93243e+06
4.53697e+06
3.56189e+07
1.86986e+07
-2.77262e+07
-2.3849e+06
-8.29097e+06
-5.34136e+06
-1.45207e+07
1.42064e+07
351245
1.67349e+07
1.29692e+07
8.45355e+06
3.92395e+06
3.64471e+06
2.86032e+06
-2.10311e+07
781470
1.15668e+07
6.50631e+06
-4.76992e+06
1.25813e+07
1.07868e+07
-9.60429e+06
-1.33044e+06
-2.85873e+07
-2.359e+06
1.26737e+07
1.86047e+07
885769
-2.55555e+07
-2.61019e+06
923414
-5.78409e+06
7.00217e+06
-2.20208e+07
1.38615e+07
-8.36602e+06
9.99206e+06
-2.23292e+06
4.68539e+06
7.56751e+06
2.30049e+06
3.72586e+06
907968
1.29482e+07
-1.61837e+07
593726
7.20645e+06
7.61389e+06
-7.85931e+06
1.01644e+07
6.99673e+06
1.9858e+07
2.73972e+06
-2.80396e+07
5.35535e+06
-10891.2
-1.97338e+07
-9.33476e+06
-1.17305e+07
-7.99871e+06
1.61934e+07
1.72022e+07
-2.93155e+06
-1.37299e+07
390606
2.17175e+07
-4.52661e+06
7.26631e+06
-3.96868e+06
5.01311e+06
-2.0382e+06
-750122
1.70481e+07
-2.7247e+07
1.86902e+07
-1.82543e+07
-5.92145e+07
1.61702e+07
9.4357e+06
8.47196e+06
544183
9.73721e+06
-3.75685e+06
2.58821e+07
8.86323e+06
2.03596e+07
-9.30929e+06
1.12816e+07
1.28269e+07
-1.62595e+07
-1.94079e+07
-1.84805e+07
1.88044e+07
-2.02516e+07
1.29469e+07
2.6053e+07
4.2521e+06
-2.30296e+07
9.50771e+06
-2.05068e+06
7.93656e+06
3.34239e+06
-4.24844e+06
-8.15358e+06
1.72083e+07
-3.39338e+06
4.996e+06
-1.24046e+07
-8.77249e+06
-3.5476e+06
-5.7961e+06
507574
-3.01807e+07
7.998e+06
559376
-8.70663e+06
-1.37373e+07
-3.41522e+06
-2.64772e+06
-1.01126e+06
4.71202e+07
-2.3677e+06
-2.99276e+06
4.22442e+06
-2.80809e+07
-2.2693e+06
-219262
-3.59504e+07
-9.97263e+06
-1.22711e+07
2.24274e+06
-3.46731e+06
3.06457e+07
4.89009e+06
1.39885e+07
4.7121e+06
1.4812e+07
-1.50718e+07
-2.41839e+06
1.09975e+07
801052
-1.1752e+07
-1.14497e+07
-5.84189e+07
4.08473e+06
675507
9.12688e+06
-2.23618e+07
-1.86173e+07
-945411
-2.1969e+06
-493706
-2.11231e+07
-422176
-2.06334e+06
3.73401e+06
1.1092e+07
-615762
-8.66491e+06
-8.89721e+06
-2.03259e+07
6.01578e+06
1.1388e+07
8.68726e+06
-1.40304e+07
-1.30118e+07
9.39416e+06
-9.65584e+06
5.77069e+06
5.95519e+06
-1.23123e+06
-1.05514e+06
-3.8846e+06
-1.64645e+06
5.93561e+06
-5.53974e+06
-5.89958e+06
-1.57404e+06
-9.49389e+06
-1.49062e+07
6.63931e+06
1.94192e+07
9.77021e+06
-2.93186e+07
9.29983e+06
802066
-2.62438e+06
-3.58852e+06
792.591
-4.08077e+06
-360332
7.13029e+06
-3.78979e+07
-5.47831e+06
6.39239e+06
3.51227e+06
6.22045e+06
1.06568e+07
-3.68537e+06
-372815
-7.84715e+06
-1.14551e+07
-8.97103e+06
-3.69556e+07
10416.4
5.04581e+06
431630
6.08353e+06
6.93467e+06
-1.77089e+07
1.26765e+07
-1.85868e+07
227274
-1.66851e+07
-1.40744e+07
-4.65697e+06
6.4059e+06
-233469
7.26689e+06
2.54723e+07
-5.90478e+06
-2.0315e+07
-6.03767e+06
-2.4448e+07
-5.53497e+06
1.35862e+07
1.93054e+07
1.33894e+06
1.0526e+07
1.31192e+06
1.71241e+07
-191339
-1.45254e+07
1.80792e+06
1.24265e+07
7.69425e+06
1.27449e+07
-1.09431e+07
-1.18618e+07
-1.91061e+06
2.13358e+07
-4.27504e+07
-6.48338e+06
-4.17139e+06
233371
3.39937e+06
1.8484e+07
8.30721e+06
-1.98087e+07
5.36607e+07
-4.25695e+06
-6.33713e+06
-2.70401e+06
2.98675e+07
-1.25801e+06
3.8301e+06
7.0532e+06
-3.27344e+07
-4.92119e+06
1.48568e+07
3.79854e+06
5.08959e+06
-918030
3.44942e+06
-3.67801e+07
-2.99272e+06
-7.2048e+06
-685853
-1.46565e+07
7.36394e+06
-5.16448e+06
1.69241e+07
9.27264e+06
1.13316e+07
7.84881e+06
1.95252e+07
-6.5087e+06
1.50983e+07
-9.20167e+06
3.71889e+06
7.63738e+06
7.45145e+06
3.54392e+06
-1.37297e+06
8.909e+06
-3.01317e+06
2.17856e+06
4239.64
-159638
4.23683e+06
3.51749e+06
-1.45117e+07
-8.21966e+06
3.81758e+06
7.71191e+06
2.09367e+07
-1.2908e+07
3.20629e+07
1.76505e+06
-2.66617e+06
2.10101e+07
2.50081e+07
-8.8424e+06
3.34224e+06
-2.85713e+07
6.40669e+06
-3.21655e+07
-9.36446e+06
-1.63773e+07
711606
-1.05389e+07
5.88577e+06
3.2385e+07
6.59294e+06
1.09753e+07
-2.18256e+07
1.1558e+06
2.29377e+06
5.68035e+06
6.43046e+06
5.6677e+06
-643960
1.09578e+07
-610107
-3.38797e+06
1.36706e+07
940771
8.26373e+06
-5.89932e+06
8.99979e+06
-3.67096e+07
2.58992e+07
-8.13843e+06
1.2817e+07
-1.38794e+06
-2.09766e+07
4.16624e+06
1.281e+07
411459
4.16291e+06
9.42147e+06
-6.37189e+06
2.93869e+06
-9.81292e+06
-1.1713e+07
-6.38282e+06
-8.79073e+06
-1.14734e+06
1.52142e+07
-3.60344e+07
1.14321e+07
-1.62522e+07
6.61252e+06
3.10578e+07
1.13082e+07
-3.38465e+06
4.72445e+06
-1.15394e+07
-1.44282e+07
4.46779e+06
2.67401e+06
-3.76306e+06
3.16962e+06
-1.89583e+07
-1.20852e+06
-5.66754e+06
5.069e+06
-1.96989e+07
4.25317e+06
2.64262e+06
2.39844e+07
-3.98314e+06
-794546
9.13587e+06
9.96815e+06
-3.79221e+07
-4.84113e+06
4.05212e+06
4.30104e+07
4.37737e+06
-5.93767e+07
1.30228e+06
1.65767e+07
6.48193e+06
8.55288e+06
-519036
-5.60479e+06
-3.7228e+06
-2.59253e+07
404926
-1.54665e+07
1.40588e+07
-5.15769e+06
-3.11013e+06
-2.52469e+06
1.24897e+07
-1.73948e+07
-712274
5.67699e+06
-267766
-6.04609e+06
8.95621e+06
-6.04036e+06
-2.49948e+07
4.82675e+06
-8.55005e+06
-6.29597e+06
5.09217e+06
5.20665e+06
-7.26537e+06
-1.35682e+07
5.13433e+06
3.44659e+06
-2.90792e+07
1.55954e+07
-2.79271e+06
1.63e+07
1.66513e+06
3.16882e+06
-1.69319e+07
-4.67777e+06
-1.79827e+06
1.21164e+07
1.62686e+06
6.89903e+06
2.03389e+07
4.99226e+06
-517536
5.78031e+06
4.28819e+06
-1.31689e+07
1.18745e+07
5.68652e+06
3.83221e+06
3.47446e+06
1.41735e+07
-2.56048e+06
1.70228e+06
2.59775e+06
-803694
-471249
-5.55726e+06
-2.41402e+07
-2.53109e+06
2.84278e+06
-2.35439e+06
1.8345e+06
3.03418e+07
-3.98536e+07
9.2411e+06
7.35852e+06
2.14686e+06
5.74682e+06
-1.5124e+07
-9.16459e+06
3.96867e+06
-4.18748e+06
-8.27162e+06
-1.1257e+07
1.13891e+07
-1.78474e+06
-1.79474e+07
7.12123e+06
-1.5295e+06
1.16347e+07
7.26319e+06
-9.16133e+06
8.6354e+06
-1.12456e+07
1.14574e+07
-2.53337e+06
-771609
-1.79447e+07
-2.21124e+07
-8.73812e+06
1.55787e+07
1.82618e+06
-6.32735e+06
-7.3385e+06
1.97976e+06
1.16356e+07
7.24862e+06
6.83991e+06
2.05694e+07
2.5737e+06
-3.40666e+07
-2.09089e+06
1.26302e+06
5.21613e+06
327459
-8.0673e+06
-1.0536e+07
-1.05916e+07
-1.45012e+07
972152
-3.62167e+06
-1.71267e+07
-4.78309e+06
522805
5.34746e+06
-1.30679e+07
-2.39155e+07
6.34867e+06
-2.45188e+07
-8.23928e+06
1.42014e+06
4.52951e+07
6.18148e+06
1.55732e+06
-2.17374e+06
-27545.9
-1.54739e+06
-4.15227e+06
-4.74621e+06
-7.23827e+06
1.22554e+06
3.78605e+06
-1.567e+07
-1.20038e+07
-2.80147e+07
-8.29684e+06
-3.50707e+06
-2.8583e+07
-3.64121e+06
1.73001e+06
-3.72015e+06
1.82508e+07
-6.76908e+06
3.75425e+06
1.12093e+07
-1.45167e+07
-1.9974e+06
-2.15401e+06
1.17638e+07
1.43526e+07
-4.92108e+07
2.1216e+06
1.37385e+07
1.10607e+07
3.48517e+06
-3.9175e+06
4.45889e+06
-1.62815e+06
8.19469e+06
1.52945e+06
462539
-1.24378e+07
-1.37194e+07
344021
969148
3.68158e+07
2.14566e+07
1.66434e+07
9.38422e+06
-8.84326e+06
-4.22437e+06
-2.74107e+06
-688141
1.2961e+06
-9.49408e+06
3.27617e+07
9.59412e+06
7.6545e+06
1.28999e+07
6.35175e+06
-9.63875e+06
-3.95429e+06
-4.10348e+07
-8.63197e+06
2.06612e+06
2.38267e+06
2.70623e+06
-1.52759e+06
-1.14256e+07
-5.93602e+06
1.43825e+07
-938607
1.59899e+06
-785481
-77507.8
3.46252e+06
2.76385e+06
-4.55829e+06
-7.79154e+06
-1.31382e+07
760067
-1.89004e+07
-7.91999e+06
-1.14643e+07
-3.48203e+07
3.02548e+06
-3.9715e+06
2.2494e+07
-5.1365e+06
7.79259e+06
-96975.9
6.15375e+06
1.44407e+07
2.47933e+06
-1.68022e+06
-1.12739e+07
1.38267e+07
1.08176e+07
-1.60134e+07
-3.58612e+07
-2.71997e+07
3.42379e+06
3.19547e+06
2.24736e+06
-1.16224e+07
1.22511e+07
7.5224e+06
-7.04379e+06
-9.44641e+06
452371
-1.23792e+07
-1.31273e+07
2.62998e+07
4.0435e+06
4.29585e+06
-1.19661e+07
-3.22188e+07
1.80036e+06
-1.66668e+07
4.44123e+06
-2.51426e+06
-3.57074e+07
-7.11817e+06
6.28371e+06
-2.99289e+06
-1.86592e+06
-5.32479e+06
-3.40995e+06
2.05178e+06
1.17377e+07
3.13795e+06
1.08433e+06
7.39456e+06
-926470
4.33281e+06
-2.38963e+06
-1.40255e+06
4.34996e+06
5.35398e+06
1.65207e+06
-4.50046e+06
-6.20163e+06
-1.04449e+07
1.16571e+06
1.19842e+06
-1.82307e+06
6.69875e+06
-2.22548e+06
9.24564e+06
-8.79837e+06
-1.70687e+06
-264444
-2.05583e+07
-1.32291e+07
-1.06549e+06
-922692
1.07415e+07
-1.17652e+07
3.96417e+07
-1.24627e+07
4.24534e+06
-6.1017e+06
-7.16471e+06
-7.62936e+06
-3.59775e+06
4.65305e+06
-4.14161e+06
-3.15712e+06
7.59207e+06
-1.41365e+07
8.039e+06
7.82417e+06
2.47514e+06
-1.99346e+07
4.48013e+06
-1.47763e+06
-1.90975e+07
-5.97946e+06
-1.59449e+07
-1.26803e+07
7.67603e+06
-2.91628e+07
-5.05697e+06
1.15543e+07
-1.74773e+07
757501
5.23655e+06
-8.09054e+06
-1.33853e+07
1.08697e+06
-4.26002e+06
3.82141e+06
-6.06613e+06
-1.62113e+07
-5.00568e+07
1.05388e+07
-3.59197e+06
3.95635e+07
5.77145e+06
-5.47479e+06
-1.31405e+07
-1.13829e+07
2.97004e+06
400711
4.79613e+06
-7.13143e+06
4.32501e+06
-237765
-1.14339e+07
3.18969e+06
886768
8.9051e+06
-5.89155e+06
1.41845e+07
-7.04257e+06
8.62539e+06
-2.23114e+07
-5.97595e+06
-3.22028e+06
6.98132e+06
-8.85491e+06
-2.04001e+06
-2.11203e+07
-4.63017e+06
-4.50865e+06
235871
-9.03709e+06
-6.12295e+06
-1.77044e+07
1.30665e+07
1.18362e+06
1.94389e+07
-1.49459e+06
4.3167e+06
-1.95621e+07
-4.41661e+06
-4.18633e+06
-1.44028e+07
7.4089e+06
-7.81432e+06
8.04712e+06
1.35897e+07
-1.44246e+07
-586560
-1.20044e+07
-2.67606e+06
230187
9.46811e+06
-93830.6
2.32671e+06
-544528
-1.65162e+06
8.24042e+06
-1.46792e+07
-1.21707e+07
2.48223e+06
-9.77115e+06
386408
9.42007e+06
6.90865e+06
-1.00484e+07
1.12134e+07
7.10704e+06
-1.07338e+07
3.5375e+06
-2.56592e+07
-9.08433e+06
8.00365e+06
-9.59744e+06
-9.20712e+06
-4.09069e+06
-5.75185e+06
-2.55737e+06
5.51568e+07
2.55937e+07
-2.72274e+06
-2.04947e+06
-1.03041e+07
-2.3394e+06
1.06702e+07
-8.84711e+06
-1.53707e+07
-1.74021e+06
4.10135e+06
-2.21431e+07
33885.8
-2.54059e+06
9.96693e+06
-2.16321e+07
1.07687e+06
1.43489e+07
-8.8364e+06
2.8975e+07
1.33774e+07
-289750
6.73773e+06
1.78208e+07
4.52098e+07
1.46887e+07
3.10941e+07
-61624.1
-1.71101e+07
1.34995e+07
-5.13297e+06
-1.5461e+06
2.28606e+06
-1.1528e+07
9.24059e+06
-1.8356e+07
9.98779e+06
-4.7278e+06
5.0017e+06
-2.38546e+07
-1.13957e+07
-3.24427e+06
-1.96536e+06
-7.2438e+06
-4.92129e+06
-1.4576e+07
5.12304e+06
-6.83963e+06
9.34357e+06
-510677
1.81836e+07
-1.76897e+06
4.15899e+07
-8.24265e+06
3.39486e+07
2.13959e+07
-8.65159e+06
-5.52747e+07
1.03695e+07
2.07714e+06
-7.18402e+06
6.02824e+06
3.4144e+06
1.89108e+07
8.46233e+06
-3.1941e+06
469873
1.48663e+06
-1.35103e+06
-1.36632e+07
9.36406e+06
8.50912e+06
-1.42226e+06
-8.53719e+06
-5.61145e+06
3.29604e+06
-3.65225e+06
-3.00237e+06
9.30224e+06
1.38671e+06
9.23209e+06
-1.07439e+06
2.05251e+06
-8.94498e+06
4.15253e+06
-4.20838e+06
-8.38681e+06
-1.61465e+06
-1.55859e+07
-2.67544e+06
-5.66453e+06
34497.8
-2.03788e+06
1.70491e+06
-1.36783e+07
6.77536e+06
1.60628e+07
4.10042e+06
-1.59771e+07
-5.15529e+06
-1.13498e+07
-2.06692e+06
3.08678e+06
5.76829e+06
1.72909e+06
-3.46253e+06
8.16102e+06
1.26626e+07
2.15564e+07
-5.77478e+06
-1.84269e+07
-8.28819e+06
-7.31e+06
-1.51987e+06
-9.02102e+06
-5.4206e+07
664312
1.44287e+06
-6.09108e+06
2.29352e+06
5.26965e+06
-7.98167e+06
-5.78791e+06
1.88624e+06
2.81107e+07
-4.4002e+06
-3.4475e+06
-7.73927e+06
2.34104e+07
2.93243e+07
2.06695e+07
-2.33184e+06
-7.81294e+06
-8.3407e+06
1.27752e+07
-6.81236e+06
2.93558e+07
-149125
-1.4406e+07
-3.3587e+06
145488
1.99754e+07
-1.02181e+07
-891148
1.74785e+07
-3.6083e+06
3.11301e+06
6.22144e+06
-2.07407e+06
1.23202e+06
2.10239e+07
-1.60366e+07
7.50282e+06
8.52802e+06
3.88123e+06
5.11798e+06
-1.8223e+06
-4.7716e+06
-4.81073e+07
4.38511e+06
-2.46225e+07
-1.13465e+07
7.7873e+06
4.83805e+06
-7.01708e+06
5.1462e+06
1.0854e+07
1.38493e+06
-8.24617e+06
5.50825e+06
-1.06219e+07
-2.6814e+06
3.20777e+06
1.01126e+07
-394139
-3.53964e+07
3.98503e+07
-8.4651e+06
1.85338e+07
935628
-4.98447e+06
1.86123e+07
3.79981e+06
7.49288e+06
-1.88474e+07
-658607
-4.09884e+06
899354
3.30286e+07
235477
-3.8796e+06
-1.8628e+07
-1.14853e+07
-2.60549e+06
4.13377e+06
1.75216e+06
-4.6658e+06
-2.72217e+06
4.25072e+06
-232047
3.12328e+07
2.0267e+07
-1.90915e+06
502013
2.23148e+07
-9.68143e+06
-2.57828e+07
-7.38048e+06
803018
-1.05656e+07
-647682
-2.42683e+06
-1.3154e+06
1.37781e+07
-4.01932e+07
-7.6587e+06
-5.59413e+06
-7.12318e+06
1.17705e+07
2.96522e+06
1.28874e+07
2.87718e+07
8.37352e+06
4.96765e+06
887933
4.59025e+06
1.34865e+07
-3.78741e+07
-4.2966e+06
1.24359e+07
1.87237e+06
-8.96671e+06
8.79199e+06
4.66779e+06
-2.17271e+06
-7.28486e+06
2.37126e+07
2.77766e+06
-2.58972e+07
4.41051e+06
864144
3.17082e+06
-6.16327e+06
7.37102e+06
-2.275e+07
5.05779e+06
-1.18508e+07
8.05096e+06
4.46857e+06
1.46512e+07
5.50782e+06
7.36879e+06
-1.93451e+06
-4.14314e+07
-1.13615e+07
6.62289e+06
-8.74985e+06
-3.59679e+06
-1.22959e+07
6.47634e+06
3.02301e+06
-1.4172e+07
4.06631e+06
6.52265e+06
-2.22956e+06
1.3979e+07
1.94518e+07
-1.5666e+07
9.84151e+06
-3.24199e+06
-1.29409e+07
8.95311e+06
1.74506e+07
-1.16488e+06
-6.79569e+06
-1.32216e+06
5.35272e+06
-3.95232e+07
-6.30985e+06
-5.36409e+06
2.76503e+06
-2.05321e+07
4.65285e+06
1.67063e+07
-5.5999e+06
-1.12179e+06
1.43546e+06
3.0769e+06
-4.17366e+06
956608
1.38172e+07
2.14826e+07
117262
5.48041e+06
1.6809e+07
-1.37322e+07
-2.89054e+07
-4.29081e+07
-2.50935e+07
-1.7773e+07
4.05279e+06
-2.48939e+07
3.48243e+06
-435376
-7.21305e+06
3.8449e+06
-8.15181e+06
5.7012e+06
776361
-9.20151e+06
9.16769e+06
-1.09966e+07
-1.7074e+06
-1.55197e+06
-1.3516e+07
2.07971e+06
6.29767e+06
6.38437e+06
-9.18883e+06
3.73429e+07
8.85789e+06
1.27147e+07
-1.62873e+06
-1.83866e+07
-1.59832e+06
937832
2.45884e+07
-3.32033e+07
1.44309e+06
-8.07937e+06
-1.24326e+07
7.60741e+06
1.75294e+07
-6.81967e+06
-5.46383e+06
4.49507e+06
-494726
-2.15746e+07
-7.34743e+06
-3.40337e+06
-1.17131e+06
1.85914e+06
-1.05348e+06
4.69584e+06
4.73162e+06
3.69349e+07
-3.82636e+06
-449316
-5.08624e+06
-1.78242e+07
1.2392e+06
7.29019e+06
2.09508e+07
-1.11385e+06
-6.67143e+06
-812542
-1.23574e+07
-1.01741e+07
-8.98841e+06
-6.79784e+06
1.46668e+06
-311783
-3.05072e+06
1.28192e+06
-9.07624e+06
1.15144e+07
-1.0812e+07
-47323.3
1.09798e+06
3.87397e+06
-1.53281e+07
3.81439e+07
7.19373e+06
-1.24244e+07
4.49601e+06
-1.32453e+07
-9.05843e+06
1.91768e+07
2.04572e+06
-1.69364e+07
3.65899e+06
895567
-8.7937e+06
8.24397e+06
-4.76287e+06
5.54605e+06
-5.46967e+06
-3.9854e+06
-5.3811e+06
6.05246e+06
5.08504e+06
5.53748e+06
-3.93971e+06
-1.38497e+07
1.5538e+06
-5.21163e+07
3.8345e+06
-5.74791e+06
-2.62075e+06
-5.90956e+06
2.50459e+06
-8.47726e+06
1.17271e+07
4.62936e+06
3.43606e+06
-2.50559e+07
-3.2153e+07
9.36832e+06
-4.82061e+06
-81958.4
7.82054e+06
1.32484e+07
-1.0834e+07
2.10596e+07
1.14626e+07
1.25334e+07
2.42569e+07
-8.54509e+06
1.17829e+07
2.30771e+07
5.52899e+06
-3.13091e+06
-1.88732e+06
-6.98082e+06
764481
-2.94535e+06
-1.30645e+07
-4.30775e+06
-2.37664e+06
4.30576e+06
-1.34089e+07
-4.26986e+07
-1.98392e+06
-1.70498e+07
1.08688e+07
-5.80367e+06
-7.64505e+06
1.42688e+07
-1.70764e+06
5.38109e+06
-4.18503e+06
-5.7804e+06
5.27243e+07
-2.54593e+06
3.11514e+06
-2.02137e+06
7.43953e+06
-1.29849e+06
5.34609e+06
272288
2.50412e+06
1.58295e+06
-1.64399e+06
-7.05419e+06
1.26202e+07
8.53713e+06
6.52955e+06
-1.77239e+06
8.68525e+06
1.0718e+07
-1.68534e+07
-5.8884e+06
-1.35147e+07
-1.10708e+07
-2.73942e+07
1.6228e+07
1.36517e+07
-1.43e+07
3.57263e+06
-9.89713e+06
-3.02018e+06
-1.35029e+06
5.78446e+06
-1.12566e+07
1.20624e+07
-1.42355e+06
6.54321e+06
7.8601e+06
-8.23896e+06
5.28291e+06
-1.28325e+07
3.48768e+07
1.37769e+07
-3.06831e+06
-1.40608e+06
-1.24624e+07
5.11302e+06
4.04947e+06
-1.72614e+06
2.7707e+07
2.63771e+06
4.59743e+06
-464169
-828244
-2.50173e+06
-1.44223e+07
-1.22608e+07
1.45474e+07
374001
-4.6449e+06
1.47671e+06
5.47964e+06
-1.11533e+07
4.40738e+06
1.08903e+07
1.62143e+07
-4.91553e+06
1.56366e+07
783803
-1.89496e+06
2.48812e+06
4.03802e+06
-1.21402e+07
-5.55314e+06
-1.97291e+06
2.64976e+07
1.83361e+07
5.18003e+06
1.28968e+07
-1.12036e+07
-1.29215e+06
6.00603e+06
-1.11592e+07
-848050
2.47053e+06
-9.33133e+06
-2.11247e+06
-2.29792e+06
2.63275e+07
-147946
-88388.6
1.7058e+07
-1.27022e+06
3.05388e+06
3.97179e+07
-1.10781e+07
1.01405e+07
2.81414e+07
-1.29369e+07
2.01248e+07
-8.41562e+06
5.57144e+06
-6.77681e+06
-1.73933e+07
6.90063e+06
2.46882e+06
-2.60504e+07
5.22024e+06
2.52655e+06
2.4148e+07
1.02541e+07
196149
1.39474e+07
3.2756e+06
-1.78883e+07
-3.75506e+06
-3.34432e+06
-1.19826e+06
-7.69879e+06
-3.09401e+07
1.29664e+06
1.50058e+07
3.38622e+07
5.02773e+06
-2.08341e+07
1.2785e+07
-1.53653e+06
-2.42891e+06
1.4456e+07
6.58566e+06
-2.2474e+07
4.12809e+07
1.07315e+07
-937184
9.20848e+06
730732
6.55556e+06
-7.14984e+06
-2.76355e+07
-6.30485e+06
6.85414e+06
1.97291e+07
-2.43142e+07
-4.20117e+06
6.50346e+06
-5.60403e+06
3.75546e+06
4.84553e+06
-1.08316e+07
-6.18061e+06
6.5249e+06
-4.19655e+06
-2.05004e+07
-9.72936e+06
8.89412e+06
-7.31687e+07
-4.26297e+07
-188344
-56853.3
2.49339e+06
-1.9348e+07
-1.22183e+07
9.54794e+06
1.43204e+07
1.04526e+07
1.69476e+07
-2.72302e+06
7.02348e+06
3.58084e+06
-9.1765e+06
1.06048e+07
-737260
-1.41052e+07
4.13704e+06
998085
890883
1.03274e+07
-2.06686e+06
-931499
4.22707e+06
1.21186e+07
-1.63527e+06
-7.39355e+06
8.98251e+06
-1.4491e+07
-644702
-3.16496e+06
5.85071e+06
-4.98995e+06
-1.77074e+07
-1.1436e+07
9.43183e+06
5.61231e+06
1.51936e+07
-3.19356e+06
-4.82319e+06
-1.02266e+07
-1.66123e+06
-2.65014e+06
179920
-4.33883e+06
-4.68674e+07
2.05811e+07
9.95549e+06
2.89331e+06
6.33448e+06
2.83365e+07
-1.4615e+07
267463
-4.8023e+06
576485
-1.50103e+06
1.13419e+07
960018
1.8871e+07
-1.79288e+07
4.07936e+06
-2.15745e+06
4.20108e+06
5.35297e+06
-3.002e+06
-1.52672e+07
-1.24336e+06
-1.1855e+07
1.82853e+07
1.77461e+06
-1.19155e+07
2.94799e+07
-2.01123e+06
1.29413e+06
-1.09719e+07
-7.39158e+06
-2.27727e+07
1.89254e+07
6.9846e+06
1.81565e+06
6.81054e+06
-308980
7.15318e+06
-2.84223e+07
-2.54929e+07
-1.795e+07
-507744
-2.63225e+06
-6.36504e+06
2.11376e+07
4.81353e+06
6.21818e+06
2.09385e+06
-3.9937e+06
-2.00841e+06
3.22074e+06
-6.3875e+06
1.76838e+06
1.05407e+06
1.03276e+07
-2.14247e+07
688458
-2.20538e+07
6.201e+06
1.57402e+07
-9.46668e+06
-1.38729e+06
-9.20506e+06
-6.35161e+06
1.91438e+07
1.09463e+07
-3.78464e+06
7.74218e+06
-6.46769e+06
-1.27234e+06
-2.00065e+07
-6.404e+07
-483121
-157519
-1.32175e+07
120451
-4.26641e+07
-1.7187e+06
-4.90786e+06
6.17118e+06
-4.12956e+06
2.11696e+07
7.28857e+06
4.01806e+06
-319233
-2.34123e+06
8.38035e+06
1.35179e+07
-8.39529e+06
-2.29519e+06
2.66968e+06
2.12623e+07
-2.88798e+06
-3.06972e+07
8.53456e+06
1.9251e+06
1.21613e+07
3.00625e+06
-3.6207e+07
2.09721e+06
-3.00457e+06
-1.09549e+06
-2.75969e+06
1.09425e+07
-6.51838e+06
-8.0637e+06
-1.34043e+07
1.21371e+07
749676
-4.53304e+06
2.43564e+07
-6.50689e+06
1.16423e+06
-1.37058e+07
9.14536e+06
1.0802e+07
1.81884e+07
-1.04474e+07
1.41639e+07
-2.26588e+07
-2.10487e+06
-4.14294e+06
-8.49824e+06
412114
8.78362e+06
-6.70101e+06
-4.47148e+06
-1.16603e+07
-5.99678e+06
-7.60384e+06
4.85081e+06
-1.6828e+06
4.63639e+06
9.0912e+06
7.80633e+06
2.07198e+07
-3.33374e+06
-8.94058e+06
-1.57172e+07
1.45185e+07
3.83006e+06
3.30064e+06
1.01231e+06
-2.1685e+07
1.78157e+07
5.25535e+06
-704981
3.88534e+06
1.64826e+07
8.76356e+06
-1.37347e+07
-7.26108e+06
-7.53729e+06
-6.1475e+06
-3.67332e+06
-8.1665e+06
-4.50302e+06
-1.24432e+07
1.13216e+07
-1.51617e+07
-3.69852e+06
1.28747e+07
4.11346e+06
2.46352e+06
1.47946e+06
-699888
-1.54402e+07
5.73048e+06
1.4241e+06
8.38862e+06
-3.48873e+07
7.24058e+06
-1.9295e+07
-1.96057e+07
-4.43238e+06
-3.3856e+07
1.49695e+07
-2.6705e+07
1.00779e+07
-396644
-2.52514e+07
-1.79968e+06
-6.1842e+06
5.70223e+06
-3.43155e+06
-2.10826e+07
-2.01817e+07
2.89948e+06
407010
7.72514e+06
1.52184e+07
-8.76062e+06
-3.26159e+06
7.81739e+06
-1.85523e+07
3.29903e+06
1.85916e+07
1.62882e+06
-2.68643e+06
-6.5423e+06
3.35686e+06
-5.27756e+06
2.59998e+07
-3.63018e+06
1.06938e+07
1.1726e+06
-7.63562e+06
3.90378e+06
4.84448e+06
-5.6123e+06
-2.46586e+06
-4.77313e+06
-8.39415e+06
1.15196e+07
6.56022e+06
1.59327e+07
-647047
-6.32501e+06
-275250
-1.53636e+07
-791005
-767846
2.03612e+06
974017
-1.38113e+06
-4.664e+06
6.28636e+06
1.08993e+07
8.80806e+06
937345
-6.70072e+06
3.60093e+06
-4.31757e+06
-1.58617e+07
8.96606e+06
3.75563e+06
-1.267e+07
-5.02488e+06
-7.72394e+06
2.15714e+06
-2.31528e+06
-436788
-6.29224e+06
5.1124e+06
3.24953e+06
-7.36068e+06
1.01035e+07
8.4924e+06
1.28868e+07
4.56422e+06
322616
4.78513e+06
4.69186e+06
-4.41266e+06
-435075
1.01578e+06
-3.45047e+06
-1.78531e+07
2.19239e+07
-1.38824e+07
-1.87426e+07
-6.80717e+06
1.82363e+07
-3.30854e+06
3.87211e+06
-1.39204e+07
4.7225e+06
1.66025e+07
-1.08551e+07
305450
661358
-1.78089e+07
-5.50885e+06
-5.38788e+06
2.91932e+07
2.14881e+06
-3.44311e+06
2.90488e+06
1.64147e+06
7.30793e+06
1.865e+06
-2.80663e+07
9.1252e+06
-2.32863e+06
1.1177e+07
5.57145e+06
1.11968e+07
-949926
1.11511e+07
-2.84166e+06
2.83934e+07
1.02422e+07
-2.93697e+06
1.21548e+07
-1.59172e+06
4.04199e+06
6.28835e+06
-1.37515e+06
-1.43531e+07
94536.9
-1.43085e+07
-4.96244e+06
-4.00076e+06
2.75978e+06
-1.43882e+07
2.45001e+06
-4.07888e+06
3.81662e+06
2.18758e+06
-1.04107e+07
-751637
1.41891e+07
-6.71118e+06
-9.4328e+06
2.82042e+06
1.00874e+07
-5.46566e+06
2.85551e+06
4.85869e+06
1.79054e+07
-1.93283e+07
-549086
4.40994e+06
1.37787e+07
3.50742e+06
7.81426e+06
-4.03879e+06
1.23932e+06
1.13068e+07
1.02529e+06
1.75604e+07
7.25012e+06
-8.22309e+06
2.54104e+06
-4.6038e+06
4.25959e+06
2.5508e+06
-5.32762e+06
-7.06255e+06
7.74228e+06
-1.472e+06
4.3374e+06
6.76085e+06
1.54963e+07
-2.10905e+06
-1.0687e+07
-1.69773e+07
2.39785e+06
-1.30767e+07
92710.7
4.93585e+06
-399856
-1.52876e+07
-2.03206e+07
-2.01758e+07
1.95276e+07
-2.92745e+06
1.32529e+06
-4.1518e+07
-7.98141e+06
-1.38882e+07
2.76499e+07
-1.39293e+07
-1.70689e+06
-5.97342e+06
3.46332e+06
-2.35238e+06
6.18326e+06
9.69005e+06
2.73543e+07
-8.59468e+06
8.83717e+06
-1.14258e+07
1.67842e+07
1.05165e+07
3.64082e+06
-2.04769e+07
143393
2.73137e+06
-9.61963e+06
1.06129e+07
1.80914e+06
388980
1.96364e+07
2.3961e+07
-818256
-3.40311e+06
6.94069e+06
-2.42342e+07
9.68918e+06
-1.58123e+07
-1.20085e+07
-1.31072e+07
4.13197e+06
-1.0715e+07
2.88388e+06
-2.35026e+06
-7.68079e+06
7.08056e+06
-2.69717e+07
1.1978e+07
2.57578e+07
8.48865e+06
-7.25129e+06
-83382
-1.23226e+07
-3.05284e+06
6.49202e+06
4.98167e+06
-6.55795e+06
2.46894e+07
9.98711e+06
1.29699e+07
-3.12852e+06
7.29403e+06
-4.39965e+06
-2.90213e+07
2.68087e+06
-1.46193e+07
8.36184e+06
-1.2473e+06
9.08059e+06
9.63311e+06
2.14968e+07
-1.29726e+06
-1.33594e+07
-5.17812e+06
-8.80282e+06
3.6086e+06
-4.57244e+06
-3.48157e+06
1.11198e+07
-2.13602e+06
-1.08993e+07
-1.58021e+07
472726
-9.37949e+06
-4.57974e+07
-6.33773e+06
-5.42352e+06
-1.01574e+07
-4.90828e+07
339238
1.45469e+06
2.34797e+06
-9.46384e+06
-7.48328e+06
-17652.8
3.13885e+07
-4.98568e+06
-1.21987e+07
2.02279e+06
-7.60177e+06
5.78308e+06
-2.77197e+07
-8.56711e+06
-2.06827e+07
1.22416e+07
-1.74627e+07
7.59421e+06
3.92871e+06
-2.18489e+06
8.66273e+06
4.92373e+06
-3.72693e+07
-5.96536e+06
943801
-2.71056e+07
-3.12419e+06
-5.56815e+06
1.79663e+07
-1.51006e+07
235784
2.20328e+06
-3.79819e+06
-4.89041e+06
-4.97537e+06
-1.6017e+06
-4.20357e+07
4.27077e+06
2.07793e+07
-1.42196e+06
2.34566e+07
2.36949e+06
-5.72977e+06
4.91178e+06
1.69067e+07
1.04073e+06
4.2338e+06
1.36229e+07
1.92026e+07
-2.36088e+06
-693990
1.1136e+07
-8.01937e+06
-1.59681e+07
9.54457e+06
4.29542e+06
2.32914e+07
4.66722e+06
-2.86817e+06
2.21769e+07
-6.64811e+06
-1.34298e+07
2.00331e+07
1.70293e+07
-158832
606592
-1.74999e+06
-6.13003e+06
-1.00297e+07
-6.84796e+06
-5.09976e+06
-2.01172e+07
-1.06564e+07
-1.78245e+07
1.32748e+07
-1.27501e+07
3.0368e+07
1.4736e+07
-1.54876e+07
4.36913e+06
-997126
1.20654e+07
9.23733e+06
-1.66408e+07
8.18823e+06
-2.55755e+06
5.33817e+06
7.34844e+06
5.21501e+06
433304
2.61234e+06
-5.14476e+06
-2.21264e+07
6.36383e+06
-404972
4.65899e+06
1.95187e+07
-996120
7.19469e+06
6.30676e+06
-4.8834e+06
-8.8255e+06
-1.99285e+07
-5.29331e+07
-1.97134e+07
3.27481e+06
7.42992e+06
513739
-4.18237e+06
1.09956e+07
2.60896e+07
-3.64218e+07
2.85167e+06
-3.19542e+07
5.90296e+06
33054.8
-8.21295e+06
1.07835e+06
1.46793e+07
-1.0896e+07
-2.69205e+06
6.73883e+06
1.45493e+07
-3.22395e+07
-3.1678e+06
2.53435e+07
-2.75648e+07
-7.53793e+06
-5.14604e+06
-495679
3.39629e+06
-4.59789e+06
-6.38953e+06
7.28727e+06
-255219
-3.47416e+06
5.52855e+06
-1.88373e+07
1.63838e+07
-3.8318e+06
4.66821e+06
-8.08461e+06
4.90116e+06
