-2.68487e+06
-7.42613e+06
-1.24723e+07
6.11014e+06
1.96274e+06
2.84511e+06
1.04163e+07
1.95686e+06
3.37142e+06
4.54002e+06
-6.98204e+06
8.9822e+06
1.62543e+06
145709
1.44386e+07
3.66631e+06
1.37293e+06
3.75247e+06
5.16965e+06
5.74771e+06
3.42205e+06
-371834
-208832
2.00603e+07
-6.36155e+06
1.08287e+07
2.81903e+06
-9.76118e+06
-9.02211e+06
-7.72305e+06
-624023
-657067
-1.04718e+07
-1.60298e+07
-221056
-1.65239e+07
-4.61577e+06
3.50426e+07
8.0907e+06
2.57732e+06
1.24255e+06
-9.11717e+06
-5.62727e+06
-4.08843e+06
1.57214e+07
3.13312e+06
3.64035e+06
1.19839e+06
-5.69196e+06
-7.04316e+06
-3.58407e+06
4.04253e+06
1.40557e+07
-8.25792e+06
-1.66065e+07
572441
-1.08615e+06
2.13703e+07
-2.03413e+06
-6.20638e+06
-2.7213e+06
-7.77689e+06
-1.61257e+07
-6.26635e+06
508473
-4.44042e+06
5.38801e+06
-4.44989e+06
1.48241e+07
-427238
-3.6244e+06
7.6519e+06
-3.81779e+06
1.5107e+07
5.44009e+06
1.9181e+07
-360366
-2.16157e+06
3.42255e+07
-1.55728e+07
7.42073e+06
-4.50366e+06
-1.53141e+07
-1.64877e+07
-4.36002e+06
-465066
1.80575e+07
2.43723e+06
2.9338e+06
-730147
1.95136e+06
2.40305e+06
-5.90917e+06
7.31183e+06
-8.04797e+06
7.10677e+06
9.78025e+06
-1.49017e+07
-277999
4.04121e+06
-475745
3.67446e+06
-1.97123e+07
5.25231e+06
-5.28757e+06
8.0311e+06
5.67765e+06
-3.66936e+06
-4.16071e+07
-4.7689e+06
510572
-5.97447e+06
9.25608e+06
-6.5306e+06
-1.63264e+07
-3.6766e+06
-3.57037e+06
1.73856e+06
1.91489e+07
6.57121e+06
1.25841e+07
7.83257e+06
3.54082e+06
1.8789e+06
-9.8244e+06
1.85633e+07
-562068
1.05714e+06
6.90646e+06
2.60335e+06
3.04625e+06
-1.43285e+07
1.05798e+07
-2.90772e+06
7.2669e+06
813617
4.70329e+06
1.12166e+06
-8.07059e+06
-2.44121e+06
4.44143e+06
-535166
8.45016e+06
2.75909e+06
1.9014e+07
-2.46358e+07
-2.82012e+06
2.18171e+06
-8.87576e+06
2.80265e+06
-6.73067e+06
6.43734e+06
-9.27127e+06
-1.86867e+06
3.64781e+06
-1.62115e+06
-5.40799e+06
-8.53604e+06
-1.58023e+07
2.90067e+06
-257074
2.17128e+07
3.01264e+07
1.33636e+07
30073
-1.78489e+07
1.35624e+07
1.85166e+07
4.54349e+07
5.09291e+06
1.26356e+07
-5.18694e+06
-5.62251e+06
1.18581e+07
2.53795e+07
-1.31312e+06
1.17926e+06
1.55527e+07
1.30022e+06
2.24411e+06
9.75934e+06
4.45493e+06
-6.68907e+06
-1.05821e+07
-3.21419e+06
-1.68995e+07
94498.8
1.20642e+07
-4.11839e+06
-1.08795e+06
-8.2048e+06
-9.64536e+06
3.01778e+06
-3.06369e+06
1.86654e+07
-7.99733e+06
1.38265e+07
-2.17248e+06
5.57454e+06
-5.61328e+06
2.46509e+07
-1.17792e+07
3.82515e+07
1.31956e+06
3.61105e+06
2.12612e+06
-1.64645e+07
-4.72756e+06
5.01865e+06
2.3641e+07
-1.90637e+06
1.04452e+07
8.05767e+06
-3.7346e+06
-1.03861e+07
-2.67072e+06
-5.88388e+06
-1.35329e+06
-7.02487e+06
-8.61067e+06
6.43926e+06
1.52385e+07
2.03107e+07
7.55443e+06
1.08621e+07
-2.77941e+07
9.86304e+06
-3.5706e+06
1.09447e+07
-4.61174e+07
1.57857e+06
-6.21105e+06
1.30556e+07
4.16511e+06
-1.51593e+06
2.98367e+07
-1.74423e+06
-2.72852e+07
-7.18473e+06
3.65997e+06
1.51636e+07
-1.81723e+06
3.21645e+06
3.76974e+06
3.95774e+06
1.31436e+07
1.36132e+06
-1.77995e+07
9.34576e+06
4.76992e+06
826215
-3.08245e+06
1.20295e+07
944886
4.29544e+06
6.41154e+06
-177059
-2.24996e+07
-3.10331e+06
-1.09284e+06
3.35602e+07
1.86896e+06
1.25946e+07
-1.02764e+07
2.85484e+06
-3.5169e+06
8.93136e+06
-1.99697e+06
1.09365e+06
2.6893e+06
2.05336e+06
1.35987e+07
-1.1415e+07
1.38767e+07
-1.36278e+07
5.33468e+06
6.07175e+06
-172917
286555
208000
1.16621e+07
1.07827e+07
5.78394e+06
-30115.8
2.08992e+07
1.2001e+07
1.55687e+06
-944833
4.52733e+06
-5.18939e+06
1.71924e+06
582025
1.19374e+07
9.84702e+06
-4.37227e+06
-5.3587e+06
1.9088e+06
-1.23932e+06
-6.93519e+06
-9.42739e+06
-3.5567e+06
1.59428e+06
1.64818e+06
1.46534e+07
7.75415e+06
8.4927e+06
-2.38309e+06
-3.10991e+07
2.41669e+06
-1.1603e+07
1.17711e+07
1.03329e+06
1.14688e+07
-2.864e+06
-8.12907e+06
6.74751e+06
-1.98704e+06
5.70503e+06
-3.77608e+06
-4.65324e+06
-2.53371e+06
-2.78014e+06
-3.99507e+06
1.94281e+07
1.2187e+07
233224
5.1744e+06
1.31407e+07
-1.7626e+06
1.65481e+06
2.80376e+07
2.53729e+07
7.39273e+06
1.85055e+06
2.0534e+06
-5.97977e+06
-3.23682e+06
-4.85242e+06
1.15853e+07
2.34648e+07
-4.72227e+06
-1.28558e+07
592579
4.94801e+06
-2.67569e+07
-2.50109e+06
-3.64045e+06
-289094
-453697
-1.08618e+07
1.77072e+06
9.97216e+06
-1.13111e+06
4.25463e+07
1.96627e+06
2.89859e+06
-2.20211e+06
-3.08312e+06
-622262
-8.96048e+06
2.23793e+06
-1.24195e+07
-1.6346e+07
9.15055e+06
4.12589e+06
-1.90132e+07
-174805
2.07169e+07
765191
1.12083e+07
2.64696e+06
-1.30861e+07
1.16466e+07
1.65711e+07
-1.89986e+06
-2.65447e+06
2.91409e+06
8.3946e+06
2.47773e+06
1.67729e+07
1.36937e+07
-4.90441e+06
7.22805e+06
-1.41251e+07
8.13297e+06
8.15981e+06
1.28547e+07
1.18353e+07
1.59512e+06
9.24653e+06
6.28287e+06
-3.86399e+06
8.44395e+06
3.28993e+06
-4.35132e+06
1.03602e+07
-1.74884e+07
-1.68269e+07
-570251
9.27404e+06
1.5311e+07
2.17394e+07
-8.52956e+06
-2.91374e+06
-1.65657e+07
-3.54266e+06
1.33844e+06
3.57166e+06
-1.19948e+07
-8.24487e+06
-6.62464e+06
-6.81365e+06
1.77867e+06
6.24549e+07
-6.91919e+06
-2.77426e+06
1.6207e+07
3.60131e+06
4.67137e+06
8.89228e+06
-2.42015e+07
-2.96936e+06
1.39957e+07
1.0167e+07
-2.46776e+06
3.31687e+07
-5.88435e+06
-1.85593e+06
2.19443e+06
-2.73205e+07
829878
1.14041e+07
-8.91282e+06
1.57078e+07
1.29082e+07
-2.94477e+06
863309
1.34919e+07
-1.04079e+07
2.68442e+06
-1.15828e+07
4.31052e+06
4.80103e+06
-7.22167e+06
2.49974e+06
3.02555e+07
9.77609e+06
379746
910191
6.18793e+06
3.00843e+07
1.0892e+06
1.55797e+07
-9.84471e+06
-1.02607e+07
3.81345e+06
-1.57713e+07
-2.19081e+06
-8.33874e+06
4.06722e+06
4.0445e+06
-2.174e+06
-1.16456e+07
-4.32094e+06
460351
465759
-1.04839e+06
1.37276e+06
-7.3867e+06
-366987
-4.52855e+06
-5.79544e+06
-5.31124e+06
-910141
437810
6.49468e+06
4.87506e+06
-1.11936e+07
549351
4.77823e+06
6.31675e+06
-8.6099e+06
-962055
678720
4.10112e+06
-528355
1.04298e+07
-2.56315e+06
-7.58196e+06
8.11024e+06
2.65697e+06
-1.30767e+07
-2.23895e+07
1.93191e+06
-1.73973e+06
6.74251e+06
-737132
6.6449e+06
-694256
1.14151e+06
-2.00882e+07
3.64444e+06
-1.14994e+07
-8.78962e+06
-1.54658e+06
1.67532e+07
6.48632e+06
-1.75953e+07
8.8142e+06
-843965
-1.98945e+06
3.501e+06
-3.89636e+06
-9.90825e+06
-6.91575e+06
9.12722e+06
1.00737e+07
-5.52008e+06
764358
-6.98636e+06
-273475
2.43495e+06
2.90514e+06
4.2855e+06
-6.87324e+06
-3.68573e+06
-6.99697e+06
6.62946e+06
5.24151e+06
6.77022e+06
-598241
7.28717e+06
2.41626e+06
374651
-1.1021e+06
8.94082e+06
-2.33855e+07
4.77882e+06
1.75257e+06
-450977
-7.29122e+06
1.46996e+07
1.10169e+06
6.38879e+06
-1.9491e+07
1.29453e+06
-3.52359e+06
2.01551e+07
1.5776e+06
-5.89106e+06
-1.93903e+07
-1.01675e+06
-2.30053e+07
-2.41582e+06
2.38125e+07
-6.06876e+06
8.08371e+06
-2.76892e+06
-7.80752e+06
-3.26309e+06
1.06413e+06
-2.18351e+07
-1.02363e+06
-1.08275e+06
-1.48891e+07
6.11616e+06
4.15003e+06
2.44928e+06
7.08681e+06
-1.28929e+07
1.25649e+07
-5.81383e+06
1.64699e+07
-5.35457e+06
889777
2.84851e+07
2.60569e+07
6.03078e+06
2.00057e+06
4.13476e+06
-2.61948e+07
-1.0451e+07
3.52084e+06
-8.70545e+06
1.01962e+06
-2.77237e+06
-1.29786e+07
-5.57545e+06
-2.6769e+06
1.09992e+07
-1.24827e+06
1.72512e+06
6.98649e+06
-8.42613e+06
-2.41295e+06
-1.25041e+07
-5.07844e+06
6.73905e+06
-3.92094e+06
1.05664e+07
3.53692e+06
3.79048e+06
8.35858e+06
996428
6.98982e+06
1.8053e+06
2.29644e+07
5.8673e+06
-428562
-2.01503e+07
6.59879e+06
-3.92321e+06
2.94257e+06
-1.56119e+07
6.05788e+06
-3.70454e+06
216938
2.20366e+06
-1.34625e+07
-356761
3.3473e+06
2.96124e+06
-1.6087e+07
866142
-576211
3.04549e+07
-3.09638e+06
-1.74544e+07
408947
-1.5779e+06
6.08015e+06
3.48936e+06
1.56147e+06
5.45214e+06
2.34691e+07
-275207
-516026
1.79089e+07
-3.97322e+06
1.55729e+07
2.5647e+07
-1.29947e+07
3.57658e+06
-2.9549e+07
-2.14835e+06
-1.78441e+07
9.15058e+06
-3.68494e+06
8.31292e+06
1.38852e+07
6.04372e+06
1.75201e+06
-3.8121e+06
-1.38893e+07
4.26645e+06
4.58403e+06
3.29105e+07
-5.33186e+06
-1.78455e+07
-4.18441e+06
4.62991e+06
4.64693e+06
1.11323e+07
2.70784e+06
-1.36681e+07
2.32331e+06
-131075
-3.28575e+06
1.37985e+07
3.90056e+07
3.77568e+06
2.55386e+06
-1.39917e+06
3.85763e+06
-327151
-2.64622e+06
3.10532e+06
2.67357e+07
1.99828e+06
-1.90035e+07
-4.76322e+06
-7.61971e+06
4.14295e+06
8.27264e+06
-1.24001e+07
-2.50555e+06
1.30431e+06
-1.04667e+07
-1.56855e+07
-1.75864e+07
-4.36921e+06
1.16054e+07
6.53799e+06
-1.26463e+07
5.58782e+06
4.18916e+06
3.28348e+07
-1.61471e+06
2.28575e+07
1.47432e+07
-5.44314e+06
-5.06605e+06
1.5834e+07
7.8691e+06
-1.40366e+06
-219468
9.36995e+06
3.24549e+07
1.7909e+06
-3.36768e+06
-3.70865e+06
-9.5822e+06
2.27279e+07
4.57774e+06
1.52322e+06
1.16835e+07
-1.70976e+06
7.12429e+06
1.96348e+06
124863
1.18085e+07
-1.20852e+07
-3.51454e+06
1.19719e+07
482432
-14113.1
-2.43056e+06
1.55933e+07
856531
-2.02375e+06
-608613
-3.09969e+06
-900295
-8.29207e+06
-8.79747e+06
-3.13462e+06
7.17072e+06
-1.81687e+07
586698
-3.37869e+06
-7.1793e+06
6.25545e+06
-1.05325e+07
31034.6
-1.30657e+07
1.1106e+06
1.29496e+06
-1.12003e+06
4.18928e+06
4.25401e+06
-1.08443e+06
-2.16096e+06
-2.93159e+06
-1.09931e+07
509649
3.12601e+06
-1.28029e+06
9.11029e+06
-3.64918e+06
-7.03464e+06
1.25096e+06
-6.53222e+06
-1.41728e+07
506381
2.13638e+07
-2.7428e+06
-3.13447e+06
-1.21665e+06
2.23529e+06
1.5464e+07
6.27694e+06
4.34677e+06
8.6252e+06
-4.30252e+06
4.34598e+06
4.24686e+06
-1.75112e+06
217591
1.06429e+07
-1.74829e+06
-6.43454e+06
-2.56009e+06
-9.65244e+06
3.37493e+07
-7.29716e+06
2.25342e+06
-363749
5.34202e+06
-679616
2.78832e+06
-9.77747e+06
-1.73557e+06
9.43758e+06
-8.29803e+06
-6.63777e+06
1.00056e+07
-1.20926e+06
-1.10468e+06
-3.19932e+07
-1.92669e+06
-6.9774e+06
-1.16061e+06
336034
1.29449e+07
4.70092e+06
-1.74879e+07
3.97297e+06
1.65953e+07
-4.25538e+06
-1.68878e+06
637889
-1.18159e+07
1.71665e+07
5.68462e+06
-1.03999e+07
-5.34877e+06
-3.39084e+06
-9.34413e+06
-1.89265e+06
-8.90863e+06
-1.16563e+07
171457
2.50521e+07
-2.13559e+06
2.08027e+06
-5.14751e+06
-401198
1.02893e+07
1.90427e+06
1.24459e+06
-7.46307e+06
1.13014e+07
1.24031e+07
2.40877e+06
-3.67396e+06
1.90986e+06
1.46983e+07
1.06289e+07
-534850
2.19708e+06
-2.1056e+06
2.76802e+07
-2.58605e+06
-1.42601e+07
-1.52197e+07
-2.34666e+06
-1.59447e+07
-6.96399e+06
-2.20492e+06
1.18822e+07
4.506e+06
2.42691e+06
9.5315e+06
187105
797334
2.08358e+06
-1.43285e+06
7.97381e+06
-3.48547e+06
1.32661e+06
-8.39872e+06
-5.57665e+06
-3.76002e+06
-8.5014e+06
-1.96631e+07
8.52772e+06
2.13578e+06
1.17576e+06
2.43209e+07
1.00028e+06
1.19171e+07
5.55426e+06
8.00346e+06
1.85209e+06
-4.06703e+07
-3.89492e+06
-9.87759e+06
-1.59533e+06
7.45623e+06
-9.91751e+06
2.85778e+06
-1.19101e+07
-4.81348e+06
4.70388e+06
7.77113e+06
5.64316e+06
3.7041e+06
1.71849e+06
-7.28686e+06
2.41438e+06
1.65041e+06
1.60853e+06
7.97642e+06
8.13827e+06
-6.30977e+06
3.45812e+06
-8.53975e+06
9.45088e+06
-7.26981e+06
6.76867e+06
2.65802e+07
1.88293e+07
-4.06508e+06
1.40989e+06
5.07828e+06
-7.0227e+06
3.51381e+06
-9.70149e+06
6.28451e+06
-4.52062e+06
2.49917e+06
-3.34891e+06
2.1856e+06
-6.3274e+06
509586
-1.00554e+07
-1.51171e+07
4.24262e+06
-4.42341e+06
7.64134e+06
85812.5
-2.49022e+07
-425681
1.95104e+06
-3.78975e+06
-1.03649e+06
6.05479e+06
1.76968e+07
5.68608e+06
-796209
-1.37228e+07
-2.92255e+06
-1.84696e+06
1.09458e+07
1.69784e+06
-884829
-4.70498e+06
-2.29845e+06
-813848
-3.92108e+06
-3.98028e+06
1.31507e+07
-6.94979e+06
7.09725e+06
1.55068e+07
1.26316e+07
-3.94807e+06
-3.43485e+07
2.44133e+07
-1.48589e+07
-7.5289e+06
-893450
1.1951e+07
-1.36214e+06
-1.8765e+06
2.40428e+07
-5.30618e+06
4.43241e+06
-4.45773e+06
9.76197e+06
1.53158e+06
1.69018e+06
-3.87585e+06
-1.06255e+07
-1.53432e+07
-1.43954e+07
1.64988e+07
-2.60894e+06
7.13372e+06
-6.41122e+06
-1.39703e+07
5.28745e+06
1.10949e+07
3.42554e+06
281632
9.2435e+06
-5.07554e+06
750654
2.28808e+06
3.61501e+06
-7.44924e+06
-9.51348e+06
-3.8335e+06
8.36516e+06
-8.47323e+06
-1.74584e+07
9.54883e+06
1.12656e+07
-2.60514e+06
1.36111e+07
2.54552e+06
-3.23948e+06
2.95391e+06
4.97524e+06
4.18067e+06
-1.98887e+06
2.46628e+07
-653916
-2.48939e+06
-1.44179e+07
-2.51599e+06
-2.72176e+07
-2.80845e+06
9.52266e+06
-1.70627e+06
1.51692e+06
6.98236e+06
1.19867e+07
8.74633e+06
-1.17313e+07
2.54267e+07
-1.24826e+07
-4.26939e+06
-5.20702e+06
-1.92706e+07
-4.16479e+06
-4.51173e+06
7.43236e+06
-3.87289e+06
-147779
-9.58334e+06
3.88664e+06
5.23681e+06
-1.39921e+07
-680322
-1.91737e+07
1.03899e+07
1.02909e+06
7.74178e+06
2.56362e+06
-3.3654e+06
-2.53556e+07
-1.26528e+07
-214967
5.44638e+06
1.85175e+06
-1.20688e+07
1.22399e+06
1.14015e+06
-2.7591e+06
3.51584e+06
2.0535e+06
-1.97632e+06
-1.71328e+07
-6.78393e+06
-1.6082e+06
-1.15873e+07
-3.08067e+07
-860519
1.11282e+07
2.61065e+06
2.60659e+06
3.30035e+06
-2.39734e+07
9.15711e+06
1.03718e+07
-3.45524e+06
-1.59262e+07
-1.82181e+06
5.32971e+06
6.47886e+06
899899
-1.93155e+06
-6.6984e+06
1.36187e+07
-6.36566e+06
1.40324e+07
-1.78349e+07
3.85529e+06
-5.01005e+06
1.97785e+07
-1.21618e+06
-4.43832e+06
-5.55293e+06
-7.62614e+06
2.28086e+06
6.88567e+06
4.41819e+06
2.40774e+07
3.49403e+06
-1.96763e+06
2.80961e+06
-2.20605e+06
-6.32877e+06
8.01679e+06
8.86057e+06
1.00282e+07
-1.03358e+07
-5.79295e+06
2.05231e+06
558712
1.81186e+07
7.31441e+06
-1.06947e+06
-1.3735e+07
4.52617e+06
-1.21605e+06
7.73608e+06
2.06092e+06
1.73506e+07
-2.71639e+06
-1.08881e+07
-5.58961e+06
-819391
5.06555e+06
3.47653e+06
-1.55373e+06
5.94761e+06
-1.90116e+07
1.97403e+06
5.32589e+06
1.01914e+07
1.34672e+06
3.89339e+07
-3.47869e+06
6.24152e+06
-1.45682e+07
3.3216e+06
1.89102e+06
-6.42882e+06
-2.50073e+06
-6.42709e+06
8.12925e+06
-486942
-4.17289e+06
-6.7231e+06
-2.21868e+06
710775
9.41556e+06
-5.63813e+06
1.42229e+06
8.83136e+06
908321
-1.00255e+07
-1.00482e+07
9.54037e+06
2.38518e+07
-1.55781e+07
3.95857e+06
1.09157e+07
-3.61528e+06
7.06775e+06
-1.07615e+07
-3.15014e+06
-1.49758e+07
5.38175e+06
1.20415e+07
-6.50833e+06
-1.61748e+07
-2.27029e+06
-5.83359e+06
4.70246e+06
935885
-1.4698e+06
-3.1239e+06
-6.34982e+06
7.8961e+06
-3.58872e+06
-1.05654e+07
4.7381e+06
-7.12691e+06
1.56929e+07
1.50163e+07
1.8464e+06
-2.35093e+06
1.80463e+07
4.48964e+06
6.48597e+06
-7.02588e+06
69271.4
-1.75943e+06
-1.07849e+07
1.69678e+06
1.25728e+07
6.81552e+06
-5.01975e+06
898517
5.68235e+06
-8.37164e+06
1.1376e+06
5.8382e+06
-5.06649e+06
-2.56078e+06
-1.34333e+07
-3.20507e+06
-1.40125e+06
3.22267e+06
-9.18598e+06
-110842
1.53527e+06
-2.27128e+06
-1.60181e+07
5.76902e+06
-652556
-2.42496e+06
1.28686e+07
6.21934e+06
-8.77818e+06
11269.7
-1.99036e+07
3.72546e+06
1.67109e+06
-3.25378e+06
6.27667e+06
6.5994e+06
9.18658e+06
-5.49937e+06
-3.369e+06
4.37367e+06
948428
-4.83551e+06
1.54056e+06
-6.35246e+06
1.23844e+07
3.46474e+06
-3.54981e+06
3.42028e+06
2.82218e+06
-1.12834e+07
-1.51367e+07
-2.85131e+07
1.9542e+06
-4.70274e+06
-7.39571e+06
-1.54724e+07
1.00205e+07
4.5242e+06
1.02944e+07
3.24147e+06
2.44192e+06
5.39765e+06
1.34623e+07
-1.32277e+06
3.3111e+06
-7.50259e+06
-1.02122e+06
3.75648e+06
1.02168e+06
2.44868e+06
5.04704e+06
-3.84205e+06
1.08188e+06
1.03173e+07
1.47649e+06
-2.13592e+07
3.30593e+06
2.66082e+06
5.58996e+06
-6.21851e+06
6.03599e+06
-3.44642e+06
-3.70056e+06
-5.25754e+06
-717204
-2.69102e+06
1.31888e+07
3.15184e+06
1.33821e+06
1.06066e+06
-1.46984e+06
-1.23768e+07
1.24533e+07
-1.83596e+07
-1.69406e+06
-1.17145e+07
-1.04559e+07
-415227
-1.59452e+06
1.06244e+07
1.28845e+07
-207144
-3.81472e+06
-3.75821e+06
-2.66973e+06
31263.6
-5.11397e+06
600406
6.90756e+06
-2.58244e+06
8.14691e+06
-6.06495e+06
1.01723e+07
2.06955e+07
4.00039e+06
6.2224e+06
1.84717e+06
4.99295e+06
3.39465e+06
-2.06013e+07
1.39661e+07
7.33858e+06
136836
5.16079e+06
-4.27149e+06
-1.51757e+06
1.01058e+07
-2.35156e+06
4.47e+06
623742
-4.22151e+06
18556
1.13179e+07
-10941.4
4.61236e+07
9.7583e+06
-1.97489e+06
-1.03063e+06
9.1421e+06
-1.44797e+07
3.68605e+06
-8.97766e+06
-1.34866e+07
-1.22156e+07
2.70872e+06
8.16185e+06
-3.71763e+06
4.59508e+06
9.86303e+06
1.42294e+07
1.71368e+07
2.09637e+06
448864
-3.09738e+06
-3.57086e+06
7.81259e+06
-3.69151e+07
-5.18235e+06
218516
-1.11332e+06
-3.37875e+06
3.99746e+06
2.06072e+07
-1.09655e+07
-4.12088e+07
-1.93763e+07
-789112
8.89409e+06
-2.20982e+06
-6.7139e+06
1.05941e+07
-1.84635e+07
-1.46821e+07
1.85546e+07
-3.73922e+06
1.31745e+07
9.21073e+06
1.12686e+07
-3.3004e+06
3.16973e+06
-1.08994e+07
-4.05106e+06
-833435
361353
5.78378e+06
-5.26083e+06
-6.07928e+06
-4.86682e+06
1.9368e+07
-1.13391e+07
8.12917e+06
2.45397e+07
1.20761e+07
1.27557e+06
2.69206e+06
4.51741e+06
1.51234e+07
104869
5.53714e+07
2.48473e+06
-8.4957e+06
2.6522e+06
-1.15184e+07
1.51067e+07
1.55353e+07
-3.80121e+06
-2.89927e+07
-8.46644e+06
5.05913e+06
1.48529e+06
-414091
-3.3058e+06
2.30248e+06
6.67837e+06
-7.89663e+06
1.0178e+07
-4.60212e+06
-3.80867e+06
-820840
7.50381e+06
3.01353e+06
2.42795e+07
1.66414e+07
5.01076e+06
1.05825e+07
-6.56251e+06
-1.31901e+07
1.83812e+07
-5.53696e+06
-1.06006e+07
-6.25515e+06
-8.98278e+06
-2.38209e+06
3.06697e+07
9.58937e+06
-204065
-1.0613e+06
-1.52443e+06
1.48371e+07
3.96682e+06
-1.58823e+07
-9.88932e+06
8.20631e+06
268884
-1.8944e+06
-5.56834e+06
-1.99944e+07
1.33849e+06
6.31143e+06
-7.39491e+06
-6.32446e+06
1.09491e+07
3.50987e+06
-9.78741e+06
8.83865e+06
187194
-7.36498e+06
4.90467e+06
-4.01995e+07
1.01026e+07
-8.17526e+06
-8.2565e+06
-7.08825e+06
-5.74415e+06
5.19471e+06
-3.22752e+06
-4.32408e+06
-9.14714e+06
-799557
-2.83497e+06
-4.7909e+06
-3.45827e+06
1.28327e+07
-2.6509e+06
-779026
-7.31568e+06
1.11226e+07
376700
5.3778e+06
735847
6.96065e+06
2.50856e+06
-6.59974e+06
-1.82317e+07
4.60078e+06
4.58082e+06
-2.57837e+07
-3.45626e+06
1.00937e+07
2.76525e+06
-1.45835e+06
250014
-3.71071e+06
3.07223e+06
1.7064e+06
1.42444e+07
-152816
8.56022e+06
-1.0405e+07
14503.4
22011.6
1.08421e+07
-9.77362e+06
1.37328e+06
5.06798e+06
1.13726e+07
1.45045e+06
-2.84125e+06
1.05628e+07
7.70906e+06
8.11087e+06
-1.3867e+06
-1.72765e+06
376164
-1.6484e+06
8.01531e+06
2.09421e+07
-9.1683e+06
1.66299e+07
2.84788e+06
-2.01788e+07
-369318
6.12256e+06
-347912
1.74412e+07
-1.9851e+06
186664
66800.1
-420465
7.97524e+06
-3.50304e+06
1.40431e+07
-8.21579e+06
1.65115e+06
-1.13688e+06
-1.85815e+06
-2.52684e+06
1.50189e+06
-1.32671e+07
-451584
-1.3576e+07
-1.11684e+07
4.80179e+06
3.33987e+06
974193
7.18499e+06
3.50813e+06
6.72725e+06
-2.20511e+07
1.05792e+07
-780293
7.09687e+06
1.33772e+07
-5.08747e+06
-8.55848e+06
-3.73884e+06
-5.34471e+06
2.12878e+06
3.49961e+06
92713.2
511754
243481
267143
7.00274e+06
3.06677e+06
2.56374e+06
9.28841e+06
-2.06255e+07
-5.38909e+06
2.63302e+06
-3.96528e+06
-5.76898e+06
-704603
-2.87206e+07
-1.15981e+06
8.2318e+06
4.32711e+06
1.75251e+06
3.13968e+06
2.58664e+06
5.74619e+06
1.1971e+07
756501
7.70023e+06
2.27306e+06
-2.65757e+06
-1.10374e+06
-2.58221e+06
1.1007e+07
-3.16867e+06
-2.26225e+06
2.09841e+06
1.98656e+07
5.09022e+06
3.75941e+06
-2.96615e+06
290710
2.95838e+06
-3.89595e+06
-7.1686e+06
-521437
-9.77944e+06
1.27454e+07
1.13477e+07
-3.66697e+06
-3.77444e+06
-1.66079e+06
-3.03377e+06
-1.80586e+07
-2.43732e+06
5.74126e+06
2.90007e+06
3.82399e+06
-6.09232e+06
1.71811e+07
-1.59575e+06
-2.03336e+07
2.56401e+06
646024
1.39188e+07
3.61975e+06
9.12623e+06
757357
-4.39262e+06
-1.27893e+07
1.23559e+07
1.01361e+06
-1.41237e+07
464997
-5.95011e+06
1.7886e+07
6.38442e+06
-4.41023e+06
-1.25782e+06
2.84654e+07
706507
-5.93063e+06
2.04771e+06
-1.52127e+06
-3.67137e+06
2.27482e+06
-7.6341e+06
1.17762e+07
1.12768e+07
8.06455e+06
2.99479e+06
-1.10679e+06
-6.03637e+06
2.0415e+06
-2.47177e+06
-4.02423e+06
-682387
-2.20126e+07
-1.43441e+07
1.85274e+06
772519
6.34751e+06
4.40952e+06
70416.1
-7.46259e+06
-6.98146e+06
-5.28571e+06
-5.71976e+06
-1.44865e+06
9.8254e+06
3.71464e+06
-2.39235e+06
-6.99876e+06
1.06166e+06
-5.27784e+06
-1.60594e+07
-5.81215e+06
-3.83255e+06
4.44532e+06
-9.23041e+06
-1.09503e+07
-1.67909e+07
-944438
-3.62252e+06
4.93652e+06
1.95225e+07
-3.84226e+06
9.03832e+06
-1.91529e+07
-3.66729e+06
-1.44439e+06
-1.73946e+07
3.79401e+06
1.36569e+06
-1.23295e+06
1.65152e+07
-1.07481e+07
-1.99857e+06
6.33994e+06
-1.88254e+07
-7.72347e+06
2.59316e+06
9.51089e+06
7.98246e+06
3.56861e+06
-2.30841e+06
7.99107e+06
-1.45352e+07
1.55668e+07
-5.78081e+06
1.27797e+07
6.05922e+06
3.08946e+06
3.0885e+06
-3.03511e+06
6.79747e+06
3.36664e+06
8.32535e+06
-2.0004e+06
-1.54256e+06
4.20257e+06
-5.53066e+06
6.80366e+06
1.04078e+07
1.11025e+07
-1.33232e+06
416427
-1.13826e+07
1.74936e+07
-1.96913e+06
1.56447e+07
-4.84799e+06
-1.1694e+07
8.41038e+06
-8.66866e+06
-4.76318e+06
-330354
1.51649e+07
1.28932e+07
-2.19911e+06
-4.65199e+06
-1.00478e+07
-2.81008e+06
-9.6812e+06
-1.1325e+07
-32351.1
-4.08871e+06
-9.89166e+06
-3.37443e+06
6.00016e+06
-1.05382e+07
3.61021e+06
9.37974e+06
3.1049e+06
2.99886e+06
3.41806e+06
-4.38708e+06
-4.34012e+07
816837
-2.22113e+06
1.3919e+07
1.51237e+06
1.94996e+07
1.02601e+07
-3.02599e+06
2.15866e+07
1.74524e+06
-512251
7.30771e+06
1.22068e+07
-1.08154e+07
-717903
-1.59536e+06
2.80697e+06
7.24946e+06
-1.12567e+07
-756973
-791578
1.28938e+07
8.88993e+06
1.6196e+07
3.24489e+06
3.93395e+06
-3.91803e+06
-2.08388e+07
2.38542e+06
2.16333e+06
-3.84127e+06
-5.12203e+06
9.69853e+06
-3.19092e+06
-4.7875e+06
-4.34537e+06
1.14843e+07
3.89424e+06
-5.38516e+06
-121401
9.98891e+06
-2.49885e+06
1.44544e+07
838234
-633640
5.69097e+06
-5.72774e+06
8.50973e+06
-1.40154e+06
-1.35974e+07
-1.04238e+06
-1.07493e+07
3.46626e+06
8.77761e+06
8.01558e+06
-2.47048e+07
1.04926e+07
7.6361e+06
-71444.3
-1.02019e+06
1.74631e+06
840398
-1.94421e+06
-9.02443e+06
9.35652e+06
409793
-3.60871e+06
-1.56247e+07
-3.37159e+06
2.2846e+07
-4.02223e+06
-6.07875e+06
-5.93991e+06
-1.55792e+06
-4.48786e+06
2.50611e+06
1.86473e+07
1.90044e+06
4.53033e+06
-1.39682e+06
-7.14561e+06
-1.75336e+07
-4.47552e+06
7.56499e+06
8.09413e+06
6.68842e+06
2.9896e+06
-1.26802e+06
-4.8743e+06
-2.51848e+06
-3.92391e+06
-3.50462e+06
-3.56516e+06
-4.5519e+06
-4.51711e+06
1.79493e+07
411274
-4.54743e+06
-1.20403e+07
6.95574e+06
-411392
877390
-4.46695e+06
2.23237e+07
-1.08373e+07
-1.3974e+07
-7.53681e+06
3.89555e+06
-7.52595e+06
-3.44673e+06
5.14691e+06
1.38634e+07
553435
-1.77319e+06
522324
-1.05128e+07
-6.70638e+06
1.25972e+06
6.78669e+06
2.06619e+07
-2.58336e+06
6.79338e+06
-7.93848e+06
9.91068e+06
-1.42604e+06
4.65761e+06
-2.0044e+06
6.11734e+06
2.13026e+07
-802293
-380277
-5.76709e+06
1.41744e+07
7.55166e+06
-3.81811e+06
-5.5693e+06
-5.82532e+06
-1.36766e+07
-4.66884e+06
-4.18991e+06
-1.37632e+07
1.605e+07
4.25015e+06
1.24497e+07
2.21754e+07
-1.09747e+07
8.24221e+06
-1.38723e+07
1.46818e+06
-1.31654e+07
-2.08201e+06
-4.30055e+06
-8.16267e+06
4.33611e+07
3.40637e+06
6.82754e+06
-571345
-9.33661e+06
3.18926e+07
-6.41729e+06
-6.13079e+06
3.76269e+07
-2.88885e+06
-3.31805e+06
-9.40564e+06
-2.41127e+07
-35750.3
-3.14465e+06
-8.09445e+06
-704977
-2.04216e+06
1.50714e+07
3.46394e+06
7.59624e+06
-2.32372e+06
-1.26004e+07
-1.21225e+07
-1.38654e+07
4.41058e+06
-601398
-3.49097e+06
-1.07943e+07
1.21405e+07
-8.61441e+06
9.84949e+06
7.21628e+06
2.79789e+06
8.60005e+06
4.66026e+06
5.04383e+06
-2.30105e+06
-2.93102e+06
8.11253e+06
-1.29921e+07
-1.42362e+06
-8.61889e+06
2.10668e+06
-6.07552e+06
-7.11532e+06
8.34142e+06
-2.14771e+06
-3.71326e+06
-2.03582e+07
-7.45108e+06
1.20262e+06
6.46056e+06
-1.47204e+06
492897
-1.06174e+06
-1.06069e+07
8.34564e+06
7.52721e+06
9.7404e+06
1.47084e+07
-1.39022e+06
-6.81879e+06
-4.87913e+06
-2.70565e+06
5.85327e+06
-281339
-6.43652e+06
4.30677e+06
4.20982e+06
2.81162e+06
7.1926e+06
-6.50357e+06
4.89191e+06
-2.84652e+06
-4.77785e+06
1.08576e+07
-6.2029e+06
1.54048e+06
1.32477e+07
3.40279e+06
2.00511e+06
-1.26132e+07
-1.7834e+06
1.09299e+07
-4.03991e+06
-3.18916e+06
2.71471e+06
6.20474e+06
1.20591e+06
-471771
-9.83576e+06
1.11848e+07
9.65233e+06
8.75067e+06
-1.19419e+07
-8.49564e+06
-1.18802e+07
-8.59278e+06
1.56786e+07
1.61654e+07
-2.0165e+06
1.25165e+07
1.21088e+07
2.23278e+06
-1.8816e+07
9.66324e+06
1.43516e+07
314211
-683707
-1.08368e+06
-6.1601e+06
-1.09987e+07
1.35947e+06
-824589
3.91317e+06
-571715
-8.93076e+06
1.08359e+07
-1.43361e+07
-1.25348e+06
5.35464e+06
2.04873e+06
352285
6.00396e+06
7.25289e+06
-1.02593e+07
-9.23286e+06
-2.70993e+06
-1.10348e+07
4.38207e+06
4.36064e+06
-4.40769e+06
811104
-747795
-989258
9.57938e+06
1.41421e+06
1.22504e+06
2.2941e+06
5.82405e+06
2.01343e+07
6.23229e+06
-3.053e+06
1.39327e+06
-1.64112e+07
-2.78738e+06
-9.37498e+06
1.33133e+07
-1.57975e+06
-1.09541e+06
9.27473e+06
4.28384e+06
-1.87578e+06
7.58828e+06
1.4437e+06
2.77874e+06
-1.5315e+07
6.09577e+06
-91322.2
2.65196e+06
-10552.6
-1.33436e+06
1.65049e+07
8.57385e+06
2.25032e+07
-144017
-2.12017e+06
1.09621e+06
-8.35298e+06
-1.6861e+07
2.70196e+06
-3.93341e+06
1.65223e+06
-7.03065e+06
5.25724e+06
-6.91883e+06
-1.94688e+06
8.66177e+06
4.12101e+06
545494
-3.66817e+06
7.4096e+06
-1.78626e+06
-1.01893e+07
2.87609e+06
7.63541e+06
-521891
-2.24092e+07
1.45723e+07
-3.79695e+06
2.888e+06
-5.54377e+06
2.01655e+06
-3.11568e+06
-4.88282e+06
-2228.12
1.3116e+07
9.41152e+06
4.1643e+06
-1.84854e+07
-1.26579e+07
-2.77738e+06
-5.16821e+06
-2.35628e+06
3.66704e+06
-3.25282e+06
-1.2589e+07
2.07139e+07
5.36678e+06
3.27046e+06
-3.47803e+06
1.25781e+07
-3.80492e+07
-2.78408e+06
1.30062e+07
1.46446e+06
-1.29083e+06
9.6508e+06
-5.57851e+06
-1.34927e+06
-4.86756e+06
325777
1.09392e+07
4.63093e+07
-4.86703e+06
-2.09825e+07
1.9769e+07
1.15788e+07
879540
9.96457e+06
-1.55093e+07
-4.21853e+06
1.23493e+06
-2.79453e+06
58466
-6.32371e+06
5.58189e+06
2.2373e+07
5.42478e+06
-9.05388e+06
-6.08041e+06
-1.42845e+07
-1.97968e+06
1.87807e+07
-5.40038e+06
-1.56946e+06
-3.13169e+06
-1.62713e+07
3.04422e+06
-3.10228e+06
-7.35163e+06
1.66996e+06
-1.32244e+07
-6.90506e+06
1.37947e+07
-8.25821e+06
-1.42256e+07
-2.18458e+06
6.23011e+06
4.14726e+07
245092
-8.522e+06
4.28087e+06
-1.18429e+07
1.42988e+06
-2.62437e+06
8.07312e+06
-5.83926e+06
-1.63928e+06
5.09488e+06
-2.71952e+07
6.70398e+06
4.56895e+06
-7.71342e+06
5.40783e+06
3.90432e+07
3.86894e+06
1.0065e+07
-2.0011e+06
-1.37214e+07
-7.82798e+06
6.02326e+06
-2.64652e+06
1.59326e+07
4.24168e+06
-7.02638e+06
-4.14436e+06
-12777.6
2.57624e+07
382671
-2.78705e+06
7.6874e+06
3.40648e+06
-2.20187e+06
-5.0045e+06
704713
1.09601e+07
2.60159e+07
663082
1.09204e+07
7.89051e+06
4.1131e+06
-2.64575e+06
-1.4921e+07
-1.03556e+07
2.43208e+07
2.45318e+06
-8.12361e+06
5.13876e+06
-584136
7.28241e+06
-1.43415e+06
1.18468e+07
-8.1957e+06
-1.42378e+06
9.01238e+06
-4.66736e+06
1.19926e+06
-8.23606e+06
-9.38976e+06
-583302
-9.03399e+06
2.25125e+06
-297821
9.70697e+06
1.26936e+07
-3.34555e+06
376314
6.09683e+06
-1.73097e+06
1.1013e+07
6.93493e+06
2.10672e+06
1.48179e+07
-3.35827e+06
9.70943e+06
5.304e+06
-1.17525e+06
-3.20176e+06
1.81683e+07
1.4123e+07
625962
1.78956e+06
2.52379e+06
1.3023e+07
-3.34152e+06
-716480
1.36579e+07
3.29308e+06
2.27119e+06
4.58183e+06
366247
8.57822e+06
1.01041e+07
972147
2.28468e+06
1.33819e+07
-6.12418e+06
1.57495e+07
-656925
-1.49077e+07
-7.6958e+06
4.72616e+06
1.30301e+07
-2.6962e+06
-8.5372e+06
-1.3187e+06
4.66427e+06
1.48774e+07
1.62296e+06
3.0414e+06
2.80237e+06
-2.97546e+06
-654796
2.51424e+06
-1.3747e+07
-4.06708e+06
1.6044e+07
-4.81677e+06
9.25323e+06
6.28039e+06
-1.69067e+06
6.31647e+06
9.62821e+06
-483537
-1.34727e+06
1.53762e+07
7.20072e+06
-4.65753e+06
9.2582e+06
-6.82946e+06
-6.82329e+06
-1.89592e+06
3.76485e+06
3.97191e+06
-1.25585e+07
3.48565e+06
-5.04123e+06
-7.43357e+06
2.03664e+07
785304
-1.16215e+07
-5.85731e+06
2.49196e+06
9.39167e+06
-2.48299e+06
7.28705e+07
1.92191e+06
-1.45658e+06
1.3163e+06
5.37354e+06
-4.49965e+06
-3.95489e+06
-5.06591e+06
-8.71568e+06
1.85383e+07
-3.11759e+06
-1.95082e+06
-6.07276e+06
-1.6477e+07
597039
-1.5743e+06
8.73718e+06
1.31999e+07
1.79805e+07
1.87171e+07
-1.96494e+07
-3.36003e+06
43712.8
-5.2128e+06
-3.31034e+06
-135057
1.23458e+07
-1.28294e+06
-2.9631e+06
3.54794e+06
5.44133e+06
-1.46402e+07
1.01529e+06
1.97115e+07
-1.67378e+07
9.9302e+06
-3.25671e+06
2.99873e+06
-3.6299e+06
-1.0752e+06
-6.0833e+06
1.28964e+07
66628
1.07234e+06
-6.73875e+06
63917.6
5.37078e+06
-2.34824e+06
2.13076e+06
955408
5.35369e+06
174279
-885093
1.37618e+06
-3.84079e+06
-1.59399e+06
5.17182e+06
1.94613e+07
7.95037e+06
3.94204e+06
7.95615e+06
213467
744447
-680377
-1.20955e+07
3.35719e+06
5.25659e+06
-1.86924e+07
251164
-2.22317e+06
140052
552692
1.58323e+06
1.21122e+06
3.65166e+06
4.06647e+06
1.81472e+07
-7.38104e+06
7.24814e+06
4.28367e+06
3.17724e+06
-299468
1.28834e+07
1.16157e+07
-467805
2.1083e+07
1.01856e+07
1.20464e+07
-3.39152e+06
5.45235e+06
-3.24105e+06
-1.69741e+06
2.34878e+06
4.39193e+06
-466020
4.37663e+06
-3.14919e+06
-6.97167e+06
1.77594e+07
2.6182e+06
1.01278e+06
-6.55783e+06
-9.8194e+06
-740195
-3.89228e+06
2.48281e+06
-1.85902e+06
-1.06454e+07
-1.10941e+07
4.71174e+06
-284194
-1.17966e+06
-1.79166e+06
-3.93197e+06
-775688
2.36742e+06
3.4382e+06
-7.56828e+06
6.29692e+06
-880994
-3.26121e+06
6.71863e+06
-608426
245231
-4.90013e+06
9.78386e+06
303314
1.3695e+06
-2.75562e+06
1.7391e+07
-2.05723e+06
-2.14411e+06
-1.18286e+07
-1.33335e+06
4.28403e+06
3.71044e+06
-947072
-6.82824e+06
3.23102e+06
4.33063e+06
3.86401e+07
-6.74576e+06
-6.52772e+06
-6.19958e+06
1.57773e+07
-1.95315e+07
5.47725e+06
9.81264e+06
-9.88498e+06
-1.81597e+07
-1.19364e+06
-888143
-8.11804e+06
1.43258e+07
1.02518e+06
-1.71444e+07
5.94648e+06
-3.44867e+06
1.00054e+07
1.1195e+06
1.82672e+06
-2.5318e+07
1.56969e+07
8.91731e+06
1.07965e+06
-1.10289e+07
-485804
1.17528e+06
-5.33636e+06
-8.38262e+06
5.80047e+06
599197
1.23337e+06
6.61595e+06
-5.02205e+06
1.69969e+06
-756375
7.10119e+06
3.14323e+06
-5.21547e+06
-1.91964e+07
1.84419e+06
2.72971e+06
-719541
-6.09825e+06
-7.71068e+06
-1.86294e+07
189102
-1.41832e+07
-6.20211e+06
1.2353e+07
-4.03626e+06
7.91084e+06
-1.7903e+07
-1.16867e+07
8.79914e+06
6.14766e+06
-1.42971e+07
-7.57528e+06
186893
-624832
-3.2496e+06
-4.76909e+06
4.14923e+06
5.94757e+06
-6.29222e+06
-2.36034e+06
7.98378e+06
-3.87221e+06
-5.26901e+06
-1.0539e+06
2.62708e+06
1.95096e+06
7.61771e+06
4.74625e+06
1.63164e+06
661883
-8.24761e+06
8.64508e+06
4.6082e+06
-5.76493e+06
-1.01476e+07
3.59774e+06
-8.54554e+06
-3.87351e+06
1.74642e+06
8.51425e+06
1.77611e+06
1.93215e+07
-741045
5.63229e+06
2.27778e+06
3.04024e+06
-3.70369e+06
-7.75994e+06
-2.46991e+06
2.64275e+07
3.16061e+06
9.30307e+06
-2.13743e+07
3.12935e+06
8.3625e+06
3.67216e+06
6.045e+06
1.59092e+06
-4.3865e+06
-4.10549e+06
1.13327e+07
-3.4687e+06
-1.03141e+06
-268658
1.34937e+07
-4.57819e+06
2.59517e+07
-1.10854e+07
2.61076e+06
-5.15723e+06
-4.86096e+06
1.59435e+07
-2.9903e+06
-4.83847e+06
769086
711352
1.04553e+07
1.33034e+06
-2.74783e+06
-1.18729e+07
2.49801e+06
1.09781e+07
2.58817e+06
-1.08301e+07
1.56174e+07
-8.73915e+06
1.81869e+06
-8.53967e+06
-6.99666e+06
-7.29746e+06
-582624
936021
1.27285e+07
3.78517e+06
-5.53795e+06
1.4172e+07
9.56065e+06
-5.79314e+06
-1.31442e+07
-6.1177e+06
-1.79361e+07
6.84015e+06
8.23143e+06
-5.81945e+06
1.96682e+07
-4.85224e+06
2.47906e+06
1.89611e+06
-1.71149e+06
4.46511e+06
8.63395e+06
-5.75175e+06
-1.47632e+07
2.16513e+06
189943
-1.74792e+07
2.6372e+07
-2.72619e+06
-4.50829e+06
-4.72255e+06
542851
2.45474e+06
-2.30693e+06
1.92052e+06
2.13055e+06
1.87698e+07
-7.12563e+06
6.91639e+06
3.20894e+06
2.17506e+07
-1.44726e+07
-7.30359e+06
-1.09502e+07
2.73375e+06
-5.38897e+06
-3.78929e+06
3.76868e+06
2.58932e+07
5.67217e+06
-2.51087e+06
4.67726e+06
-1.0837e+07
1.51745e+07
1.54231e+06
-790998
-5.30235e+06
-1.18395e+06
4.24014e+06
-6.6127e+06
5.2497e+06
4.62436e+06
-1.02218e+06
-2.71058e+06
735029
-4.58741e+06
1.33585e+07
1.36732e+07
9.81637e+06
-1.39923e+07
-177514
2.46746e+06
6.35795e+06
6.96164e+06
-1.12919e+07
3.63666e+06
3.49994e+06
4.1192e+06
52800.7
5.30615e+06
-2.60071e+06
3.47454e+06
3.61539e+06
1.50806e+07
-1.11457e+07
-6.01427e+06
-6.28138e+06
-4.86276e+06
6.26176e+06
-3.31567e+06
-4.15171e+06
-139714
4.87814e+06
-517145
1.18826e+07
-408378
-2.77203e+06
492123
2.88455e+06
-1.02518e+07
-1.64507e+06
-2.10311e+06
-3.88607e+06
-1.16168e+07
1.22608e+07
2.55084e+07
1.79404e+06
364264
4.24769e+06
-2.59971e+06
-1.39986e+07
2.01163e+06
364393
2.70886e+07
-5.07322e+06
2.18133e+07
8.26923e+06
-1.98236e+07
-1.80846e+06
-2.11717e+07
-1.36198e+07
-5.28084e+06
4.05153e+06
3.32182e+06
906817
-4.2952e+06
2.75818e+06
2.06692e+06
-1.10705e+07
4.2863e+06
-2.20793e+07
-1.08914e+06
7.47224e+06
9.94408e+06
1.91159e+07
-1.59427e+07
4.90364e+06
1.43339e+07
-1.07853e+06
2.47305e+06
-1.73208e+06
4.84351e+06
-1.14653e+07
1.64785e+06
3.07145e+06
4.06931e+07
3.09e+06
-2.52764e+06
-2.86907e+06
-2.01643e+06
972315
-5.27646e+06
-1.03104e+07
-1.28238e+07
1.40277e+06
-1.23645e+06
-5.68199e+06
-1.29226e+07
-1.31064e+07
-2.84577e+07
-4.89995e+06
7.03534e+06
4.53283e+06
1.12899e+07
5.81991e+06
-763124
2.82595e+07
6.96459e+06
2.3962e+06
-4.89275e+06
-1.0242e+07
-1.35717e+07
3.56472e+06
-900557
-8.905e+06
2.17758e+06
1.05026e+07
4.4789e+06
5.68947e+06
4.11091e+06
-2.13e+06
502442
-1.0727e+07
-7.01265e+06
2.54411e+06
-721683
2.77912e+07
-2.18357e+06
8.48093e+06
9.69487e+06
-5.0249e+06
-5.85648e+06
-2.39057e+06
-934391
8.40403e+06
2.34317e+07
3.1089e+06
-1.32259e+07
-7.43297e+06
-1.0239e+07
-9.53331e+06
6.35928e+06
-9.18716e+06
-2.41597e+06
-1.7136e+06
-3.94017e+06
5.14344e+06
8.29491e+06
9.60212e+06
1.17089e+07
-1.98754e+06
-1.81711e+06
-1.82101e+06
2.10153e+07
-1.06795e+07
5.09046e+06
1.84855e+06
1.19433e+07
2.5965e+07
3.89786e+06
-3.13363e+06
-6.77828e+06
-1.01971e+07
1.66576e+06
2.37506e+06
5.99568e+06
1.36325e+07
-251432
-1.00892e+07
-1.05435e+07
4.28147e+06
-1.24292e+06
-2.36422e+07
6.41016e+06
-1.17176e+07
-1.68542e+07
301567
4.03079e+06
-2.82862e+07
4.21275e+06
-8.39711e+06
-1.84702e+07
1.47974e+06
6.78528e+06
1.84172e+07
-2.09013e+07
-3.26e+06
3.50721e+06
8.3851e+06
-2.05146e+06
5.87618e+06
-3.6866e+06
7.5126e+06
-4.21893e+06
6.86395e+06
6.27634e+06
5.83265e+06
1.26927e+07
-70217.7
2.09095e+07
4.69494e+06
-2.17538e+06
-1.26258e+07
-816708
-1.25851e+07
2.04146e+06
7.53421e+06
1.73036e+06
-6.75325e+06
9.83465e+06
-1.26593e+06
-1.6704e+06
1.26939e+06
2.69143e+06
-6.49185e+06
1.6506e+06
-2.24225e+06
-5.4918e+06
1.80308e+06
-7.26823e+06
6.66258e+06
-1.86174e+07
-7.30206e+06
-1.90855e+07
-7.41365e+06
-1.02351e+06
8.18416e+06
2.01053e+07
-7.2897e+06
1.14731e+07
-1.04523e+06
-1.24636e+07
-5.03248e+06
-5.49356e+06
1.31317e+07
-1.2345e+07
3.35928e+07
4.21838e+07
-1.19885e+06
477220
7.22523e+06
5.841e+06
1.35379e+07
1.70578e+07
71397.7
5.47922e+06
1.20069e+06
-8.13829e+06
1.43484e+06
-6.09214e+06
-4.93791e+06
-1.64923e+06
3.60793e+06
-3.44464e+06
-5.80671e+06
-9.64323e+06
1.18424e+07
-4.63058e+06
-4.34529e+06
-4.46283e+06
-7.26453e+06
1.69601e+06
-7.09331e+06
6.75829e+06
-5.07082e+06
-8.65181e+06
2.26688e+06
-5.02354e+06
-4.04621e+06
-1.54911e+06
-2.35758e+06
-9.01405e+06
1.37389e+07
-171802
-972179
7.4e+06
-375871
-670907
4.68481e+06
4.88771e+06
-2.1084e+07
-4.74958e+06
1.07202e+07
6.92175e+06
-2.2822e+06
-925860
9.05691e+06
-2.66476e+06
-5.90678e+06
2.87331e+06
3.52905e+06
1.76032e+06
1.07212e+07
3.13734e+06
-3.19805e+06
4.61809e+06
1.24761e+07
-6.76978e+06
-1.06452e+06
-2.73214e+06
2.13798e+06
-2.32027e+06
1.57471e+06
646407
-6.13493e+06
4.15438e+06
6.59958e+06
-2.54115e+06
-3.71446e+06
-1.94776e+06
4.39244e+06
-3.89281e+06
3.58919e+06
1.32007e+06
-1.29281e+06
-622606
1.97284e+07
-2.8736e+06
-1.43428e+06
594754
5.21184e+06
-1.00902e+07
3.61508e+06
-2.69004e+06
-3.71676e+06
1.05541e+06
-1.88124e+07
-2.46187e+06
5.29148e+06
-1.07834e+07
-6.65399e+06
3.56986e+06
-1.55032e+07
-3.19704e+06
9.31075e+06
6.79947e+06
-2.50488e+06
-3.16135e+07
-2.09957e+06
-7.30737e+06
4.86616e+06
9.50569e+06
1.82612e+07
4.45583e+06
1.53074e+07
8.99409e+06
3.83307e+06
5.64649e+06
2.1705e+06
-7.85142e+06
1.23295e+07
-2.20427e+06
8.26446e+06
789258
845036
-5.20821e+06
3.14968e+06
706359
857203
6.42552e+06
2.21909e+06
-1.28733e+06
8.60736e+06
1.52044e+07
-5.89184e+06
-5.96486e+06
-391826
-1.9242e+06
-740425
-4.89241e+06
3.2801e+06
3.8968e+06
5.20499e+06
4.95869e+06
1.43921e+06
-5.35622e+06
-8.55752e+06
-5.15349e+06
-1.44297e+07
1.6457e+06
1.0719e+06
3.66372e+06
-3.08646e+06
904909
1.62128e+07
-7.85444e+06
6.8016e+06
568029
5.01741e+06
2.38433e+07
5.3209e+06
-544837
-5.41566e+06
2.82329e+07
-186033
5.99306e+06
1.47194e+07
8.71867e+06
-1.34232e+07
6.02444e+06
-7.59055e+06
623135
2.85571e+07
581741
-703672
1.34961e+07
-4.16025e+06
1.29277e+07
-4.70885e+06
-206759
1.28052e+07
-3.57227e+06
-5.66257e+06
-332062
-3.39158e+06
-2.92846e+07
-3.63877e+06
3.93039e+06
9.31574e+06
-6.98688e+06
1.53524e+06
-469395
1.89901e+07
-7.59613e+06
4.73467e+06
2.64112e+06
-6.37684e+06
2.11065e+06
-3.76859e+06
-665353
1.22256e+07
-869756
-1.2515e+07
-2.02126e+06
-6.41721e+06
-4.67618e+06
-5.86919e+06
9.37863e+06
-1.5549e+06
-1.16495e+07
-1.79247e+06
1.96971e+07
6.90747e+06
-1.08633e+07
-1.19953e+07
2.4679e+06
4.61359e+06
-121114
1.47725e+06
7.93291e+06
-1.81755e+06
2.53811e+06
-3.09522e+06
7.20419e+06
-1.92924e+07
-1.13588e+07
293975
1.8077e+07
1.35204e+07
1.18853e+06
-4.56709e+06
-6.40834e+06
-8.21948e+06
8.1076e+06
-2.51809e+06
6.95359e+06
60796.2
1.22118e+07
1.02109e+06
-6.20673e+06
-5.76157e+06
-7.2271e+06
-5.6082e+06
-902637
3.91347e+06
-342185
4.04889e+06
-4.03243e+06
6.85834e+06
769434
-6.45777e+06
4.4722e+06
1.17517e+06
1.80417e+07
-1.13903e+06
-6.31997e+06
-6.7753e+06
-4.922e+06
-1.25039e+07
3.48386e+06
-2.64569e+06
3.42386e+07
4.86052e+06
-3.70874e+07
7.57581e+06
-2.09957e+06
-1.84191e+06
4.96785e+06
237175
6.28732e+06
7.54456e+06
-2.39861e+06
-9.99015e+06
2.66967e+07
-6.89559e+06
7.31508e+06
7.73179e+06
1.63166e+07
-3.96229e+06
-2.02858e+06
-1.74968e+07
3.08693e+07
-1.09092e+06
2.06686e+07
-3.65214e+06
-1.48088e+07
3.31646e+06
-1.43886e+07
8.42026e+06
-5.48768e+06
8.31299e+06
1.76604e+06
-6.77871e+07
-5.43407e+06
3.22832e+06
1.24846e+07
1.01119e+07
3.38486e+06
1.34011e+07
-2.5256e+06
-2.03074e+06
2.28959e+07
3.55098e+06
-5.83344e+06
2.12478e+06
1.71035e+07
-6.67485e+06
5.56673e+06
9.24113e+06
3.82295e+06
5.43709e+06
-2.03695e+06
3.24974e+06
-218299
-2.5066e+07
-7.08851e+06
-5.63635e+06
14619.8
-2.17458e+06
5.92213e+06
1.14242e+07
2.49729e+06
2.73815e+07
-2.01021e+06
3.09548e+06
2.27856e+07
7.2225e+06
-3.01314e+06
1.04009e+07
1.36893e+07
-471809
1.01104e+07
1.56772e+07
1.57338e+06
-1.56061e+07
-9.06325e+06
1.98624e+06
-2.60496e+06
2.80826e+06
6.91395e+06
-1.7491e+07
-5.65601e+06
1.17694e+06
6.04784e+06
6.20991e+06
2.37364e+06
909479
5.34254e+06
-1.41767e+06
-4.65193e+06
1.89804e+06
1.81072e+07
1.23484e+07
-8.71597e+06
4.82881e+07
-6.02223e+06
-3.30468e+06
-4.8197e+06
-8.12775e+06
5.47966e+06
6.88482e+06
2.05794e+07
1.0642e+07
708708
1.29414e+06
1.71141e+07
-8.92682e+06
2.227e+06
9.52831e+06
-7.2561e+06
-23719
407917
-2.06373e+07
1.1012e+06
-1.07909e+07
4.51332e+06
634960
-5.36411e+06
1.34132e+06
-1.13047e+06
-3.34341e+06
1.32804e+07
-4.66342e+06
-2.7262e+06
1.61311e+06
7.1346e+06
3.59708e+06
1.60022e+07
950777
3.09507e+06
1.55331e+07
-9.00906e+06
-9.7622e+06
8.61045e+06
4.24533e+06
-1.95497e+07
-1.21324e+07
-1.6768e+07
2.31872e+07
2.02359e+06
-1.21912e+06
-9.92782e+06
1.15908e+06
-2.30433e+06
1.30545e+07
2.3563e+06
4.01932e+06
-1.9551e+06
8.07024e+06
3.10411e+06
4.2145e+06
6.46003e+06
-3.04406e+06
2.7092e+07
-3.74028e+06
-5.69509e+06
-9.39847e+06
2.3614e+07
-6.64978e+06
2.72405e+06
-5.08752e+06
-1.22446e+07
-7.21078e+06
8.11794e+06
7.39888e+06
-7.83086e+06
-8.47293e+06
-1.65239e+07
-1.02848e+07
6.19786e+06
9.05916e+06
-7.71652e+06
-73981.2
7.39635e+06
3.19724e+07
-3.27978e+06
6.73129e+06
8.96724e+06
3.68087e+06
2.80112e+06
1.12016e+07
926894
3.93412e+06
-3.10039e+06
-755625
-6.4556e+06
-1.78683e+07
-6.40347e+06
327877
1.10332e+07
3.20438e+06
9.89637e+06
-1.22224e+06
4.88894e+06
-3.03676e+06
4.07845e+06
-9.1067e+06
-675670
7.73848e+06
-6.8855e+06
-1.89875e+06
5.23377e+06
7.72212e+06
2.40752e+07
-1.36487e+07
5.56552e+06
1.33277e+07
1.5413e+07
3.00519e+07
110403
-4.14185e+06
1.06712e+07
-1.33982e+07
4.36596e+06
-5.59212e+06
5.58176e+06
1.23898e+07
-2.66475e+06
-3.57096e+06
-1.65323e+07
370463
-1.42251e+07
-1.18574e+07
3.66699e+07
1.24959e+07
2.364e+07
-3.07321e+06
5.24898e+06
9.23093e+06
3.85633e+06
-3.50691e+06
-9.95989e+06
-9.68771e+06
7.85085e+06
1.39251e+07
6.68507e+06
4.22565e+06
6.22276e+06
-5.51729e+07
3.30595e+06
-1.41307e+06
1.79909e+06
1.30918e+07
-779706
4.90315e+06
-4.58092e+06
1.76522e+07
-1.37363e+07
5.31927e+06
1.95835e+06
2.74207e+07
2.67673e+06
1.60149e+07
-5.62871e+06
-4.66217e+06
1.69824e+06
2.18117e+07
4.49234e+06
-9.65482e+06
1.37099e+07
4.64981e+06
4.87625e+06
-3.72999e+06
3.46306e+06
1.77004e+07
-3.58403e+06
-1.13023e+07
2.39539e+07
-2.06078e+06
-4.20152e+07
-138103
941359
1.1044e+07
3.82819e+06
8.26846e+06
-29958.5
-4.4104e+06
2.54833e+06
5.02552e+06
-1.09837e+07
3.25269e+06
3.42794e+06
-1.68773e+06
-906569
-2.72049e+06
8.01264e+06
528995
-3.49194e+06
6.1755e+06
-445809
-2.50867e+06
8.08247e+06
9.17935e+06
-6.54316e+06
1.42403e+07
6.1847e+07
-1.54127e+06
4.0276e+06
7.4323e+06
-2.52275e+06
-9.618e+06
-1.53779e+07
-1.39345e+07
-1.25235e+07
5.42994e+06
-8.42459e+06
2.65993e+06
-1.00731e+07
-1.05366e+07
3.76969e+06
6.62749e+06
7.08832e+06
5.41743e+06
1.70062e+07
3.08458e+07
-5.37092e+06
6.21047e+06
-2.46592e+06
4.28996e+06
-5.51223e+06
1.59809e+06
-1.01456e+07
2.73302e+06
-1.94892e+06
-1.34707e+06
-3.20128e+06
-1.49882e+07
-4.425e+06
-5.02114e+06
6.30732e+06
3.99924e+06
3.14901e+06
-5.05817e+06
3.34415e+06
4.10882e+06
1.87292e+06
-4.39187e+06
-1.58643e+07
2.29271e+06
-4.72137e+06
1.03813e+06
-9.72582e+06
-1.0079e+06
-8.95183e+06
1.59425e+07
2.96547e+06
1.26433e+06
-3.5772e+06
54411.2
-2.95183e+06
-6.10412e+06
-2.57894e+07
-1.75527e+06
1.81554e+07
410494
1.57131e+07
1.26769e+06
1.76574e+06
-3.69633e+06
-2.99488e+06
-858365
-1.43032e+07
-1.7611e+07
3.38757e+06
-5.15877e+06
2.26416e+06
-424287
-6.29165e+06
69486.1
-7.32714e+06
-131393
-4.39957e+06
1.98626e+07
-1.19636e+06
-9.17422e+06
-7.34973e+06
9.39709e+06
1.12729e+07
-2.61272e+06
2.01302e+06
-2.4015e+07
7.1812e+06
-1.60584e+06
-1.16428e+06
9.17949e+06
5.73155e+06
7.26907e+06
-1.49339e+07
5.50631e+06
1.1964e+07
-1.58008e+07
4.96355e+06
5.887e+06
-3.20034e+06
-350635
1.21047e+07
1.04286e+07
-6.78347e+06
1.51011e+06
3.45352e+06
1.23749e+07
2.41649e+06
5.65589e+06
3.22547e+06
-5.18531e+06
1.21575e+07
-1.32321e+07
-297255
6.94221e+06
-1.80129e+07
1.1573e+07
3.17975e+07
-3.02648e+06
-3.92208e+06
365413
-6.44478e+06
2.15231e+06
-7.81128e+06
9.3757e+06
-1.58029e+06
-7.23174e+06
-2.10054e+06
-7.73669e+06
8.79524e+06
2.34537e+07
-2.86619e+06
-1.95575e+07
318575
-2.06459e+07
1.65315e+06
607123
-2.55995e+07
5.12614e+07
-859170
8.44178e+06
-356055
8.73743e+06
1.68408e+07
4.02807e+06
-6.80242e+06
5.10835e+07
-7.56898e+06
6.81712e+06
6.56547e+06
-8.37092e+06
2.33083e+06
1.8094e+06
3.46221e+06
-6.82268e+06
-8.45318e+06
-7.37843e+06
-5.66082e+06
1.50293e+06
-8.59616e+06
1.16107e+06
299317
-3.45563e+07
-1.57642e+07
-251714
7.56491e+06
-2.6815e+06
-7.28959e+06
-6.72946e+06
1.03546e+06
-7.76721e+06
-6.94244e+06
-565912
-4.95883e+06
-7.33722e+06
2.57963e+06
817770
-3.73575e+06
-2.67537e+06
4.52667e+06
-3.79067e+06
1.1787e+07
1.5791e+06
5.68782e+06
-192132
-4.65919e+06
-2.36747e+06
-5.99203e+06
-5.52995e+06
-1.12002e+07
-5.49546e+06
-4.19194e+06
-6.8668e+06
-2.61481e+06
4.30343e+06
-4.53131e+06
-3.27925e+06
-4.90504e+06
8.64514e+06
-2.86662e+07
-7.58786e+06
1.05494e+07
5.176e+06
11546.7
-2.05026e+06
-1.86136e+07
1.50153e+07
-1.54813e+07
1.67053e+07
-2.03263e+07
-2.65943e+06
-5.3259e+06
2.42121e+07
-8.21987e+06
-8.87517e+06
-1.60577e+07
-1.217e+07
-773035
2.22932e+06
-5.79501e+06
-1.40884e+07
-9.11579e+06
-7.15738e+06
679906
-2.56327e+06
-1.3854e+07
5.64208e+06
-1.97798e+07
402466
1.68299e+07
-9.69188e+06
454320
1.23547e+06
7.69703e+06
-2.9517e+06
2.07306e+06
-5.09987e+06
-1.80239e+06
-1.34008e+06
1.20701e+06
-2.7676e+06
75028.9
1.26928e+07
-7.14092e+06
5.0153e+06
7.72712e+06
-2.43422e+06
-3.33159e+06
5.7117e+06
4.05939e+06
7.42921e+06
8.40644e+06
4.21349e+07
-105562
2.02136e+06
-7.76932e+06
-1.91443e+07
3.0971e+06
823811
-2.23527e+07
-6.66621e+06
-5.23284e+06
-1.08481e+07
-544316
-2.1717e+06
7.02317e+06
-3.64852e+06
1.2746e+06
-1.00325e+06
1.35066e+07
-6.05059e+06
-5.37238e+06
-1.19916e+07
270348
1.4302e+06
5.37838e+06
1.99529e+07
101100
1.71678e+07
1.79208e+07
-6.48592e+06
-6.99146e+06
907693
-2.90719e+06
4.73758e+06
-2.90366e+06
1.7493e+06
-1.26848e+07
-9.3635e+06
-4.56373e+06
9.32704e+06
-6.68091e+06
-615363
4.97686e+06
-2.46373e+07
-1.16349e+07
-2.853e+06
-1.02212e+06
-2.38946e+07
6.32887e+06
4.37686e+06
-939595
-8.73026e+06
-2.34392e+07
-1.3026e+06
-428465
6.10477e+06
446190
2.02871e+06
-5.6072e+06
-1.58705e+07
-8.28649e+06
984081
-4.0677e+06
-3.17036e+07
2.17966e+06
3.16198e+07
-1.48969e+07
-8.1945e+06
-1.97179e+06
1.06381e+07
-4.56855e+06
-1.1747e+07
1.51812e+06
-2.20379e+06
6.18869e+06
-4.89937e+06
-2.47103e+06
-5.15352e+06
-1.10812e+07
6.12005e+06
-7.86121e+06
-307995
-7.65018e+06
6.38113e+06
8.01184e+06
8.64118e+06
2.03229e+06
3.04694e+06
-7.19028e+06
-297798
1.73715e+07
6.66362e+06
-1.13016e+06
2.96286e+06
1.43907e+06
-1.43626e+07
-535798
1.50583e+06
-223196
-3.94262e+06
-4.58773e+06
-229155
-1.664e+07
-3.81665e+06
-1.4065e+07
-8.09601e+06
-4.07357e+06
2.24262e+06
3.70767e+06
4.60323e+06
-6.50667e+06
8.26326e+06
3.5893e+06
-665937
2.63966e+07
2.43891e+07
6.21051e+06
3.70658e+07
2.80735e+07
2.5329e+06
-1.69849e+07
-1.83097e+07
1.20979e+07
1.53047e+06
1.88201e+06
1.22654e+07
574157
-2.22928e+06
-6.66306e+06
2.10002e+07
68060.5
-4.57993e+06
4.13974e+06
-5.10369e+06
-6.76966e+06
-1.96986e+07
7.6222e+06
-1.38633e+07
-8.13989e+06
9.67406e+06
-1.10813e+07
-2.62933e+06
2.12063e+06
4.80234e+06
-9.86786e+06
-1.99156e+07
-1.14907e+07
-5.90016e+06
-4.87885e+07
-2.09301e+06
6.54944e+06
-2.97302e+06
3.84944e+06
-5.06475e+06
1.8256e+06
4.04717e+06
-4.22587e+06
1.25927e+07
-1.44621e+07
-1.58576e+06
-7.94083e+06
-7.9507e+06
5.06108e+06
1.18715e+07
-322360
5.44142e+06
2.41868e+07
-4.76069e+06
-3.32588e+06
-9.74263e+06
-1.1487e+07
1.03698e+06
1.70997e+07
6.8675e+06
1.20925e+07
-3.45015e+06
2.32529e+07
-3.06017e+07
2.17697e+07
-619460
-1.57782e+07
1.75294e+06
1.00869e+07
1.10986e+07
2.08122e+06
1.78204e+06
1.19649e+07
2.80106e+06
2.37335e+06
8.05762e+06
-3.22629e+06
-2.49008e+06
1.40914e+07
-2.60849e+07
-6.78814e+06
-1.46357e+07
2.2082e+06
-3.55766e+06
4.84656e+06
1.30946e+06
2.48979e+06
-1.66955e+06
-7.6677e+06
5.35564e+06
803346
5.64228e+06
2.65366e+06
-1.11924e+06
1.28821e+07
-1.61166e+06
226993
-3.14807e+06
1.2386e+07
3.177e+06
1.9491e+06
-3.61897e+06
-2.00635e+06
8.29254e+06
1.97691e+07
1.03194e+07
808762
8.41709e+06
6.12466e+06
2.35531e+06
-4.26231e+06
-330503
-487157
-1.06381e+06
-3.24605e+06
2.65072e+07
-1.10079e+07
-5.16969e+06
-4.60188e+06
2.01747e+06
1.22136e+07
-9.73294e+06
-1.41771e+07
4.04922e+07
2.46244e+06
-1.40319e+07
3.88652e+06
7.2253e+06
-8.87502e+06
-7.17404e+06
-1.3567e+07
-1.69257e+06
1.79459e+07
5.67713e+06
-4.76598e+06
-203586
4.70461e+06
3.02153e+07
4.13288e+06
1.0024e+06
8.45201e+06
9.01041e+06
-4.12487e+06
-4.4421e+06
-9.60993e+06
-1.041e+07
7.92868e+06
9.9003e+06
-1.85857e+06
8.45074e+06
-1.17335e+07
-6.21067e+06
3.59565e+06
2.41875e+06
-1.77189e+07
-1.23703e+06
-2.46229e+06
-3.29868e+06
-3.49139e+06
-1.18779e+07
2.06117e+07
1.09935e+07
1.05169e+06
5.01206e+06
-5.56321e+06
-760412
1.4622e+07
9.85921e+06
-6.64927e+06
-6.29759e+06
6.84359e+06
-3.27298e+06
4.15023e+06
1.41522e+06
-4.45646e+06
1.35266e+06
-1.89373e+07
4.60319e+06
-5.83265e+06
4.60206e+06
6.94021e+06
2.93601e+06
-5.78132e+06
-1.77587e+06
-1.6544e+06
-6.30515e+06
-3.04472e+06
-1.50604e+06
1.74246e+06
2.73831e+07
-912764
271893
1.5054e+06
-1.41131e+07
140606
-3.17829e+06
1.21173e+06
-1.56207e+06
-1.4021e+07
3.49448e+07
2.59507e+06
3.2078e+06
-7.8444e+06
3.04204e+07
-5.73065e+06
2.52647e+06
6.38996e+06
1.26653e+07
2.68378e+06
5.46453e+06
425448
-1.44435e+06
1.87051e+07
-2.9088e+06
1.16556e+07
820039
-1.77225e+06
8.7055e+06
-3.63109e+06
2.24994e+07
-105468
4.35385e+07
5.67988e+06
7.23017e+06
-3.55222e+06
5.4762e+06
3.17459e+06
-6.29798e+06
2.55399e+06
-528759
6.06831e+06
-2.19375e+06
1.21843e+06
2.32237e+06
-7.08358e+06
-1.66662e+07
-84905.7
-2.57611e+06
-2.00833e+06
1.06832e+07
-1.92805e+07
3.16633e+06
-1.57347e+07
3.61791e+06
-1.57002e+06
-8.12798e+06
-7.24509e+06
5.05343e+07
-1.13979e+06
-5.96195e+06
-8.60433e+06
1.04011e+07
-8.60717e+06
-1.1167e+07
2.56305e+07
-5.29831e+06
-1.97289e+07
5.25859e+06
2.605e+06
1.1908e+06
1.13554e+06
916388
2.01208e+07
1.36085e+06
5.62962e+06
-2.0956e+06
6.46558e+06
7.74787e+06
3.66962e+06
3.67016e+06
1.62928e+07
5.05387e+06
-2.8556e+06
-2.89059e+07
5.4448e+06
-776035
-8.00201e+06
-493439
1.74325e+06
1.08772e+07
1.59428e+06
730613
1.18203e+07
1.80734e+07
706062
1.65495e+07
-2.74029e+06
-2.12999e+07
2.36536e+06
-4.05655e+06
-4.80105e+06
-2.02165e+06
-6.73191e+06
-5.86786e+06
-216122
-129798
6.14534e+06
-427301
-9.05823e+06
-1.10056e+07
-3.46995e+06
-1.78757e+06
6.65012e+06
-1.08082e+07
-207163
-1.31265e+07
2.56322e+07
-4.11948e+06
472771
1.50178e+06
610419
7.25594e+06
1.50034e+06
-5.47793e+06
-2.59907e+06
-376393
358815
1.03478e+07
-2.42114e+06
-4.58951e+06
-5.8888e+06
-7.81167e+06
-934010
4.00646e+06
-1.83387e+06
2.12489e+06
-3.10352e+06
1.03225e+07
1.64508e+07
8.3641e+06
5.77684e+06
-3.7498e+06
-7.84626e+06
1.33614e+06
1.27704e+07
1.54209e+07
-408675
1.44545e+07
6.72778e+06
432750
-244628
5.99991e+06
7.04772e+06
3.48562e+06
-301396
-3.13361e+06
2.26352e+06
-1.12926e+07
-4.00204e+06
1.14988e+07
2.65645e+06
-9.86567e+06
-2.1186e+06
1.58825e+07
-2.83645e+06
317473
1.7646e+06
6.74645e+06
-3.40905e+06
-2.1936e+07
-3.822e+06
-5.01157e+06
-1.21028e+06
-1.53768e+07
3.91466e+06
7.08746e+06
-9.51968e+06
3.28761e+06
2.48061e+07
-5.47364e+06
4.7909e+06
-2.00952e+06
3.23193e+06
1.77346e+07
-4.08775e+06
7.49993e+06
2.08412e+06
1.17503e+07
8.23244e+06
5.91076e+06
2.11658e+06
-418175
450871
-4.42517e+06
1.87136e+06
9.37236e+06
2.58003e+07
-7.83436e+06
-9.65747e+06
-8.86902e+06
-1.22017e+07
1.20679e+07
92161.5
8.64366e+06
-4.22545e+06
1.02437e+07
-654669
8.45987e+06
-460983
-3.68751e+06
-1.0023e+07
1.17161e+06
2.45217e+06
-4.79451e+06
-3.35634e+06
-2.42259e+06
-9.8825e+06
-5.76318e+06
3.17337e+06
2.82592e+06
-1.18426e+07
1.10777e+06
-267695
-1.11888e+07
1.76163e+07
3.7586e+06
9.97714e+06
-2.42728e+06
-1.67856e+07
-1.03964e+07
-2.08519e+07
-1.21914e+06
-9.48222e+06
1.87662e+07
-9.33768e+06
2.92417e+06
2.24978e+06
-5.15841e+06
885764
263756
3.0219e+06
1.67108e+06
1.3245e+06
-4.28541e+06
-1.1632e+07
-5.76595e+06
4.29753e+06
1.43051e+06
5.88108e+06
1.72914e+07
467377
-1.01535e+07
-7.85549e+06
1.20425e+06
4.02241e+06
-2.57541e+06
-4.58569e+06
-5.02237e+06
-7.25726e+06
-2.32585e+06
7.14575e+07
-1.33023e+06
-8.50021e+06
-5.01385e+06
5.1567e+06
-2.59341e+06
6.48918e+06
1.07809e+07
-1.30303e+07
-5.70942e+06
2.58982e+06
6.30177e+06
2.71856e+06
-3.43143e+06
3.27349e+06
-1.76919e+06
1.37079e+07
2.20263e+07
1.3007e+07
390178
-1.14329e+07
9.95721e+06
-2.62637e+06
1.30563e+07
-2.98513e+07
7.00438e+06
-1.61109e+07
7.5636e+06
1.02994e+07
-4.80684e+06
-2.38848e+06
-1.20369e+07
4.88746e+06
-5.87882e+06
5.81329e+06
1.23615e+07
-1.84011e+07
6.21833e+06
-1.85234e+06
-1.58866e+07
1.01703e+06
7.67023e+06
-2.59534e+06
-255345
6.85108e+06
-3.09125e+06
-462281
4.96751e+06
2.46086e+06
1.22013e+07
-1.30206e+07
-2.55174e+07
1.22629e+06
-9.22318e+06
-1.38314e+07
-9.40271e+06
-6.50561e+06
4.87049e+06
1.18514e+06
-4.53211e+06
-6.04504e+06
4.92542e+07
-1.2368e+06
1.00339e+07
-5.12254e+06
9.60752e+06
-1.23502e+06
-7.78928e+06
-1.89749e+06
-1.34295e+07
3.78017e+06
2.99936e+06
-9.27638e+06
-1.50751e+06
6.97449e+06
938822
340941
-7.68263e+06
487791
1.28377e+07
-8.58476e+06
-42791.1
1.09615e+06
-3.73755e+06
-3.51991e+06
-8.86363e+06
-2.27679e+06
-1.39635e+07
674417
1.13125e+07
6.25351e+06
2.02239e+06
-4.75599e+06
-8.49413e+06
9.86442e+06
-2.06263e+06
973622
2.45564e+07
-4.75068e+06
-6.27036e+06
-2.42121e+06
6.75857e+06
1.33346e+07
2.42628e+06
-1.44619e+07
-631107
-3.62742e+06
-1.30932e+07
4.19877e+06
-1.0676e+07
-3.19952e+06
6.45325e+06
8.43536e+06
-1.36599e+06
4.96525e+06
-452656
8.61915e+06
1.7456e+07
-3.86279e+06
1.27014e+07
-936770
1.40461e+06
-1.49044e+07
7.10318e+06
-4.46442e+06
-1.52001e+07
4.69459e+06
-1.259e+07
-2.08338e+06
7.1508e+06
5.36095e+06
928423
-6.40447e+06
1.3125e+07
-1.04196e+06
2.04223e+07
4.52545e+06
2.4686e+06
2.68342e+06
-1.61968e+07
1.21812e+07
1.33718e+07
-1.17089e+06
1.55012e+07
-1.17113e+06
-4.91786e+06
-5.89225e+06
-5.45107e+06
1.06795e+07
-615333
-3.46006e+06
834220
8.0766e+06
3.33137e+07
1.80769e+07
-1.16424e+06
3.00111e+06
6.3512e+06
-2.00718e+06
4.10684e+06
6.19284e+06
-7.55358e+06
4.93944e+06
-8.51892e+06
-1.6183e+07
4.55009e+06
-36859.9
2.78612e+06
-2.55318e+06
-1.06752e+06
-2.04706e+07
1.05507e+07
2.98975e+06
-4.76375e+06
8.48602e+06
3.82839e+06
1.7864e+06
-3.72471e+06
-1.77525e+07
-7.81569e+06
4.45141e+06
4.04227e+06
1.47815e+07
4.40625e+06
-1.372e+07
-3.45806e+06
1.85345e+06
3.91321e+07
76198.7
5.68805e+06
1.8715e+07
5.33237e+06
-5.32294e+06
-6.71169e+06
1.98583e+07
1.48961e+07
4.03752e+06
4.04072e+06
-2.75314e+06
5.78609e+06
3.6675e+07
-426681
6.73929e+06
-2.26724e+07
-9.06111e+06
-1.52922e+07
1.26865e+07
4.76022e+06
-1.87486e+07
8.3852e+06
-748969
-9.76469e+06
4.90698e+06
5.12506e+06
-31830.7
595159
-3.89794e+06
-1.08834e+07
-2.14349e+06
-1.31766e+07
-6.18289e+06
-1.93989e+06
3.64204e+07
3.39356e+06
2.26167e+06
-3.27489e+07
-4.27545e+06
-1.37611e+07
-1.54848e+06
1.62417e+06
-6.38195e+06
1.61926e+06
-1.83667e+07
-7.8217e+06
1.66433e+06
1.18206e+07
5.55297e+06
8.76942e+06
-8.02979e+06
4.77282e+06
5.06579e+06
2.48023e+06
-1.0559e+06
7.06485e+06
5.93484e+06
3.01528e+06
-3.94379e+06
-1.45045e+06
-1.84616e+06
-3.09214e+06
-9.23926e+06
1.5762e+07
-4.44271e+06
-3.49221e+06
6.57545e+06
-5.19823e+06
3.00909e+07
3.2558e+06
4.49197e+06
-9.04106e+06
5.79775e+06
893329
-5.08133e+06
-6.28381e+06
-4.31558e+06
-3.91037e+06
6.02052e+06
1.95657e+07
-3.67032e+06
1.20602e+07
-801880
-8.05422e+06
-3.79794e+06
4.81304e+06
-3.08479e+06
3.01217e+07
1.81481e+07
6.11211e+06
661682
-199611
-2.45884e+07
3.52407e+06
1.86253e+06
3.52182e+06
-4.35675e+06
-2.00859e+07
1.30249e+07
6.74441e+06
-4.96992e+06
1.58572e+06
1.80676e+07
-6.33686e+06
8.36655e+06
1.36787e+06
-222437
4.86397e+06
-2.08792e+06
3.71402e+07
-3.40932e+06
3.55463e+06
2.05645e+06
2.2035e+06
-4.37584e+06
-6.13079e+06
4.59813e+06
2.93501e+06
-408410
2.31555e+07
-3.29056e+06
4.3691e+06
-8.76496e+06
5.22209e+06
7.00237e+06
4.93226e+06
1.87002e+06
1.60265e+07
7.9072e+06
712482
1.72247e+07
5.4881e+06
114477
-2.24891e+06
1.96614e+07
2.46573e+07
-3.13572e+06
1.5602e+06
1.16486e+07
3.20681e+06
-5.55193e+06
-3.43196e+06
1.91266e+06
-1.13241e+07
9.82047e+06
1.20342e+07
-6.27711e+06
5.46079e+06
4.72628e+06
1.77294e+07
-1.84368e+06
4.28325e+06
-1.92626e+06
-1.09977e+07
-2.46104e+06
-1.57115e+07
6.08881e+06
1.35076e+06
-5.53965e+06
-2.72048e+07
2.55322e+06
-506804
9.46736e+06
9.49858e+06
-3.22578e+06
3.20482e+06
7.57156e+06
3.51227e+06
-4.8101e+06
1.89235e+06
-1.11625e+07
-504337
-9.20734e+06
3.91221e+06
526307
-4.15277e+06
9.89794e+06
1.48166e+06
-6.84217e+06
4.49917e+06
694096
4.08132e+06
-3.17331e+06
-1.13447e+07
1.7215e+06
-2.1507e+06
1.21115e+07
-4.73257e+06
845114
3.28893e+07
2.98816e+06
-9.55463e+06
2.08774e+06
-7.90464e+06
1.40562e+06
-3.63153e+06
1.69945e+07
1.19471e+06
1.0829e+07
1.76435e+06
9.07044e+06
1.47344e+07
1.76463e+06
8.51667e+06
2.07157e+06
8.83043e+06
4.34106e+06
1.00011e+07
2.43541e+06
1.81024e+06
2.10591e+06
3.72199e+06
4.87736e+06
-1.2864e+07
-1.3867e+06
1.18449e+07
9.88297e+06
2.58502e+06
7.86799e+06
-45580
4.59949e+06
5.97398e+06
-4.28783e+06
-7.20143e+06
-1.02514e+07
-1.16594e+07
1.01525e+07
-1.64038e+07
4.14379e+07
2.01768e+06
1.03515e+07
-3.37716e+06
2.45233e+06
-2.1742e+06
1.40035e+07
3.02076e+06
-3.15059e+06
4.70273e+06
461604
507671
7.79933e+06
4.61921e+06
1.47338e+07
4.92417e+06
3.85693e+06
-320791
2.42103e+07
-5.99378e+06
-8.43663e+06
-9.19877e+06
5.72609e+06
-397981
-2.17559e+06
-2.54662e+06
1.70171e+06
-9.52311e+06
-9.25429e+06
6.73684e+06
-4.37664e+06
-3.10904e+07
-4.70362e+06
-1.0622e+06
2.50752e+06
4.35488e+06
-1.08549e+06
1.28779e+06
8.30186e+06
-3.41008e+06
8.12357e+06
-9.10013e+06
-9.21102e+06
2.52437e+07
1.1151e+07
1.497e+07
1.28657e+06
-1.03874e+07
-3.33984e+06
668178
-1.009e+07
-296007
4.4831e+06
-1.04343e+07
1.66282e+06
4.92197e+06
-2.76198e+06
3.3645e+06
-5.69652e+06
100406
8.06619e+06
-2.55437e+06
-1.71822e+07
-4.2757e+06
1.3156e+07
6.80688e+06
-4.07852e+06
3.05114e+06
-4.34965e+06
5.07144e+06
785291
-3.76409e+06
-1.7175e+07
-1.64292e+06
2.39846e+06
-3.82887e+06
-4.63536e+06
1.22633e+07
-9.91587e+06
3.12401e+06
1.9576e+06
-3.66972e+06
-3.19506e+06
8.99515e+06
-7.74817e+06
1.53361e+06
-2.37091e+06
-2.7024e+06
-3.37759e+06
6.44762e+06
4.97706e+06
2.18475e+06
1.39074e+06
-5.44827e+06
2.13818e+06
1.8549e+07
6.27714e+06
2.70571e+06
-1.48803e+06
-2.27192e+07
-1.28466e+06
5.49605e+06
-1.32181e+07
1.71857e+07
1.67931e+06
8.40411e+06
1.15936e+07
7.32108e+06
2.53062e+07
-1.25585e+07
4.20736e+06
-1.68217e+07
4.20647e+06
-9.27148e+06
7.28152e+06
-6.14069e+06
1.49971e+07
9.2053e+06
4.48597e+06
-1.08424e+06
-1.07105e+07
-9.20384e+06
2.25216e+06
1.55197e+06
-3.33781e+06
1.81152e+07
-4.50283e+06
3.05183e+06
-3.02838e+07
-9.18851e+06
2.49978e+06
-6.04529e+06
2.28535e+06
-3.61695e+06
3.49926e+06
1.61108e+06
3.19759e+07
-1.504e+07
-2.32584e+06
2.3108e+07
-1.37273e+06
2.20004e+06
1.8053e+06
4.97354e+06
2.20444e+06
1.50385e+07
-1.05803e+07
-2.74409e+06
6.26591e+06
7.31397e+06
2.23213e+07
4.93836e+06
-7.29434e+06
813074
-3.3511e+06
1.19343e+07
-4.96446e+06
883317
1.90879e+06
-5.61832e+06
-1.21228e+07
7.46901e+06
-238991
-1.8051e+06
-7.63878e+06
3.97673e+06
1.14717e+06
1.34533e+07
1.27694e+06
-4.69932e+06
-1.52718e+07
4.48032e+07
5.66553e+06
2.21282e+06
9.88984e+06
-6.56348e+06
1.16349e+07
-7.49007e+06
-2.76842e+06
-188184
8.84688e+06
-1.69343e+07
1.60723e+07
1.15859e+07
6.67792e+06
6.86764e+06
-3.78521e+06
-682398
6.71509e+06
5.82917e+06
312202
8.0556e+06
755190
-1.01675e+07
4.16406e+06
7.51891e+06
-6.79727e+06
8.08257e+06
-5.90847e+06
277335
-276811
-347044
9.9335e+06
-1.5193e+07
-1.3647e+07
7.70166e+06
4.25362e+06
1.55318e+07
-2.41563e+06
6.16582e+06
-1.54624e+06
-7.32814e+06
-1.37218e+06
6.35167e+06
1.91926e+06
-6.07943e+06
1.48937e+07
3.19234e+06
8.48315e+06
-2.55792e+06
-1.50164e+07
7.89937e+06
-1.48214e+07
-7.63799e+06
5.88886e+06
-5.73073e+06
-8.38359e+06
607120
-6.48856e+06
1.86637e+06
-1.05947e+07
1.99311e+06
1.51956e+06
-1.08612e+07
3.97155e+06
818198
-1.16617e+07
3.56806e+06
-9.39194e+06
-2.65981e+07
-1.83522e+07
9.69146e+06
1.76941e+07
1.6828e+06
-1.2038e+07
5.80648e+06
-6.9826e+06
1.87202e+06
-7.52368e+06
4.22265e+06
2.052e+07
260992
-1.10492e+07
1.8644e+07
-1.70275e+07
8.73818e+06
-1.80647e+06
-4.26151e+06
447280
5.64366e+06
1.65746e+06
9.26281e+06
1.19997e+06
-1.29749e+07
-5.73132e+06
3.75919e+06
-962099
2.5236e+07
-9.43368e+06
-1.11806e+07
-1.11986e+06
6.17103e+06
8.52034e+06
-2.87311e+06
-2.87323e+06
-1.28873e+07
3.54359e+06
874352
1.59197e+07
3.50199e+06
-2.66296e+06
3.13587e+06
-2.66135e+06
4.92946e+06
-9.0729e+06
-2.4338e+06
1.54761e+07
-8.44145e+06
271669
1.5e+06
9.08072e+06
-1.48405e+07
-8.43236e+06
-1.94485e+07
-4.00928e+06
-3.32595e+06
-5.91579e+06
-4.78658e+06
-1.35732e+07
9.0448e+06
-1.55749e+07
-6.19688e+06
1.24117e+07
-6.96472e+06
3.1566e+06
1.64118e+06
3.22763e+07
-353951
2.1978e+06
2.18729e+07
-4.41739e+06
-9.53079e+06
2.22946e+06
-7.72333e+06
1.37456e+07
4.24873e+06
5.40227e+06
-3.08279e+07
-2.04306e+06
2.68132e+06
-7.98852e+06
7.94445e+06
-5.19964e+06
1.37271e+07
-9.51824e+06
5.015e+06
1.20042e+07
8.92955e+06
5.61332e+07
-1.17085e+07
-5.46959e+06
-7.32211e+06
-922613
6.64453e+06
-2.88896e+06
-462494
-1.0546e+07
5.58361e+06
1.68477e+07
-4.90489e+06
-1.75124e+06
93513
5.52599e+06
-189049
-4.08398e+06
2.74415e+06
4.24292e+06
-1.00432e+07
3.2093e+07
-1.10431e+06
-1.11745e+07
7.16127e+06
2.04707e+06
-4.13724e+06
37136.1
4.19033e+06
-5.93636e+06
2.40567e+07
-7.92205e+06
4.95055e+06
-5.08205e+06
2.12247e+07
-1.49542e+07
-2.666e+06
4.72268e+06
1.30078e+07
-9.03846e+06
-1.78024e+06
