1.2969311081e+11
1.2893314971e+11
1.18513726067e+11
1.3094343168e+11
1.26640694891e+11
1.1639661228e+11
1.1935843979e+11
1.16576706514e+11
1.0024677018e+11
1.20162213303e+11
1.2736545987e+11
1.2600764841e+11
1.0604373697e+11
1.2159298386e+11
1.2302988467e+11
1.2766535462e+11
1.1576438191e+11
1.126068973e+11
1.1307803741e+11
1.32170877757e+11
1.3069908472e+11
1.1921286826e+11
1.1222570331e+11
1.1358842478e+11
1.16205786e+11
1.18022153508e+11
1.31706524128e+11
1.24205312522e+11
1.2332417931e+11
1.38270830498e+11
1.2650629099e+11
1.2453766456e+11
1.2675424028e+11
1.1527553961e+11
1.25650034426e+11
1.1557069493e+11
1.3084798137e+11
1.28742851981e+11
1.1820258757e+11
1.2832123427e+11
1.2629264064e+11
1.1859524799e+11
1.3027891567e+11
1.2409271201e+11
1.2311064116e+11
1.1567439799e+11
1.2568334551e+11
1.2492716153e+11
1.1649050387e+11
1.311986001e+11
1.27796912192e+11
1.1971548264e+11
1.1968613815e+11
1.2047757331e+11
1.2864393375e+11
1.1966112601e+11
1.3583294392e+11
1.1743711097e+11
1.1761317647e+11
1.26816037937e+11
1.2363209647e+11
1.2319712598e+11
1.2762974083e+11
1.2854595775e+11
1.1663199581e+11
1.2584348481e+11
1.1292786809e+11
1.2191981578e+11
1.2789443105e+11
1.2776157283e+11
1.402646131e+11
1.1314941862e+11
1.2443750707e+11
1.341361178e+11
1.2855532268e+11
1.2551585915e+11
1.2586234406e+11
1.221751249e+11
1.2286177949e+11
1.3476366555e+11
1.1791712503e+11
1.2154910806e+11
1.2674490675e+11
1.25411684019e+11
1.0944318761e+11
1.3063772847e+11
1.1101934504e+11
1.2772787391e+11
1.1817865315e+11
1.2855615252e+11
1.239209574e+11
1.2461100785e+11
1.2546631671e+11
1.1971540677e+11
1.3120702281e+11
1.28559144708e+11
1.2572443673e+11
1.19741296987e+11
1.2176990916e+11
1.1391092857e+11
1.2644243356e+11
1.2111786477e+11
1.3101184729e+11
1.23076088918e+11
1.1377454495e+11
1.2282202333e+11
1.1260683043e+11
1.2778651269e+11
1.1790144374e+11
1.17755523325e+11
1.2659959238e+11
1.21433190307e+11
1.1817358169e+11
1.2193784609e+11
1.1309847899e+11
1.2608103316e+11
1.397709921e+11
1.2639337278e+11
1.1935492224e+11
1.2263005827e+11
1.2965358686e+11
1.2288631249e+11
1.1934333959e+11
1.1804850509e+11
1.3617199755e+11
1.3880733629e+11
1.2172416183e+11
1.2755376023e+11
1.3304581087e+11
1.110545154e+11
