1.2503657589e+11
1.2130911051e+11
1.1087788668e+11
1.2361925548e+11
1.1915436183e+11
1.1755101924e+11
1.1708514787e+11
1.18254012474e+11
1.0235896823e+11
1.1742230362e+11
1.2253639804e+11
1.2176245819e+11
1.0678868278e+11
1.1343778606e+11
1.2009462571e+11
1.2290166857e+11
1.1441282031e+11
1.143330989e+11
1.0934515572e+11
1.27640204667e+11
1.2618540176e+11
1.1819028937e+11
1.122290723e+11
1.1243063455e+11
1.1754599595e+11
1.1504980655e+11
1.2801704359e+11
1.2483641206e+11
1.28717764013e+11
1.2936382004e+11
1.1982048584e+11
1.19481878405e+11
1.2797435905e+11
1.14205046652e+11
1.2181562079e+11
1.11885419261e+11
1.3161690726e+11
1.1940840441e+11
1.1972508241e+11
1.2683256439e+11
1.17844720256e+11
1.1103718433e+11
1.2257468592e+11
1.1734753026e+11
1.1995713404e+11
1.1568431661e+11
1.2308765672e+11
1.1540556309e+11
1.1606780527e+11
1.2193167983e+11
1.2475175683e+11
1.1893090372e+11
1.1337692183e+11
1.1160168473e+11
1.2155512075e+11
1.1699862037e+11
1.2798193202e+11
1.1092128524e+11
1.1673270091e+11
1.34428973927e+11
1.2307211002e+11
1.1996596335e+11
1.1982283626e+11
1.24583337318e+11
1.1179649687e+11
1.2213509762e+11
1.1108482394e+11
1.1777915271e+11
1.2613515772e+11
1.2718118194e+11
1.2877271155e+11
1.0676758427e+11
1.1784006897e+11
1.367421631e+11
1.2069222454e+11
1.22205079909e+11
1.24615107663e+11
1.2057698961e+11
1.1769665088e+11
1.2794780568e+11
1.1673430903e+11
1.1329492552e+11
1.2435445128e+11
1.20909609402e+11
1.0472656067e+11
1.23974501649e+11
1.0494265245e+11
1.2203626064e+11
1.1192596393e+11
1.2403215698e+11
1.2195767959e+11
1.23432397548e+11
1.2403957812e+11
1.1777597676e+11
1.2587186336e+11
1.2503245061e+11
1.1861602467e+11
1.1871971448e+11
1.1615269497e+11
1.113445535e+11
1.2351777338e+11
1.193557793e+11
1.3123326811e+11
1.20738664829e+11
1.1138159639e+11
1.1873392622e+11
1.080298149e+11
1.1853236899e+11
1.1504468956e+11
1.1319635571e+11
1.2984768952e+11
1.1972723872e+11
1.2420087137e+11
1.1964049851e+11
1.1025195346e+11
1.2266723956e+11
1.3112685544e+11
1.2625231632e+11
1.1789038718e+11
1.1907992438e+11
1.2302125553e+11
1.17272772023e+11
1.1450691142e+11
1.1395774373e+11
1.2970532902e+11
1.3012148602e+11
1.1962625371e+11
1.2648462485e+11
1.2907182887e+11
1.0650231593e+11
