1.2706908113e+11
1.2150312781e+11
1.14304229163e+11
1.202933033e+11
1.2084660006e+11
1.15906756001e+11
1.1159537954e+11
1.24707945657e+11
95500984690.0
1.1799422856e+11
1.1619472363e+11
1.2945150988e+11
1.0235438694e+11
1.1877375274e+11
1.1311970898e+11
1.1878673701e+11
1.12818166919e+11
1.136510003e+11
1.0766801479e+11
1.28686712932e+11
1.203880376e+11
1.2030092553e+11
1.1070878565e+11
1.1133664215e+11
1.1273066066e+11
1.2073717263e+11
1.10871358829e+11
1.297251635e+11
1.1425347598e+11
1.2990479159e+11
1.1668949814e+11
1.2533245976e+11
1.2415981258e+11
1.17778287141e+11
1.1895241393e+11
1.0842071157e+11
1.3018032332e+11
1.109043672e+11
1.16062859141e+11
1.2580487991e+11
1.2571891644e+11
1.1611676094e+11
1.2290359264e+11
1.1267174051e+11
1.2174003587e+11
1.1335775002e+11
1.2084377181e+11
1.1540885759e+11
1.1464182712e+11
1.14001435063e+11
1.1944002012e+11
1.14155358487e+11
1.1249292566e+11
1.1528593321e+11
1.1224237219e+11
1.16038766327e+11
1.2305797588e+11
1.1105900297e+11
1.11642472825e+11
1.21844913127e+11
1.1630326111e+11
1.1257754213e+11
1.2208314031e+11
1.2204209156e+11
1.1900355897e+11
1.1879021669e+11
1.0973186952e+11
1.2429476628e+11
1.1562688125e+11
1.1720681529e+11
1.2822155422e+11
1.1121532071e+11
1.1069805033e+11
1.2224606879e+11
1.2157579534e+11
1.2479794895e+11
1.19313620239e+11
1.0847088016e+11
1.1463640967e+11
1.2186465379e+11
1.1982767124e+11
1.0872978257e+11
1.238083376e+11
1.2461653121e+11
1.0822085508e+11
1.1982384896e+11
1.0524537028e+11
1.165334172e+11
1.245089496e+11
1.2290584453e+11
1.1427800345e+11
1.1346916133e+11
1.2566949858e+11
1.1183382906e+11
1.2981383143e+11
1.1951199403e+11
1.2082883465e+11
1.1046154807e+11
1.1162060631e+11
1.0925518535e+11
1.150893158e+11
1.1907578282e+11
1.3350927687e+11
1.19518671142e+11
1.1126891119e+11
1.1122447467e+11
1.1382461783e+11
1.1977467672e+11
1.1704319132e+11
1.18445569401e+11
1.1820448849e+11
1.1497422084e+11
1.1332788276e+11
1.16235615604e+11
1.067638427e+11
1.1982118375e+11
1.2888517559e+11
1.2300694605e+11
1.1085416769e+11
1.180415055e+11
1.1674352075e+11
1.1777135448e+11
1.1295899689e+11
1.0958904746e+11
1.2255469943e+11
1.2212214322e+11
1.1723022467e+11
1.2308320571e+11
1.2007387735e+11
1.1185547318e+11
