10896465.5
13968951.0
12604428.0
10393658.0
9683737.5
12734806.0
12948155.0
12889006.5
11876076.0
13624977.4
12105522.5
9400975.5
11169542.5
13311484.0
11682988.5
17740369.5
17018690.0
13062749.0
14403356.5
12843192.0
12095944.0
10239061.5
10265560.5
10317641.0
12399200.0
12828932.0
12783124.0
11515609.45
9970571.5
14815417.5
17311214.5
11115566.45
14955763.0
10176307.0
13440690.0
11938528.5
13019073.5
10779743.5
7831317.0
19721716.0
10227694.1
21424265.5
12064809.5
17572735.0
11976787.85
14781087.5
14947261.0
12105895.0
15016562.0
8836567.5
14676803.5
8292550.8
11473376.0
13763091.0
18576111.0
12513601.85
13720033.5
16247230.5
12695036.5
14293271.0
12794854.5
10242780.0
10838332.5
14278430.0
14258400.0
12592889.0
12898127.5
10116000.0
16382933.0
13681805.5
10144050.0
12498647.0
13049658.5
10437631.0
9471141.5
15824523.0
12356377.0
9232339.0
15711246.0
12355331.5
13467864.5
14025348.0
12904755.5
13436853.5
12203046.0
11097460.7
11866201.5
15691430.5
13017367.0
10616705.5
12561135.0
14874589.5
14585606.5
10497299.0
11150228.5
10321169.0
9411995.0
9745305.5
14547465.95
17247359.5
11278313.0
9433899.0
13918171.5
12953446.5
10455307.5
14134567.0
13397131.5
12271832.5
11605094.5
10792812.5
10033337.5
10072615.5
14830164.25
17436574.0
14246538.0
14808935.0
15522108.5
8795733.0
14709657.5
17793660.5
13903642.5
10916364.5
15186020.0
12046210.5
19504056.5
10436732.5
11763938.0
11497953.5
13754012.5
10380893.5
13355261.5
14678359.0
9373781.0
12341740.0
13462384.5
13981579.5
13651624.5
12597099.5
9576468.0
13830920.0
10222509.5
15597566.5
11394676.65
15156997.0
10556191.0
15402687.0
10382056.0
13469886.5
12545109.0
10924229.0
8622095.0
15064432.5
13735971.5
9340839.5
15731319.0
10901027.5
14339191.5
10220886.5
14905942.5
9870748.5
14544407.5
17060206.9
9973041.5
13285681.5
10191572.0
16253619.0
10270127.5
17990432.5
15845599.5
10202255.5
8328558.5
11621215.5
13372810.0
11078810.5
13257466.0
9920801.0
13020721.0
16545337.5
13402283.5
18084624.0
14122620.5
11446056.5
11292769.0
11517980.0
15096284.0
12109724.5
15875600.5
17307477.5
11748730.0
13220044.0
14964784.5
8080910.5
10613538.5
13604634.5
10380534.5
17465257.0
10880747.0
17130221.5
15292944.5
9717942.5
10574111.0
15397107.5
19717902.5
13336622.5
11326599.5
13930291.5
12950542.0
13330680.5
16000619.65
7850652.0
16907295.0
13735247.5
8304885.0
14121818.5
9447169.5
8886446.5
10143300.0
12204152.5
13713891.5
13628325.5
13931170.0
11040297.0
14061367.5
11660446.5
9612570.0
11029707.0
10067206.0
11240006.5
16205132.5
13098970.5
10464914.0
11698129.0
12109262.5
15562954.5
10059275.0
11947794.5
13645805.0
9914346.0
16332057.0
16957599.5
13415852.0
8726130.5
10712399.0
18952373.5
14507340.5
11515897.5
14229963.5
14769719.45
12265176.5
11441338.0
11122203.0
11178887.4
9111887.5
12679951.5
10540649.0
12847210.0
10618567.0
11278455.5
13967268.0
12141113.5
9478161.5
15252934.5
14972501.5
15038285.5
10110840.0
12849227.0
10575553.0
14150183.5
12016369.5
10689947.0
11387626.5
15194279.0
11836505.0
10300631.5
11893355.5
11736034.0
11819033.5
12420277.5
13975523.5
18064221.0
13787601.5
12027079.0
8845477.0
11761756.5
13709582.5
18143019.0
11478517.5
12169606.0
12335149.5
12965137.5
13681822.0
8521440.5
11917738.0
13238023.5
11982182.5
10082331.5
10383938.0
13725373.0
15149807.5
11695048.0
10622287.0
20294689.5
10245577.5
11266668.0
13313498.0
10915983.5
11736771.0
12842800.0
11278126.5
13886751.0
12283485.5
10485972.0
7164457.5
11316089.0
9661672.0
10332683.0
10633544.0
15145784.0
15738109.0
10969155.0
9285831.0
12597045.5
13576817.0
10558514.5
12541402.0
13694302.5
10973524.0
13397080.0
13930633.0
16782741.7
11908811.5
13947463.0
15408322.5
10828557.5
11902719.5
11322935.5
14497453.0
12050949.0
10934547.0
12236695.0
13150289.0
11437933.5
12832491.5
15851968.0
13980597.0
15630969.0
10756019.5
9887131.0
13358624.0
10303382.5
13346367.5
16584519.5
10334290.5
8784769.5
12102302.0
22236291.5
11799848.5
21669522.5
12583606.5
12774179.0
15722858.0
10213319.0
12259478.5
11701362.5
10577822.0
16126483.0
14388786.0
11648904.0
14226575.65
14287605.5
13595069.5
13515711.5
11520190.0
13630693.5
12914683.5
12082731.0
11573295.5
12805822.0
9759290.5
10985189.0
11466816.5
12437466.0
13694558.5
14043881.0
13563586.5
9411271.95
14525883.0
11715890.0
13281973.0
12147962.5
12446450.0
17491655.0
12837806.5
16975303.0
14130092.5
13969526.5
11395742.0
13896022.0
14768500.0
17868541.0
15346938.5
10744637.0
12919677.5
12108429.0
14193324.5
10973517.0
13206801.0
10136379.5
8927402.0
10360788.0
11777343.5
15617875.5
10725917.5
12573108.5
16286403.5
13800078.5
12076469.0
12278295.5
14941917.0
15311097.5
12873062.0
9956890.5
11651162.0
11975843.5
14990469.5
10942780.0
11280855.0
11754905.5
10776253.5
16092510.5
14474149.0
11511156.5
12425601.5
13777518.5
14127177.5
12104587.0
12941853.0
14269888.5
12652776.0
14913495.0
9363803.0
15879160.5
8457220.5
13285478.5
14323681.5
14488573.0
13679928.5
10049607.0
11254993.5
13133792.7
10422060.5
10002754.0
10444352.5
13238690.5
11583624.0
15313605.0
13977538.5
11138863.5
11824954.5
11064359.0
12845634.0
14260055.5
10343930.5
11754271.0
13852123.0
10824385.0
10904222.0
12397824.0
15451015.0
14125686.5
