282534.9673
156734.674
174627.99307
325059.87926
305198.22482
163349.432
347118.2802
265822.51807
233726.5032
120987.5646
205116.1924
190997.3882
58519.1787
155377.5304
238546.2681
261412.2473
267115.13537
307969.692
171288.52865
100937.6422
145605.49406
182065.13106
185073.29554
106501.97876
230269.5592
185929.4833
308323.0834
251593.14355
232904.18523
144257.1594
213861.57631
110363.1877
189337.1858
192975.25
193713.4732
332225.8969
152691.2165
192111.73085
188256.37
170337.61412
269618.3221
111268.47694
244459.6782
167654.23408
264751.505009
138707.08513
276515.0572
282446.8517
236609.2577
170593.2899
173178.0391
167353.2918
135595.0136
251769.8693
234566.5067
182988.8159
243488.1787
205869.8032
157199.162002
198117.973
166635.5832
163694.0448
205688.99421
165045.692
104264.99056
306691.1932
220829.5833
118410.64006
294117.1672
277885.8281
164911.14967
168860.1439
275359.7228
249103.8755
215733.9582
126254.41123
222107.9476
279980.8935
253392.0
199557.677644
184364.96915
198466.3191
201670.0106
107792.2181
124474.4389
96860.208
269015.4611
203717.8119
170395.8847
257344.9771
167805.0059
208013.2569
163529.5069
70798.0241
37145.3399
269100.1982
156423.9255
180692.95525
132693.0128
194645.04987
180964.33549
253426.74172
255350.2278
188176.9689
192322.0977
187612.45304
160429.2665
77225.7627
335393.6915
325789.98265
189045.0223
302177.90957
118559.7461
235880.0666
286244.22057
119781.4367
170945.3863
251719.1503
249477.2705
86615.3001
199622.5217
229052.7975
349823.74908
166123.0599
210813.93561
231145.47383
249247.9857
191671.505716
101742.1911
214440.843
157512.5127
266104.7807
221057.53624
215907.7796
200981.2316
212878.831
77196.3093
147797.8535
296184.1298
243691.5577
97277.984
342563.3418
90731.0339
306980.8723
246762.5284
141431.1978
148256.75268
191357.80597
111557.02922
135842.8203
329046.221
214450.55497
270074.1731
274386.614
160681.247224
204210.2497
167509.76538
184862.30074
183021.77182
268104.6578
114519.80619
248195.71777
174133.45004
136835.46658
212405.6691
190352.8654
110552.8629
152333.78181
468682.2319
259639.26123
240593.932176
180721.82795
100289.26902
154644.1495
290360.1363
226624.1863
174072.9602
102395.57721
225920.55915
349540.0691
256629.0559
185397.9575
250705.35222
316670.0981
174631.57711
289563.66976
153315.69235
360601.62
57823.10029
183023.4447
271511.1477
145061.9829
103896.80625
220208.356465
179030.5905
173131.3329
156141.92851
80938.27153
197458.3575
270620.3706
386625.1299
287230.3609
157733.39568
241645.512
302458.74996
279197.5295
176697.22399
159272.45965
158825.0224
125519.35116
82165.79568
233386.700894
123297.19663
54961.915
122903.683751
167087.0321
162615.2322
256722.5422
120948.78474
227950.6898
112423.1385
154440.29512
276450.1986
270781.5231
131837.25356
222284.3938
156885.9199
121200.178
184645.25874
240597.7013
327210.622
245367.0627
136595.30726
198366.22322
363734.2875
237626.2067
215925.310845
159415.06518
149503.79668
349600.1626
157596.8237
238067.930788
373584.2052
218868.6821
175528.7038
264758.15635
321049.5683
275201.6802
187729.6151
199922.1658
134498.6086
226149.758
250527.27566
318714.4081
43976.31318
160424.80694
263124.0323
157050.726
162718.0613
181714.8242
196006.986
108653.12238
222936.8939
314601.3765
132215.789
171826.52337
198755.7662
333649.4748
149719.6213
299746.559763
255092.26992
306521.4374
180592.1474
168916.80734
220301.8158
342823.3789
201940.0898
270942.5403
241929.0715
169736.081
407851.9667
342380.5564
261391.6348
267226.0284
142236.87306
131266.4244
210468.4929
189477.879
115762.4801
360911.2601
324709.63474
117112.58751
165709.0254
267553.602
158103.93888
234760.7247
256535.4664
191090.94556
264669.288
191789.77655
289380.2714
190220.052
108552.3571
180726.9276
248957.233
173079.195924
188942.823
216115.4232
174874.1648
160061.3254
142039.9937
339253.6111
295257.183015
353723.3135
168390.2553
300437.70739
369455.35656
268257.1336
232631.8114
163197.2382
205716.66302
187697.6956
178712.9639
170836.68121
181119.71014
127058.7454
224246.90595
91259.9495
157211.6061
214836.9247
280481.51757
222936.293189
178044.2045
202386.58781
229877.0679
165095.7932
352950.9312
199700.1584
304889.77294
193413.2262
242970.8426
116588.49786
266194.98206
229541.8956
131198.97956
249732.4121
161578.1126
190118.7391
177534.1767
218632.2903
450099.8106
422763.935027
181292.3588
174782.4362
173994.56268
197462.023463
244736.3633
206291.18646
158670.3653
104563.3009
186165.0786
117991.4884
461631.3661
289914.81467
181356.202
289420.8726
332392.5493
230864.105041
398643.0882
129871.96541
191140.2346
129044.021
126883.96848
162677.19508
153619.2255
233036.0388
225911.5735
235709.4378
107750.7318
219327.21138
121162.0979
68477.481
134821.7757
117907.66589
211589.6761
130539.87156
198221.84144
207592.70295
177208.0279
173810.6262
243326.6579
14179.08998
256901.1734
119305.4514
276427.35142
353815.9313
118332.2369
131462.9855
265625.4859
264563.9886
309098.2845
165137.4602
85608.87471
184109.1918
249721.29724
194199.6287
197051.8228
148384.1173
482275.82876
231924.3396
158276.36045
149119.3211
196890.5591
220985.7754
279766.268
128147.41395
164144.2613
153185.2744
117659.91524
148492.7345
137152.244866
114193.80708
221696.631
232940.9686
277126.1508
360132.5845
367701.2073
63729.2964
245912.3728
154358.242722
163081.2552
148921.5851
169143.30518
163575.3788
255456.3136
119617.1482
275160.45774
218330.2287
172057.5857
157132.8189
471218.7144
355342.0568
295890.0765
331430.97219
292071.4274
304093.68047
261107.5348
157658.6297
158803.1913
187797.9028
411349.5763
154953.2783
234144.0665
420988.2257
216159.1014
168979.6475
246939.3309
255976.0023
149749.6272
88934.7617
159757.2428
143312.9186
271595.14562
162960.3297
229017.1854
187551.51643
78241.20417
214998.538
189619.8321
276186.5298
307810.3494
318919.734
116245.2345
270238.281
190638.2998
194615.6599
257840.707
352810.861244
138783.841353
395521.0483
115787.3656
152422.6242
142651.389
158116.1924
157778.3971
231082.5742
148014.51881
150130.3493
140493.4704
194295.40841
186107.37483
257372.7262
158515.81793
145757.9441
245807.7319
259211.4413
419818.389
237634.6701
115462.50314
290544.266861
