2784716.6294
3165671.04376
2599043.0319
2690743.83392
2549223.02499
2355297.46925
3513689.70511
2289480.21242
2801479.19452
1983659.4753
1931117.44938
2250827.59249
2342966.99144
2792442.96221
2271748.60155
1768392.39317
3254998.03188
1984685.62753
2641421.89126
2632287.41308
2682896.60689
2462989.66465
3531466.34419
2858284.11403
2412897.9982
2959870.16955
2197028.78444
2497378.62303
2015661.73279
2974285.9684
2704591.42525
2968328.27324
2607412.41108
2402484.67931
2165121.13432
2441378.03704
2253055.75385
2225329.00443
2253822.84077
1869213.20302
2479375.47574
2000791.58844
2593334.16754
2714949.43837
1988137.96821
2913798.76523
1738504.31774
2302262.44923
2318929.96779
2159848.92311
2074869.73777
2423040.67197
2178351.82379
2518134.32867
2060184.42847
2610146.80951
2454841.69181
3148556.18179
2706765.88023
2878514.34229
3173771.37027
2501133.84806
2184180.25029
2308638.23212
2009198.71098
2195469.80739
3425386.18644
2478124.39812
2443406.60429
2773826.85948
3301108.40271
2264614.51579
2228355.4144
2763731.88137
2540378.65029
2629182.35303
1831798.57051
2038000.09398
3452896.83764
2836298.26502
2520843.50034
2615395.23084
3126408.28995
2599763.03322
2438106.10393
2368061.1665
2875521.96611
2034519.35544
1912922.52563
3003958.66457
3073680.7513
2580185.98845
2889854.06711
2921140.68765
2885890.82142
2585157.43868
2119260.31859
2048460.46896
2087603.69393
2012703.42687
2003143.38675
3153495.03719
2848768.43548
1965105.06864
2908124.88414
2325408.17014
2505763.10416
2885810.7996
2319710.29215
2906195.74174
1944198.32998
2138623.31562
1996432.24712
2208075.8253
2217137.86835
2288596.98452
3427267.04349
3259458.66648
3021737.09678
2114178.51578
2838647.95253
2863466.53123
2817196.67136
3040939.49845
3528390.66421
2753166.31663
2637572.86527
2624552.58521
2820280.81612
2723140.03045
2219891.45911
2178643.90087
2254393.39573
2329325.91881
3273882.75295
2346603.11237
2648104.19784
2572483.12649
2431036.89525
2543513.64778
2670241.11253
1937486.4561
2195023.53354
2351189.47673
1659228.3973
2418339.12066
2373855.21963
2167261.07404
2790462.59925
2038902.19663
1924805.19671
2730261.47055
2134210.98655
2269191.33004
2677392.99723
2222322.79206
2034815.26339
2405602.66067
2289906.13811
3240839.17926
2135163.0351
2430670.39297
2421279.0556
2489116.3797
2278170.51749
2294540.24106
1871063.52083
2023500.76414
2679997.44007
2445567.47012
2100756.13693
2133692.37683
2746358.4352
2065406.59578
2765957.9262
2499235.36152
2566052.66674
2962284.33148
2675947.8154
2848344.99447
2510462.69887
2415844.73104
2438301.4598
1784260.8816
2734557.36181
2207701.3551
2437455.02737
2160195.13031
2098239.7573
1891292.38931
2478253.63936
2392663.42358
2487112.17754
2761185.03889
2357952.50001
2825899.68306
2828191.1633
3318472.22682
4053993.60937
2643903.88556
1833481.45241
2172829.45499
2754773.15576
3324083.31605
2630392.31951
3058302.3029
2595005.20096
2666341.10866
2378701.74011
2356619.83624
2570536.21999
3059166.60314
2509553.77884
2756942.03666
2483174.31521
2401370.37681
2508023.57843
2655000.8581
3150314.69901
2718725.8336
1808214.92983
2467790.57122
2605899.14653
1875521.81486
2409087.96872
1569675.70726
1996336.79682
2882101.45301
2384388.92673
2210147.1382
3282592.52029
2315893.03193
2208127.94091
1576641.87721
3270091.59884
2794020.9966
2489481.33102
2336692.05212
2260955.25176
2619154.64582
2245064.9472
2706052.81032
2539041.57758
2189466.27442
2113920.96522
2390376.23627
2891959.63744
2689720.31918
2776254.73703
2749470.52262
2123496.18432
2703600.21325
2602347.27169
2119951.52986
2149810.81332
3299736.41088
2908366.72628
3377647.67379
2826007.87067
1960453.47544
2479994.61613
2602292.66511
1962154.80752
2029580.66554
3260794.61853
1949780.38956
2395190.05784
2134210.16931
2672606.59955
2055673.25066
2528340.43977
2832615.34487
2427932.58866
2532093.30907
2781158.25704
2921610.25081
2894364.9725
2600572.35228
2043326.76446
2197463.91265
2961874.12288
2586504.19648
2199006.13871
2094652.56214
2873377.85433
2002155.8734
2425931.34725
2720190.57821
2294384.29464
1963431.62324
2180015.60419
2337986.53385
2617679.68819
2529011.24399
2216409.38147
2011114.49754
2650581.93342
2018897.03989
2511163.9902
2213294.98859
2133212.10083
2462490.08537
2868445.4487
2042876.2525
2528345.99334
2287777.1578
2460101.15124
2887601.6391
1974718.04164
1949644.57182
2377417.16463
2711432.59076
2869051.99696
2727526.05281
2574370.99237
2216406.71408
2725071.4535
2029206.34136
2617207.30159
2641173.8616
2203653.14226
2959524.38022
1894059.37613
2851847.2447
2095151.28181
3036694.4379
2501691.20782
2220935.09329
2692760.27797
2328382.068
2226262.36615
3559504.72729
2073817.69497
2312592.25056
2289855.56626
2256145.6844
2351865.54382
2521870.39085
2550151.71135
2016627.6779
2748815.16365
3277960.013
2224003.92584
2145480.99413
2366122.32104
3300523.84062
2579984.97964
2216865.07171
2903875.88707
2016845.47188
2490837.03921
1733035.55023
2306110.62048
2325259.9054
2654202.21995
2281982.13971
3385853.59296
3109269.03085
2350790.32271
2120018.39117
2725077.24929
2383207.69512
2932245.1579
2501579.50953
3063615.5772
2581215.62932
2847029.29894
2923174.66338
2295521.20333
2096168.85027
2088263.58202
2616798.25068
2947099.56448
2272478.58342
2739630.58061
2584186.82604
3169588.47223
2961501.05312
2834876.07249
2482893.99213
2994638.79535
2995696.80468
2762582.13591
2326540.83915
2918152.71672
2593674.44912
2605519.26846
2481291.39871
2907511.40954
2785799.53679
2450241.46459
2301395.28068
2342712.67108
2954612.06637
2408022.85405
3176919.08476
2208305.87107
2790848.06248
2214609.73463
3228566.56289
2677482.01279
2523636.96265
2464417.85875
2882115.65201
2591081.79487
2895607.92751
2593662.62159
2823348.10987
2972566.18658
2040840.17704
2436633.25105
2882681.93595
2451822.29592
2524152.62076
2783282.0813
2723556.84825
2381469.78341
1894599.67393
2134560.43647
2465440.2861
2700192.84253
2399028.18252
2603802.41699
2386060.5592
3194487.93492
2578526.07712
2171001.37689
2295354.94965
2564570.45994
2912160.66029
3302937.3389
2943246.55534
2335225.53245
2801916.80552
2752941.33695
2471300.07777
2318569.39192
2394485.34688
3049191.26924
4101285.21943
3770814.25912
3167167.17333
2235093.39473
2942641.64837
2453085.6579
2007547.81896
3015433.7897
2144398.49677
3111909.43984
2370955.55189
2128011.31243
2496408.79135
2355472.60001
2883204.29013
2519257.11837
2510026.43916
3311474.01989
1695165.01
2586349.1805
2762135.55228
2999496.8225
3073359.39782
2081222.60005
2401046.88664
1937839.60354
2386608.36088
2195023.4656
2016113.59023
2404801.81235
3290837.8024
3118452.55066
2483823.55556
2762821.87662
2068731.47436
2419479.36689
2508140.0476
2140437.57972
2635121.74456
2457809.04028
2405096.99049
2788525.68256
3079953.27886
2195913.47573
1765374.41017
2823167.85362
2167961.05271
2140688.03227
2605276.86827
2065280.7439
3773596.30882
2591822.65821
2443985.41803
2278707.09318
2326282.42522
1973695.82367
2118929.02706
2766815.09085
2828219.28254
2478861.66986
2010044.70476
1961969.05222
2863979.61375
2607027.988
2417090.04312
2973596.69198
2498000.1784
2998481.45599
3092278.86713
2596859.27394
2804331.46511
2402262.08586
2546998.56563
1934170.68279
2466229.90171
1889902.01762
2589661.83672
2296506.1328
3121809.9886
1952982.16931
2817778.74014
2634743.60227
2854490.39722
3255112.75602
2392045.72525
2733839.95975
2526331.10594
2441645.76266
2724122.0698
2815256.75308
2947694.52498
1889378.13057
2500979.54182
2166997.70113
2372316.81667
2269519.26907
2269150.78192
3163416.40975
2164163.63169
2912970.36656
2601746.83898
2472918.20656
1857066.43791
2257313.47203
2977493.57835
2447140.91149
2023454.72092
2931980.12306
2492289.11586
2799794.10785
2965354.94621
2309928.96192
2588057.09641
2594439.06355
3170498.2558
2968950.31631
2041580.86754
2467100.20007
2345345.4423
2588648.2724
2634110.68311
3263376.83824
2660326.53573
2571742.55986
2348778.02157
2296556.15089
2094738.77954
2520762.20153
2278615.81151
2297870.53011
2453118.02546
2624699.05051
2658082.76611
2260578.08554
2501661.57672
3343078.1696
2037182.2287
2557891.15007
2888928.34499
2485818.55368
2900305.43089
2393070.4328
1617420.34966
2074798.41635
2977171.87326
2386994.01156
2266122.57958
2618078.30946
2379772.84595
3142016.37161
2600894.80479
2987548.97538
2021727.84334
2630585.83106
3261637.43362
2192461.05687
2236075.52598
2467209.5143
1946304.09882
2087146.38041
2193182.94394
2746843.65945
2163682.15841
2577926.86199
2769715.25352
1927658.65195
1825284.95334
3922731.31693
2277854.84146
2465536.53883
1697418.61077
2995849.44266
2598236.27694
2944926.58711
2729825.84046
2485530.22737
2119552.57119
2016537.45808
2367092.62663
2380457.49614
1953466.11527
2564751.28282
2653458.27369
2330090.22718
2472034.9404
2385745.13162
1994693.2814
2457218.44507
2667800.50737
2898156.7124
2227002.80028
2933711.22088
2402747.09693
2368756.63148
3546522.27583
2191178.6859
2301071.96732
2473890.97819
2965100.24878
2491580.22207
2069726.36215
