-175.837
-440.42
727.613
799.449
-352.353
-555.991
251.351
493.143
325.146
555.721
292.881
1658.74
961.383
329.39
558.891
2872.11
4056.54
2295.1
1376
2160.14
2150.23
4019.32
4528.01
4384.77
1752.84
560.599
-537.627
69.4635
-1094.67
-99.2191
424.492
-22.0392
511.747
139.027
883.589
443.672
-179.263
107.525
132.753
138.043
50.8947
426.483
-82.3046
-436.698
976.416
-52.5439
-129.945
1067.38
1189.19
750.573
1778.65
1022.67
802.626
-583.357
-31.3784
-317.989
706.451
889.632
1941.85
785.216
391.445
723.568
591.602
454.859
755.185
171.348
1109.35
478.059
846.35
783.986
-87.8533
-80.9685
-276.533
-254.888
299.915
175.466
1138.81
1769.81
1675.4
805.336
691.54
744.144
1143.19
506.067
1100.29
1093.71
878.052
977.608
679.418
1785.46
1265.47
516.1
26.8379
1571.34
917.237
178.248
611.136
1806.79
1341.17
647.613
1696.24
841.513
-42.8891
219.198
215.33
291.054
-98.89
1133.34
847.799
780.418
1514.61
-265.316
-585.586
95.7302
-196.839
849.693
548.892
246.082
-511.896
-331.177
585.402
1020.86
1205.29
492.454
667.506
36.5638
307.041
1162.65
546.549
505.48
795.653
978.415
2021.88
1621.52
2353.92
1417.23
1823.69
812.54
-351.524
-62.8439
517.835
349.489
316.667
-125.018
2162.47
2507.01
2368.56
1550.57
-935.459
652.462
443.434
326.301
1125.02
1149.76
890.656
344.971
962.218
471.249
2043.21
2391
2000.88
2318.29
3566.61
3114.52
739.848
1187.3
1925.29
1674.64
2444.22
2694.28
2199.47
2344.96
2068.86
1568.26
9.62819
12.8931
834.208
939.291
-380.723
-266.871
-587.441
37.6302
1088.04
1372.87
614.865
964.766
-381.579
125.095
239.275
139.818
236.405
136.276
458.231
-454.857
-414.301
-789.036
601.101
361.583
130.312
-419.044
76.1483
223.935
-721.996
307.282
-121.287
54.7257
163.092
209.962
1544.58
826.303
1195.46
858.88
1062.01
-204.301
309.737
-282.196
625.655
-88.0644
250.253
305.729
632.178
815.121
883.204
-311.485
141.818
256.706
-0.210943
280.411
120.192
1915.82
701.595
784.407
463.381
612.057
741.37
197.523
1103.26
642.628
1181.99
503.848
22.0359
-393.337
-77.257
1075.46
-51.621
-1363.98
-366.371
-947.55
-846.064
87.5436
128.72
200.932
1171.9
546.026
339.585
995.555
151.012
-18.0096
362.535
265.059
200.609
596.138
822.81
330.354
484.683
182.111
-660.858
-278.304
-207.547
212.206
-29.6427
-555.897
-458.555
-320.131
143.085
-99.0561
-110.111
795.496
-95.205
-185.785
-15.4761
228.652
-51.9612
42.5718
620.726
449.247
961.262
2305.64
1455.07
2340.47
2240
864.995
237.996
128.189
-40.8225
-181.69
-150.949
63.1509
601.941
1655.99
1686.17
1175.96
996.839
1179.83
-259.462
1571.52
1273.76
1797.96
2295.94
748.887
667.8
481.539
854.497
1275.59
1182.63
875.877
153.023
1540.26
1236.46
356.398
24.0486
300.207
347.785
508.593
346.106
381.751
247.846
223.936
624.181
2058.63
1602.55
1992.79
1087.61
2000.99
922.23
216.743
3.10174
-291.456
627.948
2203.24
1601.44
2593.06
1168.95
9.98136
180.832
628.399
-668.839
286.813
-290.54
-44.2537
292.804
258.226
930.391
387.943
-441.419
-624.586
-17.3527
-219.456
425.525
-111.889
479.462
956.259
1187.36
469.297
1256.58
1444.02
1694.94
2155.11
1623.49
332.808
486.353
456.373
413.706
1184.83
-197.862
-57.5918
-163.444
57.3279
-798.092
201.078
556.155
358.267
434.104
479.037
894.839
173.438
20.8456
326.754
657.787
376.368
1517.75
1849.25
566.822
270.323
-246.027
318.263
1216.68
279.045
-787.615
-56.7378
1022.24
1089.47
1031.33
592.707
474.276
-577.074
-711.672
105.161
753.673
9.60583
-170.312
738.217
1019.19
708.137
534.831
565.465
911.992
2597.2
1989.36
1996.92
2136.98
1516.26
651.283
339.877
1036.03
619.084
46.5304
664.057
-219.891
-812.145
-31.1646
255.041
-631.599
406.298
542.897
972.745
267.118
207.952
742.664
370.173
1260.24
2489.4
781.32
564.363
562.65
-327.277
-193.427
-154.098
837.944
1640.59
321.554
1512.42
1551.23
1312.98
894.563
893.919
944.012
1825.08
-192.357
-30.0646
837.446
-382.978
101.701
-102.724
504.301
568.003
499.431
637.137
457.704
453.726
78.1021
113.906
-271.413
-304.053
302.666
927.907
451.43
233.375
1144.69
1289.31
578.505
20.4055
580.69
-82.9383
-15.897
-116.885
-551.356
15.3549
-104.522
976.945
1257.46
1829.02
1953.6
1791.91
-636.586
109.594
-701.386
223.405
-167.943
-149.208
-158.456
-212.132
156.65
-512.691
-703.006
274.736
1128.58
709.844
-249.361
-886.621
-509.685
-396.628
-674.724
-542.147
-968.45
-1031.81
-419.893
40.5299
652.83
1133.83
964.643
493.163
946.266
-140.803
-514.696
-468.278
-513.797
-520.1
-537.714
823.081
151.632
455.31
133.554
131.759
1518.05
1134.24
894.015
723.663
-114.986
-4.42767
334.707
453.288
2729.19
2713.71
1442.33
1018.93
-401.729
73.805
314.319
-96.9508
-754.545
683.493
478.835
148.629
-193.781
303.951
938.595
1005.16
2447.43
1298.29
2861.47
1329.98
1471.78
1692.27
1351.49
-514.802
-488.84
-982.214
875.711
230.665
-436.059
271.689
111.518
1876.63
1950.34
1500.22
762.404
-75.4058
747.906
735.128
-264.373
144.887
-888.021
614.327
1481.49
1539.85
1354.32
315.047
288.038
-190.052
-1153.1
282.625
695.361
1968.77
764.013
1014.7
501.201
545.821
510.769
426.692
677.7
922.584
1699.82
791.25
632.171
-24.8128
-80.799
-499.366
171.887
278.678
-400.569
44.0087
231.023
659.796
1303.39
1257.51
943.48
307.96
-688.341
-477.588
-519.863
-229.819
-376.638
110.164
-822.289
79.7746
371.275
-27.8893
415.236
-472.414
143.336
937.477
905.911
1259.12
715.024
1534.22
1465.85
459.953
1206.91
941.695
3004.24
3112.86
1971.09
4107.24
2485.16
-24.9857
-517.7
-288.832
-247.596
-495.58
102.661
9.73447
-636.655
-592.206
493.603
288.769
120.126
478.692
1407.27
1803.41
1736.01
1451.23
1645.06
1128.17
1504.28
503.025
245.178
559.575
-231.403
204.562
-225.706
-1291.43
21.284
194.547
86.9731
-68.2004
-292.739
665.559
-109.477
182.281
-52.0519
531.411
-730.264
-447.9
1038.26
496.334
1077.85
-172.922
709.912
-129.361
110.211
58.2072
1544.49
1172.16
430.309
811.646
-88.3099
-429.225
-407.124
-1110.46
-715.111
-427.653
1145.37
645.735
1356.36
934.531
552.498
200.909
-284.237
-12.6947
611.697
1348.81
1019.53
2007.96
2426.79
2997.98
2390.35
1466.83
2372.63
1485.37
1095.47
123.319
-472.907
-259.707
-22.5627
270.225
-610.878
-384.763
-680.605
-596.948
671.412
1326.07
1375.22
639.741
406.368
252.948
364.379
447.233
265.736
458.155
-19.3257
220.482
950.562
-212.818
-211.632
241.139
658.227
2243.23
856.701
-374.314
-462.053
-258.635
422.048
152.107
-257.022
97.3054
187.216
706.019
267.102
287.492
310.561
1185.2
1404.72
904.492
116.876
1412.39
1547.77
462.461
739.364
1930.01
582.312
833.927
155.596
1215.38
1183.97
1474.13
1725
1496.24
1548.88
629.398
133.645
332.59
-93.655
306.877
419.919
1159.5
165.957
-339.279
-795.747
-422.285
38.5656
443.426
515.705
423.005
537.404
-500.673
-649.609
-692.606
-136.868
705.194
182.298
-121.224
446.017
464.908
-255.854
84.8847
201.926
86.5955
60.2913
115.214
33.4796
-322.148
-99.9032
-370.83
684.809
253.729
409.421
-122.446
164.611
1045.62
1354.86
3130.41
2261.06
2728.1
767.576
520.996
2084.86
222.757
-79.055
35.0414
733.716
626.44
1806.41
422.421
224.393
1003.52
1407.65
701.426
73.9568
-344.535
105.728
292.738
-539.211
-136.162
450.081
-149.776
207.184
-251.495
231.661
-0.313968
-457.662
-1406.89
-780.277
-237.496
429.417
30.3543
-1279.8
-136.968
-473.446
397.882
540.952
550.336
251.291
-58.4275
675.455
-61.8087
643.155
116.193
-392.987
13.7804
535.815
30.04
-615.405
183.334
602.541
-40.0566
316.82
405.759
495.341
366.162
334.821
573.241
342.673
-569.078
209.128
17.7302
534.211
5.79092
114.843
254.239
248.773
-19.9554
911.31
1414.65
1141.45
650.481
-363.639
237.892
328.185
-288.118
-832.191
231.323
616.306
-866.3
-504.025
92.4144
-241.77
21.6861
27.617
453.977
-461.988
295.156
119.703
-201.628
1113.76
147.39
-55.9416
-230.819
197.02
2078.49
1293.7
-103.255
-520.247
-414.112
834.943
34.7296
920.424
484.192
99.3195
-1.41811
642.426
515.071
92.1592
42.3089
-268.031
-173.606
-248.024
-262.813
297.417
-32.483
758.06
39.5633
161.641
925.896
741.512
403.579
-272.943
-700.242
-792.157
911.017
953.731
117.579
-790.844
-754.07
-1379.03
-1220.82
-1076.64
-404.147
319.214
779.713
227.582
81.2508
-393.108
365.839
474.305
-125.138
369.094
1093.98
1784.59
1905.83
574.014
-318.746
53.8865
-793.106
618.198
832.418
-156.171
110.32
766.473
215.387
583.079
1607.84
576.802
-237.957
1074.67
783.005
521.623
-143.23
977.669
-221.12
-128.405
18.7831
102.201
180.601
37.8002
1050.29
469.736
943.667
955.57
1325.07
1009.25
402.908
467.617
916.304
201.2
1547.33
357.962
2086.01
3620.92
2743
1490.74
1942.3
1981.97
2567.69
883.374
731.52
325.889
-55.0137
-55.844
-101.657
-92.8325
-429.24
1284.98
698.558
509.549
1235.55
432.736
992.669
-106.148
-293.357
-622.061
-142.448
239.668
-222.627
399.159
296.938
-82.2919
590.818
-1110.27
83.4345
-181.369
-300.645
-401.773
100.465
746.698
1083.28
1733.78
923.928
568.399
118.527
-18.9207
677.132
1048.25
551.726
154.365
707.898
-634.098
1010.42
871.283
546.867
926.024
710.234
-469.871
-147.511
144.132
117.825
256.943
-373.526
595.6
1050.4
585.555
900.035
-62.5792
1357.26
324.314
23.6241
-652.116
-115.913
1241.8
2624.39
1310.19
160.98
-487.608
-123.182
-364.671
648.11
193.473
-229.516
151.643
664.487
-152.442
20.4651
-482.81
-285.301
375.593
593.503
1586.29
878.485
1307.83
946.93
259.389
1154.22
734.85
314.853
-38.4972
-113.578
-592.129
-363.905
439.566
1001
57.4853
980.18
1195.2
-631.511
-164.783
239.402
833.877
106.644
728.433
-169.8
-356.345
287.396
-318.398
-388.341
538.47
255.638
-89.7171
152.613
618.287
-107.738
-1422.31
-245.713
-109.887
-6.21289
-515.768
53.4788
930.461
-566.541
376.41
1503.53
1102.89
-289.247
-699.725
-453.481
33.9596
-488.429
59.3824
1164.35
-219.768
889.793
638.606
1015.81
329.38
453.528
942.918
714.116
-72.7427
623.996
427.909
95.7176
-706.083
-510.134
1157.19
964.007
1321.6
1400.56
176.623
1643.51
314.507
-130.181
173.446
303.241
-113.382
-70.0891
303.38
739.636
454.075
5.61594
-123.088
553.189
1776.83
781.196
848.499
655.114
-41.4416
957.097
1509.68
1342.05
680.425
379.159
772.634
90.3645
1249.9
1014.08
1262.87
-136.461
-79.7427
-179.365
-766.572
-909.972
-575.369
-570.366
-313.37
259.585
1350.13
590.538
340.389
1.42301
666.08
540.225
379.552
724.205
-156.045
882.665
885.657
413.73
-23.4849
-685.595
-418.542
-777.914
1.60418
-282.414
-192.066
-1290.62
-579.837
-884.496
121.808
215.114
161.932
-158.186
42.4415
424.275
720.944
1615.98
3886.66
1970.25
944.693
254.909
1074.07
820.792
1571.17
1999.51
680.195
675.913
1464.64
428.421
560.116
497.965
316.133
71.6178
743.05
768.269
1639.33
1224.86
20.1105
876.827
743.449
266.993
444.672
316.732
925.264
316.618
840.546
203.317
-603.509
-145.685
-329.632
-590.109
-571.276
-255.517
672.909
-804.624
-201.946
15.8243
204.926
359.551
781.617
753.277
1177.29
853.454
1205.05
389.001
613.65
-61.8939
-146.91
-240.857
-382.948
1443.67
2452.31
1076.4
2706.89
2105.31
1468.74
2477.96
832.064
259.649
464.447
737.413
715.192
-92.2765
-286.179
256.733
699.999
514.855
503.184
-563.513
845.307
1390.93
673.815
978.748
-284.829
214.628
162.206
-262.961
-205.406
-155.783
-599.878
-312.032
221.137
377.384
1743.97
1189.56
1088.01
258.709
387.359
126.176
557.785
-459.195
296.471
523.878
1218.02
485.648
83.3231
-507.228
215.259
298.827
110.852
-1445.85
657.094
1242.57
-288.063
-363.415
21.8412
919.151
1152.52
540.216
-757.106
-125.658
-769.979
1762.8
1332.49
1392.8
907.818
175.608
433.518
587.899
1120.15
1646.83
2108.45
2544.46
1530.14
2241.8
3780.8
2733.19
2867.17
3249.53
1479.03
243.384
-141.964
478.604
1171.41
933.978
2648.44
2509.8
3285.01
2310.07
2670.4
318.938
-194.044
121.261
409.091
-573.309
237.694
146.15
301.557
1424.42
204.915
79.8267
935.827
1328.38
1273.41
1026.95
1003.05
464.324
1423.33
1979.91
361.181
517.764
307.384
732.964
2489.19
969.514
1237.02
1775.94
1252.39
2024.64
1131.32
556.822
27.3006
642.672
1469.52
584.254
1117.97
-151.509
351.798
964.537
602.462
-198.086
253.007
407.772
-494.154
101.875
-370.187
523.602
1296.5
1876.32
584.038
-157.814
42.7552
586.064
1403.75
872.102
2228.93
2116.67
1487.68
1093.69
1830.55
2652.9
2049.31
1482.38
1427.69
-511.404
476.576
561.242
78.0833
-153.91
303.9
-206.144
-349.281
83.9229
735.576
187.112
20.5576
795.029
1984.28
676.617
966.626
410.83
545.088
-35.9325
211.246
676.842
814.555
-884.622
-28.3003
334.117
593.072
130.868
-156.967
94.5177
-52.7261
-132.46
-690.852
-1087.45
694.963
-85.4832
-315.492
353.659
-211.105
455.825
420.712
401.141
641.858
967.313
650.174
1315.79
763.179
235.145
-22.3946
-398.889
-729.05
132.088
-289.72
368.204
1303.11
1884.88
142.288
-311.915
-272.287
215.414
333.413
93.979
299.409
-122.181
210.979
670.276
1078.27
784.955
797.583
429.281
393.94
1004.13
317.374
719.749
1043.51
531.269
369.293
-233.312
-55.09
1372.44
531.949
1596.78
656.004
264.038
59.4265
518.429
764.947
667.382
1066.05
359.384
694.12
872.736
1391.41
483.32
-586.908
-684.172
-494.226
-178.769
320.778
502.579
-295.816
-25.0876
205.304
1133.29
387.675
-201.924
2.90625
431.889
71.5106
972.602
383.527
-198.752
-877.635
-185.33
212.904
391.662
-498.917
579.162
-867.561
339.764
114.723
207.44
-381.413
196.249
-429.201
809.009
1033.47
60.4054
-878.342
-549.454
-810.154
63.7765
581.596
147.435
-97.3192
132.985
613.11
-118.088
485.39
-156.67
78.8227
-47.82
417.387
-158.762
788.775
-400.541
420.824
-186.238
-655.394
-1493.78
-272.386
-653.911
524.011
1456.49
717.428
806.592
313.492
1422.02
-173.376
215.009
959.961
1227.87
780.494
780.531
45.1971
599.523
1078.47
1034.33
269.423
-499.45
36.908
648.119
306.862
274.572
1509.08
1124.95
15.7588
513.293
-239.166
338.321
287.028
1073.79
392.559
1272.24
1147.48
1019.57
1543.48
1136.92
521.507
-39.3657
424.223
-625.042
208.778
271.947
586.158
713.001
480.323
1054.21
904.734
584.536
93.7943
-344.947
16.5997
693.002
115.945
36.9087
448.972
-331.747
-300.767
-615.866
7.18594
364.3
42.0288
-630.803
1025.18
1832.33
515.586
734.605
1423.12
1758.43
827.06
1300.45
1905.95
1974.3
2918.67
4530.53
2290.4
1396.98
-45.9335
351.944
418.255
853.109
-76.9139
973.932
581.684
157.778
165.846
-444.612
13.1543
387.134
690.117
580.041
1273.38
140.52
783.839
1674.11
1446.05
1331.91
1711.04
1427.63
968.898
825.376
179.446
652.912
651.232
243.172
601.758
703.011
998.058
1437.28
576.823
246.505
931.369
2764.21
1723.45
1730.53
1222.56
907.616
268.624
957.099
1555.63
748.141
-297.159
573.842
440.368
1012.67
-704.246
-908.978
-367.944
91.3056
-574.066
73.0127
497.45
-547.805
724.899
66.6191
900.078
1254.23
808.708
844.092
1281.27
914.607
1534.66
2257.72
675.803
380.498
1228.25
333.983
204.769
-483.227
-373.567
4.96281
-217.147
-323.791
-268.921
-571.468
-732.309
1102.84
1047.36
188.304
424.666
447.702
647.793
573.658
541.594
1295.76
1167.44
1016.31
1604.55
1460.34
1226.14
1207.44
462.891
2018.72
1149.58
567.201
216.397
1268.35
1574.58
1744.86
1385.51
660.228
497.474
414.623
612.514
-307.549
28.4791
636.378
646.986
112.643
474.112
104.398
-21.8452
130.811
417.38
96.3689
97.7079
626.504
-47.496
153.511
852.586
1033.64
601.99
483.038
-120.516
-530.234
33.1278
866.872
707.785
870.555
1540.86
1121.18
136.233
633.865
592.435
1114.07
2645.2
2206.85
2357.94
1989.33
2280.3
1490.1
1044.82
-1155.54
-167.653
593.873
768.444
772.019
947.261
1233.19
1694.59
1267.47
2056.25
2700.72
2259.39
2593.35
1701.86
682.193
1131.15
250.789
1357.87
902.885
-293.958
114.863
745.524
434.535
1187.66
-382.007
-381.449
1216.69
1492.44
1109.41
1520.95
516.305
-327.784
-426.918
199.998
132.638
-501.806
-604.34
-127.666
-417.101
58.2798
327.538
604.901
444.391
378.381
666.079
890.379
497.987
334.628
95.6155
1228.72
1110.56
-214.245
-138.929
-323.159
238.171
2235.77
1368.49
340.975
452.715
22.9972
279.626
-81.7127
-742.217
-330.468
595.735
287.746
250.416
1032.12
1236.83
1448.33
1124.15
549.835
1143.06
542.774
692.861
976.72
851.171
409.292
-397.701
-296.499
328.655
179.507
288.738
-192.038
12.2634
697.939
1107.85
848.28
576.441
210.282
-502.228
274.551
-56.1461
24.3714
-330.221
-457.711
219.592
225.966
955.237
-152.035
2007.86
852.62
511.697
90.1528
156.044
-86.3644
-276.723
216.324
-297.813
417.736
458.147
-634.261
25.3937
311.836
-47.8772
-220.906
1419.08
573.517
87.1442
76.2935
896.258
2488.46
1864.65
1405.11
1150.27
-374.05
626.626
521.937
1203.2
-122.507
-365.953
-128.732
223.838
-35.0134
-589.111
-514.031
136.59
-380.871
-161.9
197.879
347.311
-229.628
-472.345
345.674
113.413
137.96
-733.687
-196.798
33.0385
618.139
194.605
145.495
38.8287
19.5971
-47.4528
384.057
182.009
543.897
860.092
726.21
327.973
92.7899
-412.489
417.976
2469.45
1000.82
1033.07
888.702
528.357
-72.881
-654.028
557.982
-175.261
-628.75
-414.381
1172.89
89.7602
92.0891
-157.464
948.553
109.004
-156.572
128.751
-148.175
284.149
1101.84
1085.39
398.139
-39.8602
-381.405
357.876
316.33
191.182
84.3075
57.698
1045.12
525.692
-104.985
217.268
1137.33
771.946
427.152
1381.82
1212.4
1285.03
1605.42
966.478
1244.03
1172.72
375.124
128.923
140.569
274.791
349.457
1020.51
1048.28
1850.59
1127.88
926.969
1799.46
2549.23
2963.22
2773.32
1923.03
2495.63
1950.74
710.792
-390.234
-418.709
114.821
893.129
1464.42
1543.56
1808.23
2702.97
1468.76
1693.1
1030.5
1178.43
2833.74
3171.3
3347.44
2859.89
1953.05
1754.91
1239.71
426.216
-246.614
24.0371
-315.79
43.6155
-91.2901
308.972
-78.3269
269.133
0.644648
312.187
334.941
735.928
519.22
468.225
135.696
-48.3966
65.4837
980.847
373.102
493.959
970.307
2248.02
996.406
1274.91
1622.17
1515.61
674.633
-289.275
437.607
2970.6
2738.64
1688.77
970.033
1022.38
1230.21
577.238
735.416
-518.334
438.994
28.2401
312.654
-157.138
-47.932
98.1443
-186.823
-487.406
-312.766
223.936
461.388
209.126
259.123
487.063
3177.66
3492.05
900.493
311.907
2309.72
1443.88
876.766
68.3081
-158.126
990.056
27.1504
488.316
1806.48
703.294
1198.56
99.0385
422.043
567.874
2020.02
2511.43
3032.4
2347.21
309.832
-57.4377
972.799
2437.12
3554.08
458.824
1037.51
430.973
1149.3
1021.04
962.167
-101.836
-727.871
-252.421
26.7653
76.3565
865.955
141.901
722.726
672.12
585.088
494.956
500.999
774.676
1269.21
2028.4
1507.88
612.627
2148.55
2126.07
929.372
742.485
84.4659
653.338
-67.2648
481.158
1013.12
338.264
1099.53
278.588
429.907
396.49
1044.66
1006.89
-235.797
221.533
-150.751
-909.378
-877.884
75.5161
-596.144
204.447
950.491
769.656
546.781
1187.25
657.475
301.884
448.63
234.101
269.296
-114.595
-1055.79
-582.743
-100.071
-311.714
-477.644
-467.058
377.288
327.022
-4.21488
-120.22
-401.812
506.047
448.641
239.861
294.697
197.638
325.919
138.6
101.402
-110.743
317.218
-861.225
100.07
-383.455
1041
-241.44
-1831.06
-358.904
245.507
-56.4614
578.672
-637.292
715.899
795.997
655.337
331.255
718.229
383.427
1281.93
287.749
342.828
-120.604
287.02
1087.72
21.5981
184.476
196.475
287.265
-258.853
347.373
58.5121
127.892
-408.979
-79.172
348.724
395.4
-77.246
125.31
1029.11
1842.1
1244.68
344.3
-383.986
-715.527
-460.333
1656.68
1698.75
354.316
1051.6
685.8
-7.86675
-113.637
108.008
-232.087
-179.107
-550.754
801.056
231.31
-91.8687
-0.0067123
119.697
-469.305
-57.8542
-62.8204
-7.11531
-55.9506
700.758
771.45
1050.4
1172.55
937.664
116.804
-119.962
-835.83
-294.676
-622.439
63.3542
703.094
825.766
322.068
1754.89
-261.057
390.184
-197.476
516.289
496.177
558.903
716.202
-336.105
1031.92
621.041
1015.51
260.78
481.744
1074.83
-399.399
690.825
850.052
2716.56
2184.97
569.611
1628.03
1915.9
1767.35
541.031
-505.98
-351.156
-315.163
-600.469
-544.512
-90.1753
-81.511
101.529
1133.3
160.112
70.0198
676.141
122.926
661.435
923.767
-14.8487
258.872
469.125
433.367
-118.09
825.955
136.933
-696.216
-254.398
-255.242
673.895
-56.3923
546.208
717.436
1616.65
2747.75
1657.12
-93.6691
844.8
605.157
576.118
246.076
203.016
340.52
800.435
782.857
1168.73
1088.01
941.115
673.408
1295.98
432.538
620.496
1522.36
1021.56
536.068
1106.4
633.779
509.614
-1000.64
445.955
177.896
537.805
287.516
-154.831
112.047
304.381
1458.05
991.03
693.759
12.4949
-22.0842
-128.575
298.374
286.822
-67.0606
-18.3682
377.989
-313.493
-374.626
211.201
823.871
1086.65
-244.069
-152.702
-76.518
274.235
48.4302
948.452
137.727
75.9405
199.882
783.739
147.157
359.393
146.247
316.771
720.019
2009.82
1237.65
1033.5
747.385
1384.03
1369.26
1949.71
1002.13
1939.28
1674.91
1442.16
1141.13
955.12
743.103
1504.17
1180.16
346.996
89.8877
15.7586
919.038
646.273
657.901
703.266
3006.85
-37.6877
986.348
1122.12
513.925
392.807
588.081
107.574
130.785
206.526
210.202
-461.402
-529.284
691.355
796.583
1128.56
1027.14
-129.768
77.3622
590.685
1263.77
829.054
649.093
541.115
253.957
300.388
777.664
522.079
-320.699
89.84
44.083
1285.39
761.528
1086.09
2497.44
3394.1
2497.52
1976.99
1087.57
87.4081
137.336
-181.629
-128.013
718.857
1101.03
982.357
1600.85
2728.15
878.593
143.419
1388.63
2951.22
3119.9
2567.35
1350.36
838.385
1597.82
667.698
-617.393
-625.073
-904.26
-1173.42
-180.951
224.097
293.117
-174.804
676.48
1966.46
722.435
1976.43
-130.805
137.95
-247.626
161.893
429.235
333.438
1045.2
1854.51
572.616
884.44
-4.03817
988.909
667.735
43.25
322.187
810.919
1377.63
1731.83
1434.34
303.209
1362.52
1128.9
-501.646
-289.685
-37.881
46.8738
761.132
352.326
134.257
289.965
-259.357
869.892
-30.8293
-294.283
-469.258
-415.067
-87.2727
-245.849
-1032.58
-200.388
-261.589
-433.876
-568.058
-89.5257
1109.54
24.8489
-242.884
-190.683
508.555
436.034
658.03
1388.57
390.759
339.678
992.102
1298.91
1067.61
1512.6
2.6787
43.9587
-413.504
80.0995
141.182
834.202
167.352
1579.06
3262.29
3287.63
2420.42
1901.91
1108.41
1254.03
2079.38
1241.45
1345.28
1974.27
2289.09
1454.81
268.938
372.158
880.976
1146.83
832.251
519.467
1040.13
485.6
1286.02
1869.49
2551.56
1569.38
81.7859
784.961
628.732
785.114
1692.58
669.534
856.119
498.778
-309.74
114.068
-69.6624
347.337
333.205
-99.8188
539.6
33.2399
58.3316
-264.032
657.612
-310.616
-485.973
473.777
95.7563
366.1
-102.241
52.9455
-535.175
343.857
346.271
1156.15
1649.8
1107.48
1680.59
1207.62
23.5068
1566.36
286.89
-103.974
-118.174
783.111
1239.37
691.577
133.743
150.851
559.237
1416.11
723.676
508.263
-516.711
1585.73
-311.073
14.214
852.551
546.224
920.261
149.979
836.033
425.966
64.3487
-48.7285
-51.4691
439.971
770.455
1340.31
772.514
669.124
-297.266
161.763
44.5478
-1005.28
-1010.95
-329.489
-246.413
-628.486
-105.52
-341.13
-37.5249
465.639
422.949
728.13
1908.33
1533.41
950.812
41.3599
520.558
1133.81
2091.97
1300.88
1552.73
1483.28
560.092
-774.388
-534.268
-348.613
-82.2082
-26.3079
75.9485
307.067
2368.89
1177.76
152.98
-197.611
-327.271
-646.105
-748.291
-458.973
-968.154
-1151.7
-808.379
-803.891
-256.398
-713.094
-168.438
524.637
129.463
1274.28
597.238
-4.71895
-628.194
-98.082
-373.343
-787.618
-876.235
259.309
178.648
697.011
391.103
-75.149
579.259
1270.79
280.645
397.118
1096.09
716.551
595.822
1280.89
-611.059
73.1922
-527.764
-1533.52
-846.888
727.214
-35.715
271.197
-276.195
-475.048
-384.627
-161.255
677.696
994.194
1525.96
2543.29
2410.21
859.688
236.387
319.544
566.672
4.89415
-406.492
-198.583
-127.899
135.047
860.935
395.384
116.504
1152.35
1753.43
441.07
-233.56
-100.393
647.549
460.828
251.921
-450.849
212.798
-418.685
-563.849
-990.999
904.439
712.863
860.669
76.0924
1132.09
406.816
148.545
215.404
-314.841
496.853
957.063
-28.1864
371.73
436.989
540.673
44.5294
573.493
551.646
1209.91
649.276
-473.828
161.186
447.728
872.279
355.653
732.488
38.2381
400.258
827.615
1247.4
1651.03
413.483
-513.964
202.605
638.753
5.1773
465.242
329.983
523.084
620.527
1246.82
-76.5263
486.279
753.05
757.771
173.85
-316.842
225.248
1250.46
-1314.34
-343.368
-300.606
-50.8619
-49.2281
274.533
104.758
-373.899
-23.7116
428.51
-574.17
-825.547
938.853
20.1664
379.767
1243.56
-24.9124
237.556
1613.21
2410.55
1612.54
1352.79
2130.28
2111.55
431.866
786.15
-160.077
-310.724
106.23
327.548
1242.08
278.879
-231.839
1101.04
364.518
1424.16
1080.01
34.6076
399.872
-234.126
283.242
1147.39
1589.61
1122.92
442.364
776.645
-133.461
-215.408
-1761.93
-595.359
-30.6088
225.405
235.172
-657.34
176.192
-156.518
-71.1595
-223.744
-525.287
-201.202
-441.977
-78.4102
306.411
908.644
894.085
-284.368
515.993
1128.38
353.335
-29.2779
722.084
224.664
220.661
-358.747
809.608
1131.53
-382.001
933.098
2248.78
1139.21
908.394
909.703
332.851
602.302
627.677
-408.96
365.443
-221.612
80.5909
462.095
-416.425
33.2558
105.239
1874.56
1348.26
1474.75
1165.98
1686.12
268.072
603.095
871.11
787.435
211.146
746.401
684.422
654.315
138.178
-43.3749
526.07
1199.98
-23.1761
356.036
1071.59
919.332
1781.25
1863.05
1578.95
883.852
1382.45
1675.16
537.215
-82.398
488.409
1691.83
1390.37
673.804
8.90909
435.145
602.549
940.637
-737.901
56.7374
659.987
1396.04
1542.55
141.207
1506.86
1315.75
27.9402
246.632
849.574
-67.2195
439.383
-6.38062
-736.895
-547.725
285.18
-425.376
481.723
941.823
561.751
31.7112
-1274.33
212.839
98.3272
446.666
441.073
530.935
1079.82
1128.82
1365.45
1316.97
492.788
447.04
-405.335
463.66
-418.807
324.133
29.3339
-25.4642
1209.38
89.7327
194.598
383.729
-677.473
-323.26
646.687
567.096
287.842
1464.09
931.899
784.307
625.883
-108.249
321.13
-148.019
-38.9731
96.5558
13.2276
515.322
267.041
-146.91
352.224
230.84
-347.294
-422.43
79.359
409.59
-344.108
-901.784
-379.774
150.865
458.32
1071.08
1569.82
1250.36
80.0687
-56.4128
191.83
682.936
982.468
185.437
1070.31
735.218
-328.049
398.778
-122.518
-41.1633
-364.766
505.64
-60.2357
312.796
-51.9864
-450.101
69.948
45.0194
568.817
680.443
494.907
1368.4
1369.53
208.299
1691.58
372.303
1068.73
1007.95
1853.99
902.947
1194.97
805.681
1015.25
1119.35
911.532
-243.356
588.008
215.357
-664.809
270.451
533.779
95.8618
486.934
776.021
363.981
1157.37
1765.21
367.469
403.981
-433.996
-391.361
402.774
503.626
184.283
768.526
479.159
197.048
1184.24
802.156
-297.492
936.251
855.623
1238.17
-196.161
-399.116
-270.55
10.9719
-99.9364
40.3438
673.924
1488.98
991.832
-56.0645
510.973
616.029
-107.184
-289.197
275.729
-256.452
470.569
-359.069
544.293
269.143
450.561
69.0371
-477.054
224.312
-836.1
-636.42
-559.107
-812.039
-48.3634
673.545
-965.656
-109.973
1198.72
1021.39
618.075
544.01
801.593
1736.06
1436.09
1512.49
1532.75
1305.08
165.813
281.546
1251.5
1436.73
1576.42
2077.69
2647.21
1080.03
859.464
47.4333
324.627
316.659
-26.7714
430.377
705.959
791.746
603.117
559.351
847.843
536.869
129.056
467.266
860.924
1894.79
426.402
28.7357
99.1751
1015.05
1961.76
2225.93
3425.66
2297.75
966.749
1304.37
812.193
153.207
76.9681
597.194
1147.54
556.82
252.06
1671.49
306.802
380.506
454.843
-406.17
-814.557
-676.854
289.682
534.532
433.704
544.938
1065.98
949.15
1710.95
660.373
1067.05
1788.05
596.866
420.241
775.441
869.123
359.174
1247.09
1380.38
414.538
565.859
329.71
-118.863
416.358
-552.953
83.2774
305.691
279.675
894.285
189.135
839.694
-419.957
-72.8847
-567.929
1137.88
1344.38
1152.89
1305.77
683.482
4.31278
177.161
547.151
1172.25
745.884
-70.8061
141.114
752.54
481.661
87.4104
302.995
279.757
240.628
489.028
707.13
187.717
-126.336
-764.109
1104.99
499.426
1151.38
1500.18
1793.56
1814.26
3190.25
2037.58
839.744
1117.28
1996.06
1316.37
712.761
-88.1238
-124.662
-55.405
-942.621
-251.238
-389.969
1139.52
1384.5
1678.39
1947.24
1871.5
1708.93
905.078
1011.43
683.428
370.592
784.814
687.379
-111.125
196.911
-433.654
901.409
223.288
350.582
-270.469
109.409
202.419
181.767
353.955
1644.34
773.42
1004.82
1028.94
1273.42
234.339
942.964
956.386
147.976
108.242
1479.99
590.37
882.69
575.645
-247.847
457.476
179.739
286.553
-355.68
-915.638
-587.65
-300.919
631.592
1059.77
2206.23
337.271
742.295
473.81
125.122
428.382
306.306
-374.792
-847.054
-470.921
227.676
-338.187
-65.9975
604.615
295.949
182.651
-430.055
136.507
-386.723
-548.964
265.061
207.496
-575.578
-129.473
895.547
425.513
484.338
343.428
353.277
312.025
-46.493
163.181
302.676
173.455
432.665
773.7
-190.747
198.341
-190.841
86.7616
652.694
84.4832
-282.055
20.1502
1196.96
1205.39
-391.697
-32.7663
23.608
1467.94
857.971
319.484
895.926
224.812
1116.51
1531.78
1503.91
1406.09
1872.17
887.084
306.987
1570.44
1016.37
744.022
-335.743
-21.8573
-1.33008
825.768
1669.76
953.837
34.0171
737.238
48.1808
-160.25
42.8744
1556.88
-83.3643
-601.453
553.887
248.452
325.192
146.209
513.049
505.96
539.198
-585.802
-543.854
-31.5067
-845.189
140.769
1766.77
1672.09
1978.4
1850.71
1417.1
1387.45
1476.87
1671.75
1350.1
250.654
372.462
-895.745
1110.6
-215.421
-327.249
-550.599
-46.8119
196.629
-56.1815
435.613
1121.12
1448.75
1090.09
862.553
156.116
-21.1962
-104.805
200.208
-70.27
-209.319
1266.74
-259.866
1002.18
602.796
481.448
1235.37
290.49
392.789
804.091
24.6242
-276.5
-148.119
-187.131
-195.725
453.439
12.6571
1334
1084.8
830.815
925.096
617.601
-273.344
281.272
1491.08
1793.89
1272.88
1699.9
885.279
1070.53
567.8
1211.44
1848.18
1126.05
723.835
119.165
510.002
492.241
601.991
420.783
-159.595
59.4004
-237.852
35.1717
95.9477
-396.053
165.524
374.43
560.637
1621.11
-567.486
869.794
101.847
416.344
-142.439
944.961
683.762
-495.969
-112.602
1407.18
-57.7809
-27.5693
-612.549
-670.207
313.86
1893.52
1511.72
999.086
459.403
916.583
45.6978
192.159
1356.49
754.101
758.416
915.48
1003.06
818.352
250.868
709.042
698.14
-375.683
365.552
-51.965
538.302
1170.22
1240.02
702.902
-77.6487
-355.6
-294.278
399.734
490.22
1506.39
690.647
754.828
732.61
950.344
-239.449
-765.096
333.322
430.988
8.59655
982.733
-194.754
295.324
-267.015
-348.929
-105.025
-22.3593
-182.739
663.868
294.654
191.292
734.1
-750.314
261.302
146.752
-190.328
12.7934
-7.65943
-82.7364
1494.94
1559.32
1444.42
-193.96
892.666
604.856
1226.57
1664.46
1827.78
1257.72
137.541
38.1833
196.593
847.213
-334.544
-305.464
586.198
673.415
-354.624
-95.3604
-489.242
-127.42
543.557
1005.71
324.265
1032
-160.004
-211.228
802.699
1128.7
-585.423
-395.682
11.5198
111.708
-370.346
-208.688
381.483
214.639
-384.655
-219.32
376.04
601.474
694.08
198.727
604.44
132.342
5.08326
806.84
732.243
1280.32
1411.09
1601.51
470.897
-549.709
-769.749
-195.694
161.207
-390.612
-534.015
288.834
600.912
749.221
772.472
549.466
-478.787
353.161
1337.97
100.485
238.842
644.077
886.21
1680.94
1728.76
2574.38
3592.97
2398.23
2354.83
1286.83
152.983
65.0708
573.24
233.82
957.192
744.236
1430.96
581.436
975.05
563.075
1000.41
1145.27
2301.7
244.304
327.084
940.761
967.362
732.622
531.277
1158.61
669.8
186.459
-230.918
584.388
395.68
2050.62
1566.7
2028.39
2596.82
2817.95
2495.17
593.61
392.74
1070.62
1296.65
134.423
13.7541
-467.716
123.7
35.7051
-83.6
834.656
-66.1258
14.0497
511.235
-137.679
-191.104
37.2453
830.526
1753.84
1255.96
1374
2948.28
4734.23
2901.2
1612.87
572.562
686.787
347.732
9.53138
-20.4095
-319.23
-604.826
239.315
806.307
1008.66
838.782
1141.17
1652.45
720.394
996.834
298.738
188.006
213.795
692.166
1020.22
702.358
558.626
-201.926
1378.14
1705.89
2557.65
811.839
1390.58
1314.21
1606.22
544.281
1067
2238.16
2907.13
1465.25
1811.36
1821.07
1194.73
1254.54
1217.68
1123.82
1225.69
-81.9238
3098.63
2847.36
1365.54
997.3
-29.2188
-152.899
-458.077
-434.39
1283.67
1898.85
3004.35
244.578
1427.02
761.097
1985.62
1416.31
1527.42
1529.82
1116.36
1262.98
1275.46
285.552
-318.713
-615.777
-275.019
1248.54
2264.05
994.605
309.841
1356.02
1365.02
449.487
1436.34
32.1471
-343.961
891.127
87.2746
1231.76
1673.13
733.343
292.336
345.334
20.5439
-1080.58
-144.8
623.184
280.709
597.418
663.197
1074.6
597.005
1202.15
581.674
444.205
679.001
170.753
888.544
859.838
1582.16
1806.33
3024.06
1091.36
1865.47
459.869
-136.814
755.152
1308.74
632.074
165.228
92.7881
122.888
499.964
15.1772
53.839
165.455
313.498
1440.15
1605.5
1560.81
1239.65
1537.11
1468.97
1597.98
2008.8
2051.28
368.02
258.84
469.412
266.644
601.915
795.367
1162.75
354.576
511.613
-177.154
-224.24
502.852
1254.78
323.53
867.631
274.237
-36.6466
-681.74
-170.063
1458.38
130.05
941.601
175.786
1179.05
207.539
193.694
-417.554
703.059
805.215
945.068
-79.6278
-334.861
637.228
-109.95
-1017.46
327.35
-228.289
-353.441
-6.15354
-589.627
352.583
-351.034
62.891
-477.183
-321.689
-219.732
530.176
-515.349
-424.776
53.1236
640.622
117.353
-67.2391
6.04487
17.7415
-41.9922
-111.864
-481.724
-159.903
67.4824
484.266
163.326
240.806
-430.683
261.05
142.785
721.979
-11.2243
-91.3456
-131.756
403.705
41.3541
698.723
882.452
566.212
505.763
-580.641
675.168
619.104
976.31
573.741
993.758
1219.72
1015.28
1831.19
1984.06
1055.11
708.833
1365.45
736.697
950.193
245.543
-149.876
1534.77
176.179
101.52
198.903
788.579
-816.233
193.329
-30.9884
801.97
890.977
2242.16
1068.53
494.691
983.217
941.393
619.067
75.6689
196.081
249.092
708.494
-193.854
-643.434
-156.342
-305.274
159.486
-247.484
42.8806
343.632
-450.575
414.867
1024.89
382.4
44.5989
38.3486
44.216
180.773
565.272
799.899
877.765
-27.854
464.659
572.626
131.377
902.533
1320.3
1920.09
1198.71
374.46
-598.31
416.025
473.066
1353.8
1286.19
1548.18
937.936
1030.5
681.254
859.17
-113.193
-275.845
498.122
496.37
844.212
266.781
1065.77
784.116
1305.07
1881.09
1399.48
112.11
-301.095
646.119
535.672
1023.42
1185.62
2080.5
1754.54
1506.11
673.816
851.093
1304.46
1131.25
1442.39
1118.39
576.162
425.066
765.397
95.6015
286.817
-480.613
-344.3
-620.005
290.89
644.677
403.205
20.1294
-94.3103
682.752
977.065
2413.46
2309.82
1785.66
623.024
643.809
-835.319
-439.19
621.147
-565.686
365.94
385.327
26.661
208.01
558.763
820.808
634.724
572.311
332.853
-210.803
-834.636
-348.968
-444.421
-365.84
-677.91
851.686
342.363
327.936
316.481
237.797
393.412
687.831
206.086
-213.021
82.5999
752.841
671.167
708.874
2368.85
1905.01
793.105
503.538
1365.29
1798.76
1936.67
2658.2
1358.29
162.79
-224.163
293.971
594.517
1299.79
1300.85
350.641
552.449
390.59
368.782
472.737
663.64
125.43
286.065
-279.072
-437.059
-354.642
662.006
1192.48
967.245
1157.84
7.91091
162.23
11.7634
-442.979
532.405
1175.61
362.738
-29.036
-164.719
-81.4722
-200.74
661.782
301.576
132.394
-181.578
-41.0551
-1016.27
-255.744
63.7576
-630.09
357.027
245.242
425.239
212.835
-307.188
948.268
772.27
1513.52
1609.59
1056.37
1887.37
854.756
4019.31
1806.86
2773.61
1476.21
1047.05
1081.19
1620.74
1393.62
1171.85
2291.03
1436.01
-94.946
840.741
1942.4
347.229
603.365
-60.29
237.416
-585.844
-575.228
-415.82
326.373
356.839
798.634
446.023
701.514
596.473
-504.291
70.8693
322.715
912.68
-175.171
-1036.4
-542.678
-950.677
-101.336
-552.618
1227.3
575.732
908.065
441.946
943.086
1044.29
316.364
-803.479
-790.039
-104.818
335.685
103.446
-574.565
-458.359
99.0367
87.3366
-309.698
-136.358
-261.643
-326.538
1437.99
1307.17
403.235
399.55
-510.86
141.767
665.489
168.691
-120.266
278.416
495.698
592.819
354.792
247.923
310.547
-227.134
-684.352
-466.976
124.859
-493.537
-327.557
-358.877
-369.853
1042.32
973.442
193.943
80.2725
-187.157
-117.391
1113.41
152.701
-79.6651
849.152
1003.51
622.308
1441.26
360.937
195.119
575.422
405.349
764.731
-189.513
-119.248
454.379
428.218
-180.228
-169.475
-198.267
770.841
391.962
-242.413
722.19
45.1016
281.801
-392.343
229.801
-324.644
-160.871
315.296
1423.53
1986.82
599.113
581.126
977.909
1682.06
2346.99
1258.68
463.595
114.196
228.755
745.827
657.15
1200.87
1660.72
1099.82
379.028
468.365
1393.52
972.894
163.931
-384.31
-277.905
142.094
438.994
1198.61
954.723
1586.77
747.746
1119.65
590.503
-133.141
-454.528
335.112
1330.33
2103.41
1656.94
248.94
999.958
162.23
695.439
750.614
-85.2436
821.456
21.1074
635.144
917.893
1269.61
2403.09
767.949
716.389
91.7895
897.633
631.267
-368.056
-97.6751
-573.177
15.3749
638.667
139.967
-5.96025
-330.519
-462.709
-471.603
116.717
19.8461
734.22
-76.0398
445.871
200.379
108.608
340.207
799.785
864.904
705.798
-1121.18
-799.662
-209.206
708.387
735.065
-59.2603
659.593
-667.6
547.141
872.835
79.4825
118.031
852.147
249.47
177.709
-143.279
270.292
-326.626
111.502
136.914
166.978
-231.405
618.81
-317.379
-633.413
-802.628
294.577
-241.147
-559.756
-73.8807
415.797
916.844
983.598
424.91
933.722
1335.29
1068.16
724.92
1063.42
1125.81
38.445
-253.065
-146.474
525.859
103.909
526.188
515.668
287.745
496.849
-168.228
-835.893
-168.032
-144.534
-264.29
-494.431
-740.289
-349.251
642.113
750.32
1326.04
522.641
-416.578
200.712
-367.427
853.582
238.162
49.4405
1185.56
31.1006
482.765
-164.682
498.224
678.934
160.411
1272.11
398.823
790.274
311.955
638.102
-478.793
-305.204
8.63828
-176.162
297.681
52.7675
-786.114
345.582
324.044
1327.8
2557.49
3072.57
3398.75
2666.35
1846.83
2956.49
2458.09
1286.54
1594.42
263.44
-123.233
62.5402
-71.9309
-26.3758
288.122
-728.7
-180.303
-521.903
-358.373
330.307
-313.187
719.722
694.874
1557.21
895.705
949.346
1137.13
1003.69
1178.46
868.555
173.15
42.407
91.7599
280.685
170.461
731.459
-144.097
737.308
203.639
837.107
635.673
301.833
679.221
343.124
244.069
208.019
157.759
-1196.66
-769.131
-784.404
277.736
259.596
574.573
1961.68
1520.34
856.505
1564.35
317.272
280.564
-218.046
534.711
1322.73
-911.888
289.98
106.245
506.651
1092.17
1667.01
3235.36
2027.12
2234.49
1589.88
1123.05
1017.36
555.974
1706.3
991.979
1209.49
1459.29
1907.64
722.865
1289.5
370.898
67.2047
506.18
757.981
570.985
1098.86
685.453
496.828
627.298
-15.3263
153.081
-359.372
249.06
-456.426
457.179
402.079
811.274
2251.39
1826.02
775.698
305.441
417.259
447.952
906.825
3411.83
2182.68
2125.24
1114.92
438.448
-98.3382
-374.612
-876.572
-810.452
170.616
673.955
1126.21
-133.625
-83.5031
647.366
-120.391
462.578
828.388
227.295
-4.27908
181.86
1466.73
1305.32
565.831
1613.67
1825.19
1154.06
955.029
174.242
862.546
369.281
-213.417
-423.961
-427.068
-422.723
-185.837
33.366
-56.8332
-146.173
-560.107
276.137
-205.324
1108.56
1191.97
1710.94
1927.01
560.95
418.026
453.653
1577.82
1724.27
583.171
602.334
841.367
140.556
252.967
-105.162
17.1622
417.896
-58.7085
1440.8
282.064
317.865
212.559
45.3099
-565.556
433.706
-75.0395
82.1253
445.708
288.532
1391.64
1051
1392.09
869.129
-9.69121
-59.7474
-23.6651
-243.926
77.5914
860.266
14.6214
-783.12
-107.696
-237.995
229.963
-127.951
238.613
-159.594
-493.844
39.7287
-331.822
-115.362
231.25
304.688
55.9192
188.666
492.842
30.8211
-93.5012
496.338
554.08
636.598
113.47
177.873
1395.54
62.7923
1142.35
362.158
1441.49
-101.286
1922.14
2730.28
1091.42
1610.8
2011.07
756.705
320.942
8.75689
1277.16
1254.92
-72.4276
-158.286
156.712
-454.692
104.626
330.396
-474.277
-177.863
-343.715
-509.999
495.066
77.1431
-691.639
-290.073
-353.382
-186.439
190.916
12.4184
-729.969
206.742
-313.855
647.906
124.414
157.936
127.913
582.792
-299.004
634.292
116.471
1571.29
1528.9
1138.28
429.862
-490.063
-1095.54
-162.588
77.4087
545.131
267.418
-504.901
59.4616
145.713
574.5
101.304
-283.183
316.151
177.134
506.207
984.489
234.45
1007.96
309.994
327.019
526.046
-597.213
632.952
105.783
486.762
301.503
-271.823
286.756
10.5322
468.759
430.409
687.499
860.921
637.815
-155.225
866.481
285.848
186.498
56.4354
45.8605
-554.223
-586.645
-37.9998
-401.386
-420.202
451.888
1202.45
2040.87
2744.74
2050.46
1359.25
677.667
1685.7
884.452
622.608
732.145
1355.7
331.285
1057.24
585.841
130.077
1695.63
1087.75
570.943
630.583
33.5297
1526.29
2043.82
3236.13
2532.13
905.035
856.547
1117.71
1013.53
607.765
3146.22
799.306
1334.41
405.698
855.425
217.833
1178.22
-381.243
525.378
461.16
744.275
99.1946
-22.2197
199.094
139.856
682.762
-183.199
948.287
779.815
-39.6213
8.01935
-395.408
-224.729
587.755
-158.323
-118.672
26.7035
649.641
655.541
122.43
829.128
1067.51
92.3413
523.401
-146.357
-1061.96
314.126
55.1959
77.4704
543.486
369.102
-102.216
248.978
-159.146
964.515
1283.76
1524.44
1067.05
-153.618
20.1227
767.894
101.208
3.74751
-87.6474
597.609
694.174
1241.41
2609.58
1589.48
2749.01
1732.23
382.273
296.456
-911.432
968.199
996.572
578.27
-104.395
-505.8
-764.207
-233.977
826.665
960.67
1483.67
743.173
493.429
-1375.23
-595.951
98.7143
130.591
-643.617
-444.178
-667.638
-360.954
-231.265
450.529
1525.29
604.584
836.739
659.167
622.803
511.773
81.3464
647.239
456.577
236.731
-293.94
-182.467
927.744
1736.21
353.478
-129.678
37.6804
305.614
-65.4929
353.645
84.2098
710.523
-206.728
91.2464
1343.79
1372.49
1157.37
-402.689
-42.4904
19.0075
-468.385
-1236.66
-837.414
-253.372
568.937
26.6062
509.551
-511.193
-536.871
161.46
323.067
247.121
211.649
955.785
299.09
-291.415
-286.877
-319.916
266.566
255.327
479.971
801.176
109.021
-595.406
-469.277
-100.191
-177.187
36.2159
264.019
619.56
234.8
787.589
32.0014
-214.911
174.644
-74.2389
334.563
462.2
-665.916
-827.696
519.622
332.014
64.5623
393.163
889.674
1029.28
1181.5
2192.09
2658.25
1966.47
-8.6989
-37.1885
-68.4341
626.315
637.755
588.929
568.626
79.2355
519.955
-842.277
226.584
401.878
936.238
1711.48
984.742
1259.95
1250.15
419.448
976.568
446.297
41.498
1430.02
676.264
1263.54
964.598
1502.93
1993.72
2579.02
2747.95
641.4
414.097
1179.89
1414.29
1282.7
1223.42
690.932
1067.7
1444.78
1082.61
46.6252
-72.2279
167.148
-664.586
-360.938
-147.978
-613.23
-238.92
733.314
1366.26
1104.47
1020.53
734.335
1045.77
678.025
218.063
-151.658
285.625
-499.305
-688.819
738.882
937.747
466.619
667.407
-319.784
358.518
156.391
349.425
548.911
898.995
946.304
458.557
521.933
454.286
850.824
1143.78
1081.75
-5.45518
190.41
287.979
-322.402
-119.915
349.558
1056.89
1078.09
895.591
1807.24
1648.73
1906.09
716.489
-201.393
-419.524
848.619
2688.99
2487.74
1544.27
676.548
283.507
72.9977
646.465
270.133
195.026
485.185
-126.661
610.879
764.564
974.121
424.402
-261.243
166.749
386.427
229.088
93.0476
-316.936
16.1094
167.153
632.29
1378.7
688.961
1062.59
