-225.249
-200.606
-463.423
718.901
-261.155
-505.583
69.9056
542.248
-310.311
-22.9759
-846.04
880.14
659.248
163.408
850.246
2391
4006.56
2510.4
1641.09
1637.39
2321.85
3715.28
3859.18
3770.23
642.457
253.509
-1096.48
-317.733
-399.991
-192.711
255.423
292.967
31.9154
-555.162
-638.378
-16.5771
-126.035
14.7579
587.048
82.6374
372.143
-312.158
-1111.43
-716.048
-551.588
-488.405
39.757
482.042
271.019
-0.438999
1609.77
561.442
675.045
-256.517
-395.087
-507.042
299.048
-317.607
1562.09
221.28
336.024
375.047
-107.191
281.129
658.026
-65.2445
586.868
742.336
839.052
432.468
-98.447
-391.225
-106.021
67.0842
28.5513
723.961
235.045
1016.85
866.699
662.02
808.227
738.329
497.146
253.516
596.143
497.453
1243.82
1120.99
1279.87
1562.28
1527.12
-73.8338
-142.924
1361.73
902.732
308.033
-94.2899
801.24
744.622
380.728
444.484
377.912
-271.705
-379.913
-165.362
-51.8919
-659.947
528.342
589.231
-274.181
1343.1
-51.7629
-124.762
-517.143
-633.731
-501.005
620.409
-140.317
-925.122
-615.932
-207.16
365.156
842.771
460.222
797.241
1159.96
193.663
752.934
355.692
674.397
602.09
838.734
1504.9
580.885
1219.92
2041.28
1340.94
407.289
-43.5468
32.2632
508.961
540.515
612.62
615.625
2003.1
2122.24
2339.86
792.765
-579.644
407.352
794.491
503.644
-183.529
386.179
560.988
-150.226
140.611
422.99
1560.06
1804.16
1496.23
2455.16
3156.29
2842.15
950.73
1197.03
2303.16
1963.88
1950.67
2107.75
1881.27
2023
1156.26
1937.8
131.58
929.321
211.466
260.438
-849.818
-483.561
-460.254
-463.833
82.0167
1299.23
985.941
810.436
-835.329
-189.469
213.888
104.145
119.397
-534.309
-546.322
-612.861
627.394
91.3921
-381.193
502.003
526.219
317.637
47.1372
357.109
16.5377
28.3686
-211.077
-527.367
-318.12
395.451
807.069
-82.8454
1383.68
629.379
689.468
-543.147
-116.626
-515.817
577.009
-300.78
-241.974
1359.48
1060.16
595.969
56.5921
-320.903
544.072
410.139
-26.0684
625.247
-446.603
1061.33
525.179
671.012
11.7504
371.755
698.71
35.8416
995.77
968.733
662.093
290.256
-137.869
-601.735
25.1001
766.671
224.634
-750.852
-613.306
-1248.49
-1654.79
-380.206
669.309
-375.973
1004.86
870.112
348.084
757.431
224.591
-125.282
270.685
-234.205
-476.146
471.712
484.633
-213.717
169.678
-132.846
-542.7
-569.959
-761.787
-17.6736
302.398
-333.275
-984.397
-252.973
72.3889
508.906
426.111
258.174
656.089
-235.141
-493.298
-158.726
-574.66
-536.736
479.921
-57.0201
171.648
1094.93
290.746
1649.74
1751.18
942.732
687.472
-145.758
-102.392
-176.48
-435.296
-709.677
25.0458
495.359
933.89
755.11
227.252
1069.25
-152.457
-141.378
647.421
1206.78
1609.37
-304.583
639.984
824.802
467.428
747.046
205.284
-862.64
-841.412
814.552
725.463
888.208
486.359
-17.5518
927.17
333.837
-61.6196
-811.925
156.849
440.819
773.597
1373.17
1046.16
864.029
460.501
1374.03
503.774
549.729
211.725
374.688
1099.15
2296.7
670.745
1530.53
1189.92
-31.1631
401.458
416.696
-390.377
-362.088
-609.172
-1076.56
148.696
313.141
677.776
293.085
-601.889
-981.355
78.5607
-313.538
-689.821
-346.42
913.908
532.119
1045.92
613.958
1035.8
753.699
594.436
674.762
877.449
60.0285
897.187
129.034
477.506
558.04
-87.8061
153.467
194.091
294.085
-53.9313
615.222
365.404
289.604
-239.878
339.892
687.039
-376.414
-144.088
208.533
160.121
949.127
715.423
1681.78
518.933
-363.471
-347.032
-458.141
818.633
52.0144
-719.621
-66.0484
-76.3015
96.7343
650.458
234.146
606.315
-84.1799
-674.489
1018.24
573.499
-154.614
-559.84
777.02
629.319
256.155
-351.102
334.691
641.562
1817.78
2139.17
2112.96
2293.31
1913.5
252.526
160.565
533.63
317.372
134.591
391.739
-610.204
-936.531
-107.897
-157.239
-551.898
-856.748
307.44
291.05
-563.584
60.8968
152.288
-291.928
385.831
1836.04
391.679
59.4378
425.244
-218.577
142.771
-337.915
628.651
536.544
-240.556
612.273
613.225
631.597
-24.029
633.955
246.602
231.34
-1401.75
-272.907
1012.63
98.3171
-667.178
-460.703
270.709
505.063
-12.9052
135.851
-520.295
745.15
396.25
418.227
573.382
-248.554
556.493
939.772
390.431
-2.22291
-66.8832
969.265
346.738
-194.159
463.478
-1520.11
-1145.94
-383.381
-882.987
76.7564
-554.35
-40.3267
249.944
727.63
1729.74
1173.98
-901.561
-126.434
319.565
84.1043
-298.765
-391.165
-180.231
64.4202
90.5183
322.564
-66.8344
113.753
532.548
-287.566
-927.737
-1080.96
-662.911
-394.576
-546.622
-1263.5
-1093.61
-786.81
-1086.47
-720.848
-47.4141
505.455
574.664
454.151
571.431
-875.274
-1757
-1200.5
-600.331
-901.673
-1280.47
616.59
666.418
188.595
-1409.78
-457.956
-922.028
-864.027
-1123.58
-1023.06
-901.363
-143.77
-545.359
158.393
2067.02
3295.68
921.063
960.496
105.246
-255.186
-761.514
-897.539
-431.638
160.528
-386.016
-480.878
-540.517
240.18
833.694
319.823
2206.52
1283.74
2784.75
1414.59
1509.53
1663.5
1188.82
-652.253
-536.528
-1669.86
504.674
-55.7569
-301.875
-256.146
-402.239
941.329
1001.85
963.44
-3.40066
-275.413
50.6275
483.439
-1080.55
-951.445
-696.951
528.51
1044.88
1184.15
1317.56
396.715
77.1603
-670.645
-1642.06
-283.145
513.959
1588.78
777.271
873.545
-446.905
114.949
-47.7541
214.111
279.949
1400.7
1458.11
176.193
178.77
655.79
-328.239
-805.494
-605.041
-445.868
-307.917
-103.725
-604.802
-438.773
700.305
338.75
622.76
-404.444
-695.252
-841.438
-1111.32
-984.899
-1030.97
-519.499
-480.886
-590.189
-108.646
-569.999
77.6797
-173.881
-635.259
307.34
20.0407
527
-63.9262
625.623
502.605
-250.661
658.948
305.005
2394.81
1939.25
1410.77
2969.86
1901.42
457.007
535.088
-451.374
-264.03
-676.804
-376.232
-559.259
-852.964
-625.069
-87.2934
554.351
25.7985
829.43
728.897
949.167
1178.73
913.962
1002.08
1045.11
710.269
-813.353
-403.247
-76.585
-61.565
-104.265
-49.9214
-1502.12
-992.413
-1520.09
-455.762
-418.911
34.1892
204.356
661.262
143.845
-629.427
-131.219
-1189.08
-840.715
801.228
473.854
869.141
128.583
408.326
247.09
-1.73276
192.669
986.361
1223.65
520.591
580.701
-171.732
-440.547
-749.771
-61.5062
-511.072
-556.999
1517.34
1212.66
1189.38
859.898
696.515
176.227
-108.936
194.691
242.252
804.732
1406.05
2322.2
2658.77
3425.92
2087.19
1278.03
1806.07
1724.51
709.835
-332.555
-138.038
-493.456
-658.008
-395.175
-995.629
-758.852
-482.203
-887.268
117.041
971.737
791.541
405.209
438.401
-10.6528
41.6714
134.181
-323.588
72.2222
141.02
29.2089
335.145
40.8699
-765.451
-583.395
294.831
1306.64
495.32
-1064.02
-831.047
534.798
509.117
-205.497
-345.855
-202.006
-979.101
-378.37
-408.393
-500.468
610.793
953.817
1427.37
852.098
389.854
1270.7
1272.62
422.177
320.299
1587.1
321.998
362.063
314.651
1351.61
975.249
1272.91
1684.46
1462.54
1432.88
577.474
-34.0524
311.893
-26.8771
89.401
-559.712
424.286
-1581.49
-1381.29
-1394.75
-1374.06
34.4225
-656.313
60.35
-142.521
188.322
-612.409
-501.419
-467.89
586.688
1345.79
812.379
272.192
596.914
588.065
-27.0091
-201.914
100.246
318.317
293.088
-702.635
-501.202
-803.922
-828.022
-1386.82
-931.216
-292.518
-673.631
-1318.85
188.657
898.729
1809.96
2585.66
2370.17
1704.49
213.363
445.47
1482.63
460.885
102.496
220.128
407.639
252.96
95.702
557.378
440.077
758.58
2094.8
394.84
85.8712
-1038.16
-1054.99
-503.848
-326.837
582.376
87.4289
346.212
108.108
-363.911
-16.2191
271.338
-404.361
-1101.23
-646.712
-612.021
-342.83
-890.454
-880.393
-213.987
-20.7441
93.0263
302.936
2.88619
267.28
426.58
86.56
175.144
-707.39
-645.754
403.887
53.8319
-69.1198
-624.612
-1935.86
-111.172
581.099
191.365
573.241
125.418
517.303
594.997
130.553
343.565
-708.874
-623.15
-105.387
224.736
286.941
136.167
-1573.07
-272.577
-157.021
-465.465
356.593
922.066
1592.2
87.1803
-347.893
-884.153
-572.149
-570.099
-652.531
328.951
865.475
-533.106
-204.144
387.364
315.898
770.217
90.831
954.453
616.131
-187.904
-695.637
-300.217
212.326
-515.768
-783.172
-829.703
-727.53
1821.13
1034.5
-186.421
-226.07
382.192
600.807
-33.8054
375.747
372.427
-203.882
-26.3024
483.414
-108.936
-491.409
-235.557
-460.256
-596.831
266.963
-463.323
-349.885
-70.8762
75.2144
35.2708
54.1008
-221.887
365.959
490.527
97.1909
-81.2716
206.105
618.214
-36.4966
-77.0154
-1347.82
-1191.81
-2519.94
-729.544
-58.4185
-1332.45
45.2939
556.305
328.011
-646.295
-252.03
-321.647
-424.697
-557.977
-284.585
304.897
1381.74
1617.53
632.585
-398.362
-921.682
-412.176
566.268
-371.974
-344.095
-329.565
-121.534
2.81657
1034.22
163.072
402.103
-83.1734
884.281
-314.82
515.498
-321.93
523.189
242.043
-375.664
-553.18
2.73156
54.9834
489.056
713.528
-131.753
459.214
430.955
1014.61
540.445
250.891
698.84
771.714
224.611
1353.85
983.593
1593.42
2631.75
2887.17
1093.6
1381.3
1828.85
1946.98
1087
210.692
440.239
-391.108
-446.042
52.0814
71.5076
-729.963
1304.55
488.836
665.065
969.189
546.036
122.102
-1249.04
-1094.42
-826.624
-654.483
-644.403
-306.506
-82.88
74.0044
-193.517
-73.3473
-236.223
-5.48731
-73.0307
475.649
173.472
106.636
404.634
867.474
1490.69
620.568
-433.191
1.77586
-715.382
360.431
347.538
122.331
117.359
788.347
-277.843
-82.9399
542.278
558.459
313.286
312.474
-489.637
-257.928
-231.509
-96.0132
585.931
987.313
1150.81
1476.6
375.746
3.02202
90.7928
313.578
-252.265
-48.7474
-956.476
-263.721
577.952
1979.59
954.523
816.757
-902.971
-24.6772
-211.512
352.629
666.961
102.542
-166.097
140.298
-139.297
-291.48
-105.714
-830.974
25.9729
838.556
1003.12
1155.5
1444.15
866.262
-125.79
608.958
450.365
754.473
269.083
8.44204
-702.745
-221.75
-327.258
17.1745
493.85
343.651
512.468
-158.89
184
338.554
1019.17
140.354
558.376
-693.049
-376.392
809.336
-456.036
-158.153
178.069
264.895
22.2206
867.43
248.707
-131.373
-713.751
298.822
159.926
94.5182
-220.057
-195.301
386.768
-495.46
402.019
764.264
994.376
-345.872
-427.978
-494.112
-598.84
-1337.54
-707.373
784.34
605.818
917.858
826.195
-106.299
69.1893
-422.086
697.927
481.23
-324.613
152.481
116.788
-639.497
-551.17
-1224
742.476
1089.71
601.678
985.51
206.917
1370.83
176.821
-551.968
-459.78
-908.557
-653.162
-0.991773
252.25
892.274
219.581
-189.597
-2.95294
638.858
1450.32
127.248
656.745
295.645
-1316.79
-256.28
699.625
1003.37
338.48
730.414
1076.12
1160.4
1176.62
1150.08
1006.51
-254.32
-542.547
-1137.25
-755.192
-671.125
-961.054
-1534.77
-1748.04
-765.163
636.002
752.888
754.732
913.642
324.757
737.52
0.744936
109.133
701.31
916.287
234.961
649.236
389.031
642.254
-248.893
-684.595
51.6388
-706.326
-364.159
-449.946
164.607
-152.69
-68.3485
-148.773
-291.432
-169.319
-419.926
179.243
995.549
1747.31
3658.29
1758.63
600.169
-806.026
780.273
1014.19
1047.82
852.58
-88.1824
274.398
1261.09
1091.56
598.87
-161.409
638.94
467.009
717.821
493.599
1366.79
1076.75
729.631
1173.71
620.504
390.02
148.827
92.5286
-18.8821
364.886
-391.373
-101.237
255.081
-178.249
-415.161
-815.647
-906.78
-146.829
-797.243
-411.878
392.949
-193.268
-338.985
526.939
264.918
447.155
528.111
499.447
825.658
389.469
637.772
175.66
676.298
-394.137
-204.053
501.65
2267.65
1347.45
1746.08
1126.44
1355.52
2530.58
309.872
-252.094
246.38
-654.264
-32.576
-401.759
-166.433
-340.427
683.1
127.095
-321.314
-60.0846
295.428
315.575
-321.149
372.882
-612.083
-694.667
61.5446
-546.242
-283.836
-356.96
-482.424
-49.6933
328.139
88.4867
1610.4
443.681
710.534
151.568
-152.43
-236.848
514.757
-530.179
-101.638
643.191
715.641
11.2273
553.064
127.068
-78.9846
198.508
-1146.33
-1250.7
135.376
811.92
-326.363
-152.48
-210.446
706.881
762.335
-178.498
-1604.57
-537.809
-1752.01
1191.47
310.468
218.812
750.219
-548.24
-240.773
293.313
534.535
1539.31
2456.92
1762.26
2143.22
1748.46
3411.6
2943.12
2666.69
2444.58
855.832
446.417
38.7441
702.656
1406.76
1264.03
2476.59
1976.38
2627.81
1699.15
2401.05
430.937
-561.273
-755.251
54.5478
-171.576
-19.8884
-494.408
-414.604
756.347
216.607
172.413
86.9075
593.658
554.097
533.472
1453.74
659.135
1247.3
1278.75
164.241
-1020.3
-1111.51
152.017
1042.33
890.954
591.815
1228.27
557.868
2168.42
944.264
-217.163
192.492
826.667
1449.63
174.408
646.411
236.868
372.6
1074.46
241.027
-88.6164
136.437
-412.134
-835.601
-736.064
-425.943
-446.246
798.679
808.162
1082.98
-910.805
30.1583
736.121
1039.21
865.414
1974.41
2298.25
1277.02
459.077
1936.29
2700.86
1847.97
1531.45
1266.13
-382.266
257.501
46.8159
-282.989
186.107
-312.882
352.259
-97.344
135.74
78.4996
362.439
-173.63
404.269
2009.78
537.231
640.544
-517.822
513.202
246.93
613.967
50.2922
-10.9241
-872.529
-317.537
331.195
731.835
-60.3886
356.357
458.781
-148.179
-450.547
-1050.41
-979.162
490.127
-286.69
-345.786
-132.216
-113.466
-146.021
861.888
-464.71
654.123
749.911
97.4655
861.284
324.978
-91.6152
-156.609
-902.683
-1688.24
160.765
-506.812
486.007
788.55
1138.16
676.156
-713.109
-584.597
38.2721
-293.026
-356.038
-217.423
-108.326
269.249
404.638
559.51
617.867
613.269
629.972
897.688
1231.47
-572.549
-295.366
887.035
532.947
1161.26
-22.4655
789.922
1183.07
78.1008
1661.46
848.983
-420.525
171.365
398.892
1007.22
829.976
570.034
367.297
-31.4029
153.57
723.462
-43.249
-625.911
-512.346
-557.274
-198.427
664.3
154.132
-291.906
-238.33
-316.217
1217.17
634.767
112.053
-319.248
-44.0946
328.625
881.296
365.78
74.6412
-1380.18
99.0038
578.019
665.005
444.439
568.857
-1352.04
234.112
322.282
574.471
-289.027
13.4485
-108.595
85.9003
-439.07
-446.816
-380.815
-536.455
-79.4579
-341.854
375.822
-108.225
605.538
357.882
122.447
-848.669
187.685
-285.148
-377.581
-994.98
-676.702
-284.316
573.04
-433.502
-37.679
85.1374
-323.743
-1382.92
-705.872
-1020.79
484.857
908.745
801.107
869.387
460.783
923.19
-62.5727
148.142
732.305
1254.53
627.491
1196.7
4.54366
-236.968
1234.5
697.011
271.033
-564.097
337.408
554.832
381.298
349.101
1568.76
523.113
386.755
357.902
-307.714
-293.356
581.087
212.81
417.508
1322.33
1366.19
999.746
1239
792.377
160.685
-623.755
-212.717
-660.497
-405.422
-42.4069
765.11
425.484
228.827
1397.86
958.255
769.895
-315.41
330.978
139.435
275.439
162.643
-65.1211
-683.11
-646.544
-601.459
460.781
-78.0927
23.8015
168.67
-446.842
953.615
1660.08
569.348
81.6493
648.68
1146.92
398.591
1330.69
1630.67
2243.5
2488.77
4780.58
1817.77
1075.75
-98.0284
251.581
435.931
333.163
76.1216
562.524
-340.818
-109.889
-208.292
-365.521
113.974
487.489
581.078
583.593
376.684
29.2253
22.9231
1329.76
1191.83
1167.23
1204.2
-22.6694
372.906
134.866
-264.581
191.238
401.963
-100.856
-131.098
247.021
794.574
1214.65
261.159
-272.785
170.301
2213.04
1353.45
1556.31
417.733
454.048
130.492
10.4075
251.759
146.892
-393.798
151.26
741.671
53.2386
161.633
-200.214
-1232.79
-1214.65
-556.309
-192.852
-959.619
-300.459
505.568
-287.702
-89.4393
604.65
71.8311
1202.2
1157.29
920.568
1002.44
1929.05
943.425
-128.83
142.121
-26.0619
-44.3561
-601.528
71.8959
-399.085
318.18
-205.861
-247.955
-902.774
-1078.87
1004.01
430.114
681.628
755.702
-86.6688
459.175
-153.48
469.841
772.201
662.965
654.506
354.245
1419.68
1280.78
936.09
-15.5372
1377.91
769.09
418.977
87.7864
1644.68
1941.98
1590.04
1099.31
424.401
-107.432
-205.853
-44.0006
-194.828
-312.235
624.882
334.481
-118.047
378.155
261.776
-37.8667
399.552
50.4293
-222.705
-1062.22
350.816
-819.437
-36.6768
730.881
139.684
-135.412
-1135.27
206.408
-657.533
-186.967
257.08
481.693
426.512
479.381
467.92
77.6993
88.1938
27.5797
607.953
1848.04
1300.19
1525.52
1410.85
2158.6
1554.1
959.687
-1887.8
-990.911
-184.538
556.445
797.494
701.815
1010.24
811.424
833.862
965.856
1714.6
2000.04
1657.36
500.431
81.9834
623.374
430.151
489.968
770.71
-371.777
-416.472
588.118
694.732
1583.16
118.917
-358.833
1362.67
964.726
479.813
968.321
329.896
-108.578
-410.892
187.833
30.3744
-1007.28
-577.54
-604.572
-771.218
206.217
516.022
289.56
151.191
792.492
544.45
526.801
109.709
56.3614
877.527
844.577
-86.3084
-412.796
-1210.9
-960.392
156.125
1753.4
755.97
368.51
298.92
-557.545
337.815
-557.195
-1307.58
-638.068
241.048
293.225
-950.883
340.661
890.192
1086.92
746.582
999.979
477.869
620.436
593.828
666.729
479.14
1410.2
-72.1871
-616.067
167.569
272.264
-617.393
-445.174
-956.559
-0.859508
16.1238
311.212
-184.424
-426.758
-37.6518
240.425
235.849
-430.284
-228.804
-628.759
-193.823
80.3906
1146.65
212.656
1575.07
416.549
683.662
367.724
-303.853
-432.377
-367.004
304.849
270.295
805.383
573.836
-339.895
261.541
464.484
310.872
312.845
308.753
-181.452
-493.483
-1599.71
-53.4563
2221.17
2070.48
1134.65
647.895
-105.877
290.876
340.797
339.208
-103.795
-943.498
-1315.31
-596.129
-184.794
-989.053
-1109.88
-464.658
-1037.56
-828.419
-221.249
369.171
222.066
-841.888
146.136
252.21
-42.337
-587.801
-660.469
-275.519
278.765
-352.022
-743.233
-139.168
-49.1871
9.85235
-273.227
-1.37661
443.102
368.247
384.217
199.645
735.558
516.607
588.962
1679.41
746.191
1083.15
1007.4
673.857
-96.9763
-242.83
329.324
109.777
-624.275
-548.483
663.374
237.829
223.75
-145.985
-942.012
-746.834
151.936
221.202
-525.628
655.435
1105.61
264.323
594.264
-649.674
423.102
60.9533
513.187
266.487
-41.969
356.384
253.308
226.134
-230.994
87.1087
232.058
877.628
117.639
582.643
420.26
800.608
737.447
1026.27
1094.57
677.346
197.302
-346.323
-548.784
-633.127
-183.836
-57.3756
759.739
877.167
312.098
1141.42
1473.92
1926.79
2209.11
3070.26
1912.68
2301.99
1173.57
321.105
73.4473
-744.24
325.098
875.343
978.571
1228.63
1592.4
2060.26
1241.61
1934.86
518.088
762.653
2106.71
2934.72
3057.08
3112.81
1416.98
1671.88
1053.98
477.501
-204.455
70.9278
-176.189
977.515
-185.412
119.118
285.747
285.363
-296.509
-206.55
-525.996
-123.266
392.706
609.679
203.711
-66.7986
-303.449
159.341
405.675
379.168
426.317
1156.17
281.193
650.866
-129.33
681.294
-12.102
-1375.29
-691.69
2814.14
2167.02
1182.61
635.25
-113.437
812.381
342.625
151.415
-176.614
8.58166
-368.015
-793.511
-392.308
-163.239
-1180.61
-1358.82
-1251.11
-1033
-396.34
32.7687
-680.822
140.164
534.44
2745.95
1901.93
252.671
166.794
1538.42
760.735
1060.99
48.8338
-43.0764
180.517
482.029
514.724
1275.7
-194.065
27.0326
-343.698
989.241
1316.36
1839.94
1722.93
2718.73
1420.51
321.627
-181.996
1056.56
2513.07
2772.34
-496.24
239
62.5242
593.651
1025.07
1213.44
111.99
-337.015
-787.179
-392.431
-331.305
390.074
-511.549
225.131
-529.797
-641.245
1053.43
-95.949
744.992
1201.43
1133.57
1950.58
657.843
1324.74
1252.07
968.926
-222.199
-642.814
-781.734
-588.693
126.218
820.23
-907.776
-70.2335
-31.6434
-58.0182
195.736
1300.73
556.654
-376.759
431.287
196.829
-1027.92
-187.854
-235.311
-532.813
-32.3102
703.045
259.141
368.53
870.412
96.4254
619.525
76.2034
196.056
464.952
-456.206
-756.134
-658.196
-851.7
-460.851
-215.31
-55.7975
298.855
28.1924
-494.066
14.1435
-581.531
-324.051
-468.508
273.98
-466.794
-212.231
-538.16
100.981
166.408
-299.764
4.78954
-914.253
-427.48
-1246.17
-698.812
-1227.75
-2531
-582.412
319.156
-3.02339
297.541
-320.378
619.789
218.353
773.353
-87.6731
89.5154
440.218
749.916
-142.928
-10.5774
-905.122
-946.815
-47.2309
-565.394
-910.007
-195.665
-144.926
-812.72
619.312
-835.007
-568.552
-1103.3
-375.166
-321.832
288.495
-793.179
-116.632
76.6573
1610.91
912.271
27.383
232.265
-446.902
-25.9517
1401.12
1392.37
417.723
590.879
376.321
-118.893
417.5
409.096
-373.334
-353.991
-1006.64
82.5864
-252.954
-616.075
-697.144
89.9687
-323.349
-682.517
-706.824
-600.477
-439.502
372.443
848.121
697.378
-78.581
406.021
-234.132
-181.474
-253.544
-64.5465
-459.311
505.944
439.993
402.898
370.996
829.427
-754.245
-356.912
-1095.32
-426.768
-403.84
-409.046
4.00193
-158.09
71.5482
152.71
740.903
-1407.91
-73.2015
103.64
-263.603
651.523
801.247
1599.07
1684.15
646.213
1768.56
2057.32
647.869
178.967
-341.797
-302.556
-709.712
-1158.85
-428.585
-253.076
-428.07
337.948
-8.07648
247.606
-374.873
309.947
-300.716
-103.015
639.613
338.83
217.536
-137.548
-42.5192
29.6195
392.096
182.135
-192.556
-279.011
-868.806
150.444
184.732
725.856
-20.5025
935.18
2039.63
936.812
496.153
1797.22
1016.78
669.987
-130.858
81.7713
652.374
882.658
95.4156
690.458
701.264
694.39
-27.1843
1663.24
597.971
-23.1816
1089.19
229.853
-811.096
158.126
-821.333
-1103.44
-1939.67
-254.163
137.935
-171.617
-14.1058
-136.657
-134.646
200.883
653.493
627.871
525.748
-332.305
368.001
-160.056
-282.948
-534.909
-15.6094
-352.241
-188.326
-491.85
-1028.68
-82.9988
506.882
153.225
-517.836
-735.285
-714.435
244.68
-65.3664
636.438
386.122
537.919
14.2092
-437.478
96.6191
111.131
-236.494
469.527
-85.5296
1115.92
1125.38
898.871
939.071
614.446
1388.43
1531.08
962.363
1800.13
1192.99
566.006
853.16
664.514
-120.656
1160.71
807.686
26.4233
-698.9
-748.621
410.375
-394.768
401.914
-169.027
1707.36
-381.976
828.881
1102.17
427.661
167.799
533.594
-368.487
-310.272
-72.2479
535.54
-160.677
-167.97
202.64
908.141
921.208
383.499
-1328.44
565.077
-205.689
237.679
-1829.06
-242.986
-293.555
311.446
-1205.15
453.262
-30.8788
-1042.13
-289.845
-1089.54
594.725
326.289
1113.92
2243.9
2996.48
2817.81
2070.4
1107.18
-373.463
-662.691
-585.452
-26.8633
496.592
877.713
619.136
1121.37
1868.22
326.38
-394.798
1516.11
2308.74
2651.24
2750.29
916.415
1194.99
673.307
790.927
607.613
182.661
-912.082
-1550.09
-443.822
48.0658
141.777
350.416
731.293
1139.39
245.57
1791.85
144.181
253.272
54.2542
-140.931
-350.607
-205.283
365.589
1259.18
571.865
-206.54
237.393
431.332
-405.946
-93.4801
-308.163
-0.857103
154.627
235.174
529.236
-52.4644
527.741
33.8224
-1088.7
-1208.39
-402.916
-912.078
314.079
-203.179
583.474
407.316
621.799
1336.87
37.7879
-1365.48
-1549.99
-1028.53
-969.107
-850.135
-1323.9
-713.446
-512.829
-834.075
-1378.74
171.688
662.695
189.175
-86.6635
-832.457
-244.363
-254.887
-609.519
743.172
-494.102
36.9002
608.467
847.489
492.182
939.005
177.569
-72.693
-954.987
-913.565
-297.272
357.305
-209.766
788.72
2123.38
1762.55
2538.68
1535.89
1103.71
1387.29
1860.71
1150.6
852.949
1686.33
1637.99
373.057
-493.432
39.0448
-648.085
897.972
362.771
507.184
1106.05
471.971
1424.73
1214.35
3078.35
1120.98
105.82
697.171
410.026
691.83
1354.12
552.306
712.36
737.299
-659.87
-202.794
34.9398
797.042
62.8867
-1242.31
-628.594
-52.1989
-328.625
-172.709
1175.43
-602.813
-1297.84
-96.7099
-159.628
-510.903
-819.418
128.501
-878.088
-102.744
385.897
580.218
965.975
551.068
1573.37
802.543
191.151
291.638
-126.204
-1093.37
-618.055
-517.755
449.557
454.417
-501.175
178.055
310.048
981.781
849.042
566.574
-401.57
794.95
-848.762
414.091
480.235
209.529
440.47
-34.463
188.412
177.801
-54.6537
-259.861
-378.099
-225.722
252.794
190.57
89.9955
-23.9261
-464.625
-572.632
-652.124
-753.622
-1034.5
-1102.69
-466.468
-330.505
-52.6719
-34.9274
-201.766
109.391
486.044
230.082
629.743
1614.86
433.46
167.48
397.321
1023.67
792.874
1328.4
1160.64
431.344
-632.353
-667.627
281.741
-163.39
-143.148
-261.371
315.861
196.969
1713.89
720.795
104.236
-751.784
-393.71
-662.179
-724.966
-538.741
-937.716
-536.098
-628.778
-98.5278
-972.487
-1681.16
-324.061
-381.735
-370.115
732.576
701.696
331.569
-453.466
186.629
-252.994
264.419
-134.143
-454.451
-349.668
490.559
48.8887
102.846
102.723
837.529
151.323
319.613
464.168
850.825
280.79
698.036
701.524
114.653
-339.147
-529.935
-1551.72
-374.944
-352.965
-156.202
-485.448
-467.313
-290.528
-310.056
807.163
592.873
1068.36
1771.3
1721.38
700.412
457.5
121.993
271.631
71.7244
-12.1313
389.972
-147.883
67.2737
-205.058
-132.225
35.0705
849.36
728.418
55.1778
-259.389
81.5017
767.002
247.468
117.362
-63.7042
-388.349
-509.509
-436.216
-625.514
535.587
758.832
783.733
395.505
1164.29
-27.85
-493.766
448.853
-308.461
413.995
1232.17
309.562
-94.6111
136.265
340.593
386.249
418.234
377.511
786.227
187.83
274.643
-19.7681
251.3
189.942
-257.715
228.158
-300.452
247.145
893.559
941.394
604.29
50.4925
276.957
384.334
80.9961
381.026
513.255
-98.9836
385.521
662.316
1232.59
423.986
473.191
32.3317
440.162
135.583
179.912
387.174
590.589
-1400.93
82.736
246.478
12.6436
-44.2924
71.8212
-619.735
-841.522
-340.492
-173.033
-447.779
409.755
588.899
42.972
31.9812
1188.09
-49.4685
507.853
770.901
3164.15
994.329
954.444
992.012
939.909
-870.026
295.428
107.959
252.253
-193.232
185.896
554.151
-52.7946
78.2571
224.377
226.221
696.661
1505.54
338.803
178.626
136.215
1311.02
1575.05
1460.62
782.742
178.29
226.469
-890.557
-703.294
-776.678
-360.663
-274.287
-155.968
-89.866
-748.192
-369.161
47.5194
-83.763
-531.732
-731.133
-68.2219
-465.844
-308.557
217.053
1074.82
633.001
30.8322
454.343
-2.82481
348.189
262.83
413.746
176.595
-329.409
925.196
381.657
127.202
-353.953
748.937
2095.24
426.671
-19.6502
767.073
1274.48
703.216
-73.5694
-626.519
192.903
-225.425
-213.872
630.567
-144.255
138.007
438.6
1107.35
1700.5
820.588
960.326
1149.83
-69.3391
-65.5929
468.166
397.434
79.541
47.9272
350.467
447.336
498.18
417.7
370.88
891.301
-739.077
-264.897
618.277
495.681
1514.51
2094.74
1468.67
1006.33
396.101
1355.86
-197.93
260.319
1002
1986.45
1102.14
527.938
-896.625
-441.764
80.5166
414.374
-284.724
100.536
400.272
1283.65
1192.6
836
941.029
1127.89
31.949
168.944
985.079
-94.7213
-202.598
-746.759
-1132.74
-987
-688.541
-610.546
-97.3031
178.95
113.285
-401.927
-1914.77
248.971
-165.116
530.166
577.381
882.816
1084.94
993.283
1663.75
881.364
424.602
-455.71
-711.297
406.897
404.376
462.519
-207.173
231.584
960.912
830.551
73.4843
317.576
-616.046
-62.9641
531.832
1030.47
29.6775
1587.9
861.908
-127.906
-362.892
-741.402
-868.061
-864.411
-345.432
-166.336
-369.497
581.223
-122.81
-334.137
-149.399
-348.583
-149.589
693.886
156.066
-157.545
-338.626
-742.6
-574.755
759.513
377.745
1713.9
1225.72
410.007
-131.033
-605.31
101.186
515.438
705.445
-38.0917
-278.477
111.061
-511.427
20.1009
-182.022
-406.934
-369.601
-81.6104
-263.696
-682.296
-627.697
-1210.97
-809.208
-623.413
-65.2455
-99.137
293.016
563.55
1065.28
-662.361
287.692
292.655
385.733
945.371
956.629
314.532
558.154
581.082
1432.63
1387.26
1079.04
-172.421
621.247
331.647
-201.29
144.744
-63.717
-26.7116
169.024
17.3381
-263.113
164.054
1235.28
-303.417
-255.106
-634.141
162.513
-289.261
400.246
-204.774
485.001
936.793
244.922
-282.711
951.156
-551.456
762.47
839.444
1038.16
-43.5988
-725.511
-132.315
-60.7464
100.45
93.2189
610.58
1008.07
574.474
-111.02
186.963
490.32
-84.7473
-671.484
591.037
-688.496
374.951
-166.017
124.337
211.089
-278.608
-329.14
-476.187
220.825
-666.287
-676.883
-208.376
-11.4601
65.5601
1313.5
-851.829
50.7238
963.753
834.691
623.709
1070.25
347.191
1247.08
1057.6
1773.03
1473.5
1506.77
589.198
267.175
683.441
1040.6
1416.77
2936.68
2958.4
1720.34
918.786
24.7621
-10.0417
-258.068
-852.914
300.123
26.9214
354.667
-716.686
262.808
1298.54
619.448
97.2479
312.788
1261.58
1590.83
-3.45565
360.753
-322.199
801.209
2343.25
2158.95
2933.5
1670.94
-13.785
710.212
614.614
-697.98
880.176
742.708
1336.55
629.919
413.363
1114.88
760.878
539.92
579.752
-698.457
-1009.01
-657.67
-83.0391
640.547
143.136
156.973
826.039
824.279
1741.94
616.7
799.836
1422.56
25.8052
-235.325
952.327
144.568
66.5582
216.403
530.643
-599.963
148.135
165.868
-291.717
-573.989
-668.814
-87.3746
107.882
93.9039
755.843
9.76139
128.214
-175.215
222.796
-288.848
960.128
1728.24
1044.27
766.028
66.9849
-234.811
-62.2762
975.41
1116.76
688.496
-488.949
-28.7403
894.018
430.838
474.878
261.371
-291.932
203.873
439.605
168.217
398.832
188.812
-964.255
558.297
18.2502
1181.14
1255.99
1358.17
1112.34
2009.78
1588.97
778.472
589.777
1325.34
887.198
77.8859
-287.43
-1589.75
-516.642
-892.656
-486.528
-1369.87
1135.11
837.853
1348.76
1867.62
2131.49
1710.64
1406.97
772.529
740.814
545.036
686.228
410.723
112.353
25.2671
-201.837
637.469
398.221
-672.95
-139.934
345.485
52.5272
217.323
135.189
2026.57
430.281
913.842
1193.19
739.512
252.569
96.2597
354.689
140.595
563.353
1596.86
712.775
504.715
844.594
-1173.14
-354.259
-1153.03
-136.781
-168.461
-354.131
-314.36
-369.425
-277.58
657.403
1905.6
249.34
64.3759
-434.283
-258.982
-283.026
-110.491
-1050.37
-35.1129
59.6916
-327.15
-193.117
-282.232
276.038
-142.819
-568.929
-1200.93
-673.692
-589.788
-1362.69
-120.595
-11.2396
43.9799
31.7551
365.094
283.43
446.082
606.056
153.975
-29.3906
149.768
-290.509
302.605
132.836
-449.857
215.31
-248.342
-748.029
-187.801
-468.565
90.456
-59.3571
-421.987
-325.629
1199.51
530.51
-821.263
414.61
381.268
1640.57
1458.29
495.031
988.299
-367.382
7.24433
1372.55
850.5
1381.2
859.619
1186.75
1168.93
1707.68
739.427
357.235
109.1
-398.553
-264.509
678.381
1145
2069.19
431.973
761.131
59.2305
-304.14
27.0641
318.481
-406.259
-383.718
498.228
369.584
366.362
38.8382
137.347
-235.084
568.813
264.148
-412.109
-580.729
-147.474
956.838
1154.27
1157.14
1581.8
1522.81
1339.33
620.767
1225.84
903.586
512.558
498.296
101.239
219.258
726.057
-668.647
-1508.79
64.9217
-112.913
-17.7919
369.239
623.105
838.553
1238.67
525.284
397.279
-199.639
-445.199
-828.069
11.7551
-46.4923
-377.712
1048.19
312.295
1444.49
665.211
236.743
767.365
138.601
605.312
279.325
-392.407
-1048.24
-614.109
-248.819
-576.026
-222.698
-787.85
1088.63
109.117
-198.048
311.062
30.0346
-197.591
-475.2
1033.77
1372.69
1128.72
1550.27
466.991
548.841
635.998
762.661
1591.08
-60.4452
-5.94247
-607.736
225.847
399.313
-495.573
-129.217
-842.518
-302.636
-298.162
-202.78
224.44
-460.264
335.164
138.291
350.694
1199.48
-33.5552
488.951
-157.057
-115.662
-495.9
465.993
536.196
30.3531
-32.109
-6.63499
-254.145
156.798
-927.943
-363.049
73.5375
1766.41
1949.84
973.672
16.2697
418.059
-263.727
-15.268
1116.84
793.018
406.723
239.776
203.507
303.791
-129.539
-45.2281
374.857
-631.014
-64.7426
-89.5498
240.237
1234.58
968.375
437.125
-267.567
-653.217
-519.208
-326.673
68.4596
682.912
670.414
-41.4714
-204.71
341.679
542.775
-111.829
61.5155
-182.043
523.109
924.857
989.649
641.776
418.03
-622.945
-303.622
-24.5931
-521.877
111.282
-318.202
-403.085
-694.767
-1067.22
-151.091
-575.993
109.044
-175.088
157.55
-19.5962
811.293
836.006
868.953
135.451
420.823
513.949
1402.9
1273.38
1083.38
527.131
-237.144
-639.584
142.651
338.739
-42.5039
-10.3877
40.7621
799.345
92.3192
-105.354
-479.323
931.29
243.711
332.498
-204.454
-115.498
787.096
150.228
853.862
1191.75
488.551
394.866
140.626
69.6512
-82.8561
-426.659
-486.619
-241.072
-742.343
-570.4
-237.14
-116.676
403.479
-343.845
978.334
77.8475
489.683
1471.93
296.485
737.864
1161.23
141.491
57.6436
-690.495
-606.695
-1135.2
-997.515
-1369.63
-544.666
-34.7247
-645.569
410.32
510.2
56.9921
-311.845
-134.101
733.85
-347.26
129.452
202.279
126.843
1579.24
1520.51
1981.01
3011.28
1122.12
1785.73
751.026
566.726
442.146
455.83
424.268
687.632
10.5424
758.477
549.407
547.731
751.106
475.296
977.656
1212.16
393.759
-312.96
-207.708
338.167
-367.728
-713.248
136.127
747.439
504.932
-233.367
-45.3449
266.393
1450.43
1703.55
2839.85
1830
2079.95
1906.53
454.356
1030.02
762.416
578.057
-340.972
-198.189
-618.621
-503.724
374.005
-147.768
175.216
209.54
-368.939
-752.002
-682.421
139.63
157.969
104.864
1414.93
288.698
165.222
2771.01
4178.7
3020.75
1482.9
763.82
241.949
-546.686
-87.7312
203.167
-584.811
-684.126
34.2411
532.06
660.376
748.285
405.978
1482.42
729.919
955.878
946.744
-69.6946
784.326
839.865
279.559
321.094
797.592
-273.111
548.615
1511.29
2703
227.98
702.383
1095.93
2278.32
510.609
1376.26
2116.57
2381.81
1165.19
1683.82
982.868
1489.93
61.7778
481.65
1099.47
0.526622
-446.447
2022.91
844.08
896.224
180.914
-536.333
192.2
-623.278
247.491
170.299
1176.22
1839.93
88.3281
662.235
320.653
876.916
1342.12
1335.84
906.816
393.94
-311.968
60.0365
-215.542
-668.524
-373.021
-242.117
1299.6
2592.93
764.354
198.166
1927.98
1499.28
478.001
1537.54
202.145
25.7412
384.709
625.919
232.766
1194.75
-122.78
-124.487
-157.633
-160.383
-473.451
-534.327
290.505
237.678
-389.405
395.907
801.268
145.924
437.186
654.011
541.825
79.3597
-497.748
602.411
351.36
1119.97
1757.91
2808.38
758.497
949.687
96.271
-753.884
454.102
329.36
255.02
416.808
-321.385
-33.3256
231.615
-243.142
-894.309
315.157
545.326
1292.07
1560.09
1455.12
425.45
1020.76
1819.92
1041.92
1305.09
1229.77
311.335
10.827
-334.765
-135.046
216.785
574.987
1307.79
79.8186
800.413
-327.248
68.838
62.9904
680.565
883.79
605.359
-300.184
-1201.88
-1522.01
-675.824
428.43
-525.584
619.286
232.821
554.913
578.665
146.916
-584.627
194.627
547.069
717.693
302.683
-351.104
254.511
-833.358
-254.887
20.3457
-248.019
223.103
86.8804
-159.143
126.575
-894.351
-167.852
-777.736
-195.724
-201.934
138.702
-343.771
-217.587
-337.654
208.531
-143.775
-597.75
-263.457
316.285
138.433
459.559
109.874
-99.1121
419.684
-176.38
56.8846
204.538
285.18
972.234
-518.595
367.578
550.635
-363.473
88.5006
642.984
367.767
-171.532
530.316
694.253
317.611
-388.908
606.25
526.116
521.583
642.175
913.925
620.67
93.4383
1058.26
1359.99
952.257
546.285
1093.57
782.062
416.183
-403.348
-41.3995
-173.014
-416.769
10.6673
168.671
358.393
-793.931
-17.333
247.457
841.625
592.518
1657.63
374.023
9.00855
567.213
749.536
83.1011
-233.332
240.028
-506.488
667.585
-710.53
-681.476
-467.654
-435.464
-160.897
147.571
-557.672
81.1447
62.6734
-855.58
623.299
10.8076
-193.032
361.976
257.067
-85.7074
247.391
766.836
254.484
-701.579
-61.3181
638.186
566.875
798.33
1209.63
1320.28
737.052
-121.346
-1488.49
1.1134
-10.8217
741.052
786.71
1452.12
1332.67
603.413
489.662
-454.26
-491.757
-640.132
-72.7486
407.688
548.837
354.782
480.971
1156.75
917.895
1837
1118.23
-91.2691
-307.926
4.496
282.161
322.508
1748.83
1654.73
1537.63
1094.38
190.983
489.963
1256.86
904.89
970.295
491.265
368.552
516.584
722.718
30.8719
-586.3
-919.172
-1318.65
-924.049
297.022
83.4714
-295.835
-228.972
-9.98091
-240.467
1748.32
2425.98
1959.14
1483.06
513.026
487.737
-1480.91
-4.18102
329.228
-243.113
339.047
215.023
-75.0626
573.077
727.433
1015.4
729.283
812.799
-58.3845
-760.041
-1043.4
-332.728
-3.07238
-223.022
-598.865
105.346
-800.141
87.7307
171.274
-643.397
-338.152
-480.111
-82.1331
-489.002
228.163
98.1213
-112.358
-170.334
1897.96
2342.17
856.269
822.203
722.684
1583.81
1772.1
1916.05
527.574
324.185
39.7963
192.122
1130.14
1097.62
1457.67
-91.5804
312.054
235.075
151.298
550.823
610.151
160.524
39.6857
-464.195
-980.9
-228.924
-404.536
821.649
437.977
681.017
-344.649
-75.2058
358.022
-227.895
-73.538
1188.77
87.764
-91.2714
342.813
262.78
-121.038
2019.01
-47.0892
402.505
-166.036
255.024
-1331.22
-137.509
-624.635
238.891
47.6304
75.1907
155.306
165.841
53.7818
944.019
1794
1206.96
1683.36
1054.54
1207.89
555.226
3318.06
1884.35
2219.56
995.751
472.289
302.197
1956.98
1119.53
161.679
1145.78
423.409
-1286.15
-147
2306.95
786.804
90.0106
-622.929
-145.273
-793.903
-1341.22
-585.959
-123.27
494.409
674.569
816.406
624.316
453.074
-707.659
-147.067
145.151
603.908
-55.8422
-895.017
-240.816
-421.021
-369.039
-757.209
252.924
-987.549
306.035
-168.763
1378.07
-85.1457
-769.542
-1180.98
-1177.41
-710.404
-124.997
137.55
-410.207
-608.197
-91.5582
-170.007
-720.391
-1091.88
-943.979
47.6718
1188.16
1099.71
223.295
-345.494
-316.539
249.428
761.933
31.8436
-894.885
-406.781
-166.354
283.04
-1004.04
-411.53
-180.428
-562.591
-1406.92
-753.349
431.229
-387.756
-1102.96
-595.064
-128.594
725.84
217.153
-381.194
-1018.74
-1788.59
-1452.2
-212.564
-844.794
188.117
478.062
543.362
-37.7638
393.15
-367.417
228.792
502.113
761.651
1551.12
748.813
-157.779
-127.558
361.776
-357.882
-256.181
146.15
473.454
526.733
46.3427
55.6164
-41.5818
269.646
-597.774
138.419
243.139
-650.249
272.894
716.942
1345.78
-177.998
382.894
738.877
946.705
2175.28
1747.05
1036.16
675.216
194.404
549.674
248.517
77.5733
800.478
766.243
414.723
548.185
772.153
832.303
765.852
151.356
-713.15
-77.1381
408.425
783.889
141.399
1445.69
49.8331
-92.3059
340.867
-77.4347
-923.121
-70.6092
859.399
1432.78
1513.54
756.647
103.146
604.766
531.361
775.667
-193.905
211.547
-788.197
-619.532
534.501
1210.78
1609.17
905.896
930.011
-73.905
618.044
991.361
-223.339
-405.512
-1174.16
-117.396
318.526
-725.714
-791.302
-1040.93
-197.446
-789.824
-644.983
-26.6812
397.427
-989.969
-659.5
-257.871
624.447
308.259
891.932
469.231
761.765
-821.374
-966.288
-409.452
618.354
505.872
-375.604
-77.1953
-1653.62
47.1887
-62.1604
-254.627
-107.503
457.968
161.107
-243.203
-372.273
-506.962
-793.295
-39.4241
-57.4825
-97.9524
-636.645
-371.894
-542.296
-981.93
-703.058
189.607
400.615
-143.469
-324.106
51.3643
229.364
154.526
-169.267
500.828
1248.72
608.53
-160.476
530.044
886.243
163.504
95.7128
-86.9432
408.085
135.964
194.506
434.841
81.5998
220.309
-210.056
-173.362
-394.191
-616.803
-1114.24
-997.047
-242.599
-610.591
192.569
-0.0386335
1187.82
227.198
284.923
473.968
-509.022
831.679
500.396
469.993
306.142
510.746
185.569
-306.141
65.6703
930.372
-1304.99
284.827
-552.697
330.298
348.674
755.341
305.098
404.785
386.468
63.907
443.971
949.511
9.6649
-44.2967
214.01
542.273
1795.34
2998.17
2727.21
1276.27
672.836
2726.78
2386.58
1059.71
484.705
-480.699
-237.268
-617.932
-400.849
-447.474
75.2838
-24.6124
-31.352
-38.6114
-21.8273
691.23
85.0237
667.562
704.323
1280.72
680.494
597.273
492.179
573.495
949.597
-403.544
-604.276
-754.356
-202.142
550.061
378.666
400.52
-474.204
573.672
0.740614
358.843
369.609
194.176
325.186
685.329
-293.526
-578.103
-597.943
-765.897
-983.647
-982.79
228.954
-125.526
-580.818
787.681
984.033
1382.73
1561.51
30.7998
188.414
20.8631
-35.4656
446.388
-765.621
-179.098
149.086
417.739
1327.42
1152.16
2679.76
703.955
1700.88
674.882
1046.34
714.915
677.709
1243.33
889.448
1049.52
1319.87
1736.24
43.8695
482.13
113.801
-355.613
578.121
579.23
597.891
989.494
210.09
590.604
-23.8294
261.025
-738.803
-233.585
230.879
-120.08
414.872
618.067
288.712
1213.33
1926.06
472.067
484.704
309.936
-185.204
1243.41
3090.11
1732.76
2150.73
1535.45
-40.6312
-676.372
-1624.51
-231.768
-812.718
813.532
635.255
410.703
-81.883
-903.499
520.818
-291.071
490.052
284.037
80.1836
-491.574
23.7502
1423.92
309.514
315.188
1400.3
1800.32
1319.25
890.321
373.567
523.846
817.033
-317.169
-572.331
-157.775
-479.383
-143.555
210.389
-221.9
-621.307
-788.243
-171.812
510.601
532.62
971.948
1105.57
2082.86
943.047
532.746
1110.71
973.338
1549.02
662.325
831.15
657.226
588.244
256.334
-36.0704
-66.9953
35.456
-761.308
1253.51
351.934
528.71
-481.584
9.97408
-788.673
163.743
-655.403
-54.8021
318.871
671.277
997.381
1093.18
1092.45
545.367
463.748
-1109.42
-713.867
-407.199
-871.189
-661.738
-265.343
-381.265
-588.025
-366.032
-1.36215
-216.961
247.451
-359.947
-421.743
-580.666
-385.752
-107.893
41.4705
126.076
-538.553
-407.408
581.883
-925.8
604.813
731.521
313.558
742.898
417.825
90.5138
168.152
-247.499
605.837
-446.082
-318.99
138.861
995.273
2141.26
1913.2
2342.62
1941.19
990.927
441.907
58.2744
218.426
918.968
-601.458
-323.017
81.0289
-611.158
222.816
368.127
-397.848
-109.231
-205.725
-445.31
-868.079
-1277.44
-586.529
-472.424
-116.627
-311.598
133.845
76.8541
-934.613
-295.078
-909.229
-495.284
-443.52
-261.968
46.4714
1089.77
-380.677
107.068
96.1186
1349.95
341.837
-12.1981
-865.377
-606.696
-445.985
-347.961
271.407
435.472
178.93
-10.564
348.003
-1123.36
141.904
62.2961
62.2306
227.168
-297.426
383.295
74.6673
36.2075
1250.27
-332.316
-141.211
251.602
-376.004
-928.25
-939.78
-395.939
-209.962
432.388
586.99
535.229
523.226
159.138
-47.4762
849.083
385.909
-117.84
-123.069
603.047
-111.213
208.402
187.189
-503.037
-501.971
-235.967
-349.971
902.73
1127.55
1163.83
1464.3
1902.23
1301.82
832.42
840.446
1022.79
86.4033
561.975
882.507
1858.12
193.024
374.724
-166.785
-555.181
667.229
70.2131
438.628
387.366
270.976
653.366
1490.42
2509.11
1208.53
134.458
1343.64
642.425
992.83
234.214
1919.99
1284.93
939.273
-130.116
44.6549
306.507
974.172
455.356
761.783
-426.496
-386.857
-425.549
34.6469
-143.778
195.574
596.42
-687.619
1093.7
1103.17
131.922
76.8381
-215.994
-670.943
301.583
-3.57634
296.581
-509.595
-44.7098
482.613
-273.612
833.764
536.911
-198.762
158.209
98.8802
-730.95
261.216
446.018
-561.318
171.347
387.607
-520.302
156.878
-146.791
583.828
1381.52
1063.86
550.122
-1444.43
-1683.23
-133.285
-395.504
-357.892
97.6448
351.87
554.832
981.753
2538.31
938.994
2002.51
1885.08
-193.476
470.514
185.412
1037.77
872.088
-67.8319
737.188
273.682
52.597
-427.613
348.109
1044.91
687.005
499.923
793.453
-1390.2
-1046.01
-926.668
-302.547
-899.534
-359.842
-764.247
-206.841
-98.0838
200.843
1102.33
858.206
1066.05
303.382
773.38
199.347
94.281
25.4099
-7.91134
-516.271
-462.828
-170.746
578.332
1427.91
-60.5492
259.553
394.145
346.154
146.73
626.616
193.559
503.555
258.609
513.512
1150.62
1511.63
405.447
-369.189
-43.941
-349.942
-516.215
-1280.83
-531.019
-781.137
-166.658
265.507
-53.0487
-983.073
-1537.41
-672.833
-34.999
-404.647
-397.858
239.058
698.258
429.5
-721.067
-299.936
172.923
-16.6489
508.974
130.103
-378.238
-722.433
-1410.32
-266.298
406.151
296.694
326.41
-22.15
355.288
682.348
-477.692
-628.624
-513.751
-138.874
-505.413
532.668
-236.57
-880.081
646.104
420.06
639.527
374.553
583.927
794.163
818.731
1696.8
2521.53
2307.79
470.201
-493.092
-626.981
178.085
-31.9088
144.993
-344.707
437.346
971.178
521.915
-138.012
591.629
620.977
871.219
-113.747
2187.48
806.197
703.295
639.472
796.832
100.182
1013.3
255.634
114.328
15.6281
762.857
1206.8
1602.99
2539.62
686.9
437.143
1125.49
503.526
699.286
1961.75
782.53
457.043
473.783
-260.573
-1059.24
-826.378
-665.016
-1037.69
254.882
-228.426
-503.369
-224.149
197.844
574.607
769.791
866.155
670.202
774.164
422.841
-229.782
-366.809
-25.3725
-581.896
-337.829
17.344
556.023
-40.3093
274.513
-478.599
2.26547
-359.28
439.433
647.988
-21.632
-192.751
-99.993
-279.496
160.719
-126.054
-264.384
238.812
271.952
134.939
-145.381
-396.792
9.74552
-58.3065
447.076
277.362
466.244
167.546
-70.8161
-708.626
293.412
-691.461
-326.407
610.844
2502.27
2223.04
1323.62
154.372
498.595
-50.7171
605.594
107.359
323.638
-28.2437
-546.893
-309.872
413.447
429.229
-501.802
-351.092
-402.186
-78.3102
149.81
16.9654
-165.354
-382.403
181.285
172.426
1199.48
350.51
-81.7038
