-64775.7
7523.56
-50584.7
-7927.9
-192688
-50008.1
20840.6
294753
153309
-3995.74
81730.2
6236.6
-130244
188772
-145168
85493.7
-169870
-117521
-48734.2
-76841.5
-184597
-119554
-36634.5
-16634
-15411.4
-76211.6
9818.03
-68438
37703.5
-2665.16
10164.8
58985
-244218
-166971
-165015
76833.4
-120833
-44536.2
-140580
-2335.53
112743
98742.3
38789.1
-14598.6
-10374.6
491256
-4590.73
12313.5
433761
296996
-10351.7
-38055
10138
-86729.9
-275937
32686.8
125649
-9246.32
375.526
32326.9
33280.5
-14624.7
16543.4
-21873.7
62946.9
-114064
2230.05
-51668
17755.8
472593
-1823.48
-106150
37188.2
-42016.3
-13334
8851.24
204130
171491
-184746
-108066
59195.8
-248345
75946
-34330.2
110377
-13181.3
-22254.2
-93193.5
17814
-203838
256520
72420.2
4317.84
51441.1
-8188.24
52581
-7627.13
15500.3
-94567.6
760888
209348
-82752.4
30440.1
-227254
-365257
-2071.26
-71251.5
-27884.3
-30964.3
-30072.1
-24268.8
-175443
-77916
69356.6
6050.36
-20899.3
19949.8
-48372.7
-2642.68
-9438.15
-819.446
140950
47562.2
57553.9
36453.3
-650103
-174528
5844.58
10889.9
-53653
129978
42209.2
557274
168236
52950.8
47883.5
-14697.2
-60768.5
54720.7
-190173
-31927
-102064
28331.9
-20869.4
-446038
-14746.6
-20442.2
2315.44
2076.63
-177893
-68256.8
-26837.6
244400
-99454.2
-40028.7
-5507.7
-29854.3
29958.7
39020.7
70639.7
57556.9
34918
-41017.5
-59392.5
-3744.47
-66382.1
35842.9
-13169.6
-6525.39
17012
19823.8
-137838
-61175.7
-30644.6
79621.8
37356.6
-58411.4
-94005.3
-6208.54
56540.1
-69788.4
10541.4
-22749.7
-42541
-10539.4
-86712
16294
104848
171174
55680.5
344163
42410.7
319771
-17082.2
46516.4
31502.3
-32527.9
1212.29
-15533.5
39240.5
-248.067
180471
21179.6
16017
30385.2
59181.9
-168408
175099
-24549.5
-19833.8
71421.5
-10326
5535.58
-98469.6
-17266.5
208205
-39392.1
-71213.9
-25515.2
-184418
20452.9
-10851.2
-30283.6
-86791.3
-230860
-124842
129671
56535
-69002.8
-52152.7
-64462.7
42108.7
-333736
8042.4
-13113.2
6659.05
21127.4
-36297.7
-12650.1
-310257
-49769.2
53228
-60982.3
10159.8
5542.28
-148652
-40275.6
18255.2
16820
-12092
228462
277268
72258.9
142270
-13842.2
296904
103180
-155013
10197.4
-18558.2
-442395
-4394.69
-20624.8
-2028.33
-4465.43
-54910.5
45728.5
61301.2
33987
332254
-57569.9
-1.37171e+06
-118723
-14435.3
36410.2
17236.4
-105685
-65881.9
296497
46661.7
25823.2
-50752.1
44791.9
60239.7
-1285.71
106070
92900.1
-6772.23
40713.8
14913.1
-76439.2
23604.5
5469.5
-90015.4
-18186.1
175122
491.536
29112.4
-11213.7
62525.4
59531.3
-4524.57
-57879.2
-33986.9
-56029.8
7273.16
27965.6
3079.34
125007
-49236.7
10724.3
51951.9
197605
467457
-10895.6
-64627.3
11542.6
-168240
-83540.8
-55931.4
42924.1
257650
87775.4
-20831.8
50923.2
89280.8
-218584
-286310
-163134
9662.21
6758.33
-149998
-50340.4
65137.4
-2594.76
-21962.1
329462
-61253.5
-215633
-57574.1
13697.3
878.006
33787.9
175677
46642.2
132991
-8469.35
11589.3
62908.5
23347.5
222256
-6186.84
-63269.6
197489
35653.5
-24435.6
-175903
-143642
56248.7
5315.38
89179.3
-38921.8
6841.26
40593.3
120718
51941.6
-30824.6
-2907.69
-115370
1801.1
-61531.9
29426.1
-54025
-65571.1
-18551.3
-179861
120854
366059
120208
-15292.3
-42255.9
-36195.7
107861
130973
606.185
73737.6
-38890.5
49525.3
19346
41160.3
-26848.5
-58886.7
7162.59
45188.2
-235647
-549541
-37744.6
-56226.4
-38281.9
-40388.3
-91348.3
-78527.4
-64940.3
-50249.7
-516256
73694.4
-20815
5140.94
16199.7
35515.3
-24009.1
222619
367.326
26789.9
-95062.7
-59453.7
-116155
34093.3
44827.8
28481.6
22041.1
-120180
311749
224876
66519.7
167644
55791.9
459023
67079
20144.8
29520.4
-112487
52954.4
204491
-188069
76696
-92140.7
18480.4
-64543.8
42346.7
39182.9
399651
11965.9
-54895.9
75783.3
84134
38485.8
-50924.6
-208652
-8171.55
69748.6
36785.5
16630.2
-198620
295567
-3592.23
111606
-32503.6
-64896.5
-5612.57
8545.31
-149644
7040.61
-40404.7
36291.5
87261.4
37011.1
-207974
-79558.9
-232832
-28621.2
41697.7
18809.9
339110
-193629
-110581
31549.9
50423.8
6234.02
651.881
-49526.3
-223052
-149764
6447.03
-7829.09
-353571
12532.5
36910.5
71552
17481.5
39936.2
-34157.1
-5230.7
-26219.7
-39557.1
-12175.9
-134484
-2815.89
11671.5
-58255.6
113044
35644.6
-249932
98657.8
-24092
48137.5
70534.9
-181062
-94978.8
-27372.3
-202123
-303329
-16762.8
-48705.6
111206
222851
-131088
99437.3
-88020.8
-286789
71222.7
63720.9
24522.8
-23729.9
22833.4
7231.84
-174679
135263
18021.5
-13279
56432.9
-13596.2
34426.7
149199
150919
-535127
-68896.7
148917
47037.5
18739.8
-164171
-151590
-22707.4
-55431.6
-43051.8
114697
41109.1
-80646.3
39452.6
19948.3
-32828.5
89406
-42407.8
13989.6
108055
54310.1
170883
9493.2
80901.5
-18191.6
405902
-8743.99
42503.6
24935.1
238368
56927.4
-4798
39044.4
-49460.5
-184453
-78926.9
-209601
22061.8
-117488
-304193
60547.5
33624.7
-54089.9
-246125
-3866.26
8542.16
-68323.8
-100308
-94972.6
74795.9
42411.8
66138.2
9263.78
125533
14077
110250
-19936.6
19478.7
-86433.8
134318
73920.4
1983.45
15389
51473.5
3444.46
111149
-14156.5
96622.6
-54145.8
175265
39876.7
203896
37672.1
-75174.8
25709.3
89461.4
34390.8
-29392
4410.24
-81522.5
-179476
1942.97
9702
71052
-12082.4
-14234.6
-27444.2
36542.5
-27453.2
32538.7
239651
-70373.5
-14885.4
2819.54
14030.4
204570
-69723.8
-29538
-43518.4
67083.7
-44056.7
4111.04
2966.95
11996.6
-47476.6
19928.4
-3349.95
-91254.7
18115.6
-49675.6
-89896.7
-46411.4
-22393.5
243067
44700.5
107590
31283.2
16085.6
-9173.94
133953
-59003.1
15271.3
257516
26570
30353.2
112523
422326
106900
86612.3
-83037.6
-1134.78
-38485.4
-94829
-51984.7
163065
83536.5
5788.69
-8689.36
99024.9
47761.5
-115231
58794.9
402731
-50492.3
37517
48983.2
-37144.8
-80415.6
87792.8
90475.4
-5283.3
-23735.6
-22336.3
-48561.1
-193469
79674.2
5293.13
-447652
-236500
20994.1
-79428.7
-94244.1
-138126
-138254
-13081.4
43890.1
-51317.6
69493.5
-72329.4
57623.4
-311809
-103418
-7722.51
122535
-43708.5
27813.5
17609.2
-8456.91
-100203
-40123.5
16517.5
-21871
-6723.38
478590
212900
-3151.33
84873
-148163
-26048.4
4142.41
-153658
193274
93180.9
-220018
8345.06
148828
138654
443.106
104492
20288
-49673.5
-45640.5
-55419.2
18790.7
3924.8
-449249
-237476
54278.6
83378.1
45820.7
-99568.2
694350
1013.1
11173
-119412
-19632.2
58677.5
-81795.8
-132782
13430.4
40394.9
51711.2
113385
32487
25951.4
-47248.7
-122166
-4526.83
-2011.57
36063.3
-56993.1
41065.2
40444.4
1.02279e+06
32021.7
36751.5
162169
210190
108377
-19442.6
-22891.3
-36179.3
-64822.3
28539.2
59973.3
-83240.8
-112660
69705.8
53286.5
45994.3
-96224.9
162077
123352
319931
14879.2
26310.1
-13224.4
101769
-19144.8
-21261.6
4882.47
-20521.8
166775
-38291.2
44810.2
106042
4045.35
75426.1
24322.4
47797.9
-20052
-87008.9
217286
316175
-27237.8
169107
-81627.6
-29161
19918.7
59549.2
98990.6
321260
-31006.1
14483
41583.1
86187.5
-5650.6
236309
-47580.3
-66519.7
-55776.7
-26275.4
159685
-82221.2
210796
165801
33432.3
-65042.8
129829
-56644
-42471
-3937.09
-84443
-246962
-32173.7
-232468
242846
15667.6
-13234.9
-121700
199991
416555
96354
227105
107748
130951
35682.4
-49348.5
-7336.55
-124551
-149629
30182.3
39999
-69283.1
-5471.5
1518.83
57937.9
157408
-14374.6
-150084
10564
-39031
-60782.3
2030.3
223184
-31625
-135163
-20959.1
51843.5
162987
-40515
-4688.82
-51874.4
-41057.4
-90620.1
21958.8
1.11658e+06
254377
118280
74231.4
22286.3
-6009.62
22966.2
-144839
3676.08
-66898.2
15821.3
-12104.5
-93964.5
-53028.5
-45206.4
43567.1
122413
72693.3
-121443
33082.4
521.11
86440.3
17657.9
-30559.6
29235.4
131379
-32091
-141326
-67613.9
79638
229427
38981
110992
-15509.3
18267.9
-166850
59477.8
-974.803
-76008.1
-555105
26105
1038.51
68694.4
-1811.78
50829.4
54548.4
132893
176858
-79409.2
-30442.4
-124112
-40640.7
137399
-17201.2
19461.3
-29879.6
17258.1
-9541.99
145958
-120946
-80902.2
-379677
-5250.9
90568.5
-9121.28
-78424.5
21869.5
-73912.7
1289.98
250879
-15610.9
36883.2
213448
-25372.6
66167.5
-63335.2
-26964.8
-1610
5093.72
410018
-22981.3
155217
-84907.5
15606.7
322004
-112209
69441.8
-408110
-21336.2
45885.6
-27143.1
124230
55561
627.491
62046.3
183972
-33707.3
-26808.8
108202
411056
-203265
80417.3
-30839.5
11497.1
8878.11
-177952
-16339.6
-52278.1
-107720
-319478
69762
32678.8
30932.3
12140.8
-140876
1010.28
-97901
74748.2
-4716.82
-28732.2
-47380
-13982.9
2744.24
12166.7
159578
-63485
23891.3
-61444.9
17652.3
123230
240791
-44967.6
420187
-185.538
-237634
-35586.4
-377500
-33342.5
22491.6
-1288.1
3944.42
10154.6
-118112
-71892.8
-174211
34606.4
-65673.6
115870
-7690.45
-86219.6
79202.7
-134312
88474.5
-2479.55
-23598.5
-97158.8
-24633.5
-38532.6
49753.5
21357
-8505.04
-225565
128877
28855.5
2522.64
6771.19
23833.4
23630.3
-4134.89
87196.7
6792.9
150375
-112866
-17337.5
13026.6
-30678.7
237117
-50180.9
-67678.2
-90439.3
-61531.3
47621.2
-90987.6
-105140
21444
7384.5
-179505
49150
-18576.5
-121996
-20025.9
45681.8
169059
187945
40070.9
126292
-47474.1
16469.1
8390.07
-2192.37
-102552
9526.69
-2710.16
19099.2
28600.8
7218.81
707.684
-102238
-183404
-79765.4
-13738.6
-35723.2
39420.6
-10442.7
-50124.9
112123
32677.1
218339
6247.23
165508
-78529.2
-196483
-77004.2
-49157.2
120161
-56352.4
5598.3
180454
-3824.26
-29039.7
-14480.3
109225
181292
71836.5
-54529.9
4888.9
-85271.8
33234.1
-5071.42
-75541.6
23374.5
9139.85
17447.9
41347.1
-3654.65
38239.5
-132221
38452.1
29834.3
52115.3
21681.2
122805
193115
-34846.5
63487.6
60576
-13226.5
9079.47
22278.9
78151.3
1205.69
-32321.4
-665688
31383.3
-181423
100726
-6890.15
91734.6
-23204.3
-2179.43
123614
-46140.7
-155775
359970
-116438
-1441.08
-18684.7
-236441
13461.9
-1335.27
119235
-240012
-38204.4
194036
28229.5
-86210.4
107157
-46311.8
83707.7
3312.13
-49811.6
-51601.4
59240.6
29821.4
38014.7
-10439.1
114914
57430.7
11621.8
72244.4
-12523.4
38225.9
-152969
-34326
-92638
33087.5
-49790.7
332228
14967.6
-81673.9
19336.2
92296.5
198.359
-94111.4
31489.2
-6475.7
315909
44170
-3090.94
22661.6
63426.7
18507.2
-13725
125944
37610.6
-102801
106861
20262.3
-104983
-174771
3929.05
67250.4
102334
67050.7
148578
15453
207448
-587.217
-104194
-427098
-26738.4
-2740.62
356806
32516.1
-48518.7
444.428
10766.9
-12333
221340
-134360
-31482
-6621.29
51417.2
-315154
156107
5710.32
33724.3
16734.9
-71079.5
50375.1
475778
358.21
-93995.7
-72542
-6929.01
-32529.3
-139088
28270.4
-9208.32
-1104.9
117278
-24147.5
20563.9
-23030.9
-129250
193870
200220
306462
-42686.8
-76446.1
-100278
-36487.3
-269625
-54147.6
123533
-5822.13
-59532.1
-70135.7
60419.6
-149624
-46573.4
22857.9
73551.9
-167756
-58093.1
-31183.2
-16140.9
-39340.9
102232
-68308.1
-80436.6
-107702
10992.5
148192
73596.8
216977
-72156.9
-15416.3
59254.3
2897.61
114518
199436
-70004.8
-16522.4
-48620
50186.4
-6363.04
134277
147366
-98221.7
33860.1
-76306.4
64856.7
-4424.54
58362.1
-1840.66
-81561.1
84339.6
72564.4
437603
94280
-415953
-27405.5
-111647
-20592.1
-11683.1
25818.8
-20145.3
29183.5
-170641
42040.7
86797.3
87555.3
-24161.2
-9943.26
-200910
-908543
-937403
-1424.41
69841.5
66.5116
77640.1
384460
-38611.6
53074.2
-195192
81357.5
1236.13
-385278
264976
65977
42026.1
15201.7
117763
-345106
-94853.2
64049.4
-101711
4074.24
-23124.4
31237.3
104465
185465
1936.91
11084.7
-75337.7
-147554
93651.6
-47212.2
-2796.82
-66861
-91899.1
-64505.8
-123590
99769.1
-209058
-6701.5
43494.5
567925
85313.4
-89952
192972
73445.8
-239195
-35560.1
-50643.9
-33336.7
-12832.3
-242465
30805
-110125
23374.2
154986
-11068
386357
15123.6
20763.2
-73367.8
75016.2
-24619.7
793066
83307
-60175.4
-11835.3
-109261
42803.1
-57675
3895.44
254679
139855
-233930
153361
-8898.74
25351.6
35910.7
199905
-172908
-10237.6
11892.2
-26429.7
-21269.9
-81294.6
-253887
1941.11
32194
3041.96
26116.3
-88693.9
-44140.4
160888
-56953.8
-11775.1
23734.7
52386.4
-133804
62236.6
-104664
206126
5552.48
25212.9
53941.1
120293
-77972
33473.6
14171.2
8757.71
-53904.5
129106
45556.9
-34873.6
57554.8
50814.8
-133763
-156220
-22915.3
-493799
-16701.6
-24789
39948.8
-7489.37
91959.5
95984.7
26305.3
-81167.3
426375
269785
300120
9458.52
-25760.1
-60268.3
-568.164
-23603.9
16576.9
-2970.36
36880.7
8152.1
-1.08263e+06
-11145.6
-20447.8
-75282.9
-89475.6
-14028.6
127852
19312.4
-134680
11752.4
113515
81925.7
-30927.6
118386
-153038
42189.6
64612.5
-17384.6
198222
-131588
22635.3
-349788
226734
-219053
-223530
-64696
-32742
-23830.6
-13603.7
5448.13
77291.7
-27453.8
10019.6
76943.9
92153.7
19524.3
-163824
7063.61
-6924.08
66732.8
45146.3
262311
141182
-11933.3
9850.43
32585.1
-77959.2
65870.1
-89993.8
-102411
45464
-90971.8
37608.7
-52693.3
70889.2
-23139.5
13810.2
8166.46
-288035
13120.8
-67527.5
37543.3
33255.8
182150
2700.24
16119.8
-27776.9
48053.2
-31793.1
178376
-9751.5
-16650.3
52014.2
-24157
6473.53
171139
-146433
-269599
-153521
-99975.7
-42334.2
-174977
83182.7
-542.429
-19398.9
-75358
-92444.4
-48403.5
24709.6
-43071.8
59543.7
2501.48
-53093.3
134010
105403
96143.7
173139
-234603
97445.9
-36091.6
-5527.12
74365.4
67200.5
124162
-13385.6
189632
-76260.7
-104630
28893.3
-126309
-39619
54538.6
-5612.15
-11714.7
13293.2
-45096.8
97926.8
34211.9
19199.4
-129278
76645.7
63558.3
866.904
2129.99
-74179.8
-47821.2
-11861.3
-79413.3
-22593.8
-67801.1
43289.2
-20306.6
163295
12550.3
44742
312522
-27299.6
4546.72
1749.51
97241.6
-15022.8
-103932
-75241.9
70481.6
103264
-32353.4
-51636.2
17818.4
76837
-90265.9
-15439.9
-21496.1
-109066
3850.65
132140
-31525.6
-53567.5
307569
92260.4
-4735.46
548058
-105464
29028.7
51743.8
-27626.2
12682.1
56716.1
-178434
-47102.9
-18135.4
-20057
-12562.8
-170785
-29423.9
-120684
155980
127395
85015.8
-145272
-278.735
-35392.5
-101066
-64111.9
79421.2
-5210.6
37962.3
-1504.46
100429
-55025.4
113261
-174729
10523.2
-49660.8
169716
49697.1
-17117.7
-65687
-143005
64775.1
484081
160806
137469
-3234.41
439677
76037.7
-101455
51712.5
-13628.5
-57704
766.859
-24753.6
-53607.4
82778.1
-80268.7
95515.4
-43409
-50923.2
11365.9
-46069.7
-72280.7
-358135
-34721.6
-62664.6
24375.5
107871
167828
25956.8
133098
-1975.11
-86947.5
-59613.8
-228714
-17233.1
-59142
178367
46578.7
24421.2
3061.33
370775
51943.9
-27609.6
305752
722043
42277.2
224650
-381.891
-181220
79693.5
-91803.2
-109329
116609
-43828.3
42716.8
-122143
42180.8
13270.5
-43947.5
36366.5
9463.39
115185
75466.1
5131.58
33321.9
25519.9
63522.1
-8994.76
127677
36249.7
-30108.5
-49968
406826
-19387.2
106467
-149243
10427.6
65942.8
12793.3
-34476.7
-99972.9
29921.5
-142799
5065.39
-11729.5
-101787
-15145.9
13992.3
140913
645.053
30520.9
104906
90033.3
198.788
-49464
28085.8
87252.2
-233300
-28701.1
-82987
-42558
-272275
-12766.2
95311.1
178642
-525.451
30862.1
-142169
-270763
-295266
120805
-65906
302284
61797.8
-55594.6
-85043.5
-33433.1
-21651.3
60713.6
1.41404e+06
136100
-80691.5
49034.6
-37404.7
55541.3
-31925.8
-116824
7924.54
-28927.2
85152.6
106712
-45188
50506.5
-25767.7
120384
-281625
-39734.2
-68485.4
-77487.6
89572.3
-129720
-103629
63416.8
121590
108881
3866.1
29465.6
123415
86183.5
10993.9
-112583
58634.8
146045
129885
120293
134812
-138702
354529
-2681.01
143545
-14940.2
-109974
-13258
142797
47167
-27977.1
-65184
-290645
-273410
22937.9
-139619
-60654.2
38306.3
-59448.5
4981.25
-242327
43109.4
57798
-86927.2
-37353.3
-39811.7
-695516
-127249
71190.6
13107.9
61640.8
-44487
-102720
-13598.7
-87979.1
-541864
-33973.1
-88039.5
-331883
-54022.9
-14362.4
274000
-128084
-3323.31
-60866.8
-8890.8
32488
-26346.1
-85247.9
-120871
226703
-48697.5
184647
278234
-30545.4
-28821.3
-2717.8
154515
1203.58
-142926
48153.8
62543.6
-46393.7
-14135.1
72000.9
-157298
31485.8
535.776
-19898
-213891
-58183.2
44856.7
29070.4
31852.5
2755.76
-6432.92
40013.2
11489.6
-25836.9
138956
-218.353
-2319.9
23622.5
-536746
-132816
-2301.4
22012.9
-748.97
53632.4
-1764.45
-33800.7
46169.7
-98525.4
-23541.8
137705
-5670.18
-112626
-37485.4
-26008.7
-64250.9
-99322
-11270.8
-59066.1
-226624
-67027
53213.7
263887
-80794.6
23684.2
142762
-39257.7
220983
-15562.7
-1130.81
45061.1
-29677.6
469643
71960
-361732
-9890.96
-150981
-102793
85404.1
-51778.6
8109.41
92399.6
-31527.6
-17561.9
-194034
-32252.8
-75191.8
20649.2
147958
-306957
-29802.8
-62842.9
14373.6
-5593.31
-8950.5
24886.8
-27326.3
24512.8
4354.22
-93106.9
-48651.8
-69098.6
-101073
-8147.45
35532.2
-22377.6
-21173.7
106493
-3980.11
74177.5
-37117.6
26382.2
-6765.28
-3471.02
-24626
224620
-43880.4
-81044.3
162523
-15387.7
-41698.1
-103370
82063.8
-118255
-103385
20616.3
29235.9
66416.4
10533.2
20995.7
10100
189312
-86956.4
-117795
191021
109192
197296
-149109
-70183.4
410068
149329
233173
-39640.4
130269
18749.6
-74704.7
-17440.4
-2864.51
-7954.56
-193856
320474
-17834.3
10418.1
22731.1
97809
1574.93
19875
-77243
11179
-71710.7
114339
-133454
370245
590.288
-3987.02
-70543.4
-11584.1
-93034.9
100689
-476571
-60998.6
94596.6
10508.7
-19261.3
-65956
10253.7
116862
-116754
-321562
71622.6
105075
-65199.6
-84911.1
10399.8
107915
706496
-5216.63
62968
770.717
26217.4
-12687.5
74132.2
17587.5
15085.8
-49035.9
-33853.3
15191.5
-24453.6
-46999.7
140051
45732.9
62480.5
47198.6
-53010.6
34100.7
-92992.8
41875
34256.9
-25866.7
329148
129714
-15877.2
-92636.9
-84346.4
-18393.2
79742.9
-57417.3
44536.6
-32380.4
-313735
60225.1
34832.7
-98907.8
-53797.3
-32341.2
-191807
-730.685
-877728
167453
-79042.6
-110285
512205
198.151
6375.39
7464.83
-11294.9
-405134
-54434.5
217782
-72293.9
-87387.1
231506
11359.7
250113
-195886
46014.5
-196245
-340933
-114551
132162
58215.8
-109521
-106819
-264003
-23995.6
16301.8
-21168.7
2287.45
94905.2
37481.2
9480.44
-184400
-276.381
-115628
204435
19181.5
137161
-88631.2
1104.44
-95227.3
45061.5
-3509.45
-160773
-238277
-44184.5
48579.3
-18297.6
-77479.4
-13221.2
-36720.3
-14539.1
-24450
-306039
262758
77722.1
26598.7
-154668
-87587.7
-336342
-43413.9
117700
2728.48
-165916
45014.6
-297843
-48953.5
-31652
26061.6
54491.1
123506
21415.8
57183.6
164625
-14329.9
-378438
-247128
129077
-37208.8
-42736.4
-48824.3
2554.37
-2523.18
-324109
46806.5
-24866.1
-53774.4
-19312
-347664
144948
-25542.4
15863.9
316913
-70832.8
30245.5
-120722
6917.55
-93067.5
-263996
185407
31669.6
-25453.5
-83330.8
-551080
3201.82
-54129.8
-29361.3
90143.7
-20939.9
110695
49217.6
19884.7
-166816
129522
-27370.7
12483
29061
-22876.9
-128988
33645.1
145840
-17807.5
-95559.1
-46333.7
18669.3
-172945
70423.2
8270.82
-33928.6
-134762
-187085
65527.6
-85194.3
-68886
-15100.8
88379.8
-7150.41
-40301.1
21489.7
-164852
327123
-13340.1
-61157
51959
-4586.18
-62399.5
66828.4
115412
13992.7
62295.5
53002
27753.9
15706.7
-15337.3
37516.6
153414
6514.19
85499.8
-86302.3
40188.2
-71765.4
-173593
58828.1
-34723.1
57700.9
32672.6
-149600
-150876
-134447
4723.45
-156448
3343.1
-177301
66515.8
-159458
416830
-17455.7
67346.4
254237
12542.7
259333
-111953
-16058.6
-472522
124119
10486.7
-324200
-17930
-34854.3
-281043
28980.9
45688.6
-31569.7
-338112
98566.6
75480.6
-54117.5
-55622.2
41590.9
-95184.1
-25748.6
62892
-51106.3
81838.9
-6763.41
-4565.69
91372.3
51579.5
137728
49106.1
108480
155769
416191
-21127.7
-65868.5
1683.6
-179222
106404
-48928
-22916.6
-43902.6
-71780.6
239951
5213.43
-75859.1
-179284
8875.2
-19037.9
-158555
25955.9
34576.8
-130797
-53635.3
-64401.7
360088
293938
-145800
32020.9
-74306
28106.5
-7212.82
-90363.7
-10976.5
-58866
35457.5
19765.8
27144.2
2833.37
90404.2
39606.2
-66361.1
-255285
-123620
62689.8
9497.31
42524.8
142758
2921.7
-11015.4
-102153
-223289
9485.69
762190
56908.2
150426
-341.779
-33085.9
-4114.22
-51721.6
40200.4
-24252.2
-10833.4
104261
-106434
-14857.2
-105352
152633
186438
-149860
54555.9
87084.9
-8284.31
-191520
-16609
-1044.68
-394754
48392.8
245423
-73466.4
39203.6
-156670
-11631.2
-7249.74
38712.2
-73267.9
-7790.54
46908.5
-7970.15
-190381
-285892
17753.8
-285516
-113411
-23563.8
38279.8
-88985.4
173800
103744
-13514.1
-283532
60983
-138932
42400.5
108671
55729.3
-116155
-152324
18625.1
421920
142088
124506
58187.7
30045
182199
15462.1
160187
-64830.7
11663.5
-23220.3
56099.9
-35690.9
7518.7
224017
30640
-28698.5
102378
-94340.5
-127038
5634.84
-6663.11
-17225.8
195381
7671.49
-41950.4
-138465
-18159.5
-150812
22240.5
-6080.71
138031
-42800.8
-116014
52289
457538
17343.9
-41169.1
9090.76
95408.6
-20440.3
51303.9
65686.6
100157
-828867
330993
-7167.9
-122062
-22931.2
-80338.2
105868
93496.9
51769.4
-830.124
56502.2
10257.9
546.379
-256767
41630.3
-90812.7
-15857.2
32023.9
36872.3
6162.12
18471.7
-56110.1
-142413
-48491.3
62546.6
78328
-146031
71177.4
5661.4
-42890.2
6002.21
17981.8
-25611.6
-1184.11
69928.7
-35217
-29532.4
-41074.1
49413.1
5734.52
-177293
69923
-162.396
-611787
-172008
-60845
118897
51624.6
-53687.5
-78966.5
-133587
-39114.9
-55847.3
171603
4164.82
30242.7
8969.08
162064
22134.8
2843.65
30801.1
48830.8
-203179
80613.8
191608
-191624
240571
-11181
-58172
40482.4
46381.2
3310.19
-11720.2
8833.06
-21418.2
-42900.7
-4816
23316.8
-40019
-6989.12
-71050.7
55872.8
-50433.2
42160.6
-305843
-25576.7
74675.9
-14916.8
16977.6
-21639.1
-41386.1
-8705.09
-19509.9
-24902.9
-185960
119040
283032
83598.3
-36836.9
9762.92
-82871.6
4481.29
87102.8
92427.2
101031
258254
124506
54004.8
63644.2
412444
179202
251843
-20436.6
-94283.3
52920
-13051.2
-88845.9
32893.2
13187.1
-23056.2
25630.2
59286.4
-13319.9
136265
137473
-51636.4
-5691.61
-61695.7
-101635
-14229.6
24379.7
-14996.2
-15264.3
13799.7
117830
80021.1
86276.9
-136833
-87508.7
-39805.3
-77894.4
663.013
-70432.6
-66740.5
81379.7
-43316.9
-37114.7
-96444.5
-222052
221755
103140
-110128
145222
70087.6
-29472.4
-61199.8
-10360.6
-23811.4
21708
-64054.7
-12418
133187
-34568.5
145601
53378
-8620.19
-21756.6
8562.37
93155.2
-37505.6
113838
-255490
-84929.9
-329.5
30731.4
-77210.8
65301.1
21584.2
-1139.21
-28369.2
59549.8
46227.6
-74459.7
-18044.8
-101777
12120.4
70627.8
-21465.8
-22928.7
60446.7
-82035.9
-6940.99
-22175.9
-33774.2
-108737
163893
-102603
34584.3
152337
-43557
11691.4
-14663.6
33703.3
-138467
347276
-36776.8
-2647.26
-10071.4
-245767
37298.5
-1005.73
-57502.6
46918.6
-45721.5
-29542.1
-39398.8
68730.3
67073.6
-38641.1
96734
39491.7
-13598.7
-46182.1
-53509.5
238658
173234
147629
173800
-94318.4
-175707
73137.1
-36096.3
-5487.69
60671.7
29297.6
-344139
-83820.9
-102962
-20807.2
206614
-325412
-52375.1
-36497.1
-10922.4
-11390
55007.8
53465
-71227.1
-6347.69
-25089.3
6345.29
16848.6
32033.9
125718
-35994.7
-14067.3
12011
106892
-5233.75
-14568.1
-5799.27
-154990
18884.7
55005.1
26074.7
12545.4
-23092.1
142574
57515.7
-30138.3
-63696.1
16792.6
-138961
-206851
-215151
-39079.5
-53494.1
38324.8
-74578.1
22959.1
47636.8
11304.6
-8508.74
13907.9
34299.8
167353
-117721
-59472.7
155646
135912
23582.4
51786.1
99991.3
6804.81
-23657.5
97251.2
42689.1
566420
74183.4
-67805.4
-66253.5
90298.9
-34134.5
72887.5
150624
-4158.36
59795.4
9385.8
-12880.7
251883
19921.2
62424.8
25222.2
31601.8
85908.1
-199775
33784.2
4885.02
-16838.6
10070
115912
123864
240211
206296
-21044.5
-11072.2
198759
236705
242632
17035.5
-15427.7
32327
-34161.8
49662.3
-717.72
-225347
-137409
-95.9276
78960.1
332231
175481
37264.3
2825.2
-49195.6
269319
-107326
207395
205191
74230.7
111785
16402.7
245394
386625
163934
41158.4
-2492.48
79247.7
-12571.5
-215643
58591.9
107792
-217845
10971.4
-50127.4
-87527.9
-114260
6586.58
33385.3
-28531.7
-73444.2
153974
40028.2
66665.3
1199.07
126982
26781.7
15508.9
45919.2
49904.7
24244.5
129409
251723
-5779.58
64822.1
84247.2
-171763
-56049.4
-143093
18277.5
10004.8
-314977
-541855
17379.2
31743.6
197.766
-2786.09
494856
-202292
79844.8
-32806.8
-51160.7
-10567.6
-26523.5
28404
-5415.14
31495.6
-151354
-31452.8
-941.047
72003.5
68080.2
7997.04
391212
-18158.6
19103
-6019.06
-19621.9
-116571
-96461.8
-175230
-33349.5
2809.12
147825
15920.4
69637
-14771
-2068.61
15395.1
-295740
52861.1
165904
18925.9
-183211
-1553.26
-21101.3
-94.9267
5573.84
2554.8
57173.8
36222.7
-12539
-23117.1
-31506.7
-20862.1
4798.29
122960
59937.7
45391.5
78940.7
143926
67580.8
14496.4
506053
22207.2
76393
441389
-191445
-76501.6
-8110.97
262671
35562.3
25559.7
-78080.3
48801.5
-43089.7
14233.4
65320.2
-58964.7
-63160.9
-23125.4
7730.1
160590
193713
-156720
-15047
38589.4
-22976.3
-58152
-42271.6
39866.9
-140697
-116284
-60279.5
-46255.4
-114498
6602.41
173453
133489
106511
126549
86214.8
86813.2
252623
-80827.9
-1969.04
14067.6
135419
1293.25
-88378.2
-63262.1
-140407
-28527.3
58796.4
-98995.5
18869.6
127286
12001.9
240803
19946.3
29199.4
19754.9
-18606.1
119968
8092.5
-62394
215065
-12264.7
-40765.1
-35299.1
-185341
412530
56934.5
-84017.3
4426.75
-125059
160387
41306.3
3476.73
6555.15
62747.6
-102292
-145276
5992.77
2482.13
-13192.9
-55967
-67334.2
-52090.4
-9879.93
4983
26324.1
10094.6
293579
-31564.9
111342
-16023
190042
-28896.8
93545.2
-255944
95503.2
-5028.35
15149.8
-49135.8
-1981.82
65892.2
1876.32
-47514.4
-111663
-138825
-13893
-138667
-15056.4
165133
23600.9
-96417.6
-27821
9876.83
-11392.2
74380.7
75120.8
289798
34831.6
87904.6
16626.4
-130256
12719.3
-2231.29
-52738.2
-42689.5
-8688.89
-169566
-109773
-43750.2
-188476
59825.6
-454818
-211118
3793.73
-23650.1
-212198
39946.7
-150437
7790.57
-61816.3
287000
201334
180731
84025.3
-4954.83
21908.4
340598
18344.1
162244
-9890.76
1176.79
47901.3
-172876
148041
46499.4
35103.2
14135.4
41470.3
-381.43
-127090
863488
96223.2
7111.14
19948.6
73372.1
125403
-59068.3
12936.3
106167
-7967.15
17819.4
70482.3
222980
-273690
-20718.5
26398.4
586.203
-40039.5
-60292.9
54374.1
251140
222131
62421.3
-429042
-20194.4
-172630
-42351.9
30509.7
391745
193128
147452
-38780.9
-151900
47938.6
124362
71482.9
163782
-70310.6
-137826
-92228.7
-24104.8
124538
83329.7
-18163.2
78618.4
17745
45871.6
-29416
43008.9
12161.6
121011
71024.9
-148881
-108925
-13134.7
-86357.4
18119.1
-109663
-42127.3
7027.16
126639
-36473.6
-497132
80330.4
53656.9
-10105.4
-49737.7
-15484.9
-117681
-43549.5
-121364
-133561
42529.8
210971
128791
62229.7
-118473
112055
105664
-56489.9
-67991.9
-109588
-135136
-206085
-28706.9
-578980
38261.2
27994
4626.8
-17721.3
83396.9
-138571
-74196.9
-327218
-2616.81
-86508.1
4594.94
46353.2
87987.5
3375.43
4334.32
44695.4
367771
3999.29
17270
-62043.6
-8267.16
-34534.9
283610
-86520.7
356571
126523
-124299
-89305.1
48688.5
-22731
-30986.6
-33707.3
-51374.1
42556.2
-11502.1
-19060.9
39267
8032.47
-111771
-8399.57
-76455.2
18554.9
8104.91
4654.47
381483
-48972.9
-28678.8
-46464.8
-52326.7
-70060.4
-16571.9
-13750.2
124681
-45088.5
24846.6
207572
225361
9085.32
152927
197241
-496.016
-60403.7
10840.7
874.198
-102393
-54967.3
35053
-49018.6
6609.99
-28323.8
-1059.44
-52982.4
-13293.2
-22704.7
123522
17993.3
61239.3
-56396
97478.7
48475.6
6337.9
19713.8
166446
-57406.6
13234.3
-27502.3
63718.5
-243664
6982.88
41276.9
-80282.1
58389.5
-100358
-50759.2
203003
37874
-11314.6
74023.8
289636
162347
-17120.4
-337691
33202.5
183412
-37515.4
122763
-11326.3
11851.1
-32011
-213825
-8068.27
-52832.8
-682.436
-106867
-83247.9
133114
-169986
104301
-63300.1
1647.24
-16703.6
-2269.26
-8020.95
13126
41466.3
14248.3
35261.5
92196.1
-66519.4
-45230.6
-5566.59
49680.8
-5458.63
-17169.8
161157
92297
-207497
-281156
15704.7
20406.3
-61769.3
115164
34518.1
1467.34
-329162
-63640
-49012.7
-25819.9
58996.5
-37454.8
754.079
138087
215712
-131393
-188422
-501121
15265.6
108058
-32037.1
-37037.1
-40782.9
448491
-10639.6
-125080
28703.8
13067.6
84484.4
12128.4
-35973.6
117610
-110363
129386
-6436.05
499380
-25082.6
-13413.8
2853.91
291316
75243.2
-21926.5
5256.24
-52224.8
-126016
29117.4
-398902
10147.8
-115340
-72471.5
-227367
39295.6
-64212.3
5313.89
9185.5
-54257.5
-125783
6344.31
111574
12564.9
71750.8
3426.78
-5905.26
-24564.3
-104223
-52816
-1138.33
-56856.4
86968.2
-100199
-52925.2
1079.59
-7771.86
-13117.3
78908.9
32294.7
2246.92
-19418.7
-128701
25301.1
81324.5
-5928.26
108345
37717.8
84774.8
-4318.85
43569.3
65405.8
-5417.26
59056.6
-47208.9
-45038.5
-50932.3
-87408.2
-59730.7
-252415
122968
295154
116206
299037
114246
89228.5
-86935.1
13725.8
-46678.1
-87816.2
155649
95063.8
-157651
16013.3
23008.1
-84466.2
13593.3
-222637
-175076
121089
7696.22
34263.7
-22593.9
-30107.4
-242231
19218.2
12893.3
79449.8
51292.4
66360.3
-25164.3
3721.38
-113858
-44382
-56611.1
46712
-241756
24120
32063.9
-43330.8
503972
72782.7
-151595
29706.3
-423965
-718720
39320.5
193769
-472.334
46809.2
33898.8
-307679
-77206.3
-7927.26
-62965.9
-63922.4
-31287.5
247168
-2179.83
-12415.1
-39104.9
-33143.3
-21873.3
-26836.1
244991
-42953.9
5250.21
15602.8
-256885
-9145.53
21158.7
123601
40440.7
22812.3
8423.15
55286.3
67977.6
230385
28613.8
66729.3
-16934.5
-4047.38
72458.7
109677
49617.5
-15425.3
-197255
415942
94124.8
28676.6
-58010.2
-2980.93
-53988
66597.4
-42591.3
5396.89
-11303.6
12320.8
55989.6
-36465.4
-4006.44
-152223
-40222.9
12055
-81998.5
-79154.4
-11432.1
241705
40773.9
666.139
-21590
25558.7
61539.5
4521.93
-235041
57714
22637.6
-20695.5
-13362.4
49041.1
-32796.2
-2534.47
60452.7
-29935.8
-46148.6
337339
26500
1538.01
104061
9624.14
41091
-134351
19719.2
2413.55
237679
10399.8
-7156.72
-43297.5
86990.8
48255.1
-154383
322066
14568.2
42949.4
-325948
-41737.9
-495.326
36165.8
-6988.41
-116119
-198721
-79815
-110642
95414.6
34833.9
1139.51
-8501.9
39429.8
-90122.9
19657.9
-44344.2
4777.44
24094.2
-29451.9
-74210.7
39138.7
51555.7
-33989.7
-2552.57
22025.8
-27977.6
-165859
-34304.6
-34207.8
38430.4
98016.5
-1831.47
217953
-152916
-9551.28
-86184.9
-195666
71053.9
263445
30199.3
11895.6
-66187.7
93342.4
50236.3
-129475
-648152
-664.478
230298
-20404.3
-91941.4
-65158.8
-35141
32295.3
162009
139326
-11958.7
58673.2
140233
25146.1
-9667.42
-63477.5
108957
-65201.9
37798.6
182744
83735.7
101606
28465
13747
-67972.3
-17911.8
29203
102030
80350.6
62978.3
-10990.2
92975.6
28785
-49230.3
2884.13
30846.5
-13938.5
2926.03
-189633
-19225.9
-48228
52953.5
217158
-92985.5
1147.15
267061
-47992.4
39552.9
-10274
65477.6
-28577.3
78302.5
64500.2
31797.7
228582
-208690
84769.3
-117626
-41210.2
-47286.3
19155.6
84139.7
15448
177954
-52113.9
14111.3
2273.56
238681
-43057
40662.4
64967.4
51763.6
-63515.6
138890
153321
-14623.8
8243.97
246916
-14506.1
-51301.6
-99874.8
335577
-28403.8
199810
110427
143369
45166.3
141346
144794
-26626.6
20080.2
58045.8
72286.2
336949
13970
-302869
-133.407
-78432.1
120500
-290036
287467
66164.7
-103760
-88291.4
281513
50350.5
-260102
-194120
69999.9
2766.69
18490.7
-17570.2
-9020.51
71940.5
-33353.4
81269.3
407943
-47228.5
119558
47586.2
29241.8
-29538
-5725.71
-133080
-13425.3
33922.5
-5240.09
120979
29054.3
-269841
134343
-14542.8
52805.6
42117.6
-267317
16986.7
-63043.4
-12749.3
9716.03
-33783.9
48709.5
-19495.1
6092.66
207277
236586
-175197
-5378.02
69250.4
-74150.2
54206.5
-248367
41458.4
468980
172953
-39819.7
10518.2
89636.1
119264
192590
95215.6
79232.3
-23085
-39495.9
37769.8
93818.8
-194465
-128561
-71548.5
-1730.76
-20904.6
51548.5
126744
-65795.2
-175214
-20352.8
2641.79
-144217
7363.67
41963.2
173514
-12205.6
31011.4
3630.03
14088.9
1.05367e+06
-7885.56
-651626
-338492
-37127.9
-66631.3
17075.2
-1671.75
37383.4
-150497
28767
-62013.3
74063.6
95460.3
34999.2
-12747.4
-137765
143782
-9175.68
95129.6
-12075.2
-18127.1
-37374.8
812712
-35485.6
51468.7
-9399.05
-77924.1
87546.9
-14622.7
-2624.53
-155650
172290
53007.7
10913.8
42695.3
-11021.5
282299
161786
-10605.2
73123.1
-131451
-13605.4
132095
-138067
-83149.2
-139735
-189804
-114836
3088.65
659.365
49049.3
2929.23
264570
-195309
-6639.78
45167.3
-43931.3
-151512
-32251
5970.97
-7540.14
-36746.1
-59801.8
-81508.1
47754.2
-191572
108949
86843.5
4270.38
-144154
159763
50720.4
-64519.8
-100310
7121.32
-410220
-14417.3
-4943.81
-186244
-124984
-79542.5
264957
108776
22102.2
-72655.3
176317
27258.1
1555.19
-233881
43172.1
-119147
162593
194271
15088.5
-173564
-4153.27
51367.2
-2893.57
-50523.2
139286
102786
109709
97446.1
7084.1
-286776
85811.9
150862
-1527.86
-84344.1
7695.12
-13915.6
-248008
-9498.8
180870
-224653
-34786.1
-111735
24995.8
148464
196065
-7141.93
34671.2
35140.2
22248.5
42750.9
13480.8
-6678.52
48150.8
38631.5
-6451.36
34183
-5023.01
-6352.01
183643
48430.7
-35656.4
31281.4
64560.9
202962
53615.1
-10146.4
-254708
-159757
64981.5
-40757.4
-63004.2
63650.8
-24172
-17340
-116820
69355.9
19719.2
37152
87730.6
-42503.5
-6519.6
7532.79
96717
-21291.3
29884.8
11590.8
22015.9
70795.2
12700.4
57274.1
-47414
118584
793.084
43848.9
-361529
-59474.2
-495.353
1033.82
-28989.6
-102102
-26557.7
212114
2725.55
-60817.1
-58953.5
-107523
121039
5775.23
47665.4
97273.5
58390.4
-77070.9
3225.27
-107760
447366
6734.71
137753
101170
-26710.3
-45870.5
-62051.9
33454.1
6555.21
-33602.9
-19573
165442
306272
16343.7
80983.7
153571
-308875
76181.5
34622.6
-388938
13428.3
-18635.4
-27424.5
-100203
21875.5
262761
186649
-175749
5393.12
-36533.4
279018
-285107
-18295.9
19920.5
-43531.9
92092.6
-97878.3
75585
-13983.2
14310.4
145255
-51894.7
91611.2
-6477.95
-292835
66733.2
-46097.8
-52500.3
118033
-44250.7
33180.4
86081.2
-20589.2
-129078
2477.83
50437.2
-93706.4
17507.2
-97182.2
-46479.4
20697.5
24676.8
-57562
-90228.3
9739.48
27907.9
101591
60802.1
341427
-6953.57
20714.6
-104958
-105611
-35443.1
824.794
47611
-20333.4
-60916.2
-254314
-71787.8
70600.1
-375848
-9607.28
-125377
-30142.9
151345
99771.6
-11182.1
100572
35393
179075
-51289.8
24175.8
-26398.1
77726.3
27358
-19711.9
83384.5
-290206
-63804.6
-336180
93705.5
-41539.2
-53911.7
-80138.1
-142221
-2949.18
-69343.6
12707.3
-49107.5
-43684.1
-294794
73088.8
-40705.9
121242
-36406.3
256634
16788.2
-6157.62
9220.87
133043
147418
35661.5
-69062.7
-38984.8
27834.2
221901
44582.4
-39197.6
4720.48
-165382
-206479
-245719
154845
-14862.2
20912.8
26705.6
-26796
149638
97177
6102.28
-113267
-127652
-237528
-51187.3
33386.4
150176
-20083.3
-46775.8
-50036.5
10890.5
46253.3
2560.04
-5985.48
125284
44240.9
-433054
123775
8380.11
-50712.5
76355.4
-26883.7
46560.5
38675.5
94539.2
16353.4
-2254.11
105821
11305.4
47961.9
-21091.5
120578
18749.2
54703.6
-105480
-89886.8
-25358.7
135081
65735.2
48279.6
-23388.3
6071.25
68861
4660.4
53473.4
43460.6
-66778.2
-30675.3
79831.5
-30951
41211
-63861
-7577.9
27736.8
-128113
-2538.94
-24557.5
108020
12015.8
-109529
-68532.2
-64089.7
-794.943
139757
105772
33979.2
65537.3
-18858.4
-486013
50022.9
88573.8
-54184.8
-16134
28765.5
184208
-281626
-41674.8
-213587
-14425.1
-27113.5
43332.5
-75444.6
74233.6
114664
37583.8
-38690
-56133
8685.35
79479.2
-146715
-34094.2
-25903.7
21128.8
166557
-224849
-59847
139546
-29192.6
-44242.2
43276.6
-103841
-2771.49
11362.9
-18780.6
-92459
-111389
52497.5
289726
-33887.2
-158687
-61806.6
-55547.1
183380
-177964
201476
39366.9
13023.7
31182.4
3245.58
30490.7
-285010
47021.9
45121.2
-62512.4
154166
-16639.4
156871
-104394
-22425.7
-277033
-26971.7
-110192
-53087.6
248340
39701.6
113383
-394325
167498
-65130.8
-97268
35692.7
40173.2
24344
27858.4
-64438.4
253340
-16525.6
25084.9
48555.6
107745
24978.7
-484752
-308304
-75943.8
-27189.4
-14555
-107336
-56015.2
-4991.39
-20996.2
-44072.6
-9862.03
95733.6
24329.5
1682.6
-420689
18797.9
34610.5
-48631.9
-94446.8
-60634.2
53918.5
-18164.6
-21315.8
20924.3
24478.4
-73737.1
100493
136772
11722.1
134009
-77429.3
59642.3
35406.1
236184
-106423
-25938.3
-7329.01
-64600.3
-106796
-60210.4
-97472.9
-51393.4
111784
2339.85
7675.21
3136.47
72731.2
66594
-101144
-32111.2
16689.4
-134142
9594.32
-29273.1
-14255.6
-18470
56424.7
31657.6
-9840.34
37428.6
-205210
-187685
17715.2
-22615
-196740
-105864
-82379.8
-21772.8
-22436
-82095.3
39637.2
-91089.3
-41658.5
10894.2
-69199.2
-241266
-22526.6
-22495.2
237942
123687
-14836.6
34883
20773.2
-54223
-23583.9
-108810
-75412.4
-117581
-28946.8
26042.5
-47508.5
-1021.13
48943.1
61051.9
-60478.2
-221143
-401224
-82343.5
-384028
58413.7
21300.1
-64475.2
31033
258495
5294.31
-97218
12110.3
16486.3
-209688
-159562
171001
-3377
237330
101019
166033
-252661
-2692.64
-419791
39472.9
98359.3
207725
186869
6817.67
-11220.5
-626103
42138.2
-161987
-85680.7
210226
-36746.7
-73573.5
-75834.7
-48273.4
4881.93
68527.9
42701.9
131566
-39062.7
11530.1
14127.8
3271.55
-25776.3
-42555
5472.74
-57806.6
-52249.8
31910.1
-136651
-57665.4
-165147
142508
27638.2
-15485.7
-59458.5
57095
174786
277273
36771.2
50981.9
-11360.7
-140076
58206.6
-104441
73603.1
57743.6
-14723.3
-50333.3
311732
71557.6
36943.7
-13929
120894
712115
39492.7
25493.9
-17450.5
-64175
251021
76620.7
-22489.8
21917.2
-163579
-129139
190282
10951.1
-305805
-28347.2
-31593.4
233869
-83365.1
-735.801
-45900.7
-27679.8
133841
36287.7
42936.3
-889.198
-20628.4
-68129.6
2601.34
-58636.6
-212727
-45667
-59383.6
-93384
30679.6
-56750.7
106368
48625.1
190515
116149
47265.3
-163619
-7650.59
-28673.2
-8640.58
-67908.7
45185.9
121470
73286.1
133350
31250.4
144129
-33237.2
-21825.7
-207987
-31595.5
-2130.21
-6160.44
-19535.8
-1702.42
9302.05
98135.5
-199427
-436325
243839
168546
153123
371617
-41928.4
-176524
42325.1
15056
77524
65382.7
75591.6
63364.6
9949.22
-10580.7
134532
-105086
-235652
17141.3
97554.5
3295.02
-56507.4
14312.1
-125312
-1033.39
-14896.1
-64810.8
20237.6
-131190
10183.3
293091
-6627.98
-51971.3
17650.1
-89589.6
9901.19
14148.2
33185.5
-36831.9
-57231.7
153356
80206
-10478.7
49199.3
-47060.3
857219
1841.99
-15785.4
-206181
26978.3
-28889.2
81650.1
-87348
-141490
-186454
228515
45440.7
64470
123459
-555890
-24438.5
-98392.5
224921
52053.3
89347
48186.6
9945.85
-23716.1
-208720
-17210.2
-50512.8
-174782
44018
78233.2
32934.7
31518.5
-116502
-106440
20239.7
6532.24
-12950.3
27741
32926.1
-13608.8
-116395
-39003.4
17581.8
10141.8
-4826.85
-210750
49998.9
1100.16
-159161
5855.95
-9865.71
-108298
-62715.4
5606.99
-57475.8
-8695.34
-41113
99766.1
21945.8
-302015
19637.2
-6660.52
-18280.1
-21885.8
-95610
-67351.7
-30751.8
-60904.6
-110090
82487.1
-56966
155646
49395.4
159365
-146736
221448
-20608
20156.7
-13677.2
-23532.7
26284.2
154761
183488
-1943.32
-71611.8
-116511
65281.5
39080.1
151608
62079.9
-4891.26
-94087.3
-6071.82
-176165
-11918.5
87460.2
4133.09
-84674.4
-27705.1
47114
-4845.4
27442.9
-19335.3
104285
109977
29417.9
24643.6
-29701.2
-44954.9
-93017.2
-194789
76441.6
49752.3
21690.9
-38869.1
56750
-55945
-72469.4
8776.37
-66056.8
1125.86
-233332
-4465.02
17094.5
26505.9
-67513.7
29589.7
9837.43
203922
126911
77648.9
143498
104384
64314.1
301535
-210784
-75844.7
-193257
-47169.7
104582
10720.1
11416.1
176546
-38076.4
-215522
42333.2
228.582
63988.7
-34377.2
45753.2
-36310.6
92378
10861.7
155276
20961.5
136230
-35801.4
283591
22267.3
-139194
-10891.9
-138871
-19823.5
-23690.3
-171.116
-139607
129816
262442
-39206.7
-18839
-57819.9
-131615
-22034.1
-21422.5
217140
-23447.7
-21135.5
6256.85
58380.1
138731
106517
-58615
81731.9
-8802
-85837.4
-74022.9
84652
9992.11
18006.9
-67302
-7044.75
-469699
41605.5
247088
-110484
-119552
-33406.6
142721
4316.15
-29691.5
120628
1.09068e+06
-52035
83193.9
-124084
-54720
20393.9
19772.3
-65500.9
51045.4
98367.6
116389
70238.8
2485.51
-408340
-16151.4
-32500.3
-48348.7
24318.5
44674.9
-29199.4
474832
109336
-72756
106202
33148.7
-64392.9
-61066.7
-9779.15
983.556
-82967.2
-70978.8
-368137
-90181.6
240894
109887
-16988.3
-4798.24
-52823.8
538703
11215.6
95049.9
-26351.5
70685.3
34030.3
-1981.02
-163162
156526
37617.4
106109
-326271
-56502.5
-11116.1
-174482
-166066
109693
100304
63618.3
-182999
-35835.2
147478
218067
-17875.1
78459.3
67055.2
65355.2
-151703
135521
15602.1
-3715.1
-72678.4
-133028
46750
-153202
-194277
11257
87747.5
-28718.9
28501.7
140446
-15115.5
119930
18178.3
42275.2
22579.7
304334
15825.3
-90558.3
-5732.71
35560.9
-19173.6
55189.3
48366.1
-26462.6
83183.6
39577.7
-15052.9
-6339.43
52461
-62695.7
-20089.7
14244.2
-16529.7
-265757
54339.2
56473.3
116658
35147.4
-65742.3
-72577.2
-75307.4
-50152.2
38284.4
99796.5
-57116.9
-190088
-125531
-119500
91243.1
-40953.4
-89012.5
55374.6
-13612.4
-22643.7
247817
97949.2
-22594.8
-41628.9
-38600
92898.7
420.454
158828
34006.6
-65595.7
105072
13757.5
124023
-98777.1
1432.56
-3964.69
-33414
-70894.4
6336.09
-103082
134498
-52912
-56721.7
-104171
56673.7
23544.7
69078.7
-32844.2
-136564
-134242
-87266.6
-29725
-105687
104719
20167.3
-51635.7
15082.8
-58102.2
-22942.8
-67012.5
-90243.2
-165726
4033.95
-27585.5
99818.7
207250
2846.05
215.983
6192.36
-23061.9
-203856
45682.8
-57606.7
44685.7
-26708.6
-128822
-245697
-210267
11972.9
-34741.9
52185.8
-4422.11
36169.4
154706
-5496.48
-92648.6
-71034.7
-146607
24676.5
-196378
29473
-218132
-20067.4
24459.6
134348
18435.5
201778
8825.5
5178.31
-112152
-439288
-95296.7
-17641.6
-40365.8
53386.9
-138962
57661.3
-64513.3
-18195.3
29427.4
-24425.2
-10054.6
17883.3
-2800.54
-37453.1
-3999.45
-29274.6
28299.4
-55754.4
-34145.7
-287439
12351.3
-59344.3
-5037.7
100136
-207146
-4827.06
-31274.3
94739.9
-19913.4
309530
-42411.6
-41125.2
46333.7
22315.1
-194251
15135.4
-35319.3
222328
-16554.4
106935
100740
-427.344
-38423.1
25341.3
-56506.2
54683
44550.5
-83313
-2455.18
-33086.6
133970
53740.3
-115775
-105837
17714.1
10827.5
-138544
-137138
-5594.72
113735
-73214.9
199058
-144222
-14838.8
1.01154e+06
-44952
-163511
104028
60034.9
13772.8
30908.3
4615.4
-11142.3
-136142
-17186.3
125471
-50495.7
-118086
-362764
-128510
-94804.5
418862
-456910
66567.2
-238770
32442.7
114817
-22241.7
63725.7
-57305.8
10366.6
62708
-86900.9
-52763.9
35551.7
41596.5
133658
-13399.6
-279969
-63479.4
-85246.9
99841.4
12633
66223.6
-252360
-9641.67
8698.95
176613
85237.5
-78198.3
18487.8
-103852
-58684.5
18107
-266636
47566.8
65527.8
278561
-114107
-65836.3
38934.9
-41815.7
88740.7
-3704.2
-104148
16015.2
-54733.8
-11491.3
-188520
-216142
-121685
-44839.9
-566156
28964
824012
23282.3
475964
108006
185419
-142201
-52964.7
-1746.61
-14950
-63570.9
-299059
-63274.3
-44894.7
22287.2
45196.8
-16767.5
53158.3
-11064.7
50367
-1.00281e+06
-16345.6
-6936.67
-120351
27674.4
-22498.1
-14486.8
157960
50726.3
-48920.3
23016
-49392.5
-144095
32148.3
-81502.5
-66659.6
55408.1
-35867.1
-32862.2
-28480.7
-43384.2
-19102.1
-11432.7
-17884.2
-14116.8
-76370.9
-67625.6
-259045
-21443.7
185771
-111561
57541
26172.8
162784
-152403
-59700.4
-55306.1
-147771
32164.1
66265.8
742719
-32567.6
59413
-16422.9
7303.32
159.906
252790
255059
165432
-6861.42
-29298.2
-43971.4
-3145.44
-54271.5
61365.1
-9255.76
817.342
-3854.93
180943
179489
-109729
-8836.11
8100.44
-124886
-35943.8
108928
-134412
-1754.12
18051.5
101420
-342464
5731.05
38482.7
75369.2
64670.7
53395.3
18611.5
38719.5
14260.5
-98257.4
38342.5
-50765.3
-104592
-58234.1
-11941
-2348.61
-54251.5
-135733
-130064
-86605.7
62496.3
-40117
102368
-7457.6
-16952
-109040
-23465.6
298572
-222413
-9411.43
-100065
160255
-230477
-63905.4
-26795.7
-81215.4
80234.3
-208470
-163339
-26060.9
332.801
-16900.1
116208
22657.6
289059
45337
25299.7
5837.24
-115089
-95128.6
-7137.84
9953.6
158662
169585
77753.6
9650.62
5234.47
-53949.6
14866.5
53799.6
-20075.1
12020
-29218.1
-114151
5734.1
-120759
128341
-14291.3
-62415.4
-270584
105172
3934.85
-16766
-11540.3
3000.22
-20517.6
340587
-74989.1
83043.6
146987
14994.5
50855.2
14227.3
46229
298688
141002
42099.9
57810.6
98295.7
112469
-76596
-8660.48
59279.3
-8262.06
-9977.58
8254.69
-26015.1
-130769
-51462.7
-79922.9
54245.7
37611.6
57418.1
116426
-248246
-101359
60653.1
25351
-4650.5
10317.5
-27632.2
-1716.84
-15585.7
198315
117027
-26752.4
-25805.5
28776.1
-25616.7
-121113
-122120
-256714
-495.097
-128905
6331.46
-103696
-30809.1
-23056.4
188171
-227603
-67997.9
-23791.7
253722
38259.5
-246640
-42898.4
42163.2
92056.3
-36326.4
-188529
34631.2
-163066
35591.7
-282248
-3343.27
-1194.6
2024.15
-4743.2
129210
15707.1
-331912
-20915.2
-18427.6
-2107.81
-150724
-16895.3
44066.2
-102207
77252.6
-42059.8
-35191.1
86347.3
-24883.3
-123780
637.065
-24770.8
-11159.7
-48201.6
574972
-20904.2
73912.1
6732.06
-31845
205435
417665
72659.2
-21610.4
-40416.9
-115568
116168
-57024.7
-22609.5
-86554.7
91780.2
6443.53
-379088
71832.4
43444.4
4319.45
-3206.07
66704.9
-498596
-35097.9
-12312.2
-24178.1
-70215.9
-45366.9
-31294.8
-4241.11
22690.4
-13652.9
-108135
10902.9
-108071
-60482.9
30628.4
79893.4
134845
125183
-214664
-126587
-15093.2
45705.5
-5944.91
56332.5
-4181.39
-59379.2
68817.2
-96141.8
20119.4
-113071
-110260
-8498.11
-19572.4
92548.5
258251
-21448.9
-4607.86
-30128.5
-26709.7
-21016.1
245401
-81998.8
110660
-60465.3
34477.3
109630
141404
-126938
54116.5
159736
-4002.04
62445
121400
89887.2
-85671.7
-61613.4
234633
-26916.6
73719.5
388.522
203756
-21460.3
46284.6
193085
-46415.6
65139.7
-167592
69757.7
53900.9
21679.9
-239932
20777.2
-34431.3
68401.9
-170124
31376.6
-84251.1
79698.6
-25654
111285
58220.7
48632.6
-103962
-13233
189978
-88874.9
237003
-54497.9
-91021.4
-299853
62510.2
5550.33
-47998.7
49240.2
205642
18178.3
-7424.47
-7367.18
23140
87272
-22832.3
144896
-29516.5
91202.3
-709.852
271082
97035.3
-13040.8
-198651
-151297
187824
-6703.51
10107
23928.5
88571.6
-14289.2
11352.8
109427
519.884
-123306
-234718
79146.8
195066
376228
531258
79982.8
126591
-4328.26
-115697
-29081.5
-169894
-30685.5
87368.3
28983.3
-43422.9
191920
111148
62962.8
13481.4
-75098.9
-171179
95545
-79076.4
99565.7
242300
68995.9
50681.7
17538.9
-8179.63
-64597
-25367.2
19704.7
24582.5
-92099.5
73330.3
-141915
10636.6
54676.8
94925.5
-88587.4
-75300.5
-75911.5
61779.4
-17550.4
23817.9
-85609.3
-75472.6
229174
6229.53
-68674.4
-46576.5
60106.9
-247273
-22586.5
-375056
114011
17158.1
25358
347207
-82655
-103348
12089.7
30698.1
126359
-74803.7
133934
-21411.2
13058
136788
2036.79
70490
-37741.7
61662.2
517886
121225
108733
-309832
-54968.3
9712.4
61665
-17963.6
21431.4
37134.9
172034
55175.7
56232
70053.2
-389214
31198.7
69831.5
69610.4
60392.1
-68769.1
187126
-94466.9
33311.2
-77592.9
-17290.3
122141
-94671
17070.3
-110940
25558.4
19860.3
120740
-381685
-366931
84578.5
168980
147438
109987
121163
819053
32694.3
-104150
-36925.7
-261730
125517
-31363.4
78668.7
-67161
137950
-96746.3
294626
-42599.1
-240387
-118841
-4403.13
85917.6
-108119
-341998
20693
5912.59
12770.7
326695
11951.2
29537.4
9137.46
53515.3
-798019
-15047.9
-172868
234830
19782.4
-174415
-241604
63362.8
-142618
97658.1
-126128
-15984.2
61268.9
-192586
-114947
-230698
37960.4
-386732
-21384.9
-19898.5
45220.1
-163110
34342.3
-44183.6
55585.6
-269770
-90308.4
-503.92
-100344
54183.7
-69475.3
16166.7
76350.4
-245604
-49535.6
-59391.2
175058
59603.8
-244596
-632.351
-70338.6
14040.8
-19291.2
-85450.8
10320
-79139.3
73497.4
-22115.4
95406.4
112971
14866.7
-134577
-75128.1
-151480
64084.1
52486
-125829
234497
-2531.19
-10292.1
-76470.7
60755.9
67491.4
13479.5
14967
34233.8
1583.31
-258119
-745.314
-31752.9
-31692.5
-40900.3
215662
170664
-13751
56504.7
-73196.6
17517.1
-65453.2
-111926
31112.8
-573878
-76286.3
-10480.7
-85758.6
28146.8
-67693.4
-79195.4
-50914.4
-72392.4
61528.2
26067.2
89061.7
933523
109266
-13208.2
-2518.23
-3464.61
-1785.23
63908.8
-240229
17618.2
-26314.9
9968.62
62003.4
37388.7
-64961.7
43552.2
8824.95
8500.18
117075
-32068.3
39298.3
218774
-102839
-156159
34128.2
-64515.7
259201
188967
21832.5
188915
53552.1
-8998.12
-61952.8
35251.5
341186
189480
-137464
-19658.2
-49586.2
15729.4
4967.59
136490
31673.1
-169164
-602094
-378.765
50639.1
-98058.9
351746
140387
65405.4
44420.7
-45508.3
-118974
56274.2
71520.1
-34964.8
169134
88664.4
7273.5
145195
-182393
-557.136
90964.3
99574.9
-3388.65
-17463.9
-121586
-13782.2
-59288.5
169107
54013.8
67392.8
-77364.1
-31044.7
-114263
-7046.82
-167456
-86697.6
-176940
-39750.1
53255.7
-41655
-80478.4
-378095
192652
9581.19
-5999.96
-53612.1
-750210
-3702.48
31758.7
-92588.6
80256.1
12363.7
-9585.04
38128.2
-8092.39
-102232
-3870.9
4980.63
-39517.4
-36327.7
67554.4
356028
-75137.6
15039.1
75217
-103831
120545
106787
23840
-76438
37967.8
8915.03
-188578
-28939.1
-15477.6
171105
-60799.3
807.354
-189312
37463.9
92506.1
89305.4
90761.4
12074.1
-97571.6
5949.42
59256.9
566686
33575.9
-11036.5
13951.8
29173
27647.7
-202104
48877.2
-34018.7
-57616.7
68290.5
81866.2
53057.1
-63558.3
-15406.1
-49196.2
-20538.3
-107383
-22056.8
-10087.4
-9838.22
91223.8
448758
-155314
83436.3
-85091.8
74017.3
400998
105846
118029
-243285
136603
16201.5
154118
15351.6
-83611.4
-10864.5
79481
415480
-143087
-181344
-8952.8
22013.6
70790
-37351.5
-14808
16065.1
-481656
-9457.34
-9916.37
137129
-158344
14996.1
-74680.3
64870.8
4027
200052
-76196.7
244071
-61337.2
708134
-24399
78968.3
24351.5
62023.9
-8663.54
-22184.5
53869.3
41259.3
7231.45
-46031.7
-89373.9
27391.7
1949.57
-33280.1
-5665.82
-66370.2
-114260
112523
69167.3
41100.6
23925.4
-38856.3
153786
-5689.29
-633.782
33231.9
17925.3
16555.7
87806.1
-7254.87
-20008.6
14933.1
-60914.9
-206621
1799.41
-12799.4
-45988.8
16721.9
246179
-86938.7
-12663.2
231186
52487.7
-44311.1
57618.7
-18328.6
-224376
51282
11860.4
-80291.8
20385.7
-116238
-31196.2
-20776
61181.2
-94611.9
53871.3
-1635.11
94735
154232
28929.3
-324290
-52776.7
15231.9
266049
-76491.5
-105467
71234.3
-37.1011
43454
97032.6
-8204.99
196836
145536
-175484
-43305.1
590573
-81534.1
170768
-28262.2
32972.8
14104
22886.4
-259089
-19154.9
-128943
148948
-506.389
18661.5
-105569
-48202.3
-485474
-217403
23778
-183739
-172606
220.997
-184212
58097.4
-146.605
-43076
22819.3
-5334.51
149615
184686
-168953
-8916.69
-4382.99
229791
-388271
72362.3
18700.4
-84941
164081
80211.9
149889
96310.6
-105051
-74849.6
-292028
-70479.1
-4532.28
-82311.1
12839.7
-886.258
184630
51602.3
-63445.1
36181.1
-105897
-109724
4717.48
34788.7
-109601
-50226.2
-122288
49025.9
-14287.5
19471.4
-61823.4
260349
22174.7
-84793.3
34522.9
-39013.2
46857
-106627
-94214.9
-72008.7
33135.7
-80707
-13158.9
82057.8
77955.2
-23087.2
236025
71636.3
-101484
109847
-53813.7
-367190
-40571.1
-201319
-3276.21
-16062.4
-139463
-136371
31718
173206
-4671.63
39542.2
-31054.5
-400977
-17235.7
5137.43
-135219
-39921.1
-15777.3
-104392
-70788.8
2834.7
4775.94
183710
33825.9
68915.2
-18129.6
-33193.6
108812
1613.65
24467.3
59545.3
-127356
-10983.2
26172.6
21972.4
83973.9
70278.4
241433
3111.19
-29263.8
-93059.2
12796
-39082.8
69580.3
-5595.63
-359982
355279
-6453.41
262004
15304.1
-87909
-16513
-35522
-205968
47610.9
-89377.7
-4522.08
-53805.8
121426
5167.01
50951.4
32229.6
211165
-31365.6
-175229
34185.8
5726.75
-50064.8
-74504.6
25172.1
12156.5
-41508.3
-276790
33652.6
716.166
80537.1
313613
-23794.9
-57266.3
53041.6
25355.1
-24449.4
183108
250559
305775
42933
73400
-18513.8
53779.7
-135219
-37151.5
22246.7
-46540.2
19364.4
-28818
16708.3
-39851.5
-12682.6
-7242.3
188301
232555
378459
74650.6
-33254.7
-19135.3
-20282.9
-75182.2
54896.2
-35871.9
-62393.3
16809.3
-61040.4
-505588
-120160
71410
56810
-105937
-16688.4
-4474.08
-46128.9
17611.6
60334.2
13896.6
20608.3
44180.1
-51883.5
12189.2
-20002.4
11994.5
-34222.9
-49034.9
37573.5
83363.1
140565
84836.4
-13431.9
-241399
-348080
-838.804
70955.6
-12740.2
-172863
-240843
-13218.7
5488.33
72204.7
-3557.49
-116613
-31437.6
13685.4
85467.2
-14164.3
-24968.1
-1296.79
-23298.5
-222626
-9218.34
69429
23447.7
50058.8
108244
129240
-5789.84
78978.7
-33249.6
176188
206585
109533
-59875.7
-375399
-22049.7
255479
22834.8
-18527.9
-6457.38
32261.4
-22269.2
57366.4
-20746.6
-111005
80394.1
15655.8
-197144
-136813
9005.89
-100879
-76528.3
-27720.2
-170013
40508.9
-26302.9
25368.4
-174324
-223585
171580
-161970
1147.83
-291769
6149.25
94902.9
38627.1
-685.059
-848.265
-87784.2
-13706.5
37098.2
-54438.7
48337.5
-23964.4
-229385
-336582
-20555.1
-53287.9
-50967.9
81429.4
3124.38
-17976.5
-252755
-60026.7
-124095
-19653.8
91322.2
-87953.3
-3926.95
134634
-190847
117750
25206.2
-112516
-6062.97
-7594.25
99417.8
75337.6
98839
20637.7
5931.01
-25886.1
39446.8
38514.1
-126587
64659.3
-57470.7
27269.4
-139447
83290.1
71124.9
-154404
4062.86
97700.4
31378.4
-1247.27
-70571.2
51404.2
-43720.6
62417.9
-85748.7
444323
95838.2
79368.1
171616
53847.5
152683
-159448
123122
-2253.19
195316
-135840
-541933
-9187.78
-32561.7
-96414.8
33530
158995
-252015
9213.95
-8829.69
-65649.6
1754.53
-43247.7
40984.5
4495.51
-71113.2
-43555.3
117400
79619.2
68522.7
124045
-26915.2
211109
124081
238256
40606.4
4873.72
14624.2
11571.4
-68767.7
-60264.1
64123.6
40477.4
-23354.4
135000
-95272.2
-355841
-190853
256245
44534.7
-454110
111044
-19799.6
-1565.51
-113512
-295239
12914.4
-37381.4
142654
4086.81
-57029
-77356.8
-3207.11
108974
-13995.6
107911
5508.5
11299.2
-322949
59066
8181.45
-56016.4
60132.7
-145600
58370.9
-253340
164836
93766.2
42630.9
44961.7
-59013.4
134477
93784.1
44711.9
-11929.7
223239
-66707.6
-42695.5
-44400
3693.39
-79859.2
-17141.8
13062.6
141998
-1185.14
-343.531
8020.19
68947
-103077
133895
31390.6
248160
-15204.5
-17554.4
-115133
53086.3
31196.2
10929.3
-103750
-12181.7
-78361.5
-533014
-26497.8
-56594.4
131226
-4784.88
39745.1
267794
-52708.5
24094
-61870.2
168769
-49851.8
-138628
-157425
76308.9
14649
333325
146367
289216
58784.4
-113967
-16462.6
97334.7
4289.67
61803.2
-7802.64
120550
-12210.8
-109317
-241756
-33379.8
-13050.8
48188.4
-264461
345158
38486.3
-66231.5
-136905
11908
-4565.19
-82261.3
126587
109460
132695
40784.5
-13543.1
-162342
63111.7
55342.2
-43945.3
-59035.3
94470.6
-75436.8
9821.53
19961.9
26098.4
11984.5
59006.5
-29459.7
-743540
-334798
-192950
25347
484439
72349.7
-10382.8
73033
-111922
-48701.1
82239.6
27520.7
62874.4
-82162.4
150155
-79192
-53698.7
66696.7
-18246.7
-66504.4
-48128.8
350338
1297.92
223096
11355.5
-8887.91
144175
-20276.3
-18203.2
-167953
-78047.6
-50735.8
-31944.8
-8234.72
-43794.2
-21471.5
-55250
-29935
-113191
-64471.2
13782.5
-135195
-29918.8
-105821
-83269.9
-34439.4
113792
-22122.1
-54201.3
197742
487409
-87771.9
-1578.67
68279.3
-159902
16641.2
118731
447708
128915
80189.9
115108
-65856.2
-116537
23063.8
116647
68348.1
-32831.1
-160549
-199111
-110730
-8729.89
80845.1
-93754.2
-58900.3
51942.8
-190911
157060
-136.602
-188062
-58342.6
315579
27755
28126.9
-148549
-176656
142032
30467.8
21869.5
31784.1
-23.5571
118464
44148.3
-72582.9
-17862.2
64841.1
-46941.3
-103932
-79070.3
64216.8
7855.81
-5752.12
208100
-155889
235402
18743.2
-19314
-186528
286274
-53238.5
-10752.8
16392.4
-130582
20052.2
-53045.8
-93411.6
-62300.1
-526024
2459.46
-66122.8
6046.1
115724
22765
304747
-24296.5
200196
140845
55859.6
-76236.6
-58582.7
2683.2
875989
680612
-328012
138115
-107240
47686.5
9214.41
94257
19575.7
-160800
320126
93879.7
59215.9
13884.7
39114
698845
-21313.2
47430
24344.7
-1278.66
-84670.1
262880
19356.6
-75633.1
411135
11107.1
-124503
122702
-268801
-71681
-42546.8
20211.9
185387
-29826.9
76373
20084.7
162283
133912
231973
34849.6
19858.2
1563.39
61234.4
-20463.1
-48393.4
-60330.9
65460.3
39391
-106554
-23643.5
88131.4
47997.4
-99078.8
136795
6384.3
-23176.2
-253657
-4643.52
-5354.97
108135
-4096.7
-159358
20718.3
-2288.27
462026
-22075.6
352202
32662.1
4706.79
60901.5
20488.8
-106821
63742.9
-102848
494600
15256.8
177537
63062.6
31682.5
1966.07
199914
17889.2
-242211
61814.9
106231
67763.9
-72635.5
68062.8
78052.7
27101.8
-113621
180934
-20213.6
304495
144154
60044.8
54969.8
114861
4070.22
21479.1
93424.6
7386.17
-11619.8
-19162.6
15352.4
365.128
-41891.5
-127922
22243.3
-100099
-100673
121557
140993
-54675.2
-58488
83110.8
-51462.4
32289.5
104514
2280.75
285236
56461.1
29790.5
-136317
-17534.3
-4353.17
-20291.3
-2000.82
178750
662.888
37349.9
18538.5
15891.9
-97059.3
74718
43716.9
-91926.5
105785
11645.1
14520.6
89527.6
16565.9
-38423.4
93674.2
-255609
50478.9
-236612
-46477.2
-193812
231547
-44364.4
23937.8
-37374.9
-90262.5
-192867
-8116.43
-30893.3
-20208
183186
189218
-144465
-178839
-53471.4
-8171.35
167585
61976.6
-119312
75357.7
-71968.5
-48430.2
-23320.9
-16998.2
-85263.8
-1719.73
58871.3
60487.2
93273.5
-41826
-8292.28
15745.9
-38578
121548
144815
-454123
21747.6
-177957
108050
56421.1
53598.9
-168416
-132335
-128276
-4889.04
195218
186762
157338
3036.26
152372
-12220.6
394291
-2309.95
-62861.5
-3562.89
-6498.06
3914.92
52650.6
240246
-15326.1
29000.5
2849.45
-74309
160451
76946.2
11267.8
-45952
-32196.7
-211114
-59872.3
103565
-610.302
31850
-16235.9
-35651.2
-26921.3
-91856
-19814.5
93526.1
-82669
-18712.6
-27103.4
202127
-341403
33433.6
88503
37434.6
163357
-81350.3
-4201.82
-37834.5
120788
-38183.9
-78179.3
-37892.3
33027.4
-5615.59
-122180
-30595.6
5670.24
72410.7
-84437.5
65561.1
65060.6
-110309
174637
100202
-41708.2
-137003
-212154
172386
-60494.1
62831.7
114966
31705.1
114.78
68418.9
98996.9
98151.7
12743.1
-60709.1
140367
-124006
-25723.1
343033
63362
108777
161016
24148.1
-92550.7
58741.3
79950.9
5469.93
-202347
-75088.9
-65213.3
-23143
19971.9
-8922.54
91697.6
-146369
26752.1
-197922
-131440
37189.7
-690543
-227770
-74064.5
-21611.4
81194.6
45883
425606
64251.6
-81282.9
47655
-15046.6
75598.1
-35984.8
-89127.2
257420
13646.5
-119549
-242622
-73242.4
-216425
-8069.41
-89546
52458.8
-4147.03
16266.4
16246.3
-46929.9
72105.8
-169439
-34017
-120495
-304309
-67990.3
-33116.9
-92639.3
18713.4
-25440.4
193267
230327
-84871.4
-118836
14977.7
-114495
28679.4
-26299.7
-11057.6
153850
-30236.2
-40825.2
-114227
23322.9
13533.7
61722.1
-35987.8
115501
472525
-67753.9
29149.5
-19567
24683
-9054.75
-89032.3
138386
5163.36
44473.9
110105
306297
48739.1
4989.67
193607
93891.7
-21091.7
49122.6
-44927.8
-23235.7
65656.6
53835.7
660.131
11614.5
79752.5
-69048.2
1018.77
-24487.7
43160.7
13460.3
85998.7
-98179
16177.9
127827
-22766.1
-43156.1
-52888.5
-26615.7
23066.9
62932.4
-2355.35
-100689
96200.9
-2811.68
-9821.91
-78088.5
-188172
-51123.9
6526.01
-99366.5
-35730.5
126450
-58655.3
73857.3
-7844.15
-35466.5
124921
-80411.3
38265.1
6455.47
109351
-54403.9
-17835.9
87340.5
135181
907.14
-13935.2
88332.7
10542.6
-142254
-28467.3
23685.8
-95591
-72488.3
-28254.8
-2087.37
76594.7
-15701.2
277.208
-145480
-361020
-65038.8
16106.9
243592
23273
-97524
75771
35315.4
-39670.2
79167.8
-63421.3
-32052
69384.2
4687.04
52285.1
10804.2
32383.2
324228
-26463.8
-49579.8
-16213.8
362334
267536
91770.7
41765.2
56488
2749.43
174162
149108
-9887.36
-27295
249694
-2571.59
16721.2
207708
109345
152161
459258
19504
35312.1
20375.5
17488.9
-307744
-103699
40173.7
-23897
-26174.8
-49573.1
-59261.5
-23828.5
1713.35
-30876.7
17332.8
-15724
-339037
124411
114768
223358
-26480.6
40871.9
26495.2
-181028
-21620.2
49944.9
57633.9
34259.4
-7050.65
25276.2
18049
41631
19261.1
15552
-18395.6
12724.9
-20376.3
68018.6
155276
-163405
35209.2
100404
-3985.62
95534.5
-793.71
-274048
-78609.2
-67142.7
-45302.2
24740.9
26934.3
59522.8
-24999.8
54655.2
-400267
-165900
1941.18
-45976.2
-30534
-97684.9
-99057.1
-81169
-240652
-7077.64
-12801.1
-26777.1
-38608.1
253690
122221
66705.6
108810
11264.7
44486.1
106209
133714
-4387.05
18058.5
16993.6
70550.7
296.854
-121395
44824.2
42275.7
-43137.9
201896
3964.29
49674.7
-59339.7
-48829.4
-46368.6
22515.1
-232091
1641.18
1047.88
23956.1
-25834.6
-96874.9
-120948
23611.9
-23758.1
36237.2
-1611.96
-278395
-10031.3
49968.8
-40789.5
-80196.9
-47574.4
-61007.4
63686.2
403000
590.469
23107.9
36951.1
53354.5
-43136.2
-26998.6
102401
-30984
-28283.5
41056.4
-13719.7
263.839
-59602.2
28877.6
22412.8
124181
-70014.1
-5048.82
-36958.6
139993
23632.8
70435.5
136512
2584.28
89933.6
-3765.39
-168294
-17813.7
43942.1
-2670.84
18962.1
-23587.5
76539.1
-35878.5
18999.1
-35270.4
15668.4
-7524.79
217608
132800
27357.3
30018.1
38274.8
46634.5
127987
-59256.9
-50610.3
-68478.5
151982
42432.6
-54060.9
-170552
-155163
-12014.8
-22466.1
-71393
-135466
-5136.28
69207.3
1141
162633
161425
-81913.1
-87454.7
-39292.3
-11578.7
88215
-5107.83
198051
2584.91
25777.7
29474.3
53335
32024.3
-385676
-7811.78
-39346.4
96734.2
-35509
6621.25
-146363
-1812.36
-88948.7
273859
15180.1
6446.42
-160547
20194.1
-45352.8
38883.8
55360.5
-3699.43
-30880.6
-177129
-60753.6
-214284
25628.7
48410.6
48113.5
-94291.5
5169.86
5777.93
-17358.6
-45004
-209582
-91180.2
2077.33
384.97
107742
24829.7
56911.8
110800
260046
45035.9
45554.5
376328
92660.5
112847
-344612
-11104.3
-30037.6
68728.8
-85203.6
61314.5
27242.7
-7138.59
-38454.7
-11670.8
-36093.8
1145.22
169713
158122
32224.8
-141211
53813.3
-89649.8
249719
17886.2
-284597
-55261.7
111392
-1803.27
-20190.1
35992.3
5663.86
50463.7
68443.3
82365.1
105763
-90209.1
76159.8
1868.26
10899.5
-638976
-142004
-149875
-130802
179362
-166575
-34240.1
81381.1
-6326.16
-5414.18
16488.6
14015.7
-61650.1
-26675.7
9173.6
-18725.8
2723.39
597038
101247
-219519
50223.1
-5136.13
30709.9
-14338.2
56612.6
-142165
-25821.1
144369
36031.8
-104948
-227803
-8884.4
93261.7
-48989.9
107395
1261.37
-4257.72
13362.2
99654.8
-92897.5
68104.4
14038.6
2461.53
-18949.1
-113093
72360.6
44263.6
116003
-26250.5
84515.6
52508.3
2736.63
15215.2
-13192.2
-127783
-69910.2
189512
95505.1
39639.3
94196.8
67987.3
99142.8
2857.23
25453.1
2910.71
-32162.7
-26485
51514.3
-3238.68
72132.5
-18604.5
-8761.2
13257
-103642
-21900.5
56262.3
-187700
-404086
-25223.6
-151347
12067
41395.2
30663.4
-73719.8
46021.1
90026.4
1329.06
-24138
-14648.6
-9154.8
-84071.1
10588.9
274535
-64278
-6614.97
69731
17172.9
-156782
24016.9
37611.3
-107041
-21709.1
-89291.5
45509.8
-70349
-6022.56
-22605
-67024.2
21375.4
-319529
9460.65
-63414.1
-26267.9
-432428
17715.4
-47559.5
-19078.2
-178014
164449
-35022.3
-115887
-92597.3
-17291.7
-16241.8
167610
56785.8
86072.6
-24860.6
-88945.5
-36986.5
99139.6
-109543
14622.4
-6597.94
47121.1
-72939.9
-12909.9
122358
20470.9
183020
24315
-122161
-168605
-30197.7
-88767.6
4170.55
-174737
30469.7
-30725.4
-30728.3
-148182
17381.9
-25816.9
-41603.3
11856.8
-111515
-4239.4
12275.7
117284
-116045
2018.28
4458.59
23982.3
4138.48
-43195.1
160000
40238.6
75633.8
76724.6
4364.89
-156914
-46927.6
35015.9
69554
-111109
-98897.7
629521
-1633.68
-61072.7
71459.7
-207760
59275.2
-16249.6
-214551
-831.781
48744
-45225.8
-19173.8
110094
-11097.4
-49336.4
111650
-8571.94
-15126.2
-14041.5
33670.1
258723
21290.1
111275
61848.1
30900.8
-2137.32
6446.76
-73215.2
27166.5
80207.6
-62396.6
-93560.6
74661.9
239943
53302.3
-10196.2
-215907
45510
-45229.7
129373
22303
-2170
-144743
-84126.4
-36419.4
-96057.7
-26274.1
1040.16
15768.3
132092
8655.87
57121.5
75266.3
-35202.2
33778.2
649.036
-321010
-6908.23
-433047
-23527.8
-25358.3
56154.3
-47074.5
-396745
-2767.6
-17801.2
16908.4
-154790
178.532
-9414.96
-81306.4
-91606.5
-455337
82766.5
-256150
20423.9
113496
-52475.7
-72104.6
52004.7
-148233
-100517
18579.9
-112.622
-50078.6
-25820.2
-28203.6
-10111.7
-405.21
-160387
84987.5
-32463.1
33726.3
15874.4
-18620.3
-29268.9
29433.2
-226999
-109493
-27382.1
30610.9
24734
13028.3
7157.21
209298
66564.7
14153.7
144845
-253765
92960.7
32405.8
7769.38
-9661.92
-45762.9
56708.7
-41100.6
-62554.7
62537.2
-182881
95799.4
-48608.8
65120.9
7239.66
-111251
131167
100929
72528.6
-107090
9129.83
-5714.38
-122365
-25254.9
-13195.3
-96005.5
-63077.3
47096.9
39467.8
-34122
42085.2
173360
59009.7
90157.3
1205.12
144137
6404.25
344802
-160659
8630.76
98790.7
203840
40358.1
24635.9
124871
94424.1
-775546
-171036
-17359.5
-90059
-402071
50358.8
-24159.2
-5471.9
-117042
-2616.21
293.049
139782
-25526.5
73336.6
-39861
-20508.7
-58111.5
47372.7
88048.5
117581
62431.9
-264339
-41404.2
214636
-50417.5
-13158.3
-77269.2
19821.3
-129051
7.56176
-59091.1
68629.1
-89853.3
-318131
252695
-177733
-5577.43
6996.79
1296.06
-51407.5
3485.59
40268.1
-200074
-30399.9
167868
-768.058
-10993.4
104720
22803.9
56418.3
-8222.27
320327
193942
-13524.7
-54458.9
-39686.9
-202172
4467.9
251014
-60168.5
68681.2
-47997.9
-275648
98367
25286.4
30288.5
3709.42
31450.4
-27115.7
-63479.7
-42950.8
-30680.4
54704.5
-10710.6
63195.3
2784.9
83404.1
190784
307242
-32352
-4460.75
-19780
38349.6
-49522.5
-4157.58
-10539.8
-12396.5
-53302.2
2114.46
135773
10961.9
-143318
29613.1
55959
-473426
-34901.3
-94655.9
-14843.2
178551
-985.44
83089.6
35676.5
-17570
-9395.19
81068.5
-10681.9
-62544.3
69634.3
-188.655
305377
-277566
-76622.5
-116206
-21682.1
65945.3
-63908.8
-109868
-40501.5
-242184
42450
-222059
-189611
-3755.16
-58265.5
-338673
-58937.6
-359144
-11372.6
32486.7
44990.7
501492
36909.3
9888.59
-394554
56587
372633
5791.06
62472.5
-9961.17
8164.37
68138.6
7941.13
233303
33264.2
33444.5
86983.3
-248502
-164056
26971.4
9635.65
-123315
-16585.8
60094.2
106065
56736.4
-14020.8
-337243
-8190.53
59149.1
-60026.8
38327.2
-42513.2
-23502.6
44706.6
46883.1
59710.8
2218.64
-68166.1
15108.5
100006
101578
-38135.1
76497
-43753.5
-182240
-35535.2
-21775
12733.3
52471.5
-63949.4
108469
-50454.6
41507.1
2969.99
-20608.4
8378.47
-189072
-44621.5
171827
-31032.5
4471.68
108864
40485.1
-184957
-26595.2
-44889.1
-388554
7510.93
38913.4
182044
3340.96
-16480
-29781.3
-91588.2
82607.6
73108.4
58728.5
17321.6
37115.3
14451.7
97208
41925.3
-237461
-52604
-28202.8
-96495.8
-282274
-94094.3
15330.2
12635.6
239682
84911.9
-38135.1
-35146.1
-223440
-41156.4
-168396
-7482.33
82156.5
-18474
144878
-76464.9
201180
26156.3
-14062
132974
131707
-78678.3
273427
117357
-21213.2
59662.3
-83951.8
-155042
-86480
-106226
142546
80894
16695
31792.4
35695.5
-70607.7
-142848
164080
-86541.3
-247279
5987.24
139855
-174891
-6727.73
-49321.5
-106451
-122731
67050.6
-130634
10794.5
-82930.4
23225.8
-35859.1
-381863
68288.4
-175712
-68726.7
73907.6
65174.3
-105935
-33655.2
-11730.8
-75852
48026
61251.7
329764
-31193
6470.17
89669
-78941.2
1675.66
-144539
11448.1
12677.5
-42899.1
7104.21
-214773
-216617
-3198.31
68232.7
-120163
-19923.5
17314.3
-65649.1
-41504.2
305.229
-53536.9
-86438.5
1161.01
-29532.2
-13150.4
42239.5
-195429
98424.4
-35759.3
-9419.69
41257.8
6555.19
-26155.7
187543
70673.8
43707.3
-279040
108303
-38418.5
29806.5
23620.6
-99654.5
96121.7
-186270
25393.1
-211056
14971.3
-17475.6
46851.4
190016
89095.2
-54047.5
-8675.35
44034.9
-69754.3
-207936
-179.213
40107.2
137540
-60347.4
16223
29689.7
-122024
-53177.6
75790.5
-92305.4
-29880.6
19321.8
-22893.3
93520.2
20099.2
-56307.9
15092.4
-6157.33
-12216.4
112753
26341.3
-111665
-248205
-21143.1
-74849.9
157293
-68303.9
20400.4
68791.6
1601.89
-179646
81429.7
91755.6
52136.2
75363
58094.1
-18323
-2437.13
11897.8
30677.1
117245
-81613.4
103341
102473
-109386
51847.5
217366
-87965.5
-74152.9
57771.4
142392
-107704
-77513.4
88673.4
172784
-89155.8
103520
16264
21222.3
89287.7
152873
-97981.4
-66511.3
-37364.7
9161.04
311149
94774.4
16523.8
160909
42259.4
-220562
30699.8
-57189.3
-22699
50747.3
9090.68
-105084
-107054
-27265.5
7311.91
-12209.8
-8260.88
426867
-88068.6
33699.4
-15243.4
19507.2
-73800.3
-123992
7297.53
-18571.9
-32696.3
117267
75640.9
-1.1657e+06
-70435.9
1826.42
-7217.83
101990
-5491.08
186492
117969
49349
-67482.5
-7789.56
-59248.3
-181374
42467.1
205573
-41712.9
-42162.2
4072.52
-1415.22
41035.9
-10308.3
-39211.8
-49659.7
-245175
-70307.5
-15285.7
45068.5
-25169.6
54369.6
138926
-6361.05
-54490.4
50107.8
3551.67
-30645.9
-29478.9
18529.1
151894
2274.27
-52357.9
27668.4
-34473.5
26235.5
125068
66072
31530.4
107213
70127.1
-151735
-185891
104171
65510.4
-20102.2
-204153
-296167
29372.7
146550
156961
274194
15411.4
16103.3
-63590.4
60991.5
55232.9
-218223
-121879
156349
167451
53554.6
-268958
-50266.3
-37817
6445.96
7885.96
60887.9
33666.4
201044
-20492.1
23098.6
-88292.3
31707.4
-114262
-36983.7
40038.5
-343.977
18894.2
-58524
-227416
81173.2
23533.6
210089
-35837.9
26156.9
-15805.8
-108538
24717.5
-413211
172.616
-38276.1
-7588.57
-11712.9
123229
-1729.56
24032.7
99740.3
5644.25
10268.7
15246.3
-429527
-114281
384371
61405.8
27779
-50829
-8240.5
53316.3
-74719.7
-27724.8
-5063.4
-25205.5
-70802
-150226
260381
-14141.2
56876
10540.3
-18511.4
62061.1
-21132.9
-656.91
-53632.5
-11563.1
59509
430451
-60568
-33828.2
107297
-11715.7
-52943.4
33383.5
27517.2
161054
-161452
-33730.8
32839.5
7225.55
-10939
-46898.5
72514.5
123503
137188
8335.75
-70757.2
62463.6
57855.3
-121149
-46538.6
569009
-7929.81
-150758
133079
-11208
-22987.4
-103053
65195.9
142668
-16317.2
-140251
-44202.8
49472.8
2867.66
-66873.5
90200.8
19021.2
136462
-470693
-8526.22
21275.8
7787.76
141019
-168798
-81928.9
-8880.44
-118559
-32982.5
-116902
124757
3651.16
11147.7
-282.668
13293.3
57661.3
48564.6
-412178
153006
-44136.2
-22485.2
78220.8
-64924.2
423112
606725
68258.4
-36554.6
-34918.7
-12939.9
-85979.3
78637.7
-25634.4
461414
-20657.2
-344731
413637
-71359
-117453
14476.4
-186667
-6227.95
27321.4
-35981.4
116478
18454.7
-514612
21614.5
102896
68693.5
67587.6
-187915
-102132
23774.2
-36486.8
-42872.8
29153.3
-23459
38863.2
16478.6
9927.94
27718
530078
71131
-128400
77279
-33678.4
-111310
53643.6
-104405
486179
-76741.3
369705
-129196
-18179.2
-38956.5
31948.8
26611.2
105784
-6259.71
-3909.38
53703.1
1032.61
-25684.3
29432.4
-59396
11938.7
105539
52415.2
11851.2
18384.7
13457.1
135956
-67437.1
35654.7
42412.3
15522.3
-132789
304342
55913.6
-48253.6
24515.8
155174
-189341
-261761
-80195.5
-6755.5
-26717.9
-152584
2221.42
49517.6
-95767.5
-103618
81291.4
-25514.7
-30582.1
43757.3
110437
-26503.9
-85488.2
146193
184568
98955.1
25445.7
-18220.3
-27018.7
36728.2
54896.9
15789
-1069.3
-136545
54891.2
29046.3
-154808
298888
11082.5
-3557.8
-25334.6
-8200.42
41432.4
-5051.31
82394.9
51547.8
446518
115882
48814.5
-33267.2
29469.9
2386.02
2993.43
41767.1
-24421
21721.1
-70857
-10684.7
-176771
239195
-61207.2
144670
-34993.3
-49718.7
123915
-126924
-2095.87
-84877.5
-31957.6
40956.1
337325
-5604.04
-75719
-40375.5
-13255.4
81332.5
31400.7
29163.3
16176.6
16020.6
184823
-125287
-28851.4
-5306.93
-24891.7
-80783.4
-47479.8
36908.3
89293.1
-154117
82243.1
-221990
79321.8
-4431.02
21530.9
-9349.02
-66308.3
13612
-17713.2
-13313.2
-122454
-204215
-25531
-42778.9
-153714
-101748
-54399.7
39464.1
-85242.6
-4497.24
-24044.9
46940
45401.5
13865.4
-157703
60600.3
3490.76
49183.4
10789.4
-30052.1
-4394.47
48315.2
49266.2
-12972.6
-201718
10301
38137.4
-13663.3
123589
13684.7
34384.3
-47984.7
107231
27939.4
-18140
132632
-56264.4
136679
124492
2865.1
5258.97
26651.1
-53491
-51226.2
26772.1
60648.3
-112531
73855.4
92981.3
49607.5
-85269.7
8324.45
58523.3
-29966.2
-70401.1
48867
10730.9
-304512
-117068
7815.94
-53765.2
-80969.1
23829.6
-145863
-87222.4
53559.9
-42618.2
-136179
3621.83
-328996
-66396.9
-79836.1
131857
117107
-22385
195875
40152.4
-124907
-63974.1
2067.51
-285191
-116064
-12720.6
43256.9
1016.43
-261.804
715.778
45060.4
14152.1
64802.5
-1682.5
319692
195582
73681.2
40078.3
37252.6
-275922
134759
199432
98089.8
-7994.76
-115322
-107665
-70895.2
-41444.6
-25115.3
511924
-164564
258747
-61041.6
-37230.3
55979.3
-292636
156978
-650280
-122343
-2991.97
-286428
-18.7555
197361
73718
54997.9
10141.3
25378.2
-4170.18
28813
-101871
-32397.5
6659.76
217734
115585
15631.4
-199263
111784
-12303
-7176.81
168008
-3228.57
38525.5
-18642.1
864.763
-78773.5
9729.43
14987.7
-19581.1
-14626.9
-94932.5
15754.2
80659.5
40433
130929
-39962.2
-299002
126491
-93910.8
2466.45
607550
-16604.8
-17185.9
-38102.7
75998.8
65456.4
-171890
-14696.5
17296.9
149632
-17211.8
62693.1
66418
144220
93662.4
28087.1
-9473.99
143700
30330.7
84706.7
-72576.1
177212
-5255.01
-101130
8275.64
-155697
-8328.22
75705.3
-48986.3
39048.7
13488.3
87527.3
24942.1
125297
1938.69
-311145
-66778.4
-14973.5
53672.9
-925678
13208.3
19060.6
399374
107420
133841
-26401.1
92554.8
245387
243178
77867.1
18905.6
-57769.8
-168722
59731.2
83531.5
-50309.8
4363.24
-122936
-47160.8
89704.9
150184
-128436
15622.1
38774.2
56624.8
-74803.1
-113652
-57835.1
-1238.92
121074
413608
35627
-59156.7
-3875.59
-200816
-13863.5
54478.9
-68146.6
1549.58
-254.202
-15594.2
-167009
-15908.9
-11224.7
6066.6
-2745.51
31045.3
1827.89
-72804.2
-14083.7
54795.1
-381944
155850
74272.8
619712
43226.7
11909.8
75523.5
129694
133775
-26491.7
-13536.4
50263
-96159.9
137471
-3589.6
-58544.8
200594
41592.2
71885.9
-187999
-34747.4
-64807.7
-23009
-16948.1
131.988
-19645.2
87181.5
-5232.7
6960.47
98583.6
-265038
-34182.6
-127367
-22966.9
-109660
17748.9
-32994.9
67532.9
-491543
-40565.7
-9403.44
-86947.3
88105.5
-196753
44042.7
25232
293835
-47976
35676.2
33093
45398.2
-21745.8
42735
50906.4
49511.5
-156232
23299.8
42004.4
-169.04
59716.8
-147635
-7546.66
542631
115927
-40327.2
58678.2
55848.3
-36555.8
20364.7
190906
149665
-26378.9
125433
114340
116136
17894.5
103182
85531.3
25795
65627.5
32746.6
31016.8
47546
357879
-95352.2
-13852.1
-154686
-24178.8
-19391.4
-65343.9
1164.39
-11499.4
7591.94
33184.9
23354.8
13190.9
10984.6
3894.67
-34525.5
-96879.6
48285.3
181105
-42360.2
107648
12233.3
75837.6
164010
17265.5
-30825.2
35671.9
2644.15
-43981.1
152290
12263.5
27080
10165
4313.84
-22040.7
-312275
52442.8
244519
159249
-473333
28168.9
-12306.4
130580
-96081.3
-7683.9
-5198.06
-16712.6
-83616.3
20913.3
-79072.9
167952
3392.55
76083.6
98736.7
-41510.3
39639
-130379
267823
150008
30448.6
-19659.1
109681
-16680
-6350.99
-308233
1261.39
35384.4
47000.3
30520.1
-89025.8
-27866.2
-88612.1
-106576
18233.3
21682.5
-7829.28
133866
-3930.81
-229509
21927.4
23870.1
-145654
126177
242384
-7635.02
-821223
-130914
234175
73558.7
7949.57
-373812
-5092.82
-57111.7
29463.8
17457.4
-31145.8
132407
-10395.8
-44018.7
-3709.28
-42780.3
-44146.1
2443.44
-4671.2
22148.6
3450.69
60605.9
15456.1
-5976.45
-16453.2
6564.21
-55901.9
86111.4
-8574.33
18434.2
-93761.2
10764.9
26084.6
-126188
-77684.3
33840.8
27628.5
-75536.5
90498
-32246.2
-257093
200179
-4780.49
3625.31
183720
15118.5
22836.2
-20911.3
-75079.1
-132553
-42399.3
5340.21
295358
-15917.5
-35862.5
-6745.63
-81588
-9323.75
-68022.8
-109385
-3241.69
-468629
-109358
102150
-168303
-21401
44577.3
25302.8
-83571.4
1516.2
53592.7
62755.2
66829.8
70947.6
-118093
52757
25638.2
-37504.8
76105.2
66852.3
18900
-23735.3
9437.93
-64310.4
94331.7
-96234.8
98339.1
355092
81217.6
-80059.2
-170653
-60844.4
44777
16801.4
-1224.12
764.509
-480401
-8730.92
-28240
-18840.9
-151509
30821.5
197114
144121
-14839
-54113.3
-95828.7
83140
226630
-5344.55
29799.8
-98437.7
-94435.1
-13908.8
-206262
-278438
37952
7755.3
264773
37528.2
24265.1
265220
1909.63
293292
11394.3
72368.8
28447.9
226963
-43540.9
159719
83989.3
160444
-270.225
-44497.1
-42755.5
30199.6
20388.9
106268
-42460
-59788.7
-60451
-33636.4
28310.3
-88000.5
78263
65815.7
-25657.2
75602
2059.38
165060
151533
25644.5
-35866.1
-33304
25292.9
98839
14807
20643.4
127847
-1629.86
-6797.96
-8640.46
-55258.1
-61332.3
-83381.5
30035.2
-134251
-57714.3
-9142.69
166057
-106756
-43397.9
-238760
15182.9
87478.1
-55558.1
-79893.1
-166002
41843.8
-222223
2325.68
492466
40837.2
-263464
-961.495
-11658
-87090.6
-13592.4
168098
2258.56
8802.4
-39353.2
-11448.7
-119799
-11376.8
111833
89064.5
-154308
131462
-4881.71
22979.5
-15351.3
-32021.2
-59315.4
-21464.5
4129.28
-30010.3
-137866
88789.8
-28207.2
-18210
-33517.3
207682
27289.6
-31011.5
-310113
-23178.9
-2578.51
20424.1
-93649.5
-17449.7
-1406.96
41402.3
-2077.54
-21040.6
12392.6
-59691.3
12109.1
53763.8
-134907
6289.1
122936
-28268.3
-83172.8
-53212.6
-69338.8
-19670.9
23434.2
-150067
74393.7
-1827.66
19801.1
29520.4
29093.6
-17984.7
189380
73035.5
42058.9
-19363.4
89715.4
-24933.8
-65180.6
80568.4
2259.15
103.246
-19056.3
29338.4
-12706.3
-29574.2
159586
-34066.9
-53970.7
27052.8
6585.87
34665.9
-25397.3
37397.2
-86422.7
162427
16264.8
-94103.8
32870.3
-54135.6
7867.67
7570.3
71192.1
-257003
9981.18
134094
-37084.9
85497.6
228114
7399.62
-2457.89
-59083.3
112943
55143.2
121127
128959
38742.5
22252.5
-287653
14089.3
67468.7
221661
19278.4
106037
-6155.49
-543514
419676
-186551
-22015.5
-4505.96
-100700
10468.4
-53052.8
-73816.1
14514.2
55005.6
16539.4
103506
-113491
106224
21434.9
79055.9
-184617
-243681
-38706.2
-206829
-25925
10596.1
-80109.7
-184983
-263137
-70988.5
2571.84
-75549
-30048.7
29692.9
198800
376367
53413.1
-75153.9
191610
-33917.5
140489
-56077.2
1398.52
43640
146153
32507.8
-99419.4
-10490.4
259571
-73068.3
7892.72
46191.8
-52820
-15884.2
46838.1
-998.369
11173
59453.3
126860
68421.4
-35124.6
-41547.1
-44380.5
116307
-280055
-83609.1
252126
183200
-57097.2
311130
-95970.3
-119134
-34290
-62885.1
36770.8
10988.8
-166492
-79667.7
28376.1
-46227.2
-3981.18
4002.32
-10187.6
-62017.2
151855
-37579.3
7366.35
-49489.8
-15640.3
16057.8
-29158.8
7389.66
-26291.3
53644.7
9482.56
4536.36
-68024.6
-147848
-31183.7
179171
-26387.3
-146321
119526
7749.46
-161989
-23210.8
-22484.7
368142
42460.4
241994
16524.3
-29663.8
380291
-23159.8
-57771.1
-261487
-18080
-211242
114967
-997.369
-39364.7
-43887.9
90607.4
-111486
44998.6
10390.6
112041
-16738.4
-42632.6
21711.7
-39.285
15709.6
-13115.1
19243
-222029
5951.85
23617.2
69042.6
-74418.8
-56547.5
34724.8
-18230.4
211880
-6250.89
-38049.1
-30040.4
-75972.7
-80338.7
-75722.3
-282737
-85072.4
123342
90861.9
125368
-37853.6
-121919
-41767.5
-155552
103940
4177.21
62607
-87381.3
-110017
-143273
-6584.48
45557.7
-34322.7
87988.1
-49133.2
-201092
157734
-34226.2
63454.9
93649.3
5157.27
-52682.4
-135419
-5903.07
13655.9
111124
-54742.9
109418
69766.1
-111216
-20512.5
16431.4
40096
-11630.4
14260.4
-158085
-87416.6
45075.9
161592
-17335.2
-33918.3
-82157.3
-101790
14643.1
53104.9
-57399.7
29191.6
-44472.3
-54422.2
153131
-35495.5
-5143.56
-5699.47
-7187.97
-72259.9
-102812
43967.9
-66855.4
1360.24
51431.2
6508.15
19488.4
-185066
19721.8
7027.36
-27772.1
-15246.8
125907
197324
17028.9
-46307
-19861.9
-32753.4
-30222
26672.1
3915.14
-341857
-17248.6
102974
262998
-10766.6
279853
-130747
-224245
-1703.98
-130741
30344.8
-17122.6
-34969.5
-36421.5
21454.3
268493
132185
43837
59457.1
-49137.2
-42250.6
128216
152617
39670.5
417382
-184593
82009.8
233642
-4567.4
18109.1
-174692
15175.4
-213667
-28219.5
-158793
-197866
-48706.8
146091
-9130.7
-90406.6
-66181.1
-309658
7835.08
-43937
-117025
-120755
7613.76
51018.8
70689.9
-106906
4844.73
-20315.8
-88981.9
-4552.03
-126340
-38298.5
-39389.5
10996.9
-40502.6
-33274.8
-70797
-144222
13077.7
19825.3
-30377.4
13145.8
81031.4
376019
51959.1
74078.8
-9490.18
54096.3
85114
8287.93
-32206.2
-42377.4
-84007.1
-11006.2
25831
52538.2
391350
195379
30024.3
-22586
11984.9
-6963.86
80725
153168
-29117.3
28816.6
67295.4
14938.7
-109603
-22516
-6660.4
-141600
-97307.8
19816.6
-62934.8
44293.8
-65067.4
55671.2
-41778.9
24661.4
-52319.2
50957.8
-3046.32
-183966
-181038
41229.9
163989
-129217
-127454
-3777.23
-194044
-133205
-93544.3
141514
-14213.9
26794.8
32943.9
15397.5
49134.1
8715.86
145719
260141
-23721.5
242275
90503.2
-1341.66
-32769.5
59792.9
-35228.2
144312
-56936.1
-43032.1
81007.8
-13516.3
103934
-19180.7
-73949.2
-95956.3
68274.7
4463.41
-82820.5
357026
-11498.9
-110853
274675
-72038.5
47173.3
32692.2
176679
-119867
-72578
-129213
73600.3
85998.5
9201.91
89191.2
9119.74
103638
138093
68813.3
114291
-37144.8
-114190
62753.1
-215373
115399
-42305.2
-102976
-3615.03
-20021.7
-18820.1
-69222.5
26360.1
47682.1
-20066.8
43989.7
31220.4
-60918.3
9763.25
-31871.2
-34620.3
-179940
-149904
56324
-33541
-21891.3
-36808
113760
-4981.17
-24744.4
-198429
-77389.3
-70082.9
63563.2
18803.5
107265
-8928.9
-20590.3
-71614
-100082
153687
-52938.7
62027
-110642
-80826.8
59996.9
35210.6
-46977.6
26634.6
-89037.9
98.4907
-92600.3
-92087.9
-58898.9
1804.61
83624.2
256764
-10605.9
-27297.4
-29860.1
-244043
-55158.9
-56697.1
263273
20325.8
-28319.6
23475.2
-112252
-27362.5
154856
34386
-32118.5
44208.4
-14534.9
46529.5
13545.6
37623.8
-122598
5518.86
-798170
-17931.6
154264
46631.6
-223270
52398.9
-44258.7
64152.4
4971.35
168227
103732
-40543.7
-35551.1
51773.7
-3127.94
-190048
208.096
-48369.8
107092
129556
222557
29570.6
82713.5
-67850.9
37144.7
-14575.3
-65005.4
-56792.9
-48064.3
32977.4
-9930.54
14784.8
-11289.5
-69241.1
105783
20002
9029.47
-5817.66
21656.8
52829.1
111063
-78288
16597.1
-33801.7
-324675
-40535.8
-1094.66
-315.118
-15650.7
719040
106535
51625.9
202687
-139414
-63454.9
179044
-51739.3
-603.811
365922
280935
-23350.2
-474.594
59663.3
-77139.9
-309347
-161135
1387.21
-13870.3
70787.6
-26132.8
-69929.2
-39697.9
26674.5
-53627.7
147107
-70513.3
-166406
-178055
-3008.67
-42156.1
65901.5
6498.59
27434.5
-109642
-38536.5
12138.2
349338
16900.4
-86735.4
-79832.1
62382.6
58132.4
-160049
293872
-94744.9
16018.7
-98008
-3633.23
-49004.4
-204220
-50006.6
32957.6
0.790992
-30124.1
-3810.65
-111471
-9278.92
-162826
12961.4
9951.82
-19384.9
105713
36802.9
14001.7
58113.1
22529
-29399.1
-3578.44
-54132.1
-85683.5
5679.99
36125.7
60148
33934.2
196278
-55202.4
-41266.1
-17755.6
389892
15081.9
32562.2
-103364
133286
6720.15
27559.6
-220552
4992.54
31880
-36756.2
5926.51
-123234
-30078.3
-54359.1
154289
-6068.65
20680.7
106610
-209982
-231603
-84956.6
-13095.5
-17765.5
-256994
34755.1
-468536
-5914.13
-64597.7
176360
-19750.6
-63776
26353.6
140521
97822.5
-72992.2
-164449
78793.8
-8156.16
37421.1
-115712
58004.1
-15456.1
93486
616.895
11275.4
-36933.1
119272
120657
-13214.9
252028
-32884.5
86007.3
50387.9
10859.7
-13260.8
-188435
68081.1
-37450.4
96894.6
19038
-26718.1
162182
-32173.3
-15086.6
106958
123030
-57035.5
-27758.3
-62748.1
39140.7
-83564.4
-2020.44
15390.2
-13232
80864.6
-13905.4
282444
32700.3
68793.4
-108143
-23594.6
15730.9
33075.5
4956.75
-12775.5
86251.5
-59847.7
-50877
-1134.9
129669
17284.9
52967.1
77140.5
292425
-14902.8
-71146.9
48422.9
52352.4
-44929
165712
43601.3
-7935.09
-147097
-37602.4
-35014.4
21913.7
79962.9
32838
-9654.92
-25782.4
-37989.1
-108497
-66247
-10028.8
-39338.6
-22788.6
-12527.5
179890
-77779.5
10199.1
50252.4
11068.3
-79114.3
139124
-73578.2
-35699.3
-11264.2
69398.7
-7712.84
53479.9
32650.5
-301408
-32602
265215
-66225.3
-36906
-267279
254125
-6218.31
-17453.2
97566.2
-11258.8
124221
74903
-164893
334488
7375.65
66502.6
77691.2
5327.81
-444247
31066.3
-6495.16
-49592.6
13617.5
-28752.5
-186949
-53296.8
-180236
-30093
141674
-45283.6
-77588.8
-16993.4
9096.85
61759.5
6641.71
-113495
106204
-23354.2
-49798.6
12552.9
-5095.5
95901.2
-23362.1
-102885
22942.7
47787.4
151574
28984.5
140433
149268
105751
-11839.8
-152096
167658
48637.3
56020.3
51030.6
-80115.7
-13254.3
90093.6
-9801.23
173862
-147727
7122.68
-9093.52
-28389.9
37273.9
-46129.5
-142909
-70044.6
45309
71973.1
53054.2
-29592.1
9623.88
81775.3
160399
154.37
-239953
72217.3
-268191
-113067
-33145.2
-5720.3
-80664.3
187804
7029.79
8041.71
22398.6
-659768
-10109
95793.6
