4720.56
326.769
2357.6
5042.42
1799.66
2302.03
545.191
92.359
-118.108
-342.462
10105
53.9799
3306.61
670.492
-237.969
2596.05
3709.52
2736.83
-833.399
1173.22
1382.2
577.788
1797.06
915.066
-25.2742
288.974
1158.68
762.344
145.843
3.3415
70.2013
-1542.85
422.349
5118.18
-11.6381
351.102
6121.72
356.803
105.063
437.239
2005.68
11033.2
3955.23
8830.58
8913.01
1117.65
-146.73
3943.25
251.833
262.298
645.475
2474.75
966.346
-417.073
-743.069
-22.7053
473.047
546.222
547.951
-65.4122
124.22
168.551
0.315628
-106.308
-557.655
-304.823
146.483
10096.3
355.762
145.651
2858.04
1496.49
694.598
3307.81
-183.934
1858.05
3607.09
2188.21
1441.15
13810.2
7945.09
2959.85
400.838
-136.081
-29.2533
-681.87
1215.28
-148.855
2142.92
4353.61
64.3522
259.209
2531.99
102.944
-365.864
953.599
-972.977
609.777
5666.39
612.799
711.271
657.521
845.859
-286.866
4611.56
3329.28
-1067.2
596.985
10.2932
3799.91
1153.51
-629.682
200.215
616.219
1627.51
1023.48
7257.58
760.128
-568.64
184.97
380.526
-769.939
-825.555
509.65
-1346.99
6546.26
-185.674
-437.691
68.4236
364.584
161.153
6404.03
498.039
-75.1797
3485.14
2267.83
1424.88
139.471
-894.18
1760.6
2129.09
944.114
536.905
2604.5
571.474
-2287.61
508.29
-1514.41
149.587
-771.655
-271.742
580.739
4481.4
4848.29
320.904
-884.098
560.951
-52.4054
1324.17
-107.244
1477.21
-121.194
-444.422
-34.7169
1621.37
-174.513
877.935
1902.26
1125.15
3312.64
2217.56
1903.95
127.447
-439.583
230.408
482.153
1486.19
2725.32
-788.718
2513.71
1494.02
947.482
-315.133
3309.95
3485.49
3146.83
-966.047
1713.23
1136.9
1027.31
2174.14
1034.91
1342.81
596.39
173.626
-22.4703
-441.329
543.514
452.948
1609.42
1833.89
569.485
330.057
601.433
2532.24
389.353
-472.031
587.981
7.29353
-150.048
1177.99
274.748
1513.29
1033.06
-83.5678
5086.73
8966.93
1817.81
1596.24
2142.39
437.104
1210.24
1839.33
3953.9
12157.2
-248.668
-103.573
-119.358
943.544
1203.54
3631.15
383.953
2376.06
6074.55
13507.5
10910.3
565.207
571.842
271.002
8745.84
-498.719
216.513
4675.15
1408.97
2267.07
844.86
485.546
-2077.73
1575.14
42.1639
1206.16
5.77239
672.087
798.999
693.688
1530.2
5313.24
-117.43
2021.46
190.329
-810.099
452.005
1836.93
345.585
-118.796
157.634
355.145
1065.56
-415.185
1078.33
3396.18
-397.637
1053.76
939.126
-624.552
-202.369
1334.9
-206.621
1291.64
708.797
7298.42
15938.9
8453.82
-198.277
6451.31
212.893
3362.09
-1247.59
-586.081
3315.3
-262.765
-782.123
3549.83
-295.644
-711.186
-776.831
12295.4
9047.26
576.108
-60.5885
253.506
65.4699
1548.72
2639.34
3033.03
13752.1
11263.5
1049.02
1492.61
-1663.88
2159.84
3837.3
72.9179
3262.47
1585.42
327.398
-22.8938
459.383
5241.62
6310.64
4252.89
-923.069
297.92
773.871
6566.9
88.4961
-262.764
650.263
1820.67
47.1536
-666.202
2086.18
3425.42
-1312.25
421.975
-508.361
0.410256
139.795
-188.75
-727.22
-101.139
-214.02
-278.31
670.829
1696.48
38.557
-263.717
643.849
909.676
2282.99
467.734
559.873
90.4899
2962.94
278.537
4501.24
5773.34
-677.184
9765.02
9965.41
-16.7062
-562.064
-109.511
-371.593
1680.05
-722.489
124.705
170.205
3855.26
646.534
-16.1386
-82.94
-10.0668
390.631
361.979
2314.19
-885.327
-566.581
-217.693
6980.35
1939.63
1368.22
2831.01
403.025
2452.53
1349.5
1516.81
1286.33
4248.39
245.645
-142.612
716.962
368.035
-182.338
344.904
-275.679
-752.941
558.352
643.139
777.454
-107.356
-1002.29
2358.62
7615.1
7220.5
2042.84
568.957
-77.0006
302.454
601.103
1801.24
4283.59
-232.041
1660.69
-455.291
-68.7077
4930.59
1990.47
-275.706
638.562
714.362
1495.26
2574.9
455.44
459.158
5497.34
3379.37
4978.91
212.614
2281.11
225.589
641.63
7679.03
9285.2
16740.5
1274.22
7627.25
1297.63
-367.667
-61.9999
-955.87
401.56
6373.02
4199.84
-373.825
93.4778
563.924
-282.523
1506.12
4146.26
311.781
2404.88
-469.696
405.701
-783.81
179.271
435.448
1718.08
-335.81
1087.58
2661.96
11157.8
-1219.85
457.231
162.035
-508.438
1372.18
313.688
-1201.51
570.466
4353.53
857.499
2544.16
163.138
1217.51
3239.84
7066.92
3331.68
10805.8
-289.853
7473.36
12.6035
3379.73
701.901
447.931
1443.56
919.487
1940.91
1682.19
1186.79
1153.01
-365.198
2377.74
295.871
333.071
1816.34
44.2474
3464.17
1847.97
2995.47
734.624
503.368
3020.41
1774.02
311.032
731.332
1069.47
388.076
-45.5672
141.082
-838.68
1144.86
2737.63
3045.08
-11.5452
-425.193
-1141.79
1077.51
12358.4
-763.029
782.423
1299.24
1414.72
159.638
3321.04
-725.869
1684.93
3828.43
804.672
10710.3
-331.131
-260.092
601.847
1355.09
348.893
-195.004
2736.07
134.412
2108.38
739.248
-62.9728
304.77
-718.022
1995.69
2855.31
7957.24
9091.94
8409.44
1559.18
2900.84
332.146
1521.86
1523.89
1105.25
1435.66
934.426
9244.9
-100.46
3443.36
3.70816
-280.439
1771.54
973.539
448.2
-347.462
427.738
-762.283
3452.06
-755.447
4748.34
-2389.97
2944.27
-1792.19
994.491
-437.782
658.023
722.367
222.151
303.998
-477.288
2219.44
-290.938
-97.3967
-28.7722
683.122
2751.91
816.343
296.964
5935.07
-712.734
-150.369
667.162
954.243
1315.77
115.915
-15.015
24.8178
114.468
238.698
512.196
16.9638
45.0113
4491.57
997.403
73.4866
-379.502
460.091
590.116
-58.2331
3941.85
942.402
-301.735
906.796
145.606
1585.51
775.14
433.153
1732.77
1086.51
310.139
3897.07
3250.63
1773.61
1411.94
6738.09
3560.43
664.29
-693.26
2411.74
10350.7
294.284
5514
4017.37
3001.43
-297.296
244.553
305.825
-791.066
3626.55
1209.92
1661.09
6513.74
5865.65
1806.49
2593.62
334.956
36.9689
529.87
5656.01
12397.8
362.316
1063.08
-320.772
-470.494
2423.21
7175.97
3051.24
-61.4184
-45.225
868.822
977.322
-281.275
1032.99
918.421
1499.45
160.246
2967.73
-227.303
43.8263
282.187
721.122
1762.2
322.795
132.373
10425.7
333.024
1238.51
-310.6
1256.56
1135.03
577.139
1206.3
196.362
239.955
2523.29
841.761
498.273
-372.027
6423.44
2749.18
2534.6
-14.14
5036.77
-114.395
-624.769
-147.857
-779.945
5352.75
8648.69
-228.16
-368.516
319.891
-3254.19
-70.7269
-249.277
889.377
3357.18
2902.34
1413.58
4504.6
-176.009
566.342
3505.67
233.204
528.439
3371.41
4931.19
505.919
3357.03
-843.102
197.564
22.2743
874.541
-250.199
219.173
368.7
2785.72
888.334
-1915.23
2193.5
1178.58
1009.19
-259.022
1933.88
230.942
-1250.57
12691.3
3803.94
293.519
-458.685
706.67
-126.278
248.088
3340.01
-469.855
2997.92
633.752
898.942
2370.66
1419.27
-1149.25
9133.18
-141.642
357.369
3454.24
-16.6024
130.677
-169.94
-47.1701
-1235.56
-721.252
837.595
-195.333
-985.306
-216.748
8127.73
249.525
360.996
1483.89
27.8444
811.563
1558.77
561.885
-197.327
2525.35
2977.55
1489.57
6243.93
277.299
1845.44
-346.025
225.359
6994.21
76.4342
6928.48
3927.7
6521.53
-774.975
-142.351
1850.23
2435.72
681.278
3648.31
-322.592
598.569
3540.23
7213.68
556.439
1513.79
3.74923
10741.4
1163.23
3934.08
4.12268
576.46
2125.59
275.978
2753.85
3955.62
-232.724
-458.825
-102.052
95.9834
957.948
-279.529
556.133
310.913
-762.561
279.123
6496.03
-447.008
4284.82
1673.8
509.882
468.382
1174.94
-445.994
-23.0373
2223.02
4216.77
6029.26
-974.541
1385.05
1723.84
8.88481
76.6083
351.206
342.969
3403.22
70.9095
11.7031
-283.452
-502.828
-257.417
9292.59
2337.39
-313.216
678.925
947.544
463.765
459.481
34.8785
7013.28
494.191
5735.6
2248.88
123.589
201.004
-39.4831
1816.52
3445.84
1726.72
6380.91
5455.42
-292.894
2760.1
8472.46
8510.16
321.808
-910.106
-531.937
88.5476
-292.117
-226.61
1197.89
-143.088
2845.4
-61.1324
5149.88
1834.15
-23.2913
3454.24
3343.21
4209.63
1585.1
1433.65
4033.59
2255.81
4972.63
7467.15
1677.87
4936.74
652.054
5763.7
58.4876
-296.415
303.375
1857.84
-209.047
446.874
-421.872
1808.1
1082.26
1084.9
880.725
901.109
-673.553
-383.972
2880.17
-1575.36
-253.942
3016.49
-25.3635
154.968
848.185
2593.53
-63.4802
-576.674
3657.07
1484.6
858.438
4088.41
2486.68
53.7574
5312.43
598.32
122.09
233.068
-407.318
-1265.4
-73.4135
-392.016
1884.12
1022.74
757.152
1589.14
1516.62
467.117
1966.36
-357.243
-1364.63
232.983
-418.984
5611.77
258.166
-41.3452
1288.67
-1691.39
-37.0264
282.739
631.225
6983.48
5015.89
1245.06
13.9402
2680.66
-330.551
-72.0526
328.56
2890.01
-184.477
1110.55
2703
6206.11
-111.669
-183.746
-2515.54
3267.12
2565.43
-77.3146
211.471
5848.95
5924.77
32.13
2030.83
1209.56
147.889
7085.5
1011.9
1541.28
576.301
2841.21
187.669
-515.686
4517.73
61.969
2225.76
803.405
-122.296
-266.563
-368.642
3547.42
1308.64
495.754
1545.2
-189.598
-272.59
116.994
6705.31
269.377
628.707
-97.2055
1846.51
4086.23
13669.6
103.22
-1583.16
-273.721
1097.59
1141.76
3060.97
1520.66
-367.499
-117.515
176.375
-39.5515
-343.639
266.043
-489.589
665.699
10241.3
-180.636
1053.24
6072.92
-749.26
997.469
7836.77
1438.05
7339.29
90.9522
-300.875
2704.03
28.7168
417.357
3144.53
2775.88
3281.14
74.8452
4304.42
7280.94
124.872
-319.602
-908.259
2625.4
4378.33
-295.451
775.509
1999.75
8869.72
-460.254
1486.47
855.622
1243.12
2235.78
201.043
2277.99
224.948
36.8999
347.944
-88.3064
3415.77
21.1487
-201.339
772.04
928.994
187.855
-331.732
-422.88
1051.31
-1152.74
280.012
-53.8472
1889.81
2822.37
3481.21
-246.393
830.302
-387.335
-601.772
-220.473
2268.85
350.629
1420.11
3758.64
3932.13
2523.59
-2142.5
4448.41
7437.96
71.1856
4327.69
690.637
-242.265
1078.35
144.426
7276.42
-840.129
108.862
-33.8279
-69.5105
-25.1505
5952.37
5133.29
2875.44
7875.31
451.985
3197.71
6883.09
1999.9
2082.98
2695.37
477.431
1759.5
131.299
1278.51
-906.707
5.97648
-1271.21
103.325
376.303
462.353
-154.243
1202.79
447.326
4270.49
6431.88
2697.51
3201.2
25.3942
8739.49
-1102.09
5749.63
14722.7
331.593
-359.1
3228.75
9958.5
377.901
5269.58
1512.34
4075.54
-1083.99
237.993
130.924
1581.3
300.831
550.88
-50.6484
774.682
1409.68
213.975
1873.75
640.013
627.949
1599.47
2181.11
269.981
2188.6
1063.62
930.32
278.444
315.583
-471.009
-1307.08
-235.553
-880.652
9141.29
369.79
-292.681
-80.1916
-589.376
2514.28
427.331
531.648
3804.15
3001.88
501.626
538.359
-671.994
1850.7
5954.05
1064.63
5083.61
-478.818
87.0071
16.3796
232.676
1061.75
109.084
-470.804
841.298
8878
10909.9
-248.806
-111.833
3633.91
-83.3444
6591.78
10107.4
85.8462
1944.24
-454.236
-287.231
208.439
1321.07
8282.83
2212.33
170.65
5428.16
9105.89
1039.69
399.165
-664.061
970.015
60.2287
6043.49
6014.04
206.321
6812.04
32.0148
-17.2565
362.853
4631.79
9447.15
3406.34
14470.6
-20.2781
444.837
4189.43
2434.48
1779.3
213.677
-324.862
1537.63
6159.07
-50.3206
636.961
2466.54
865.494
-489.478
-65.496
-565.885
351.442
6619.27
485.145
884.412
1352.4
281.535
1974.2
826.381
28.2789
33.7471
244.367
1339.2
1381.62
528.299
24.4219
116.717
-85.5323
2989.1
1302.54
1.7763
-1104.59
623.172
4346.03
375.395
2461.04
545.631
458.514
858.775
-363.016
2091.82
4814.21
180.297
2354.75
892.633
-599.896
503.323
-362.272
1229.77
267.972
393.571
5394.21
7646.71
5589.4
-703.867
-2247.82
180.198
656.801
1188.92
2135.56
-186.691
7143.34
5020.2
2718.28
324.871
2280.49
193.246
2180.14
2843.43
3145.55
2092.37
2989.39
199.401
1226.97
638.909
3541.4
-91.0709
1442.28
2256.67
6917.86
3146.71
-1559.18
-414.838
2251.62
1548.33
-408.787
235.31
-173.334
650.412
-957.069
994.365
174.468
1852.49
6156.2
-794.977
1182.44
2877.87
609.84
613.525
5234.97
1423.07
412.602
6023.95
2704.07
827.739
818.391
2143.6
1252.73
-806.963
3210.94
1710.3
-439.649
-67.9838
420.682
3755
393.537
8.85337
-361.731
155.194
-174.276
-93.2194
4595.94
7002.54
1806.86
-291.044
-454.875
25.6291
962.049
-691.903
3727.84
1923.97
20133.2
1082.37
9137.26
1498.93
-523.227
65.5497
2316.94
7916.49
3448.09
486.073
3048.14
4893.37
12950.5
811.951
261.975
269.343
578.856
947.302
858.979
9326.91
1452.27
-546.579
-330.43
455.189
2736.68
1553.73
25.9399
317.09
-66.3991
-505.323
3910.84
-119.763
359.48
941.509
-197.839
313.947
8.63097
-345.583
689.785
1715.63
-225.512
1930.89
1771.68
9590.37
-584.581
-148.576
-68.3352
2132.99
8846.39
-390.465
1227.32
-20.7679
2580.36
-8.67409
128.053
472.126
-373.637
762.774
141.783
10227.8
5427.59
3069.88
3388.68
5766.19
4707.8
524.937
1311.34
-230.581
-802.834
1659.94
153.791
1148.88
4798.19
453.594
-348.889
282.709
281.721
2102.36
-462.722
-175.17
4197.9
44.1785
2039.03
1055.16
153.481
4037.57
5330.78
1620.85
1528.64
301.73
2314.98
-2981.93
19.2442
100.097
792.878
-238.665
-645.159
101.511
7234.22
-20.3945
-58.939
-641.304
4527.24
316.513
987.827
-1034.24
1924.28
141.487
765.05
-586.039
5802.86
-115.354
1060.27
1180.8
123.823
-1299.41
827.452
8.41617
681.552
2697.67
5253.19
-17.0991
-639.088
2442.85
1100.81
4567
1947.81
1980.66
1099.53
-39.7825
4573.92
71.8456
3662.86
-854.601
376.672
2812.9
6337.31
3817.53
18432
6179.45
4439.2
2700.89
189.864
900.941
-588.96
641.374
-1268.54
-715.511
-8.38705
432.829
51.3113
66.4588
463.958
5350.63
-857.084
662.908
615.831
786.407
3537.31
-966.613
6794.47
-1492.34
99.9852
5232.1
3093.57
221.47
-648.17
739.256
-162.061
732.026
803.865
-1144.87
5619.36
12219.6
-57.4904
-2168.87
-133.52
1117.83
-484.796
6144.05
1404.93
512.592
2467.73
456.071
163.066
7.37036
-693.804
2476.55
4683.5
-778.523
-66.9659
4963.04
2368.77
962.668
883.279
1141.5
-464.828
8761.69
218.438
-481.567
3364.82
278.894
3266.46
3279.92
5447.3
2767.47
3016.16
-65.7536
8150.49
3046.98
1868.2
106.054
136.901
1137.07
1828.1
-272.992
-708.557
-1100.59
-58.5442
-310.862
1149.65
8811.52
4275.82
3348.55
1241.39
281.846
-92.2118
-528.993
-43.4378
-13.9139
3334.91
13590.6
2128.78
-212.897
5178.45
1317.43
-627.342
2101.4
-267.732
-164.313
1318.27
-1183.29
6493.12
16195.3
315.75
6456.55
351.179
-391.506
146.995
2635.34
702.126
4288.75
3267.62
-449.072
4312.15
-358.703
409.607
-774.946
3864.02
2928.43
-103.94
-159.718
5543.49
1104.03
2334.04
5143.44
3596.94
9521.41
-290.033
-230.277
133.397
2057.14
-834.044
12040
1452.99
1887.97
935.701
1827.4
1918.83
2201.44
1076.86
-381.281
7348.19
1500.35
-25.3619
-611.782
-454.584
5643.84
708.647
348.112
3535.9
254.427
330.651
626.47
1982.39
-152.846
1302.09
1196.29
36.7817
-238.438
8481.13
6341.32
3892.92
-766.231
623.164
152.773
247.722
-915.69
12515.3
2420.04
2014.15
303.776
2025.68
4219.55
1801.51
6388.78
1364.58
-533.91
156.65
588.479
3149.83
1786.04
-318.215
954.181
-58.5329
3284.29
6108.1
-462.228
389.847
-188.649
-1666.57
751.725
2800.72
2958.61
2513.99
316.954
483.378
470.837
434.254
478.91
419.055
6990.82
-112.807
4906.39
-357.547
91.2606
450.916
-217.504
1452.63
5597.14
1.05373
2919.97
520.295
4961.88
4483.86
9403.81
1503.55
-373.264
153.257
7700.88
16653.5
49.4684
2575.49
-192.675
-1027.92
1680.9
532.082
247.781
-118.298
-627.479
-881.383
-558.532
191.334
680.464
1383.78
-471.531
2185.39
-372.177
-581.528
289.012
58.5547
278.481
5832.92
9443.59
-107.13
1112.29
-244.413
57.5279
234.46
2087.6
1165.86
1078.69
317.536
1270.69
237.913
224.073
-838.146
306.842
1832.4
-982.824
668.528
1090.77
2837.81
1470.6
831.396
94.2624
1371.83
-732.574
2026.04
6312.16
2883.18
-497.968
303.365
17.2521
4703.85
-67.7361
509.445
225.567
811.917
-710.834
2768.72
7632.16
225.221
-279.073
-834.006
423.552
4230.39
1436.39
5483.87
3999.75
-694.381
310.784
-209.58
913.111
7658.01
859.163
267.024
225.285
2513.14
-1071.8
-25.1839
5559.47
1290.15
3305.17
7203.94
244.032
92.3949
171.06
140.434
8477.23
1922.08
4595.45
4119.46
5325.65
1489.76
-29.8099
-564.546
-1260.93
533.924
288.324
921.113
3725.26
601.028
1583.62
1009.34
2301.57
205.425
-396.391
4297.58
13011.9
472.21
1043.75
2114.11
522.136
-306.551
-91.3214
5916.69
838.651
1156.07
4126.33
9411.99
5668.41
785.957
517.991
1201.95
295.626
2230.94
-590.307
-146.097
1334.31
1549.7
4072.32
10249.1
6168.78
75.8479
-120.863
3864.24
1625.8
4470.43
323.916
28.0901
1060.98
849.757
105.631
526.889
540.993
-162.462
208.78
2731.27
-237.196
597.557
6.63659
584.787
99.7287
41.0644
236.561
176.585
299.857
-111.57
2337.38
-585.106
1665.27
-633.042
-505.977
-97.9171
5776.75
1742.16
5711.56
80.1235
-327.312
2020.42
-571.879
353.763
5295.58
1977.65
-476.388
4588.19
4339.46
6651.8
-5.78461
2484.4
340.694
95.0476
7337.6
2486.02
2370.68
-51.5178
9153.88
2577.98
2094.28
534.841
680.376
1571.99
279.957
-372.744
3274.74
59.7271
111.078
6931.21
3331.93
1752.64
4780.47
6560.45
18394.1
6116.34
1139.63
1717.23
798.207
-203.576
1704.42
1007.21
415.147
-1097.72
-70.1014
14403.9
9.21938
-376.701
-61.6225
1404.36
4430.19
1558.97
771.159
-327.206
-209.13
1769.8
3608.54
31.6939
6248.65
-217.965
9.89818
11463
2365.02
2711.28
-603.448
4143.04
-249.505
-1419.42
5287.25
719.042
1408.4
-588.49
5330.28
4760.71
5917.98
470.126
39.6342
1303.25
4820.24
-136.363
-727.97
163.035
8881.29
276.236
116.748
176.599
-1264.99
2802.96
1294.01
1211.24
7131.2
447.495
357.947
770.038
113.035
2738.4
982.977
287.404
195.745
2089
10112.4
2206.83
-129.131
3277.25
4405.56
8334.66
-111.057
819.149
179.523
17.2434
-655.174
26.8441
8312.19
5460.18
-230.458
28.2013
6606.63
2261.76
2166.26
3783.76
398.921
-510.371
3942.09
1429.01
548.056
-237.112
440.847
4950.72
-41.3267
5868.75
3388.84
3621.68
-412.977
1884.07
4069.75
16.0759
4512.54
7801.75
11279.9
9305.24
6693.68
1762.12
2218.58
-191.636
528.377
-181.855
759.535
-397.352
3425.87
3439.96
4116.36
-689.878
296.103
139.241
-106.999
3040.98
414.387
-883.683
1648.53
48.2642
855.556
261.361
-433.839
397.427
1032.96
3192.28
1914.62
-35.1935
5141.12
637.155
-910.869
1537.33
-286.82
10346.9
3882.34
-74.5408
137.974
1713.35
3940.11
2868.35
3152.17
8445.21
1871.22
736.266
5129.26
1014.14
2690.38
-229.889
326.77
1721.99
1875.51
-449.85
-187.901
4889.14
-159.141
-1176.57
-59.2005
949.031
8.78801
1539.11
910.328
144.59
284.6
944.37
-675.2
44.3427
-28.6728
3032.1
199.375
3059.33
9119.7
2901.3
1163.76
-1485.75
2134.59
4026.13
642.383
-249.217
177.166
36.2647
-156.277
1313.37
2183.3
4062.76
-151.463
1635.22
-185.697
2184.33
-61.321
883.705
5312.8
22805.3
755.134
10816.7
-526.546
163.184
158.216
-657.493
345.033
-356.856
1811.76
2021.88
313.309
1352.98
3748.8
2412.38
4873.39
47.5103
-17.0711
-680.243
-527.805
3917.26
934.504
4085.66
3674.84
6848.23
2797.24
3103.08
-483.099
3423.21
82.3556
4753.35
963.199
1021.79
257.145
12813.4
-401.071
448.191
-23.0188
12756.7
3287.9
-102.836
-961.253
665.899
496.331
1055.31
305.054
-395.432
-1532.55
2469.43
4631.81
723.203
-247.991
-448.62
2023.89
2128
397.292
-412.687
-28.7653
-431.564
584.341
6628.11
2507.05
-459.758
320.393
3303.39
123.44
7479.65
152.48
914.872
-239.087
321.06
6590.67
194.695
9030.92
785.304
2876.45
3168.98
-2023.95
-120.384
-81.376
-583.724
790.454
2797.96
1200.84
2550.68
1155.9
5877.18
5633.38
-670.589
3716.89
-300.078
9276.57
6257.32
5575.89
6984.28
1023.67
265.379
1887.34
2569.19
487.387
788.721
-20.4581
7753.24
3327.75
7073.06
130.043
3391.41
329.918
3948.02
5465.89
3971.96
174.591
568.538
-27.283
101.419
5324.2
540.791
-11.6239
1653.17
1645.38
-579.956
-232.109
5508.99
370.274
302.776
521.939
2981.15
-681.044
2833.34
965.726
5325.17
5327.73
499.229
684.822
690.536
5494.79
21.9431
3341.24
555.717
1732.08
-377.687
1140.56
7991.23
8828.43
-400.41
1642.46
2844.06
-326.983
320.158
4513.96
1556.38
2279.48
1592.13
179.761
113.908
771.591
-426.005
-45.3181
-33.1727
-256.651
4319.54
664.08
-100.133
2114.49
2251.27
2102.7
-57.1572
1259.09
376.336
1323.56
-228.998
705.252
39.6701
340.539
387.747
530.841
-763.488
1565.81
337.931
-131.474
-96.9526
463.051
80.8594
100.197
764.286
-698.01
8319.74
2782.36
2586.83
-662.202
334.554
738.561
48.6027
1120.94
2319.09
-479.485
130.473
4951.5
652.035
-130.454
73.5415
1379.35
5373.13
186.775
442.381
1443.75
167.242
361.186
777.198
1964.83
33.6754
1033.41
-7.9078
2658.72
-86.9268
-488.514
-1248.41
1398.92
1961.31
3089.89
1397.84
4793.57
1441.82
-853.596
2639
3045.85
-74.1677
-560.858
-1105.23
-464.681
3545.01
720.422
-1821.47
789.35
-233.136
1299.12
4896.67
109.588
1766.32
1581.12
457.867
-472.165
-209.073
96.0446
7530.41
-240.937
1002.59
391.088
182.004
118.01
2333.35
898.052
1016.01
4556.62
254.51
7049.13
-134.502
130.116
791.968
2363.21
-87.4898
-390.139
-22.4049
1846.82
1169.75
1451.79
1868.1
887.314
546.335
-120.882
16069.8
152.79
1931.72
-88.981
2995.05
982.648
201.179
3423.3
-1857.44
321.909
9680.2
-472.499
1792.33
386.387
307.43
1494.58
-283.401
-731.589
792.523
20.2637
-1677.56
-642.407
1006.19
5373.61
3690.81
6357.47
1315.02
1777.6
382.328
882.114
-13.5028
2291.27
208.28
-164.502
426.226
2233.63
-201.281
1617.33
821.854
-913.684
1708.67
1295.94
519.95
-289.678
2463.61
13.7711
-54.2773
1801.4
-129.933
-40.3021
427.799
920.414
1125.22
1521.42
6160.79
5491.26
8446.86
2442.12
1371.8
-1108.09
-843.076
3236.96
3269.63
4489.23
2722.21
270.516
-337.728
1413.43
-755.48
-1750.38
-219.849
79.1228
-212.83
1451.54
-578.021
-103.702
152.275
2988.85
448.786
-974.214
1805.51
1051.88
5416.03
-76.8895
628.077
134.961
1227.56
1297.52
457.772
-594.356
-35.3732
-53.5624
1872.88
4602.42
5755.63
68.7251
-180.804
5697.85
3669.03
20572.2
5380.12
1022.52
223.381
3464.5
1797.83
835.501
-2524.6
14584.2
-135.082
524.624
-158.615
710.238
56.2272
-841.854
-1001.07
1213.55
-1365.08
-604.833
440.808
499.853
-880.934
1039.87
455.928
5317.96
902.897
-319.108
1238.45
-199.782
2389.54
-25.4788
-511.864
196.234
1360.92
-907.988
-1576.03
249.145
941.683
-660.351
442.516
-1083.7
-89.3223
-206.146
667.982
3398.3
-80.1425
-217.501
139.044
2308.51
400.578
18612.8
-155.401
1481.52
4499.41
2284.05
301.707
11009.5
-351.976
398.321
4527.25
537.985
2045.31
-831.509
314.734
1413.38
3308.24
-582.919
3437.41
-136.751
-929.607
778.892
2363.64
1029.25
1400.12
-104.979
980.633
3479.23
-261.17
11883.1
15432.4
499.138
1071.94
-1264.01
103.49
-155.483
345.074
-751.687
2460.63
-186.125
3097.94
1317.27
3466.77
3682.28
992.94
1527.22
-137.209
380.43
342.954
5214.11
1435.34
197.012
6798.33
390.224
-207.733
-98.9337
-95.9171
3716.53
-434.799
1690.95
-132.833
3295.79
6889.91
9398.93
2388.47
11.8231
993.656
1655.88
1091.89
355.712
4283.73
-398.201
201.756
-376.442
648.248
641.357
9342.54
1630.16
4517.95
-561.219
3255.53
587.381
711.946
7559.04
4628.32
599.03
546.922
80.7479
-291.736
182.205
1584.22
3256.46
-0.0425942
547.401
5467.75
8.27829
-835.897
-59.8575
-19.247
3147.48
7461.93
7454.86
1271.74
321.984
1417.98
1115.77
6971.11
92.0393
2249.81
751.609
2805.19
2285.48
-574.267
1030.14
-510.14
-109.905
1879.48
3062.1
-360.29
1300.58
-193.317
4567.98
1009.29
37.0468
1170.77
3223.22
1522.6
-656.502
525.846
-134.872
-499.566
2117.09
-655.601
2172.88
313.186
346.515
287.159
3099.7
4956.51
-366.082
69.2268
-526.835
-509.446
-536.471
-1413.13
-167.227
1616.35
4200.81
-587.583
4674.78
106.848
1342.42
-1293.23
87.1793
5598.29
2052.81
6327.79
302.981
330.693
4926.3
14999.8
7140.09
1078.27
-840.771
21.4336
259.639
2504.79
-331.539
-98.2684
163.312
200.336
8104.21
6.23822
1793.82
384.857
5288.69
-1783.93
-1295.65
1280.62
1027.73
984.776
140.47
-1635.95
1090.08
674.976
-80.042
700.005
3264.01
7512.16
5191.93
3569.92
3772.86
5465.93
-152.987
6566.72
288.021
2068.87
1413.1
30.4494
-410.992
400.801
-490.463
-480.836
-42.8404
2851.28
-96.8984
4236.5
-300.542
4911.53
527.5
3840.62
6621.34
1070.91
2412.81
3694.96
2162.67
12596.2
13147.7
-325.886
17.6136
1479.04
211.388
-221.987
2031.4
2580.16
762.888
-77.5274
3602.25
2204.21
2195.24
4658.25
10679.9
4322.61
10917.9
-48.6496
162.849
4093.4
1898.47
493.636
1360.46
1884.08
558.335
1419.68
-977.616
905.967
6717.92
3074.67
1.06558
-64.5198
-169.18
2675.32
3101.57
215.452
5802.11
-287.28
154.019
60.5512
1347.52
-324.293
508.4
2770.4
-1240.93
-445.586
1039.87
273.859
3902.27
326.536
2098.24
1031.56
722.481
673.413
78.8614
155.936
-226.53
-1669.06
486.889
951.752
707.781
6394.08
-313.58
3315.88
270.751
941.971
560.347
-914.719
230.786
2179.34
12450.8
3688.61
320.381
-201.118
320.053
1335.85
1587.58
3865.28
172.314
-148.842
219.808
805.105
1269.13
1683.92
2833.61
4565.01
-481.577
21372.2
404.019
965.431
2724.73
11881.5
-338.6
681.546
3243.05
2550.05
-444.388
4335.68
1840.14
-313.517
7074.1
1809.99
3903.03
3375.01
5468.17
4904.55
684.81
4883.35
163.45
-799.848
210.107
2029.53
1117.01
-14.0638
333.425
7364.76
7106.43
-152.648
3508.5
3966.5
-638.582
1128.06
1083.46
749.481
1631.29
103.215
640.961
1656.32
4693.05
4426.33
10820.5
1162.55
-718.442
1738.29
657.836
1164.33
3824.15
3461.3
145.685
2121.04
8733.78
10776
1352.38
-20.0852
813.896
2469.53
397.296
-1.04484
-312.574
618.991
-64.6999
2835.91
2256.03
5199.79
11129.6
-69.2904
25.7264
427.951
-658.523
930.704
-896.223
-534.066
275.109
-177.637
742.852
-156.166
280.038
1671.14
1667.09
2851.96
1045.23
409.4
-282.838
338.199
1873.22
11992.9
1254.7
2697.48
3027.83
-494.233
667.88
679.012
310.64
1518.42
-245.931
-299.791
1911.56
386.721
-382.16
390.639
842.613
-342.291
3171.33
2546.04
15270.7
-25.9015
1808.64
2389.05
160.057
-248.45
-262.601
1735.54
491.116
1320.95
826.156
-948.375
152.969
1097.27
-165.384
-672.728
208.041
10981.2
6567.98
3479.58
-538.234
-41.8133
-554.555
77.0792
15.1768
494.079
4234.53
-1586.11
-414.202
-311.213
2534.5
-512.365
-786.882
1743.28
-32.3876
6625
1167.39
-653.731
1939.42
-466.26
501.375
5633.32
629.18
16.536
1615.06
1837.71
8362.27
-103.801
2913.27
-42.3316
1058.28
57.2652
319.744
385.917
481.755
-34.2356
68.9027
709.64
391.729
160.943
-223.845
175.224
289.005
149.677
277.666
-307.579
-1001.05
390.22
-317.356
3693.1
1480.33
980.543
257.204
200.791
-227.566
583.028
4536.91
1801.01
2368.57
5123.28
476.054
-411.987
-602.361
393.019
206.664
-391.894
-469.739
3345.27
5099.67
69.4725
1751.75
673.889
154.647
-61.4071
1560.32
2818.26
4757.66
6339.28
-1098.45
9539.62
929.945
2538.9
5274.52
1243.65
4272.89
708.729
-57.4502
191.972
-269.728
6.39058
81.9155
-136.088
2436.86
-392.952
4402.11
5.29966
86.1695
1315.89
157.538
-1005.48
1754.08
318.155
-51.6044
-710.482
461.411
151.04
48.1069
6145.73
1476.76
6185.34
275.074
17.9776
-36.9848
3579.06
-599.571
2222.88
2034.32
2900.49
-349.96
2392.52
811.454
216.912
2998.23
97.3323
3640.86
253.514
2089.63
-344.636
1633.87
5687.19
1671.55
7598.41
1955.94
44.3202
-138.494
-318.315
7715.32
352.266
-151.75
-403.495
3024.22
1023.2
5652.87
9083.33
5136.55
9185.34
4078.23
4842.03
-288.115
634.116
-2653.51
232.521
-1008.84
-53.2757
176.897
2681.87
-623.035
-158.142
-283.474
-49.8957
130.199
-299
-281.945
-139.541
429.707
1720.59
460.156
2296.05
-107.933
1609.67
15146.1
2181.74
-155.879
-43.3096
3837.68
496.253
2514.29
3300.06
1533.31
-335.785
648.084
-40.5454
689.318
3410.83
11.2108
-730.556
736.781
99.6482
3748.93
3011.55
4499.5
-376.444
659.219
-2951.95
278.936
374.805
131.367
-162.415
3168.14
224.355
-38.1582
295.771
525.219
-812.062
30.6915
1723.87
9.2274
570.337
-54.3834
-260.106
1017.32
-78.7349
97.9709
8775.15
358.641
96.2731
3281.94
-699.089
11422.4
123.488
1940.48
4722.15
380.164
75.6826
296.541
8107.6
25398.8
2440.66
2293.36
-1866.07
285.301
187.169
179.296
-615.121
-1029.42
-422.244
5884.83
591.234
1749.97
1396.14
9662.85
-773.463
1096.54
2361.52
-37.1788
1683.6
950.604
697.738
5009.28
3476.11
5253.17
271.503
250.998
-125.019
65.2447
-73.4962
108.616
-135.432
3470.79
711.916
448.308
783.053
124.848
-334.707
1153.88
-646.98
4518.82
75.8385
-173.743
-285.833
3115.26
1129.87
532.925
164.076
-665.61
3390.46
4847.95
509.252
-1352.62
-490.193
-453.178
596.091
283.983
361.985
270.746
3633.13
-623.221
2809.29
-244.542
2324.33
-151.527
1576.17
2498.54
222.373
864.981
-1315.36
503.482
2614.47
-219.699
1556.77
511.819
601.744
12.4511
-6.56765
-325.286
1126.04
1653.64
2825.72
3064.82
-411.54
215.631
1808.11
-845.735
119.472
353.447
165.06
4243.09
2593.11
-35.4991
-137.519
2225.19
-62.7394
2852.59
-1400.45
59.3948
238.919
1.07693
2592.81
9375.99
318.521
1916.51
2810.45
39.6827
885.766
146.885
7041.81
143.243
-25.9853
3776.1
1418.38
1989.18
2462.27
-636.234
2596.41
-126.727
-1294.81
-3.27948
99.3324
176.905
5915.64
6117.98
-1317.72
1844.47
318.765
3826.17
696.692
4154.44
52.4783
-110.348
88.0587
2022.32
3776.06
-364.979
1074.62
-36.9724
2248.96
3467.65
70.6235
4040.04
2191.81
5719.41
-663.177
2299.96
2694.06
2798.37
3557.08
4209.07
793.414
-36.4261
529.81
870.637
47.9716
-176.081
87.9317
7088.82
3282.42
345.136
204.698
-855.518
183.342
180.004
944.634
1427.78
-32.4008
-209.914
668.828
403.278
-33.929
11742.1
-162.902
1244.19
2619.79
5.01319
570.655
-426.402
3353.88
78.4131
-27.0407
-298.239
1068.34
10874.5
280.448
820.951
2050.27
495.944
2065.31
-265.517
2176.22
522.757
2412.96
-26.0326
515.437
313.215
-115.252
480.332
2900.4
2.3745
112.577
3806.01
-380.115
-86.4298
1067.41
4434.9
5029.18
1476.76
8101.4
3481.43
-95.9619
-493.99
6273.51
89.0001
-23.9067
2614.6
-242.18
25.2739
770.96
-581.653
7238.76
406.967
3871.36
1236.3
49.95
43.8185
2028.43
-197.377
313.127
318.748
1432.19
1601.76
991.631
511.768
6787.9
-513.549
-1018.57
787.779
-1203.97
-49.1939
-125.38
2442.22
11305.5
-92.6165
6529.06
2163.63
3144.6
3722.29
4937.1
129.924
2648.86
221.745
-692.882
8546.23
1461.37
651.346
8554.97
297.847
370.149
860.063
223.139
359.66
617.753
600.771
-472.204
5014.51
1860.51
2637.2
-107.585
2971.86
183.362
195.947
501.466
4717.15
-224.672
-703.16
512.755
3054.19
1217.37
1377.37
1248.04
291.59
539.389
-550.434
-266.285
1314.21
-61.3512
-174.253
-1116.8
656.645
1460.1
-392.031
1600.35
75.4881
1745.63
307.738
-131.796
7459.06
7128.87
435.458
-576.178
-70.3836
640.482
1481.22
854.269
1223.56
-302.501
4175.81
3673.38
-705.335
-60.3216
500.359
-181.681
599.596
128.819
43.4926
38.7598
661.237
181.716
41.5718
-150.568
14329.9
12288.9
12082.3
1002.02
489.529
23.4006
32.4323
715.745
-4.7595
852.535
1903.48
2843.32
3573.74
7409.87
1083.13
6742.1
5990.07
122.896
520.99
4422.67
-62.2571
1664.53
2521.6
3979.29
11338.3
9462.64
270.938
-763.44
3689.43
3385.2
2893.76
-219.192
1421.98
-543.766
3071.95
2219.93
1063.78
250.529
-49.6646
3409.4
2940.67
-76.9877
1241.73
214.374
138.447
1608.91
1533.27
84.4667
637.745
708.42
-495.095
6151.01
19842.3
7767.25
11570.3
877.39
2300.99
865.508
-525.408
3961.9
3456.92
-371.535
-274.789
2381.16
256.017
815.153
2818.12
352.802
1607.54
4987.98
7792.68
2628.91
-174.699
391.842
3303.97
-63.1467
8872.1
4763.98
16410.5
9873.15
-761.792
2156.75
-162.968
896.937
5214.75
5530.52
49.3979
370.084
206.674
3011.85
-420.269
-360.941
6488.94
902.324
1629.98
-149.406
74.237
1129.38
-162.823
143.127
963.91
2752.28
-1227.59
-3.50164
1846.19
9497.4
522.508
-838.211
5028.93
1295.23
73.2302
1338.21
481.293
99.2508
56.0462
1543.85
122.025
-202.851
18.0613
-189.693
1521.29
982.363
2886.1
1822.06
1126.77
1155.44
-147.752
606.874
2128.69
-267.027
1154.67
69.6457
2635.66
589.064
1105.2
-310.199
2002.75
113.225
-171.56
1504.34
-786.359
951.233
885.328
3311.96
1214.68
245.855
1414.96
-159.481
-225.548
2770.12
495.879
2480.27
2893.07
-199.659
-304.766
258.611
1881.22
479.647
1581.32
-466.877
-495.124
51.1325
1308.46
2115.23
500.205
43.0137
855.178
2007.68
489.813
6.59287
-370.691
311.232
1561.21
-166.134
62.5872
-594.833
-848.191
3457.8
-309.435
-344.367
11.2631
-130.236
7590.03
-878.504
371.618
-773.508
5072.94
1308.82
808.73
39.7305
159.082
15535.5
1206.79
950.587
-818.421
187.106
2886.05
576.587
1745
5536.96
2317.41
2926.64
-738.136
2231.37
463.861
779.378
7461.14
24.4408
9969.16
9661.72
-453.339
325.497
116.955
4701.36
-69.3484
12370.3
236.183
2047.15
2245.21
-666.941
-87.7072
-1153.83
1123.46
286.792
781.551
591.717
-436.58
810.068
69.8507
1876.49
1274.59
957.208
8527.28
-652.486
3364.51
1849.97
1703.78
7882.73
-946.802
-972.933
-154.343
69.5683
562.804
9893.53
7901.35
297.548
-214.824
39.4569
2319
-389.114
-48.0469
-739.103
2315.81
3221.97
81.794
301.082
-1361.45
-68.544
3085.64
4407.67
7728.79
-110.975
7679.59
-237.56
-186.616
-450.026
7260.32
1504
3567.18
4535.6
-218.154
-488.945
4725.52
8232.33
70.458
105.724
602.849
545.928
206.817
2783.26
-35.9444
845.253
131.932
243.621
227.904
-96.4615
282.068
19766.1
3166.71
3441.5
709.769
4448.25
349.08
1018.74
1680.32
2231.14
4843.83
164.675
-134.784
4027.22
2270.75
1196.12
75.0443
408.758
457.291
507.018
727.527
1657.65
4061.26
2420.61
23.5802
430.473
-59.005
253.352
208.169
785.675
-1422.96
-372.318
108.025
-2033.92
-968.636
4193.87
118.421
-132.783
-370.553
2425.81
380.338
-178.085
1861.14
3991.58
12244.2
685.532
3442.81
2687.11
281.226
2899.66
-51.9208
1493.62
-121.233
4421.48
2145.27
-856.003
222.328
8472.46
1184.76
1823.72
1020.58
1066.63
143.847
1486.67
2367.17
1653.01
447.521
2718.31
16824.9
1047.95
357.285
3780.4
1802.55
3446.86
2180.41
4110.26
2068.39
2320.44
5407.68
314.839
13576.6
-172.367
554.436
394.668
2079.3
-337.14
-90.3978
732.955
-792.298
120.451
9562.84
2835.91
6866.07
3484.74
187.836
737.4
-146.599
-753.141
4531.31
2435.24
107.919
-149.343
-335.721
1239.39
2239.08
2729.38
720.186
6423.28
1051.13
411.429
-674.582
62.8153
3751.04
211.362
530.549
5636.33
10837.9
1738.51
-296.636
505.303
577.042
74.0618
-242.192
2066.86
271.175
-1835.33
3919.04
4309.13
-644.896
472.425
2149.89
218.002
-215.691
-265.944
326.004
-903.876
-136.311
7180.73
10375.7
5252.48
-172.387
1327.33
-398.53
184.661
577.858
87.4402
230.46
3371.06
585.101
2804.8
134.834
4813.37
487.064
2303.7
597.17
46.1519
-177.617
-18.4476
355.904
776.915
-879.98
166.521
4286.72
79.3806
-194.687
-220.75
13997.9
5864.06
3024.49
2510.46
3900.66
-461.743
-607.836
3866.87
108.808
1760.89
-337.143
120.85
1228.37
-112.778
-899.765
-23.8382
-112.934
16860
761.226
1500.61
-159.403
100.877
12290
2480.29
-1502.25
6785.92
-601.484
1823.55
6629.65
-414.907
1164.03
618.018
506.569
736.963
-56.8888
2584.23
1561.78
466.949
-680.098
226.582
3630.69
2902.85
3267.08
-18.9184
1718.47
125.434
-191.084
-301.232
215.672
923.344
656.694
1790.28
3414.92
4097.37
536.469
396.413
30322.5
2053.79
1811.54
1211.15
810.863
1081.59
2128.03
-19.8222
-169.709
-597.686
702.171
9.80733
329.668
167.069
7084.82
9937.09
1550.23
12352.6
3916.8
69.8824
1772.8
-54.7182
1836.72
2922.05
468.036
-410.96
275.48
378.998
4232.22
1930.6
953.27
2669
2038.47
891.592
642.539
3934.32
1007.6
2212.62
-152.109
-175.452
2081.74
5170.54
1180.34
1331.06
432.508
603.198
7007.58
1132.65
223.344
-690.07
4475.92
-463.267
476.23
-61.1667
218.807
160.045
-438.815
155.081
2974.74
2399.02
1187.62
1765.3
-312.614
1826.38
15882.9
2043.89
7873.87
532.861
1093.06
270.071
-10.4372
-648.013
-1664.31
-113.673
567.845
2789.28
-700.242
915.831
3023.12
1548.89
-603.672
-110.564
-115.775
1279.81
5897.64
806.614
-457.034
216.226
2846.27
526.222
7232.97
386.476
2510.84
4788.04
11207.2
1764.65
-225.064
331.215
1546.4
4229.23
3610.03
97.5598
571.254
1814.59
63.5281
-41.1232
3942.91
1679.59
667.639
2136.68
-51.9813
45.0234
954.486
-877.459
202.219
412.504
5465.61
621.329
953.389
621.475
878.412
4303.3
-297.919
631.507
4523.24
-412.132
1917.9
722.221
1194.24
1114.96
8278.31
-366.888
2537.36
2003.3
742.913
-233.42
-1.91196
1124.98
373.367
1871.28
-57.2349
-432.6
526.396
174.15
1513.74
60.169
1670.56
459.504
2990.5
2140.14
1875.94
1850.22
-152.625
-66.0653
375.885
570.144
713.922
3530.93
999.615
1479.69
790.955
1810.07
6452.49
-822.706
-1290.48
-1211.35
363.665
1123.9
1854.89
5406.49
2823.49
-339.351
2390.52
3550.59
2265.97
1889.93
970.333
844.278
44.8722
-403.332
168.844
1351.31
2113.82
-1042.72
-1027.66
1780.39
122.277
4782.81
1921.5
5859.58
458.999
-1.95183
746.224
50.6291
2077.42
476.82
2143.3
1330.53
-663.122
169.276
2652.6
825.11
4031.99
2394.82
1018.84
331.172
691.797
-338.705
627.89
-512.198
57.2171
-466.42
-45.1996
656.677
528.511
1970.55
2243.76
366.824
2094.94
821.642
1654.05
6574.3
-81.3729
1078.61
1835.42
1111.24
411.464
-152.583
1819.55
369.165
484.779
922.362
5351.41
630.884
6041.66
800.498
649.494
3228.02
2740.37
1246.02
-69.2396
614.386
-917.4
-352.995
3705.72
7116.7
132.131
1158.04
-352.628
658.192
6.246
291.971
-33.5336
-49.8496
7546.12
590.235
544.892
4252.24
-446.535
407.357
832.028
900.55
103.849
5226.02
6163.01
-22.6625
60.103
834.116
-572.975
1259.08
2363.54
697.121
-33.6652
-60.3235
1783.01
1512.43
287.237
-1372.24
-479.503
1466.28
-59.2682
-656.766
431.34
-400.491
554.084
-317.349
10379.4
-771.535
466.866
346.575
1560.14
2900.45
2268.74
2415.82
481.229
-221.527
-1166.57
5233.21
9738.65
-367.006
239.397
-167.361
1277.85
55.2799
156.468
4028.73
12099.9
97.9133
331.325
-30.2149
94.701
705.387
-15.5829
1301.6
351.587
8353.32
121.062
1739.32
-605.58
217.467
201.073
1029.27
9.32518
537.907
-70.8136
38.4863
150.356
1363.51
624
-217.355
-419.399
-132.855
-7.70744
887.338
115.589
1617.01
202.843
1262.03
90.3238
1546.69
5646.1
2493.7
-250.576
952.65
60.6181
-271.102
2152.96
459.136
431.715
-404.845
3043.94
-417.154
1352.55
-5.26812
2090.59
-155.475
9405.17
7218.42
-163.89
-357.977
1.76946
130.136
829.847
-269.361
-8.59798
1383.72
-1203.63
-144.575
32.9827
-370.37
351.337
2047.98
-576.105
2523.65
1532.76
-287.941
-1.84795
2810.4
578.463
876.514
19.8125
-747.662
-570.142
-245.835
3328.77
6821.56
2265.72
1770.9
-197.311
256.51
1846.09
-128.253
2175.53
1851.3
2129.05
411.904
-213.173
-252.637
-1807.3
33.4711
-504.114
4596.68
-841.928
395.499
180.854
-580.95
127.073
2646.28
357.637
969.918
2603.14
269.229
-196.657
536.758
2835.11
-673.291
-535.928
262.224
4618.67
8550.66
1073.02
738.497
189.799
4009.4
1895.07
6099.86
-56.8409
-770.426
91.5638
360.741
3289.17
-2669.83
476.034
2786.56
160.386
3371.01
338.017
-203.805
21.7274
-245.713
19018.2
1244.99
-883.173
1664.2
689.261
258.71
-346.016
132.93
6032.86
-4.66807
3499.44
2617.77
316.345
722.867
1743.01
-32.1653
1381.95
1874.59
1393.45
14.8627
3672.7
-1137.27
760.37
1592.48
7216.99
-2140.05
-262.149
-774.17
-81.7596
2685.42
3663.89
1937.35
-369.31
166.42
2321.34
-281.002
1933.66
3008.46
1152.77
779.385
1087.54
-165.379
732.92
1258.01
-293.094
344.887
-1178.83
280.674
6195.93
1071.2
1471.91
1335.04
589.497
-67.2955
-42.9254
-349.628
-70.9645
2554.51
-75.5552
2800.01
661.881
4238.94
520.265
6479.55
4066.51
801.032
2357.8
456.687
3712.21
3356.6
5149.68
-464.102
6218.92
3559.43
421.005
1391.46
1008.16
8263.11
6689.95
1173.23
7810.03
3472.28
381.65
658.615
744.82
710.102
-73.0667
1058.82
361.108
14.6427
470.583
-165.687
1764.45
77.006
106.575
337.044
-139.766
1949.09
4580.96
-1452.44
61.5905
-220.797
-454.586
-660.993
285.947
3734.94
4632.6
7437.8
6110.32
94.4876
417.339
1434.73
847.394
30.5516
14952.7
4502.25
5774.14
633.928
-1680.28
278.092
121.693
5004.58
1013.28
2660.01
-168.924
-720.941
915.853
-1185.5
2085.8
2221.37
4449.91
512.367
173.788
247.376
48.528
-750.772
1038.43
2328.26
515.239
1415.99
7781.75
8188.93
-138.396
2150.01
1189.56
314.004
3666.74
727.991
918.675
4119.47
-147.585
409.752
2475.28
478.856
2463.25
23.6869
6420.29
1076.74
39.8756
12.8975
538.061
2646.36
3116.29
4946.96
928.487
1831.78
1112.46
13.1595
334.969
385.668
6376.49
961.235
-1370.68
2866.64
2255.82
-178.703
2562.21
432.88
97.9244
137.747
-379.195
931.812
2391.08
2497.92
7313.69
153.078
16.8338
-1173.98
1066.88
-145.864
5758.28
11896.4
2517.5
9806.42
176.339
604.882
2914.99
6241.55
5788.1
1193.71
14051.4
19751
7999.56
524.806
209.501
9547.72
-472.226
4553.23
3581.66
7725.22
17.4929
3063.92
207.72
337.933
-247.287
347.68
-119.736
1935.91
695.153
745.573
4069.75
840.958
4214.19
2332.08
-777.47
-593.141
437.665
3055.5
1075.45
192.797
51.444
6337.6
4822
-711.708
2432.44
5087.98
-441.083
1450.6
995.043
3376.93
3363.22
441.037
-318.669
3113.7
1990.76
3077.12
-22.5548
4486.74
175.892
2707.73
396.818
1266.79
790.987
-41.6641
3113.06
-754.386
-1.04554
4220.07
1345.3
2263.55
-531.245
1127.94
4214.32
-106.36
-116.127
41.5984
1818.72
8708.2
-441.054
1401.9
5300.6
-844.588
658.076
4917.84
-1.45934
6184.48
-235.613
-1217.85
1524.64
893.086
4129.2
481.965
2990.37
-406.954
1621.6
1440.04
1316.79
-203.975
-689.406
263.99
583.416
-272.43
388.873
-221.769
446.253
777.407
1180.23
4731.22
-152.686
-209.738
767.956
3179.88
-912.108
1783.89
139.631
-537.079
1187.08
4249.21
1055.02
231.157
289.918
-720.054
-658.352
839.841
-4.29836
-509.683
110.334
-124.889
358.512
6119
-2634.66
86.6832
3681.64
3178.66
810.846
2026.22
908.618
10824.8
-261.236
696.901
5063.11
3864.21
2039.65
3438.62
6.2535
425.199
-2582.48
1412
3692.51
358.557
4800
-167.673
1146.42
236.989
1998.49
3919.32
920.103
1562.08
150.389
253.701
653.715
451.576
-394.066
-11.7481
4579.91
1411.88
-120.092
3910.69
-199.584
-130.55
1971.02
197.175
1207.68
-239.639
22.8273
1242.19
6512.19
4606.85
5601.14
1488.48
616.348
247.415
1750.87
6647.3
2890.92
4053.97
8038.65
-334.271
1457.81
860.649
1463.97
-3648.86
37.0809
1243.81
7951.98
3148.15
246.191
3873.66
97.3371
-623.777
747.456
3025.14
6681.46
472.638
3699.64
-624.685
8706.03
7463.25
1603.73
-427.962
-3.32819
1400.87
1327.31
988.549
-297.059
1952.84
1313.23
-888.946
800.84
-1045.14
-383.822
1206.94
-150.207
-253.909
1719.13
9812.34
4815.03
-469.366
-344.004
3373.16
4802.43
464.81
125.093
-851.07
392.819
883.098
860.866
-2.78594
452.329
83.5652
-981.296
2266.76
3332.61
4608.21
439.423
46.6447
4668.12
10919.3
394.254
-58.2003
127.47
-444.675
149.072
1628.44
464.041
-503.886
484.203
-203.189
-1.78148
1693.33
-228.005
265.529
-7.05012
-292.171
795.903
-541.508
3381.98
4797.31
330.24
4090.53
207.817
904.381
1567.1
-91.9282
-352.868
5122.86
17254.1
2908.98
2699.65
6636.95
555.351
-351.362
-673.574
379.539
6.37871
13690
1188.98
507.51
1524.29
113.7
-43.5009
-352.71
-245.238
-13.7038
-20.5027
10498.5
-419.482
76.3982
1924.38
-14.182
-493.065
2080.57
5936.72
2426.76
384.816
1634.63
718.145
-92.0117
-257.397
-487.96
250.612
-45.6364
1143.33
3066.31
561.118
3289.25
12517.3
898.479
2035.62
2536.6
-1772.17
1120.46
258.203
918.818
953.776
-215.178
-680.608
478.766
12433.1
967.371
-653.412
-455.363
789.329
-16.7317
-7.63456
111.033
7605.25
1225.19
1517.73
3751.36
70.3925
-38.1232
644.489
1509.33
748.961
-585.083
-482.786
2458.07
7905.97
5438.38
4464.23
11063.4
3749.65
959.996
670.718
3890.33
2010.2
-69.0808
581.647
-653.145
503.917
-38.2079
1328.23
4266.01
158.708
1905.8
2114.54
-137.947
-459.786
-352.452
6150.33
3224.16
1578.43
57.6879
930.455
598.351
2877.6
-188.737
119.169
82.8014
-296.561
1925.03
-32.9008
160.208
269.226
-156.204
4620.32
1682.85
1173.67
74.6283
1213.14
437.567
395.624
-76.8072
-564.805
-86.1027
3101.46
-7.08085
-787.337
6224.49
8634.1
444.727
284.236
1963.93
3933.27
-542.941
1788.59
630.692
984.19
90.4289
2502.85
27.1415
1092.13
6480.71
-930.227
-163.711
641.621
72.4572
84.113
215.267
-269.414
-817.006
-274.092
-220.858
532.387
1509.41
9489.73
6988.63
2973.7
2878.87
1163.81
61.45
935.496
2636.61
73.0696
166.248
-268.122
-713.981
-1645.28
174.57
2293.15
983.565
834.822
2247.6
194.99
-766.618
1022.49
2323.68
956.285
206.998
8014.25
2034.74
10129.9
-520.657
4094.08
5197.21
1064.16
169.75
2600.91
-152.234
-47.3172
969.704
662.571
720.161
3169.58
-1363.46
443.843
756.865
531.048
1777.26
53.0013
1018.99
1266.15
4022.96
12030.4
1181.17
6061.17
1706.99
3214.23
-197.615
209.171
437.093
90.0709
2643.05
934.844
-269.156
98.5348
-140.389
-46.6556
424.843
492.892
2636.88
4752.02
1439.8
630.936
-787.688
2766.23
6087.93
5288.06
291.436
1506.64
-883.349
168.968
-1182.15
1634.36
-112.769
-197.625
121.384
3645.45
89.7258
103.653
603.003
-334.643
140.337
-1055.31
-38.4612
2909.72
-1083.05
107.001
-964.722
1600.39
1501.44
-532.804
558.455
-290.646
4474.71
143.758
-818.868
264.723
-330.694
1492.52
823.939
-228.757
-254.188
1429.69
-283.409
1125.03
9976.48
5518
-1.68539
204.393
16.4237
-45.2451
-227.667
-794.626
-438.809
1604.47
4184.09
-633.787
1065.73
-959.398
467.65
779.25
1092.33
-277.25
7240.96
1918.9
8362.62
1878.99
1168.74
-632.787
-313.334
5837.61
407.173
6425.13
761.615
340.652
4167.3
281.609
349.014
5282.09
1068.2
290.326
2782.16
600.492
514.168
55.1216
-1142.32
3044.31
1203.44
-143.822
397.564
-104.882
9200.8
2614.25
1580.39
1529.34
568.059
7102.22
167.112
-459.577
5167.69
1863.63
1054.32
903.821
1521.89
255.461
211.201
2993.34
4158.42
1672.31
76.6076
3669.94
4667.31
3178.32
257.654
-544.206
4110.88
4116.02
-709.015
-28.3641
1626.83
-1429.01
-73.5601
3426.83
-18.0763
2155.42
-330.206
-544.831
416.434
4732.51
-302.779
-360.585
-168.183
72.9267
-113.858
1952.59
7611.07
1083.09
-510.665
-571.385
7029.29
-642.139
-226.095
1994.28
-1959.36
2781.78
-36.2794
6208.03
-127.968
3267.76
810.505
2278.9
583.909
6568.61
4810.04
1526.97
1328.63
-1346.16
739.966
108.333
463.969
1780.44
1938.14
2293.51
2773.11
-271.208
54.7142
-17.3478
-417.222
9400.28
5657.7
3735.34
-201.496
11524
316.733
-347.975
26.7193
-185.381
-322.106
9.94313
5355.08
841.898
481.317
105.859
1665.15
-25.3392
508.724
-274.346
-164.211
337.456
2413.51
791.168
443.829
3322.29
1419.85
-17.8244
380.818
176.821
986.296
-387.555
594.79
1719.73
1218.44
881.511
2649.79
603.987
2512.42
-15.5325
-479.23
-817.633
503.842
1239.24
677.838
9450.51
7747.2
23.0584
1764.62
1669.69
5296.38
610.247
-286.524
-283.791
315.051
549.841
7399.59
20295.2
12197.2
3011.15
2642.82
145.115
2331.93
-175.189
4940.99
-404.27
997.754
1078.56
-198.309
-147.201
-705.056
2439.05
507.903
1701.55
1188.88
66.0272
5951.53
7129.38
1335.82
852.944
1135.04
5108.23
3140.48
-280.4
3994.22
4219.49
-781.177
929.105
-309.372
556.437
1994.57
1194.06
1057.21
-2.48157
-368.266
646.718
7057.31
907.602
3261.98
1801.18
1570.41
2528.89
2890.82
110.461
1183.1
1274.38
2491.88
379.105
1810.4
2906.25
-2960.18
289.072
1188.41
366.954
188.471
4651.93
1861.27
422.995
989.795
5228.66
3051.89
-238.428
1906.35
-1161.53
-389.615
1382.73
-176.843
5529.84
-532.039
-29.3168
-286.077
-70.4273
853.447
11215.5
309.149
290.744
-109.277
80.6286
643.914
17697.2
12206.8
6485.57
926.369
-24.7095
683.034
1600.61
-147.775
2455.18
2187.99
2086.22
974.501
10368.2
4726.55
321.477
6412.14
1419.1
-337.227
-609.942
6525.69
2409.73
5568.05
3849.91
-55.2434
866.338
7463.18
6134.07
9045.25
5052.9
605.626
-811.602
508.382
1960.45
1317.04
2391.69
2505.47
1710.86
4972.16
974.686
5277.14
1788.09
420.226
2440.1
4190.5
156.71
72.9659
3247.83
2567.26
900.199
24115.3
-129.228
-485.244
110.416
-456.885
2176.61
399.129
851.552
7.86488
5917.58
14.816
1334.25
12312.4
6157.76
2635.59
4013.06
3885.88
1698.26
3617.34
744.975
670.888
-150.522
174.496
5971.83
402.555
2674.73
806.485
-77.78
-63.8463
70.7793
3046.66
236.099
-624.768
3144.74
-362.649
-606.334
104.818
-224.957
4882.63
8239.55
118.941
1084.97
13579.5
3006.15
4448.83
1232.15
190.86
2338.02
865.336
2657.52
895.289
1116.81
3093.51
2588.75
-896.513
4617.09
2738.78
-1266.69
3990.83
360.504
7047.74
3287.99
6913.91
2028.75
1629.66
6122.08
3390.57
166.118
9169.18
-384.645
668.494
5075.39
1342.47
126.638
4844.49
3733.19
292.478
148.519
3955.99
-597.301
50.9945
114.244
-14.8974
132.968
4494.45
1709.41
394.813
903.409
3976.53
447.501
438.799
-167.247
-27.4989
-22.3054
-143.591
-0.604044
2624.23
2283.31
508.079
-966.393
305.136
513.135
-354.625
28.2692
1049.6
1732.82
334.348
15354.5
2982.24
528.958
2390.26
1909.39
80.704
363.332
289.751
-223.686
-54.8284
-188.058
-67.4462
9374.18
328.777
387.061
163.55
766.186
1586.58
-979.146
1044.17
1207.8
115.198
-561.133
-488.92
591.864
-46.7258
-82.4098
3924.56
21153.4
4856.11
1145.74
8554.22
-134.33
356.59
-430.481
932.869
657.9
-326.264
182.49
1300.98
898.932
1300.84
5757.88
3105.44
11216.1
2028.73
6966.04
873.859
-450.123
7478.83
3622.57
2998.37
322.048
133.552
715.417
1570.79
381.843
241.61
855.396
22.3205
560.138
514.223
-270.388
-33.5866
-370.543
3449.7
3879.51
8011.9
86.2725
7076.56
9336.15
4505.33
408.673
1277.13
823.484
-22.5454
-113.075
668.193
7035.49
837.963
3486.63
965.073
-335.642
2739.09
-38.4527
-562.534
227.2
309.163
-708.346
-390.476
-614.319
805.794
15.3441
167.194
9683.03
919.437
160.569
113.413
-1245.92
231.169
274.152
71.9513
587.716
1897.51
-314.065
908.16
4788.38
1640.58
-247.997
2493.03
1929.19
1019.41
1177.72
884.924
1412.79
-51.3797
-76.1765
-580.023
-158.931
-97.7667
-858.772
1012.35
10710.9
11751.9
7542.96
1060.28
-246.711
-55.4537
13.8252
8686.16
1225.92
3306.5
213.254
11645.1
3917.77
9115.51
2736.55
98.8963
-296.532
-342.529
-20.3828
1768.77
1695
1802.44
4303.2
623.644
4311.25
3519.22
3364.7
2170.07
-240.584
-683.118
-612.459
751.567
1153.31
4409.77
152.143
1111.06
778.654
3709.68
10014.3
-1221.65
-156.005
2285.48
16191.2
7411.15
449.558
503.813
933.023
672.786
-343.54
37.9372
344.053
658.218
680.628
757.605
1334.59
248.519
4547.77
2815.46
6937.03
15597.5
1874.3
647.535
-959.736
3474.95
278.442
892.995
-59.9934
-106.707
627.311
-103.477
2415.75
153.34
340.408
1105.41
-343.718
110.967
648.566
1994.61
4990.27
6802.29
429.419
8079.01
691.971
-58.8162
13724.6
4185.03
439.37
6724.73
-1044.44
-371.137
-750.313
6370.74
29.3972
12813.1
1461.53
1310.75
-592.698
2077.55
334.17
3858.08
-11.9597
-1696.88
1007.93
3119.65
1631.35
1189.05
1457.03
286.867
2848.75
5653.68
393.78
1556.14
-163.696
474.438
-1042.26
275.713
830.303
2667.28
1266.69
1063.54
2996.65
2304.69
-280.767
-1123.89
1818.92
-385.73
5295.6
8.20485
-111.696
-17.7049
-462.196
77.6685
257.904
-359.96
-1426.86
10115.2
-152.198
-402.849
1499.74
189.024
-766.058
1406.7
-84.1945
-94.1136
-306.793
250.831
3004.99
75.0597
2230.27
1934.28
207.401
-1573.09
1547.91
6147.16
4808.55
72.4985
781.769
1.75895
2267.68
518.89
169.427
-374.937
4316.8
0.940216
-993.046
2184.1
-502.842
-541.767
6795.13
1644.09
91.2298
208.096
543.984
2044.57
589.652
1028.5
8814.54
3442.77
-778.986
5410.54
5784.81
-112.207
2039.13
1483.84
172.217
-177.288
315.266
-447.783
1035.21
-117.817
-499.851
154.256
87.3291
1372.38
-898.978
4749.61
-306.922
4495.1
5969.33
1211.2
0.769744
21.5117
-1734.98
1145.75
500.067
-537.594
1083.63
280.502
992.048
-434.469
1557.31
575.745
199.819
-72.807
620.058
-182.817
117.388
2993.54
-163.055
-466.335
845.841
3313.14
-20.2474
2840.03
439.465
1192.67
513.365
-137.426
-252.052
-132.256
-487.151
21.6546
8170.89
1314
-1555.27
1872.61
2774.34
1624.03
-286.948
1363.11
113.385
1391.66
229.748
2933.22
5464.45
220.5
2290.43
200.668
76.8915
596.236
-277.257
911.084
717.139
3349.73
-343.552
-1047.38
5739.28
697.14
2593.12
13765
-46.0414
732.791
606.635
-124.161
2317.58
2257.01
-3072.72
-333.497
190.614
1648.95
828.004
2067.75
3359.48
1259.96
4904.62
1279.77
-293.274
1902.38
4968.32
5547.75
829.058
7751.68
1119.71
724.237
13476.9
-354.422
384.569
6376.39
-412.479
5240.56
1625.78
6619.08
4989.9
34.369
-642.077
5726.71
8424
3005.55
5869.96
-116.176
2300.81
10449
14326.9
1355.68
318.133
-326.142
1694.12
676.29
33.7403
692.897
11298.9
1822
1360.72
356.547
-219.775
400.924
4739.68
1039.78
731.655
688.33
-295.166
-117.727
1306.11
5410.97
2718.89
1695.89
215.438
-381.484
613.343
-180.502
-14.0228
-64.7649
7630.35
4331.87
3730.61
933.067
11859.3
582.081
-271.118
-768.993
2939.83
2498.92
389.759
554.184
9456.39
1508.56
1316.17
-623.917
2377.59
17677.6
5252.65
10720.8
3228.62
714.97
1048.06
137.675
3133.81
656.639
2223.61
4457.02
2203.11
65.8266
-531.665
-358.485
2472.28
1111.73
818.753
1627.14
4479.64
2837.66
-73.6528
-136.59
-1471.53
521.078
-252.662
2228.43
-30.481
1231.62
5220.01
445.368
1022.18
2635.3
-861.103
1292.56
142.531
1205.22
589.504
1236.39
413.936
-34.031
-1099.88
1024.42
7939.44
11145.1
3911.59
7437.4
304.19
3909.77
912.601
14.054
224.74
507.546
1870.31
378.458
2672.43
136.936
342.155
4004.47
6396.55
2554.04
56.3284
-685.798
2520.19
1468.71
10665.2
9324.07
2530.86
399.136
2932.58
-209.316
419.907
-27.6372
2054.44
-1643.46
606.839
3356.82
51.4017
-272.953
784.087
958.391
1756.11
-265.395
7564.07
11940.1
1057.23
-67.8974
-111.426
4037.06
-215.278
-923.194
-588.459
-47.2922
9249.55
239.046
2026.81
2785.56
5378.4
1019.06
402.199
1709.52
404.43
6.01802
1680.18
3410.48
6142.54
5436.1
911.065
2225.09
892.267
480.544
3423.99
7436.79
71.2945
-253.924
3830.94
701.103
92.8689
1281.42
438.356
456.791
-77.5891
1843.13
1236.06
7828.26
1409.18
1060.98
3878.55
2765.42
1118.72
1899.04
7297.93
22049.5
372.115
-16.1317
654.113
1985.18
1622.52
-388.46
-515.327
-1322.84
119.549
17.1061
287.381
3389.9
-1224.16
1259.19
124.054
84.4513
348.309
201.996
-167.501
3591.34
1007.99
5401.33
4191.35
4205.61
780.812
227.098
373.018
1076.99
564.687
667.978
-188.208
-103.379
-471.285
1864.73
840.996
401.634
-440.156
-182.212
3005.09
244.439
11066.2
2532.77
-61.4464
369.387
483.314
1297.83
3688.73
-7.5197
474.747
-1157.47
6106.32
176.807
832.995
244.789
2238.3
1403.92
20.3457
627.118
3190.46
2897.49
-448.108
3930.71
1567.16
48.3712
4.69556
-153.272
42.4881
-1080.81
-279.641
-24.5862
457.191
868.906
2164.9
-891.689
2067.12
1983.05
4619.77
-699.718
1019.87
-335.044
2837.91
6906.78
4081.16
47.8409
-182.453
-972.236
2529.28
628.362
1689.96
7147.16
1669.3
680.144
483.108
1023.63
-255.086
1440.27
-211.313
4775.63
283.232
-994.902
-716.721
33.4366
5236.36
849.621
1093.75
234.511
277.402
-168.739
44.0864
7220.98
1302.96
5154.24
24.7648
319.378
580.563
909.287
33.5084
169.771
-712.565
191.412
260.992
7335.25
-103.507
4211.02
2091.35
1874.47
419.577
719.718
-69.3032
2610.92
7064.25
-422.951
4033.3
12730.3
4261.9
2737.94
6755.21
3457.26
137.447
-18.8993
1454.86
-256.683
-9.43092
4986.02
5513.87
-1398.81
793.983
4292.77
228.336
-317.032
1787.22
3213.19
784.905
3489.48
2177.39
4774.27
-270.113
1106.91
1368.35
2620.07
-675.47
4143.53
848.518
9592.54
-666.171
517.977
-322.838
5361.31
58.092
357.401
-774.379
1554.45
3001.45
38.8026
-918.419
545.284
-108.943
6469.58
793.979
2584.99
2385.5
629.982
-150.845
-60.8356
5562.39
-224.884
-34.2511
4552.55
658.524
8981.44
-187.967
642.075
-489.121
445.087
1212.7
1132.06
-168.42
181.988
2179.74
4549.15
652.239
659.457
-92.1225
582.491
2255.01
6322.74
3481.46
2158.64
567.329
2949.19
3545.95
3693.79
3159.88
235.409
2115.9
-1164.3
1753.48
1131.85
390.322
-15.6026
7091.34
3084.4
243.735
-226.764
284.171
394.505
2629.15
4482.73
-411.785
1556.11
1174.27
833.614
580.542
117.214
1690.66
5744.66
599.252
129.14
530.009
703.375
-54.7621
43.5158
1095.83
-440.613
-343.001
1153.17
-428.082
8155.5
284.65
2695.72
-13.0711
-719.95
104.329
155.924
6619.03
866.101
3607.57
3576.98
10246.8
54.6194
-240.132
7566.9
163.828
-410.368
1773.49
91.4241
648.976
6048.95
-217.882
662.927
2815.2
368.843
3236.38
13.77
1577.06
403.496
-539.38
1004.5
73.2207
3505.42
1830.88
-282.004
3475.41
1072.84
2500.14
552.436
-14.4464
8825.35
-82.4358
6534.36
3308.47
25407.5
4781.75
-262.388
2418.35
-27.2017
81.6073
3231.5
6771.18
-69.1838
4298.47
2634.6
2586.84
3415.71
1610.66
291.498
356.345
6707.6
-520.763
518.288
-157.624
1960.96
-284.373
887.743
779.586
-480.552
3660.84
3002.9
370.933
-628.624
76.9838
221.213
5536.02
4037.91
-43.6456
6341.23
3903.53
2676.36
-114.01
-210.006
-724.388
52.117
1065.02
1203.63
237.361
4372.74
9444.81
10561.2
3351.99
421.314
5532.82
-458.257
7303.26
-277.169
1022.19
6331.04
596.553
348.744
2312.46
2216.7
2178.34
-286.283
-1135.3
3060.84
354.123
-418.664
7419.27
107.88
-387.69
2590.53
162.224
3836.8
101.285
151.551
5017.41
2130.43
679.539
2707.21
2027.43
-226.206
2817.94
4052.24
-31.196
-214.715
3809.48
4291.94
381.315
116.552
3338.21
3030.94
620.688
2497.5
2226.17
85.904
3583.08
7969.92
-332.816
3724.34
-724.409
8915.28
1601.53
2147.26
2599.1
1995.83
1688.99
1331.08
-290.649
-504.813
-10.9078
1882.46
-43.9412
88.1932
162.547
3796.57
1402.78
4185.52
-1072.8
911.873
5630.98
5893.42
1435.46
-439.881
717.575
953.552
248.645
99.7415
1319.49
374.515
-169.368
702.055
2207.58
266.211
-1107.38
1737.94
940.165
6413.73
9338.09
5.74337
277.095
59.4018
948.01
953.989
-748.085
1271.45
67.7478
702.66
873.733
894.353
396.196
353.944
23.627
71.4206
1444.98
10.9235
3299.76
2270.65
2902.48
-137.593
39.9482
-331.924
-1034.5
1638.11
1857.34
4877.66
4294.08
3097.76
9836.91
484.817
4311.36
-232.27
-670.317
1709.29
732.293
631.081
653.36
844.071
1118.82
-617.097
858.466
3276.74
1117.6
7608.56
14188.8
696.951
-48.1719
2630.03
15.7425
-915.831
2266.19
2001.83
5018.42
-273.803
5707.2
1569.19
687.558
-1006.79
761.26
1088.18
9170.89
2481.5
377.114
353.342
-1266.74
-722.763
2608.85
2576.95
1210.45
208.975
4936.36
78.9269
6.93311
3494.19
373.436
-238.529
-924.072
-179.996
487.871
2704.45
-43.413
922.603
-152.741
537.741
-542.338
1027.04
-413.186
-870.048
4247.51
760.764
866.054
-91.5835
2425.76
335.288
338.476
707.681
1241.9
-198
183.368
11208.6
16386.3
7355.3
-1498.57
649.912
6365.46
71.1614
237.233
-439.432
-331.02
5850.31
8317.94
236.073
177.417
697.484
181.355
2105.71
-792.64
120.2
-686.286
-100.596
2666.05
640.696
10568.2
782.105
248.318
452.714
801.1
4506.61
507.293
218.667
3899.14
507.007
618.781
476.918
444.533
-437.296
1771.07
2230.59
-1071.31
232.288
-470.464
1935.13
2852.7
77.6224
1605.79
6354.63
-951.567
2383.93
3714.68
2207.84
557.038
2769.64
1866.02
-713.471
-64.1063
11542.6
3403.69
1703.65
193.291
1623.5
1157.31
-269.296
532.629
1221.91
224.655
2363.65
-410.127
2149.42
63.3038
4977.41
-415.603
-332.084
-442.283
467.546
7805.19
11879.8
1113.52
3178.69
89.2056
2149.37
-399.916
64.4512
548.036
82.5996
447.054
2415.19
4717.44
-203.894
-287.969
-1293.57
5115.48
-355.515
4082.11
4549.21
3786.96
13006
3616.49
2999.53
312.321
2193.07
5095.5
5399.58
947.744
1786.47
1671.45
1072.38
724.866
255.527
426.028
-233.618
-656.773
917.35
606.025
3261.41
90.9955
590.029
739.108
958.911
374.795
79.7593
-325.037
3882.93
-705.761
-438.229
625.696
-842.86
-116.357
136.838
612.283
-152.261
-2267.31
7626.35
-3.83403
942.141
3985.08
-19.5867
-210.114
437.622
9271.91
10822
1299.85
-1430.21
-1578.72
70.9943
3694.14
-394.536
122.102
12480.3
-566.362
-452.405
-24.9147
-953.107
899.676
10794.8
7134.01
187.832
3738.79
2273.52
-499.032
-37.3804
-427.275
-138.719
-436.899
241.127
-2413.06
16.692
4849.95
2920.75
5483.15
1216.73
-1302.46
-657.937
435.839
1511.34
-81.8574
-259.646
64.0953
34.1891
-84.9998
4109.64
4095.15
-1403.97
-913.215
109.322
6515.29
2777.75
335.512
3232.92
-4.00514
243.842
779.704
4399.03
-16.771
747.079
903.411
4890.9
-254.851
3276.31
4719.79
2041.09
1928.41
-183.97
634.136
-1017.21
116.512
439.535
-980.727
2836
2141.73
2455.28
-12.6067
7421.44
-255.307
-268.648
-35.2147
-36.6703
1944.16
9362.5
11453.3
5966.96
3366.56
119.192
8582.42
425.544
3784.03
1838.2
1458.62
1864.27
-993.669
-129.925
-181.814
122.507
705.981
-491.093
4044.05
257.144
275.915
426.362
-593.391
1956.88
-129.299
1827.82
648.099
675.701
6708.54
8920.28
3832.12
-12.5577
4756.99
2458.36
6295.28
2215.11
1198.55
360.451
3268.8
27.843
1363.81
984.705
-208.517
880.258
4442
982.856
-12.1877
1506.91
63.9352
53.7252
661.069
-1057.68
101.867
2194.51
6160.59
1875.4
3804.24
3209.06
2654.07
-369.302
3359
367.825
-140.06
-272.438
541.977
-256.699
-1081.32
-247.026
1935.37
-178.922
442.94
2074.1
1986.01
15.1012
1264.66
1714.41
362.684
265.218
5871.54
53.3336
-1234.35
-9.08174
44.1672
904.592
88.3943
63.2648
-1423.76
119.063
4338.48
3558.63
4044.04
369.768
-174.591
-67.0889
15476.2
10108
218.674
922.01
293.69
210.975
78.3926
-110.73
228.13
1568.93
2503.59
10550
-473.359
-539.78
1610.4
-40.7453
6484.98
626.313
1595.74
-186.528
478.414
2708.65
3022.55
1999.85
1601.84
5750.54
949.418
-363.555
5499.46
733.101
330.288
1628.58
1813.86
440.159
3204.37
-271.959
3185.67
3557.42
2419.91
689.804
544.48
701.71
163.55
490.226
247.447
-1353.8
-442.667
6181.38
1129.02
684.897
1465.13
8051.3
-669.758
3877.38
-775.205
1240.91
865.464
235.389
2928.6
13336.4
1308.47
4342.08
1375.4
-1471.92
211.322
1363.88
1889.74
3928.37
-117.289
-891.73
9645.25
23.8054
300.851
-389.087
1112.39
-80.8014
4224.8
-380.331
-426.771
863.042
6309.44
-7.59469
534.562
263.997
-1034.69
-49.8823
121.423
163.242
2588.28
3584
673.424
2373.87
-805.165
44.7878
3136.82
602.277
-727.973
-1306.39
2184.04
1368.68
-922.629
-292.389
2419.26
-68.5289
-199.991
4228.88
-211.437
96.417
15025.8
-937.874
744.41
-642.779
-619.048
-284.777
-795.211
-44.5817
2396.89
696.377
7897.64
-61.0912
6179.31
7600.41
689.84
2541.18
992.337
660.604
2054.55
75.9791
-13.9853
2203.7
1496.54
5342.27
1888.92
417.337
-535.293
2838.62
757.496
1010.07
8442.83
9766.02
4001.33
9447.35
2228.29
-483.515
3053.52
1304.89
764.405
-194.651
143.245
2474.65
2720.4
2658.63
2810.1
1058.97
-240.711
-318.371
2506.03
390.097
28.9883
5402.81
2483.74
3312.25
1125.96
1448.62
77.5405
297.989
104.16
974.01
5633.46
10179.2
3113.73
-414.406
662.9
109.496
-496.688
-506.795
5302.21
2976.61
662.559
-225.756
-531.974
-263.965
4018.54
9438.79
4365
68.3391
158.08
1553.43
3128.01
871.297
465.76
-1896.04
3199.81
-1271.37
1328.97
-814.002
-57.0209
3387.01
2488.1
12522.9
2347.28
968.987
-291.266
238.847
964.748
423.267
778.234
87.8071
7686.08
4059.24
2147.78
1577.75
638.181
3781.43
3638.02
1446.24
1407.52
-200.327
94.2668
-124.807
1409.99
1031.29
3954.23
5806.15
679.518
-762.508
322.65
-369.466
4957.22
-1102.46
460.166
290.289
1102.25
14498.1
8692.59
7511.16
7374.31
2485.02
109.435
185.387
-218.779
-296.527
-291.513
3702.95
172.623
556.956
80.8193
164.945
-36.9799
10605.7
421.425
1274.05
1125.19
6219.02
-501.267
-285.367
1007.6
10144.6
-751.772
268.175
-21.168
-682.335
-103.623
14207.8
2015.87
2069.34
206.455
2527.15
228.797
1614.28
-312.085
-263.201
-198.951
334.583
1103.47
327.205
2937.59
-1047.59
2330.68
1670.19
7848.18
2619.13
-145.811
-269.08
1260.43
1547.17
34.6112
-33.3084
4572.37
140.07
607.519
-655.231
1727.43
899.365
-542.298
1717.31
1423.53
681.277
-696.794
1633.52
1993.46
168.653
-657.135
2464.28
4749.3
339.942
-36.3925
1466.53
1482.97
-625.06
2313.03
-502.789
898.556
290.04
1193.69
1187.76
6253.84
5467.36
3374.24
319.496
-164.833
1426.16
953.658
1327.32
1088.74
4606.01
1421.41
-178.92
3133.97
1083.23
115.971
4913.24
209.332
-268.09
-135.529
2898.8
1454.89
1359.81
1018.58
208.768
905.167
94.3364
2740.63
657.872
11453.1
6416.69
-56.693
38.5393
-548.95
43.617
2155.55
-427.962
3734.49
1810.47
2419.93
49.9061
553.351
1797.61
-337.818
891.148
999.956
-3.271
-228.607
-180.185
-1232.53
2850.6
294.896
8193.09
6385.15
3289.45
3425.77
-296.446
-618.356
8589.48
569.187
8900.85
39.1666
6127.6
-455.263
-322.678
767.314
1713.31
-142.017
252.765
-342.449
-198.384
-324.07
191.344
6524.64
3152.67
2017.18
-573.301
1071.52
2584.14
-328.394
-334.895
-89.53
-584.388
3721.28
711.377
1679.78
-1431.19
497.923
4369.87
-187.406
2124.55
391.594
-14.7349
93.219
456.815
353.939
200.134
1040.85
3805.41
2598.3
215.018
-47.8561
-29.6442
778.418
1332.37
1501.55
2503.9
1269.56
1252.29
9838.31
4777.06
1077.78
4463.14
418.238
4933.18
-442.91
-92.6697
-1595.28
4096.71
760.034
2295.49
178.286
1456.7
-27.8459
548.029
-167.809
1112.99
158.882
304.329
5364.8
567.602
4310.54
4917.06
708.886
11993.1
3850.33
1374.06
101.734
6666.08
1555.49
3182.99
3584.56
-990.521
113.138
-27.6512
3214.81
-1116.6
704.196
228.233
-213.783
476.259
205.379
218.67
100.624
-241.438
-350.049
58.6705
336.991
328.126
-343.748
1833.03
144.911
-833.452
-725.731
-29.0336
-367.865
1116.51
-527.183
4532.67
4550.4
267.247
118.349
323.09
10245.9
-322.911
33.8624
155.387
23.4576
-611.799
879.662
-317.47
986.413
1188.75
118.413
-15.9376
4174.08
9765.33
145.639
1260.88
268.642
511.001
-459.339
3896.39
733.132
-340.911
-505.171
1474.9
-729.952
2602.39
858.51
-2018.44
150.015
374.723
-400.776
3613.28
289.012
-478.141
-935.819
608.091
388.535
-1333.86
402.962
-855.893
-1606.28
993.259
1209.51
2524.64
-383
7461.13
6474.46
6412.06
-164.54
695.791
-267.907
653.599
10323.2
106.404
296.749
3081.27
3825.63
-475.937
43.1663
-162.162
1322.48
436.84
1207.32
-1161.64
833.943
-25.0373
-241.598
1552.43
60.9023
470.4
-618.153
5179.71
-446.885
2553.46
274.437
824.145
12623.1
164.605
9481.45
1767.42
673.94
391.104
1256.58
2508.67
853.101
250.146
945.016
3242.29
5304.23
-124.712
18.0874
396.979
-117.053
396.812
-65.2931
-133.104
97.4184
186.783
-627.63
67.8253
-168.327
219.646
-45.6242
-286.817
-123.098
801.7
1846.58
12426
-1284.3
-234.407
1010.02
-160.697
2985.29
6496.51
7397.18
4250.76
8158.94
753.433
-323.331
-66.4429
5037.92
171.327
-281.916
-144.766
1084.99
670.434
3449.15
134.788
-680.959
-304.391
1255.56
364.764
-514.468
2364.89
492.967
-338.91
494.849
15283.4
1024.52
434.581
-749.093
1274.67
1652.95
1504.88
-296.414
1993.48
100.905
-1814.32
84.0053
263.49
-52.1533
-1269.54
4884.68
-90.5179
-386.706
5321.59
2101.45
4810.79
3009.92
912
5218.65
-1022.2
256.979
954.142
5014.9
2061.15
1728.96
14.9626
2499.02
3788.24
3171.34
2966.13
77.0062
-509.019
-8.07055
108.972
3270.13
5789.2
-124.941
850.409
5584.48
3801.11
1022.27
1904.97
-231.737
-125.471
6406.62
3002.08
1157.66
506.48
-1383.39
4501.63
-180.188
-424.451
563.607
-0.489334
958.838
-623.42
1227.97
995.548
-269.187
600.856
2113.21
2915.01
3990.79
4516.95
3986.95
361.585
400.39
2845.32
-554.296
1670.66
2057.35
123.018
-464.808
10639.1
-414.13
463.055
400.708
-1127.11
87.2309
589.696
5911.46
-272.155
-307.479
-1586.53
-70.7966
555.958
1023.23
6.4467
2069.76
3936.06
187.202
51.6343
168.772
6277.83
10526.2
296.414
-410.881
-1096.37
-441.523
-498.574
8689.4
-411.049
942.815
307.283
900.374
-396.523
-318.847
99.3414
-933.321
155.269
2339.46
4234.08
9039.63
24900.3
2330.44
3041.68
335.431
-387.273
-457.236
1387.18
2163.26
955.102
231.607
1587.25
2928.86
4053.1
770.535
-1910.1
-368.459
-425.462
352.675
1863.5
5692.43
17.032
5481.49
969.545
36.2796
30.7024
-899.405
3869.69
563.006
2047.11
2261.05
3766.53
-340.772
-850.729
8895.36
2803.21
29.3435
1317.95
1487.81
835.776
2634.49
1125.62
-0.618864
2493.4
2183.66
-109.39
146.989
252.238
3150.13
1303.2
889.002
273.613
-755.195
-262.223
-402.535
-56.6866
517.16
3935
6358.53
-1019.27
594.192
725.589
247.538
4525.17
917.993
1048.72
-806.315
2439.17
1259.65
3321.93
464.784
-84.3569
-384.725
1882.77
95.9
1438.89
405.387
314.881
409.48
3338.64
2243.3
382.807
-217.148
-17.8045
2261.1
521.679
658.486
153.009
42.7355
674.429
269.611
-347.483
4356.92
506.839
-110.867
192.358
2117.68
2077.45
6959.21
736.977
798.452
7153.55
7023.92
4761.86
7234.36
3263.3
2129.95
6115.3
277.335
-229.266
1822.06
17170.5
4927.7
4204.54
13215
5714.51
3584.79
1122.98
77.1236
-1771.31
-1287.19
166.916
168.414
407.073
-283.949
620.001
-87.8054
-1386.78
-142.19
-201.785
-205.394
-22.1882
-329.149
7014.44
-1152.68
2194.45
1869.5
-326.338
-193.485
587.809
11786.2
2286.08
1420.18
1664.41
-1003.11
2296.23
-308.368
964.703
235.818
-659.808
2644.99
8865.05
3572.2
-300.309
2388.63
1430.22
4866.38
-858.627
-121.532
-483.479
3067.49
874.371
6794.57
2243.32
762.524
57.1428
1291.56
-655.607
660.738
622.489
1823.01
236.345
423.847
64.2032
2903.23
683.5
-329.615
200.756
1410.05
91.8654
-569.458
-504.273
-241.193
2758.73
876.732
35.8023
-1178.35
476.954
-148.617
2993.6
653.002
4099.93
-1356.99
-205.954
679.314
507.048
1608.86
1274.44
2151.33
725.78
5163.14
4055.04
-1598.8
1660.23
265.694
396.222
2414.97
147.102
-1310.36
183.79
124.921
-62.784
5220.27
3457.48
1442.35
7116.3
7193.36
3881.42
234.524
1431.04
-593.856
-581.222
619.541
5213.93
4333.87
1330.39
3609.78
141.904
4405.81
1233.88
2024.25
143.183
2600.91
513.4
1186.64
440.366
199.931
717.997
107.913
7937.32
11470.4
-409.028
5859.68
-1340.19
88.671
7284.56
-67.51
2838.69
-426.513
643.459
2002.09
6259.21
472.699
1754.37
2596.74
8666.35
1421.08
3472.01
1996.71
705.239
507.943
3652.8
1142.72
616.182
-66.5418
1169.3
-179.495
882.749
-192.685
1672.14
880.614
-84.9571
2941.19
2161.15
2796.15
1007.6
-164.398
-18.1496
1731.91
-50.9503
10610.2
5098
9481.26
60.9222
14563.5
803.732
7336.83
1700.15
228.005
2999.34
2866.42
6590.68
325.219
-638.159
479.596
3113.17
-826.09
406.894
10892.8
6312.92
-555.635
1265.85
1222.64
-1044.83
3423.76
2926.6
7769.68
3376.45
1534.05
-73.9209
240.63
-1395.4
223.702
452.21
1007.27
2761.86
3997.29
-905.752
150.314
1122.91
479.408
6592.78
200.758
4100.24
4770.42
23.9673
511.312
-257.039
2804.92
-204.523
8299.03
15769.8
-2365.88
1202.42
3821.72
9717.44
328.547
-655.949
3650.43
978.109
-675.247
6806.55
7478.41
-228.387
1232.46
-1106.37
352.866
-737.693
-309.374
-33.2141
1238.68
1264.92
883.776
5115.88
4482.39
2437.24
1787.69
3935.41
88.7026
2701.87
5157.66
2888.32
196.336
154.149
935.679
1399.45
734.703
-651.835
506.836
4069.41
2851.46
1880.85
244.506
7934.92
385.574
1076.92
-352.503
1773.84
773.337
3400.69
995.9
178.217
5986.43
110.962
-85.2001
547.271
264.073
69.1181
-68.2223
-630.414
138.507
404.42
100.452
738.132
-166.913
-1512.17
-914.886
3524.04
180.31
3780.01
2123.79
5069.88
3338.87
1804.74
-521.181
4756.14
202.818
658.468
820.508
-769.992
4493.74
-334.453
2796.68
1065.9
3632.18
4517.76
2249.69
1341.7
-31.081
-1418.02
781.673
2552.51
4601.54
-385.327
1161.16
7485.64
1398.89
3752.33
1293.95
646.566
12960
-192.638
4500.61
605.106
94.0864
69.2312
3646.29
113.826
5426.43
255.375
1039.81
1745.43
1107.37
4161.3
526.505
-77.883
984.426
3544.48
1289.41
3185.13
439.313
5791.68
89.8421
2002.68
5937.44
1644.89
-787.911
8105.17
21.4396
-66.1674
1307.86
6612.29
5447.5
4148.8
5558.96
2441.42
1523.12
129.732
479.697
11.5088
2747.15
6168.74
151.643
3258.65
229.492
228.777
2389.89
1206.04
1909.31
-130.079
6102.35
734.346
1526.38
2953.29
-21.3721
29.1728
699.057
178.733
704.434
842.158
1405.85
3392.54
798.306
-518.61
-334.349
1349.07
-1.62843
-427.064
242.849
1229.9
95.6734
-144.714
3976.7
1342.2
22069.4
277.59
1376.66
5433.18
-190.465
822.06
4713.72
884.207
968.241
17444.4
5079.13
3073.24
-2641.52
861.696
2755
323.582
706.367
123.841
91.8696
-25.1303
15.2189
-395.751
4868.8
-233.684
-552.364
2342.82
-606.001
17.098
-194.686
68.5021
472.562
2921.39
3408.6
120.254
2165.06
1510.95
-358.507
1022.59
6237.96
4334.25
2795
393.374
80.5411
2269.03
-72.1805
-1662.99
-189.543
-161.802
222.309
-95.781
842.119
-273.124
2090.25
29.1159
-246.982
252.08
-47.5941
1181.85
-429.281
228.888
111.518
1900.01
2703.82
136.509
1320.94
693.706
-231.764
238.409
2.43508
490.654
1811.95
5348.27
864.896
-989.754
-622.98
230.379
324.532
-277.067
2936.03
-54.5887
5590.99
7787.78
1250.8
1901.23
-435.874
110.197
36.2172
2.25826
825.251
1149.3
2374.73
8233.07
404.994
9705
884.093
1324.97
-623.962
1151.5
448.876
163.102
1234.44
46.6131
-863.053
2475.04
897.811
277.964
272.447
-600.622
2555.88
10062.3
-205.244
1548.94
4991.69
3383.47
141.566
-29.1264
20.2359
4332.05
634.702
474.314
657.848
3305.73
3560.04
7096.13
8595.36
2247.78
745.392
3757.27
5196.39
3.09627
2768.03
224.318
201.162
-1079.07
-331.918
-94.883
658.253
250.679
350.825
2637.05
-475.903
229.299
-242.575
2796.29
1294.19
-261.368
670.381
3390.8
4098.41
5095.48
1578.09
335.807
-140.756
189.981
4631.65
361.991
10909.6
1501.17
-713.916
-157.069
74.8996
-162.215
-635.11
1499.47
170.118
700.964
4200.59
2638.98
434.852
-11.0384
-423.323
2302.25
-126.994
-816.234
-4.53069
405.427
1750.9
102.572
11.6768
1725.77
1172.42
1949.09
-74.9555
1377.29
2893.05
443.593
1737.59
-40.5102
1953.89
-1665.54
91.1104
687.983
2732.22
2783.76
7380.11
6135.34
663.382
13.8203
80.1679
-308.699
-181.182
124.493
-161.538
70.3912
4349.16
1573.8
158.952
-581.612
3501.03
3132.9
849.987
284.699
-189.532
2281.81
-108.273
1108.16
1612.85
1236.63
-306.995
3252.78
-675.844
-6.98516
-142.664
3745.81
1839.33
1431.78
1303.31
3357.57
4563.81
14410.6
2058.08
557.4
5153.24
23.945
14982.6
4920.57
-764.591
1668.98
979.492
2853.96
-51.1084
582.092
272.918
89.3648
1529.42
42.158
1731.34
1460.39
1191.88
8434.11
27898.2
1261.07
-586.719
7184.5
284.894
3071.1
1478.94
-1507.64
4466.08
11906.8
4354.3
3192.35
963.623
4675.66
-120.433
321.257
1382.33
1907.83
5539.21
2380
8878.81
4615.8
3229.31
3059.55
122.437
-408.913
157.225
-483.22
5535.27
-823.669
-446.243
-30.2665
-368.742
14066.5
2126.72
3130.87
-30.9391
3903.17
-18.8898
604.26
-344.366
773.238
2123.57
210.231
7446.87
2221.57
8215.05
1887.33
2462.55
514.473
-1163.68
3625.53
9081.29
2309.4
-711.353
737.705
3924.96
-3.53127
-560.091
732.574
6926.49
815.057
891.38
-117.308
39.8263
-376.825
3646.79
1242.45
29.2475
3351.81
85.7784
1373.96
8552.53
18125.2
443.076
748.614
-369.655
-66.2588
421.467
802.381
502.533
10709.3
477.547
-427.695
46.092
1188.27
1062.76
176.875
1649.56
836.737
113.703
302.647
3561.86
-185.468
7522.34
-597.451
327.248
7924.58
9609.21
3501.28
5541.17
30.0484
16.6359
129.697
750.838
2056.57
105.917
2194.37
-1811.57
1065.82
719.848
-781.767
-8.93965
10314.5
1550.44
-107.095
-1842.65
-152.253
1485.63
-7.32664
1104.94
-54.39
-54.0492
-155.886
-459.262
1069.5
1787.27
773.369
-1353.92
-93.1313
4766.54
1296.68
57.711
71.3571
526.739
2151.41
5481.33
874.701
7028.29
5719.85
-392.656
1322.21
2086.75
-50.9922
82.0072
7046.92
2022.19
-461.786
6133.55
3500
817.453
298.588
-18.9243
64.5083
5507.71
2258.31
-165.967
1188.74
832.412
69.1256
406.442
6367.9
1645.15
-498.964
-762.336
1303.09
7089.84
372.237
4610.07
8557.93
1043.31
614.192
3985.93
2686.89
622.965
-40.2399
778.684
5780.53
4469.03
5380.59
3433.96
4046.6
119.377
105.264
28.5871
678.94
-558.189
747.171
3074.99
1666.7
-726.025
-322.367
30.8049
-101.685
120.35
-300.965
174.706
4197.43
554.98
2359.05
-1437.45
474.422
3439.7
1625.21
465.103
1630.79
2259.8
1795.76
634.981
356.24
3228.38
136.641
506.587
-127.153
1605.75
618.063
2489.02
4464.44
499.835
2481.8
-676.037
1824
533.673
205.08
2220.96
4282.92
639.083
1485.5
3967.97
1256.75
253.328
-183.516
521.879
870.258
-307.015
-644.035
-124.777
78.0318
238.22
1327.18
-736.722
2239.59
369.629
-382.988
322.839
3586.24
-382.017
2244.76
-1424.33
-1107.86
4265.14
-823.717
452.153
-183.704
1469.25
804.983
853.308
-37.6089
172.273
8900.41
16.3065
-1015.78
1251.71
5609.06
8983.16
6543.51
-151.603
274.239
609.484
411.867
8298.99
-402.936
-245.862
4097.41
536.091
-296.875
287.099
-643.795
1423.96
2823.89
1572.73
4244.82
-485.712
-417.991
1676.64
155.241
1381.69
4766.76
268.425
-48.932
656.564
1019.86
5047.17
6349.56
896.252
1258.21
401.645
-34.009
-1093.76
-586.613
2734.09
584.51
1998.75
3181.73
517.966
-2147.89
1505.91
369.806
252.982
748.943
907.714
101.425
2189.75
1579.54
146.457
480.144
2599.19
6002.59
757.202
536.903
6251.08
-586.952
2977.83
1274.85
-421.348
-87.6882
3407.91
-109.179
50.1962
3625.77
94.4529
1770.86
-599.712
2927.22
11371.7
5286.73
914.89
-979.429
115.097
22.1192
561.773
278.227
4483.42
8108.55
2031.19
2203.86
-61.1596
1934.61
-361.887
289.778
-953.104
-28.3261
52.0806
-327.287
-58.1717
2730.9
20872.7
836.784
709.808
1299.65
-1486.23
743.391
9531.48
809.079
1585.95
-224.419
2649.3
4523.55
5975.27
-25.9516
1636.09
211.647
838.69
3029.06
3786.76
1952.18
1476.2
-114.991
1400.18
1082.12
4627.67
1285.77
3081.23
2444.98
-461.155
-625.539
228.453
6299.93
-1228.64
-354.626
123.082
-774.015
8572.34
2736.11
4539.12
4350.05
-686.772
870.344
-584.708
7069.84
2511.5
5839.83
3707.39
697.544
396.431
2488.83
29.0952
-669.546
349.551
418.462
-18.6112
-559.703
-105.229
-445.805
1138.57
3047.15
-408.457
-505.992
1078.31
-110.101
2446.84
1437.99
836.589
140.567
-688.895
-1219.07
434.655
979.087
601.637
337.766
2077.84
8390.87
1704.28
11747.9
-1291.26
-376.852
-86.1715
3735.03
1089.03
6772.12
441.823
7769.68
2800.57
-190.618
4799.24
-408.942
865.832
730.1
4142.76
-1424.25
261.502
-0.452725
7029.24
5498.03
749.747
1305.17
2201.67
826.866
973.388
237.636
4046.62
-1900.51
15562.2
7987
7738.72
656.585
1553.24
5317.23
5580.38
16542.2
473.139
1295
5986.51
2941.56
180.084
-178.846
1997.01
6274.96
464.59
1733.46
2881.51
-262.482
134.728
208.772
3840.32
-760.671
-173.226
2584.48
-210.555
-237.987
3923.82
-153.879
3143.85
-893.651
-2191.26
-1242.04
578.431
1108.09
54.2002
1563.08
126.617
1097.26
49.7544
134.066
-626.329
-1001.27
-117.888
-960.833
-1.82092
190.876
370.793
1986.95
186.424
1001.14
188.85
711.306
76.8801
211.236
2921.03
-73.294
1503.92
11932.8
32.8037
197.049
2043.66
1532.92
11106.2
6156.06
-294.616
-7.20741
3577.6
1130.72
5090.6
5029.12
2535.04
5225.16
2286.41
18932.2
6500.62
1283.86
-7.93436
-281.21
965.962
490.674
3205.84
744.498
-12.474
-241.976
2459.26
-136.062
690.123
15086.9
-256.395
1894.27
-221.47
-471.078
-265.16
164.273
1935.39
2264.78
-287.74
487.787
-282.603
1952.84
9579.07
3453.79
5780.95
7203.62
355.38
-842.364
83.2544
1856.37
2632.94
1021.56
-1229.69
376.459
4459.16
-327.709
5415.51
5241.4
2237.17
378.763
2997.01
4231.14
220.146
1487.13
812.751
-1718.87
3319.82
1797.69
-1085.47
-2220.3
-27.5821
8279.36
3263.28
372.21
8168.39
3164.67
-2.51626
130.258
7871.34
14754.5
868.407
-290.503
468.192
359.452
811.413
1160.21
5624.64
1264.93
141.645
1906.23
2374.73
6666.23
1313.6
1051.17
170.757
1313.81
605.961
3046.58
2263.23
2690.52
-926.357
225.479
558.487
-1967.3
336.24
519.381
1626.63
-86.4317
64.6954
505.689
558.518
1597.61
24.128
4042.07
17079.3
2279.52
-589.726
172.891
1472.66
1429.42
2119.65
1199.09
-295.653
6469.9
-79.594
-355.928
9.04161
1933.42
-51.9585
224.395
-506.799
914.657
1939.28
1586.91
-209.636
6764.5
-280.253
98.2903
1026.67
282.978
3227.6
4725.76
-115.99
641.452
935.251
-697.398
174.41
-162.351
208.828
-325.891
5347.7
-476.087
61.4583
1453.43
-65.5463
-16.9796
2672.56
-86.486
10908.5
-202.739
487.535
8238.33
226.385
1014.94
2754.44
9162.05
4833.13
6011
11791.3
4198.37
11517.3
4339.02
-190.645
-470.943
139.735
-978.989
-526.378
532.66
-417.223
537.757
2935.16
1605.6
447.889
-89.219
2542.92
593.295
577.379
326.876
3660.67
-407.456
-584.622
2489.82
234.331
501.688
2252.29
17325.6
1858.23
157.82
-1128.4
1693.52
-210.259
-78.4092
392.339
10849.6
1808.47
214.913
945.646
778.904
677.484
49.8177
2007.2
-242.406
6481.81
-1710.56
2287
423.067
310.012
800.357
1680.91
2104.86
179.838
136.463
318.479
2708.11
7365.31
140.074
83.5174
-325.218
835.308
90.9362
-545.816
1358.4
587.829
530.655
395.177
-243.596
16498.6
1537.07
-607.061
856.898
4410.83
3346
1.0863
-19.3131
117.653
5956.57
1655.41
521.474
227.657
365.141
187.155
-83.5714
2052.77
1754.91
1100.1
-1.04028
-5.60479
777.313
3577.72
-1001.29
353.927
-208.338
5471.25
1153.77
-61.5906
1328.74
1788.15
-936.715
1035.07
1823.37
1585.23
316.181
-43.5661
7691.95
1933.8
-474.73
5243.06
1909.54
4696.05
-321.235
-57.8581
564.489
702.968
1347.72
12.8523
-142.377
-100.915
4196.69
-842.263
3664.71
3777.57
2613.9
1386.86
-202.204
1483.39
-25.8928
-830.026
1452.91
-722.085
1235.25
3160.22
3542.74
3018.08
-475.317
-254.619
379.65
1170.7
307.732
-137.539
1834.84
-1018.17
-99.265
728.877
-191.421
2710.03
743.046
-58.8769
-1480.69
253.298
836.339
422.685
305.076
348.108
4248.53
2737
1451.88
1478.07
407.753
-703.754
153.547
7355.42
591.444
4638.96
384.723
4118.81
1813.86
2171.34
2785.44
-306.199
1255.02
129.246
663.16
1456.97
3274.31
-118.877
403.082
1708.55
88.5841
6872.04
-877.044
4046.81
1362.8
1379.29
1300.73
-314.755
1118.64
-775.682
-374.672
319.606
-478.26
-92.3227
5841.98
1501.43
2764.59
-808.496
1327.6
829.59
2120.75
855.739
2586.93
961.937
2875.54
2219.01
134.833
-243.375
577.235
175.957
1342.99
-392.318
2006.38
95.0902
-313.752
1925.39
132.271
1645.17
3241.29
2817.73
2993.47
-480.32
2682.27
-357.369
2842.19
5071.59
1922.02
4036.47
3726.27
-151.547
1174.77
3653.78
3802.44
1369.81
22218
10107.9
7841.14
-1512.01
-122.247
-797.791
-589.341
734.289
3593.12
4568.11
1146.25
-39.6567
693.595
52.1771
6275.65
-1061.77
-10.2169
-377.874
1.40689
240.829
-161.25
3519.66
-316.108
-65.6737
-10.0794
102.971
538.202
1799.75
43.4546
-50.9243
1604.05
5059.62
-148
1783.96
1138.63
813.242
5480.77
-1053.44
4023.6
669.569
296.827
106.835
1944.86
1102.25
1495.95
3099.01
-337.125
3762.11
2009.14
15.9005
1496.44
7012.29
13223.9
370.687
1005.03
1578.42
-62.7407
-416.506
185.804
3157.19
1516.63
104.07
616.898
-1476.4
1315.26
551.095
436.616
6950.59
3997.3
3859.27
1437.75
458.426
-24.9559
-107.595
242.447
75.4646
284.728
4452.4
-25.1407
343.121
1409.37
2269.72
2342.46
2662.88
744.436
606.894
-319.643
186.212
1546.78
-103.226
3465.69
-88.2171
-6.68895
2804.47
-709.358
1776.43
8464.78
1244.36
817.891
4136.14
987.648
62.9952
504.152
681.786
5522.23
3246.23
-170.599
102.773
730.056
160.741
-64.3219
1428.16
-512.642
4585.73
223.383
9380.47
93.602
-125.482
1933.66
1575.1
47.5404
225.827
-332.332
469.761
301.728
1202.5
1516.51
-1581.69
10320.2
-2554.83
671.864
-168.572
375.617
2146.57
-1006.26
388.798
-610.358
71.2966
-317.488
470.65
759.047
3774.96
1446.18
-3.54
99.7346
-1043.99
1466.11
2294.78
735.97
954.205
-853.575
500.597
1708.27
2949.78
8725.79
-19.2186
995.194
-447.709
49.0983
-321.171
-20.7549
411.191
397.419
2416.01
257.131
5568.49
-333.312
889.025
-384.308
536.291
3566.45
832.576
373.637
728.207
361.491
-625.177
-320.842
-304.307
183.468
40.1973
2980.84
2843.15
-1989.46
566.54
4285.31
316.729
761.248
1656.36
1644.31
-32.3572
6194.97
7386.98
-512.875
-558.927
182.216
3947.31
75.5113
-90.104
2903.69
112.477
-489.484
-949.214
2909.19
673.959
-408.079
297.378
-32.9955
2855.43
168.786
35.5602
327.137
2080.56
-301.672
547.83
6539.36
196.548
4753.06
68.1942
-430.742
-1096.58
-845.649
195.541
2098.08
-185.203
1805.17
2068.2
5644.67
6034.59
2279.22
3244.31
-256.404
-459.922
-862.354
3438.78
11931.1
3426.56
2794.53
3007.58
6911.02
-931.041
-261.267
1078.46
-257.502
7819.74
2343.39
86.0531
-988.735
2265.33
241.736
-814.635
2147.12
-573.825
1179.49
285.315
-181.909
1782.89
3164.86
1530.17
1295.24
4425.99
290.196
-849.288
3525.46
333.781
188.467
2159.08
5969.85
-131.593
2301.56
1173.74
-290.086
-148.424
13567.4
7295.15
72.1561
-2000.04
76.7084
-73.3199
-254.183
12655.8
107.514
285.125
602.932
2552.49
285.519
1351.3
-134.87
3050.82
3028.51
1680.43
230.28
2294.76
455.055
1330.16
247.346
-1840.31
2946.09
-1264.56
-40.2053
1637.32
-755.612
394.08
7430.9
-334.071
5846.17
289.284
-1045.15
1338.85
-6.64986
969.54
124.076
667.476
425.858
-49.0567
-152.064
1580.37
1096.93
3226.37
-604.972
1915.41
135.892
1517.09
388.663
-116.811
-291.38
2879.84
-378.045
2285.71
377.16
1268.56
-296.275
2.08641
428.493
-1888.02
-383.65
662.318
4148.11
-346.788
2032.27
411.789
428.211
3677.31
14815.2
8144.56
1222.95
102.39
5112.04
338.908
534.397
1596.72
2389.58
-135.222
701.899
950.371
7732.44
345.402
2368.1
1475.65
-1511.93
1996.95
-436.458
233.433
733.574
1318.14
645.816
5957.91
2567.61
5604.93
-421.506
3498.27
3019.06
432.785
642.54
214.701
46.4739
-1301.18
392.422
884.987
58.1481
5170.89
2244.96
646.399
775.551
48.016
1455.14
-179.061
206.139
75.4109
-3395.8
-657.699
2119.24
1630.73
260.359
259.598
593.465
-118.381
592.796
-430.025
2364.82
701.462
1843.17
1896.9
1396.4
367.834
1029.98
280.265
-623.088
-275.944
5689.16
1619.45
1337.93
425.512
364.299
205.209
72.5737
-673.475
4290.29
1218.94
607.679
6520.99
1676.84
4319.29
2648.73
821.618
3393.89
-154.824
-1400.23
-531.763
6030.72
12177.2
-23.3489
1778.27
-71.2491
612.258
-128.713
-236.806
3703.67
785.084
-475.577
884.633
403.104
-1713.55
44.46
-709.473
1239.6
1623.88
2469.82
-395.36
-301.395
1388.2
2544.35
58.4077
100.641
-52.9849
518.46
-280.11
16013.7
-44.8362
130.952
284.94
-70.9022
-1789.7
1385.31
131.696
-1163.4
-129.35
3784.16
-659.58
963.626
1240.35
1163.42
-448.334
963.089
-493.727
412.442
2155.6
578.169
63.3519
525.408
999.302
-325.3
191.627
4271.8
9631.45
479.49
854.805
553.275
546.967
7755.32
51.3694
-45.6101
885.968
816.987
1793.55
318.409
-1352.68
-33.9351
-182.585
587.828
416.883
104.271
-1503.4
-146.891
3670.63
2988.11
-724.173
1060.02
1468.03
1316.02
2999.77
384.016
-41.0247
456.838
1428.39
1483.98
4197.85
5364.73
529.318
1633.35
1079.8
62.8236
-1244.98
183.635
-446.151
369.255
1013.13
-777.028
-355.13
