4769.09
3405.64
7866.31
11952.7
5149.05
3410.59
7530.83
4434.94
15264.1
9504.94
18773.9
27296.6
24321.2
21863.1
19852.5
16519
9577.42
10295.4
8318.23
7612.59
4610.39
13196.6
7986.8
14269.3
6164.19
4875.51
12428.3
12198.3
13188.5
19782.9
11097
15297.4
26238
31317.1
32943.9
12036.8
16566.1
19763.7
16571.8
17728.5
26102.6
13698.5
19946.6
5313.56
20198.2
27375.7
24285.3
21179.1
20619.2
5702.71
8551.21
10974.9
22824.1
43609.1
31872.8
33499.8
24979.3
18368.8
15128.8
22749.8
25170.7
17144.6
5567.61
12603.2
6408.28
8696.07
22969.1
16953.4
3679.73
6589.97
6036.02
7137.72
12114.8
6986.5
14946.3
19638.6
15992.9
12161.9
33342.5
14708.4
11857.2
24804.7
22613.7
17804.4
17044.8
11760.8
15134.6
12220.6
19128.1
19523.5
13355.7
36441.3
27824.1
18403.1
4885.62
13057.9
15763.5
15590.2
10014.5
5699.6
11120.2
6703.69
8559.96
10346.5
14966
19690.2
18410
6384.79
7096.36
7623.02
5433.17
5588.79
10221.7
16548.6
31984.1
34204.8
13844
14686.5
9286.47
12516.6
18369.8
13322.3
9037.53
10959
16896.2
5236.95
2505.71
10183
4015.04
9364.27
3338.29
10073.1
2749.99
12091.6
37405.7
53434.7
30790.6
37722.2
35596.7
34217.9
30614.5
40502.1
23390.3
49253
80170.4
74410.7
107185
47990.3
42850.9
53151.2
43841.8
29062.8
24568.8
35771.3
31253.1
18326.2
11984.8
21898.1
40033.1
36116.3
26654.4
32967.9
30383.4
23177.1
30622
50316.8
33523.2
24522.5
20185.8
16862.9
12940.8
21490.2
14645.1
11537.1
11576
12461
3796.76
6767.65
10707.5
7964.29
18640.7
29232.9
18843.5
23026
32646.1
19307.2
16754.2
25010.3
30957.3
26285.2
31508.7
13492.5
20441.7
28482.3
28991.3
37703.9
39080.5
57063.3
80962.2
72155.5
92554.2
129283
144469
141343
145693
174656
145515
154072
136339
97900.8
99072.6
64947.2
46492.8
65273.3
67444.4
60787.8
89596
77961.1
89410
110458
131112
114079
81533.4
50647.3
38852
25174.1
3154.67
3548.66
5536.43
9254.43
20570.3
15311.2
30562.4
34812.9
26752.7
24546
40731.9
51908.6
27747.1
47352
27541.8
40074.8
45843.8
64918.5
54616.8
45510.4
50960.7
56776.7
51319.5
64679.4
69805.4
53196.8
66586.3
55989.8
71927.3
68104.3
60810.1
65538
66723.5
78477
84320.7
106099
124294
103886
110640
74317.2
69280.6
89330.6
94089.8
124643
148597
197838
201098
223191
241345
205963
204779
195760
141020
169730
176050
176204
185698
177026
155514
155472
175196
165419
234795
227522
197658
152781
112986
123921
187329
195483
141101
131961
101101
139453
151974
205209
192918
183963
159874
179033
197807
124006
162556
171471
124559
109531
69386.3
28872.3
29972.4
21433.2
33562.2
21084.4
21480
14440.1
9076.25
5964.06
14305.5
13731
7054.35
3586.77
15005.4
10257.8
7990.86
7434.52
11881.2
16930.9
23332.9
41469.5
28098.4
15979.3
21495.7
22365.7
30245.1
38840.9
19274.8
10384.7
22515.1
10665.5
4444.75
4734.8
11230.6
4076.26
10202.4
5103.43
4957.77
10643
6339.47
5002.45
7748.31
2595.38
7287.68
3446.26
9239.51
43631.8
24363.5
7352.28
4331.74
4852.32
7879.62
5288.44
12007.1
13418.9
15720.3
26906.6
24565.2
29884.2
25195.9
46668.2
73288.2
101350
63557.2
44371
41567.4
17418.8
19668.2
26455
31677.6
28192.6
16744.9
9794.58
12312.9
6000.37
4796.56
4434.25
4837.6
4110.12
5606.22
9306.2
14428.6
20170.8
16619.2
13041.2
10246.2
8835.26
8750.83
11082.7
6701.21
7555.44
5284.28
7822.19
9441.78
9573.02
36906.9
44037
55591.7
61942
57326.9
54881.4
73913.3
44532.1
33032.4
43801
33290.4
58649.3
42389.5
46231.5
48175.4
54660.6
79446.7
71455
64831.1
48611.7
44395.8
35772.8
57447.5
49844.2
44471.5
24714.4
39922.2
26482.2
11749.8
18677.5
4976.58
14101.2
23298.4
25010.5
17336.5
11655.6
5594.97
14952.6
15385.4
4428.88
4361.86
4328.99
10032.6
7092.27
10325.9
14936.3
9358.35
20396.7
33406.7
48965
31251.7
43468.3
62343.1
73357.9
81921.3
65561.3
67773.7
73544.7
76633.8
52015.8
68723.4
84090.6
48137.6
38187.2
45376.5
41246.5
26344.2
28644.7
33929.3
19620.3
20800.4
39300.7
22113.1
17910
35349.5
32894.4
30317.5
49730.6
22244.6
33254.1
36755
39191.4
23407
38277.1
27072.5
27570.5
64205.9
56298.6
38283.1
36626
37116.3
45486.9
89688.9
63177.6
99497.5
128064
184206
161844
144693
148972
116104
76199.5
123386
127390
93785.7
69568
59673.1
41989
32912.8
22659.2
19471.8
33015.4
42091.7
32849.7
65019.8
59049.5
57504.6
80772.1
66443.3
68407.5
61885.5
79039.8
66959
45853.8
24448.4
18536.3
10680.5
8755.2
27067.9
17134.9
9655.14
13027.9
19294.1
21495.4
14433.9
8772.27
6667
5235.84
7552.7
7541.07
4745.5
3148.35
4220.98
6495.32
4825.04
6690.21
3909.39
3321.89
7492.75
4623.48
6048.68
13479.7
12657.3
8786.77
14223.6
14798.1
9003.02
16235.9
10625.1
7866.49
4919.62
17031.9
21880
10331.8
14117.2
26248.2
16242.7
27410.2
22416.5
28649.3
18338.8
6801.99
17690.9
10350.9
12159
10284
5426.91
6836.93
7132.77
7173.55
7467.2
11974.8
16537.1
19823.5
24916.2
25330.8
26632.7
21017.4
20950.5
35796.7
21303.5
25205.1
13461.8
13829.1
6837.22
12359.2
8070.52
16496
9051.32
5960.46
7156.38
11005.9
10678.2
19524.9
15244.6
19746.1
11189.6
28267.9
32834.5
23158.8
11444.4
9048.55
11263
7182.03
5673.83
6638.6
7356.86
10308.2
8223.57
7062.63
5851.17
5965.54
9319.16
5513.93
9317.07
13937.7
15979.4
36990.2
44961.6
37547
28276.1
48002.1
38651.8
37383
22706.6
18035.1
28455.7
31443.5
39295.8
31985.1
37226.4
24379.9
25461.1
34520.9
32823.5
10882.2
9701.23
4761.67
13072
22313.2
21642.7
25500.3
27393.9
39863.7
22169.3
13004.2
13805.8
12664.1
11158.7
3840.67
5005.42
4479.82
4130.6
8283.92
3486.98
6980.41
11448.8
14959.6
18124.2
8726.21
12441.3
26941.7
37531.8
42325.1
16943.1
21423
12265.3
4651.31
14567
9667.68
6637.67
4700.54
4208.29
2559.86
16073.5
13611.1
5090.22
12126.4
6791.28
9568.2
16514.3
17357.4
12800.3
14032.9
10917.9
13096.4
18998.5
14788
12006.7
31031
17857.2
9016.85
7734.18
7742.62
15782.2
18780
13488.8
15186.5
26055.3
12819.6
7598.74
19025.8
32106.8
28287.7
26491.2
40875.2
34428
45278.6
67303
67231.8
101788
109977
77304.8
86860.7
63803.4
80169.8
73135.2
76019.7
65176.7
79973.3
127519
140378
172641
202215
167274
132431
104435
107169
98773.3
69558.9
69767
99838.9
53813.4
93749
75175.9
47196.7
59699.7
103084
78418.7
76436.4
71660.8
55809
66919.6
37915.7
31602.4
35441
21934.3
27445.6
30825.2
19326.3
23486.8
33930
33976.5
27182.8
45497.9
40035.6
42410.3
40554.9
45065.3
96906
100195
125912
92637.9
142804
130942
100776
84933.8
87148.5
81353.8
75655.5
87043
91949.5
102723
66457
81124.1
85790.5
52371.4
33556.8
41351.8
35653.7
43350.3
26754.3
11021
24646.2
20129.3
30486.2
45765.5
36710.3
19560.8
21820
58437.9
29046.4
27972.7
40303.1
47687.4
46677.8
44595.4
52018.5
40701.5
37806.7
22227.9
9017.9
3457.32
5053.13
11934.1
18426.3
12911.9
12983.6
5284.45
2685.65
14645.1
24738.3
19468.1
19445.2
14081.1
6927.11
9038.25
9819.77
14992.4
22425.8
27667.4
30782.1
14449.5
17265.3
10634.9
17620
19108.9
16572.9
19926.8
15636.6
21980.8
13571
15123
21920.3
16018.4
17543.8
20380.2
13503.7
24036.7
16730.1
23199.9
28553.7
18762.4
43094.4
60506.9
77777.2
103112
106261
88773.4
85426.3
63361.8
58438.6
38861.3
15649.1
12348
13398.7
14061.2
25059.4
28665.9
31049.3
14888.5
18654.1
22585.2
46665.8
68431.4
56865.7
62777.2
65561.3
49105.5
34191.4
47399.1
31703.7
34184.3
53117.9
43801.7
28000.5
52520.8
67450
50743.7
36293.7
20743.5
40708.8
73787
83467.8
100075
107492
70708.5
113534
99780.4
73517.8
90813
80057.7
82646.7
70601.1
59555.1
52231.5
35465.9
43177.9
26669.9
15301.5
33905
18053.6
17705.4
8135.09
4799.78
13920.3
9562.18
14555.1
8040.92
11401.6
4535.69
7307.95
5230.04
4944.14
6509.52
7185.83
3290.76
4762.02
5818.83
2957.16
7243.97
7347.29
13677.5
26708.5
58189.6
62486.9
37846.4
50491.5
35603.3
7267.7
21567.7
25049
31451.4
12452
14138.7
15598.9
25511.7
30924
32303.7
24381.8
24153.6
17057.5
14207.9
29228.6
42649.3
34670.4
22007.7
22918.6
46451.1
52567.1
57628.6
72846
52950.8
69683.4
99160.2
77446.5
98621.8
97465.3
99920.2
111070
101496
103219
86887.8
73348.1
53253.7
40075.8
23090.6
35369.1
32806.4
54604.4
62024.4
75542.2
105606
122219
103214
119310
117070
69234.9
50272.2
57787.1
42242.5
63383.4
70128.1
41457.2
34095.2
50908.4
33523.3
16613.4
20316.1
16571.3
24002.6
20886.9
22375.6
8427.3
6411.94
10174
11045.2
15568.5
6156.95
8874.25
4111.6
2840.88
11687.1
7440.82
4570.52
5310.76
4748.25
3644.04
4202.52
11131
11879.1
13897.9
10296.7
18559
35543.9
27469.4
40529.7
20827.2
25717.5
26315.7
32526.2
24002.9
31851.8
25190.5
14954.6
20741.6
21821.5
21814.5
16115.8
36894.5
18225.6
9473.05
25802.6
14504
11935.8
6808.41
9385.83
13274.6
21430.9
13860.4
18507.5
19171.4
14278.2
18472.9
6275.66
9074.98
5741.16
11828.8
6777.69
8405.64
5812.22
9152.65
21287.2
22098.9
5316.04
21943.9
24781.5
27313.2
15634.8
6658.87
12983.4
14876.2
8647.23
19035.7
20948.4
15331.6
2867.54
7544.59
26549.9
13414.7
34512.6
26616.4
48048.9
68618.4
61479.3
56276.6
78676.3
61561.4
59687.3
42540.7
39100.1
45312.7
63103.8
41571
21061.9
16411.1
11535
8915.82
3044.36
12201.9
15714.8
16201.9
15746.3
6786.9
12356.2
15872.8
7137.93
7942.6
12239.1
13558.5
6984.33
10968.3
4924.97
5535.06
5117.65
14347.9
7219.56
11239.4
15649.2
6054.15
6203.22
11667.4
8107.86
21371.4
24631.8
26130.5
21881.2
23436.7
18984.9
18946.2
17558.3
17688.9
15333.8
20415.6
20695.2
10679.2
27137.4
16391.3
11501.6
4074.32
13083.3
3972.19
8139.13
12873.7
7605.1
4135.62
22003.1
21974.6
20590.3
36814.1
69844.7
79748.8
50251.9
46849.3
46146.5
33679.3
18794.4
58149.7
50928.6
68691.9
79387.2
82230.8
73198.7
72955.2
44837.8
41276.2
77348.2
84851.9
60151.6
32626.5
19087.7
22996.3
34864.4
35551.9
19121.9
38909.6
79205.2
65661.2
60918.8
56381.9
79715.1
70229.1
87577.9
53673.6
28539.5
19631.1
22127.4
23397.4
21110.6
19039.3
9865.25
27005.2
36625.3
42301.3
32127.9
19835.9
23266.2
18097.8
19033.3
12730.5
13818.8
14396.3
18463.8
29073.8
6792.04
26827.4
39608.5
27126.9
16303.3
12985.4
14571.9
22920.2
19227.1
14939.4
35893.2
15035.7
21402.5
19132.8
12034.7
20451.4
14337.9
19608.1
21163
9882.49
15224.7
32204.2
14189.7
13285.4
12964.4
15419.1
4118.83
12471.8
20358.1
9447.13
14148.9
31343.6
33683.9
47296.6
37760.8
31572.1
27224.4
36163
43430.3
50190.3
77366.6
68530.5
73286.8
86341.9
74937.6
55767.6
60153.7
48542.4
37597.5
11478.5
19050.2
20740.6
21993.1
15424.3
6474.36
3245.33
7870.55
6547.62
6718.1
7441.51
7390.17
15382.1
11467.7
17466.7
21785.5
19964.7
13550.7
4548.63
10417.6
21118.3
36360.8
30020.3
28521.8
34733.7
22613.1
26833.3
32863.1
29664.9
19459.2
15268.4
23929.1
32004.1
19197.1
5749.65
10190.5
13104.3
2342.69
2999.5
11088.7
12852.1
11134.4
18398.4
16211.3
18582.1
22882.3
32936.1
43584.4
58715.2
47958.1
40912.8
56715.6
26706.3
36678.9
50472.9
52403.1
63728.1
45863
75697.8
74081.3
62499.2
68969.7
100065
64822.3
56612.1
38396.8
79453.8
44693.8
62656.5
64382.5
52260.5
70756.7
57985.5
47668.5
37036
50255.2
52293.1
45562.5
46085.4
46814.9
62895
38914.5
39970.4
59033.7
44822.7
54119.3
42975.3
36753.4
82444.3
82673.9
114527
84215.2
60558.4
43476.7
43367
60035.9
72300.7
84271.2
57775.8
48569.7
50135.8
43480.8
58022.8
69656.7
49265.1
25546.2
15157.5
27992.9
50117.4
38970
43345.1
46650.3
37658.7
19341.9
31448.8
14982.3
36262.2
17219.4
48877
58457.6
52374
31908
27847.5
16771.2
12980.9
9876.98
6256.55
3572.05
4280.86
17772.4
11101
14831.5
32298.9
24248
22291.4
20628.3
28762.6
33629
39061.8
48728.9
53801.9
49951.9
61629.1
55551.4
74466.4
28644.8
34877.6
39841.8
57691.5
50905.9
49743
42488.4
52497.8
46655.3
22173.9
21394.3
31215.8
58313.8
63494.7
61659
44023.4
24318.8
15851.5
14906.6
14632.1
10343.2
25382.5
22120.7
10569.8
8861.73
15420.8
16225.4
30941.2
26511.2
42254.6
51862
98266.2
85559.2
58297.6
53684.6
70622.7
63937.8
51330.2
51353.9
39738.2
49486.2
54767.4
35982.8
24459.5
18521.3
9423.83
6379.08
12534.1
10271.1
13664.2
24537.4
33770.4
13034.8
11580.4
17566.8
21357.3
20372.8
33030.7
19487.5
14525.4
7959.1
8141.26
6156.83
7171.56
7673.15
11736.6
7737.85
14035.5
25143.6
23273.5
14031.4
7378.52
16521.7
30475.1
29168.7
44420.2
53746
42081.6
31242.2
24980.2
36332.8
24416.3
36939.3
42604.8
30260.7
15681.2
7945.45
5350.85
20573.5
39879.9
25310.2
42962.5
48657.4
44372.1
33516.2
38282.5
42061.9
25105.6
19436.7
18586.5
21527.7
12976.6
12557.3
5357.95
3893.1
11152.8
6164.19
17629.4
18396.7
14495.8
5976.01
30557.8
36875.5
25233.9
15827.7
14737.1
8639.51
14981.3
10341.8
4162.37
5464.77
8732.33
16080.7
22625.5
9943.44
5836.14
12050.5
11626
9039.35
9120.63
33593.9
30287.7
12590.6
13893.7
6249.58
6819
4671.1
8009.99
11633.1
10913.8
6647.93
6665.17
5385.79
11841.1
13039
12694.9
29458.2
31927.8
29864
10064
18822.1
31727.7
17258.4
9284.78
7890.6
10374.9
26131.1
27666.7
37361.4
43411.6
19286.3
29922.2
24644.4
26034.1
30423.8
59014.5
57393
63041.5
65334.7
64331.7
40114.8
50060.9
49239.3
83231.9
48705.6
36404
27881.6
18167
20406.3
18338.3
21805
33785
33026.4
18550.4
25807.3
45811.5
34133.3
44972.3
35355.1
22260.7
11018.1
10604.4
9558.01
26146.3
49506.1
46541.6
32000.7
44991.4
42422.7
31898.4
28337.5
12363.5
15967.2
18291.9
17147
9497.78
18787.8
24418.4
31088.7
11822.2
30050.7
22574.9
45130.2
60730
46566.1
33788.6
19226.7
6274.41
21209
10057.2
10269.4
4027.42
9114.16
9675.39
8772.79
13874.1
19203.7
16848.2
6432.07
6663.89
4998.21
5761.36
11754.1
16680.1
13089.9
20475.5
23708.2
9603.7
6659.82
7242.32
6963.88
6695.4
6393.27
7534.08
11047
19270.2
35242.2
38853.2
29623.1
20554.7
16926.6
22524
28061.9
38209.7
44465.1
36761.2
32754.2
14701.9
25179.8
32860.3
14531.6
13553.6
6860.87
16700.2
16939.1
5598.15
8368.27
9649.71
11999.2
5749.25
8066.26
11230.3
6561.95
8506.66
11814.3
9498.74
12504.1
9864.06
6960.68
19641.1
11305.6
15063.4
11034.9
16313.7
7195.11
12598.7
24285.2
26748.4
14095.9
13861.1
4221.73
7660.48
9561.19
15609.7
15208.2
8848.52
4605.09
7861.25
12574.7
13856.7
17375.5
13222.1
9703.45
27331.2
30610.1
27172.1
21530.4
37015.5
28650.4
25738.4
18041.3
37645.1
40564.2
50648.1
14000.1
19694.2
21070
21505.3
26323.8
34504.7
46391
67409.6
65763.8
68079.5
62597.3
41609.5
45431.3
53574.5
43640.6
43528.1
44022.5
39436
27076.4
12961.8
13375.2
4891.94
14270.3
19191.4
25584.2
12184
7623.93
7248.54
10065.3
7170.05
6721.46
15861.4
12627.6
4807.24
14169.1
22998.5
30057.2
27515
14706.8
13948.2
16873.2
10879.5
14445.8
17044.1
17970.2
15243.4
4464.54
15718.5
7560.81
6400.75
6183.74
12841.5
14986.3
14021.1
23876.3
21417.1
41142.2
17958.8
16693.3
30982.6
17857.2
10346.3
14807.5
19563.1
24824
18633.5
10635.6
19790.7
20140
17225.5
20602.6
25607.7
25138.9
18493.1
11212.5
5392.39
18881.8
12044.1
29716.9
38761.2
34860.4
41235.5
47502.2
49825
18883.5
24414
19406.1
15484.6
13319.6
13546.3
14000.4
8592.85
9190.36
24219.8
12175
5759.5
4715.17
5767.63
5911.43
9607.86
5489.59
9810.08
15474.8
12590.2
8567.91
11984.6
13576
9292.02
12638.1
17415.6
21817.5
26916.9
49155.9
37044.4
29880.2
24039.8
13453.9
11186.7
5190.8
12259.3
17268.1
30096.4
42015.6
37814.2
23824.8
36847.7
43834.7
42974.7
45578.6
36192.6
34223.9
20290.4
25226.8
21738.8
17882.7
36109.8
30676.3
50251.1
56459
49599.3
45880.2
42251.1
48018.6
63575.5
52457.6
44988.8
71139.6
50954.9
61304
58170
43673.5
42351.4
24828.5
25645.1
46871.9
33309.1
43775.5
53840.6
81669.7
69046.1
53970
39660.9
24736.5
21477.1
17723.6
12992.6
27199.3
29886.3
22613.1
24964.6
24489.3
23230.7
12283.5
5937.66
18511.4
29449.3
51909.9
52388
65805.2
70201.7
77524.1
60080.5
34046.8
57230.5
36815.9
48394.4
55328.9
31886.1
33360.3
29184.1
46551.2
23382.2
52822.8
38441.8
65315.9
58282.7
69226
49742.3
78236.2
56850.6
47217.5
61968.6
83455.2
59273.4
43858.3
35546.3
49849.2
64829.5
56336.3
67685.1
64596.9
56283.2
86535.3
124301
101434
103500
96698.2
103812
128515
76755.1
59890.8
90942.9
65412.4
55652.9
51275.7
84177.6
107638
125716
120286
122292
98925.5
109002
77684
51588.2
37884.5
70345.4
76887.9
42975.1
43411.9
24841.8
22919.8
15264.2
7612.76
9034.31
9421.3
11680.6
18478.7
23194.1
13426.1
19354.4
3827.6
6132.5
9722.26
21808.9
46489.7
36503.8
49260.8
30910.2
21798.6
19603.2
13453.4
9524.8
51166.7
51834.1
54394.6
27620.7
36911.7
33676.5
29907.3
30532.9
40047.7
20572.9
10879.3
13409.3
5833.78
10288.9
16588.4
17244.8
4288.38
6345.88
