20228.3197
7758.945075
10287.07071
8289.336931
20437.684876
8997.00053
11597.28289
9635.95906
9019.536264
10358.485631
22967.89735
11265.384393
10463.484345
7282.76245
16834.07453
20435.27611
20221.63356
39129.940166
10135.1914114
41420.0447
10671.26912
13801.011932
36919.81043
10933.24638
21364.93037
7192.38342
8510.20769
7103.726761
30882.57835
12676.54206
6114.22075
35350.835975
25413.01971
34066.980758
17229.181731
11755.9035226
9317.46394
15657.042865
4216.9917743
29924.54992
10543.959106
9580.6476
34921.820541
16449.91326
13605.603146
8371.555037
9286.88106
8638.737263
9643.953961
12262.9298876
10131.9204
14775.671731
9177.94374
33960.72227
9914.395417
13043.286654
7749.390486
9339.192499
15398.05246
14487.62659
14435.917999
27277.048862
10683.49812
15334.3687
9821.54518
15231.6221
14422.267157
26312.292014
8167.55901531
15821.70483
9756.6948189
12058.46321
20157.149094
13679.13024
8130.50051
8733.23902
26131.110996
16292.23273
17741.40285
13323.32198
21915.51794
15285.11294
5974.7924518
18203.389089
6869.0178703
9782.978977
10821.71992
17474.82912
14362.47057
8710.190234
7625.255039
11734.97412
12776.45449
11632.83854
15593.34453
12717.21014
7531.04437
11645.45671
6303.018717
10679.932275
