8685.79927
12562.354032
2013.5989821
20193.681887
5468.7065593
12127.348117
8434.25134
1091.8651968
3246.852319
5774.478493
16105.9998249
3677.172453
32318.303989
5281.199745
18296.77335
6440.6758988
10545.92311
2075.20902
6377.446892
36908.3282
23169.3154515
1829.23273
2654.567145
6372.00814831
19661.150101
2100.340294
5732.549362
18811.114052
956.865078
2974.07384
18605.05797
7182.84935
5650.353783
7850.939828
18726.78993
6308.54214
1791.73499
3866.067299
-571.373062
8314.4567102
9310.547272
17786.41899
3037.914957
11338.179093
-1005.67253
1868.394407
16806.72642
1790.67092045
3181.636138
13719.617948
690.237382
981.92891
5878.319318
3652.671779
8802.353579
9408.186633
14492.6387998
18000.72221
17150.623229
2734.857396
14453.8228
17937.98035
5105.014298
12359.802323
98445.91247
3811.8708938
20857.96516
1214.426273
5052.45058
7362.357012
9546.1739
2319.094271
9905.75195
3114.154599
1863.004799
1644.47016
9633.576686
3010.124134
10366.672983
3807.03985
5657.68906
9568.24572
8624.816431
5649.96289
9449.250385
28381.03759
33378.56114
10390.552826
12268.262347
10532.481012
5188.31138
10369.137038
21106.009151
21039.12293
14460.190047
2398.639073
17668.344996
10211.8324
3340.153887
3057.957152
