2996.64
3042.3
6853.56
5993.91
2590.11
3092.67
2476.72
4797.81
4810.8
2751.95
2041.41
1311.23
2276.06
612.671
5681.67
1473.01
11817.8
2411.27
1496.28
877.128
1904.83
2070.78
4067.24
9534.92
2901.48
707.414
2236.22
4866.73
10267.8
5422.49
3482.26
3543.06
2024.35
1314.39
10988.4
1452.61
1917.1
2514.87
2687.59
1994.1
2130.7
4787.17
2658.4
449.121
1206.82
1755.71
2526.2
12219.1
4033.27
6475.42
1590.67
3174.22
4656.85
4546.31
3798
11346.7
10654.1
3498.56
11107.2
24467.4
26752.4
3531.96
3658.89
1885.78
3932.46
699.214
1700.9
3984.94
12301.5
4221.48
858.906
2601.54
5069.77
2292.71
3424.41
2312.49
12424
1944.21
1287.67
7306.02
8452.51
15918.6
2186.88
5460.71
2416.77
2677.6
3571.56
3538.27
2549.71
4323.06
2888.87
5721.78
5601.73
7022.19
1591.27
2628.87
8151.29
831.323
8343.31
862.951
3533.85
5769.98
2728.19
3160.92
3978.81
2915.11
2563.56
2689.02
6492.01
3055.71
18742.9
5357.05
750.553
6551.01
2248.27
3515.31
5396.42
3501.06
3774.84
4362.71
2932.54
1845.6
5541.39
4230.02
1744.2
1303.01
4124.37
1025.27
2558.28
1838.17
8009.69
3943.5
4298.64
1938.91
964.094
1925.93
2210
8676.91
2546.11
2201.84
405.855
4897.46
3864.47
2530.17
2425.92
11793.1
3659.26
7717.46
5970.38
1996.19
1853.04
3947.89
4043.68
1540.27
807.072
1596.82
5430.94
917.617
1190.58
4200.11
2285.98
1932.38
4164.18
1403.14
8492.43
10113.4
7577.19
1470.6
1716.79
2055.28
3618.11
8441.97
3695.52
756.339
3358.51
4911.96
1290.61
1060.58
2224.38
4937.42
3700.6
8492.23
3660.08
2429.05
5581.57
3940.6
7930.4
2922.68
6920.26
5208.55
2635.89
2521.98
9323.52
3953.9
2116.06
1378.52
2550.71
1954.39
6098.76
5646.59
7175.81
2435.19
1985.09
7188.61
6091.29
3392.85
1945.22
7408.15
1486.9
10193
29365.9
2031.66
1925.36
2435.44
3493.66
4931.39
10625.3
415.945
5682.69
3761.6
1133.55
3682.47
8486.05
1178.25
3378.84
2203.15
3498.98
4401.52
2712.66
3064.88
2280.8
1123.81
1595.73
1500.18
841.946
475.561
1195.93
3491.46
1396.49
5905.9
4995.92
3083.56
3236.58
1665.42
3996.55
3933.66
5618.31
3136.62
922.527
2336.47
10671.9
1364.15
3973.41
350.986
2080.55
2308.53
2456.06
12475.2
2921.86
1977.84
563.446
10190.3
1798.8
4074.61
6464.82
7224.42
2662.35
5142.2
1178.32
7239.66
229.849
3695.07
5794.4
574.053
4877.69
6382.86
2111.1
4223.42
2200.69
822.299
7567.56
2680.32
2358
594.076
5812.72
5531.18
1949.23
6660.13
1697.6
4401.69
2255.13
5789.22
2057.99
2372.47
9625.44
11448.7
3756.75
6530.97
2224.12
6066.85
2487.67
1507.24
2889
1616.16
9106.48
4847.12
2201.17
5062.1
3773.21
5181.15
6649.15
3074.3
1471.5
3096.94
3016.41
2292.91
2118.29
3080.03
638.279
3666.36
3149.77
2819.11
3060.69
8845.31
4730.4
3768.17
10936.8
8182.23
4037.92
5367.31
5932.61
3224.49
1808.31
2434.87
5276.64
833.129
2826.41
1951.65
2522.23
4790.23
2512.79
4137.78
9582.64
3019.5
5439.01
6274.92
6236.8
9094.59
1912.71
7993.36
909.565
4922.12
10083.7
3624.76
1415.66
6070.65
3600.59
6466.49
1165.73
1201.12
480.329
7434.28
1476.08
2280.71
1369.14
2830.25
1520.47
4476.11
6582.53
2337.7
1755.44
2829.71
5344.4
1926.53
1469.89
6658.6
1927.26
4863.73
3443.2
3414.19
9349.57
3937.86
6084.33
1566.89
2512.83
2948.54
12872.2
2290.4
4282.11
4261.89
6550.67
1035.07
4600.03
1031.17
5097.69
2061.81
3823.65
4046.42
1607.34
2747.7
1221.01
3299.55
2282.53
1347.55
13134.8
7967.94
2134.14
3799.92
4839.3
810.108
1062.19
3921.04
1990.91
14239.4
916.389
2980
3553.25
2439.15
5599.53
4774.99
1870.1
3406.46
772.096
11255.2
19278.4
3370.51
5039.86
5292.4
9741.25
4772.8
1383.58
2025.68
3312.36
7498.85
9099.01
6703.78
8566.37
2453.77
4724.14
3540.89
5690.86
12615.8
1640.35
8040.15
1257.54
2821.01
3595.5
2470.25
13686.2
4800.62
3000.14
15054.7
5509.07
4167.98
2426.83
1576.78
6017.81
8656.74
8230.84
3754.56
1163.38
669.723
1205.66
4528.42
1587.64
7416.82
1991.92
3994.29
3450.96
6719.97
540.998
4639.59
3802.71
2004.19
4015.14
3382.45
1757.63
255.412
7152.39
2510.03
8516.78
1090.24
1619.65
4428.79
6808.18
956.146
2402
3268.32
3757.88
4250.05
5622.42
2922.16
2728.93
3305.08
4410.61
1753.74
3684.86
6962.98
6479.94
7156.22
5393.29
1425.37
630.721
3780.76
922.607
2172.45
22419
1784.05
2797.56
5339.81
12483
2198.7
5391.78
3315.38
3041.41
1067.51
9689.24
8231.33
1466.97
15347.1
1979.09
2975.24
2992.42
846.932
3184.12
2760.4
2148.38
1012.57
1262.28
3131.99
1397.52
3033.93
5910.48
1611.45
2108.05
3608.93
3403.85
6484.81
12388.4
1873.5
1894.39
7233.99
5765.69
1997.67
9535.24
10400.6
6324.11
8281.24
10562
9753.57
5167.43
922.186
2742.31
6337.07
7764.87
6746.29
1608.68
6868.96
3097.65
1872.05
1122.26
4747.69
8381.32
1752.15
4637.38
6255.69
6858.92
3284.45
4569.87
2812.36
3638.52
5023.06
2837.2
5837.15
3244.55
3144.12
2651.51
1917.86
1168.64
6280.28
3936.24
5831.71
14803.3
3182.59
690.501
1789.79
1982.76
3038.2
2455.83
3815.86
3220.8
8355.35
1282.34
3116.86
4458.31
3221.51
1127.19
3282.55
1850.47
1336.46
9987.03
1629.46
1463.22
2864.63
2545.17
5837.38
7682.8
1648.61
2125.12
1767.15
2285.82
7141.4
1006.78
4247.07
1864.68
1197.7
4189.07
3608.53
11824.8
2661.81
6439.05
2418.29
7228.05
1933.57
3660.17
4512.99
3817.83
8026.19
8582.56
2394.84
2053.85
619.505
866.318
1147.35
2962.21
3263.63
19198.5
5922.27
4018.35
1422.08
2635.81
3932.72
2021.84
889.83
3268.84
4749.29
1471.18
6276.71
7636.45
14261.7
3565.02
4822.5
7365.33
4873.24
3193.1
12122
2994.87
3016.06
4767.24
1317.71
1171.66
3536.45
3606.57
1873
1924.71
11238.8
2817.92
2569.83
3238.69
2563.89
2135.38
2077.69
3221.53
2129.12
8465.73
2276.73
3734.13
2364.46
1525.3
750.664
18138.7
1767.51
11182.6
7368.29
11212.5
2440.72
1287.9
1861.94
5880.92
5511.04
5556.74
5923.26
7535.55
4155.99
4913.57
4336.98
3757.07
5545.84
12686.3
1533.09
2308.95
1781.01
6225.8
3514.11
4251.95
1541.91
4824.02
4856.66
4310.56
1788.56
6128.42
461.517
2438.99
6094.01
3256.22
915.682
4549.24
9151.8
11426.8
8005.95
2044.96
4421.92
5579.03
3755.15
1512.48
5207.55
733.631
2552.95
1128.34
3373.48
7935.06
3536.66
3810.48
2361.96
9469.29
4188.38
931.623
852.196
2921.91
4610.83
3897.44
10186.6
3641.16
1211.33
3065.68
10198.2
6858.37
9920.43
1721.41
3201.73
2198.5
1482.85
2088.97
4481.54
3143.58
4678.79
4103.45
1117.39
5140.49
4455.65
13544.8
2114.13
5832.98
12078.2
1009.36
4981.81
2616.95
2103.64
4732.02
2717.84
3770.42
3922.47
3114.22
2773.51
1591.29
2344.79
2378.74
3012.01
3032.41
4716.42
4422.72
3914.17
4064.68
4664.3
1991.75
3575.29
4374.33
1531.34
2441.15
3167.71
1686.03
2690.69
5339.86
2858.19
4061.73
3486.03
6623.94
2873.02
733.12
1882.1
8790.83
5103.62
511.069
4899.32
941.704
759.078
3720.09
919.176
2829.49
5438.9
2178.32
985.242
10153.5
3125.86
1910.54
2530.31
2880.75
8752.46
3688.16
5670.77
15198.5
7390.43
1365.69
3292.44
3169.4
3601.31
5599.1
5721.09
3995.53
3628.94
16723.8
1986.29
2626.16
3190.73
2719.63
1650.95
965.08
3464.66
1752.18
2816.12
1396.35
1647.34
2645.04
2429.32
12224.5
1282.81
5094.66
3681.66
5050.42
3693.54
795.446
4138.93
1159.87
1746.94
1622.81
4280.46
2729.94
1679.6
2336.88
3216.81
5876.68
1344.22
2638.67
3944.39
4103.22
3658.7
1333.5
1331.38
14860.7
5656.41
2380.3
6956.1
4953.06
4601.19
2547.43
4967.58
2456.26
1484.59
10662.8
2070.31
2720.11
3564.48
2289.18
6608.1
1543.67
2107.99
6817.17
1950.63
3994.58
16078.6
3634.83
4813
3499.37
4689.1
2950.4
4053.84
3292.92
7854.49
5048.36
1150.26
4393.21
2524.13
3360.4
2611.3
5059.65
1150.67
1759.93
1894.94
2353.62
1123.4
5452.48
5126.4
4576.45
7873.05
5678.12
4280.24
4351.23
2191.01
8349.97
4100.47
1939.68
2751.2
860.043
3861.51
1139.51
9410.25
2813.52
11973.2
1650.34
1042.06
3352.73
9680.16
1535.65
2526.62
2152.13
1507.41
4480.44
3915.57
3724.8
15067.2
1844.98
2534.96
4025.9
2458.32
6130.26
5778.91
3161.92
2338.25
4859.51
4757.53
1637.93
5963.45
1288.81
2170.29
3583.13
949.251
2588.36
2764.44
4810.1
9711.36
3185.92
2810.97
2319.46
1683.48
2720.47
1861.25
3009.99
2766.16
2815.37
1238.43
1034.28
19233.6
7227.1
2459.26
8716.25
4898.82
3030.32
1449.28
4549.04
8433.45
3090.21
4363.97
3937.46
9170.64
16021.3
6385.41
3212.88
1986.22
6989.12
4237.77
1766.2
9332.57
4118.28
2827.54
3889.9
7565.04
739.116
1102.58
5266.11
9025.91
8659.96
1120.28
3407.46
4831.2
8062.43
2692.4
1922.01
4114.55
4679.37
800.353
5258.52
8635.4
1691.98
4337.5
3944.23
9310.99
4933.88
3789.68
5760.51
3515.76
1909.23
7454.76
3662.18
2581.17
5002.97
2250.88
7484.49
1696.96
2384.83
4523.75
11282.4
3292.2
6137.81
2630.03
1088.92
4583.56
9684.69
6357.19
2446.86
1549.03
2741.09
2333.96
1455.87
2267.55
3695.38
2344.97
2847.72
2260.32
8691.52
3231.25
1423.98
5763.13
2116.69
2804.23
168.598
4572.78
1620.61
627.039
2724.04
4876.75
4894.04
3324
12867.5
6353.7
4760.4
2765.01
5748.72
499.688
5807.66
3757.57
1221.19
3660.66
3358.16
2563.75
1458.47
3370.77
2359.78
2150.37
11218.9
4523.72
2886.25
9465.34
3214.48
958.114
7895.38
1062.81
1647.55
5106.69
3717.6
6827.62
5161.83
938.075
2228.16
857.445
1995.03
3427.59
13052
3415.1
3382.92
2014.44
3882.85
8030.88
2542.21
1927.92
7970.55
800.842
3372.59
2290.7
935.071
677.699
2773.52
2312.78
5047.39
3415.11
4702.64
6312.72
4778.83
574.736
2754.78
1885.92
9259.57
8829.96
10730.8
1264.9
4938.82
962.471
5658.72
2622.04
1980.28
4171.25
725.773
3357
5501.68
1277.56
4776.17
3680.56
4565.52
1554.91
4236.16
5609.1
5361.99
1774.68
3035.11
1740.86
1248.46
3982.19
1697.86
3174.63
2515.94
4195.11
2032.29
10682.3
1724.89
5179.76
642.399
5990.02
1469.62
3051.52
2706.75
4169.42
2965.88
1257.38
2619.22
3982.37
1257.46
1173.17
2461.83
4938.71
4433.07
20924.1
1848.83
1498.11
2689.61
1963.26
3729.73
2963.71
2586.4
1782.7
3813.77
6184.84
7304.21
12143.6
4093.53
531.83
3805.2
2474.55
3928.14
3112.45
9676.69
2646.71
6227.23
4373.96
1194.93
3002.54
2614.04
2257.38
1838.38
3332.56
9330.54
15897.6
3097.59
1475.97
1280.69
2616.02
6263.85
724.924
2576.66
2137.37
5138.22
17215.8
4218.32
2127.29
2578.82
3407.46
13084.9
5336.45
4915.59
1471.8
2519.77
2916.23
3616
5210.03
4691.07
1956.29
2554.02
2315.01
3487.9
6339.23
1632
2932.93
2126.02
1966.83
1430.42
16062.3
3374.08
4613.51
2129.33
1925.98
6868.82
4570.69
925.269
770.1
2008.5
4021.66
2213.99
4427.53
1683.3
3273.24
1108.46
11012.6
4805.68
1658.87
802.493
4835.68
6690.64
2447.47
1813.75
4106.39
429.441
5524.5
3196.6
2482.4
2185.61
7060.69
3451.4
5828.61
1848.34
7230.07
2807.5
5110.37
3997.08
565.235
2550.41
3588.44
2917.94
2477.35
7189.62
4384.84
3783.92
3895.94
1308.16
5552.45
1640.86
8275.7
2031.32
3047.33
1459.11
4221.01
3266.77
4819.24
8581.97
597.746
4825.52
5817.26
3763.01
597.779
2615.35
4385.7
2419.42
2748.9
1955.97
805.8
1617.71
1771.05
1382.86
1128.26
744.634
5152.29
5118.87
3565.32
2146.23
2393.46
4948.2
3118.33
7537.69
3735.7
5870.37
2969.67
1190.28
11183.3
2062.92
10931.6
1250.57
6417.8
2569.65
1611.77
5806.79
3432.27
3799.33
4192.69
5898.41
2547.51
7495.14
1593.27
2930.71
5633.28
16486.4
3994.68
2358.16
2206.52
913.538
2160.57
5462.9
7559.67
1273.17
2718.63
1439.75
5253.11
2522.19
7006.64
14575.3
2644.7
2494.11
4962.81
5723.78
1477.47
3964.92
4536.06
2890.55
1484.49
3975.42
2769.39
2468.22
2737.77
2568.8
3497.81
1951.11
3150.92
3651.3
2050.27
5171.78
10571.8
14932.8
5809.11
4179.6
5160.25
7296.54
5301.64
4310.69
4224.11
4363.89
3135.38
835.788
536.563
3235.27
1890.2
2394.55
6937.04
11613.3
1285.08
1551.9
4909.73
2813.27
4729.89
3526.22
4220.52
1193.66
3015.77
3917.29
403.744
5436.26
623.397
3858.68
1513.79
3084.73
6905.7
1575.19
3194.76
4492.65
4866.41
3157.72
2007.4
1897.27
1475.31
1068.48
7831.29
7426.83
5965.65
6050.13
4030.4
6258.39
2950.27
4657.04
2352.47
2314.03
3209.22
4044.89
3448.66
4021.58
2985.46
7010.75
712.116
2780.8
6350.1
2177.85
4263.78
4674.57
5764.98
928.887
2841.66
8160.28
12227.1
3956.01
560.495
1756.99
4520.05
1183.08
5018.93
4897.92
3778.81
7282.56
12301.2
7330.1
2247.36
8212.37
7376.12
2454.49
1485.09
3689.72
5969.59
3099.5
6958.26
1021.49
4575.41
3733.18
1252.67
3276.2
1380.88
730.829
3608.39
1936.14
3042.42
2050.44
1842.17
8030.59
3712.94
2196.58
3186.42
7193.53
2352.38
2028.31
1286.24
1563.09
2658.88
7865.92
4339.69
2287.26
675.502
7032.02
7329.01
2920.19
2583.58
3806.24
4084.34
3003.63
4176.05
3454.81
3728.94
4333.03
365.68
15105.6
8815.85
16957.2
15467
3026
6109.55
1962.27
4474.62
12460.3
3812.44
1121.13
2982.83
1976.59
1590.6
1747.65
3122
1756.17
1310.72
1738.79
1139.91
4728.79
6054.83
1907.69
4716.91
2164.84
2894.44
894.098
1504.21
2189.68
2105.76
1384
9538.33
3185.22
2448.64
13347.8
2162.62
3003.81
1969.83
464.992
2249.2
5407.42
6868.2
6526.68
4582.83
7080.89
1924.73
3163.58
2036.42
2427.91
1580.03
3592.89
6628.96
1410.1
6166.85
1354.19
5587.39
728.71
4456.42
6155.31
4492.98
1241.96
5946.69
2807.35
849.545
6336.08
4014.98
5602.02
2148.46
1210.89
6308.9
5579.83
5931.36
3518.64
3567.23
1732.84
17575.7
2641.33
2328.58
2448.83
3698.11
8519.31
5936.13
765.316
4588.19
1441.5
15756.5
7888.6
4366.85
1303.23
1096.73
3710.29
8536.79
8457.59
1169.18
1520.38
12873.3
1578.91
2441.96
3694.46
2800.66
5692.61
6195.46
5707.4
2622.93
1028.81
2967.6
842.003
12303.3
4409.86
4022.07
1699.67
3750.76
3062.65
1835.09
939.166
5066.18
3199.91
2485.13
1460.59
3139.07
15730.4
5636.53
5588.69
848.805
20839.3
3825.97
363.734
8649
1964.22
3067.2
2268.19
729.992
2737.93
267.19
3973.95
2599.24
4694.27
2313.75
4455.56
4899.97
5155.42
10014
3234.98
1953.27
4277.54
2998.88
2999.53
2210.17
1045.82
4210.1
2070.72
3277.87
5039.7
8075.18
2976.42
5512.12
1411.99
3594.76
1356.74
2107.23
1887.95
1430.38
1533.92
1902.91
5401.58
2899.2
3800.76
5490.06
7784.91
3064.51
1440.69
2981.81
3415.37
1981.95
8908.41
5312.69
2140.78
899.226
1657.73
2021.75
1861.76
2798.87
3750.37
1676.93
10720.9
5162.18
2135.53
4915.05
2962.76
7147.48
7098.04
1955.16
4750.31
1073.63
5042.83
1390.93
1556.69
1805.34
4765.22
2500.29
7945.23
1809.39
3409.46
1342.06
1888.19
2489.05
2816.7
1338.78
2773.67
2294.84
2877.74
2985.32
4810.69
2342.97
5537.22
2733.42
14255.7
3049.11
7934.38
1007.93
3318.11
15482.3
1637.34
1506.6
3753.88
2492.58
4284
3518.12
5336.54
7357.1
2815.41
7004.31
5666.19
1550.09
1232.66
1524.28
3579.36
4192.17
2550.08
1177.62
10052.9
5036.13
5451.7
3002.09
13518.5
1935.3
2657.35
1819.63
3428.68
1226.08
5638.97
901.749
2232.87
11022.4
1768.48
2109.29
562.88
3312.65
4699.53
1882.34
3909.97
9488.95
6377.24
6604.01
8668.76
4044.07
5022.9
715.832
9397.19
3806.03
1870.62
3053.99
12082.5
3425.47
4762.2
5868.51
6618.17
2690.42
2593.07
4099.31
16150.6
4581.35
6716.8
2515.87
1119.45
1840.23
2997.39
5585.54
2789.81
2095.9
2281.23
5501.34
13128.3
1496.69
6939.26
3165.51
1174.36
12656.7
7344.11
1768.95
9045.49
4000.3
4167.12
1986.37
1391.83
2020.95
1474.41
5255.44
4647.04
990.68
2295.81
2845.15
8203.17
6103.47
4225.1
1230.41
1811.51
3831.33
3974.31
6754.78
2963.52
19152
4648.45
1587.64
1138.74
3424.77
4119.24
1256.23
6299.66
17095.8
5258.95
12614
3711.74
1912.19
5112.14
8377.4
2617.39
14383.9
4738.05
913.673
1021.11
1143.68
5504.42
4173.86
5593.62
6811.09
2533.95
14161.3
4961.06
3236.35
1935.88
2431.76
5002.67
10300.1
6330.48
3205.56
3004.6
3569.84
5446.74
2563.3
5092.95
5458.72
5916.23
6186.11
2184.58
4751.13
3498.23
1424.05
2655.64
4227.57
6035.05
3764.93
4281.08
10183.5
1230.45
9402.14
3725.05
1717.34
2012.73
255.111
4974.2
1217.99
6377.11
1378.76
1591.03
3743.99
932.415
4011.19
3329.3
3289.34
1247.07
1791.82
3298.54
2278.19
1851.63
3255.27
1529.06
2383.8
11407.2
647.843
2513.12
5359.5
3842.86
2431.19
2638.69
5740.83
4818.5
1928.76
4004.69
2085.47
3023.73
4547.18
2129.36
6364.37
2857.7
4556.7
2348.9
2900.45
4135.27
1466.42
2680.24
6700.48
4083.57
3538.41
2878.02
3802.07
1340.9
3445.04
2125.47
6831.94
9471.61
2482.12
2201.08
2756.93
1160.83
2343.7
11715.4
5102.1
4046.45
2211.86
2083.09
270.494
5712.21
1703.95
2986.48
3894.83
5388.06
2565.05
4466.55
3750.74
4575.98
3407.89
3920.6
10043.2
5174.37
432.316
6917.99
1935.04
5241.93
2713.05
1992.79
1823.48
1764.47
1634.59
1979.66
1881.2
2028.71
1975.98
4270.7
5142.48
7874.11
13099.7
4465.89
2778.4
5615.23
6056.59
3749.25
914.644
1135.64
2371.51
8844.35
3703.47
3342.44
4432.89
3739.07
2309.97
5274.77
7694.94
7229.94
1246.84
5587.09
1050.9
5394.18
4577.68
4657.12
939.593
2431.72
6204.22
2232.64
5066.64
4100.25
2598.19
5164.37
6319.11
1908.59
1540.69
4059.02
3036.95
8610.77
4671.85
1643.35
10233.4
3130.24
1623.25
3395.9
2556.66
3711.54
3827.16
2507.19
5793.49
13353.9
1303.5
3972.51
2052.9
5820.07
8023.99
12248.3
1633.61
2673.33
3258.89
3879.76
1391.67
2216.07
870.607
2247.99
1439.65
1693.29
757.834
9880.48
7344.13
3255.37
1656.86
4956.73
3059.87
6144.45
3611.94
1284.59
1177.4
6698.03
1484.48
2901.86
2653.53
1632.38
1651.17
3312.94
1567.61
4019.61
2925.78
1480.44
655.059
7958.62
3744.29
2847.74
2025.69
2367.47
2229.51
862.504
10359.9
3828.57
1378.67
3077.78
10620.9
2702.99
3305.87
1800.62
6598.51
1921.19
929.933
9223.74
1723.65
4299.94
10230.7
8166.57
5974.95
2296.64
2974.73
7114.05
2428.68
1577.79
6921.65
4561.69
910.374
2491.56
2464.16
2275.76
2905.11
2627.39
309.872
3256.33
1792.14
8696.58
828.721
2178.61
1949.07
4659.24
3846.87
783.495
6187.52
4011.05
840.929
6717.75
1971.57
4089.17
4120.28
2200.61
9404.09
1441.6
5373.61
2523.63
4028.95
1159.34
1277.63
16261.2
5035.91
3940.69
2788.54
10559.1
1715.75
1540.07
8757.58
2248.61
1968.69
7260.06
6235.14
3370.27
3343.33
6356.53
1771.44
2663.31
1646.77
5670.18
5271.79
3600.2
309.61
1318.54
3830.46
1183.5
1073.2
3129.26
2607.76
4310.8
8527.41
2946.93
1674.77
2943
1763.97
1224.76
1645.28
3820.59
6494.74
6506.72
9419.2
1136.33
2171.21
2909.09
6706.01
3841.64
5652.78
1830.16
2277.99
4423.04
2513.39
2351.5
4136.4
4237.7
3440.8
874.312
752.839
945.568
2321.25
10349.4
2206.72
2975.81
1830.65
3738.82
5832.87
380.279
4121.17
9899.23
2783.05
3208.13
1178.51
849.251
6141.67
9900.79
4725.2
3644.65
8552.17
9717.31
14810.9
1158.94
10346.8
2589.92
3811.23
1825.11
15838.8
8147.6
6023.17
4460.34
2737.37
1543.01
3086.69
1711.71
8998.61
3491.43
2258.69
3577.9
4235.44
4326.79
1104.62
1635.41
3073.39
4765.57
3539.06
11371.3
4091.42
2166.83
1701.09
3025.24
493.382
4128.83
1797.85
1077.75
2550.55
6798.34
8633.59
2108.34
1569.45
5643.58
5991.64
2550.63
3028.02
5453.82
10172.4
11030.5
13037.3
6254.05
1091.34
3770.6
1212.79
4157.96
1687.66
6877.95
6988.73
3497.93
4062.15
1874.65
1977.26
1279.21
1378.42
4051.21
2575
3029.19
2337.98
3447.65
424.221
4735.05
4608.04
5834.8
1775.05
9236.54
984.158
4992.57
6352.53
2150.37
2768.38
2767.54
5256.4
2856.38
7061.07
5439.56
9073.79
3615.94
3088.16
2814.43
2337.22
5374.63
4146.31
2284.9
2888.28
1797.42
1038.59
841.689
2061.44
1827.52
2347.72
1105.19
2060.31
1736.6
5166.97
5073.75
695.743
3840.61
3231.37
8288.2
678.136
3928.68
1745.29
3991.4
1196.39
2225.42
2940.74
3078.06
2056.89
807.764
1898.62
3012.17
5691.19
6977.45
4107.57
1985.29
7116.55
5102.1
5444.53
3328.27
2229.48
3438.18
23639.1
6118.96
1588
2823.82
329.397
3654.18
4896.52
1948.63
7204.95
2644.48
6065.02
2589.08
1106.92
2797.01
6958.26
757.741
3012.21
2127.71
1654.79
829.469
1167.85
3120.16
3741.74
1604.82
8732.84
2793.75
2640.19
999.465
1582.78
2057.34
7457.43
2731.77
3371.78
2994.68
3059.96
1282.62
3202.52
3920.93
7412.18
6089.07
9275.76
2737.99
5518.54
3737.65
10181.9
22811.4
1592.22
2618.61
2256.48
4887.95
5340.49
6296.29
3045.39
479.321
7824.13
1959.03
4324.96
6079.9
4654.42
8760.43
2601.49
3014.36
5379.42
3485.73
2640.04
2733.46
11640
8547.22
4227.76
5758.37
4232.66
1891.38
4401.36
7037.06
3793.16
2594.74
6722.16
2570.19
2580.12
6671.25
1876.29
850.866
4592.59
1241.31
1925.37
4399.88
1771.7
2620.11
5725.4
2821.32
1567.87
2555.8
2373.6
2803.96
13170.2
5968.64
3393.29
6422.09
3574.82
688.319
4411.88
2022.63
1162.48
2214.27
7371.01
3004.43
4793.42
4174.41
943.343
3983.87
5855.57
3938.43
1392.81
2270.17
1530.75
4696.56
4118.71
3527.57
9204.04
2374.54
2337.4
2717.08
8201.56
6810.4
11646
4449.86
10031.4
4353.65
2826.66
4208.73
2128.5
7459.35
2564.97
4083.95
864.731
3800.68
2353.08
3957.85
3271.77
4667.11
5157.4
1488.11
1667.28
876.487
20061.6
9352.67
1927.88
1696.09
3957.86
9111.89
7636.42
1057.99
2890.63
4142.21
1543.99
2856.29
3086.22
4320.66
2654.6
2889.42
2780.93
3676.48
5881.18
1811.39
4606.22
3071.07
2361.13
3700.78
4114.85
3003.98
2222.73
3614.93
4964.57
1780.54
4614.27
7160.72
3438.06
986.355
8424.89
1607.95
5923.66
16204.3
2949.98
3189.79
7536.04
4304.37
2297.09
1644.97
2174.84
1775.96
4328.85
4459.56
2297.5
2127.27
2595.51
5577.15
856.407
6545.58
7614.88
4298.85
2574.53
3281.73
2085.13
3571.8
7491.44
4309.6
3056.12
6145.66
4135.06
4381.79
11121.1
1809.3
1106.5
11756.2
955.138
1062.46
5291.31
2192.74
2062.39
1701.92
6711.31
2340.07
7673.19
4037.47
5849.98
786.292
4100.64
3138.1
3773.61
1752.83
1635.82
2593.45
3456.51
2344.93
2296.49
5389.08
2300.36
6477.9
13876.5
3148.58
821.847
6296.61
928.088
364.239
1055.39
1758.64
3768.19
8008.25
1474.88
2620.76
4610.74
10317.9
6546.17
8195.02
2593.32
4232.24
5013.14
3185.33
1872.7
1698.82
2564.3
2650.94
9351.08
3056
1040.82
2297.97
964.224
11118
1216.36
1398.99
3720.73
5456.82
4208.15
2708.62
4804.54
1769.33
1590.59
2079.19
4784.66
3353.14
2571.36
4031.73
5036.22
3119.02
1743.15
19066.3
726.916
4938.18
8829.04
1708.52
2676.08
1264.11
1190.32
830.091
1020.95
4585.85
1805.15
8789.41
3698.2
4514.8
7514.49
4371.01
2044.16
1877.66
10301.9
8675.34
3700.32
2827.29
3557.26
2079.08
3910.78
20707.2
4791.04
4487.97
3739.36
3634.09
3739.6
2302.98
971.351
15094.8
5208.69
1040.14
9728.38
1448.4
1801.45
4279.39
1915.66
9194.45
827.838
1787.88
3188.75
3114.86
6550.9
13564.8
755.019
4761.27
1369.18
2382.85
2578.84
728.091
2214.57
2982.04
4362.51
4440.67
3227.13
2886.2
2116.09
995.852
7071.17
7513.49
4297.9
2611.3
5501.3
4213.32
2167.36
1205.41
8355.73
1782.25
772.889
1365.08
4380.86
1684.45
4556.08
2740.32
4303.16
4738.69
5811.34
5448.6
8364.14
1581.18
3258.21
4166.73
2366.18
3866.36
3114.53
2890.71
5102.97
4680.23
2182.29
1291.18
2046.74
2653.35
13072.3
4219.34
943.702
4870.61
1533.89
2838.54
2408.63
1627.88
3932.01
150.32
5695.62
5810.14
2288.88
3720.39
5417.22
2428.56
2196.39
2325.36
2459.86
3268.96
3061.39
3153.47
2312.97
3188.22
437.066
2496.07
15111
6138.12
2674.78
1206.94
4309.64
15699.5
638.868
1452.66
3497.45
15926.2
9238.71
3801.8
2562.44
4566.1
6126.17
2636.21
2925.07
4320.89
3965.02
1587.13
10871.8
13450.7
3334.53
2441.54
7093.41
1688.33
6098.81
4649.73
4615.7
2350.8
2840.65
8108.88
1761.1
3638.19
2019.75
6095.25
2176.37
4249.25
2232.61
1203.83
3642.45
4383.18
6528.84
6201.37
9726.2
2434.89
2310.11
8014.18
7284.36
2991.77
2131.25
2844.84
2560.4
2658.78
1003.62
1321.91
6479.31
6548.72
2179.51
4628.02
4685.9
7360.41
5211.02
9146.61
4454.7
1824.66
1579.47
2818.48
1512.38
3175.4
2386.87
877.56
3021.61
2680.6
2497.05
1785.87
1140.14
3265.21
2805.6
6090.15
3203.37
7685.95
1705.5
3442.77
2560.02
3139.18
2909.05
2146.71
2631.42
5585.81
3706.5
1347.55
799.823
876.295
4941.56
2836.69
2523.29
2461.75
1204
1692.58
3558.96
2284.93
1332.12
4568.72
2808.22
2233.11
2521.19
4122.14
8656.88
2168.56
5650.4
3381.21
6604.21
5603.98
2857.56
7931.29
3915.21
8842.85
2220.07
5362.63
809.831
3989.57
5905.77
2285.52
4948.7
6439.31
6655.74
1821.54
3638.2
1148.76
3409.26
5518.74
4626.3
3968.18
4097.98
5293.49
5068.95
4517.73
2649.92
1052.91
3570.18
2718.02
3396.79
2123.58
3701
2051.76
2226.87
5257.9
833.99
1852.81
1074.57
4287.21
2519.15
1377.17
4343.19
6219.16
15427
1054.1
8472.97
5349.15
5245.34
1846.71
2266.39
2117.41
6765.99
4027.21
3582.3
1280.56
1824.33
2730
4309.44
4398.76
5381.48
7456.56
2435.04
10735.3
6043.91
2060.21
1863.97
1565.88
4085.15
11597.3
3273.23
2746.87
3026.44
2449.98
3178.28
2028.03
3712.43
1221.78
1617.42
11620.2
2246.66
1904.24
2062.76
3648.94
6080.02
8290.59
2565.1
657.808
5014.5
2977.67
1799.91
3779.87
15994.9
12101.2
7427.79
3692.81
3534.05
4799.53
864.074
3612.73
4427.2
1995.48
2816.89
2693.15
1954.47
6794.04
4461.16
7189.73
2105.43
1604.83
727.624
9474
5078.83
1437.8
2603.44
2851.01
1500.01
3010.45
3625.1
2420.48
2363.14
659.191
5027.85
2345.28
3377.22
7579
3148.99
3499.44
1125.98
3781.13
2794.88
2647.21
4460.31
1408.61
1517.09
2435.43
3818.66
1759.62
10420.5
1822.05
3137.59
1935.92
1930.48
1692.68
4451.59
3737.19
2055.15
1182.85
1870.42
2300.88
2291.78
3500.47
565.161
2359.99
3257.69
1470.76
2729.37
1257.81
2237.13
1130.83
1254.57
7144
1911.81
6644.2
3307.89
3213.14
10680
9776.28
205.709
3905.03
1050.77
3354.94
4397.07
1785.56
3521.7
4710.55
2439.48
14335
1294.15
5730.61
6074.42
2432.66
1546.56
1517.05
592.796
12365.6
1073.15
4036.91
2444.75
1415.78
5051.73
7010.74
1380.35
6763.47
1577.26
1417.11
7343.25
3364.77
6920.2
906.701
3544
6072.36
4179.83
1839.75
1478.91
1575.97
7809.83
4673.31
6146.24
10476.4
5278.64
3249.57
2036.38
2226.34
2221.65
3542.26
1919.52
3163.66
1216.99
2370.36
5770.31
17023.7
2086.85
2275.17
3253.51
2958.09
1006.62
1363.9
701.309
4460.54
1049.1
3974.79
5938.92
11708.1
5373.01
2457.72
4343.98
1910.48
5164.77
728.652
3232.95
1132.22
4271.22
3876.65
5574.52
4329.25
14729.7
6949.98
11476
3071.89
7497.96
1617.99
5427.14
1182.35
2741.52
2248.54
10887.9
3540.06
4269.58
4399.75
3733.46
3804.95
8643.12
6328.69
3078.4
2275.76
6464.9
1927.49
1465.55
2791.8
1626.98
1743.76
2615.43
4955.9
3997.54
2388.8
2431.93
7977.8
7794.19
3233.71
2196.58
6542.12
1153.74
2012.99
780.092
1052.2
4939.84
1860.1
2225.09
2218.25
3156.75
3992.88
7246.19
1996.88
4093.23
8019.63
2784.42
4841.86
2916.77
1758.6
8113.06
2318.51
5713.36
997.047
2551.92
5820.35
1162.85
4902.78
2485.93
910.332
12898.1
10272.1
8883.87
4370.4
1588.54
4638.83
2095.61
1516.25
2276.63
1650.27
2994.2
17322.2
2531.49
5881.83
2052.26
5448.22
1250.73
4821.79
5072.06
6414.2
3276.66
4000.52
1105.55
6125.83
2866.1
4225.73
2015.37
6564.27
1476.92
2844.16
4490.06
6360.7
3848.92
2234.57
5355.47
8748.2
2478.44
841.974
2379.81
3516.68
3104.51
943.583
14822
5361.35
1738.52
3333.01
2541.2
3541.74
3602.89
379.934
2672.5
2399.78
1212.17
6363.74
2696.6
6781.12
1434.11
4571.4
2816.59
3670.54
1356.56
10398.2
3780.76
1568.62
648.061
1197.04
4036.41
2036.7
1840.27
2152.06
6513.18
3051.23
5035.67
2227.97
9538.58
2333.63
4204.66
5719.92
807.33
1478.2
1715.01
1011.45
1748.54
3739.64
2570.46
3066.96
8300.17
3605.06
2910.44
4184.16
2751.8
2949.22
4004.84
2170.57
7167.74
8554.38
1393.08
4608.09
1032.98
2209.9
4244.92
1634.03
6977.89
1053.37
568.622
867.001
1967.53
6172.87
4323.72
1044.73
2489.23
4543.13
9360.12
8669.09
10950.4
5639.99
837.061
6795.29
4380.2
2034.29
4032.8
4436.32
1632.07
3684.23
5304.09
4390
1102.25
7801.2
3599.1
3380.46
1565.8
5658.85
1661.12
1976.16
7080.52
3256.88
6418.05
7987.22
3605.84
1936.17
8906.58
16282.9
1859.51
788.258
5831.22
3590.29
1939.73
4171.3
3459.79
2775.73
1499.85
5561.31
3546.5
2251.7
1739.74
2607.39
1985.82
2073.81
3987.29
6404.2
1554.75
3799.34
875.237
1838.92
2304.83
2474.16
3963.63
3532.9
3002.95
7775.98
3168.35
1545.28
1437.67
787.637
1310.38
676.487
2646.77
1925.06
924.161
2169.72
1493.83
6998.28
5276.98
3884.29
3817.06
946.992
595.24
573.87
3174.89
2342.86
4995.31
1719.2
3788.49
2838.46
1875.49
6233.06
8969.58
2412.18
1939.62
2795.79
2823
3941.8
2205.9
3359.99
1322.68
8165.49
7484.42
2757.07
2169.87
1546.62
6506.78
636.441
1433.03
5996.17
1613.1
1293.2
444.732
2997.21
3517.77
1395.03
4983.89
6730.24
1863.12
1258.63
2929.39
2138.44
15941
2230.79
4285.13
6932.18
4708.56
1028.08
3829.19
2193.99
1359.65
5113.36
9963.58
6341.22
1899.8
2252.74
6013.15
3574.82
2927.71
7786.83
2918.74
5130.11
2755.57
4337.53
9041.58
7390.45
7440.72
959.069
585.623
2075.15
867.157
2553.78
3568.98
3587.82
2351.01
6582.4
1967.67
3518.3
3415.36
2586.32
6658.27
3204.97
3539.98
1633.55
13072.5
1422.46
4634.4
2383.56
8243.18
3452.05
2043.28
922.512
7581.6
6583.85
4460.92
3156.42
3534.86
6059.49
12313.3
7634.42
5395.15
3857.85
1383.98
4730.13
573.624
4195.26
9848.76
10131
3015.97
7483.41
8775.89
1770.11
2675.3
3024.89
7047.51
2777.27
3001.55
14301
1080.48
8080.99
1391.76
1605.66
3313.05
3054.39
3676.09
2954.8
695.526
2652.21
2945.46
10093.7
10435.9
2123.04
4612.66
2919.52
926.075
9015.12
858.858
3095.31
2891.53
5236.53
1569.3
2460.57
2988.48
5218.16
5326.99
12585.2
5948.07
8592.48
2693.66
8343.1
1218.31
1010.88
2061.93
758.113
1574.46
2580.08
8218.91
8000.58
896.025
5244.54
3424.37
4005
7435.2
5486.75
1951.68
7402.91
844.222
8932.76
15535.4
1061.33
7095.44
2757.51
2615.29
1650.59
1810.02
3436
3616.12
1610.95
5269.36
5258.24
2283.35
3933.83
8187.29
4798.18
3391.96
1834.24
1748.62
4389.7
2566.84
4161.3
3120.66
1946.48
1991.38
3255.11
6200.4
1036.61
7060.52
3043.53
5688.4
5199.74
8797.13
910.233
4157.28
6644.81
1814.76
2053.1
881.255
5802.41
4190.87
1845.92
687.358
3185.11
21987.8
5856.98
6122.88
4115.94
2299.13
2160.57
5360.71
912.047
21738.7
3877.98
2227.29
2650.94
4085.07
1922.96
2627.65
3272.82
771.207
1985.11
1787.13
7127.02
8795.36
1292.24
4088.41
4431.42
5663.33
419.454
1641.45
6623.29
2822.09
5799.33
5499.28
8336.39
2965.66
2575.59
3667.95
3671.82
7868.71
7209.97
3057.17
2738.53
1024.27
1616.33
3985.3
8929.76
3945.65
977.499
2755.85
6193.29
6203.33
2524.51
5941.06
3008.58
3522.05
710.62
2673.45
1953.6
4106.93
1911.72
6604.11
1093.01
1801.73
3538.17
2114.86
3925.82
3409.85
1801.63
3056.05
10349.7
2044.09
1770.17
6575.92
1735.92
1980.43
2938.39
2460.18
4219.13
1739.07
6707.7
1500.92
3298.24
7695.15
1710.36
4353.38
3393.94
870.017
4278.57
3586.09
16538.1
870.375
1511.62
2288.3
1025.74
6163.02
1398.63
2621.13
4126.15
7030.76
2913.14
9301.2
4317.08
2613.66
2883.03
1069.6
3373.78
3850.73
3015.78
2420.37
10462.5
5825.1
10356.9
5095.73
1542.19
2785.82
854.058
3728.32
2190.22
1571.62
329.924
2472.34
2833.38
6320.2
3952.36
5098.8
12890.1
2344.98
3140.39
737.374
708.445
2366.86
5053.11
7988.65
10565.3
4128.1
7667.86
1484.73
2317.42
3296.21
3397.6
3396.58
8558.07
4610.18
4454.67
7551.56
608.235
1316.97
2300.42
5873.62
5100.58
4423.91
1634.89
8337.15
2673.87
1514.77
3230.62
2952.33
1918.61
1135.33
782.464
6161.84
3112.55
11922.2
3803.82
3955.14
7813.88
2137.21
4836.55
8949.69
1267.85
2796.43
4678.22
3213.25
1979.45
21906.5
21664.4
1827.81
6129.77
447.477
1701.74
3798.35
1411.32
3208.73
3183.98
2610.8
3813.72
1609.84
2561.02
340.833
8599.11
5551.59
3559.53
2817.99
6658.41
2638.88
4112.7
1163.71
6898.59
704.784
4019.59
6445.95
1005.09
5237.16
3331.71
1961.47
2696.77
1353.21
2663.2
8979.18
969.878
3658.33
5532.91
5012.81
6373.83
2160.01
2030.21
1529.88
4001.07
2228.45
2810.67
1994.87
3364.47
6559.44
7840.1
673.019
10861
3802.19
2552.43
1255.49
3160.83
8255.64
5088.84
3027.8
5941.83
5277.01
2820.51
11265.7
8900.67
4858.74
2953.82
7641.24
2535.5
2346.65
3119.76
2746.19
4547.04
2217.16
2643.42
1402.55
7855.36
1801.07
2712.13
13403.9
608.002
2567.98
6103.83
5552.99
14073.8
3820.72
4442.69
3377.33
8263.38
7461.54
2564.78
1264.01
11891
1619.25
4331.62
2726.7
2498.83
1270
6333.81
2113.13
2157.67
6585.17
5683.86
1743.74
539.536
6129.83
4679.17
3587.91
5604.14
2683.49
1227.04
1317.95
2958.08
1901.38
6187.4
2496.38
1491.09
5126.53
4014.09
2076.14
4858.16
2251.23
1325.57
2928.45
2054.87
2119.44
1042.19
1021.96
2370.47
7685.98
5460.48
2279.65
259.621
3860.17
1494.78
1407.96
1993.06
5092.42
5303.86
2058.88
6526.83
1349.6
3248.21
2376.04
3300.48
2132.73
2555.42
2221.79
3057.56
6501.3
1247.42
4424.11
2034.75
1559.42
4541.37
3809.85
2380.2
3293.98
3865.8
4619.12
3897.49
8599.34
3691.52
6760.34
6479.94
835.819
3549.28
5849.43
3295.99
2153.95
2837.32
9022.73
1323.62
2712.82
4603.5
10183
10519.9
2431.3
2876.29
6711.54
4017.47
2933.67
3869.85
2111.7
3976.13
2330.49
8494.87
4139.54
3124.64
1242.72
1831.32
1759.66
3504.05
1365.24
4735.12
4828.95
594.676
2409.39
1655.29
1673.8
5350.61
4221.13
1269.88
9506.65
7017.46
10543.9
2316.86
3636.56
5039.44
4739.02
1669.99
3561.03
5740.19
6485.74
14585
2973.35
1853.34
1361.18
1663.05
894.06
1184.76
2790.42
6744.24
2032.32
867.601
4312.36
3179.3
1197.34
1382.34
202.231
9106.9
2510.78
5959.62
3276.82
3806.7
6326.05
1721.66
3801.53
4268.69
5351.08
2681.48
758.462
5525.06
2069.03
2810.63
3929.11
1340.61
2351.92
975.389
5204.33
2353.27
6028.14
2714.85
3438.96
6988.52
1815.64
18981.2
10571.7
3821.38
1358.32
2067.38
2217.61
1623.65
2981.45
5441.67
3090.8
6654.26
1793.19
1534.33
2063.74
2365.2
5608.22
6907.74
1463.25
642.247
3416.79
3394.51
5305.7
4177.57
1834.59
6114.48
10294.2
9138.8
1110.68
3418.58
770.739
2830.65
2669.99
2037.75
1570.42
419.724
4761.58
3234.15
9090.21
924.732
1000.48
3463.29
4899.29
1644.67
4425.06
10284.9
11860.6
6947.29
2689.38
3580.72
1963.38
3116.02
4228.13
1168.31
1776.99
3811.4
1852.53
4337.92
1062.62
1328.5
3752.26
3788.15
1580.62
7693.42
2776.87
1170.92
2892.51
10354.6
7628.58
3208.93
4813.95
7957.15
3365.88
3853.4
9513.53
3013.18
2247.88
1030.36
1757.45
1061.61
4920.38
1646.69
8903.35
6989
21242.9
2890.62
4397.29
2653.74
5291.19
16110.3
1961.74
4186.49
1943.3
2367.87
13022
4604.45
3433.73
6621.82
9654.93
7480.74
10500
2307.45
1609.06
3037.64
2630.25
2979.16
4595.1
5505.62
2374.5
1786
3580.68
3843.63
3543.64
7292.87
5119.75
2439.77
688.553
1671.41
1557.99
3197.3
2530.91
2485.44
1692.8
15447.8
1740.12
4999.64
7509.87
3221.09
3189
5682.43
3051.81
2829.49
6446.28
3765.17
4874.22
2457.73
3689.93
4581.71
8310.17
7183.98
15138.1
5074.5
3154.01
4433.28
1443.48
2730.45
2985.21
1277.26
1990.26
2513.03
5048.61
10627.1
7392.02
15610.1
3318.28
5130.82
3215.88
4269.58
1096.43
3601.2
5746.06
9807.18
5342.31
1484.84
5247.7
1078.43
1087.78
6687.88
4351.94
522.526
1885.83
3748.11
2488.16
4242.02
582.931
2018.39
6424.32
2407.7
8292.29
4877.84
556.145
3807.86
1793.61
586.707
1784.85
4341.53
5649.1
6571.12
3723.45
7582.93
2044.63
2782.3
2745.27
9410.16
1318.67
3427.85
5603.85
4468.74
5485.26
5653.92
829.978
1546.19
1279.81
3458.49
3837.53
3356.46
2666.19
3219.91
3975.85
1872.69
1498.24
2954.24
6105.89
2313.74
1285.62
4483.4
590.679
6058.71
5913.12
3712.31
4226.55
6308.98
2010.53
915.808
2400.43
5863.29
2779.83
1578.07
1199.87
1952.27
4567.12
1940.14
3326.99
3346.34
3431.89
752.936
15191
4736.14
3328.45
2927.19
1192.39
2327.28
3094.95
8080.69
5812.96
2991.05
1997.84
2622.76
12705.5
3139.86
1188.03
3301.91
3869.72
3850.93
2499.07
8580.53
3783.51
1960.49
1753.91
1277.91
3616.7
3459.67
875.101
2429.38
1605.95
10484.1
5970.06
2475.44
5190.14
2212.29
4501.42
3345.6
1808.27
2713.77
4393.11
2146.36
4692.64
1515.56
3962.86
1850.38
4987.55
2836.97
2305.9
2618.49
2870.92
1401.33
1558.92
1684.13
7136.81
3168.35
1820
1693.14
6420.93
5979.68
3963.91
2205.5
3974.09
6206.09
3351.87
7734.89
2203.99
7953.46
1662.54
6765.12
1850.73
2986.68
5430.64
1282.49
3927.96
2496.7
4297
493.746
4776.67
3432.38
1046.91
10093.8
2980.85
760.782
2883.02
1016.34
755.009
1497.57
1268.22
3460.22
5475.27
3810.57
1209.12
7750.95
1738.59
6255.4
2085.19
778.383
6599.19
2001.33
2767.78
3814.47
1773.19
2927.85
2074.39
913.077
1249.21
14760.3
3418.23
2245.87
4724.38
1455.6
1943.05
1295.32
863.41
2852.91
5182.14
2436.49
4998.51
2372.82
2553.43
1005.87
4923.81
3072.08
2169.35
1553.39
2660.56
957.51
1488.98
1059.88
4452.77
2286.16
6048.39
2937.86
2865.2
572.833
1661.73
469.184
2850.24
7511.74
1749.18
1330.34
2071.29
2620.28
4830.99
985.174
2877.7
2839.04
323.424
2967.98
5306.41
308.143
1110.65
3128.78
1005.56
1619.04
6179.45
4213.64
1880.3
2941.12
8973.91
3415.97
2121.76
1800.77
9634.44
3244.55
2234.22
10786.5
4546.94
1453.57
2078.11
2518.19
1417.36
2264.16
2633.22
5884.43
4178.41
4165.97
2767.4
1690.94
2684.99
975.563
1342.31
2635.07
1109.33
1187.9
5728.52
1749.1
5870.42
10772.9
910.605
3290.63
7248.34
5437.91
1984.48
2102.62
7284.27
1745.34
933.92
2687.26
1181.78
2649.44
8768.63
5363.12
5632.23
2448.07
5194.49
22018.2
4442.95
4502.88
4525.95
5853.66
2796.26
1175.41
3608.42
2272.08
1316.69
2606.3
2755.95
1029.15
1778.6
1769.09
6780.72
14090.1
5733.96
2074.45
3797.92
5223.93
3938.24
5969.15
2829.98
1137.87
1326.91
2628.21
6623.56
2523.72
4966.26
3664.44
2806.44
3541.54
2535.17
4956.53
1650.75
2714.04
2391.23
966.627
4263.16
2451.37
8346.82
2023.18
6197.12
4477.28
2909.17
2968.17
8085
5363.24
3746.79
12613.5
9984.95
9369.74
5700.42
2765.27
5476.34
7586.25
2436.66
1027.84
4215.94
3180.23
4466.14
3800.19
6170.48
1163.3
2112.69
649.007
2628.6
2957.34
8095.06
3013.42
6936.14
2440.16
3584.49
1172.11
3268.51
2125.98
7108.13
4136.66
1624.46
4574.26
1584.55
2244.03
1551.56
2624.09
2239.94
1751.07
1347.27
3219.05
3189.45
1805.81
5905.6
1084.05
2377.93
4696.9
3070.22
2554.93
9053.41
9147.5
3747.42
2320.87
2573.15
3428.73
1263.38
2642.06
695.871
10634.4
1868.66
2345.88
8722.56
923.364
6242.96
4624.44
3308.98
4833.23
4210.57
10536.1
9164.36
2429.85
4749.85
3995.45
3675.09
4024.62
2889.64
1746.4
5376.17
3656.27
6553.82
13613.3
1585.51
3724.09
6815.82
8162
1224.29
2611.42
2111.56
2386.29
7248.91
4083.03
4393.79
16685.3
1329.01
3993.61
2821.01
1014.43
5663.81
2242.42
4596.77
5927.49
2049.95
2096.16
4955.37
2525.12
5914.04
3912.71
3582.22
1486.18
3108.94
5510.19
809.042
1569.06
4037.05
2054.01
5069.49
2352.03
2729.09
2179.43
1724.97
978.599
3855.59
15859.1
4243.68
9540.17
2314.14
3321.45
899.952
7883.92
5593.95
3881.17
3056.17
2115.31
9090.63
5364.51
832.209
3069.52
1896.94
4881.11
5414
2853.04
2078.8
1623.19
3130.22
8680.13
3280.4
1256.7
5387.56
9625.5
1584.07
8153.2
1777.47
8215.68
2719.71
1973.03
2525.94
2080.12
3360.44
2868.63
2408.33
7556.84
3914.6
2129.15
3907.77
5300.78
4627.13
8727.03
3884.96
4901.27
11576.4
4444.63
7903.53
3646.09
2960.83
1080.75
7708.44
11097.2
2230.86
4390.86
2181.07
2398.18
732.079
3906.82
6500.08
5190.97
1888.93
4843.04
1900.67
1583.78
710.993
1334.38
2858.4
3809.78
4097.04
1158.92
4080.33
5351.19
5211.69
4532.55
1540.63
4608.27
5041.07
2114.37
2144.76
2723.65
2436.19
3133.55
4563.62
3536.95
3074.35
1633.97
1813.34
3039.53
2783.33
3817.08
3963.4
2747.46
5545.39
8257.17
4562.97
1672.96
3762.66
1807.4
1925.16
1880.87
1427.9
7841.4
7379.7
5796.09
6487.34
3874.2
2777.59
20945.9
861.988
13685.3
6099.07
1169.05
4892.91
1754.58
2929.59
1953.51
2939.87
1632.17
10136.7
2505.02
2691.61
9634.76
10032.5
1529.34
3743.24
16194.7
11667.7
3729.4
3851.81
1505.46
4958.79
2078.96
5098.39
2697.17
1515.56
3968.2
872.461
3721.02
7455.58
2797.38
3934.64
8870.81
4874.63
4755.72
7976.34
892.244
887.606
418.644
2167.49
4806.6
1992.06
3093.2
3046.5
7093.42
1370.08
2501.45
2531.52
2598.73
2973.59
1009.31
11899.3
2129.56
3633.74
1426.58
4199.98
2908.82
1393.11
2838.75
11504.6
3480.52
5240.86
3658.22
3410.83
1060.8
5571.03
4378.18
1674.84
1295.04
5672.61
1385.13
1653.81
2587.83
3730.1
5241.4
10054.7
2912.44
1768.05
1662.12
1167.38
3149.74
2997.99
4691.69
5044.56
7332.81
7240.09
6673.15
2854.21
2966.74
2989.76
1585.58
3004.82
2420.3
9372.21
4683.86
9361.84
5150.09
3692.98
3668.78
7993.37
2241.29
3595.63
3539.67
8916.18
3585.94
2799.58
1612.57
2159.12
8122.58
4438.51
1636.63
2661.16
1799.81
2315.16
3290.12
3361.1
3762.11
4143.04
1090.29
2715.71
4572.65
2554.29
787.032
721.367
1456.16
4628.17
9579.2
2431.24
5112.38
3148.92
1315.12
13659.5
4685.6
1750.34
9613.83
2707.62
1864.04
3207.5
1233.3
3617.44
6561.92
4383.69
3498.59
511.447
2248.8
14758.9
5644.85
7236.97
3182.17
5983.39
7415.79
2203.11
2169.76
3574.9
2337.04
5149.46
4668.01
2254.94
9469.05
4714.38
6141.93
3306.53
6838.83
9411.19
3142.03
2423.69
5738.15
2043.85
2139.19
1604.28
2233.01
3498.9
7910.91
2236.95
3102.13
1735.4
3014.64
3861.54
1657.53
1504.64
5596.35
2290.3
3767.02
5789.69
9254.72
5149.8
5919.21
497.355
812.989
2681.26
1199.02
7756.44
4262
797.116
2199.14
5537.51
14391.5
12347.1
5018.59
2474.81
3554.82
3581.36
5584.94
3054.06
12087.3
2180.82
1923.98
5891.6
1692.49
11892.2
2220.52
3607.4
11665.9
2885.65
1301.72
4183.3
439.586
3233.46
8214.69
470.841
3753.71
2550.37
12552.6
5414.48
7008.87
2729.25
3105.15
7034.07
2099.86
3741.69
10237.8
1047.38
1526.42
1028.16
2152.56
14671.6
4293.72
3768.47
6195.62
9514.37
3728.13
2099.3
3908.19
3941.31
3175.03
1066.46
1852.14
2288.91
2390.61
8171.24
3847.46
922.686
4980.26
2516.98
1287.74
4208.56
2366.98
2205.06
2309.38
4389.43
4765.03
1057.26
2701.84
2085.12
9529.89
1215.34
2951.29
10206.4
12893.6
3707.5
5628.7
8108.41
9994.66
2121.96
11925.7
3577.71
1196.18
1478.91
906.901
1610.95
5225.34
4611.92
3362.3
888.402
3536.33
3064.48
996.747
16469.2
7705.05
2406.88
6978.3
1712.79
9816.58
1764.49
1983.61
10602.8
2129.05
14230.5
15090.3
1286.44
3480.48
1356.47
29420
2581.78
8553.72
2146.06
1893.18
2074.79
8128.4
5518.71
4173.45
2528.05
4056.98
9920.52
4402.19
2687.98
2918.93
1532.91
1689.41
7936.24
2092.65
2621.89
3154.15
5267.47
3153.27
5271.02
5186.34
3861.44
10026.4
1575.36
3043.45
1879.72
1724.63
2864.24
5308.62
6462.09
2656.33
2973.65
652.76
1252.23
5133.85
3077.5
2446.49
4397.12
2663.47
1939.61
3828.79
3432.74
4607.87
3865.43
6457.44
1569.63
11238.6
4872.91
2219.38
9614.87
1164.84
1834.4
3105.23
4676.66
2358.86
4249.9
5134.84
6453.5
10811.7
2355.61
3239.87
5318.18
11275.2
2575.65
1902.28
1385.51
2413.2
884.668
3149.34
5203.23
11578.2
1271.09
6618.11
2660.85
1865.09
8718.58
1100.59
1175.37
9693.16
7098.9
1106.74
4217.6
3266.45
2422.13
4081.76
5115.3
1239.94
7150.98
6997.27
2116.74
7015.8
4322.85
1308.23
929.804
1765.04
1564.99
7929.66
3681.23
2352.02
2039.38
4239.94
1799.5
5083.42
3097.08
4019.51
8611.1
2681.23
4419.37
3041.82
3351.6
2006.29
1405.02
2035.89
5995.99
752.788
1070.83
1231.95
1997.03
3852.31
2479
6073.72
1831
3515.88
1196.49
1132.16
1684.94
1825.6
13456.2
4581.11
3816.72
5052.78
2617.29
6309.11
5685.19
3309.12
7888.12
2653.4
2886.67
1593.5
3141.67
2676.15
2857.39
2315.01
9420.38
1909.77
535.496
2806.34
2557.08
11040.1
10040
8145.54
1631.01
1989.02
5091.06
5124.81
1880.17
3103.53
6556.28
4912.35
8157.59
2799.52
13114.2
4431.53
3905.47
1523.13
6269.01
2357.28
3517.91
865.586
4744.86
2787.01
8704.84
2422.17
1589.69
4311.04
3910.02
1949.82
6471.39
2851.45
2717.63
1692.78
2769.28
2051.59
5957.47
8298.63
2255.46
1502.58
2513.99
1505.74
1858.95
4485.29
2724.16
1897.01
10863.9
5343.79
8485.37
686.169
1230.47
7981.9
404.714
4699.09
3528.93
5142.33
580.474
280.426
1652.21
16094.3
5157.09
6358.65
4407.23
2859.27
3436.7
2201.12
5349.87
8285.78
2909.71
6115.9
4979.68
2606.75
821.86
7404.39
3486.56
2892.41
9250.8
1503.81
4481.2
1709.63
2884.35
11167.7
9413.63
7723.36
5050.58
4391.85
1126.68
2349.2
1504.06
2744.52
6045.41
7418.36
4203.15
4554.67
4564.28
2032.97
1900.24
4901.31
1667.01
3962.74
4185.04
4047.37
1800.01
1432.43
7856.6
15476.9
2472.29
6188.79
2141.07
4069.76
4132.07
5558.25
1073.21
1261.83
2706.96
2126.28
7034.36
2420.95
3668.04
6014.14
4297.92
1986.48
7722.1
6680.78
5848.68
8916.2
1981.26
5401
11729.7
3822.51
3408.2
12740.4
8214.13
19478.2
1990.63
2304.34
784.967
5399.14
3854.78
3492.9
827.457
4990.02
1933.55
4657.81
4659.72
2966.27
5230.23
2124.57
2495.23
1850.48
3859.03
1089.89
2512.53
10237.1
4656.26
2641.09
2802.08
1968.12
4930
1974.89
1960.93
9660.76
575.732
3488.4
2146.82
1777.46
649.568
8361.23
2792.29
1679.03
5736.97
2461.62
1129.94
1599.98
10010.4
1109.8
7789.98
1256.21
3046.47
568.157
1056.16
2506.45
2036.43
6355.49
2963.71
5011.96
4590.24
7087.01
4886.44
5186.53
3960.43
2574.25
758.302
2339.08
5570.71
5678.68
1143.39
3945.95
1811.96
7964.58
2041.74
761.799
10264.2
3009.05
2384.57
1659.19
2519.37
3784.16
8286.37
4079.95
3008.91
3104.74
2274.91
5712.54
10787.5
3308.66
1380.54
4080.57
1835.3
4621.52
7616.15
3281.7
3777.18
10004
8039.53
1963.81
528.181
997.648
4107.17
6556.61
6604.03
1179.18
5339.55
3894.04
3751.3
11509.7
1250.62
3763.26
4703.02
1834.67
5912.37
12142.5
1472.04
2222.62
1659.48
6815.67
2119.6
1178.16
5889.74
5881.89
1582.89
1441.47
3744.12
4941.11
3523.5
2294.49
7732.26
8355.52
4245.95
329.939
3783.18
3399.6
8661.84
8906.58
5509.1
1894.39
853.612
5989.71
1283.09
14011.1
5322.76
2856.86
3368.96
1859.61
1888.91
1230.71
2725.07
8045.62
3880.77
5660.76
10533
4214.88
3328.88
3530.96
4410.42
816.572
2333.09
5493.26
5498.84
11943.2
2352.69
2530.29
4272.25
4125.92
8294.57
2034.86
946.083
9389.61
5173.97
5679.59
3941.07
3258.23
8358.18
6411.69
2803.7
4424.33
4830.08
2706.2
828.201
2870.49
7143.49
4607.5
1109.11
498.734
2033.84
2828.03
3355.89
1232.58
1884.57
1577.88
1282.69
3835.45
8713.78
1788.71
4582.31
1389.51
1951.33
5508.88
2471.52
3606.92
5305.16
3584.38
2870.85
1176.14
1919.72
7326.59
5030.66
3265.29
1881.01
2704.38
3476.68
4138.18
1968.51
7975.69
1078.83
2115.84
12805.8
8131.32
6571.61
3680.51
1200.83
7241
2683.5
2799.02
9468.84
1735.51
6764.65
8508.2
1775.88
6058.55
3291.04
4219.28
4337.41
1301.53
9961.42
3520.29
3992.8
2460.71
17659.6
23717.6
2821.85
1585.57
2728.12
11025.5
3420.71
8514.94
1059.41
5821.39
9152.46
1419.84
2158.08
3178.83
8725.4
3619.68
2442.23
4356.48
2248.69
1643.48
5316.55
2396.19
1633.3
2890.4
6763.14
2738.31
11548.7
2192.02
4006.06
1447.98
1579.75
5533.55
3989.65
2395.19
1650.88
1588.67
2950.96
8085.96
2497.09
8595.43
1825.99
919.063
4023.63
4078.83
10030.6
1728.97
1181.21
5783.05
7045.55
5166.1
3074.94
13658.6
1476.7
4756.3
6826.64
2944.51
1572.3
4052.75
545.389
3902.67
4678.77
3132.97
2207.43
19341.8
3625.27
4637.26
10880.8
1848.36
4969.46
2235.1
790.482
1583.91
12117.7
10617
1655.33
2359.91
6575.57
3068.64
3874.12
3343.77
12225
3655.1
1985.17
2793.1
2612.51
2546.41
7509.11
2103.27
3523.76
5489.65
1268.37
12455.4
3276.84
3038.21
2051.98
3184.39
1366.88
2188.05
7200.87
10762.8
8199.24
1947.72
4844.73
10112.7
1137.73
1007.79
1347.68
3622.74
3013.13
4188.99
3358.47
1985.04
5170.67
5223.77
5198.95
11596.7
3849.49
3740.33
3256.35
5622.3
2108.98
6033.06
2126.6
4310.83
1924.39
1124.52
2365.59
3862.32
676.499
2929.82
1026.56
1218.97
2066.64
9264.22
1737.41
9245.7
1345.42
3506.93
1607.62
5723.74
1233.43
3538.42
4653.1
3057.5
1348.76
7037.04
7900.95
2453.63
2085.06
3297.24
9698.87
8927.73
7983.16
3396.14
4795.89
4574.8
3907.08
12166.5
3381.57
7128.48
2871.77
4508.93
2199.93
1785.58
919.875
5230.96
272.303
4063.87
6497.52
3860.59
1993
800.008
8817.19
5293.67
4274.27
6082.03
1861.34
1628.23
4583.68
473.596
2593.77
7164.07
9768.02
4910.45
3147.45
5845.54
5214.65
8089
5211.25
2621.48
3203.23
4619.41
19520.7
11513.4
1731.73
1732.69
1100.41
5614.41
1680.46
3112.1
1065.25
3413.86
8793.62
6445.64
1071.78
3381.85
4032.91
2587.78
1748.74
8555.85
4505.15
3048.68
867.703
3526.85
1687.59
13896.6
2966.23
1395.39
1008.3
1133.29
2567.21
4625.06
3830.37
2379.1
3251.07
1847.32
3214.75
1583.22
2743.54
8063.02
1234.54
1519.31
2681.93
2051.55
923.166
2546.67
2174.12
3406.07
1730.08
1853.63
6789.34
1300.43
2200.09
833.067
11552.3
7168.18
6195.63
1337.58
2588.5
4764.6
763.801
3567.49
960.558
4908.51
10419.5
1618.52
2505.91
2276.87
4233.35
2455.34
3390.13
1905.47
2703.74
1464.43
1872.19
1708.57
1335.34
3239.92
5064.69
4278.11
1078.74
3526.51
2405.51
2876.96
1572.67
2290.07
2246.78
3566.6
5596.17
7154.57
2406.33
3269.56
554.675
8151.79
1529.45
7267.92
7469.51
5060.98
451.521
4796.75
3020.63
1669.38
12861.2
4969.98
9253.24
11260.3
1675.52
2984.22
1169.01
2988.42
3975.06
2021.65
1981.6
2176.15
5910.44
4325.02
3257.1
2147.39
4971.08
9283.61
3275.07
6610.14
1897.98
4132.1
4216.48
12587.6
811.924
4203.26
3858.44
5500.54
4254.1
5093.81
526.435
3925.56
1380.32
7978.06
3274.51
3273.4
3155.81
7493.68
9914.78
2741.17
5253.11
1330.02
2551.33
830.488
3490.25
2443.66
1640.6
6554.93
1359.45
2089.13
1045.1
5085.24
1952.39
2691.01
3421.42
2134.03
1347.86
1691.02
3333.81
6967.16
4784.19
3027.99
4717.86
1597.38
6400.42
1783.45
1815.2
938.129
3365.1
1145.25
2401.83
4340.03
7494.03
3880.12
2075.1
3908.65
3185.65
3152.72
5012.67
2935.56
1142.13
5707.03
1509.55
2911.82
6255.88
2955.82
1782.16
2650.27
12226.5
9539.71
2188.03
532.915
2640.54
1882.48
5961.33
2186.07
968.083
3803.14
6022.02
4673.82
4035.84
781.867
1198.94
1442.18
6037.14
6469.04
2672.59
4058.55
1290.82
12211.2
1872.11
2528.11
5584.52
10690.1
9677.97
10579.3
5622.95
3314.74
3666.19
2828.19
4631.51
1636.24
1744.02
4750.75
1308.59
1498.37
2055.77
2004.15
1539.82
7208.37
1911.63
3072.68
2612.75
1789.48
933.518
2288.81
7508.43
1155.7
1662.01
2298.42
2128.95
1288.19
8770.62
2524.41
1056.77
2072.64
4215.88
1772.98
1173.92
12802.6
3114.03
3169.96
4338.46
1282.83
1632.88
1112.68
2586.82
1560.08
1054.41
3592.22
4449.2
5728.23
1949.94
4175.35
6174.84
992.667
4824.23
3260.55
3668.62
961.311
2246.58
2788.24
4263.56
2034.08
3627.68
2315.83
1208.31
456
2259.6
4359.83
1866.03
1744.27
3120.05
2883.33
3159.85
4995.49
3541.01
1754.33
3092.31
1513.34
3857.08
5028.29
10927.4
11168
6070.46
4597.99
3257.07
3511.31
5259.1
1784.8
825.882
2688.8
8823.89
4336.79
3835.79
2033.91
5108.22
692.159
3751.33
9635.87
7984.46
11509
7973
2448.8
1155.28
6070.38
8243.37
6268.01
2767.27
3925.97
20738.8
4352.35
4154.94
1572.46
2303.89
866.427
2771.04
946.402
4054.06
2497.19
2284.52
2609.03
4372.16
1266.19
5299
2999.71
1581.13
2504.52
11559.3
2813
395.664
19987.7
888.717
4684.16
4757.99
1748.18
3007.13
10848.6
1344.9
4321.51
2894.77
1144.9
3047.3
3811.12
7044.17
2189.86
3395.31
1086.46
11322.1
6746.95
4707.07
10768.7
2049.71
1230.69
1971.92
5772.62
406.528
1468.47
1556.68
2300.19
5786.65
6921.74
3603.26
5791.64
5500.31
1293.2
3339.77
3837.75
2647.76
3633.18
1876.13
1566.57
1945.91
1933.85
3563.91
1719.85
1871.09
2910.39
2267.27
9014.97
4508.77
890.411
2633.29
5009.7
885.983
1455.94
8172.1
10145.6
3498.45
2605.24
1274.41
6678.71
2214.47
3565.99
1355.94
4659.07
1278.6
1114.66
1436.63
3972.1
1663.85
1131.42
1946.17
1550.53
2009.91
1246.21
4089.63
10708.5
566.517
1448.45
2755.35
2091.54
2520.28
2781.09
7776.57
540.394
2429.95
1142.46
6040.61
2342.21
4055.23
3560.69
9575.8
4508.44
3937.29
4827
5609.57
2182.04
5531.55
1687.01
8276.68
2805.6
3226.31
6300.24
4243.83
2599.2
3753.84
1301.32
2829.25
2836.45
5098.94
7758.97
339.931
6268.67
6823.44
6971.71
734.598
4054.49
3074.45
2758.69
2586.35
3390.68
4769.04
13316
8682.64
1901.36
2870.32
5752.81
4046.57
1085.03
1364.91
1236.99
5333.02
14110.8
4577.96
2783.65
2262.64
8024.75
2626.5
3924.13
398.227
5117.6
4445.33
1720.06
2474.66
12373
1589.83
3026.67
1300.36
3794.4
4036.56
1600.28
4925.68
4588.32
813.305
7531.09
3244.19
6992.48
5930.44
3088.04
5015.19
4741.81
1324.74
2025.8
9264.07
4004.31
7346.74
3142.64
2278.19
3432.98
2066.44
3335.2
4067.21
1172.18
1488.55
2161.33
6374.95
1787.69
6218.54
3798.98
4828.19
3776.94
4710.21
10058.2
3521.56
3630.58
1684.76
15732.5
7322.65
3472.66
2637.84
4868.58
2027.97
3813.5
3338.83
1880.08
2558.68
1178.01
1768.38
2127.52
1946.8
9889.39
3964.03
3646.25
14552.6
1606.03
2901.5
3627.89
7563.44
12232.1
2969.59
1734.76
4884.59
1630.87
3083.53
8938.44
1503.4
3516.6
1648.84
8569.21
3109.53
5355.22
4771.42
6981.91
13777
5575.22
4489.11
14535
4650.65
5036.55
1376.93
1141.01
11235.4
10519.7
681.861
3760.34
2260.01
3916.51
6090.59
2055.32
15735.2
14566.2
2457.62
5526.19
2648.07
2316.34
3216.27
14096
7812.01
3814.01
1715.77
1258.96
3451.34
2151.48
14614.9
3389.5
4643.68
14095.9
9370.32
3750.19
6476.98
781.821
1406.41
5341.2
5681.76
2670.99
9315.94
8340.63
4180.09
579.046
1532.63
787.275
3694.18
1707.19
3420.03
1991.38
4278.48
2129.75
6504.62
3171.53
1072.06
2815.83
6766.81
2366.71
14934.9
2558.13
1795.87
565.714
1101.49
4271.43
9325.65
2016.11
1688.86
1085.1
1979.07
5102.68
1782
1881.35
1903.93
4239.21
5795.96
2858.65
2484.88
1776.29
1337.4
2506.9
3348.39
5085.46
2063.1
903.274
5411.68
9796.56
3175.55
2213.57
2103.64
1571.84
3297.02
1735.14
6291.15
6661.7
13683.3
2073.34
3126.04
3968.27
1791.25
2727.01
1963.8
1443.9
10128.5
3446.61
2458.04
984.314
4991.78
853.268
9806.01
13791.8
5255.05
2027.14
3252.78
4095.23
1482.25
3054.65
2533.98
861.14
1145.94
8839.53
3754.71
7079.32
868.849
13945.1
8431.48
4314.64
1708.35
1631.16
3292.24
4424.68
2457.91
1826.61
1936.5
9213.22
2607.11
2304.56
2289.63
4440.05
14376
1694.67
2502.52
1240.36
915.41
2085.76
2953.47
3545.66
4061.74
3697.92
2414.85
5752.09
1532.52
4860.98
3557.83
3999.51
7352.63
789.804
9127.68
3737.25
1984.59
4461.16
3476.52
2411.2
2303.85
1530.47
3711.44
1331.66
6416.67
2217.16
10007
4558.75
2546.36
5605.97
1568.62
1785.84
1734.9
2882.6
3214.48
1339.69
3477.36
1696.94
4189.26
417.627
7121.5
2027.17
4277.44
2771.68
3554.86
2233.54
2540.03
6302
2683.23
2941.26
3768.3
9322.21
6650.87
6371.3
2595.22
3806.24
3540.65
5242.64
2191.94
3369.85
4537.19
2424.04
3057.45
9624.45
659.12
1212.88
2435.95
3234.74
8481.55
8906.06
8803.1
4355.42
8392.41
3233.72
3351.96
12143.3
9777.34
6752.18
1315.53
16026.2
837.626
2892.64
5565.96
7982.39
4709.92
8197.59
1821.23
2071.77
2530.39
4705.18
274.246
1509.92
2606.4
2981.9
2366.76
1157.84
6206.36
4231.46
5609.07
2472.69
1159.88
3532.15
5385.44
1487.94
2810.14
3784.34
1309.96
2083.97
633.716
4517.96
4266
10682.2
4717.18
6291.37
4976.82
11072.9
7041.73
6797.92
2551.54
4703.91
538.27
1898.93
2163.81
1333.07
8708.07
5102.28
1633.44
2499.05
1538.06
3545.4
2306.98
2529.37
5683.95
2101.38
2714.3
1935.89
1143.45
1641.56
14148
1757.03
4242.25
4812.3
1914.06
2293.47
11941.7
1288.34
1130.14
4311.56
1780.08
2383.34
708.425
5807.61
2955.3
1716.03
643.85
2989.01
1426.88
2909.77
5880.53
3839.99
3045.69
2037.73
2041.02
2146.83
1686.13
1975.13
9236.83
3190.08
1196.32
1446.08
1109.59
3728.13
1467.55
2038.26
1349.17
1265.03
4558.39
1817.32
3322.08
8119.63
8001.7
1800.81
1020.9
5207.81
2253.56
1971.11
2140.62
4753.92
2762.88
835.713
9211.46
5174.04
2167.82
2838.56
4205.84
2759.29
2301.73
7912.19
2700.88
7051.59
1868.52
2840.58
6952.08
3850.92
12284
1811.22
5120.2
2043.77
8494.18
1082.86
6180.42
4534.96
3600.3
1494.94
1469.12
2039.51
2171.53
2800.06
1924.47
889.804
1026.18
2763.42
1497.38
1247.04
1311.48
7422.77
2138.38
4661.6
1708
5923.03
2855.78
3599.43
1862.85
5818.53
5647.79
4582.32
3833.7
2231.19
688.292
4774.98
6474.28
1892.69
2877.75
1976.29
1315.69
5672.24
6470.56
5915.74
4719.44
3134.63
4599.51
8071.68
3609.99
842.437
1664.71
1001.41
1587.98
2357.95
3866.11
4619.08
2001.39
1773.34
3427.84
4516.51
3250.32
3827.48
14387
2130.78
4672.63
688.892
2711.4
5294.42
2168.1
12200.7
1680.82
9312.94
3168.07
6373.68
6793.23
4268
8924.02
2520.04
1905.6
9409.04
4255.07
3664.16
1527.28
2040.68
1416.11
4456.54
4268.12
6223.29
6023.85
1329.1
4485.08
9017.41
5211.92
4808.79
2345.05
2481.9
4308.69
3424.57
2128.39
1282.86
5875.7
12178.8
5226.22
4143.5
4218.66
3199.21
3303.44
6102.7
6471.11
1907.02
2485.47
4451.92
2554.83
3300.04
3091.9
6017.68
3053.05
9340.21
3244.92
1783.6
1192.24
10014.2
4824.69
11690.7
1900.92
469.987
3017.77
3545.76
2004.82
2952.98
2917.16
3481.6
4519.9
763.303
2793.76
2096.57
1344.32
2228.72
6161.49
1655.1
7342.42
5094.82
3912.02
3404.05
12711.1
1070.01
4983.97
1583.14
2776.6
2449.72
1477.22
4348.06
1583.56
4990.11
1019.94
2380.82
2392.55
2382.65
3201.15
6579.05
6886.18
805.427
9598.67
9316.83
8046.6
5529.84
8298.06
526.108
2684.76
3801.78
1311.88
3763.74
2301.99
2089.61
1339.69
4118.81
2223.52
1664.76
3750.22
15543.9
6159.7
1563.99
4746.73
2512.11
2400.01
5566.69
4037.55
9990.1
3300.34
1308.52
6879.35
1251.85
10315.5
803.204
1750.62
2690.22
4981.46
4567.51
8162.96
6778.59
6278.95
10020.1
1036.73
5076.95
3441.31
873.224
2420.73
1217.58
1234.13
9681.57
6301.59
1366.94
956.437
3832.36
7730.21
3008.14
3516.76
5709.01
1804.78
4558.58
2987.58
3696.54
8794.14
4176.32
4326.31
5378.65
2236
3118.05
2279.66
2843.47
14591
7587.79
1762.16
2610.8
12819.8
2586.76
5180.57
9118.94
8263.55
2099.11
3359.44
1659.8
3048.87
3806.9
5802.91
1645.32
7898.16
1683.71
1281.39
916.436
6535.7
1244.08
1107.36
1480.14
776.311
1934.61
2965.15
2809.01
6105.05
3725.26
8037.3
5991.16
3806.97
1365.44
4713.97
6456.48
3099.73
2637.79
2356.52
3966.69
4761.75
906.748
2791.69
2118.14
16778.9
3735.47
1748.99
1388.22
3833.86
1833.63
2082.58
3596.22
5602.62
2278.11
3607.12
7982.01
3420.72
8809.79
6812.28
6415.31
3963.54
1028.77
3646.99
2434.8
1528.45
10574.5
7690.51
2280.13
7715.66
7308.75
14184
2439.37
3518.14
7965.05
3351.86
2773.08
9398.19
4454.42
4058.6
5361.63
1120.34
6505.73
1341.67
6232.34
3205.56
2629.46
3556.01
543.784
4162.22
2654.93
4404.4
3732.47
2864.59
1293.9
5006.69
4312.34
1820.79
979.348
3895.11
4596.36
13463.8
6782.08
2300.53
1151.24
15180.9
2350.06
4751.24
2074.55
5894.23
1115.81
1663.99
727.787
2810.34
3629.78
2542.39
3320.87
4776.74
3861.31
7350.31
1162.99
2512.64
12849.2
8447.12
1631.18
3751.16
3714.8
2885.74
7734.2
3040.61
2263.15
2097.93
970.186
1448.2
5474.44
1224.05
2812.34
6373.75
1730.75
2794.34
2685.73
2382.21
3895.5
1816.5
1979.57
1227.3
5873.11
549.869
2305.87
1581.86
1483.96
5800.66
3072.4
914.929
5223.48
1953.21
970.394
2805.62
1155.35
9408.79
11972
1915.27
3525.92
2002.67
3168.02
1104.26
13933.8
3635.46
12097.2
4303.24
10605.3
5470.5
1177.22
1290.77
805.765
2850.71
9742.93
2856.72
9025.29
3221.05
3795.79
3825.08
596.784
1163.42
5002.5
4017.63
2339.12
1860.45
3765.66
1623.24
1927.19
1490.32
1354.64
14173.9
3216.65
6122.45
4041.88
5659.88
2268.13
5335.12
5799.28
2412.15
3410.47
2612.75
1977.3
10310.7
985.453
3390.53
5458.01
4217.05
2035.68
1731.01
15260
2131.45
5225.15
6624.47
6654.24
2889.91
2923.57
1495.63
5616.88
1464.75
2341.42
4594
6075.54
2494.45
5878.84
4627.46
1491.39
9193.15
7371.4
23119.1
6317.64
904.37
2073.89
4477.02
3551.02
2034.66
6029.23
2270.93
1106.72
6458.19
5431.49
11387.2
5129.38
2393.05
5384.28
5554.19
3786.7
1942.28
1307.23
2560.15
1285.44
3417.18
1295.28
2743.46
4910.72
2325.15
766.629
1317.3
1973.26
7703.68
4576.51
3037.97
1306.98
4834.1
9429.63
15084
9349.64
6738.23
1575.35
2220.28
3828.61
18676.2
812.815
3257.87
2398.36
1088.4
2190.81
5229.13
7126.75
1287.54
5559.79
2238.3
2954.61
10220.4
1830.63
5081.84
4064.76
4397.16
911.3
4998.67
5427.49
1860.98
1259.62
4487.04
10839.4
5011.98
17601.9
1620.07
2455.92
6489.18
1635.5
7709.75
8188.73
3660.81
2876.66
4821.12
4530.14
1200.56
8544.41
1927.45
2080.28
1455.74
1431.93
5723.4
7399.12
2948.97
3060.31
6609.05
6688.2
19173.5
6824.4
8270.91
2983.63
7691.33
2373.72
970.629
3277.76
2776
3144.02
2025.58
3591.58
5409.78
4545
5714.79
2783.3
1335.46
4236.51
1900.1
3152.71
2233.09
1913.92
3386.12
2918.82
3965.82
8996.09
685.799
1437.53
1093.01
3000.26
1289.51
6768.14
7629.36
3605.99
3013.46
2597.42
1661.99
2293.06
3351.99
1891.96
4440.87
2025.48
2184.52
6191.29
3952.16
6583.76
4437.04
2970.91
3559.33
7970.46
2644.99
4151.32
2466.68
3102.76
1050.01
950.47
5600.59
3281.92
2877.84
6390.53
1621.44
6875.68
2697.6
3778.61
2729.88
3142.65
8671.46
3781.04
2390.13
4697.99
3147.68
4355.96
4495.16
2961.43
2616.21
11167.4
1490.74
4757.7
5443.96
1195.7
1826.41
6914.56
4187.28
7233.53
3491.17
4625.97
1861.44
5676.79
16275.7
3972.49
1763.95
5360.67
9773.13
4097.17
11473.9
2184.65
3659.46
4244.69
5516.69
1704.88
1853.62
2926.91
1814.25
5156.94
8547.23
2711.58
4216.87
1280.75
2648.5
6398.55
2507.81
12541.5
2510.52
2992.09
1008.81
11534.9
3741.97
3076.42
1594.93
1079.48
4972.28
3778.88
4776.12
3967.37
5719.39
17900.3
7943.25
3299.68
6672.75
5526.76
3602.5
2835.51
2114.74
2132.16
2826.53
5314.3
8760.5
2120.14
3572.65
6540.75
1170.82
3278.41
4660.7
2967.51
8972.21
2622.23
2073.64
2386.38
2210.26
1855.14
4176.24
2470.19
7777.38
3176.84
6447.93
4220.72
5607.34
4333.22
2374.53
4697.59
2924.14
2455
1740.76
3791.2
1229.69
836.268
3895.54
1672.43
13261.1
1830.51
991.258
1959.3
2779.49
5439.84
6469.36
1408.07
3155.1
5022.19
10043.7
10261
5054.37
3568.74
4604.54
7917.7
3799.35
724.782
1667.76
2582.03
4508.36
1816.46
1903.32
1214.31
2418.52
5583
2409.15
3682.95
9518
7207.49
1422.53
4694.11
8516.36
5379.97
2249.95
4586.66
1436.47
3277.76
2212.24
4425.08
7930.21
10083.1
11133.1
8505.9
7945.2
2915.59
8075.98
4659.79
2751.76
5997.61
3036.69
11160.1
1067.46
1677.83
12153.4
11065
3434.18
623.028
9532.87
1457.41
2290.65
2446.68
4775.87
2910.23
484.784
6683.18
4441.28
4490.79
2485.39
1786.95
11330.6
3165.56
2031.23
1681.17
1992.42
8061.88
2908.98
1636.35
9016.77
1459.6
883.331
2169.93
1568.94
1380.95
485.533
17193.6
5616.09
4680.14
6219.59
2979.56
2945.61
4275.08
6632.6
4526.4
890.864
941.393
4813.14
5075.94
4509.64
9162.91
781.432
7979.64
6005.88
6130.14
2504.43
1280.89
8782.79
4325.09
3365.84
8155.39
1597.39
1494.71
2042.88
2293.61
2456.17
5414
2760.74
487.595
894.343
8242.2
7239.33
6778.2
1705.47
4175.76
2084.19
3678.35
3826.96
4608.55
1745.23
1761.84
3953.2
3797.74
10541.4
2642.79
753.052
12884.2
473.942
4602.19
4484.21
4047.09
1750.83
4791.97
1035.84
5050.26
8186.54
5560.07
3187.76
6439.88
4286.99
3601.44
1389.81
4570.51
2727.26
2650.98
1067.6
8416.06
1276.88
5030.25
1714.44
5667.38
3744.86
882.454
9789.35
3348.21
2527.53
1019.61
3759.07
5972.47
4161.9
3534.44
6829.59
3796.94
3519.83
3236.09
1291.33
4515.79
3859.14
7404.06
1330.42
2082.86
1742.46
2519.1
424.019
2189.77
3015.75
2633.89
5434.17
1696.15
3836.22
719.779
1814.65
3465.98
3151.85
933.783
2383.32
5599.82
1025.1
6012.19
5869.06
1878.19
7600.09
2666.76
3000.13
1103.46
4886.66
2589.23
4681.11
4514.31
7171.04
1291.71
3002.29
9056.82
7003.96
2571.95
2358.94
4378.76
3377.4
5852.71
1437.46
3015.89
6539.6
1090.27
8810.67
5002.88
865.005
396.031
1825.75
1798.47
5057.46
3789.53
4091.47
3201.61
2393.19
4501.15
4413.33
2105.16
4332.65
6979.37
528.391
13254.1
2973.97
5202.73
12261.8
2138.52
4437.33
2673.62
2741.42
1881.79
880.362
1301.22
2677.86
8163.47
13302.6
1865.66
5032.73
6343.49
3472.91
2912.66
1792.7
2737.77
2316.47
4518.67
5817.42
4845.34
2090.95
7695.98
1507.5
3230.96
5143.17
1417.24
1569.02
5054.33
1829.66
5640.99
1014.97
11063.8
5114.83
2471.16
1800.52
4556.52
3634.76
6399.9
2305.5
2300.59
2870.06
1170.87
1410.26
3399.12
7165.31
2110.5
2520.26
6100.32
7537.35
6594.05
2089.66
2847.01
6323.66
2521.27
3352.91
9811.83
1584.54
1983.71
3295.86
4951.98
2908.94
7959.66
7072.63
1353.63
2094.41
3777.83
2144.53
2140.76
2149.51
1801
4598.95
690.868
1530.9
4461.29
2796.28
1593.82
6854.72
11141.4
4334.11
2856.79
3851.42
2823.04
13754.9
11089.1
8752.49
12381.1
1870.49
7873.81
4118.86
3150.79
9307.92
3261.66
4011.03
1337.95
2406.58
1186.5
2175.28
2729.7
3048.89
2359.33
989.997
2008.76
5662.74
1843.46
3242.96
4265.71
4335.63
1716.32
3211.07
7222.02
1433.62
3599.48
2848.11
2347.88
1771.54
3372.82
1212.73
2046.78
1704
10047
1219.72
5845.29
1986.54
3208.13
4710.31
3840.21
794.63
10481.6
3228.4
2896.76
1786.41
2778.2
1176.36
2066.14
5073.19
2383.17
6101.49
2681.57
1099.7
10080.7
1897.12
5473.59
2322.71
1184.02
1021.74
1199.61
2057.31
2963.77
1928.71
838.522
4705.79
5934.8
2361.37
1322.2
4377.36
2737.15
1167.67
9473.34
6007.89
5767.47
2643.58
4053.31
2291.51
6327.5
5154.35
1579.96
1736.31
6004.47
2335.67
16176.9
557.11
2526.17
2621.37
1662.44
647.778
4375.3
2548.41
3050.75
2715.53
3666.29
6427.76
1474.98
10976.8
3450.47
5339.88
2080.29
2520.01
578.463
1930.09
3650.21
3381.44
2574.16
11330.1
660.146
5291.45
3018.97
9048.41
4897.87
8300.51
3664.88
3773.35
4316.71
7179.65
3305.13
4855.56
4535.91
2700.72
2295
3378.06
6088.99
3482.71
1868.53
5917.79
2939.49
5066.25
4131.36
3058.28
2170.27
2829.33
6233.65
3205.09
6330.22
10043.7
1644.52
3765.4
2447.91
694.208
2200.79
4461.5
2402.88
6392.74
1884.4
4163.46
5003.22
2376
8011.94
5947.06
3919.6
5193.71
3038.58
3033.81
817.218
2703.34
1848.44
698.731
1552.68
2871.48
2684.39
2576.75
10045.7
5799.26
1895.39
5821.38
1230.79
5798.86
1580.03
6766.75
3235.64
1265.6
1539.84
1371.14
1597.84
4139.79
2337.07
1370.11
5703.29
5951.95
1527.31
7398.6
5880.98
3475.12
1698.53
3178.3
1940.26
1525.77
943.389
2696.12
6022.58
3623.96
8180.72
3280.02
3929.38
2216.43
16532.5
2176.15
3167.2
4354.37
11114
5281.43
7985.59
2200.48
3408.85
3471.42
3265.18
1696.38
1958.53
6194.95
1995.38
2534.46
1621.67
2008.04
3587.92
12937.3
1586.47
2697.1
6429.57
6181.84
3402.06
3693.8
1148.65
832.803
2627.03
7159.89
1487.71
989.575
3975.77
1927.89
8528.53
3010.39
3013.4
3992.44
1205.43
1886.6
3301.3
4766.01
3110.95
1072.98
1019.68
3166.38
4012.94
4268.6
4079.13
2394.26
1865.42
2565.23
921.846
2020.79
4020.02
2800.91
1552.81
3477.73
6782.31
6586.31
4355.93
1486.23
2372.22
1923.98
7967.97
1957.62
3426.94
4632.55
3128.48
6008.51
6672.34
3136.86
5149.87
3266.55
2937.1
5211.75
6034.88
6188.5
1689.84
2010.58
1335.3
5007.55
4355.81
2852.18
2447.96
3460.88
1519.58
2877.83
1780.06
1377.95
7982.38
1313.79
1386.71
5068.92
5487.36
3866.36
1167.07
2489.13
6055.73
8501.36
2411.96
3472.48
3430.98
4375.69
1846.22
1219.2
2789.89
3664.5
3103.76
955.506
1806.29
7632.68
3232.23
3101.95
3070.71
3005.31
8213.11
5507.05
487.985
6326.46
7446.45
5860.82
3103.24
5969.2
2068.05
6512.5
6130.6
3108.19
3134.57
2466.7
1984.06
2104.38
8034.26
1131.17
6133.88
2000.66
3469.06
3729.71
3991.74
3328.97
955.816
2984.19
5673.31
6164.57
5862.67
2259.66
4275.64
1811.62
683.247
1567.57
5130.52
1220.4
3010.64
5848.84
3374.47
4837.69
4081.81
2281.86
849.214
2058.01
4698.51
826.439
7362.16
1936.95
3212.78
4800.75
936.436
6279.6
1787.97
5470.02
8329.26
6743.32
5718.9
4303.82
9562.56
4110.63
8255.04
768.052
6504.34
5726.64
2725.5
2804.06
5845.27
1381.2
5399.49
3225.52
2618.16
3649.93
1346.17
2036.85
2757.75
2467.82
3524.91
5435.23
4338.43
9590.88
8947.04
3548.82
2927.11
4930.93
3638.16
3994.57
4810.83
4495.58
1707.02
2423.37
2121.23
3135.12
2675.9
3453.73
916.085
3627.54
334.372
996.948
2514.08
3193.39
7590.22
5639.48
2678.71
3237.99
2111.68
1923.29
446.884
3295.17
4631.52
1532.3
2991.73
6575.45
776.869
3641.71
3723.02
5533.86
1258.75
1182.02
3865.53
1774.89
2579.78
4476.27
1928.94
3893.41
4246.32
9794.06
511.231
2510.21
1222.04
1475.25
5166.33
4317.19
2355.25
1975.59
4280.12
1570.42
6580.59
2625
7561.03
1590.56
5332.79
1846.89
1887.46
5846.76
4192.66
8716.61
998.84
2527.66
4641.81
977.696
7092.06
12997.3
5406.33
2202.11
3485.79
1060.03
1126.35
4283.93
2325.73
3751.71
3604.3
10196.2
5296.23
4587.4
4197.57
1312.73
2859.34
9970.75
7089.02
4173.35
5825.5
7077.18
15849.7
2737.04
5234.9
2091.2
3187.58
6336.25
5112.72
4217.49
6507.53
3722.51
334.894
1791.76
12531.8
2232.95
4958.68
2864.28
1038.01
6327.93
5844.43
3792.18
1807.17
1372.45
6719.1
5333.06
2112.99
5535.85
2194.47
6935.92
20166.5
2484.47
4820.08
3175.45
3169.44
19157.3
5044.53
5209.4
2897.2
6558.62
4230.85
1385.38
2100.03
3053.42
1679.26
3324.99
2577.93
649.49
6094.31
1870.94
3318.37
2418.8
3394.62
15930.8
5298.24
5075.92
850.986
3002.35
4218.8
13307.7
1892.83
6753.9
4424.53
1361.36
4205.91
2332.69
5255.83
13676
2972.02
747.174
2800.69
6097.74
1147.26
3766.64
7328.55
6766.89
2103.36
1584.95
2980.49
717.11
1046.38
8156.79
6572.15
1891.19
5483.7
4201.87
3486.69
3401.67
2441.64
4138.96
1438.58
3279.47
1259.29
4166.23
5159.61
4813.73
5026.83
1136.18
2605.26
5056.87
3389.27
877.837
601.922
2787
3523.7
2562.33
15420.1
3954.53
3091.57
3545.44
2537.06
2637.81
7264.34
1862.98
4427.42
2721.65
4226.97
3146.36
7352.87
2895.7
3254.23
977.071
2210.38
6825.82
3153.13
1665.24
2754.55
6680.66
3168.26
2377.65
6259.23
2241.88
9515.6
4057.75
8526.04
3285.82
2234.21
959.477
3589.6
2861.62
1835.9
4842.16
2264.69
9220.68
2189.09
13798.7
3497.47
1128.92
5587.85
6267.22
1022.05
2067.57
2642.27
2116.12
869.378
5189.04
3935.77
2153.23
4620.24
2208.72
2767.78
8378.45
1366.64
3219.29
8663.56
4152.18
4943.74
3827
7721.39
3311.33
2173.75
1633.23
2585.85
1363.27
6306.59
1010.79
1000.32
2023.14
841.326
1067.58
8400.58
3624.58
4378.43
771.343
4846.69
8533.85
4501.24
2296.5
1430.07
1774.32
1245.65
4185.96
2833.28
4053.9
3030.5
4592.83
2228.57
2571.51
2623.71
2618.84
1381.04
3447.33
5419.89
14757.6
5450.78
2003.62
5146.93
5285.96
8642.26
9230.59
1991.21
714.601
1986.94
2093.92
2852.17
5119.04
2272.67
8136.78
970.717
4052.04
1000.85
1701.68
4072.24
3883.64
17590.6
1872.08
2337.79
2627.75
2016.88
2458
5268.3
1165.64
8862.19
2586.55
6376.69
2147.27
5849.45
3749.83
2841.76
8524.5
1986.72
2585.02
942.467
2637.03
1862.79
6168.15
2708.1
3639.18
982.454
7854.86
3575.12
7614.2
4370.95
5440.91
2075.19
8123.9
1676.32
2143.19
2195.93
1426.65
4129.08
2582.51
1748
6531.61
2166.08
1737.9
2825.51
5355.31
2526.95
4613.65
2090.53
6235.55
5208.55
2321.43
5981.29
768.245
6031.23
487.522
1694.94
6998.04
6563.84
9163.54
1772.87
5406.09
1893.56
4349.84
2389.17
926.377
4536.29
6611.08
1911.93
1672.56
3998.4
2219.55
777.838
4342.84
2113.22
3976.64
2924.95
5077.64
1744.94
1539.3
1719.59
2764.11
1827.51
8251.06
18011
3124.42
3865.74
14750.8
5542.02
310.03
3891.85
1063.73
1391.27
1765.06
1804.3
5721.88
1163.42
4200.49
3683.82
1728.2
6462.57
2530.44
2658.76
1609.78
8963.07
13101.4
3060.81
1028.5
13906.3
9454.36
3163.09
5470.96
6271.54
3697.23
2680.06
5108.33
2567.87
3340.55
2718.67
6136.82
6680.94
1838.6
12958.8
8792.34
3188.67
8514.81
7816.58
4306.22
6325.76
4402.02
2808.36
2527.2
2550.98
1075.26
3695.23
615.641
5862.33
3603.63
4279.01
1060.16
4553.27
1382.53
4251.14
3411.42
3070.23
1923.76
1367.33
5282.78
2021.13
8318.94
4049.6
7162.21
4309.97
2355.84
3448
4992.97
1343.78
3657.51
2056.94
5933.43
4589.31
2684.31
3843.63
2186.67
2714.7
2711.36
1996.85
3839.87
3101.31
744.965
2820.96
2378.73
2907.37
6095.7
3210.26
3777.03
1117.92
4046.95
3649.03
3733.2
1928.5
8539.61
2970.34
6171.02
1913.54
9681.98
5876.71
4029.54
2560.38
1945.38
1387.93
4102.42
861.376
1414.67
4799.24
6734.37
1350.72
3168.73
784.68
3083.57
1006.43
3231.65
4117.26
2730.65
621.095
11215.7
7678.86
2338.82
3187.58
3155.89
4969.36
3462.83
4317.2
2340.38
946.358
3677.98
880.41
1620.78
2106.75
1774.8
6477.37
1715.43
5116.81
1848.61
3454.33
5117.3
1014.02
579.153
563.846
671.838
2620.6
8416.14
7573.06
2740.73
3788.92
2052.48
4700.8
8192.54
588.249
1410.65
5677.45
444.188
8088.75
7727.53
4048.4
2418.79
1628.74
958.403
1008.15
6070.33
1213.44
5067.8
4291.82
7068.76
2765.98
4683.13
3935.3
4066.02
1122.46
2639.16
4893.74
6467
6426.51
12081.6
3303.63
2285
2746.95
4673.76
5373.83
4468.3
1055.43
2854.6
3082.57
3157.82
2686.04
3613.95
5126.69
4035.84
3640.06
2002.16
5262.11
2432.11
5655.75
4917.81
7031.12
2758.92
4055.65
4386.68
4409.49
5682.82
8566.73
2322.03
2585.43
3384.85
856.041
464.148
1914.62
511.219
3941.57
5486.83
2685.7
6622.45
2371.05
2557.45
4079.13
2051.81
11204.9
7191.54
2847.47
4991.19
2036.31
1457.21
2591.33
11255.4
738.94
3942.13
8757.82
7177.47
3402.66
1280
1631.12
3791.79
2413.17
4360.32
2425.31
2777.67
3016.66
995.726
7118.74
3399.02
2999.95
5021.39
6077.19
4960.49
2407.27
2649.12
3140.56
6157.72
7169.93
997.011
1961.01
5280.38
2027.08
5908.96
4820.44
3489.64
5290.63
10862.2
2422.43
5713.19
7487.07
5143.58
5317.54
1436.06
19585.4
6243.88
1755.65
7620.73
2504.65
1982.27
1389.56
1514.15
4196.09
3206.98
3194.94
3025.23
3835.37
3119.18
1151.28
7569.58
2759.19
6456.68
3537.48
18429.6
2364.33
3340.85
3702.3
4805.89
3088.01
2661.54
2179.37
11981.5
9662.84
3454.3
1816.17
1940.67
9794.59
2341.36
8065.78
3101.53
2241.39
2796.36
10874.2
3673.81
2503.19
3437.23
1887.22
12391.4
2293.83
3811.99
3272.76
8386.66
1398.17
4175.36
1725.93
1938.22
3716.5
6390.58
4413.01
2280.65
7732.1
3573.72
4527.92
1398.15
3073.28
4013.07
3503.01
8706
1639.54
29047.1
5175.56
1604.5
5295.95
4010.8
3257.3
1586.45
3262.12
1177.45
2622.96
2923.3
5956.21
1229.43
7420.48
843.882
6332.02
2457.63
4669.28
674.636
6040.22
1840.08
6080.75
1644.37
7704.36
6590.41
8601.2
2862.18
3288.18
1535.89
5052.23
4587.76
3047.96
1949.32
4774.67
6333.19
1342.07
2060.08
4042.61
2234.66
3255.71
2368.35
4199.83
5664.68
3010.42
5688.65
3552
2878.86
4804.58
3495.24
2829
1303.83
3641.97
3005.79
1055.34
1296.92
6902.47
1206.91
3290.82
2642.51
1102.49
959.762
2895.11
2584.99
2818.63
2115.27
7902.72
3866.6
1584.05
1614.38
8990.97
1843.4
3491.12
4299.62
8094.07
5388.07
5308.56
1338.23
2669.92
1589.37
6077.99
3177.42
12128.6
3628.26
3559.02
3194.6
2510.45
9420.54
1730.11
9419.08
7610.95
1296.61
2468.47
1554.97
3351.98
2220.33
1688.71
3550.66
1742.4
5210.6
2044.45
9532.87
1482.2
3357.01
3248.13
2438.69
3243.22
5001.06
2009.14
2546.34
562.248
4245.68
6081.18
4723.88
2552.73
1119.08
1986.8
3446.83
3602.84
2139.25
6385.72
3520.95
3060.01
1306.96
25568.1
1607.37
2611.09
1253.51
4096.6
4739.53
2814.53
3602.3
2105.52
5291.07
3295.01
1758.72
2378.32
1258.2
8631.41
8163.28
2101.79
2064.21
3799.06
1727.37
1232.25
2012.37
3083.34
6358.14
2975.13
4685.97
10455.9
3561.4
1866.1
1300.87
4131.6
965.042
1392.73
9676.61
888.007
2049.17
2700.25
3871.36
3990.77
4125.54
1874.8
3944.94
2018.37
1749.1
686.004
5218.82
3160.76
1449.57
2758.71
3801.96
3056.49
2404.86
1342.9
4232.98
2178.91
2923.23
4606.54
1610.4
1469.41
3765.46
1735.47
3637.23
3591.25
1242.97
4217.38
1947.08
4233.18
1648.39
11395.1
4173.47
7176.28
1302.71
348.012
5039.52
2238.81
5337.39
2887.23
4773.3
3453.53
5693.51
1862.81
2716.07
5477.8
1390.03
1168.81
5325.95
5912.76
2628.04
2474.92
4045.66
1471.41
4346.04
3907.3
3289.7
3978.49
3015.46
2680.02
3780.31
10434.6
1009.43
2122.38
3194.22
1349.13
2283.58
4130.65
17894.9
9405.58
496.061
4101.76
6128.06
2847.76
989.579
4144.73
6045.47
6691.7
2673.58
7260.73
5716.3
4532.2
1476.67
358.105
1481.05
1386.27
2299.83
2823.31
2153.48
3940.65
3014.83
3452.57
1980.41
492.523
6850.36
1424.43
6341.03
5066.2
2943.93
875.447
3183.56
4748.58
1708
4076.71
4060.66
1969.02
5117.33
3757.11
5916.15
3542.36
12695.7
1704.07
3992.57
192.501
4085.24
3288.37
3821.26
1400.97
3161.18
1593.93
14060.8
2070.03
1991.24
2731.1
7268.07
3517.71
2315.93
2404.09
1488.04
2502.4
7207.78
6445.88
4873.01
779.662
2228.19
2215
5250.29
2852.51
1673.21
993.247
802.408
1108.54
7726.38
13481.4
8753.47
5034.33
3778.48
3161.36
2886.03
4630.4
5650.86
11897.1
8432.46
1109.1
2262.27
1792.89
5654.03
2600.75
2453.23
1851.35
4948.8
1578.55
2325.15
5195.4
6073.26
2272.1
2498.62
2410.41
3226.86
6229.78
1907.57
2536.65
5958.52
1287.47
6427.22
4462.5
4775.36
3343.52
4295.89
4073.26
7103.08
2166.33
14821
7811.76
5339.45
3280.68
6995.5
3076.81
7304.7
1326.07
4448.81
2957.93
1360.81
4742.92
6858.69
7172.2
3034.88
2697.7
10501.1
3721.7
401.562
8524.45
8985.97
5302.98
3605.67
2289.56
2208.71
1084.58
1424.7
4620.21
3998.04
11728.1
3747.33
4411.63
6293.02
1345.29
5631.14
3226.42
2815.02
1707.54
2509.18
1897.83
559.073
1658.88
1206.51
1336.1
2763.49
2045.08
15544.4
5742.13
5209.52
4621.2
9249.76
2650.24
2967.61
7002.35
5311.48
1420.88
661.731
2765.33
5704.13
785.358
4818
3850.44
1387
4212.37
7952.54
4236.97
2264.15
4685.31
4163.15
6704.04
3832.08
9353.99
5401.54
8410.87
9560.33
4444.35
8645.87
2719.64
3088.6
6212.71
5819.86
10985.6
8744.41
5570.92
2896.98
4914.54
1298.38
5961.69
1179.04
2895.29
4262.19
6057.77
3525.84
2249.97
4550.04
3745.71
6447
2312.14
1536.17
2010.91
2617.92
1368.34
2403.59
7812.96
8751
3891.05
2704.39
840.261
847.994
909.985
3449.97
1320.54
1524.27
5413.53
5829.95
3341.22
4593.36
2723.56
746.155
4602.22
2743.13
4184.72
4035.11
3129.74
8333.48
4774.9
4472.3
6378.97
9820.09
3494.66
3822.69
4213.87
8884.29
3545.06
1857.05
1748.75
4165.68
4390.67
3380.84
1029.64
2850.85
6136.61
5631.73
801.686
2552.05
5018.44
3593.67
5825.24
3665.56
12753.9
2319.47
4145.01
3212.36
4134.75
1387.55
5062.64
1710.44
3982.95
5292.67
2351.88
4618.87
3712.87
10688
639.347
2226.06
3877.23
2367.06
3665.67
5353.45
813.927
5237.23
2584.96
3104.31
2521.22
4809.61
2146.42
3276.17
12283.7
3316.83
9380.54
5755.15
8282.18
8450.21
4431.82
2317.07
931.361
2483.92
12318.8
2842.61
1891.97
587.953
2541.5
9291.47
4281.44
3605.65
4111
2219.84
4669.05
5577.51
2177.5
953.752
865.124
6111.92
4344.18
4625.64
2385.03
1955.87
3763.82
2961.51
6653.05
4500.49
4873.95
2103.22
887.781
9181.36
2121.53
4056.85
1802.4
838.779
5585.23
2500.72
2401.03
2655.62
5368.22
5247.25
2284.4
2602.97
1927.5
3782.15
1656.98
14910.4
10429.9
1882.92
1476.75
3979.3
5764.89
2233.51
407.434
6448.59
1392.92
3924.12
2889.09
2894.05
5500.44
628.77
1488.39
8921.47
2687.48
2843.1
10181.5
3817.6
4230.65
1074.14
4113.43
3095.8
5677.78
2924.83
10006.1
19235.3
9932.66
3956.44
3861.6
1782.87
1609.86
2627.48
5800.18
477.192
1844.03
2872.66
2168.9
2431.54
6658.08
3549.84
1964.72
5504.57
8543.47
4941.32
2034.08
2972.7
870.843
3917.55
4212.56
1342.19
2649.93
789.424
5704.83
3293.39
2524.57
6386.3
2309.7
1399.65
2818.98
6692.81
3615.1
1089.96
3613.37
8080.57
2506.15
1515.21
3113.54
3328.27
4197.96
9788.73
1823.43
1849.13
4757
816.408
10543.3
3445.45
4841.37
4001.19
2328.45
6838.13
2405.04
1484.86
2271.54
3411.37
2592.79
1789.42
2055.24
2720.94
2958.04
778.101
919.086
3169.16
1239.85
4380.68
1616.71
1848.62
8742.02
2460.59
4629.88
4993.92
6586.53
7526.18
6086.05
1734.24
8548.58
9900.15
1673.03
974.849
15433
6739.87
1876.97
1827.06
1894.34
1371.3
3725.73
2317.82
394.074
5882.76
2779.08
437.166
4851.09
4044.66
11467
1753.95
24303.6
4030.64
1122.4
6987.06
2817.78
2602.68
2940.21
4752.1
4947.1
1858.28
4832.82
2090.66
4564.54
827.226
3781.21
2229.92
5521.69
7525.99
3084.09
16315.6
9728.54
2022.34
2349.14
3333.22
4910.31
4009.45
13304
2384.41
687.851
2105.04
8013.28
1314.97
10128.2
2092.51
3466.89
2094.66
2630.18
1708.06
4420.9
1429.73
4194.99
1565.01
2742.15
3608.02
1313.39
3586.92
1205.7
254.933
1171.05
1616.08
4582.88
7829.31
3174.89
3451.85
3866.15
1280.07
2933.62
606.708
1168.93
2847.64
2774.1
3149.45
1009.63
4050.19
10857.3
4057.57
689.029
2911.92
2105.7
2079.15
1759.77
2929.93
2221.65
2089.23
3269.4
2825.59
2680.35
2801.22
8073.02
2995.58
1582
13416.6
2685.38
1991.56
2938.09
2029.89
6770.86
9908.04
9511.66
1275.54
3008.47
6980.57
3604.59
1417.81
1568.87
3194.7
2464.66
1778.83
10368.8
5978.91
5151.03
4334.79
1213.12
2638.46
4815.29
2222
1624.67
3502.82
8824.84
1203.71
3969.32
4696.29
1778.92
8047.4
7411.14
3731.61
2272.26
9360.52
3361.81
3062.27
1233.75
3257.67
3527.44
6305.76
2918.2
3576.11
3803.74
9191.56
2595.93
2401.33
4024.51
1788.65
4682.36
8694
4347.8
3128.76
4806.5
815.749
6857.39
7815.9
5484.54
2219.88
2336.53
3351.49
1578.13
1604.24
2522.23
4862.46
3198.32
14439.5
3355.54
5940.82
17496.8
5910.41
3898.63
3752.18
1748.71
1850.69
4227.57
912.757
1612.78
1017.5
6833.06
2109.69
2152.05
3450.91
5849.17
3951.05
2377.67
1486.27
1998.23
8371.72
20174.9
7371.28
2159.05
911.644
2983
9908.9
2246.54
856.242
7731.93
2306.91
3605.83
2947.76
2423.26
5740.6
11481.9
4544.45
4998.17
834.689
1212.86
2623.59
1767.11
12552.5
13224.8
3531.71
1228.39
2634.89
844.112
2191.32
1849.14
3283.34
1139.24
2708.61
5914.45
2896.53
2632.31
1305.17
3069.04
8814.8
1603.72
6002.86
910.95
4461.49
3293.22
4989.15
5567.36
847.448
4890.8
2770.32
1377.78
5389.45
9175.78
10060.5
675.954
1903.52
3436.89
2481.05
2952.54
4113.49
5577.14
7106.79
2206.55
3659.67
2322.09
2982.38
10833.2
5367.93
1848.36
7086.48
11384.7
2523.59
8927.57
1998.11
2975.5
6256.4
2700.99
1106.72
894.651
2043.04
5034.78
7585.33
2672.06
7947.89
2588.71
7706
5347.61
7472.18
1643.18
6351.71
1021.51
12667.5
2484.94
8915.27
13560.7
4008.7
1727.08
1302.26
3420.43
14839.2
2956.63
891.254
12894
2670.17
2701.3
2107.3
7020.57
3620.38
2801.29
2876.98
3177.66
6894.25
1297.06
7052.7
3901.6
1613.08
1959.83
4124.95
2401.84
13523.2
2818.67
4494.85
2794.6
5808.15
6039.01
5877.43
1422.37
5274.54
1932.27
1827.36
4507.41
4607.9
4357.67
7808.16
8937.96
2445.12
7855.58
3503.99
1425.13
2156.21
5942.65
3423.6
3260
9772.99
5178.24
3368.08
5824.57
2691.87
4826.34
7491.27
2507.84
5887.79
9751.06
4434.75
3900.92
1420.07
2633.89
5214.11
5111.79
2705.82
4692.39
2109.87
4185.77
4241.42
4760.09
2803.78
2842.66
1374.26
838.577
2536.43
3150.41
4252.71
2375.82
1059.98
3392.94
2460.31
3924.92
5022.64
2415.14
2110.98
5007.78
3937.49
4367.14
6025.68
2882.29
1009.8
820.566
10992.3
3723.9
2042.59
2734.81
8475.43
2481.23
3840.77
4963.29
6213.98
3235.02
1527.87
13474.8
3873.94
4649.02
865.441
7750.66
869.225
6250.4
2240.45
3990.3
8670.62
3487.4
4457.24
13651.7
6693.5
655.856
2855.36
2318.35
12196.6
1173.04
2647.71
4058.18
2225.33
693.302
4387.44
4094.05
5588.42
2259.61
5792.76
5610.67
4580.91
1844.17
4374.5
3433.17
1706.14
14821.4
1936.89
7576.77
3539.56
3117.57
6465.26
987.79
6935.33
1997.05
1187.66
13479.5
1434.26
2109.27
2048
4873.6
2013.6
1896.46
1604.7
7328.53
5363.97
5592.77
596.867
4590.23
3136.44
2778.17
1184.45
4201.09
2973.33
1866.93
3364.06
3309.61
5440.59
3651.25
860.318
7058.79
1285.96
1098.04
4864.86
2558.48
5452.86
5277.47
2056.84
2187.06
2047.57
4889.23
2388.24
4713.44
6826.86
5319.18
1288.12
7575.41
3315.45
1648.3
2936.89
1809.2
3398.65
6272.29
3626.51
3500.31
1766.12
5834.82
3386.52
9049.79
3465.89
3209.53
5553.35
976.287
4417.04
1527.12
1598.46
5760.38
8242.04
4136.33
5233.14
4445.22
1897.26
6257.62
2136.43
4171.54
4389.78
2067.31
2060.3
6650.43
2527.37
1764.1
999.537
4379.32
5998
16458.3
7114.28
5663.82
1799.5
5201.49
12812.6
4663.16
865.46
1806.19
2332.59
1834.4
1507.3
