17.30722
-25.364258
177.473981
-30.144977
14.3886586
-75.4190358
-169.3652035
-27.8378845
65.9926921
134.1349051
-177.936725
91.80065981
-114.1105783
63.5837838
-175.926259
-16.82572617
66.29912094
-31.8425151
52.5742147
116.5092351
58.3438004
-29.9368635
32.0591739
3.1281825
-1.6334116
19.575838
55.9870113
-105.299246
-83.3039747
24.2539261
-3.26801318
39.2667746
-26.315774
-20.44017709
-26.832237
-2.1577129
158.546662
-13.0117369
-37.8735792
75.698149
3.296964
60.807969
-18.7719946
-164.614032
11.929046
-70.55799574
-44.7712236
58.601524
55.0003964
32.3119732
2.0026306
-155.270423
-6.564754
-18.096318
23.75714402
-89.5811003
8.7019386
63.24671905
-109.0375562
20.05696
74.9712075
-32.719554
106.011012
-28.7228992
40.0989507
72.4389205
-50.1197433
-20.3738649
19.7171078
98.1791425
-88.2573175
-91.7126128
18.468246
28.2025763
-27.517103
-106.138228
85.6906849
-91.021392
58.4366729
-99.779757
-67.3025876
-77.4532073
-80.40343
55.5469057
107.7913525
75.6854428
136.6957466
-82.474525
-18.791091
34.9807557
-52.533306
61.3397081
32.186769
-22.5150401
-117.4224191
3.5296028
-14.83779138
-78.110671
-29.025564
-92.9323301
-57.65917535
-19.905888
-87.67985068
85.2944019
44.2469589
35.12491803
195.934501
47.4415636
-33.478665
10.52623
169.6141091
12.4613278
26.666911
-0.240418
49.00161945
-30.3079459
-8.802767
134.187316
53.1137555
-101.08471006
-95.2357654
2.3180751
-130.2056265
-6.174736
33.758456
-43.744732
16.446176
-5.82262
98.3386094
109.897493
52.188893
13.5058294
46.3087847
35.0614903
123.7347266
-53.70988563
2.788391
-5.0631588
-13.45724063
16.8994857
180.7135868
19.056219
-33.6232181
52.059484
24.76743956
-2.3245377
-49.2228829
-9.619382
-65.4310145
-47.0523802
117.28978
21.9457011
-83.0808969
134.521126
117.761087
-54.86171915
-188.753606
-94.081936
43.657155
-107.0063777
-139.87517331
18.483762
28.6576005
52.171759
131.146739
173.570592
77.286962
-115.000652
-32.027401
-81.4608125
75.52898721
-45.3972316
15.4752326
-53.122369
-12.62844353
98.5887265
-61.6213339
-76.085157
-24.76150376
-44.0971959
0.00262500000004
-131.68441236
-83.4878828
117.2023562
75.7964703
105.093205
91.985966
-86.9399477
157.41278032
15.1209188
-91.4610788
-57.163759
80.031107
3.414343
14.0412703
-75.3486726
-60.083329
-75.917808
0.963919
-38.8057
-115.93685057
-67.4188354
-58.16673747
-46.59541224
-19.806622
25.95105585
125.5959539
-68.3324925
-85.099853
-85.537299
30.070896
123.229708
10.6919492
-53.620021
69.76469
-33.3422166
-124.783123
105.987749
-44.1757529
-40.5486831
35.144796
-89.1427
27.0456605
-63.4405512
-90.9110266
-27.73760182
64.9417412
-20.4559717
54.2639096
90.3172
-151.8639694
30.0475119
58.21557126
-17.8444002
-27.441878
101.011822
-79.7757316836
-124.2547594
-4.1579693
25.6712042
-66.6302818
13.6170816
-42.952805
80.4179156
70.1132116
5.972525
-63.87822886
-82.2046477
144.005305
177.4791802
