659.525
3134.26
2605.3
2143.12
3644.1
5054.67
7359.94
11319.3
6569.59
10738
7882.91
6895.21
4829.88
6086.76
7566.94
3996.5
5451.79
2498.39
3039.27
949.206
3377.33
3374.9
4417.26
1993.91
1283.81
1875.56
1107.89
1297.13
1842.73
838.274
1807.69
1971.57
3343.92
1405.25
1761.61
1512.94
1861.84
3567.85
5102.09
2510.91
1379.49
3343.53
3200.51
2481.51
757.886
1962.78
3132.75
1606.52
702.192
1299.11
1363.86
2238.93
3119.52
2582.4
5048.17
2539.57
2368.93
2005.74
4531.9
4232.31
6407.5
4891.45
5103.26
7921.3
6501.29
9082.84
11920.6
12402.2
12467.5
6806.97
6098.76
7903.45
3868.05
5322.42
5953.09
5678.12
5314.53
9082.44
13058.8
12916.7
20916.8
22785
13517.2
13470.4
19607.7
23150.5
24888.2
20280.9
18077.4
15833.3
15158.5
13476.9
5268.36
4023.41
6543.86
14697.1
9342.56
15038
14575.9
11301.3
13102.3
6908.16
5725.07
1386.4
2444.15
1238.05
1065.16
3418.91
1459.81
766.767
2332.95
1000.97
318.867
2552.45
2941.01
1577.37
1979.17
2500.22
2792.14
5139.68
4255.93
5694.29
4174.42
5411.21
3299.36
1411.53
958.262
1416.23
2392.38
2453.85
2016.73
5222.94
4129.17
3419.03
1464.97
1510.57
530.123
1179.38
1352.44
758.233
1411.46
4330
3022.4
3081.9
5494.93
7313.22
7108.49
3374.17
6765.29
6588.55
5197.4
4800.25
1569.99
1599.1
3111.87
1920.39
2999.21
6701.61
5882.48
3194.31
811.692
2711.46
1508.01
1986.21
1424.23
1226.27
1138.51
3370.41
5053.23
728.95
924.89
1093.57
3097.18
4185.8
4422.4
2920.03
3066.4
5921.39
6381
3579.61
820.676
1286.23
3251.41
1419.38
2941.69
1146.88
3060.87
2597.69
5329.46
3209.84
2207.18
3854.97
2834.6
2693.3
1499.88
1702.84
2773.27
1356.95
1292.33
2400
2787.83
2915.93
3180.45
5111.35
5411.66
4267.34
4136.19
731.774
1949.12
2784.61
2647.82
3613.09
1853.46
4714.87
4458.24
7029.52
8196.19
3659.51
7517.64
6261.01
4104.61
7447.1
5590.72
4860.43
3186.66
1718.86
2401.39
4227.42
3487.03
1467.42
1400.11
2826.41
2111.08
2381.14
1150.94
1137.82
1931.62
1566.7
1547.36
2670.46
4152.7
5575.56
3629.96
4005.53
4105.57
6550.91
7473.99
6343.48
3936.45
1992.01
2731.84
1688.12
2295.02
6880.77
5776.12
4503.96
4503.61
7648.41
6595.34
3492.67
2599.11
5739.55
2682.28
1486.2
1119
2613.25
2497.98
5789.44
12072.9
12589.4
12521.3
4262.67
7598.88
6799.27
7107.48
2873.43
3924.63
3910.14
5643.42
3793.72
3565.58
8355.55
7317.53
7099.92
5462.14
12923.3
8294.22
8752.99
7434.34
7997.87
17021.9
18205.1
16370.2
16219
14511
13254.1
11749
8563.29
6223.08
4539.31
11330
9442.89
5734.03
3966.83
3667.06
3486.58
3414.79
3748.62
7323.13
6675.06
8539.94
4946.92
2006.04
2242.97
2721.84
1483.24
3042.87
1079.25
1053.01
2363.51
2167.43
4573.37
12863
9144.44
6595.32
2098.85
1436.48
4522.46
5624.05
6786.45
4088.67
5939.37
3174.31
4735.61
5129.5
4759.9
4584.85
3073.27
4950.5
7308.71
10071.1
7872.79
5546.21
7242.14
7012.77
7345.27
4091.27
2662.72
3961.6
3432.57
2484.44
2834.97
2899.44
2360.17
2267.4
1731.58
1623.3
1891.49
2178.05
4140.93
6270.54
3523.14
1328.11
749.235
3279.38
315.707
3394.19
1652.39
1825.32
3458.6
2319.11
2516.5
3463.93
5336.82
5953.05
7061.31
12496
14783.9
16136.5
18662.1
17148.6
17128.6
23904.4
19853.4
9286.05
5515.86
8347
7556.72
6680.82
9333.5
5758.19
3950.19
4252.97
4051.18
4650.82
3616.01
2157
3410.64
3255.43
5126.78
2763.61
885.496
393.086
1499.9
1231.76
1722.11
1389.63
1914.75
1168.38
2143.07
4025.75
7249.09
4645.77
988.041
3812.29
3229.62
2258.82
4385.58
4561.47
3125.49
4167.75
6544.69
3095.63
6476.72
5334.8
3653.1
7485.16
5242.24
6026.86
3999.57
6495.96
8742.56
7171.65
5541.28
3503.14
4003.44
7099.58
4802.65
7770.81
1130.06
2410.05
4939.85
2442.63
2917.66
4953.32
2308.01
2362.84
2648.48
1205.3
3874.68
4659.11
5591.94
5254.24
3319.29
2021.02
3539.59
4354.55
2754.81
2301.07
3352.04
4825.73
11870.6
11278.3
5432.36
3143.88
3206.96
1776.04
3966.27
595.581
3841.15
2824.33
5985.88
5180.01
2687.63
2325.51
4235.55
3560.48
1455.46
2727.82
1662.43
3221.73
1114.44
1847.47
1952.45
4808.91
5833.3
5294.16
2183.29
800.083
1163.74
1438.43
3147.61
2674.5
3853.49
2061.73
1044.22
2591.48
6442.84
5506.02
4552.51
4283.69
6206.62
2394.14
3136.3
2716.99
3260.41
3603.36
6004.23
8520.88
6493.61
2337.03
4462.91
6109.28
1992.27
2916.45
1371.23
3867.13
3136.46
4932.32
1664.2
2286.84
2625.72
2655.14
2523.95
1895.68
1234.11
1078.37
2262.63
2290
1102.31
1098.25
596.658
1141.73
741.854
796.864
1836.87
3511.15
4142.25
4902.58
2595.61
2002.11
1241.25
348.356
1683.7
2578.98
5326.15
6305.89
6257.31
5823.37
10441.2
12150.3
7552.78
5608.24
6215.56
5586.35
6144.17
5541.69
5728.62
6204.5
6858.95
7259.24
1863.39
2142.46
1321.13
3024.73
2092.25
2328.52
668.894
2220.37
1874.92
1244.33
2601.45
2370.49
2191.15
2204.73
2966.79
3540.78
3027.04
4440.88
5550.51
2032.95
2396.46
2166.89
1252.66
1235.34
1175.74
4220.75
7324.61
5299.57
2994.7
5089.71
3317.46
2453.62
1783.11
601.337
644.276
1525.17
2075.68
3933.76
3080.47
2517.22
1593.87
1457.51
1564.08
3839.8
3751.87
9473.98
6338.44
7862.83
4736.45
3145.14
1874.94
3272.52
3418.16
7678.08
6065.7
3226.15
2324.57
3862.15
762.011
5124.39
3525.22
2927.44
1871.72
1859.3
2651.17
2694.53
3028.77
1532.75
2348.12
4462.62
881.975
1799.62
1591.54
1339.54
3208.17
4112.71
5251.2
8357.92
5150.61
5281.29
6803.49
13838.6
17563.1
13305.1
13619.8
9775.54
6438.88
8722.49
7386.82
6310.94
3229.75
4568
6814.27
4591.32
4489.18
5119.3
2581.77
1201.7
2136.49
4073.56
5473.96
2443.92
739.584
2010.92
1627.63
1297.39
439.603
927.674
1495.38
3451.47
1611.59
2931.28
3759.07
5079.3
3488.65
1780.28
1679.03
3450.1
2697.94
5984.94
7980.53
7931.16
18339
9708.03
10377.3
9057.64
7337.98
5868.68
2683.73
11425
6823.47
5403.86
3735.45
1702.49
1307.41
2696.79
685.384
1502.22
1263.43
1486.52
3518.25
6150.22
2832.52
3407.74
2366.32
3995.67
5352
3257.67
5070.02
5159.98
4991.31
3271.97
4453.03
2674.4
2398.48
2688.5
1444.15
2296.05
1017.64
363.337
1835.59
3600.14
4402.54
2906
2529.73
1851.7
1466.59
3191.97
1308.73
1140.54
3574.53
6272.78
3577.94
1980.11
1148.99
3246.03
1664.85
2557.07
2494.93
4178.35
2264.78
3679.16
3796.21
1262
1555.22
2170.77
2169.08
2748.36
5414.37
4793.64
6981.43
5225.87
5399.48
11635.2
6988.98
3920.36
11826.5
7213
5016.49
2583.28
4783.1
3013.9
3212.83
2709.82
6367.62
4636.41
1651.4
2541.51
1108.6
587.104
766.027
1046.09
1402.73
1556.3
3056.49
4705.02
2530.37
2373.92
2344.9
1910.52
5411.88
5246.99
1958.28
2695.75
1322.31
4578.84
4658.77
1992.83
2349.4
2085.14
2680.48
1395.93
2298.71
925.024
1023.92
2503.29
1081
406.546
1246.65
2966.52
3492.09
5076.1
5176.23
6058.63
6894.54
2657.21
1838.29
1159.57
4924.35
3865.53
5502.47
6237.65
4048.22
1985.38
2164.49
4767.53
946.983
912.731
3577.66
1992.25
1612.94
2545.09
4198.86
4015.36
6156.08
5468.72
4840.37
3592.96
1972.14
5624.34
3064.22
832.024
3555.69
5817.85
3678.11
2688.48
4984.05
1822.17
2621.57
6532.18
6459.01
6099.47
4289.07
3156.56
3338.51
4372.16
5944.47
4829.88
2620.9
4793.45
3975.63
6616.31
6724.01
5086.26
4971.08
6858.4
9233.12
8699.05
3758.86
3577.17
1638.68
795.413
898.913
2723.58
2638.12
1948.08
2586.35
1973.92
2411.96
2015.12
2654.56
828.934
2255.26
2819.05
2188.92
1387.03
1172.78
969.837
733.876
2186.45
1730.46
703.791
956.218
541.607
1330.49
828.272
1732.73
5230.68
4190.98
5580.78
4171.31
6329.92
11671.2
5157.89
8406.24
8427.98
8863.31
6359.77
2476.45
2784.11
2455.91
3296.27
5259.2
3801.2
3318.08
3020.99
648.61
1452.59
1252.32
4428.88
3059.08
8429.44
3394.38
3503.58
3175.4
3430.66
2301.74
3941.68
2301.85
1174.78
1407.71
4745
4632.07
7760.67
11108.6
9461.67
8915.13
8520.91
8416.63
5205.38
3772.59
3640.96
488.74
1715.78
2354.3
4989.69
6005.75
3978.6
8079.43
2559.12
2360.36
2710.89
5046.46
5071.07
5151.17
3709.25
3365.56
4742.87
8723.32
8571.13
5850.08
3437.46
3181.27
1999.7
1605.36
2542.59
2919.23
3974.85
3973.6
2584.75
1984.78
2221.46
1770.85
641.574
1252.78
2978.5
3142.56
1451.75
3619.59
6254.41
2764.1
3421.61
6335.29
7705.4
2940.53
4063.95
2241.7
1185.31
2920.33
3500.03
1981.37
1003.68
1975.93
3293.96
4441.61
1460
1388.63
1352.66
1876.96
3975.44
1698.42
2311.76
1755.38
3585.75
3424.47
1032.57
1130.08
2182.33
455.552
1715.63
949.337
3227.11
1893.39
1800.69
1672.57
1773.44
1814.6
2691.58
2476.04
1210.36
3544.19
2516.64
2173.57
1471.25
2393.88
2856.6
2148.96
2396.55
1601.15
2381.94
2045
1680.28
4506.65
4580.38
4967.01
4949.05
5005.92
5604.04
5318.26
4169.43
5316.55
1515.82
3507.5
3722.64
2216.95
6441.67
7235.7
7902.1
2854.48
4274.76
8890.28
4049.01
4943.96
6709.4
4341.54
2645.65
2040.1
980.367
785.541
2024.7
5770.26
3486.72
1268.38
596.823
2846.62
2928
2603.46
3533.67
2337.49
3197.99
3927.84
2579.62
910.037
4006.79
2815.11
6372.86
2897.1
1576.34
2869.68
970.176
2319.92
4642.81
2409.18
1772.52
3195.82
1608.36
989.314
2254.67
2067.23
3113.23
3779.28
2387.53
4334.72
6569.9
3063.44
2518.11
1190.37
2129.51
3658.25
1990.55
1636.29
1992.28
4681.66
4458.79
2950.38
4002.87
3938.2
2303.26
2693.17
2842.02
740.803
4113.5
3162.25
3436.21
5558.96
2904.51
1481.95
2494.4
5330.66
5614.35
6043.98
5393.24
5425.92
4309.69
4428.22
4132.09
8271.45
7868.83
8945.56
1965.63
2858.13
4847.74
3206.23
2346.25
1071.29
1744.06
4096.03
2046.88
2358.2
2180.34
1158.93
1605.64
1588.95
1319.24
2205.16
4997.44
6049.57
7306.45
7838.65
4180.14
2301.13
3462.68
1458.23
3047.81
1945.46
1941.23
809.143
3129.46
2744.82
4066.97
1414.07
788.542
1637.19
1808.77
1628.74
5993.68
5214.27
3248.78
3908.7
2691.47
2277.7
1393.51
861.228
1883.67
2226.6
4447.23
1503.98
3480.47
3747.14
7941.26
8540.34
7152.4
5608.93
8451.59
4072.35
2470.71
2064.58
3746.33
6164.89
7240.12
5952.84
2975.6
3579.69
6122.22
3500.49
2763.24
3220.22
3027.05
2088.78
4192.9
4053.27
2512.25
1319.41
1475.66
1425.41
1643.12
1099.55
2473.13
4394.33
3734.9
1963.1
3761.46
6312.77
7855.1
6255.29
5129.62
5914.62
5420.64
1663.31
2689.41
3241.53
1762
2855.04
4857.16
5384.5
1187.38
7587.46
4510.9
7171.23
6317.61
5116.48
9498.39
10298.1
9196.54
5642.38
2471.57
3286.15
2832.49
2222.16
3090.66
2329.7
5205.74
6911.74
2799.17
1117.98
534.255
3579.92
3949.6
3914.97
4610.56
6358.11
6495.85
4377.96
5644.75
3281.59
5097.38
2966.35
3809.03
3694.76
2325.4
1233.73
2267.08
2269.64
4717.25
4846.07
2299.18
1589.64
1307.63
2005.82
1415.88
628.561
1594.18
2395.19
3404.45
2967.92
4406.26
2534.85
2157.68
584.651
2570.31
3242.37
4905.15
4305.86
5996.5
3046.91
2879.13
2476.06
1012.16
1177.36
1603.1
2317.08
2651.28
1425.29
4636.06
2735.83
2770.7
3539.34
3286.8
3357.25
4750.02
3910.04
2233.34
3973.15
1373.53
2469.68
2508.44
2496.35
755.371
3187.9
2733.4
2788.62
9691.12
11008.9
3854.86
4935.61
3635.87
2046.82
1818.74
4515.83
2823.41
3449.51
484.652
3355.43
1555.49
3384.59
4322.46
4717.93
6417.23
5176.68
4627.6
3119.5
5178.56
3165.52
1397.36
6343.26
5446.81
4970.4
8108.79
5297.28
4860.27
4668.26
6037.09
4254.51
3527.6
4549.17
2507.34
3775.6
2703.12
4318.79
5039.4
3373.19
4364.25
4127.68
6626.75
9635.86
12593.1
9050.86
5146.6
3705.61
2201.78
4398.21
3982.16
2072.24
980.02
466.754
1593.06
1946.07
1977.83
1735.27
1609.58
592.695
2379.3
2576.17
1534.56
3915.41
5645.53
3820.58
3189.68
4125.14
2885.04
2121.84
1432.86
1376.81
2580.23
743.733
1151.48
2389.94
1962.85
2175.7
3463.77
4800.12
4174.88
5286.05
1273.7
3191.49
1671.26
4781.31
2738.14
5271.44
5785.79
2064.73
2349.15
1905.77
1019.67
1799.16
2151.1
4616.74
7555.82
13162.7
13694.6
4175.83
4819.65
5902.84
7779.2
5774.93
3494.04
1303.13
1163.66
1721.97
2560.36
616.889
1909.51
1896.83
7501.98
2880.15
2018.34
1280.21
1940.94
3328.53
1303.82
527.985
1194.45
3867.4
4583.3
5403.1
8765.81
9351.13
3910.49
4166.42
6068.28
3306.65
1292.33
964.852
2379.97
3338.95
5337.59
1135.88
3510.47
2457.22
1543.91
2851.83
3296.57
1342.46
3222.5
4151.79
1798.56
1283.6
793.018
1015.7
1548.48
1377.78
4988.54
2448.49
5564
1402.63
3905.3
4035.6
5518.44
3975.54
3911.69
2627.69
3732.24
5564.25
3977.62
7105.98
5281.79
4846.14
6060.79
5499.2
7017.76
2072.72
1674.17
1777.94
1941.34
2800.09
2219.44
863.652
2073.32
2177.17
2367.23
2197.29
2172.17
2439.46
2807.99
4196.98
5374.96
2743.12
4190.25
4489.33
4766.64
3470.86
4684.52
1382.16
3156.16
3601.15
2536.11
2523.47
1086.03
1249.68
1769.48
1603.53
3411.15
5132.63
2583.59
701.18
2254.21
3774.44
4392.36
2536.8
3875.69
2577.61
1773.51
1442.11
2120.63
2184.3
2970.45
650.682
1860
1137.33
1007.35
1587.96
1430.77
1650.38
1995.2
610.655
2708.27
1746.39
429.117
2343.97
1518.2
1746.26
1357.89
2808.59
1615.5
1076.47
5154.91
2556.33
812.857
2531.7
770.935
6134.13
3649.64
4599.05
5115.83
1406.78
2987.22
2821.07
2399.24
1595.97
1135.65
2526.3
2347.81
2078.28
1519.09
2413.04
5367.29
5465.14
472.282
632.847
2795.87
2886.71
5331.36
3583.75
5185.37
5355.24
4408.83
3228.11
1777.74
2658.28
2080.01
1914.14
1012.52
3107.51
4569.48
1735.21
1336.5
1937.76
4866.96
6988.08
3659.41
2471.57
2650.41
5055.04
3271.22
767.852
2117.67
3256.45
7753.58
4495.79
3555.75
6007.31
9164.41
6746.06
4200.44
5466.24
4889.86
10339.2
10520
8021.11
6011.17
3436.64
2391.94
5520.76
2883.35
3278.7
1551.04
1234.02
918.986
537.959
1568.45
3225.83
1978.31
3495.05
2715.06
2616.51
2219.83
3872.19
414.17
2723.12
1644.77
1663.02
1414.4
2566.81
845.731
1060.31
1006.62
3440.19
2382.45
1380.43
6475.04
2766.06
4542.13
7599.25
8314.76
5862
6708.93
5765.79
5133.97
9404.3
6066.62
6938.63
3699.66
5394.99
4319.82
3132.39
3032.4
3474.68
7167.33
6116.78
3119.57
3406.67
4118.8
6760.98
5189.02
8016.49
5284.97
8085.65
10614.4
10168.7
8455.75
6595.33
9443.64
7633.87
6730.37
4176.42
3945.27
5598.15
9081.51
10142.6
6495.42
7156.69
5146.47
5948.79
5443.86
4786.42
4404.69
5787.93
1900.31
3799.3
2683.95
827.709
1645.63
3786.01
9804.17
5796.46
3186.05
2032.25
3692.21
4683.49
5259.09
7122.34
8885.53
9696.05
6086.39
2359.38
1607.82
2084.32
1905.04
2202.22
2651.38
2473.88
2495.91
1278.04
1081.64
1750.06
5019.15
3759.8
2640.29
352.911
2118.28
1784.79
1296.7
947.918
1812.53
1092.99
2105.55
1886.42
3020.15
4113.31
7354.05
7321.24
6287.79
4770.55
4426.66
2914.63
3185.42
3832.36
1303.35
930.084
2227.77
3525.06
1859.75
4592.43
2975.51
4357.51
4391.98
4054.29
4281.55
2577.15
1416.07
1419.08
761.144
600.973
885.505
1605.55
544.599
1930.63
2351.86
2118.59
2663.58
4719.85
4378.14
3016.8
4149.54
945.206
641.013
2465.66
2900.62
4172.35
4040.24
3796.51
1369.99
4015.41
1557.3
2398.52
1732.5
307.666
692.81
950.931
2431.43
540.168
853.235
2163.55
4261.83
1873.65
5726.71
3075.58
3714.75
6686
2475.58
3916.69
2984.01
3194.07
5284.98
7278.68
2961.18
1200.31
1587.24
1341.18
265.135
2067.25
2384.77
1279.08
1061.33
393.841
1352.02
1671.59
1884.27
2396.89
967.271
1818.51
2876.01
4185.01
4135
6887.59
5161.8
5774.17
7918.36
4325.08
9089.4
8620.81
6528.58
1361.44
1739.83
8737.17
7239.19
4334.6
3342.02
4526.45
5068.08
4119.3
1218.58
2803.58
1469.25
2445.78
2560.48
2374.6
2233.63
1187.01
879.744
887.453
3948.21
3201.47
5281.78
6340.93
8789.71
11367.5
5666.08
5391.39
4755.11
3535.74
4099.42
6382.96
3533.96
2538.11
3078.22
3152.7
2734.33
2009.9
3790.41
6865.9
4656.6
2067.83
1551.71
4594.19
1239.41
2367.14
1997.45
1161.12
1850.32
3445.56
4392.45
1467.59
2302.84
1332.7
1779.43
1482.07
2198.25
1486.72
1728.24
1712.31
3417.09
2808.01
4463.97
4847.84
3472.3
2828.86
3636.8
3729.73
6184.07
6189.73
2737.48
2106.93
3197.08
4404.04
4313.42
932.101
3261.9
1552.67
3309.48
943.959
1355.59
1121.31
795.245
914.441
1796.71
2070.85
5362.73
6964.7
5946.21
5743.85
3906.35
2823.46
2120.66
3092.54
3598.51
2348.58
1282.09
2151.86
1890.7
2440.98
1727.83
5195.83
4869.31
7166.85
5514.74
7763.31
2566.61
939.085
2713.63
1011.62
3466.23
2631.24
5270.39
2085.76
3081.58
8531.94
10919
16052
15625.7
19600.4
19578.9
24341.1
13903.8
11304
6433.19
6662.98
5448.73
1145.02
1688.83
5878.1
5580.67
5460.43
7151.02
4810.45
3918.49
2553.4
1077.98
2136.17
4542.47
2992.01
3211.85
1818.52
2209.18
5266.42
5020.7
5565.61
4072.47
3649.61
3749.73
2993.73
1776.54
1181.79
1963.21
3225.74
1507.18
833.071
1216.49
3448.51
9741.17
9826.96
9672.44
3141.65
1835.77
1089.25
4135.37
4876.73
2827.86
4072.89
3701.08
4501.24
3328.4
1076.91
1679.28
1084.32
803.47
1075.49
2432.31
3659.64
2527.06
5386.59
5956.64
2667.08
1005.68
2787.39
1898.52
1614.61
2146.78
1979.05
4388.78
2962.65
3895.57
2916.03
5126.35
5557.08
5065.64
5195.36
1719.68
3845.79
1254.92
414.212
1707.3
921.708
3417.35
4040.74
3487.47
5615.36
3735.27
6334.42
1878.21
1177.66
1096.4
1468.19
1942.13
4891.04
6775.83
8034.61
14515
5958.43
5735.82
6074.58
2646.63
3777.48
4447.62
4845.88
7181.83
5611.79
6379.79
5744.03
2498.51
1158.44
3702.2
4325.08
4395.91
3910.78
2549.83
3016.21
7673.86
4412.27
2680.1
2677.5
3560.42
3296.72
2157.66
1564.08
1957.07
723.796
2554
3334.42
4590.68
3318.49
1839.27
2576.67
2676.61
1052.03
759.974
1749.17
2864.92
2320.68
2648.02
3471.58
2305.77
4453.95
5409.29
5357.89
6346.16
7971.74
3059.44
1850.35
2458.34
1089.27
1261.51
926.695
6153.93
2557.13
385.586
1191.89
776.166
1854.96
4500.57
1812.26
1753.28
2512.93
3064.27
2055.06
7951.88
7688.99
7506.95
8061.22
12984.2
10615
4180
4074.9
5078.45
3281.44
3418.99
2603.51
1954.6
1884.69
3462.87
1204.75
2078.16
1015.63
2902.88
5577.04
7580.23
9130.76
6699.99
4160.87
2562.37
4855.65
2270.41
2599.27
5069.04
3951.5
3748.63
3002.65
5416.66
6712.58
3632.66
3726.7
3253.35
2542.98
2144.1
901.326
1896.99
4370.24
7214.16
8332.63
4838.21
6192.03
4333.99
3901.84
3136.11
3344.44
3660.22
2369.19
3330.83
3782.2
3824.16
3367.41
1275.44
3201.44
2418.43
3046.78
1528.63
979.564
3292.3
1547.21
1887.27
3352.89
3307.01
3147.87
5305.93
5069.26
5873.96
2932.93
3756.64
7912.15
6820.43
6195.47
7843.7
11511.5
2974.98
2842.35
4349.68
1780.76
2876.19
1229.47
4584.35
2181.99
1311.45
2210.49
3011.73
1983.12
2313.78
1797.05
2516.66
1842.74
1267.92
588.353
1505.2
2138.43
853.056
2170.12
431.37
3848.02
2128.08
831.646
1004.43
2652.57
2520.12
1487.58
1745.66
3701.35
5883.72
6072.3
7037.55
5822.1
6918.6
6230.56
5036.16
9801.91
13955.9
16090.5
11414.2
7821.31
5567.54
7138.96
8095.03
7120.67
8836.55
10845.4
7091.39
7727.49
17971.5
7808.13
4165.43
4672.9
3910.85
6350.19
4215.82
6214.97
8176.28
8139.76
7149.95
6507.71
8704.03
9514.44
7568.24
12306.3
9894.05
7188.64
6019.14
5655.13
5230.56
8028.01
10452.1
8690.68
5585.95
1991.33
1655.26
3056.45
4971.52
813.751
1334.22
1964.64
618.035
171.09
1411.43
796.169
1062.1
1496.91
1790.18
2849.91
765.146
1447.54
1884.93
1611
4179.52
2127.14
2270.72
1632.78
2010.93
3433.35
1654.21
2742.84
3643.16
6128.83
15489.7
15385.5
13841.2
6965.67
8673.3
5903.01
11395.4
11815
8744.35
6133.79
3524.42
4722.13
2170.49
2414.88
3241.22
4312.07
7684.27
2421.13
1590.83
3490.27
2977
4064.68
4954.29
4434.88
6311.9
5078.17
2890.05
2349.15
4347.25
3268.19
2527.31
5276.43
7361.3
5102.01
5192.97
4178.76
5129.08
2793.95
6423.16
9343.59
11710
10527.5
11952.6
7839.65
6944.67
4244.91
3881.76
5292.37
9493.64
6674.42
2802.11
6292.03
3058.77
3086
2714.09
2267.5
3151.15
3039.99
4295.17
3367.86
5088.72
7064.24
4134.3
1498.04
2218.16
1907.09
3810.95
1885.3
6632.61
4342.99
1371.35
2368.49
2754.6
1877.9
2595.73
3224.82
2142.23
2965.14
1305.98
1272.26
5381.38
5282.32
4124.69
5117
4061.31
4599.67
3102.23
3101.85
5103.39
1710.89
1607.2
1025.17
867.602
1356.75
1565.04
3272.4
2773.67
2185.76
995.103
3096.12
995.319
1724.76
2219.57
1825.55
5444.14
1755.74
4313.01
1982.18
2113.66
1096.63
6061.95
5527.6
2368.24
1790.5
4976.9
7769.61
11254.1
8031.84
10198.9
5096.66
4284.57
1296.89
649.319
1239.91
1870.74
3111.9
2703.34
5725.49
6329.88
4170.52
4950.42
6317.33
4966.47
3416.81
7996.5
8678.31
3210.83
866.547
740.654
1536.24
909.749
4882.09
1860.17
1452.2
1503.48
1156.16
2405.91
430.859
1888.42
3002.56
2427.21
3457.19
3901.57
2013.81
1819.1
3414.29
2196.4
2773.01
3437.25
3327.44
1743.77
3298.89
2416.31
2295.09
6405.16
5930.31
4929.94
2507.04
3879.66
3846.26
5252.16
2187.74
2444.45
3619.96
1243.33
1850.1
3096.49
2905.2
3212.93
4497.26
1403.61
952.187
3168.25
3587.42
2759.52
2397.99
3872.8
7870.8
6813.9
9508.94
10311.6
5293.37
6601.6
4047.22
3251.63
8946.78
3151.87
5328.18
4290.54
9286.74
8928.79
8530.63
10042.3
13556.1
5944.92
12578.1
8359.56
9127.79
8436.6
10095.4
7980.89
10487.8
7258.77
12302.5
5083.4
5186.45
7586.44
4499.4
4100.71
3175.46
1783.86
4300.02
7736.25
6020.95
4235.1
2738.96
5629.61
10892.6
17058.8
20982.7
13720.5
13165.2
20858.9
17012.7
11831.1
9907.66
10103
15003.2
13055.3
7385.74
6508.69
6720.26
10394.8
6264.95
6511.73
8264.83
11121.4
8079.85
4849.89
3807.23
4094.06
5535.5
9937.47
10122.8
10553.9
12222.9
14493
12567.9
12472.8
9808.02
11383.5
8605.39
4078.7
4243.46
7594.17
4497.85
5114.7
1931.91
3749.16
3308.45
2491.5
777.696
2188.32
1088.36
3700.13
1423.02
1494.64
1492.93
1447.24
3440.99
3923.2
5839.63
1717.78
662.16
1413.81
2649.46
2188.94
955.112
4591.42
3216.86
482.531
2804.97
2718.39
1519.79
1528.57
1913.65
1243.75
2119.57
2591.06
1994.36
3969.2
6657.3
6846.74
8423.25
9512.98
6741.63
4702.89
4321
4747.8
4016
4278.75
4141.41
11195.4
12695
12471.9
13329
10008.9
12816.2
11541.2
7388.43
5211.03
4966.26
6741.36
3024.04
5676.87
5235.23
1897.7
2146.84
535.606
1305.31
1929.9
1565.49
2463.18
2161.09
2557.38
1253.58
941.325
1546.79
2580.35
4522.01
2833.7
2257.77
4596.96
2909.26
1894.96
1135.83
2069.63
2827.64
2402.91
2206.09
3987.29
3937.32
1754.85
1065.57
2269.34
1613.96
4747.55
2302.49
3691.57
3870.81
3811.85
3289.27
5451.7
2088.31
3281.02
4446.72
1681.45
5589.1
3432.2
2096.51
6143.4
5801.86
2044.7
5884.32
7914.36
8176.34
5576.79
9023.07
7323.04
4259.01
3543.97
3344.43
2484.16
6709.09
2025.12
4732.37
4418.91
3511.21
1579.08
3418.67
2658.91
3719.31
2600.86
2740.37
2411.25
1292.62
3183.22
1711.83
4016.14
1947.29
3266.9
1294.63
1005.01
1910.82
1124.2
1271.54
1544.35
3019.06
3414.69
5316.61
6858.94
5325.36
6764.95
3414.56
4081.9
3307.2
5643.15
2464.24
2658.42
618.447
5858.69
3528.36
6864.09
6814.41
3744.36
2787.61
3714.6
6583.34
3813.26
6241.91
6738.91
11620.3
12090
19244.2
20039.6
21301
15566.5
21211.7
19789.8
25455.3
18804.2
20371.6
20628.1
16052.2
12213.3
8744.33
8000.1
8032.3
4705.72
2411.06
5148.42
3149.2
1286.94
5101.63
3117.72
1819.4
2259.05
3196.02
2232.7
2107.83
2111.94
2967.8
1849.28
1973.42
1501.48
1239.44
3151.68
3328.95
3388.3
5568.23
3754.4
5809.97
4031.03
4565.04
6460.91
5257.92
4831.9
4481.25
2958.35
6584.39
5287.07
3471.06
3578.24
2433.18
2165.28
3807.14
6694.29
3704.49
3549.82
2476.71
2734.91
5757.18
4645.58
5388.84
4683.73
4714.34
1914.26
2933.12
3056.31
3649.54
1850.46
1957.73
3154.44
2782.07
2517.15
2498.42
1941.42
3845.49
2986.51
1439.38
948.091
1117.06
1921.85
1544.4
2143.88
3143.48
2973.72
2259.69
1286.15
948.766
1437.87
2769.01
1906.28
2360.56
1182.87
1384.82
1292.85
1690.42
3636.63
813.379
665.333
2464.92
2986.17
2850.15
1355.75
2237.32
1169.94
2795.7
2267.69
3234.59
2012.53
3074.24
3550.09
1514.79
1691.32
2456.33
4091.6
3170.57
6491.8
3225.45
2204.9
3902.97
5644.06
5540.07
2955.03
5515.22
5126.31
10367.4
4216.85
3394.07
1987.64
2292.44
3171.91
1531.92
1239.46
3138.52
1849.87
1940.7
2143.95
3276.62
2653.44
1800.88
1518.57
3188.25
3929.48
2537.13
4548.95
2471.11
2199.34
3135.75
2805.45
1811.68
1806.71
5147.4
5353.18
12522.4
10065.6
8639.81
8360.69
4171.67
1890.18
4230.96
7394.95
2407.71
2222.96
4388.66
2436.38
1792.99
3504.79
4811
4557.71
4479.27
1348.92
3575.41
2182.06
7177.97
6812.88
8531.58
5580.68
2787.13
7140.02
4272.31
5507.19
2491.71
5225.56
4590.22
4601.96
5631.93
3812.88
1308.06
2891.75
3050.33
6723.75
2770.72
6217.75
2560.13
4032.75
2782.56
3699.85
2990.76
4840.04
8152.75
8481.74
6259.08
7633.96
5156.09
4232.05
3391.3
4292.94
2041.42
2056.66
1202.01
3027.97
4059.67
3241.15
2146.09
2521.88
3294.07
6193.49
8726.92
5536.44
2449.27
1672.89
4411.21
5797.57
4738.37
2848.62
2804.9
2487.53
2079.95
1336.25
1090.34
2441.41
3098.31
4364.82
6506.68
3765.07
3748.94
2120.73
2052.65
2576.99
2264.66
2434.93
2423.38
2578.1
3024.38
5918.45
4501.74
1893.87
1087.18
3613
2214.34
1752.94
4424.64
6007.16
5659.73
2530.02
1923.54
1913.71
1766.56
4999.28
5760.94
4956.93
5424.09
2711.17
2715.98
2566.93
5863.4
3896.72
5266.1
1295
4005.21
4498.96
1436.82
949.133
3358.97
3283.97
2744.29
1768.5
1364.9
2052.07
2895.37
4082.26
1620.58
2179.18
2069.93
2504.38
2313.47
2457.79
3190.04
3874.42
9404.74
4800.79
6047.6
4231.21
9684.07
13341.4
13370.9
10382.6
5751.72
4792.66
3689.61
2769.27
3038.93
1342.38
1057
1287.3
3321.26
884.591
2547.33
2410.51
2710.33
4271.73
4514.56
3058.55
1194.5
3490.68
1072.11
1533.17
1082.97
3121.1
4349.69
7320.28
7880.14
6756.74
7308.96
5924.62
3122.37
3137.43
6884.37
4007.29
6190.06
2222.01
2151.25
1316.97
2864.55
3779.43
3811.12
1339.1
2160.58
1260.12
958.47
3609.75
948.72
1761.79
1316.65
2108.16
2555.08
982.273
3417.17
4042.93
1740
1310.59
1501.7
3325.09
3415.74
2552.76
2221.49
2081.44
7439.41
3404.88
1796.99
350.75
608.609
768.292
2690.24
1069.74
1483.26
5590.79
2288
5533.93
5799.76
2844.28
4058.09
5360.31
5457.96
3860.4
4670.29
3889.36
5730.23
4815.72
1725.43
1065.32
1424.78
2599.19
2297.11
1738.36
959.107
3072.35
2794.66
2372.24
3011.46
4643.08
3175.78
6209.08
4198.04
1589.19
1841.69
1383.93
769.475
1742.44
2536.23
3372.19
4781.73
2568.33
2234.58
4998.44
4338.67
2444.06
4527.47
3528.54
1543.57
5741.56
2906.86
3396.4
7651.75
5263.39
8143.66
3835.86
4674.91
4875.08
5685.06
7635.7
12056.4
11672
11782.7
9781
16712.1
8842.89
5632.54
8236.92
9835.3
6600.25
8445.86
7457.19
10903.2
8883.29
11540.5
8049.93
2263.4
5312.22
4790.48
3999.96
2051.26
2254.35
3792.97
847.938
1773
1269.7
1242.42
1426.96
2018.67
3040.91
5749.54
4833.81
7163.42
4816.78
4633.83
2415.94
1569.42
1553.76
466.774
1241.54
1952.44
3183.36
1290.16
4015.23
4889.43
8778.92
15720.6
11260.4
10045.1
7390.52
8385
6602.65
5142.64
7555.13
5163.54
5383.15
3883.62
4174.68
1652.87
1119.94
373.45
987.938
1005.44
1184.56
845.336
1094.88
187.211
2460.38
1675.63
483.179
1938.13
1589.07
1436.48
3172.34
2597.12
3922.48
6634.58
3169.05
3622.17
2707.62
1750.93
3236.74
1261.9
3629.42
5015.94
3512.79
4079.91
3896.9
6110.47
7108.82
2649.38
5690.2
5158.2
3650.54
7597.2
7075.48
7504.95
4430.8
6969.64
6316.93
2820.5
1861.29
2494.78
1094.11
1159.79
953.054
2070.09
949.472
730.249
1955.14
4099.73
5708.94
3102
3371.56
2040.29
1465.22
1440.28
2531.02
2544.73
3472.67
3270.73
6108.2
7108.43
3813.25
3085.51
2261.41
3919.87
7817.57
10284.9
13504.9
7058.52
3227.08
6951.1
7441.74
10155
10522.9
9214.8
4274.37
4783.33
5664.16
2873.36
5726.08
1614.08
755.226
1472.32
2037.2
1523.11
1608.78
1802.05
2098.11
1487.09
1784.6
3117.19
4342.5
2781.51
4028.83
5409.63
4634.96
5620.71
6857.38
7525.02
4071.56
4525.27
5076.52
3494.46
3659.36
4650.07
4544.46
1921.39
2869.14
2394.23
1328.03
1006.62
4527.77
3336.76
3182.07
4683.3
1466.91
2238.48
3652.67
3442.27
3576.3
5046.74
3983.75
1245.08
2251.82
5483.74
9018.12
6570.22
4495.29
2975.15
3134.16
525.188
1135.6
1062.43
1196.29
3879.59
2232.44
1496.75
351.656
2376.52
3032.25
5894.66
5065.4
6209.14
6688.34
4553.81
5763.98
4593.94
7121.12
10473.2
15119.9
10897.8
9075.35
11715.4
11621.3
4777.54
2817.91
4077.42
4281.08
2103.5
4376.5
3614.04
2468.9
1902.85
1369.67
2587.81
1852.28
2389.01
5168.15
7106.98
4775.02
3652.13
2673.28
2670.61
5162.02
5273.68
6513.11
5472.14
5265.2
2585.17
6377.56
6248.98
4047.3
3120.62
1968.33
1767.2
4460.23
4793.06
2106.38
2404.6
602.202
3286.03
1789.69
5902.13
6820.74
4716.48
1346.93
3024.17
4314.31
2312.5
4113.99
2135.16
2990.42
5226.05
926.726
1315.39
2087.41
4116.41
2761.71
3648.25
2003.23
4066.17
3070.31
3341.46
2092.33
2549.29
1406.18
2699.62
2855.99
4572.31
6673.22
8162.83
11297
14120.3
11255.1
14785.4
8940.81
13141.5
11553.8
8861.1
9148.27
8106.35
9047.35
9136.86
9708.3
11778.7
7499.65
11457.7
7341.74
9133.59
3830.56
2838.84
2115.65
4110.88
3781.25
1112.31
1464.42
3197.55
3148.4
5625.47
5193.33
8900.38
4465.43
2369.7
2701.33
1638.54
1742.14
1525.89
3034.28
3377.91
3138.29
2273.56
1638.11
2058.34
5325.03
5530.78
4058.63
3854.48
6283.3
7369.07
7205.91
6784.01
3078.89
1959.3
3945.64
2594.44
3063.14
3598.2
2696.08
2176.31
1576.14
3066.98
5742.3
2738.41
1940.88
4164.66
3779.11
7093.27
9911.43
7398.57
5038.18
6073.92
3515.28
5554.14
2744.06
3860.58
1105.88
1797.54
2906.5
2197.04
1688.63
3266.53
3372.88
1358.51
1459.14
5241.19
4479.86
4407.18
1884.9
2183.96
3298.4
2314.18
1598.23
521.867
915.771
2557.38
1540.2
1347.01
1586.35
1614.39
612.25
1665.21
3978.73
3569.38
6746.79
5763.83
3979.37
3947.53
7518.66
6114.18
3685.44
4678.73
5534.89
5792.08
4976.82
5813.49
4222.64
2477.48
731.474
2174.02
4026.97
3150.82
3646.95
2502.79
6094.65
9433.6
4686.66
4601.56
4180.22
1598.75
3926.96
4446.3
4726.48
2879.1
3691.32
2877.51
2612.22
1589.29
3816.74
6082.73
3522.33
6154.89
4259.93
10221
6856.92
7674.05
8472.8
10675.7
12667.2
10019.1
9244.09
9796.42
12006.9
8870.53
10905.8
4172.13
5779.41
4974.7
2166.16
2953.3
3756.1
2944.94
1740.22
2623.3
3120.46
4243.15
5584.5
3784.59
7694.28
5041.65
3190.71
1477.37
2463.55
2018.11
2637.64
5412.69
3199.17
1816.33
2301.47
3639.24
3538.99
5314.44
6690.41
3589.86
1562.46
1411.76
1170.9
679.7
975.127
2069.13
4747.55
5725
3827.18
5384.21
6712.24
5025.02
4814.69
3266.92
3258.18
7218.08
1781.96
1432.16
1550.56
4225.33
1505.07
1283.09
4504.26
6741.24
6938.38
7506.67
7144.65
3450.39
3346.27
7648.19
6776.7
6085.99
2541.85
3732.74
2850.22
3296.43
2956.81
2808.73
4081.81
6093.45
920.17
4690.13
1350.98
2594.83
2754.76
2539.66
2216.79
2745.51
1886.78
1818.02
1744.36
2843.01
4203.9
2630.26
1229.06
646.156
2313.13
1656.61
3462
3673.26
1923.33
1504.55
3362.79
964.292
3696.43
1845.8
2175.96
1821.98
3865.16
2363.54
5441.98
3167.28
3655.7
5459.02
5701.06
5293.27
3801.01
2987.61
1083.74
3241.19
4122.75
4917.31
5620.95
8495.11
9789.37
6086.15
3792.82
1998.04
5820.4
3818.49
3126.05
1018.33
1044.1
1373.57
1334.53
1631.57
2148.75
5194.58
3082.78
881.29
1392.94
2326.19
1664.24
1383.3
2447.45
1187.91
1239.11
1518.07
1639.07
1652.92
2440.7
1634.08
1036.72
3011.45
4994.03
2209.38
4943.59
4706.56
5433.7
3140.12
4166.51
3388.62
4303.37
1922.11
1595.01
2379.04
907.927
1894.98
2972.94
5590.16
7009.85
9111.78
7539.76
9138.25
4112.59
2994.38
1418.5
3082.86
1734.86
1297.64
2649.09
1816.22
1208.61
1257.51
976.764
2285.01
1073.9
2147.72
3384.82
2757.81
3934.4
1145.47
784.427
1683.87
1220.27
3043.11
5099.22
4601.74
1080.48
2067.77
2219.04
2273.45
5190.78
4047.65
4396.32
2805.33
3500.64
7013.04
5238.48
7052.68
4753.08
5815.23
6730.46
3360.61
6835.41
2743.56
2722.1
2568.43
1151.25
1718.75
1752.11
2685.24
1454.2
2618.31
1606.16
3383.56
2870.09
2389.7
1421.66
1826.5
1219.43
906.227
3146.18
1329.03
804.419
3001.77
3330.09
4995.25
2073.69
3261.89
2537.06
3269.32
1846.35
3544.07
1459.62
2634.28
2716.31
1588.27
402.725
2274.43
2252.93
8356.97
13086.2
11617.9
10619.5
9085.02
11880.4
6478.97
3918.2
1060.39
1381.91
1420.33
2381.64
955.798
2517.37
4082.38
2078.54
4558.86
2182.89
1513.37
976.257
2738.71
7319.16
7257.7
12167
8232.04
5722.53
3666.94
2463.95
4905.2
4221.1
4371.06
9032.04
5299.45
5075.67
6296.86
3278.51
1411.56
1288.31
1420.39
3133.83
1449.57
769.557
1415.2
1741.34
2882.35
3173.95
6801.29
5613.07
4066.71
2663.94
1437.1
712.125
3193.43
3577.81
1945.72
2782.7
4788.23
5104.45
2621.24
3170.15
5534.27
5268.55
3239.16
2051.33
2941.1
6421.66
2498.07
2808.22
2709.31
6141.43
4336.65
2696.11
1801.69
1598.73
1171.36
2850.56
2501.18
2142.2
2411.37
592.1
1291.73
826.893
951.221
2878.98
2412.66
1602.3
1768.94
3295.39
6490.04
5274.43
3824.45
1813.74
1679.24
939.741
3815.89
2124.23
2224.55
2859.67
1472.98
853.032
3290.81
4505.58
5410.58
4180.6
7422.35
1373.47
2228.04
2238.57
3352.89
5751.38
6601.91
9462.95
14592.6
10707.9
9956.76
9410.54
5127.95
5472.08
5189.33
6697.55
4938.36
3076.52
4173.04
2767.17
2403.53
2833.86
6535.67
4030.59
5340
4610.72
3729.61
1900.11
4638.63
4034.63
6914.41
1895.96
3523.55
1848.17
2680.28
4592.74
6922.64
9418.11
14612
10825.6
6137.44
5306.13
4053.14
1036.74
1276.55
4081.58
5673.57
2732.86
1285.58
1639.48
1261.94
3258.98
4809.07
8031.73
5187.48
5020.61
1781.92
1874.19
1125.56
1282.7
5398.3
5025.66
2751.46
3095.81
545.186
1802.69
3134.65
2381.72
3249.99
2586.96
1999.93
1057.77
1265.93
1111.02
2108.05
3884.54
3631.93
3015.92
2188.84
2145.72
1287.3
860.902
1324.42
801.859
2246.35
1813.2
2192
3908.31
3952.16
1754.59
1311.02
578.85
3230.32
3522.62
2356.12
2035.63
1644.25
948.322
1921.52
3612.71
2480.03
2241.06
3144.19
1710.03
1541.51
4041.72
5867.04
2697.7
2200.56
3393.09
3301.05
1577.71
1183.08
1545.37
1606.2
3697.09
1224.05
667.938
2277.46
791.51
1349.59
1376.06
177.922
709.442
965.022
2924.54
1050.91
3169.38
1880.08
3910.97
2521.17
7590.96
1343.57
2725.48
5612.99
2711.67
5316.25
3333.63
3198.04
4051.41
2238.05
3643.19
4904.74
5478.55
2296.13
847.658
1236.91
2573.54
3569.09
3341.42
1332.25
3591.18
2585.32
6280.9
5155.05
2005.37
2382.78
3177.47
951.328
4576.15
3927.72
4780.05
3337.68
2264.44
1070.83
1165.39
4130.9
4416.81
1468.33
4091.12
2066.76
1706.06
3204.57
4106.81
1331.95
1129.41
1942.17
2844
2606.36
2497.9
3197.41
3684.03
4351.96
4682.83
5682.96
5656
4047.65
7159.13
5971.16
4575.13
8614.02
7490.7
12132.6
8619.29
6970.05
8653.93
6383.02
6906.34
8591.98
3916.41
1275.96
3244.34
2540.48
1376.36
271.601
389.266
2739.03
2390.25
2798.06
3331.47
5087.91
3281
2904.72
1742.34
2637.57
1315.29
1143.24
2223.17
4946.91
3675.29
3425.76
4546.52
4931.68
910.657
894.35
1337.45
5797.76
6322.16
6412.52
5254.7
3290.03
3804.99
4468.38
4748.43
6561.32
2109.77
2126.3
3620.45
3190.99
5552.12
4158.63
7005.27
4963.16
2417.5
705.306
2065.74
1008.31
984.169
2316.71
1124.12
1443.28
3163.8
3336.12
3229.34
2246.12
659.629
2142.73
1322.35
3800.55
4043.15
4483
6380.15
2582.09
1766.53
2944.3
1649.87
3729.07
1259.59
1913.84
3198.36
2049.1
877.729
911.454
5044.53
4779.85
7242.68
7196.08
3675.71
4855.94
4829.99
4013.78
2031.57
1212.73
5510.29
7763.04
7725.27
7997.76
6090.89
3591.01
7499.38
7614.62
6131.24
12165
10394
15479.4
17837.9
16976
7991.78
8945.27
10454.6
9947.78
9042.6
12126.3
6830.07
7956.53
9712.52
5309.79
5122.1
5231.9
6855.68
5270.37
6004.96
6751.47
8015.63
12226
4205.66
2628.79
1803.75
1521.47
1827.67
861.554
1498.44
1964.21
1184.73
1969.68
2496.68
4425.2
5645.87
2528.25
3326.68
3436.77
3059.56
8174.32
6120.27
5495.52
4270.87
2643.53
2728.95
985.84
756.876
894.003
1222.32
1422.92
1644.43
2562.97
1511.29
2029.3
3511.73
2337.89
1884.38
3045.35
1800.48
2785.7
3664.67
4399.04
5436
11123.8
10014.9
2813.67
2757.27
2266.14
4275.35
4971.87
5014.76
3202.42
3602.1
6505.81
8089.94
11850.6
5073.89
3372.54
2776.94
2037.67
2274.53
1300.07
1410.93
1815.72
1661.81
3185.96
3058.96
3355.66
3734.23
2707.4
3540.97
2958.95
1369.13
2424
1544.97
6049.21
6714.25
8310.85
3077.51
2570.04
2615.49
2185.52
5663.22
4994.44
6606.34
3920.49
2232.03
1213.17
1513.06
1780.85
3592.94
7009.81
3094.21
2226.9
5188.64
6472.61
6645.9
7452.61
4190.46
5637.07
3603.76
5391.21
2816.47
3353.35
5037.1
9267.88
5285.71
3903.32
3086.8
5603.01
5289.26
2893.64
1302.01
1564.15
1567
2005.03
2747.13
3894.15
1097.51
1308.29
3227.1
1462.6
2074.47
652.98
1040.69
2660.97
4225.26
5865.91
3734.53
4806.31
1098.88
2070.76
1194
2155.3
6474.83
6767.16
4416.05
2803.72
6812.06
4380.61
3140.67
1662.88
3424.35
2218.95
4269.18
3503.26
2183.19
2691.7
3088.39
2298.6
3655.4
8363.44
8191.92
7744.42
3964.17
4299.09
7903.65
2648.3
1919.04
3762.45
6861.24
3166
1967.98
968.41
1206.51
1913.3
1364.9
1079.75
1910.62
1926.61
1499.82
3004.41
2243.65
4217.14
4433.56
3258.11
805.864
1961.76
7369.36
1883.9
7764.88
5314.06
4323.32
2356.86
5516.29
4158.37
7687.36
5193.95
5299.54
6462.95
5428.29
3381.51
1385.14
2466.89
4314.43
995.481
2279.67
2945.05
5423.78
12088.3
8991.9
6976.9
7524.5
6701.68
7455.86
4070.78
1688.17
883.522
2337.74
2039.87
1771.77
2547.19
1067.18
2858.78
5132.21
6252.8
6083.45
3601.87
5759.24
5397.78
4068.72
4999.32
4747.44
5611.01
5987.77
7322.42
5945.45
12816.7
13041.3
13325.5
14254.4
13145.9
9274.14
4656.97
4714.65
1440.56
2809.24
3006.99
2610.77
1196.33
2259.99
5646.95
6852.97
6010.07
3289.82
1182.52
1891.9
3071.21
4060.73
4535.21
9922.49
7556.45
2840.9
937.201
892.568
2101.74
3661.51
1932.33
1331.26
962.057
3403.25
2236.15
1517.26
1678.86
3619.86
1885.38
2636.92
4084.71
6701.11
7027.18
1937.17
2269.94
2705.42
1807
695.67
2127.36
670.532
934.847
1094.97
2111.05
2340.96
1149.15
1690.47
4451.1
4709.66
4458.55
4353.68
3046.1
5044.2
3932.8
5852.45
7282.88
9399.34
16796.5
5986.56
5888.48
2941.88
2441.06
1972.32
2762.84
3291.96
6033.48
1773.97
1280.63
1237.12
2458.79
1681.34
1043.49
2201.41
3778.45
2955.38
2248.41
3798.41
2734.38
2170.8
5217.03
4539.51
6312.41
3507.69
5958.97
4627.55
6475.48
3964.59
2259.59
2822.02
1986.28
4935.3
2749.81
1990.24
3939.28
3359.92
3897.4
2045.74
1475.93
3509.32
1194.27
607.269
2466.2
1226.6
1454.05
3198.53
2436.45
4174.31
1815.89
2339.11
883.216
1565.26
1963.3
969.425
1790.84
3615.17
1702.13
3406.9
4328
3108.8
2317.62
2013.27
1279.16
813.831
1665.42
5962.02
7465.31
8941.65
6341.89
4979.72
3357.02
2647.93
2971.74
4553.03
3085.92
2593.08
1991.36
6070.95
2112.55
3219.37
4136.28
4671.91
4012.57
9766.33
3449.31
4228.65
2780.9
1182.57
3725.45
1640.1
2052.78
1259.1
2387.52
2493.53
3238.63
1393.79
1699.5
1509.28
707.633
3963.58
5491.24
3245.57
3016.35
1620.12
1520.38
1013.33
6067.71
6958.01
6998.3
3373.61
3598.7
1938.32
2337.92
2076.56
1958.04
3512.96
5581.43
8602.74
7407.86
8975.6
10228.2
5710.57
3991.99
2691.48
918.879
995.201
1048.05
747.099
1522.61
3492.27
2297.04
1649.55
6049.34
6083.85
6571.13
2122.16
2787.84
1710.38
2134.31
1605.81
2157.75
2161.27
876.498
3071.05
3287.72
2173.25
2868.85
637.889
1444.88
5221.65
5378.39
4970.27
2153.25
2837.95
7733.99
4695.57
5079.5
7148.81
3078.12
1414.05
1654.27
409.595
2602.69
1933.37
2834.5
2597.94
2639.57
1779.47
3969.29
1747.35
1679.13
3201.46
4580.81
4013.15
4045.14
4608.89
4702.38
7186.65
6941.23
9162.02
9422.97
3966.88
5995.6
9176.03
5267.12
5822.69
7406.99
11245.8
2473.55
2226.9
497.216
4569.58
3856.54
1570.63
1831.63
3085.82
1881.36
1894.98
2377.83
2304.36
7907.12
1947.98
2856.52
5313.73
3476.51
1351.83
1426.86
1935.61
2871.76
4404.36
5558.97
5402.21
3930.15
1633.62
5088.71
3813.14
1791.26
590.823
1420.95
2369.54
3184.94
1617.97
3462.35
2006.91
1305.66
1161.78
2784.88
1021.12
2940.1
2879.08
4147.52
3306.75
1841.3
1189.42
1148.27
1862.37
2040.57
4235.75
3039.16
2456.06
2316.44
614.135
2908.19
1522.75
2698.35
2564.51
1340.87
1546.15
2042.71
1602.57
432.918
2444.01
2419.96
2718.45
1222.43
2180.29
2597.04
2186.92
5246.18
4325.59
3323.8
4216.68
1758.33
2519.45
1827.64
671.08
752.347
983.403
421.057
925.566
1708.58
2288.88
3990.11
2319.19
2318.21
1622.53
3056.21
2149.96
2071.78
3244.02
4642.46
6477.98
10009.9
6608.63
9249.41
13123.2
12350.2
9117.74
10983.3
6914.77
2753.25
2966.02
2431.02
1486.15
2283.35
764.324
2226.85
5168.19
664.081
2042.42
3634.68
2386.77
1716.57
1281.19
3348.97
2370.35
917.864
1869.56
2207.51
1076.91
3492.87
3472.47
5576.56
4909.67
7771.6
4113.98
7898.88
4862.12
7386.55
4081
8016.87
9370.65
14496.6
14314.7
6751.23
4570.57
4376.45
2691.01
2741.79
2210.34
1023.97
807.884
1387.28
2642.92
1517.27
2760.86
3016.23
6444.04
5770.93
2040.83
2617.04
3816.76
2846.62
6306.75
7784.38
3789.79
4179.21
3782.49
3114.61
1114.99
2184.37
3521.75
3255.05
5260.35
960.566
2004.16
2967.96
2065.38
3124.82
2913.23
2488.57
1806.95
3723.64
860.327
3187.66
6159.95
1974.05
1267.82
1981.32
2349.52
1744.02
2530.86
2970.32
4197.14
3352.35
6006.04
5633.01
3956.1
5762.59
6676.25
3984.2
5061.07
2957.24
3003.8
6086.44
3004.19
3758.87
910.279
742.686
2499.73
2983.88
2356.06
1773.79
3325.56
6689.27
3911.64
6834.94
3761.89
3468
1869.05
2885.16
1805
3296.23
5397.83
5128.61
5955.34
6360.96
6640.55
4669.1
4044.62
5173.3
2202.11
1924.83
1724.73
2316.71
2923.92
1060.19
1200.97
582.815
1610.1
1674.2
4822.08
2000.16
1011.25
1635.18
3959.4
4108.09
2015.97
3687.22
2058.82
6471.84
5116.1
12624.2
13970.3
5794.56
6015.13
11917.6
9648.11
9883.6
5492.27
7786.33
8167.08
10823.9
12685.7
16382.3
16048.3
11117.6
12312.7
8804.98
6328.03
7431.76
4626.8
5870.83
5325.09
2185.72
3018.59
3754.09
2980.89
3411.72
3146.98
1481.31
3496.38
2789.64
3549.36
3795.48
4359.31
3760.39
4300.42
4482.43
3853.86
3244.1
1172.42
4114.83
2980.06
2821.31
2128.63
3683.55
1760.57
1720.04
2638.92
4335.19
3053.06
5163.92
8004.88
4426.36
5353.91
10574.8
9202.06
7065.37
9349.74
8440.68
8632.24
8162.75
7492.66
6478.71
5806.51
3614.4
2057.65
2190.17
2553.16
2004.75
2983.38
3775.32
2848.86
5026.73
6319.96
10269
16500.7
13737.9
14322.3
12637.7
8732.27
9617.61
7982.37
7524.91
8954.37
5904.38
4599.51
4194.54
2590.81
2615.95
996.227
3648.2
6720.24
7269.55
10254
9114.29
9684.64
8623.89
3484.65
4596.45
5891.28
6927.35
4571.59
8021.62
6819.25
7326.51
6818.12
2186.72
2556.81
2270.73
5108.32
10938.5
8235.78
5949.85
2995.27
3175.92
1783.4
1718.89
1133.61
3410.79
2884.88
4217.73
3521.91
673.908
1608.63
1753.3
3247.13
2464.05
2816.21
822.993
2663.24
4767.56
2060.71
4230.2
3617.1
3268.55
2325.68
4207.12
1460.4
1248.83
3320.66
1051.82
1397.47
1907.77
2019.52
2645.75
1809.13
1864.25
2299.57
3409.98
1163.42
760.788
1417.11
1023.23
1865.81
6314.78
4957.38
3876.65
3267.73
2983.32
3723.88
3226.32
3767.51
3812.57
4140.19
2238.42
4077.24
1968.04
4026.12
1746.8
3778.49
3828.5
2133.99
1678.61
1481.69
1285.53
1459.35
1417.3
2416.23
1630.98
1440.7
2995.43
3756.26
5576.58
13148.1
4342.24
6677.52
3144.93
1569.49
2143.86
2836.16
1427.72
2454.88
1169.64
3107.4
3938.51
2092.64
153.617
2762.75
3439.43
1948.8
2269.53
2183.98
3041.8
2070.27
1271.03
4295.36
5269.73
3866.17
2263.59
4298.09
4352.44
5772.58
7288.92
7265.71
8950.8
7841.52
7668.36
3055.42
4344.36
1607.89
2649.02
865.181
932.373
2286.06
1511.06
2120.69
3120.58
2714.52
2009.54
2206.76
1953.65
1232.77
2547.03
4086.49
3229.44
3718.03
1632.62
1884.75
2202.34
3662.05
2240.64
2577.95
1114.26
740.577
3369.69
6757.43
5293.98
7587.27
9057.62
8348.2
6460.84
9454.38
3450.17
4951.08
4218.33
2514.89
5064.05
4317.76
8633.9
8194.85
7966.03
9940.98
3598.03
3584.07
2061.27
1285.51
2181.9
4115.18
2620.04
4478.13
1272.32
1950.83
1611.53
1384.84
1825.62
745.425
3020.2
4274.82
3843.5
3948.94
2199.05
3383.12
7215.52
2335.52
1338.22
2333.6
2765.85
1253.99
690.14
2000.44
932.983
437.292
2157.5
1720.26
1224.55
1933.47
2490.3
4456.75
1782.27
903.087
2138.25
2576.36
4442.95
7751.34
6272.28
2036.66
1968.26
1920.97
2065.27
3529.48
7697.12
11928.9
11462.1
10652.9
8993.02
7961.78
8226.83
2225.9
4985.65
10932.5
8778.11
11580
9175.51
10645.2
8340.04
5879.57
6171.03
5699.84
9418.15
13674.3
9941.72
10185.8
9732.83
7850.24
9601.42
3434.55
1085.57
1275.58
3559.61
5373.06
2506.69
2735.07
3392.72
294.823
587.384
1324.7
3400.26
1530.87
3318.92
4347.72
1418.94
297.547
561.635
2321.58
4777.04
9466.34
11662.5
8739.87
7007.49
7425.39
6152.9
5150
7507.98
5727.5
8090.82
3946.77
3245.89
5448.17
854.502
1385.1
2271.67
1304.55
2628.43
3866.7
2799.24
6170.05
6062.71
6971.59
4824.26
5824.35
9007.61
9299.79
8168.13
6759.72
7371.73
7438.19
7495.17
4738.94
7063.13
5917.38
7611.63
4608.8
1009.44
1240.54
1455.98
2825.41
1359.86
2721.47
4822.66
3317.15
1258.08
3424.66
3125.07
697.397
1385.5
1799.37
2120.05
1306.19
2477.54
5929.46
6144.92
11238.3
13349.6
14028.4
9492.86
15177.1
16145.7
13036.4
11961.8
10012.6
10408.9
7754.91
9997.93
6354.35
4544.44
1204.83
1798.08
743.057
2008.09
1523.52
1521.76
3040.46
2606.02
1260.13
1728
1183.05
1515.8
1904.71
1837.23
2141.02
1723.96
691.84
1523.33
4423.79
3725.35
7512.63
13939.3
9415.12
11039.1
4769.25
2527.68
2993.47
1232.36
1863.47
1469.47
5739.42
6219.04
7262.64
10892
7828.03
3950.27
4197.27
1211.53
2119.99
2778.51
689.094
3107.05
4481.58
2676.23
2323.78
3657.95
2983.65
3349.65
2369.87
830.105
1983.44
3798.24
6295.41
7658.73
6339.07
4151.05
6595.17
4574.26
5159.19
7561.09
8671.6
6583.07
3976.76
3502.78
6155
8782.89
12400.6
7526.87
8381.69
5332.29
7027.04
5173.5
7451.6
11647.9
16299.8
14313.1
16605.8
23473.5
18430.8
15401
11763.6
7444.66
6450.81
4489.85
2796.16
3937.91
5781.01
2173.42
1787.28
2950.3
2184.6
2413.68
4810.79
4941.93
8709.14
2775.4
3214.34
4552.73
5449.45
12071.6
6738.08
8053.93
9186.88
6555.1
4187.15
8324.1
8108.04
4480.56
2430.85
993.036
3291.08
5527.11
1920.57
1025.97
1617.69
1120.55
3045.16
2217.31
704.444
1384.08
2504.83
1275.55
4222.67
4960.88
3998.56
1188.6
4385.51
2679.48
768.726
2171.27
2188.74
3907.29
1328.06
3681.33
6166.72
7812.61
4047.5
3215.56
2461.59
4589.17
1020.25
684.98
2340.57
3139.77
4516.19
6926.26
2766.67
4566
2148.9
8300.33
9127.95
6368.01
7534.78
8032.64
5871.72
8597.13
7275.47
6296.89
3666.48
4191.9
10007.2
6602.2
5536.33
3176.16
3688.88
4870.54
7187.18
7781.58
4367.57
4656.32
8124.35
5930.52
8924.95
3117.6
4449.15
7118.16
2707.69
4389.28
4998.08
6328.72
5421.91
4747.68
6041.73
7135.62
10219.3
3385.46
2671.13
1898.36
1036.47
887.676
958.266
3299.81
2130.69
2870.23
1755.97
4430.68
4288.32
1860.42
1241.89
3296.74
934.127
464.928
3861.95
5512.95
3619.87
5265.43
5744
6799.15
4394.85
5697.55
3840.11
2832.33
2579.26
3402.06
10392.9
16456.2
15916
17613.8
15410.7
10527.2
8603.62
11065.9
10559.9
7458.59
7754.19
4037.06
3058.81
4726.24
660.824
1844.13
3590.56
2163.11
1813.53
2863.95
6700.94
4707.73
2360.55
4697.9
2614.8
1322.54
4571.02
4241.87
2999.38
5003.67
4444.81
8833.74
6245.96
3074.65
1907.72
3270.52
5341.1
4231.96
1641.06
1983.91
3133.67
2992.44
8595.95
8332.39
6019.32
9138.46
12412.1
7580.89
4361.41
5745.32
4984.06
2823.77
2963.1
3877.79
3964.05
3193.16
722.331
2668.97
2787.64
5111.11
5415.14
6050.53
7280.65
5913.52
4151.56
4350.89
5389.5
8996.19
5205.24
1425.94
3142.42
1721.11
2340.82
1884.02
2902.12
4560.73
3369.4
4115.6
2588.44
1114.93
3644.58
6777.74
5289.45
2782.54
6859.23
7725.76
2419.18
5388.7
6854.22
6091.96
3256.91
8864.65
11973.5
7280.06
10454.9
8817.08
3634.92
1691.49
1946.86
1785.7
3237.04
2966.43
3791.38
2680.74
2377.25
2991.36
1552.39
3077.25
4256.15
13698.7
13181.3
6442.15
12508.7
10941.7
7949.33
8815.55
8485.11
5880.16
14158
16337.1
19006.4
10247.4
6862.28
8457.77
9027.95
7175.05
8173.64
8761.79
8383.05
8256.03
16293.5
9138.68
5188.04
3369.23
3436.15
1270.03
1620.67
1719.36
1288.99
1875.59
1188.25
1483.66
920.603
2318.52
1622.09
1769.74
2608.33
4729.39
3458.59
872.749
1845.43
1137.51
785.674
1209.74
1232.84
2090.29
968.113
1313.6
542.795
1383.91
1572.48
2585.87
942.4
2352.27
792.553
1581.75
1023.38
4531.73
4646.16
2536.6
6442.36
10000.4
8351.25
6244.63
2762.52
7604.77
5567.02
1402.86
2102.86
4273.77
5790.95
5065.86
2339.88
1738.03
4216.72
4320.85
6992.6
10444.8
8452.46
3798.79
3036.9
4293.71
3631.22
5861.64
5642.34
8492.25
6445.3
3335.52
1509.98
1396.71
4996.69
3045.63
2684.89
2611.72
2180.93
2821.48
3221.3
5567.53
6593.79
5771.79
5237.27
8905.22
5100.22
4045.77
5517.23
1181.94
1441.84
2444.34
2233.58
2015.56
2420.58
867.042
980.154
3290.92
3591.02
2776.93
5129.47
6140.15
6721.37
2819.77
839.103
3604.79
3256.95
4962.56
3419.67
3207.58
1892.06
2879.74
4389.39
2071.05
2385.34
2344
2418.8
2705.8
3619.57
2124.78
4702.87
4662.64
1602.25
4570.42
3313.21
2530.39
5214.64
3633.73
2412.76
2429.36
2549.9
2835.73
3774.07
2500.3
2482.13
4058
6407.08
1377.76
881.165
1518.34
1507.21
4655.05
4408.46
7451.57
4411.03
2073.14
1187.62
972.362
907.789
2993.4
4559.08
6645.98
9694.25
10314.4
8064.62
6927.2
2707.58
2405.59
2250.27
2496.4
1568.25
2597.62
2691.47
3455.88
2237.07
6471.85
10682.8
12303.2
8689.88
4982.66
2350.86
1981.93
1065.02
957.538
1232.68
1154.84
2185.47
1305.76
3986.47
6943.71
4226.68
7493.89
13094
2569.96
4847.71
4884.48
1768.99
1478.55
2165.05
5319.96
4788.23
14447.4
6738.36
5567.33
4010.8
2218.84
2949.16
2914.21
4407.67
5805.17
6485.63
4817.56
7608.49
9036.52
5397.32
4021.38
1779.06
790.959
1395.59
1706.74
1500.67
2835.71
1855.4
1049.33
2273.72
2144.69
2077.67
3275.82
4111.63
5454.26
3417.41
5316.51
6935.76
4970.74
4436.69
3532.95
4663.8
3752.57
5032.13
2972.05
3684.57
7754.91
6268.74
5522.3
2827.46
2207.27
1611.32
1800.38
6706.2
4042.13
2786.89
2351.85
2365.44
3576.75
2740.03
2763.91
2325.17
981.989
1828.83
2604.45
2928.49
2355.96
1143.61
728.644
679.81
2001.37
646.222
2002.56
2272.45
3702.9
5543.71
3794.94
3301.09
3371.08
2235.95
3897.65
8481.24
10389.4
9244.76
7737.25
5658.27
3386.84
1931.58
992.674
1221.01
1042.61
1528.56
2289.48
2569.67
1480.7
2795.29
3600.78
1794.13
4304.7
6458.65
4444.78
4973.91
2931.85
1765.39
2149.7
1735.82
730.749
3454.29
2871.41
3520.54
2106.11
4744.09
4134.85
4373.34
5664.78
5329.75
2700.82
1705.97
1509.08
1742.65
2948.28
4765.15
4142.39
4069.74
4030.49
3515.88
2217.68
2330.77
1672.25
4237.04
3546.41
3139.82
1918.02
2917.06
4661.16
3284.22
3277.86
4188.2
10143.1
5029.12
5978.34
1605.53
2824.72
3627.06
4314.77
4367.2
7721.73
4808.78
5501.71
5467.78
3908.99
3729.76
7832.09
4541.18
8443.76
3427.11
3594.4
9096.14
3662.68
3275.87
3479.65
2459.32
461.835
2716.41
5458.94
3633.46
2413.65
2143.49
592.705
2914.26
3759.37
3444.46
4593.8
6598.23
3546.3
1799.75
1722.59
2209.5
3212.54
425.786
2266.56
4575.05
4302.83
5943.13
6574.95
5635.45
1680.45
1354.3
1866.42
4674.14
2871.67
1732.87
3038.58
1849.3
1126.11
1425.75
2695.98
3606.74
1391.86
1228.32
1419.26
1920.16
824.187
810.947
1639.21
2474.2
2511.43
2929.54
3043.98
3937.68
3001.46
2978.53
2986.79
4178.77
4863.14
4346.36
5235.08
3043.77
2562.79
3621.75
3973.27
3912.48
5119.85
3418.63
2506.87
1522.92
3462.96
1764.28
4329.64
4554.06
2036.39
1477.61
1387.57
1493.42
2007.61
4691.75
8507.44
8590.97
6898.83
3703.65
6085.81
2870.58
2158.12
1915.82
2565.46
5365.81
5237.19
2611.96
4243.43
3020.19
1809.62
3827.26
3134.65
2578.12
1371.54
3494.2
3663.75
6700.85
7583.41
3924.84
3592.02
5304.17
3870.44
2538.52
3116.24
5268.19
8033.64
8566.27
10234.5
6874.71
5096.9
7444.68
4899.7
4080.35
12687.3
7577.66
5968.45
3202.9
2357.97
3424.02
3160.66
1929.12
2732.7
4751.85
1489.78
501.842
1194.3
4395.22
4769.75
5132.88
1821.41
3377.18
2088.33
1848.31
3542.22
1729.68
2089.07
2711.64
3499.76
3759.76
6856.8
6790.24
7334.92
5040.08
5797.89
2837.66
5355.99
5911.48
1670.57
3049.7
3946.57
2655.68
2592.37
1123.11
997.902
2172.74
2933.99
5437.98
2934.37
1454.48
1856.08
2391.34
1528.68
2323.59
1475.56
1162.81
4136.57
2385.54
2358.1
1032.78
1762.74
2299.66
1744.42
3812.97
8341.29
6821.37
7635.66
5227.97
4061.81
2722.38
2738.36
2672.96
1601.11
4191.78
3426.88
3151.25
6580.05
5118.54
4489.7
7507.28
5257.53
3670.03
2591.67
2545.55
2302.37
2300.62
3338.49
3735.13
3572.72
1673.2
2020.88
2904.19
1593.64
3198.72
1457.42
2016.08
2258.19
1346.94
2305.5
1826.89
1954.02
2069.85
1254.37
1740.25
937.927
4356.99
3462.26
2781.5
4844.25
1730.67
1733.18
2301.41
1083.23
4237.81
3258.44
4587.89
2153.44
3396.37
1808.66
2941.18
646.801
979.667
1650.22
2557.5
2650.52
656.728
766.542
2722.4
2713.85
2764.85
3659.11
1762.53
6234.11
10010.2
4592.26
6350.16
5241.72
2547.84
3055.11
3252.77
2893.79
2735.56
6537.62
3456.89
2387.46
2778.72
2240.87
3406.4
5731.24
4878.13
510.658
2121.81
4503.72
2765.88
3819.59
5509.76
4097.26
1260.07
3417.78
1172.75
3523.92
3513.03
6236.89
4774.67
3433.08
2847.13
3764.25
2135.89
5769.29
3067.94
6316.88
2570.72
3380.56
2754.91
3550.38
2643.24
3070.66
3023.03
2068.16
3907.19
4075.25
3238.06
4151.81
7674.29
8658.18
4842.58
1980.31
3060.79
5189.91
5229.74
2857.49
4863.3
6655.09
3276.57
2661.77
4193.52
3062.15
1274.7
1446.38
4391.49
5246.91
4052.85
4465.76
1778.22
3585.23
3698.68
6642.18
5134.39
5213.85
7307.94
5134.33
2737.79
2002.12
1193.78
3758.53
3924.4
3109.5
990.685
3385.42
1089.5
3334.44
1246.99
3260.24
4176.05
4209.66
2219.38
1881.23
2043.57
1025.24
671.284
738.064
1326.9
4177.6
4251.06
4808.61
7478.09
5057.07
2685
2219.19
2315.09
1932.66
4301.75
2925.14
5031.92
3816.85
5207.9
3857.09
2432.51
3845.78
1987.3
3774.43
1630.96
1506
1013.15
954.986
1907.59
1847.95
840.06
1380.02
1080.32
927.28
5480.65
2727.47
1925.62
2082.14
3135.47
2365.42
5428.41
5470.82
4987.14
7075.23
3495.54
2876.46
3490.25
2769.88
7259.7
4799.37
2317.24
3090.87
5099.81
6297.9
8031.57
5651.64
9274.04
11842.7
5813.67
5307.42
7556.15
7100.85
3014.97
6843.17
2927.82
3463.44
2970.39
3940.29
5160.32
3970.73
9350.44
8420.6
3740.88
4689.81
4497.03
3372
5151.75
5271.21
2867.44
4231.88
2913.45
599.378
875.103
2016.5
3369.48
5144.47
6742.96
2713.41
4721.87
4583.67
3580.26
5678.3
3258.28
4510.74
2831.6
1278.76
3955.01
3520.8
2980.17
3786.18
1563.28
2565.74
2472.74
1498.17
3177.06
1622.02
2610.76
3837.51
4544.99
4962.92
4636.45
5874.69
5789.13
2964.68
1244
1709.41
805.738
1678.97
1863.18
4019.61
5142.88
4026.14
1697.33
2036.02
2192.45
1306.8
2149.27
584.201
1043.12
1097.6
2536.72
1709.9
1139.61
2565.77
5168.37
5273.21
943.262
1213.56
1584.63
1931.33
4460.04
11105.7
11061.7
10668
9402.15
10136.3
13864.8
23719.9
15777.6
14512
11840.1
12808.8
15009.9
13167.7
8272.16
15659.4
13332.6
7632.17
6164.33
7244.07
2117.92
1575.81
750.443
1129.71
2434.89
673.432
677.691
2161.58
2948.99
3176.15
2559.18
3142
3328.44
5921.03
5222.39
3603.73
1670.83
2931.58
3093.15
2191.58
2312.43
1971.16
2545.81
2655.71
3088.99
6093.99
2353.6
1113.4
2411.1
1293.23
6109.74
4317.57
7727.28
6186.1
5861.47
2955.32
3501.09
2206.33
1229.59
663.818
2560.38
4594.15
1439.91
2178.68
2728.7
2366.66
4384.18
4269.7
3703.94
7645.68
9689.04
5867.89
5402.88
5407.57
4048.34
7113.99
6781.83
2648.4
4118.52
2242.12
2235.97
1874.96
1882.25
4103.86
1720.5
749.126
3878.41
5209.11
2805.44
3336.24
4362.3
7870.18
4915.53
8148.35
4030.55
4806.86
2150.88
7650.01
4629.7
5323.2
6023.35
3255.13
8092.44
7802.96
10556.1
12414.2
17353.9
11182.7
5556.84
12830.9
15875.5
12550.5
18601.4
17230.2
23898.3
21425.9
14820.3
22776.8
18340.3
16279.4
11973.2
5923.62
3868.74
3584.47
6981.84
7944.64
4715.82
1454
2362.41
2480.33
4459.9
3283.92
4441.29
1313.85
1472.98
1892.41
1285.86
1129.94
928.953
2276.92
1805.57
518.479
1143.26
1159.48
1809.19
2756.35
866.438
1552.04
3526.3
5218.33
3997.07
5119.16
8679.05
11968.6
12429.2
7275.88
6253.13
2291.14
2830.46
3651.65
5051.24
7269.14
4660.8
4876.88
3011.78
10200.8
9387.37
7772.28
12988.8
6713.64
8144.55
5899.31
4143.11
8382.15
9392.45
13822.7
4907.86
7432.71
5262.33
7334.95
7537.54
5442.39
7124.94
4791.26
2717.23
2033.23
5922.34
1704.4
2288.85
2640.2
1514.48
432.99
1184.96
452.853
3928.69
3149.02
553.849
656.848
2919.72
2638.64
1811.3
1825.04
1757.75
983.265
2080.69
1359.79
2485.83
2750.75
647.222
1141.34
4070.85
2221.16
5141.43
4389.62
3100.33
2635.74
398.385
1785.37
3008.33
2635.06
5194.73
2833.72
2214.09
1981.94
1061.47
1198.88
1067.38
2772.4
4543.98
2885.82
5581.79
4200.35
1468.38
1479.29
3925.78
2219.27
1386.36
1367.24
3073.73
6189.57
6718.41
6399.48
9924.4
5568.81
5403.2
4621.47
5970.54
2939.59
2714.22
1862.2
1950.14
964.72
1835.29
1867.89
1140.47
3336.8
3757.85
5633.75
8372.53
5208.68
1983.04
1226.34
1347.75
1546.65
1229.19
1474.32
1251
3297.85
1414.55
768.598
1695.19
1177.75
2278.15
3169.37
3258.94
1382.98
387.697
1140.89
2024.43
1847.1
2176.34
1137.02
1420.79
5021.7
3072.29
1399.9
1951.01
2684.5
4138.52
4712.94
3781.26
4033.12
4745.33
8203.02
6423.77
3010.37
3147.51
2800.03
1830.16
3107.11
2632.85
1140.5
1785.82
2694.36
2593.58
4079.22
6460.13
3583.66
3829.78
8115.5
5752.67
2858.84
3949.95
4395.06
2712.27
1116.16
2388.52
2348.06
2719.48
1844.36
4056.96
2759.89
641.984
800.906
1805.15
3474.55
3777.3
5071.06
5851.08
7517.67
7454.11
5828.91
6394.27
8409.02
10796.1
7320.76
5218.41
7835.39
6073.84
7177.81
9291.59
12374.4
9064.08
8271.05
7296.77
8595.29
12927.2
8758.85
6726.07
10689.3
8656.67
6358.73
9774.49
20994.4
16222.3
10019.2
9686.63
10287.4
4858.72
2256.04
2869.51
1617.33
1986.41
1055.48
1227.79
683.027
1441.75
1148.6
707.679
2763.56
3852.29
5448.83
4770.15
8776.09
2676.43
2856
4575.76
5575.72
6918.29
5858.57
2431.7
2614.34
2139.55
976.671
2566.11
3187.4
7884.13
4032.54
1680.65
2458.23
2763.53
2984.56
5821.62
4349.74
3489.29
2440.41
2304.13
2622.66
1488.78
1498.06
2014.45
1649.51
894.548
1197.79
2215.38
1952.03
563.688
2910.12
2518.1
1471.75
1847.51
1704.16
1692.61
1973.54
3534.52
4289.35
2033.23
2771.98
2962.89
5263.23
1478.35
1247.7
3486.47
1327.25
1843.96
2376.29
4547.38
5074.09
7447.55
5749.41
9726.2
7054.14
7211.49
8854.91
4062.81
4485.63
4950.93
5126.6
3690.91
4110.25
429.636
1810.02
1994.15
2366.32
1595.54
916.511
887.931
836.78
2514.76
5665.79
5773.41
5159.64
2778.39
2452.76
2501.29
2058.25
1924.91
2432.42
1142.73
1476.47
3150.81
4074.52
5084.82
9096.18
7149.67
12517.2
9508.02
9526.18
12756.3
10890.8
10175.2
6478.58
4821.58
3176.23
1979.65
5292.39
2428.69
1945.6
2596.88
2709.39
1303.15
1525.11
301.187
1394.83
4945.45
2206.76
2183.69
2967.3
3302.3
3798.61
1149.82
1228.8
1457.81
4419.32
5191.33
4457.65
3709.98
1695.5
1328.3
1115.73
1833.59
1836.29
1934.6
1919.41
807.53
824.155
1361.53
3495.82
2727.11
2663.25
4333.81
4506.11
2187.49
2042.35
3844.96
1319.33
1423.89
2784.03
1970.19
4858.94
4572.97
4697.2
7602.58
6684.69
8273.07
8875.38
3945.06
3644.95
7395.18
4599.67
5504.93
1921
2073.87
1726.83
3136.51
3405.35
3731.75
3037.91
6796.13
9519.31
7496.01
6908.61
6717.26
4736.2
4765.08
3153.41
7864.79
7727.4
7253.37
5762.13
6692.22
8473.23
9272.36
9512.33
6418.95
3710.79
9454.33
13037.5
10024.9
10380.1
7321.83
6847.06
4626.59
2091.56
3139.85
1754.55
2558.98
1829.98
6908.73
2169.31
3905.38
1840.46
5134.21
4617.43
3267.29
4938.96
6345.4
5799.68
3726.67
6936.57
7321.53
5496.73
2822.96
3666.63
5808.44
3191.81
1163.6
1439.78
5075.05
2417.56
1642.15
1862.78
3534.15
7700.43
5040.49
4045.46
5353.39
4339.91
4964.9
2654.65
1708.39
6207.05
6349.45
7417.82
4086.64
1986.52
2924.87
2112.03
4999.25
7452.02
3927.4
1211.39
2634.32
4900.43
4773.64
3258.27
4230.15
6364.49
5020.82
1895.97
809.324
2505.22
1206.83
2402.31
1126.94
1710.21
1845.49
813.108
3644.01
4707.18
1545.23
1000.07
2006.84
1230.87
2318.37
5180.22
3384.41
3010.89
3044.5
2327.22
1389.04
816.678
1531.65
3971.77
5178.27
2790.67
3561.14
2760.82
3426.34
1580.11
2246.59
576.525
2251.59
1763.51
2314.28
2928.45
2093.69
2756.84
1681.99
1380.99
1425.13
1766.97
2901.5
4144.18
3171.78
2238.27
595.218
2786.98
5723.1
12309
9418.71
7492.25
3509.55
2395.04
1242.38
1981.02
1383.11
1872.94
2798.31
1765.13
2367.98
1908.72
1999.13
2609.42
2465.8
1206.64
2403.16
1787.01
1050.22
835.944
826.852
2498.68
3223.77
4594.68
769.491
2997.99
6129.35
4992.31
4862.86
3866.91
2844.37
1872.96
2556.56
1896.79
3476.33
1728.3
2957.01
2921.49
495.866
1482.43
1851.02
4762.68
6393.82
5007.97
2732.08
3642.36
3393.77
7490.22
2968.2
3680
4573.05
4562.8
7322.48
9478.64
7658.77
11298
10434.3
8281.19
6483.84
7045.1
6426.88
5149
7516.59
3825.35
2705.34
3892.3
7036.26
3584.62
6067.37
6155
4426.61
4264.74
1812.62
2958.2
1486.09
1059.72
1439.43
1565.07
2240.07
1836.46
2720.75
2734.27
1718.43
562.096
1631.27
932.846
2464.53
2986.56
3692.2
3377.98
2166.16
4191.13
4527.23
4657.25
2270.52
1481.81
592.376
646.527
2343.42
3787.46
2429.63
5522.36
6905.39
3698.64
2939.34
3089.03
9196.45
7593.59
2632.25
1836.44
2450.28
4243.65
4187.43
1359.78
2081.09
1884.43
5497.21
8909.9
8803.27
5383.04
5454.97
6302.92
4617.54
5241.91
4307.93
3493.13
7125.64
3002.42
3273.41
2073.08
2607.93
1830.99
1537.42
1098.2
1338.86
1393.89
2768.48
1739.09
2024.4
2440.67
2944.04
4292.54
3157.65
4379.84
4322.64
5444.08
3731.99
2676.54
1127.49
3156.47
2773.58
1028.02
4693.86
4653.15
4546.87
2288.56
3284.24
1680.25
2530.65
3652.1
2290.89
3612.96
4144.34
5812.69
2656.37
1486.04
2152.79
3045.95
3419.06
3130.48
4615.35
4588.1
3823.94
2194.45
2464.45
2350.42
1562.36
4430.41
3383.71
4312.12
2998.97
997.047
2409.68
3290.18
1981.79
476.852
2389.38
2100.42
3186.24
3375.38
1400.48
536.426
1407.61
851.286
3071.04
1268.66
303.913
887.78
3026.51
3291.7
1179.11
1763.41
1640.01
2211.48
6483.64
5618.33
6098.35
4842.11
2610.97
1554.01
2721.16
6929.86
6832.02
6103.1
7006.58
9351.39
7281.27
5075.06
4745.32
3264.43
3171.11
3628.14
3001.8
2567.23
950.432
1232.41
746.971
843.355
1832.51
4043.06
7191.54
8136.89
7122.98
6025.7
5917.04
8218.6
7561.66
9056.2
6652.18
7029.02
7892.39
12430.7
15386.8
10593.1
13580.5
5921.32
3929.15
4829.99
2560.81
1085.57
2746.19
4188.4
4387.66
1876.2
2275.21
2540.77
6742.37
4352.86
3513.61
4056.37
4365.42
1214.2
5283.8
8300.81
7818.62
13296.7
10584.3
8951.95
4737.94
3997.62
1870.66
908.011
1817.06
1287.82
2096.94
6977.62
2940.39
3584.1
4041.24
4893.32
5930.02
2981.96
2987
1179.26
1448.7
1948.94
1081.27
785.143
2490.61
1389.83
1592.48
2059.92
3113.44
3286.87
4028.32
8863.49
5926.28
7139.34
3877.76
2519.18
3072.4
2086.54
1607.61
1776.01
3502.44
5630.24
5480.16
3186.19
1707.96
2328.04
2294.42
1706.6
1345.95
1731.15
1871.99
1864.67
1853.68
1328.29
1938.34
2245.22
2319.54
4881.73
7762.77
8470.65
9769.8
4527.17
2631.6
2000.91
722.47
3929.07
4506.14
2845.04
2248.85
986.289
2077.51
1187.26
3066.49
3458.77
1807.14
1819.38
2707.55
5421.97
9359.11
7180.38
7933.11
5943.42
5879.35
3336.66
2907.22
2642.7
1790.83
874.817
2791.66
7176.9
1757.32
3249.1
2247.44
431.567
1423.96
2949.63
3981.33
2666.13
984.963
3212.72
2445.23
3708.6
4079.68
4259.73
5531.27
4556
6002.95
2668.42
3295.43
5105.09
6306.66
6468.71
5371.13
5174.58
6156.17
6282.03
11976.6
9006.42
4223.17
6061.41
3140.18
4304.37
3225.37
6967.39
7699.45
7663.73
4357.48
6195.39
6694.51
5431.98
5020.07
2123.98
1209.31
1214.11
3778.95
3030.08
1556.35
1974.03
2570.38
3458.57
2966.9
2796.94
2236.35
4537.97
4860.71
2748.76
7444.22
4964.75
3427.15
3883.46
5458.61
2439.7
2839.29
1883.4
1856.54
478.367
1557.46
4857.57
5629.36
5414
1540.26
1746.81
2035.06
3813.72
1963.21
7203.96
7458.63
8717.12
4888.23
4307.3
2364.31
3054.72
3398.26
2716.98
3225.63
3015.26
4954.69
12512.2
10291.5
3531.54
3801.08
3283.95
7642.59
3657.67
4828.97
4523.9
4313.11
3720.17
1995.64
1746.62
2926.22
4532.95
6106.58
5719.45
1852.45
2514.59
3149.61
1616.44
5583.76
2992.42
761.633
6818.58
3016.43
2855.35
2717.61
4394.16
5006.1
5827.53
2371.11
4636.04
2148.08
2368.63
2781.05
2771.78
1848.83
1160.68
1632.64
2156.44
5615.32
2451.37
2635.31
2144.69
909.201
2315.94
2921.38
1899.31
2591.17
1962.6
3125.71
3578.02
3195.72
1486.69
656.899
2492.18
1810.08
1246.2
3652.47
3026.78
3624.77
1044.99
1300.24
1685.63
6324.58
7573.77
3751.03
2657.07
1606.76
1498.65
1515.61
2496.65
3631.69
2532.37
1195.2
4070.98
2410.2
3155.95
1888.57
2962.3
3452.08
2947.56
1150.82
1749.63
2855.18
4260.82
2579.8
7398.38
4396.69
5256.71
5388.6
8302.37
4434.02
4043.84
1732.89
3803.16
7203.65
7736.12
8421.16
13775.1
14029.8
12926.8
9036.01
14901.4
13762.3
7457.56
4645.59
3642.96
3184.24
3224.16
3681.11
2635.59
1931.88
1586.91
3436.75
1992.42
1534.87
3794.64
4223.05
2329.62
5947.17
9351.08
3421.64
5605.07
1677.33
1303.74
2404.66
3349.37
2894.07
3766.17
4295.55
4420.63
3461.01
3126.04
1498.07
3033.92
2767.4
3556.6
3241.98
2534.69
1364.54
3212.56
3987.34
2763.36
6688.72
3886.58
5352.23
6577.81
4258.35
2227.43
3136.58
3587.01
2879.89
721.47
3280.56
3867.34
3733.99
3469.63
1918.73
2471.62
3376.21
1484.76
4944.07
2793.88
3182.4
1486.72
3688.29
4950.41
6941.59
6279.9
4866.13
1685.39
1525.56
839.413
2131.29
926.955
4292.63
3150.41
7529.59
8241.99
6072.12
9435.25
19666
18392.2
19164.1
23016.8
24467.6
10624.5
12499.2
8413.4
5445.78
2986.01
2604.47
2328.54
2180.54
2951.12
4019.33
2343.63
3212.12
4274.94
2865.41
2866.78
1858.65
2511.38
3746.02
4151.44
1666.89
1379.71
4480.83
2871
7075.93
5534.86
5961.85
5431.14
5685.24
2197.58
3423.06
2359.84
4358.99
3192.19
1991.26
1084.23
2028.26
1404.64
1200.95
2240.89
3518.68
2156.9
2555.31
2208.02
2089.97
4505.27
1457.13
2621.14
2410.17
4872.8
3668.29
2914.63
5261.73
7379.49
3708.19
1783.18
2122.25
3314.49
5163.53
2422.75
4316.34
6629.16
6088.35
4914.01
3621.06
932.673
774.607
1025.41
2039.63
4983.06
1706.55
1535.71
2783.96
5921.88
4621.2
1406.34
1275.01
1703.63
1902.33
1408.02
2844.88
2633.66
4399.69
2114
1806.69
3151.27
2521.34
3238.06
4989.04
2412.78
1069.66
1170.94
1387
2286.91
1324.38
2475.54
1303.98
3625.87
5199.75
5203.43
3986.87
3556.67
1853.89
1832.36
3109.51
3498.78
2975.21
3783.53
1985.47
2713.24
1965.48
1088.76
1483.07
3075.7
3824.52
3317.81
2510.71
2139.04
1676.7
1057.13
2121.1
4326.77
5006.21
4646.15
3446.07
3332.03
4655.16
3342.37
6331.51
3163.82
3947.86
3503.46
2046.49
1192.29
1801.66
1226.57
1436.53
1751.15
6035.24
5809.33
3359.33
2543.45
2473.44
3140.24
2025.41
3920.33
3850.92
1017.44
2834.64
4305.38
2701.8
5790.31
9302.74
10837
10559.5
10495
11746.2
7559.24
2726.2
3281.28
4844.39
2439.16
2404.25
1788.83
2018.26
2812.24
2668.35
763.412
1780.01
4346.26
3643.49
5663.98
3368.72
4510.65
2547.52
2230.68
1496.69
1133.36
3170.34
1382.81
1353.84
5442.92
8500.03
5976.42
7381.2
9328.87
15173.2
13481.3
10049.9
14008
6599.06
11502.8
15370.1
10794.4
10656.5
14677.2
11529.7
10090.7
7131.98
7102.52
5770.63
4332.67
6379.72
5726.96
6940.65
9152.17
6887.21
4717.4
4610.62
3194.72
3649.51
5803.54
3432.96
5545.51
2008.98
3081.43
3899.54
2697.3
3079.94
5544.09
3094.21
1839.65
2112.33
1768.76
553.787
468.79
2643.53
2655.25
1130.11
1404.92
1411.48
2509.8
4811.09
2373.72
1580.8
1626.06
1108.5
2272.38
1935.27
2715.05
2301.12
3385.81
5120.34
4105.39
2499.35
3259.51
6112.5
8772.09
8727.07
5279.3
2023.07
5260.22
7377.7
6366.64
7128.74
7454.66
7044.95
6253.99
3660.58
3022.5
4262.73
3895.76
2115.13
1747.74
646.12
846.686
1461.85
1655.5
4074.39
4966.19
4800.51
5310.96
5613.39
1897.84
1256.67
2647.77
2010.21
2138.57
2129.21
2203.45
3432.74
1701.34
3084.77
3785.09
4422.27
2495.58
2194.84
4340.87
1864.84
2659.75
2231.78
4830.66
4000.79
7575
10472.3
8496.06
7192.22
7724.98
2725.94
6370.96
3612.46
2058.85
1295.69
2246.51
1825.93
2598.3
2579.95
3999.01
3330.85
7802.62
3103
1300.68
2689.64
3275.78
5566.71
6363.34
3526.42
3140.43
1471.91
1901.58
3366.81
2587.99
2514.8
2640.07
3296.41
1180.05
2077.27
3188.97
4592.85
2931.93
2098.62
2361.54
1940.46
1674.91
2409.03
5060.76
8407.41
4807.67
1421.18
615.133
1235.73
1876.85
2419.6
907.146
2293.44
1214.16
724.024
984.323
1459.78
2410.36
2516.37
3131.58
1537.15
2336.6
1931.25
5129.61
6168.96
2349.7
865.367
2601.16
6331.85
6894.73
6337.99
4616.58
5870.24
2161.27
3115.91
3116.4
2209.49
3974.5
2799.64
2675.85
4398.35
3352.53
3380.9
5427.74
3240.08
2551.21
1205.54
3128.5
868.86
539.659
678.618
526.308
1842.88
800
3496.91
3358.26
3052.62
3325.78
3600.6
4325.17
3983.29
3028.52
3106.84
5885.35
4180.92
9204.92
4615.43
2891.97
3361.81
4667.79
3890.43
1041.53
1031.78
1019.96
1445.64
2278.05
2633.92
5189.79
4393.49
5085.9
3246.67
6332.1
4217.29
6980.13
5393.93
5546.95
5491.82
5119.73
7679.48
6193.58
2905.56
2402.49
4895.41
3283.1
9349.17
2908.83
2273.68
5077.44
1091.65
2436.92
4138.96
6078.62
11083.9
4275.77
1998.63
1426.05
2022.45
1591.09
4259.07
11507.5
17640.2
14369
9710.44
5470.05
6665.8
8589.01
6190.69
9898.25
8504.9
7951.77
7332.1
6613.34
7926.73
3413.23
10200.4
12930
7686
13468.7
11152.8
7775.69
3377.84
2005.89
1275.57
733.744
2290.53
4769.72
4647.82
5429.16
4196.81
3112.43
5393.18
3179.31
3499.5
3231.19
2285.38
4124.67
4244.86
9562.04
7454.76
5599.02
3454.44
4009.91
2942.31
1967.43
2813.99
3329.9
4860.12
5235.28
5462.67
5789.38
7091.87
5526.47
4577.32
2069.54
2640.05
1581.95
1981.11
1396.45
2431.73
2206.14
1438.3
5776.55
3405.41
2722.76
4812.79
2598.33
2597.2
3134.06
5197.54
5323.2
9650.18
5824.32
8959.5
8937.87
9669.63
8238.87
9112.96
4228.28
4843.43
6072.73
7064.64
6468.12
9175.82
4151.11
2981.03
5956.75
6368.07
8176.13
6286.36
8218.69
6861.85
8025.72
6176.63
6482.11
5644.21
8559.65
7104.11
5337.94
2833.11
3471.95
2114.73
3016.65
3115.84
2395.96
440.146
1076.1
1178.42
3092.39
1989.5
2414.38
3415.03
2195.95
5004.29
5013.04
4088.87
1262.92
1861.71
1308.93
1487.85
1573.74
2372.56
5304.57
6801.6
7465.49
2708.45
5504.3
5862.18
7070.79
3727.93
2843.13
5851.54
4136.49
3524.77
5862.69
4139.65
4595.84
4432.12
1528.32
3780.08
8205.83
4368.64
2999.86
5502.92
6974.32
7209.92
6914.24
7606.7
9396.06
9029.17
4934.3
3760.69
4969.78
7125.4
5838.73
4192.28
5553.79
5959.83
3258.79
5536.03
3945.22
2077.87
4146.82
1085.97
3561.83
1508.14
3436.63
2208.05
1413.28
2888.73
4824.57
5006.11
3779.84
2278.78
930.77
889.451
2693.93
2465.9
2088.86
3044.91
1872.86
2038.95
2238.12
2629.23
867.06
897.44
761.133
718.833
1235.9
1793.91
1377
2427.81
3972.43
6245.89
12484.1
12193.3
12723.3
7822.26
6434.37
5916.19
6825.31
6355.78
7592.64
7414.9
6960.08
10688.8
13826.4
14493.1
10729
10710.1
7285.75
7555.48
5193.72
4109.13
2306.95
2393.53
2661.66
1916.99
3732.9
3287.77
3286.76
3599.97
3419.44
2259.32
433.191
3712.33
2710.86
5729.68
2245.85
1279.92
1753.69
1977.3
3962.7
2998.72
3149.28
4069.53
2058
6168.82
4916.75
3918.83
2870.6
5718.54
9726.41
8823.88
9528.8
2231.7
1939.82
6270.2
4887.68
5586.18
1526.88
583.491
944.907
3299.37
2955.42
972.724
3060.08
3460.31
5813.96
6303.17
9073.39
8622.87
9948.48
7782.16
5625.72
3899.35
3178.64
2208.7
5494.29
3685.26
3351.21
1719.42
1526.91
2624.18
3378.96
3909.11
5608.32
6389.89
2202.29
5561.31
8935.66
6794.69
7288.2
8550.76
6047.07
4494.4
6022.6
5016.97
4893.68
5619.99
2619.82
6342.38
13851
12565.7
9970.48
5478.36
5608.8
7223.3
4661.57
1157.13
2685.32
811.04
1061.28
6347.39
9820.81
6246.59
4083.76
1767.02
1738.14
1542.11
1620.81
2836.4
5771.89
1823.21
2351.42
1584.32
1472.37
1951.53
5487.18
8435.49
9332.71
13174.3
9925.8
9108.23
8449.08
8860.74
3225.06
3392.51
2860.97
2228.91
2532.21
7499.05
6365.62
4338.57
5072.46
6358.8
5613.59
1871.28
2617.63
2757.37
4209
2060.43
695.645
1089.41
1530.6
2990.85
2572.44
4220.08
5915.36
3886.11
6534.15
7366.43
5739.82
4006.12
5558.47
2749.62
1213.79
1763.61
3448.09
6518.97
12404.8
7789.43
5186.54
6600.79
9152.39
5964.43
6038.24
4679.96
6625.87
3095.77
2281.67
2262.59
757.357
4538.2
7231.69
3756.9
3132.78
3697.3
7053.32
3792.17
2355.77
989.205
4207.21
2164.99
6480.63
4421.94
6742.88
4340.05
2132.77
1427.19
3946.4
5450.06
6756.13
7855.36
8432.71
3124.84
2719.38
953.754
3052.44
4347.92
3272.4
4736.79
3567.34
3177.63
2006
2346.35
867.471
1635.03
1219.94
3338.35
1195.87
797.992
1868.52
3160.98
4650.8
5974.5
6960.66
8341.15
8824.88
17109.2
12116.6
7531.58
8044.46
9785.74
2353.86
1140.44
2789.16
1960.57
3083.82
4706.63
2069.45
3823.76
1829.05
649.934
1898.26
2162.11
2351.74
1492.27
1984.88
3456.62
4902.22
6940.3
6369.04
2862.7
2134.61
1885.98
5011.62
5539.85
4273.45
3842.06
5620.17
8962.98
4895
10251.5
5379.42
3111.93
3961.32
4818.99
4910.09
5751.7
7276
4793.49
5211.89
2772.17
4010.85
3255.37
3555.36
2090.76
4898.07
4189.66
3299.95
676.732
892.085
2638.57
2447.41
1200.31
854.806
2231.94
1130.68
2159.36
2855.29
4334.99
2020.64
4406.06
3400.75
5321.49
831.839
2151.57
4780.96
4163.43
2378.35
793.885
2322.43
1751.14
2597.26
3123.48
6213.7
7392.81
9181.96
8551.6
2185.73
2309.86
1009.19
1063.39
2797.44
3076.97
580.471
3204.78
3537.38
5307.29
5013.72
3849.48
4532.84
2612.57
2840.91
3655.24
2430.37
1423.28
1663.52
1913.6
1912.44
4397.24
859.002
1071.4
1777.87
1859.38
1963.88
2166.1
6419.26
3335.97
157.055
2580.75
2987.65
3593.57
4774.58
2952.83
2671.45
4051.52
2742.04
4863.44
1014.03
364.966
1349.09
1877.83
4589.41
4625.29
4588.41
5082
7629.68
4732.01
4648.05
6055.83
9949.27
9990.64
7771.31
5927.98
2442.3
4118.97
4122.38
2540.19
1120.79
1938.02
446.771
2874.32
3137.44
1708.54
1854.84
2630.79
5220.44
5552.84
7106.37
1460.11
4062.09
4400.54
3217.65
4998.36
7477.52
6123.03
3885.62
2989.78
3917.16
2144.27
3073.07
268.632
1407.1
1318.88
556.356
1088.71
3953.08
3643.53
2780.92
4789.05
2976.28
1771.3
5040.33
2620.88
2648.98
8709.8
10412
9464.89
5480.71
5832.73
6132.62
7512.35
2580.87
2833.02
3341.31
3285.44
2406.49
1656.47
1156.36
1320.38
2055.73
2236.67
2239.54
1934.93
1765.63
1082.33
1677.66
1168.61
1062.58
2095.79
2686.17
1634.55
7969.21
4515.86
3975.65
4000.78
2703.74
3263.98
3556.76
3645.58
3594.29
2599.32
4545.97
3790.16
2508.57
959.47
1650.9
1226.04
1488.13
2695.67
1188.27
2343.07
4218.7
5889.25
8082.83
13189.6
8713.87
5961.26
9253.18
8174.57
5468.56
3926.1
2715.78
1875.02
6862.96
6745.03
6864
3481.69
4509.53
2742.56
2798.47
5436.21
6035.7
6669.07
1718.72
4232.99
5806.57
7673.24
4362.7
5103.73
7004.66
5929.23
9551.15
6106.15
5437.28
5181.08
4539.24
7319.91
8352.2
10827.2
3753.64
1798.53
3814.22
3238.14
3087.52
4628.39
7402.77
8401.88
7450.49
6990.7
9079.16
5361.24
1358.38
1236.15
1236.12
1463.31
2576.68
1190.35
4096.94
6284.87
1951.56
1407.19
2943.03
1841.18
2882.84
2022.74
1702.23
2356.35
3478.97
4400.84
5674.99
4164.8
3054.09
7247.86
5412.38
8978.75
10478.7
11775.9
7931.33
6832.14
11568.8
12268.4
8320.89
6377.9
6390.63
7440.13
5824.36
9848.87
2458.92
3278.91
1206.12
344.332
582.733
1360.17
2188.58
1086.81
2245.66
1278.05
2168.04
892.741
1558
853.962
1815.97
1131.57
3265.09
1322.49
2418.12
2273.95
2591.61
2190.11
2622.39
1140.48
1078.28
3896.08
5618.87
7057.41
4437.31
3653.71
1913.96
4525.89
2362.94
806.381
1437.44
3192.47
5724.85
6362.75
5434.54
3703.88
3748.98
4513.67
1973.04
497.377
1393.36
1833.08
2310.14
2092.96
1896.32
2320.32
2892.31
768.812
1266.7
995.212
5008.47
6427.47
7057.52
6696.17
4530.75
1816.09
5527.55
9869.34
9045.1
8641.82
12251.5
15335
10824.9
16060.6
6520.07
3909.1
2533.37
6464.29
6435.08
7214.92
3403.53
7042.31
3310.74
1805.7
2971.47
843.963
3172.23
7727.21
12452.6
8695.86
4881.73
8210.77
1739.01
1618.33
2887.33
3672.85
9906.94
3724.46
6079.61
7474.73
3163.04
585.431
1931.21
2540.33
3898.88
2628.05
5301.62
7919.59
7135.69
9888.14
7668.76
6787.6
4296.99
8068.84
3358.59
4127.58
3076.55
2712.06
612.508
7034.49
5224.1
1048.08
1510.27
1226.8
1940.9
1657.98
3338.55
1425.7
1847.65
1615.81
1883.04
1484.39
471.22
3369.4
2727.41
1338.64
3227.92
1838.37
721.825
5554.33
4604.78
5255.61
1151.12
2012.8
1753.32
2372.52
1566.26
1526.58
1548.76
3377.69
1178.55
3875.63
3529.49
3191.69
11367.1
8219.12
2321.17
3720.3
1408.13
960.919
2356.8
2202.2
599.608
811.429
377.912
843.336
1158.53
2297
3552.49
937.917
849.604
1440.7
574.83
1466.04
1766.2
2690.11
1212.58
1729.67
4106.51
3364.63
6699.82
5989.78
5379.43
2398.86
1791.36
2989.04
5554.83
4881.89
2882.9
5168.76
9060.27
7076.05
2106.24
3043.98
5380.31
4134.15
2409.29
1759.67
866.133
1394.64
2748.81
2780.63
2020.88
1187.9
2372.6
3020.37
1553.7
5247.09
6488.94
3963.23
3575.56
5769.05
2384.63
3696.89
2530.57
3554.84
4333.8
6536.63
7693.9
13965.8
11768.1
7052.86
8427.25
13275
11122.3
7954.67
3440
1646.77
4233.06
4065.89
1915.08
2117.92
2528.68
1745.72
3817.35
3212.61
1116.51
543.197
1743.43
2940.14
3389.52
2896.36
2634.11
5726.11
4636.26
4278.27
5397.66
3622.44
6838.5
8302.98
7389.5
2755.98
3196.22
1949.99
2405.75
2641.94
1587.53
3138.64
2179.01
3464.2
5747.97
3594.13
3841.2
1883.43
2933.89
3002.63
6494.78
5565.96
3940.75
2829.91
7018.24
4996.03
1733.35
2907.67
3493.59
2705.33
859.703
2832.85
4585.93
5285.04
5481.92
6801.19
2405.84
2067.68
4891.54
4430.81
8337.27
4362.67
1716.67
1310.3
3931.26
6377.27
9288.73
4679.56
3230
2150.52
3669.07
5543.91
5692.67
675.766
2293.67
4770.44
2622.77
2494.95
5031.22
3053.7
6411.16
5967.8
3353.37
4548.68
2833.26
3077.95
4235.46
1488.08
2230.74
3006.9
1371.46
1879.71
967.842
1238.26
1422.86
3962.59
4034.44
2547.66
4908.05
3504.98
3958.34
4194.8
3288.75
5559.38
4494.82
3765.22
4097.79
4350.34
3178.8
2545.86
4929.56
4603.44
5111.19
4427
4076.58
2420.37
5340.76
5359.11
9053.15
9101.07
8996.11
7427.12
3857.24
3438.08
5169.17
8832.91
12112.2
7653.06
6546.02
7108.65
9707.91
9734.77
15142.9
22754.8
21770.7
17578.8
6212.39
5677.73
1330.6
3577.79
5184.55
4255.4
3530.39
1230.74
1549.07
1725.35
2522.66
1186.42
2133.51
1935.9
2697.09
3843.44
4566.04
1876.87
643.468
2492.8
1914.51
1929.1
2878.55
856.808
978.75
2437.93
2423.14
3278.33
2899.03
2896.29
4218.92
5766.65
3893.33
5779.77
10201.7
5606.33
7965.11
8594.25
8108.79
3725.7
4233.73
3854.57
4308.09
7592.12
6550.63
4389.39
4873.74
6720.08
6370.91
4679.49
1231.74
3626.17
6553.18
2144.54
3751.59
4214.73
5773.08
5310.31
4117.41
5209.19
5841.55
8114.09
7269.24
3714.88
1950.76
1979.62
1912.09
4153.49
3175.9
5600.71
6031.77
7224.46
12734.3
11649.7
10643
6999.21
6304.4
5755.1
4804.48
8154.79
8472.36
7185.22
12973.4
17386.2
16553.5
15814
10376.2
10887
8791.06
4553.55
1111.8
1683.94
2687.62
1827.28
2487.1
2597.62
3018.21
1473.02
1535.26
2017.22
793.578
2103.97
1593.18
1763.68
3725.83
1605.76
2504.88
3294.71
1799.04
2236.59
1336.11
1369.58
1855.04
1303.26
1453.63
1700.23
2218.19
8820.85
2986.35
1485.64
1932.86
2883.88
2967.76
7990.04
2534.73
2058.05
2418.23
2552.48
2551.55
1243.1
1026.68
3423.77
3663.8
3733.48
5478.99
5241.26
1503.9
1062.57
2863.52
1943.19
4094.95
3308.95
6020.35
3758.13
3016.31
5086.92
5481.3
7089.28
6036.97
4748.78
5804.38
3607.64
4502.02
2080.36
1099.42
2121.66
1312.32
1446.43
2564.94
1522.94
1930.83
1848.24
2235.22
1793.17
3961.87
4104.26
1485.04
1257.26
4380.11
2204.55
2301.07
2004.29
1896.48
4785.57
848.941
1814.02
1609
1409.45
3420.02
5655.36
6856.4
2552.91
4694.07
6317.92
5831.71
5264.58
4710.84
4790.53
4604.76
5944.45
4141.92
3182.11
3676.04
2416.01
4629.63
6678.56
3487.5
2991.51
5915.13
7906.35
5177.84
2713.49
2826.32
4338.45
12828.8
3633.45
5060.64
6414.02
6407.33
4566.51
3374.27
3573.43
3344.61
3279.47
2474.65
3711.1
3195.95
4689.87
1380.96
2992
1114.9
935.321
1761.9
2450.44
4287.42
1209.5
1424.4
1278.47
2575.53
4090.21
3670.38
1293.54
2209.86
1240.88
987.264
2199.01
1506.85
1682.34
3213.07
1477.7
4236.43
1104.83
4612.81
2264.31
3371.34
1945.17
2519.9
2013.22
1427.74
1645.38
878.942
1317.05
4750.15
7043.67
5791.86
5152.45
4157.01
4417.78
899.008
1320.73
1198.66
3061.82
2324.4
3732.62
2031.35
5283.24
6118.93
2700.49
851.896
2150.55
1772.94
3223.22
2047.49
2563.45
5078.69
4514.11
4167.66
4933.97
5743.36
1475.54
3920.31
6420.18
6679.66
6146.44
3069.12
2773.09
6078.84
5668.87
3830.42
4017.6
7799.35
7290.34
5139.21
4588.98
3673.12
2099.83
2491.61
800.948
3622.47
2433.67
1732.71
1335.54
1424.34
1681.43
4646.47
4595.85
2239.09
3422.52
3108.56
1998.18
709.843
938.399
1481.96
1010.95
2790.83
2210.86
2272.26
2691.76
4112.18
2177.89
2643.94
3269.67
2359.5
4907.23
5905.29
6869.61
6987.39
1435.07
816.887
2074.59
1806.14
5746.8
6658.94
12559
12015.6
11021.5
9199.5
10371.3
13976.8
9467.97
7721.54
9728.27
14736.5
13398.9
13685.3
11009
6295.62
2961.18
4011.16
2826.44
1435.75
2442.46
722.284
412.628
815.136
673.271
1550.35
3288.64
2399.94
1976.78
4288.54
4643.05
8082.88
7911.99
5539.74
4337.81
3861.38
7548.02
6517.45
4204.66
4826.34
1429
2932.24
8287.56
10715.3
5703.37
5639.82
2204.88
3229.83
2030.45
3032.99
4405.1
1183.91
1193.84
2620.53
4604.25
5455.85
3101.25
693.524
2534.2
2588.74
1430.45
1126.32
2657.61
1734.67
2940.55
614.12
1741.23
1922.57
3266.31
1350.89
808.2
2660.58
1856.2
1275.13
1225.75
4463.71
2321.27
1454.97
4797.76
5279.2
2953.27
2340.22
4838.56
5476.98
3512.22
3320.79
5841.96
1653.44
3079.83
3403.76
4301.01
2375.39
3266.18
3416.01
972.751
3883.68
2239.28
2101.93
1895.82
3952.68
4482.47
1484.3
1454.88
3429.92
1953.93
1937.93
1232.28
552.148
2523.61
1892.43
3004.9
6791.62
7508.52
4723.78
4649.14
3113.59
2129.57
4141.64
2013.77
1168.35
2154.98
2671.75
762.294
1410.69
1033.99
2837.31
4793.78
4937.81
6337.85
4746
9278.27
5914.14
11354.6
8105.43
7099.61
4139.97
3354.42
5622.02
1959.46
3462.02
2963.34
6017.31
1599.4
882.25
817.313
1612.44
849.274
1560.32
3006.01
2575.66
1653.06
2650.57
2211.67
1672.04
1459.38
3734.88
1918.23
2625.15
2434.31
3271.01
2399.92
4394.39
2821.38
3182.25
7471.13
4896.9
4619.35
4689.83
1293.55
2684.29
2232.36
6090.42
5304.13
5986.31
2880.76
3472.32
861.734
2512.2
4801.42
4371.53
6782.47
4764.81
4315.77
4491.07
5037.17
4818.56
3992.05
2171.98
4554.39
4835.82
9516.12
12389.3
11009.9
5012.93
2667.9
1720.78
1040.78
1624.49
2048.32
2865.46
4056.29
4625.11
5828.7
2829.94
1536.38
2959.67
3316.89
1304.3
1503.22
1691.51
3020.36
2034.9
1094.55
2516.15
2659.49
1682.36
432.623
789.981
2524.31
3956.44
5734.15
1889.26
2719.07
2570.12
1903.36
1040.16
3890.58
4258.23
4965.25
3618.66
3586.21
6023.02
6431.22
6911.27
5330.23
6715.52
8259.96
13835
14751.2
13090.4
14673.9
9582.84
6338.4
3972.31
3510.27
7428.25
9639.7
6618.41
5230.65
5776.45
3865.22
1584.23
3203.14
2370.03
790.505
1434.74
1180.92
1625.32
1151.4
969.002
1705.99
1216.31
1080.54
2660.02
2784.66
1068.82
2533.15
1940.94
1846.72
3676.1
1871.88
1765.69
1043.4
1020.73
910.588
5284.03
5716.27
7592.69
4605.37
5199.07
4351.09
6562.88
4166.67
2688.74
2542.86
4700.85
4312.04
4612.4
7285.19
6097.78
1943.55
4178.79
2919.82
2367.04
2709.21
2501.03
1563.13
2003.86
2405.95
1964.57
3154.58
3559.18
4849.52
1047.06
