12.6893782
11.556352
12.54239544
-24.40826219
9.9515831
-6.6154031
6.9494456
-8.78983057
-9.25617891
17.81022915
-17.57978418
-4.4255822
-0.4514356
0.068629854
-10.75411164
12.8522437
-10.515888
-2.4282523
-21.941528
-8.7808378
8.87774916
-17.8661794
-10.10943144
-0.6708542
-5.7335274
8.3213774
7.27043749
-22.7303612
4.6511191
-21.396840769
-4.0484315
25.10152728
16.4211109
-7.34761011
-11.2132793
20.6052287
-23.39265552
24.34134368
13.4446544
-36.16240508
1.79635812
12.2905655
16.85642917
-21.0056152
4.8542882
7.9198805
-11.6531564
-20.36728511
-3.32559756
13.5238904
13.74204997
-1.4644143
-16.9581978
-11.0524378
2.668033
22.8366472
3.53801625
4.2694562
7.36005409
-15.91732672
-4.06287105
-13.41882418
6.3734146
-9.0072207
-30.4033886
32.03158655
3.87140855
-6.01975613
-27.8969714
-2.06337815
-18.0042863
-21.8395444
13.8229571
-17.63445686
4.48065086
3.7420243
3.0062874668
-0.3728078
-2.5910225
1.04951794
-0.5496033
15.7034739
24.6843567
3.4596806
19.7222989
0.0083908
-2.55854169
6.9392757
43.00702759
-3.9775955
-9.5452603
7.2532662
10.0732939
7.67032572
2.3550636
0.2473473
-13.6914698
3.3822847
12.8333017
2.1144455
14.6330587
-1.79120785
-10.936258
-7.0452076
-21.0093041
12.103014245
14.52927894
-13.4838333
15.98286279
-22.9862406
-1.8468898
10.2604642
-13.5734875
-10.79731236
7.922168649
18.4955101
-4.48302928
-8.0765618887
-6.603877094
18.909950664
-4.2745633
1.8978679
-37.3970415
-7.38497553
-14.85416555
0.8778969
-6.8030578
-0.2518223
-12.9343678
18.2141864
-20.0711714
-7.7529567
-7.9989067
-0.2821794
-4.19633249
-3.1662945
1.1746672
16.3828474
-9.79080355
15.6486924
-0.978532387
17.39179092
-2.2528579
13.48618026
-25.75075471
24.46912218
2.62192276
7.7155378
0.8003865
14.532738987
-3.1278776
-17.25082226
12.3957540096
0.815593
22.0423676
10.3671853
5.6662459
-7.86366298
-9.2488578
-14.954631282
13.3155693
-5.059269832
-19.6920997
-20.2748185
1.27523386
-5.5214641
-1.3916723
-12.22605607
5.09825693
-7.3800731
18.42421121
25.6272031
0.0304238
-4.08853607
-17.7015474
5.40122493
-8.3537245
-17.7004293
4.0802633
-1.06873215
19.7836458
-9.9825771
16.89203619
15.7817998
19.043671816
-1.9315986
17.3994765
7.4301545
-2.87402711
7.3765908
-11.23060142
28.81400772
0.92616886
20.4031524
16.22518139
-10.24974001
-7.572111
11.00554352
19.3915235
-25.3447303
16.04616955
8.4504765
-53.24811729
24.00588567
3.5501217
-18.0651477
-19.0185699
-26.3481045
-21.99603125
6.13930019
-19.9744311
17.02040607
20.2557353
-11.9949049
0.01477193
-20.69519596
-13.6329622
22.6622061
14.2787036
0.9364535
22.57771491
-11.50697568
-22.5557481
-22.50957239
-23.809775
21.3205527
-3.58332225
-0.5198096
6.19773288
-7.85659143
14.71593744
23.94751061
4.9498511
3.53259055
11.57908459
-36.2890431
33.654599117
17.7950858
5.9186857
0.04840445
15.21819208
-5.9877988
-4.541703738
-11.7542684
-9.0618391
-28.9456751
14.21392145
-1.6872575
22.9143143
-20.0749562
