17.68783023
7.82196082
18.3450184
-12.4059741
5.82424683
-19.5557666
7.9704841
13.7024765
8.9435015
14.4258173
1.79069224
7.3713021
-7.6956033
-23.5206634
9.23108682
4.7092487
-13.37832836
21.3325947
-14.39705148
1.9264248
22.97320324
-3.1352776
3.1333214
-6.7350441
19.3872279
1.980889059
8.4444513
2.9356401
8.06576951
19.8767167
21.7423173
12.55441443
-1.0538778
4.4978113
8.3702911
6.5673502
-4.11326903
7.9543962
-3.3443968
10.50527603
-12.0834097
1.32192226
11.75717769
4.53252992
-20.8847106
-20.2400887
3.0708563
22.8741152
-11.4820793
1.68284223
-4.59332598
-0.8028224
37.4315824
-39.60458177
17.571385
-13.15455717
12.8236593
-8.0851245
-3.9970094
-2.633947
2.7882929
2.32046179
-1.5235776
16.3623493726
-10.9825882
8.1211318
-8.063039
4.9624868
-11.3347506
0.7448592
11.18934755
8.6193586
22.46968107
-13.8277778
8.3772328
-25.2740855
-3.60491526
-12.90347363
-2.1483676
-11.246161
-5.97779562
-9.30569508
9.5567828
-8.76353847
11.0515474
8.30787923
3.2961944
-5.78413609
11.9238049
-3.7057925
-10.6338439
15.7630622
-16.3672391
10.5322526
13.065736
-2.79538471
-5.78831173
-20.5687605
25.734514973
16.1968562
16.50696077
6.51463864
-16.1668974
5.0374448
-4.41414688
-2.25127172
-9.9789784
3.58820047
10.34758
-10.2907998
-19.4821754
-17.038589
0.4090955
-5.4380629
3.5611131
-15.58165522
-7.978996165
7.1061041
-10.24250596
-11.2882794
24.2210706
-7.58977031
-30.1163825
-15.1207567
1.8945062
-2.4950493
-16.60938906
2.605201
15.87284132
-12.74763454
4.8525456
11.497096
6.42950462
1.2547666
-14.4599535
17.4807075
-1.5011907
1.4118225
14.4071115
10.53591332
13.0439306
6.9446897
-0.0274246
-26.6550738
-26.530658201
18.1971727
-7.2838015
-18.145739
-24.37231051
6.71772203
18.357484
-11.150815
25.9744618
-5.97657823
13.4168757
-17.59563685
-17.1862349
25.6528078
-12.2676534
11.7821486
-2.9492924
25.11589149
26.38728903
-25.20491565
6.4068524
-6.4072141
1.88600064
-21.0240834
-17.4296142
-61.61338751
5.3564121
5.0613804
32.5013136
-3.4566779
-61.2566918
-23.2740729
-6.1712068
21.4518596
-5.1427205
9.07456598
-5.724164
-10.043449674
4.9813845
-6.7184487
13.7510082
18.1912669
-12.36071167
5.497758888
10.3210544
-9.32233366
-2.5237736
-10.61214229
-24.41294361
9.71931861
12.32424365
-5.10034622
17.7130011
-3.1928155
-12.9200219
7.75552379
-14.9495691
-13.7335475
-6.9908861
-13.15617463
-12.98162978
-2.37774721
5.060742198
5.42290279
1.49937331
0.15761703
18.8477456
-0.7076822
-10.3012102
-5.71035346
-11.42136032
6.9774448
-10.73344496
-23.429292
13.090784
-32.00042912
7.75216233
18.6332074
-19.7990065
-18.5129331
11.02827713
13.06106094
-11.8874438
-8.2532128
-8.6301772
-14.4720739
-14.7074155
-29.137787
2.57769997
-15.6486884
-45.53024518
-21.2457033
14.3457159
-39.63745234
0.819225
-25.1855609
0.0732436
22.3423868
28.74365104
-12.92692229
-5.30701973
-7.2916711
-29.7686566
20.41847903
28.78625987
4.0022703
