-7.5943393
19.9586411
20.4388517
-14.8472125
15.04308907
36.14083241
3.0902284
6.0423973931
-2.9514455
-20.7015004
9.6845914
-7.64004466
-1.0823233
-5.77890457
-11.819617068
15.2352164
22.671740443
-7.91417227
10.03738068
16.14133689
-17.1557381
-2.10316464
7.0731729
-19.5544073
6.1964712
7.98815777
-5.22533769
-8.7252207
-3.651957116
7.0651631
-4.6599277
-3.0196715
13.0391948
-19.741081677
-7.4816264
-11.3810596
20.593733473
14.95572504
20.9820403
-24.1981276
-4.84251469
19.8521253
0.5465128
4.044214
-8.22970977
-9.4831681
31.03376005
-2.3228348
10.3762004
-12.77025
-8.937138
6.55328322
-2.4636147
13.791269928
-4.61041754
-6.70466639363
3.719283884
-15.71842705
21.6469954
-8.4299258
-17.0665807
14.3817253
-6.7157828
31.07935298
5.41955215
-3.1790555
4.5042832
-4.4753028292
-2.8083622
-12.19075601
18.41523134
28.0535412
-1.9052152
21.19203514
-6.67823263
-8.0638351
22.39919026
-18.1849817
7.9642797
14.5845103
-19.94427826
25.5439129
3.7807099
0.1490675
18.77693138
-3.9369792
0.70828228
-5.8383597
-17.78119051
10.3559753
-5.818794662
7.1555869
-37.3803932
13.08118484
33.92008665
-2.4451126
-1.10517553
-6.0232674
-5.7998758
20.933815
-29.16161112
5.87507921
-8.16639995
13.26350903
0.21641403
11.5030958
5.6734293
26.8659717
-2.85249566
14.2554457
20.2416798
1.8048468
5.2703422
2.6575899
-9.39458293
-2.7756411
24.1334241
48.1980065
26.3130163
-12.60594714
-24.5994301
-0.28661017
-15.50267324
-15.18101733
-16.22697325
-25.77859315
31.3689526
-17.8956874
8.2898583
-7.44186042
-16.21292567
-3.4302358
6.6897436
13.0688221
28.05970413
-31.9906812
-2.1621966
-11.4195561
-19.0741571
21.5456787
6.37312807
-21.7191143
-20.95713443
13.6483633
21.93578761
-5.7996535
11.7270011
9.5219089
-32.4818001
-16.1250478
9.50372751
10.97609775
2.949659656
7.0524416
32.169936396
0.196182002
-7.64121779
-9.87976119
-13.0033618
-10.7897488
-24.24667297
10.20623201
7.9757595
10.6581428
-4.2968497
-2.3410228
-6.16604319
-33.4737998
-6.8827831
-2.40511765
9.1358907
-11.36993736
7.1727887
8.948249
-15.832120754
-12.1742807
-0.7067623
1.50285705
6.967730363
-11.6441282
27.6096255
-1.5368811
-8.8975327
3.82009902
13.3286572
7.5217594
-15.6972853
10.2763565
11.911539
-21.3044692
-7.08273416
-35.9871223
5.7034811
-10.61864621
-15.681245941
-3.82286117
6.0382902
-31.5693009
-5.5325518
17.1000171
-13.6476051
0.6115493
-11.32410957
16.44759345
-1.47475558
-30.3851585
-16.4460433
9.2478912
-7.38789544
28.0762659
-9.46445202
4.6584797
24.75670471
21.4199047
-18.3363612
14.8926194
15.28803733
-34.75122233
9.8665763
20.69659122
-6.22115498
0.13276649
5.44386282
-28.5168991
-14.93540728
-17.0446797
-0.147551213
15.1147993
-10.96607782
6.0422125
-10.580565
11.240214
11.06347867
30.41858881
16.09179376
-3.92155555
-17.5365607
-20.61248143
-5.2614566774
-27.06905258
-12.5148281
28.41754345
-16.972179466
-3.3047255
6.25632088
-19.1757498
-15.873997
-10.85980104
-14.1707111
-3.02354408
