1310.32
351.47
1837.51
3396.68
16319.6
7144.55
2340.66
3257.49
2094.55
-226.346
2798.41
1341.13
524.173
10765
14920.7
523.585
2273.18
839.721
2042.08
5712.99
5351.59
565.169
1195.17
2231.45
55.0415
8159.71
1348.04
754.61
2495.03
-17.1372
2536.41
3322.42
2534.94
7834.57
3390.87
191.173
3408.34
-82.2388
1404.01
5086.74
354.938
970.424
-914.389
7433.14
233.089
3033.28
-698.234
3601.1
4696.09
158.924
-183.139
63.8728
1746.05
591.19
2363.51
6619.17
7387.96
398.452
-291.994
89.5476
3153.84
4546.99
488.842
2033.45
8441.9
109.721
907.311
2318.05
3553.6
1524.5
5923.36
1351.24
168.063
-434.558
1029.82
10904.5
2236.28
6639.5
380.904
8688.43
8717.21
2056.92
2955.36
-264.468
2515.18
-179.81
1016.34
216.928
771.976
1221.94
4747.53
1704.83
-512.338
-383.313
11944.8
4585.38
1405.1
2917.53
1060.01
1636.55
79.2772
7085.85
2788.94
14478.3
-29.625
2497.74
732.166
4742.09
451.113
11379.1
7275.09
1813.74
437.855
1289.86
593.1
714.745
3727.04
-100.264
1941.12
2659.04
7570.18
3178.89
4608.73
590.136
1727.33
131.605
6350.33
3861.98
440.034
3112.49
1028.13
950.536
420.465
122.561
458.347
1140.25
-172.553
9203.28
517.062
2737.54
2110.52
830.904
659.698
4693.18
-49.1088
-253.136
4581.54
134.053
4533.72
7392.31
707.589
1880.78
7371.72
2527.89
3610.41
2509.16
2363.32
938.611
1973.5
355.572
4714.25
2003.35
-263.377
1461.3
6321.86
7664.5
156.805
3017.72
18080.1
1698.7
670.431
2172.06
728.522
872.515
1985.97
125.612
817.614
32.6886
1771.26
738.533
624.868
973.228
1082.83
5690.03
388.375
14884.8
2529.4
2556.23
2979
1159.64
8684.73
4915.65
972.806
496.86
865.054
861.075
-147.906
3472.45
745.531
4926.14
789.624
2518.34
2937.35
-185.745
3566.43
1069.25
205.46
-192.57
2224.43
11567.3
2348.81
3505.32
2961.29
2228.45
492.72
6320.73
2556.14
2299.9
3022.21
1288.65
1074.56
4114.69
810.547
2264.63
6078.09
1720.29
1819.98
4139.38
-703.091
3297.59
4623.16
2149.42
-75.2093
5086.52
8935.42
2503.65
2082.41
894.252
2431.52
5286.7
3105.41
131.082
673.555
4439.1
-28.2815
618.441
2322.1
244.881
2178.15
3855.41
3292.07
5377.63
422.556
3440.24
3255.49
3561.22
-165.326
333.623
1998.67
58.6776
2105.79
1554.7
448.245
676.344
4214.09
1644.94
1325.05
3226.26
3328.62
1390.3
3713.34
105.964
4408.99
5472.48
575.049
45.1009
980.008
-113.362
1356.83
79.0506
1616.57
1173.58
2499.56
329.12
6247.46
921.919
1819.56
129.11
9675.81
1077.03
12743.7
1003.24
4387.69
3554.62
2346.08
9030.74
2584.28
7261.13
1625.6
1408.78
336.081
2365.82
2473
1361.17
13.6103
457.772
-296.524
6005.93
3388.62
1557.03
866.298
391.939
1488.17
3411.93
2077.18
2313.89
8004.09
7979.81
914.614
8921.32
805.319
74.1168
3607.23
2062.65
1650.38
-763
1532.43
2358.77
261.194
1609.73
127.971
-137.28
6078.05
1980.24
2584.5
1673.86
2376.89
10400.1
3661.64
1898.74
3995.97
2176.7
1666.15
3322.34
694.906
2637.25
842.819
1548.12
1060.94
6828.81
685.722
2745.62
597.218
378.404
577.315
4862.41
1505.33
396.646
3908.75
2836.47
4323.1
2236.42
6617.1
784.255
4137.21
3882.66
3012.57
1657.54
3166.57
1721.94
5011.94
1059.12
849.743
6661.44
4414.58
5012.89
5185.55
180.983
702.57
993.379
2063.65
964.161
1752.32
3442.18
184.483
2381.84
3645.04
4586.07
557.773
1593.04
4213.53
5025.03
3086.37
556.568
4813.92
908.227
4833.46
7348.93
186.297
2152.75
2242.28
742.128
4565.43
11387.4
750.684
440.311
1854.08
1494.02
2315.38
4034.63
185.747
2959.86
128.972
544.419
1740.93
468.168
515.585
6594.59
4814
998.723
1234.83
450.028
993.654
1510.83
2414.38
827.716
357.806
839.389
2283.77
2412.4
-308.834
2415.18
6554.07
1527
1782.53
2167.44
1555.65
1270.64
937.745
424.593
-199.714
1841.38
3073.18
5214.59
3045.37
334.039
4233.5
3951.21
4129.11
897.097
2796.18
14.4971
242.338
22779.4
302.061
4754.66
344.703
-343.676
3726.3
1802.01
3165.05
3996.23
2343.42
-864.44
824.471
874.767
207.702
1135.08
1515.58
8325.17
1871.62
3363.24
5650.38
242.95
1029.61
5047.84
5673.46
3.29218
484.401
472.585
756.755
3696.68
1120.18
-86.1258
7381.4
639.823
200.53
871.516
1186.92
3546.72
6199.24
7823.53
-240.637
5058.19
7633.06
3263.56
3499.57
-137.283
466.626
5522.44
-257.047
3160.45
3234.52
3610.84
1851.4
574.817
748.308
1137.38
1637.64
4182.31
1469.97
2175.84
8554.46
1348.04
5605.75
563.344
600.55
4153.65
3611.1
2386.74
1387.06
-292.551
8141.92
2681.44
2981.26
3665.56
6109.12
3719.16
4957.19
1501.8
4093.62
669.553
3366.61
2295.46
1712.94
3596.25
-307.065
5016.25
1995.85
1722.64
1051.77
4345.82
590.496
221.773
6288.05
1447.63
265.259
6180.02
11453
8739.34
3091.12
516.7
3093.19
1006.03
865.006
-219.008
1757.04
525.462
617.318
195.264
181.177
446.257
9237.63
810.755
2894.83
1271.53
261.655
3322.61
4608.26
178.757
1057.95
2121.98
8157.43
13487
4714.59
3690.92
4296.21
3525.04
2540.2
4148.96
1139.12
12959.2
2472.89
825.312
10190.1
-264.164
2846.32
1965.3
950.987
30.2688
164.561
-473.586
-201.229
2483.25
52.6543
-521.001
250.439
1601.62
706.645
36.7633
270.688
1731.98
3955.8
1359.12
111.2
8144.1
78.8063
272.879
559.786
178.66
2401.51
278.534
3481.14
439.052
3947.3
2063.39
7369.38
4336.66
2606.43
7263.43
11973.5
-309.574
579.522
12602.4
3036.4
18.2997
-121.044
7699.76
802.583
5515.02
2709.96
1587.7
531.962
-229.724
9000.58
708.707
3844.93
909.411
5290.87
1099.6
3323.83
3052.07
1244.57
9232.89
1813.52
2564.06
7607.41
3551.14
1193.07
2036.14
5869.36
1738.69
2591.71
224.462
234.555
816.789
2500.81
707.989
421.741
243.664
244.004
2533.03
4155.47
5100.65
246.714
1148.28
1378.27
1546.16
791.19
4124.6
350.394
3549.61
2402.33
258.542
3827.05
967.517
127.18
6722.58
1490.71
1345.16
2411.71
1233.64
5194.91
468.765
1453.37
3735.8
36.4615
2704.7
2155.63
11941.7
3332.49
1453.06
1185.57
5058.42
6193.57
1732.69
2644.14
4614.34
543.809
940.663
-438.106
1347.24
498.294
1630.97
3761.15
1158
-441.606
4340.23
2661.65
1092.73
3846.5
1203.77
7327.14
873.767
501.831
1574.98
597.377
1571.26
549.83
3546.36
2986.12
2352.45
244.92
472.308
396.924
2998.96
3151.4
585.342
1186.42
1938.83
3376.63
1768.22
22.2767
332.763
1772.81
1503.5
4261.1
753.826
-181.923
7983.24
-689.544
2063.8
1412.64
1079.03
921.525
3776.06
210.747
2446.11
1400.44
1558.19
2130.59
2632.48
6292.7
3182.37
726.772
5722.74
13304.1
1467.75
807.632
-116.621
2846.88
6496.31
-93.6801
-25.6683
1101.03
875.072
2651.85
3006.28
2035.09
2262.1
775.144
-607.912
1008.49
1097.84
5825.74
2015.03
454.86
5528.25
1718.06
258.855
2710.54
4935.67
2253.5
-42.7365
2052.02
654.259
415.281
1357.51
769.284
630.873
1481.77
-368.874
-48.1617
2676.32
382.154
-24.8408
1244.7
1911.73
1142.48
1840.26
2384.73
-241.756
2506.1
2530.89
1608.68
2292.14
8460.98
1175.59
88.3253
785.351
1233.38
292.404
708.008
3544.41
477.547
2264.5
832.399
3830.21
8783.6
-501.973
279.451
577.804
-195.365
2915.77
2175.55
5538.37
183.071
349.193
3493.41
651.969
-134.577
212.015
1516.11
4120.39
362.193
1714.55
1522.53
306.33
671.262
956.255
5748.52
7038.11
6570.51
286.293
755.632
1831.16
-427.192
648.286
486.589
1310.1
1072.33
7749.74
1399.76
779.56
3414.79
1993.08
1484.47
3634.39
1905.78
224.109
-91.7021
1585.59
658.038
2000.97
1699.28
4078.28
6994.11
1769.01
2865.68
947.135
1813.23
11379.8
3615.61
2450.56
2494.99
2257.93
3299.14
-340.497
2667.59
287.248
724.267
2363.24
-142.388
1547.48
1014.9
1254.69
449.119
746.518
378.621
2424.82
2594.78
3959.41
10567.6
13605.6
1990.33
-46.5557
5608.81
-42.3292
4437.83
538.482
3850.11
9941.99
2411.32
3145.93
4029.36
2141.21
1505.01
666.539
9407.61
1011.56
1394.02
1.81437
5450.36
1343.09
338.888
958.65
-355.771
312.038
226.412
982.692
2080.25
6336.83
-284.097
460.806
1476.35
2469.36
1161.75
901.169
237.811
207.927
-14.1233
5273.51
5791.95
296.049
427.441
2375.8
-725.17
76.0993
4110.11
267.554
7573.11
5277.26
306.333
2182.63
12468.2
2219.87
5824.09
3297.24
4761.88
312.02
-266.353
6815.27
1382.63
2623.72
5558.24
1365.66
4644.2
1157.61
3635.02
19008.7
4260.21
1444.46
4107.4
3422.04
129.174
698.493
126.903
3109.36
317.374
-25.5213
1004.75
-241.71
-58.1667
1178.73
1377.66
6352.75
743.82
-260.442
1277.44
7088.88
38.0232
1401.98
2271.83
5184.28
240.483
15419.8
6171.3
115.834
921.272
802.681
3100.01
655.457
713.306
4464.83
-185.898
558.208
1218.94
-240.043
17015
1266.4
6647.62
9435.41
689.085
12415.7
441.321
2571.03
89.6531
1880.48
1677.12
2545.3
-428.38
66.0116
190.582
292.788
328.53
655.327
2321.83
6257.99
-120.324
-145.402
2639.08
1478.06
4228.39
3136.44
1375.96
-577.957
6290.12
4946.19
6302.29
924.781
2430.32
2193.49
-173.794
131.113
12107.6
180.608
2869.55
1957.6
219.37
1173.87
4818.99
5786.85
3399.46
3758.63
7381.61
2507.18
720.497
5152.27
1454.26
-78.8916
-112.012
544.552
4165.74
2509.18
3302.92
1350.75
3803.87
1528.81
1047.33
802.635
240.253
1605.86
4197.24
4251.9
10.5389
4872.83
430.295
5014.62
6858.78
25.7264
1471.77
1616.95
56.2844
832.166
21.7955
1773.23
1796.7
1358.98
2277.89
3749.31
748.531
3065.13
3201.22
3764
1370.09
2836.2
76.8348
409.928
1890.13
544.596
2896.52
1419.22
1255.5
-33.5657
4599.7
1719.22
2223.13
2424.58
5892.78
2370.39
1061.51
840.281
8749.49
767.935
3767.85
24.1824
2734.38
72.3783
2313.74
4391.31
2065.28
2421.33
1820.25
702.288
153.401
1779.57
97.6888
1003.09
326.212
-453.385
494.221
-458.936
339.597
302.863
5266.88
2833.59
1504.41
819.302
706.844
3033.4
1780.79
396.937
-201.613
483.059
1446
3245.6
96.3059
3534.53
1047.39
987.428
-21.9105
1391.45
3538.34
1340.65
3760.09
2371.85
912.592
1117.52
9595.9
916.832
8311.11
1503.56
8195.86
-25.91
3403.76
7350
1595.11
3002.29
-598.322
717.477
1091.98
-159.617
1712.18
2645.97
2132.56
4564.95
4133.36
2161
486.76
2213.52
2396.85
7744.85
3483.89
327.676
1549.98
676.995
1055.57
530.115
-331.241
1033.21
1944.72
2052.19
2029.25
2235.17
1314.68
4972
308.232
2155.18
3614.1
3596.79
669.237
4759.2
1234.16
790.982
5087.63
3821.34
2763.81
95.4638
2245.24
887.231
1281.2
345.236
8304.1
3888.97
8507.77
1978.87
329.136
-298.897
4737.36
4773.74
568.05
7128.66
11028.3
3215.53
4558.62
896.365
221.434
1749.72
5858.57
3135.55
14.9392
3598.53
1529.62
8785.48
68.4219
14048.2
9250.54
3407.6
229.992
221.097
-9.04713
4422.92
3001.27
213.069
701.053
1344.81
743.393
2872.14
3425.57
4067.51
9692.07
16059.5
1316.95
153.508
142.93
1028.38
272.163
1153.73
4126.8
6711.99
131.907
1106.42
-193.583
1234.44
7372.23
2404.35
1722.84
5061.56
2310.4
2619.14
8615.19
828.572
1273.83
2573.19
316.797
-381.168
-89.3695
3385.94
2567.9
1216.88
642.516
1902.71
1706
1117.63
7571.87
670.803
2406.37
469.149
8605.5
12460.5
2029.38
734.408
2396.82
867.599
5151.41
7671.28
5665.2
666.035
13386.2
937.2
869.57
795.649
4595.92
311.99
1158.88
1432.62
2500.13
362.695
1086.45
2286.67
227.515
7748.64
1830.26
2395.71
1178.17
1133.46
3718.64
836.176
4701.32
442.809
1972.37
1091.48
1841.18
2821.81
11867.2
14596.8
15654.9
136.598
454.796
605.264
193.6
1849.83
133.832
3772.67
1763.41
345.367
7955.62
579.346
743.776
2992.63
1814.82
236.626
4939.28
139.649
6017.76
2153.89
975.157
8062.86
2328.56
6639.24
3897.42
3879.97
539.739
431.844
2529.64
3971.22
2659.84
1784.61
58.481
6817.21
4637.9
1685.81
1829.4
1058.79
-385.38
5651.24
1846.38
1267.32
-40.0836
4780.89
3864.57
1603.66
8646.22
5511.05
3747.59
5204.17
1570.53
2576.8
377.12
1677.16
3631.01
5388.82
3319.67
370.891
2773.67
1047.54
524.246
1733.82
2985.21
14531.8
2018.28
3390.82
1570.55
10450.3
15233.5
742.272
11369.9
-151.38
900.418
508.601
2803.56
4642.77
3398.52
2882.71
1955.66
1371.75
903.799
966.994
-85.5886
120.215
694.686
13853.5
8333.33
557.106
424.192
4836.15
1543.95
8836.02
551.558
2246.17
3272.69
1868.61
2886.61
1353.5
6530.47
2314
-209.525
3323.71
4942.06
2260.65
-169.945
-731.856
1241.19
578.198
-445.628
655.681
2346.19
2266.26
3575.94
1831.41
10228
-134.826
3480.09
7804.36
-97.6746
2532.32
-341.957
-83.2817
1854.51
-74.9665
-154.839
3284.32
945.423
2070.07
3976.86
20902.9
1364.46
701.173
1172.33
1378.87
3670.26
2077.35
557.856
368.788
8482.04
1653.82
222.54
493.157
-69.0776
7820.95
1889.19
3079.51
3557.65
-300.063
-210.815
2288.57
2552.78
461.054
954.153
1065.15
1131.84
3459.36
3900.78
683.507
119.128
1123.64
1911.06
1052.59
5901.8
2809.09
746.718
581.099
3447.65
5685.92
2949.83
4362.95
794.804
2333.44
1588.93
3836.89
290.771
1736.46
2317.29
2117.69
6901.71
3495.19
1329.97
4651.92
677.665
477.534
2491.3
-6.42376
352.17
153.322
3691.95
1975.15
4836.52
9488.49
12696.9
24607.4
5123.73
4813.26
1837.18
937.607
2935.89
5493.18
-95.5121
14.7566
3558.41
909.496
1762.18
1759.52
302.837
3329.45
1697.09
3183.79
82.2052
-354.576
622.915
3854.75
2357.87
860.568
2578.25
3877.72
-236.158
2511.26
3802.9
5428.04
16021.3
2364.48
942.15
391.574
1908.13
9267.05
1083.22
755.097
5376.93
2796.09
1386.19
229.202
695.535
2184.61
491.422
-236.324
910.013
1209.3
1587.64
116.136
7446.01
5772.57
225.496
1332.2
1106.53
1097.01
5428.02
168.425
5274.12
5878.73
-240.096
-57.5619
2393.99
574.193
470.904
681.63
2748.86
3957.78
1523.69
1796
6127.23
6325.09
-174.888
5431.7
2002.92
2891.28
2801.51
1310.9
1374.75
-467.076
-13.2196
4589.64
2169.96
681.304
-397.312
8816.34
1285.44
934.3
-154.135
104.042
1997.58
401.523
64.5556
3267.32
613.283
11018.8
4651.57
4831.07
2900.96
1742.87
6308.82
1532.74
713.291
1333.23
-256.925
1711.75
304.211
2052.27
2911.94
1190.02
525.139
409.945
3799.85
407.129
652.46
3142.28
898.307
2645.49
1523.21
398.941
3647.35
956.548
417.874
724.381
568.362
1069.27
-24.4805
4625.43
2154.38
5866.93
-438.411
15062.2
5738.05
2839.79
4098
940.929
4514.63
3209.08
2881.92
3383.35
-643.739
1628.54
710.276
1714.07
1085.5
-200.862
203.54
2357.73
2849.41
-176.659
1193.7
4444.19
1427.75
6284.52
-116.83
2535.62
3297.19
7828.52
2398.88
2015.52
978.606
2180.3
6606.16
325.604
9335.39
4409.63
6779.45
8012.97
3781.26
788.69
1328.38
5975.59
1381.58
663.589
2278.1
2171.6
6891.98
4604.45
2192.5
387.134
5338.59
6227.86
1720.11
1492.1
1945.29
2528.45
598.411
3677.09
1651.12
4495.9
2280.4
4801.49
1007.13
1008.25
3577.77
3533.82
186.182
93.3562
1578.94
2901.08
331.55
593.082
114.668
1017.57
5611.01
1491.03
2318.3
2160.72
638.803
359.494
1544.85
6497.64
5214.47
3997.51
2114.95
1745.6
771.271
6043.03
2402.18
199.935
1722.01
5258.55
-375.418
1711.58
2878.18
-191.289
487.268
963.014
1444.8
223.609
1549.25
897.471
2236.89
328.594
2280.87
3857.53
2164.43
1049.92
-320.695
1280.07
568.406
565.525
710.056
2521.5
947.469
4311.87
1798.11
543.853
749.11
4559.51
1237.99
429.34
4746.98
4058.77
13171.7
5527.77
8315.55
1062.99
7653.35
622.823
1213.38
1205.54
2978.89
-33.1615
-404.076
5925.67
2846.1
243.639
1350.87
4689.84
1054.74
1290.45
1009.57
91.8316
3655.96
1544.33
2097.1
581.022
544.753
1739.01
2159.89
3555.7
4997.57
520.048
4430.09
4738.6
998.987
3707.09
5803.42
4106.98
872.544
996.938
775.053
2111.25
353.562
2496.63
7265.53
2046.91
839.555
939.707
755.339
1375.53
2864.95
1362.01
8421.98
3045.29
1044.15
2419.84
16964.4
34.4483
1387.91
4215.39
803.04
278.229
883.202
5568.22
1278.08
2839.32
82.3215
3069.23
603.181
590.567
41.3666
1279.9
575.926
604.511
1926.4
1882.03
2028.14
1275.49
-115.086
144.915
278.305
3376.56
3784.42
12569.5
1136.99
-500.933
13002.9
1027.72
367.834
536.262
8463.79
1741.61
2535.05
2869.75
-552.73
350.289
8362.07
8537.51
1476.09
2735.47
6607.19
2207.66
1171.52
-0.55817
1442.74
4348.87
1789.11
462.813
5766.11
5489.9
1836.08
2328.22
3239.01
3526.88
1282.7
867.112
4075.34
1726.67
3556.18
449.13
6218.46
668.725
2702.17
203.502
2704.18
2245.33
6185.59
674.439
7349.63
1249.06
2383.77
1321.12
291.401
1253.02
9987.5
300.332
1146.31
4077.08
2636.82
560.72
4138.06
5871.34
7176.37
739.566
2330.02
4256.66
1357.4
1139.93
4349.43
1449.88
1498.46
656.385
4871.06
1921.7
861.611
6765
5584.5
5684.16
1508.42
2290.52
1829.23
3075.59
1455.53
6944.29
1063.91
7623.81
5746.1
1427.49
3555.37
612.239
1357.5
311.593
1105.69
1074.19
286.516
1535.83
529.714
2785.22
1062.35
454.07
-46.0031
2255.34
1656.62
2199.14
4190.31
196.408
167.417
15888.8
6.78983
4727.35
6552.32
155.672
219.504
78.2198
1058.66
491.943
7836.01
-133.241
440.475
681.005
777.634
965.993
749.107
555.536
2497.87
4078.25
-334.487
1730.16
2454.08
3761.66
3262.65
462.648
-94.6053
5015.55
435.738
8372.5
2962.95
278.739
975.909
6632.27
2193.66
3845.51
314.928
401.806
2128.37
504.692
1411.13
758.593
973.515
3327.3
2013.92
7457.43
2516.01
2527.27
3395.74
4445.47
7995.96
3296.36
8343.79
2308.27
840.557
294.963
3426.98
371.226
2122.87
4650.99
3128.32
1538.31
536.399
-66.4089
166.401
-42.7246
824.673
15658.2
2973.73
789.738
389.688
1206.18
1875.94
-32.7035
6314.03
2423.89
1104.46
8048.83
1928.26
300.786
837.796
1406.92
494.402
2559.94
2001.59
88.2549
998.567
4250.54
860.417
1834.3
1328.07
3703.69
285.676
736.232
791.249
7426.18
4546.94
1933.63
925.724
884.105
737.637
2668.42
1453.71
548.181
686.646
1950.94
1144.4
3393.41
-3.53142
2789.83
14574.9
56.1617
2531.95
1029.39
3302.7
-119.57
883.985
298.592
-29.5828
-6.98191
2711.79
1537.39
969.473
425.848
-649.717
1327.86
1181.47
2000.24
2212.6
1973.35
536.362
1447.03
5063.59
296.135
2862.7
4889.97
2895.74
3092.3
1562.27
1207.31
1788.41
1055.58
3163.43
1223.55
106.655
3091.29
3460.82
1005.66
2429.92
1983.02
2126.46
5703.8
2718.52
3788.11
6838.66
430.339
1608.51
19.2025
1969.34
2453.66
357.76
6542.44
4482.34
3754.8
1119.6
18.8115
-268.367
794.521
709.411
5406.75
9589.68
1139.54
386.941
1066.66
1957.81
229.636
3910.12
1164.06
2753.17
713.221
195.068
1435.25
-386.197
5277.31
2123.72
7574.01
132.846
1633.65
2235.24
1109.76
185.752
10455
911.055
2474.88
1170.19
2195.11
2550.46
212.246
410.755
523.534
1682.98
3243.02
1157.1
621.655
254.936
1018.42
-297.087
-77.8414
5604.93
8342.16
4924.28
6338.65
1723.39
1339.43
3562.25
7440.28
130.512
838.996
1409.35
405.621
3641.23
2694.97
-979.991
944.291
3870.34
2622.98
932.13
4321.81
6817.15
2003.11
3224.86
1501.63
768.442
-48.0406
6927.58
3622.38
1866.79
2568.6
1475.47
5568.59
1327.48
2994.67
3647.56
3109.02
4667.52
-391.022
1304.23
318.791
327.753
3656.5
1170.81
1233.43
156.099
212.487
23.9203
769.26
3484.12
265.332
1495.94
1305.87
1279.99
3461.82
2939.02
9973.27
627.86
1560.49
2208.64
3412.87
2532.93
4238.9
3462.28
7568.08
66.9613
2599.68
195.737
507.458
3026.18
3106.56
3005.52
389.013
615.279
5435.17
2923.26
5474.65
-86.736
819.25
1013.26
3317.76
1139.84
8666.04
1951.24
9710.35
3692.96
6670.89
423.366
2736.51
2691.1
1035.95
3966.07
556.786
1973.89
563.464
4407.08
2501.27
-134.853
3111.92
493.829
1619.76
1428.73
484.552
1490.48
1992.84
3667.27
3975.5
4452.04
741.967
2402.65
-266.826
6571.42
2126.56
138.472
615.275
-491.435
2979.07
811.93
1730.34
2357.56
7391.71
2100.66
740.659
698.645
6287.32
607.741
-348.893
3163.94
7109.46
998.842
-323.507
-200.622
1989.59
3158.18
1088.17
2512.68
1416.3
298.233
4930.29
1359.65
3581.44
876.222
2055.43
178.03
1081.21
3492.84
528.274
645.242
6214.76
2013.96
2378.98
130.125
775.804
351.961
1271.84
3098.54
9563.63
1464.13
5047.13
480.059
2795.73
794.506
1227.1
288.165
2667.89
4569.72
2586.01
6618.31
814.206
1495.58
6528
1936.62
1643.51
776.075
9852.5
234.331
6359.87
926.421
1485.48
1437.35
-613.27
-416.248
1348.89
7838.86
4362.12
154.189
-95.5553
517.309
11954.6
-47.458
1456.05
5857.66
3397.53
245.945
2801.59
3731.3
9589.33
2764.96
277.606
600.959
3257.14
1289.55
1711.64
235.79
1201.59
1115.84
833.331
1748.23
2088.72
299.89
1603.54
1093.89
1680.07
2236.36
1222.72
865.756
1355.69
967.225
2686.96
12821.7
2695.82
122.068
3941.78
16001.2
-50.4925
105.507
1771.56
371.018
693.731
14932.7
1819.79
-319.482
1475.67
96.3478
5097.08
4465.4
888.635
2384.66
2427.87
3279.31
597.311
516.607
2303.05
7985.53
2352.11
8011.01
-216.441
5427.13
3858.67
719.074
-212.426
1767.74
947.01
918.353
7450.23
2670.38
-187.756
1359.9
1197.59
-1151.65
11881
1199.86
4745.17
5178.15
6447.58
988.988
3042.6
889.674
163.488
1040.61
3730.44
1920.74
1218.63
1600.15
543.875
8371.57
3683.76
3589.8
4764.93
-42.9846
344.729
3416.47
1236.41
2598.15
3254.34
-234.702
3193.26
2175.04
1968.66
3181.1
1928.99
2176.53
2182.8
5006.14
949.501
3243.43
-175.626
659.652
7512
1485.07
11319
8014.93
4731.35
2280.8
1089.98
962.404
1225.81
-460.822
5544.67
396.661
987.921
1364.83
50.3335
2195.47
768.371
299.915
2917.54
1453.51
1047.55
7370.11
6678.47
2942.18
2130.77
1780.81
514.958
3242.08
4131.69
2601.77
8539.94
1688.56
608.435
4314.07
1612.02
-127.006
912.736
859.427
4064.22
3225.79
15535
566.65
249.062
2227.53
1842.97
1200.86
2792.24
-284.471
2849.69
2790.39
1203.1
8741.36
10071
842.3
1429.81
802.788
-250.416
113.465
-840.744
1289.27
5236.1
9939.53
-369.683
-433.089
3641.04
1700.14
4514.37
453.6
2865.48
481.267
73.068
2382.27
1452.56
126.709
1927.29
3804.28
1793.96
430.793
2120.57
1588.86
4888.06
2168.78
-59.2883
2404.63
-75.52
198.764
3203.44
555.882
1922.59
3357.78
1217.62
-183.201
3061.28
-640.804
448.126
2431.36
9654.04
675.777
9634.92
5822.89
874.333
185.33
1193.45
7604.83
3608.25
559.806
2157.57
2243.35
4811.84
12527.7
4255.34
8343.76
745.899
52.7703
1489.12
686.648
6023.26
4045.17
63.2712
-208.763
1732.17
5451.72
1752.19
8902.72
666.466
1993.48
961.859
360.632
-83.5688
1463.74
949.54
3593.45
406.871
822.86
700.527
301.86
400.092
172.523
3353.21
2531.28
3298.51
1199.09
-408.923
2198.85
1491.73
7732.72
4736.89
227.824
1580.84
4485.23
2498.38
3858.2
125.292
1212
-91.6943
169.959
1408.25
-319.075
7695.24
909.272
939.767
1930.26
8644.6
2173.61
2473.23
1725.57
464.435
4218.91
338.73
276.948
2163.7
108.109
616.41
501.324
3877.5
3039.44
3104.73
1869.64
808.706
882.046
1537.06
1227.12
2332.64
1735.88
3111.74
1682.49
741.486
731.783
3943.35
16106.7
3960.69
685.987
490.297
2478.03
1097.38
6646.81
528.457
12.5138
2325.66
2624.3
807.631
611.477
1041.1
259.088
4228.39
4923.31
1230.35
1399.3
3009.66
881.077
4316.08
2413.68
1801.9
3403.22
3761.34
2751.32
6175.2
6577.12
1847.28
1973.31
1147.37
283.473
8186.79
415.963
4620.5
1647.56
6561.04
4983.73
1343.6
904.943
1617.39
6798.76
935.145
1256.74
807.585
1977.56
275.992
-246.361
1469.56
969.177
-53.3267
887.321
5687.31
914.761
1886.78
480.102
374.414
559.663
80.1347
518.938
2003.87
4335.15
3826.07
681.819
2029.77
294.572
749.274
2612.57
640.529
2285.14
2029.35
2376.67
11743
589.546
1.16987
1888.29
2354.67
2664.85
2999.87
2185.05
1261.56
141.431
354.305
1696.4
309.633
1004.74
1479.62
7783.49
5388.9
4174.77
11770.1
3882.37
7684.36
2864.77
1480.07
917.387
5903.89
4231.94
4558.74
573.347
-44.4155
-365.081
5542.42
-248.041
5434.6
1725.05
2335.69
1097.05
1839.11
890.117
477.587
4556.25
94.4427
1213
10011.1
5332.02
498.073
630.927
2757.78
8519.25
9799.18
280.707
1057.56
476.041
1415.73
46.2151
14123
3990.98
6303.76
8128.43
5616.3
1822.62
124.542
994.306
-227.359
1264.29
2474.69
2525.14
3949.01
3051.88
-83.6091
219.241
7218.57
2507.06
3355.31
1673.88
3056.84
2360.12
1994.14
1141.11
1891.62
4353.07
629.403
1667.64
4470.38
2535.92
2996.48
8607.48
3230.4
-23.8603
4622.28
2878.06
224.012
2147.12
972.553
4562.85
1664.47
158.052
-32.0939
254.732
7810.2
353.505
7452.24
8727.51
8783.67
1421.94
332.293
-664.561
1593.11
1353.4
361.989
935.828
2279.06
7544.73
2419.52
1568.47
2103.01
3427.1
2670.34
5980.69
2983.09
2245.82
2675.21
5821.04
2899.83
842.515
440.769
2702.27
1632.35
1726.37
430.426
1985.4
843.444
2476.71
2192.25
3508.48
1268.66
1706.92
1169.84
877.127
8345.51
1174.48
934.001
1380.46
3935.35
3957.58
1690.38
318.764
112.851
1543.54
5284.32
2295.4
3541.89
13438
6426.08
16680.3
1716.81
3637.71
1285.54
4669.63
347.085
3839.71
8844.93
4489.49
10243.7
627.653
863.257
3175.17
314.395
462.747
3852.44
1068.29
2553.96
56.1977
652.887
2655.34
1750.41
-89.6756
45.6464
2876.62
544.723
994.255
6859.9
1022.64
5446.58
238.401
1923.96
3009.15
5685.58
2693.62
3311.28
2455.18
690.524
1477.13
459.517
5172.18
3541.98
2827.88
225.728
1760.56
-440.58
2441.44
3471.83
15095.5
7501.1
6698.21
1877
2718.62
3948.04
6808.67
785.205
-232.831
4221.32
330.597
4554.77
-101.439
592.672
1817.09
4962.27
2379.14
1668.76
1376.27
1929.63
736.234
87.8034
3608.35
-453.69
304.964
-122.695
1047.18
1360.92
2255.41
887.991
5513.01
2721.07
1457.39
1680.03
2388.18
417.998
3349.72
5038.29
1004.75
-58.1513
9835.96
10.7797
-325.201
803.019
2764.98
-369.88
-376.007
742.625
-440.378
5775.33
3189.85
3997.29
964.379
145.718
924.011
1099.58
1722.07
104.35
130.92
2436.91
5364.6
-211.758
80.0538
2266.39
4193.56
573.281
7473.53
126.927
-6.2091
9778.88
321.38
8059.76
3950.43
669.492
794.689
3389.83
259.91
8032.71
-466.848
5234.34
752.995
1005.23
877.964
5508.06
2933.6
1952.18
436.23
265.861
9014.12
16850.8
1566.47
568.047
7058.91
994.715
6348.1
2244.72
-90.2999
2705.77
1058.91
10706.2
3821.66
3601.33
2256.25
78.5357
460.687
4629.06
3361.25
1145.54
3422.46
1616.93
15716.8
409.393
4967.93
-177.687
1451.86
190.114
265.95
826.504
3441.73
578.759
-133.401
406.709
1170.03
1399.39
279.314
438.953
12740.8
1511.33
8.86732
216.254
2185.04
2638.52
3590.58
722.992
585.072
1296.99
-81.7811
612.933
56.5796
2948.91
6146.72
1363.41
308.955
2164.32
3802.98
2955.72
1016
308.984
309.279
360.199
-24.7853
-273.137
2103.2
4036.93
4306.93
4295.32
2227.86
1076.81
7555.76
266.613
290.323
322.094
1997.19
2185.04
1265.55
2604.19
857.253
3424.19
215.849
2314.57
1301.35
15163.6
1957.81
240.051
48.1329
3243.86
-202.191
226.709
4295.86
3766.28
3426.32
771.65
-236.048
6416.6
2556.68
1526.14
1127.41
1869.84
880.12
303.554
1015.32
3417.61
1439.92
3870.12
844.084
1918.7
2372.08
2133.24
382.435
280.036
784.476
187.741
108.862
1095.5
3958.23
2957.88
1225.38
2244.51
2092.02
169.237
5394.33
1343.01
6007.19
5128.03
1702.91
9150.04
680.157
1622.27
426.176
622.144
1454.18
26.3545
1448.6
4059.38
3385.46
1336.7
144.296
290.097
7401.8
1568.85
1660.57
-94.7339
2069.59
2804.28
1317.29
594.105
603.003
557.648
2758.08
6805.99
9396.16
2153.77
3480.31
1597.5
3581.66
10809
528.094
2880
1856.96
-494.226
-79.4236
3805.63
6255.66
280.78
1278.82
2856.85
10047.2
-94.8361
1520.96
2209.64
2883.08
4492.61
2698.57
1824.75
1699.92
799.109
2117.63
1522.93
2298.91
871.187
3259.9
3907.08
79.6528
1990.06
1439.05
2560.12
3408.59
6148.55
-102.147
5441.08
-25.564
1034.2
3733.28
-61.969
7516
-278.107
6229.42
1694.02
667.345
2196.9
6035.38
-397.938
2484.79
2306.48
1160.94
8615.3
2282.85
10773.5
1110.45
754.265
15416.2
9396.72
2092.99
2004.09
6270.72
323.413
-277.658
2868.96
1326.22
1686.39
1307.71
3462.64
794.814
1097.57
1691.59
2302.9
5452.08
5306.56
508.773
10012.3
7853.79
1862.02
5736.01
2811.25
5634.99
1475.36
3388.4
2714.34
4263.58
8955.71
-29.5055
-355.833
142.534
5025.11
890.514
483.117
1309.22
12767.2
10016.4
3097.39
264.814
7398.71
8887.56
-292.891
457.43
105.919
2616.18
3257.18
3060.47
623.444
2140.17
908.832
1868.05
1714.7
6512.91
2658.77
3931.88
6523.64
1902.04
15678
12306.1
222.469
424.448
2322.22
1734.3
3451.74
1676.22
5845.19
3844.8
2274.32
404.168
456.105
905.08
59.6969
2945.34
6334.43
1589.42
1599.99
-246.812
2660.08
881.256
1628.58
220.65
-401.496
1190.37
5291.15
2442.62
2743.01
886.814
2543.7
3606.07
3128.01
-550.474
1546.09
1559.77
2075.52
300.838
1308.96
2002.95
2514.81
1221.03
7753.44
502.532
1595.31
11487.9
129.209
7142.76
1383.16
2888.31
2331.07
5194.01
1343.13
935.97
675.768
6599.84
149.083
4388.58
2848.73
4619.6
638.135
1277.15
-22.2852
1803.3
17796.9
1387.81
1174.18
144.344
1296.43
106.586
632.962
299.763
6074.8
3852.17
3924.24
1148.8
941.46
1264.02
454.152
2452.61
3863.65
3162.4
6204.1
1883.81
421.51
4453.18
797.028
176.479
-236.384
2084.14
5987.13
3519.66
-57.1711
2327.7
1049.91
662.178
1209.03
144.574
684.219
17.1143
800.059
6631.38
3245.34
3679.57
764.058
10130.6
5663.47
3445.11
778.526
2260.54
5450.43
4921.34
1245.22
1679.14
733.616
1051.74
1623.88
355.708
2340.42
5344.32
-2.82301
1378.57
910.214
3540.5
1588.11
4773.44
197.009
10443.4
-80.9114
4903.36
487.245
-192.644
5045.78
1612.19
942.472
762.787
4167.71
-103.576
280.62
206.249
1649.25
733.9
-29.269
3513.68
1332.81
1068.79
3467.83
1396.06
21.9044
1951.91
620.251
1748.18
-190.708
1052.43
3674.66
5421.79
1489.42
4029.28
731.085
3.26253
3267.87
838.414
2778.66
313.19
445.566
2457.1
1181.36
4256.74
-1104.85
5348.68
-32.4036
6554.3
386.231
3268.69
2627.49
-125.853
509.143
-353.151
1959.65
2859.45
3369.91
1031.68
1992.17
116.68
2423.4
2063.61
1268.38
843.689
1035.36
1214.16
2347.89
9095.53
1857.61
827.128
823.144
925.686
4406.86
2611.68
1147.84
4530.77
97.4917
929.454
2148.14
651.729
1941.89
-403.419
6404.88
4616.11
2222.88
2915.05
2002.03
319.887
1489.04
2758.04
4314.71
6708.97
58.3324
270.85
400.823
4675.42
1089.8
595.453
4210.21
1939.84
2165.31
2167.79
830.108
2614.23
1879.37
625.547
700.973
-353.995
5743.4
126.322
1733.03
329.832
1198.31
9945.94
4339.39
2797.48
3041.38
759.228
1347.69
1585.79
2643.53
2619.11
344.729
-263.124
917.327
3495.37
411.085
5503.81
370.013
16335.7
9247.84
6650.52
102.854
250.077
5826.68
454.127
1563.36
1575.77
-247.684
2699.58
271.968
5695.27
2853.06
2583.03
4638.4
2872.83
476.688
1679.7
122.714
1893.79
2125.71
14107.5
10561.5
708.276
1155.93
1026.67
2730.15
16825.5
3037.99
637.886
3836.92
1503.34
1641.97
2458.78
5387.85
2191.06
1256.46
202.129
314.194
1678
1882.73
454.904
2658.27
1651.26
123.632
6746.87
2287.4
2485.69
1644.3
859.774
3981.51
1847.24
8.10845
714.996
9429.36
75.5833
2211.84
-169.287
1259.09
476.343
1546.38
2259.44
252.293
722.36
-404.594
521.862
2904.63
3101.26
5710.09
1988.45
1760.11
3825.96
-764.826
1146.29
37.8203
158.755
1026.57
3508.05
1088.22
611.127
3602.55
4099.44
1238.54
2668.52
5345.65
24315.7
21799.8
2843.7
2732.4
1305.72
1187.48
1206.86
1534.13
2574.13
1630.82
947.847
-27.884
1239.59
4736.88
1299.36
873.641
5008.6
546.412
337.107
7016.28
6931.63
1870.78
346.557
2593.08
1960.38
-87.0103
1634.82
6859.99
4561.94
4595.43
893.328
463.491
-92.8712
4573.3
1535.16
2197.9
3757.48
-3.86436
500.355
4971.29
118.562
640.871
4767.98
9370.87
860.776
170.973
270.927
8233.88
6410.6
6691.95
431.325
2640.59
3234.25
971.705
648.529
270.705
2238.85
4199.92
1710.01
3324.72
3039.63
-153.319
1291.15
5074.93
6298.66
-114.89
3049.4
570.895
1536.48
-430.772
3347.74
794.634
1359.83
3362.56
1076.87
4045.28
-61.9461
14435.1
410.884
2765.79
2279.84
2031.27
3713.49
7732.8
3943.17
1536.43
7082.85
404.379
519.295
2694.03
11159.4
475.316
3170.89
4141.15
4640.35
8385.76
5081.2
2625.33
17.6176
-421.627
606.59
4663.23
1221.12
998.686
2763.47
-88.3714
670.828
41.9694
-54.5384
1094.6
622.092
1111.86
915.219
3360.25
1391.37
1304.96
5333.85
3243.33
6156.29
863.835
2639.39
5897.93
2543.6
4260.6
3259.33
6007.13
5454.49
2974.09
2776.24
2867.61
6258.07
2448.11
5393.28
3692.41
809.21
2597.08
2498.43
2076.88
329.91
1475.37
3077.89
482.799
1983.38
1150.1
1188.94
761.519
2514.22
3343.32
-160.502
1439.55
3728.41
4897.72
1944.04
458.228
3275.01
-250.904
2119.54
592.826
531.927
1216.09
1393.62
2633.65
15486.6
2434.45
7772.45
17744.2
5884.81
2123.9
1090.98
-260.62
6280.49
1786.08
11164.6
4637.45
226.493
10020
918.151
3418.05
5460.01
950.603
858.701
6902.17
9008.44
3095.48
37.3809
845.039
-240.153
558.394
-586.981
1505.16
2792.51
2639.65
423.371
982.095
1382.76
3017.02
242.05
2997.2
903.629
2356.98
2738.94
828.994
2117.03
30.516
1768.6
7715.95
13688.4
6253.32
487.873
2979.98
552.43
2894.67
2652.9
678.95
8066.97
816.719
3941.27
783.806
260.673
2880.07
640.091
1828.72
774.404
5037.98
1172.12
139.267
1207.31
3689.9
8141.11
272.73
896.418
1116.33
2129.51
636.51
10118.1
9573.16
2952.46
5465.65
5111.16
417.984
1820
2266.66
1702.1
7402.34
983.074
461.982
-276.014
7581.66
489.046
2619.76
1799.11
5435.88
1294.42
1425.45
674.493
3248.87
6041.14
1195.04
1587.25
1981.66
488.393
2222.94
1289.48
4624.96
12393.7
2235.04
3056.09
2137.02
1202.37
4865.72
2239.06
7977.07
4884.37
204.026
711.147
405.109
81.7912
782.904
519.307
376.496
8469.55
-56.1325
1033.83
425.971
-500.158
1153.32
10540.5
10654.8
12153.9
1262.13
2280.29
1273.5
121.68
1144.03
-207.342
778.362
-383.414
1769.49
13703.1
8154.05
2933.53
2275.47
211.012
562.906
2772.55
5493.83
2896.04
625.128
1892.33
1005.09
1195.4
23859.6
1280.93
6147.85
2931.4
1264.65
-280.742
2474.91
2111.04
3872.82
125.298
814.374
835.122
443.618
1749.17
7216.28
1213.06
1922.63
8439.34
2588.52
4027.49
1345.02
3907.14
294.543
683.418
-921.533
1153.76
1868.97
8194.9
1530.6
2009.17
1600.43
1565.58
923.159
6543.29
308.236
1849.77
21.9667
2400.51
4048.75
596.971
553.981
1346
1942.97
4224.2
-81.3847
-22.4763
1220.59
681.891
-65.409
1358.12
1494.87
5406.69
314.038
-36.9871
1134.14
3225.15
2950.14
2874.75
1758.13
1516.91
4323.39
9868.25
7182.53
1481.85
4766.92
5288.18
1831.63
3355.7
2117.85
-161.379
1365.4
171.102
203.497
580.84
2153.42
674.852
770.323
2685.46
3824.22
537.032
1141.43
2028.66
449.126
1031.33
602.218
41.5105
1207.38
693.564
3107.54
13968.8
2320.85
349.934
6921.44
265.596
2232.82
3620.69
2188.99
1682.27
-394.594
8543.94
5926.36
3928.88
596.879
1223.9
3904.35
822.676
-67.0936
10167
1924.19
6919.67
1338.28
1243.9
1414.48
1866.53
7289.14
2052.18
2187.7
4950.7
1139.64
2776.83
3008.96
1071.75
1694.61
3298.97
2174.82
3545.17
1672.65
153.5
788.076
1390.07
1138.78
133.736
16229.1
3091.98
1041.37
-212.087
7198.64
146.553
1406.11
7148.8
2760.3
509.091
4196.46
2801.35
6379.99
202.058
9690.43
1671.35
-252.794
2948.76
2933
3833.51
4995.83
2263.24
-13.5347
5145.47
683.515
1620.8
-0.619167
2854.63
551.645
3815.56
118.409
-28.0403
3700.25
1650.75
1078.22
2803.63
6822.54
1381.63
5746.44
1488.2
7067.65
1639.31
1826.98
2764.79
3858.85
1011.21
1794.59
2536.27
1271.44
-454.558
5285.56
969.184
6459.64
2853.99
-519.575
24.1525
2729.31
6070.38
2079.48
4574.09
6867.38
6325.48
143.846
1328.21
581.815
4865.95
4309.99
2161.75
1233.95
2256.01
3960.76
22226.9
37688.6
959.349
559.562
4721.73
872.277
-70.5607
883.385
500.951
1336.48
1999.93
1432.03
1843.63
3505.21
476.73
6171.77
209.755
611.643
1726.36
-90.8945
2911.45
3476.12
3506.82
5942.64
1721.72
1276.12
2026.33
1549.7
1345.65
2837.35
3043.01
646.893
1448.42
712.494
3115.95
634.652
590.219
1675.1
2381.63
2219.16
2512.19
-996.092
2790.91
531.005
1781.38
1632.19
10503.1
4264.31
-54.3424
264.518
3924.27
23054.3
8827.11
659.758
6109
2322.28
-123.629
-697.293
333.295
599.264
1122.73
2646.09
5782.17
5608.05
838.523
1239.61
4567.96
8812.9
5171.02
-112.799
5132.58
2085.73
348.084
3433.32
1121.06
7278.71
1378.24
506.223
6681.4
986.857
590.889
-356.309
1649.76
5184.16
956.582
877.309
208.614
6865.51
5.36177
-743.122
1538.51
325.17
4335.4
2398.44
4200.64
5771.54
203.011
1308.98
5014.98
419.993
9691.23
95.0727
7115.14
12109.6
4163.36
4384.32
617.715
637.731
3870.87
2563.7
987.248
546.337
929.244
1788.32
1771.52
1486.21
13667.9
5151.6
1025.27
2218.86
483.691
6332.66
3127.15
1163.87
-429.984
604.913
1796.2
1431.36
9902.41
366.142
6627.42
747.415
519.707
-22.7717
1485.57
1344.75
1827.1
4266.72
2311.31
1542.26
888.511
300.094
1799.17
3331.79
5695.49
205.403
1706.25
899.214
110.16
3144.05
6113.23
526.273
358.542
2066.3
1211.9
17858.7
1190.55
2046.09
957.442
2031.03
675.153
7430.41
457.788
840.235
-22.322
2684.88
29.5224
4860.19
872.167
1167.25
-69.4682
4579.57
2529.1
11248.4
1811.33
3454.76
1893.79
17.5887
5110.81
-113.467
1930.67
6292.7
580.27
3079.95
-31.8704
310.724
919.781
4472.2
1854.35
1613.04
393.19
370.062
1627.1
1104.55
970.099
-44.4986
3096.11
641.148
3554.33
2697.46
633.57
96.9207
929.695
3593.05
4121.44
1440.3
11344.3
8422.52
6960.76
207.455
730.258
-96.8889
7745.46
4899.29
4677.72
9555.35
5764.78
5466.97
423.43
1836.5
-117.393
491.704
2001.67
1272.85
792.496
657.5
4093.38
863.659
2681.32
6794.28
1327.38
1810.68
-249.841
555.221
1604.57
1905.36
-798.565
1234.49
405.282
12936.5
8680.33
4623.34
4286.26
400.207
2121.41
4082.84
4598.7
731.355
4763.78
3016.35
133.624
164.409
6740.53
3447.55
3366.16
12891.9
999.154
603.722
2799.92
773.282
4438.08
557.774
1751.44
2392.62
4181.96
1431.19
14564.5
3566.48
1876.26
331.295
778.098
4802.6
2045.99
3643.16
738.476
298.169
1799
692.28
832.003
563.447
4519.83
2402.76
-504.331
3287.66
566.97
1983.16
14.9937
1682.39
2300.19
2394.34
1970.15
5614.21
1680.82
-58.5621
1844.98
326.873
-103.88
4000.21
1492.93
140.821
4464.18
619.655
-163.797
161.588
1074.34
2388.06
457.931
5879.04
11061.2
905.787
451.546
7802.6
-46.9381
1021.47
3636.68
2492.1
582.419
3258.67
1452.35
2892.37
3558.88
1246.28
2344.54
5214.34
1981.96
657.151
1252.72
394.749
945.426
2090.84
3671.61
11034.1
1931.4
2143.99
630.884
558.659
528.253
770.383
1520.2
269.8
1022.56
2415.38
231.62
-475.842
834.15
7446.93
113.929
1719.69
1180.47
3032.66
3291.62
5328.82
1103.56
929.304
1914.09
910.244
1834.36
3975.88
2031.76
-347.464
1231.74
1369.58
4429.35
-375.954
-174.744
1200.05
201.27
1810.81
-38.2971
1131.8
1519.17
1314.29
969.644
3951.34
3179.09
1484.14
869.713
2455.58
7431.86
3344.22
1021.72
6533.2
543.737
445.992
9942.2
6477.41
1989.33
561.138
8296.79
13889.4
3877.68
-48.459
2637.01
-329.664
164.633
1762.01
968.747
51.7759
3282.53
1930.28
378.672
2751.4
5157.12
1410.08
2088.59
4126.76
400.703
241.97
407.725
2758.46
298.805
2615.74
3374.11
2380.23
620.08
6071.43
47.9353
793.876
2008.64
893.986
2054.03
2476.75
4940.63
583.847
7049.66
476.727
931.622
-735.627
190.903
3739.04
1502.8
2390.95
230.177
1904.16
2514.61
2265.36
8.90256
338.449
1073.57
1423.2
338.167
8607.78
1237.47
2174.83
2722.3
776.641
644.845
9146.91
1581.14
-588.034
1946.08
7148.74
2081.68
434.945
1079.4
5368.92
7505.24
7198.55
359.624
924.577
-77.0963
261.971
809.553
1725.2
47.1169
2585.03
647.482
557.393
1458.55
390.236
-16.515
1231.33
7523.68
581.409
3663.71
4659.9
4650.43
3301.61
4132.69
1458.6
1174.6
1024.72
7980.22
15290.3
1059.41
1005.99
3968.03
2344.92
-107.978
79.2239
564.184
1332.22
1513.48
644.265
1068
4210.19
1612.85
14.8595
1902.23
11127.3
725.489
1388.43
5423.64
117.414
1086.43
6378.98
2043.94
6502.16
5788.62
548.37
2528.3
1356.64
2443.99
11872.1
2467.02
487.901
-22.2802
1820.53
2288.42
2934.99
-163.082
3252.94
-8.03504
2171.58
22744.6
8060.52
4906.25
1287.01
1056.94
4122.89
286.027
889.658
-10.0004
5801.57
2218.2
144.457
3624.75
4898.85
1519.04
3487.44
2587.5
5739.52
167.971
1166.02
1115.82
6945.49
803.421
2384.94
8203.67
739.732
164.427
122.061
557.443
925.576
9530.05
404.521
772.813
2209.25
1994.97
494.672
7763.56
2428.05
1953.46
5060.66
3800.53
527.943
591.362
4520.63
696.484
135.581
8428.81
1780.21
-239.33
876.951
1031.56
1846.04
503.267
1836.29
682.595
-291.506
4502.51
2388.85
-262.505
4.5775
1782.81
3060.63
841.116
710.93
30679.5
10125.9
749.943
2638.72
5832.61
604.637
1532.32
3896.79
2705.36
534.764
3200.37
5567.72
1664.72
837.045
3079.07
1790.34
8613.79
3017.5
495.746
-423.851
679.408
254.048
7096.58
8227.15
2104.61
782.028
6100.67
2092.38
895.122
6170.35
3403.58
1730.73
10594.3
2928.79
1460.78
1875.9
2506.33
1634.21
546.581
739.367
-39.5082
12539.2
359.712
1897.78
16848.1
8451.17
8795.54
5898.09
8110.16
6073.82
1031.26
4324.03
1267.11
1272.93
33.4417
3616.25
5871.3
8514.97
621.467
206.241
1339.01
5369.55
3374.08
2331.11
1470.39
1373.68
1596.11
6426.68
3774.23
2225.14
6018.83
-76.7196
3208.88
1452.66
-588.54
3651.58
575.986
396.686
341.96
5978.01
-285.307
1321.62
232.312
956.491
6879.52
2886.24
406.039
9018.9
4758.46
2176.99
2491.55
4508.2
7119.83
13454.1
405.188
581.818
181.71
3617.69
1001.48
648.662
3921.34
3237.85
-114.618
1613.75
449.167
339.622
2517.49
485.597
1084.31
1029.2
3398.34
3004.65
3040.25
3851.08
589.549
401.301
449.145
1380.41
3329.42
444.058
463.513
588.659
2012.47
5642.59
-9.53494
1426.02
542.685
1568.04
1085.93
886.098
4249.55
-9.48307
549.572
-62.8366
4551.42
686.398
3995.59
4317.08
3892.74
508.129
5151.82
2996.7
2062.44
-308.973
6303.07
2714.72
3489.38
702.4
1101.74
10820.9
1283.95
-45.7382
8010.82
4941.36
109.249
588.091
-117.206
159.563
534.505
3621.26
350.481
17204
12270.6
11715.9
10371.8
3054.36
2289.82
2959.99
1992.16
3453.42
3719.88
602.657
16996.3
5205.21
4983.13
3121.94
488.191
-276.435
210.574
7622.17
3490.42
790.053
9760.71
2075.44
2475.75
2497.09
3994.76
13848
3519.37
4311.72
397.779
1179.35
668.676
6644.25
9673.63
12915.5
2446.23
5009
-17.7383
7655.08
2976.16
3875.5
481.213
1489.83
687.41
4222.12
8742.94
4379.04
1317.79
2668.2
1149.02
371.325
4139.84
1682.98
13622.9
326.093
1169.42
2104.5
-398.173
-69.8997
-466.8
4150.61
2297.03
61.5179
-418.265
1725.34
279.962
1588.96
2176.27
5318.1
196.8
580.022
1516.43
362.275
1008.65
1480.24
10012.2
1025.74
797.558
-163.993
-43.5313
-137.552
1081.62
5328.75
2901.72
911.439
-139.04
-17.8186
1253.16
4211.74
582.75
19326.1
3900.27
2467.12
3940.32
452.588
3198.29
1412.56
1958.71
-667.055
4491.14
1143.76
1222.4
569.079
391.028
859.876
1962.88
3050.48
3652.6
3917.65
1276.9
3510.44
525.542
1795.62
2120.3
1834.59
-17.3313
2366.9
981.065
-184.465
3411.38
75.5834
797.375
279.088
2192.12
275.79
5000.34
592.405
3032.94
2023.83
1637.2
12235.3
3331.05
1551.91
3303.8
414.795
4483.05
6652.34
2797.43
480.687
339.026
564.935
4548.75
508.954
-314.259
7409.08
2932.97
142.596
791.99
455.417
2201.27
-279.721
2398.77
2255.53
172.011
8427.07
3682.54
14440.3
649.94
1625.97
187.981
7661.42
3383.16
6529.21
162.55
10.2486
345.77
-207.345
2603.5
858.011
55.8859
-261.398
358.876
2271.65
1248.41
178.106
3923.14
2790.48
5882.62
3645.46
1526.89
355.951
289.553
950.06
6795.13
2546.92
1492.6
3509.11
5933.13
1630.09
3306.73
2138.48
3962.07
5653.34
2290.01
281.15
360.767
2880.26
2656.86
2865.29
-11.2018
135.424
1591.66
458.581
673.523
3202.31
1871.96
6600.67
2295.01
3869.96
3158.01
2268.98
2963.39
10740.6
1374.18
113.13
650.896
1196.73
2599.08
511.04
2890.81
-268.05
2339.49
2380.33
396.956
723.81
2567.2
1934.65
3207.01
372.136
7086.14
2779.11
2128.49
7572.29
10277.8
15976.3
15652.9
-3.29698
746.587
6.23582
1224.18
485.778
4856.26
692.295
1628.26
6108.33
803.554
876.625
1131.86
-284.379
999.9
1784.37
10439.4
3179.61
1673.5
177.277
-193.07
-197.844
669.239
960.427
700.567
-197.049
4254.05
-194.297
294.238
3216.94
17963.3
6122.46
214.58
2797.54
5035.93
3033.66
2964.3
-126.025
3943.82
3350.74
-712.281
440.917
358.465
667.195
1201.95
673.309
1169.61
14343.8
5100.83
3901.39
-148.656
4229.66
1163.09
1808.83
726.394
122.851
4436.41
11918
4148.04
9593.39
1195.52
2043.05
1974.34
1826.63
1.25159
285.027
263.785
810.493
1354.07
3230.55
3687.38
6982.64
792.462
2885.62
1243.87
866.449
2967.65
5290.25
3810.05
973.458
1525.7
2731.83
9.69609
5789.82
663.985
2124.26
1974.64
1036.58
1551.93
4330.21
500.488
3082.23
5726.45
724.064
-253.688
-94.3928
2843.73
2019.57
490.586
2790.32
125.511
2551.42
267.344
2740.74
1253.55
193.723
86.3159
1869.58
206.615
906.717
-65.0015
1032.66
1440.68
2776.85
2466.72
768.927
24.9826
2135.29
3551.79
558.291
-194.87
2582.34
169.419
3887.26
607.605
372.178
393.295
1623.83
653.867
4663.91
400.749
2195.23
5375.2
3952.27
725.789
1147.09
4333.18
1383.22
272.415
223.925
5449.87
3233.49
3254.3
642.949
8393.85
367.874
-197.345
1107.13
571.289
12052.1
1837.63
6722.17
4254.7
2140.43
5142.72
3890.05
1787.95
1879.61
169.654
3902.34
3017.32
336.701
3782.36
128.999
3381.85
212.69
2240.07
2097.41
6917.79
6657.52
1612.54
571.972
714.634
11226
252.915
305.772
1025.17
4932.29
2026.5
2769.64
101.255
2609.32
938.614
1058.21
341.027
2157.62
4299.07
-479.57
1220.59
-327.762
1246.64
1066.81
4793.67
9186.04
3959.51
1076.31
339.659
3718.25
1000.59
15055.8
7761.14
36.6601
989.791
7816.9
3261.24
4601.8
490.985
-65.8963
2347.51
5200.16
1572.45
-355.777
307.87
275.731
1784.42
2875.29
5645.12
-244.317
6677.16
3180.57
4776.47
4208.28
252.766
2278.86
707.948
-213.593
-36.4689
-67.4339
1841.4
124.769
1672.37
3273.37
-719.953
610.894
1454.05
3489.11
1277.87
696.055
104.512
1504.69
318.822
1080.1
24.0569
16612.3
903.216
6038.3
4764.45
1232.66
1313.07
7038.76
4825.46
258.028
-803.185
1609.46
957.325
1941.89
2467.08
5304.04
1131.82
-95.3411
3390.2
1036.73
11844.4
8049.02
8283.4
1428.81
3369.08
1531.43
461.817
349.411
1522.83
459.197
-62.9365
2471.17
1327.14
4710.83
970.311
5874.67
3583.95
330.937
2495.71
4815.98
669.448
1054.8
1634.89
81.5916
-208.702
20.9097
1103.23
-25.6518
2.25597
1457.64
700.882
787.347
4272.65
1194.99
-29.58
80.4778
1150.69
1682.56
6876.42
2451.41
-90.9831
1028.54
382.374
1618.49
4805.13
1297.06
2307.44
-65.7621
3472.31
884.827
1543.7
640.494
-5.6316
417.016
5165.38
3432.14
2089.7
1272.78
196.396
2129.69
192.977
1507.73
1615.45
2983.86
3613.52
743.5
2160.85
-41.2888
2332.61
-226.383
3940.1
-363.38
274.866
1250.1
5226.34
2354.08
2541.39
774.094
326.308
1434.9
380.936
7661.96
5262.87
688.428
2943.12
9218.72
665.07
1684.49
3550.42
10492.3
3473.09
3163.81
1507.73
453.933
482.523
5576.29
-193.285
10505.7
7224.26
3725.01
1143.26
744.344
887.419
1290.18
10698
2796.3
-29.0459
685.925
2205.43
1484.99
4336.61
1739.56
7156.86
999.853
1902.27
2483.3
91.8309
6079.1
1208.99
2756.9
810.949
2002.36
123.818
1269.19
1595.9
2688.25
3400.39
5400.83
12999.5
1312.45
1903.56
4641.56
2572.24
827.886
1370.03
7293.69
12013.2
3804.44
1585.43
2397.85
432.566
2938.13
1525.63
1947.25
2850.3
966.338
1776.17
3020.98
963.038
2061.39
1023.77
1834.87
2663.94
3874.51
5.5377
536.929
2916.16
1691.96
3209.16
-69.6794
2147.17
3165.34
2171.3
623.23
158.549
892.862
938.504
5997.11
5074.96
547.265
2065.78
3512.53
5502.58
1696.35
1500.49
658.883
1513.3
1034.71
773.639
3423.7
154.533
5211.55
-272.866
7489.03
545.012
78.9148
-6.38849
99.6607
2083.67
356.313
5521.16
2339.12
1454.1
643.795
13315.6
3452.96
8835.57
3208.59
2953.33
1083.78
2196.81
3850.03
1259.58
225.343
655.064
3457.88
5215.05
339.997
2473.65
2738.07
746.794
3387.76
2068.09
2779.22
11745.4
217.315
187.545
1715.95
948.279
1321.92
2945.82
1548.06
-297.673
1544.34
4411.12
8.89669
3093
233.143
1058.23
1400.85
1184.43
1586.64
1931.82
1751.21
3023.64
4932.87
1272.6
116.947
2423.19
691.412
1399.71
945.49
1815.18
2057.62
-356.001
1228.69
1130.4
-89.4359
785.206
4738.62
4057.77
432.44
5698.63
1466.02
284.951
2563.13
3197.31
1027.55
3553.47
2408.69
1542.25
2337.82
1583.69
-116.851
2869.62
561.919
-178.069
610.36
-305.403
3701.46
-131.334
6100.34
1858.26
4320.2
3865.26
2477.18
12165.3
109.969
36.4128
371.788
1501.38
202.032
1474.68
2627.2
2038.79
3164.58
7356.53
2126.8
142.839
-335.9
5859.51
1550.5
560.564
7263.19
6026.72
3537.49
2093.58
23493.2
5519.16
-876.802
3170.82
1597.29
6864.68
5890.37
7903.97
787.107
575.288
35.6728
646.579
10354.3
1096.12
2985.28
1392.45
-632.727
-45.8469
11526.2
6072.27
1416.15
5416.49
349.847
1676.01
1005.88
1826.27
2239.38
12822.3
1571.84
958.038
460.01
1622.54
6418.67
7539.15
1002.09
1826.09
1055.24
2061.88
495.46
4112.59
369.805
1547.52
357.739
2996.81
2197.2
117.463
1515.11
10602.8
1401.21
-28.1026
4210.45
702.852
2507.29
4187.45
1737.22
1734.97
2078.71
1847.69
1760.11
5691.79
771.963
-50.1281
775.349
3793.32
2435.34
318.187
489.5
340.522
1269.43
2.80196
-853.494
1413.45
385.77
4403.23
246.625
1793.11
2939.69
1328.73
2246.52
10810.7
633.852
-581.031
75.8622
5121.57
4116.11
616.856
966.081
693.69
38.3205
191.068
4049.02
5572.04
3104.49
487.598
2343.7
5050.24
4898.85
804.789
875.193
9816.96
2169.2
180.733
3878.17
2148.01
1967.29
5439.74
7179.93
2469.58
225.201
929.908
3637.25
279.866
221.765
472.196
1367.68
1271.9
159.902
-48.3247
3652.97
4997.06
-563.153
353.227
346.015
1903.19
538.645
5101.98
2873.23
2167.71
365.573
1664.77
852.877
125.607
2015.34
1136.29
-61.6184
3060.88
2842.26
878.626
810.268
950.61
4425.02
135.18
850.901
8407.93
2529.01
1881.52
872.081
362.701
-14.0977
632.032
476.86
292.05
7349.94
-80.6544
1288.27
3147.28
1316.28
-184.918
9861.54
1735.46
4739.19
758.63
1252.88
-16.4621
2950.47
2896.22
2840.05
-22.2085
11451.7
11797.6
257.251
1086.75
943.867
2684.23
3269.82
1270.04
465.962
537.044
273.298
1041.81
2773.31
2605.46
1488.4
580.605
661.934
6923.88
8159.09
9.42168
4389.34
356.293
411.605
2438.33
1839.27
2349.87
227.004
1145.22
631.921
2118.67
208.969
6168.87
13238.3
1752.31
6023.32
1526.04
3990.16
101.041
990.097
774.206
1086.68
6002.82
9752.05
7991.16
606.762
974.496
3702.44
1053.1
1221.14
433.955
1100.78
1468.41
1226.43
2675.68
1683.17
560.607
1157.09
963.665
5274.74
2393.93
10149.1
580.857
1387.34
-55.8421
4928.77
1071.9
188.265
8990.5
-46.4179
4596.44
7469.11
2789.19
1184.07
7603.89
2070.7
1885.65
471.976
-89.7566
1162.8
8250.77
4.01183
731.561
4664.19
2376.93
9348.42
2308.13
142.291
199.079
2675.96
-31.2175
2585.08
-266.088
911.938
1035.08
3391.57
2550.7
1936.68
-256.503
1184.9
665.172
317.474
2130.16
2754.84
5098.92
3488.62
1558.05
1350.44
3387.5
4794.85
1416.95
-161.984
2034.48
5041.1
3875.55
492.964
3262.34
2702.14
1480.26
-82.5856
399.385
1186.43
2676.11
3838.75
1715
2110.09
1294.6
14108.6
10686.7
1950.37
6566.59
9795.06
142.015
3618.75
146.415
812.179
3121.58
182.564
4774.2
2356.83
1516.48
232.805
2724.07
730.942
1600.28
10413.7
3399.22
693.032
169.761
711.224
3307.66
539.648
249.788
4345.91
2251.83
2072.12
59.2539
987.881
7329.22
2149.31
269.602
-118.19
3078.96
1138.91
5715.65
-374.065
3970.85
6147.56
11.4383
672.219
888.966
550.279
1514.94
-101.917
644.816
4071.56
843.731
3774.61
1431.03
1377.55
1935.57
3919.3
8077.82
5064.87
7.4544
1265.01
131.262
466.265
78.0781
70.6633
4250.35
462.955
3020.01
565.866
2440.27
6331.55
-157.997
3906.28
1023.68
2101.12
5603.83
5851.18
1457.44
4797.28
1259.41
396.151
136.934
720.623
3465.61
6770.19
462.165
440.089
898.155
645.502
1815.93
297.961
947.392
12257.8
9913.99
4655.79
2589.42
5427.39
1686.45
1499.48
2126.87
487.283
4102.65
4379.05
3578.84
539.677
1580.77
1739.72
1662.15
40.4575
3018.01
2427.99
1404.79
117.614
11246.9
1233.84
5462.39
2698.52
471.026
677.451
76.3964
1277.48
506.299
-8.80588
652.233
4080.47
1232.25
2784.24
615.614
3024.42
-153.287
867.919
6918.21
849.934
4992.58
775.528
7.62613
3686.79
4469.5
11817.8
7501.34
1367.14
1750.44
718.215
-344.683
1216.8
3426.69
6512.73
3362.52
-66.5927
2962.72
4972.15
2159.4
206.391
2600.48
5140.46
365.459
-100.53
1145.9
3347.96
320.903
1429.98
-61.5142
5234.62
2866.74
4037.8
337.413
-142.95
-343.53
715.417
2557.6
414.798
118.325
2430.28
2147.63
-144.364
401.995
2370.27
949.184
2971.41
2545.15
838.058
1943.69
1363.5
9202.82
10261.8
3753.63
2699.49
6981.9
1586.31
568.299
485.15
625.08
3619.81
1556.3
193.776
5032.97
5745.31
2394.16
1279.43
450.346
4231.75
425.739
4601.25
3283.26
7052.38
1078.57
6530.31
199.343
2710.15
3499.45
121.547
518.997
225.555
627.13
1424.88
3065.78
2045.76
10989.4
833.951
4202.13
567.531
882.195
7265.71
7379.13
13734.7
17971.7
1731.8
2102.24
3533.88
7998.73
1094.27
1245.19
2000.86
5139.35
13755.4
3789.94
-243.67
516.634
356.392
2128.87
2091.34
2617.73
9885.5
2898.29
1094.1
3548.67
2227.74
1914.15
3603.18
117.761
493.862
3038.37
2830.84
1923.71
2391.98
389.234
3096.11
105.251
5626.82
5115.26
5825.67
3959.75
547.104
2697.87
80.2774
902.271
-186.147
3871.02
12544.4
1524.23
457.031
4702.3
2274.42
-18.6045
1757
3036.69
641.91
-224.385
1136.73
624.494
442.79
4221.5
1881.38
892.841
1311.2
1005.37
210.789
1421.5
194.169
1343
-251.748
1090.24
72.3687
2306.11
1150.99
-104.091
1593.48
190.492
12580.6
3626.53
-437.632
3111.61
2893.22
9244.68
1942.68
90.8788
1060.58
186.793
6167.49
9882.09
5382.21
2325.62
347.892
7168.88
6286.48
1233.99
1491.16
9590.13
12403.3
159.926
1898.4
1454.52
3137.01
1178.39
1248.23
1814.19
-509.716
2193.67
2207.15
5484.66
862.856
1134.26
1210.42
1205.65
342.03
957.423
1615.96
436.41
1108.52
2262.36
354.466
477.731
3051.27
2644.79
7073.35
-44.8269
38.2099
7253.31
1148
9783.25
2632.05
3078.53
477.684
1136.56
131.757
1374.3
2239.42
205.243
1685.43
1583.52
266.337
4342.5
2304.86
708.648
-483.222
480.467
8343.57
-345.422
3039.96
1508.69
407.172
901.492
2880.11
3391.26
824.299
1140.12
17474
5356.31
2348.54
685.614
779.42
5424.97
2927.41
983.069
1933.36
3735.85
706.974
1096.36
2138.67
796.839
-259.459
13333.3
1489.78
4475.01
696.686
1895.97
6683.74
3331.08
259.185
1954.79
18842.1
2930.78
3735.17
672.976
2825.42
5776.09
9010.65
1916.73
309.316
4083.76
9744.29
1183.32
-249.072
-47.5026
220.977
1768.63
4081.01
7217.24
1624.32
4337.28
671.372
513.829
5891.21
877.16
279.925
1388.12
2879.83
5009.96
425.995
427.372
2396.8
-601.048
4708.61
974.228
189.164
1167.48
1702.16
3143.75
163.171
1633.88
843.678
6102.8
5951.65
4424.8
976.503
5807.91
415.386
1366.13
1491.12
1081.13
1313.26
892.779
5420.2
3727.56
1837.67
6024.41
5950.43
537.458
366.386
-166.469
5956.06
1334.53
3339.13
7920.61
2154.73
2590.27
702.239
3314.9
-518.836
12818.1
1877.03
-1095.69
3494.83
43.7287
306.421
201.403
777.105
1720.45
2079.62
3352.95
2326.47
1227.6
5811.66
4621.7
5714.48
-111.921
1636.51
2544.3
1116.34
3847.85
4015.8
1613.61
3393.92
1750.62
608.82
1655.79
2678.53
5035.34
663.946
3638.15
575.964
155.097
4186.83
2813.56
6333.22
4036.28
491.266
2130.17
838.542
1190.87
699.96
-265.584
2646.34
4704.18
-5.53685
1548.6
11200.3
4676.24
8110.99
2710.86
3253.72
7271.76
1048.68
1160.88
1671.18
-188.288
96.6272
1278.41
796.726
711.646
690.618
795.516
6174.57
4080.72
2306.26
5934.41
4032.92
8831.99
5793.66
3215.2
5077.38
731.559
922.252
235.138
432.925
1618.63
2039.1
3273.36
1003.03
-180.785
1364.35
9235.42
4859.6
11153.9
2386.91
5527.27
2260.46
4620.65
1224.88
1257.73
2148.76
4095.25
10255.2
349.811
202.035
3861.75
6333.19
5479.76
1571.16
1234.67
75.9135
3967.27
3998.89
680.593
1553.4
1523.72
1527.73
-322.504
4314.62
973.831
784.386
495.759
407.805
1007.94
5274.48
491.71
800.75
1847.51
4261.85
-22.4113
49.1714
368.33
280.267
-229.831
4566.91
658.968
277.057
1228.13
81.7194
1292.65
377.063
569.692
1483.82
2781.07
4836.96
2875.59
11223.9
13069
5009.91
5764.55
1995.39
5828.5
-249.803
3511.15
2796.85
1936.26
125.271
1192.24
1962.88
11424.6
-8.69301
7895.31
572.828
-570.031
1058.18
104.24
2526.1
13787.9
11580.5
7416.78
79.5244
1474.09
11172.8
2076.04
2483.57
167.383
2645.92
8491.53
7284.12
237.245
1998.93
896.432
1847.36
3439.04
8857.03
443.095
739.657
398.537
13314.5
1639.56
389.083
1089.99
4574.22
2450.71
2329.9
4030.09
1977.8
2150.65
8965.69
192.352
3038.34
2893.2
1980.1
331.214
2949.01
871.084
1602.37
2490.17
78.3031
-165.181
558.286
5837.83
3246.97
325.134
-78.0565
7608.96
7802.09
5779.3
2820.01
7790.44
306.989
771.185
1029.97
1290.81
4151.55
13492.2
12886.8
1145.64
306.171
-293.702
5081.26
4285.4
1387.82
884.186
498.029
4886.07
2160.05
4649.04
1886.46
675.568
107.693
1686.81
5738.35
1705.03
867.839
-288.616
2409.11
1076.81
318.781
2566.55
11347.2
6930.19
3739.45
3015.44
9554.99
-352.659
822.452
3404.2
5946.87
659.189
1181.92
373.13
2327.19
2006.51
2719.57
-283.542
2876.6
3551.16
2105.99
385.501
115.532
13976.5
1745.16
1952.38
1681.64
3552.41
254.137
-801.421
5363.04
4062.69
2638.74
261.108
5224.91
-615.41
4995.11
1490.93
2824.17
2505.4
1809.55
7800.28
1263.34
4634.99
8756.62
-30.7305
256.602
-9.24493
2884
2485.9
2885.08
10492.5
216.956
1181.44
10265.2
748.642
1310.71
-779.174
12466.9
3069.27
77.8111
1119.24
3250.06
728.311
980.636
1202.91
6524.27
3222.02
2096.02
546.538
3579.02
3450.49
2511.24
2019.24
2656.6
1766.1
454.298
65.8405
-317.71
2990.65
6567.85
3143
2702.08
1807
11844.2
2966.8
3535.87
955.814
-66.952
4557.27
-390.198
9662.8
2624.46
609.823
2846.29
181.684
6227.97
2241.14
2541.66
14942.1
7312.15
4252.81
995.782
658.251
1437.14
424.81
2466.15
193.339
-208.65
3543.21
9532.5
1737.52
2601.03
3108.1
2347.52
4405.67
2135.98
3134.5
1642.01
1742.71
1399.63
2951.78
603.692
2367.23
4979.31
1259.31
2587.94
112.194
2624.47
-158.418
708.04
10597.9
801.398
1231.21
472.308
1205.6
7681.7
4240.05
244.088
1017.71
11472.6
1386.6
1702.17
606.339
2552.63
460.942
1059.87
2848.11
1977.07
1252.66
235.383
1383.71
-342.319
2360.62
133.6
1422.11
-274.632
4952.71
517.101
2150.07
2113.59
-398.899
3009.35
4779.71
9219.59
1704.82
1900.15
566.853
293.34
1836.98
896.947
1421.07
2208.11
546.778
853.052
1628.95
9462.11
997.101
6.39402
844.072
255.291
107.146
5076.11
9460.21
3898.91
668.241
3811.4
2408.37
2898.35
7429.48
795.06
2734.89
11497.6
4065.75
5061.22
6500.79
1495.67
307.509
98.0459
3570.89
320.759
8726.82
2596.57
632.051
2630.08
11398.7
6709.42
2048.04
3288.72
588.165
-107.644
12454
5669.72
3359.56
1941.94
681.358
1128.06
3112.4
5148.52
555.913
521.939
626.534
2077.11
1801.54
340.198
2254.78
2768.98
4374.08
603.154
5041.56
692.739
240.052
3625.85
1190.36
5373.82
510.908
2702.73
1762.7
1531.62
3222.09
5244.16
390.308
-148.979
1141.81
1245.96
430.254
381.356
581.106
3485.75
1702.59
922.147
2502.9
1582.48
1950.77
500.076
5639.6
143.711
3047.57
5513.12
2795.03
101.44
1554.23
2199.57
96.3386
2093.43
1101.49
2730.47
7672.17
271.057
377.099
2193.65
1959.37
209.126
21.9334
2909.57
10047
-157.642
4287.82
522.207
1283.82
2184.98
1577.08
4003.66
3814.93
2043.5
5674.94
11170.4
1220.48
-296.781
10284.8
5266.45
1476.94
3998.77
1272.28
1532.09
6960.18
1267.03
993.267
1600.18
252.048
580.113
1175.14
1463.8
1140.78
1228.39
1632.48
1747.66
2695.08
11033.3
2953.02
1669.1
1101.14
587.065
362.648
2907.45
2506.03
-134.74
2396.48
5449.04
4054.67
765.334
844.676
1539.75
9820.46
12428
2883.95
1830.94
2666.02
2214.97
1171.32
3770.8
1904.39
1025
5883.36
662.756
2367.18
1945.67
3296.73
2620.4
12051.7
1873.83
958.818
343.505
5740.99
2160.19
983.169
3251.7
2727.95
-47.1353
1284.99
59.1478
1187.85
79.2656
5608.14
3337.24
1060.45
771.96
1868.04
1749.98
1548.36
1921.9
3440.06
3395.54
1026.52
1539.51
1651.91
431.987
3177.95
1624.42
206.195
1003.35
16187.7
3725.22
120.864
2918.18
522.621
406.2
245.142
1406.91
1892.14
78.9854
81.6591
239.743
6064.29
5642.91
5660.62
5610.79
6601.74
4106.69
5177.05
-179.089
3343.76
557.449
1736.79
3667.1
8462.11
2831.14
3976.32
290.798
970.388
9259.05
6162.1
510.521
32.9358
1966.88
752.791
1913.01
2780.39
457.011
380.887
708.151
4720.06
4246.3
5360.25
249.139
11856.7
5772.03
1063.43
14211.4
3535.32
777.46
2530.96
456.549
8378.74
-128.044
8984.56
2917.66
2506.74
3647.35
3284.6
7545.03
4276.04
482.489
1151.37
997.153
1339.78
5466.62
2345.86
1455.98
664.147
3003.48
377.1
1130.78
3873.77
2740.41
879.952
2057.79
9784.07
76.3672
4639.74
-62.1011
253.907
2348.76
1717.57
114.837
1208.15
3539.84
2662.29
2699.61
1807.13
6166.16
519.174
1705.45
7242.11
9080.86
100.336
8515.19
2216.41
4924.95
3591
1508.68
4975.26
4857.33
2451.17
4919.78
1253.29
2.82839
572.557
1234.43
3075.75
1028.19
1256.75
74.3843
5614.02
7194.53
1061.56
282.625
5347.66
820.582
442.806
13.7214
40.3737
1574.55
944.879
252.763
3540.07
46.9229
11332.1
4614.55
74.2681
560.269
17.9314
1159.58
1144.43
3481.18
1772.31
4124.09
3140.69
831.559
603.222
3131.28
626.968
18506.4
1074.97
972.638
530.979
2346.41
1049.57
934.395
-268.082
2118.78
1301.3
2216.87
1233.25
491.728
896.278
5688.02
10084.8
2954.56
1513.85
10191.4
1041.23
1332.95
5630.8
1683.35
2475.78
40.0699
361.051
3676.56
1286.8
164.809
2242.65
2661.95
1846.72
345.328
5858.48
-13.41
121.477
2007.43
6449.65
-322.303
3515.26
3144.89
1635.04
3292.77
12359.6
2310.55
3506.89
3696.01
743.629
3101
8810.35
-13.2951
-562.502
5482.69
535.696
1283.61
5073.64
3332.81
2329.91
2625.15
1008.75
1402.49
2956.76
1812.51
2527.17
5697.38
358.014
8626.26
1529.81
375.554
2197.13
466.394
958.781
1443.47
1444.29
445.973
2695.32
3619.27
146.844
2735.49
1206.1
2954.47
2070.71
2203.61
1213.61
3825.59
3079.64
3792.41
526.878
6910.27
5057.74
870.702
3325.12
5455.3
4286.69
392.141
121.456
726.435
2444.53
850.906
8729.28
2650.05
1748.25
337.279
2947.22
-67.6335
4963.73
909.663
590.523
852.272
1833.21
595.229
4722.78
589.474
1671.67
2189.07
1398.87
1989.9
2825.19
-62.698
1320.05
3108.03
5829.37
3016.11
3073.09
5630.26
8941.71
26238.9
8021.63
3367.25
257.312
776.906
60.5918
1561.38
531.875
-203.567
1494.64
615.868
-265.047
1554.2
1310.77
3141.96
1162.49
339.054
849.089
2538.8
1492.45
1276.69
5730.79
9316.02
2360.18
2236.19
430.121
2337.44
9160.44
356.836
987.701
1506.45
331.488
1563.59
3707.61
801.441
3800.22
1107.31
1135.6
-189.272
170.052
1190.34
1948.55
1801.19
-11.4018
5687.74
7269.93
1855.63
563.776
2417.26
-46.2806
1117.34
348.857
10884.2
705.714
1872.48
-52.9164
-78.0961
789.629
2987.75
694.981
-107.932
4409.18
80.2988
11978
4178.09
453.107
1520.72
16.3422
827.716
1255.45
390.832
1870.59
1001.84
1001.01
3077.4
12011.3
367.731
2430.07
3783.85
1679.18
1553.72
1117.09
2488.84
1406.08
1002.11
630.359
297.909
576.71
4040.05
14380.9
15873
8501.99
239.902
3954.51
427.243
335.88
9721.52
11712.9
473.712
997.085
4320.24
8329.71
1725.46
-775.304
2934.01
5670.91
95.2821
2427.69
7276.94
895.679
836.457
2768.33
-601.15
435.967
278.13
5146.79
37.4976
4357
2079.82
1696.37
-101.291
-218.938
1739.78
-702.681
3430.71
733.348
3708.3
2845.18
81.3858
5449.48
1487.08
6179.42
6599.33
5346.56
2188.28
970.481
384.772
5068.91
502.704
2152.71
2015.09
3467.66
727.757
6617.6
856.913
84.1794
6018.52
2457.82
7751.66
1961.15
4607.19
161.201
281.218
1403.24
2281.73
885.953
-307.195
252.003
2637.07
2470.81
1833.31
2778.27
8576.05
1016.61
678.601
612.802
1596.12
7420.25
1471.84
663.465
-1261.13
2430.18
77.3656
1240.11
2340.98
2928.95
-2.02492
782.752
-105.471
3974.84
4386.41
2704.8
3388.18
3805.68
2130.64
700.402
1234.95
559.343
1959.51
4463.14
1730.36
6993.84
4184.06
1723.1
1020.16
2862.25
1589.41
2310.38
9976.54
665.025
109.704
687.629
3600.14
-107.892
205.501
3186.4
1098.19
2977.38
8278.82
3987
1178.06
1704.04
23.2412
11.1055
5414.56
6516.97
3658.95
2567.66
2509.44
1927.32
186.944
-107.643
9823.25
534.329
619.218
-109.674
719.306
3434.44
1437.24
4625.8
1792.44
-325.426
2643.64
278.866
6077.81
7942.02
-790.634
3952.1
2788.78
4043.85
1183.95
4088.81
1673.56
-296.967
956.027
415.694
2761.02
-127.977
321.328
354.636
4188.39
721.12
3712
4474.97
1121.99
612.501
2564.2
245.86
721.749
4804.01
-192.956
6227.11
1609.19
1695.66
1328.46
1989.46
4074.07
2218.15
615.766
4922
7302.69
2299.63
236.631
4127.27
830.493
-331.466
534.495
2690.83
3960.16
1605.77
2669.09
-311.111
281.831
1921.58
-446.073
-17.2636
4866.54
2551.89
878.954
-88.6462
2699.38
1099.19
11870.3
1200.3
1519.78
2116.96
1899.39
8689.54
107.34
-96.5858
549.462
2161.07
537.079
-443.409
5612.64
1108.92
2474.17
1969.11
984.567
204.676
1413.22
910.251
169.171
1443.96
1388.5
1943.8
295.996
7.31113
606.094
800.171
5397.04
2759.1
-461.498
2075.3
4053.14
180.574
5491.58
1894.26
2150.12
9276.74
1226.6
5091.21
1737.66
26.1838
3705.74
2627.84
-20.9769
4556.98
3246.46
9262.85
12419.8
1402.27
4931.14
1878.94
7281.63
2416.52
629.585
782.834
5580.62
6366.24
-305.149
148.171
2072.94
-249.029
2547.08
601.319
5243.94
27963.5
530.217
1508.45
1457.25
1025.67
303.75
2110.67
-614.975
1640.54
-153.232
658.295
1349.13
5386.86
967.302
11.0856
1713.36
4879.83
418.842
419.079
297.572
1953.38
2458.99
732.795
1856.28
2047.79
709.007
7204.97
10924.8
682.259
6861.26
1354.08
-41.5029
44.9545
519.289
-674.159
747.869
5519.94
3907.5
467.748
2900.87
2960.52
1746.07
10241.5
3389.51
425.283
2264.09
355.793
-122.01
2453.41
2018.83
998.539
1596.25
2056.89
1238.8
6279.42
3217.57
10243.7
1304.27
5936.72
2120.67
4694.07
9841.76
1210.78
8877.99
22479.3
3799.5
-188.87
201.206
303.816
2148.94
2093.32
1001.17
936.187
366.505
1207.93
1417.47
842.557
3070.19
865.846
2304.41
8333.77
1476.19
7814.67
2249.78
575.057
351.661
1206.92
1487.64
267.175
2271.89
1248.65
568.731
586.8
11.3656
2226.85
2669.9
374.446
1536.78
2652.21
413.305
2167.32
-300.396
-980.977
1379.23
1031.79
-380.875
1117.96
2928.08
4161.08
42.8146
-41.2096
84.3404
159.456
2134.21
247.36
133.566
4789.79
-42.9545
6612.36
-469.691
2098.7
1915.78
1293.43
2003.71
-26.7449
327.069
-85.8913
783.005
20.218
4521.17
1623.32
12889.8
1033.97
-336.436
2314.31
3746.25
1899.94
1982.42
-991.062
2241.62
3015.48
900.621
1882.17
1437.95
13934
2560.85
1101.05
756.803
853.948
23679.4
6868.41
1473.5
873.5
357.214
1082.01
791.077
1937.04
1358.97
4734.96
751.125
2260
12347.2
1811.63
1379.66
-258.352
9282.15
5134.83
7114.59
2092.17
12639.1
3651.15
13.0827
3378.29
5850.5
2714.51
3826.67
2456.08
4400.34
2177.79
17.8052
290.688
6310.38
2380.27
2668.36
4645.97
499.101
1999.83
1662.94
2020.94
2117.38
11335.2
4374.74
292.736
817.736
315.765
683.704
580.004
168.008
7989.57
2691.75
2954.7
819.614
2090.8
801.773
369.318
224.062
734.993
971.459
2508.19
-183.555
764.469
3424.56
-220.157
3660.41
-327.966
2889.88
6069.7
1717.55
6101.97
83.2869
1017.42
8246.24
2221.71
548.495
14941.6
3656.73
1160.8
3125.92
10485.7
113.024
2108.49
888.796
1792.08
7175.28
2165.27
2542.89
700.51
2268.48
6514.17
1196.11
1585.28
2143.69
3219.27
2087.34
-310.56
7409.72
-440.517
1198.84
-752.087
2104.42
1114.06
-139.998
-81.1172
1634.68
1815.65
5222.45
1368.54
532.681
7140.58
133.755
515.09
2148
1887.33
2464.42
5854.4
7585.39
-5.75201
2552.36
1079.52
2996.69
4215.93
368.716
-223.208
2998.21
6655.45
1336.81
6140.89
2614.81
8320.72
515.844
1583.04
3365.16
4861.19
167.486
-64.8255
1870.73
1764.88
-460.28
9321.7
2814.02
2413.3
1864.7
1245.58
148.057
6339.31
2288.5
675.027
521.345
466.816
15237.7
948.907
3412.84
626.837
1800.28
-182.235
2901.12
2055.81
168.384
6687.49
1241.64
1840.72
6223.04
10911.2
596.271
52.5639
631.726
399.828
912.552
964.239
58.7831
681.855
226.194
3983.25
-869.521
690.818
1443.05
2607.78
2184.72
182.954
2580.31
678.392
881.659
999.841
1094.36
5232.96
3626.07
1881.23
1310.72
795.411
17.3928
11260.2
352.961
701.084
2122.33
2047.13
-480.913
2308.77
1805
296.283
4981.4
3144.78
7297.09
1902.92
3794.76
13272.2
3253.79
1929.21
1236.6
3580.33
842.35
5112.39
1207.85
213.743
7738.43
1436.1
1749.48
3194.16
623.903
232.503
2362.5
2403.67
1831.55
3049.08
5059.89
1543.11
335.202
2159.55
-507.999
2965.25
397.142
267.247
-177.74
4722.51
11593.3
5243.87
536.379
2130.44
6048.74
5463.02
880.003
16602
5590.58
858.099
2748.52
277.967
5138.57
7281.71
933.763
8764.35
148.69
1733.44
511.251
-364.963
412.021
4599.21
44.7097
214.944
22317.7
2119.46
70.7846
3967.65
263.904
13534.6
4158.71
3112.72
4324.44
335.749
469.105
2204.94
5120.13
2901.91
123.057
2862.89
864.181
39.5938
3627.42
151.062
2591.66
451.335
4207.04
1972.44
1581.44
1007.42
6052.66
1798.2
5000.83
85.3338
439.159
1091.86
888.749
4301.21
935.754
17422.1
11397
4674.17
2619.77
7901.28
2405.21
-71.832
2773.49
1360.73
-213.11
9553.18
3234.49
1137.7
1524.9
356.407
9248.34
671.981
2114.9
3147
2852.86
1528.58
558.811
6167.21
193.631
2166.52
597.935
1236.09
27278.5
4193.71
1381.52
234.07
2046.04
4613.52
420.83
-32.4691
1036.06
332.791
3093.21
1403.26
46.1697
1465.36
-12.914
8222.59
698.662
1133.19
403.573
1682
-19.8849
1663.2
3647.29
1030.71
1198.04
4158.54
-138.387
4368.72
9674.77
3611.55
4924.25
-108.449
168.973
1070.54
75.5424
1420.79
602.186
1801.27
745.255
4602.42
2572.02
1459.77
178.111
2745.73
308.169
1309.68
2945.33
1488.56
2496.61
467.777
-230.54
153.312
3310.95
6643.21
2143.77
286.639
2600.69
8197.3
2768.34
2486.26
1300.07
762.125
1885.74
1195.45
322.448
724.042
3393.33
2233.75
1565.01
4437.16
-327.398
-505.906
3612.98
5592.84
3990.13
196.422
1613.93
11583.5
2408.2
847.233
1882.89
806.806
10602
3260.46
6411.71
716.989
5475.9
3622.33
3786.53
300.211
17543.3
1132.48
-15.6475
301.078
-323.003
978.751
538.802
1551.16
1999.8
713.882
-7.06422
762.297
3515.1
469.557
337.099
493.351
3227.39
1029.63
2310.28
10275
9949.21
408.856
329.364
1605.77
6477.91
2752.1
1325.12
1627.64
4053.67
1899.24
13022.9
11884.1
8197.5
413.183
5470.66
1758.82
3390.81
1092.4
2177.29
2622.22
596.436
165.635
4245.37
41.901
2637.42
7060.21
1068.05
992.026
663.655
221.935
596.751
3000.12
1184.04
1484.02
6754.63
2440.9
8450.27
963.915
1574.09
2594.11
508.484
1373.2
2305.51
5665.27
2599
1481.33
850.174
1999.32
1397.73
384.548
-105.449
46.1794
6173.96
7903.57
100.907
1965.69
-59.9194
1995.39
7856.13
2459.81
5354.57
2955.5
2455.08
4009.36
2952.25
592.037
1618.3
472.362
2114.37
-175.188
365.202
1741.51
418.003
808.949
1233.48
-86.545
82.6353
241.853
345.591
1006.6
5047.36
1602.36
1500.69
4857.02
3834.44
3101.32
223.448
93.6063
1843.41
6987.62
7115.69
5061.64
246.264
434.76
102.567
4972.54
762.412
466.126
3948.13
6791.32
-60.912
4091.04
330.403
612.515
1520.55
385.076
2577.74
3530.01
5310.33
-161.7
1342.17
3954.58
9106.61
12600.7
1374.53
513.229
1161.84
3355.16
1047.75
121.523
1863.46
29660.6
8578.7
5841.71
-194.488
1788.68
2969.99
6277.25
4981.27
1491.9
4424.86
1493.12
1952.87
5701.95
411.018
-136.141
257.865
3318.01
1379.84
1408.8
2193.91
2483.13
2707.58
1374.22
3957.79
3834.5
3622.59
365.274
3760.15
2286.79
51.9612
2354.79
-483.23
1345.72
986.413
-44.5006
242.141
1899.19
3541.87
1753.28
3721.66
4453.08
4117.86
1276.65
450.434
1295.56
431.707
7132.64
4674.22
1537.01
1088.5
2192.77
1807.91
801.388
365.83
4878.25
4551.74
2266.84
677.772
18.9957
6021.04
3908.62
3250.9
6057.27
9046.1
3993.85
3212.93
940.081
211.3
1023.21
198.092
1577.19
5366.95
2041.55
2180.64
647.231
718.299
3461.1
671.678
549.441
51.4978
5198.39
6067.52
17053.5
22647.6
892.331
1086.12
400.54
1039.43
249.389
-93.5257
5097.46
3221.43
447.576
4497.34
11665.9
472.815
3893.97
1032.41
562.307
2076.17
13760.1
789.939
317.829
2653.32
324.991
-256.586
911.128
2874.07
4641.96
1006.81
4196.23
4209.84
4138.21
1076.8
3486.3
129.441
565.655
42.751
285.65
3687.09
6213.43
6822.26
108.768
1245.87
1660.09
9723.22
19882.5
9276.88
3759.49
1328.31
5168.8
1255.65
1757.94
1954.99
753.018
64.8588
8433.91
132.842
1391.8
3250.26
348.766
654.035
1924.81
7963.52
-127.057
286.23
6594.5
2957.7
3513.25
2826.54
2479.87
15607.4
2937.23
694.14
1961.11
5121.67
2617.82
2851.04
5336.17
598.855
41.4785
2522.77
342.075
556.879
-282.903
1108.7
1045.15
2088.85
827.346
-157.791
1734.82
1567.16
7050.3
7588.7
3338.22
2073.77
407.494
1834.35
550.826
-484.253
562.723
139.404
1005.08
565.911
669.815
424.945
4153.8
763.89
1095.44
1064.44
15613.5
12400.5
3076.85
3937.78
4097.66
202.204
2285.07
5747.59
-1000.08
960.108
3602.14
1124.03
1232.81
1413.02
2361.71
5218.1
14491.5
702.834
2016.53
2601.81
8421.03
4729.85
823.98
1174.82
1843.57
220.693
5638.34
2389.73
6605.42
-15.2081
1.78395
1363.01
2975.6
6756.75
5122.71
1283.87
27.2461
22.7925
1369.38
10973.6
4586.09
4767.91
1789.65
2620.85
1052.2
542.3
3353.72
3163.56
619.692
1950.12
9844.97
1594.01
9940.38
2027.75
1639.03
1766.59
-265.381
137.904
2378.17
4961.12
571.941
2092.62
2889.31
157.808
500.328
1202.95
2488.53
1458.58
1959.45
2021.67
2645.64
3101.51
3027.32
1100.89
501.796
4616.25
2299.74
3572.7
2177.24
5030.49
3294.18
4222.63
5171.32
299.745
3694.35
2095.5
937.403
293.941
1914.67
3551.27
11648.7
732.614
151.795
5667.58
2804.84
3195
208.467
7461.34
3820.03
-301.093
6540.63
877.095
3835.88
4519.26
102.594
330.494
234.022
692.076
2712.42
764.851
3584.76
5080.82
1238.68
14924
1362.31
-51.5106
11760.5
3403.46
3257.97
1347.58
-268.003
108.619
192.72
790.32
2981.74
1279.97
1192.07
2438.43
9012.86
675.095
4106.01
8772.07
4725
552.803
1567.5
993.406
1101.41
1057.9
879.807
-499.191
-6.43783
1463.95
5010.86
2832.31
1120.65
174.864
1074.58
-21.6752
8460.8
964.675
4510.4
2248.62
1177.71
3769.42
7397.43
1343.45
56.7721
969.432
546.508
2598.1
521.603
759.748
1037.02
5359.31
1642.32
2481.58
931.369
-341.028
3990.32
6146.51
1549.11
2437.89
171.732
5568.6
3137.1
3909.17
4282
632.732
808.811
283.342
3023.53
2573.21
1976.7
208.031
410.649
4778.45
1134.38
6565.29
4217
-147.113
1701.73
3048.3
619.106
2083.09
727.085
4132.47
1359.52
574.629
3362.6
-109.531
4766.94
-201.391
2318.53
4883.36
2517.25
1034.67
2434.52
396.098
3215.53
2357.51
1081.95
499.503
785.852
2087.43
3585.71
1664.96
1384.76
11376.8
8002.2
6201.79
3052.39
4087.37
2208.59
2959.91
4006.76
1010.36
410.423
1037.52
485.567
-89.9329
3967.61
2880.75
4245.34
4187.26
4284.91
13233.1
5496.44
2475.43
-193.66
1689.37
920.614
9348.63
8205.98
-319.13
3281.01
976.53
2885.47
2640.97
378.161
-94.1109
1185.61
4236.08
88.9389
819.628
821.795
859.337
10332.2
4874.29
485.299
5447.55
4152.85
678.868
-283.254
1001.85
3265.27
6177.26
3007.33
1751.39
1032.35
3011.11
4089.77
1904.66
1925.78
4464.93
-38.8092
9843.5
696.043
3211.33
1269.32
1398.7
482.36
4577.06
3330.18
-198.431
1162.11
476.109
167.298
1606.83
889.12
450.757
1198.17
5770.36
3990.74
497.181
157.197
1626.73
2040.28
1727.49
1240.67
867.08
6314.56
661.194
79.7194
956.227
196.33
10310.3
5199.18
1775.9
1181.72
2840.8
5139.68
8066.11
-414.862
820.455
-208.267
-200.411
2492.48
2988.88
94.3932
4004.33
4359.11
374.893
104.884
2245.31
1862.54
2110.93
1039.15
5666.92
8618.04
145.777
326.439
1480.5
11797.2
668.815
5935.25
1880.72
849.464
2355.74
1298.46
974.476
-84.0341
625.276
1933.58
1069.9
9619.26
181.538
2035.01
3188.76
685.781
583.313
-692.558
-586.369
1782.49
3470.91
968.659
3387.45
6092.5
5263.94
6103.41
1191.22
2452.44
2567.94
970.328
4301.29
1065.46
3668.34
1391.72
-171.194
-220.545
4842.71
1720.86
-7.76734
2556.27
772.312
436.409
717.773
7987.22
1608.49
1690.8
5599.94
2530.05
5324.28
-534.76
22.453
780.755
2069.21
1586.71
861.469
494.544
2009.93
-296.45
2740.03
389.976
1830.68
655.307
410.079
525.075
647.81
982.049
4452.16
2531.88
406.436
2776.96
4175
3324.65
5377.72
1812.78
6349.85
8874.67
4371.18
1706.69
1195.37
20536
1760.3
2382.6
11057.9
724.179
376.774
3008.54
12089.4
519.536
2232.68
1673.55
2214.29
1358.41
2701.58
7915.41
1941.3
4261.41
15469.5
4908.63
-181.354
146.151
1805.13
3676.4
709.126
1332.55
11113.8
6438.11
4388.41
2065.75
1602.09
5095.23
817.788
1940.65
2900.96
160.894
166.191
6302.76
10067.5
207.502
1848.53
512.599
900.762
1845.04
905.349
1068.8
619.337
1389.23
5571.41
3775.49
49.2299
538.068
5934.1
418.32
2198.77
1659.27
806.223
1457.45
4342.33
2252.7
4108.31
147.506
836.97
949.41
588.476
13116.8
2417.62
12549.5
10541.3
16117.2
1537.93
2594.43
1898.84
1256.9
-99.4924
5530.96
180.201
1426.94
8310.4
1082.79
490.388
-134.994
74.9599
3879.84
1571.78
1070.01
76.5124
2345.92
5281.59
2647.77
2369.99
1169.9
8806.07
5935.43
2365.13
5886.52
3797.48
7527.41
4717.26
5549.97
4593.75
475.27
939.618
-677.266
3028.66
-150.666
1330.25
757.135
4931.3
2904.74
2332.85
10678.9
2716.03
1148.22
1694.49
1358.25
843.777
5410.62
1686.48
2486.35
3077.96
18595.3
8470.18
318.266
6006.76
486.953
1286.64
1709.13
2042.59
8928.05
12142.3
1641.98
-142.151
2073.87
4887.12
563.308
-120.798
-413.894
881.079
202.391
908.977
-762.934
165.039
2739.94
1680.58
2540.52
371.695
-31.4569
1197.19
568.349
2687.91
3134.27
3022.76
650.336
19377.8
16338.4
170.074
-142.989
3380.25
3156.96
2634.41
1829.37
1328.12
2304.65
6573.79
1199.2
241.013
1536.72
11.3479
5146.93
-131.366
719.346
2908.1
3661.66
1394.34
943.685
502.767
3225.43
13249.5
1931.71
731.762
689.836
2873.71
527.397
692.36
2477.34
-17.8788
997.692
1602.95
3996.22
178.773
5989.9
821.08
2223.1
940.461
1678.27
5870.29
393.471
-119.671
184.124
190.664
-398.742
3156.27
287.757
1188.02
131.966
759.735
1622.39
2541.49
6959.97
4622.06
1517.49
833.172
215.413
963.903
1503.57
3142.79
14597.2
4124.71
1149.97
2463.99
1335.48
1419.5
1603.08
869.558
3961.91
2839.06
1893.9
768.088
3.79432
5350.2
5526.48
1210.15
2460.24
1814.58
1133.12
247.389
5429.33
2346.84
417.808
204.037
1618.52
-476.521
604.248
1185.1
4448.39
1012.34
5422.37
1446.65
1150.99
708.908
40.0523
2699.45
2213.87
-40.1037
432.609
1998.1
2543.15
6613.8
11247.8
1500.11
2934.15
2142.19
-109.636
457.982
12112.9
1339.97
166.409
1578.65
7568.12
669.479
1364.91
1468.1
8992.66
5986.89
3511.32
5202.26
2305.98
804.885
369.934
2440.75
434.482
284.753
2876.4
5511.43
8181.12
3730.37
3251.06
1551.91
852.911
7595.07
9826.76
1647.09
4695.77
2907.57
3713.82
325.031
638.379
14983.7
2995.83
3353.63
7637.09
1551.2
605.384
1858.27
1786.81
1026.07
2328.5
500.182
2169.28
9425.22
542.782
810.31
3762.9
5575.77
12646.8
3462.96
1167.32
1264.3
-221.081
3355.54
2067.92
2665.99
1081.63
1036.98
2155.5
4312.97
4305.19
3485.56
3742.72
18.3879
1262.28
10041
3805.3
1191.15
5220.87
3440.76
1426.51
-204.468
513.175
3040
3687.26
12104.6
4167.44
9451.04
1229.55
873.021
1141.12
401.952
1560.54
7686.36
398.156
423.169
657.834
2304.07
575.679
961.916
4541.29
4226.87
3035.76
2220.08
911.833
1249.49
-472.691
6719.15
528.131
3922.6
4690.76
1841.05
2730.81
128.788
4383.52
3894.88
5759.94
3891.56
1510.43
2733.3
406.62
4589.02
2872.18
2578.91
6191.32
10087.2
696.685
2415.02
2584.63
625.924
461.093
362.414
2360.52
1297
6014.56
5674.55
8534.67
2943.35
3072.22
2033.2
915.916
1852.93
667.443
2467.3
2725.72
336.099
-250.573
930.879
1569.51
2127.45
4567.03
5523.1
1132.03
3233.28
6165.47
381.825
1792.38
611.909
2398.74
2984.4
460.045
1944.49
2629.92
1205.48
286.886
-30.1833
805.675
1149.76
257.929
1542.1
1050.72
601.265
484.278
7640.93
8096.26
-399.262
2032.08
235.773
2865.89
1977.7
312.832
570.459
1309.92
-271.386
3440.09
1837.35
900.106
457.2
648.193
3811.75
1954.11
319.535
5728.82
3469.09
6.01873
4903.4
2972.82
6601.43
1428.55
1329.25
4458.12
1231.24
1021.08
3465.89
502.176
642.706
466.607
878.347
367.265
3321.78
66.9753
2848.69
5380.01
456.548
1947.47
225.847
1124.06
1643.1
2041.9
130.652
265.963
936.648
362.884
371.445
1654.15
9170.22
543.633
4227.17
536.115
-620.564
541.044
-207.325
1050.08
1301.94
-459.18
11099.1
5676.19
2346.69
2747.54
1832.88
1542.75
1191.48
6980.44
2994.41
2240.88
2481.04
317.409
1328.15
-244.638
3083.63
1103.28
9395.55
3222.29
-39.4045
379.323
7667.33
2462.03
8750.69
518.847
577.992
1633.09
7455.4
318.54
1223.76
973.448
2576.53
2877.04
120.186
4598.73
1107.65
5521.21
2269.46
667.735
8264.25
3102.71
520.195
1389.79
1895.87
490.638
4662.74
1452.58
4234.9
1112.1
3635.02
1207.13
1759.25
1683.12
3327.84
1235.85
-234.707
2247.07
-68.5822
907.315
-81.2055
2252.3
1406.52
5058.6
662.406
1765.65
635.953
1345.24
-37.919
6529.92
1323.12
8145.87
3021.28
322.628
577.737
2992.95
764.197
4977.43
5910.46
1088.26
373.293
36.3796
1366.22
4964.27
1104.96
2556.05
7269.5
3682.42
1045.49
3198.67
878.881
1044.55
6719.84
1092.41
537.541
2152.98
2170.16
551.289
3196.52
1904.98
1690.17
3758.75
1094.57
1251.72
3776.2
1285.23
4534.67
331.772
3403.72
540.552
1793.36
-28.2444
8753.48
5720.24
-63.1539
507.364
2872.57
1758.01
4862.47
480.709
1302.13
872.373
1121.35
475.006
407.042
1453.96
10045.8
4034.31
1582.13
5968.74
996.511
1213.37
28.8932
6230.34
9073.64
1639.91
-119.347
2038.6
-473.727
1767.46
1698.22
1109.91
4400.97
4012.53
11578.2
2549.6
743.844
1364.72
2494.52
466.593
11621.3
2762.43
-117.802
424.267
3201.54
854.111
7341.59
5303.4
-189.347
719.329
1636.05
1048.36
936.959
3295.46
414.313
3248.96
939.265
2345.48
610.322
867.101
1379.71
550.51
-287.716
458.924
1746.53
152.153
542.468
739.222
1264.54
3185.55
366.803
2072.72
3969.04
4863.13
3753.01
2296.03
2406.06
1973.35
10370.9
887.555
382.36
9497.87
2097.34
962.185
3899.52
-15.7511
2647.79
2763.48
2811.9
2355.68
4235.83
662.001
-1353.69
1408.15
-593.677
2159.06
8192.92
300.648
1904.19
2393.61
9626.83
135.562
1607.1
1556.9
5710.73
30.6041
11361.9
536.469
284.503
1263.48
8376.01
901.782
269.658
-35.2859
2321.41
2530.17
3602.44
5403.25
4252.15
1003.14
290.708
3045.85
4076.35
1578.06
277.745
7929.34
5743.46
1151.83
4994.88
1705.01
1500.96
4315.34
3416.1
427.529
1776.2
1171.36
2370.69
3222.19
18054.2
1301.83
786.876
1312.57
986.146
7749.15
102.013
9.09185
5447.42
1174.18
1512.83
2948.52
6735.79
2711.23
7744.95
6470.29
782.738
733.316
2280
1599.68
-694.893
597.125
1668.4
649.779
1388.85
461.7
4113.37
3768.23
1855.38
5422.73
2976.83
1927
946.468
3584.58
569.53
1151.45
594.105
1647.14
3904.39
1556
102.753
-232.253
964.72
3468.34
2738.64
5543.16
9481.62
1549.18
581.846
2232.51
-12.222
12133.8
1473.04
420.075
3232.95
394.466
696.133
666.323
288.978
1405.47
1514.61
3298.83
2528.77
43.3169
5091.52
185.382
1897.28
-56.7085
1477.29
834.023
419.585
69.3167
-146.719
1382.62
782.367
2042.39
2783.86
891.106
321.43
539.924
3305.58
12145
593.588
867.427
7665.08
1818.33
277.85
2968.04
1076.82
4221.2
1016.94
4188.91
11507
5736.79
227.091
1901.14
7674.96
1158.29
7898.43
4797.29
2626.43
3171.18
10059.5
3615.52
1302.1
8613.68
4011.94
2749.29
-70.2882
3643.61
1944.55
6668.95
708.447
3502.19
1289.3
1575.53
1781.95
-283.514
2451.51
25.1443
119.519
371.701
1252.81
1359.42
2492.08
2866.17
2914.28
3666.06
3902.94
3669.76
38.5418
1059.54
633.867
321.071
827.527
14739
-296.272
1555.79
-535.873
3821.43
1793.22
16134.6
1813.83
7575.93
496.326
819.693
1335.69
749.205
2166.29
6178.04
3854.72
1378.15
1280.01
-22.8596
399.766
183.993
1136.88
3534.24
399.27
2326.78
3567.55
10871.3
25820.2
9914.19
5242.53
4844.5
3891.91
6079.45
1548.72
1046.28
1855.45
757.602
2344.58
1089
1586.79
-63.8154
2502.83
4649.43
2113.64
3546.94
1652.83
312.473
2940.6
912.048
1849.18
-724.629
3651
369.54
9.05037
5244.37
1710.04
1850.43
4560.38
5874.02
8578.1
351.822
1466.42
107.362
1857.27
2686.98
2012.33
124.516
1297.89
6776.12
4785.76
508.424
805.773
399.351
1944.29
180.713
1583.32
1292.72
1407.31
-20.0374
5626.59
-299.417
2860.29
-143.947
423.59
-346.681
235.439
6543.92
276.059
782.504
2924.14
4325.52
481.749
5365.77
3546.33
1554.63
259.582
3389.03
916.691
1954.4
2298.16
508.533
7187.31
2020.86
1810.83
1918.17
7342.77
5293.94
3572.53
7932.57
1166.39
765.976
2632.3
2719.15
2477.53
4445.08
1006.75
704.429
1809.23
2983.56
450.944
773.537
2275.23
-184.588
260.176
3579.77
-35.645
1514.12
1126.22
6166.27
4966.79
2738.78
3550.33
822.173
4545.73
4543.56
489.943
-394.057
2572.82
3624.48
200.69
451.69
2403.53
9182.51
82.3582
3528.9
1953.73
97.8935
67.0972
2648.12
411.481
3993.02
-110.978
1045.4
-290.37
515.023
4137.59
3124.1
1360.11
6518.78
2871.32
673.438
301.469
