-921.47
-2009.16
-3095.84
628.927
243.407
540.244
1086.44
128.33
-1120.52
63.1347
9493.21
7679.74
689.49
-1550.18
-2422.27
341.694
5119.62
6844.73
-731.049
-407.44
754.297
-841.808
6143.4
7559.57
5066.25
2075.35
6928.61
4564.77
5116.02
524.909
2772.14
4412.6
4517.31
1759.17
1724.98
1255.16
5548.71
7355.35
4839.75
4255.8
1047.06
5515.24
8329.83
3454.53
7295.25
5130.67
3568.53
2500.57
-65.2865
-431.308
-247.653
-5449.7
-7998.83
-9763.13
-1897.51
-41.4034
-1786.32
-2863.9
-6147.91
-3519.6
-3419.26
-4986.58
-5136.92
1334.77
2865.7
9457.38
11576.4
11265.9
16089.8
11009.4
11418.2
11004.3
8657.77
5599.2
348.285
655.391
-3079.77
-5080.56
-4386.08
-2272.5
-2710.78
-800.637
1133.16
4480.23
1367.79
1365.86
388.654
1115.46
377.796
-18.3463
452.593
1323.61
725.433
1244.57
-663.827
231.903
243.076
937.033
463.773
-103.434
497.498
792.066
3234.46
446.238
910.172
-669.822
5743.83
7685.4
5788.01
706.682
3067.09
-1022.36
-2028.41
-2127.73
-415.326
-2192.71
-7353.87
-9950.93
-10447.5
-5621.55
3228.35
2377.68
1486.44
1892.7
4824.13
4332.61
3583.4
1447.38
1104.21
1826.99
1356.41
2263.77
1042.49
1711.2
-1269.72
2423
4878.38
4490.37
5748.3
6538.9
9809.71
4379.27
3637.86
5462.76
2862
-1140.13
-1470.62
1997.78
2631.65
10394.1
12905.2
10810.5
4393.15
6309.95
2511.09
4386.79
8125.95
8412.25
10185.4
4745.89
5256.11
2021.17
3599.22
1375.83
-2588.86
-681.905
587.877
-2833.41
-2283.53
-3535.86
-1839.53
-1174.29
-716.917
262.747
36.3164
794.572
-2521.49
-548.066
-2711.69
-674.211
1479
2112.37
5630.19
3878.29
6333.07
8311.6
9956.59
3548.03
5949.13
5954.99
7602.94
20499.9
19822.5
8118.23
14763.7
14917.5
8324.84
10679.3
10015.1
12728.3
7964.41
11091.6
9766.34
8211.41
15928.5
22142.2
14062.9
17729.8
10892.4
12221.1
9351.14
3531.19
3975.87
8011.68
7813.27
12970
6102.34
11311.2
6325.46
7726.02
-755.444
-3321.34
-492.926
5586.98
6355.24
10268.4
9491.4
2704.45
5152.54
2926.84
6368.51
13412.1
13955
13841.3
24059.5
12180.7
5208.43
4198.99
7983.06
6449.65
10363.8
19163.2
15573.5
14676.3
12307.5
16143.9
16220.5
15032.6
20051.9
21119.1
16317.4
17938.4
15222.7
13865.4
8628.96
4861.89
4198.02
6220.11
6224
12813.5
10748.8
14077
13728.5
14058.2
14585.1
16535.1
12151.8
10690.1
141.915
194.872
2310.82
-111.353
3748.92
3048.21
-592.15
-1774.72
2518.87
1420.37
-911.494
-794.596
157.197
971.039
238.4
1738.13
-1025.84
211.706
-2144.44
-1570.43
-872.823
-2444.08
-2125.97
-124.183
1081.13
-3002.86
1921.32
-11.7867
-1089.59
-2306.92
-3340.1
-964.871
93.3037
259.574
-429.471
-985.671
-929.665
-2668.67
553.062
1735.86
1106.36
1920.55
3570.27
3471.74
8113.49
8544.35
3659.85
788.761
7857.76
7713.01
11540.2
17800.9
10129.6
4659.52
4373.11
-336.727
-2442.93
-3862.65
-1192.71
-2074.72
-1329.22
-1191.47
-1601.69
-781.719
367.281
243.822
2571.29
1307.88
-749.539
332.09
-70.0363
-2605.93
-1032.77
-2424.78
-989.812
-557.663
-410.101
-2790.33
-739.888
-1331.81
1000.91
4715.47
1677.33
-611.187
-4260.28
-3413.59
-2462.76
-2896.98
5883.03
5662.52
18652.4
16422.3
14621.7
3642.95
-1272.07
-905.17
3328.9
-255.801
2630.36
5708.66
6098.33
4126.23
1614.09
2988.68
485.491
-4256.73
-2069.87
-3667.64
-5365.99
-7274.15
-7907.77
-8148.78
-2123.95
-1257.66
404.443
-462.682
4939.38
4025.22
1547.4
2060.87
6988.79
4944.88
-1765.95
-4886.36
-2612.79
-568.023
-1136.03
-108.207
-983.633
1234.37
-840.794
-3654.2
-2651.71
-3143.33
-3472.57
102.422
-284.891
588.132
2961.39
1244.54
7279.19
3378.36
1279.84
1352.24
-1710.32
196.113
2368.75
3275.89
3968.72
2731.29
2659.36
3910.92
1996.63
190.794
-3355.26
-1378.96
-570.552
1830.05
832.373
-2529.34
-2554.87
-397.959
329.407
-1803.58
-7562.19
-3369
-2978.74
2144.52
6846.28
5360.56
3470.39
237.688
2284.47
-2595.36
-6092.11
-6967.97
-5635.87
-6505.61
-7021.84
-6266.28
-7240.47
-7793.57
-2211.84
-4118.09
-3241.38
-593.053
-357.73
-724.032
340.669
-421.587
477.574
-259.372
-1729.52
788.933
2373.63
2676.77
4094.37
4021.11
-4552.45
-8839.43
-8016
-4543.53
-3080.21
-3809.64
-2485.53
-2890.8
-2159.24
-692.968
4197.92
6148.9
802.52
-744.701
672.974
-2823.41
1650.24
-34.4764
-4335
-3358.27
-2162.52
-1382.76
-505.171
801.268
2194.85
-1805.89
-191.056
-444.948
-677.253
-3290.08
1265.77
2610.64
-572.036
-3214.88
581.356
-305.673
663.785
2566.22
-264.125
354.748
-827.632
286.659
1570.82
2886.34
-2336.91
-170.093
2468.02
-2132.68
-4683.51
-4177.69
-2101.73
-1406.18
-1723.19
-1915.29
-4485.72
-7157.17
-7715.11
-3831.36
-3924.85
-4703.92
-2371.46
-364.901
2421.95
-247.051
4711.73
1749.72
-534.233
-320.723
3698.93
3878.38
6724.3
6051.6
6920.31
1973.09
2113.94
1583.46
5528.07
2074.45
4815.06
5042.77
2988.03
5205.08
5382.98
11526.2
11121.6
9136.22
3389.74
3576.06
5043.37
547.338
-511.662
-540.477
262.735
-746.318
-136.955
2159.18
4446.06
5022.2
3423.19
-299.982
315.479
-703.126
-702.02
-4038.18
-5153
-2278.85
1328.62
-622.556
-1823.16
-1013.37
-2328.6
-4932.81
-1717.81
-1274.48
-901.301
2495.5
-3458.82
-3745
-1988.24
-3593.13
-6285.17
-7253.69
-8173.31
-6702.2
-5787.72
-4525.91
-2012.94
-4444.75
245.699
335.691
83.4212
1618.81
3309.29
14926.1
20867.9
18407.9
15890.8
9900.94
4253.99
7543.09
7461.97
4542.02
10663.3
8584.62
4325.7
5047.81
3572.98
797.854
234.469
2017.73
2584.85
-6215.6
-402.439
-1856.76
-1915.74
-95.0227
1263.4
433.006
435.282
-553.296
-1612.13
-1102.29
-346.708
-924.324
59.1345
1953.57
-4304.59
-7562.15
-4664.15
-6669.96
-4727.56
-4669.67
-4046.62
-3194.15
-5413.17
-4918.18
-1517.99
-3676.08
-4028.28
-8722.32
-4061.45
-5206.26
-5473.89
-1300.77
3125.5
747.069
-356.34
2570.61
425.226
-1842.05
-678.266
232.595
1531.43
-1940.55
-2708.36
-1381.09
-2818.69
-99.3209
-1644.63
358.496
-827.507
1440.84
323.08
2025.88
1457.32
-200.554
2340.94
-2391.31
-642.621
-3995.95
-1400.67
-897.475
1620.69
3637.46
2782.61
523.798
5207.55
2359.68
-1283.42
-1962.73
-2163.18
513.611
-2326.41
806.272
-2297.67
-485.163
-1578.42
-90.5991
315.15
212.697
209.321
1157.52
-456.574
-844.665
-2301.53
-1329.46
-3003.23
2150.5
535.197
1623.95
6160.57
3417.08
5069.57
5922.33
174.819
3832
3841.88
6212.41
6987.58
8605.55
10150.3
8246.31
4604.19
1960.02
-1449.91
1503.92
1556.33
1876.97
242.827
5100.69
4504.75
5100.8
5833.61
564.191
1005.53
-66.1058
-412.363
3214.44
5418.29
9078.04
4830.96
9757.65
9663.08
10179.5
11844.1
10431.8
4166.1
5296.64
-757.804
3561.43
174.593
-3453.09
-2033.51
-1206.34
-1844.45
-188.746
222.919
-1824.65
-633.235
-4845.94
-1887.48
1482.88
3181.06
1800.48
1521.1
6143.91
4998.56
6219.82
3705.6
5806.12
5316.58
3914.73
7466.55
8688.56
3195.29
1929.43
-1848.4
-727.015
-2490.21
-3072.7
952.651
-226.135
-3201.22
-1079.41
3643.56
4318.51
-1689.87
-688.164
1405.05
-38.7186
1426.95
1405.36
-492.627
4390.89
3090.55
3263.82
4330.23
2646.6
1991.29
-2362.21
-803.07
1091.82
207.271
1279.02
-2058.97
-1267.33
-140.505
-455.104
3285.86
760.379
-2001.6
1912
2823.52
1866.76
2357.14
870.263
-611.007
-2250.89
-1184.56
-2312.22
-3395.2
-1207.08
-2197.5
-1976.62
-2239.98
-2350.08
-5005.91
-2217.91
-1389.89
-1004.52
-903.601
-2134.27
-868.927
-4546.34
-1032.86
418.962
-1373.19
-2799.13
2821.37
4922.69
5004.04
7663.88
6299.19
3476.87
789.836
1486.11
1742.36
1149.94
2072.36
7057.11
12213.3
9496.07
9771.94
14210.3
17073.2
6132.98
2745.11
7023.75
4311.64
6563.18
5448.89
3961.33
1179.6
2504.99
986.418
-359.58
6091.47
6634.67
-3545.83
-4665.74
-3006.56
6807.68
4711.13
2390.43
5278.79
1806.18
1530.93
1908.96
4245.91
6710.98
10130.6
11312.2
9875.85
4177.91
-1280.38
1760.86
2034.61
3048.44
-311.281
1270.47
3977.88
7087.31
1852.61
6157.02
2019.13
6343.41
1983.33
4670.7
2592.36
1222.82
6050.81
2771.17
2887.89
-255.023
1890.12
3398.36
3913.63
3583.12
5536.52
4903.44
-883.71
-121.54
4818.7
3809.6
265.79
-613.738
1461.24
3148.24
1938.39
4576.45
3076.9
3098.22
1288.83
537.034
-1456.16
-1506.37
-296.462
-2036.16
-1402.53
1687.33
2145.69
2836.14
2836.73
755.105
1327.79
-566.479
1100.14
8303.9
2689.57
816.532
1431.54
2648.21
-591.049
5418.56
-506.061
2649.6
2136.99
2921.22
1050.99
-190.5
608.574
-33.7021
1509.34
334.575
-2302.66
-1411.45
-1854.72
-852.52
-3008.09
-1093.52
-830.632
2915.47
1544.07
-164.283
-23.3076
-3874.82
-3757.41
-861.809
-2700.7
-1637.8
-772.388
-3686.44
-1199.41
-428.774
-1301.4
584.104
-1112.73
-2684.25
-2832.44
3709.91
1287.48
1243.56
1439.03
4975.1
4288.45
8747.21
4705.74
1912.92
2434.39
2194.81
4064.9
5711.87
8113.58
9912.5
10888.4
7345.01
8981.26
3685.78
2177.97
-1289.23
-2452.7
-2139.73
559.328
3983.1
5535.12
3149.11
1179.47
2324.2
1316.85
-30.1404
-3289.63
-6683.94
-3779.71
-2543.29
646.414
4720.45
8152.25
10285.7
14445.2
10444.9
12746.1
11337
12220.7
11124.7
8102.24
8481.91
14109.4
7148.99
2235.09
-2751.34
-7754.22
-1946.14
-1595.83
-2201.7
-3001.87
-3547.93
-4554.02
-4829.44
-2498.37
-5324.94
-3273.9
-7000.01
-4449.9
-3723.02
-2081.46
-5158.03
-2615.83
-2638.91
-444.805
-752.256
-1099.65
-1549.98
-3497.99
-3331.46
325.085
3033.7
-3055.19
1670.01
2960.98
3369.24
-984.176
-31.5132
-1118.53
-3327.29
-3667.28
-306.692
-1745.73
-1993.3
-2316.84
-4885.4
-5828.24
-2852.38
-846.34
-958.437
-531.384
-1086.58
3393.35
4510.17
1841.85
1326.37
1173.34
754.183
-3807.47
-7687.22
-3864.27
-2629.59
-416.838
48.56
-1609.42
-415.943
-2869.02
-276.107
-1714.91
-3709.18
-1243.64
-703.549
858.324
3991.12
4598.28
-304.349
1594.02
183.344
-2418.25
-2441.18
-2585.2
-2229.34
-5397.65
-4115.02
-195.167
-2710.9
-1459.72
-3364.67
-2311.81
2249.11
483.486
246.382
1405.63
-917.386
-1872.29
-4689.39
3787.53
-550.264
209.927
-2708.13
1456.36
215.153
-1197.92
-2247.43
-4324.44
-5346.86
-1360.18
-833.37
56.9423
1097.4
1663.52
1822.45
-877.709
-1133.46
-901.439
-644.084
416.41
-436.545
1006.17
734.969
-2248.89
-146.966
858.731
1023.36
-619.018
-3733.72
-777.033
750.614
1473.12
6441.77
2792.46
168.09
3290.33
-46.0986
578.142
1371.47
2709.38
4881.91
-1356.85
-311.111
4476.32
6974.96
12982.7
6070.78
9847.91
4984.8
3969.73
9671.28
3074.84
7146.62
14435.3
13443.4
12340.1
4146.21
8673.29
8869.6
14789
7553.35
3939.72
-2497.26
6873.42
1808.95
-2450.79
-519.514
-1727.45
-2092.84
-3355.13
-3807.52
-2054.89
-1712.13
32.0298
-686.901
-1515.44
1078.73
-57.7505
1784.05
2260.23
-486.131
-2909.31
129.603
495.242
-309.434
-309.436
-677.404
41.1752
2450.07
-2189.99
344.975
-2033.36
-4081.18
-7933.87
-5593.78
-5389.34
-3654.5
-2121.42
-4263.93
-6248.07
-4909.26
3762.31
-2429.57
904.065
-788.778
-4463.97
-2840.11
2425.58
781.905
90.1132
4655.7
2213.83
718.522
-2723.32
1443.54
8046.34
4230.59
4814.27
6476.22
6991.67
6823.78
5043.58
4056.46
-10.5258
-2732.52
201.142
-1655.87
249.36
-1660.25
-868.913
765.043
-873.032
-1002.01
-604.434
-2968.97
-2726.15
-2870.87
490.076
-1959.29
-1466.83
-1482.02
-1780.73
-4708.62
-7944.48
-4087.45
-3073.01
-6672.44
-1287.9
6827.52
11231.9
8709.32
3599.4
3883.3
-1599.98
1934.44
4647.37
6224.47
1960.33
-3919.53
-5680.67
-6175.83
-4084.31
953.194
3044.6
568.771
868.516
748.789
872.19
556.291
-1039.06
-1166.65
-1306.59
-2887.93
-3494.82
1367.99
-1999.83
1081.69
-1914.03
-5366.6
-3394.95
-3654.61
292.815
30.9078
-894.756
-4628.03
-2070.12
90.094
1183.35
1303.2
36.6867
-1230.05
-339.266
-1948.56
-905.74
111.56
-1827.8
-319.909
-1949.39
-3742.63
-5250.16
-4823.18
2462.39
7494.96
25989.9
25460.7
18395.6
15788.7
12210
19357.2
17053.5
5270.16
7772.7
12606.2
8872.22
12195.5
3536.16
538.028
-1506.04
-7324.39
-7676.36
-3852.4
-2670.2
-2890.5
1759.08
-87.2186
-2033.76
-4485.38
-4300.47
-2894.35
-1792.75
-2292.16
-47.99
1128.08
4790.2
4164.28
2480.32
1731.13
-1509.21
-759.013
555.399
385.507
-714.51
42.8272
-1350.35
-653.434
2661.77
2151.57
4648.78
7438.2
5972.72
-947.902
-1343.16
2892.67
2640.04
-1624.81
1956.35
-599.554
2722.32
-798.912
134.906
-1705.06
-5122.68
965.372
1536.77
3439.08
4297.42
2877.18
978.294
-31.3069
3960.63
-544.831
-496.172
1418.69
2147.66
-2521.1
-3434.44
-3039.5
-318.068
393.371
-981.256
-1184.21
-1085.34
2751.46
2557.73
1656.7
1600.45
-595.651
-1648.22
-920.183
551.618
2378.52
-2966.66
-533.351
-1240.58
-1203.9
-69.8393
-2125.44
-3342.86
-4162.89
-1692.72
-1859.55
-486.639
-1808.91
-2007.85
-2557.51
228.387
2266.63
-2332.3
-603.149
-631.035
-2358.76
-913.837
576.405
-2138.22
230.591
1815.86
632.256
2361.92
-680.859
-2940.8
-1118.29
1677.88
-1509.1
-1939.87
-3685.7
-942.797
-949.979
1590.61
-2858.84
-1642.19
778.288
-3281.99
-1651.51
-626.302
-2159.92
-3840.24
-2315.86
-3304.95
-1655.11
-43.503
-4519.93
-3570.72
-3413.82
-977.322
-2856.67
-112.283
-6061.92
-3035.03
-3348.17
1605.1
1146.98
1449.99
18.7825
-4060.01
-3315.87
-1576.26
-1933.02
-2674.68
-2956.1
-6682.76
-9482.48
-12769.2
-5896.13
-3863.89
1241.08
-2453.72
-6013.5
-4542.44
-3536.15
-3283.75
-3172.34
-1397.9
-2668.8
-3917.18
-6245.41
-4537.13
395.589
-2936.56
-3063.58
-2745.26
-1437.55
-694.688
2318.85
2521.54
911.756
-194.204
-316.159
307.328
-4344.84
-3758.38
506.912
-3101.8
-1787.07
-4420.5
-2079.38
-1795.91
-2989.55
-2292.72
-5926.57
-6217.89
-13278.3
-5080.5
2635.22
3740.17
-3469.13
-3867.54
-6167.91
-5199.2
-2167.39
-2416.44
-3025.14
-2889.88
-1425.32
-1031.77
296.703
571.55
-3109.15
-1428.51
-11.0554
732.628
3340.5
4285.85
7224.32
3102.16
5767.94
1639.58
2859.53
-724.26
-2530.63
-2550.22
-443.338
-1801.36
1210.25
1014.41
-3713.23
-702.757
-1090.02
589.005
111.194
-746.449
2872.69
3719.68
2299.37
2322.39
-1334.33
0.443736
1010.62
2389.8
-1780.9
-2597.25
-2683.92
-1246.51
-4524
-3311.69
1946.69
3682.76
6572.47
19965.7
14772
12123.8
24970.9
22808.6
12232.7
4440.38
397.103
1363.79
2943.62
2552.3
193.904
-299.81
2499.64
-1634.86
-546.795
-2024.36
-470.492
464.227
-1426.19
358.088
-3896.11
-3047.38
-3849.96
-1823.44
-474.769
246.299
-52.9381
1756.38
2081.08
3041.76
8583.12
13659.9
14547.1
7140.41
3676.64
4017.17
4166.09
3856
2403.17
3377.84
570.494
897.171
-7823.71
217.606
-210.596
-16.0796
920.605
-411.678
-1362.03
-1999.44
1158.29
-1245.28
-1203.54
-980.067
2617.6
3258.86
5738.49
2518.19
12508.8
10479.9
31137.6
31357.4
24699.6
17240.3
14033
18218.6
7426.23
6862.98
8789.63
2637.86
3851.44
2281.75
3181.56
5579.15
-917.384
2240.12
3283.71
4840.88
2279.78
4536.22
940.48
-283.432
1933.92
1442.12
2972.41
-1385.34
-2259.82
643.667
-83.0752
-1622.08
3241.92
-1284.67
-986.023
-589.58
738.028
1204.34
5632.73
3214.16
1658.14
151.173
-479.525
926.183
-754.1
-2866.94
-5409.22
-3399.3
-2480.33
-4771.88
-4091.02
-3965.61
-4564.1
-2384.86
-1545.52
-1075.92
-910.121
421.723
-512.656
-381.837
245.651
-1214.69
6043.54
3449.85
3136.93
817.23
5019.3
3176.54
5717.02
7249.59
2518.09
3572.22
496.75
2724
1545.35
2202.22
-1206.57
-3165.61
-860.945
-1851.12
-1893.95
-4105.52
-379.965
-1977.11
138.871
-612.691
-343.447
2860.37
4902.23
5868.43
13072.3
10794.8
11515.8
12905.5
10279.3
10289.1
12739.2
7068.73
4351.63
4505.51
6740.67
38.4222
-3424.55
-2876.25
-808.11
-825.9
1644.92
1860.64
1942
2837.88
456.369
1369.78
-2714.37
-4805.61
-6126.04
-2133.57
-1591.39
-831.142
-532.08
-2154.43
-3544.22
-1753.83
-2198.62
3195.15
2859.02
1711.86
-4053.29
587.957
-602.175
-715.304
-945.166
-1982.79
-2185.05
-1145.95
593.054
-607.377
-875.302
-2583.34
667.325
-1318.33
-4847.4
-4841.75
-1741.33
1999.65
-1412.41
-242.553
-2367.19
-577.296
-2725.67
3621.73
1372.99
2612.47
3840.93
5059.64
4740.28
1139.79
1568.09
398.277
-1042.2
1305.47
705.985
-2564.46
-3135.63
-609.632
2533.31
2094.22
1872.49
-1762.58
622.502
-1333.06
-2437.22
-3155.89
-2712.93
-2515.7
-757.451
-284.668
-2318.15
-412.326
-101.397
-784.885
-1677.74
-1673.49
2227.48
1766.07
-5147.1
-304.04
1478.44
-924.891
703.469
-496.336
2882.72
3248.55
2395.7
834.904
3156.99
1158.75
-1758.71
-627.911
-2602.32
-1828.71
-1986.84
242.623
901.306
-1350.55
-1775.81
51.7911
-1145.42
617.058
2254.28
4912.57
-735.893
2150.34
507.085
-1177.39
489.167
-2469.18
365.006
-672.947
2394.59
1960.43
3879.05
2977.59
6214.52
9867.5
17689.4
11986.3
19457.8
25117.3
31023.3
18726.3
15508.6
16312.9
13480.1
7409.03
4554.66
687.298
-341.291
-887.456
-1964.15
-4730.2
-3136.69
-2947.95
-4665.32
-6821.72
-9113.77
-2206.04
-2865.74
-5534.71
-515.165
-4570.19
-1850.78
-712.121
-600.836
416.548
515.662
-938.025
252.504
251.84
-2724.05
-1373.87
-94.4968
-3317.99
-5079.62
-4293.78
-5089.16
-1195.92
-7044.68
-6878.5
-1637.64
-823.34
-1187.29
-710.989
268.267
-412.745
-1007.67
-1341.25
-203.466
-706.489
3548.91
-4177.69
-3055.02
-3379.07
-1740.87
1462.87
433.519
-2236.57
2411.61
395.795
1505.31
2771.17
4420.67
1499.42
3157.31
851.879
4758.76
12680.7
10399.4
9729.56
12335.1
5070.46
3435.42
765.812
916.239
-413.482
1160.85
-292.662
1545.8
-1133.8
2141.53
338.872
1111.66
900.705
-1888.18
1405.63
3925.81
3122.86
2104.59
2296.57
-463.195
3040.08
5932.31
4754.32
2939.4
3719.38
4401.93
2719.22
526.189
-1635.04
-2887.12
-5691.72
-3747.5
-4764.22
-3341.48
-2297.41
-987.529
835.173
810.084
2405.9
895.552
4997.79
4101.92
2065.35
1530.04
34.4515
-3510.29
-2534.85
2508.93
5839.81
4944.14
5446.29
6078.55
992.732
5276.76
-703.811
1731.82
-1314.42
-3175.37
-5623.81
-4982.29
-4827.02
-4989.99
26.3288
7883.93
-1884.4
806.226
1597.11
907.725
2072.26
3433.72
2502.93
4403.22
4996.31
5356.4
4516.89
1961.2
1749.15
1063.33
-1935.3
-1021.28
616.938
-197.065
-2765.46
-1700.73
-4448.3
-1571.5
-118.539
-1412.37
-4290.32
-1775.43
-7887.79
-3305.21
-1949.86
-3987.34
-5668.04
-5716.68
-3150.71
-1326.92
-3761.57
-1818.34
3680.29
4241.71
4365.08
1147.7
-427.863
1358.19
1920.43
-3579.17
-6742.58
-2173.44
-799.813
-2154.82
-4325.45
-1793.66
-443.898
-761.556
1479.71
3220.24
9540.63
8710.19
12269.9
7020.41
4659.02
4327.26
5546.81
11298.8
7034.22
-5173.61
-1314.96
8849.26
988.713
5091.93
2065.29
622.787
2655.41
3490.75
3462.67
2113.15
1619.09
5961.67
7614.8
1594.78
-3448.46
1848.2
4379.58
2109.63
-645.639
569.839
896.058
-108.316
1128.67
5955.29
6342.23
5327.98
-710.214
1169.84
-74.2864
828.244
-922.325
782.677
1174.58
1517.86
1810.87
292.478
-2136.13
-993.387
330.398
-1970.51
5524.7
3314.76
2123.22
3945.04
2717.63
5761.03
6810.36
3572.43
3990.65
1534.11
1103.05
-1581.79
-1077.87
-1689.12
-2789.59
1471.31
-1125.29
158.652
4695.23
1396.55
6809.13
7342.99
5766.91
2214.62
6568.07
4437.46
2180.25
559.787
-168.33
203.814
608.78
774.424
-1651.79
3641.09
-37.8492
877.199
-1862.66
-931.36
996.29
-1149.12
-2677.72
-4997.69
-2239.49
-2913.45
580.585
1272.41
469.07
1169.36
4579.15
4320.54
3408.83
-934.42
-1183.12
305.918
1000.34
-979.388
-955.768
-660.05
-1779.14
246.454
-120.726
1790.47
-35.5426
-146.395
3602.13
103.046
571.794
758.312
-391.066
1604.56
-3478.66
-1327.42
516.708
-313.392
3375.02
-63.4068
-4909.78
-3484.74
-316.661
-1314.23
-1597.71
-1911.42
-737.378
227.38
-2930.07
-819.315
448.534
-291.362
-1038.82
-344.967
-1051.57
-1071.95
2213.35
276.052
152.973
1957.86
3970.24
3041.44
1953.45
1261.62
4265.59
3506.76
3372.63
4433.65
972.897
1858.81
369.874
2399.08
443.015
-479.698
-4026.23
2549.93
-121.423
-1716.42
3976.61
1071.19
-546.733
-1112.76
-5096.49
411.822
-1712.12
-1236.16
-512.838
9.08671
2253.14
280.507
-132.311
790.053
-414.479
-1847.9
-5232.12
-2602.08
-6513.66
-5870.28
-4648.28
-3291.21
-3126.86
-4327.81
-4111.71
-3095.21
-1486.08
-1018.98
-1410.66
-750.459
-692.141
-156.728
653.423
3103.79
3992.55
3575.77
-3052.86
-3999.38
-4402.73
-323.983
1096.78
1157.45
-1626.85
-1816.75
-2542.93
-3546.2
-191.306
2023.39
4346.42
1186.16
2754.03
1530.16
-2880.56
-283.093
690.371
231.162
-1297.38
-1693.66
58.8252
-392.154
149.535
-94.9823
271.85
-421.312
2249.41
1462.61
39.4908
1055.54
-169.987
863.125
-287.677
-1277.16
-601.666
5231.79
7239.4
7839.41
3852.43
7028.55
4239.96
6739.32
2361.61
979.19
-3584.47
-4248.66
-8019.65
-4154.9
-5319.83
-3085.95
-2342.25
-312.561
-2124.47
2447.75
615.396
353.285
5979.77
1825.14
90.0101
-98.9706
-1391.02
-1919.7
-2365.41
-3903.59
1418.24
2716.55
2897.75
6353.54
3390.54
888.38
755.092
1727.09
-1226.71
159.357
-4654.13
-1591.73
-4435.22
-2725.03
-3907.69
-3453.97
-5147.01
-6128.88
-5209.46
-7433.9
-6966.05
-3476.6
-2133.08
-2103.38
-1609.13
1949.34
-1353.47
-704.837
2053.41
-1939.37
-3314.42
-1586.31
-4749.47
-6799.39
-4082.26
-4808.4
-4071.63
-2482.26
-499.649
980.547
2946.23
1970.44
8797.47
6416.45
-1434.23
-2186.46
636.536
54.7823
-663.093
545.082
3208.18
8257.71
9389.38
13561.2
15141.5
11910.6
3966.46
-136.191
-678.262
-1111.96
-1394.12
3612.03
7003.52
9636.49
7655.57
9894.52
15634.6
18434.8
18887
14379
13107.4
8089.31
6126.37
6690.53
7148.21
6099.53
10195.8
11594.9
7542.34
6089.87
957.829
4571.29
3057.44
2489.17
1870.54
6962.53
1952.79
-2071.53
-1384.92
-1700.47
278.771
1673.82
3018.07
4437.5
2439.31
-839.261
-994.54
1731.18
-1727.4
-871.209
-1152.05
-42.6214
-3106.04
157.101
1465.01
-1003.23
-1861.02
2371.67
3240.48
-400.247
3233.43
-774.253
-547.128
-2037.4
-1268.44
-2328.78
-1700.8
-3795.86
-4026.88
-220.858
178.016
142.818
-1693.53
1357.64
1869.96
-877.852
158.484
1220.12
1800.93
-1297.4
443.644
403.759
3416.43
2688.71
1293.12
-2660.03
-1624.41
2476.35
1183.54
1531.71
605.273
193.516
4169.41
5638.8
5095.71
3344.93
10953.8
14197.7
13801.8
21331.3
7172.35
5854.23
15434.2
16601.6
23956.1
20288
15080.1
853.532
3064.23
455.435
47.2835
1722.08
2860.54
5206.72
4351.83
3111.51
3422.31
3262.11
1892.46
-3944.79
-5768.53
-2381.22
-5000.4
-3411.97
-3518.1
-3091.42
-3952.4
-4403.96
-2330.51
-506.592
-2788.4
-2224.94
-2692.99
152.888
-1166.49
-5018.18
-4625.97
-3323.12
-860.828
-2681.87
-874.298
187.269
-184.855
598.703
-1037.81
682.25
275.22
-760.397
-2409.55
-819.273
2033.02
25.2214
-7.43582
-1685.67
-309.184
982.892
-1164.35
-2365.18
-558.205
-414.588
-267.762
393.46
-2030.78
90.5771
-2840.31
-1748.88
-6022.3
-6161.77
-2313.67
-1431.42
414.608
1314.08
-5723.62
-7572.12
-6576.77
-5549.23
-4201.21
-2530.32
604.334
-1921.51
547.94
-1287.86
-2444.38
194.881
2438.06
4162.23
7176.13
10105.4
13708.1
6712.23
10095.6
14345.2
6236.64
5197.95
6977.65
3114.53
3310.98
1070.57
-4805.79
-2024.4
2754.19
-3701.59
-301.039
2601.37
-1472.23
-1814.81
-3025.47
-6907.08
-7661.53
-3207.35
-3474.97
-1658.48
-580.25
-2283.34
-1248.03
-3654.93
-3354.23
1995.29
1807.8
-482.88
-615.043
-4247.94
-3279.99
896.665
-912.848
283.512
858.294
821.531
-509.598
2954.18
2414.27
-180.615
2209.77
-371.337
550.949
-3365.44
1201.26
2186.14
3280.11
4891.23
7533.67
763.151
69.3878
735.427
-968.137
-1951.97
166.393
-1812.54
1547.47
5154.81
2481.95
-188.05
-2903.33
-3388.88
-3619.05
-6950.61
-7357.09
-5945.46
847.369
3549.55
6295.53
3705.39
-308.885
243.718
281.867
1287.96
-902.198
-1319.63
-2700.35
-3084.78
-2659.13
-3173.4
558.513
1010.11
-2095.43
-560.073
-262.67
-326.147
-2511.67
-950.293
-1331.15
-510.867
-1562.53
-2817.7
-4225.61
-3866.53
-1392.39
-1058.56
-1166.13
-781.222
-3350.19
233.935
3373.74
5434.67
-924.085
-398.825
-382.052
-2805.25
-2392.87
1201.16
2921.84
726.527
-1258.14
531.699
-390.456
-1154.06
-754.987
252.592
446.643
-1039.12
-1784.73
-6360.16
604.546
557.904
-1307.21
1166.33
2424.74
5312.11
4843.34
1164.62
-162.338
677.219
526.152
3947.76
1820.51
3154.69
7791.53
5875.94
5447.16
1912.93
730.64
5638.64
2956.23
1900.09
1889.15
-260.067
-258
-2036.53
-3034.01
-2813.23
-1540.45
-2239.79
1061.66
-1126.63
780.026
-1269.58
-179.895
-1720.87
-413.246
-1000.12
1292.38
765.123
964.104
573.849
-2082.92
-1108.58
-1243.53
-1746.58
913.42
1074.9
1272.85
-2315.43
-381.803
7953.34
3217.81
10887
7902.62
9296.03
5827.85
1703.06
132.122
2469.21
2165.63
14.6809
400.99
-3963.42
-2200.64
-1410.21
-2168.81
-1606.43
2933.86
1393.97
2427.71
1906.37
-717.424
4527.17
1194.75
1461.76
2249.49
2867.65
1242
-6762.84
-4394.86
-6087.64
-3987.75
643.831
540.109
177.2
-1136.89
-3544.9
-3119.46
-3646.8
-1949.54
2005.35
5258.93
1618.95
4157.91
2026.26
-1126.14
-244.719
420.723
-54.5503
684.426
435.502
-1896.49
-2526.08
-2969.89
-4843.72
-1684.43
-342.863
4193.71
6735.28
7408.82
5294.34
218.318
5560.25
7546.23
-432.273
2449.18
-390.656
229.887
-921.762
-831.766
2240.2
799.712
2571.68
2323.71
4988.13
3518.1
6171.8
142.133
-218.379
-2619.72
-804.224
-1081.22
-973.524
-3246.55
-1053.43
-1044.28
11183
1065.78
-1855
-159.676
-1739.26
-43.6754
226.081
2220.98
172.441
2905.82
86.0382
-3192.89
-3018.11
188.47
-1343.27
-151.106
-5986.16
-4387.7
8488.29
5605.13
10525
6807.34
9878.82
14540.6
2147.49
6678.98
14622.7
17952.2
14511.3
10040.9
12184.7
10720.2
8433.38
9652.71
2204.96
6268.22
8997.32
18456.6
19208.9
18644.7
23000.6
29193.8
25129.2
23362.2
19506.7
14829.2
14728
12430.6
10639.1
9973.44
13894.7
14835.2
14577.2
5075.92
11058.4
10189.4
19394.1
14122.4
14726.1
7098.73
2975.55
746.232
672.9
646.077
1784.11
1969.81
-497.412
3667.44
1468.32
-1896.97
-498.515
594.927
-1828.02
2457.2
916.502
4174.88
8535.23
6862.96
6149.85
1067.52
3119.08
6845.96
3142.92
6157.24
9812.22
5779.92
9788.94
15623
16658.9
18719.2
21384.5
10915.7
7467
1452.11
3443.55
-130.322
4228.38
517.012
-203.287
-727.906
10067.6
10373.6
7093.56
494.223
-391.447
-1137.15
1867.32
1727.3
1622.52
4311.01
7283.67
6201.62
5114.08
7839.8
7348.53
-753.43
3046.03
-5061.74
-2339.58
-3065.95
-6791.25
-7969.46
-6760.01
5343.45
3913.07
7410.52
4176.01
1886.25
-3787.38
3521.2
2924.41
2340.54
7171.26
13597.9
14155.2
12413.4
9778.81
22918.1
13093.1
11428
17634
16605.7
25700.4
22207.2
23739.5
18693.6
13571.4
13723.6
6105.33
6491.16
-160.006
2900.35
-686.454
-2973.91
-1497.22
-1357.28
-2956.26
-4023.27
-5055.86
-1752.52
-2629.19
-1583.01
1944
3027.92
4755.05
-784.859
-12.8777
-2172.35
-3998.58
-782.808
-3181.44
-3959.2
-544.585
886.772
-978.54
-108.232
-2548.79
-2635.19
-3721.85
2980.87
6395.49
5383.58
3278.73
5554.33
5028
6304.84
1553.6
4328.95
3971.2
-562.175
1504.04
-737.285
-575.932
-134.441
-923.825
-1689.38
-324.483
2451.27
1621.67
3665.78
4065.65
2403.26
-95.822
1594.87
7102.19
1001.79
1029.04
-1185.94
1358.98
4466.55
7124.85
5321.71
7412.18
3381.52
-367.529
5148.91
2182.97
-3638.66
8148.9
6551.73
9107.93
6644.48
6718.15
5288.62
14316
13239.4
16953.6
13484.3
9996.46
6035.31
3643.67
-3504.77
-6527.16
-2311.98
-3478.18
-6822
2406.94
2309.04
1454.73
803.21
-1659.07
-5759.73
-2977.3
-5113.67
-758.852
-557.44
1334.5
4015.58
1685.56
2680.28
263.273
1225.64
2256.74
7737.39
10269.9
20472.5
23255.8
14420.6
15189.9
7632.81
6818.16
13401.2
9128.18
11201.5
9880.36
7379.97
6130.39
7730.14
10750.7
9065.08
9800.18
14072.1
16203.9
19487.5
28715.4
13812.3
11110.4
7896.69
6753.36
10279
6170.49
6106.09
4035.84
2886.03
3745.88
3753.43
933.479
447.824
-201.185
3157.55
-564.215
1055.2
-2455.27
-1435.82
-273.592
-711.073
158.151
3481.81
6832.27
7746.71
10038.8
2572.64
2977.75
-3144.65
-3252.14
-718.095
-1186.06
2962.82
229.226
-359.277
-698.307
-327.146
2528.38
5211.55
1828.95
692.46
2361.4
595.795
-2781.09
-3172.86
448.163
687.029
1334.86
180.229
120.443
-333.938
-3733.05
1698.48
5947.82
7047.96
9141.78
13483.6
10188.9
10434.7
4870.6
4530.33
6532.94
4060.94
5720.48
2558.31
1539.46
2046.36
113.296
-5110.66
-1410.45
-82.9084
-852.997
-3785.14
-4241.68
-4739.35
-6042.46
-3898.46
-6845.29
-3931.47
-1959.09
-1780.33
-114.428
-287.454
-1302.07
333.466
266.892
-2482.48
-3445.47
-585.453
-2689.01
-4501.61
-4260.31
-3117.45
-2628.71
515.103
-4042.07
-1889.58
1677.76
4150.97
723.274
-181.23
-2712.16
-333.759
705.094
-1349.11
-27.3813
-1669.45
-2707.57
-4217.41
-891.061
-814.386
-2254.6
-2578.81
-125.267
-268.265
1244.66
2102.75
2017.38
-1261.43
-2335.81
-2248.03
239.565
2318.6
420.904
-3164.38
-6441.38
-7405.65
-3428.58
-1624.38
3179.53
2802.8
-4011.57
-1556.49
-2236.2
-1980.39
3988.93
534.153
323.187
-4448.57
-5686.26
-4811.29
-2915.11
-3079.64
-2078.78
-543.803
1494.59
3446.75
2314.51
567.592
3075.28
2488.93
834.538
607.156
-253.556
1015.48
-266.012
2546.77
2924.19
-498.788
3746.6
3495.69
7914.2
733.9
3584.61
4218.58
2603.13
-762.683
2209.57
1344.59
957.05
486.169
-1643.89
-1739.6
-2013.65
-999.888
-2563.64
-1689.85
1316.54
1025.74
-1433
516.846
-1749.14
-729.511
-2248.8
-960.423
4516.54
4943.04
2225.55
1318.01
283.491
-902.978
-3861.59
-1536.52
-350.089
-190.237
6209.21
6622.48
8899.88
7805.95
6007.32
4998.09
6102.34
1877.7
3457.81
1641.95
-879.344
-2779.01
3734.95
-2482.85
-3649.81
-237.011
-580.868
-3417.45
-435.487
-204.506
-892.236
-2147.44
-5530.11
577.454
-3801.73
-6680.81
-5619.55
-3409.72
-5050.06
-3657.2
1243.87
-277.255
1025.57
2897.97
-2942.68
1043.89
-232.393
427.694
-1802.8
457.28
-570.596
-1674.51
-3709.19
-1064.06
-3833.65
-3587.31
-4019.61
-3715.11
-2234.96
-2408.41
-1561.75
-2264.9
-1072.23
601.899
-3296.39
-3081.3
-1232.42
2520.69
185.592
-5000.79
-4142.52
-2014.62
-1730.68
3833.37
7374.71
18904.7
12534.2
20128.2
16186.6
20944.7
24940.4
16941.5
11163.9
9767.88
14834.9
15113
8342
6205.34
-572.989
2088.22
407.101
1981.65
1181.26
561.491
1508.91
-4099.69
-1251.62
-8591.42
-2897.53
-4002.75
3625.68
-670.75
-2877.28
-3472.37
-5020.28
-1731.74
-1136.21
2192.79
6617.7
-61.2021
5118.72
-1658.11
-2164.62
-2877.04
-1153.36
-1144.19
-7.23199
-64.5691
-369.731
479.911
-514.042
-4246.43
-4105.74
84.0413
-509.661
1402.94
1565.58
3234.92
-160.966
1727.76
883.366
5660.05
4690.69
2857.91
-2126.82
857.63
2979.17
48.7903
1187.83
1346.19
3953.99
1506.17
699.68
309.864
2817.56
3694.43
3405.96
3953.32
4380.1
4711.54
-525.347
-1461.98
-1797.6
-1354.8
-377.874
2214.92
1450.94
330.147
-5.70502
-165.622
-1174.97
-745.102
-3445.3
1742.29
1259.14
92.9142
-281.268
-674.603
1041.9
1566.88
1265.8
434.86
-1213.43
-19.7261
1785.09
322.14
2829.84
-671.271
-2352.64
-1005.93
651.79
-200.917
-1013.65
-898.199
449.132
3633.65
3081.19
2727.63
1246.99
634.5
2807.03
-490.568
1382.54
3851.06
9461.08
6315.94
3065.04
6139.9
7825.55
3078.16
486.274
-1929.63
-1382.05
3053.56
-1733.49
1088.46
265.333
-3576.77
-1662.43
-982.197
-1975.12
-613.725
-1554.82
686.11
496.826
-3771.47
-2750.92
4105.09
2402.59
5356.9
2669.4
-1302.41
771.284
-146.185
-1797.19
-1580.88
-970.622
-527.534
-861.837
1284.36
-2037.3
-1021.24
-4031.84
-2579.57
-982.746
-1539.73
133.115
-2879
-3880.6
-2133.88
-5130.48
-3940.79
-1623.86
-1703.02
-2157.1
-1701
-1885.87
-2420.67
-1957.49
-2103.73
-2778.86
-2599
-1798.07
-1077.11
38.6014
4420.33
1794.21
9095.01
1120.68
-1402.59
-1093.5
-3610.67
1207.35
-519.174
3298.38
6665.15
5106.97
11154.6
8038.55
4989.64
3078.99
2956.34
3708.24
4399.44
1147.91
-64.152
-1303.67
-425.542
-35.4067
3116.67
1320.19
5814.68
1394.08
6979.44
6665.58
2961.35
6041.35
6807.41
50.2371
950.613
-1505.53
-2692.13
-1819.53
-1393.17
-2346.28
-1384.72
876.369
-1253.83
-1202.46
-1166.01
-3293.46
-4496.96
-5415.27
-4740.85
-2096.81
1068.62
1252.49
2488.84
1731.2
-1739.53
-1888.2
-1664.74
-1200.59
-5332.4
-5232.71
-2140.27
-2896.5
-2878.01
-1248.93
-912.569
-942.3
-3822.9
-1777.95
-4259.34
-4599.12
-2855.57
-1341.82
120.389
1001.26
-312.372
1018.41
193.964
2992.7
5559.25
6812.03
2523.02
535.857
-2173.12
-1304.05
1442.8
275.72
-235.966
-3620.42
-3533.66
-2696.19
-234.918
-1141.64
-1149.36
1220.38
2410.37
984.452
1326.93
468.299
1070.75
1783.97
-543.099
-911.999
-1361.7
-4468.04
-6691.05
-4682.53
-3056.45
139.277
-258.527
-318.975
4097.83
896.492
-1376.59
-1925.75
-2140.54
-3049.92
-1528.06
-3074.73
-1498
-2861.33
-2249.28
-603.19
-36.3132
4083.19
147.197
1894.62
2857.01
1021.64
-599.847
-1894.48
-647.492
980.719
2858.46
-159.053
54.2392
-936.71
84.6931
3269.97
5234.15
1869.06
1997.54
411.507
-307.821
-1190.39
-1221.08
-283.65
1108.74
-1358.04
4504.1
3188.9
-827.56
1770.19
-826.711
-2672.07
-6120.55
-3111.63
-4473.27
-3508.31
-1221.31
-651.748
1372.34
2218.55
700.599
-26.1711
-2418.47
1600.19
-1070.56
-3550.56
-3967.79
-3726.07
-2943.47
-4128.24
-4255.85
-4167.37
-3019.49
-4254.08
-291.429
793.932
-2694.51
-661.474
-479.867
356.838
860.941
938.064
1171.62
1243.77
1126.55
-279.975
-2858.18
2665.71
2416.58
2755.72
-929.568
-114.399
-2953.37
-1836.78
-2310.84
-5032.18
-3423.53
-1159.84
-1306.49
-835.086
4243.74
3606.44
12761.4
13605.6
14638.3
10561.7
648.77
-835.942
1229.39
2173.2
4900.74
5535.32
7989.53
7889.52
7435.91
5598.41
2769.08
4839.52
4621.95
4308.47
3041
1922.39
-1290.62
58.3707
66.8591
-1092.92
-530.578
828.794
-1833.38
2198.31
3651.26
1869.38
5216.99
5031.23
-204.41
355.196
-791.59
561.579
1572.85
3110.69
3316.33
1764.44
-849.048
159.295
-371.847
85.0216
-69.7533
804.371
1717.33
-155.259
1234.88
-966.498
-3357.3
-6236
-6239.71
-7834.52
-8122.8
-7378.82
-7906.82
-4286.34
-2715.55
539.911
6378.14
4484.09
2305.5
4153.44
4011.7
3649
-3929.89
-1977.93
-1632.47
548.867
-1234.51
-888.487
-1310.21
337.197
-535.59
1490.1
335.008
911.446
3632.95
-286.542
3696.66
17347.6
23692.9
19904.1
18673.6
27264.7
26853.6
22107.1
19653.8
17744.2
14911.7
7892.11
10291.8
13199.1
4691.01
5589.93
-950.8
4511.65
4235.69
8329.74
8588.08
2886.73
-245.872
-7863.28
-6750.08
-4377.35
1060.41
-902.158
-1166.51
418.93
2112.08
795.28
1698.91
-261.877
-538.873
-558.752
-828.627
-837.109
-763.331
2300.54
1505.12
-2081.21
-121.813
2464.86
1426.55
1581.92
2574.88
-671.182
-2402.24
-5345.06
150.469
3146.78
4435.92
1119.7
-2109.59
-814.993
-1938.02
-2041.28
-2073.35
-189.773
2160.17
5056.41
2257.31
8931.19
9509.05
5113.4
2875.65
-1059.2
1337.57
1135.9
-3594.89
-187.241
-998.001
-1252.17
-606.144
-3526.85
-3120.73
-5685.78
-8612.16
-3563.52
-4932.46
-3100.71
-3606.56
-3477.06
-1191.44
-421.917
-865.549
-917.681
-1863.14
-1170.62
210.84
-2945.64
-835.888
-640.792
135.472
1109.79
-1989.26
-2577.63
-2604.21
1511.53
2389.78
371.634
-3980.49
-1858.21
-660.888
-2975.82
-154.62
-1379.53
982.914
-558.498
3200.76
600.506
19.9211
-640.2
-417.789
-668.8
-3043.08
-669.696
-3374.17
-2582.77
-5862.38
-7676.61
-8590.02
-6433.5
-7390.27
-10287.3
-5444.37
-773.078
-608.723
-2676.26
-1246.34
4549.17
314.82
-7076.71
-2927.53
-3098.67
-1692.09
-5045.55
-4395.55
-4922.17
-4046.57
-2765.69
-2217.35
-6109.93
-6107.1
-5839.06
-3853.94
-5322.58
-2453.4
-1386.37
-1168.37
-996.342
-388.431
-2056.02
-2985.54
-2577.66
-4141.71
-897.372
-1906.41
-2095.05
-2873.43
-2706.25
-1373.83
-2374.1
-21.8005
872.512
0.555302
-1391.86
-1968.35
-1959.22
-1574.08
-1703.44
2529.75
1830.22
2394.59
1167.73
2755.62
89.4735
552.449
-819.894
3771.03
-458.868
112.21
-3225.07
-2712.43
-2906.95
-1192.69
-1282.58
-2642.78
200.069
-3007.55
-6132.8
-4168.34
-4073.46
-2972.34
-1610.13
-1695.99
-1300.18
-329.418
-1021.27
-344.425
-139.486
1552.87
1194.79
1777.14
3994.61
4266.23
2742.01
563.839
-625.51
2758.32
2109.9
2029.94
2975.52
1630.78
-935.052
-2966.28
868.067
569.889
-1064.16
-2068.23
-2446.53
-688.863
178.061
-83.2927
-1022.79
-405.048
1722.66
-4954.43
-12324.7
-2196.96
-3038.26
-800.662
-386.544
1793.42
-977.288
3923.97
2955.72
1994.42
-682.84
-1199.11
869.017
-2121.86
239.976
3035.36
3012.92
-3036.04
-2466.13
774.373
-331.725
793.992
-2017.17
-2448.04
-2123.06
-690.434
40.9656
-305.606
2653.61
11485.9
5289.52
-3514.29
1250.77
-1375.56
-3146.84
-2135.05
-3190.2
-4166.53
-4295.65
2701.37
5494.68
3078.42
1320.68
5266.28
8213.75
7301.87
3787.3
573.681
2935.46
2577.56
-3175.65
-2197.12
-1813.79
207.195
-1275.13
-3783.97
-1531.44
220.173
-2190.9
-154.862
-5388.03
-4641.35
-4919.85
-549.363
1041.67
-1609.63
89.2944
-2839.75
-3022.93
292.675
-1818.44
-2429.31
-239.485
-1613.75
-2666.84
-1254.09
921.291
-979.205
-4253.22
-2653.16
-1943.44
-3938.16
-464.534
-4007.29
-524.921
679.495
-1562.67
2187.63
-333.41
-1542.11
-2164.92
-2115.64
-2186.27
-3317.31
263.803
-1466.58
795.56
-834.267
2689.85
-90.2009
1511.87
1399.58
-486.734
-223.939
3076.96
-863.525
217.215
-823.112
516.903
309.338
4509.18
6341.1
2113.93
9202.6
3969.2
2542.41
4147.39
8385.77
9401.54
6075.89
3018.77
3420.72
1340.6
1825.9
-927.578
-264.409
780.782
-926.701
-84.8407
3176.18
2005.3
-1419.47
-1135.95
1388.25
-2407.75
-2439.06
-2063.54
-1803.13
-1650.61
1015.45
3383.95
1416.92
-1211.67
131.545
99.3351
-512.591
-3510
-3395.04
-10095.4
-9018.6
-6352.39
-5681.09
-8623.62
-8087.39
-7711.1
-3553.62
-3838.35
-3611.97
-1832.84
137.607
-2993.73
989.459
6415.92
4343.4
3886.62
3445.76
7068.87
11677
9032.82
2013.51
-287.259
-759.397
717.375
-87.4326
-517.999
-3235.28
-7224.72
-7153.51
-2760.14
-1412.85
-383.948
-384.249
862.138
-2148.36
-4640.79
-3836.37
-4169.07
-1984.96
-637.387
-2744.57
-2482.08
-3427.84
-894.375
-8389.35
-5701.29
-5361.93
2063.33
2451.14
3069.31
3166.71
2701.34
-2190.1
-3971.68
-3906.9
-2315.11
-895.629
38.3487
1824.86
2568.81
3137.31
-83.3032
-2657.7
-936.216
-1175.4
330.947
-3660.99
371.582
497.846
-1779.9
-10.8907
-2584.63
-6439.68
-1935.25
-4589.25
-3795.06
-523.27
-3170.95
-3289.13
-2561.5
-1395.62
-2470.05
-2992.52
1507.44
-1855.25
-1653.82
-2400.79
-3772.86
-2018.64
-5747.42
-4665.87
-2643.53
-4959.46
-5421.46
-1850.12
-1560.05
-630.388
-2900
193.177
3709.82
7907.18
2534.56
10101.3
8879.02
8008.34
870.011
1074.92
158.428
-783.326
-3412.05
12.6455
888.812
-1577.46
-670.167
2135.08
-594.235
-1993.82
-2143.94
-2572.05
-5064.55
-737.788
-1211.39
-182.18
-2189.97
-1164.74
-49.7944
426.154
128.376
-1181.92
-1347
-898.1
-2710.31
-929.844
934.323
1578.34
-1886.56
1711.98
881.172
-5401.64
-1670.57
-3174.66
-4697.73
-6318.78
-6408.31
-7325.02
-6630.52
-6268.37
-4238.28
-3109.77
-638.169
-880.878
-1691.63
1138.75
2492.9
-1140.48
-1933.55
-4052.32
-2484.71
-2083.79
-343.151
2552.09
-267.854
-1575.58
663.934
-2733.37
67.5432
-2151.04
5820.74
1952.64
5246.74
1843.2
3517.11
3580.44
6652.4
6842.75
8365.58
16764.3
11832.7
12175.4
8611.64
11079.4
6254.57
4316.13
3411.19
850.129
-2631.35
-4527.16
-5248.81
-4479.95
-747.668
-1692.82
1336.66
-3648.31
-98.4985
-1267.11
-5361.9
-3466.61
-7300.78
-3628.68
-3107.45
-1501.69
1885.26
132.709
-2943.48
-1003.32
-3692.65
-1794.6
-509.377
-4562.86
-1541.56
-825.724
-3132.81
-6677.9
-735.8
493.594
4848.13
5693.86
6286.99
2975.26
2078.33
-77.8639
1367.94
-120.576
1074
-250.224
-1402.46
-3253
-2850.97
1190.35
3065.28
1891.69
-1565.34
2149.77
4396.61
8623.39
2173.89
2953.32
-1786.59
-2626.08
-4132.06
-3417.06
-1082.59
-2505.63
-4432.97
-1215.61
1433
3592.42
-803.563
2354.84
4154.12
12582.9
11552.3
9831.77
17980.1
23121.5
9645.5
6468.27
8634.92
4477.12
-333.247
1919.49
1588.22
4708.11
4128.4
1182.22
1300.18
-2458.44
-2275.66
-3182.12
-584.372
371.286
6361.64
4089.27
1765.75
5908.22
4466.21
5765.28
8313.47
8661.61
11241.5
4211.76
5234.47
5356.99
9617.6
1855.48
-851.563
-1132.14
3884.78
12392.3
15426.5
15886.5
10364.2
8773.35
11573.2
11449.6
21839.8
39934.9
31434.2
27392.8
31733.3
28695.3
22028.7
29777.2
20268.4
15611
17401.3
7542.57
4773.75
12267.1
11294.5
12633.6
10551.6
13670.9
6430.2
6664.72
5667.38
3225.15
2134.91
-991.094
5716.27
2468.21
1147.69
3380.83
-1765.15
-1864.63
-5516.81
-4598.38
-3598.93
308.509
827.181
2440.19
535.622
2617.57
1929.2
1512.02
-197.823
3475.17
5544.27
2670.43
1810.02
3250.07
2855.8
154.95
7704.63
4680.1
-573.247
-409.384
2763.23
-1065.96
10.3883
558.149
4711.28
1937.17
-129.446
-1564.97
-2589.64
-8921.79
-8531.5
-3990.03
-5707.77
-5772.36
-1615.63
-4515.71
-1402.45
2842.66
679.426
455.309
-232.32
994.034
-311.052
1217.3
-2978.61
1684.45
-1769.3
1566.78
3325.19
5030.57
2384.64
3566.59
3087.49
3786.44
2307.97
3474.65
6005.99
2788.28
6972.08
9924.01
17971.1
8249.29
6073.2
13946.7
12165.1
10496.6
4442.64
4514.39
7311.05
11408.1
8929.86
6889.97
6088.16
8168.61
11295.4
20296
21341
17277.7
12077.7
11434.5
14003.5
10803.2
10092.4
22290.9
17916.2
12035.2
10162.1
8080.05
1853.08
6210.59
4961.05
395.293
-846.109
174.595
2304.64
8279.18
7703.96
10670.5
-89.1369
5467.27
1654.52
2517.55
2533.37
9006.47
4686.51
6184.74
1967.27
4456.74
429.408
3409.24
1437.52
626.757
-1552.84
-1490.24
4190.94
5620.8
944.481
3080.69
2926.76
4269.37
6835.43
6894.64
9246.29
10923
8636.32
12503.2
12423.2
9440.83
4860.04
2533.89
3011.97
3006.64
5212.71
4216.11
3504.88
9108.69
9640.64
4758.35
18907.3
2237.49
1774.33
3179.95
965.569
3387.6
3389.98
3674.87
-437.722
436.979
878.809
1330.33
4496.63
3799.41
-1646.56
-503.758
48.7652
-98.0888
-1865.78
2832.95
7461.75
6782.32
9651.41
10361.7
12602.3
11971.7
2459.86
3011.04
5029.1
4455.92
1918.79
-371.272
372.123
-518.852
1611.76
238.831
-944.601
3092.89
2901.75
-3386.34
-1585.24
-3246.57
-238.91
-2057.45
-2578
-364.399
-269.37
-2809.21
-2445.36
-50.4082
1851.04
7334.67
4254.36
3470.21
4128.87
3741.15
9300.29
1515.75
1003.26
319.337
-250.204
106.019
1523
761.298
-855.889
-848.857
-93.7406
-299.733
-1677.93
-1844.7
1314.4
4285.71
301.92
73.0723
-1097.18
-1549.11
-1882.96
942.252
472.437
6014.5
7476.84
2837.13
-597.052
-1861.57
-3920.82
643.945
-2091.06
-3304.64
-1424.67
-1093.62
-2715.85
-669.371
-2206.03
-802.824
701.981
-3808.4
-1188.6
-3240.66
676.226
2480.71
2274.25
-571.985
874.285
1005.11
-1370
472.383
-2023.03
774.873
-407.885
-270.34
460.996
-929.157
711.446
-754.806
-892.539
-980.833
-3705.08
-5747.31
-7985.97
-6028.54
-5355.58
-105.658
2847.4
2024.11
1982.39
-5254.04
-6937.07
-11805.9
-410.552
-2595.62
367.001
3248.05
-744.958
-590.211
580.323
3017.93
-1395.91
-1060.75
-265.073
-2852.44
-6203.5
-3316.73
-2151.5
-1936.45
409.272
870.173
878.976
-276.677
-3105.03
-2119.79
-4179.36
-3487.79
-1666.06
1301.36
4596.08
7830.38
5560.5
910.91
2909.85
2686.61
1577.35
-1649.53
-1830.57
-2406.52
-2832.46
-916.978
673.458
99.6449
2759.21
-1759.25
1042.52
875.532
2658.89
6781.07
5249.1
4638.26
-726.876
-524.672
-385.073
-2770.85
-4832.07
-1816.35
-970.798
-1310.82
-156.789
-2158.98
-2601.76
-1770.32
-970.465
-2530.21
-3450.58
96.4328
2019.95
3437.88
3787.82
-26.8222
-936.79
-1348.32
-1408.09
-1338.61
-839.054
1981.81
610.832
2176.08
2723.68
-2416.4
1004.09
3596.67
-2975.65
-3954.82
-2910.37
729.666
2766.54
-2739.33
-1064.29
-978.954
-1979.82
-1975.52
-4428.61
-8201.72
-2558.79
2678.3
-439.304
-213.057
-938.372
536.752
2271.91
4663.17
3055.13
1326.23
657.086
-1547.14
-5324.19
-862.739
-349.918
1938.03
296.079
106.677
1298.8
1064.17
-2463.86
-1327.81
-2472.45
-679.297
-899.302
54.5164
-424.902
-472.382
-1706.57
-1329.16
3357.76
4841.33
989.221
5604.72
2834.91
10414.5
8127.22
19563.9
21265.9
11027
15118.6
11620.6
15469.9
19598
17898.1
17968.1
13416.2
6071.86
2358.66
-142.539
6929.79
8012.68
9284
11223.9
10959.9
10156.9
11833.7
6721.54
10449.8
8158.87
7951.76
10018.1
9166.57
10680.4
3459.81
9207.09
5284.27
5596.39
1764.84
1443.48
-1551.26
7328.17
7165.71
4433.01
9395.25
1333.07
5337.33
3280.06
-2477.3
-1376.3
-598.393
-2253.76
-2264.72
-1644.99
-3713.92
-1159.51
2805.84
7137.15
10568.8
10394.4
8770.69
12150.3
10308.8
13169.8
7244.64
8631.27
3943.79
9386.08
10771.3
5696.49
7355.29
12437.9
11764.2
8921.39
6595.39
8284.76
7175.24
10451.1
5584.3
4905.91
3273.91
8321.32
10919.6
20110.5
29565.7
15701.4
15551.7
8559.72
17452.1
23079.9
18368.9
9410.39
6060.79
1439.46
3191.27
4158.45
3223.08
4430.25
2063.83
-2328.32
166.487
363.247
-962.857
-2708.11
1891.56
-8.02467
1209.61
1314
377.868
811.68
7227.68
5806.9
6590.62
8282.97
5750.08
2152.78
3400.28
1889.92
1640.94
622.416
1939.25
301.874
1020.56
-1373.96
-1278.51
-888.929
-2526.1
845.651
1185.27
579.285
-788.693
-1946.53
-1910.34
684.931
-825.428
-603.262
703.739
-314.864
-2428.89
-1702.03
-1720.8
-262.752
-2893.61
-503.386
-836.272
485.139
-24.786
1275.81
-2459.06
-1798.53
-315.196
2024.84
-871.172
1958.02
2265.46
6955.9
5202.51
7254.4
5905.22
4205.08
7047.69
10752.5
12927.1
12133.2
5185.29
2907.44
7164.23
3437.92
3820.09
6086.37
11004
12403.6
8472.35
7683.37
611.754
-361.025
1143.03
-3375.29
-4719.52
1045.03
-2234.63
-2812.01
-113.605
-2506.01
721.141
-3524.1
-4874.97
3686.85
2678.95
2664.32
-566.253
110.397
1456.51
-1257.48
196.769
-1058.63
700.851
527.855
-519.939
107.406
-1754.84
5363.2
3083
190.732
2469.01
493.186
-637.291
-1643
-716.506
-965.693
-1524.75
-677.634
-1427.96
847.951
777.705
47.5066
2200.87
2248.86
4390.28
524.824
-827.121
-3125.22
850.834
1476.05
3088.97
2362.69
6595.08
1925.74
2137.33
3239.56
3886.73
7124.36
7594.06
3665.85
-70.7851
7068.52
8128.95
6507.69
1915.66
-2481.88
-315.865
-1790.98
-1944.93
441.614
-531.061
-1726.58
998.175
2032.08
378.524
908.668
836.251
-1297.05
-858.36
-351.806
2564.28
124.87
-54.8988
-1291.26
6059.18
8576.63
4175.05
2596.97
639.856
-2567.3
-147.686
-892.928
-1015.78
-470.489
2749.32
5014.42
5106.51
4084.48
4665.81
9509.85
2159.09
4273.11
5980.24
4677.96
3186.03
1375.13
-1116.06
2067.52
-1272.03
703.06
2188.46
1365.59
1633.32
653.805
625.999
-525.548
-729.112
-19.1702
1373.16
2959.63
1762.16
2498.77
3978.15
829.059
3457.5
2735.41
2800.95
3480.15
2739.54
-1539.2
106.821
-1083.74
968.85
100.933
1618.19
4532.52
5268.46
1806.18
-1349.51
2331.87
2868.6
-1265.41
-756.074
-3316.13
-549.014
2922.41
-3714.02
-2743.03
939.157
-135.66
1023.67
-739.397
1884.57
2076.14
3912.05
2342.05
-5546.92
2568.78
-1528.77
-4103.88
-3284.19
-6426.02
-8675.05
-9648.98
-4075.41
-2598.82
820.258
-2295.83
-7945.38
-439.997
-2584.87
-4970.5
-3541.04
-1247.43
945.724
1356.98
824.651
5117.8
5623.7
-940.853
-54.714
2292
-2383.55
3484.83
6224.6
17107.7
10424.8
2993.18
8521.13
-365.779
-858.69
624.128
369.009
-4389.16
-2443.73
-3963.41
-3069.81
-1837.15
-5121.81
-3393.32
138.716
242.27
3166.87
2158.13
2326.5
1910.93
638.685
-1642.18
724.652
3931.09
2037.21
-89.1571
700.372
613.427
796.671
-1929.5
-1204.14
633.713
271.642
-4242.19
181.193
-343.135
2127.32
4959.59
5779.57
1759.77
863.537
2289.91
8812.04
13217.3
6386.82
6063.23
1542.99
5832.7
7327.01
3582.74
2778.24
-226.205
-2761.84
-3209.07
682.437
-1125.53
-338.34
-21.1613
1397.26
599.655
1776.48
2695.29
1541.17
-2222.94
-2105.96
-2240.37
-4094.17
-3002.39
900.552
-704.286
692.657
-282.603
-1428.43
-1470.77
797.622
-1153.51
674.943
-2427.76
2406.69
-925.881
1879.4
1051.99
1324.62
-734.612
1565.04
3537.56
487.053
-1842.58
-3210.73
-369.172
257.394
-1513.67
1295.46
1422.49
-1183.3
2645.01
1450.31
433.468
2222.33
186.443
-2145.94
-763.903
-1905.2
-2179.14
-148.23
-2397.94
-1549.52
1922.39
6031.22
7099.75
7736.01
4436.76
4655.9
6808.52
8786.47
9349.58
12842.3
13592.8
16426.4
14306.6
13132.4
7086.72
737.332
1902.37
1596.78
4128.69
852.965
624.304
-1681.01
1464.23
304.244
921.647
-573.116
-1342.06
15.8478
4391.25
3711.2
3272.68
7237.65
8077.41
9772.06
12322
12018
9612.28
11347.2
7024.22
5327.48
8559.96
6879.24
6528.18
8881.62
5155.29
1259.78
4186.93
2163.4
7162.53
3375.22
5450.58
5091.32
9519.31
10020.8
9821.98
11293.7
17694.7
19878.6
14642.6
7372.28
11289.9
14178.8
5023.36
9733.78
7443.95
2435.87
6640.35
102.184
-2832.78
-3136.73
-3682.06
-1786.65
-472.015
-3090.59
-2303.93
-4164.62
-5884.34
-3052.04
-3551.25
-1552.28
-3131.77
-2698.13
-7499.28
-8184.99
-6468.22
-3231.19
13095.9
11499.8
10304.6
8618.86
10955.8
4501.13
4367.17
-46.9013
-470.048
1276.36
944.913
2244.97
813.964
484.012
-893.059
-3613.67
-4783.61
-11484.3
-6749.78
-4638.6
-5507.45
385.624
-1573.28
4707.33
2646.01
8372.37
7231.14
10798.1
2901.98
8036.13
4125.69
4485.4
3683.67
615.859
617.956
281.442
-1325.99
-3224.46
1210.26
2932.68
1263.33
2266.2
4062.94
3947.05
1977.41
5267.04
1991.16
-2479.91
562.635
-707.647
-2514.47
-4186.26
-4755.95
-3297.88
-7068.92
-6734.93
-3811.59
-4076.17
-534.597
-1196.11
-3965.19
-3840.7
-5602.89
-4763.5
603.849
-225.582
-7408.49
-6278.39
-7444.28
-8069.66
-7607
-6122.31
-8003.98
-3440.95
-6209.67
-5867.9
473.978
-3249.02
5612.2
8668.52
6438.58
3123.74
4233.07
2250.17
7784.53
4469.8
13983.7
8259.57
68.4608
-2392.14
-3112.49
1005.63
1239.13
1490.18
-2045.69
-3560.1
-3644.36
-4601.2
-7812.05
-7211
-5330.09
-3478.44
-617.602
452.349
1620.43
4525.15
9340.66
11215.9
8439.35
13531.2
7118.01
11570.9
15032.6
15664.5
7594.73
12800.8
17241.3
17158.4
15495.3
9682.92
10523.8
10497.4
17512.9
12219.9
13674.6
18594
21388.8
22427.5
23587.6
14630.1
13449.6
16668.1
24501
20271.3
20369.4
9677.98
6304.94
9411.1
2790.63
8212.04
6873.47
5261.14
9221.02
13078.2
10348.9
8728.09
5343.22
6841.79
4373.02
4638.01
12339.3
10033.3
8977.35
8991.55
6195.72
4112.36
3688.39
105.728
1678.36
1351.56
949.679
-213.97
-857.644
282.115
-2797.4
-1120.94
587.751
2317.72
933.892
366.974
-1630.05
-1689.67
-77.8268
6036.7
9992.39
7132.13
1495.55
3427.15
-1971.02
-1789.49
-579.137
1976.98
-3421.44
-3030.61
861.746
-1956.88
-2573.37
-2843.23
2610.77
-1392.38
-2771.91
-4539.05
-2318.85
-295.724
373.482
2405.51
1572.96
496.932
4413.31
-644.269
-2789.45
-4513.39
-6506.99
-5253.53
-5285.47
-5645.13
-4828.03
1233.42
-1299.29
6867.48
1354.29
1839.71
-872.366
-980.033
2230.31
11856.9
14753.1
25618.7
25319.5
23898.7
23374.8
13478
13137.2
562.105
9635.96
2808
4534.72
7253.11
7772.42
6069.23
4869.52
-786.452
1414.1
-1780.79
-244.091
854.155
2032.79
-415.545
-226.52
-3754.64
-3667.66
-2801.6
-1532.57
253.858
-3102.15
2085.83
655.45
8637.99
8771.23
4138.34
1403.82
1552.31
-52.5861
528.054
301.272
-1001.16
-1534.83
-1111.35
-779.873
168.433
-152.639
-1964.16
-1391.57
-1907.88
-2002.91
-2047.11
2310.71
2602.11
6187.55
7888.85
12294.8
7836.16
4438.55
72.062
-3859.33
1872.08
6768.1
4900.93
8979.94
5032.8
7187.33
2147.38
3633.83
925.573
3906.26
3528.11
4248.38
5270.59
8469.46
12647.2
18935.2
23025.4
16439.2
12272.9
10040.6
13239
3440.67
2604.43
-1344.01
-2808.11
-3640.5
-3717.35
-2072
-1148.16
-1279.94
383.062
3219.54
24.3487
-1854.64
956.14
-456.871
-696.185
-588.678
-3925.41
-4640.21
-3033.96
-3483.53
-4532.97
-2190.71
-3513.5
4208.39
6121.83
8678.44
5379.68
8798.93
16594
7696.26
5586.46
3581.8
743.278
-704.947
307.057
-1768.18
266.115
7837.06
2988.01
3119.28
-2143.64
-566.512
-4848.86
-6482.4
-3730.32
-157.359
-187.921
-1074.94
3416.18
11795
8212.24
5710.86
6738.76
4780.43
1277.33
6564.38
-1783.21
-512.192
-1559.64
-865.168
1276.55
742.789
-77.7009
2759.52
-955.345
-7373.25
-6718.75
3146.66
-1761.54
-1249.75
-6059.95
-5958.41
-2275.88
-223.672
1744.81
1439.39
2248.83
4310.24
2388.35
-2506.78
3730.65
6653.07
8421.77
8780.24
5751.63
5587.74
15751.2
20502.5
15815.4
11644.9
18609.4
11741.1
6530.21
3940.66
5988.25
3805.52
7987.2
10916.3
4542.48
-364.427
-1739.77
-2711.45
-3082.7
-2584.36
-2205.67
-104.318
-2082.65
-1108.91
-2911.72
-1954.17
-2702.22
-1815.61
2000.13
5044.93
3383.35
-796.773
-2869.07
-278.801
1573.7
9454.15
3420.32
4233.56
601.703
489.537
1003.97
3880.64
208.492
1223.76
1813.13
1030.62
1077.08
-13.0225
-1072.58
-3527.92
-944.787
237.581
-1441.77
1141.2
-1026.9
-692.876
296.541
-1145.56
403.915
134.553
-2460.81
-953.312
856.281
5564.32
2964.28
6916.62
7409.07
-2034.01
-3316.9
-1515.24
316.117
-6722.54
-722.786
-2465.98
879.583
-20.6367
-1314.95
1318.85
-2284.01
55.953
481.854
-187.679
-44.1378
1120.08
-884.029
-234.653
2214.57
5139.44
8660.86
4792.22
4408.68
1246.41
1227.8
-261.847
-1233.43
985.73
-1266.57
1338.1
-1153.68
630.699
4270.97
2556
1386.98
152.727
-1956.63
-1470.59
-1367.07
-735.117
59.3973
811.613
3477.24
1011.41
-325.691
-2110.27
2035.47
1204.03
1406.61
412.942
6988.33
3135.66
1099.88
1252.4
2198.64
3455.53
1465.61
5584.5
4906.43
1785.32
2844.92
5014.57
4014.2
11807.9
4262.69
3054.66
5077.92
4441.11
6807.29
4312.08
4963.35
1976.29
4911.58
3833.22
1699.99
-2742.19
-348.356
7172.37
6150.4
1750.85
3473.95
-1235.48
-4881.14
538.33
-76.7407
-1016.22
2299.95
701.053
-2228.94
-356.974
834.104
1373.57
-2681.82
-1372.09
-2509.41
-1276.57
-5653.27
-1775.01
-3068.64
-1187.67
426.151
2041.13
-3456.04
-882.482
-3568.13
-1121.75
-1247.53
-271.111
-630.784
-1215.61
-4305.27
-7730.76
-3831.91
377.351
805.906
2585.61
-1096.38
-1043.52
-4106.54
730.833
-535.591
-3064.1
-1389.95
-4266.06
1772.46
981.723
-870.608
4377.77
4510.7
-374.42
-948.315
-886.349
370.257
205.286
-133.209
705.526
-465.064
-681.043
1182.9
467.999
-81.4617
-395.074
-1062.51
-168.265
-877.383
-567.084
-395.013
-343.548
650.048
21.022
1178.77
342.538
-712.924
1811.61
378.567
1408.65
-222.696
3690.34
2301.95
1035.67
3866.89
1974.62
3046.87
3860.81
10644.3
11863.2
11890.2
20534.7
18755.2
5930.89
4248.75
4085.93
847.477
3984.14
948.887
173.231
1510.87
3509.32
1808.53
396.476
-360.583
328.815
136.118
-76.6751
2085.49
-1233.42
2429.51
5075.13
10657.3
20230.7
16933.5
6776.03
5718.2
6705.44
9378.29
12150.6
17414.3
23553.4
24361.2
16511.8
12304.2
14716.5
17158.3
8727.19
3650.28
3577.08
3865.75
5639.07
5930.04
7212.8
6582.8
6896.75
1494.89
-1411.28
563.606
27.438
-3398.75
5094.87
1917.38
6723.55
6798.51
10001.5
7299.35
4250.87
766.533
200.331
-2854.84
-951.437
1039.28
-349.44
-73.8804
-2907.19
-4052.94
-52.5098
-119.205
-227.101
481.591
989.053
615.944
-758.881
-936.2
-3889.06
1848.46
1920.48
-2118.3
600.55
-3218.37
157.451
1290.95
-1160.6
-3147.32
-1752.81
168.128
-1124.88
-456.162
-399.267
2865.48
532.317
4795.96
915.991
-409.787
-654.719
-1257.42
-716.796
-2965.09
-4228.03
-2601.84
-2970.05
3300.32
1877.66
-102.932
-1198.8
-337.983
1489.17
-1255.85
-543.668
-773.999
715.619
1375.08
3223.7
3003.11
1790.97
3212.83
7.09004
1008.2
931.886
-470.878
89.6608
-849.807
-146.036
3989.82
-457.112
2934.06
-1990.25
-1292.15
-1323.33
548.63
1918.16
5622.19
7471.35
-1328.64
3637.21
3277.65
264.7
2254.46
-3315.09
20.5733
543.959
-123.628
-2221.17
-1129.95
-922.472
-782.764
-1203.48
39.5785
-1294.31
-653.701
-972.705
-1098.06
-770.406
-159.894
1065.33
-179.614
1029.22
-463.625
3333.88
6146.78
10422.5
7812.11
4628.84
3518.77
457.317
688.763
1926.35
1578.58
4698.02
8915.98
8581.51
3440.53
3244.41
4201.52
6052.29
379.617
-1594.58
-645.347
1534.47
-1150.41
331.388
389.583
-290.915
3560.79
989.959
577.228
690.912
397.384
-1325.45
-128.239
-2066.78
-2893.48
1227.75
-1872.96
-1253.06
-2790.17
-1911.53
-2367.83
-7113.58
-2383.8
-1865.67
756.304
886.46
5216.86
-1776.21
-977.522
-9.25759
-2107.34
3650.48
13171.5
15673.1
11948.7
6928.56
7333.39
7670.8
8640.1
5853.78
7986.65
8667.27
2660.18
-5346.27
-5616.09
-5701.82
-994.901
-2042.27
-2767.21
927.042
-1367.7
1279.08
1043.31
-2834.57
-3317.09
-8606.08
-9739.36
-2881.84
-1135.59
-2642.62
-8563.97
-6072.46
-7242.34
-5969.77
-4816.09
-10952.5
-3472.64
-8182.16
-3947.19
-9237.29
-7929.32
-5463.09
-8385.4
-8734.72
-5710.99
-5091.24
-3892.44
-1222.76
-2561.97
-1745.58
42.0666
373.894
1347.52
-940.216
-2233.04
-1718.04
-353.995
-4924.05
-2873.86
-796.392
2570.49
84.6715
-2687.87
-1953.39
588.04
4339.27
2950.37
4017.13
8396.84
9967.69
10343.3
3825.38
2228.14
7196.72
11002.3
4875.54
6408.17
2256.28
1797.35
-186.534
-645.294
-427.326
-1144.91
-3044.99
361.169
-887.94
2759.19
6253.44
10218.5
7051.56
6587.33
1244.48
2226.88
1430.15
4677.61
4610.39
4038.52
2045.93
-2300.68
462.845
5008.95
6119.08
1855.35
4609.12
2905.03
4115.74
11555.5
5988.66
9118.34
13954.5
4197.23
-778.015
-1598.55
-5478.95
-5531.15
-2678.59
-4651.76
-3733.22
-3219.96
-4453.7
1253.15
-1969.25
511.971
6806
10882.6
6362.58
5647.72
2889.37
8349.88
2378.43
3555.62
3070.2
5185.93
3999.27
2753.05
-386.965
2510.17
3705.02
2693.7
3918.43
3643.09
6126.48
5081.08
7252.29
3729.67
3297.23
2552.24
-402.482
-2986.01
-2574.35
-1815.96
-3975.29
-2403.8
45.5955
577.65
-1069.99
-57.8322
2689.95
2386.04
3690.3
883.487
-270.052
-812.538
-3043.89
-994.694
-412.003
-3722.6
-487.379
-1118.91
-1971.26
-2012.63
-991.424
-222.342
-1261.05
131.327
705.716
-875.62
-3600.99
-1711.44
-1758.49
-1023.81
-706.458
1839.57
-1615.56
-3120.35
-1117.82
-1762.13
-2733.48
-2179.31
-2028.59
-2188.18
620.66
-647.713
-3017.21
-2510.03
-1003.34
-1102.8
-3325.2
-1738.92
-1254.82
-2612.54
-6477.58
-4080.58
-3144.5
-1453.71
1863.03
-1833.69
-4656.59
-5896.55
-1992.75
-3916.33
-3170.66
1471.23
-4200.65
-3297.37
-3539.6
-708.913
-2579.89
-2365.1
-8646.64
-7348
-3177.49
-1176.04
-441.581
-2448.63
-3599.88
-1080.06
-1652.76
-938.183
2296.22
7059
9315.07
7269.12
6309.76
3347.9
4167.43
3671.7
9081.26
8389.4
1799.93
2929.46
1526.44
2584.34
2876.95
1024.87
-1745.46
-1345.13
-584.515
474.048
-2178.02
2462.43
2813.44
6554.77
5501.17
3752.25
3734.95
2880.21
4674.19
3407.11
-184.503
915.024
-2564.87
-2672.98
-5211.54
-2137.82
-3900.73
867.939
-4146.05
-3092.94
-1133.52
-921.568
-506.878
-3025.37
-2302.61
-6063.17
-3970.39
-2986.6
-5129.82
-1814.35
-3137.7
-2125.56
-1504.76
-1860.53
-4482.43
-3161.91
-4130.26
-2948.5
-302.378
1204.33
-84.4171
-1991.45
22.2642
-3366.53
1031.16
968.35
1229.23
-658.096
-267.794
-1039.31
-388.439
-4224.23
-2164.38
495.934
1507.63
2594.45
3489.9
2771.89
1420
5121.45
6373.81
5393.89
4977.55
1028.63
-498.298
-3674.39
-3666.39
-720.211
-2350.54
-1173.55
-2249.34
1380.28
1294.19
2280.94
1922.66
-1041.67
-1902.03
-4210.35
2612.86
4148.99
3412.21
776.256
-958.4
-341.125
72.919
-2589.38
-3820.22
-229.086
1525.53
690.695
674.152
-2191.41
-4945.12
-2358.36
-158.53
2727.62
544.502
1568.29
2380.1
2859.98
1751.55
4395.22
3236.61
501.46
-1744.45
-2630.61
135.806
1252.53
-798.179
6.7293
2617.05
2686.34
1788.01
364.963
-1667.36
-2325.27
-915.232
-1387.93
-1222.72
-1906.35
769.761
737.073
-867.928
-2805.36
-229.896
-1992.14
-32.0699
-315.992
2383.33
2865.84
1541.9
919.192
404.117
205.977
537.903
-2286.65
-3590.99
-2696.17
-1886.01
1363.47
3526.46
2049.54
3820.82
2918.71
10818.4
12231.9
12068.1
9113.29
7803.33
4603.66
5671.92
9951.84
6952.93
12567.7
17802.6
4867.86
8071.87
3698.48
7298.88
10931.3
20765.1
15760.7
17978.2
25681.6
22505.6
33185.5
28739
20329.3
15989.4
21111.3
11309.9
4188.26
4684.52
2892.31
-366.072
1639.33
5150.33
5358.34
6920.18
3413.53
1714.67
3982.41
3454.71
2012.92
493.91
2176.59
-424.463
412.968
-1272.76
-1139.4
3317.36
1766.73
9757.41
2744.62
336.56
1205.95
4964.63
10778
10192.3
3838.21
-424.225
-542.18
679.287
-1168
2276.81
3004.66
2258.64
5717.16
6985.3
14005.3
-582.083
1170.62
-75.3565
-5559.58
-711.152
-3355.24
-212.083
-572.906
389.035
-615.657
-1781.88
-2746.84
-4606.86
-5627.11
-5092.99
-7627.68
-9290.66
-7463.98
-7375.41
-5442.43
-2624.63
-510.641
-2778.23
-2670.25
-1894.92
957.606
-786.065
4382.42
-323.97
6391.03
4199.99
2605.82
-519.299
2738.33
2501.25
1515.51
1619.78
2892.48
5487.36
358.699
293.939
558.695
1580.88
1409.42
-1034.26
-616.384
506.837
-925.525
-724.42
-1917.73
457.51
3785.33
4628.18
13197.6
4472.47
5808.81
10022.9
9699.24
16119.8
12965.2
7134.72
8681.93
4898.75
2801.78
1633.31
-3411.69
681.956
-882.983
4061.15
4337.79
4177.78
-1470.33
15.8358
-3219.14
-2393.53
-2027.53
2443.18
346.042
996.124
-734.811
627.348
2442.69
1163.79
-3522.83
-2002.55
-2214.15
-4696.29
-2599.48
479.319
5119
2064.19
1566.68
-294.267
-4013.31
-2809.09
-2543.87
-2966.1
-5031.34
113.423
566.959
-3055.67
-1140.05
-4552.44
452.788
-1615.23
-1637.68
2051
-1858.52
-4079.27
-5095
-3934.65
-835.272
-150.065
-2849.06
-1217.54
431.867
312.882
-1281.59
-2402.07
-2682.6
-3219.09
2720.07
1831.75
8510.15
10713.1
6448.98
1297.45
6116.16
2490.01
2280
2279.15
3227.91
3.97258
843.091
1309.94
231.747
-904.28
666.617
-984.618
-779.312
-2350.94
-2011.46
-2262.47
529.723
530.199
-534.31
-1381.59
-1465.94
-660.729
2256.11
758.828
-259.941
-1438.15
-413.867
-50.8263
3104.08
20.5203
1659.18
3333.36
8606.91
10010.2
16522.4
28988.5
30196.7
17114.9
17890
13940.8
9722.51
3792.03
1958.43
-913.644
19.3949
-3084.21
5072.89
7088.22
1128.78
-3897.78
-662.755
-1693.19
-993.833
-1409.18
-264.84
315.221
4238.51
365.339
-1671.53
-306.519
2558.28
773.084
2980.76
1476.55
-2295.81
550.639
2889.47
7490.59
2757.9
-930.238
1702.52
7164.98
-628.899
685.013
1832.89
57.0089
1517.61
845.994
1202.56
1407.19
152.275
384.986
634.124
-760.608
-602.911
632.453
211.804
2340.48
2738.62
3576.46
8204.3
9527.57
13029.5
14952.2
12284.3
9515.39
818.937
1698.38
5852.65
5574.67
974.119
1360.9
-26.7451
59.1017
993.411
34.0517
-1430.44
1960.53
2306.18
-3847
-1846.65
994.004
-5622.96
-2800.86
224.627
4108.21
-394.975
2417.52
3952.71
-1241.3
174.177
2114.87
806.663
2896.27
543.597
-2658.33
-2423.33
30.4616
894.75
-2183.53
-4908.54
-4838.66
-6404.11
-3899.74
-1813.7
-178.495
-1405.47
1046.37
2444.93
2941.9
3057.76
4426.53
127.157
5924.98
2827.76
2147.59
-881.031
-1879.18
-245.753
414.815
2029.3
1301.06
1060.09
-2670.79
491.019
1506.96
4561.76
-561.759
1059.59
3835.45
6317.13
8908.1
6386.2
4826.95
11600.2
10520.4
4282.02
3026.53
140.676
4132.31
-2460.68
3523.68
3041.9
-2820.41
-5401.84
-3203.7
-4990.62
-6492
-3467.34
-3719.64
2186.35
-39.6103
-771.823
831.493
-5271.85
3994.48
576.592
-1659.9
-134.941
-2496.24
-560.14
571.532
-2581.41
-4730.88
435.836
190.487
-963.341
-45.8165
-576.753
-429.534
389.055
474.909
2870.06
2639.11
4677.5
4566.64
1686.5
-2395.53
-1156.45
902.786
2517.18
304.085
-377.258
4444.27
7126.27
-104.829
5304.09
4379.85
8310.95
13735.7
22032.9
21278.7
17112.1
11456.6
8364.89
16561.2
13952.4
9798.89
11235.7
7498.5
3451.99
2563.43
5807.44
5711.97
4.51844
410.054
5567.89
3951.04
-1095.79
-4093.91
-2924.07
-4079.89
-322.886
1405.21
-1295.01
2204.87
2505.31
3519.11
-307.138
-2460.77
-323.41
-2170.35
-6467.78
-6310.72
-6668.48
-9694.37
-10610.8
-6589.13
-3203.8
-4653.37
-1140.41
1138.75
-1265.38
-3150.15
-1062.18
-2704.09
-3459.3
-1606.55
-2104.08
-4767.82
-3727.18
-2649.79
-164.758
-267.14
272.43
-1035.43
11.8297
106.898
3431.17
-555.394
-3475.81
-990.853
1624.81
-507.868
-409.996
-3231.34
-4283.86
-2590.8
-695.711
-1104.33
-2386.55
-3537.98
-40.3907
-2336.86
-1199.39
-1456.36
-3416.56
-4978.81
-3180.19
80.4411
-2037.76
-6401.42
-1412.9
-1452.73
939.388
-4310.16
-2820.98
1231.57
534.703
-203.97
-3860.13
-3306.9
-190.485
2182.61
103.756
785.883
986.559
-1212.69
-1698.16
-2327.57
-258.455
-2521.4
-4438.46
-3159.42
-2626.88
-1796.8
-1588.77
-3750.07
-1828.05
-2016.1
-1052.99
-402.58
-4311.05
-318.966
1388.39
251.472
841.933
285.006
-851.904
-326.961
-1834.98
-602.203
-2452.58
-2882.91
-230.163
-3461.69
157.011
-4132.14
-7332.68
-4091.74
-2314.65
-1394.73
822.737
3592.79
3853.3
3685.47
6948.24
5449.61
980.233
-870.484
-3406.92
-2001.48
-2025.58
-3630.24
-1529.08
284.171
-592.043
-845.708
1281.11
-2312.09
-2974.25
-1393.45
-346.634
-1971.92
-2936.07
-2821.68
-1048.94
36.3
1766.04
6366.94
3212.75
1808.05
4125.97
5315.52
9857.94
6816.52
4147.44
4746.58
2974.23
1284.24
414.51
2047.79
1988.22
3141.54
681.145
766.878
-1679.66
1906.93
1969.81
276.017
-1271.72
-1935.59
-4047.9
-4092.84
-887.766
2405.11
-145.824
6824.12
309.398
-1401.76
-4953.56
-6102.91
-9451
-3935.37
-455.673
4055.52
4969.19
-3496.59
-4150.3
-6975.78
-12017
-7090.59
-5649.81
-3048.96
-3334.71
1319.78
-1167.74
-2606.08
-1206.09
-1284.37
-1742
-400.626
-1916.31
-1574.49
2587.52
1915.97
2002
2627.15
1880.32
4575.3
9099.57
5514.13
7738.26
4442.8
2129.8
2489.76
-1040.39
1117.89
4655.34
6703.04
2327.68
-2377.28
-941.442
383.706
4428.89
11955
9653.84
7544.12
14387.1
11280.7
4644.77
9712.95
9452.62
4675.1
4581.26
-1528
2538.76
241.909
623.364
-37.9708
-4934.44
21.5221
-5063.67
-3231.95
-2540.42
1715.87
416.356
-394.736
1235.91
-741.565
46.7356
-689.029
-970.64
185.402
-2054
-128.558
-1806.92
-259.047
3345.22
4008.12
3967.54
2211.96
-4821.47
351.934
1228.54
2801.03
4372.38
-925.759
-3143.95
-2436.62
-1580.05
-3629.38
-3510.29
-3263.54
-2089.54
-865.3
1411.83
2383.16
1955.8
-1418.71
-1933.49
-2611.45
-3211.43
-4629.62
-1857.35
-510.001
-692.11
640.253
2535.59
1938.03
2606.85
5730.42
6771.79
3174.83
4036.58
4424.89
6565.14
-1402.42
-1312.4
-2777.73
-6407.82
-5440.61
-3352.97
-153.123
2042.57
1918.19
969.9
-665.699
-1178.85
946.38
2712.99
-2202.23
2570.59
-3004.58
-1481.43
-98.1613
-1147.54
-2003.42
-521.42
911.294
-4543.18
1324.15
6156.69
1140.02
1434.13
-2471.38
-4037.86
-5541.81
-7766.01
-5434.89
470.899
-2928.89
4710.52
7786.45
9843.31
4183.67
11060.8
3981.41
-2254.66
-2007.78
-2372.56
-4681.52
-3296.91
-3491.01
-4709.03
-395.773
2390.92
2948.7
-551.977
888.136
4408.49
9714.44
7074.74
10543.9
5037.61
1885.08
-905.718
1900.46
-3972.17
-993.926
716.795
1053.75
-1127.57
-1015.92
-1190.94
-1718.57
1158.3
-451.66
-2336.26
-550.203
-1839.83
-1512.92
-4144.07
-829.101
-558.36
1411.04
509.951
886.331
-5142.36
-6245.35
-7445.72
-1860.25
3279.27
-1170.7
1015.41
-529.848
1952.48
-1408.1
26.3707
327.894
1049.44
624.296
653.435
1783.24
3189.3
884.252
-668.21
-2759.57
-1128.59
-1308.9
-1999.33
-389.288
147.597
-1409.52
6389.3
-985.915
-3039.61
-1943.42
-1920.22
-2810.29
-4810.44
-3513.31
3982.27
78.0639
-2485.85
-2095.47
-1183.37
-4175.35
-4153.93
-3504.75
-2205.96
2550.01
5898.6
10937.1
9085.56
11358
16217
9415.26
8540.19
12842.4
11673.6
11015.7
4510.57
2339.87
4165.74
-942.373
-3801.66
-1358.16
-761.395
-3650.83
-1814.89
-603.049
4491.29
5635.77
1087.37
2302.91
2986.27
3001
565.339
1043
3135.67
5623.9
8879.71
5173.14
2468.08
4190.37
2143.87
-2069.61
-832.356
4919.27
5176.15
2332.97
1040.06
3638.82
3731.73
-246.477
245.225
527.431
-4546.86
-9729.46
-7487.83
-7848.25
183.984
1481.58
-1552.9
-3315.85
-757.699
-2401.73
1723.44
3623.89
3089.49
462.056
319.469
-5790.93
-371.504
542.248
-63.2913
75.3146
568.575
-2991.8
-6251.42
-8032.42
-8130.35
-10218
-5610.97
-4230
-7621.62
-5928.67
977.056
4186.32
6349.22
2482.3
426.4
2202.26
-458.379
-1515.07
-419.546
-2074.59
471.09
-44.3103
-3706.31
-4750.53
3547.15
2133.56
1057.01
1245.9
672.576
1581.49
477.052
511.216
-1973.71
1158.77
-642.719
-43.3581
-27.4942
-1624.96
1286.72
-262.813
152.242
-1935.68
121.413
-759.471
2314.46
1810.59
1043.54
-2442.04
-3215.53
2641.5
6650.3
1356.32
4702.75
2453.16
7650.23
1362.3
4456.16
5742.81
1568.15
3725.54
10415.3
9883.93
9627.96
8966.71
10288.3
3857.84
2318.01
4355.13
752.896
2289.81
6830.08
3667.21
4268.25
2662.52
1529.26
-104.075
-1373.14
870.674
79.7132
1891.11
-2109.25
-844.041
2058.26
-219.958
-3688.16
-743.163
-3245.82
-980.174
-2021.52
-1121.74
-1096.98
-1030.92
-182.103
-1465.3
-585.861
5.02879
-661.387
-2111.22
-3009.94
-4864.74
-4157.52
-2736.12
-4721.93
-7424.19
-5792.84
-5519.23
-6889.86
-6610.85
-7863.53
-7766.69
-3826.43
-4382.83
-2302.39
-6126.48
-4181.13
-6171.59
-5755.12
-1102.26
-185.737
2011.83
796.55
1602.66
1497.76
-1334.44
-3065.61
-681.357
88.6809
1493.2
1936.37
113.31
-1695.11
-404.923
-1868.49
-1034.67
-1224.46
-1423.01
1289.23
2334.57
-1345.01
797.87
-317.441
3233.16
-125.81
6508.38
8823.38
10926.5
16120.9
13421.5
5775.99
4267.47
3021.9
492.073
283.424
-2218.57
3235.91
-4491.27
-5192.95
-6432.33
-8569.78
-4898.08
-14.3639
2126.47
4373
5491.01
1191.7
-1733.89
-2265.92
-1858.93
-2328.67
-1397.75
-3929.62
-1445.43
-204.124
-1920.6
-3042.91
-1820.96
650.576
144.293
127.741
278.202
-214.468
-621.923
2413.82
-19.26
1295.47
-176.642
-812.564
-801.061
-621.011
2177.79
-62.719
408.241
-877.595
1230
1019.15
3488.17
1485.48
2815.49
-723.828
-1438.1
-620.847
495.632
3950.35
1664.29
7164.76
3358.78
-1454.77
-3258.91
-1458.53
-2322.78
-2758.33
-4460.88
-5098.58
-7261.55
-3043.66
413.872
337.583
-728.501
-2583.78
-2519.75
3103.97
3714.06
2104.35
4396.89
2939.55
35.7206
-1510.81
-3051.41
-2957.74
-5082.45
-3201.63
-6086.29
-437.392
-2609.14
33.0037
1481.8
5845.63
3921.36
8805.82
5988.13
13465.7
17224.4
11623.2
-726.801
2024.02
2987.96
-595.35
-4299.35
-7313.13
-3236.47
2882.24
4732.88
4985.33
546.486
2915.32
10108.5
14190.6
8692.04
8570.04
5719.81
11485.2
10839
7650.9
4146.23
2542.62
-2109.5
-6324.94
-3378.47
3101.9
1826.49
2576
2474.19
2142.55
446.794
-169.511
-757.37
-3455.36
-2346.74
-971.116
-902.673
-2768.25
-2735.3
-2196.81
-2801.58
-2784.12
-402.538
1243.87
3772.13
4129.58
658.487
7277.87
7831.84
4598.56
14136.6
13305
15600.2
18748.7
12972.4
12503.2
6654
28.8648
6516.7
9031.09
5715.07
6740.27
10171.1
5583.31
12759.4
12103.2
15994.9
12018.4
13084.5
13964
9365.01
4125.82
4612.47
1981.86
3502.04
-523.909
1305.45
-1955.83
-2904.47
443.43
262.62
1831.24
6259.29
5356.05
6960.81
2126.07
-1704.37
-1245.38
5097.45
196.441
-922.751
-711.178
-1060.76
-4949.02
-807.32
-5406.35
-2849.07
-1756.9
1317.74
1200.55
-2540.35
-3702.15
789.349
-1904.79
-1951.85
-52.429
-2041.73
-1351.57
1346.19
5639.69
2806.33
2738.51
10148.8
8903.74
2408.92
-473.429
1437.51
-1470.41
413.621
-3324.84
-3553.47
-657.114
-2808.15
-2592.26
-4054.24
-5575.91
-1986.73
4971.95
5395.46
9159.37
3160.82
-1913.95
-465.023
1860.05
6457.28
7019.18
6159.31
8396.87
3854.91
716.328
-752.662
2620.26
-2312.35
-48.6954
-1856.27
-5735.33
-5222.02
-6190.75
-4734.16
-2553.53
1376.55
-83.8151
1108.16
3106.73
-1513.42
-2479.66
-2322.23
-984.492
-63.3605
1791.31
676.694
-1711.29
1310.74
-884.714
-1540.88
-3099.57
-8325.2
-3248.39
-3992.19
-2007.6
1332.67
98.3316
-327.248
-2791.82
2812.94
-2573.8
1809.31
-1488.57
464.404
-923.965
-1598.44
-169.651
-280.68
1644.38
-356.14
-1750.94
-399.138
1504.04
2405.24
2640.15
5.63942
-3115.75
-2172.59
-1178.31
-694.212
747.493
658.609
614.822
-1025.03
460.03
-397.86
144.092
-2276.26
-4276.37
-859.869
-1751.54
-3751.78
-4685.09
-1232.01
-1564.68
1893.51
3160.07
31.1386
-629.764
377.374
-4810.36
-3790.56
476.017
621.598
-111.37
229.948
-2785.02
-1333.27
-2473.78
2389.22
100.938
1040.85
800.471
10333.3
3284.39
1430.23
1444.77
2633.21
-1277.26
-1348.59
-4835.3
-7192.41
-5244.38
-1151.24
356.061
-1938.04
-441.371
3.75143
1484.98
1060.02
3184.06
3196.19
1935.25
7115.9
5955.17
5552.82
4229.85
5127.57
8642.28
11521.9
7524.71
8867.05
701.781
1309.04
3877.46
1867.29
600.973
-220.193
-2330.07
1154.37
-1450.22
17.2692
742.915
6186.49
12238.9
13392.6
160.32
4277.53
5500.62
8605.63
4917.48
3874.39
-574.605
3224.35
-165.844
1646.18
-882.863
1259.91
3500.43
196.971
-1831.45
-4084.72
-7119.95
-5416.45
-5391.67
-8447.32
-7038
-6123.51
-2827.37
-1657.51
1083.21
-6166.82
-3037.23
-5022.7
-3829.76
-2448.65
-1630.16
-2461.91
-1747.78
189.068
-365.222
-633.444
-2779.34
-2245.5
-1949.06
-2505.42
-2464.91
-2543.67
-269.209
1096.23
-2146.29
-2073.17
-1514.73
-41.8084
-253.888
-169.422
-584.165
-778.221
-1385.06
-142.653
1784.13
1250.96
-30.2377
-513.834
-586.521
-2715.58
-2126.19
-730.051
6193.64
4381.55
1793.55
647.72
-756.722
-2766.18
-2116.24
780.052
3219.47
3598.64
5880.99
-78.4058
828.692
-2387.54
231.671
-1303.45
227.713
-262.003
668.355
-4285.14
-83.1093
6127.2
3080.81
7150.06
6880.54
3627.11
4186.75
4763.57
2718.28
-673.97
5388.4
172.625
1600.25
980.187
3629.89
1580.06
1003.24
1340.06
3656.35
-1044.78
-238.621
-2479
-4070.38
-1891.75
496.575
-2093.5
-4406.09
-6630.94
-1323.63
3058.69
3082.81
3405.14
8037.31
2855.53
-5174.09
-4297.73
-3.0683
-2889.3
-5010.38
868.385
-845.715
-1278.59
1862.75
2518.65
-1149.77
195.301
-2690.97
39.3249
259.732
-479.767
1242.87
-31.8832
-771.85
2096.33
2341.96
-888.996
-1783.36
-2779.6
-3464.19
-674.651
4431.42
-319.895
2505.27
-2183.05
-2299.28
2423.05
2404.22
-1764.9
-1614.51
-3521.72
-4161.75
-3767.6
-3167.47
-3972.11
-1914.15
-543.677
-3313.09
-6186.55
-3048.75
-2669.51
-3383.31
3097.38
-1310.52
-1740.02
-897.843
628.403
-1885.48
3947.36
6433.73
18978
12020.1
9022.79
8320.06
2967.55
12829.7
6733.27
17360.3
9653.82
19638
21903.4
26615.4
47173.9
50929
35900.4
38718.5
23664.9
17202.9
14947.3
17473.9
25644.6
25574.4
20524.8
15415.5
10577.1
13395.5
13170.8
10183.5
7705.37
7916.29
12288.3
12597.8
20159.6
14965.1
17243.6
15519.8
20915.5
21264.9
17834.5
19089.7
13801.9
9777.06
3056.02
7435.64
1252.74
2727.61
2129.24
-284.332
1629.32
5498.78
4576.18
9193.77
6769.85
8347.26
9625.05
17737.1
15523.9
6838.65
4490.48
10853.4
6980.57
4427.76
-1059.06
-1229.81
-7951.94
-6768.51
191.712
17126.5
11890.3
16660
8888.47
9564.23
20404.2
19619.6
18045
7042.64
6044.4
9644.57
5287.13
1266.98
-419.612
1784.12
1377.81
5973.71
5235.75
6828.05
8917.07
3348.78
5211.95
1316.78
1705.48
1860.02
-2088.67
-986.984
1220.66
6685.33
583.722
-4642.7
-4021.9
-3102.57
1100.7
-1047.14
10.3118
-77.0328
-1317.48
1431.05
-1713.72
-2441.86
-1774.8
3133.15
1085.88
-242.589
-2485.05
-3389.97
-1216.24
314.512
-568.032
-1044.26
-568.232
-2517.78
-953.97
-527.685
492.878
1977.39
3255.52
40.4217
-321.25
-715.012
-3415.34
-626.806
976.752
121.397
2468.93
7886.08
2990.47
4204.05
3677.12
2482.98
2435.69
2440.39
5315.17
2644.95
-403.445
930.609
551.111
-1356.76
-7602.29
-10564.9
-10319.5
-6865.78
-3269.26
-3372.75
-1209.88
-2303.71
-175.468
484.118
140.104
-292.197
2920.86
1895.06
1522.39
-1057.62
-1743.48
-621.291
-2046.56
-119.672
370.502
-984.874
-641.255
-977.877
-254.279
1715.3
-2849.89
-2388.99
1492.4
-1895.98
-7905.79
-892.34
-2332.14
-5363.82
-2841.27
-1999.68
-2378.68
-2062.53
-1940.04
213.581
20.3399
-2789.02
-560.258
371.169
-2636.7
-1153.09
-357.89
-659.725
-1706.5
523.502
3012.28
-1966.09
-629.841
-203.41
-1065.17
737.465
-1005.14
707.667
-1452.54
-2151.19
688.682
2316.8
2690.98
3122.06
1252.74
-1787.45
-1544.71
-3918.48
291.209
-487.131
1396.31
1281.12
-1447.71
-282.84
-717.755
-1485.91
553.008
2524.93
3540.88
3455.62
3357.25
4156.71
5420.94
-533.36
-994.309
-1200.82
-5459.5
-516.528
-295.559
-431.908
-1181.11
-3300.36
1117.82
2420.39
7282.45
-1017.05
-3030.34
-2067.73
-2102.95
-4596.43
-1860.21
-263.68
-21.9883
-181.672
-834.597
-1923.34
571.861
-1773.98
-611.7
886.151
4224.82
-2312.16
-3599.44
-3090.64
-2672.16
7139.16
4784.59
7225.4
15846.5
14040.7
16795
14525.2
28274.2
20587.2
13470.4
8544.64
4249.08
3.4604
-231.606
-631.831
2103.42
2260.78
585.755
-3785.86
-4463.94
-1146.28
-5874.34
998.67
-2578.41
-333.223
302.583
2592.24
3581.17
903.923
1374.09
3147.24
9272.17
7346.05
4150.35
4585.34
-1374.32
-3339.31
4083.25
1450.29
3083.08
6869.12
3365.87
1270.73
852.042
2554.39
1090.54
4914.77
1631.72
1592.29
2528.01
8798.76
10621.8
5872.24
2780.75
2266.05
-410.616
793.717
6097.21
1583.4
978.976
-1686.48
2032.31
1412.36
1523.75
6804.57
9166.99
6830.74
771.124
-13.29
3907.19
811.899
-102.588
5486.68
1965.81
6931.9
2503.32
542.501
-1736.02
-1050.03
508.43
3021.71
2916.32
927.047
1867.4
2640.78
5142.34
1178.96
1092.39
9735.07
7871.57
9468.49
6223.93
11469
6331.14
-432.335
1862.57
6059.02
4950.32
2953.38
1682.76
-968.859
701.408
-2397.36
2555.62
3636.72
5604.64
9727.18
1331.78
1674.77
8722.44
6609.87
3187.78
1107.94
1251.17
2905.81
2400.62
1462.82
1166.83
930.909
-1015.69
-635.809
1481.36
2410.16
966.315
-1476.85
845.662
-2296.75
95.2039
4295.28
5699.97
1150.43
-2595.21
-4566.08
-7111.1
-4397.07
-4902.67
-2055.23
723.365
-4842.77
-6224.98
-3364.89
-3002.38
-3486.58
-3675.01
-2684.44
1274.56
-1218.7
-541.427
-1900.8
-1497.26
-5170.01
-6028.41
-1925.32
-672.832
-657.61
-4443.54
-2342.57
384.624
-574.328
224.535
-508.259
-788.501
-598.436
4436.14
828.097
3964.46
-345.232
-1216.81
-2116.33
-4443.87
-3620.48
-3263.48
-2034.68
-1594.59
-821.444
-358.948
-4110.88
-4472.99
-4364.15
-6903.35
-4255.61
-3548.45
-3732.04
-2419.52
-2611.93
1647.73
1274.78
-370.241
1205.38
897.828
1332.98
7315.83
9607.08
12302.2
7036.28
5291.84
10105.8
15192.6
11327
10081.8
6934.43
5160.47
7304.93
3451.96
1369.04
202.511
1744.33
411.52
-816.533
-453.812
-5629.25
-1606.37
-3442.6
-1373.71
-3624.63
-8680.64
-3515.43
-1923.18
332.984
2177.69
542.774
578.889
853.501
5862.49
1849.54
1722.36
1263.46
400.364
-2391.17
-3277.5
-2594.2
-9721.4
-10533.8
-7766.64
1120.14
-616.991
1376.64
-680.276
1291.8
-838.871
-127.633
487.614
-5966.29
-2502.11
-3042.32
1554.18
4268.1
1176.71
2891.8
-2199.45
-1242.73
1498.31
519.126
2041.53
3181.01
3159.89
4950.1
11017.5
16074
11616.4
2089.34
1205.22
2351.1
1720.42
4066.86
4694.79
5759.1
2254.62
854.122
1898.6
3299.17
2787.93
1558.38
1748.82
7046.64
1042.13
1781.03
1179.11
-1752.02
648.458
1003.99
-968.626
-3331.46
-109.55
-771.913
-931.663
-256.021
420.753
-1321.82
1824.67
811.835
465.347
-1914.21
-947.798
-2393.58
-2879.87
3473.36
4610.54
6936.99
7083.83
11698.8
13912.9
5553.63
7998.07
9955.33
14660.5
9854.5
-911.489
-2993.96
2773.8
1709.58
4572.2
3906.73
2462.3
5729.33
3295.73
5341.98
3388.52
1490.74
-848.032
-965.873
226.644
-2005.99
-5013.28
-4331.33
-2587.08
-2829.43
-4654.01
-4519.49
-385.957
-5639.25
-4766.62
-2819.98
-1809.19
-1.86979
-3411.85
-2949.38
-4397.44
-1503.02
-1922.28
15.8611
-964.568
2128.48
1323.07
597.102
-644.324
834.868
1268.97
4714.78
1251.86
2702.71
4322.09
5897.7
5279.94
5333.63
187.113
-1671.48
-46.3985
-1060.58
453.931
3453.19
5591.94
7019.07
3867.47
454.09
6218.51
7833.45
8789.94
5368.92
9948.15
16545.8
15546.7
12517.6
4853.38
5244.05
2471.5
3963.15
5565.08
4180.19
3246.52
7474.28
5046.86
3627.87
3838.55
914.654
-144.433
-1826.07
667.252
-1610.21
-1451.11
-2601.78
-6260.09
-6545.05
-7321.58
-7849.78
-3150.98
-2861.7
-4224.03
-3238.73
-3505.94
-1624.05
-3687.9
-1789.24
-2694.19
-1245.69
-138.542
665.237
-200.438
-1784.51
1389.91
7818.54
5805.87
6137.27
1855
5919.76
6061.24
15292.3
10470.2
9584.2
1524.31
3740.12
-1792.79
-2321.5
-2806.62
-1306.54
-1353.68
875.56
1270.97
-1444.69
-798.428
1045.88
4601.19
11086.6
4021.01
4665.36
1485.94
787.239
-3294.9
-4222.38
-6168.14
-4793.13
-7065.9
-3938.38
-6805.04
-6714.02
-3913.97
-1485.67
-4010.14
-2652.29
-1091.07
1254.37
1223.42
3008.89
2889.88
-1574.08
2151.25
422.744
-925.764
1795.58
2514.07
7612.05
3617.6
1542.36
-1007.41
-3400.14
-1981.03
-495.657
2125.73
-363.031
-1296.36
-4886.99
-7398.24
-3922.03
460.619
-1103.75
2475.57
-2469.69
-1195.8
-6488.31
-7374.56
-7219.51
-4022.24
-6134.95
-9854.15
-3905.75
-1551.09
-680.949
-3025.48
-2112.39
-956.413
-1948.42
-1959.69
-3620.3
-1139.35
404.699
505.919
-2130.39
-3839.71
-1339.98
2116.43
1260.49
3984.65
3289.09
-2849.2
1334.69
-373.802
-961.898
828.589
2385.34
856.546
1770.37
1772.46
133.611
488.353
1778.13
2274.94
2479.06
133.795
3140.03
2363.81
110.52
3451.87
73.3678
589.512
2625.17
2724.91
1384.73
232.742
-1437.95
3306.1
4178.52
-26.8775
379.504
-364.221
468.652
-818.156
-474.115
-1462.42
147.648
1711.6
608.172
-3345.32
-2085.9
-462.675
2153.27
970.501
3969.52
712.207
-3095.83
-210.122
2846.32
-208.831
-626.31
-1086.87
-141.844
21.2595
606.439
194.37
825.113
1480.29
331.549
947.354
323.72
2770.53
618.02
2437.58
-2198.22
-5418.82
-1420.36
-2442.69
-1843.68
-1296.13
-4438.88
-5900.02
-6015.52
-1747.44
-807.323
-143.379
-164.856
-642.825
-262.852
898.705
-120.406
5516.71
7875.57
10526.4
9058.15
4767.21
2471.72
3403.63
2916.51
-2162.37
-4267.42
-4523.15
-6801.48
-4807.06
-6656.21
-6057.86
-6065.06
-5206.63
-2223.02
-5319.32
-5564.16
-6138
-5406.05
4435.98
6374.55
11560.6
8101.08
9945.05
11288.2
19963.8
11941.7
12476.9
6890.03
7207.08
2060.11
4970.4
-2581.97
-1167.38
-1625.09
-843.585
1182.29
3379.62
683.656
-754.603
-5047.59
-3242.48
-3846.12
-1620.25
-139.639
1686.68
-420.819
1037.06
1703.95
-978.325
-823.804
-705.588
975.076
-2771.38
-606.611
-1406.2
-783.059
263.297
-441.135
-426.023
-2799.57
-1495.36
-1234.39
-150.271
-937.636
-1789.05
-1203.9
222.521
-2813.47
-1810.03
-707.531
-181.517
-879.194
2.10494
2288.19
6069.12
1966.12
3312.75
3626.06
2055.58
4392.7
1029.41
-423.672
-784.466
-773.802
146.28
-1296.27
3658.34
3371.2
3598.29
8759.55
15231.2
12889
13557.3
12666.2
9371.46
12831.9
13453.2
5970.86
1888.27
1409.11
1148.49
584.354
3343.3
-1406.33
117.422
242.29
2694.56
-29.1468
-2543.51
859.953
114.758
3408.43
-741.79
-4789.14
-9482.71
-4661.58
-2639.48
-3960.79
-383.402
2415.91
1894.92
341.742
480.141
-2477.34
463.492
365.322
-858.379
925.365
-302.094
3002.52
1004.41
302.157
-588.222
-1729.63
-3967.34
-6544.61
-2455.71
-59.4733
2807.49
-374.364
-2652.57
3710.63
1590.15
382.458
-201.249
517.647
4809.95
1743.45
-669.273
540.605
-368.075
-1781.35
-2177.97
-1163.02
2724.5
31.6753
-1918.55
110.644
-64.8702
5263.08
2398.92
3368.23
320.5
-3518.81
209.244
2436.48
6605.34
5343.48
1988.28
3048.28
2574.56
630.308
1080.3
3191.69
-540.859
-473.578
518.675
-1585.63
-707.753
-1194.28
-95.7735
2302.16
-173.982
-874.644
219.903
788.19
1558.62
787.421
-394.756
2403.11
-1686.38
-2216.65
-2977.7
-1753.7
-327.468
705.55
2009.5
2139.31
-661.52
-1894.59
-73.8034
426.966
2200.89
-2343.16
3705.29
1779.13
18.3248
307.452
-423.286
-110.645
-30.784
68.8287
977.732
-510.655
-1198.89
46.8745
2444.25
-1575.05
-1508.8
3060.46
-528.783
-1880.22
-1836.69
-4677.07
216.235
1469.83
268.018
1480.53
-642.035
1117.85
2231.05
2655.16
-520.813
902.591
-103.921
1057.49
3311.55
-1092.83
-444
-2189.41
820.342
2247.21
1843.14
-640.016
2551.74
3342.97
-507.499
-3632.41
-89.0665
-1353.47
-6.67598
1633.09
4088.32
-2815.11
-588.357
3584.24
3704.88
1503.88
1231.42
174.062
-811.6
-120.405
-2954.86
-4325.88
824.236
506.8
8391.89
8185.37
12927.9
17943.2
10375.8
8584.23
12568.6
4386.79
1786.5
2228.99
5269.88
1731.02
2863.31
3010.53
1435.93
958.854
2601.67
-1266.08
-5708.29
-7678.97
-10908.1
-7260.94
-7865.89
-6432.52
-5671.54
-1240.1
3300.45
-5444.85
-4517.61
247.281
1535.92
-1800.28
-2696.76
1228.69
-3130.09
-442.894
-2176.08
-1222.92
-1941.49
-3281
-676.788
7774.09
11640.9
15439.2
18627.3
20606.4
21632.6
16130.2
28955.9
31760.8
31983.2
35356.4
20606.7
10917.3
12509.3
7633.71
8391.88
6877.22
2498.04
1683.73
-3330.5
-6293.96
-2086.15
-1613.01
5350.14
3185.07
5652.34
8303.44
15404.4
12579.9
6628.71
8530.58
3230.53
2626.31
5941.92
2630.85
3905.46
2014.29
1023.01
-563.758
-1924.27
-1275.38
-1146.57
-1999.03
290.241
1612.72
47.0923
1272.76
3894.69
2579.15
2360.25
1597.63
-1584.18
-1903.02
214.583
-180.403
1112.85
1591.67
1729.6
-3.31613
2035.07
1890.72
582.897
740.314
948.975
538.199
-2198.64
133.647
-176.992
-181.212
-704.027
-1111.28
-3875.6
-1457.47
-2830.79
-1865.06
5964.14
-1005.92
3546.06
213.851
623.181
-2245.59
-5775.81
-5009.79
-5250.04
-4178.16
-6472.68
-4565.53
-1704.26
813.876
-1983.25
-3400.99
-275.506
-5747.26
-361.109
-4009.27
1642.2
-1429.47
-4086.3
-3015.51
-975.586
2030.93
1633
2897.75
-1333.65
594.913
-1006.86
600.301
917.252
-421.726
-622.024
3736.96
5880.08
10241.8
15094.4
15081.4
12949.7
17358.1
13177.2
10734.3
16629.5
14155
5537.6
6187.67
5759.63
-3058.11
188.043
-2344.78
362.848
4200.75
-1037.66
-1089.65
-3274.51
-3509.36
-1362.38
-1802.58
-4983.68
438.707
-47.4237
-3506.43
61.7947
1250.44
2458.95
-593.988
744.986
3087.55
538.845
-871.386
-3057.71
77.478
-2632.05
1424.74
2988.29
3639.41
-232.739
-971.492
-739.599
2318.13
2802.14
5533.38
8193.01
13717.1
3226.02
6232.49
-424.139
-1397.57
-2576.91
-2668.78
-2961.35
109.24
-3083.75
-4627.01
-6123.23
-3035.65
1346.43
-1956.02
478.732
-2015.51
-912.556
1201.67
1741.81
-1309.26
-488.135
-3207.86
-5518.55
-5403.65
-8039.09
-3203.41
-2616.57
732.206
1343.15
2953.1
2560.07
2288.49
504.281
472.632
-1318.89
222.076
6315.56
3884.74
5201.54
1168.21
-4028.7
-6035.34
-3774.28
-1526.87
-3767.2
-6522.39
-5200.55
-2027.15
-825.239
1752.74
-1852.6
-1460.14
50.2665
1220
1702.82
-1060.25
-4698.72
345.549
-1749.64
-1301.44
-577.023
-2404.54
318.816
-218.247
-425.501
-131.183
-3290.56
-1749.42
-4169.95
-5862.98
-596.438
3004.97
966.509
14743.6
14944.9
10041.9
11676.8
7513.14
6101.25
5210.93
1618.4
747.336
4819.51
1521.37
1730.34
3424.94
960.005
-1694.18
1057.05
418.36
-258.011
-4149.24
-4048.88
320.402
-2435.9
-2275.23
-3003.67
-1269.86
304.186
-154.699
-1062.55
442.62
-1024.42
1264.92
-5187.88
-5835.15
-299.211
-1067.04
-1773.64
-2901.2
-4330.86
-2041.02
-951.717
1698.95
6020.71
8467.04
15353.7
11339.9
11732.4
1518.46
-126.37
4310.79
844.072
857.805
5607.43
11386.2
4671.3
4855.44
822.403
-1781.16
-2943.87
-240.246
-1901.44
-1898.52
-5565.86
-1753.17
-5231.49
-3160.61
-1056.36
-2785.53
74.0361
2161.2
2651.82
3810.41
-1213.23
-3121.33
-6901.37
-5035.53
-3309.66
-2076.38
0.689136
1584.78
3336.87
3097.58
5240.9
-851.684
337.163
325.299
-1302.08
480.002
1273.11
3277.78
7834.99
12859.5
8971.06
5578.82
5128.9
10076.1
9843.32
7618.8
12580.1
4941.71
9979.81
10636.1
11560.6
11885.1
9662.46
5611.46
-737.934
-1334.15
-1734.33
100.889
1881.72
6650.68
5431.51
4066.09
1117.22
1192.92
-513.524
-3152.34
-317.016
-2683.36
499.751
94.0932
-2162.86
-2244.38
-905.184
-2999.74
1354.42
-4840.92
-4110.14
-6353.36
-4700.98
-1846
515.279
-815.697
-1744.41
759.342
-1739.36
-711.487
702.535
-277.511
1249.92
-562.986
-387.31
253.198
-396.614
-1813.1
-2802.6
3023.9
5715.24
2875.46
3114.05
5086.53
504.488
832.793
-845.127
-944.526
-955.478
-1257.6
517.105
-2176.59
-7055.27
-3248.53
-4741.83
-5517.6
-4188.49
-3538.13
-4216.47
-1437.58
-816.821
-999.792
-18.1726
-1021.22
-313.985
-158.826
-1568.96
-1284.96
168.738
-1012.09
2745.36
4289.68
4125.42
458.356
1645.73
-3780.23
-1062.01
-461.781
630.481
-3711.29
-3227.9
-600.923
-2205.24
4338.11
1138.54
-608.118
2519.75
1793.79
1745.03
-804.296
889.505
-1737.04
-2349.95
-4212.19
-4297.98
-4385.15
-4151.59
-2002.72
-2347.16
-3620.81
-1386.25
-1966.62
-1721.65
-2410.22
-1227.73
-457.712
-1026.51
-2419.87
2.67005
-944.464
-1060.16
-1431.57
-570.658
-3935.81
-6583.04
-3550.02
18.6457
4544.55
1664.8
2176.34
2702.41
-190.076
-478.651
-1202.21
-513.068
-777.815
-971.531
3295.81
4257.49
4467.57
2651.15
21.7714
1355.74
2646.02
-67.8567
-1004.96
-2044.97
-3571.37
-1427.38
-2523.35
-1486.7
2844.68
3591.37
6909.08
6414.37
3681.36
7690.71
20147
20036.1
14384.2
18381.6
14454
13256.3
6545.94
10694.9
3772.05
4848.83
2170.33
2157.2
672.983
843.219
-1213.2
1522.42
-3643.7
-2464.18
-1807.05
-367.427
-2859.41
-2187.96
-4572.66
-3331.36
-5179.27
-8808.31
-5650
-6565.72
-3881.8
-596.846
1334.68
-2373.55
-2811.43
-109.229
29.128
747.316
2624.52
1213.32
1724.29
-266.34
-1067.12
-1003.37
-432.022
-1139.81
239.838
-1542.56
336.87
3209.52
3804.35
-180.92
1656.93
-453.799
-1647.28
-1005.91
796.23
2931.47
7975
8803.08
3895.61
6114.4
-1012.71
283.735
685.586
-963.15
2752.96
3724.9
2816.77
-792.23
-2245.24
-2976.29
-2251.17
2727.42
1502.7
526.533
-337.142
468.549
-1016.47
1268.59
3921.7
6451.09
7301.05
677.101
4677.58
2686.76
5660.18
