507.155678
362.184056
1330.575163
2159.391056
470.301488
240.043137
723.37128
-842.323263
935.1669593
672.516063
1838.616478
1096.425726
2143.51376
1138.684457
-11.913524
-469.404273
721.4753541
671.247833
1825.079991
-760.657706
401.3502768
1286.914008
1676.163012
-94.535832
979.657623
926.828617
592.92963464
1804.3010211
-666.6549741
353.485076
-683.925914
2631.482132
1658.463238
133.149685
-14.761177
1926.489447
1020.953584
752.24241
-787.772678
907.711492
1186.2520391
1676.43134
2295.581729
889.483942
1619.268692
1002.56566
759.04148
1396.355356
248.9364462
2136.467918
-719.107192
342.827082401
382.086128
106.61583395
577.896497
-448.84979
-593.41041161
1161.151651
421.706905
-288.185049
317.10621315
968.6802595
1164.446373
137.9902462
673.652004
-779.16809
1151.3439216
760.450316
-1051.565699
1167.034156
-418.113698
-559.113624
-660.102325
787.278391
-799.54788
497.659358
-423.06402
1407.69320799
2376.9660833
595.196947
408.8063081
1431.530296
220.808878
-16.8539685
2230.82466
1694.2539912
-738.46172
911.722891
-360.157697
409.6877218
2495.668336
655.388088
1179.980503
1186.7409592
1629.747205
2309.4893918
-180.183096
-397.4335758
1045.307809
1580.056435
