542.3594476
1051.13396
1578.688964
2131.15424958
1049.779327
672.492372
1270.353456
-331.267356
848.622208
782.568851
2017.6700901
1219.031466
2368.263109
954.916536
277.309447
275.3856
1030.7474886
865.985609
1953.496023
-397.1188856
591.299064
1413.296197
2189.31518
422.271922
1374.785465
981.116828
926.5670266
1933.315681
-280.204248
197.0002439
136.582825
3004.8079075
1881.6169861
475.5111135
355.923969
1741.128122
1029.1932763
1145.678334
151.254709
1186.629393
1488.307861
2289.598845
2630.791915
1345.877387
1459.8232098
1290.719054
1042.653525
1303.3547484
38.883431
2709.977606
307.0245255
439.3669402
500.770194
361.8481456
731.772594
81.689414
-52.169255
1417.403892
983.7303011
-271.551053
1069.670669
1219.420953
1679.881465
407.000962
972.0528772
-510.360861
1346.104237
1141.517829
-627.9356634
1088.191482
-147.71696
64.2071259
17.906453
1258.392924
207.330688
1314.11342
-13.552763
1521.42843167
2468.988372
834.188703
903.6388023
1368.291103
395.261215
142.677338
2472.065344
1610.1744523
-464.745591
1189.59522652
-124.8223833
800.367763
2676.8917
907.2468118
1417.4900105
1350.2379276
1985.658794
2391.1809406
234.540674
-336.43208
1392.420695
1330.512629
