1875.414449
3092.055638
2158.818219
3529.169689
2779.9539543
2399.793732
3023.72306
2146.877425
2278.606651
1928.840106
3514.8814345
2436.96076
3955.556336
2265.042153
1980.847364
2820.087146
2388.905235
2247.271674
3349.5404524
1412.271352
1676.10949
3120.254162
4112.623113
2903.868521
2953.9995052
1935.843491
2571.350759
3942.6629554
1619.06833
1636.2838256
2198.14026
4218.3846623
2868.0249407
1828.5273804
2040.8835332
2950.3533701
2315.788911
2933.489075
2639.27246
1621.942236
3092.90465
4305.9390162
4053.580648
3171.9491983
2413.5309354
3385.7401484
2228.36583
2297.6648689
1207.548968
4104.57356
2376.763878
1101.020014
1699.6755
1700.1937088
2154.101016
2476.9251788
1927.483802
3058.97942
3409.009432
1291.539471
3049.17509
2130.179776
3271.892696
1979.1292059
2537.81897
1701.1522174
3251.897715
2857.644102
1828.662849
2551.453898
2236.4940124
2228.5342791
2594.271873
2972.288685
2783.106238
3743.219512
1460.296607
2589.9564721
3816.197718
2292.830074
2487.192643
2940.1348452
1610.34531
1426.9521047
4242.667289
2345.229593
1747.295423
2698.723964
1444.17434
2054.605348
3747.258301
2586.344842
2997.674986
3146.078005
3767.662464
4209.046252
1835.636551
1631.72460582
3134.022497
2316.860091
