4238.455446
5595.2657974
3935.6435755
5901.1699448
4698.984409
4531.276324
5216.520143
4707.237871
4721.31448
3520.807089
5449.855431
4549.553132
5902.774278
4205.957082
4245.998818
5615.821692
4355.023128
4783.14909
5389.675512
3668.467407
3502.538414
5468.36621
6140.410426
5261.84728
5017.948792
3985.819459
4493.72399283
6349.22405
3859.891452
4234.754079
4326.766495
6365.947074
4410.103039
3704.52542
4165.01552
5083.663504
4455.5045391
5336.95243
5325.438969
3550.4711216
5166.3758829
6754.74838
5966.3855988
5452.180536
4240.95968
5459.018271
4172.932978
4287.558896
3218.133114
5914.710979
4634.758622
3342.247262
4248.763553
3906.079463
4408.104225
5091.637984
4191.6792235
5519.853656
6011.486043
3616.591654
5374.07245
4333.7620027
5380.76862
4004.631384
5064.5973506
4049.52362
5409.292369
4770.024635
4666.807249
4803.922013
5452.01288
4880.856223
5047.69216
4919.5044449
5496.16833
6230.062422
3768.060123
4465.3896112
5753.571506
4299.93848
4300.914753
4961.019202
3412.898387
3783.7413276
6545.12262
4311.2937431
3969.74842
5057.927105
3866.525914
4239.733198
5484.86428
4865.01767
5268.5422856
5322.41565
6020.951352
6477.9591424
3989.101675
4275.024899
5368.234198
4431.633858
