2579.888889
2636.915817
1776.063728
2567.7060394
2771.459649
1808.723729
3770.7202834
1845.969248
4441.440907
2674.74055286
2519.7095423
2498.839055
1857.0348469
4094.04878
2322.9614998
2774.273075
2815.250631
4045.4918
2733.16942008
3078.07647
2061.8856667
2541.36984
3416.308019
2503.037634
2631.916335
2128.232882
3652.901208
2368.520979
3824.860848
3111.41879
1887.114694
4496.6641732
2953.80713925
2382.74358664
2908.926948
2050.5648101
4298.293761
2737.285623
2572.708747
2798.742263
2241.516141
3919.71394
4702.949599
3147.154671
3831.3253254
2265.3236639
2244.447569
2367.678453
1713.88590779
2878.458484
3177.1125269
2385.218814
1740.080501
2233.378534
4714.204292
2259.630204
2194.0292032
4783.258143
2646.351808
3480.0015148
2003.196764
2476.361493
2796.405281
4567.482431
2781.373942
4005.578934
2346.476003
2992.23502
3047.074119
2413.7929172
2581.41068829
4010.92077
3554.890317
3122.307263
3526.5535165
3402.1906394
4429.750504
2231.938815
2301.6911386
2186.927092
3732.208029
4062.325619
2578.0205219
2908.528271
3179.7227
1888.0083504
1799.008798
2154.703329
1577.16956643
964.270367
1916.316051
2325.420278
1564.7589701
1650.63667075
2125.7231638
1505.378844
3665.834181
1814.319135
1935.770801
2312.405552
