1.1425191658e+11
1.127238881e+11
1.2067678576e+11
1.2576336566e+11
1.19669315212e+11
1.1136268514e+11
1.165633509e+11
1.1118072922e+11
1.2492175442e+11
1.13217505128e+11
1.0614389266e+11
1.2152757722e+11
98190907180.0
1.1662783766e+11
1.191680921e+11
1.3926970112e+11
1.1328423498e+11
1.3182016908e+11
1.0889176684e+11
1.0271227234e+11
1.1904962774e+11
1.2124036518e+11
1.1478947434e+11
1.4425652664e+11
1.1877255702e+11
1.2378335288e+11
1.1240481002e+11
1.2493768052e+11
1.0338280068e+11
1.231769622e+11
1.1309271142e+11
1.0893510798e+11
1.187266314e+11
1.1925379858e+11
1.117089559e+11
1.3303054754e+11
1.2782891364e+11
1.1200361576e+11
1.0899666818e+11
1.115370159e+11
1.2057204714e+11
1.1991407284e+11
1.2190231572e+11
1.2497022864e+11
1.1915690624e+11
1.1671655526e+11
1.0150501486e+11
1.3071727154e+11
1.4217044374e+11
1.2632880806e+11
1.0492668186e+11
1.0257899602e+11
99711956940.0
1.1309156574e+11
1.249264408e+11
1.221579149e+11
1.2513127412e+11
1.453327292e+11
1.3361734046e+11
1.1020849896e+11
1.2704049906e+11
1.0598382238e+11
1.200750555e+11
1.088281229e+11
1.038923862e+11
98461740500.0
1.1487437692e+11
94443924940.0
1.1785831432e+11
1.237327159e+11
1.1874310322e+11
1.2107647196e+11
1.1705889346e+11
1.1768892862e+11
1.18193343488e+11
1.1019093872e+11
1.3571126616e+11
1.2305267414e+11
1.0391123652e+11
1.2339851202e+11
1.3699552558e+11
1.0673858768e+11
1.149305701e+11
1.084111065e+11
1.1788267878e+11
1.1822734788e+11
1.0248686394e+11
1.06198843246e+11
1.215665742e+11
1.1467928702e+11
1.16226914436e+11
1.2264523282e+11
1.2503075614e+11
1.08098995296e+11
1.0387705908e+11
1.1663187498e+11
1.2237577294e+11
1.1533702786e+11
1.0931480812e+11
1.1966489324e+11
1.0685877608e+11
1.2471449202e+11
1.305254306e+11
1.1226125644e+11
1.2080070458e+11
1.1475608798e+11
1.24418222e+11
1.2588278508e+11
1.1300971214e+11
1.164091735e+11
92502087760.0
1.0931892998e+11
1.2590465568e+11
1.3147521302e+11
1.196811059e+11
1.2204767842e+11
1.126283017e+11
1.1176114756e+11
1.132764843e+11
1.244882587e+11
1.0813754984e+11
1.3272425406e+11
1.3178671252e+11
1.25320977e+11
1.2099608628e+11
1.2392301126e+11
1.1562029852e+11
1.356407758e+11
1.3154063246e+11
1.183629119e+11
1.0189215884e+11
1.1259567398e+11
1.1629556104e+11
1.2805445996e+11
1.1306736e+11
1.1118657064e+11
1.0846538808e+11
1.2020231118e+11
1.17969353806e+11
1.08157063548e+11
1.190208996e+11
1.2164209524e+11
1.0873589766e+11
1.2444551278e+11
1.05484672552e+11
1.1850242374e+11
1.2700424628e+11
1.1337059928e+11
1.1442161018e+11
1.226657652e+11
1.125138745e+11
1.3667208464e+11
1.1167450054e+11
1.1872455138e+11
1.0383535406e+11
1.1461723362e+11
1.160111587e+11
1.034824477e+11
1.1686616868e+11
1.1534190732e+11
1.2681889356e+11
1.09546680824e+11
1.1207376334e+11
1.0634741376e+11
1.3496766998e+11
1.1056306748e+11
1.1373633956e+11
1.0867712264e+11
1.2486423492e+11
1.0576434056e+11
1.0370297794e+11
1.1244358048e+11
1.1800423096e+11
1.1434672518e+11
1.019947775e+11
1.2518336674e+11
1.2320635538e+11
1.1257489008e+11
1.1674638502e+11
1.2433240618e+11
1.0235652764e+11
1.0957997104e+11
1.1162310838e+11
1.1514371708e+11
1.251687131e+11
1.0911056044e+11
1.1320526176e+11
1.252720598e+11
1.1199964996e+11
1.0442621812e+11
1.1443097388e+11
1.1695045968e+11
1.1562662858e+11
1.1932797682e+11
1.0885263438e+11
1.3431576852e+11
1.2734430276e+11
1.138102886e+11
1.1840942266e+11
1.1675868818e+11
1.105731077e+11
1.104229342e+11
1.19591044284e+11
1.1658687576e+11
1.3137772202e+11
1.225885866e+11
1.1149233936e+11
1.35476421596e+11
1.2967171738e+11
1.2370459826e+11
1.3063018706e+11
1.225079568e+11
1.1638354672e+11
1.0624941236e+11
1.1459127806e+11
1.1719803074e+11
1.1707505204e+11
1.2061925292e+11
1.36915751118e+11
1.2137906758e+11
1.0072786374e+11
1.147387203e+11
1.2615339122e+11
1.1658026538e+11
1.1477458844e+11
1.0786149426e+11
1.2144385252e+11
1.1841323856e+11
1.2736299518e+11
1.1225513608e+11
1.290464892e+11
1.057922203e+11
1.0539496838e+11
1.1513377666e+11
1.1608259648e+11
1.1868588928e+11
1.1173037728e+11
1.2617883874e+11
1.2018818346e+11
1.188543163e+11
1.13897119624e+11
1.095667513e+11
1.3274879254e+11
1.2145237858e+11
1.0746829686e+11
98915118300.0
1.2235730766e+11
1.184137177e+11
1.2480639244e+11
1.2044701518e+11
1.090924728e+11
1.1714096986e+11
1.1628820488e+11
1.071291246e+11
1.2194708668e+11
1.250556183e+11
1.1277881712e+11
1.180312987e+11
1.3929850978e+11
1.016245058e+11
1.1713078918e+11
1.11578447e+11
1.0184635824e+11
1.2268067964e+11
1.2216764958e+11
1.09461621654e+11
1.0878873544e+11
1.0572657484e+11
1.3521102642e+11
1.111160214e+11
1.3553637954e+11
1.0878843512e+11
1.130479872e+11
1.2993846908e+11
1.2532059706e+11
1.0779344812e+11
1.1712991088e+11
1.034222163e+11
1.1305912426e+11
1.245237776e+11
1.1629131214e+11
1.00672683e+11
98050634012.0
1.1817134822e+11
1.2219908186e+11
1.181805864e+11
1.278026074e+11
1.3027805134e+11
1.1517016042e+11
1.0283457146e+11
1.18278005596e+11
1.0164877958e+11
1.1543467374e+11
1.2284286592e+11
1.1860106248e+11
1.0631110244e+11
1.0729626356e+11
1.0828894958e+11
1.158660005e+11
1.1710370896e+11
1.1336512216e+11
1.0387150704e+11
1.0540836908e+11
1.2311649054e+11
1.1026562634e+11
1.1724286288e+11
1.112742773e+11
1.2219851266e+11
1.19917883172e+11
1.1272721066e+11
1.0634756964e+11
1.250721854e+11
1.2704088412e+11
1.3296838256e+11
1.2206441472e+11
1.0028920664e+11
1.2059562558e+11
1.2231360826e+11
1.2162037402e+11
1.316278053e+11
1.09980969082e+11
1.20569413e+11
1.0651924958e+11
1.0932034926e+11
1.0683158352e+11
1.0739638672e+11
1.1143171924e+11
1.0757693398e+11
1.17777562748e+11
1.133259465e+11
1.1816049476e+11
1.1111571778e+11
1.2520394094e+11
1.2986247536e+11
1.1268758724e+11
1.1472841862e+11
1.1695945162e+11
1.1407900686e+11
1.21208184924e+11
1.1035103802e+11
1.29444842024e+11
1.1078616246e+11
1.2832314868e+11
1.25612855546e+11
1.1881033558e+11
1.1299170168e+11
1.1908535448e+11
1.0784055028e+11
1.0449552228e+11
1.1769373844e+11
1.0758820318e+11
1.3300789138e+11
1.1539412902e+11
1.0564410406e+11
1.0651050312e+11
1.1118162894e+11
1.1626888778e+11
1.2126267396e+11
1.3433701596e+11
1.0650804578e+11
1.0440138334e+11
1.2772459072e+11
1.2108364394e+11
1.1458588932e+11
1.0535645988e+11
1.0990550198e+11
1.0734613868e+11
1.131494086e+11
1.0883347162e+11
1.1340995978e+11
1.3047956602e+11
1.0849811538e+11
1.1201410032e+11
1.2277334508e+11
1.1929265166e+11
1.133923134e+11
1.3772199542e+11
1.2145521908e+11
1.3828486604e+11
1.3675031976e+11
1.1795872334e+11
1.1156010832e+11
1.0874854818e+11
1.033894726e+11
1.2198749578e+11
1.24766127e+11
1.0837431874e+11
1.1208240292e+11
1.13383417806e+11
1.0433545892e+11
1.0498934156e+11
1.16686774102e+11
1.2068653198e+11
1.0829122468e+11
1.2400973126e+11
1.1455544164e+11
1.1306711914e+11
1.2948601442e+11
1.1916770718e+11
1.2508694818e+11
1.0231117104e+11
1.3198451496e+11
1.2937189469e+11
1.1687990758e+11
1.1576484408e+11
1.3455079866e+11
1.3447623282e+11
1.3627539264e+11
1.2609825182e+11
1.20282310262e+11
1.0998188842e+11
1.0808264506e+11
1.2049612714e+11
1.1730340162e+11
1.15373571e+11
1.1937169312e+11
1.1454111132e+11
1.1360316998e+11
1.1969280628e+11
1.2473171248e+11
1.1092299286e+11
1.1738729996e+11
1.0384613238e+11
1.2316974854e+11
1.194088928e+11
1.17198155732e+11
1.152981007e+11
1.0701984392e+11
1.1881100154e+11
1.1383324696e+11
1.1756673672e+11
1.1148010022e+11
1.10010130896e+11
1.2736705984e+11
1.023345469e+11
1.1142858594e+11
1.15220244186e+11
1.244282777e+11
1.3234350306e+11
1.188745645e+11
1.352367918e+11
1.134336517e+11
1.039655384e+11
1.3222111422e+11
1.0640079026e+11
1.1948874358e+11
1.175085514e+11
1.092576937e+11
1.17677614248e+11
1.140198415e+11
1.171770596e+11
1.243734732e+11
1.23374759572e+11
1.18884661e+11
1.200827108e+11
1.0709942682e+11
1.2763115192e+11
1.2590864952e+11
1.037757235e+11
1.0282020162e+11
1.203549429e+11
1.3301481862e+11
1.2543867464e+11
98968066360.0
1.1580002546e+11
1.0914287308e+11
1.2169091768e+11
1.0078452334e+11
1.2144396112e+11
1.1584483336e+11
1.1532992768e+11
1.2418032208e+11
1.2196546822e+11
1.12875675784e+11
1.1904913228e+11
1.2517072574e+11
1.0991244702e+11
1.1890858186e+11
1.0467938558e+11
1.2049984612e+11
1.26333731272e+11
1.245883107e+11
1.1778836514e+11
1.1240549596e+11
1.2787220014e+11
1.0188048048e+11
1.1819563324e+11
1.2594185578e+11
1.264831039e+11
1.2940602174e+11
1.0792916604e+11
1.107723009e+11
1.1303789648e+11
1.2665329268e+11
1.3278839228e+11
1.1228002632e+11
1.13859684504e+11
1.230365887e+11
1.2327031742e+11
1.117243964e+11
1.1076678954e+11
1.161440291e+11
1.3237576454e+11
1.0776584356e+11
1.2430172368e+11
1.2251734696e+11
1.19570805568e+11
1.1051921e+11
1.2385613492e+11
1.088941249e+11
1.22322206e+11
1.3408193396e+11
1.1816863088e+11
1.1107252784e+11
1.0538107132e+11
1.2222591184e+11
1.2568149874e+11
1.226014456e+11
1.1261584654e+11
1.1189525152e+11
1.2162336156e+11
1.1169069924e+11
1.4913438052e+11
1.0955970408e+11
1.1645949088e+11
1.203535022e+11
1.053403262e+11
1.09207747988e+11
1.1369632392e+11
1.1430963828e+11
1.2714842084e+11
1.196001828e+11
1.063539053e+11
1.1200893268e+11
1.0400764356e+11
1.16033396188e+11
1.2930284444e+11
1.1117725266e+11
1.1175926864e+11
1.1853577726e+11
1.0408330182e+11
1.1261556202e+11
1.19085877642e+11
1.1365429774e+11
1.1190945132e+11
1.1541668834e+11
1.05452273216e+11
1.283132109e+11
1.3081024036e+11
1.1032060112e+11
1.08645902168e+11
1.2051751248e+11
1.2780176836e+11
1.0877410722e+11
1.2439852138e+11
1.1253828908e+11
1.141377788e+11
1.1579049012e+11
1.1587250174e+11
1.0764449618e+11
1.2442251676e+11
1.2839700404e+11
1.1674940838e+11
1.0863433434e+11
1.1683184458e+11
1.1924793492e+11
1.2201200132e+11
1.2197652224e+11
1.0385913918e+11
1.1694993828e+11
1.175069434e+11
1.1141052e+11
1.1542767516e+11
1.1860640532e+11
1.2132276908e+11
1.048062244e+11
1.0643432286e+11
1.0523767438e+11
1.2619034196e+11
1.2806571854e+11
97722546500.0
1.1272042612e+11
1.3781055738e+11
1.093514905e+11
1.2309105666e+11
1.1303029488e+11
1.034620921e+11
1.1099164056e+11
1.17457841916e+11
1.2458945276e+11
1.1510114898e+11
1.2045097042e+11
1.047040044e+11
99938674740.0
1.2934758502e+11
1.1073955406e+11
1.2699427266e+11
1.1003887058e+11
1.2067675784e+11
1.0662594994e+11
1.1461284488e+11
1.086917159e+11
1.394127428e+11
1.1068057238e+11
1.09559260222e+11
1.0685546844e+11
1.034785422e+11
1.2620316812e+11
1.2155975704e+11
1.141733842e+11
1.3009353266e+11
1.3424897804e+11
1.2713803406e+11
1.120819478e+11
1.2234174732e+11
1.13606041e+11
1.1829650922e+11
1.042433417e+11
1.3073959168e+11
1.1551779823e+11
1.2213715938e+11
1.0586941624e+11
1.0306835172e+11
1.1187104884e+11
1.1669847212e+11
99062562940.0
1.1883276312e+11
1.157953218e+11
1.0637611978e+11
1.3198446996e+11
1.1449336678e+11
1.0766211318e+11
1.1148595422e+11
1.166098445e+11
1.2266309762e+11
1.1512670044e+11
1.1853958952e+11
1.0543444486e+11
1.2181166072e+11
1.224269663e+11
