14665.8698
-107550.10397
30141.9468
492.0384
-3350.3942
-172.2742
39357.54353
-66305.8264
-108418.371
91695.8772
95132.6525
2965.8358
-131217.3211
-23567.45396
-54300.962
-7458.2747
-77845.0247
-32627.9839
-5775.486
-106079.833
-58890.4003
-139431.7247
-63682.2247
-78336.94
44648.27461
7859.56517
82886.7605
71671.59027
-3369.1118
-119266.2606
-89614.9723
-16522.831669
36737.0108
24688.3081
49212.9949
-105227.666234
-39788.8959
-71535.5632
40208.253027
54088.4187
9451.868
133359.22636
-165255.973
4036.5667
13706.7634
91297.521
-30800.1549
39524.5488
93199.1327
-3527.7565
112656.376
-59102.302
-68586.776
3408.8493
22915.23705
2639.5772
32365.708
131352.6091
20956.2542
51697.654
134645.89
-44862.5501
-56594.089
62290.1228
-33298.143
35992.2534
-1277.8732
31417.5226
-28129.259
-59078.7446
41582.8729
8704.0827
123223.5913
26901.4931
54935.5977
-29911.0651
89571.9655
92208.94
84391.7977
110515.8281
59247.7581
-39211.1596
-94185.974
35342.862
-85250.18889
-41088.3289
97012.9703
-136127.2856
140987.9766
-161015.6141
12981.7542
-61075.4904
6173.6707
-8832.7607
-36229.62
39590.8088
85827.563
90784.6451
28666.3362
-89084.871
40773.6477
37976.251
6799.1685
-3077.6989
-43270.83981
43792.3367
163339.8349
70633.44743
141332.52432
-9477.3016
-72780.2327
-54882.8728
-34176.5159
142544.08
77982.9136
-76532.912
-46119.0239
-110658.5513
153191.9323
-67463.7948
8355.5746
-20218.826
43777.76579
-2214.437
-97976.7189
53824.0357
76131.3046
-111344.6672
61418.0739
77219.053
61073.9297
-80264.00236
-54917.2534
-8845.1474
-12673.4237
49295.764
45523.6517
45601.9307
-34732.3286
6264.5331
73318.5179
153320.08109
106816.8365
34998.1468
58695.65
58600.2679
-39110.6742
132812.0937
-517.6346
15595.25179
131332.35776
-35630.2271
-58389.1302
-38927.214
16582.4608
-2239.5663
4870.6136
39907.6442
46556.2163
-17910.944
66309.513
154327.7837
128164.2968
35153.6337
-36528.415
-39033.55635
134124.7297
106653.0746
7596.7664
-42111.035
7754.5895
-35407.7415
71497.0661
21476.59835
-70530.0295
438.5178
4419.3171
-24500.9689
-6103.0618
33149.1162
102117.48428
44880.726087
10479.9483
37126.3947
69651.044
-15498.9353
5043.5755
64689.604
-11243.543
79059.439
12429.0784
-32746.2314
93643.48016
-11888.093
89936.2378
35621.0188
-95291.15175
71682.77
12514.3242
-33149.2527
-78719.4904
28038.8471
10209.768
49064.3348
-28834.6708
-47361.2419
181756.011
-53613.9421
29184.7412
-106834.01716
-88489.3117
-84.299
41196.6659
59147.86217
-75148.1722
14431.0276
-84378.1444
34456.809
83252.9243
123667.326
14250.6445
-48441.7957
-146624.1036
-74992.9968
2191.4442
84884.7774
-21047.4885
12739.1494
118224.66971
-12617.2318
43837.9645
-96085.5037
-3607.8463
-10829.965
-87876.3016
35926.0189
114289.4856
-27929.556
9295.674
24371.3236
43427.1505
57171.336
-4980.5221
-58472.125
-12863.44
-55677.66011
1685.2425
-11411.3352
-68000.1465
-5387.7511
60485.8109
-86252.4167
-115243.5989
37293.9899
-53775.435
-112370.5831
155349.029
-128069.4765
54085.94788
61709.384
-63249.2168
-31345.08905
75717.4417
61971.948
-54224.4338
70882.6779
56357.5636
13094.725
4822.403
-12242.3266
20151.3057
-48252.47034
62232.285
-28944.45285
6720.258
-96650.9053
10655.5614
-25603.60207
-71895.543
-181941.411
-101612.2211
-24196.9428
-134042.87343
96968.48105
-89445.9352
146798.4358
19195.3744
111161.38062
33068.0534
-45212.6833
-53515.0295
-14798.0079
-8856.9376
-10008.0023
57008.3692
-6476.6678
24517.7586
149901.831
52371.4737
46191.4
-22645.8521
5237.4229
100301.5133
121965.0077
-30632.936
104741.3282
57172.039
-60977.621
67379.3996
26412.10763
72836.894
40424.2733
36539.9899
-22435.9584
40119.5173
68654.5217
93818.211
88951.1559
68464.632
45674.8658
-15565.45725
-124183.0951
-66851.3797
124082.9757
-81475.0286
17405.6804
26379.2481
-106980.36008
-34752.8754
-12422.1716
-6353.7185
150865.2606
-35868.9233
1100.51625
100696.9027
69782.51171
-93540.0814
-10276.1465
42367.3307
-45310.5763
152610.7326
128181.979
13593.6374
18331.01
91379.3579
86466.4475
-3923.0089
-17499.2195
-25710.6154
52605.5044
16885.5189
27581.3129
-60151.6974
38878.19
-51023.495
48198.375
59447.1034
49621.3646
38196.9437
-31530.1816
149461.3574
-1280.5398
-81071.73271
-50806.512
23527.2197
19185.7735
82628.7041
-23197.3736
67274.1988
99229.0456
-58155.4341
-21577.8671
-51521.5384
-24461.10919
14883.7115
144582.2607
2284.7437
70187.3315
-18771.03664
57064.113
112032.8408
107176.7578
32591.21032
-13436.5145
-46886.9203
115117.478
161078.5459
-103912.859
112262.4273
37848.9948
-107007.88788
6683.6998
-25700.048
-97713.9992
43462.997
17308.713
41876.9365
1441.743
-43025.80814
-86308.592
60037.0969
65508.688
-9244.17
16386.95666
-24163.0603
94952.4921
-406.1338
-99440.4165
-61404.5643
30662.1523
41667.830914
-285.7428
47646.8858
52258.9459
-29137.6425
58397.6286
78344.9427
11777.3368
101623.1278
-26972.88812
-16927.7487
25023.997
-47142.6771
75787.3286
-83490.8611
-65860.2351
-62109.3042
16180.2545
30754.5517
117792.54
51785.029
-22845.2977
-50999.891
38227.8062
77390.732
-62142.185
6836.2331
-7222.175
-37013.642
-121198.635
40358.046
-5520.3229
80697.5906
-82877.0313
134679.77167
-145725.2722
-16687.2346
-3468.967
25401.638458
66105.6867
56807.3647
-67803.947
-15168.25547
60512.239
-110228.36302
23591.7424
-16228.8522
-5548.64704
-35079.5635
2296.4853
-8595.8484
-45604.6173
-13037.1726
-84647.2628
63292.193
-109492.22888
41400.646138
-162952.03166
73090.5111
74000.5906
-43364.5436
78052.3116
-41947.6775
133692.5286
10089.626
-167280.2146
-33233.3778
53429.634
-36299.9447
133724.007
-38991.23129
33749.831
83641.4773
40341.985
11190.7543
51204.462
65735.5942
-34065.95053
-9799.546
17048.09281
107514.2994
64805.3819
191416.2669
155147.234
-128904.8516
-106999.7964
-24003.9993
12534.832
60845.39405
-16501.2866
-50279.8179
-45450.1628
-54292.1716
105039.00763
103021.7237
32906.8
-7225.9791
30862.6259
88121.5838
96678.615
17736.3761
128882.6916
45918.9112
3352.51713
47164.1732
-2171.0898
-109601.846
24492.4397
63047.2268
40418.9804
-21264.661
-49393.33577
90868.6713
-3270.11702
146174.2031
42125.382
70313.468
92844.962
74191.452
55181.044
132164.7236
211.74316
-100068.2409
-9629.675
-35489.40812
37989.3174
112720.8776
218745.59
24868.98379
-24583.8702
-48576.8043
72847.805
5779.3468
-27722.7963
-21463.5102
-17794.398
81497.0241
-150.1928
51464.3132
94845.62604
