8462.4305
-56004.537
-4041.862
-46343.4077
-7417.8813
-26429.3886
-92300.4197
16080.4761
-73612.892
-27685.2496
52958.991
-41831.0629
-119006.3596
61033.1344
-18824.98861
-59078.8384
-111485.9116
-23356.0212
-49338.427
-33621.51486
-126473.381
-142330.1462
-63991.3096
-25727.377
18613.0919
23241.4979
-16078.0924
-167190.3424
-50246.088
-59284.1039
-69346.7357
-67234.587
26999.2388
12310.059
-22407.891
79755.8008
70030.8369
20065.1884
-17284.3667
37091.0343
84863.4177
38797.1638
-121720.3988
88154.7806
67159.56731
37351.44082
-11683.2555
-132698.39697
-19481.8731
17574.475
-30853.1775
16678.874
-10700.72156
21575.799
61554.9265
23746.5498
-109953.2739
26640.5536
-81527.5363
-141948.177433
-47422.2871
-74591.8617
10168.3604
-172180.8022
17154.97458
82815.5612
-122516.205
-35357.8307
-39409.83193
20206.917
-147172.5754
-35343.15997
27948.823
95217.7254
57357.32137
-68217.9118
45842.9514
-5195.5867
-69134.5298
-7773.1138
-9980.18329
82330.3363
-32935.933
212171.9068
4055.4079
-58353.6871
116876.885
-54708.0422
-32608.8616
59621.9458
1299.022
-68826.022
-123194.6789
-47982.1555
-66628.0239
-31450.6336
-6500.8102
134855.805
16868.6449
-150828.7599
4580.5934
-108077.15
-104535.9182
-84203.5599
39122.9576
41415.674
87733.6633
-26528.7336
13641.2679
-7656.1029
-28176.59
62333.0454
110077.117742
-52500.3987
-46939.0677
8641.6688
-5705.48995
-99337.0258
6832.193
-17626.5209
-95304.1443
-224691.8536
-59041.34681
2762.7413
-52136.2714
-26470.716
166244.36559
52822.693
-308.6588
157547.1914
-28024.807
25962.9763
-129527.4661
-74880.3057
-170776.1003
-63767.2159
66078.4981
39578.356
-16528.91508
-11754.3602
58854.19135
106314.84256
-47129.0496
27123.81
-78612.7312
28244.104
131396.8565
140021.6835
-71587.2719
26520.9833
102528.1613
-41350.0061
-138359.0894
-12651.6541
16809.1379
-45474.183
-70788.234
107016.18095
-12967.5442
66723.2062
81874.427
95465.75
-42157.9954
-64805.1438
-38992.5125
129396.3212
-21126.9346
39339.863
-29924.944
-99113.0967
69025.515
-37788.4679
79108.097
-24064.5426
40985.1721
-33959.64961
39444.4324
-44098.4155
76716.962
-8526.156
65840.10412
-65749.7749
103551.0965
-53969.773
141906.3117
39390.9308
60528.595
-10023.97002
59382.471
50084.4895
3147.4839
58387.57
-9097.3466
56881.9274
15889.2209
27885.7104
-54925.1233
42229.8196
-13718.2551
-47843.03019
38540.207
-54809.7091
-13212.0755
-148282.6576
46831.9544
-192349.585
-31415.7089
89816.8764
56045.9728
-101536.1099
-10806.0508
88571.3205
66253.13
-18860.014
-20685.265
157415.81648
-107918.80576
33523.0411
-38181.347
79106.1513
-167915.219
108997.0844
132586.2369
-71822.6283
-8421.0824
24103.8857
-7529.0145
503.0817
29043.7133
-46247.246
-41394.698
70527.8049
-17577.9691
4385.1443
98689.2501
-43755.6289
15059.2601
64634.0862
39492.7264
100031.2807
47315.8352
96792.1927
18325.2047
-69843.896
-38415.5654
-27854.741
-6168.7625
-10828.33
-15745.654
-54474.276
-16615.9185
-85728.7265
-30583.3846
-56251.1164
-57134.464
-82879.703
200405.70539
-11487.4526
-17729.18296
-1796.843
-51018.77772
-149148.8932
2823.4801
-56554.0374
51372.2397
63138.3044
106813.862
7277.2394
-664.9803
-28382.854
5347.843
-97652.915
17876.7967
-44389.6523
-62068.4871
-72569.3897
171316.47157
79738.211
28459.0231
-45619.2218
-41016.547
-35714.3987
-58918.62673
-37276.1077
-73383.0298
113865.5298
-13957.1151
85829.7718
14722.63539
21747.6182
-55637.2401
-72235.921
-59774.78
96429.425
-36398.7146
200628.0504
36683.0752
-62115.2575
-46359.7964
55523.2447
6626.2402
-6896.667
28368.3826
9871.55533
54653.1395
52854.33977
-28991.798
-4575.23544
26584.932
9327.438
-22702.7674
-8888.7806
58351.1198
28812.2164
28013.5
-28968.31119
-40824.8348
11150.01515
-32338.9914
5411.025
29634.39884
-99169.3763
3997.714
34535.4822
-12293.1011
35292.3688
-53255.38922
22881.2384
-20419.776
-39251.1434
-35499.4128
75930.152
13125.7786
-23397.6706
-27657.91836
40684.6506
-1423.0267
-867.228
46278.7127
32607.773
65545.7642
97401.2473
68036.1495
-22440.3174
89481.3087
55635.5954
115843.078
22327.624
22159.99
-20937.0481
-17968.396
-53537.7507
52000.23804
-53753.539
-2058.7354
34800.3443
50725.592
-89855.8373
10342.5159
-37275.0668
67171.2782
35102.2844
-135002.7835
9374.867
34061.91825
102758.430298
23730.44916
-131328.414
59211.9374
24479.383
48709.8724
13199.2256
49201.8829
-21536.2045
-57593.4749
92779.2534
-84835.7435
-116328.2483
-176083.1
113703.29791
-100432.7257
-6806.5952
2830.6353
38152.40315
-72371.71931
229582.5128
34638.6373
28526.492
142945.01773
101899.152
-143308.7381
-71611.2444
-100166.0048
84899.89274
59883.9118
-1498.70216
10609.7861
87690.1695
-39609.1625
17442.168
-4462.8482
15706.8941
-669.131
-12042.95
129360.8228
-61670.659
-2561.6146
-85807.009
-26866.0071
-21612.553
-20040.3133
107448.6244
-81388.921
-33780.1031
5006.461397
-49269.2023
143903.61483
-22640.629
52471.0267
52765.1242
-166707.8815
-79956.3599
14443.32683
95448.7863
-79401.037
-41022.8827
13126.5274
-51805.0522
77445.7374
75495.0798
-42036.0971
-31064.7817
1917.337793
12642.470025
75617.0239
-52030.73293
108871.0547
30575.8688
48652.884
113867.158
9199.4852
-6630.5554
6467.8682
-163366.5139
111800.03132
10889.6962
-58087.8781
-5136.0639
115681.1392
-51284.2528
21027.94381
-48764.9081
158795.6454
23207.8596
56269.12035
4691.055
82151.712
118170.91186
-103098.7613
5391.9672
-69392.6768
-47095.3193
-69943.4243
37021.2373
-201166.1222
65531.002
67695.810499
66954.145
7727.909
-110985.07515
29331.77287
115544.5799
-83934.7688
66078.6919
-71570.2418
-140971.391
-63473.3882
96833.1268
-41447.7616
8062.323732
-51865.6022
21444.409
-4261.444
-30953.7936
-27663.5063
-94408.3581
-93514.0389
-105544.71458
85975.7862
-4331.7141
100888.2191
3687.87134
-12111.48766
-138324.8701
1866.4536
-8861.6702
-28421.74
-11759.5648
-58898.024
-60245.2882
-7085.6866
50546.6466
-73975.711
79444.10295
69873.9081
13852.951
-7282.013
-65173.6996
6165.7373
179369.5134
-43310.46652
35029.94556
71353.9426
-54829.2872
42445.2609
50158.6289
18752.986
-1142.2003
23114.621
-12259.736
19462.209
60985.7018
72796.4224
-86996.232
-22151.1074
110051.401
87275.0039
31371.7152
21471.786
-10369.2266
-22949.7186
-28966.02722
-66509.6914
646.7732
-92936.1277
-9211.975
-57589.032
198513.8853
96068.58777
-28149.2102
-22387.13846
121500.81608
-64594.5525
19643.2314
-21047.0113
313328.3024
67395.716
-67764.62
-44858.0912
37239.4149
