31021877131.9
26913662098.2
22372638666.0
25092309562.4
20166752397.4
31758564380.6
27000055872.4
11812899981.2
31576804819.4
46289976930.6
21908459753.0
30831778237.0
20417805784.0
44584417988.6
27871372531.4
39251867030.0
26605620791.6
29965243410.0
19576153095.8
23785884635.5
36070682030.4
37205914526.0
30009860359.1
49103985274.4
26317086481.4
38606492218.4
38124307135.8
32276553630.4
16189502486.0
48766100032.0
44609627129.4
33019739349.4
28110755940.7
38371798638.2
28095402877.4
18561385503.8
43989095060.0
20572641705.8
13348740865.1
20720861828.0
27759193048.0
25663821435.4
35910730216.6
30995171816.2
36033594212.8
31142452994.6
17716274747.4
45292608095.6
23262913709.8
30357348416.8
26321638642.8
19660516608.2
18424258889.8
35262364564.4
33460544535.4
31479816000.6
41554079958.0
45474034912.8
46908703927.1
14351684330.8
34206445319.6
35680035432.2
24027202249.2
18429544498.6
30620342008.6
23531603762.0
18097882650.6
19021190156.3
34460849538.6
37788031207.8
30174329774.8
30489144584.6
35441919189.6
29010986442.2
37037839671.8
27092292120.2
36670567402.0
28081129678.0
26244155658.8
24074427826.0
32974760268.2
25702854384.2
26273322955.0
27764814577.7
30000975616.2
30751212388.6
21506339356.3
19560343865.8
20893514242.8
24162910628.8
14543569720.9
30336658708.0
47365809368.0
25584818088.2
16985338921.6
24743466713.2
29666832286.0
21204447318.4
25030989209.8
27062391446.4
28055758476.8
34032121887.2
36929007774.6
36761214860.0
37908360507.2
20435126971.4
28413390380.0
36105123155.0
28402863099.0
24137227946.0
18694349828.8
26580049140.4
19938271179.6
47820970583.4
36086834509.8
23415881501.8
28368061438.0
24868488259.8
30551636571.8
19935533466.1
40251922853.4
35008206877.4
35404023802.4
38609614567.3
46464167089.2
29453965117.4
33728675787.2
33341476665.2
30113667557.4
31915953764.8
26073849108.5
30942039396.0
42363252764.4
29659573877.0
33620678406.0
29672867989.2
22705662109.4
27815815464.0
22370660561.6
33203039706.2
34486149662.2
24922743229.9
25999926610.0
36854341566.0
17111214106.4
29378194456.0
36260750024.0
24455791586.4
25839983542.6
20955310793.7
5803605530.4
27051382325.7
38372465557.4
14266374094.8
28378952305.3
23291459833.4
37335278980.0
26881395610.0
33079067176.4
32529366011.2
23229477349.2
29473401047.2
26064982329.4
36500270099.2
51283654100.0
28625069886.0
23892650943.8
16943201116.6
34020828364.5
26261795182.2
26245649370.4
18237475260.4
41981056866.6
30329691362.0
30572818041.2
26232200022.0
38568740560.0
37517960882.0
35333470258.5
28778420354.2
26026962727.6
26030241101.0
20483745142.2
19325179791.0
46205236513.2
23566722543.5
16255606446.4
38020584604.1
25086639569.7
31489189985.2
34747546322.0
39990075305.8
30468036142.6
32881361212.6
19433243765.6
44901452653.1
36397589869.2
26967148213.2
30514998408.2
28451413460.0
34824724031.6
28086643778.2
42349734721.3
24123799298.0
33528211388.0
37576791214.4
24204915639.0
38256935257.6
36414206490.2
25229336678.2
30243838843.4
22563714355.4
39411866085.6
6820446890.6
33557910127.6
30388265884.0
34618094586.4
49171642965.2
42342549767.8
26265438644.0
18465748606.4
28773790468.0
37521430559.0
30924369085.0
23144038552.1
23999425899.2
36624665230.5
24091652441.2
25683866793.6
18193072930.4
31908371237.2
19481089911.6
38941990896.2
27621943224.2
32458620564.0
27315296915.8
34061905415.0
25862480522.0
30664185424.0
27135945949.6
26029064701.6
23737249781.2
32491048894.5
29863848522.0
27929245804.2
18469150118.4
28400470559.2
22470296108.0
40474011245.2
22138668829.6
33117770308.4
33643255163.6
24577578743.6
33381298920.2
19937898727.7
37262059574.0
21763044917.4
37560584858.0
44575639072.3
19068739662.6
24892115778.0
27764907116.0
24127056512.0
35433686055.1
30703978731.8
33485967657.2
22608943650.0
25430465568.0
44184955543.7
32482268610.0
24287971150.4
25224247325.7
22164012026.0
40526737146.2
33972436712.0
22270636156.4
27517570582.4
31228433081.6
18978827645.6
38762496979.6
27823280629.4
26041639166.0
26620326844.0
19617226578.5
29546551232.1
25166072822.0
15908318574.0
18450472377.8
39601470668.0
23173414401.0
39294897714.0
13464601718.6
23507483922.4
33195017763.0
30111359555.0
32582862985.8
18504193393.6
20839653628.9
31116000940.0
32469783572.2
25932779791.6
40264449776.6
17248630794.7
23459065771.7
30517533969.8
27947934496.0
31907598679.6
25294642754.0
30741015690.4
31439184840.4
29278365560.2
33731056309.5
30197178730.5
43790943832.7
32752715582.0
30612190450.0
32172717934.4
33098611952.4
30829448088.0
39430823421.0
17813977127.2
33239929049.2
24371119812.3
35985670816.0
19182647865.8
21494003301.5
26396502198.4
36566150245.4
39751314634.8
22879397586.0
36553726750.0
30560526379.4
21341408263.4
36713041912.8
30484693769.2
37672994340.0
43530482495.8
26865523132.8
29974019547.4
27478243927.0
34671683594.6
17597584457.2
45291800026.0
43258762179.2
23840502209.7
18977907118.8
33745831924.9
29604757119.8
27637292042.0
27435512128.0
39403786259.2
22287303628.6
25686603471.6
21974896019.8
17099581672.2
39082252049.8
21842579655.3
33850946202.2
35370663992.8
29179747080.6
29995306685.0
26310956082.8
25535634910.0
27444182376.0
28004717651.0
34998843268.0
32054132142.6
26232241950.2
20584264682.0
32482809974.0
40313722596.0
25250152415.6
21975602545.0
26688444273.6
35714278789.0
27281518408.6
51117625202.4
46183151839.4
48110645898.4
27736398751.4
36489307511.2
20178175532.6
29430136162.0
28632479014.6
21654015594.4
31437755224.6
24896237767.8
24978453706.2
29038245232.6
25842113867.0
21064926930.4
15805004461.6
40992917273.0
25953644593.8
38340644037.2
43448039002.6
48508310904.2
26302400616.2
37904129647.6
42211057544.4
40056551178.0
43695559814.4
20997253800.4
42787037420.0
27530670768.4
30502891789.6
51571443534.6
53578101294.2
37019097339.4
29947988875.6
34239938067.4
43181846452.0
35450557669.0
33633337157.6
33080249914.2
30728877423.6
24137110000.8
49111076002.0
23714039182.2
36491796879.8
34454991596.0
23002337671.8
31938855167.0
42160241652.8
31664007866.2
37563676843.2
27650160740.0
24216485042.8
40223176865.6
25829118269.4
20023018753.4
38445254224.6
36897280972.4
26078300857.6
25322467507.6
16318223780.0
28997208476.4
27946281114.0
31140892226.6
25438884246.0
42917224804.2
16861251748.2
24481689864.6
39198576898.0
30785930424.6
30052633572.4
20363614800.8
22759467546.0
35785368525.0
37913037070.4
37227174069.5
18763956266.2
37768488140.4
49362045654.0
25138725393.9
25363288416.0
44662770705.7
43466901648.8
18959571163.6
28432490808.0
42771500451.8
34675645084.2
36957248811.3
19548909516.0
29643910057.0
21180404386.8
33781022961.2
24495903471.1
32875451690.5
10371617794.6
32706075137.0
23683114371.8
29851033406.6
21818895664.0
22488565693.2
31942474905.0
19805740969.6
40691962368.8
23634804998.4
26627268414.3
23577772634.0
40505430376.6
24219264756.4
33555635913.4
34668692992.6
23230512337.2
34350232867.4
48610855998.0
33081750012.0
33515302396.8
26910895325.6
16749507414.6
24440231039.4
35169150456.0
39617557236.4
34254651146.8
18867051392.2
36769331540.0
39490228469.8
29821214167.4
25632262830.5
39591769097.6
30448213072.0
32335398733.4
36362722839.9
25453214255.6
18823257489.2
29788602118.0
24919451187.6
25349079105.5
34044577437.8
25676210631.0
25029730619.6
29492664999.4
27942986921.2
29087984206.4
20661500474.0
16848068079.3
34391904939.8
34387738176.8
26231290572.0
20691385328.2
43112922470.0
22428121764.0
30632786377.2
33915811607.6
16641493269.0
36795391148.8
28527910062.6
34295806479.2
26313948528.8
23000027714.2
33817403153.4
22277611229.4
22517031518.0
34955662191.2
47963865338.0
36346175051.6
46102738639.6
24981182301.8
33299770577.6
30695101808.0
32445118595.5
15870248713.2
32421929903.3
32102695995.2
21695097396.3
29988282663.0
26170831126.0
29106882688.0
23233777081.6
20031774530.0
30384139899.0
24945138393.6
36610444360.6
29177966623.0
31139525743.2
25146067048.0
26146235084.0
27725039543.6
37419493043.2
34863188092.6
20502829808.0
31491292930.4
14389279044.4
42097655690.0
28525360231.8
28394769905.8
23521298276.0
35261537297.8
25156549150.0
24895226870.0
32662906210.0
26850052005.2
21564743271.2
27389564501.6
28022451916.4
30345783428.6
30664827598.2
33209746291.0
29286615441.6
34723258014.4
29132816651.6
16230972198.0
27055490783.6
20933169501.0
26032539028.6
26657893719.4
27606486607.4
34621877139.9
33644771162.4
27199683089.6
28157577808.0
38285228808.4
37450620710.0
31410487860.8
30162514621.3
23920084572.6
28121457782.2
33347209730.6
31010418352.2
28244537642.0
51112646208.8
19975607976.0
28288673731.0
19986233409.4
23903665009.4
32555401848.6
35549468885.6
31441497116.2
39371156664.8
38798240604.4
31849039767.4
33819827272.0
31139121274.9
34171189542.0
24563308943.8
26065331778.7
26551202709.8
25256742521.8
19101819883.3
31076420899.0
30122351157.3
29145227480.2
22526622332.3
15484542516.0
27171984952.2
39318050504.8
27954312818.9
31993986609.4
36815905235.4
21241365369.6
27346064217.8
42412782181.4
26934440569.6
38022486855.2
23100305947.9
26326201531.7
32401927044.4
20572742358.6
