-1081.48
1023.27
1643.01
1020.03
271.78
-283.55
-33.232
64.2695
-1275.2
969.517
-344.115
-1213.35
-707.285
319.294
799.907
-1000.26
784.09
-777.084
-580.655
-3736.26
-791.34
-824.429
-2605.37
-3163.26
-3381.63
-1394.31
-611.693
-931.445
-1914.22
61.3203
492.616
1937.4
5680.04
1354.12
1049.28
-2982.73
-1293.59
1243.45
1965.47
156.58
8342.92
-594.825
289.699
2181.79
590.515
2079.99
3773.91
-105.254
-2830.96
618.506
-556.376
1975.52
648.994
-4838.27
3422.96
-4476.56
-165.65
-504.596
1128.38
5789.54
225.341
2560.18
3439.39
-18.3352
-1507.97
674.757
295.915
-1049.52
375.903
706.138
-10670.8
-15182.2
-2640.86
-2392.38
-2492.16
806.6
-18.002
222.401
-1700.14
-1223.14
2921.73
861.493
1173.53
-41.9414
-603.879
659.121
-2761.33
-3255.99
659.462
778.428
1587.82
-395.456
-1608.1
-3599.57
1665.06
-1449.66
-648.314
-3098.52
-6395.58
-11989.5
3347.99
2461.75
7848.06
661.551
-1502.25
-3184.82
-386.202
2406.48
3386.57
-602.439
-2996.49
-12610.9
3663.57
-1779.11
-749.428
-1900.91
-1323.49
-4201.16
-6709.99
1315.43
3674.4
5934.85
3020.75
1508.65
-523.977
-4403.1
844.915
433.516
-413.695
-696.307
1125.63
672.762
3643.92
6328.25
645.493
668.551
-3222.7
-896.16
-615.822
3330.63
1832.54
385.933
634.019
-2162.55
-1972.06
-2177.16
5754.04
2300.5
2235.26
-471.448
-311.578
-1863.91
-508.379
401.768
-4050.85
-4100.59
-7111.61
-1461.34
13722.3
5990.52
-8245.86
-5708.27
2174.49
-4928.89
1299.01
-460.328
-362.916
301.86
169.888
-649.973
5031.87
-1317.64
-169.408
127.652
-240.267
8.30692
1129.59
-896.402
-2272.15
-1923.31
1202.05
1788.49
-768.49
6669.87
8011.11
885.324
4353.32
-1768.47
69.3257
-2064.35
1416.7
546.946
-148.184
166.278
-3272.6
-1258.25
-420.149
317.707
-147.954
221.372
1009.67
-2396.79
-7408.16
-10073.2
-1525.55
-523.961
-873.721
699.067
3098.85
10011
4582.43
5784.74
-618.547
538.061
-21.2767
2086.26
14398.7
3226.38
3793.95
13491
12964.7
535.455
1590.48
3686.72
3314.18
-209.066
4948.84
254.795
-1491.42
3628.01
1561.45
1226.08
4148.67
2688.65
6911.88
1706.97
-626.431
-41.4178
-2890.3
-949.813
-3818.98
872.282
2948.44
4535.59
-2416.92
5391.95
-6943.18
-2529.47
855.324
-32.631
-1161.13
-2223.73
-5763.57
-10703.3
4100.31
-74.7771
480.304
2029.88
-2856.93
-6213.56
-724.475
3295.3
5935.87
2279.25
6375.96
3654.65
-1734.15
-790.339
-327.618
-737.739
1590.88
1335.5
1706.87
-298.316
-1321.35
-4837.13
-502.926
610.896
1223.05
-195.528
-1089.19
563.498
1308.64
-408.952
-1385.11
-8215.28
3364.79
5542.26
2182.95
902.328
3642.44
1948.57
-876.614
-1091.18
-1383.84
-4382.08
-1877.2
326.464
-1721.81
-6181.5
-72.3912
-581.59
-4488.99
-597.14
1854.53
-2374.41
1004.57
-1965.15
-2989.74
-1626.09
1662.76
-503.766
-161.192
4496.72
-3828.69
63.4765
726.464
5292.19
-2214.08
-5251.8
1532.17
-3307.84
5306.89
2151.6
6190.26
3098.72
506.791
1266.28
708.125
-633.307
707.212
-1591.7
3130.56
1749.27
2606.3
-76.0514
-1668.4
-1175.82
-1545.49
-2769.18
474.81
-804.003
2217.45
7916.86
3231.58
-3317.27
321.183
-1594.53
-2965.46
-2422.62
-2533.78
-391.421
-3610.73
-3051.45
-2940.76
-1978.16
734.338
-751.81
1850.3
760.51
608.062
4061.34
2317.79
10064.3
4148.41
2618.37
4461.57
-3043.49
-1966.71
-831.346
540.689
-1573.77
2786.48
-2231.1
1142.68
423.84
222.436
729.272
-210.359
-7.46711
663.953
-1113.92
-507.793
-2524.64
-92.4797
460.311
564.455
948.32
-10731.3
-2987.95
-349.679
116.279
-1631.06
3056.14
-5273.16
1926.24
1606.43
2467.41
-2048.52
-4522.57
-6929.5
-1498.58
-1022.63
5056.15
-2815.33
-5643.41
-1159.37
-5313.45
-9238.74
-10819.2
2272.3
2343.38
-2384.02
3316.02
1889.25
934.798
-189.844
-1663.25
-186.879
2662.04
-339.459
-73.8458
-1199.6
-1968.39
-53.08
79.4112
2365.35
5904.8
61.4804
4914.82
7131.15
3168.05
6111.35
198.313
10094.7
638.846
-2205.82
-7255.11
378.153
-658.076
-176.877
-2895.52
-2.28325
572.68
-2054.98
1351.9
1199.9
13.4291
-425.518
582.404
-922.96
761.514
-463.047
88.6152
1649.03
-5469.08
-2892.57
-8989.45
1697.23
-3759.96
-1671.15
-3767.47
-3062.43
-1446.92
-741.142
357.754
1969
2885.06
1426.15
11.7258
2208.99
1528.67
-3419.45
707.708
147.769
658.352
-1554.62
-16.952
-2905.54
3241.82
6270.68
513.102
-5855.68
-1235.72
3849.94
136.65
888.479
-2861.13
2032.58
195.558
-1633.43
3161.56
-1264.66
-1180.18
1029.12
2494.52
2093.15
-1563.19
-30.1885
-2772.88
-2038.87
-4172.9
1949.99
1509.4
3279.74
-1703.48
289.554
57.1122
8867.51
10437.9
750.101
5314.61
6323.2
-122.417
367.975
268.696
1049.4
-491.486
3692.58
1706.39
-817.499
-302.563
-1133.16
1995.91
-1733.97
3221.86
1576.39
1974.45
-7166.15
-1460.86
-3560.98
-2359.88
-2865.92
1272.84
733.049
-1665.95
471.192
-518.542
4489.69
8202.24
1760.87
-3297.52
-965.233
-2152.57
-5944.66
-2694.37
-429.503
127.392
2054.84
2251.54
291.395
3567.11
1602.8
8967.3
3480.82
2592.83
5419.65
6412.22
8638.19
-3297.09
-8888.43
-7122.81
474.029
808.379
3123.36
1256.09
1160.83
-887.84
-1198.38
-3325.85
-9014.08
-5587.31
-4874.75
-2770.89
-640.204
-2090.5
-2587.18
-3738.05
488.249
-1208.52
5251.98
4857.45
4214.84
293.203
-4247.81
2806.08
-172.797
-385.219
859.757
8277.89
2518.09
2091.89
473.301
1206.1
-13.8295
256.96
426.104
2651.91
522.627
762.768
-894.673
1014.68
-1421.62
335.689
-5611.83
-362.239
1357.11
-919.708
-823.434
-6472.63
229.03
-2312.44
-1051.66
-3085.01
67.328
1166.84
-1233.82
-4935.4
6439.68
-219.335
128.854
-2976.16
-4490.77
150.307
-527.858
-4773.78
3604.49
7491.22
1666.61
4832.65
10197.3
1893.66
814.466
1683.2
4980.5
6293.96
4658.48
9512.39
-40.7799
5325.01
4632.21
1404.76
-1237.98
1842.08
-333.308
1203.17
-174.366
-276.531
-497.789
-4306.77
-2086.78
-2417.58
1063.13
-1272.9
2681.83
5329.21
-1670.4
-587.565
1089.81
1401.18
7966.38
-759.996
-4567.81
504.937
720.268
466.834
42.6985
3546.2
-7.94448
-171.37
-1857.62
239.14
-604.881
-3727.9
294.058
511.764
3364.14
-2506.43
-2110.01
-4533.82
5537.22
-1410.98
398.871
7041.66
2889.89
9662.31
18635.1
-743.254
-713.527
-653.18
-2064.93
1228.02
-1310.83
227.338
1381.36
-384.887
357.885
-2588.95
-1110.41
-6416.01
-1696.97
-3974.06
-6664.85
-5981.8
-1833.92
-9930.51
-2824.39
-1098.04
-4172.2
-12706.6
-492.491
5032.79
3652.42
5516.16
4870.07
1416.06
708.755
1261.85
861.235
900.474
-382.435
-822.166
209.322
-889.24
-236.292
4904.06
4319.37
984.677
1004.15
4275.14
12671.8
10226.1
9511.93
-8379.88
-8665.89
391.661
-5025.05
-1736.02
-821.33
-1415.5
-2116.79
2059.69
2084.75
-380.517
117.537
-2102.67
1904.2
-658.405
-461.482
116.127
3112.72
-145.954
-662.6
-981.284
299.824
1122.8
173.996
2727.04
-535.149
230.324
-151.862
1744.8
-2026.44
-91.0834
1743.97
3550.6
2629.42
7182.13
892.671
-6642.52
94.9406
-258.966
426.728
2510.29
-2533.22
-3251.31
-906.083
10250.7
6785.74
12483.3
1764.25
-4310.69
114.758
-640.757
1475.64
5825.16
-474.694
-288.02
-519.196
-2215.07
2098.87
-1156.4
421.319
5847.22
1338.97
395.114
-146.433
-2429.34
1840.08
-762.818
1252.24
947.566
-2572.74
356.185
236.1
-2514.63
822.411
-3812.46
-351.642
487.63
1917.71
-799.878
5.75917
-264.428
296.707
843.87
-1647.37
4032.37
-8914.41
2368.66
-1368.12
-750.798
-4895.7
-6563.57
-1390.59
46.0399
455.74
2036.53
1978.88
-1011.62
478.433
5888.17
680.457
-2747.71
393.479
-2673.59
-1441.55
1794.14
4917.58
5565.48
-546.644
3061.08
7254.48
2315.45
3095.87
25.457
-659.236
180.757
3176.06
2777.32
-373.753
873.02
3517.13
6331.95
6711.52
7470.29
9675.38
3306.47
-3441.38
-4821.78
-2752.69
-244.601
-2618.01
-4728.77
1944.45
-1426.05
-949.196
-377.855
-2561.83
-2392.96
1489.34
-1671.8
-696.033
-4385.4
-2222.39
-2728.41
-1823.71
-584.182
1387.32
456.806
902.862
542.309
2035.02
-2803.74
1042.43
-1217.78
8424.73
6366.28
2836.03
4555.12
-776.53
1957.48
7825.53
2762.96
329.783
-21.788
-712.256
-4219.18
-4692.78
-3639.1
-2835.21
-618.969
1418.22
1326.89
-60.9871
520.307
-1911.58
-1460.43
-3021.26
-2328.99
-4892.14
633.84
1899.14
-22.9463
5026.37
-1300.57
-795.433
-252.955
2476
3666.72
-1390.43
1202.12
-0.143628
-6087.71
-7450.03
-1609.34
-513.281
2487.34
-963.311
-164.478
-2266.6
-5099.38
926.446
4987.62
-5179.84
1116.93
-1733.16
81.8191
-1838.35
614.888
-2235.46
-325.715
-1520.36
-4846.94
-1720.28
-1224.98
-1097.12
-6409.21
-1226.42
-690.735
-1093.69
146.354
-2660.03
-4974.43
-940.514
-320.667
6944.16
-3139.09
-3412.92
-7.47531
-571.273
-1225.19
2242.34
-1387.55
595.421
-34.9955
3356.97
2530.43
377.724
9397.94
12837.3
10351.7
11098.6
-383.263
-499.867
3019.93
1515.16
4376.69
3993.64
800.639
67.5557
2478.75
-183.043
873.89
-1886.7
1351.43
175.959
948.464
-1936.6
2850.01
1097.05
-22.2577
5413.57
1799.59
-1270.03
-401.199
-699.532
-809.976
-2043.08
-4389.2
-1246.57
-1551.9
3566.14
1394.51
5019.69
-831.698
-595.256
1823.01
-797.044
4226.7
1692.85
909.767
2010.31
831.382
1586.68
520.606
-1026.61
3771.16
1720.14
-1395.81
-1025.79
-1250.86
3873.64
-1415.63
-723.785
-311.522
1794.03
3582.26
-4242.12
-940.23
1638.16
-3346.79
813.436
5821.34
5445.49
3730.73
1639.39
621.857
1604.97
-2536.97
774.515
1872.27
4361.85
7367.15
6928.96
1086.72
15275.1
2282.39
-2256.95
-6117.93
-3512.39
-5096.19
1582
-366.382
303.823
382.351
-1046.17
5103.41
-2154.53
-5616.16
-6259.81
-3838.89
-8981.28
-8350.43
-5725.18
-2240.87
2827.99
2830.95
5672.98
2089.42
2139.41
271.572
-5551.7
1441.34
1145.41
1507.94
2422.28
902.644
-721.31
-138.827
-1176.47
-1826.21
-310.357
-3052.06
3024.74
-3428.91
5024.97
-580.534
-750.325
-2913.48
1413.15
2433.42
-465.726
484.69
-3684.54
2371.1
2767.94
5260.33
11649.9
8090.99
2996.88
1339.2
3391.42
7349.75
4434.13
1079.05
-1511.67
-5494.06
-8528.21
-3475.02
4407.04
1620.75
296.152
-519.247
-2431.27
282.749
-655.787
-1036.88
-4812.9
-525.751
-105.621
1214.27
-1578.72
-1210.25
1430.92
349.074
4877.98
3297.93
-2456.41
410.555
4260.71
804.22
-1018.32
342.585
-3559.52
2855.96
1720.52
-1628.43
-1362.2
-1302.03
13741.7
520.16
219.984
2003.92
-70.9453
-872.638
3280.76
-562.344
310.25
-266.437
-811.749
5135.61
5243.52
-2655.59
1382.61
3660.1
1403.96
18204.2
13266.2
8460.17
1696.5
1331.23
-771.608
236.096
-6442.68
-15503
-3224.62
-4277.82
-3779.64
-728.857
1203.92
75.296
94.27
1408.15
1211.19
63.9524
288.534
-18.9826
-433.969
903.588
2075.98
2982.83
2452.01
2248.13
4074.29
3386.82
3036.58
126.645
4451.3
-275.842
325.608
3508.8
903.834
-2511.36
-3777.86
-1935.23
221.74
1405.5
3155.35
9492.52
12773.3
11554.4
7389.44
-7708.63
-485.891
146.53
1485.42
-767.752
10427.6
7687.38
3088.8
-1989.08
-5020.5
-205.24
-180.903
-1330.34
626.082
-21.8048
900.29
3032.24
-561.627
-473.16
1871.15
-7442.7
-2679.76
1207.9
9379.46
18972.1
2629.22
3454.9
-2133.92
2298.4
-1797.23
1219.3
1653.94
-528.399
-819.083
-3318.87
-541.031
1105.74
-575.547
-278.521
-1842.05
46.7563
530.249
454.228
-44.1201
3556.96
-945.106
-3232.76
-1754.48
-1474.99
-1484.96
518.269
124.075
431.541
-2952.31
-3504.85
-1040.22
260.518
389.754
2549.11
-1059.17
40.8594
1112.44
2886.39
-90.7439
-1864.48
-385.607
86.932
-590.186
-2374.67
-356.492
3751.48
366.81
-2112.62
-1628.56
-1732.36
-945.501
-4538.56
-1869.31
1279.66
1262.15
-46.1811
-440.279
-2033.22
-2417.81
-890.176
192.872
-956.058
4261.73
-2556.41
-1385.65
-409.619
-296.516
-4198.56
-482.598
-2732.02
5434.37
13325.8
10661.1
9381.65
1426.46
1395.59
-9477.44
3025.74
1014.15
-2475.03
1024.56
-556.679
321.039
5450.9
2414.77
969.862
-869.613
-819.567
-294.575
-968.054
-1516.19
446.752
-1774.54
-4806.38
-6789.98
-8176.32
-622.302
2138.11
1438.01
-2784.57
-2080.09
4603.32
2819.48
1150.15
-1106.32
1906.58
-4105.07
-5624.12
143.36
342.964
2398.64
-278.993
-541.271
-911.307
-4093.79
-567.401
656.586
3864.76
-292.525
1018.64
305.38
-1735.18
209.94
1403.65
681.935
-1814.41
-3068.47
4638.74
-2576.91
-1758.88
888.047
41.5118
1029.08
-1841.77
-879.49
557.951
-314.866
-6805.34
-2955.84
-643.3
-3444.51
-656.819
518.584
1660.04
3497.35
10005.4
-1449.33
-127.11
-5364.02
1122.22
7772.55
1702.91
139.077
-318.158
4814.18
6396.5
1383.61
-1657.99
4155.98
7290.84
-706.402
433.188
-3063.14
-886.738
-9530.38
2300.7
-1173.41
402.207
4284.19
-820.538
-3661.62
61.9115
-335.748
-1736.9
92.4986
-2262.41
1445.82
-1965.31
-403.603
2685.23
1603.42
3058.01
-2203.38
3247.69
-3045.29
1533.8
1515.63
-1771.36
734.415
-9217.99
-5491.54
-5515.31
-5856.42
-5518.53
237.126
-9993.88
-255.221
-1657.32
-804.619
2032.31
-996.474
1086.14
-3313.38
-1477.26
-2479.78
2386.65
-2870.27
-4355.68
4265.99
-1537.36
-65.2864
668.201
-263.248
-1712.44
-7434.55
170.762
-3502.55
-2356.03
-6359.25
-1973.76
867.476
-813.406
-2995.57
-3159.88
-959.139
-721.534
-833.457
-535.567
-1659.76
527.621
3486.56
-868.604
-2620.64
-2527.15
-2244.43
-2409.49
-1063.01
-72.9943
-1312.37
-1765.05
-1638.7
7905.05
2594.31
4547.91
447.433
214.776
781.877
368.029
1914.06
4075.38
3811.71
1706.47
307.139
2691.72
7416.94
2570.31
1666.16
64.7261
-169.134
-301.623
2059.76
566.524
-540.078
2279.18
3921.39
-6697.8
-324.233
-462.926
7650.51
12950
10351.2
-369.808
-266.336
-2799.34
2574.93
6798.06
3662.88
-1119.59
-2031.32
-1328.18
2535.83
-453.124
106.566
811.46
1093.24
-2418.25
-7107.91
-4599.4
344.263
1480.08
1405.25
-625.369
1230.55
3871.76
-5295.55
1239.59
-896.5
1190.66
1527.84
-185.224
-4242.54
-201.485
3312.25
3954.53
6140.76
6550.51
374.772
3783.47
46.8306
836.668
-881.054
-409.43
-463.773
-3225.58
944.879
-1383.26
-3094.68
-1180.86
4355.2
-1403.02
2242.06
3282.64
440.286
5102.93
4017.95
5883.62
809.195
1460.71
2966.16
181.171
-1602.96
2569.77
2071.21
4451.39
2279.87
559.465
607.282
-2158.48
-5367.31
-8866.68
-6002.42
-4974.8
-3098.25
-66.5034
564.033
877.815
-6212.24
-246.776
-1516.28
-1541.79
-776.188
-170.538
-891.487
4989.56
6194.51
-1409.64
-2169.79
207.698
300.95
-3151.86
4937.46
1273.86
-3158.87
12.8278
1026.46
3026.89
6722.45
1149.24
3498.14
300.726
-3237.88
4380.3
907.279
734.308
2182.01
485.474
-2659.78
386.769
-3457.79
964.789
1440.33
1108.65
-190.369
-79.1811
-235.06
90.6882
1476.65
-789.462
1027.36
1650.85
3426.22
6229.41
3778.69
4540.85
-1240.96
-4146.21
-2470.11
1089.52
-1758.24
-4090.91
-5307.72
291.354
-2536.4
-4598.19
-678.727
-195.45
1399.65
3535.57
-10376.9
-3385.11
2329.15
3861.67
-3486.64
-3399.57
-2979.08
-5668.83
1577.37
-92.2311
-831.928
2.24555
-1697.76
-285.927
-994.011
5950.81
12383.5
13231.1
9306.78
3677.32
14013.4
2439.34
-3057.56
-1360.99
2411.13
-273.608
-471.382
412.665
4448.73
1992.38
-558.01
255.886
-683.584
-595.005
-2198.27
-1630.23
1555.47
262.31
2175.25
5946.18
5954.28
-2250.9
-3802.94
-686.924
216.671
142.009
2064.56
709.146
-562.599
1595.52
-270.264
892.833
511.627
-556.548
-621.642
2588.82
3737.6
1435.74
921.663
-811.04
-521.739
338.64
-1897.8
2095.9
1916.14
-1107.45
-4260.62
-3070.15
-1752.86
4164.05
7898.28
8367.06
1094.47
-1952.26
1347.5
3675.22
1834.31
647.21
4236.75
8813.21
-3158.28
-7617.28
-8502.71
-11914
-3816.34
5486.74
-424.097
-891.97
-1649.58
4792.67
12120.2
8042.44
9099.11
2049.92
715.741
-5048.87
711.99
18573.5
19322.2
6442.38
4488.12
3141.44
10335.8
4718.64
-916.34
5561.17
3105.88
-4167.75
-926.913
-1273.13
5858.64
-1793.49
-2705.05
-2927.09
-786.696
4557.45
1844.26
5050.64
1020.02
233.031
2976.43
7694.51
-874.317
-1353.67
-1561.88
-984.593
-3005.64
468.396
2746.97
2245.41
855.598
7314.81
14088.9
416.683
1718.42
633.318
-109.36
472.965
-398.884
582.99
871.729
1320.24
-3682.58
-4287.29
4195.92
1604.58
-2535.85
-2924.41
-6964.65
-6.96432
2265.03
2374.99
-1608.32
-1031.18
-961.825
2206.06
6274.15
-562.25
-6628.66
-6608.23
-3089.02
-568.325
674.327
-1897.1
-2244.47
-2183.68
3285.68
479.871
-477.422
-509.595
-5167.31
575.124
1054.77
2431.33
1401.73
323.347
-423.805
-992.324
1736.23
7362.81
13460.5
12394.7
11468.2
7682.32
3194.73
951.382
237.123
-947.524
-6916.55
-4037.62
-4030.74
-3356.42
-3055.6
-51.8698
-1529.96
-1963.45
-486.979
-469.554
1688.11
2553.92
4186.2
9873.76
276.658
-2783.55
3872.05
11934
5093.75
7263.99
-807.316
828.558
-788.22
-2257.86
-327.84
328.22
4781.08
-2691.21
-3016.05
-2026.86
-1192.78
-4359.24
-3218.43
-6695.35
586.939
1732.12
-5528.69
-1751.95
429.402
1753.77
4036.57
1135.57
1375.01
4551.66
1531.13
165.044
-2120.84
2059.22
-988.901
-3388.93
627.148
141.148
7783.56
446.538
-1172.14
127.726
3071.56
-6396.69
-3539.02
-549.742
-635.778
423.42
-5138.89
2818.2
-110.103
-804.645
-4196.69
-4645.12
7690.05
-902.282
-952.934
1187.08
1823.68
-5555.99
-2650.15
310.386
-1017.23
1184.85
-2726.78
4472.88
1454.05
194.943
-2463.9
-7300.15
-360.289
-2615.31
2835.16
1390.77
1901.14
-5445.5
-1386.62
1982.87
-1528.72
-2186.22
3428.25
-4819.46
-3070.49
-5122.44
9510.74
3605.78
1231.38
1589.41
-1290.75
-951.95
-2855.86
-1815.81
299.039
-2466.37
-208.182
-1611.99
-1186.29
156.444
2966.38
-5309.67
-3237.85
978.425
1485.75
3681.22
1208.07
-1059.43
-49.2403
-2925.03
7336.94
1876.44
2110.92
12348.7
12779
5332.86
6112.61
-2281.78
-3771.77
-343.365
996.727
1017.47
181.191
-0.532039
989.587
-3632.26
324.924
-1067.42
2447.49
288.69
-1315.18
-362.483
-6221.14
275.234
-711.8
-6879.19
-7845.12
-1056.53
-6500.46
3764.51
11970.3
7626.75
7328.4
585.829
-1753.28
4393.99
495.275
2086.85
-49.574
-1982.09
-8998.27
-5179.98
-135.928
1684.61
5483.97
2390.25
119.649
-712.838
970.053
1362.27
1781.38
217.314
-1716.98
7376.71
-1344.3
-5961.24
-2120.9
-3694.71
645.261
4230
-520.126
-1009.44
575.114
11.1679
2956.04
6368.1
-1204.37
7747.57
200.235
1321.53
-4410.26
-2654.73
335.995
-1963.88
528.129
553.596
-892.047
-1841.9
335.819
-4967.47
334.772
-2646.07
2900.09
1370.62
-1347.39
-1552.22
575.618
-1144.1
-3160.97
-3214.88
690.847
-2353.16
-4242.35
2562.1
-5555.36
-3193.22
1578.04
-2008.32
624.365
1141.02
-1490
3613.12
-268.43
-422.99
-1567.1
8053.2
2299.12
4188.67
-1478.46
373.705
1748.34
-905.68
-2636.35
-2871.15
378.65
-1611.95
675.242
2747.91
3688.98
-3738.21
2748.41
2241.77
1567.22
2869.49
2325.8
-2240.56
344.969
2167.75
4386.07
15085
1545.96
9.35981
6412.77
5826.49
823.25
9561.69
5300.01
-1833.64
-7115.98
1698.89
-848.302
1177.64
-2117.66
-1043.12
5006.76
4377.14
-3392.87
-7471.23
-2422.68
-12304.3
-2095.43
-1132.1
4311.12
-4449.67
-836.569
2679.06
-449.415
2651.58
1688.66
-508.08
5191.96
1397.64
7473.18
5318.86
11416
2020.79
3048.51
-6136.55
-6894.05
1117.95
-183.89
-371.057
3144.78
-2781.7
307.414
2327.57
-3032.92
-883.4
4431.52
-810.362
-1100.6
-1188.05
1943.26
130.76
-903.94
-1281.89
1241.28
-172.425
114.667
-2335.67
-2575.78
-7663.59
-120.995
-1251.18
2202.96
4450.34
2207.65
720.255
502.184
-600.152
1435.04
-309.196
-161.157
103.639
-213.635
-3158.75
85.8086
486.742
-620.394
1537.92
-1441.95
1798.51
1866.68
397.69
-3752.33
107.466
190.896
1326.56
7645.59
5652.9
-6310.51
-5853.14
-8281.54
-2328.34
1085.83
1476.01
1043.79
-1688.07
-1538.5
-629.38
2555.35
176.283
1369.07
5485.07
5668.95
3207.94
3561.34
-493.937
-1331.94
-8525.16
-4615.86
-13371.2
-1387.25
689.205
3916.01
10664.4
-2190.05
1011.51
2906.7
1470.61
-6247.75
-134.188
-4977.63
2429.64
-1560.15
6564.32
2537.5
551.081
-2677.07
977.005
-1347.78
-68.3963
4976.01
-1516.88
-6799.4
-2886.44
-4329.94
-2328.68
-2783.85
101.068
-5091.42
-4696.31
-2727.35
1620.76
-41.8607
-2089.94
1483.13
6023.2
-89.0225
-864.228
883.729
-4617.29
-640.735
-611.428
1358.1
175.049
868.71
2151.1
-1850.5
3335.26
557.117
2705.69
6846.55
-5037.87
-4352.38
-1200.19
760.01
7215.57
8431.78
-1.63109
757.03
1241.97
-5790.06
3044.96
-298.026
-305.521
1086.03
611.535
-3609.98
556.938
-347.932
32.0011
-161.326
2427.31
542.269
1280.5
2142.69
-2902.7
5483.84
-1060.24
-1661.71
-13415.3
-3100.03
-433.739
-3122.32
264.626
-1189.31
-1268.92
36.1999
1171.39
4474.44
2725.72
3196.62
762.088
3268.22
-596.52
-731.283
352.1
803.446
-1472.07
-413.341
-688.33
874.136
1119.03
4516.4
-5567.59
-7780.12
2886.07
-1907.87
-226.134
4527.81
8494.81
2340.52
952.577
-1600.45
-371.238
1138.8
279.38
782.216
-6528.05
2305.76
2881.75
306.306
562.815
-1416.26
3541.38
3469.17
209.893
1889.21
-7499.67
271.366
-3841.77
3372.86
213.035
1139.09
1730
12539.8
2824.48
-2853.31
-1240.69
142.121
-2054.49
-20.4203
5020.92
9112.56
-963.746
2131.31
-789.812
6162.41
-2383.91
-1774.26
2220.71
814.284
-293.07
-2929.61
-3445.05
211.656
118.656
678.887
-994.929
-6845.85
-4526.44
-0.742148
9766.7
-908.909
-340.393
6880.25
13439.2
15415.1
7786.55
1042.99
1103.92
10164.2
-523.072
-163.239
-392.974
2205.64
-1341.08
-2333.29
-448.034
-11756.9
-1455.19
884.809
-2887.9
6011.81
4210.78
2788.54
-120.634
566.85
539.272
4152.52
3623.85
2412.46
-1761.13
-2686.45
2102.61
1438.12
4179.77
3245.11
34.5357
311.297
3670.14
1006.73
2924.79
334.788
-2115.18
865.411
1071.62
400.32
2607.95
-11.9675
1152.95
241.567
-1129.15
959.495
-5098.28
-8471.99
-5081.83
-1184.7
-3846.71
-2347.3
1969
3895.94
11791.9
3681.51
5666.96
1784.17
93.6514
81.8777
4364.58
476.056
-93.0886
885.453
720.121
-511.366
1977.92
1971.37
-2103.43
-1438.98
1094.33
4649.88
-750.175
-1226.58
-451.746
699.993
1021.87
-913.839
2767.5
-927.623
300.348
-1931.74
463.538
10059
11516.3
924.379
4237.48
-1729.5
2213.82
4716.54
-504.443
-3117.94
805.313
-1503.53
-146.576
-782.801
5024.34
8542.11
-3978.01
-1263.88
1615.11
6305.49
6198.03
-833.107
-330.508
151.764
-2350
-1214.99
1557.07
4221.05
6507.82
1163.14
119.487
1101.2
2034.76
-674.373
-3514.26
-3495.97
4173.43
1342.87
-2187.86
5730.6
9573.32
11592.7
-92.8798
8185.76
-43.9342
-1425.27
563.031
-2771.86
-6115.44
3626.82
-1494.72
-3155.43
-4620.33
-2962.43
826.116
7360.93
3120.39
-7054.11
3796.93
1622.37
-3632.79
502.74
-962.32
-1620.17
-1499.09
-1068.22
-4924.49
1272.3
995.305
-744.994
-949.234
-1869.57
5863.06
-894.992
-2379.24
1714.44
-773.992
86.8204
4497.5
1657.66
-399.317
1400.73
-264.605
314.369
-1136.17
-3161.3
-2765.27
-1225.28
1996.79
-483.56
3589.34
3506.99
1725.96
-1007.71
-3114.65
3303.73
5464.56
9337.89
1207.3
-102.445
-3072.64
-4242.85
2497.91
1368.83
-522.211
154.956
4650.95
125.847
56.7373
289.495
-299.863
2534.79
-5127.3
198.413
246.991
-140.265
-2970.76
-3695.92
53.2055
-3320.06
3841.54
1516.09
845.827
-1503.77
4205.25
-1441.09
3705.16
-4866.2
1834.89
4157.59
-70.659
-609.649
1942.94
852.509
304.92
-1798
138.701
1652.87
11722
11460.5
3462.73
3577.13
4976
1780.14
448.728
1217.18
1475.15
-417.407
6564.3
579.423
497.534
848.452
-1882.83
3474.7
549.619
-2802.6
-1122.31
-782.378
-2348.03
1714.17
-4190.42
-10110.2
-852.009
2187.2
-4413.85
-836.397
-751.523
-2681.26
-423.183
1187.36
1032.36
79.4858
-927.761
-2081.26
1491.15
4189.01
-5563.4
-2608.21
-991.766
-4867.15
348.305
1155.74
2581.19
4466.35
9765.78
2635.52
1634.77
1961.87
1122.54
85.6259
1758
-543.477
-104.024
18.3232
1495.04
2339.52
-2369.75
2261.43
-99.5016
317.487
-2755.59
1004.62
-2044.77
-2604.31
-4590.4
-18.4649
-5639.91
2486.06
-867.554
3553.95
882.778
14066.6
7212.45
-860.823
6001.6
2116.62
3371.55
7394.88
-1860.53
-1742.26
-2057.7
-2468.76
-1105.62
-5499.11
-8237.33
-1005.39
216.237
4084.27
2908.51
2149.96
458.938
-1175.53
-3538.92
-660.323
1779.01
-1188.68
-227.029
2323.19
7784.29
8413.23
-2030.67
2453.09
-1137.16
2203.76
127.995
-37.8778
1908.36
3169.31
-1434.09
1173.58
1051.27
175.615
-2458.36
1798.92
612.339
1886.72
3007.23
1282.28
1348.58
4123.04
2091.18
-253.097
5212.09
2869.32
3818.97
2382.31
1909.71
431.226
-1878.3
3259.32
-1042.19
4175.23
-2130.76
-2777.76
1668.65
-2765.6
-3970.5
-193.069
2070.51
-1178.36
-726.032
792.572
394.719
1095.95
-775.873
-1442.84
900.68
-316.681
-803.089
-8114.51
-827.089
-1065.54
2227.29
-2462.67
594.772
-507.192
1040.69
-1546.65
2125.95
-146.228
-1733.52
100.61
-1430.9
1569.02
5394.94
1629.37
-5167.52
-1315.15
1118.75
1427.02
339.101
-2946.14
-3743.51
-716.472
-2222.06
822.072
4241.91
-29.5536
-3681.6
-1486.56
71.7162
-5440.35
943.774
229.601
-1456.71
2148.54
1172.65
311.522
-969.526
-7450.36
-841.097
-647.6
-1387.44
492.027
1068.21
2313.17
-9553.04
-567.863
-3478.09
-865.074
-3650.67
-6635.96
-5229.94
-2238.59
5653.18
1547.77
-351.373
310.92
734.972
-782.623
-889.14
-23.3296
363.158
-2646.61
3348.31
-2135.16
-1775.04
-2079.74
235.761
-3137.19
230.796
-836.895
-1442.51
1763.92
-2595.44
-2991.05
-3622.97
1771.96
1558.6
439.62
2250.2
1180.01
-1848.87
1183.53
4751.31
1929.85
-3531.14
-2148.08
1580.14
-111.122
-2280.58
2997.15
4277.02
378.519
-2799.26
-39.1226
-2019.96
4000.01
-815.422
-4978.14
-2951.42
-113.614
126.819
-3695.92
71.2023
-67.8483
-1442.33
-206.714
442.242
3852.16
-687.222
-824.643
248.61
-1238.13
2243.84
-35.859
2954
7240.28
401.149
-6628.91
-2330.41
1629.72
5397.27
1105.94
564.318
-2143.59
-467.577
-2233.36
1365.91
-1378.65
924.435
233.259
1129.28
-5356.92
-5062.54
3030.42
-49.366
845.224
2029.64
548.73
1371.84
1167.4
-193.356
2492.59
252.301
-2431.78
2776.97
1796.21
-4526.42
-4495.11
-1727.21
1161.87
2924.69
-1076.65
291.803
1680.04
-956.062
2282.84
1723.38
2844.67
-4206.99
-276.226
-1127.9
-456.796
2578.79
3498.15
-150.416
-4046.44
965.399
2809.87
4568.07
-126.024
-474.214
-606.545
891.635
3290.82
3725.16
2454.51
3311.87
-1236.29
4306.85
1213.26
6956.86
-417.206
-704.035
2142.82
1730.88
493.398
-1408.52
-2273.41
1591.92
43.5851
-430.817
-113.987
2364.21
2298.55
4889.72
-3001.32
-3229.25
-3136.13
577.835
14409.8
356.441
-497.838
-4559.05
-131.618
1854.42
3859.91
5755.37
2831.96
428.287
-2519.41
7245.61
-4607.39
1518.87
3065.78
7562.65
2487.1
-81.9128
283.56
-98.0123
-3002.21
1642.44
5392.16
1447.51
469.412
-3843.46
-779.175
533.559
207.532
2333.93
4835.58
-1434.69
133.434
1794.31
-2334.98
-3006.37
723.141
-545.867
1638.03
-6103.25
786.875
5845.01
2309.78
1410.31
1647.19
4578.49
1430.19
2672.15
8840.18
3345.76
432.258
1088.09
-258.657
1061.72
6663.07
6244.03
2307.95
-3574.75
-874.993
-933.428
-2175.16
-1274.68
-1755.29
412.944
204.467
-701.769
1598.29
2223.1
526.367
726.014
-1702.42
-5430.42
-3533.94
-2555.45
2510.16
5456.93
-113.381
490.8
267.297
-165.156
-982.037
-3943.81
-1617.62
611.981
-1259.29
1916.84
-4594.26
11881.7
1133.97
1397.83
3548.84
5320.81
2876.75
564.319
1055.83
-1925.73
930.504
4087.33
-770.888
1055.94
-1611.75
2409.37
-146.396
1932.6
-1556.82
-890.426
725.934
-704.53
540.644
243.776
378.275
777.565
87.7988
3142.65
1279.71
1268.12
3726.5
-1776.64
-1773.87
-1869.18
1748.15
-2000.31
-804.325
120.928
-478.833
-3807.65
-4231.84
-1755.3
185.803
-401.52
-1093.49
-219.47
-592.377
-3885.3
-649.72
5463.46
6654.45
3539.45
-7323.92
3569.51
18122.8
8157.37
3045.81
2369.79
4254.85
2800.82
-269.393
2627.65
503.944
86.4647
465.32
4296.57
4984.06
-2599.33
1009.82
-993.008
-5.12502
6602.76
5539.59
2982.22
-326.551
-3988.28
500.803
-218.543
-196.61
-2337.48
-6316.62
107.403
2719.23
4441.73
-347.735
1857.27
3611.33
-1629.54
845.665
1576.17
-621.482
-131.181
-980.872
2296.12
5078.77
853.927
1883.66
2241.03
6615.24
2019
-214.43
-2244.35
-5845.89
-297.129
-468.508
-3547.64
754.428
-894.644
3074.65
2885.14
1954.75
213.949
76.5562
658.692
6148.97
688.359
-3556.15
-626.444
14599.3
-3008.65
1401.66
894.204
5789.51
1806.02
-1226.26
-161.253
510.257
-780.637
-1497.78
1154.47
-1426.86
-222.023
-4238.46
-296.381
2370.7
-337.315
4449.68
5361.3
1651.21
-682.927
306.75
-2925.88
2157.07
3828.09
4490.34
665.445
-157.972
-406.585
-3830.13
-1908.34
-562.771
-8747.96
-1542.33
-162.874
397.443
-1891.71
4241.89
879.658
3929.3
31.8004
328.276
-3128.64
-986.955
1242.39
-445.07
434.727
-523.87
1241.28
2359.7
-1016.18
-671.062
-2105.31
3276.21
4622.2
-367.123
-7146.96
-3431.89
-745.47
294.924
3539.18
-3939.12
454.155
439.542
4551.67
4329.56
1601.43
-1750.8
-945.777
-1223.72
889.279
1266.08
-2427.19
-881.662
555.031
327.187
1237.47
-1268.1
1919.67
-1985.31
-518.835
1185.28
3381.37
60.0241
-1767.14
-6344.11
-4278.38
-3577.18
-315.138
-4528.12
-2547.53
-488.972
2754.05
2459.84
6654.07
8905.23
22228.8
7693.23
9814.5
4719.98
2133.84
3198.01
-4400.97
-1202.45
2571.33
6194.31
3270.21
-3152.81
-1701.37
9863.48
2171.16
556.689
168.152
1887.47
-4057.91
-3203.13
994.557
-2783.89
165.514
-8432.13
1178.73
-410.673
-7369.25
1181.62
-2432.17
3576.11
-1294.05
344.111
-286.351
-1532.83
11.0283
-1287.13
-3013.36
-2274.19
-4873.56
-5677.06
1668.91
5087.11
2527.35
192.561
1306.27
790.473
-2609.37
-3766.95
-327.922
-1924.68
-1327.39
-2069.79
-1711.12
1086.92
-531.894
2430.7
1129.16
-1455.03
-14879
-604.359
-7335.89
656.629
-1905.56
-4271.9
-4218.47
2189.84
2183.57
-2619.19
-7688.13
-2819.44
-1304.25
-3015.21
1019.24
-1142.49
-1646.44
1099.72
572.872
590.306
2860.14
6794.36
-1669.59
4457.97
-917.205
-1552.52
1817.73
1223.68
4524.52
1260.06
-857.773
-34.1082
-3506.12
-1229.79
891.369
2904.84
948.272
1591.75
-910.727
8976.41
2327.17
-1507.73
103.968
-3034.19
-826.998
1003.47
74.3269
7797.27
-1191.68
1189.59
608.456
-649.526
366.493
475.707
5612.32
-8987.01
-2297.64
-1058.43
-705.257
-914.252
-4588.42
1427.02
1257.98
-887.363
-1546.22
2111.26
-1644.65
-1475.29
655.779
-867.28
1570.42
-4383.78
-638.901
1945.16
4427.32
1912.12
-780.47
6485.43
6476.38
-1158.3
1454.15
252.023
508.77
4068.6
1869.21
-715.51
941.44
-108.732
-2523.74
1103.84
4417.34
-5668.99
-8651.63
-10906.9
-4097.7
555.204
1369.87
-262.314
-3636.32
58.5341
2781.86
-1270.01
-1498.79
2421.33
-746.805
-1678.79
-3661.48
144.119
-7983.75
-1842.92
-5939.86
1026.9
245.597
674.585
2702.16
1006.8
1434.49
-1060.1
546.938
2586.44
-1136.69
-2732.06
859.323
-2074.88
-2403.4
-187.043
821.733
-1910.44
2123.87
-4156.97
-1871.7
546.562
564.582
-1492.55
68.6061
-3231.69
-2595.49
-1836.49
1400.97
364.524
-347.878
343.11
2637.47
-326.124
1033.29
1070.63
-2986.25
-26.3176
-1894.48
290.96
-2444.74
-618.037
62.4048
-1383.15
569.555
2821.62
3582.13
3026.35
3450.38
-360.776
-999.591
629.186
800.852
4153.51
-2060.98
-884.554
155.749
-397.448
-653.686
2577.58
11200.7
8149.9
16798.7
9484.27
6696.25
2292.66
-3771.78
-1328.04
-1198.07
-1630.81
-97.0548
-1002.11
2396.7
8977.03
5883.79
636.763
6412.55
7769.12
-247.234
-1246.38
-752.818
628.227
-2812.8
13609.1
14722.7
19725.1
2599.14
42.3482
-621.392
-5493.87
-4694.85
8090.11
3047.26
11036.4
3629.24
-1306.75
-12049
876.031
-216.292
-30.6226
-10078.5
14277.8
9419.37
10469.4
11246.2
6795.22
5432.31
3120.06
-1111.64
-919.338
-1756.54
-2843.68
4784.5
18559.1
14345.3
12655.3
10676.7
2068.42
6028.37
13143.3
9715.73
-215.678
896.854
-303.486
-28.7225
-2850.81
-2038.21
-2338.56
-990.745
-671.001
994.324
1291.6
-3421.19
-5865.23
-4020.86
-547.269
-308.574
3782.88
2211.16
8376.56
937.939
-691.893
184.729
2035.33
-322.763
-377.788
-2170.86
4375.63
3905.06
-5204.42
1365.57
-327.105
4358.12
883.774
-1.69613
12331
5436.54
6019.14
3070.64
2631.65
-1009.67
-775.175
1512.42
-5307.3
-1828.25
364.5
705.557
-440.682
-2291.16
-9424.26
-2808.36
-1442.46
-4368.8
1712.59
-643.061
630.545
-724.174
-73.3698
-315.953
-4518.44
-538.395
-2433.78
-1052.94
-6909.22
-4995.04
-3812.82
454.422
4351.85
-45.4058
-100.113
2758.89
-1214.41
-518.464
-520.688
906.793
141.01
1568.2
5389.21
332.891
1305.51
-702.194
-1262.36
-130.276
4907.73
-1017.09
-551.251
-2524.57
853.029
-802.942
-2523.88
-4160.84
-1314.79
4899.05
1960.66
3542.88
3628.28
3901.57
-961.616
-1908.12
-983.587
98.1294
796.991
-3864.32
-2382.4
851.304
326.413
1148.48
-609.203
4458.9
2308.22
2129.26
-4076.37
-9263.44
6354.73
15536.3
4488.47
-1983.46
-320.512
2622.35
3857
2844.34
3600.37
-2404.9
-164.982
199.511
-1475
-1943.23
-41.6923
-336.101
-225.896
-2960.59
4068.01
3359.63
3244.22
3732.11
451.351
5149.65
8319.73
1226.22
240.358
390.949
-820.373
-3043.58
-1962.2
1601.1
-1879.91
-2020.47
-2458.43
8557.38
2272.87
-1424.56
2127.52
-903.201
2815.54
3942.12
114.576
7663.97
4302.69
-1570.62
1247.53
-4297.21
2945.17
-3185.63
-1732.21
14256.7
11352.2
-2939.41
3835.42
-3056.62
-414.899
1241.91
828.756
-1626.66
-1385.38
-706.909
1863.52
366.389
417.59
1534.92
6584.02
2132.26
522.459
-841.357
-1467.77
-1310.44
4560.96
4178.34
843.691
-1558.59
945.078
-3954.02
7705.37
1737.6
4969.63
3803.84
4499.18
4498.72
2143.68
-314.505
2027.98
3435.6
7573.09
4205.6
-1162.03
-1875.43
751.133
-3893.82
-6225.95
-1592.76
3217.01
-3122.07
-1442.33
-457.89
-1131.36
-1124.91
2860.14
383.011
2618.55
2512.31
4679.8
-1002.34
-732.306
-1459.6
4457.7
463.522
-998.199
-1002.86
648.725
-1936.24
1237.95
-2086.17
-3081.34
-5220.28
-6213.64
-3797.92
-1368.11
41.1751
2926.88
3851.03
2784.1
281.716
779.6
248.165
-3250.98
-3788.84
3905.97
263.026
1829.02
-1813.67
-3941.19
-1629.36
1717.74
4547.4
1113.07
1587.98
-1697.81
3063.79
10473.7
14127.8
896.475
-2083.59
192.267
5008.79
276.706
-758.19
-1835.46
5578.71
5104.53
470.22
-112.741
-711.076
2438.8
-423.314
-29.8534
328.161
5492.14
3279.94
-189.624
-2239.68
-5511.4
-4636.22
-161.337
-4093.57
2438.8
1558.12
-1780.33
-1363.47
-190.416
352.582
3419.65
-1050.11
-2391.93
914.473
152.855
3634.97
4313.41
1443.52
2185.16
-1838.28
-5832.31
3208.3
8762.71
2582.43
6631.39
-3255.84
-1843.75
-363.952
-5936.54
10382.6
-1370.2
1064.14
1509.93
8162.76
-2794.17
492.586
-328.365
-4488.61
934.105
-2953.95
115.306
-4016.64
-152.846
2234.28
1637.21
-3709.04
202.527
568.796
-100.704
-5907.8
-771.961
1218.21
2822.87
880.469
-3927.5
-1137.83
-5567.47
-1711.82
-4675.4
3140.37
-3819.27
-2070.88
1464.25
346.695
1991.63
5372.35
3498.74
618.341
1608.06
-1415.24
706.319
-1049.94
-290.962
-2631.66
1596.78
2112.84
-287.396
224.355
920.431
-958.584
-1913.43
-846.347
1016.1
-3320.79
-2924
-9897.07
-127.154
442.532
-896.094
-2491.29
-456.689
4893.94
1338.03
3112.01
1596.57
-624.353
2442.15
-1219.58
225.455
301.919
6757.85
9384.87
-1369.33
-1500.7
-1137.27
9277.13
3448.46
1734.42
-903.202
916.711
-1313.42
-8558.19
-201.203
1584.08
-3698.41
-1615.64
-1264.06
1679.63
-1324.93
2164.06
-569.222
-2994.46
-67.3036
734.175
303.522
55.182
-3720.3
-3266.33
-424.561
294.814
1190.91
-750.372
426.612
-795.601
-1777.68
1785.2
1184.6
10815.5
1114.95
5987.74
6412.11
-1637.19
-7597.05
1047.52
-584.884
666.025
290.703
1948.42
-815.201
-6137.86
-1117.9
-1509.42
-905.459
-3576.45
-3445.9
-2455.62
-297.979
3931.37
-2022.45
2166.86
-4803
1203.79
-1784.49
678.688
-1976.35
-1347.67
-1305.2
-202.902
639.421
2517.15
-736.392
381.11
-974.045
517.996
3399.03
-1488.07
-590.435
4711.78
2089.51
3279.19
340.109
-8877.55
315.705
1400.01
1738.21
-479.564
-13.6167
3331.95
557.204
-1020.87
1239.2
2721.94
-2403.2
-1179.62
-1795.11
2048.01
-885.602
-1203.51
-1377.63
-1232.83
-520.158
-1497.61
-14144.6
-1097.63
126.76
-791.54
-58.3209
427.156
-1068.75
-11093.5
-6026.89
3326.15
395.207
663.025
-5922.41
4682.48
-75.5548
-8730.79
-4038.45
-2542.85
2478.35
2699.19
2721.56
3841.16
457.064
-1579.2
-9253.9
-6681.17
-1133.2
3776.45
1538.42
4653.93
-1702.87
-317.152
2975.65
12979.3
-2314.79
-3094.82
1633.09
-1653.3
-5945.67
-12742.9
1628.97
237.426
-2940.89
-781.47
744.982
508.407
5167.47
1127.18
845.567
-1577.07
-4841.81
-1909.21
8074.3
-551.534
1443.82
3199.15
-3952.51
-6946.66
1827.61
-1626.94
1640.64
393.272
111.804
1016.53
7075.78
312.013
596.252
4243.59
-285.205
-955.706
-544.474
-427.38
1931.87
1609.3
-941.609
-144.485
-4772.02
-4805.41
728.688
-259.801
1200.45
4210.54
10536.8
-2253.23
-4575.03
-1379.06
1512.42
416.112
1610.63
3643.04
35.6326
-2288.38
-3488.2
-3710.65
857.649
5967.71
462.996
-1527.38
-1525.38
-1171.36
-2604.32
2442.35
1395.08
7966.55
-784.095
1032.63
748.728
632.622
1415.22
-2379.54
-626.759
1527.35
-602.178
5070.49
51.0182
960.429
-1133.26
-396.281
-2208.78
-952.782
2410.45
7791.61
13129.1
7444.31
1849.99
1905.97
4767.87
6862.5
6971.82
3217.89
5073.15
2803.97
9884.7
1763.26
6129.26
3167.23
8632.41
501.501
-2502.07
3953.57
4413.18
827.252
-1211.63
1151.28
152.253
-1579.92
1377.11
1798.36
-104.316
4531.22
3666.8
-133.452
1860.81
344.792
2046.81
333.739
1363.43
-130.97
649.73
-4946.65
-686.318
-1162.96
1204.84
1331.92
1802.07
6323.41
5459.66
14643.8
5394.86
193.232
-543.011
1185.63
-507.351
3955.58
1265.91
327.313
-1360.64
4767.96
10483
11393.8
9148.34
10622.8
4050.63
2385.21
-2653.36
2999.67
-3583.54
-1354.76
-2351.81
-1677.32
-12686.2
-1038.3
-1591.61
-1567.99
-4775.18
-703.165
3203.83
63.0493
411.49
720.693
2216.26
-729.551
-579.685
599.414
2246.98
-587.803
-308.018
141.504
9960.48
3844.34
-1311.42
1240.47
-2696.9
1379.01
-578.349
-2628.05
-3706.7
1597.2
-3852.47
3579.48
12351.1
1868.63
-1879.78
-699.573
-2029.38
-2203.9
7068.66
6739.56
2364.3
225.495
-1937.07
411.558
-3689.5
546.227
3760.59
-1039.58
4437.47
2059.38
1415.9
-2641.45
882.661
-307.147
-1098.4
-1131.8
-659.774
-1480.44
-675.132
-1770.28
-147.019
698.842
-338.469
-3243.94
-4326.55
-633.541
-34.2903
-2178.19
-2710.94
-15308.5
-6116.23
-309.25
303.487
440.333
2364.12
-2697.92
-3114.46
-1750.61
-2425.18
-3510.93
1854.6
582.398
138.558
2374.01
566.254
-4405.74
-328.908
647.512
-63.9222
-5504.33
-3861.5
29.3403
-467.428
16253.9
82.0353
-723.372
3893.12
-1448.25
242.841
701.03
581.322
-1420.32
572.099
-391.688
-666.38
2128.82
969.068
-4885.01
707.522
277.991
3861.97
323.566
2130.99
1331.84
-1875.8
3615.49
820.189
583.507
3644.22
553.127
-2053.68
2148.26
9898.5
5926.27
1997.9
5789.28
3450.67
6122.79
3293.72
-2822.66
50.4374
2695.94
-2606.02
-2409.45
116.902
-2120.4
-5612.81
-3317.49
-2510.75
-2006.19
-1648.96
1600.03
-290.409
1581.5
137.034
2300.25
1841.48
609.395
-5169.03
424.769
-3576.9
1541.76
-4585.25
-4095.88
-9961.17
-1930.33
-299.393
3589.88
-2931.56
-190.718
563.69
-8786.5
-618.581
37.6396
5785.58
1513.7
-294.958
-479.523
-1897.13
704.283
-409.407
-4019.4
2229.82
3647.71
-4352.98
-349.632
473.085
1069.17
-1453.29
-1972.5
-2592.6
-521.322
416.875
1549.24
601.482
-1129.45
-142.018
-4922.49
184.517
-835.06
66.5661
1650.17
-6373.13
1694.48
7633.2
5538.21
2785.36
-2502.35
314.727
-2435.3
-572.58
-137.943
-2089.67
-5189.24
-1561.02
-8232.77
-2416.74
306.891
1671.67
660.188
-3301.92
-465.283
-927.464
-720.538
2276.64
-33.8419
792.769
306.874
5341.47
4484.81
-723.905
1703.95
6642.24
-8.55535
185.561
1230.41
-1070.77
8.26946
-1421.41
845.968
-753.239
-126.417
64.6994
-5250.34
530.349
3786.98
-671.871
-4949.65
-8757.32
-1393.67
2884.81
-3794.8
2260.5
347.589
-1900.79
-2647.34
312.628
-2127.08
-4633.91
-3419.98
-6449.97
-8349.53
-5000.57
-1593.86
1446.6
510.233
354.564
1589.53
655.521
-986.493
-2300.26
-8472.09
-7646.25
851.399
-3768.76
2489.91
-4774.24
-1453.18
-1473.72
-688.321
2203.27
1039.07
270.755
-2918.49
2415.7
-1987.06
-2088.05
-6078.32
-3594.31
746.976
-343.162
1024.08
-531.912
1985.05
-1264.36
264.072
546.824
-1954.21
-1715.92
1896.48
2942.01
4962.4
1228.53
-1287.56
6025.89
6981.8
5337.57
-1278.08
-751.873
3236.62
-2101.52
-1230.27
3377.47
5738.78
10715.6
10265.4
3642.27
-4725.53
1680.53
-1313.81
3638.63
11721.9
153.204
-20.6859
372.192
2226.68
2666.6
8.44767
2490.98
3265.45
-624.861
100.04
-1131.68
-1620.58
2352.63
-699.585
8000.21
2448.34
4811.72
-2118.32
-2775.6
4768.17
9015.02
11379.9
10853
979.394
-2666.79
-659.972
-243.162
-612.819
-2855.78
587.486
-650.542
488.181
678.819
-4464.78
12126.1
1839.62
6124.95
-1953.25
-27.3367
762.91
-1509.12
2713.41
2164.38
-153.501
-2233.12
-2972.55
-4151.13
-6.98259
-899.557
-2006.35
-1252.78
407.386
919.017
1534.45
2941.03
-3292.61
-2228.55
563.765
660.075
1262.53
-4716.32
2782.71
1729.69
-604.056
-1199.94
836.566
133.561
-607.933
1583.35
2736.92
1653.91
-415.566
-366.684
986.178
2634.44
831.126
2199.03
-1847.17
589.351
1510.71
11467.2
1010.54
14879.1
9358.14
-1130.82
5184.43
1591.04
765.564
412.445
3157.12
913.097
-5168.17
-5901.83
-1647.95
529.317
558.46
-3392.24
-257.271
-3832.66
-5306.19
-3233.64
-2652.26
-4709.89
-3147.76
-714.097
278.727
-1484.57
629
5030.73
8893.93
-2188.92
240.964
2157.42
1666.75
547.408
-480.715
-79.5381
-1363.67
-1247.43
536.295
-484.516
-155.346
-420.9
-537.376
1227.25
1540.16
-6.73312
-1437.08
339.613
-1135.85
87.6329
-518.094
1067.28
-1128.72
-2645.61
-1076.98
-1531.01
1844.55
8732.12
2026.1
-2273.95
4921.72
497.441
-2511.14
-4006.72
-830.949
2411.27
1370.73
2546.84
7250.17
4162.65
-1561.85
-2002.03
3303.78
281.021
283.639
642.843
-1538.89
1087.63
6823.81
-1563.87
-1057.57
3394.49
1269.73
-2489.49
2464.29
-3978.6
-8492.3
-272.37
916.975
3390.31
3083.7
-2360.18
5215.27
-4628.28
-3184.96
-238.882
-2341.8
-3924.1
-2896.51
-1013.12
4048.16
-715.988
6532.07
-750.677
-5695.05
-6142.42
-4138.28
-3757.44
11939.8
7241.32
1657.5
9914.38
-9180.67
177.846
-2009.15
1591.2
1479.18
461.13
283.016
12842.7
-611.596
882.059
1489.67
500
334.936
-2569.39
-839.036
-355.658
706.612
-8098.87
-8635.51
-1475.95
-1851.03
-6477.35
-3253.08
469.03
-683.462
5542.77
3479.94
-1385.96
-1103.91
-249.185
-3271.4
-1347.83
-840.067
1513.35
-1688.34
3055.92
939.758
3094.87
364.909
-52.4188
2540.89
3316.97
4653.52
2640.98
-6126.29
267.775
4265.87
3931.69
566.539
-2572.09
-435.634
543.482
8210
2605.48
3415.26
1310.48
-1256.49
8147.66
18560.4
1479.51
2229.93
1734.07
-4.04028
-2025.35
-1046.34
-912.836
255.117
-183.924
-1228.78
-6736.71
-2077.74
-1134.56
-3720.2
234.329
3394.55
303.608
-866.482
-1145.01
-567.295
-1661.69
-133.998
1071.29
1882.48
3245.56
2597.66
1573.36
1502.17
2111.61
251.908
624.56
793.318
-1702.46
-2375.3
1845.3
-3133.28
-830.755
-2667.39
-2121.93
-4442.31
-546.436
-1444.26
-3905.26
4211.63
152.515
-622.634
1197.8
-502.196
-1351.02
-432.36
479.206
6220.1
1413.1
506.04
1433.8
919.54
84.3859
460.243
1296.94
3881.18
2771.21
2514.47
-1557.52
1242.76
-3898.39
3683.9
-1347.96
-2235.66
1311.3
2677.05
2160.24
4124.68
888.979
-1821.57
6161.33
1298.9
-3355.85
8.37455
1014.59
-2816.95
816.794
-299.341
3342.43
345.782
3552.09
-3393.78
-67.4648
2405.91
4506.77
-3274.84
787.919
16549.3
11123
-1165.39
9512.19
1479.77
507.837
-681.563
-1726.41
4671.89
1343.16
314.267
1087.6
3554.61
-3547.08
-2818.19
-661.827
-5068.69
587.71
16508.6
19066.3
4437.95
-7796.54
-2125.03
-1791.42
9727.22
10280.8
2755.68
-1131.55
-3412.54
683.819
-34.288
537.209
2601.01
1303.18
-243.27
-295.429
4373.76
7561.23
1444.12
-477.833
-482.028
1757.63
-1524.78
-1208.55
672.661
-1418.38
-490.444
597.942
-1081.39
-365.642
1618.68
7753.39
-4199.27
1803.02
907.05
1896.8
2673.3
-2624.11
-80.3818
-4576.02
-308.842
206.152
-2783.59
3923.68
237.63
2314.02
-933.926
623.767
-795.648
-4275.41
-6431.81
492.072
-1891.25
-3522.32
247.772
1029.33
6084.72
5505.31
195.534
99.9653
16454.1
1979.3
-1590.36
-6925.18
-10573.2
-339.825
-232.906
1201.96
1464.42
-119.524
-1250.5
-816.902
-733.053
-2271.48
13700.9
12137
-810.408
5602.85
-3208.99
-2029.42
-2146.03
7822.65
-548.426
1622.65
2119.38
-584.407
-1111.36
6715.8
4877.98
-268.569
-3731.89
-6616.51
-9638.58
944.477
160.326
483.546
1463.82
3126.71
2072.82
-2325.34
2724.2
-827.075
-2510.5
-1819.62
-7206.76
-3324.17
-1790.84
3624.65
-2603.81
-1169.33
-2759.69
182.351
-2941.75
-1475.23
1452.9
1668.09
1604.92
-3231.37
-1705.13
-4910.39
1264.11
-994.073
985.898
-532.187
241.233
-1023.12
-1956.59
2025.82
-2430.91
58.2831
-1342.96
4891.61
5026.89
-2736.38
-709.048
-252.619
3523.5
5212.24
1201.21
3962.12
7060.8
11121
8370.36
844.386
-133.746
-1792.95
342.263
185.546
-456.751
257.416
-68.9864
814.974
-2290.29
1008.78
-56.8575
3594.3
-2794.19
-1830.14
-2199.12
-679.65
1643.62
-830.106
-227.063
-1399.92
408.302
-7046.51
-3030.99
3137.5
-2163.57
1794.5
3082.94
5232.66
2592.34
543.22
987.479
-5266.15
-1290.16
974.932
-576.859
-56.9212
-4017.58
-538.407
-273.247
-4136.8
-1128.19
-2150.19
3104.03
4954.09
2622.58
4602.56
2285.52
5925.75
4333.33
-2897.32
-887.611
-4248.63
6707.02
2292.63
8548.69
1925.69
1598.5
-1872.42
-2342.64
-9617.45
-9439.83
-175.947
1570.91
-976.623
766.273
3318.7
12798.1
3063.65
5216.42
1989.03
5018.69
1706.71
7529.23
-1436.94
-220.073
-3163.53
-732.819
-1076.55
1021.89
170.021
1956.02
-80.5604
-122.546
6007.57
7153.54
-509.828
-5558.97
-6020.64
-151.918
2128.23
-1465.35
-703.005
-7772.72
2202.49
2208.48
-373.303
2203.35
3807.12
1965.62
1219.21
2188.19
266.732
-1390.79
1014.78
226.359
-540.107
-616.929
540.31
1191.62
268.354
-583.177
-4633.85
712.625
-297.178
-215.338
-930.763
1780.16
-6154.55
1818.72
-2070.58
844.71
-916.18
1461.45
-716.461
-3071.61
-5506.27
191.926
-3040.51
-6178.9
-3120.25
-1777.07
1356.13
1200.68
-5519.98
-2581.19
3100.12
-1324.98
359.606
1576.97
2471.88
4551.99
10437.1
6744.62
4172.64
3165.93
3206.78
142.777
602.95
1419.25
5017.49
13140.9
4839.23
8690.15
8138.98
3111.55
3224.91
643.088
3587.11
2849.13
-1413.73
348.652
82.7991
1546.6
14784.8
5075.11
84.1118
3351.52
-1893.51
3575.04
5862.13
10709.2
6511.51
4812.94
4503.8
5114.93
4645.64
6437.48
3431.02
-1116.98
1808.79
284.631
-1696.08
-1335.3
-1369.59
3322.28
3646.89
212.451
2576.02
1123.81
1474.97
-420.66
-1336.66
365.142
263.817
948.389
-3686.62
2047.84
-401.922
-2642.97
-1587.53
631.536
-983.195
1566.44
-1814.2
-2454.21
485.857
2692.33
-47.1375
838.394
-231.452
-1877.64
816.994
-165.702
-1121.15
-8276.61
2439.64
2099.27
-1247.52
-3602.08
-2589.33
-3592.91
2621.33
-58.2001
2671.45
2928.37
-1646.56
-540.187
-1111.44
884.482
5838.44
748.342
1040.6
827.677
-5295.04
-243.869
329.604
645.362
6288.52
4694.68
7344.05
1147.36
627.553
-642.813
-266.713
4194.95
1390.42
-225.293
2351.07
593.062
4276.73
12190.2
3756.7
748.631
3763.12
-225.324
2101.07
655.594
-885.288
3716.28
10281
961.731
826.635
1230.93
-2505.46
-1244.03
-1585.21
199.27
-853.712
1774.45
-2583.82
3129.92
-150.066
-3594.38
-5441.04
5044.12
-1134.35
328.43
4531.19
1292.18
-2572.11
1288.88
66.6528
3623.55
96.0522
600.674
-666.35
-2717.17
6.66577
452.421
1635.44
1234.96
1299.44
722.724
507.649
-2529.09
-70.5375
624.268
1199.58
-2572.63
958.297
-470.12
118.501
1189.42
969.313
5646.84
-741.463
-4894.25
-1030.03
-3094.78
-1893.99
2143.07
1349.38
-2391.66
792.109
-22.5295
-227.949
174.608
1231.4
187.969
-5088.1
-1637.34
-3542.14
1491.48
2245.98
3295.13
-5569.99
3696.54
5611.66
-5442.87
-665.111
3310.67
365.392
459.052
3485.41
12004.2
9390.51
2935.88
-1826.12
2744.9
6296.36
2487.51
-540.053
-6372.57
-8151.26
3875.27
10451.1
15613.4
8984.97
-1675.86
-688.937
514.444
2178.18
-629.396
-850.756
400.86
-3757.36
-1676.13
-3795.36
1596.47
367.217
2892.32
8982.1
12681.5
7441.15
4290.85
-557.971
4309.76
5945.81
420.174
-633.468
-6841.81
-657.554
-418.359
-5308.22
885.934
-1698.85
-1107.77
-786.524
-508.342
4238.03
779.653
447.42
-2216.47
-2789.01
643.965
2083.96
-1519.44
2134.7
4027.84
-462.602
-2323.01
2142.86
1896.74
-4163.92
-2421.78
-5122.32
340.115
2186.2
1734.34
1150.83
-502.544
-1390.98
725.746
-158.572
-4657.15
1768.12
-78.7426
735.004
-212.029
-176.29
909.426
359.956
-364.293
-2995.34
693.494
-443.807
1001.74
-450.825
-1505.91
-1065.21
-5186.65
-1239.5
3962.81
-3005.46
1999.83
2134.15
-1067.32
1297.99
515.522
8882.72
1698.33
672.917
-462.881
4548.12
9552.19
15201.5
7734.04
3897.16
2090.77
386.94
1726
-3213.76
-3908.34
-1398.99
790.36
838.272
-794.976
3082.01
-1357.54
-419.042
-2156.31
-521.095
-325.125
-873.284
-290.668
-460.05
-931.14
-56.8101
2654.51
-51.4004
-304.791
1676.63
3844.64
1247.2
-2148.65
2501.13
-2601.07
2770.44
2271.45
227.811
1119.18
2348.28
-922.355
982.961
529.846
-1449.94
220.892
1112.14
3000.52
-2043.25
1405.27
-4463.73
2745.11
10890.7
10002.8
4359.18
1180.42
3799.81
2206.14
-5603.41
11884.9
8004.66
7966.51
1930.85
8564.62
4252.87
-702.736
3865.8
688.444
1123.96
1354.94
76.8309
138.432
-2185.18
-2349.27
891.517
-4921.27
-750.469
-900.199
-91.9422
1843.43
-4394.26
-4396.83
-5964.47
-5036.29
-1312.98
1133.52
-409.207
-999.868
-2088.47
2975.39
-935.513
-151.447
-4276.74
313.363
-2820.31
203.667
1748.07
218.206
-1549.02
-53.324
2820.36
2546.82
-189.054
-1288.93
-1655.62
-718.965
1675.07
3640.54
-1039.7
-3423.99
2075.49
6058.33
830.355
956.453
3798.94
-2518.18
769.54
723.928
-2856.11
-3217.42
3140.88
-1013.72
617.785
-215.149
-3306.15
-2140.22
-617.641
-2434.01
-1188.13
-580.782
-1345.27
-5803.48
-3185.67
3505.92
-1541.78
-3581.25
4008.16
1608.4
986.905
1491.2
6765.64
1396.96
1167.79
341.338
3237.21
1378.41
5415.63
-2219.92
2221
-3412.03
-4821.7
-4239
-5508.27
-2028.86
406.788
-623.607
-3078.84
-5633.03
-6065.24
-2112.24
-755.751
-2926.45
-394.545
64.6224
-964.374
-3774.11
-324.082
-539.841
2814.52
-1430.15
-3265.27
54.6766
-123.487
-888.21
-42.7264
2130.41
754.102
9.67759
-2078.79
399.331
-107.296
3205.22
1248.3
2749.26
1289.92
946.414
1567.1
13350.5
2712.57
623.129
78.5773
2196.98
-4585.7
3553.35
3614.62
7485.06
10361.4
-72.6726
2147.18
-571.385
1866.09
-48.2782
1004.86
-3120.64
2785.46
-4014.86
-2775.94
840.588
-2158.06
-4378.39
3002.69
-479.133
-354.514
-3730
-4111
-793.316
-127.749
-4101.95
-5871.06
1667.12
1310.49
-1099.12
-1369.01
-619.295
-2417.17
2371.74
-652.883
1417.22
-442.605
1325.36
-1525.07
-2630.82
-3465.02
1315.77
5212.62
99.5462
3988.48
4555.86
9422.22
543.211
1323.03
6296.47
1735.27
1677.15
1007.94
-551.37
-648.891
4437.5
-993.278
3369.61
506.484
-757.615
745.705
-1008.39
2150.53
-377.075
1809.08
8289.65
7447.95
4315.45
3740
-4872.42
-1751.04
1911.15
491.441
1751.99
-997.106
3819.48
3093.91
-1827.47
-4825.64
2066.43
621.335
-1967.09
1621.98
151.897
1676.37
322.704
-253.342
-8462.15
-6107.76
-7293.49
-1483.33
-2728.22
522.886
1456.24
-4383.7
3361.05
127.143
3099.79
1313.74
349.226
7.79097
-336.992
-1532.47
-2931.23
-3504.21
-4791.31
-4780.97
-6825.8
-3442.15
-882.874
-4748.53
-1947.8
-1853.11
937.399
-1144.33
-1503.23
1516.13
-686.786
-121.478
-2747.99
-89.2044
-5375.15
-4575.2
-4809.06
560.486
2633.96
813.723
1222.99
-340.751
9917.51
7609.84
4038.97
1429.33
952.944
-284.669
203.268
1913.75
-2778.77
599.828
-2377.36
-44.2455
-1649.5
2796.03
293.399
2598.55
1931.46
994.94
7384.55
3007.29
-662.691
307.376
-3113.6
-107.333
681.438
926.499
-978.457
-968.124
-5299.83
-3462.13
-2717.72
-1346.87
1710.85
5589.42
1498
1528.46
-3579.12
3793.83
1602.44
-96.0122
2011.84
4550.03
7345.89
2351.32
-2025.06
-593.649
-2264.25
-1710.81
3058.61
-1982.37
-2595.52
550.097
362.963
264.35
1119.05
-1617.98
-1365.48
1061.26
350.019
-84.8158
-1613.28
-2119.03
-467.362
-57.8732
-3161.27
4353.98
984.631
1624.91
-3788.01
1354.04
1496.75
-3300.15
478.649
-1103.44
9345.38
5030.15
5899.98
5380.22
5659.97
6495.42
9112.89
-893.596
-1826.58
-4740.66
9105.63
4481
4745.63
4005.89
6959.62
13970.4
1878.93
-250.341
-6308.94
144.409
3348.62
87.6518
615.994
-1875.06
-557.197
1267.48
-2927.24
-1719.03
154.478
-635.554
1005.21
-1215.18
170.498
-2918.31
-2108.07
987.307
1950.7
-706.827
-3510.81
-515.691
6349.71
612.667
-410.575
-773.043
-4136.74
-1540.42
-3963.44
-1427.24
15040.9
22984.4
14325.6
8647.3
-2569.29
-337.973
1507.17
5706.95
-4124.23
-897.941
-8679.91
17.3543
3035.3
-2998.61
318.805
-13.3854
-527.16
2582.78
142.034
-3189.03
-2811.6
7018.01
6536.67
3602.13
2405.02
-272.095
2999.18
-873.842
-406.8
4125.52
3444.07
6102.43
1688.89
5629.39
10736.4
11193.6
6723.13
-806.535
1049.25
-2602.08
-3643.67
-5917.45
-3193.12
659.308
-2113.67
1423.68
-3717.87
833.617
-3066.08
-4531.2
-1653.64
-133.883
-2298.72
226.87
2351.22
-377.629
282.179
-2645.16
2773.92
757.053
-1089.87
701.966
-1104.26
-565.378
-1198.16
-2497.87
-188.06
979.419
-70.0972
-1331.34
711.985
920.221
-2839.24
-106.793
-1428.23
1168.95
-2620.94
-1668.91
7239.15
37.8977
-3183.69
3257
4069.4
1263.79
2874.41
3698.79
3353.69
1013.2
528.778
6699.55
-7649.4
-3322.36
-3887.61
-5834.88
-1700.08
-374.976
1006.28
-500.612
-3492.13
-8588.03
-2001.99
-651.386
1282.33
-222.226
930.295
298.306
-2412.08
-1362.26
-1129.86
-1176.89
-2426.88
135.809
7989.67
12605.9
6632.8
-2357.35
-44.92
1887.03
835.923
6264.33
478.448
-26.3473
-244.539
784.515
-1369.78
-469.481
-3481.58
-1921.78
970.877
1857.24
290.381
-42.454
3645.42
-81.7298
-3768.2
-343.665
-1661.01
449.877
-2849.9
-3172.43
-230.863
-1890.59
260.091
-4294.83
4194.68
2197.51
2162.6
-761.762
-11.9143
325.077
2451.11
3424.8
1091.75
1561.33
2585.48
3980.34
2810.3
-3344.6
3674.34
-4892.37
-7320.61
-5419.21
-3231.23
3241.26
969.197
-9.068
651.418
600.145
-209.743
-249.837
-1626.46
814.564
-183.447
-813.723
1792.4
548.901
-1091.65
-1653.28
2226.71
-973.151
-2772.43
-2737.63
-3973.18
1395.24
-328.839
-2478.24
199.714
-1723.66
-1829.11
-9642.77
-9369.46
-2317.43
-1248.45
526.896
1957.52
-292.341
471.516
1923.45
-525.684
544.658
-5132.57
1651.44
-631.324
-1940.92
2131.97
1352.89
1528.56
174.397
-3972.25
-3350.95
-6776.94
-1528.51
-810.973
-1372.54
2600.24
4861.75
-5203.91
686.561
-2170.67
-1757.57
1231.63
2273.41
2694.28
-414.704
748.723
484.108
2555.66
4445.4
891.584
8293.18
14710.7
13783.2
14929
213.95
3334.47
337.894
556.011
-191.828
-756.091
-85.933
-4652.86
806.011
-4702.25
433.617
-2062.73
-75.7857
7.16917
-742.865
966.656
-906.147
-2858.35
1585.22
-6556.48
1612.57
-589.053
3679.83
-1611.01
4243.81
441.641
-332.107
1601.23
26.9102
-167.611
-956.347
-3530.05
252.583
4429.66
4262.04
4044.35
3347.73
1911.3
5206.18
6480.43
5214.2
617.078
-2579.01
3386.48
4521.68
-16.0812
662.033
220.679
-3747.1
400.754
-1786.83
-811.949
1051.96
-246.206
2589.39
-285.763
6769.82
11183
2765.19
11662.5
7023.92
-828.781
4751.34
1628.33
1518.19
2540.8
398.281
-2576.95
-7746.05
2704.12
-696.797
64.1619
-2732.5
-3145.01
-6095.37
-1013.36
-4911.08
-1197.35
-1335.37
1064.24
-974.628
1410.27
547.617
2179.87
875.617
-319.328
-12250.2
-171.525
609.743
492.328
4996.65
9355.2
-1278.21
907.837
1595.73
-2661.75
-2118.48
2004.69
354.586
215.051
146.264
92.99
144.066
4766.61
1279.67
4222.61
1439.51
4391.3
1973.61
-196.555
-4435.61
1378.89
3191.76
-3123.72
-1646.91
-768.66
797.898
206.484
-2287.94
-1048.52
9227.69
-1336.36
-365.814
-456.928
1227.78
-1747.94
175.942
2028.79
6071.11
7113.91
4322.05
310.134
1367.49
477.125
-1264.14
742.289
2290.81
-3204.2
-2221.1
3786.2
-758.465
49.052
533.286
657.008
-2982.62
1934.67
-508.531
-4111.54
-5517.64
-2732.12
-1609.16
-13006.3
-2710.54
-621.231
-2401.75
-1688.8
1973.62
-982.742
-730.417
220.848
2824.21
-5269.4
164.161
257.548
1636.44
-277.892
705.14
5949.43
2431.58
-463.131
767.988
24.2904
708.674
-1538.47
-1649.4
-8009.19
-2989.15
-1044
2506.03
-16.4524
-437.765
-907.208
-9385.03
-775.473
2893.86
1988.82
9944.27
4527.61
-9027.78
-10072.9
-3014.17
1096.18
-3057.54
3805.86
-2420.28
1087.61
4318.36
414.142
-4326.15
-4380.55
-1906.38
-1489.26
-1516.75
-602.333
-2085.02
-1819.99
-3379.94
-108.041
-1360.46
2672.1
-1317.8
-6514.98
1597.95
210.192
144.059
2564.01
-6540.99
-1316.28
-1746.61
2125.25
-1820.4
-5717.96
-4194.61
-3340.34
716.312
2081.56
3.64712
-988.454
-1698.55
-4313.82
-5079.53
-4633.06
-5111.87
-11326
-1344.24
-3063.61
1368.51
-579.103
782.005
4194.23
-976.053
-839.122
-1136.1
-1824.23
6150.63
2073.66
-3942.76
2647.93
1056.45
-650.68
-548.822
8963.24
3556.8
-3405.33
-3807.15
-156.389
662.725
-4450.61
4050.98
-1145.34
-1339.6
-5545.91
-7436.05
-999.69
-3198.42
1255.16
-946.853
628.743
5733.86
2690.3
7825.32
2260.95
-15.6687
-3438.66
-1825.37
-1566.01
1000.73
-37.0911
1449.8
-1379.97
-1100.2
686.518
2548.14
1178.46
-1643.88
-333.561
-2531.3
-1072.26
2477.95
-3742.93
875.226
682.026
3567.96
-5105.81
-2685.64
-9230.98
-2813.71
-749.645
-5042.14
2906.26
3549.81
-179.611
-2456.59
-950.518
1322.9
7108.37
10665.3
2366.65
10150.2
5529.82
-3158.09
1596.88
-4910.68
-2236.25
-7672.62
-2956.75
-1485.98
-1376.76
2020.87
1478.11
-3653.47
413.513
486.647
-570.889
-1044.7
3222.63
-2614.57
-21.7745
-799.407
11459.7
10414.1
6355.7
4994.05
-617.802
4522.93
1115.16
5711.3
5097.62
571.028
-2410.39
2511.03
321.52
1568.4
1466.57
418.818
-902.401
-368.951
998.855
8738.12
4953.21
2743.04
-232.709
-1772.63
-21.916
-2002.28
4123.46
5757.53
-1836.55
-540.714
-9.07333
3279.94
972.371
-651.052
-499.841
-10.8059
951.192
4953.78
-442.081
2581.96
-2608.77
-2814.17
112.912
-1772.89
4479.71
2499.63
717.037
172.833
-5.58243
91.5158
3609.66
3090.26
7045.66
10079
3693.51
-4714.1
-11651.5
725.621
672.442
547.711
-691.577
-1987.11
-655.739
-390.801
211.918
858.802
-116.05
1072.15
-1441.92
197.842
-869.886
580.086
-989.731
-522.927
2605.57
-2520.22
-4227.2
-2268.72
-857.864
1978.36
6586.02
492.307
-8236.66
-1802.73
-4326.38
-1082.77
-482.434
-3117.16
-6511.95
6526.56
9576.67
5337.31
504.145
573.112
-5758.17
-6566.65
-422.357
262.169
-412.603
116.526
7146.96
5558.82
2734
11013.9
1652.84
-3279.13
165.409
824.304
-1074.36
56.4356
-1116.2
-1366.41
1817.56
-1614.45
-1200.24
445.69
3643.13
6116.79
9752.98
-545.644
-3348.77
170.945
102.209
1053.95
331.69
-6781.83
-1235.47
911.89
-861.125
351.659
285.481
-553.765
15.2846
-1548.98
997.898
409.543
5220.32
-1525.16
-1891.2
-3763.07
-11771.1
-697.168
784.74
14347.7
-502.449
-2452.71
-4201.29
-4388.49
-3475.26
-3132.41
-474.873
2118.05
-818.493
-1770.69
-554.337
-811.818
-2295.58
2756
-802.288
219.628
5756.95
3841.77
16343.6
-1903.05
-211.387
1484.4
-2460.65
-1571.47
2830.23
201.614
791.171
-1287.43
12.1977
608.582
2471.03
1541.5
-679.576
4115.49
1430.02
-2058.83
-1272.52
873.372
-952.019
-3162.33
-674.446
-938.641
1818.44
2632.84
418.789
-1545.93
-1201.82
-706.443
1031.41
-3185.79
-2086.88
2937.47
1182.74
2499.4
735.948
2424.92
1151.71
-238.651
-8120.86
-1180.73
-149.099
1655.76
-3689.47
294.368
4242.36
1200.72
-2132.8
-2386.21
1683.43
-459.455
130.367
24.9117
-742.049
-216.205
2723.21
1547.93
-2915.94
-2944.03
1357.47
-2310.5
4824.52
5417.27
-1388.27
-135.356
4091.46
2288.87
1793.62
249.098
1738.21
-495.238
-1278.9
2606.28
-2347.07
-4832.22
-3753.06
-3611.45
49.196
-507.956
-1623.04
-2449.92
-1339.02
4382.14
10597.6
11165.9
1084.69
-2385.18
-1056.64
-3792.74
-839.468
-6263.64
516.47
-1412.64
206.347
-2006.59
450.817
-249.951
-979.4
1307.15
-7125.04
-424.56
199.321
-815.047
355.967
2095.44
-684.226
-2388.66
5355.63
3840.03
3776.57
802.593
6384.94
236.099
-2566.19
1471.64
-380.255
-2896.4
-1323.24
-1208.48
-583.319
329.771
705.384
410.781
265.01
-1705.23
1759.5
-113.693
-207.803
-854.397
-1261.32
-5125.74
-2275.67
2859.4
2173.68
939.113
-1866.97
-316.868
-940.953
-2053.61
-7323.64
-985.86
-292.412
-4390.79
-817.537
-2206.54
-5862.01
2700.46
769.628
978.032
-804.886
384.401
1641.08
916.841
-6206.3
-5845.91
597.403
1573.6
6513.69
2582.31
959.88
-6177.38
1090.12
1733.15
4268.95
463.31
-4881.2
-1360.87
862.866
-896.539
659.531
3703.69
-62.3824
2377.56
3876.34
-3745.05
-190.233
982.348
-394.785
4936.83
1835.76
-2485.68
4302.69
-4463.32
2213.46
-1762.93
149.921
-70.5416
1125.4
-207.304
-1233.93
972.286
2266.89
2597.89
2165.95
1149.69
3136.13
4697.43
2007.54
8150.03
719.497
-1778.78
-4653.96
-4094.28
349.132
7200.53
4036.24
-1038.41
-2413.78
-917.028
805.754
2720.71
4270.58
17490
2504.14
1481.82
-352.586
8601.26
1905.93
2562.47
308.992
859.105
-799.997
-3166.35
2632.98
-3329.34
-6406.47
-2095.61
10062.8
225.114
2956.9
669.997
-1513.47
2543.29
2937.05
1927.41
2985.58
899.553
2965
41.1154
-4087.56
989.828
573.623
-1132.24
-804.753
-708.977
543.493
2972.11
961.133
613.786
-625.23
-1777.18
-560.727
13917.1
-671.076
731.951
-4752.01
738.23
-1667.51
1776.7
1375.27
1386.84
1901.36
815.885
-1215.67
-1175.08
-2290.82
30.4356
1803.1
1796.83
1983.58
38.9865
-2067.27
-6.20027
2055.48
1402.55
965.297
1778.73
-1475.63
2103.03
633.266
-424.003
3546.49
7464.42
1270.17
-36.8144
-504.05
1708.01
258.92
190.88
-2891.77
-2368.84
-6866.08
-1070.85
-5950.86
-1571.03
3699.36
1885.95
3442.24
-600.251
366.528
-2106.06
2699.07
-1684.21
-2629.16
-4265.96
-912.258
-2767.33
5174.75
2355.71
3191.4
-13290.9
-5516.58
-6634.42
-6937.99
597.965
987.886
-1326.67
-1854.28
-27.1123
-4577.75
7520.44
6387.24
-6563.69
-2953.79
-855.267
-714.736
3336.29
1197.84
-2451.97
4818.93
-294.103
-1513.05
-1642.52
-666.756
-1620.41
-1830.19
12380.7
5345.16
951.958
-987.563
-645.303
950.551
77.332
-598.393
2642.87
1890.82
-86.985
2030.02
6717.14
8337.13
28790
26243.5
5618.09
8107.3
3713.72
6385.43
3211.35
-1766.03
798.212
7583.25
-218.707
-1600.01
-330.435
-477.441
303.898
1555.39
-8446.28
1101.4
4576.86
11748.7
8042.1
15514.1
9857.2
7601.41
6795.64
173.449
-2271.75
-3119
-6864.11
-4425.44
-6455.13
-9216.78
557.984
-2981.3
1491.44
-2546.45
1389.21
-3206.59
2166.22
5388.38
11795
6231.03
-743.951
1093.51
138.708
949.168
2859.66
589.151
3698.85
8622.09
8808.17
5735.77
6053.9
-355.483
213.766
-1057.55
-1088.86
-2887.69
4736.58
5131.64
6337.37
3380.56
-5661.64
-2975.09
-6357.1
-1491.87
1993.27
-610.251
2801.77
2789.65
-1568.77
-8879.91
-922.17
-299.141
360.9
3916.34
-383.819
-1174.05
3743.99
1269.72
279.132
3295.79
6243.3
1031.65
-4806.05
-4729.09
-603.633
2558.9
8827.83
272.653
-1037.02
-2264.28
-187.488
-4679.11
-2006.04
-672.15
-956.317
-1632.11
-5212.32
1601.25
-2621.37
-1326.27
-3375.76
-6178.06
2770.75
1522.26
-1907.48
775.793
-144.954
1589.4
12544.7
13580.8
4426.86
15733
6959.17
6368.6
-3236.83
-1059.43
-1033.27
5807.21
2537.29
1490.89
-2691.81
-3975.76
-1156.59
-9057.56
854.223
-4204
-487.11
-4091.56
-454.98
-1216.24
562.422
688.311
1137.86
1813.83
373.979
-781.396
4194.43
360.12
2060.72
10032.5
3225.23
-397.78
1180.69
1848.71
-2594.42
1981.83
2800.03
-1217.4
627.268
-1387.47
-2076.34
142.752
-235.527
2745.53
-190.207
1238.86
-266.906
1308.42
582.661
1374.89
-2859.73
-2105.35
3814.36
3571.17
1557.87
-893.032
-69.4083
2729.83
7414.64
496.817
-5791.39
1987.05
3560.06
-1127.14
-1927.88
-9701.35
2861.49
1030.03
790.976
21.3316
-1593.07
2142.77
185.727
-5151.67
5163.91
3254.39
-1440.9
2065.47
779.748
-302.056
9.99557
2729.7
1566.21
1999.55
714.086
500.853
-1193.87
1264.51
-2028.88
-831.588
-2805.44
29.9047
1997.66
4302.69
-834.85
-2748.93
-62.0685
1995.21
429.536
457.115
-1128.33
-1313.74
-4358.24
-3843.82
1857.68
-350.559
139.182
-6649.32
-5181.74
-10952.3
-1849.24
1162.54
-5863.69
-3717.01
-1526.28
-394.893
-1449.34
-1435.08
-160.235
-2391.35
-3190.25
-6847.39
-9065.27
-1511.33
1628.29
886.668
7846.39
8388.46
12372.8
1424.38
-551.504
-699.9
634.03
-1411.94
1384.75
-3835.53
571.657
1970.53
-3932.04
-661.672
-723.472
-5001.04
1013.14
-1054.76
258.539
516.551
-2853.05
-2629.96
-1463.22
-154.585
4094.75
775.088
214.05
-2939.12
-969.247
9470.28
-1138.77
-377.164
2723.83
4936.47
2535.14
1726.71
911.546
-2076.23
902.207
398.456
1165.48
-1131.52
383.163
-826.772
-989.729
-728.68
3807.39
-1419.5
-554.419
-960.308
-1350.34
757.1
330.783
1289.82
-198.132
1278.53
4235.45
-1944.19
747.133
3134.07
-2273.37
-3387.68
-3258.24
-122.964
-1.27134
-2019.08
-494.166
1066.3
-5710.19
-4319.23
69.3255
2747.16
3061.13
2062.93
-1401.08
5635.04
8913.92
3537.8
129.646
753.239
-1737.33
-634.133
27.271
1773.4
-508.58
4710.41
-47.6126
696.121
367.894
1515
535.992
-613.606
1510.26
1285.42
-959.019
-3173.86
-14463.5
-2748.2
3673.29
1080.27
-1404.13
-146.405
6081.61
441.311
-284.928
-193.087
912.926
-2402.24
1247.19
-681.851
-4122.64
-1460.81
131.66
2680.63
1430.78
6533.72
1851.52
-1338.27
-356.325
3545.98
818.871
-103.807
2192.58
2023.93
-446.377
2529.56
4640.26
1435.6
321.14
-1499.7
470.294
670.04
3293.12
148.658
141.058
-12.3325
-3137.27
-8323.04
4414.62
4560.35
957.377
2778.66
2116.3
5215.48
7296.55
-531.596
1155.86
64.4883
3132.07
-581.662
407.481
442.333
3207.62
-4851.45
-2888.4
-1163.01
3358.06
1975.51
5300.54
1617.04
3457.84
-457.921
-1121.33
-505.664
5.48209
191.924
-1539.33
3925.84
-4712.47
-3741.59
-186.227
-465.867
1146.05
-1383.77
-1294.49
612.34
3180.34
-6490.7
-619.754
-6.65163
-2409.18
4502.3
3951.79
-4031.22
1902.3
-222.382
1569.4
5679.06
-886.791
-2688.69
-2326.76
2895.58
21382
6450.57
6937.05
6213.36
15806.8
20831.9
7776.39
802.3
-393.655
-22.3753
-3503.19
-293.733
-2687.01
976.006
-382.47
-1534.29
527.906
1092.09
-399.376
-2275.24
4253.02
356.542
-357.55
50.9407
-434.281
-57.5215
-1526.03
1160.88
-2646.43
791.214
-1017.42
-2503.22
-3431.4
3202.7
7866.78
3021.43
-318.373
2629.24
4073.93
-1227.29
3672.86
-938.602
-10328.8
-7048.76
1484.21
-6121.28
-4602.09
-784.351
-2239.09
-1960.31
-5454.33
-973.329
-2397.49
-4220.92
-4393.04
1784.91
-3960.41
-3104.62
-2475.96
2725.3
2690.39
1447
-1505.92
-482.661
2809.81
1204.69
1923.04
2359.26
1411.35
-2343.53
264.562
4165.28
867.094
-2166.46
358.406
-81.1303
702.671
673.188
2414.45
1827.83
-1158.14
680.001
-5749.31
-7469.18
-4511.7
-3044.71
-2859.91
1061.75
-2505.74
-357.157
736.209
5343.53
7842.74
1907.84
-1373.88
-10148.5
-7162.04
-865.817
-1059.53
-676.239
-1457.78
278.641
-80.1657
6535.95
5050.94
1095.66
-304.231
1309.2
6160.07
-1403.32
150.007
145.012
-443.942
-1374.38
5397.6
32539.7
21921.7
4542.75
978.235
-630.808
1609.48
5537.71
10907.6
-2247.47
-2269
-2899.81
2243.98
1463.09
-445.854
-688.409
-323.423
-897.851
-1402.67
-3087.62
-5941.6
-2850.12
-1586.6
-438.449
1191.54
168.939
1767.16
1344.54
3422.48
-1276.3
-3211.95
-1569.91
2202.05
-1738.69
-1904.49
415.161
-1588.33
2500.96
2918.25
2182.43
8295.13
-1564.71
-289.084
1819.26
-1883.58
520.906
-7597.62
1776.65
-3145.55
993.248
-837.184
-247.254
1095.65
-98.3753
-1171.75
-1837.98
3307.4
-1787.47
3098.84
-716.19
111.787
504.578
-904.385
604.434
-127.653
3330.93
-2931.15
-3691.43
1865.49
-2584.81
-1046.06
4349.04
2294.87
-427.468
1374.25
-984.277
2042.72
-880.287
-3483.25
-2300.76
-149.915
394.491
-1671.91
-2019.52
1392.63
375.75
130.909
5624.84
1455.74
7783
6933.51
3648.93
1367.93
2881.42
-796.183
-1186.22
5144.55
2050.78
933.085
-0.406627
-377.893
-2091.94
-1534.34
-2693.7
-5894.73
-3306.78
-4933.63
3677.5
-2649.36
-2637.04
-2196.53
-7232.3
-2618.42
243.384
1789.66
-1510.71
-198.539
-125.168
-974.103
1965.43
1106.13
-1914.11
6058.71
8727.76
10047.4
-3162.44
-2295.17
2029.28
-3063.52
-247.841
4210.03
1512.4
3513.49
14517.6
-427.614
-532.74
-2362.75
258.339
-1082.66
-10937.3
-577.765
-3128.45
-2110.01
-47.8045
3680.36
1055.21
-706.181
-879.125
-2631.36
-870.729
-2533.77
-822.587
-225.968
2870.64
1711.13
9904.17
1028.97
1208.21
899.864
-6998.79
-1065.97
-774.868
-2144.04
-5313.1
-825.239
1433.57
2904.01
462.34
-3277.51
-2167.56
818.582
3229.49
-1061.47
-546.092
-5032.38
-4756.19
2030.26
938.163
-1050.28
-159.673
-2786.73
-3412.8
-754.272
-6477.19
-8097.26
-1211.22
-1372.71
-4287.39
487.043
1765.45
-558.475
-2675.15
-328.127
1965.83
-1679.81
2654.83
6459.19
5217.49
1641.72
-319.179
-2386.72
933.977
920.066
3438.37
2293.38
241.335
451.296
3188.01
8259.95
5898.76
1778.04
10980.3
1481.73
5119.77
-3925.23
-442.388
3572.08
-1519.44
1444.01
-2545.21
538
2226.54
8803.03
2842.78
401.587
2741.24
1491.43
-4085.12
-1596.7
-588.6
-2621.54
2776.22
335.576
2998.7
838.471
-1048.2
84.4246
1031.61
1980.32
-208.316
49.7836
-3419.21
-10426.2
-4817.51
-1720.78
-179.728
-3021.62
-8517.82
1064.33
-6910.3
4652.62
29.4029
-1102.82
-275.461
1208.71
2399.73
-1279.9
-3899.77
-1282.27
8647.12
7365.65
3323.44
1037.02
752.368
-2088.22
2143.19
4114.45
1896.32
1765.75
-2617.57
702.62
-7290.27
-2141.59
-2614.32
-232.382
-1482.47
-218.386
929.998
1317.2
1296.57
-1593.16
1792.34
2823.65
-107.797
-610.805
821.545
-1722.73
1405.32
-1687.78
-499.055
-2023.48
908.047
-1717.12
4844.41
3704.05
1427.55
-4578.77
423.686
-5670.73
-4167.31
-5040.11
-2588.42
1249.56
2674.47
2876.46
1173.99
-630.921
-2028.65
-3406.26
-9286.34
1404.08
11559.8
4659.29
5812.93
555.331
5837.06
-2368.49
-985.314
-60.799
-3226.45
-1087.95
-2697.51
-1106.17
-434.113
-274.617
-8479.83
-6705.36
-3105.22
2991.13
1360.31
2227.63
-151.509
-2429.66
-247.272
-2968.62
-682.466
-323.869
-149.06
-7963.98
-665.246
906.143
-2324.72
24.2943
3220.09
4465.55
2833.91
885.412
3140.01
-5771.94
7693.15
-2696.03
661.903
3981.1
3395.63
-3331.71
2276.34
-133.278
-979.569
34.9496
189.246
-602.711
-299.007
5435.46
-8.28686
-1554.11
2379.48
-442.235
-4958.78
-2092.71
-1181.61
5314.82
226.639
-2516.85
477.385
5465.32
-1684.09
-1905.67
-90.0676
2603.29
7879.21
4258.22
2414.57
1167.01
3435.65
2638.46
-644.073
612.89
-270.483
-76.834
-2451.18
-3522.8
-3148.94
499.21
8160.84
12.4949
-268.007
1403.62
47.1807
-4811.57
2654.38
-4288.04
1816.25
-915.743
-3192.42
-3259.88
-3866.41
2898.23
1362.62
-2038.06
-352.491
-1449.45
-1270.03
-2296.76
-3545.88
-1081.68
-2050.38
761.283
756.605
-420.103
-4.36878
-171.891
3402.08
2361.75
534.543
-1940.5
1401.57
14872.3
12980.1
11787.7
2004.54
984.737
1101.58
-1997.02
3374.61
7370.68
-6444.73
1257.57
2857.56
3637.15
1687.86
2860.47
2137.11
-2160.18
1878.78
1449.51
10469.8
1498.76
-726.603
-3514.72
-1394.95
326.505
478.855
1674.12
-157.998
404.545
117.471
-2619.41
462.111
5309.27
3212.61
5705.76
-3857.63
-1594.34
839.048
-492.932
1018.16
-419.98
371.092
-2770.23
-769.416
-12118.3
11132.4
6139.33
5766.98
-1654.75
-5721.35
-1025.15
-1923.8
-1781.45
3316.27
404.578
537.892
1376.2
1246.33
3905.01
12358.4
4758.33
1027.71
-603.843
991.059
3110.45
334.054
-436.163
-1218.59
1232.01
2574.05
-578.171
335.028
3206.87
-3012.1
-1139.05
-2740.94
-5974.24
-1677.79
-2721.08
-123.795
-338.443
-2582.85
2749.4
-207.089
4477.51
261.816
-2594.84
1636.73
-2716.15
-4585.23
-619.873
2168.07
-969.312
986.634
-2668.8
1062.13
1557.33
229.447
-3290.51
-4277.67
-6531.16
1682.56
-1017.79
1714.16
-995.743
-981.599
-4433.76
-14195.6
-9905.95
-3819.65
681.775
-935.755
-2097.08
-4936.34
1543.99
1186.67
-2397.34
-2459.34
8611.2
-2213.57
-3777.39
234.543
1155.44
1317.99
-1392.17
-1908.02
-1026.05
-232.9
426.842
261.387
1991.5
2482.95
6929.19
12650.4
1576.16
-2532.43
-1192.32
-88.3796
1014.93
2425.48
4315.42
779.713
-6895.54
-2405.35
28.3716
-1824.61
3919.32
2404.55
-694.862
-246.42
1076.4
2164.7
-2401.18
2762.92
-1900.93
1062.39
-759.537
-1102.61
875.672
-2975
-3031.81
3748.31
-1459.25
-24.4357
-2773.64
-273.56
654.612
988.213
-261.171
1388.7
-107.498
-265.546
-618.702
-1970.24
944.857
-1246.39
750.542
-506.955
843.451
7194.95
-2870.29
-9616.97
-1007.09
5418.75
7803
748.616
5384.71
12383.1
10242
12107.5
5045.44
-3014.13
-3226.68
-14557
-331.208
-870.891
544.636
-571.702
1775.89
4346.76
5060.39
-2515.65
-426.345
615.401
-274.426
-266.607
-3473.76
-6275.85
-2821.02
1502.44
5058.44
-3948.08
-1009.19
-1590.78
762.934
-474.119
602.263
2049.07
1636.28
-387.5
-402.021
80.359
-1231
-2069.82
-6249.24
-1211.1
-1269.55
-1817.08
-6028.71
-2794.1
-940.036
-5605.05
-3269.93
-1287.42
1115.83
1290.61
7414.78
-850.147
339.068
949.892
-1061.66
-581.285
-850.212
1214.13
1465.25
3558.97
-1109.93
2244.3
-518.857
6318.72
2745.68
8169.25
4004.07
12775.3
-3049.77
-425.551
-4230.3
695.053
132.052
-1818.16
-7670.73
-20710.4
-9573.99
-2561.84
-2747.03
-1836.41
-4281.47
2634.82
1802.79
-927.994
-852.401
717.01
-769.282
-3477.54
-1687.63
-1324.04
-5415.55
-1848.3
-3748.98
-813.703
-1995.56
-1463.65
-1346
-196.595
-241.281
-2216.11
-4226.5
3567.87
2519.2
2551.7
1225.17
1229.74
875.481
9370.77
2435.74
-1517.79
-1307.54
512.85
1178.41
-1797.22
-423.503
-2591.32
-4267.5
1164.38
-1742.74
3859.14
885.708
1322.26
-5127.92
-3433.71
-17385.5
-4266.85
-1934.04
2844.08
-650.963
-574.485
1434.97
-657.294
806.664
-1729.62
-1439.45
-1801.89
448.879
-1307.21
-70.2119
-923.074
-1424.55
-119.47
-730.803
-4277.5
469.588
-1540.44
2348.54
2044.04
1430.97
4829.1
-2639.92
-307.576
979.206
4947.14
871.518
-3132.7
-1613.32
-1337.67
-4585.39
-438.715
2166.87
319.215
-2378.6
-6334.41
-832.697
3635.15
2302.46
7818.49
-89.501
-2599.79
1462.81
214.182
1411.28
861.041
103.475
2985.45
5632.82
3020.13
-708.424
5187.92
11339.9
5872.75
-1114.18
-8429.68
-3248.79
-3966.94
3640.81
3342.33
3226.52
2229.57
-251.508
758.247
546.741
-1291.96
-8559.84
2557.63
1228.97
-2088.47
11856.8
8192.58
5572.4
-2223.34
13.4684
-1410.48
637.882
385.47
-448.783
278.346
-1400.02
-1087.09
-282.908
99.7564
1728.87
-156.583
-323.535
274.454
5521.64
1738.63
1390
2926.67
562.836
1108.47
1245.24
-1164.71
662.81
-1478.72
595.572
-267.736
-402.878
70.9134
2363.76
2638.05
2883.13
6941.28
1225.58
-4462.72
-707.98
-3030.05
3146.23
-3270.5
3606.71
725.733
663.76
-624.078
-2917.21
-1768.44
1010.05
-1722.1
-582.293
-1419.34
-660.558
883.135
3905.15
1061.13
-3479.29
-3454.03
-8400.25
-10232
-7690
-4117.62
-335.205
-1733.69
3256.59
-624.33
621.655
-1860.14
-1669.47
-7861.5
-405.059
1697.73
616.774
-725.492
3817.27
426.825
188.512
1352.52
958.18
-402.834
1996.69
-1357.36
-5043.85
-622.572
7831.95
2754.69
3898.27
6073.87
-2927.16
-1340.17
-362.756
-4814.8
-5293.54
-309.106
-2371.76
-2076.59
-2770.93
465.977
-1042.04
1941.51
-639.285
231.512
69.9739
-4894.83
-2199.75
-1935.74
2128.41
-1977.1
-2087.77
-141.008
8214.84
415.067
-660.706
-4556.43
1821.71
1235.13
-1289.21
-282.314
384.051
-3101.29
-748.148
-734.797
-1052.13
2511.31
5549.26
4636
4846.48
4455.83
6023.19
-116.484
1389.07
-10.406
3416.6
-91.1852
62.678
671.106
1017.62
7486.39
917.583
3640.34
-913.337
-5008.21
-12310.5
-7002.84
-5799.33
2891.65
222.914
-10080.3
-318.06
105.913
-475.756
-1604.68
2067.49
-779.332
-231.039
4370.29
-1486.22
-8140.03
2444.74
1351.27
3625.29
-3293.55
788.032
-2100.35
18.9029
1627.37
1852.12
3065.99
1214.49
-858.417
-1380.52
2318.4
1091.91
1198.04
-1121.92
-5719.67
1274.13
4174.98
5639.04
192.257
3535.99
792.962
-1615.07
-2114.3
1693.98
5082.61
2908.19
-5694.73
597.844
3142.15
-215.683
1494.82
59.4551
-2444.3
1467.69
-1586.16
-921.717
3703.2
-847.171
807.781
-2414.39
947.363
1249.56
-59.7029
224.7
716.651
-664.653
-719.682
4165.36
-282.811
-5258.65
1900.13
378.593
756.028
-1205.13
-951.668
667.12
-1343.2
-2505.67
2623.09
-6592.67
-4314.47
-1128.39
-365.762
567.788
438.07
-5654.93
285.453
-1201.59
-3285.84
417.677
-5588.87
-5980.25
-2252.23
381.946
-994.085
-349.855
-1451.27
-1181.04
-969.327
3028.47
906.991
2764.07
29.9269
-581.348
2080.98
6914.52
3971.21
734.996
973.987
-1086.73
-1496.15
222.802
1785.87
2722.55
2835.71
979.847
-1527.56
-143.342
634.256
906.393
195.504
-6320.63
2852.51
-1349.52
1746.98
-3733.39
-1856.14
2783.84
-756.69
-7899.48
820.443
-751.522
315.344
-424.093
-6267.05
1845.63
-2144.19
-6429.99
-4065.38
-1129.25
1574.61
3338.76
-1396.86
-3351.73
-5092.57
3736.49
2703.01
528.787
2052.97
5522.05
-3857.92
428.383
-1875.39
-1179.51
199.237
-2312.11
-788.215
1960.1
-1482.16
-3499.68
2819.21
2241.18
7775.78
3937.35
-614.754
3990.74
-407.456
2944.4
-632.958
-2826.97
907.447
510.353
2378.33
1400.86
2627.27
729.717
-183.249
-4621.04
1363.42
-7948.76
-1454.49
-457.74
1136.41
-2878.74
-1403.47
2202.14
82.5783
-1865.96
-2225.35
4478.37
2307.27
-6287.16
-2305.59
2619.19
5759.67
-3544.65
-3371.29
-2389.63
-600.599
2328.39
1540.26
-202.791
14520.1
2231.87
20353.2
25208.3
28659.9
16686.3
13201.9
7985.78
7826.46
3816.88
4129.44
13417.1
12648
6314.54
2950.84
3087.41
303.695
3547.6
5729.21
3366.32
-560.387
-443.351
108.687
647.542
1366.12
-223.251
3756.5
620.729
385.402
2417.55
160.133
-1892.7
36.7068
6909.53
-457.299
1839.48
575.483
-246.459
2945.2
-2602.76
713.9
4937.09
-693.831
2728.92
-1180.5
3351.4
263.262
-50.3758
40.7954
678.312
453.579
3990.18
2730.8
3600.82
-1184.71
343.36
-877.099
-314.657
661.181
48.3356
1215.84
-250.862
-884.439
-4470.1
-2616.83
-1544.14
-1620.15
744.19
565.101
12527
10069.4
7285.61
4257.4
6471.57
259.319
-3519.01
-1902.76
791.609
-1189.14
-724.418
1271.91
1739.15
384.157
429.547
529.089
-1260.82
354.784
5.34555
-1073.22
304.379
-849.758
14255.2
-307.837
10801.1
-3223.48
379.828
1284.1
10757.5
3432.83
21737.8
5871.56
1921.89
134.26
310.635
-1312.21
-1489.56
-2500.33
-639.648
-731.118
712.251
-4788.79
-13402.8
-2034.89
-3072.89
1121.33
-958.451
-7955.04
-14391.6
-2889.64
1542.02
594.186
-295.045
-4957
818.966
-202.076
1739.18
1314.22
3155.22
1354.5
1456.56
774.156
-1213.18
2104.8
6991.68
1181.08
-1371.9
5696.01
11583.1
4256.26
-5453.71
2672.03
-79.7167
2245.38
1158.44
3651.46
554.589
343.311
521.553
2949.88
3876.71
3664.47
5742.3
9750.05
7306.13
6152.11
233.911
-287.277
-1993.16
375.585
2647.99
-5281.26
-4139.49
2864.31
-47.916
207.711
4046.68
8915.92
2760.51
-462.11
8667.56
26867.3
4985.25
2614.23
-1482.55
-962.475
1109.25
-3309.33
4283.03
1020.58
-3656.84
-3157.98
-2023.33
-666.168
-710.38
813.049
1416.08
1947.3
-1290.39
2060.4
-1185.35
-3087.47
90.6046
382.718
767.614
122.75
4168.45
1461.53
-302.415
2794.7
854.219
3031.19
-1872.84
594.812
-286.525
-237.404
3700.61
243.887
-1857.62
-5877.38
-376.225
514.17
-349.143
2553.45
-3238.76
-2012.93
-1580.2
13243.4
4294.31
377.55
-1450.74
1374.15
6007.57
1166.3
-1430.62
2059.05
1511.61
-2199.12
-710.569
-2451.62
-11862.3
-4209.36
-1615.26
-3263.38
-2771.58
-1831.11
-882.763
4791.89
2609.04
5026.41
3897.25
717.575
-3223.3
-1677.47
8889.51
1425.25
3066.03
-561.963
5074.23
-408.156
2941.8
735.805
-380.64
-1165.88
-1929.09
-8363.47
478.154
-63.3632
-316.403
94.3963
479.682
-1632.61
-225.268
2874.76
-236.107
2674.52
4416.05
-403.615
1226.47
2875.24
6098.62
2151.83
-552.302
-4576.99
1843.32
-92.9536
-3466
7640.57
-2564.04
-3102.09
4881.98
3620.57
-1608.04
-3784.44
-7671.49
1927.21
161.759
-1425.62
-1279.47
-5823.1
-1843.53
-1100.97
-1516.4
-891.844
1473.63
-1645.88
108.428
-3351.98
664.064
1447.46
7817.89
7174.76
132.479
-3851.93
2286.13
1819.71
-1103.44
-1182.68
1712.77
2477.56
11364.4
4896.13
233.28
3832.38
1654.8
-488.914
2606.35
2239.59
-3258.02
-4858.69
1777.09
-1295.74
-1270.15
3833.91
-857.924
-4404.36
4585.77
1148.68
-5063.94
-717.886
-828.659
138.388
-1982.39
2836.28
464.793
-2489.2
-11572.9
-1245.2
-2795.04
-868.678
-844.718
893.896
-2100.72
-1668.29
-1533.98
-3818.75
-4630.23
1537.32
2556.04
505.007
-2038.62
1870.78
-4874.54
-1022.86
1341.96
2965.94
1788.09
652.329
4143.31
28.0296
1123.86
743.9
-1609.69
-650.616
-4872.65
5286.35
835.689
-777.388
2746.57
6952.93
2689.29
2088.34
-797.035
1123.91
2778.07
-2320.41
307.539
-4673.49
-910.163
-788.124
-658.004
-582.102
812.84
2404.7
746.53
6165.24
6447.83
1670.86
1325.72
-9030.3
86.6678
583.32
1025.05
-2791.25
-2433.28
2814.61
-1113.63
-1027.37
369.796
923.819
157.941
48.3857
1226.98
2476.66
-916.581
-3715.56
-5256.53
8313.97
-364.054
-4673.13
-6111.73
3686.06
7431.82
5865.2
2855.47
476.569
-5376.12
-793.178
-5867.7
-2882.58
-1289.96
-1356.8
443.136
5063.62
5864.24
3454.01
10209.6
912.167
5793.32
1934.14
-330.389
-2860.28
-1318.92
-4312.65
725.688
-833.206
1314.46
-1008.71
-562.285
-881.767
997.751
2258.96
2811.59
3320.65
3551.69
16.1239
-220.812
-1103.09
471.471
-885.814
-528.087
-145.496
1315.73
-3867.13
2506.03
-5182.38
-5451.06
-2507.58
393.848
4745.96
2473.15
-267.609
-6451.26
6504.63
6570.38
917.533
301.704
2819.41
-930.719
-432.983
-1385.54
-3203.3
-2442.9
2064.39
1799.49
147.672
2116.66
-1045.56
-2619.11
-2263.53
2671.78
-2458.97
-904.942
-552.455
862.64
1511.28
743.675
-3609.88
-352.056
-49.0587
521.244
-633.461
-442.288
874.972
-523.695
-4948.7
-823.331
-618.788
-957.078
508.167
2708.56
-1215.7
1244.25
3491.08
3603.68
3909.82
-3770.12
-3037.68
-323.384
-4765.37
-7145.07
-4327.03
-11547.9
-3122.01
-382.112
-860.675
609.376
-551.864
-2292
650.112
-4137.11
4696.7
3246.58
1684.17
-1397.74
3448.03
2009.31
565.84
-522.422
-33.0204
262.126
823.658
3196.5
2233.14
-2622.43
3195.68
7044.58
4220.01
2322.11
529.199
3288.28
1374.46
143.729
347.185
1375.02
397.521
-508.689
1822.14
848.423
779.384
756.523
-1660.71
-1802.95
-4137.6
-10339.3
-3708.22
4282.99
1314.65
2185.11
6456.13
2845.21
9381.88
2886.44
-2838.06
-254.042
-3915.81
-4869.09
-12064.1
646.859
7609.4
-755.347
-213.784
1724.6
-505.829
-1291.17
4466.99
-2235.05
3875.93
-3774.43
-3037.28
-7239.04
-3920.23
-7633.91
-8344.45
-8247.16
-7919.23
651.672
-1494.78
-2065.48
533.068
-1755.05
-834.026
-4772.62
-2914.52
2018.69
1665.61
2052.01
898.97
702.072
-1870.9
2361.43
-423.351
2295.92
-4273.19
-2081.4
-2060.97
113.399
-692.671
-1927.06
-630.619
-3424.27
-2164.97
2263.18
1433.95
-2054.95
-1895.08
156.755
-4633.52
11594.3
4339.59
12639.2
7516.95
2216.91
662.147
-2548.79
1237.41
-2612.5
1392.85
-794.864
-2649.99
-2091.48
-1759.78
2415.09
994.782
-1108.79
-313.881
-330.943
498.336
-1322.02
4411.24
-4393.16
-9068.05
329.746
-1939.42
2434.99
2865.97
179.283
936.924
4519.72
1230.1
603.712
-368.188
-580.262
1064.13
6461.59
1211.49
-457.213
6400.25
-675.134
-2023.39
-2253.5
1115.22
-86.2324
6282.47
-923.488
1649.64
-1003.28
855.349
9423.19
4842.36
2081.09
8867.16
6190.35
4574.84
-570.709
193.993
-2349.46
-2822.89
3048.77
2509.4
-1393.47
-698.031
-1293.65
1722.98
-1735.94
907.044
-2773.15
-2668.13
-2131.32
-744.319
1763.52
2050.18
898.62
1560.47
6131.59
4493.93
-900.457
-47.3492
3323.91
9352.94
-2989.26
-6781.57
-1317.04
-606.078
-4568.58
-1864.64
394.054
1034.67
-1321.9
2931.27
-2157.86
-979.913
-337.507
-4359.68
-2417
2041.99
1681.67
2457.86
-977.349
39.0084
-1401.32
-1244.1
6932.52
2387.65
-854.606
-2049.84
-1377.3
213.496
12660
3341.96
5681.97
5194.68
1939.49
-3717.42
3299.93
1419.98
-3339.84
12650.3
8963.26
7406.32
5098.02
-559.915
-2020.75
-3141.78
7190.37
470.353
438.665
867.198
-90.3305
8344.85
771.02
-2186.28
507.207
-4639.38
-1245.55
-918.681
3756.93
467.396
6419.18
33.0067
-3833.75
2808.6
-3298.17
-3112.14
238.202
275.658
-242.071
-793.765
2009.52
408.167
-540.854
-4077.77
2683.64
4693.54
-676.132
-6068.14
1564.06
3806.35
271.512
6171.49
-1951.56
187.747
-1661.65
741.594
-826.088
-3.74432
-920.507
-57.6084
-1699.86
-4017.52
3116.85
9350.58
-3373.17
1023.04
447.342
-1371.74
2381.8
6587.58
3481.06
-760.619
2709.85
3080.79
3909.59
1242.67
391.816
-268.331
-368.191
-3929.71
-27.7559
-332.181
2623.95
2396.82
4209.05
4821.05
1281.6
-2142.26
870.908
2863.38
-160.195
-809.697
762.474
3533.27
670.177
4118.19
56.6167
3037.58
2707.34
-1914.62
-3201.96
649.558
1724.67
-5952.37
474.12
3407.68
-656.187
936.695
209.753
207.403
7765.05
3906.05
11672.3
5188.64
3174.57
69.301
506.535
-1589.93
-2080.68
1101.87
299.292
-612.433
-1584.79
-2087.13
-6038.65
711.466
-1826.81
296.929
1498.5
-645.765
543.225
148.578
3827.71
5663.51
-69.5653
-1132.22
2195.85
-398.487
426.725
770.311
1260.01
-2629.94
-1906.62
-7003.92
2414.48
3319.96
-1168.12
25.0338
434.295
-9.21047
3452.43
3308.1
1857.66
318.589
-1097.09
-3054.36
10.6248
1651.1
-392.784
540.942
1749.49
1704.75
-823.845
-3120.45
-239.452
226.973
877.418
816.621
-3629.59
3736.05
5036.83
5481.16
2267.89
2437.25
2359.27
4485.63
6656.76
5293.38
2146.01
-629.082
1263.55
493.109
5385.09
-1891.55
18.9167
5078.87
2297.68
1863.67
-131.251
121.731
574.902
3862.57
-469.552
245.63
1052.53
-242.141
642.991
-2341.58
-2514.68
2023.96
2153.34
-1068.3
108.776
-255.285
-6128.73
-1676.58
463.748
-4619.66
3546.15
-1866.04
1305.33
-312.913
318.408
4594.71
-5131.11
1423.15
-3731.8
-1378.9
2033.14
-1142.6
-1688.91
-2067.37
5515.5
5630.33
-3598.34
1995.59
4817.02
13734.7
4860.23
772.278
347.165
319.569
684.549
-3444.88
-2514.6
-7916.44
-5450.6
-10467.3
-4726.12
4245.03
418.986
-729.275
1596.69
533.563
250.323
-1529.24
-1518.7
-405.073
1929.57
-2304.37
1992.28
-7685.79
-3432.85
600.964
-2677.44
-2782.44
-674.985
830.459
-583.038
-202.365
-181.955
-508.549
6768.26
2812.98
-2381.38
-5788.12
951.633
-1578.39
-6898.62
-1386.9
36.8927
-319.807
1475.41
3243.03
3037.42
2012.3
228.22
1850.38
-2051
632.362
-205.427
-804.895
-1463.72
-983.114
1668.17
2121.34
-5288.34
-1571.06
1368.56
732.841
-510.646
1122.16
518.303
-1291.68
-642.301
2424.17
3035.68
391.771
-3115.65
-4373.16
309.003
-3441.58
-712.684
-172.38
-1853.47
1564.29
-1616.07
-2528.16
1675.42
7826.91
111.513
7077.58
3717.27
-370.414
3096.46
-1000.12
3657.55
-3597.33
-753.566
1106.14
2232.81
1700.58
-3316.75
-352.883
444.776
1382.43
1829.47
-960.943
956.343
-220.756
1777.06
-1163.97
-7590.33
1299.8
-773.802
24.8344
1043.52
-72.1479
4770.18
1888.3
-1876.4
-24.02
-1218.25
-3849.14
-3691.92
-1890.13
-1290.53
-143.904
996.205
-2327.1
-1457.46
201.973
-709.229
-607.853
470.033
2663.65
3540.3
-997.652
-2731.47
-1585.48
195.11
342.427
-4098.97
1106.73
-1401.8
5240.76
-194.057
456.742
10379.5
11652.4
5046.38
937.008
-1504.2
-2525.13
-708.467
655.035
-56.4613
3818.56
1982.96
1810.69
-1559.86
-5668.87
-1636.29
2576.32
-1784.6
4461.08
814.243
1955.7
-2840.89
-5302.76
-726.151
1857.53
-3588.68
260.723
-1066.09
3657.02
7450.54
4083.83
510.723
2410.39
2348.72
4062.42
-369.451
-11746.5
-6266.55
-395.47
1.01846
-1404.94
-1463.64
-7620.89
1871.06
-6828.72
-4659.26
-948.163
297.57
1628.86
-1335.38
-6838.9
-2508.07
-11204.6
-2785.53
-1658.36
1420.45
4509.53
-4103.69
-3995.15
-499.222
336.225
-1550.01
370.86
-3398.22
853.239
-4072.27
799.35
1047.62
41.0253
-788.31
-681.452
-2608.42
-2912.44
-1645.35
1305.43
-1211.77
485.911
1454.88
-1855.9
-1157.12
-3501.36
-1497.38
-2361.87
-895.344
-4625.47
1681.89
859.753
-3056.13
-2613.99
-2306.15
-2658.19
-7421.86
-1524.92
4295.08
2951.99
2291.54
67.2158
266.119
-917.08
3250.87
1138.4
-207.884
-6893.93
7784.23
18240.1
13370.4
10607.5
5988.26
-757.045
-12058.1
-5839.65
-4330.75
-4928.49
224.95
830.214
2848.96
-1579.73
-2894.41
-585.899
3348.26
5241.67
4545.09
1537.78
-1252.59
-8482.79
394.472
2781.25
-7110.32
2108.24
835.56
-1868
1580.27
2690.49
925.337
3435
-1673.88
-460.044
172.206
1060.48
3264.96
2248.83
1750.93
1478.69
6626.26
-7282.4
-7003.57
-1300.71
1412.04
4664.18
4091.16
4419.76
933.969
-1515.12
8344.54
10526.9
628.077
1347.18
445.319
-6684.91
7.39101
-2348.78
-5242.33
-1076.69
-96.8965
811.657
1882.03
3431.28
2601.67
3269.14
-2978.62
-5829.95
-1807.55
6350.11
6327.53
9515.43
1336.17
7220.05
-3263.22
3226.48
-82.1179
1281.84
791.27
2469.22
-358.137
346.116
-1800.99
130.603
-6804.57
-6323.05
-469.499
771.856
-3398.93
-2594.3
339.791
6149.83
740.722
261.676
8209.96
11912.4
2074.87
1792.6
-3129.54
-2590.15
2556.49
10978.3
4745.13
2322.55
-2005.75
-210.912
1160.06
-4799.4
-3384.35
-1035.21
-1194.93
795.49
604.608
6394.71
3024.49
5802.2
1004.94
461.681
-699.286
3419.54
3046.91
9385.04
11140
7013.83
1985.3
90.364
886.844
788.462
1134.34
-3.93945
-1751.87
-1778.46
-1641.53
772.406
-10314.4
-3746.33
-404.017
-1336.78
-1982.25
-192.707
1529
-4988.92
792.947
926.601
210.361
-3795.09
-1757.75
3154.39
-778.729
2824.14
3860.72
2368.63
