839.984
-2083.9055
828.95335
595.517
-552.599
1766.198
331.32
4647.135
8636.305
15338.66
18607.8
7524.46
17994.65
15254.25
11151.555
282.65
1028.6025
-817.95
-2514.935
-12759.1
-13823.75
11564.3
2488.0055
-9870.455
-19771.35
390.77
26319.835
72959.25
75955.15
118668.0
123610.5
82844.4
74154.2
40830.65
35041.1
25666.4
24595.55
7831.73
6223.215
4114.51
-2966.95
-6910.675
359.885
-1951.82
-1875.49
19255.3
40560.05
-9795.07
-12340.25
-4715.405
2161.065
4608.864
903.215
-10962.275
-24565.4
-20039.95
-17335.1
-12670.315
-3061.0365
1323.813
2916.7023
12304.35
4370.612
895.63255
5970.645
12791.275
27345.5
22939.85
31593.1
10464.095
-6849.03
-16226.95
-19280.7
-14014.48
3824.29
22439.95
26710.1
35818.9
30959.3
20912.05
18258.15
21745.6
16069.025
31674.9
26877.2
32512.35
35664.75
11150.62
13530.5
12146.825
5333.123
9346.64
23066.115
8291.35
4599.42465
11720.59
-16623.2
-3502.635
-2206.315
-7617.68
-15460.235
-480.755
-3176.205
14969.55
3409.3585
-4919.27
-5199.76
-5042.995
-6856.41
-669.1675
-4843.165
-2819.01
4125.805
26124.35
33687.3
50073.85
39951.7
21874.65
14579.325
13667.185
2283.74
-17557.3
-21781.1
-1342.685
-5415.827
-12521.355
210.025
5160.905
25307.1
-4501.17
-2352.11
-6042.4
-3002.5585
-4981.069
-638.0075
-909.135
-1191.1845
-3739.2
-6365.505
-14118.7
-296.18
-2653.875
3567.975
-2311.11
-4432.43
-8456.91
-6643.37
-4056.69
-3228.73
1108.32
-7159.095
-1246.58195
-5113.15
-3232.0515
-2797.7855
8805.39
8009.345
4129.825
-446.3
443.305
16742.85
19334.45
6717.365
-1015.629
-1031.648
1882.635
-1246.835
-8902.305
-5124.255
-7686.98
-4033.44
-2551.025
1989.91
-312.145
8774.515
6094.275
14978.45
14778.55
-227.639
3399.875
14359.775
3703.76
25959.95
40731.9
-1858.376
12413.34
19308.25
12044.6
6183.145
2105.535
4174.515
4138.215
197.576
-3597.16
17406.9
2115.205
-179.44587
-5943.83
-6274.245
2141.035
2098.8235
9404.78
29760.0
38268.1
25052.1
20325.75
39925.2
38647.35
18921.35
35887.6
15036.95
41927.9
18936.35
31369.35
31852.25
65581.05
40050.6
57315.8
31403.2
37180.9
51944.0
41657.1
68584.65
38000.0
13900.585
1206.025
-4525.09
2745.5345
-4572.025
-3495.14
-795.74
-992.821
-2348.95
1947.3215
-1189.075
9277.19
11531.45
22311.65
5886.005
2951.075
-1122.645
-3859.57
1249.355
-12164.7
4234.72
-2852.485
-173.1535
4634.525
-2335.245
28336.95
45941.8
93520.95
92511.65
81001.35
40950.75
76957.65
70594.65
42548.85
36194.85
10272.92
-24042.65
-16922.9
9187.51
5808.66
1617.386
6024.525
-2987.08
101.405
10910.115
3665.87
7066.105
5580.9996
511.0645
-7122.565
-10756.02
-11068.395
-7274.65
-1779.24665
-2901.5675
-4657.895
-13249.305
-27674.55
-39109.8
-35962.95
-35262.6
-10064.415
9244.855
8821.33
1366.195
21253.9
8980.9
8051.98
28180.85
18733.95
31151.45
9941.775
4531.99
14117.05
360.315
-2157.1585
-12310.335
-23849.55
-28096.8
-17198.55
-2184.18
507.395
11376.635
23037.65
35692.2
18113.1
23847.55
24833.0
126.355
-6019.5015
-11045.985
-865.233
-2250.09
486.0185
1607.8135
-2706.565
-4989.39
5712.525
31403.65
25707.6
9312.48
6604.57
5947.55
-4163.755
-6876.365
-13279.21
-10929.26
2421.69
-1242.8665
-7385.865
-15722.9
-7680.575
-5310.605
-7290.645
-225.9885
-3100.45
-2202.1
-13715.395
-2415.345
-2597.32
1457.24
18725.3
24605.7
23141.05
40890.7
23161.8
12671.735
21665.75
35574.85
40446.9
40838.75
30851.8
49321.25
20391.5
21985.5
-3276.1
1410.77
12125.41
-6922.695
-7100.595
-11897.575
636.335
11696.6
-215.385
-875.7425
3950.22
2815.2435
-2759.285
-2484.835
-9537.35
-11175.0
-11277.015
-20766.7
-22337.1
-11729.8
-3654.165
-20445.65
-8245.9
946.87
18383.85
3600.735
19500.1
2154.755
-1078.65
377.517
19778.97
27148.25
26813.05
66841.2
60667.75
62194.05
124856.0
112047.0
103491.45
46177.35
35632.65
64042.35
71107.45
24977.15
15987.65
37791.95
30898.15
23038.75
42988.2
53473.8
11305.03
1780.163
-3757.93
622.179
385.368
-690.71
891.84
3784.645
8427.01
31363.75
11446.465
10533.94
-604.9
-1950.215
-14756.15
-15726.45
-5985.9675
-4986.38
-5901.685
-4882.4485
-7053.96
-1901.8645
-4665.1265
-2778.19
-545.727
316.145
4895.32
1832.017
-376.565
-1417.301
1337.025
-429.5475
-2872.58
-1371.246
-6657.4
-3120.515
2823.995
-2404.4
-2046.15
-1403.2565
6438.26
1808.924
-262.95
-4328.815
3195.945
-6672.365
-5303.555
8768.51
20775.05
17195.0
-8811.49
-5689.045
-2103.2765
7320.22
12397.455
6698.825
-1321.27
4702.195
1038.905
536.074
-7807.02
4635.55
25935.2
27073.95
11271.045
4727.65
-20085.45
-1911.809
-126.03
11458.985
5906.785
5859.395
7427.885
23592.25
11977.415
5176.337
-16028.5
-18011.7
2559.1245
4578.735
3138.405
18016.15
28083.8
7613.91
7433.6815
-3167.33
-1608.415
16658.55
5279.065
15757.91
8758.835
5986.851
10053.135
24350.815
38915.65
28228.4
36893.9
69982.8
57966.85
42818.2
30548.2
73940.0
35451.9
27360.45
39531.2
36869.5
28861.6
9944.615
1613.415
4450.91
1685.6065
1938.432
1106.7415
5748.565
7070.4225
-1176.76
9293.74
4278.77
-2659.905
-1380.1814
1778.465
28973.0
8427.07
11699.155
6520.36
8055.71
499.1363
-5399.1
-6872.895
-1178.134
-2924.775
-9403.82
-3535.18
11355.545
16320.8
917.4271
4218.7915
-986.27
2526.275
-5357.645
-8740.62
-4123.83
-2973.98
-5081.0355
-6087.025
-12189.37
-16251.0
-14339.9
-6785.5
-4866.05
-197.4595
3877.03
9441.216
4320.025
6789.285
9894.45
9247.145
517.354
3147.9115
282.9625
-668.1185
1389.6665
-1926.5695
485.30265
1840.268
-2678.035
-1461.145
-316.045
-4380.635
-2602.56
-1723.92
2002.5403
6299.07
24718.05
11687.4
2941.765
6296.555
6551.305
319.358
637.64
-708.588
14917.46
27993.9
48100.0
48943.4
26421.9
-8683.115
-15454.85
-17998.1
-2598.635
3235.4765
13272.9
10808.26
40023.15
21421.4
11145.705
9002.88
13667.05
21234.75
33738.8
25943.6
20104.7
28164.35
6707.325
5702.99
377.576
1087.86
5770.485
-685.709
8632.39
14167.1
9000.83
10599.245
22310.65
15092.535
21297.6
22879.25
16754.75
2525.977
8434.06
-1026.005
26491.25
37301.45
43686.45
51667.3
80527.0
63449.45
60618.85
31323.75
20171.65
10746.29
3752.545
-3425.2515
-25195.95
-21680.2
-10057.275
-1365.47
-6586.81
8106.865
6603.405
7877.175
6685.845
-9000.385
-1179.749
-2018.105
-36.9995
-4969.18
-9065.13
-9974.855
11740.06
26251.45
14677.45
4459.745
-1396.95
4407.37
6047.055
11224.09
22092.4
23763.7
19634.2
34040.8
58760.65
54552.35
21594.35
22658.0
-1284.32
-545.905
-5198.05
19798.93
12880.1895
-3109.335
-1409.946
1312.095
18051.15
1161.11
-13329.0
-38009.0
-21827.2
-7128.405
-4261.455
-2985.815
-8694.075
-833.1305
-1893.2535
-10811.1
-18130.95
-12360.36
-3452.725
1729.0745
-413.946
-2240.125
3864.745
4736.09
-1098.61995
2495.87
-1504.3325
-1244.2445
-2092.57
-5994.785
2688.115
16159.355
5274.77
-8270.93
243.776
-124.42
-4104.27
3996.4
574.1175
-4291.36
-4183.145
1412.7
1340.055
270.6755
-368.515
-1214.849
-4301.08
14706.45
32634.7
42464.1
49825.55
34586.05
51437.9
18158.2
24654.05
22102.35
32635.3
18516.75
15509.15
-196.108
12167.07
2207.31
-16905.4
-6901.445
7911.955
-8126.15
-10605.735
-4930.645
-5622.3905
733.57
-1238.676
-299.6665
1272.3165
-3256.706
1439.21
29.975
610.8416
-361.837
867.2
-305.00325
921.41
-1862.88
178.084
-1454.4235
-2447.5935
-10990.57
-12277.9
-23080.65
-25745.7
-30560.95
-24425.75
-3763.185
3137.575
4912.625
25241.1
33803.7
10993.52
-711.63
2993.58
381.869
-197.06
1699.22
1904.325
-1114.03
2348.17
-3459.045
31.115
5720.579
2806.57
11941.105
47158.85
101866.0
52245.5
53838.65
13006.5
8265.395
5468.085
-1491.235
-721.18
3794.69
1400.25
-8436.68
-4431.121
3032.88
-2592.33
-945.088
1158.1355
753.92
89.395
302.32
-4459.22
14539.35
20382.0
13422.1
13030.015
19281.25
12052.05
7523.375
44184.95
40218.65
26007.45
27071.95
36948.8
31993.25
22868.25
20172.35
-6132.43
-9000.415
13759.6
22212.65
12793.695
20555.95
40616.35
51580.9
16758.0
12234.395
13340.05
17625.41
55885.55
49128.95
33789.0
24346.3
16974.25
8901.805
3773.625
-2686.29
-2474.8245
2885.32
5544.4145
11444.64
2439.835
2360.535
12510.375
2058.701
1185.2105
-4312.97
-4410.38
-2652.768
-5432.64
-354.325
-4890.44
-1799.905
-1864.545
-2900.975
-6500.2375
-6760.78
-12986.995
-467.855
4995.535
11823.3
5428.715
19642.5
11043.115
-5873.1
-2696.48
-17754.95
-3732.854
-12489.305
-4155.995
-1566.7695
737.845
-3124.72
3451.765
-3478.124
-3276.965
-3500.09
2927.8825
27.545
-240.74
22666.5
31892.9
46748.85
48419.1
49772.15
47063.2
33227.15
37522.9
75255.3
85596.5
61072.35
58068.4
55679.85
53794.25
29015.4
45071.9
76765.25
88743.55
41903.2
37198.05
53446.35
47762.15
26440.6
19470.35
19119.425
2122.7755
5804.44
18779.65
15435.15
27580.45
15999.35
12578.15
10714.09
14487.0
-1826.065
-356.495
566.227
-2627.995
-20500.6
-27203.9
-39826.4
-47191.3
-19075.3
-11589.175
13831.65
4565.725
9627.47
8960.19
20606.5
3539.89
1976.4975
2138.465
-1.205
9089.585
1976.158
1933.255
2351.575
-1511.3625
2908.805
-722.701
-6221.885
-18181.75
-10654.93
4833.065
-197.115
-2953.95
-5517.582
-4946.465
838.525
-5244.89
-527.7716
-2682.795
-1050.62
3460.015
14286.835
25376.45
10150.035
10297.825
8720.435
-180.235
-193.66
1947.385
4527.251
24110.75
10856.78
18456.15
24960.5
2607.431
-3914.0
-4313.36
392.4295
282.91
-175.105
755.535
6019.905
-3686.905
-9109.585
-17038.8
-24098.0
909.25
3320.155
13334.985
22572.25
25017.2
20409.35
5426.35
22092.5
28977.85
32494.55
77399.2
44361.65
18070.68
34282.3
16883.75
11174.59
10743.855
8993.315
17295.4
2210.255
-3222.443
-8925.71
-1200.24
-3945.432
-1560.605
5391.62
2839.16
5082.85
19443.235
6706.355
-1266.0875
-14008.55
2241.085
-608.52
-8220.92
-8080.815
-11072.015
-12095.8
2650.46
-5768.585
-1935.82
-2517.0275
-6792.64
-4136.755
-3160.688
603.0485
-137.335
22103.72
21266.45
29647.95
19707.75
26453.15
33003.75
47307.1
89417.9
72373.25
44654.55
42930.6
35673.7
8428.52
5326.02
5267.25
21785.55
25900.65
27920.65
19755.375
32319.95
27196.95
17352.0
41142.95
18310.7
22332.95
6886.665
18627.0
20320.6
21382.75
11054.118
11216.225
1682.395
8896.365
689.82035
-2850.915
1524.34
-9218.29
4910.52
35939.05
10823.705
12492.58
8647.775
3129.21
-760.395
1056.106
7797.878
3401.165
18316.975
11885.755
4710.3885
-8136.168
-8019.16
-4352.725
12169.185
14038.4
11089.135
13722.55
28594.2
15295.1
24737.7
8160.505
-3655.75
3005.84
-1563.316
8171.79
6661.29
-3152.725
-15231.45
-18185.55
-11898.925
1704.7165
-8375.52
-14681.6
8689.5
23858.85
33508.8
18701.45
2291.8105
4008.45
8486.26
1073.871
3862.93
19797.94
54450.0
62505.0
98682.45
93547.0
94753.55
101822.05
131691.5
175496.5
151318.5
59105.3
42740.55
29892.15
30157.9
35362.55
57572.85
50652.85
38374.4
72903.05
88791.8
62647.85
27754.25
22446.55
-10057.025
14537.19
10300.275
16534.45
14452.8
43861.5
52076.35
49901.85
62024.8
120864.5
84624.45
54370.4
23786.65
556.2075
6030.4
22177.9
24528.4
16042.3
20856.6
12397.45
19862.6
19920.35
12248.055
4157.07
13547.63
13613.55
27643.9
15845.15
2864.6955
1473.825
-4363.82
-1500.13465
951.312
1377.219
4950.07
102.865
3403.68
1491.7335
5172.865
-2432.56
-4576.97
5852.784
-119.4545
-3019.854
-746.54
-14591.47
-24243.5
-14650.75
-10625.725
-189.595
1960.9825
-2297.06
4270.1795
-220.325
-334.35
18266.85
14047.4
33154.35
46891.9
25639.2
50905.05
70426.25
33050.85
28912.55
27597.45
22995.7
17276.065
-822.205
-782.925
7253.64
-4749.425
-7249.195
-2018.77815
-13037.9
-17515.05
-16337.3
-13978.0
-5345.61
-14097.85
-13536.35
-14480.55
71.26
1473.7915
4732.015
940.935
-1322.9625
-3569.55
2715.535
-83.21
3128.37
-1701.905
5604.455
37.89
2886.638
-1337.479
201.76
-7672.81
-8052.675
4799.175
-7838.275
-1638.1675
-4054.19
-5247.61
8482.23
4417.65
-1765.6995
-4037.085
987.312
329.085
-2473.805
8409.565
19299.85
429.24865
3729.53
-42.96
8415.57
22937.6
58195.3
31032.95
10974.335
31436.7
23379.1
15174.795
5035.405
-605.2363
-6306.4
1446.2185
-1320.052
-5758.98
-10643.79
-8992.745
-3912.98
-1876.3215
-3288.425
122.935
-2898.715
-1072.4785
-3978.24
-4189.235
-2053.9555
-5583.34
-2366.265
-4781.895
-9230.985
-6648.635
2689.74
-4134.8945
-7943.685
-7773.845
1743.935
-398.3025
887.8715
-2710.97
-5252.04
2169.16
-6606.72
-22102.95
-19580.05
-11088.395
-4131.315
1400.84
-2099.638
1981.405
3164.785
6830.87
14899.0
23925.465
21616.15
8001.17
-2185.145
-5571.02
-7087.215
-3111.34
-9787.66
-19900.05
-3681.09
-3569.295
-5271.885
-4406.665
-4300.43
-4811.738
-5873.335
677.0325
2419.33
-6896.615
-15390.65
-14279.85
-644.245
6804.725
10583.915
402.1
-10802.2
-14707.65
-4208.78
1507.705
2610.169
-7963.445
-5659.72
959.776
-5633.735
4051.1625
11369.1
29766.25
-1424.125
-15415.75
-12405.85
492.4
4857.055
-4626.115
-869.91
-1460.6335
-4730.92
-1698.599
-2368.2095
6285.249
27234.7
11796.4
16608.1
-4730.916
-14559.87
-12410.4
-8013.385
3299.625
-7860.745
-13359.185
-3252.6125
-1262.0735
-2550.324
-6778.055
-4369.5
-257.325
2231.324
-1309.417
-1336.6695
560.155
-164.25
-4359.0125
-3748.9935
-9113.98
1601.9645
227.105
19117.6
38965.75
50746.0
53260.4
19325.85
15362.05
39946.8
45869.0
11952.1235
1931.38
1216.93315
6565.525
15264.705
1131.2
3266.187
3212.695
2225.539
7861.99
15340.35
21283.6
40358.05
40120.75
16069.905
25504.75
15417.385
19783.05
32007.55
14676.275
-11387.45
10077.595
-3032.2735
-11714.8
-14804.12
1040.56
8868.2085
11239.295
30395.3
74248.05
57485.8
46203.45
43092.6
56138.75
41558.3
26618.2
27149.35
19003.135
26325.55
-2580.775
-4713.68
3039.68
11387.3
7616.035
19735.3
6245.345
-1968.705
3156.63
-2033.0685
2124.793
3997.65
5103.825
7118.605
-1071.32
-5288.14
-19242.2
-16934.0
-16418.7
-8877.815
259.585
1463.2585
627.05
-205.69
-8285.205
2316.285
-2474.993
-9869.285
-3157.8
7644.785
-5313.95
-2974.5515
2368.6715
1958.6645
9556.07
7327.465
19543.75
16582.65
27780.35
19377.4
8353.475
235.818
2781.84
9193.055
8681.15
9095.475
13256.61
6783.73
20059.8
25729.65
14659.8
2341.475
-18227.25
-16672.4
-11543.435
-3904.61
1373.63
4823.765
-1179.279
-2821.4
-7799.535
-2386.625
7062.59
2729.345
5198.465
5568.345
8985.215
-425.395
8519.53
3670.2
-8166.515
-1509.996
8202.92
18181.75
16455.685
17491.6
1563.81
5413.265
-1300.225
336.24
-3.885
3832.335
-3225.41
3808.33
-2220.17
-663.437
-2612.9835
1726.29
128.5065
2513.831
-1132.9135
-6358.115
-3396.01
-4250.555
-5193.61
724.4035
-1943.1925
-2913.495
2696.02
1707.82
1427.37
-930.27
-4979.615
-7715.305
-8101.335
-11941.54
-6687.545
-1036.3145
-792.055
-7480.135
-6845.3
-5861.655
-6366.77
-4086.805
-4324.84
6045.258
5858.52
1562.235
-414.88
-4391.5345
-1155.0725
4494.9955
3494.63
-5170.555
-4771.96
-6298.655
-10249.285
872.4
-1729.87
-1641.861
-3389.405
-1148.055
-612.435
-5525.235
494.005
5768.66
-640.521
10684.705
24073.9
-4180.585
-5064.075
4146.7835
2210.52
-1347.7815
-1783.7265
3180.485
12984.55
-15085.725
-12801.75
-14388.95
2031.32
-11672.605
-13357.65
5586.1635
6453.705
20335.625
19300.0
30235.0
17200.25
916.025
8447.645
34395.8
18586.5
5293.03
23201.05
24344.9
24201.2
10881.565
7641.345
19845.15
4897.59
812.5
9759.635
-1592.605
374.45
-5375.66
-13261.125
-1262.4415
2210.1065
1440.357
2314.13
-272.6
3287.72
6781.05
6608.055
19146.7
29289.25
31246.05
32964.5
2037.325
-2803.7825
-5673.78
5203.47
17448.95
10594.055
-12006.45
-10534.615
-7201.485
-8031.33
-9398.14
-4419.02
-378.015
175.45
-2585.01
-7237.705
-2777.86
-5244.525
4180.2695
4248.62
6440.445
13194.05
21974.45
22015.45
4957.53
20199.45
3375.02
-1218.07
1244.4
-11218.785
-424.23
-5894.21
-5409.565
-6724.12
-6231.725
-9428.22
-7356.13
-4418.44
-11335.2
-6271.875
8631.455
11616.195
15617.2
-1806.735
-1000.31
4163.915
6858.98
11677.28
5878.59
-1447.63
740.9
794.795
10895.55
4029.485
2290.49
-3162.6425
-1602.11
2420.7055
-7885.73
2696.52
6909.125
2312.225
33243.95
30793.45
69218.0
79063.55
66982.55
36220.8
47727.85
51977.55
34279.7
12014.06
834.88
-707.6
-7649.575
-1547.225
826.16
-4114.879
-1185.807
-5376.005
-3396.49
-8730.99095
-21388.25
-16134.25
-1371.9505
1058.585
-2010.6
-3493.035
-8463.4
-7673.05
1724.385
1122.235
7459.21
13269.49
14047.9
24754.1
11205.845
-106.9025
-3516.07
5468.595
13760.589
-6660.515
-9971.09
-8941.855
-3378.105
8402.11
20299.3
17737.7
9621.36
2194.655
-1462.46
192.6155
1716.7845
1279.33
5021.82
6031.38
-13425.615
-10492.8
-3115.25
-3964.432
-12393.75
-14567.45
-17424.25
-1945.0414
5393.22
6447.315
-1678.0825
-3008.5855
3492.54
8159.03
2545.995
-4496.235
3053.543
-1832.0295
3764.4315
490.2655
-228.765
-9260.015
-2452.424
-5155.66
-2489.714
-10704.245
-114.845
5231.53
-5869.585
-2205.5525
795.355
-2967.575
6168.995
7677.83
3443.933
-483.165
-5730.7
-3217.715
-12383.51
-11466.265
-13789.9
-13857.03
-11957.67
-6933.53
2498.8315
3658.67
12499.1
4538.54
-3360.695
-962.56
-1912.98
9558.155
3045.875
23193.15
7730.365
16518.92
39456.15
49741.0
60216.8
39604.15
40346.65
30758.8
41458.6
26257.15
15064.205
66.88
7002.835
-1357.9445
-8814.82
-4965.5
-1933.462
-2966.91
-3414.826
6973.72
11050.61
-5100.81
2327.455
-6022.59
7431.55
15163.45
16504.6
30646.2
35266.55
19147.05
7673.375
5465.825
7974.195
3563.435
6563.47
-2350.6095
27938.0505
69371.35
81367.35
61655.05
31890.05
39507.15
37926.9
31808.0
13665.0
7860.175
-267.58
1875.9225
-586.52
-2185.311
-1706.03115
-3411.534
5693.3085
15541.15
7734.785
16698.8
47530.3
32238.1
22197.5
17486.45
14797.05
-6238.745
-2919.84
-7184.901
-7596.455
-9980.125
-9738.18
-4245.798
-6220.63
-7575.155
-5354.645
-2839.23
2614.791
6696.065
21993.5
28863.7
11211.32
21146.55
28293.1
2548.065
-385.605
-1825.745
-6902.465
-1729.45
-2800.765
-2935.47
-6033.05
-19709.35
-7830.695
-5886.045
-1061.9405
-3345.49
622.02
1525.955
-4021.665
-3633.045
-1291.785
1887.84
-2890.71
-1574.723
2764.85
12990.4
7230.155
-2299.535
3181.745
-758.825
-2969.775
-3869.95
-42.415
4989.55
3817.91
-1461.585
-12812.0
-9207.59
-2385.8065
3495.64
17359.2
13751.05
10293.855
-3006.345
475.136
1043.935
2416.475
305.274
-1411.04
1787.8
23220.8
19242.15
19480.0
13888.105
29836.4
21254.35
27111.1
30857.7
18213.7
24629.1
23548.4
14120.3
39577.45
29053.2
-2172.2
-3055.855
27373.1
36767.55
38008.95
17657.1
-3255.135
91.265
6396.76
5909.71
2120.22045
-523.245
-3902.655
6288.455
1654.6135
3177.54
213.255
-864.89
-2279.005
1360.637
4933.88
-3045.405
2105.575
-3671.94
-7878.405
2825.695
1193.255
-2547.949
6099.05
-4722.24
2713.75
-2464.1165
-2997.113
-7201.395
-17940.65
-11649.735
-6625.645
-5455.135
-2198.815
-3133.02
2231.95
65.855
-3337.675
1977.79
12507.15
11934.75
7843.035
-90.18
1125.588
37.295
-5095.5
-1091.921
-3771.925
9687.36
-1389.036
-2212.3145
-15046.0
-9589.3
-1938.65
-1066.997
-357.585
-1109.16
3363.705
3759.6325
9944.035
16535.5
6694.165
5347.805
5274.045
13381.4
285.4295
-1582.4045
-12756.02
-12902.0
-22969.95
-25118.9
-24878.55
-265.8
2450.05815
7595.57
7358.755
8440.29
747.889555
-5205.69
5387.976
4135.855
2899.73
-1963.725
-1444.7755
-2737.7265
12216.575
4922.765
13537.7375
15475.85
10660.565
24711.3
29595.7
32982.0
11579.175
1560.059
-2756.714
2487.595
11785.255
25336.05
38148.25
23223.0
9621.515
373.4635
-735.925
5782.591
-1845.855
-2633.87565
-3614.98
4650.0465
1060.781
1040.07
237.453
-1905.505
7157.58
28919.9
39362.25
49123.85
57852.6
25028.55
27451.6
31083.95
19357.15
10992.265
26831.65
34095.65
91144.55
77148.6
41049.0
11747.85
9593.01
24122.3
18932.7
7268.51
12453.275
8265.69
7283.995
3855.555
2718.155
-1090.9095
678.63
-790.865
478.672
560.905
1041.64
2471.7035
1110.96
1831.245
-286.08
1748.563
-2225.8162
10383.995
16514.15
28411.7
9013.695
-2171.7265
-1022.2075
686.94
2599.915
784.5335
-2786.955
-8281.145
-4609.73
-4140.825
-4075.453
2189.04
2098.685
-7.3345
-1900.39
-3677.6635
4403.54
36.5284
14834.75
6067.6485
-779.3505
449.9951
-9214.325
-9675.856
11891.35
28339.35
25255.25
14392.65
-799.22
16559.55
13400.4
26696.2
32835.65
37118.8
48196.35
26945.2
21334.5
30020.65
16146.6
9930.105
-162.37
-5281.4
3117.755
5690.755
555.33
1176.963
3392.56
325.4476
-8533.74
-581.2895
-5342.205
4746.29
11434.15
3278.985
-5331.2665
-66.25
27627.7
31765.4
28684.3
17177.85
12020.3
3148.8565
8393.625
6100.625
-5291.815
11906.955
360.635
-5793.496
-3133.695
5422.04715
-2069.995
-2634.49
-6137.39
-5768.12
9600.085
25799.8
25649.15
15784.85
14857.825
24001.65
18326.1
20642.7
43756.0
42896.25
34761.35
15788.45
7449.205
4563.11
730.48165
850.6135
-1886.73
-1162.48
-4135.965
-14548.85
-13644.375
-635.835
5879.03
17988.0
30293.0
18997.3
13328.65
13632.3
13786.05
-11690.83
2542.255
21430.75
4334.385
-13322.25
-5896.745
-3755.925
5048.36
30609.9
22090.55
3763.125
-8067.5405
8141.14
-929.795
-8248.625
-5697.145
-5907.335
12060.26
38381.95
42996.3
53272.4
24671.8
12018.745
9881.4
28540.15
35991.9
17701.35
17513.835
11232.925
4433.3875
9931.365
2373.225
14290.55
13711.56
8419.175
5509.39
3206.055
108.5875
1619.025
-5424.54
4944.755
10218.725
6860.285
-1805.61
-2166.91815
-2981.51
1454.22
-229.9025
1377.055
1684.05
-471.6345
-5385.13
-13978.3
-6676.415
2283.61
5232.39
20626.75
26848.9
26945.1
7948.5995
-6049.42
2039.355
-6956.62
-22096.85
-15525.15
1694.8565
10659.72
10389.55
15725.86
29064.35
16655.775
5653.115
397.0975
1448.555
23371.4
39581.3
4468.585
-8324.7
-8994.74
-3984.69
-3168.9
1407.005
-3151.47
-4755.275
-3821.83
-1498.0725
-2499.275
15443.75
16865.3
25038.0
19448.55
41368.05
28389.05
12784.04
8195.675
4429.0971
17086.3
40983.0
48360.9
23606.805
13857.89
1681.185
14787.905
37391.2
60941.35
37313.3
53336.85
90324.05
62334.8
23312.8
22408.7
4211.03
-2233.6
-17624.15
-26569.95
-13942.065
-4045.915
1714.0715
2096.31
22326.855
19688.5
14531.19
2972.768
-800.832
411.05
1281.6981
1566.2045
5620.49
9618.38
11212.19
-6934.2325
-15583.4
-1831.8185
-1151.9785
-16130.53
-7063.77
-6644.24
-4981.565
3330.636
-4412.85
-6206.17
8979.81
10210.04
-2107.653
-17289.7
-9430.875
-8856.72
-7344.575
-16769.35
-7879.35
-11517.95
-1205.815
6892.66
260.152
85.45225
3655.555
4248.31
-13024.7
-4119.525
4341.63
2206.61
5155.295
26192.05
9386.51
16053.8
22947.05
30111.9
16155.75
31568.05
78125.45
40826.9
61729.0
67786.75
30810.55
5088.87
8996.445
16863.15
5565.3085
-4136.475
3936.53
-6.77
1254.74
9267.32
9674.615
4520.7
-3009.85
-4497.4
2966.1
-145.75
1561.8695
135.071
-8351.265
-26224.3
-27317.9
-21444.6
-8891.12
7668.894
-2865.64035
-4313.625
5783.71
-7448.68
-27229.6
-4422.23
-6084.3765
418.8985
-2845.005
-5124.31
-2972.075
-16227.3
-7976.18
-4075.395
-7519.405
-100.765
-294.265
-2574.955
-93.78
-134.735
1183.565
2120.89
-11619.2
-9190.14
-11273.545
-7504.535
-11803.96
-3278.7245
-4862.285
-1661.697
2758.74
6767.93
6251.2705
2261.935
836.3355
-518.815
4633.775
17955.65
18229.5
15049.9
15823.695
13957.42
8276.82
730.8285
146.45
-367.005
-3183.935
-6110.3
-2528.43
-1376.241
-8450.16
-9758.16
-5907.4
-1061.343
3.485
620.0915
1490.2165
-120.365
-1192.492
-760.876
1050.7335
-1780.451
-189.275
-1902.915
779.415
7620.985
7735.25
-10921.405
19833.63
12126.72
-10228.87
-16216.465
-21020.25
-12911.2
-7164.99
10999.49
15673.95
17199.4
48030.35
54779.7
56456.7
50631.25
57119.9
73984.4
79206.4
59118.7
30427.0
8308.885
1047.5315
-1415.395
-1296.45
-2819.15
-2951.82
-7249.585
5456.53
-4302.865
-5051.455
-538.60815
-3475.63
-4467.97
864.12
408.795
-2129.967
-347.3305
-5626.955
-8209.72
5170.4505
11570.25
2024.2
7414.495
17716.99
30676.15
52548.05
79425.65
61398.35
41871.1
8993.075
1230.89
1072.932
280.2245
9594.365
-1112.72
-2440.605
3369.865
3830.935
-346.95
-569.777
-822.425
6764.185
9623.93
3468.635
11461.695
24653.15
36207.65
5837.905
5863.393
4269.715
8521.15
4694.315
7412.425
2505.3525
-12022.75
-13726.925
-4229.425
-10187.965
1506.595
5838.175
-5991.5
-4309.51
-256.4
10.085
541.163
-2154.816
2759.818
-796.72
14911.9
5849.095
-659.245
-5513.245
-119.415
-8313.435
-10566.155
-8670.06
2460.423
11229.145
-1529.5275
-1272.98
1880.21
28321.35
11662.865
24026.2
12506.4
5961.44
-2970.755
-9346.985
-8134.965
-13206.75
1173.9045
10330.865
-5007.49
-237.08
-2072.785
-4543.465
-4529.165
-6530.205
-1271.1165
5129.39
-4790.386
4776.32
2395.48
24.9935
2077.548
5089.745
-6524.28
-8079.2
-5131.84
1080.785
4289.38
8193.63
-1871.876
4464.455
3593.765
1276.945
-8626.035
-1621.8865
-1596.18
-2488.98
-15064.87
-14261.81
-8603.115
-1317.535
12725.825
12787.9
4839.394
15270.05
5133.08
36126.1
12664.85
986.471
1799.915
-4044.785
2098.6315
3126.5845
1281.9105
19782.65
16962.85
12445.66
28973.0
19484.15
3078.735
8322.13
15990.795
14917.65
21058.8
36039.3
31812.15
21034.95
14502.87
12220.005
5822.425
3897.1055
-4294.015
-10840.73
2499.305
16868.4
22937.05
9730.6
17252.2
22015.8
12197.845
28214.05
23277.9
34749.9
26347.25
23624.15
15812.75
11874.85
11377.34
4597.56
-1562.535
4142.045
-1072.82
4062.1755
30745.9
18512.5
28010.35
4512.445
25585.55
31347.85
28118.25
18802.15
18187.15
23606.0
17175.2
4935.5235
-5844.175
1643.8825
-2265.67695
-6301.535
-2633.985
-2735.32
4625.665
4107.514
-692.45
-3926.1885
-6876.12
-7805.735
4676.145
-77.0
520.89
-5216.21
-9882.11
8721.595
19631.05
6295.805
1558.7395
-3643.385
-2880.615
6187.67
11259.905
1080.92
5312.94
21516.7
12898.3
15658.95
18874.55
31451.65
9498.005
10980.525
2776.24
-6722.885
606.04
-4505.27
-5773.56
-3529.226
-4161.415
-3811.58
-12309.765
-2475.785
-1981.495
-2543.749
847.815
-1488.585
-4993.01
-5279.5
-5687.45
-6455.075
2296.9435
2238.675
-1149.5085
-4132.61
531.885
-4409.245
-7969.04
-6028.945
4947.135
3850.835
8501.71
13327.19
3326.39
15198.6
20504.7
5332.2305
16243.0
26460.75
4248.08
-1735.24175
-1946.53
-3761.67
-11109.9
-6300.26
311.187
-647.5335
-1876.682475
-2702.2
-3682.52
676.96
20999.6
26118.3
8259.805
29342.25
33526.45
21478.0
31299.3
27609.95
29423.65
39361.05
39265.6
23687.2
27705.5
32869.25
19277.35
35573.55
38101.3
42152.2
26385.9
26250.9
9383.555
-3454.775
804.375
2997.585
11184.0
5638.405
2704.915
5793.02
-11003.97
-10267.86
1367.4505
-124.655
5238.6285
9934.81
-283.98275
-3517.465
-31394.0
-24708.15
1344.776
-4735.785
-11617.69
2166.65
843.735
-6349.8525
4978.08
-1139.093
-5593.92
-17113.65
-10361.8
-5453.615
-2085.105
344.0
-12290.705
-3558.925
-508.345
421.52805
639.614
-951.7255
-3686.098
-4481.11
-686.818
-180.181
-2908.755
-6444.925
2070.5
28998.25
44927.9
31537.5
56446.4
63044.7
81573.5
69873.55
54761.45
42961.7
39631.15
10170.695
11150.77
11985.3
4431.22
3438.74
-2170.845
-2313.32
-5072.455
1316.419
11501.395
2819.145
-1582.66
-5497.305
-4724.565
-8290.655
-916.105
-5391.47
-1118.215
16496.55
12183.56
14075.9
17081.7
7064.45
-2251.57
2241.44
-2450.105
14160.6
1306.0875
-5570.765
17619.48
1528.062
14521.32
2151.95
1565.605
-3167.36
-9563.555
-4684.026
-9334.22
-11198.8
-19897.1
-6498.8705
3901.745
2842.2
896.392
-840.9285
341.965
-2211.885
-738.6585
2305.015
-2281.3
1718.42
-11432.49
-11568.85
-8570.455
4501.7155
-17307.55
654.46
3174.585
-6680.48
-6350.995
1658.43
-924.6375
-112.535
15830.9
11775.38
3193.994
-72.854
-15133.3
-7367.86
-5096.745
1851.2955
-16918.65
-16566.75
-17750.85
-7129.575
-5052.05
-8760.535
-49.38
-5739.655
-14066.3
-5432.56
-5520.1
-7976.75
-8709.74
-12378.02
-5957.555
-51.8365
-915.531
1770.455
4584.13
13659.7
4279.35825
4786.545
1273.665
-759.0455
-2576.5285
5807.385
-2331.2
23855.15
2727.9005
4461.31
3401.8935
2434.869
-2227.53
-2936.175
3558.46
6796.45
12253.8
13836.85
11050.535
10786.525
7115.695
19588.95
11181.53
-866.795
-2347.795
23797.95
20058.2
-1190.1175
-5293.19
-2183.04235
-5584.92
119.0
-2759.4435
3904.715
10158.905
6340.958
14289.9
34194.65
14258.525
13271.29
13448.4
33072.05
43924.3
20774.05
22297.4
27467.4
37838.5
15835.355
5907.5475
1550.0185
5961.545
3991.495
28427.6
35988.45
14123.035
38425.15
21637.15
2684.3
8630.455
15700.13
42885.6
46175.35
56311.15
62613.3
66076.8
52267.1
61435.6
22511.65
26351.65
68254.95
65769.45
49753.95
15844.105
7913.045
2343.135
-498.165
40085.05
60573.55
31572.4
38913.3
25985.35
15078.52
15386.65
46222.05
50343.95
64573.9
71122.6
16011.615
29240.3
25338.8
18603.8
-4612.04
-5039.27
-8262.765
-5894.005
3467.615
23562.1
16100.7
20798.0
51856.25
48689.65
45574.65
40941.5
42290.0
13076.95
5674.365
8060.7115
7979.475
7285.605
16105.95
20076.4
13027.35
2235.5085
-4593.395
-692.9195
-589.665
7586.435
15806.2
5431.505
2293.145
10003.04
11408.165
14458.92
9968.71
-2354.005
-4597.27
-4090.34
-5576.935
318.505
-1729.43
17229.3
23832.65
48303.1
13860.05
2119.325
15389.2
19686.2
32332.15
28827.8
13914.05
55081.35
71968.85
63500.8
43883.05
39449.35
5626.25
-10280.995
-4537.72
-4442.45
-2352.6345
401.951
5639.1085
6578.065
-3331.98
-3162.735
-929.4765
-3703.94
-19450.75
-20556.1
-5641.95
-10544.17
-6648.575
-4298.02
-8151.835
-10628.95
15.08
32391.6
22076.6
9350.795
948.47
175.24
-424.868
3728.9485
3240.575
-3303.905
-1646.54
-337.05
7625.145
23577.15
27294.65
50294.1
93635.6
117503.5
95742.3
76167.65
18184.75
5204.5
-25171.75
-15246.565
-6110.395
-8845.57
-10058.545
-5979.45
-9620.135
-17077.7
2734.395
2932.15
-72.56
9220.58
2111.23
4664.71
-5324.075
-4686.7865
-3057.88
726.177
9659.125
-2676.14
-22135.6
-441.292
1107.945
489.2225
1283.8385
602.095
-1969.045
19733.6
10017.85
-3818.237
-18022.45
2076.28
-473.525
-5943.36
-3125.735
-2873.92
-1058.59
891.404
-1988.35
-6412.585
-1317.2895
5826.825
2209.95
264.035
6558.63
3990.85
-5102.6
-3431.49
-1160.998
653.3
1251.22
628.954
3703.755
5223.255
10967.33
-7203.09
11378.0
24067.85
20266.8
71455.0
74113.0
68188.85
97894.75
66799.05
42528.15
75797.4
61697.5
64639.15
87849.15
79660.5
36600.1
42399.4
36378.15
25367.05
-1014.735
-18630.0
-8457.3
-168.372
-4567.785
-2520.39625
4927.295
4695.924
1785.47
13867.15
34756.1
56842.65
77385.55
51085.85
41151.0
31800.3
9468.89
8336.075
-10385.535
-11406.51
-4102.545
-3836.9
-1202.8065
66.465
1351.8
3356.805
2758.169
45.57
777.2855
5712.8
19686.05
25929.25
34646.2
41486.15
38067.25
20525.25
17204.25
35328.9
9602.71
6224.34
-7746.27
-4264.48
-8961.055
-715.35
-15867.1
-13148.53
-7078.62
-78.13
-128.3945
-1289.608
-4245.29
-1255.305
7483.28
-1724.0505
9.895
5941.27
5601.735
15247.565
15902.4
10422.77
-1338.18
1710.789
-2398.685
5579.085
21892.3
14877.0
-1917.895
10748.69
12252.37
20889.7
25572.2
15138.125
8481.365
27810.15
44781.35
48846.6
53055.3
36612.7
6329.095
7096.14
20522.1
-6444.725
2315.5065
-3256.5955
-3182.8555
3241.795
7248.585
-6053.2
5497.555
20088.8
56092.0
49620.5
25706.55
19694.6
20585.35
47859.4
92612.6
85646.85
22957.725
9676.3385
-8729.655
-3668.005
-11235.18
-131.195
26454.4
6849.95
1104.6855
5858.8
-4153.834
-1001.763
-2125.43
-4158.12
-11572.85
1623.679
6673.19
2690.12
-8747.93
-10019.525
-1123.282255
-962.155
-653.835
3402.345
-485.2475
12211.1
15220.86
17446.0
26442.15
87617.75
74164.65
40540.3
42756.65
29678.95
42480.65
44558.55
37561.5
7766.479
3204.339
6395.31
16595.3
8163.76
7674.115
2538.375
-1349.4255
5859.1625
1166.4895
-7150.565
-4449.494
-8223.96
-8330.485
-919.642
1830.065
1185.82
-2222.0125
336.6875
-8151.235
3235.59165
25098.25
15777.0
17639.1
16928.2
10191.11
6671.225
5816.385
29795.4
31123.05
10031.405
12027.985
26578.2
640.8
-3434.225
6657.3255
9128.35
12003.905
24159.8
10031.565
4497.44
1704.533
-1542.9605
-3687.335
-12363.1
-4741.085
-3084.125
-7942.425
-501.83
8768.415
7135.06
-2233.475
858.9855
-12849.26
-12060.79
-1904.47
6170.12
16212.845
29934.25
34093.95
31180.4
18424.65
21621.05
9630.603
-7528.03
-10094.28
-1248.1165
-4106.935
-926.268
-1182.5345
-654.62
-1824.455
-4083.935
-3742.73
-211.805
8160.545
5603.45
-6567.65
-9107.835
-2316.767
-1678.4
-4200.755
-9945.755
-11967.69
-9995.65
-24953.35
-22137.85
1043.35
-14560.05
2946.14
-4524.32
-12876.835
-41456.1
-34182.7
-5861.88
13402.4
8637.045
4905.765
334.815
-4939.8195
-4014.805
-8475.975
-21097.6
-5760.59
4763.24
-9798.025
-3932.395
-37.15
-2300.7
4056.455
8706.72
4560.28
8127.06
7086.81
1259.3415
-8450.99
-3168.1005
-5120.46
-4162.775
-1781.135
-3987.87
-4921.995
-5766.875
2320.09825
4200.215
1600.45
2029.155
-188.76
117.994
-967.19
-7071.7025
5986.97
3086.45
-8968.18
-2306.415
5061.02
5057.46
-1181.251
-8088.235
-5976.9
-5026.6835
-1015.811
1710.275
24960.8
25905.55
23121.8
2183.427
13113.25
7003.285
17869.3
23132.15
13506.975
-7579.59
-19584.95
-11443.74
-7706.08
6370.145
13055.575
10108.84
1531.62
6984.18
-91.99
8703.4695
11472.195
20785.2
-962.8701
11712.32
6730.05
9184.225
-1034.535
6933.78
4238.655
21.23
4858.445
6518.895
-9132.39
-6540.795
-2693.95752
-6295.33
-6685.04
689.905
4566.075
16391.35
4204.075
-11016.205
-553.55
-6914.13
-4866.665
3232.8495
-3904.56
5773.06
15162.565
9988.745
8504.815
-3068.335
-9138.44
5316.3
12847.12
871.02
5394.72
-4453.715
-4544.095
-3521.59
-4068.135
-501.285
-1505.62
-2404.655
-8862.3
-7061.0
4583.39
3551.678
-5699.075
-2036.425
-3534.41
-9547.855
-11865.0
-3023.505
4574.22
-2460.425
1054.864
-2072.385
-5249.8585
-12984.35
-2279.6
614.145
-6742.955
474.5335
-7712.72
5368.569
24455.85
20790.55
15279.4
27407.3
25235.0
25888.5
50425.1
71147.2
49172.45
867.7265
3634.185
2954.3945
4948.245
-6492.885
10999.22
8891.86
406.15
24181.94
12015.235
4855.125
959.515
9456.015
24810.7
20030.55
44045.7
46692.2
51490.2
34819.3
5639.77
17883.15
29222.4
14200.2
1468.665
2836.3685
15674.475
42994.2
28951.4
11598.98
5221.16
-7515.88
2283.913
-3023.2025
3202.9825
-617.031
491.0745
1942.85
6645.985
-591.658
469.82055
-1383.705
6309.27
3537.63
15329.25
30180.25
34665.75
12603.475
12436.44
9695.045
3046.35
3323.8325
-227.4815
4975.905
9405.665
8456.66
17110.3
60369.75
97942.85
64150.0
101141.2
71794.05
88067.5
42011.95
34416.0
35002.9
39635.8
21547.1
-6080.985
7122.17
20545.65
31580.8
-7199.5934
-7573.34
273.5475
-1112.1535
893.02
-1978.955
486.218
-1775.625
-460.8175
4175.665
6706.055
-557.0584
6511.885
90.155
-2374.47
-2580.7145
-668.408
2948.92
-759.65
-539.11
5167.31
-1011.19
-2822.539
-3166.49
-281.828
4403.11
22325.95
5427.01
-904.265
7960.615
30453.0
52827.7
30774.65
8742.04
9888.06
-1445.96
-11692.755
-1475.971
-1152.939
-7264.835
-3144.75
-3948.725
1018.5732
80.925
-5030.6475
-7214.345
-6867.825
-1603.04
-6708.725
-6235.415
1643.39205
-2797.715
-5986.955
-9877.8
-3216.585
-901.5115
-550.575
-4404.215
-2114.595
-2267.33
5276.956
-2697.215
2845.715
-2863.2025
3669.16
-2400.7811
6917.68
25625.4
16201.2
27694.7
28288.45
38122.55
44239.75
16664.105
-1816.32
-3764.385
741.53
1968.12
-1431.3
-14363.45
-6924.2
-8971.53
-1352.38
3910.645
-2578.0775
-155.851
-340.35
871.829
-2862.408
-10173.645
-12099.95
-4009.216
-6883.56
-1859.42
-4456.3435
10263.98
22145.65
10092.735
-7220.585
-2678.87
3244.6995
9899.386
25719.35
19530.895
24183.35
14440.725
18552.85
10731.625
6743.485
-435.678
3009.29
6155.99
300.2805
19902.45
22134.75
11681.35
40430.15
47358.6
33166.25
64018.85
26149.25
14879.15
24673.8
39618.2
12892.42
20763.45
14057.1
-5077.85
-18283.8
-5745.8
-40.945
781.955
-3981.61
-2081.44
-465.745
6454.035
5969.985
10932.805
36934.95
35887.45
41615.55
16672.75
19346.415
9256.465
10090.925
350.055
1318.9365
-5103.89
-10508.465
-12216.515
-7510.155
-11533.25
-14629.56
-3748.0195
-5687.935
-3922.32
673.781
13982.8
8503.325
39997.1
26139.3
10952.975
2186.6525
455.0755
4625.115
2978.41
-1572.59
-4625.045
-2696.177
-2780.06
-6111.795
769.02
-1278.957
-5426.705
1719.985
-1625.222
-2507.085
20744.95
14204.07
-727.065
4572.652
34861.4
38879.7
13960.245
-4204.2465
-10705.62
-2005.74
-2178.35
-5431.39
-2918.771
712.645
-4154.85
1794.6445
13812.135
26812.45
13573.49
6337.72
-2732.84
-1135.045
-1577.1565
11543.57
4485.425
-5165.655
-338.0485
2234.09
-5933.305
-867.0
-10157.225
1780.32
12093.755
15217.55
1238.157
-3006.3125
5361.075
-2167.7838
-7297.83
-6825.405
-8688.125
-3798.59
-3169.11
-1280.391
2101.345
3746.37
9034.78
7881.6
6177.575
10593.19
9162.85
12471.15
20957.8
33842.1
21248.15
16912.4
24569.8
38343.55
14208.785
1242.90865
6376.59
2680.485
12341.84
6254.425
4120.4805
20729.8
30504.45
27312.85
-3649.795
-10064.545
-251.811
-532.8
-10233.245
3799.07
7154.965
-1780.2455
5824.23
13363.5
-6063.4805
6958.195
3057.995
12368.23
9583.265
-3096.316345
-4641.43
-1552.615
-5057.91
-31.905
2176.568
5964.915
13964.9
5610.446
9967.93
-12825.425
-13170.85
-12142.3
-9359.31
13233.115
13873.25
9415.25
15263.7
6721.08
23423.35
81314.85
71953.5
43060.9
14780.49
464.575
-369.45925
-1238.115
-236.0015
1571.80875
17269.045
6022.6155
16794.4
13691.55
13962.815
6790.165
18807.1
3410.25
-16094.395
-15999.5
-16049.8
-18194.1
-20776.85
15484.33
38732.85
13527.45
35686.8
40291.4
22992.535
-758.01
-10108.355
-7904.405
-2535.5535
982.451
-6165.58
-1903.625
-1514.395
2626.836
7576.485
1872.3775
49.815
-374.845
3255.735
-2563.205
2265.7955
-12509.975
-15506.75
-8844.88
3204.406
-4376.85
-1178.2135
-3334.775
720.33
-3025.5495
2651.526
18373.2
4431.79
-11548.0928
-11202.75
-6106.685
-12797.865
1178.09
-3127.97
-784.7
-6712.83
-3224.505
8960.735
16368.6
2680.425
13867.35
10248.91
9929.985
5147.095
-1419.125
3111.5435
3112.435
9235.495
3191.941
-503.837
4075.335
2167.5445
2590.37
-930.777
-5983.652
-10512.66
-2888.8
-2415.839
-507.8595
-611.17
-5361.165
21070.55
2752.46
-5056.115
-14222.635
22698.1
-152.605
29703.7
27737.95
13609.85
14491.42
1147.61
625.7675
-631.728
-4453.915
8668.095
13628.05
-3288.5
-6413.3
-1269.375
15785.025
38194.85
34911.35
41046.05
27298.0
7969.145
-5375.88
-2535.76
-2993.507
1667.23
-9123.235
-14796.8
-9863.915
-6443.185
1139.01
-7614.585
988.815
2906.735
8708.17
9169.585
-4929.423
-2171.4925
11900.255
22439.25
23305.6
17319.8
8956.715
11689.445
5294.5775
-6102.425
-9941.875
-8739.835
-12540.6
2606.21
9248.905
4967.5
-6175.115
-5084.765
3917.37
-1519.681
6405.6685
13608.3
1341.95
-4829.175
-10395.845
-13792.1
-4664.245
-52.065
12208.0
-9991.325
-6152.255
14684.55
7116.7365
12397.6
6325.94
20773.15
119.925
-6799.815
-3051.125
244.985
8886.47
6831.23
-2151.27
5138.26
12916.24
-867.5175
121.002
-4228.18
993.5355
1031.5835
9602.875
12934.75
44151.9
39484.45
12646.835
34538.25
30209.9
58239.3
46496.6
37116.4
70248.65
51392.25
49816.45
60260.55
35462.75
58062.2
66494.8
58419.65
81338.1
34251.8
53417.0
49474.3
61411.15
27238.3
51341.6
43227.5
9329.245
4070.62
-2215.535
-4486.455
-159.4565
-1357.425
7025.06
23231.2
-3440.7785
-9322.765
-7525.135
-5476.295
-2466.9965
2199.0129
2987.336
-11312.67
-9934.9
-12158.225
-7034.485
-9067.29
-6291.145
-26745.4
-16945.5
-724.16
1688.04
503.065
10215.735
14184.5
20707.7
27826.1
46405.95
27417.8
7087.17
-3028.608
-6235.807
5280.535
29539.75
11967.55
6480.075
8856.37
24180.1
33739.3
32834.6
24589.4
23874.0
3713.08
7131.81
2781.44
-3326.485
-6154.255
-3466.155
-7149.505
-16221.85
-7763.635
-2516.39
-2940.81
-556.42
12180.045
20287.25
4799.7405
5501.59
2302.8725
6470.057
17145.45
17858.8
13764.985
5816.44
18498.9
-10633.325
-6102.285
-2537.42
-1592.651
-4223.925
-1776.95
770.106
-686.048
-6320.23
-1697.585
-1002.455
-1537.065
9728.42
32675.0
26103.8
41685.2
45235.8
32082.65
38528.6
22099.25
15192.5
20437.8
14077.415
12799.5
5868.4
2102.48
-187.2775
-1210.275
-9614.945
-12657.4
-3937.85
-12299.385
-8697.91
-2809.3135
6383.485
-2877.1795
66.5825
-1621.425
-8603.325
-7791.4
-6514.905
-1084.805
6680.91
1695.86
1077.92
1568.2896
-4814.304
-6699.765
6343.825
28780.0
14133.55
6946.15
3055.97
-233.3
-11827.16
2593.635
20079.15
55202.1
32370.05
22170.45
9789.38
11841.925
14393.545
19175.45
15780.4
11573.45
8031.5915
-1142.652
344.9035
1415.6175
4345.56975
2984.2595
-199.665
-4056.8085
-7096.995
-7832.845
-15891.45
577.16
2116.615
12637.9
19847.8
25038.6
23448.05
-134.035
-2286.435
4503.34
6226.935
4845.505
19015.55
51686.95
47681.4
25680.0
11673.05
1413.62975
-424.9535
362.59
944.5442
-1789.98
7501.12
2891.375
858.0
-1804.5355
-3113.55
6871.195
8818.285
10414.99
865.595
1548.155
-6665.945
-14290.85
-19020.75
-14207.0
-3617.75
441.849
13848.6
9510.605
5416.455
8448.325
9999.3
23015.15
19088.5
46546.5
55849.65
90116.1
108266.5
101893.35
104522.05
97619.15
69365.95
73767.25
71476.0
84938.6
40811.0
777.695
-1440.27
-17.99
1202.2255
-2418.2375
-9631.015
-3057.94
811.64
768.3575
831.034
-4588.26
-3999.72
-2501.28
1475.097
538.402
5959.84
5533.24
993.9215
-938.165
-1641.491
2538.55
883.0565
6900.145
27141.35
6873.55
21657.5
40551.45
22667.95
28927.85
19431.9
56080.05
60766.1
38574.3
29331.55
26951.1
12971.95
25160.65
8542.5
9563.25
7605.255
-2605.505
-1088.45
-10838.385
-6597.87
-6921.2
-10279.665
-16272.15
-5093.815
-5189.165
-4917.41
-3975.4
-2695.365
12703.21
25770.05
12687.45495
-2700.705
2405.71
-1997.13
1879.72
9967.68
18461.6
7676.915
-6176.31
-14498.2
-21602.7
-23742.85
-29767.5
-6681.925
-5980.37
-4631.97
-3878.275
-2712.388
12757.15
14840.3
28845.75
22052.05
-2376.5
-17901.55
584.7
3554.955
3345.47
8158.775
11763.45
14481.95
14667.905
722.26
-1181.8555
594.615
5678.895
-295.835
707.325
4467.565
1064.111
3963.815
-200.905
4892.725
-310.5875
-201.51105
27797.45
12635.25
-198.05
-13432.1
-8366.32
-8780.005
-5031.69
1761.26
16769.95
15737.15
3583.3815
-7007.9535
-11048.71
-16949.55
-9355.905
-6051.175
48.475
4201.168
4563.81
-2209.55
-11384.6
-9971.2
-15899.9
-1828.8205
-2250.45
225.75695
-6403.565
-6411.34
7056.265
6940.97
5834.7835
-4313.722
557.11
-11378.88
-7621.475
5989.215
5355.09
587.075
-4162.232
-7388.815
5235.88
-9283.445
-7323.67
-5822.095
-7188.66
-8878.87
6674.405
41251.8
19023.8
4024.606
-2926.08
3331.73
-2409.585
146.881
531.34
4272.425
3613.56
6488.235
8236.285
-2338.51
2729.8695
4092.465
6824.175
3331.7413
1430.54
25388.4
34836.05
31928.2
18882.65
2288.12
-2730.6035
1864.1
6443.58
-4096.5
-4814.425
-2398.62
-2363.92
11122.235
2855.71
9102.65
16988.8
20655.5
23530.45
21775.2
29281.3
14777.965
11340.01
29752.5
10276.455
25633.4
9737.535
8491.135
26850.5
25231.1
6296.148
-4977.076
-972.166
2428.445
9499.045
4265.99
-257.8115
2088.34
215.317
-1303.492
8356.285
-2461.88
-10478.35
-4463.92
-2005.58
-2126.005
-2099.8575
-2502.12
16258.65
29240.4
22607.45
45607.25
44478.25
59574.25
30660.9
24667.35
29106.4
339.028
735.375
2581.125
-325.99
1536.42
2859.32
-600.709
5289.6875
2977.93
-765.003
-5747.76
-8350.475
-7631.96
13614.05
6225.495
20832.9
13559.25
781.5845
170.44
-6747.875
-11916.125
-2986.33
-4152.6455
-12248.95
-23330.8
-19839.1
2383.58
10101.67
5034.29
5830.13
3796.77
3156.555
1341.03
-1763.515
21570.835
36753.55
16927.5
11976.0
20.238
2778.1075
14971.685
12368.335
-2275.825
-3162.555
-1532.0
2510.11
-3662.395
-796.0435
-3311.575
-3950.185
-11180.4
2973.791
2473.575
2690.975
-6038.36
-4336.265
-4789.985
464.215
10885.25
-689.715
-1751.78
4081.155
6033.565
-18849.15
-1584.927
546.7135
3087.72
-5014.405
-11293.47
-3705.21
-4891.7
-5947.145
-31013.5
-3133.656
3364.88
-1376.76
2756.9255
-1495.159
7643.85
620.115
-11558.6
1519.685
-3732.145
8274.82
18225.75
33566.85
17117.35
-6493.635
-11616.58
-645.21
-3563.55
3191.6715
31516.4
69536.9
44196.1
26434.2
14815.905
24291.3
24461.7
31459.95
32393.65
29816.1
16160.6
-6987.14
-5075.085
-3033.04
1863.793
273.932
3385.64
-2725.97995
-8827.43
-7024.985
-3088.999
-2523.872
5360.65
1083.724
-14184.55
-15611.75
-3488.367
6702.66
-3308.775
6968.715
355.51
-5243.365
-15151.1
-3266.35
785.645
-3332.59
2613.635
17213.4
9327.9
10494.445
-1074.53
-13143.1
1111.055
9074.57
38958.05
34108.1
15058.43
4255.92
1810.79
1991.276
-662.40575
115.8855
3085.645
5633.4565
-680.849845
-6333.91
-8135.965
-3898.165
-1484.87
-1708.075
-1918.725
813.5655
283.9435
9378.915
8037.16
11064.99
-5010.745
1741.495
1482.57
-1446.02
-5158.96
5935.185
4452.205
21589.35
37333.55
46641.9
12805.0
8105.01
-1255.011
1256.625
680.7385
-5144.185
-5537.18
-2455.555
9859.395
7212.7335
-767.1165
-584.23
1368.195
-2884.14455
-574.075
2517.095
-4271.365
-2866.1695
-2670.075
631.49
2396.0565
-4025.03
-5216.055
-3104.885
-5570.235
-8432.285
890.07
3668.775
12482.8
2842.615
16212.23
48239.0
46358.85
35504.3
-1162.285
-2398.865
15595.05
30659.45
10436.17
12571.95
3344.0305
-2102.05
987.402
-5007.64
-12663.6
-7467.48
5058.24
8215.495
3352.225
6580.4845
13736.45
1697.295
-5564.63
175.985
4028.54
1211.3885
-9541.975
-10709.195
-5252.0215
3828.942
1629.226
1166.025
-1660.545
2703.09
997.975
3994.68
24801.6
19940.25
22648.7
29806.75
3977.06
-1433.715
-2946.92
-7555.425
-9188.5
4025.2
13692.7
25526.85
44409.5
23794.65
7338.215
9967.155
7245.358
-5930.58
-5896.07
5759.76
-606.865
-1324.525
-473.615
5217.505
20347.56
16625.75
11944.31
-8551.945
-9271.865
7856.12
22350.95
30831.75
3811.65
19919.65
22912.75
4529.38
1503.75
-816.9
-2479.775
-13844.575
-16330.085
-6987.535
-9700.58
-6716.915
-3300.99
-188.34
7644.505
2136.78
-4567.825
-2440.765
-2312.995
-1341.1
-2060.31
-706.8825
596.6805
-1376.6
-2178.475
1856.435
-5989.23
-12343.45
-7507.795
-2166.486
-3251.075
-2736.265
-13301.0
-7438.08
-455.355
322.335
-2674.9315
-2720.589
-10.725
806.5085
-7002.265
-5793.765
-9269.435
-2355.005
6624.36
13014.2
15399.905
7315.41
1292.9305
3163.8505
13747.65
17980.35
16655.6
-122.8605
-10865.0
-8687.685
-9401.7
-17276.6
-18379.25
-9380.67
-15235.4
-7675.501
-6292.505
-8069.35
9858.695
361.4255
1060.405
6941.595
2108.153
-489.2525
636.69
-6991.925
-7134.0
309.975
1618.9145
-226.875
771.605
13466.615
43525.9
44480.7
68701.2
35591.35
65118.5
65099.3
46332.45
88870.25
140203.0
105839.5
133808.5
142377.5
129258.5
79979.6
63294.6
70721.3
56138.55
40932.7
23461.35
17742.6
14772.3
8896.47875
3163.155
-2740.5
-1335.423
514.2165
-109.41
2557.055
1072.575
-516.175
9389.09
7263.155
-18634.85
-1567.215
-97.71
-371.657
-7114.305
-7656.745
-13489.55
1178.115
-14302.455
-10654.145
843.002
219.636
2232.5415
-5764.63
-22043.3
-3162.175
-7147.23
-1918.19
6201.81
-580.324
-2205.4435
-4139.08
-1945.021
-227.995
-1146.98
-13184.2
-7646.765
385.3605
16171.9
25192.7
25900.0
-2716.15
-16181.25
-14550.685
-5541.355
-3701.86
-3831.655
3811.33
3093.795
2304.39
-5596.675
-5623.035
-2765.6075
1343.755
-4001.46
258.7771
3724.235
-1429.1055
-888.33
-2863.05
-2865.505
-5198.52
-2280.595
-3361.4
776.89
-9261.93
-9241.16
-4497.615
-4575.59555
15846.15
8729.805
10308.96
281.365
159.0655
-4937.245
4677.875
9495.765
-2781.815
-3278.7965
955.965
509.31245
1765.26
2537.2275
277.685
2586.22
-703.2275
-2076.99
-11756.345
-25862.0
-2048.64
3668.2445
2103.625
-4272.835
-163.2
5581.96
12451.71
26571.15
17254.4
14636.65
2873.445
-2324.239
-1583.43
2641.423
796.09965
424.29105
5627.16
-2944.437
7153.02
12791.86
49633.5
7451.76
27705.95
9204.0685
-541.005
-11476.905
-14633.55
2705.785
5048.46915
5382.455
