-1162.14
-735.182
2328.03
3024.49
-1386.23
-1646.09
1499.96
-1201.88
1303.9
-4066.28
-304.465
-119.171
-1014.59
-294.147
2846.1
2006.3
4748.54
12141.6
23156.6
10219.6
24381.2
22743.9
7222.86
10963.4
17070.1
20301.6
25499.4
19527.5
6076.31
2223.16
-1257.55
-634.295
-1355.22
-477.49
2202.94
-800.726
150.793
-1973.88
-313.304
-5485.07
2439.91
-88.5493
6620.85
13363.3
601.31
12947.7
10310.7
11361.8
-1675.9
2788.02
8747.62
11055
6625.36
50936
61921.7
90042.6
66732.1
81332.7
99310.9
126727
125582
119178
87007.5
84163.6
73286.4
69905
33869.6
54160
52943.4
28055.9
17945
34186.4
42431.1
18968.2
13100.5
2494.84
9763.44
6763.04
8333.74
-2311.93
-1321.64
-9701.31
-1933.07
-1386.33
949.061
-1373.47
777.851
-341.299
1420.15
3644.96
17772.6
22661.1
42666.6
35286.9
4835.01
-1077.59
-531.484
163.136
1422.05
-1078.92
3208.32
3873.9
3426.29
8516.61
5129.33
-801.125
8730.58
-14120.2
-1441.16
4359.95
1181.15
5288.93
2702.85
3491.38
2665.65
2573.68
9011.28
425.291
-1312.62
-1497.64
-1627.1
6517.74
9755.98
15765.9
11709
1102.99
3708.79
12402.9
5326.38
9887.97
14936
29288
28916.7
31494.2
26229.1
35448.7
42038
20581.7
16847.4
-2088.58
-4289.84
-3125.58
851.916
-2228.25
-3462.89
695.009
22.6645
4231.14
2074.43
9183.09
19080.6
24081.6
19071.4
33961.9
39083.1
36065.6
38566.8
21002.7
20961.2
26941.5
24587.8
15381.4
26001
32211.1
30585.5
24048.3
40366
22211.3
18453.2
38716.4
42600.6
37475.4
40749
26623.6
-5692.08
648.699
13005.4
15841.2
14987
4494.11
9479.64
9188.7
8055.61
15959.6
37407.4
10131.2
11205.1
12166.5
6669.34
12591.4
23517.8
22861.5
-12933.4
-2701.81
9130.91
6354.01
14954.3
13183.2
5378.9
8221.46
991.583
1148.87
1496.63
13195.8
-3147.82
13467.2
32029.7
33185.5
15460.5
13554.8
4123.51
6470.25
1583.28
8535.07
-2291.91
-814.19
-11791.4
-4971.62
1812.79
2204.32
2592.59
-621.287
-7944.19
-1830.55
320.899
10507.7
16750.4
29392.3
30462.1
45510.4
59409.2
51123.3
50741.2
31741.9
26719
18698.3
18996.3
14830.4
23309
6317.27
2110.86
98.8555
2298.54
-969.945
602.017
1644.92
6189.45
12047.1
2935.05
5314.12
1328.63
-6137.1
1017.33
1380.56
8623.86
27083.6
39828.3
22349.4
-2179.32
-321.703
-2276.9
-5573.1
-12620.1
-9191.29
-6097.12
-12539.8
-7711.65
-275.65
1350.98
-2134.95
-3119.09
994.661
-8106.61
2150.47
-3575.21
1995.45
-577.54
2783.37
4331.84
-2306.43
-6243.88
3100.63
2945.49
2206.3
-5235.64
103.292
-5645.2
-1531.71
4056.57
4162.77
9509.63
4136.99
1547.76
2397.22
3558.85
-13354.6
-11026.6
-5329.6
1175
3778.37
-5029.1
-9071.89
-1588.69
148.269
207.113
-2323.57
-1095.49
-4999.46
194.076
-333.06
9057.91
10225.8
2864.42
2982.86
2350.18
11269
4523.67
-2658.9
4009.2
15127.4
23034.5
10593.4
21196.2
18960.6
12621.1
5802.25
-409.455
-3506.41
-1646.12
-1080.22
-4665.2
-1494.5
-3558.33
-2908.32
1678.17
-674.082
-1958.56
3750.22
4419.39
3408.42
-1131.54
724.954
315.332
-7253.44
-1393.94
-4664.94
2240.29
1099.94
6191.97
11912.5
8665.46
1490.01
10530.8
5830.06
18500.4
12369.3
-2343.21
385.355
-4866.87
5902.58
21179
8116.51
6647.48
5384.06
17489.1
38416.8
51073.8
30645
14472.8
8538.88
-899.066
21289.3
13351.3
22403
-198.609
61.4601
-1989.61
5453.9
5640.28
6012.69
5152.44
2879.65
4387.34
7983.03
2031.8
-2765.7
-7278.52
-883.534
18332.4
13095
733.022
-1114.52
1252.55
-10151.7
-20.4736
283.256
1690.84
1909.22
-1374.15
-1762.67
452.805
77.9512
8449.09
18071.4
23635.9
50161.9
34849.1
40755.4
19860
26138
22837.5
18193.5
28349.2
29991.1
37225.7
44965.5
19626.3
20324.7
21225.1
55755.3
38412.5
43873.4
68938.3
65742
53847.2
32714.7
45384.6
63355
51315.8
33922
71703
77342.8
39693.4
52704.3
83665.6
40186
39200.9
34548.9
30797.9
63887.3
68871.6
58047.4
45761.9
54624.2
58420
72775.7
44801.6
25957.4
26548.8
11014.6
1654.36
-6987.1
-2334.67
543.963
-3682.57
11760.3
2302.95
-2240.21
792.19
2191.87
10040.4
839.21
-2224.91
1119.51
-3237.66
-6785.41
2908.74
-1770.32
-909.465
-594.14
5379.25
12652.6
7273.86
14554.1
16290.5
22240.3
11865.9
2012.61
-2971.43
10212.3
5252.54
3588.04
4759.9
8984.14
4819.56
6059.71
2240.68
-2117.96
-1054.72
-998.36
-812.063
-3082.29
-548.504
4235.55
3857.77
9783.29
4081.07
4942.38
19308.2
32547.5
39030.5
47185.6
92859.1
107987
100394
94644.1
92286.9
73407.5
44993.3
45009.1
78744.1
97248.4
86842.1
78917.6
59121.6
35853.7
42245.8
51917.7
43466.7
34165
17230.1
12666.8
-759.644
9196.43
8089.27
24395.2
5337.94
4254.2
1570.88
6147.14
12181.8
508.171
-710.542
1754.38
2209.59
12559.2
16033.1
15663.8
4713.74
3227.23
7503.15
343.599
2699.51
9973.83
9804.8
3472.56
-1654.62
849.849
2472.46
-17696.4
-12926.8
-25613.3
-11547.7
-8185.26
-3372.46
-1960.66
4090.34
4561.78
7643.14
-481.541
1284.81
1257.44
-1064.17
7122.16
4158.99
-9359.76
-4142.27
3578.75
6742.12
1234.81
7907.01
12403.6
4257.31
18466.3
18048.5
11605.4
2694.13
10277.5
29145.8
15692.5
10450.4
15321.1
29609.3
20734.3
25010.9
36534.4
32897.8
29792.2
44025.5
54138.7
22592.7
10706.4
6729.73
19627.8
12131.1
19541.1
10186.5
3935.57
-695.382
-3163.75
-704.318
68.3362
2215.18
2525.13
-909.728
-3552.28
3909.87
-3496.91
-5876.37
-4281.52
866.12
139.632
7619
13355.3
29293.3
46087.3
40495.1
32675.6
19219
21111.2
22092.5
29859.8
35455.4
14714.9
19999.7
2874.04
-3708.25
-5984.24
-7324.34
-284.639
-984.189
-683.954
5532.29
4616.65
-8598.81
2675.67
232.863
-7399.81
691.343
2519.82
-1656.99
-53.5534
-9793.03
14152.3
30132.7
26979
31069.3
18913.7
7337.09
14235.1
10863.1
7993.52
7877.35
7903.85
1608.31
-2170.89
748.414
2604.06
1120.13
-225.265
1976.45
-2129.44
-1452.58
1147.9
-2938.84
7163.56
8159.54
273.199
811.449
2752.64
1218.33
220.942
-4838.89
90.8559
-2235.07
2482.61
-6317.01
172.644
-9415.02
-8245.57
-4551.61
-2612.99
3096.86
4987.36
6428.59
-3120.3
-480.594
-5204.13
3635.02
4302.69
13752.9
34266.9
19212
11617
21338.8
23450.2
36621.9
56235.1
35566.7
37831.8
18954
23965.8
18360.4
36857.5
45508.1
37645.5
37914.1
43563.9
51252.4
44767.8
36733
38352
64824.6
60418.9
36680
24537.9
32316.5
18199.7
2184.87
5297.35
4340.99
15492.2
25218.2
9505.29
-1002.03
2456.72
2784.25
682.155
3210.31
6804.21
11429.9
16551.4
21184.5
12817.8
3081.12
-957.314
3020.22
-1772.55
6932.7
6561.6
2098.72
7712.55
-7629.31
-3972.1
5813.69
1232.2
-521.162
6287.13
-923.879
1470.41
-996.054
5417.56
7180.09
3598
8632.21
10070
11501.5
7244.59
12115.6
107.796
5632.41
12632.6
3076.75
16651.2
14140.4
22265.8
25345.2
21351.1
14595.8
9340.04
21480.7
17440.3
-1379.05
690.997
4709.14
5834.56
5044.56
12342.9
7045.87
49153.1
34469.3
31209
13697
35022.8
57148.3
72705.1
71785.4
74634.4
52935.4
78671.5
123022
123542
137002
108683
113617
108051
83499.2
33682
35306.9
45273.9
56190.8
65038.5
80852.9
59584.9
32033.8
19677.1
16300.7
18649.6
35282.3
37341.8
34119.4
35482.8
24972.2
26066.5
39978.6
46253.1
59997.5
46355.2
16837.5
7088.92
2539.64
-7000.54
-11564.6
-6022.85
-7005.11
-3409.15
2078.09
-2314.24
-2001.24
5656.7
-2067.98
3843.11
2665.49
19456.3
12974
12731.3
22603.3
27394.3
12583.3
-977.364
12470.3
-506.766
-3677.93
1478.32
-3329.01
-3859.12
131.46
-4842.33
-7847.76
-3321.83
213.95
4628.02
856.982
-852.589
63.806
-2442.32
-2237.9
2393.38
-460.931
-2482.54
1154.55
-354.859
2976.37
2704.78
-1952.04
-2645.77
-2019.84
-2937.33
-1864.85
2539.4
5820.47
5824.54
11285.3
1038.68
1077.95
-29.7059
691.039
1135.73
-297.426
5340.89
-3807.65
-6490.73
-2229.26
1117.12
-2157.09
-11651.4
-6135.5
651.856
1287.2
979.871
10092
4675.68
953.871
-438.078
-1533.52
-424.771
726.818
-467.63
8507.72
5307.1
-1267.74
2433.2
1852.81
315.151
-650.343
-2001.38
-2823.34
5936.19
1408.35
776.421
1003.36
-7653.54
5555.68
10776.3
16898.2
31528.2
26587.1
24549.8
1525.57
-2797.99
5833.81
-2839.11
-1665.89
-579.983
-603.207
9134.39
9547.3
14042.3
8223.77
8458.99
1740.28
8052.71
-518.169
839.282
2484.64
3332.41
-2746.9
-2619.41
-3624.44
-10939.5
-1402.69
6758.76
28461.9
44375.5
45776.2
22859.7
14191.3
20619.7
15004.8
764.084
3218.18
2966.8
1654.33
1593.36
-347.431
-2028.46
18061.8
822.98
405.952
16907.3
8836.28
9957.93
9666.6
10458.7
23184.1
23433.6
11528.4
22363.7
3256.49
4810.42
1188.89
9564.4
3853.19
-690.887
-1370.7
4979.9
6163.94
4522.16
7175.21
10941.3
7333.88
18904.9
35937.8
18960.6
13794.9
8610.63
3112.25
6047.21
-1456.51
8226.31
6500.44
10248.8
15331.1
30018
8469.01
13575
38096.4
17004.5
16851.9
14431.5
15392
1507.65
19169.4
8144.45
13858.3
46089.6
45603.7
36333.8
36207.5
30871.5
53137.9
37402.9
66526.8
123784
101058
67786.3
63786.3
52407.6
49937.4
24377.5
84223.5
75262.1
49246.5
34137.5
26105.4
31041.3
38961.5
37234.6
47073.4
19541.1
25226.3
27571.2
15625.2
12226.4
12102.6
1894.01
3952.29
6164.15
-6422.78
-2661.92
-4198.35
-4203.74
-89.4301
27.7208
5412.23
11867.9
4104.08
17982.2
9846.15
4348.53
9004.18
14151.2
8647.62
6457.96
256.525
-5318.4
-2033.73
557.889
-2485.49
6803.93
18646.1
28575.3
10690.8
5326.39
9048.95
20583.4
8609.1
1686.16
7215.82
7708.3
-822.311
-6116.58
-2071.78
2451.83
2325.71
116.927
5212.99
581.782
-807.538
808.928
2083.64
-397.092
6225.82
1273.14
11785.5
13592.1
15819.6
16344.9
8083.79
-212.341
12782.3
11716.8
490.368
-13772.4
-4809.98
1043.83
-13903.4
-9361.82
-8401.09
-6819.55
1394.74
332.851
1038.97
3930.21
2668.98
3512.06
2994.68
3878.58
-2187.7
5555.77
1141.24
-6579.4
-5680.55
-11796.2
-483.002
7446.06
3593.09
-1581.75
-2863.59
-911.477
4560.15
577.304
1002.54
20824.2
4277.88
4557.9
6764.64
4625.51
14839.2
-12.4207
2971.59
4227.22
-138.024
805.771
5641.67
9195
11577.8
-1947.17
-2717.04
-1253.58
648.835
-848.011
-5125.01
-4790.89
-1354.84
-7571.73
4147.42
-1599.12
-5777.2
1628.21
395.825
1599.9
-4569.14
-13972.7
-4800.66
-1328.21
1447.61
2606.19
7653.41
7130.11
2210.87
752.219
5170.38
9682.1
24822.9
14798
10986.8
9492.78
7945.17
647.189
-1659.27
8048.19
2957.89
3708.9
3291.57
5816.38
-2432.26
1887.13
-1959.04
-1536.28
2427.32
29687.2
22021
28705.9
54454.6
55916.2
51656.6
55661.3
45737.6
26280.5
10344.2
10891.9
13410.1
3792.01
3258.15
5558.83
2801.04
3384.91
594.149
9058.74
12584.9
11033.9
8993.3
24151.2
46078.3
36355.5
32977.5
16568.9
8643.89
6382.21
-959.472
8614.85
14714.4
20478.5
26228.6
31723.8
32498
37094.3
30547.1
23165.5
19724.3
15113.5
24432.7
23845.2
-304.536
3561.19
2812.46
7415.15
5454.49
-5287.89
945.753
3415.37
4706.84
6196.59
326.052
-4140.06
7456.11
6841.22
16000.7
11153.4
9034.58
19160.3
12519.4
15341.6
23384.5
20318.4
10755.6
23578.7
20134.2
24680.6
28497.1
23048
15920.7
9310.05
18.5725
64.3482
2417.83
11896
4952.98
3992.98
14001.3
49851.5
39377.6
39184.3
41875.3
50021.7
37035.3
64702.6
93560.8
66583.9
60279.4
66266.5
58290.3
53386.6
44362.5
24304.3
33265.3
19767.5
9593.07
13252.6
6646.14
6187.99
-1423.91
642.514
2286.96
3647.96
-1814.15
-1910.15
1392.3
568.603
-702.454
-2706.6
1517.88
-2246.15
4123.14
17142.5
9799.32
10128.6
12789.3
477.982
6734.79
1291.14
-1848.55
-745.02
6683.02
-71.5057
-1608.09
-3719.38
-5167.77
-10319.8
-1936.29
-8648.81
-6981.53
-4369.76
-8287.28
1990.75
9444.2
31760.6
35553.4
35222.2
26247
21808.9
15472.5
6259.39
1751.47
2316.59
5618.14
3687.67
4852.7
7427.28
16030
11997.3
21341.2
15022.3
19604.9
29122.6
20146.7
23505
50835.2
47887.7
72174.8
73607.4
76033.4
37187
21525
17900.5
25568.3
24779.1
10746.1
9685.2
10372
-6350.47
-4222.51
-337.118
9307.37
35682
27728.6
4205.93
1916.47
-1401.66
65.9432
-638.633
-6115.51
3539.85
13812
9897
2398.33
2265
749.102
1600.6
-776.766
969.122
-7568.57
-7703.67
-2183.04
527.546
-5047.66
-10505
2851.05
-833.072
167.152
969.522
-2790.72
275.132
145.969
2222.34
-8663.46
-1489.39
1845.6
724.095
3096.69
1895.46
-71.1688
-3008.66
2531.54
1589.58
-2286.39
1591.05
-581.527
-9785.32
-1268.75
6122.27
1197.05
5553.42
-1800.55
1502.2
5271.93
4629.62
-1163.12
-4135.27
-10042.7
-438.442
-804.789
5397.97
2169.02
-7008.11
-6370.44
12693.2
10221.1
27949
20100.8
4813.14
2979.05
1886.08
8032.65
533.481
577.007
5588.16
6958.68
-3399.01
751.093
6166.73
-917.693
-1172.24
3963.72
-3003.19
-8048.44
-1773.96
-9277.24
6102.07
95.959
-796.398
745.712
1427.52
-829.513
307.9
-1407.23
2628.83
1496.74
-1964.73
15075.5
11044.5
18697.8
39460.5
48157.6
45634.3
43128.9
59891.7
35380.5
25482.7
35636.6
56909.9
30785.6
24047.2
22047.3
29298.8
26395.9
42524.7
46598.9
37593.1
21485.5
14659.5
14835.4
17761.1
1586.24
1012.75
7589.8
13624.3
17834.3
7516.55
2504.41
2426.48
3378.12
3720.09
6545.64
8987.67
7727.19
174.802
-405.157
-9656.44
-2259.3
327.336
-290.297
-2135.83
838.96
-7935.97
344.762
-261.917
-1009.3
-57.567
2845.7
1159.7
-484.905
982.092
-5782.06
1030.63
-1772.43
-1495.32
-1083.54
-427.024
-2756.44
-2268.89
-3145.92
3158.05
6844.44
1384.35
1302.74
-2035.69
-4887.83
-2390.29
486.394
-3588.46
1897.73
1739.61
225.209
4317.91
1187.15
1958.87
6825.53
9861.23
5814.72
-8189.86
-7005.76
-6936.43
497.286
-2863.95
-2780.86
1794.7
6492.51
10260.5
11690.5
-2379.92
12738.3
11892.7
27870.8
25567.8
32273.6
37283
15500.2
7844.16
-3385.39
-1122.01
4214.38
2824.06
264.512
-993.058
-2108.85
-8365.76
-1780.8
-4794.95
3736.11
2877.24
-56.326
-7453.31
2652.13
-1128.51
10147.8
-157.567
5770.28
8575.66
3863.71
11134.4
8802.69
4367.2
24851.4
31866.2
47858.7
58446.4
110017
116600
67658.7
73174.8
67470.2
57871.9
14703.4
12247.3
9684.75
1747.35
8163.62
1722.74
-3748.15
-685.722
-4682.65
333.17
-288.602
-2020.5
7363.87
12543.2
3534.12
1481.35
-756.13
-4510.94
32.4159
-2024.72
-2676.5
-3596.94
-1101.05
-173.998
-662.246
-978.559
2354.88
178.61
2012.55
-373.208
1429.64
1640.17
3009.3
884.254
25114.1
11598
36970.9
26088.5
36801.3
25134.6
30705
6903.41
15477.4
18746
12589.7
11943.4
7180.34
9131.98
51116.7
47196.5
50360.5
38358.9
27503
32774.6
40750.6
21825.2
39742.1
29188.1
32550.6
23885.7
26390.3
18697.5
21168.1
27965.2
8349.1
7864.41
13619.3
6226.9
14618
13035.2
21411.3
19887.4
9920.1
16506.6
12138.9
19325.5
33679.4
49572.8
56524
51640.9
26424.5
15728.5
11758
22896.9
17148.7
19689.7
27731.1
38183.4
48523.4
70653
59225.5
42049.5
45886.6
12247.7
25039.8
23942.5
25468.8
14245.5
15902
6469.15
-718.005
-2175.8
-10104
-7844.16
-5390.09
-1194.15
7432.73
7640.43
16045
13090.2
10050.2
20576.4
5378.85
10600.3
5282.23
16813.1
21634.5
14949.9
8786.2
1885.46
254.563
-3228.39
-3576.98
-5277.78
-2505.05
-1167.11
-6195.25
1404.59
642.478
-700.794
10423.7
1268.88
-3792.81
-1551.63
412.836
-2767.3
-8787.75
-13589.9
-7553.88
-2604.19
656.437
-7937.15
-61.1298
979.886
-2314.92
-603.767
-1119.85
388.366
5615.15
7344.01
12316.1
7065.01
5190.09
9580.14
23793.1
23846.9
14589.5
6020.12
976.058
-852.988
-228.354
-762.997
-8950.65
-7659.72
-2484.95
1768.06
1058.01
-222.491
-3334.68
-4709.81
-560.736
-1630.9
-6980.42
-279.86
-5989.1
-9187.38
-9782.96
6590.45
-12684.1
-3478.94
-4137.94
-6735.19
-4287.11
-7436.14
-1837.11
-6546.95
-4060.45
-10270.9
122.737
1465.36
21345.5
27635.5
28825
22507.4
43757.1
46618.8
37569.4
59309.5
57769.1
42591.3
57135.7
33388.7
28760.9
31958.2
33310.1
39606.9
62620.7
82500.5
74705.2
96491.5
55269.7
69738.1
68846
76383.4
57731.1
62709.9
61518.1
45677.7
41315
8002.7
22440.9
53980.8
83453.7
66035.7
88500.4
82110
49940.3
36075.3
39688.4
37813.6
39801
66099.3
57938.4
38647.6
21625.2
20801.2
18593.8
15099
30109.2
12866.2
5953.92
2669.26
3533.83
15340.1
10875.4
27157.3
24751.3
17565.5
40245
25479.8
22628.1
14684.8
6188.29
11824.4
19067
2599.15
14379.2
16021.8
-397.735
-6882.56
687.232
-3376.86
-3777.95
1316.16
-1177.51
164.945
1969.86
3079.68
3349.93
4823.4
7998.08
7700.29
16067.5
1739.86
23.001
3622.45
175.944
3124.53
24655.3
1294.31
-1738.08
-808.773
8279.22
12721.8
11098
18595.9
23442.1
17334.5
-248.314
2236.96
-2533.68
4294.93
-100.925
-3125.24
-2231.12
7299.32
9224.06
2668.81
2771.69
311.364
1818.34
3687.11
567.45
-61.8435
-108.261
6269.11
-1089.32
-7474.01
-2916.59
-3576.29
-9725.85
-22926.5
-9922.54
262.292
3399.77
4773.4
2138.28
438.388
2087.69
1090.23
-831.191
-3327.9
-1543.15
-1769.13
722.874
3839.32
-648.399
1026.78
848.38
-1204.97
-5140.91
-2159.53
2514.66
1057.6
-576.645
4722.3
20099.8
21607.9
14779.2
31152.2
33269.5
25736
31889.8
20776.8
25020.7
16979.1
17988.1
7962.85
2176.41
3661.06
1997.95
9019.16
3279.38
244.791
2511.82
698.489
20776.5
26378.7
13090
682.508
14295
20119.4
26065.4
20719.5
7458.77
-2663.59
1181.59
5039.04
-2567.65
4652.52
3793.93
4331.52
-3224.78
-1494.63
772.79
-4363.06
586.357
10965.2
8962.71
5911.12
-5337
-1057.63
-5377.27
3740.52
2062.2
-365.433
1196.97
7853.59
7461.29
10491.2
8317.93
10358.8
12385.6
17075.1
24854.9
27464.3
21132.5
25573.8
18549.8
27827.8
11142
11552.5
15558.8
33488.7
32341.9
28985.9
30469.2
40220.5
77728.9
71792.8
48359.5
38467.2
29270.4
14177.9
32849.1
40277.4
18165.4
11217
19230.2
6181.7
10877.3
6779.01
4214.79
16028.3
19657.6
14241
5850.17
-3995.35
3931.22
9206.57
-9499.51
-8709.5
-3427.81
-1164.56
3846.51
14598.1
-780.503
451.911
-1449.44
6286.85
3291.78
4523.5
4259.33
11209.7
5490.52
22338.8
14043.3
13086.7
11476
6507.57
-766.108
-98.6692
-3541.09
5144.93
1973.78
4156.55
1718.6
1334.96
3159.34
-952.892
417.934
3972.29
787.551
-806.512
819.859
6770.05
1855.49
58.2712
2906.02
3105.92
1041.25
1765.99
396.129
81.821
-5969.77
93.7573
-454.862
7296.21
-941.178
-81.5082
1661.05
9984.07
105.366
38140.5
14770.1
22037.4
28987.8
28878.4
25337.2
21137.5
23620.7
27266.3
27920.5
35933.7
29843.3
68963.2
90240.1
83032
69333.7
76553.7
58056
24351.7
22789.3
52358.5
44929.3
30310.2
22490.7
18604.9
18373
9041.52
14272.5
18133.8
16638
35853.4
31906.2
31921.6
27602.5
31969.2
31820.1
14646.6
28421.5
45499.4
33619.6
28575.2
18086.4
29235.8
56796.6
37800.9
20329
14945.2
14673.8
19373.7
7316.32
13024.5
18698.4
15202.1
30535.3
11149.8
9428.02
36361.1
20830
30903.8
10208.4
23099.2
9366.92
5538.89
-800.676
2603.9
-578.593
-1774.7
-1915.29
-1142.83
332.231
1648.27
3237.61
-7428.38
-4188.09
16069.4
26528.7
32403.7
20139.5
5263.62
14637.6
5979.75
5826.2
13037.9
11448.9
4344.49
11673.1
3385.63
4499.33
343.336
2747.23
19303.5
13939.5
22390.6
16591.9
38152.4
19183.7
8678.62
6353.99
8737.69
1792.74
-151.981
-2557.94
-1815.87
1164.06
2865.91
13093.2
16093.5
11026.9
15184
14379.5
5630.74
5135.4
13449.9
26045.8
34211.4
18928.8
12286.1
24338.9
28369.7
22017.3
3298.23
1204.68
3159.99
6845.2
5531.93
-4616.43
-2615.87
5602.02
14301.4
7884.01
7795.84
509.123
4026.53
773.862
3296.74
2493.49
898.626
-3659.38
4173.51
617.614
-679.856
1987.4
-1372.09
3881.28
4980.71
9294.96
16236.9
16321.6
29951.3
38185
34294.6
20280.7
16493.1
12087.3
11999.9
7300.52
13908.2
15923.5
678.417
-1111.07
2109.38
7106.91
3867.99
12721.1
32393.6
42317.7
65261.1
61000.3
59962.3
97071
98725.6
105295
91052.6
90963.7
87291.2
109440
85553.8
110387
146797
154672
191990
176673
122419
81588.6
49502.5
52689.2
24109.2
28104.8
41271.2
34783.5
25013.1
35011.1
30494.7
56828.5
68701.9
66634.1
39589.4
19263.8
54323.9
73353.4
72690.8
80734
109911
66904.3
72407
41912.5
45695
43065.4
46793.7
27731
38434.1
43258.8
33318.4
26995.6
20953.6
22385.3
25298.7
29351.4
15353.7
43581
74299.3
57385
68950.5
85732.2
39130.2
49856.9
81718.9
130380
123871
79234.6
81760.4
55430.3
31972.7
19384.9
22172.8
-2922.71
-6947.37
4584.98
7901.87
18255.8
29524.7
26509.9
27542.6
21561.8
11336.2
16418.6
22140.6
12805.7
20381.3
21004.6
32066.6
19521.3
27019.7
14036.7
2644.5
-4426.08
3840.25
10835.9
13061.4
10162
12491.7
28656.3
31088.8
17756.5
8665.13
-1206.04
-2798.47
1545.01
2067.26
-2431.08
514.12
-173.014
-1881.98
19.1182
-9700.09
-10380.3
1974.89
5433.3
3180.87
3405.65
-4477.3
-7083.64
-506.005
4465.3
5254.02
3363.97
9254.32
3627.97
2482.17
147.022
1798.93
5632.03
7851.3
-1429.85
-3735.66
-3756.41
-57.5906
-1137.29
-3681.22
4007.13
2582.34
-1190.15
4005.02
179.936
-6017.56
-5309.8
-4115.03
-351.532
2202.53
6626.9
2582.04
3436.84
-8431.94
1731.4
3025.14
-2155.45
-4051.7
-757.163
7216.4
6668.91
17017.4
16784.7
6530.85
16326.2
40028.3
47115
36490.1
25626.1
29403.8
46206.5
50705.8
65113.6
71448.9
45222.2
35293.1
26454.2
36389.8
33664.2
21869.1
19860.9
18288.2
27858.8
8527.77
5276.86
4755.34
5187.18
8527.77
15284.9
21278
10659.3
20426.2
2632.34
1843.24
-4116.47
-2738.52
-5263.08
927.005
3050.4
5081.15
3620.56
1985.18
1164.57
-2814.13
-4529.17
-2822.08
1152.85
-3032.47
1602
4901.3
3866.22
-1584.32
13140.6
12025
9690.93
9089.65
9262.52
2076.52
-1241.99
877.752
-351.685
153.124
-2065.64
-6805.02
-4502.86
10485.9
-5973.54
2023.5
2511.86
2536.75
2965.83
2065.75
1365.72
4346.83
-5835.93
-4947.34
-4923.53
-3379.93
1026.79
2035.13
2748.61
575.457
12331.6
3846.14
3885.54
3293.87
1365.97
14637
9407.95
7235.75
4647.11
4315.08
4068.83
1117.95
2539.97
-1890.53
3885.55
15682.7
6857.8
5925.43
2357.85
5114.85
2489.72
124.043
-1004.53
303.674
-5020.15
-8511.06
-3716.77
-1480.81
3986.26
17914.4
23511.9
13136
-2772.49
-12.3477
3079.44
-1217.49
-1009.99
-484.347
5857.38
7377.39
9150.57
31534.6
42385.3
71770.2
37193.2
26647.1
16065.5
889.482
33214.1
29591.5
15548.6
22427.8
22888.5
17657.5
2516.28
-2321.44
-4812.06
-2342.94
1490.4
-79.6946
2601.64
-4835.46
-5051.91
-1032.84
-1303.98
2637.72
-2943.37
3410.01
-1417.88
-5591.17
-4960.17
1851.54
-6348.64
-10941.9
-2126.35
-808.235
-1243.68
-917.167
-2345.72
-2981.06
2114.38
-614.79
1236.46
2427.2
2490.61
373.472
-457.462
3660.13
1821.86
-2896.4
-4748.35
-4016
-11810.9
-2711.53
-4322.78
-5356.45
-9740.52
-1519.05
1678.34
69.6345
-2021.11
3125.35
94.4009
1415.64
2713.99
-5999.95
-241.897
-6727.52
338.405
1077.84
12899.9
8869.22
1948.88
3362.59
5004.23
463.567
306.405
3093.91
5303.31
6254.9
-36.4987
1967.77
1148.4
2365.18
-1216.61
5173.83
375.954
-1927.16
-1228.77
1696.59
1432.57
-4567.7
4683.31
3784.06
22366.7
13182.2
14598.5
4496.11
17584.1
7484.91
-3983.8
42409
11593.2
23977.4
8891.06
650.691
278.787
2127.9
-222.108
-6541.2
-3191.03
681.944
-2384.05
6774.9
2132.42
4975.94
2531.96
3264.37
6528.21
17405.3
1047.97
-2296.92
-4693.91
-6224.62
-3589.46
678.229
-1679.78
-2465.47
-4939.41
-2851.56
-4533.78
-1789.35
283.755
287.951
338.874
2963.74
983.182
5015.17
1294.75
524.77
1580.71
1007.82
-316.081
7091.69
12518.5
8662.12
14293.6
17335.8
3174.94
-1171.46
-7037.34
-1537.12
3486.51
6881.39
3747.36
9544.95
6415.4
905.771
-1912.53
6527.59
6758.18
6510.86
3380.81
7169.02
5856.01
2912.81
-230.1
2132.34
617.812
12957.4
14797.2
11607.6
25718.6
36585.2
13868.6
5083.27
10643.6
1675.82
5327.64
13152.9
3562.78
31074
26595.5
6170.47
3554.14
1993.59
13885.3
12393.9
6569.69
-726.435
-155.628
1645.97
-913.594
5959.08
4106.63
-285.03
6213.69
16040.8
22990.2
33551.9
15484.5
19989.2
21023
6867.03
15603.5
12626.1
78.366
8320.03
7570.23
3683.22
1730.91
6760.7
6571.23
13524.7
2306.65
2840.13
-1875.53
-2408.1
-3594.72
8379.32
80.3187
3623.52
-4136.1
165.083
-2942.7
-3514.62
1738.56
-3009.25
-4587.01
-12012.2
757.959
1232.24
-1228.35
-7765.65
-2429.81
-1084.33
5246.99
-1657.06
3418.3
-780.838
1912.22
-1004.45
-3449.29
-6378.95
3415.38
3871.17
10576.4
1279.78
-1279.38
-10041.7
1996.2
27946.1
39506.6
52181.6
50181.8
57214.2
46747.2
54290.4
28872
17631.5
19992.1
17578.1
36102.8
39329.7
59006.1
34678.5
10760.8
33892.2
18816.6
1566.33
1861.73
-898.063
4358.43
4326.69
7447.72
23330.5
13971.2
12970.4
7155.84
13213.4
-1777.47
2709.17
5740
9776.05
8656.64
17620.5
17910.9
15787.7
22704.3
18856.6
34708.4
24904.4
32584.8
34073.8
20172
9484.95
21202.6
30769.7
19789.9
12589.5
26355.8
30290.6
36714.5
42362
33307
12356.6
4586.99
-671.927
7244.22
9268.1
1332.96
4352.11
-3747.8
-4309.9
4090.41
6513.27
5209.9
5385.44
5969.27
18390.8
7863.49
16617.9
32259.4
25449.5
65082.6
73573.4
52866.7
62944.8
49562.8
41821.6
30910.4
54992.6
64342.6
54721.9
37173.2
49459.1
21292.3
38234.3
36507.4
45614.8
11337.3
27984.5
42950.6
13408.6
-7297.19
-7381.91
-7352.77
-244.275
-442.32
-2727
8496.9
6082.19
6100.5
20912.3
30930.3
28880
16699.4
6825.99
-3087.14
-5249.39
-2205.98
-1218.33
-2117.17
-1233.28
1609.14
-1480.26
6359.46
4597.69
3307
4199.43
8252.48
21065.4
22045.8
9446.55
7395.53
10134.7
5026.85
6838.08
1174.13
3270.2
8080.82
428.799
3405.91
-2511.71
1816.3
4700.35
-851.234
-50.9906
1885.99
6906.71
-633.928
-2312.05
1648.73
1152.47
2178.02
7267.54
4207.07
1998.69
3330.93
595.557
7107.45
-4433.63
203.751
5118.42
-3370.57
-15701.8
-924.989
-8294.18
-11958.9
-5025.05
-70.028
-4147.86
3566.19
13920
19187.3
19500.1
16184.3
38688.2
29193.1
23427.2
27943.2
19276.3
29519.5
9367.43
6523.43
2251.04
873.691
-723.189
1399.78
5789.86
11159.2
15847
6361.58
13938.2
7944.71
9516.88
8039.19
21301.9
12280.7
17622.4
28988.7
22889.5
24178.3
33367.1
20913.6
3354.17
-4453.61
4681.35
1618.8
398.965
5423.64
993.579
-3948.01
1984.48
3370.01
-2345.26
1181.21
2389.77
3935.04
-8275.51
-1188.49
-3769.52
7470.78
-2692.27
-7079.34
1064.75
-4052.42
1308.22
11497.8
4626.65
3655.85
2389.7
3363.01
8793.28
6252.07
13787.8
8843.63
4263.28
-1745.86
2184.88
6445.53
1853.54
8391.38
4218.76
802.15
-5933.74
-1864.07
-3267.63
12694.7
7435.6
17378
23971.5
20548.8
12513.2
18489
11651.9
2266.55
2837.65
11061.4
-29.2845
367.05
1033.74
-50.3471
-2371.61
-3252.58
3419.77
937.869
6102.23
1612.59
-2508.57
1534.05
3055.6
-7603.41
-5997.22
-2728.88
-592.232
-3632.1
-785.918
233.184
871.816
-3868.3
-2079.11
7060.05
2709.67
1413.38
-1754.71
1023.97
-1737.9
-8420.3
-8114.13
-7745.82
300.125
-514.059
-128.285
3810.74
4734.31
516.241
859.357
1604.14
-1475.68
4346.19
2959.21
-306.816
5453.81
4087.2
1602.89
-6652.41
1756.2
3945.55
2343.22
11580.4
1686.04
-6723.83
-4743.01
-2880.38
478.823
1655.87
1175.64
-4019.5
-2150.01
8630.51
-5887.63
-17297.6
-5969.59
-3799.62
295.863
-5358.06
-4905.91
242.889
-7570.02
-1.42755
-7568.84
-11101.6
-198.526
-4975.34
9939.4
5855.51
1139.18
9361.24
5107.86
3678.93
851.179
1049.97
-2334.46
-6083.89
-1497.07
1519.17
-187.241
1405.73
2937.16
3902.09
-151.477
8733.31
1281.34
550.615
1145.09
819.659
-26.2284
-3285.07
-8666.01
1291.02
1754.62
433.191
-2187.83
344.036
-663.873
-150.185
-3779.03
-931.976
2578.69
-2259.93
2652.22
12397.2
5806.57
501.137
9167.96
7746.36
4240.86
9872.87
10344
28347.1
498.195
7523.83
707.513
-3165.13
-266.487
864.581
9701.35
10904.1
2509.94
-4452.21
2262.69
3313.5
3515.67
3527.84
7381.37
7529.56
12861.4
8120.08
9622.44
6423.55
3600.14
12544.9
12371.6
9983.91
20617.2
10853.2
4787.59
1968.52
-8965.47
-8070.58
8558.92
4422.11
13545
8289.81
29430.4
21006.4
27189.9
35231.5
44856.7
28931
5120.93
-1304.96
5966.47
5332.19
11077.8
45313.9
17222.2
19746.5
35724.1
19577.3
13203
22544.4
32634
30107.2
21532.5
29485.7
11092.9
7534.63
16455.9
10163.8
9504.01
13932.6
33394.4
27772.8
19445.4
6940.48
35676.8
23246.6
10352.4
1761.02
2542.64
-36.77
762.514
3160.98
-1538.79
-1115.76
2113.72
-12255.3
1052.02
-1679.1
816.419
-2970.14
769.916
-72.1064
-1624.98
3631.38
-1346.09
5079.3
2269.04
8879.23
9887.11
8864.43
4751.33
21468.9
19316.1
21852
37364.1
29688.8
39815.7
38382.5
37303.6
11879.3
5150.37
-2445.31
6664.66
1843.55
4554.53
10524.4
12193.1
18015.3
19175
31233.2
2893.45
3550.51
-1846.59
236.09
-2279.64
-4724.14
-14365.6
-1400.12
-6285.89
109.32
1153.06
-5322.42
4913.91
-587.225
-13164.6
-6261.33
-1129.57
-672.744
-7771.75
-7907.33
1523.99
-3482.14
-301.363
791.905
1880.96
-2499.08
3706.12
-2122.17
-1556.49
7402.17
9001.86
12841.3
11129.9
18295.2
32512.6
37807.7
21531.6
16320.1
12962.2
18284.3
24703.3
7543.52
6519.82
961.942
13767.6
13405.4
15315.6
9155.34
-5260.85
7031.57
8548.61
1428.9
962.27
-3708.8
1213.93
-1120.74
4582.83
1534.03
4832.53
208.344
2115.4
-723.766
808.872
296.037
-2357.83
-2360.77
-9048.32
5049.68
11334.2
9303.2
4413.19
-506.227
19751.1
18820.9
9177.4
5844.11
3541.75
-3392.12
-904.399
10373.6
5633.23
2980.07
12077.7
17848.1
13962.5
10966.6
2003.11
1025.05
-2677.34
-2399.46
-4053.08
-1828.99
-848.826
11674.7
17502.2
6382.65
-2292.6
-2567.04
-2848.47
-3921.85
-9063.57
-10408.8
-4658.15
2517.92
2606.57
1667.56
128.367
1734.94
17732
14241.2
12174
432.794
6694.22
33225.6
35900
26891.3
40085.4
59777.6
105849
110256
48976.4
62617.6
78836.5
38109.3
40093
53093.4
39803.1
49016.8
49966.8
46674
16438.4
16861.5
5324.92
3571.58
1112.76
3760.24
1884.9
620.05
591.197
-2065.4
-1320.66
1621.12
240.268
-929.47
-4284
2302.1
5198.67
4918.03
-857.794
705.256
3719.52
6745.26
-677.108
951.274
-7844.91
1618.84
-739.384
6235.52
-631.266
2105.84
-2931.72
-3576.51
1598.07
-205.101
414.552
506.417
-3210.26
-1809.37
-10303.9
-65.9153
-184.656
-2755.21
5159.6
579.497
5433.08
12115
15997.9
14072.2
17810
23740
42706
32032.4
8939.13
8161.72
5246.37
1121.11
472.104
4891.3
7534.93
20042.6
3251.56
377.031
1069.93
2583.41
3575.73
5964.91
6847.26
3355.57
1654.28
8737.28
20601.4
3666.61
13939
12075.5
18927.6
12930.7
6917.51
3068.09
300.934
-125.526
451.072
2323.71
-53.7927
3807.64
-10152.6
3915.55
502.439
-96.6025
4389.16
-1743.45
4306.43
-2069.3
2558.8
3166.41
3454.99
6079.57
1016.13
-6277.3
-337.187
4827.68
10.3687
1047.49
-4739.88
-579.337
-1107.26
649.589
-1535.12
1761.64
6588.35
3771.18
6181.28
1989.06
-1486.56
365.307
1351.88
887.73
5599.69
13624.5
9782.37
6679.21
168.074
7037.05
-841.552
1465.13
1603.32
-86.3985
1703.42
6296.16
4329.06
-3375.79
-4576.28
-8893.76
5751.27
-432.793
-8068.12
-43.7671
-4013.66
-6904.08
1640.91
-648.886
2537.25
2375.5
6156.51
-5417.58
8487.72
8894.31
6493.65
2768.59
1591.92
3622.13
3858.05
-8870.69
628.852
1044.4
1036.49
5117.52
3545.15
11450.6
10817.8
14527.1
2014.58
1872
5135.91
591.657
-4417.81
3693.08
129.062
5630.6
724.361
-1722.78
-4708.77
-5032.23
-707.595
2373.3
3474.47
7265.95
335.591
-287.054
-2180.45
-5964.02
-7372.8
1822.65
4081.64
15533.8
6237.25
6888.82
4881.67
-2417.89
-225.204
3556.46
4138.1
-1527.52
4061.22
10100.9
14389.4
1259.19
14153.7
17205
22721.5
10396.9
4928.8
2235.2
29218.9
43592.8
43396.5
48975.9
40664.5
54099.4
72047.1
37830.4
40169.2
42700.3
39384.6
28045.5
42547.8
51609.5
39208.8
26430.3
32430
29936.9
16308.4
8286.57
13126.1
19347.9
10715.4
6062.79
-2265.91
433.884
-7938.7
-1450.06
-3033.16
1084.74
-6661.01
-4567.84
-3103.36
-23.8816
-2326.08
4032.55
9801.7
13330.4
18586.9
13385
-3110.27
9187.69
1934.09
-1748.95
4485.21
3045.56
-676.736
13167.3
19661
23462.7
26048.8
39145.8
26595.6
45963.5
21847.6
11108.4
11808.6
5703.83
-2127.9
1504.5
5430.3
11141.2
9639.69
5820.86
3621.81
10904.5
9642.55
6386.16
15338.5
19112.1
76468.1
83378
76414.5
77562.9
85000.8
64275.2
49079.8
38705.8
39339.5
43823.3
41605.3
53711.1
28968
33204
35218
16232.7
10151.3
14651.9
13694.8
-838.741
-3198.8
-3465.78
-184.012
-2177.02
623.336
-2171.53
-2949.28
-2616.25
2048.38
-696.658
688.273
-994.167
2774.35
20204.1
10020.1
2004.84
4998.43
23232.5
19623.6
43945.4
64015.9
42879.7
40004.3
36878
24296.5
26604.2
22446
25127.1
19829
12856.2
8538.91
3110.07
-285.867
2172.93
4064.2
3269.23
-956.645
1534.71
1806.87
-2149.04
-8942.42
-2305.85
-2257.54
74.2084
-2327.59
489.833
1235.28
-5040.93
-4634.74
334.252
3895.85
188.253
3536.45
6094.35
11404.7
23416.1
31289
30344.8
37111.5
15654.4
10704
22123.9
20362.1
37257.6
33107.2
3662.93
2004.36
5885.25
7917.9
2457.71
4309.11
2229.97
-4137.13
-64.2149
629.973
-3084.09
-4798.39
1154.27
1102.96
-487.651
241.837
-2214.14
-544.649
7768.71
2815.82
892.311
1653.2
2897.06
-6512.81
-1775.75
-3162.26
153.097
2645.29
-736.639
-529.626
686.881
1320.21
-3705.22
-865.872
1767.25
3001.8
972.012
1162.35
-1472.2
3583.38
-5252.84
492.814
-536.124
6290.76
18256.3
12856.6
4272.79
2274.52
311.133
6991.27
7433.68
6459.37
373.851
3977.18
-3707.63
-790.145
-6343.84
-3168.2
2259.08
4625.77
1652.04
13154
16529.4
18159
7862.54
-1029.13
-2385.72
401.179
1445.39
6708.88
2677.87
5416.63
4322.67
14250.5
20100.7
7772.77
9665.58
19057.6
14997.8
-189.493
2956.72
2883.65
748.754
-202.795
647.486
6312.33
-4632.84
1370.61
-9797.53
-6957.2
-14196.8
-7315.46
-1073.53
2443.37
25912.7
24390.4
18019.4
21484.4
20958.1
32575.7
26690.6
9225.42
45199.9
40522
24339.9
39594.1
31093.5
33615.9
24213.2
33137.4
10984.4
12980.6
25099.7
45855.6
28150.9
18080
16905.5
17032.5
29227.1
58298.5
36607.6
26577.7
-188.4
-12638.8
3601.1
7900.64
18441.8
38423.9
29044.9
44809.1
43314.8
32461.9
12413.3
18508.2
4704.23
-935.606
-1003.3
6400.7
10558.3
4903.29
7371.3
5484.95
-1295.05
-3043.4
-1755.67
-1095.33
2026.61
-244.867
11281.6
10836
7806.88
4405.6
-1374.85
2589.6
1067.31
-2462.25
-5167.29
119.683
-1569.93
542.309
2598.04
2310.7
9526.97
5650.87
1310.25
2140.51
10522.4
18382.3
7972.9
14307
-5624.4
-406.733
6416.3
8487.87
4484.81
-1028.36
-2182.18
4326.3
6279.66
8115.25
-5507.01
-675.712
2026.87
4382.09
-688.44
-5087.99
3474.19
-4979.94
-510.493
-2439.07
-2945.09
3856.35
411.592
458.365
-1154.04
903.291
-626.044
205.142
3739.66
1555.56
2836.48
1177.47
-58.7588
-483.77
1855.01
4276.83
2458.6
-12257
-6744.9
10869
10866.9
24962.7
13533.3
18570.9
8241.86
11399.4
-1930.16
-3509.55
4134.85
-373.032
-3669.3
582.858
1643.05
-1740.35
1886.15
3081.97
-4942.09
-3843.81
1598.92
10462.6
6245.07
1207.07
4872.16
4649.96
692.546
219.709
-3555.17
1188.1
340.227
-1136.62
-1742.05
-19442.4
3261.05
-2167.41
5327.49
1336.49
-1193.12
2541.58
4525.68
5911.46
10776.5
8530.34
18002.3
16748.9
7644.42
4564.53
7357.78
8520.62
4596.13
12390.2
7160.36
5086.3
-6050.45
-7001.85
-5218.94
1574.61
5243.92
3245.56
-2080.43
1877.15
2782.59
4291.05
1318.7
5844.93
3775.4
-6971.18
62.4144
6039.94
-52.0582
-4596.08
4799.97
13366.4
10785.5
-10975.4
3829.7
-6807.07
-1211.04
650.939
1651.99
2973.98
1110.6
6980.4
14864.7
6574.13
3418.13
4616.15
1267.6
-6150.99
-1920.12
-6203.95
-2208.52
4323.65
11108.1
24441.9
29356
16890.8
9142.66
28099.2
27871.6
26858.8
20383.4
17128.3
22228.4
40750.9
41535
38110.8
41594.6
26142.4
16226.3
-815.501
-582.355
-2502.73
-340.269
-1106.16
7724.72
14199.2
13284.8
18066.9
19354.7
34818.2
42132.8
35397.1
29618.8
9367.9
11066.9
6267.98
-970.157
-12317.8
-7891.15
-879.039
1612.01
4736.77
4701.52
-6206.71
-6083.96
5817.88
-504.325
-79.4877
-8310.61
7224.82
3232.31
-8630.01
-25756.5
-18167
-15776.7
-9258.09
-9274.75
-5224.59
-1585.03
15008.5
28273.1
30724.3
40882.4
61842.7
45060.7
72923.1
63245.8
45896.7
28564.5
30737.7
28211.5
28943.8
26823.9
42303.4
35018.7
17849.8
27875.8
37298.8
42842.2
21854
27638
75809.8
89321.7
92698.5
103773
62033.1
31269.6
47265.8
23560.6
4101.43
8820.51
15057
16554.5
24743.8
14331.6
18260.2
16709.9
13881.3
4520.54
16691.9
7654.5
3199.27
6800.37
11712.6
-1354.41
7396.25
6440.75
40.3521
4840.27
-514.792
-2804.31
598.394
450.824
3335.92
2746.19
2459.8
-506.017
-7601.77
-2127
2444.14
-3872.03
5889.6
4411.98
4191.31
-582.832
4479.85
-139.665
-3925.1
6808.94
-1839.67
2312.48
5042.54
136.615
14127
19208.4
9904.89
21160.8
31186.9
19545.6
7015.05
1702.55
-7075.25
858.015
1721.47
4873.24
349.998
-1194.78
4708.98
-110.064
422.624
611.579
-6082.35
1676.53
-936.632
-2374.06
-1427.72
-6592.17
-11901.2
-16761.6
-5654.61
-6254.86
5699.87
1740.77
-2424.42
585.618
2007.52
2220.53
-478.811
5706.15
260.773
4450.56
369.542
-2672.31
-6790.25
22347.2
16595.8
12815.6
8622.13
-811.598
1836.82
-1788.89
-3098.35
6039.33
10884.5
10365.6
29281.3
20689.1
45213.5
31522.3
30485.8
14164
35243.1
18867.7
11076.8
4886.05
6327.63
13782.7
28403
16564.9
19776.7
24902
28389.9
38456.1
30473
41315.2
60750
70578.5
40872.4
43112.6
27010.7
23133.1
25748.7
31322.1
37213
20467.7
17251.2
10555.7
8669.4
152.595
-1079.66
-1217.66
2701.75
3375.27
9707.35
741.467
2299.73
1764.03
6431.65
3951.74
-1063.63
1659.83
5767.93
4690.83
-4947.58
897.57
2336.15
-124.707
-1146.52
969.25
-129.936
-297.217
9180.74
10425.7
13161.9
4991.69
3469.03
-3416.86
-3063.15
1945.35
2704.83
19839.4
24148
35009.1
31125
35208
23588.8
24808.4
16946.5
12508.6
8956.24
6937.79
-2700.27
4630.17
17649.9
6225.8
7056.48
-152.581
-8961.69
-986.892
-10777.6
-1154.29
-1758.54
-5877.99
-2357.68
-8468.65
-1834.8
5529.45
10343.3
8151.37
8563.57
-11869.4
-8527.25
-8678.95
-9551.52
-6128.52
-4409.16
667.283
10485.3
22024.1
26746
29693
30764.7
12419.3
9666.33
17425.3
15181.2
10667.8
41520.3
15895.6
32525
24466.7
31450.7
45394.3
50646.2
58028.9
32957.6
38169.9
38646.2
21217.7
12493.1
9237.85
9003.02
2322.31
-5226.03
4233.9
1103.55
1823.83
1973.13
-5945.31
-1141.42
-490.241
4494.76
8888.66
-7260.19
-5506.51
-4172.2
-1866.22
-3181.64
1347.63
4273.31
5119.81
17175.2
13232.6
20424.6
30834.3
24528.9
24519.9
16345.8
12758.4
11227
19393.2
19706.9
23969.5
24743.9
16813.1
10832.7
19090.7
26148.8
25908.7
36092.6
11712
4276.09
4102.75
-1820.42
1757.04
-595.699
-158.112
-1199.03
-2624.04
14795.8
37943.1
27184.1
29152.4
15173.6
2671.33
8470.82
3586.67
2948.72
22.2019
9475.9
6098.93
-365.861
-477.167
1514.89
2409.38
1390.15
-290.26
-1091.38
-4735.92
14641.1
39948.4
30573.8
45133.3
40953.4
65011.1
38678.5
28505.9
16763.2
11488.5
14176.8
12680.7
26220.6
29267.5
31340.1
36987.9
35473.3
28671
29561.3
18670.2
30037.8
30499.1
24152.6
3840.5
4785
18607.4
17705
19653.4
18405.1
16646.4
13205.1
15322.6
28007.9
25052.9
1815.88
1518.59
6865.65
2215.76
3385.85
-899.093
-292.68
-1082.51
-1762.44
688.237
-597.38
-176.374
786.587
11954.6
8326.48
17127.8
9187.29
10027.1
6134.14
9833.2
4879
11170.2
12214
18886.9
-3206.22
1415.28
-6120.42
-3335.64
-22566.9
-11753.4
1225.8
-2121.06
-293.052
1224.56
-789.904
-1045.07
-449.253
2598.89
-3491.16
4229.22
282.21
8666.31
3571.22
14110.1
20484.9
25443.7
28442.1
29725.5
16838.2
16550.1
522.822
11312.2
9865.01
3147.98
22529.6
3215.05
6649.15
1086.69
-6927.13
-369.201
-203.301
271.272
5528.46
13677.7
15875.8
15367.6
11015.9
22812.9
9974.92
7066.49
42732.3
21134.3
9428.35
4794.16
-4300.42
1523.07
-3040.38
8957.45
11627.6
23165.6
31501.8
37590.5
33756
17851.7
6803.67
-244.817
-786.879
2304.76
-6408.72
-5096.3
2168.84
709.367
123.722
-60.1266
-969.855
-5079.3
451.535
156.957
2384.38
-2164.88
-3304.83
-9077.36
-9324.74
-21111.3
-7038.27
4112.45
19793.5
27496.5
22486.3
35995.2
20498.3
13916.5
24685.7
39194.8
42287.6
29842.8
29391.7
7254.21
19800.8
13248.2
5448.05
569.587
10908.8
12712.4
22285.7
40842.2
44495
46228.7
59988
56304.4
33423.7
32866
22164.2
7989.18
8428.77
28177.3
5426.8
29037.1
45149.8
62348
66358.4
31629.5
37894.5
41193.2
63350.9
103163
80839.3
74420.9
31952.5
23347.4
16895.4
15029.8
17047.2
-3243.55
-1213.4
-2861.25
4490.39
3143.54
1.80464
542.559
5889.07
3317.24
724.937
3635
-8033.69
-4463.73
2654.82
706.189
-554.915
5691.47
37638.8
23723.1
12144.6
22098.9
10750.8
-2195.57
-4176.76
-8672.94
-3205.48
2255.55
-2594.82
-2333.43
1581.4
-2595.05
4325.47
-262.553
5768.69
18212.5
5614.26
16315
9680.98
7173.12
4611.5
5411.75
4542.69
16500.5
11594.6
13508.2
11139.7
943.82
879.656
4652.59
7475.23
3791.27
2135.24
-790.888
7046.83
4024.05
2926.87
6622.72
1897.59
674.11
4164.93
7843.83
4881.49
12936.9
9581.85
7859.03
11955.3
2616.37
-2088.21
924.574
2339.41
-2858.08
876.965
-2303.72
2334.98
-7125.49
-2940.07
2164.54
507.258
2187.34
-3106.39
-9377.53
-11863.1
3062.46
7601.52
-3301.39
1753.36
-225.313
1887.79
7125.66
13402.8
11273.5
19252.9
3969.49
-1686.29
6729.82
442.655
11222.5
-1701.63
1787.17
9921.47
4793.13
4384.11
27208.5
15337.9
4961.06
5249.62
7329.84
19408.2
15280.9
28325.2
35591.4
37430.4
21844.2
16352.2
28328.2
35717.2
85746.4
68203.4
47768.7
35663.3
54040.3
70879
78239.5
60747
49508.4
35243.8
29082.5
25630.4
18109
30995.7
36995.3
33544.3
20031.5
13043.3
3686.63
7360.69
4635.7
6103.81
3300.19
512.846
7835.88
5256.02
6662.11
13648.6
11376.8
14158.3
8398.21
15855.7
-1134.24
694.847
-2526.26
4403.4
406.107
-2105.28
-1025.25
-2777.99
-6309.75
777.035
-3438.1
-870.959
-5874.74
1368.54
3506.25
13102.6
7448.82
10898.3
3274.82
-26.0361
9393.24
9116.9
26342.2
37696
22116.3
14685.8
16810.1
13766.3
19535.6
3327.33
-1365.06
210.984
4182.92
3347.96
488.581
-10827
-7239.19
-2233.99
-726.051
-4300.79
-4892.72
-2013.43
-6326.43
2978.92
-549.848
4761.93
-536.088
289.878
-7474.25
-3182.26
-746.54
-2994.17
427.259
-632.669
1256.73
1014
-3468.84
-1808.9
-3384.22
-3337.8
665.74
-1239.33
2650.54
-2403.07
-6074.87
8556.64
-1304.53
1832.02
1071.99
2030.77
3740.96
2884.4
1263.69
2951.73
701.141
3077.29
3507.94
1153.86
3240.62
5574.21
1037.94
54.862
1181.34
-1794.68
2275.61
5175.02
15485.1
9146.25
13496.2
618.081
-2453.79
5648.05
11.5591
-3317.75
-8812.22
-1639.41
3176.77
6760.82
16286.4
22447
13792
14440.4
7810.53
10384.1
19666.2
2209.02
17057.6
8391.2
11606.9
1078.88
-482.287
-1648.73
-523.585
-948.091
94.3677
832.883
7325.97
1851.53
-569.758
-2072.51
3272.77
7007.12
4061.03
3883.36
1997.53
-3810.1
-3765.81
-508.212
-585.054
3278.37
6622.19
2904.02
-2846.04
5345.6
4611.95
557.704
10051.2
1158.38
-3188.75
-7213.2
-17617.4
-4456.96
-635.087
-1606.12
-1361
1247.11
-1381.69
-3272.45
-624.231
3486.36
3752.45
5284.95
10260.9
4422.33
10925.3
9449.21
1437.07
9768.18
1507.09
9733.49
30957.6
54258.6
44444.6
12359.8
9562.58
1136.75
1307.25
1333.54
5895.35
15962.5
3599.61
4229.5
1649.8
1317.95
7087.16
18427.1
22419.9
13402
13443.7
17530.8
44129.6
54321.3
45960.4
60861.9
51626.6
53132.6
53732.4
48868.3
54816.5
63015.6
68472.4
87127.2
84361.5
87480.6
65791
54428.7
50069.9
14321.3
12896.2
13094.4
9167.27
3624.73
-781.897
-1634.93
-1130.04
5247.15
-2226.92
-643.676
-5509.55
-8920.52
305.869
1167.21
4563.72
1873.43
-11912
-22762.2
-9937.26
783.898
2495.21
557.292
-101.14
1490.19
451.429
-5052.15
89.1051
-169.689
14047.2
2237.92
2349.5
-1311.72
-1667.33
4.39976
1508.77
-81.8958
-341.311
-2855.57
-6821.48
5173.42
3635.53
5654.72
-1246.81
4639.93
11924
11547.8
9064.53
38894.1
36320.1
33657.9
35134.7
79421.5
74853.9
81788.1
68533
54704.3
67578.9
22977.7
13344.7
14341.2
8808.44
1663.11
1155.1
7561.62
8843.87
10630.5
15221.6
16001.8
5709.94
1585.57
2337.3
12178.1
18068.9
17599.5
3590.26
-3772.95
2086.98
-8.86558
-7045.92
89.7664
-71.9249
821.753
6114.17
4706.11
12550.9
20795.3
10724.8
14481.9
13233.9
21978.7
31916.7
19383.8
36883.9
20262.5
16992
5620.19
3504.46
9598.06
-1723.55
6071.65
5160.63
9580.46
6966.07
858.671
12188.8
-3592.97
6284.26
1751.67
-6524.58
2076.64
-4336.33
-6309.51
-5804.63
780.5
2991.75
3976.5
11676.8
14689.5
31830.3
11539.7
1263.2
9437.82
8668.83
7571.1
3374.33
-4273.02
-7422.94
3059.05
4939.49
4854.37
-176.266
-8761.46
-199.345
5207.61
44.7106
726.931
10882.1
7238.67
8277.71
5091.61
481.705
1304.48
-864.649
-2727
2417.52
-1645.31
-359.786
5207.83
2086.13
4761.39
6646.14
3444.08
6038.49
7127.29
16667.6
10233.2
7520.29
-1300.59
-11787.6
4446.01
290.996
7984.26
34184.6
26974.6
16892.6
1132.3
19805.2
21476.8
12668.5
14851.1
12564.3
-646.984
6406.35
9380.74
-1203.92
-210.854
-238.06
-1327.93
-2918.68
4844.05
2922.65
7637.54
9524.69
8969.42
7865.19
4928
4877.76
-1785.57
-5369.47
-3935.32
1769.1
1892.86
1546.95
-3049.17
2608.74
2404.54
-596.903
4768.5
1412.04
7545.57
-4770.25
-8666.94
-2723.9
2518.65
7966.19
-6771.26
-2085.14
-373.52
-596.788
8764.97
9977.98
-1804.69
-8095.47
-6272.87
-1363.73
558.112
726.176
-1986.41
-912.694
3839.61
4850.42
32.3665
1875.29
3708.8
-4611.15
-3836.72
-3242.75
3900.5
1727.84
2202.98
5762.32
5571.13
1827.83
2446.35
1317.25
2333.66
8624.82
8508.84
6324.8
-1253.66
-9097.38
-737.722
-1400.06
-1265.49
-2413.53
-1941.28
-4287.44
-30.0825
2967.35
17986.6
16723.3
19359.3
18118.6
20870.8
28304.3
13146.5
11355
22747.4
45500.4
34938.4
14514.3
8707.2
269.955
3519.52
10377.6
9062.56
4152.99
-856.798
-4227.65
3902.97
5410.41
1091.17
1678.88
1319.15
6219.54
30683.8
19290.3
14066
11526.7
26634.3
24278.7
37435.7
25829
21026.8
11545.6
13571.9
12716.9
8586.21
8127.47
20474.8
27265.1
18974.8
27128.8
9600.22
27004.1
45168.9
46665.6
23560.8
32781
19784.6
17770.5
18354.7
25448.3
26180.5
7995.51
8540.75
19051.4
13241.7
7997.36
-2813.43
-3456.22
1682.07
-1726.33
5218.65
21575
16750.2
2944.46
30246.6
11049.3
4630.66
11636.5
16691.7
25559.7
24545.6
11567.2
20493.9
16612.6
46284.7
38805.6
24784.1
37432.9
32728.2
28347.1
28681.8
28411.7
30106.4
23093.9
15813.5
17349.7
-965.847
4054.21
1927.92
4578.02
10214.7
9651.9
-1577.61
-73.321
1038.68
-2466.11
5672.2
9132.77
11569.9
27982.8
31311.3
16764.8
20887.7
23441.5
27362.3
7832.36
6563.66
29290.1
16378
26303.6
10203.1
25774.8
19894.2
23256.6
8333.78
12963.5
25815.6
26747.8
17803.5
17266
23338.7
13803.3
-2678.95
609.197
-923.973
22.0562
651.052
663.568
805.413
-482.747
-2131.75
-2567.13
365.261
790.897
-644.98
1828.27
7558.87
224.093
7885.75
-2376.81
455.802
-1272.89
8840.39
1463.04
613.699
-4777.5
-546.67
3935.18
37.258
1499.02
6130.12
7438.72
5004.97
4252.25
216.234
-64.608
2851.58
10417.6
13313.4
19892.5
13932.9
10746.2
2891.27
225.634
278.341
4116.11
1034.11
-542.612
3951.67
4291.54
243.848
5664.13
9763.29
5019.38
7942.98
3976.53
-445.153
9944.61
29599.3
10222.6
9253.83
14861.4
13565.9
14033.3
20813.5
42129.6
23639.3
13565.9
12556.8
12190.4
12468.4
11463.9
699.779
-1437.23
196.568
-966.444
932.543
-5905.74
-16903
-1292.43
-5761.15
715.517
2143.78
3308.53
602.657
3235.03
-2531.35
4690
476.339
-3013.61
-750.421
1344.81
-6038.85
-6266.88
-833.215
6418.41
2181.96
-7264.19
-559.118
1689.29
1302.31
-2805.99
1555.01
4681.05
2226.61
2552.42
2651.52
463.611
6681.69
-3605.12
281.516
333.752
1498.67
753.65
-1488.45
-1017.96
-2505.9
-1928.36
-1508.31
-4845.27
-5413.32
-1675.79
1315.87
2872.8
6513.55
3360.43
4822.05
10840.7
10140.4
19379
12507.4
5099.87
4539.8
8681.29
16498.9
15766.4
18510.2
5472.54
17469.5
13596.8
19004.4
30186.3
16951.1
1946.44
-1345.65
5377.3
1338.56
-1237.65
-122.218
807.99
-890.092
-8627.56
-1834.65
1240.11
1362.39
875.048
-2635.66
514.333
1590.79
-6649.35
-3373.92
-15773.3
-5970.42
1361.39
-3908.59
-4285.65
4052.59
3317.16
28428.9
28164.5
26159.3
13754.2
11316.4
32702.8
32329.1
39364
31820.1
27569.9
23882
19850.9
40270.7
13451.7
22276
23248.5
34613.3
32977
43498.1
44251.4
37092.2
19230.8
31351.6
23585.8
30926.2
21258.7
42175.4
20473.1
18439.2
40790.3
29671.9
34558.6
37572.1
44936.6
41616.3
25689.8
24985
35842
20063.9
13806.9
4465.59
-2321.65
1933.29
977.632
2982.6
9090.93
8935.03
6159.95
8141.78
8497.38
-14420.7
-15075.9
-2512.34
14745.1
4613.6
2107.87
-979.686
-2808.87
-2303.95
-707.945
775.087
-474.848
3804.86
6474.36
2932.56
3667.22
2192.26
3963.24
3744.85
902.818
4073.19
8004.73
942.286
4320.01
5272.99
7955.09
3686.45
3282.84
6548.53
2173.21
8056.68
6323.44
32475.6
11894.7
4751.23
7986.94
8805.36
8521.08
1234.94
-35.1473
7443.97
1085.85
-6967.73
-8139.84
-4451.86
-9864.47
-4325.25
1069.19
5045.29
-705.549
7546.9
5383.42
-7021.97
-24139.7
-16051.2
-2338.16
714.157
-2474.28
991.616
265.745
1095.96
3115.22
995.98
-5403.25
-1109.89
-5032.26
-4271.43
-3942.71
4798.2
-2973.25
529.483
-1489.65
-1003.25
-485.539
-686.036
-70.1779
-3228.62
-1441.29
8260.68
29080.5
38374.3
47772.7
49082.2
30421.6
34570.8
71762.8
65258.5
64213.3
80952.3
88714.1
83027.8
71472.2
84376
68271.2
47411.2
40495.5
50980.6
45473.8
34265.4
21037.7
11496.9
4989.73
16351.9
1754.41
9445.15
5186.1
2938.61
-1533.75
-788.9
519.51
822.325
1418.99
-631.091
2768.93
-3465.16
-705.955
2514.65
15871.9
3253.23
2203.59
3306.73
4059.28
5265.89
1287.57
848.207
723.497
-464.368
-1933.68
-4747.88
-4747.37
-6377.28
-7634.61
-1306.32
6032.19
7700.41
18362.2
20999.1
3004
19915.1
20746.5
7325.92
15074.1
19170.3
2755.04
9892.82
-747.146
189.586
7570.68
6681.62
4126.21
18514.4
24675.2
14686
2004.96
6206.31
11144.7
10823.3
34345.1
39805.2
27278.3
19896.4
33393.4
26246.1
5059.05
-1381.75
-1051.74
-2714.47
-3960.15
-2269.21
-6044.83
2177.86
2012.32
4181.09
13195.2
1809.05
858.624
3259.77
13005.9
-844.823
1251.43
6602.53
1854.37
10166.1
236.163
4789.11
-1723.99
-1321.81
-1299.62
-4453.57
-418.508
-2409.17
592.193
535.023
-4169.25
1566.72
332.241
341.092
1246.59
2112.27
11175.6
1546.87
233.333
6380.59
-631.241
-4377.06
137.038
1065.84
13912.6
7635.34
12458.5
19729.3
21299.2
24576.3
13921.5
14432.4
15846.4
5280.08
-975.452
-2198.77
1432.68
296.656
-1737.45
-514.431
539.167
2196.49
10171.1
15060.8
18802.4
16568.8
11271.9
-2141.46
2334.65
6261.85
3789.48
6253.42
10065
10017.2
5000.19
5566.79
7828.16
10193.7
2227.42
-213.939
4891.33
3900.51
2676.58
-2019.59
-386.36
-1557.28
489.976
1501.97
-824.406
-1902.38
-10128.1
-11556.1
908.678
-6354.88
-5154.6
-2635.67
-1697.34
-8069.14
-4395.28
-3011.66
4033.37
-609.475
307.105
884.273
2611.93
65.4192
917.785
2492.68
46.9199
-1018.93
-4251.96
4503.98
-217.947
1468.08
5393.42
14281.2
8172.72
13738.1
2623.63
2537.43
6486.04
-10205.2
-4535.42
-4495.76
-4259.68
-2436.36
-1337.17
2336.69
20224.8
357.473
2173.19
2476.11
15718.8
23518.3
6001.34
-1542.05
-1574.29
9168.72
17.7845
5900.24
-1155.37
-5496.34
-8767.84
-907.389
3721.1
-3287.43
-86.4889
7469.44
10427.2
13799
6461.53
11100
21459.1
11493.6
15545.5
5176.99
16963.3
17894.6
11565.2
24993.9
29735.7
21982.4
7611.02
9207.73
-1874.54
-436.449
-385.312
1745.22
13672.7
39224.4
19418.4
15145.2
-5691.73
-5107.25
-123.445
-589.914
-1459.15
-2571.67
-624.911
1566.94
1506.87
-639.257
-12878
776.878
-331.366
3223.63
11832.6
7858.92
13413.3
9053.46
19635.9
26852.5
39201.4
31493.2
14496.5
18169.4
13591
11173.3
22168.4
17441.3
29772.5
41196.4
40386.5
52138.8
23581.3
19019.3
22595.7
13845.6
25535.4
18549.7
23094.3
31098
32886.9
5263.54
10134.7
-3806.57
4937.52
2249.54
5830.1
10619.4
8447.66
10334.4
19689.9
15862.3
32966.8
39669.4
7526.6
32527.3
48252.7
35389.6
37161.6
26146.8
12645.2
25750.5
22089
25536.5
15297
24795.8
43550
45958.2
36999.9
48592.8
55602
61055.9
68002.2
60680.6
77155.2
57772.9
51910.6
51244.3
64428
62084
25859.1
19720.6
14076.6
36400.1
63293.8
70574
75028.9
60805.4
44843.2
50243.7
24396.5
12809
17253.3
12334
7272.46
10202
2186.85
4630.04
28227.7
44213.8
41245.7
67022.4
29536.4
35451.4
52261.3
39868.5
27986.6
41025.7
18122.6
10805.1
15915.3
25359.6
50555.3
50014.4
61103.4
56948.1
59138.6
86905.7
92382.7
71251.4
49697.7
33327.4
45076.5
19709.8
17606.1
26504.7
24795.9
20652.4
8416.8
-5600.28
-3890.03
-2258.83
1911.56
5346.57
-3518.97
-5476.62
2695.62
2128.11
16338.2
35123.4
15690.7
16062.8
18625.6
12638.8
39951.9
56820.9
54908.7
54434.4
58122.9
48187.6
34245.1
41745.1
55698.3
20822.6
1181.45
25187.5
8660.5
30615.7
17056.4
-83.7778
11105.2
7941.93
7875.43
14120.1
12918.8
12825.2
16064.6
23583
26742.9
13433.4
2757.5
4065.16
-383.323
-1210.98
-298.663
-6171.27
-1867.29
3380.88
-4761.44
11438.5
12686
2974.38
6.58264
1976.52
-1705.07
837.826
4580.31
14619.7
12332.4
6108.52
9021.81
19754.2
14003.3
26.5066
96.8762
368.98
-413.527
-711.059
503.56
4668.11
4313.92
3617.84
1286.31
912.058
4263.01
12428.8
11011.9
20133.5
27454.9
22818.9
47715.5
38930.3
21792.2
12059.9
4950.42
3480.15
18737.4
11071.3
5950.65
34524.1
31744.8
33213
33349.1
23464.6
17622.1
42462.6
61642.4
61323.6
84846.3
81562.9
78170.9
67245.5
43982.3
44384.1
24751.5
48515.2
3517.57
-6107
-3876.58
-870.39
4949.75
-1403.81
-6851.03
-4869.54
-5095.48
-3164.76
-955.85
74.0372
-2933.36
4771.82
4045.03
7030.76
-2520.03
-6368.01
-7352.66
-3599.9
-4668.95
2118.98
-868.819
-3018.95
1470.18
5855.43
11927.1
6816.81
8018.88
1659.15
-1837.94
-909.054
-3203.64
-2841.17
-3521.02
-8141.19
-4982.67
60.7254
-2653.85
-12601.2
-12665.8
618.348
21929.7
45415.5
24777.7
20122.4
8144.34
10992.7
2949.16
2708.66
-962.466
-1202.31
4174.6
-4676.82
6730.65
5966.61
2488.15
-1455.96
-5358.5
-9838.92
1697.29
137.031
-3504.32
13014
9638.02
-839.059
15117.3
29005.6
33385.7
35481.7
49527.2
55705.3
83836.3
100221
105576
133126
87560.6
96048.4
86363.9
54821.7
31220.3
12224.2
26009
3115.02
2293.23
1268.52
1268.65
-6527.06
740.512
4371.63
5320.37
-2009.55
2385.71
1668.02
6235.71
8087.09
5850.21
3800.97
1442.59
3541.88
1967.49
10160.4
9534.74
205.656
1986.05
2297.28
1314.39
8127.87
834.505
8017.81
20840.2
14928.3
14635.5
11439.8
5071.76
-4131.25
-6803.47
-5382.4
-1025.25
5341.51
11113.3
29365.4
24939.1
15135.8
5364.55
1114.66
8952.13
5636.45
5776.75
-876.809
813.415
1767.95
-5363.59
-2898.79
673.479
2617.12
-1470.35
4951.32
19857.7
28152.1
22318.7
2669.72
-2597.12
-1845.18
1367.08
1422.29
5117.16
13806.9
18118.5
4872.03
796.251
-1789.24
2865.4
1316.03
95.2023
9114.67
4450.17
470.377
-4970.78
-1219.45
818.633
1065.6
5479.93
-2196.4
3497.46
9067.07
6389.98
4661.94
2486.9
1546.34
5702.89
833.424
-12070.1
2573.65
16045.8
3214.04
5552.56
-738.873
959.53
294.165
1218.26
-1244.76
2478.71
-3840.5
2907.21
-1219.2
-5164.53
-1332.01
-5395.82
-3812.47
-1234.85
4636.82
12914.4
9393.29
2258.75
6979.71
22429.4
12706
22853.5
36498.4
22314.7
29173.7
68030
80472.6
92229.2
64314.7
60301.4
68603.5
96882.1
114252
88461.3
47068.4
41470.6
27730.2
72127.6
75195.7
61092.8
70777.6
56328.4
87448.5
87971.7
89805.5
83668.4
69482.4
35346.3
35921
45713.9
29594.7
38113.7
36615.2
37973.5
19377
28902.8
13156.2
1618.92
-2211.68
1094.8
5297.59
-7556.81
-2930.52
-1562.75
-730.965
-2323.95
-5982.62
-4220.27
12905.8
8101.8
-1471.5
2009.47
-1813.91
6952.75
16274.7
36836.1
33426.4
59740.3
74143.3
78363.1
97217.5
64676.9
38407.6
42153.8
41496.3
32426.7
28730.1
4750.29
8987.64
8766.08
12069.8
-1140.48
2928.21
7274.32
3283.18
684.816
-963.419
2384.39
-8402.22
-5073.06
1232.01
392.032
-1142.19
-1524.79
-3887.88
2474.59
8426.39
4921.11
-814.222
6769.68
11575.1
12899
1376.02
1748.67
8188.18
27866.3
19541.2
37597.6
28319.9
46102
75252.8
37119
34526.9
38787.9
42074.9
31871.4
13169.8
12971.3
31503
28062.3
41354.7
29692.1
22364.9
3908.03
14065.8
8458.32
3290.17
1300.26
1509.76
3153.73
1458.76
4663.09
2108.79
3183.12
4530.58
2210.43
-2726.33
1030.34
5022.92
-292.929
-3695.83
-3220.41
-2312.32
-2762.21
-1799.88
-1719.71
-2618.13
-559.7
-1035.74
1326.78
7864.49
112.688
60.317
2466.88
1832.17
4789.47
14046.4
2593.22
4634.32
8534.83
20255.2
15622.4
21873.7
25812.1
9400.93
7179.55
4490.08
2946.94
-1418.67
-7535.99
-1512.99
1722.89
11902.8
14930.7
33593.8
15892.7
15278.4
7497.93
6172.84
8908.02
8632.28
11808.2
10297
21016.2
19653.2
17026.4
25136.2
20885.5
16137.5
17942.1
18958.7
28753.1
38767.9
36721.5
55107.9
39040.7
66768.8
64265.6
39882.4
38447.9
33794.8
15984.9
1976.7
5333.94
9400.2
14524.2
23892.5
10103.6
-1442.57
9738.17
5945.81
9088.81
7019.83
-106.062
-3682.85
-7237.81
10631.4
10930.3
6489.09
1469.43
709.411
6931.53
12229.5
14909.3
20080.4
66368.1
46579.4
60659.6
33449.2
27137.5
23042.5
19654.5
23190.9
24816.6
16260.1
34551.4
72300.4
93047.7
99683.8
105647
81974.7
39386.4
14280.2
3732.04
18332
9101.14
1841.75
2707.86
1033.9
-2614.58
-7118.16
1222.19
10930.7
25360.7
36744.3
5683.48
191.654
-5129.65
-683.883
-3567.88
2406.85
-4201.51
-1429.1
-494.099
1399.17
-3299.24
-3152.53
-3362.18
520.866
1595.1
977.521
8616.54
10077.7
19438.8
3059.8
8370.25
2213.57
-1590.14
4059.52
821.508
-856.115
-814.623
-1102.09
-100.412
7127.18
1499.93
-300.631
-1327.77
-5012.08
548.112
3186.78
17348.2
25847.6
24030
13307.8
16522.2
22842.4
45202.2
42526.9
80289
107015
88176.1
68478.5
47098.4
42945.6
37615
47382.7
26366.1
31380.3
41300.4
47418.4
53956.1
43383.2
43132.3
24919.2
13599.8
4716.7
6305.43
847.992
4689.89
6689.58
23202.1
21040.2
18251.7
8192.42
11964.7
8593.02
-1597.35
1593.72
-934.912
-2420.08
-2707.16
9237.54
1825.76
11632.2
3137.22
-626.641
-4903.89
-6260.76
-2224.45
-4814.73
-1356.75
1246.82
1342.91
-90.798
2124.92
3121.89
984.487
-53.6006
2731.36
6716.87
10262.4
6843.26
-10860
-1710.81
8322.27
10542.1
23944.6
25713.3
21646.4
16544.8
20597
16447.4
12435.2
24124.4
13711.2
-801.032
850.399
-236.119
-4923.12
6415.91
32808.8
25935.4
46950
20602.6
12093.7
11240
8473.56
14612.2
27844.9
20269.7
4484.96
1609.08
-2838.99
1069.1
-1359.32
11152.6
8375.04
6277.07
9303.5
19574.6
22497.2
32612.4
17401.5
7852.17
5108.12
-2007.02
-1185.36
204.725
-3099.13
-5530.61
-1196.01
-411.518
115.786
2187.9
-898.946
-6012.03
-6088.31
-10426.2
3257.86
-4946.03
4078.67
27553.4
17299.9
9817.01
14784.2
6372.14
18.6535
3426.93
-1406.58
4214.49
2366.22
5603.24
11937
392.496
-624.253
-4008.45
2335.76
8919.55
7705.05
22666.8
50185.7
42581.9
33386.5
35420.1
36365.3
24535.6
13401.5
27379.2
15293.1
28691.2
15011.5
1439.59
4930.84
14350.1
9351.2
2350.12
2736.34
144.654
-7315.61
414.8
745.949
-192.151
-3405.96
257.372
-2195.47
-1748.74
-8302.27
-6299.5
-2715.68
-2512.26
872.979
2450.62
-1674.14
-1460.34
3975.66
3559.19
12704.8
899.542
-3097.61
1777.94
11896.5
2705.73
5802.25
1805.53
-3184.12
-4339.8
-2244.23
1778.12
-739.475
908.893
10793
7608.3
4076.09
8040.69
9001.62
-463.429
3808.19
3649.4
8616.87
1444.23
-93.8361
-3142.4
12107.6
14487
10030.6
4169.38
5198.89
2573.88
-6333.05
2899.85
2540.88
-5358.86
104.829
7124.72
17352.4
15428.5
14203
11936.2
1490.39
1098.1
3069.49
-746.415
-3472.31
-3472.48
-138.212
3452.02
1462.66
445.706
5214.2
2896.04
7034.57
15743.9
5829.09
4369.89
1716.77
4132.66
973.658
4124.17
2436.5
44.7819
4468.14
1288.81
113.202
-6519.56
5957.75
10569.1
5841.65
-3200.51
4403.82
12412.4
6322.71
10070.8
-6020.12
-7749.33
-7740.63
-1382.55
781.769
-615.236
-4167.37
-956.102
-8350.67
1789.92
439.592
-3447.92
-339.704
-747.831
452.822
-2713.66
-1897.72
-8472.99
-4768.7
3438.06
3129.54
6383.69
5136.13
1408.24
-580.337
2589.28
-1714.95
45.8342
898.534
1443.93
3082.08
1287.56
4575.59
-4285.25
3882.79
1356.05
5431.73
7211.42
-4409.39
-6484.04
-3795.12
1029.89
3703.8
4205.81
3996.39
2435.94
3622.06
-2307.78
-5405.62
-798.47
-11001.5
-6482.54
-4554.07
-2649.81
-11312
3377.68
6631.25
8109.01
26196
34955.9
25317.8
28351.1
34469.4
23946
1395.72
1594.38
3699.26
17932.8
8689.68
3654.77
21308
19747.1
22891.1
16875.9
16108.2
8950.14
11110.9
2990.72
2825.07
-3713.32
833.287
8166.89
11375.8
-3398.43
15219.5
14396.4
8686.8
21410.2
-549.652
1183.9
7341.72
5680.23
14790.3
20523.9
4442
4164.28
4527.26
18134.3
-795.173
20969.7
28044.6
25063.1
10707.9
6240.79
14915.9
9273.65
5224.82
7212.16
3217.56
-10922.8
-19650.7
-6937.55
-10898.7
11178.3
5642.96
-821.677
1992.48
1862.87
-45.1558
9110.95
8062.74
1212.58
381.348
50.804
1900.78
-1919.1
1837.69
1496.08
-858.569
1162
-1377.91
-3661.75
-1820.22
2239.57
3884.56
4827.17
25095.2
16480
4446.71
7446.37
2800.92
4886.91
7730.83
4361.83
1740.11
-456.328
-1941.75
5433.18
9353.41
9062.03
3867.9
4684.63
2869.13
16913.4
2630.44
19038.9
11003
5484.53
12369.4
-347.773
-529.63
2052.43
6559.94
-4069.56
914.535
6036.15
17593.5
24121.7
6429.25
7318.45
3152.87
4603.31
183.112
1764.99
-4853.37
-508.353
-495.008
1163.82
-743.535
-1139.3
-358.406
-762.453
2201.19
-238.952
-1630.82
-4919.92
-4477.39
-6323.07
-11731.1
-2730.5
10238.6
7989.66
11872.5
-8321.49
-4397.07
-17853.1
-10210.6
-3936.3
-10990.2
-3706.81
-788.038
-5882.65
-6043.89
3324.94
5282.47
726.287
11885.5
9972.88
5535.94
-1601.21
-7245.85
-354.733
-1272.16
-8722.62
6502.04
997.102
287.627
6928.65
1424.35
-934.796
-2654.74
-1358.29
-4667.17
5620.78
-6828.82
-4937.68
-6311.51
3605.66
18358
9325.72
16453
32998.5
26434.1
9722.72
9582.95
6588.66
24227.5
39119.7
34188.3
21118.8
45255.8
48153.6
72488.4
81999.3
87881.4
84639.6
72577
46523
24305
11395.7
11662.1
-991.1
-667.271
6950.57
11312.2
12259.5
11540.3
15241.6
23152.4
16954.1
14284.5
14515.3
6716.98
520.073
4813.17
39183.9
19297.1
11153.3
3067.68
3057.03
1967.62
2941.08
9172.17
15182.7
16652.8
24007.1
18695.8
22804.6
36681.2
56891.8
52822.1
43085.5
49580.1
60339.5
44589.4
29260.6
13716.9
13237.3
15655.6
21197.8
20582.2
19656.9
12139
8038.05
13016.6
5728.82
5109.4
11087.5
16526.9
21780.6
30886.1
58183.8
30009.6
29802.2
25762.6
14891.1
9356.93
4953.5
-8924.69
-2143.55
-2251.38
-11665.3
-9612.11
-4906.36
593.64
8072.31
763.653
1847.77
-1645.55
-1492.29
-10414.8
605.627
7024.63
1286.45
-1893.38
-4514.2
-761.471
2382.54
1823.55
-6256.7
565.633
13450.4
12224.5
16981.4
18823.7
20625.6
21817.4
33523.1
44375.8
25125.9
7063.58
17200.3
18005.9
15571
14127.5
14409.8
4116.88
13477.9
643.112
6101.63
730.047
2.68365
-7481.94
1526.52
4500.08
9553.48
7769.59
3424.11
21716.4
22953.5
47562.1
94296.8
102207
122087
70617.1
76543.2
101277
112576
72770.3
78770.4
105241
86173.2
50965.4
37254.4
32802.6
32280
36334
29889.3
41142.3
46958.6
39975.8
20979.3
-476.222
8123.72
15199.5
9676.44
8813.77
25860.1
35503.2
36446.2
11224.1
4686.58
-855.267
9735.35
6089.32
2141.32
-2660.21
-1517.45
849.706
2289.96
-4223.41
-9167.52
-595.143
-5054.13
688.557
527.489
1156.94
192.777
1773.89
5913.51
10297.2
784.13
2565.07
2408.8
2361.07
-4106.87
-3054.83
-2616.44
-4023.46
3853.99
-7189.57
4626.58
-629.047
-282.157
-512.588
-2408.62
-2314.01
1141.52
-1677.73
2174.16
-759.926
762.638
-274.74
3787.77
-777.496
-5178.12
-6045.51
-646.123
-216.604
-1675.18
2707.34
3996.76
12162.4
28435.1
10834.8
11428.5
9620.08
-6266.38
4722.56
10788
24984
31316.4
47264.6
60212.2
43227.7
20622.4
1538.28
4266.78
14357.9
7405.62
-549.785
-6022.66
-5243.84
-2857.34
1867.61
-1003.48
-2049.01
-4022.59
-7746.15
-2001.69
3599.08
9104.13
-9009.53
1871.85
-5713
2587.36
7602.77
2929.92
-95.3729
-589.22
-3491.99
1526.4
-1803.9
2350.03
3871.5
557.364
1932.8
2564.12
-2088.1
1109.22
-364.138
-4626.38
-3806.6
-2318.48
-2486.16
-4655.16
-10078.9
2182.65
-4081.97
-2512.47
1015.53
7502.24
2626.42
-3465.39
-9081.18
11163.2
-2295
-464.049
-592.958
8302.41
10565.4
1283.46
-1498.82
-1311.79
5242.04
501.721
-128.41
95.6249
-1990.11
-5045.39
84.4283
-2845.21
3536.61
9111.71
18250.3
33041.7
19211.6
15764.1
26261.6
33165.5
27518.6
23274.1
27775.4
52567.4
46077.3
41576.1
21280.2
5612.96
2363.95
7596.33
5203.91
67.0347
-292.538
1465.52
2649.02
-1540.87
-1336.95
1946.31
-825.182
965.499
-1214.32
138.667
1592.33
103.048
-7612.18
4182.66
10540.1
-169.096
875.117
3475.29
-107.645
-2396.43
-1163.4
-1606.28
-2390.58
2098.14
-2430.74
34.1068
2324.84
1388.85
-1417.78
-405.493
205.829
1134.48
6652.34
1489.82
2154.17
-5022.59
-4614.45
-305.837
10154
10960.2
20457.1
24562.2
20715.6
8920.24
3453.78
-2020.67
1651.25
-564.04
-4589.94
9740.4
2832.75
23750.8
29733
25053.6
8226.28
33307.8
34714.1
28502.3
20535.7
15165.8
22700.6
21215.1
20101.8
22240.3
10848.3
7162.18
-2361.47
524.07
3580.29
-327.069
-5545.3
3929.37
-1870.46
1524.68
9623.4
28335.1
30981.3
16147.4
8986.16
7779
16164
50804.6
49008.3
40918.4
30550.5
46719.7
62335.9
66147.9
26420.6
18656.7
12293.7
15118.6
22441.4
29557.1
52776.1
38229.7
31544.2
22402.6
19304.4
27246.7
24957.3
21387.2
5840.1
2547.91
-893.792
3846.41
-726.415
-1236.73
3044.36
644.266
1931.58
4814.07
-2750.53
3732.24
760.956
3947.97
7455.24
4621.74
11344.9
9509.58
11389.1
10237.2
8379.36
15794
31568.8
31378.8
37600
33138.2
32231.1
50393.1
18951
17390.4
27535.5
13687.5
19412.6
12972.2
6207.38
8933.44
-1098.87
8120.41
4135.17
10586.6
7208.37
-2374.54
-2835.83
-6024.21
-2711.43
-3673.41
-31.5814
1235.41
-6480.75
-6054.62
-835.871
1488.75
-1095.29
-1044.61
-1212.87
-3214.89
-6576.34
-9613.4
-3526.78
-54.9667
8316.31
18788.1
21229.3
22538.8
41217.9
60782.3
32783.9
14853.1
9370.86
-3680.11
-1554.56
-5112.95
-12467.3
-1800.47
5633.13
2422.5
3228.08
4824
-647.525
-360.666
2218.88
-397.939
1738.21
-6131.19
-12164.3
-12659.5
-7107
-7735.71
202.512
1227.23
798.963
-4071.74
-1993.94
-539.866
2353.25
2468.72
3173.19
-2425.83
-5806.51
9906.53
16414.7
11750.6
28048.4
13270.2
3111.11
9188.54
2836.11
13598.5
23888.1
42533.2
36037.9
42679.9
22251.8
13735.2
1189.18
357.135
-811.393
4746.48
-2058.99
798.95
-2149.74
574.564
-53.5334
1539.77
-7704.87
12435
8216.64
10260.4
1003.78
-976.027
2437.79
2273.15
5658.25
21599.1
29075.8
24464.5
20606.4
4526.17
10736.3
-5242.04
-1071.45
-4781.5
-9123.15
-3105.4
-1883.88
2105.83
9470.57
8295.8
6856.78
3296.53
3988.88
1818.07
548.253
-1166.82
-3234.7
3163.84
7293.69
-2196.08
15259.9
8112.93
1334.12
9122.47
7310.34
9205.23
6690.52
17926.1
21505.8
19371.4
8446.84
7432.74
-1092.06
-1280.95
8.31696
3004.18
-2322.3
-4488.12
1615.58
-1455.19
-1714.73
203.368
1407.95
300.088
-7817.62
-12158.9
-3606.02
85.0525
-1932.96
160.534
-594.026
-780.899
-1205.45
138.175
5707.21
16947.8
14188.7
16300.1
13982.1
16696.9
23232.7
24742.3
13133
2627.26
8416.73
11548.8
10321.6
22816.3
32740.7
31293
19432.1
18318.1
21885.1
12977.2
20022.5
29232.6
33941.5
41523.3
23452.8
8157.87
2431.81
3589.08
11130.1
1644.59
544.532
5006.19
11603
5433.86
11470.2
1302.67
10741.1
10696.4
20682.9
32472.9
23567.1
52231.7
38656.2
20977
281.654
-1819.98
146.201
-6860.26
-9116.61
-3683.62
-2181.68
-885.326
1593.44
311.101
4176.5
8012.24
4384.58
13634.1
3651.64
-2856.41
811.762
9578.69
10074.2
2554.94
-5415.23
8170.12
5323.22
7520.19
4276.33
7384.08
4832.13
15349
15603.3
3575.48
3584.41
5056.92
2389.22
3772.03
3340.19
322.326
-3393.56
-1258.47
1698.7
-5810.41
-7580.09
1522.23
4283.57
-2464.16
4692.5
5275.71
-2076.77
-2798.73
7076.28
12247
2068.49
-5.91618
-2173.97
-6306.7
-3158.03
-5484.44
-164.349
-973.008
11795.7
14892.5
6077.54
8494.93
559.664
-392.585
12865.3
27970
21469.9
26997.4
22830.5
69727.4
75133.5
96401.6
63868.2
74001.2
49806.1
37864.6
19745.8
9046.22
2761.15
2018
-1338.82
2007.98
8000.56
-417.838
2488.35
-958.426
6890.01
-3125.5
4008.78
21323.2
8991.88
10765.4
27843.9
15662.3
18200.8
20038.8
26225.4
11654.2
12354
15408.4
13528.8
26692.6
20675.6
15990.3
21974.9
5448.13
6347.61
3621.83
3367.08
449.673
3968.05
5716.37
8623.54
16863
27607
36092.6
52828.5
44574.4
15087.1
34741.5
41626.2
42137.8
40657.6
45819.1
38583.1
7909.52
1562.71
-2482.68
8574
3632.31
3835.06
-2898.13
2532.78
1922.59
-2368.22
2656.97
2588.7
-1941.53
-249.57
550.376
-5425.37
-4158.45
-4331.46
8609.65
7836.02
5668.21
9143.34
801.97
-12249.4
2209.07
2670
3408.41
6627.8
-5002.74
-5948.06
-9980.75
5488.81
11173
8083.42
-707.016
-2665.56
491.141
-22.9722
9814.66
8243.19
2317.29
-3709.09
-2073.82
-4285.28
737.938
-616.856
-496.622
-1086.01
9280.48
9164.86
-3610.26
-166.164
7235.03
12340.5
13242.3
4805.14
10325
14801
-2781.99
3120.35
-3813.23
1401.99
-472.668
2922.71
2224.31
-3762.6
-1882.27
-3053.86
-173.941
6769.03
-44.1625
9215.77
1996.28
1925.14
1004.26
-950.153
14694.7
6886.43
16051.8
2897.03
8490.64
16618.4
16257.7
15679.1
19665.2
14462.3
4939.88
6446.51
2055.94
-1861.33
1351.57
5820.78
-3840.25
6360.57
9080.08
2228.98
10252.2
3920.95
-3911.55
-3444.57
-13435.7
-553.328
3293.28
5437.2
28.6786
9328.08
-366.602
-300.134
-5847.19
-5515.73
-126.583
-3558.07
-3848.96
611.865
2390
-3148.39
-5385.4
-2198.06
299.238
-518.842
-1195
-5838.66
1722.44
19677.5
22117.9
5208.08
705.285
-9214.05
-5550.46
1027.53
9066.91
38622
20940.9
11396.4
-2331.73
20042.3
35958.3
26874.8
25614.5
10249.7
16262.7
17189.9
19295.8
1582.59
-5750.88
-6005.46
-9106.76
-3889.05
-963.482
-2086.68
-3001.12
-9977.3
10722.6
15402.3
10273.8
3077.29
-1439.62
-2359.46
3806.63
-1990.95
6735.74
18390.3
25031.9
36611.5
30816.7
27315
40841.4
36640
39235.2
36495
20812.6
11249.6
-2420.66
-2709.07
2146.62
-862.877
-560.52
1065.56
760.531
-39.9336
1656.72
180.164
-1179.54
7221.36
835.775
4128.73
4777.49
-2383.1
8906.69
7537.9
2751.12
783.435
-5086.78
-3010.59
5456.34
4518.28
9567.58
899.585
17163.4
15032.7
5422.33
4965.12
10587.6
4823.59
1550.58
1234.71
11695.7
12434.8
17425.8
17336.1
22852.6
17108.8
11142.1
9743.21
2947.65
3597.42
17001.1
9283.12
2790.26
2885.26
3892.76
-632.528
1521.36
752.336
-58.5729
4607.76
19.6701
3759.59
9230.01
12086.3
4491.81
13701.7
16065.1
-261.158
6682.19
-5958.8
-863.989
-3615.52
23.3256
3468.07
-5456.89
1567.57
9547.65
12993.7
7096.33
79.2848
-3028.02
-2054.4
3478.19
-5553.49
-304.704
-2834.62
2975.43
3111.72
-1294.58
2309.17
11140.9
10755.7
23151
17458.1
1076.81
-264.961
5618.88
16277.6
23470
14310.5
4943.72
18425.9
12271.9
6222.56
2798.15
6688.64
28745.9
7766.75
-2323.31
-1687.97
-1669.57
-808.981
2948.87
1764.73
-887.692
10803.7
7691.94
7830.7
5909.38
259.381
-3736.17
6054.44
-787.311
14181.6
-1677.57
974.808
-2948.64
-175.662
-2941.38
-4947.87
941.389
674.76
1953.68
-555.752
-1235.77
4799.42
17673.1
22340.2
34357.4
50123
61300.6
61025.6
43889.5
39100.1
21655.1
38756.6
50891.7
42628.1
47762.2
67585.6
59237.2
59755.6
37399.6
31109.7
44196.4
65112.6
75382.3
52887.5
50483.3
47132.8
51381.9
75861.4
40039.9
48648.7
30374.3
51962.9
61357
64503.4
77112.7
64806.9
83862.8
98722.6
51896.7
42246.9
28267.9
52598.5
65770
61061.5
48954.9
78079.6
50421.1
27694.1
26648.4
48206.3
56266.5
47554.4
43765.3
21087.4
1088.61
10636.6
8108.77
2275.68
-826.341
1316.95
-915.162
589.231
-1499.52
-1004.47
-3011.07
7217.9
15026.8
34500.5
19148.8
1798.72
7869.72
-4118.89
692.502
1754.64
-79.7082
1805.45
2330.83
4575.44
8468.74
6688.27
2579.13
-4662.29
9493.41
9018.92
10408.1
2108.27
3035.63
7718.74
10675.5
-1313.71
-3638.74
-17468.9
-7594.61
-1963.14
184.998
4511.42
1868.05
658.959
-637.752
208.36
445.844
2042.79
3658.53
19.3918
5300.44
3104.9
15195.1
8199.08
14286.7
26601.4
17653.8
24220.2
26588.7
45876.9
41696.3
26764.5
21193.9
5556.65
-137
748.33
1694.09
1346.02
10452.7
6305.56
16844.2
30741.1
36598.1
18162.3
13901.2
10222.5
8318.25
10468.9
9126.18
22240.6
30037.1
31476
41598.5
25573.1
44837.9
27276.5
7332.99
14087.4
34248.4
4820.96
516.679
4728.08
7775.93
-3008.65
5227.81
6426.62
1026.99
-1249.07
-4613.89
-2333.58
-1723.77
1067.55
1000.83
2178.33
5765.25
-270.887
4676.77
-779.989
697.099
-2916.13
1326.68
7492.25
1016.69
8173.51
20192
23432.1
16960.6
8915.11
2823.32
12965.8
-1011.41
2633.26
-2335.55
5716.14
20993.1
21880.1
10918.9
10742.2
17256.6
16716.2
9704.26
514.605
9555.54
21427.9
22024
-1283.53
-3013.11
-1.82826
1865.97
1799.15
826.844
-4035.81
-4499.18
153.176
866.069
-804.974
-4354.55
-2599.55
574.306
-6817.28
-3792.13
2635.19
-4571.24
-1226.41
-1710.42
3925.01
5155.02
-2293.25
2949.51
4747.8
18088.6
21913.4
51535.5
29895.9
19610.7
36008.7
45200.3
52035.1
28306.7
39153.5
22548.4
33145.7
40843.7
28968.7
21215.3
28110.2
20659.1
35952.6
22742.7
9145.85
20392.3
13241.6
11004
2670.62
667.561
-7067.67
-5994.18
-1061.25
-4288.87
-801.034
-5320.36
-2064.72
902.848
4946.5
3486.36
546.561
129.96
2051.19
4466.88
-10.339
1391.16
-877.759
1645.84
7319.47
3998.98
261.994
-4180.52
1340.96
2036.74
-165.688
-1336.04
12730
6502.08
5017.31
3098.06
2142.5
2727.02
9897.67
238.026
262.144
14828
-769.873
2132.79
-9712.26
-10861.4
933.888
10203.8
4660.92
-1474.74
318.661
2242.01
3638.87
16884.6
29906.9
37091.1
21421
9119.28
996.782
7099.39
15605
11259.2
7781.61
9371.72
6410.24
24429.9
8253.91
6005.86
15131.5
24147.7
60385.1
55817.3
40949.2
17997.6
20711.2
22276.8
11403.1
6716.65
3589.44
17550.1
6556.08
15694.5
21171.6
16877.2
16754.5
9013.69
10227.3
10417.2
11563.9
202.833
426.823
-1194.8
-1847.08
2367.38
-2767
-9366.92
9115.88
1836.76
4699.69
7527.71
4928.78
2439.23
-1323.35
7217.82
951.447
-522.336
-1946.87
-5519.52
674.797
1247.77
45.4025
2088.69
4984.93
15648.2
12264.6
18548.8
20684.2
16975.2
31155.3
27291.4
31534.3
22214.1
9726.54
8400.16
6162.55
6372.27
-350.341
4034.32
-222.582
4121.07
2906.04
1055.99
10421.1
29493.4
63501.3
39662.1
43398.7
51579.5
33601.4
14924.3
16235.9
7524.45
3934.2
2388.88
683.712
39.4711
7220.29
-1458.8
-721.646
-2338.64
863.953
8432.13
11277.8
16945.2
8260.74
8961.74
1406.72
6863.13
-2257.24
-888.844
-1221.79
3988.3
4444.28
10707
18734.6
3150.27
13557
-3210.61
40.1717
-7778.44
-459.42
557.058
7129.51
2214.07
-1286.93
-1830.35
-1108.07
-6768.13
-4533.91
-2123.91
671.212
2461.11
-2086.42
-7596.57
13351.7
18909.5
3998.35
18134.7
1528.68
-7135.4
8503.36
9564.68
12137.7
13964.9
9748.17
32386.8
20915.9
14948.9
37541
49417.5
51219.5
62407.7
90441.3
98576.8
113099
108509
81290.3
103422
108151
96437.4
113004
77369.5
80098.2
63041.1
70483.7
81751.6
99370.5
54372.2
87490.2
99687.9
95766.8
44718.4
35375.6
18439.6
22615.5
16061.1
9107.65
7556.4
-928.854
4134.91
2276.74
155.995
-878.17
-4689.77
-2263.89
-3026.97
-3844.52
-3943.35
1042.05
-65.2846
-1232.84
-2877.13
-961.744
-3721.99
-4916.47
-345.606
1791.6
7296.64
4894.51
3138.35
6405.57
4141.83
11798
18916.5
17580.4
5498.55
-3163.28
-512.545
-5559.81
297.006
-2424.9
-863.561
3459.09
-1959.61
-162.851
5304.56
5264.23
5335.69
30392.8
26578.6
11890.5
1612.38
11291.7
28650.7
38361.2
36776.5
19598
19287.9
28549.8
30995.7
29764.8
28240.5
41248.7
66534
71029.6
60265.8
44669.9
37341.7
38268.9
22188.1
19984.4
34551.3
13053.3
14492
24255.1
27322.8
12104.5
-2015.51
14370.3
9834.02
9590.29
13582.4
8844.23
4644.65
4017.23
1003.82
2256.22
1414.5
447.23
3574.8
2984.83
5226.81
-6293.95
5208.24
-6052.29
-1190.35
-22.9321
6301.3
6694.19
-107.313
-4529.2
1125.34
-8169.1
-7181.75
-96.6055
3960.14
6791.68
19892.5
27496.6
21092.7
26305.3
8299.13
3277.89
1761.74
-909
1940.95
2396.72
441.29
-980.446
1430.28
-3724.78
17948.9
15486.8
11049
6840.37
14028.2
4335.79
3505.04
7791.67
6352.81
4009.18
1792.98
-4473.97
2377.98
6424.5
1313.88
-1464.22
-778.788
2227.82
-1809.08
2061.3
-2071.56
-6659.75
-12260.9
5525.62
3691.73
17834.1
21111.6
24386.3
15908.3
23808.2
44318.2
26398
15957.3
20521
-2592.47
14.0023
3456.57
6635.94
19846
11400
1165.65
9019.24
1438.93
5232.62
11567.9
15720.6
21184
18727.1
17908.1
32797.5
11276.8
3452.13
-733.585
-3976.86
1554.46
-324.576
1704.8
6240.12
9863.68
3856.55
691.633
-13541.2
-5877.39
-1813.85
728.371
552.174
1479.27
1861.01
940.401
8174.85
-623.933
5479.8
1318.88
-5092.81
-11002.2
-6051.25
1340.3
25559.5
28894.6
23880.2
15094.8
15625.4
-5287.1
-3232.08
-822.838
-3688.05
-3435.69
3173.72
9288.67
5707.39
7903.16
14221.1
9469.27
14380.7
35112.2
35721.6
21102.5
16724.1
5442.49
253.762
492.36
-280.918
-539.236
1494.66
-473.05
-1696.65
116.664
-10171.7
725.75
-1672.68
-2365.5
2967.69
13146.9
4099.16
489.583
-1009.98
-3496.37
-430.089
188.931
-42.8252
1477.38
-8063.7
-10068
5105
-9158.55
-3123.98
-1840.43
-3338.09
-695.046
7274.22
4486.55
-1057.3
1514.97
2000.79
10881.9
8583.27
2903.06
19541.7
3429.05
413.844
9701.2
3241.98
-7746.55
-4124.57
-5783.07
798.205
-3425.84
5025.19
5098.48
9534.91
-4976.71
-9533.82
-6426.42
2427.64
2829.62
2207.68
3986.29
5866.98
12283.5
4567.45
81.7726
-10539.2
-2496.52
2215.53
2510.87
-4741.54
-852.978
497.296
2805.66
1618.31
16447.6
42592.2
37769.4
22733.2
17404
13720.2
5194.73
7304.49
626.574
5457.93
8907.15
2444.96
-4290.83
-13475.7
-5257.84
-4696.02
912.226
-56.7091
-8319.49
-5845.4
-2570.07
3396.57
1496.84
2410.89
9342.96
1253.13
3569.88
-4093.22
-5859.29
2234.04
2372.8
4865.09
6210.33
2399.19
4201.52
-6032.61
1740.72
30770.6
28270.3
38982
27405.6
34446.4
25575.6
13954.9
17334.2
7041.86
1717.29
3946.55
129.723
84.7526
1029.5
8122.38
16068
9088.73
7016.27
10365
11047.2
5674.02
7993.37
17132.8
8775.08
11082.2
16651.5
29736.3
19533.8
21302
4592.48
11422
18889.2
20720.5
18960.6
21789.6
31678.8
18667.4
30434.9
22418.3
30458.2
25444.6
8088.77
5250.98
19222.7
41665.7
22080.1
9173.91
16404.7
24725.5
21158.2
13330.9
7594.76
16472.1
10197.1
23600.2
31308.3
20750.7
6134.23
8511.65
-12332.4
-5623.76
-2348.44
-2627.3
-4.98304
5877.72
5025.39
8445.61
10926.9
10917.5
-3922.47
-1407.46
-1622.07
-476.92
-3465.95
-80.1962
-554.029
-6362.64
-4905.49
5348.48
13851.6
9026.23
2812.8
-2181.19
309.876
-829.262
-2748.9
-4718.57
1451.25
547.683
-1993.21
415.882
-2972.98
42.1945
444.217
14564
33870.7
29400.7
37056.2
14892.1
36908.9
36113.5
48201.5
35906.4
50807.9
65108.1
60137.2
47699.1
37297.4
37665.6
18388.6
35725.4
23645.2
1013.77
-506.405
-3352.85
-2810.14
-3167.56
8672.53
-4296.72
-6916.62
1251.77
2262.13
1535.18
1727.2
337.729
2329.73
-1285.9
8049.31
7595.81
-2534.68
-119.232
-2769.81
-12546.6
-11489.2
-1759.76
6382.06
1904.53
-2418.39
15997.2
10320.4
9670.48
21600.7
18176.6
21660.6
24418.8
9400.37
-2091.33
2330.46
290.806
5385.82
-3312.54
-10763.5
1754.79
4236.47
1009.94
3378.47
-23.476
1601.58
1114.44
892.434
1780.92
2501.92
2839.15
1203.88
-3324.65
8909.41
13910.3
11739.1
13741.3
9675.74
8005.18
-983.671
-853.49
-4234.25
-2250.06
78.1588
-2389.04
8329.33
6768.82
18874.6
18216.5
37234.7
36744
37114.1
22690.9
9384.82
9872.68
10003.5
-2904.29
786.362
2184.91
8477.74
7361.03
12879
15914.9
9335.07
3017.85
2177.4
-0.780926
1029.31
-7500.9
-832.925
2093.29
2571.68
2851.71
796.545
42.5133
-2572.06
-2102.68
-2348.38
-2029.32
-2091.94
-1737.2
824.883
1581.53
2490.26
3052.18
-2061.18
10401.7
5062.41
-3999.13
-3599.61
2264.3
169.037
1470.73
-573.55
782.129
3975.47
11037.6
9721.6
-564.913
2529.95
-2865.91
-7482.83
-1538.86
6289.54
11212.5
851.634
1692.77
6738.15
314.472
3590.36
-116.325
-2625.14
7042.64
-933.266
1952.21
5945.13
3724.63
2559.15
4287.82
-538.957
-1143.8
-322.934
92.745
-1863.17
-767.478
1479.69
8337.85
1034.48
1889.56
1821.49
-10874.1
-1183.85
-3216.08
-9129.41
3408.78
3926.65
6193.77
20313.3
15549.5
9511.72
-8770.65
-4346.78
-1715.62
-2116.09
-116.335
1227.83
-691.261
-1044.28
11766.4
17063.5
36791.1
22437.6
24233.5
18959.2
18865.8
3531.31
457.036
2594.34
2349.16
1873.18
-171.264
1177.78
-5973.58
-453.795
24535.8
33896.9
59093.6
86406
62486.9
35863.3
33697.3
30714.6
14651.9
23223.9
23295.6
24244.4
21792.6
28028
38816.7
30194.5
37195.6
34009
34513.2
16001.1
12084
21971.6
1299.63
1464.98
-1768.06
1459.25
1956.97
3875.01
1333.66
-1222.95
-828.17
3507.97
5449.67
6426.22
6582.07
2300.65
10180
7636.42
3277.3
2198.01
3349.94
-1288.81
-6716.45
2093.5
-423.096
3505.73
4203.79
9281.79
-5603.5
-5954.35
-5081.33
-7078.07
-10657.3
-4839.95
5438.88
6569.76
2978.54
-2620.29
13175.7
10580.7
5513.16
54.3744
141.718
300.21
2295.07
4314.69
-2109.14
1314.14
5087.08
-1579.57
-8671.23
627.516
-3219.32
-3313.81
16805.9
22488.8
11213.2
4796.22
9555.3
3462.2
884.333
2037.23
1202.6
-1534.65
5910.98
26857.7
34628
34817.9
38614.8
48803.9
39720.9
30143.5
14519.3
5908.74
1922.44
-9.66442
-2504.13
3464.72
1565.05
540.151
24.2342
-604.553
-3716.31
-2177.94
-259.905
6566.85
11210.9
4846.05
1450.37
-897.953
-803.164
-11745.5
-8028.1
-19662.6
-20759.1
-10448.2
-7639.08
-7103.11
-1298.82
-1981.96
35.0348
-2745.57
-1508.98
-3961.63
-2043.65
-549.536
5698.89
11714
3111.42
9230.54
15151.2
10378.6
526.207
1923.05
3051
6765.78
-2799.82
-2884.5
-907.133
-257.553
-2663.69
-1393.19
2187.85
17827.6
-3590.84
866.184
26151.4
33471.1
37110.1
46488.8
56650.2
38956.2
18199.1
-273.982
-3974.05
-1628.04
288.57
-5892.28
-2999.75
2005.3
-797.455
2089.41
978.705
7787.58
8371.44
-2397.27
2518.48
8285.25
3951.03
11090.3
14070.8
6586.12
2598.04
5471.82
-5216.44
-9046.8
-1918.17
-2104.62
1694.65
-1112.69
498.547
-1796.69
1550.72
-15492.7
-6059.24
-6271.86
-2817.13
1206.79
-5936.9
808.14
-3180.83
-10876.6
-4509.41
-1804.2
1656.31
-2305.32
-4578.88
-3228.98
-5459
-6028.8
-595.335
-2289.65
-3280.96
98.2243
2303.31
3342.05
3595.41
3670.73
12680.7
11721.4
10844
6425.81
8951.57
31702
45937.6
47395.8
37960.6
53543.9
42494
24224.4
9861.8
23099.8
10660.4
12593.4
19671.8
20439.5
22625.9
41682.6
24754.8
6319.2
12162.6
13922.5
15241.5
5277.21
-1611.1
488.628
-1887.28
-1356.24
7909.5
4096.87
3942.67
735.622
1470.87
2566.96
2756.68
5372.21
7137.33
5444.68
-3150.78
13404.9
13011.6
7774.15
6079.94
19716.8
18847.9
11188.3
4632.16
-417.928
4467.11
6028
2182.92
-1628.11
2171.44
-181.564
-3487.47
2068.9
3686.18
-1919.7
-14210.7
3280.75
7995.97
8453.98
12688.8
276.923
14474.1
6425.29
-138.464
3680.06
8055.64
10459.4
3315.88
8616.91
19721.8
12029.7
18040.7
29785.9
23189.5
10219.2
17522.8
26855.7
30669.2
23319
9568.64
-6642.11
-2502.78
-1978.35
10909.1
17116.9
18928.7
959.999
1338.42
3553.86
633.043
-124.418
20130.8
12925.6
25524.6
28989.2
40075
49988.7
21528.3
28787.6
9555.98
7076.38
5397.21
13283.9
23152.1
6685.72
964.617
-58.2447
3976.92
1573.36
4915.38
10631.4
9258.23
-1869.89
-5250.2
164.346
211.483
1343.64
3383.28
7616.46
39694.3
12085.1
23667.8
30092.3
33749.6
14930.6
10806.4
8304.7
5172.37
19749
12721.5
21187.2
35107.1
20695.9
31712.4
36731.4
572.772
3817.55
8498.62
22890.7
22222.1
28142.3
5528.95
4006.04
-423.45
7289.97
-1680.58
-9138.74
-2899.43
-836.913
-822.444
395.423
3006.71
-595.281
-1887.51
1129.55
-3463.99
-1302.63
-2275.07
3006.28
1393.73
-4282.86
-4790.38
2158.96
3233.96
12075.9
7753.11
-595.05
1805.74
877.339
-2990.11
2353.48
2792.3
-4361.19
-3106.86
1063.71
-5637.32
-3830.75
356.046
-250.083
732.134
-1218.98
1350.94
3091.75
-2041.99
2371.36
-9732.2
1724.15
2463.82
-65.094
2206.12
-1343.95
-1769.16
-379.087
-3666.49
1418.4
-869.362
1598.47
-750.619
1590.19
-6727.54
-311.996
-3625.72
-619.008
22.2918
435.525
602.985
-1973.02
-362.091
-4886.23
-3819.97
2405.26
-3896.39
-3207.55
-5758.52
-4764.4
2322.49
72.3595
203.886
-5704.87
4242.09
-2547.55
2952.55
495.694
-1573.44
1827.6
9278.1
10537.7
10167
23841.7
10222.4
7760.75
5104.82
-1600.17
-71.3606
8937.15
9788.54
7436.35
18166.4
16570
9732.21
20579.8
7919.55
8326.34
2778.65
2201.35
1748.55
-4774.48
1127.24
2017.66
6182.42
1570.82
-688.53
-977.845
104.273
-4623.19
189.989
1412.84
-3036.18
9688.84
2099.76
2078.73
-3173.64
5646.37
18127.7
11873.3
5691.44
354.217
-2113.04
4999.34
2944.22
8103.03
-1111.42
-1997.74
-635.837
-434.904
3226.94
2465.73
6079.7
7422.31
3611.09
3576.29
5257.35
9712.24
2193.85
-1947.08
1311.3
2469.19
5298.16
3445.33
13229.9
23330.2
43398.8
65667.5
60987.4
27162
60219.9
84829.1
44305.9
38093.7
67441.9
67225.3
64249.3
63096.8
43622.7
50544.5
68764.4
107266
139699
145539
106010
106403
140443
122676
130577
154899
136461
121513
86746.2
71402.4
68209
60729.1
71766.9
65315.8
69438.8
45064.3
58609.7
42405.5
28117.4
21178.3
18750.5
27770.5
17458.9
13574.9
15280.2
-1977.74
9425.51
4916.69
1885.04
-613.664
-2729.77
-1875.1
-528.542
-742.004
1810.53
11123.1
3378.37
2938.68
-389.25
-2704.56
1385.87
933.012
2043.69
11248.9
18371.5
7100.7
2826.81
6.92504
-2011.99
-2692.21
-206.382
-696.088
-1609.94
-3567.53
-14522.4
-14687.3
-12710.6
-5784.8
-15063.3
-3953.24
18513.1
-548.462
1577.66
245.987
-218.056
-6085.53
-4725.46
-8852.01
-2631.76
-4373.65
2704.19
-751.373
1383.42
-932.965
867.354
522.66
-4738.53
-459.387
-6077.17
3252.37
3488.03
-1812.63
7.20788
12383.9
219.453
-343.884
1042.23
-1773.11
910.315
-2051.39
-1217.48
980.188
-1602.68
-7709.46
-3989.69
-584.747
-1792.29
166.878
3090.39
-3529.17
3058.59
9066.26
22791.7
24645.2
42715.2
22131.1
30783.5
24988.9
16425.4
4732.8
3034.59
-346.596
2769.99
-1355.35
-313.953
1056.57
-8303.62
-208.887
-3421.79
-4737.47
8982.21
8917.57
6717.46
-406.736
-3347.91
7304.97
4060.37
-1522.69
-4656.52
1819.86
1769.07
-1410.86
-198.196
8937.05
2873.47
6220.66
1724.66
12355.4
2370.65
3551.91
657.365
-3514.52
1053.08
1251.39
-5538.77
-548.151
-4227.91
-6498.06
-632.354
717.344
517.753
3369.62
-1746.61
-1447.17
4296.48
-483.517
-8783.92
2316.29
3280.91
-2648.68
4137.32
3817.67
4990.25
5565.15
9464.11
26832.8
8343.29
9326.22
4573.49
16807.4
-5710.07
-1824.65
-5750.5
-5074.6
-2194.97
-5233.23
4164.49
5847.52
4337.2
16690
15255.4
-772.001
-2681.92
-5647.67
-3476.27
2671.24
-2380.2
-6378.32
-6136.24
1812.31
-974.12
-2487.27
-241.396
5569.79
3913.88
-6976.48
-829.975
-3332.52
-1683.86
1400.76
1563.58
3234.84
1344.21
1079.07
7735.39
16293.4
-3150.79
81.749
-2879.05
5391.58
3541.89
-2299.64
-2190.71
7574.09
10852.9
9483.88
10639.1
34486.4
34159
24480.4
22502.8
14418.9
23352.9
14282.4
5359.72
-3299.9
-8460.1
-671.872
-857.945
-3739.85
-298.916
-1415.68
169.257
940.924
-1084.12
2796.34
3256.7
1537.75
-4423.62
4.66497
878.485
5503.75
6615.72
22743.4
73655.4
31729.3
13824.2
8593.46
22741.3
45886.7
28199.5
23372
10983.1
9438.32
6646.76
10086.5
697.201
-5230.69
-4170.88
5091.31
5938.37
5789.52
3528.9
19616.8
