-1277715.213
-266193.365
-958556.045
-958020.285
-9097619.5
-6178187.1
-6754703.0
-264725.1
2410644.95
11251449.5
22377411.75
6386952.9
32636340.0
21087595.0
15663601.0
25933680.0
12107682.105
24920158.6
654167.15
24961565.0
41827230.0
51218600.0
52565050.0
41467205.0
22253230.5
106146810.0
222859500.0
176951250.0
95987345.0
70229440.0
101657440.0
130598555.0
280464300.0
157607900.0
115352675.0
92363705.0
128859020.0
131918605.0
57346300.0
209432035.0
572705950.0
568100450.0
417678000.0
185926550.0
238126750.0
198002650.0
86003220.0
20877177.35
26907961.5
31111630.0
29390764.0
-1330203.45
-3627265.85
2950300.4
3155209.85
13663223.5
20606882.0
31805685.0
22961935.0
7878840.0
-4616864.85
-4294401.8
-5848296.55
2003996.15
17796397.0
8937267.385
-10959976.1
-5516962.65
-6140811.85
-3390067.1
-9300653.5
-25839720.0
-10945196.5
-9015675.15
9382847.85
42286575.0
63263850.0
150528630.0
173253200.0
220322950.0
124073385.0
78624745.0
10402231.6
-351721.435
2673688.735
5021364.5
-3858629.45
-4409962.325
-3816622.8305
10675133.35
12665697.5
27088301.5
6901407.65
13463463.15
8515852.5
26055640.0
65122740.0
52237085.0
15038510.0
58412540.0
56001160.0
14975557.5
15365845.5
35269970.0
17702112.0
45818850.0
51696975.0
47607860.0
95325715.0
121692775.0
375371800.0
343514800.0
193943350.0
298129050.0
297750650.0
183650750.0
112853750.0
98841825.0
156440740.0
137871655.0
104668505.0
100249445.0
176964185.0
42127070.0
38202730.0
56200550.0
108414225.0
92590550.0
52611640.0
28490860.0
37805095.0
14678458.0
22416339.5
59369840.0
42015560.0
10797049.0
-5992506.0
3701450.55
-9509589.5
-3555038.75
16249728.0
41050720.0
-1330396.0
-14815331.0
-6051448.5
-5728596.45
-3080704.6
-2095897.5
-2636621.5
19926530.5
-4005132.0
11442374.9
21060742.0
4836437.77
7657501.5
17741151.5
11170452.0
1339745.05
-710153.475
-1645538.2
-598621.92
2906181.34
6293386.85
6614923.43
2301628.2
-13445486.5
-3257296.0
-2956295.8
1774.42
9731668.5
6065800.85
8463200.55
56393060.0
78377120.0
48531505.0
38139235.0
28529775.0
20088417.5
25932897.0
22290774.5
23343975.0
16497638.0
7489429.9
-2478227.15
10563349.5
17091746.0
25464823.35
4607208.55
4908007.0
-6823741.25
-4872833.45
701810.0
1445901.5
6608033.45
230206.95
-14104048.85
-3311133.585
6602276.5
8923726.0
55092795.0
14464578.5
5762019.5
20944167.5
44197155.0
50519785.0
112995010.0
229189250.0
103642945.0
56953030.0
181979470.0
364077700.0
300186450.0
263132100.0
204854300.0
411874950.0
592681900.0
1067128400.0
1365030000.0
2057989500.0
1642903500.0
707707700.0
381215150.0
211711300.0
221127450.0
217418050.0
357734200.0
194746650.0
179248600.0
323573100.0
297727150.0
358640200.0
530895550.0
490730650.0
394770950.0
436813800.0
447346400.0
369410150.0
261576400.0
232300150.0
398285350.0
643124650.0
468383400.0
508176000.0
453753150.0
569650850.0
484759350.0
395911700.0
522152650.0
453764850.0
515438450.0
