-380138.01
-2415380.2
-2167496.55
-498593.405
-5650172.65
-2695143.6
-10231050.0
-1792221.5
1639580.1075
10500275.5
25780676.5
8149549.0
27528825.0
26945860.0
16198470.0
28554915.0
15910040.8
58133345.0
75504910.0
84659405.0
29001028.5
12462196.5
23679305.0
30998435.0
28434280.0
108055010.0
229899350.0
179351950.0
102337335.0
88356035.0
109381825.0
127905390.0
266360500.0
158447500.0
118531075.0
135729795.0
134873050.0
145883395.0
64976145.0
206301315.0
542633450.0
637143300.0
468684200.0
191438300.0
283823950.0
239234450.0
102863775.0
51801280.0
47362850.0
36561880.0
38509289.5
-429368.85
-774729.325
4114011.49
4015216.14
21383105.0
25096809.0
35645385.0
22542505.0
10241074.5
-2616863.5
-4149348.0
-519668.1
5001098.4
8437825.0
10763483.7
4808664.95
-1180454.7
-5334937.6
-1209555.935
-2595967.05
-9649682.36
-3409177.3
231474.5
646613.1
32497801.5
76804815.0
162408500.0
183747900.0
218692250.0
118199305.0
92607780.0
18794766.5
-417437.46
6442542.45
8773831.0
140175.65
-1994695.86
-2639945.975
12598416.5
21585195.0
39958480.0
17036565.5
35155650.0
14628947.0
29413435.0
65412235.0
50057340.0
15539207.5
58903570.0
51278020.0
13708649.75
15203895.5
37159705.0
15679880.0
43616580.0
54237860.0
50481980.0
81624750.0
111017345.0
383287350.0
324432350.0
183305250.0
276389650.0
292262600.0
189950000.0
123130325.0
105214210.0
169622400.0
197785000.0
140999245.0
142360095.0
270483800.0
59166825.0
36742540.0
76942805.0
136324220.0
83660390.0
52717260.0
27658580.0
36362370.0
17664352.0
19296290.0
53942955.0
40054585.0
26951675.5
9173690.35
15239977.9
1283859.65
11546231.15
18835535.0
39098765.0
1569222.1
-2758908.11
-2745015.025
-3447929.65
-2192363.25
-1015337.1
-1958424.95
31375580.0
23173409.5
54363145.0
37806215.0
21941279.0
19588073.0
18187865.0
7737988.705
-5321044.53
817015.035
-323686.29
-1205094.585
2923790.955
4633151.15
15758826.5
6619139.85
-6066848.75
-2350015.43
-1943709.0
-894294.45
11231234.0
5992895.81
8525297.6
63479515.0
89016845.0
45004700.0
39807495.0
37195930.0
21823002.5
28366335.5
26140481.0
19025473.0
15168976.65
8164012.0
10465032.8
15597511.5
14392187.0
17163566.5
2935940.5
2092597.25
-604870.51
-6021325.45
-717895.945
4300924.5
-1088832.515
-3293326.1
-19942333.965
-9752458.7
6936983.5
12624029.5
56627845.0
19515009.5
8135656.5
24263445.0
40421930.0
55955030.0
129885605.0
263765350.0
140867120.0
63234105.0
202588415.0
407470050.0
378271750.0
320778350.0
216140600.0
422436050.0
654713300.0
1090146000.0
1372411000.0
2096088500.0
1661444000.0
659686850.0
367561600.0
236667350.0
237749300.0
222606000.0
370302650.0
208809950.0
191010600.0
323856450.0
292614350.0
372494150.0
560794350.0
487166850.0
415125400.0
581219550.0
703435950.0
523096350.0
402886800.0
305904650.0
423537650.0
657884950.0
467187250.0
509751250.0
410677400.0
433228700.0
497982300.0
456464650.0
562339600.0
444989450.0
536719900.0
