11974.666553
6892.41692
7669.22903
31323.13979
10247.811305
22442.85897
20338.00807
7020.238948
6666.326379
18295.622035
11387.5479
22035.334196
11092.113343
14732.30369
35516.16322
15776.84282
9971.97875
14818.94147
12946.9695
7634.55621
7104.677873
17979.9665878
10826.953574
11484.137505
9090.327804
8710.61832
12211.706927
10135.56587
18911.96068
9800.86286
11258.681621
9420.068841
13551.72341
25062.65379
10608.041507
13300.917598
10288.58656
5108.104465
24046.27569
8096.3274
8115.076937
5851.371235
12656.430079
7888.355317
14846.69829
9047.884834
12501.605304
13251.982074
7424.13547
12887.147748
11883.00654
8878.3109861
5560.301477
25702.3787
17207.25641
6560.35499
8942.527267
16069.76451
12635.787707
10032.42646
15792.446515
10985.708086
5867.43733
5621.771032
11036.364712
16690.64374
6694.774096
13175.16242
9759.355423
6785.520907
19420.05572
16411.32428
16420.791758
22977.23937
41294.00259
17981.819506
11213.81198
11538.21323
7712.38285
34250.069894
12987.65596
17073.7064
11424.134239
9514.17228
11285.91525
8565.454585
10567.92723
10039.71056
10830.08942
10134.08133
12334.35379
21317.700703
16263.299065
15613.41293
23858.89799
16792.00957
11741.28207
11737.221935
8409.071893
7720.350229
