5673.232426
14803.91048
7390.812966
10651.37652
10268.26064
20305.594331
6475.043572
13112.778213
19147.13898
9735.793162
13161.52953
19962.92011
8143.7775399
13956.1490357
8188.37265
10750.306428
6367.48571
19502.714897
10830.86736
17753.49877
11162.68339
8033.514201
6083.33518
17538.53707
22254.0512
12286.71594
9718.701314
17403.5697
12878.94227
10465.806157
5000.675111
8141.188422
9904.241738
8769.46658
13455.77653
13851.29329
24085.911649
15897.4626
12363.191642
10147.272941
16484.6751
12069.94746
23605.15762
15288.36197
15455.277732
13951.85151
13178.257535
8576.758896
11568.37732
14698.80467
24078.9690242
18457.40349
13196.75404
11163.896214
16560.66983
10093.00493
14294.9664513
10413.998264
21557.47191
6343.1110015
13203.75706
17798.31422
7772.2066494
16483.491305
33614.6586
16906.83116
13613.36015
8524.070599
10663.500546
10533.851671
33967.24881
18232.68379
8399.374518
16733.97073
23518.64869
8421.3858043
12058.267019
8984.63284
12308.1440553
17032.35808
17628.776622
10554.88891
8795.91063
12327.23247
15906.974702
12416.56354
25371.13302
29491.59097
38133.93858
19030.98232
11893.631811
9884.2002
8341.768217
13630.91596
5707.101226
10256.3528
11415.518748
10980.796824
7266.465781
19584.42966
