2.19982200958e+11
1.86996113685e+11
3.24983798046e+12
3.50536896486e+11
3.81753716795e+11
4.435913535e+11
7.58497276635e+11
1.04291798680e+12
1.26323811805e+12
3.568119554e+11
7.461393001e+11
94084068006.5
8.4716865175e+11
5.28470949766e+11
3.02023446585e+11
8.607995374e+11
6.894086813e+11
8.18456845912e+11
5.7136399852e+11
85193380555.0
1.7192453182e+11
3.6158137231e+11
2.51300050015e+11
6.222589637e+11
1.2089591346e+12
7.5935240815e+11
4.0081029945e+11
1.57597470850e+12
3.498861594e+11
8.19923483e+11
5.809334742e+11
1.8228706705e+12
3.523615867e+11
5.266218173e+11
2.5856073208e+11
3.091691945e+11
3.548529065e+11
4.866739304e+11
4.3476455875e+11
4.71900428e+11
4.05335204002e+11
9.48286942915e+11
5.86768369645e+11
1.5974705375e+12
4.8732633368e+11
4.792089683e+11
1.04586129015e+12
2.26590525325e+11
2.11537360915e+11
1.30714881195e+11
