11616067926.0
-30239545245.0
5.562417021e+11
1.20234061082e+11
74890793410.0
-63058240630.0
-1.16705320515e+11
1.5658735923e+11
76811720291.2
98345164740.0
63749405880.0
-1436590812.9
-427668850.0
986661167.0
-57511206176.5
2.99409605395e+11
1.46076852465e+11
-33690587836.0
-1.15523493608e+11
9598651910.5
-6260898965.0
50553907870.0
73278479023.1
44334971957.0
3.99430156005e+11
61229443225.0
-61101874775.0
95091857032.7
-24829151295.0
18535241625.0
-28034114220.5
-2.7378014565e+11
11236929430.0
-93683405853.0
47757866809.9
30216310895.0
-14621725530.0
31337980950.0
47247692203.5
23322004100.0
71713500800.0
2.34758192726e+11
79546478370.0
5.89112708305e+11
80902738210.0
1.41760317765e+11
1.8490424231e+11
-43804933580.0
-39850056055.0
10063884320.0
