-607.042
-614.087
889.856
1105.99
-195.558
-1285.46
-402.355
-1782.92
2604.39
-2866.2
-190.642
1767.52
-114.494
-57.6238
2963.63
3441.01
4603.27
15211.7
23525.2
9136.68
21835.7
22076.7
7725.34
10765.7
15285.3
20636.7
22374.5
17558.4
5818.49
3482.74
3271.2
-163.295
-1579.81
919.935
1337.63
-1074.33
-1475.93
-2608.45
-4760.44
-7268.05
-5719.7
-6552.36
6818.28
16260.1
1193.36
6578.99
4308.93
1425.26
-8340.93
-6026.96
3851.93
9713.25
4308.56
49199.1
58551.1
92253.5
69887.1
81725
102749
126271
124898
117494
84659.1
78138.2
75872.3
69440.6
33748.2
50020.7
50634.4
25767.1
16735
33166.7
37943.5
17653.9
12672.1
440.414
9228.2
7145.29
8213
-2692.5
418.027
-10381.3
-5456.72
-7137.69
36.2534
1039.88
1418.6
351.91
790.629
1300.98
17655.1
22637.1
44326.9
36115.9
2831.18
-4866.68
-5413.29
-306.688
259.732
-1227.19
2212.57
3662.48
2650.93
10556.6
6417.4
412.347
1366.83
-18773.1
-12744.9
-4259.68
-6533.5
-4054.33
-5720.71
-3837.73
-6018.44
-1843.65
6595.15
-3931.68
457.785
-444.096
-1495.98
5148.58
11378.3
13458.6
9249.65
645.611
3959.14
9322.57
2430.88
10798.4
10594.5
24808.2
26801.6
30341.3
21337
34422.2
41736.2
21889.5
17737.5
-2155.84
-7969.27
-4381.88
-5643.69
-9554.27
-7084.27
-9738.94
-10653.6
2746.4
2723.23
10890.5
16954.3
22602
18462.9
32790.5
38725.9
34572.5
37043.8
21416.3
18735.2
25350.9
23520.5
15643.4
22695
28318.3
21549.8
26386.1
39154.3
24706.6
17628.6
38439.6
38409.9
33514.5
40773
27376.5
-4328.69
2932.09
13628.5
14193.3
18680.9
5291.03
10223.1
5190.15
5876.19
16357.6
39156.1
8655.95
12769.8
9966.95
5325.96
9146.54
19225.5
16397.9
-19293.5
-6725.91
7778.46
761.036
12372.6
5040.83
723.945
4676.81
-3973.13
-7459.57
-1756.76
7690.04
-5683.77
8092
23910.5
28225.7
12776
6902.6
965.139
929.185
-3907.63
5634.49
-3360.02
-3551.42
-13303.2
-5088.54
-748.929
2330.31
4163.22
-4082.33
-8615.9
-6218.91
-2476.31
7779.55
16752.9
28022.8
28102.7
43742.1
58432.2
49903.4
49626.5
29580.2
26189.2
20102.2
17769.4
13153.2
25215.4
9105.5
6438.32
-1672.18
-3089.31
-9204.1
-8477.79
-4750.7
3389.81
10448
3101.38
-82.3309
-5256.11
-7419.43
-2217.14
829.815
5892.4
21313.9
35617.4
19285.7
-5391.23
-1577.96
-916.17
-5240.34
-12589
-9754.51
-5197.78
-10571.6
-7933.69
-140.295
-655.319
-2457.15
-168.759
-1773.76
-6668.4
2713.29
-6162.54
612.358
-4381.32
-327.669
-3097.15
-6224.43
-5325.6
2036.68
42.7817
1599.88
-1592.41
1385.26
-4698.56
-3253.95
1235.33
886.718
4277
-2116.56
-1929.83
-1399.52
2119.47
-11582
-9711.99
-6819.51
-539.602
5026.62
-5938.51
-11105.9
-4185.56
-377.143
-2036.29
124.393
-2048.72
-4551.68
-385.559
-2105.95
8122.77
8601.96
4048.91
4702.12
-500.14
10396.7
4045.87
-4334.25
-2.68068
9324.86
21468.6
12724.3
22756.8
18262.5
14396.7
5173.77
-1727.87
-2212.49
-3046.57
1669.32
-1227.37
-573.548
-3547.1
-951.808
-1106.44
-3796.47
-2326.69
2113.75
-145.323
-764.534
-1773.71
-1289.45
720.032
-6847.13
-2102.38
-9.79672
3034.45
1484.71
3222.97
11889.7
8656.69
3010.03
12738.4
8717.36
18230.7
13396.5
-2204.49
-1685.69
-1512.48
6701.05
20353.4
9133.64
6460.8
4787.73
18822.7
37511.9
55241.5
29377.6
8504.92
3252.33
-2548.38
18628.6
11861
19317.7
-729.321
5303.71
-2031.71
6588.29
5707.61
4258.68
4444.7
3831.62
3298.34
8009.79
-2308.53
-2136.01
-5286.61
-1576.09
18062.9
13475.6
-25.0233
-1994.15
-278.342
-7389.7
-1599.22
-2811.05
-3193.43
1266.75
-2117.93
3556.09
2500.05
-538.744
7004.87
18653.8
21371.2
48126.4
34915.5
40887.1
22988.5
28401.2
24729.5
16093
34289.7
37852.1
36927.9
43722.7
16097.3
20562
19207.5
53205
30999.9
33595.9
58451.5
53682.7
39433.1
26041.2
38261.6
55111.1
46585.9
30861.2
68198.3
75165.7
36125.3
52906.9
84377.4
37024.8
36223.5
31519.1
24638.2
63285.8
63156.6
53761.7
41271.2
52846.2
61499.7
73560.6
44605.1
27382.9
26066.7
11187.2
2348.95
-7163.33
-4768.34
-1064.27
-2226.53
10173.3
-263.71
-2503.42
-810.611
1474.94
8592.01
-1960.75
-2767.75
975.726
-3847.95
-10177.3
1416.1
541.974
-1230.53
-245.709
5772.56
12028.2
6902.1
13821.1
20533.6
23165.5
13380.7
629.756
-3504.47
10492.3
5897.94
-22.3951
757.238
3966.59
220.892
5095.75
-3864.89
-7149.2
2803.29
1161.87
-3480.49
-3918.82
99.1993
2674.67
2979.06
8068.04
4767.83
3693.52
20869.6
37744.3
41495.3
47706.3
89113.6
105896
98436
94833.1
90088.4
73472.3
45318.3
41628
76572.7
92755.4
81292.2
75937.2
53367.1
34476.4
36944.4
47247.8
32048.6
23568.1
3604.11
-1183.75
-9998.48
-704.278
5894.42
22310.8
4670.99
5751.19
1195.59
4166.62
11542.8
1852.37
-3313.03
817.448
1861.88
7400.16
14180.7
15576.5
4608.58
1341.06
9034.2
339.982
1911.76
7594.82
11089.8
3432.24
-4918.7
-2779
-1789.09
-20902.5
-16733
-22150.2
-13650.5
-8459.01
-2162.87
-3339.62
3319.18
878.551
4224.41
-3217.64
-1328.57
-7503.85
-7647.28
-9941.86
-11282.6
-23142.8
-15421
-9875
-10691
-10893.7
2108.66
4152.63
3195.14
18814
16205.3
8658.17
-2377.05
10798.9
29161.3
14315.9
10729.7
15329.8
21845.4
14356.1
22168.3
33254.9
30342.9
23307.7
37550.9
44992.6
18964.7
10437.8
-191.446
21481
14340.3
17985.3
7471.06
2163.73
-318.254
-2662
-3392.84
-7151.1
-6232.03
-9225.65
-10550.6
-13328.4
-3312.38
-7733.59
-846.72
-5095.47
248.94
-1706.84
5147.32
13317.9
21735.6
43700.8
39038.8
30021.2
19744.2
19225.5
20367.9
29193.7
34566.5
13571.6
19061.5
-918.484
-3066.81
-8161.98
-11085.3
-3502.98
4352.24
75.3054
-64.2241
3581.1
-7794.6
2734.65
363.189
-3941.84
492.191
2408.22
-5879.11
-913.826
-8648.56
13971.2
29315.9
27234.6
31293.7
19569.2
9026.6
9859.29
11778.1
6723.64
7601.96
7051.55
-588.737
-1495.01
-2001.31
-632.774
-2442.29
-9676.4
-3760.74
-3995.17
-1442.7
480.868
-2796.98
6761.45
3028.61
-5200.64
-5066.93
-3864.93
-2748.64
-581.869
-6629.85
-4466.02
-7991.56
4767.28
-5431.65
-1164.36
-8962.18
-8913.76
-4065.22
-6267.08
625.885
-1589.96
6014.67
-213.484
-824.726
1434.2
3429.2
1228.06
15929.6
32736
26220.2
17118.6
20390.9
24515.1
38436.4
52424.1
29674.4
37389.5
14658.7
21527.3
16288.8
33075
44501.1
36480.8
39439.6
42520.8
50370.9
42497.1
36335.5
38394.8
63710.1
54489.8
33558.7
19659.3
29715.2
14102.7
-1593.41
5888.79
881.718
11656.1
20543.5
6327.42
-3152.03
-3317.6
3940.59
-3766.97
-4378.08
2769.49
4355.49
14605.9
19953.9
8993.71
2341.33
-111.291
2165.02
1143.44
5837.92
4586.23
999.591
5313.96
-8248.4
-7043.4
2685.95
-1465.92
-1325.36
1060.06
-3392.82
-2991.94
-7265.3
529.173
-2789.05
-6604.58
-959.276
-2126.35
2042.98
2411.68
9072.11
-5219.69
-680.434
3056.61
-1646.22
10511.8
9102.64
14723.5
21246.5
23146.8
12644.1
4615.94
20971.7
18909.5
-1929.11
2064.63
3081.16
2419.38
1417.1
9432.47
5740.95
45340.3
28535.9
31305.2
12923.1
34188
58058.6
72512.6
66770.5
70290.3
55511
80383.4
120492
124435
133624
104484
112374
104591
79390.1
30132.8
36410.6
44928.8
56063.7
66854
79884.2
59903.5
29593.5
17087.4
13948.7
17816.8
35632.1
37387.5
33064.8
35674.4
26835.4
25967.4
38501.6
49499.3
63962.4
43974.8
18148.5
3920.73
2457.71
176.321
-10320.6
-5646.74
-4998.85
-4334.91
1199.84
-1891.99
-1876.32
3932.22
-4475.41
7617.93
2441.52
15053.1
9040.43
12333.3
24121.8
27552.5
14213.5
-1181.77
15963.4
1045.61
-4116.47
4413.1
-4961.22
-6220.01
-2801.06
-11136
-12461.9
-8366.64
-6023.24
3417.88
-4691.11
-1486.88
1401.28
-3073.74
-3072.77
216.937
-4909.83
-2886.4
2598.88
-2182.05
-755.554
2010.76
-5292.73
-1419.85
-1246.21
-2132.68
430.138
535.268
4296.75
5175.67
8156.37
2677.11
592.249
3345.87
834.651
606.983
194.207
5541.16
-3600.08
-7163.91
-2549.37
-488.472
-2974.04
-12618.4
-6783.18
-2612.28
-1737.4
-891.354
9079.03
3983
231.464
-1427.94
-3146.43
230.384
1841.2
266.764
7341.06
3966.4
-3171.73
770.031
762.098
667.743
-1892.13
-1570.42
-135.266
9819.8
-1223.91
745.728
-2537.57
-10004.6
7478.7
9726.76
17922.7
29238
24559.9
20961.8
-3140.35
-5293.32
-197.962
-3897.32
-2066.22
-983.247
1993.28
10808.1
8147.35
14862.6
7249.08
8434.33
-1069.68
3688.88
-696.168
531.441
-1894.87
2096.59
-4188.25
406.755
-4807.77
-13705.4
2942.7
4628.07
25639.3
42200.1
45114.7
18730.4
11314.9
20901.3
13599.4
174.587
-3313.8
-6124.95
219.31
6573.44
-1708.19
184.881
17857.5
854.266
2235.29
15257.5
7189.06
8693.71
5117.91
11408.3
25283.1
22196
8996.89
20386
7797.74
3820.49
-4754.52
1581.78
-4705.02
-7180.61
705.876
3413.75
6006.4
3521.82
3656.52
7118.15
10075.5
18746.2
36059.6
19243.1
13241.7
9380.75
3324.63
13549.2
-2501.75
3480.06
2800.64
6825.52
12891.4
28775.3
4320.28
9131.21
34013.3
11308.9
15391.7
11011
12841.9
1207.27
17233.8
7224.1
12105.7
46247.1
43106.9
31391.5
33135.7
27200.3
49049.6
33216.5
58752.6
112419
93947.5
57632.6
54795.9
48865.3
46025.4
21581.6
81179.4
72866.6
46773.3
30316.3
23702.1
32630.1
37978.7
36345.5
46866.8
20225.5
25777.4
26101.4
15440.8
10219.8
9642.63
890.311
4557.15
5969.38
-6656.49
-140.058
-2665.04
-3020.67
-512.772
-1478.9
5014.01
9034.26
2496.98
15731.3
9206.73
883.883
6562.7
17769.6
7616.85
5247.36
-997.393
-5391.85
-1567.67
1510.41
-2827.87
4672.77
21430.2
28274.1
11569.1
4314.86
8614.2
20162.8
8431.27
-1226.47
8113.37
5920.69
-1464.23
-4148.32
-2377.6
-2586.08
1825.1
-1299.44
4866.8
943.299
-2635.38
1639.44
-1289.14
-4317.17
1520.64
-1497.23
11099.6
14000.1
16720.4
14904.4
3499.24
1584.94
7063.02
10192.9
714.607
-11772.1
-3496.93
1289.43
-14244.8
-9527.56
-12170.3
-11398.5
-1950.86
-996.321
1722.76
-1602.82
-886.522
2401.24
1198.82
-339.37
-8541.54
-743.244
-6467.2
-12428.6
-10846
-12762
-6009.88
3023.03
3974.53
-4353.35
-1470.81
741.536
4377.47
1802.13
1773.04
20984.8
1853.39
7835.27
5881.47
8373.4
13408.6
-583.805
7854.3
7018.9
-2948.29
1499.42
4283.07
8673.48
6664.31
-2610.95
-1120.82
-1785.02
1518.24
851.533
-7286
-4028.92
-3596.07
-9158.03
4618.75
-786.458
-6281.57
-1610.43
-299.837
940.652
-1818.05
-14186.3
-7352.26
-662.946
1566.45
877.47
3446.17
5647.16
-606.908
1149.56
4044.9
12096.2
26319.6
14983.2
11765.1
10380.2
7531.71
1356.53
-3080.96
9894.94
3423.8
5527.28
2296.82
3240.74
-544.519
-238.696
-1045.94
-756.017
1794.95
27634.2
23564.8
30631.1
52030.4
53431.3
47463.8
56001.9
41217.5
20385.7
2307.41
5992.84
6945.63
-4412.69
-8090.62
544.07
-2754.28
5223.91
1430.02
8957.47
11168.8
10813.9
5522.21
22669.1
47592.6
38199.9
33217.9
15947.8
14167.4
6504.6
4606.48
10446.8
14808.9
19046.7
25341.7
27241.2
32022.6
35444.9
30165.4
24293.1
20877.4
16307.3
26663.4
22638.1
3698.02
2569.31
4858.57
8397.45
3897.58
-4719.46
123.522
4364.73
2314.17
6227.41
592.485
-3891.3
7693.64
9932.11
20258.9
11284.1
6995.56
20004.8
10335.1
12847
21834.5
24496
10504.5
21274.8
19730.8
23658.4
25878.9
23058.9
13023.6
14208.2
2343.35
-510.792
2626.77
11788.2
3631.27
1571.8
13071.5
46403.1
38247.6
39433
39394.3
48174.4
36693.5
64938.9
93258.3
69301.6
60597.4
63246.5
58725.9
56999.5
44026.9
20644.6
27842.7
18920.9
8872.07
11597.9
3459.5
4583.5
-2530.07
-1112.29
-3443.5
-9706.49
-10488.8
-7521.1
-3688.31
-2903.67
750.089
-2904.1
241.849
-5693.22
1411.78
15645.8
10889.2
9996.72
12131.9
131.947
6200.69
2594.2
-6302.56
-5083.59
5130.37
-428.25
-1465.22
-5741.13
-3372.37
-7776.5
-2514.79
-12964.2
-7741.72
-6639.75
-12644.1
-1270.81
6397.51
29186.9
32174.1
32049.1
19994.1
19621.3
12223
4533.78
461.895
-621.853
6292.51
4396.65
3869.44
7403.19
15500.9
8932.52
23313.2
14394.2
18312.9
28999.9
18090.2
23031.1
47380.7
42394.7
68329.9
67751.9
70302.8
35781.1
21527
18910.3
24024.4
26854.6
8975.36
4107.57
5707.45
-7545.25
-4855.24
-956.099
8669.8
33400.2
26446.3
2787.69
-39.8119
-4259.17
-3109.47
-997.296
-9720.07
5690.17
12454.2
12434.6
3335.45
-418.296
-3864.1
-3044.79
-13342.8
-14846.4
-13781.8
-13957.7
-5209.41
-2308.53
-4105.23
-10411.5
-602.425
1824.34
-425.883
-1903.44
-2249.52
1613.65
-126.521
2574.7
-9572.05
-4519.21
-7061.23
-7897.56
-6785.48
-356.434
-1050.87
-4404.16
875.331
1088.51
-1001.37
2766.95
-1265.06
-8438.1
-2956.67
5060.64
1198.47
4486.76
-2146.77
-1048.34
4010.33
6149.48
-2686.88
-1650.9
-9432.84
-745.296
-1508.78
4766.61
-4209.35
-7524.97
-5744.7
11757.6
10183.2
27717.7
18099.5
3227.7
167.417
205.331
5580.59
-1019.46
-1201.92
3028.8
3020.05
-2415.36
2489.92
3866.07
-1332.01
-1469.12
4847.61
-6642.23
-12112.5
1755.96
-10433
6344.51
945.272
3077.02
493.416
2611.98
-527.872
-1748.06
-2222.03
1132.57
-899.711
-5147.1
14109.7
12925.7
19865.7
38021
44955.2
43058.7
41333.2
60886
37916.5
26169.9
36701
56106.6
26066.9
19463.4
22980
26909.1
20809.8
36954.7
41457.3
36681.8
20585.6
14424.3
15700.4
14932
464.029
774.638
5860.03
16329.6
13217.7
2227.65
-2538.11
-5935.4
-700.118
106.388
7981.78
8199.26
6562.05
-3072.08
-4888.08
-9784.78
-2646.55
-2038.77
-3511.96
-2609.92
267.922
-7574.96
1798.48
-124.849
-496.797
-938.433
3586.28
717.783
-937.204
-1105.59
-5909.41
178.778
-947.649
-1641.04
-284.855
1084.09
-2967.7
-2432.4
-3717.88
1457.97
2424.46
-1822.79
2177
-975.201
-2989.44
-3427.54
-156.325
-1364.73
2350.58
3788.42
-2246.57
2904.49
-3158.52
-608.181
889.456
852.923
-855.233
-17362.9
-19582.6
-13541
-11365.2
-15225.2
-11888.3
-5787.8
1648.73
5675.22
6292.17
-2309.79
10542.8
11134.9
26928.3
25297.7
33544.5
34468.8
16697.7
6132.09
-2774.28
-579.687
1142.45
4292.49
-611.912
-1217.79
480.227
-8777.11
-884.174
-4832.66
1493.14
3236.05
1306.89
-5128.54
2609.31
613.441
7174.19
-3973.65
4820.33
8619.33
3725.56
10580.6
7325.95
1380.03
19172.8
26996.3
44156.3
57057.8
107116
112802
61037.6
68876.2
64837.4
53241.3
16229.1
12431.1
12128.5
1979.87
8241.54
889.343
-4280.97
923.566
-4836.59
-77.6267
692.234
892.509
5957.63
10910.2
-464.828
-1297.05
-2577.13
-3837.39
1335.62
3200.71
-3683.56
-4024.97
-75.1061
-1370.75
-115.724
-918.467
1055.6
1464.46
-887.381
3333.78
3273.9
-1336.53
47.3722
-3678.67
21431.9
12529.3
31116.5
20644.4
28877.6
23601.7
25376.7
5077.24
15399.6
19097.2
12903.3
13145.6
7751.11
7862.05
52385.5
44383.5
46900.7
37311.5
24606.2
30486.8
36575.7
25279.8
40602.4
30521.5
34752.8
22434.6
27558.8
17198
19650.3
27225.3
2531.87
4007.25
9675.11
-785.822
17648.4
13780.9
20628.7
20662.3
5520.18
16351.5
12969.2
18274.8
34805.9
49160.7
55410.2
46966.1
24681.7
14090.4
8462.17
21756.4
16158
17459.2
17679.2
40114
46264.1
69442.6
59334.8
41581.8
46064.9
10815.3
25063.8
24352.6
23571.6
12055.1
16567.3
8838.71
1703.2
-147.667
-5082.74
-9482.09
-5451.5
138.395
4681.46
4783.89
16115.8
7601.27
8227.42
16836.6
2036.84
9755.48
4116.03
11034.6
20761.4
12683.4
6804.26
2372.21
381.007
-4328.46
-1780.17
-7519.84
-4032.66
-2973.69
-7733.67
891.119
-1572.99
-2804.44
9323.39
-1306.78
-2974.19
-2056.96
795.405
-3281.31
-7672.69
-13739.3
-8873.33
-3308.34
-2193.8
-5668.52
-464.402
-1545.71
-4122.31
-7082.03
-2392.74
-264.849
5097.73
5772.24
10361
9448.44
2841.72
9767.93
19978.3
22808.9
12502.9
4118.3
-137.057
-895.886
-757.503
-2826.28
-10814.6
-15299.8
-2418.07
-1839.68
-4496.19
-4724.47
-3725.25
-8525.91
86.4744
-2137.74
-4355.46
1895.15
-6259.52
-9750.33
-10074.5
7799.03
-11282.1
-4603.34
-3628.83
-7362.82
-3717.34
-5055.59
4216.21
-4890.96
-2915.53
-7953.36
1283.89
1154.96
21105.2
27866
26133.4
26414.7
47982.8
45270
35625.1
59038
54936
36286.3
57377.4
32765.5
29702.8
32135
33398.2
41587
63749.2
82580.4
71508.2
97153
54462
69666.3
62089
75173.2
55635.6
61978.5
61459.3
45047.3
40811.8
7980.27
27424.4
56084.4
87044.8
65472.2
89419.5
82342.4
49094.3
35938.5
41892.3
36745.9
40481.8
60634.9
58033.4
37958.4
21337.4
19614.2
21370.2
13840.7
30120.6
10353.1
5717.23
1704.71
2700.44
14635.1
9897.93
28311.8
22532.4
15557.4
37292.8
21938.3
19036.9
16023
4830.66
10354
15035.5
2461.67
13801
17982.2
-452.025
-9369.01
-537.935
-3334.87
-3278.93
-778.216
-826.659
-1228.24
-3949.5
-8824.67
-9009.78
-2859.44
-10862.3
-8685.78
-5752.76
-16986.3
-8963.39
-381.371
-9064.86
1528.16
22933.3
5291.85
-391.475
-1753.94
7440.12
8958.24
11418.8
14078.3
23740.4
16650.9
818.097
2879.75
-3374.54
2385.02
-784.944
-2101.32
-1901.51
7461.94
9454.2
2558.86
3441.25
-809.198
3493.23
2040.28
3120.05
1775.53
-1140.43
5885.86
2268.44
-5796.19
-1703.13
-2689.57
-6055.48
-23367.6
-16486.1
-5614.97
-2620.72
508.601
4652.33
5489.01
2802.11
-475.691
-115.255
-2745.1
-217.936
-5352.53
-3831.84
1570.64
-2756.57
698.335
-2189.75
-5327.18
-7139.38
-3783.58
229.593
-609.011
-3130.73
3367.88
14150.6
13961
7071.54
28081.5
29490.7
23151.7
27716.5
13082.2
18025.9
14873.5
16508.4
10119.5
2865.33
842.644
-558.98
8675.69
3852.48
380.147
1980.11
2931.8
19422.6
26413.5
12983.6
169.089
13367
20531.2
26787.7
23776
7139.37
-3157.66
-4972.8
5876.64
-22.4086
1450.99
3982.44
3016.28
-3837.43
363.828
-387.505
-3293.48
-241.116
7266.18
8292.58
8110.36
-8166.18
-1733.7
-8641.38
-706.806
-6105.42
-8858.3
-13137.5
-1627.38
5255.24
9340.66
7492.43
9527.96
17554
17966.6
28982.9
24767.1
18703.2
25047.3
16336.6
25262.3
11286.5
8330.42
16476.5
32168.2
31948.1
28651.7
32523.6
39365.6
78991
72424.8
50426.9
39422.6
29003
12395.8
31584
38605.4
17807.8
10326.9
17847.5
4113.78
10622.8
9840.33
5664.03
15784.9
19504.8
14188.3
5634.68
-3036.09
619.054
3744.13
-11834.2
-8445.45
-55.3217
-490.142
1348.12
7885.51
-1477.59
310.715
-1764.15
5845.57
625.529
5190.72
3138.73
11086.2
6171.47
25462.1
10007
9869.15
8339.06
3536.18
-3694.93
-1363.15
-883.997
2374.99
3307.11
321.553
-2381.11
-2640.28
268.442
-4449.19
-4282.13
921.512
-5685.15
-1584
-349.405
5641.42
-430.079
-2832.14
-1087.28
3160.88
1041.98
-552.705
-3550.95
246.135
-7034.65
-492.331
-2799.14
3671.62
-1508.89
-987.627
-6.57326
8627.5
1855.63
37910.4
14438.8
19804
29210.5
26290
24634.5
19604.3
22938.4
25432.3
28081.5
35871.1
24413.2
67950
89338.2
83740.3
66756.6
77290.9
57889.4
23690
25261.1
51096.6
47170.2
26113.5
20177
14161.3
15241.1
8265.76
12061.3
15801.8
15290.7
32324
29955.7
28054.1
23263.4
33293.5
33874.8
11977.6
28402.9
43926.8
32753.3
25058
14775.3
25593.8
55535.9
35987.4
19983.7
16418.4
19238.6
20093.8
8152.05
10682
21967.9
15568.1
29240.2
11805
8458.96
31378.6
10712.7
27084.9
7356.3
22223.9
7035.95
5367.95
90.6034
7879.33
1130.42
-2000.26
306.199
-1291.39
426.306
2022.19
-3357.27
-7618.78
-7068.74
14583.6
26801.4
35031.6
21430.5
4446.87
16344.4
9299.8
6634.5
10192.9
6368.34
3674.66
9298.18
-256.892
2554.46
2398.75
3802.67
17949.5
12583.8
11952.5
15045.2
35059.5
19224.2
8662.66
4363.73
7621.88
-2249.66
-5035.17
-4236.44
-7102.16
2664.58
-186.345
10290.4
16636
13225.8
13681.2
13405.8
4549.19
4200.18
13630.5
25828.9
33338.7
17996.3
14446.9
26109.5
26718.4
24170.9
2093.97
-1640.42
2301.82
9820.49
2754.76
-5009.29
-1295.76
5640.2
12692.1
8518.15
7427.37
570.855
2259.19
-5526.52
-4597.51
-4709.22
-3719.7
-9732.66
-249.298
2291.32
2131.45
-2634.69
-4754.19
-3476.02
-4677.64
3581.74
16080
14734.9
30182.9
38174.9
33269.6
17662.2
16045.4
9878.97
5557.91
3699.9
10889
14688.6
3207.83
465.224
521.681
7319.35
2375.7
11826.2
34585
43612.9
65474.7
59134.1
59511.2
97693
100375
103461
88263.9
93128.8
89283
111044
87539.7
112490
146951
156077
192115
176209
122417
79833.3
45564.8
53301.6
24229.2
27004.1
38947.3
34618.8
25365.5
34437.9
32918.9
57092.6
63194
65787.4
36965.6
17585.4
54232
72211.5
70801.4
78095.9
109762
72695.1
64386.7
33406.2
40121.6
36086.3
35065.8
14786.9
23240.7
29283.4
27263.1
22481.3
17478.1
20928.6
23481.7
29958.1
10042
38078.7
66062.3
54565.5
65947
80936.1
35464.9
48722.5
81084
127736
123061
80661
82735.6
61607.7
32066.7
20707.6
21813.9
-1322.3
-8033.56
4240.76
7217.36
16437.1
28865.5
27547.4
24215.9
18984.4
10124.7
18169.1
22314.5
11959.6
18136.2
18356.4
28930.4
17382.2
24851.8
13619.7
6142.09
-2321.99
4486.47
9244.14
14967.8
10940.1
11433
27886.1
29371.7
19147.5
7924.38
-1012.77
-3214.84
1066.81
1658.17
-1513.3
-712.223
729.114
-2404.15
577.081
-8596
-10000.2
663.51
6020.05
2316.61
1596
-4878.77
-3484.95
510.911
4136.55
4271.65
2545.85
8792.08
1582.63
2498.1
-683.921
-1285.63
5844.35
12650.3
-3860
-1315.25
-1999.29
-2414.84
3394.04
-5497.71
-167.917
-6743.29
-9988.09
-4826.62
-7916.8
-8799.94
-8734.96
-7579.44
-3505.27
269.046
4338.94
3066.57
537.055
-7476.21
1559.61
2642.49
-1734.42
-3767.98
-891.432
4799.37
9832.99
20233.6
17313.8
6949.12
21899.5
41417.9
47191.5
34959.4
24671.7
32798.7
47310.6
50369.3
67143
71985.5
42526.5
34612.3
25887.9
36553.6
31989.2
21317.9
20708.9
20696.2
28301.2
6951.01
1499.56
4376.74
-474.375
4575.88
11510.1
18759.4
4810.4
14541.5
289.255
-3338.48
-4704.76
-1723.72
-9802.72
-2123.82
-2981.69
-1176.26
-6073.57
-2424.83
-3686.37
-6075.95
-6425.74
-2042.21
-4421.02
-7831.53
-4674.35
-2682.29
-4825.82
-7378.8
9010.58
6481.93
5640.68
5937.41
8501.02
2925.96
-2155.14
552.435
-2242.57
977.282
-2011.4
-7816.51
-3892.57
11455.1
-5319.39
1131.55
3137.87
2676.9
1289.11
5522.14
783.763
8361.19
-8385.56
-5182.42
1407.24
-2092.56
-684.047
1553.69
12.8797
405.927
9284.35
-2395.22
213.032
-4170.98
-1255.76
13397.8
3325.05
2284.2
2238.73
2852.24
2467.9
-2247.29
-2191.97
-3364.57
1913.4
16624.4
7633.63
4876.67
986.237
2851.81
426.194
660.54
-1734.28
227.816
771.243
-11134.3
-4381.94
-2332.11
3572.31
15013.9
23435.1
13799.2
-3519.85
175.652
1521.49
1543.21
2402.2
1327.32
6510.46
8600.74
9785.67
31860.9
42173.8
70338.6
35701.3
24875.5
16656.9
1064.79
32720.7
30149.2
15306
22047.3
23734.3
14127.1
2931.55
2337.88
-1576.06
-2660.07
-1837.6
-3399.2
1653.52
-1788.44
-7100.48
-222.331
-2170.38
-3233.96
-8046.09
-106.098
-5180.46
-6877.7
-5565.91
-732.32
-5366.46
-10402.7
-3151.69
-2379.86
-1935.59
-226.162
-2737.71
-3928.22
985.944
-651.047
404.46
-141.107
98.9517
-2409.5
-3321.77
652.902
-1134.88
-3575.5
-4570.51
-4960.85
-10414.4
-2890.34
-6784.52
-9366.69
-11268.2
-4901.45
3532.65
609.85
-2516.88
495.009
-167.454
-3908.89
-3377.43
-9836.65
210.393
-7260.66
-529.853
-1197.79
7568.44
5450.42
-2147.71
933.608
943.106
-687.381
1494.68
1880.86
3879.11
1891.35
-7287.61
-5636.32
-7543.52
-3538.79
-5009.96
1679.71
1706.94
-3193.02
-1142.63
3543.43
8.45365
-3193.93
3778.41
2178.39
17332.3
10442.4
13825.3
4123.28
16344
8766.11
-1572.26
40263.8
9587.99
24229.6
8323.67
1224.48
-56.5682
2043.34
-1900.15
-7809.36
-5362.68
-1743.78
-4253.74
4098.99
-1384.68
-1660.33
-3164.86
-7661.17
-59.7553
12317.4
-1848.9
-2397.85
-4183.45
-5454.16
-5516.61
-1069.23
-594.757
-4046.78
-3885.89
-4887.06
-7066.86
-3567.44
-1313
-1740.61
1932.71
4398.8
-1090.99
165.079
-3766.62
-7037.92
-4842.48
-3414.73
-4059.42
7820.83
8496.27
10160.8
12174.2
13531
1754.21
2271.02
-7835.77
-4592.37
-819.272
-206.529
-1303.2
7405.19
4771.04
-91.4611
-1908.6
5351.5
4935.14
664.627
2540.99
5335
1086.94
3864.78
-3017.34
-275.782
1059.27
11690.9
16542.2
10892.1
25692.4
35633.2
11326.4
-1376.88
5383.98
-5536.03
-614.311
5612.29
-2574.67
22581.6
23929.3
2457.02
769.794
-2873.87
8725.12
6742.17
4306.25
1016.39
-2136.26
135.934
312.848
4155.52
5003.17
-232.754
4482.01
15008.6
24671.2
32038.7
16427.6
16262.9
19891.7
12113.8
13040.4
4615.57
-5350.91
117.845
4107.62
-1637.72
2956.82
2574.28
3291.37
13094.4
1585.94
-2578.16
-8997.06
-4441.74
-5415.84
4154.92
-503.084
2254.42
-3261.89
-94.8247
-6162.2
-3566.86
1223.65
-835.465
-5351.41
-8532.45
917.243
1536.66
-555.322
-7107.84
-2083.89
-1689.12
4489.25
-1841.54
4872.69
-4134.17
-2644.54
1287.69
-2735.14
-8146.51
-74.3149
2530.06
10378.2
-1453.56
-1210.13
-9763.48
1927.47
27840.7
36834.5
50011.5
48510.1
54367
48509.6
55901.1
27580
17783.1
19991.3
12936
38789
38726.2
57362.9
35639.9
8509.72
28946.9
14464.5
-188.347
1742.44
-951.32
3765.79
5792.23
8578.53
22039.9
12813.2
7020.19
5850.44
10652.3
431.166
3377.47
5318.79
6718.38
7939.03
16094
15793
14898.1
19338.7
18316.4
36649.7
27931.8
35025.9
35159.3
21646.2
7650.14
23481.9
31015.5
18821.4
12893.9
26211
26730.2
33445.9
40834.5
28659.6
9765.64
-1855.86
-6397.97
5348.09
6498.72
-3219.49
2196.99
-7792.8
-8172.37
-7941.86
-306.616
6141.61
6377.17
5095.53
17284.3
7481.36
16726.9
32878.3
28312
70834.2
77194
52720.9
63608.8
47787
41552.3
30067.7
55330.8
62836.8
53641.8
35628.9
50179.9
22279.4
36768.8
32550.7
39099
7149.1
27860.3
39729.1
11738.6
-8269.23
-8390.6
-5039.2
-564.345
152.321
-2674.84
9293.07
10013.1
7068.4
17984.9
28017.8
23589.3
16329.5
4940.94
-4906.23
-2807.21
-1257.84
812.125
-3249.24
-1258.67
496.647
-1241.24
4231.28
4087.5
2741.53
4088.48
7326.65
17801.2
14249.7
2060.38
3329.31
5120.3
-1135.76
-4465.19
-3048.36
-5534.9
-1162.79
-4399.35
-2981.41
-5812.85
922.066
4194.86
-1373.19
1877.43
2208.26
6761.52
-255.033
-3261.22
-3238.38
-298.381
1349.52
9435.84
5995.14
-1108.08
-2149.92
845.99
4178.52
-5943.05
3944.95
6705.73
-5479.14
-13483.2
-3372.67
-7202.84
-10098.3
-3999.94
18.3356
-3975.4
7078.34
11575.1
18760.1
16398.3
13294.4
36587
25125.5
21214.6
26715.2
19038.8
29078.6
9100.82
7181.57
3388.28
514.738
-477.935
1767.37
5456.03
8753.15
16798.9
6366.26
14283
7734
11733.9
8888.44
19186.8
8598.44
14429.6
24325.7
23435.8
23239.8
32170.2
21751.8
6873.49
-3088.53
3714.19
-3522.36
-9086.12
-355.189
-5624.39
-8560.21
-1042.01
901.545
-2533.07
-18.2376
1522.21
3788.81
-5656.3
-2640.52
-4474.54
5360.49
-4647.46
-11200.1
157.409
-5268.06
-283.94
10778
5057.81
3258.07
4209.95
4592.23
6839.23
6518.84
11996.4
9201.17
4962.77
-3104.16
1348.15
6199.54
1562.41
8646.55
760.859
-2729.1
-7968.75
-5848.29
-1982.58
12812.3
6908.24
17687.6
22040.6
22017.9
12246.6
19029.9
16274.6
2031.49
2916.32
13902
-813.534
-2397.93
202.003
-470.713
-1602.82
-3957.23
1975.98
1218.55
6103.75
790.549
-3371.68
4254.88
4692.98
-4206.32
-6475.64
69.4054
1137.41
-606.545
-1970.78
1482.45
1427.05
-4244.85
-717.097
7577.71
1183.54
92.6685
-214.532
-662.17
-1679.48
-9805.85
-8498.73
-8056.96
-1853.66
-1182.36
-1908.19
3557.38
4091.95
-1405.27
2224.14
68.5532
-1015.25
3989.04
3362.48
861.947
5467.25
3694.8
133.699
-2272.02
-1395.54
275.299
56.9519
4421.72
-2846.98
-8231.01
-8159.94
-5288.31
-8553.2
-3502.34
-1013.8
-2554.21
-1167.23
6835.28
-6842.51
-18971.6
-5308.09
-3470.46
-1616.61
-7494.25
-8570.14
-3234.24
-9326.31
-2454.2
-8066.26
-9507.8
588.833
-4373.04
10218.5
6982.63
1042.19
8098.92
6693.52
3702.96
-1910.94
-987.884
2207.12
-6392.23
-2200.71
316.071
4544.07
1213.43
1743.07
2045.2
-1137.7
5102.94
-1421.24
-33.3773
-2914.45
-3802.42
-1956.15
-4625.4
-5095.67
-522.051
481.218
112.358
-2799.37
-2088.36
-5195.59
-952.284
324.172
628.239
1199.59
-3970.42
-251.093
7723.22
4882.97
598.127
10080.8
3942.65
2035.43
9855.33
9023.19
30698.4
-623.381
4091.17
-2805.54
-6940.97
-1245.72
1288.98
8223.1
11212.8
-14.1361
-5483.3
1559.03
257.421
2443.06
4170.08
4286.33
10046
12000.8
2741.18
-3778.25
-2965.36
-1391.51
582.216
5429.18
7119.22
15289.2
4533.08
-5558.29
-5220.46
-11611
-4398.13
11867.6
3605.8
11428.3
9690.34
29138.8
17862
25344.9
29829.9
41127.1
26329.3
7934.46
-792.492
6521.38
6110.11
9369.99
40996
18964.7
17337.7
29743.1
10968.8
6598.04
19454.5
33098
30065.4
22435
32035
11843.2
4958.38
18560.6
9677.51
8779.21
13701.2
33222
25755.3
7869.92
-1429.05
27422.5
18344.6
11644.9
2413.76
1335.55
-786.978
2023.37
1630.03
-3794.4
-6679.85
555.306
-10188.4
1545.75
-544.672
1147.54
-2008.84
-291.841
-1384.26
3932.87
2541.12
-1828.1
5104.46
1805.03
8800.83
8696.44
11301.1
4891.04
20755
18676.6
24387.4
36607.6
29399.3
38123.3
35940.2
35279.4
11173.6
1903.24
-2648.4
5898.84
595.372
480.172
6056.72
12125.8
16747.7
18203.2
28420.3
1564.88
-1297.31
-7812.69
-3975.82
-6811.77
-6998.95
-15189.9
-4689.45
-7248.38
-198.463
-3040.79
-7419.45
3423.76
-3149.86
-9401.07
-4024.16
2428.86
-3329.27
-8605.57
-11017.1
-1408.99
-2876.37
-797.418
-1106.75
768.947
-1117.46
6287.19
-79.1033
1012.88
9924.83
9152.88
13767.1
10019.9
19373.1
30089.4
36907.5
19115.7
9258.23
14525.2
18266.9
24695.2
7525.82
3320.38
-2440.4
10921.9
9685.35
12713.7
5413.54
-10300.4
7305.33
1268.89
-1920.04
-5731.68
-5892.86
-2060.59
-3385.29
595.631
2498.56
-825.418
-2474.68
3.02101
-778.502
-1942.06
-2289.13
-3824.24
-4846.52
-12403.1
-1228.97
5350.23
12807.6
5050.2
1420.44
20316.3
17688.5
11350.5
3630.9
683.416
-1851.91
1706.67
9370.97
6188.66
2059.2
11665.7
16921.5
13023.3
10944
1114.66
780.397
-3200.25
-2458.79
-2361.61
-4195.9
-897.54
9575.07
15697.9
5579.97
-2822.74
-2459.62
-3003.45
-2876.19
-10919.8
-11865.1
-5483.29
1029.09
24.3105
-4467.77
-2646.91
312.214
12005.5
12060.4
7732.87
-2400.33
8444.81
35095.6
37853.7
27512.6
44022.7
55472.4
101487
110405
46627.8
59942.2
78224.9
37728.5
39373.6
52783.5
42039.8
48200.8
50603
52328.4
13563
19482.8
7112.2
2263.68
-607.043
4142.12
2510.67
-3404.21
-817.014
-1830.31
-3764.73
3053.35
2528.22
-1440.69
-5964.49
-2676.75
2147.83
2215.82
-6260.74
-684.683
1823.18
7154.44
-6527.1
-6678.87
-11922.2
-7956.82
-4829.68
5512.5
-158.111
2701.17
-4753
-4260.8
718.014
-1128.29
455.587
-2773.22
-6136.38
-6043.47
-10647.3
-187.444
2273.75
-5154.3
5275.19
-172.852
6823.33
12130.7
16105.8
13090.5
15977.1
20862.8
43538.8
23323.5
3979.09
6318.99
3197.78
-482.348
150.277
5377.24
9388.13
20103.3
3114.01
-1860.32
-1842.36
-2209.47
-2140.87
-429.877
1712.25
-838.502
1731.01
9509.47
16910.4
3795.56
16380.5
13481.3
20132.8
14425.8
6189.42
1262.19
-354.507
462.367
-485.986
2085.84
-679.22
2149.12
-8668.97
1506.77
-1218.43
2597.01
9716.8
905.336
2781.57
-4669.66
-4798.6
-4101.42
3177.08
6005.17
-624.389
-7148.22
-3319.99
2399.55
-3001.17
-3715.36
-7928.74
-11956.6
-3033.12
1753.91
-5099.94
1134.03
9029.84
4657.67
3811.38
398.6
-1872.79
-26.8589
-269.995
3734.58
5504.63
15150.2
10690.2
7733.74
108.414
3171.66
3486.83
-70.0174
1849.21
-1570.24
1884.88
8138.91
3606.18
-3051.13
-4359.11
-7902.9
2257.16
-2170.1
-10123.7
545.311
-4561.61
-7053.32
-327.419
-3270.4
-149.63
-3237.7
2544.85
-6809.23
7555.09
9093.5
6131.57
-677.985
-231.706
926.118
2348.39
-9597.88
3366.61
199.369
-442.726
4967.04
2757.18
9971.29
8159.57
9766.71
2335.61
2869.47
2580.06
-4550.97
-4108.5
966.979
696.215
3862.83
-9525.63
-9292.25
-6666.4
-10141.6
-6323.3
-5757.47
423.068
-326.832
-3155.42
-3506.3
-5078.48
-4514.23
-5559.83
1938.33
5625.46
16254.9
3891.01
9139.11
1344.59
-2427.24
-455.089
2898.77
2249.13
-2455.21
3365.75
7873.38
13736.1
81.8383
13162
19247.9
23833.8
9785.85
5767.5
1477.73
26400.1
40440
43825.8
49041.8
38289.9
53365.2
69499.5
34863.8
40248
40546.2
39458.7
26763.9
42067.6
51730
38986.4
23028.9
34897.9
28593.8
14449.4
4241.68
11266.3
17445.7
8208.15
1552.51
-2561.93
-1298.21
-9490.43
-3349.84
-4298.76
835.384
-3326.52
-2721.18
-4739.08
-2611.49
-1888.21
1653.74
8268.48
11565.8
18512.8
11812.2
-9539.76
7698.95
331.541
-3483.05
306.667
2668.26
2633.75
13054.2
19810.6
19925.6
23407.3
38335.3
26983.8
45081.3
24501.1
13270.3
11997.6
6573.46
2175.05
851.632
6177.46
8761.25
5598.92
6426.72
3453.45
10835.9
9586.24
4252.75
8164.69
11827.6
67355.8
80990.7
71139
78994.9
83416.4
65468.4
50280.2
37032.1
36356.3
40699.4
43696
51053.1
27650.4
32280
36231.4
16145.4
11494.6
14991.8
12547
-4181.27
-5040.06
-2521.68
-605.896
-1942.36
954.681
-4993.54
-2816.57
-3098.29
2595.67
-2739.99
646.05
1017.2
7062.47
18959.3
12083.4
5009.41
3933.78
24020.1
19515.9
44914.6
59832.5
39592.6
33353.4
38816.2
18580.2
21884.8
21250.6
22318.9
15756.5
8161.84
3126.66
4530.01
-1235.65
1506.13
-955.719
-2004.14
-5350.19
-1504.5
-3768.16
-7048.66
-10474.8
-1068.37
-4690.5
-2353.08
-1889.66
-1077.37
-2329.92
-5558.52
-4605.41
-3272.74
2269.57
1832.06
1526.28
5335.69
9683.83
24330.2
28128.1
28179.9
35487.8
14600.1
5977.04
20108
16748.4
35725
28112.5
2416.97
1041.3
3138.4
6168.39
100.062
4626.13
-1723.38
-5534.46
2555.28
-2771.55
-3742.48
-2915.81
-3098.18
4992.55
-1025.62
-3627.54
-6620.94
-11345.2
1493.12
-807.592
-294.561
-740.9
454.22
-5162.07
-2300.64
-5789.64
1723.88
1707.79
5609.72
-429.009
86.5104
-1246.3
-5648.92
-1579.74
-803.363
2601.86
1477.57
931.724
-2112.8
2446.09
-4807.57
2397.58
706.189
5859.55
17538.3
12546.7
5029.34
-620.262
206.878
3278.18
2829.09
3020.55
-261.738
2541.55
-4897.67
-2988.19
-6900.35
-4570.65
-28.0746
3494.98
1330.21
9368.28
11551.4
16314
8293.93
-4544.7
-5953.67
-2463.03
225.884
1531.51
2856.22
954.299
79.5787
13074.2
21226.7
9035.2
9764.92
19329
16717.4
1920.46
-137.157
2638.65
2268.14
271.974
550.19
3584.6
-1915.81
3483.06
-8206
-6948.61
-12435.3
-6712
-2908.35
2131.71
25655.9
24713.9
18003.7
19834.8
19674.9
30171.6
24099.2
8665.84
41362.1
35235.8
21793.1
39668.5
28458.7
31992.2
21591
34007.9
14571
15416.2
20866.1
41716.7
26276.1
17946.1
15749.5
13854.5
29061.3
54467.5
34713.9
21266.9
-389.111
-11590
-98.7357
7281.41
18060.9
38788.2
27007.7
45048.6
44589.4
30808.7
10148.8
18497.8
1580.16
-1751.66
-3350.66
6218.94
7988.07
6765.03
8616.77
5418.3
-1341.69
-2223.21
-5796.01
4831.38
388.305
-2760.69
12332.2
8149.47
5662.21
2314.68
-1509.73
3540.39
329.253
-486.281
-2676.5
-876.907
-4132.73
513.888
1970.35
1765.98
10209.3
4113.68
-104.027
263.796
7020.91
15713.4
4312.63
8970.39
-7255.23
-2377.08
4481.84
6941.22
3393.01
297.483
-5830.94
2265.56
4657.72
7192.36
-7210.2
-2198.45
-749.701
2985.13
941.779
-4046.53
4489.33
-5789.88
-2589.89
-4232.69
-10201.1
-5650.67
-956.563
-3534.84
-3847.25
-785.876
-1901.89
-1328.56
1929.93
2156.15
2979.84
2097.91
1355.28
-1991.72
1113.75
1205.83
538.56
-11936.2
-8478.25
10551.8
8161.54
22416.4
13345.4
16141.7
5768.28
10934.1
-6132.24
-1957.74
3198.52
-302.581
-275.692
-1490.73
859.225
-3298.03
772.713
2706.03
-5340.37
-6261.48
2021.42
10726.7
4697.46
-1438.67
2967.87
1496.77
-6202.85
-4531.37
-7024.31
-2179.59
-1304.97
-27.2824
-942.429
-21476.3
588.394
-202.938
2286.28
-856.427
594.676
1266.83
6549.05
6809.9
8318.49
8435.64
16506.1
16099.4
5856.74
3672.63
7449.04
7661.24
1460.92
10424.1
6408.26
4276.8
-5016.94
-5927.04
-4907.81
1738.04
-9.33304
-4946.99
-6957.85
-2484.76
-5575.29
-7453.73
-7850.27
-5762.03
-6285.61
-14135.6
-2804.16
6621.95
-1017.7
67.9082
5001.06
14076.2
10907.4
-8347.79
11192.9
-6402.29
-1151.68
-15.0206
-819.252
-180.835
-389.226
9590.32
12470.6
2970.08
2287.12
4045.06
419.28
-6671.8
-1580.23
-6151.55
-2638.63
873.886
7977.92
22853.9
24845.8
10819.5
5504.23
31292.4
23873.4
23685.1
16061.3
13965.4
19720.3
39692.3
34398.3
33684.6
41166.5
28046.1
16926.2
-2357.45
848.802
-2320.37
-309.082
-3274.43
3439
12888.8
11399.1
17814.3
17311.7
35424.2
39447.3
35071.3
30189.6
9425.72
8132.43
5514.86
-2682.66
-12845
-3557.23
-85.98
863.001
6690.99
3785.81
-7434.55
-7878.24
6236.84
-1685.73
-124.697
-8496.28
8263.37
3934.89
-6574.97
-19222.6
-15735.1
-11950.8
-6086.61
-11236.2
-3317.85
-3648.22
16435.8
32785.8
31367.3
40075.3
56974.7
42948.9
70177
62238.4
45632.7
26168.2
30563.5
26977.1
29638.4
26706.1
41472.4
34035.3
16606.2
22812.6
27721.8
38901.1
17923.6
20355.2
67085.9
90220.8
93624.8
104246
60111.3
32311.8
47550.2
22036.5
3678.72
8682.76
13880.9
16071.4
26275.6
14141.5
19501.1
12342.8
11037.5
4402.08
17847
6820.18
5726.69
7518.41
9380.37
1296.24
4259.39
6420.61
-562.404
5235.6
606.856
-3039.11
1890.1
-203.119
2531.74
1014.44
1240.08
-3305.45
-5801.26
-2791.29
1274.52
-2238.31
4841.96
5844.75
2534.57
-1345.6
4968.68
-709.518
-3522.97
6229.49
-3338.05
804.264
2042.96
73.2462
13311.1
15210.4
10093.6
22564.3
29381.8
17970.3
4916.42
-966.703
-5406.74
-2166.97
-1075.22
3057.97
-573.046
-246.548
2979.79
1081.29
-57.4051
1187.6
-4215.87
645.214
-4334.89
-7077.73
-1241.19
-5937.59
-11518.5
-17345.1
-6728.55
-6534.49
5995.49
2459.08
-2081.47
-1556.1
2209.76
3065.37
-588.746
-144.757
1392.1
2377.74
2500.16
-2543.24
-5692.74
21373.3
16269.5
15341.6
6414.84
-867.242
-371.093
-2265.02
191.319
3240.44
2061.67
-300.498
18520.8
8501.97
44624.9
30944.8
26003.2
11198.4
36490.3
17243.2
11208.6
4600.52
4001.92
11284
26644.8
16845.2
16827.6
24566.9
28364.9
43466.7
28018.6
40652.7
52521.5
65791.7
41713
38675.4
27212.6
22589.2
23364.6
27916.1
35086.7
17549.8
15496.9
9423.65
8216.35
1073.87
-3127.97
-3308.73
2176.64
4380.54
7667.05
4819.85
4511.83
-1196.47
6148.22
5047.16
1274.94
1990.95
5016.62
2099.42
-3973.13
-4769.36
356.845
-752.338
-1049.72
-1952.19
-33.447
1322.34
10419.9
10020.1
13252
6736.65
-668.582
-6875.8
-3523.46
1329.26
4515.53
22003.4
25552.2
34367.2
30740.4
35119.6
26138.2
21474.3
16878.6
10845.4
9610.12
7313.47
-3119.25
4401.29
16111.5
3537.64
7219.64
-3840.33
-4053.75
1644.23
7818
576.162
-3286.41
-4787.35
-5047.91
-8874.58
-2749.02
2810.08
10175.4
5326.11
8412.3
-12475.7
-9023.41
-7720.22
-12356.7
-6045.95
-8696.76
4001.85
10376.5
21027.1
27580.3
25387.6
33274.7
13528.2
9219.55
16801.3
12445.5
9067.75
39062.5
12961.7
28839.4
21840.5
25004.6
42420.8
48480.7
55853.6
29523
37533.2
36410
20979.8
12117.3
6998.67
10578.9
2460.99
-3044.36
2952.77
-1056.67
874.563
3046.52
-6578.83
-1893.67
492.434
1199
2622.88
-9474.73
-8965.34
-8146.87
-5972
-7539.45
1745.07
3109.08
4547.67
16220.4
12687.7
19200.9
30130.2
24105.1
24184.3
15461.5
13258.9
11550.2
20602.2
17297.2
23432.8
19450.6
9565.15
-1310.39
9952.56
21319
22209.9
32983.3
10630.4
2172.13
-1776.42
-4857.07
250.141
-4445.36
-3101.08
-1221.82
-3826.1
13899.1
39671.7
26030.9
28552.3
17188.7
4871.65
5359
-3426.63
3164.52
2703.72
7614.21
5289.24
-4653.81
-4694.97
-1107.86
-143.726
1328.89
-5438.73
1219.22
-3434.57
12941.5
40715.7
32804.5
39057.6
41895.2
66904.8
37333.3
27519.8
19725.7
12567.7
9040.6
9701.49
23735
26217.4
33913.3
37988
36445
24098.4
24582.6
13058
27698.8
25661
16921
1555.94
6307.83
14390.5
13823.2
17303.4
8898.98
15456.1
12205
12828.2
24287
24068.8
-121.369
1328.5
8254.16
4977.99
2408.34
1495.95
-367.637
72.8957
-1063.35
-59.0431
-2301.12
91.3653
3880.81
12075.9
5155.31
15751.7
2797.76
4936.52
2767.82
6737.96
2683.34
4930.95
6439.33
13626.4
-4488.03
1973.63
-5559.24
-1598.04
-21669.6
-10283.4
-177.184
-1608.12
1724.41
2589.76
-3301.22
-3530.4
-6755.48
157.219
-6446.98
4311.95
1847.08
8011.26
2013.78
14769.6
20895.6
24177
30053.3
29919.9
18278.9
13821.3
-1517
6712.79
4502.42
1773.91
18273.1
2025.47
1919.52
-7923.91
-13976.7
-6590.8
-4737.68
-1624.55
3062.74
11399.8
13914.6
12746.1
11207.5
21950.2
10286.2
9795.03
40770.5
22261.2
9128
4978.28
-2376.96
1209.42
-4617.5
4711.92
9732.04
20133.2
29101
36867.5
33974
15635.1
4407.93
-363.049
-4902.24
-2598.8
-5874.52
-6543.55
244.674
-481.935
450.86
-705.22
3664.1
-5791.69
-1253.46
-1785.35
-3702.54
-1354.3
-2913.18
-9588.23
-9484.07
-19714.7
-7061.35
8211.88
17687.7
22079.3
21878.9
35013.8
20241.4
14513.3
24590.6
42198.3
41997.9
29291.9
30071.9
9212
20768.8
13233.6
5495.07
2781.07
10231.4
13102.5
21716
38724.8
43848.7
43026.9
57560.9
53290
23712.9
28917
16041.8
4090.84
6920.29
27830.6
7380.71
28092
46584.6
63201.5
63739.5
28417
44503.3
44233
64806.9
101816
78761.5
76486.4
32093
24123.5
17771.4
13519.9
22491.2
-1707.38
-1110.93
1964.05
2347.59
-3725.79
-5155.15
-10378.9
-6825.1
-3912.71
-4246.61
-2505.25
-8610.57
-4676.43
2805.21
-528.715
883.65
5564.79
37679
23077.7
15144.7
23502.1
10043.3
3392.3
-2934.82
-6925.31
-3658.31
1345
2184.1
-2302.74
3325.57
-3459.55
3198.73
-605.083
5284.81
18691.1
3386.35
15846.8
11616.1
1367.7
-1822.68
-1382.09
-3517.46
11108.5
8473.15
7562.34
6687.03
-969.264
-6261.59
-1297.51
3989.51
902.729
-1425.19
-310.577
1649.71
5013.63
815.354
4150.17
1893.04
1241.82
1873.5
10318.4
7892.24
11051.7
9186.96
6837
6831.56
-6875.95
-7716.82
-2524.86
-2658.92
-5455.35
1427.85
-3613.48
-1432.93
-10753.1
-9727.22
270.681
-6868.02
-4915.36
-4302.71
-9605.2
-10098.3
-351.83
9645.78
-1374.73
1805.43
972.565
1090.45
5999.77
9873.3
12017.6
14035.1
-5069.1
-5609.69
2850.42
-1649.53
9886.14
-585.844
1955.63
8009.96
6921.8
3962.24
27135.4
16605.3
7118.95
3528.5
7812.43
20152.7
16978.8
28383.7
33193.2
34587.5
21491.6
12107.6
27009
36801.1
86509.5
72555.1
47841.4
37396.8
51889.9
70599.1
77093.4
62352.9
48450.8
28176.2
20328.8
17352.8
12777.5
23455.6
34701.3
28951.7
18360.6
8352.02
296.605
6218.23
3916.11
4155.66
3581.17
34.1014
4847.89
5318.81
7184.93
10683.5
8750.93
15115.4
8802.72
10203.7
-2812.81
-1433.51
-4372.38
4056.75
631.761
-76.5975
-2869.54
3375.38
-4787.77
3871.33
-3941.21
468.983
-8631.89
-2246.11
-7795.23
3883.14
-8615.84
687.697
-8512.37
-8501.03
2104.23
-905.798
15942.7
27552.1
10891.7
5994.96
10833.8
6425.99
15963.7
2903.21
-1195.07
-3239.82
-8294.22
-5804.59
-2351.59
-8564.4
-12061.8
-2724.49
-1787.59
-3517.48
-5140.1
-2199.27
-9069.65
-442.025
-2633.02
5198.55
-5990.82
-7104.83
-9964.51
-6256.2
-3176.22
-5589.46
-3191.68
-1188.35
2237.64
-1324.5
-3954.93
-1485.82
-5370.15
-5423.87
-2438.58
-296.41
-836.632
4001.53
-3790.21
10037.8
4734.83
1089.36
-3516.08
-2573.86
1495.16
-2509.26
-3036.31
-1326.01
-346.096
-1554.5
-1496.6
-4133.53
963.904
4275.76
-2171.95
-606.164
901.632
-2662.72
4047.01
3930.16
14654.5
8048.24
13038.9
-655.118
-1240.44
6010.26
-1301.17
-1173.22
-7759.1
-2069.8
2334.9
8201.96
12969.5
22689.9
12148.7
15161.9
7297.15
15558.4
24245.8
2989.51
19235.4
8267.4
12387.1
2039.31
-742.783
-588.057
2007.25
-2568.01
1916.95
-1649.29
5753.71
-1278.56
-1906.45
-5064.4
2906.17
-194.128
2266.61
4285.75
-2464.13
-8643.22
-8312.57
-2450.45
-3159.26
-1853.43
4054.62
-51.001
-3867.33
3724.38
3502.63
3356.9
7848.36
2245.05
596.719
-2955.03
-14692.8
-3953.87
-1711.35
308.721
10.8771
-856.708
-1341.73
-5854.26
2196.82
344.197
276.713
3677.62
7317.07
2857.77
10123.8
8108.97
99.122
11084.5
-3284.19
2883.73
23258.5
46228.1
42062.5
6545.54
2087.15
-2775.02
-1340.22
-7155.66
-5982.05
5905.74
-1332.93
605.493
-2424.42
-2973.67
4452.11
18664
21473.4
14368.4
13897.2
18806.6
43598.8
56437.4
46467.5
60916.3
53111.7
54373.2
52838.9
47435.4
55019.6
63324.4
65795.1
86271.4
84297
85385.9
63054.2
56166.9
48631
14897.9
12602.5
9670.78
7816.38
4052.16
84.5613
-1010.38
-2255.45
4734.54
-3666.69
-444.318
-2519.7
-8288.52
-2200.44
-1819.85
909.62
2939.38
-9766.85
-20972.9
-8561.29
36.8667
802.925
260.249
-773.671
-440.835
-1086.28
-7877.8
-1514.58
-13.1718
9115.2
-184.505
446.731
-2063.06
-1358.39
-3009
-2.16387
-1124.14
-5077.65
-4638.92
-7796.85
7424.14
6502.8
7156.05
1542.89
4393.13
8492.2
11796.9
7800.41
36880.3
33109.6
33677.9
29506.1
79214.1
77750
82675.8
69954.9
55872.6
66412.5
21804.8
9931.92
13509.5
7936.41
-218.092
-433.091
5647.41
6590.19
6931.38
13515.5
14390.4
4368.31
-1492.28
-350.788
9408.02
13973.6
15130.5
5280
-1390.59
1094.13
-1392.02
-5735.36
689.314
549.119
1602.78
5452.37
3244.72
10039.7
17381.9
2632.1
13254.5
10808
19564.3
32315.8
18740.2
36338.9
20884.7
18278.2
469.919
2232.52
11783
-832.053
6745.79
7016.09
11468.7
5041.9
147.617
9585.93
-3281.31
5929.01
1440.92
-9311.67
-5164.32
-11051.4
-10685
-7385
-866.952
-788.364
-1674.97
11314.9
8783.02
24949.5
8687.23
-2568.44
5504.59
2025.37
5370.27
1242.72
-2412.51
-6002.57
5437.28
3566.66
2954.69
-1502.62
-9288.53
-81.5484
4754.11
1463.26
-1982.94
12323.3
12400.9
8577.71
5190.66
-1367.7
877.906
-2544.83
-5258.24
1616.45
3371.35
-1322.3
-1504.87
-7577.7
4166.32
1750.71
-1337.54
3125.32
7090.64
17063.8
7663.57
2052.94
-1971.59
-11600.1
2206.36
-798.187
5277.26
34281
25962.7
17984.8
2797.59
22405.5
23849.4
12621.9
14635
13214.2
-282.034
2227.65
6869.63
-4129.27
-3296.95
-3788.14
-6716.78
-7299.43
-2118.37
1683.62
2207.12
12418.3
6911.05
5907.91
-1226.68
728.009
1121.33
-5778.49
-5470.5
-594.458
682.353
-1538.27
-5391.06
1492.76
709.218
-1845.74
2894.16
4319.12
8952.31
-4386.53
-9060.02
-2767.59
6233.42
7086.2
-5331.89
-3146.1
-434.856
212.122
9108.42
8231.77
-339.071
-7698.68
-9804.1
-4272.31
-618.051
-1187.59
-3050.54
-2904.07
3537.42
4002.66
-323.492
2023.9
5836.87
-3555.72
-4306.31
-3123.25
4872.45
3682.39
3447.73
5983.9
4662.74
-2041.23
-984.499
1994.39
2763.29
2398.8
3415.82
3258.8
-3848.08
-11936
-6842.12
-8070.75
-5643.3
-6297.98
-3106.18
-4188.66
-1045.91
2615.42
18064.8
15382.3
17027.4
11514.8
16293.8
23529.5
12340
5416.92
21146.1
43323.4
35032.3
12913.9
11362.5
623.383
1758.79
7342.52
4653.32
977.364
-1403.58
-2959.32
3702.87
5375.31
314.782
1420.13
444.371
12850
28580
19953.8
14554.1
9471.43
24938.5
24267.4
35368.8
24509.9
18040.3
7579.6
10474.4
11499.3
7595.85
7395.68
20125.2
20737
15631.3
22787
10472.6
23679.5
45015.7
45028.5
23265.6
31927.3
15471.1
14540.5
18712
18840.1
22241.9
6396.32
5569.07
12952.3
9393.85
3912.06
-2093.71
-5300.11
-3869.69
-1790.51
5950.62
22640
17211.4
6887.93
30275.2
10166.7
6293.56
11558.6
18269.3
22003.8
22163.3
10687.8
22112.3
14714.4
45453.4
37297.2
22090.1
33733.4
34712.3
25858
28003.7
28425.6
26661.9
21297.3
14938.7
13995.9
-3204.72
4218.5
228.886
2597.53
8496.78
6371.97
-3480.85
1983.22
1030.16
-3825.74
4587.83
5404.89
11342.4
30878.6
30563.3
16824.6
23218.5
25820.6
29107.9
6386.51
6684.43
29738.1
18356.2
34491.3
11451.5
27147.1
21049.1
24508.9
9077.14
12487.3
22761.5
27862.5
18301.7
18430.1
21454.4
11504.8
-1692.59
-77.7417
-1185.16
1283.26
1900.67
659.569
-2672.25
-2080.7
-4043.77
-2227.15
-1298.06
-131.568
-789.055
4451.42
7637.1
-1888.89
7566.97
2541.25
-738.042
-1151.82
8240.21
-414.145
-4156.19
-8086.2
-775.004
4098.97
-608.294
919.367
4092.42
6267.05
472.373
1949.46
-2567.16
-2295.46
-3685.28
10125.9
13518.6
19390.2
17083.4
9693.95
2905.45
69.0666
1268.96
3873.03
-273.088
962.914
1002.27
4892.36
1368.25
10687.4
12280.4
5690.23
5661.27
2677.82
2920.81
9582.57
29145.5
9279.7
12040.3
13795.9
11556
15136.4
20821
43181.7
21904.7
11272.4
12572.6
11529.4
10854.8
13306.6
-678.815
-4120.02
-2724.45
-2130.73
2900.11
-7113.36
-18287.2
-5288.7
-6451.73
-986.303
-294.152
-962.346
-454.42
350.996
-5378.45
-2300.9
-3649.09
-4029.32
-1170.2
1381.29
-6385.13
-6733.86
-1990.04
4339.18
317.948
-3179.88
-1409.84
-2102.61
-898.798
-3510.6
-128.807
995.816
-2732.85
-1178.77
-888.727
82.0268
6248.31
-2050.78
2119.1
-1144.59
2102.77
-688.508
-1512.01
-953.35
-1803.97
-4384.2
-2254.52
-3445.13
-8354.23
-2374.05
1394.19
4184.1
6273.93
3335.94
5780.05
10708.3
8583.32
17119.3
9464.86
4429.38
4103.28
9280.44
17865.2
15968.5
21102.7
3199.32
12280.9
12770.2
20073.5
31966.3
18316
476.979
-244.975
4157.8
-558.24
-672.383
-2976.84
4990.24
-2823.84
-12014.8
-3055.87
-988.644
-2175.44
846.226
1653.48
-126.146
147.449
-4430.32
-4779.64
-14342.9
-6763.64
66.6772
-2906.26
-7222.25
3828.26
5718.83
24576.1
27433.1
24744.4
14548.2
10620.7
30949.1
30999
39174.3
30201
30940.6
21396.6
18675.3
42047.2
21784.9
24783.1
22078.2
33386.2
33776.9
43199.1
42999.5
36124.2
18491.7
30902.7
24305.5
32231.5
25449.2
38714.1
20114.5
21015.6
41180.1
30998
35489.1
38342.4
45298
40500.3
23676.4
20370.6
34630.9
18719.7
13600.7
5027.96
-3602.48
478.396
1837.36
3453.46
4758.8
9679.56
9008.28
7469.73
8030
-12047.9
-13579.8
-193.206
13748.2
4031.99
-760.485
-6417.85
-4722.55
-4332.74
2862.9
2536.48
-828.391
3528.68
8453.12
3979.88
7679.34
6893.97
708.625
2516.63
-739.286
2218.14
-5049.18
-8325.71
-7571.44
-1191.49
3980.32
4446.99
838.907
480.515
-1640.68
-2010.65
-1171.54
27711.8
10385.5
-1396.58
2623.04
7801
11459.2
2833.6
-19.1359
4570.77
-352.892
-8404.76
-8726.58
-10807.3
-15233
-5314.02
-3725.66
4209.58
-301.022
2805.32
4684.4
-4810.8
-22950.8
-18865.7
-5666.55
-7.66067
211.944
-8.90402
-1106.62
570.31
2759.6
-236.578
-4693.63
-1265.37
-6363.73
-5750.81
-5645.53
2411.39
-877.172
-788.043
-1229.82
-1765.47
-971.404
-2152.64
-1652.81
-5087.4
-1345.68
8291.35
27590.4
35292.5
46199.5
48731.5
30412.9
34319.4
67891.5
61103.5
61828.7
80937.3
86642.8
81644.8
69451.4
79318.1
66454.5
48466.3
38353
49266.2
48040.4
33192.7
20268.6
10241.5
2517.11
19747
7704.29
11451.9
5620.31
4659.87
-1537.19
2506.71
-1845.64
-1141.76
948.083
-2387.54
617.678
-5343.56
165.768
2402.3
16733.8
4601.5
2739.4
3767.15
874.244
3224.99
836.365
-265.701
-816.852
-2158.16
-4784.54
-5332.09
-3881.38
-6755.8
-10616.9
-3814.42
481.567
6926.75
16929.8
22311.5
5215.49
17075.9
20404.3
8197.97
15111.1
16862.7
708.699
6772.36
-2015.1
-528.328
7985.57
3021.12
-657.541
14839.2
21934.3
13944.5
-566.489
3062.75
2745.75
2703.7
24015.3
37175
19605.8
12920.2
24141.4
23508.5
1616.9
-1633.78
409.183
-3360.18
-6321.13
-3400.41
-6892.99
-1484.54
-271
1435.15
5750.11
-5144.83
-3472.76
-3920.52
2397.43
-8408.43
-3861.07
3030.34
2326.92
7606.57
-1314.61
6302.23
-5170.5
732.115
-360.983
-4295.79
3222.8
-2314.29
-2125.39
-1139.39
-3226.36
1934.48
-404.095
1294.32
1586
1386.44
7259.16
-1121.55
-2228.99
-1682.58
-3628.6
-8992.61
-1418.78
-6141.12
11174.9
5418.06
1538.57
8968.58
15622.5
14717
11896.4
7018.06
11236.8
-3097.27
-1505.76
-5637.94
580.068
1663.27
-645.685
-404.45
-719.497
2495.06
9865.86
14988.2
16915
14976.5
7822.33
-1926.34
1824.02
2701.43
-3588.55
255.608
4682.19
3367.68
5197.69
-148.54
6190.52
7258.53
-3454.44
-10855.1
-2869.02
-3603.56
-6834.19
-5743.86
-5611.8
-5227.67
93.2125
-3252.37
-5397.01
-1348.65
-4975.86
-6785.53
-1005.55
-6628.18
-10241.3
-7886.79
-4713.52
-6764.8
-7817.72
-1038.48
4059.38
-2807.78
-2488.19
-1627.82
-3653.16
-3417.57
-2441.4
-140.352
1429.85
694.837
-2773.29
3507.32
227.792
501.625
1665.43
14208.9
10446
13803.2
3856.58
1461.52
4648.3
-6647.07
874.313
-5165.24
-2335.23
-1535.47
-3332.93
806.357
19230.6
-877.003
-283.981
729.062
18456.4
23969.8
7550.8
-1105.2
-1051.99
7555.26
918.342
6765.58
-421.021
-7480.99
-8062.86
-2083.04
1801.09
-4012.31
-1407.66
6805.19
7722.52
11587.4
8196.48
11466
18902
10565.2
15341.9
4115.11
13809.3
15046.2
8683.06
20297
28640.3
15033.9
9283.7
11042.5
-491.729
-1737.47
-3401.93
1060.24
16160.9
38083.2
19359.7
17520.6
-5523.02
-5067.6
-1486.2
-3568.45
-804.986
-3945.27
-3830.63
-2373.51
-1104.7
-2802.18
-12955.2
965.747
-223.384
2967.17
11310.6
7326.86
13598.4
5262
17193.5
23252.2
36835.8
30406.2
12424.4
19085.7
19011.5
9046.05
20332.1
15035.3
26961
39941
40066.5
51896.3
24657.4
16570
22980
15868.2
24090.1
19490.5
22418.2
31303.1
31202.9
3931.93
9113.57
-2402.45
-647.313
2785.69
5901.54
9217.78
3857.21
11085.5
16669.6
17428.6
32105.8
38173.6
5610.79
28850.3
49302
32134.3
33831.6
21025.6
5559.94
21145.7
16719
22068.4
11782.4
24833.7
43015.5
46795.9
38863
49216.7
55180.5
59564.3
68144.3
61103
74479.4
58095.7
53292.1
50889.4
62967.1
58882
27324.5
19246.7
13202.5
33438.9
64440.6
70225.6
75793.2
60691.4
42466.5
51792.2
23666.5
11041.8
14388.4
10004.2
3000.78
7415.69
-2596.71
3888.2
27929.4
45042.4
41362.8
70149.5
29553.6
35758.1
50005.1
37221
23544.6
39632.5
20191.1
9397.98
13439.2
25412.5
48409.8
50527
56314.9
52086.1
54896.8
81109
88787.7
69086.3
41023.7
22721.4
44574.5
16321.4
17558.5
28291.1
24441.9
16913.6
5064.35
-10203.7
-7381.5
-3231.18
-3267.79
2370.09
-6571.57
-4933.98
6091.4
1723.59
13806.4
35162.9
12414.6
15016.6
19163.6
12968.9
39051
62253.9
51403.6
53435.6
54174.8
44719.7
34548.9
43482.1
57209.8
21249.5
2192.14
22005.6
2428.35
29008.4
16389
538.714
8511.24
7196.93
4363.18
12995.7
15098.7
13860.9
19821.8
23265.3
24141.3
11817.2
3120.75
273.342
-2783.42
-3288.82
1626.02
-5259.21
-3848.88
1692.28
-901.653
11501.5
15112.9
9248.01
1827.22
3967
-1061.78
2522.91
5782.64
12547.5
12718.4
7133.16
7149.53
18857.7
14411.8
-774.856
-855.154
374.727
263.589
810.395
-456.249
677.14
2185.21
-744.802
639.349
202.512
853.395
9303.68
11635.5
20876.7
27039.1
22876.4
50028.3
41017.7
17942.1
14809.9
4420.27
3060.33
20371.6
9876.97
7648.37
30910
31818.2
31644
32953.3
22412.4
14453.5
36236.6
57666
58299.7
83308.7
74204.8
74071.8
65234.3
44167.1
45560.9
26355.6
48333.7
3126.05
-7289.81
-8734.96
-2455.56
2187.29
-3817.69
-7128.84
-5767.26
-2608.26
-3915.28
911.431
-30.3666
-969.619
6961.04
6865.07
4606.58
-3597.91
-8327.6
-9211.85
-4797
-2633.04
1861.44
-2688.23
-4252.95
-4284.59
-4436.14
3302.92
-1592.23
4368.67
-1063.22
-2981.24
-5929.28
-3917.29
-6341.48
-7344.93
-4468.11
-7377.29
-2670.37
-6607.26
-12370.6
-11835.5
846.409
20532.6
46540.3
24269.1
20321.9
9458.67
9819.06
-158.135
2700.62
2651.28
-3295.01
3235.07
-1961.35
7303.06
5909.27
1416.38
-1444.96
-5289.7
-9241.25
2233.94
-2051.47
-6606.22
11796.8
8182.55
2735.09
18045.4
26954.4
29237.2
32853.9
47288.1
56289.1
83264
102474
105687
133151
85989
97762
85760.3
57402
29510.1
9355.44
25439.9
-109.364
-5315.82
-8993.31
-6765.09
-7268.88
340.696
403.023
-188.681
-5559.32
-1728.1
-1670.8
4407.03
4934.16
1235.56
2394.53
-5310.15
-4445.72
407.572
9338.33
8828.28
448.494
969.057
374.174
312.608
10773.4
901.402
4934.89
14959
11074.3
6368.77
6615.69
3880.93
-7716.62
-8035.67
-2341.58
-1294.1
3030.77
7612.23
25097.7
17208.3
3095.24
-2088.89
-9378.51
4365.32
3294.89
4549.99
-151.966
974.113
650.081
-5042.25
-1565.64
395.752
-234.835
-3812.69
4401.16
18441.1
27383.2
19525.6
3649.03
-1754.68
-4697.96
-7876.57
-4156.58
4042.12
11070.1
13807.8
-774.78
-3922.24
-2893.46
1001.92
266.362
-2319.78
7908.64
3663.02
1352.27
-2804.35
194.754
-495.179
1657.05
1711.61
-4617.23
1903.42
5484.94
5654.17
6428.4
2054.89
782.533
5320.74
-1578.51
-8818.5
5493.67
18154.7
-2353.39
803.908
-1263.56
-4303.17
1239.47
220.025
-1193.43
1373.06
-3434.18
1582.84
-2054.94
-2107.72
-1572.94
-1859.54
-2258.94
-1054.57
8575.65
12382.8
10215.7
-314.481
1199.94
16283.4
12722.4
21437.5
34939.6
21952.3
25643.7
65760.8
82752.9
90892
65178.9
63321.4
68968
95882.5
110593
83854.4
46618.4
40789.9
31930.3
74540.9
73559
61712.5
65916.6
50731.8
84499
85927.8
91114
85833.3
69125.1
35579.8
32890.6
48589.5
30540.9
38741.6
35878.6
36780.4
18449.9
23381.9
1430.5
-2761.76
-10988.5
-3676.3
2067.99
-5793.94
-1809.1
-613.355
-4342.51
-3040.41
-2276.59
-4890.65
12444
7962
-2999.41
914.303
711.254
5847.15
16684.9
36563.1
31523.7
57922.2
68502.9
73450.6
95578.7
66734.6
41628.5
41070.6
42679.6
36085.2
30283.3
9027.53
6604.95
8077.55
9978.51
-4185.16
-2085.78
-1413.67
491.369
-506.902
-2131.38
1627.02
-9350.38
-4719.83
1115.79
3240.92
-2267.01
-629.348
-3466.95
1480.02
8261
8274.45
-1143.24
7226.69
7509.22
7720.09
2104.07
2592.37
8001.61
26734.4
19844.5
32777.4
24335.4
34887.9
68684.4
35996.8
36778.5
36783.5
38526.7
30510.5
12148.1
11472.6
29129.4
28402.9
41813.3
26404
15475.4
2350.94
11038.2
4708.52
-2836.05
-495.269
-970.514
-745.511
-3932.71
5411
-87.8461
-3597.95
-4881.07
-4838.07
-3376.73
-2571.65
1512.53
1033.9
-1428.26
-1679.48
-821.059
-3961.96
-1356.06
-1330.02
-4820.02
-156.517
-44.1382
4259.24
10160.1
1098.08
-247.886
1717.99
3407.34
4440.64
13106.5
2937.39
6664.54
9264.89
21615.7
20022.9
20926.6
24839
4476.16
4681.82
1958.17
2105.26
-3203.89
-9140.68
-1367.82
1283.72
10244.7
16356.9
34933.6
16174.7
11593
3536.07
5663.52
8892.74
8793.39
12544.2
8533.33
19975
18399.1
19193.2
26200.7
21372.8
11504.8
13964.1
14628.9
27979.7
37485.4
37221.6
53651.9
37171.1
66831.3
64188.1
38923.8
36858.6
33179.5
14178.4
4805.7
7048.76
7656.64
16512.2
23686.7
4910.77
-3747.08
7443.67
3090.3
5028.68
5943.09
-592.445
-5254.43
-7681.5
10938.8
9588.44
4328.24
1276.31
-2090.05
6782.8
9045.06
14205.7
21266.3
63686
48322.8
62137.6
32921.4
26765.9
22668.8
17902.4
22316.8
24891.2
16397.2
32378.6
73148.5
91476.9
98234.9
102550
78845.9
40386.4
12049.7
2696.59
16572.7
-35.379
1622.66
2735.93
-1694.66
-3884.2
-9542.33
-283.375
5842.67
21013
34761.5
5761.84
-457.329
-4367.05
181.335
102.771
2301.44
-3026.77
-3379.27
-2133.75
-2267.86
-4602.57
-3557
2118.68
-2850.78
-862.904
-5719.78
6230.01
9208.27
15718
1446.27
7619.37
938.461
-2464.94
-2520.33
-4412.27
-1831.43
-200.632
-2368.85
-1733.44
8698.04
1836.33
-701.247
191.194
-721.376
2610.43
2240.98
16214.6
19969.2
26367.2
11195.7
14331.7
23704.4
37322.7
40920
79407.5
106080
86425.8
66083.2
45371.9
42359.3
39753.6
47889.1
24781.6
31029
39162.4
46610.8
52570.2
41210.6
43179.8
26381.9
14502.1
4949.13
5264.39
491.252
4103.52
5566.87
23676.2
17376.9
16597.9
5954.5
10613.3
8035.44
1460.22
1952.89
-2828.69
-2144.11
-2772.64
8327.86
-1436.98
11149.9
576.36
-2758.52
-7221.73
-2905.2
-4705.66
-3972.21
-1870.79
-5225.65
2537.99
-756.112
1772.82
3992.45
3735.37
2631.08
1398.26
3328.1
4787.41
6485.43
-13962.6
-2254.07
4423.84
9895.22
24646.6
25849.6
21335.6
14443.8
18919.9
15040.2
11279.4
23155.5
13575.2
-150.306
1214.66
1689.32
-127.914
7802.17
32087.4
26977.2
48470.7
20843.3
12582.3
11901.5
9064.99
16436.4
30149.5
19318.6
5346.48
405.725
-3060.78
2113.71
-1573.35
10691.4
6988.22
6930.02
8908.74
20884.5
23117.7
30253.2
17764.9
8663.52
7620.18
359.137
2756.29
-175.273
-3178.46
-5134.67
-2471.65
-2349.66
-2642.22
-4753.26
-2223.4
-7461.36
-5357.5
-10993.4
-1297.08
-7736.15
-3141.15
17563.6
15518.9
10101.5
10876.8
6426.33
566.323
1354.63
-3778.73
2384.6
-4775.67
1875.08
312.973
-703.89
-1185.66
-912.044
3706.4
8637.35
8896.53
24144.6
44410.1
37762.9
32131.4
34720.1
35365.8
25987.6
13427.6
26467.5
14983.6
28483.3
17472.8
796.522
38.3879
9276.34
2560.54
-1823.75
607.788
-44.2283
-4115.01
-1493.1
598.729
-377.636
-4723.57
571.031
-2520.68
-1286.05
-7063.56
-8498.24
-3158.42
-3840.69
1148.62
298.197
224.883
80.9283
6761.3
3760.96
12825
3078.6
-2734.45
-2282.2
4595.28
-65.4179
1679.23
2285.34
1250.8
-8427.52
-3003.9
-1300.34
-2263.85
-4196.05
5535.3
86.6592
-3712.2
3753.83
-177.749
-12028.8
-3833.87
-3229.56
11996.3
-1084.01
-2089.11
-5850.48
7184.9
11154.6
5440.44
-501.392
3152.75
-7120.32
-22743.9
-12154.7
-10109.5
-16692.8
-3120.43
3122.8
17687.3
13807.6
13563.8
10261.3
3859.56
1474.44
544.264
3063.28
-1528.52
-5442.09
-3411.12
2107.34
-2672.84
-2914.99
-579.313
-8456.81
-400.733
10042.9
4030.84
2637.01
-1067.11
-2066.48
-1805.98
2141.29
3213.12
-1421.42
2708.95
564.731
471.697
-4688.2
5782.38
8949.21
1889.41
805.452
7823.23
11105.4
5070.21
9893.32
-3149.59
-6400.85
-9839.83
-4659.31
-820.244
886.223
-6733.44
-2582.03
-8341.88
612.098
1859.65
-5822.74
-1516.7
-1864.47
638.282
-4877.79
-6720.5
-7029.08
-3766.04
1686.61
2925.79
6074.35
4857.79
2851.06
3166.45
1836.25
-2022.69
-2864.67
2090.26
1060.04
3940.66
-1990.62
732.95
-4138.03
6399.81
6432.94
5449.61
4269.35
-5508.21
-10297.1
-4879.98
1519.94
746.445
5015.97
5574.78
1968.36
3516.3
-4923.81
-10029.5
-3745.66
-12182.9
-10109.3
-5690.79
-2443.72
-8578.39
884.861
3618.04
7694.89
22972.7
36653.7
23531.1
26729
33637.2
19825.7
-592.674
680.867
3714.5
17248.3
6661.9
2826.94
17394.6
20558.6
22724.1
19052.6
16354.5
8277.94
3966.16
601.145
-9109.11
-8805.16
-4819.23
3762.7
3222.9
-3037.83
12930.5
13159
7319.96
18896.3
2722.1
24.5419
6272.92
5362.8
13621.1
14653.2
1944.52
1996.25
3148.12
16978.7
-602.547
20455.8
26037.4
24330.3
6827.94
3939.07
14635
8616.66
5397.36
10338.4
8501.8
-7383.72
-20046.2
-4028.76
-8310.08
13212.3
3418.5
777.056
-421.79
1315.88
1066.2
5052.86
10346.7
25.9655
-2342.51
-4397.04
-1697.03
-1474.13
3127.28
330.181
-506.352
-1135.54
-5209.58
-6665.56
-239.409
1930.23
3348.37
4605.15
25068
15807.8
2593.03
5143.47
-2567.15
-4754.06
3139.79
2887.22
-2089.36
-2992.28
-5538.57
1184.12
7539.23
8242.46
2851.39
1555.19
1358.14
14596.5
2856.01
17526.8
9321.86
5782.26
10621.6
1839.21
201.245
502.443
2719.19
-6799.28
938.166
5635.51
13986.1
24531.4
4777.05
2954.39
4946.94
6305.26
-358.997
100.314
-4950.59
-1417.26
-4012.5
7.03119
-1246.02
-1235.63
1078.58
1238.61
5.1818
-1419.15
-2062.88
-4681.63
-5152.81
-9405.65
-14212.9
-6194.84
7855.8
8209.98
12620.6
-9176.13
-6004.96
-17539.3
-7937.19
-3109.88
-10691
-5017.39
-2246.55
-10509.1
-8836.42
-1979.53
2158.97
1532.52
10328
7295.06
2301.53
-2062.09
-4626.84
-854.111
-2402.13
-7368.31
2790.62
-1695.99
-4773.94
-1587.86
-2200.5
-3196.21
1850.08
-2136.6
-8152.82
2429.99
-5011.74
-2425.36
-7932.21
263.992
9045.41
7123.33
18050.4
32853.8
26551.4
8892.43
11359.5
8423.29
22785.5
36215.8
33337.4
19103.7
38975.2
36701.2
63602.4
74280
82708.2
79149.7
72071.4
40895.7
16470.5
8551.84
9314.87
-1267.61
-5091.57
3041.28
11053.9
5779.41
5092.14
8447.51
18916.1
13761.6
10256.3
13573.9
5981.5
-2458.46
5113.28
38972.9
20106.9
11111.7
1419.1
2572.12
-173.804
4630.81
8626.24
13906.4
15239.6
20676.5
18094.3
22765.9
33759.5
55730.8
52639
43572.4
47457.7
60344.7
43497.6
25652.4
12344.4
12105.4
13718.3
21047.5
26317.4
22162.7
13500.8
10304.7
9050.37
3543.29
4368.54
8332.87
15804.1
20704.8
30347
58183.8
29983.1
25851.2
21301.2
12584.3
9701.32
3801.44
-11089.8
-4441.49
-1369.46
-9780.27
-11529.9
-3578.79
-227.671
5121.24
1062.81
-626.643
-1925.71
-957.987
-11980.1
3101.45
7852.67
3129.45
-1623.77
-5245.77
-489.087
1334.86
2066.99
-6791.87
-456.9
12343.6
8808.64
11253.6
17430.8
21195.4
23453.7
34084.1
44014.5
23143.2
6722.68
15573.1
19533
10996.9
10403.8
15559.2
2994.84
10877.1
1068.21
4968.9
75.0201
-110.486
-6589.65
2917.81
3285.52
11075.1
7723.31
7686.62
19565.2
17631.8
44963
93481.4
97574.6
115511
65790.3
73084.2
98928.8
109230
67071.4
74786.2
100348
82371
47883.7
36161.1
33233.2
31359.8
34146.6
29220.4
41587.6
44306.6
35612.3
16028.9
-2110.13
3240.63
11573.5
8246.56
8706.57
27227.3
34518.8
33637.4
7551.31
-2008.19
-4747.43
7131.41
3364.39
2133.48
-2613.92
-2699.25
-1797.88
3569.07
-4892.59
-7578.5
-422.067
-1632.45
716.71
-575.349
193.591
1343.59
3560.24
4559.81
10339.6
962.938
2881.25
1192.87
3618.99
2097.5
-2534.48
-2423.8
-6130.19
1717.97
-3826.14
3947.64
74.1772
2135.56
-891.058
-2668.36
144.778
-1263.94
-1723.78
2671.17
427.38
1350.42
-500.851
1643.99
-2915.54
-6179.25
-9285.65
2231.67
923.491
-580.234
1920.5
5542.21
11728.5
30678.2
10435.7
7887.62
4905.57
-2723.12
4689.83
12525.1
24994.1
33327.5
49317.7
58510.8
44818.2
19372.9
4810.51
7296.94
11999.3
9181.22
3605.39
-7156.33
-7774.67
-9308.55
-211.834
-120.19
-1055.01
-4371.79
-9932.18
-2502.15
-2492.85
6269.07
-9463.65
-46.4295
-7354.69
1451.2
7688.6
-2335.79
-3056.4
-2737.96
-2157.6
-1607.13
-6697.37
632.66
528.036
-667.632
-425.226
-1325.96
-4922.85
-2181.99
-715.271
-1365.43
-8187.33
-2933.04
-6242.5
-4048.32
-10804.7
-2867.91
-4314.5
-3845.89
-541.67
5916.11
2431.1
-5394.12
-10273.1
7506.06
-1405.41
-1457.27
-4923.08
4323.75
9468.77
928.868
-3118.48
954.998
3379.09
3079.91
-4682.42
466.085
1822.96
-1933.6
1224.37
-7394.42
4478.27
7811.04
18607.3
31618.9
18849.9
13221.9
23324.6
32165.9
28805
24657.8
25852.2
51376.9
44344.5
42689.3
23232.7
7972.25
129.312
550.604
94.2779
-1672.97
1326.62
694.461
3404.68
-991.614
2318.34
-312.731
-6945.9
-4254.68
-2673.12
-2867.66
-2368.66
-1658.27
-9028.66
4296.67
11003
-537.496
-513.835
158.911
-1230.4
-2201.04
1558.48
-1540.77
-1844.11
559.449
-2829.01
-1144.71
-1081.45
-4289.98
-7315.02
-3347.08
-1914.41
1542.68
3677.08
-1355.74
2583.26
-8058.01
-6912.15
-800.478
9778.3
11132.7
20573.9
23200.2
17691.5
7177.25
963.698
-4116.56
1767.35
94.7778
-4320.3
8519.36
2893.23
23471.6
28664.1
27294.4
7497.82
32604.6
33262
24414.1
16747.5
16388
24496.2
18793.9
12569.5
18340.6
8137.57
8979.24
-1350.41
331.123
3173.41
496.806
-4139.57
4193.11
-642.757
1794.71
9407.49
28829.6
26407
16727.4
9552.51
8594.51
18809.6
50682.3
49132.5
40176.8
28293.2
45140.5
61578.1
66777
25442.5
17512.6
11691.5
15527.6
21371.8
29505.1
52169.8
32939.2
27050.8
19400.1
18532
25549
23204.2
20296.1
3220.92
-41.3315
-9536.6
-566.071
-3237.67
-2462.37
269.527
1150.3
3023.79
5430.82
-2337.93
864.331
-1157.93
3689.1
7301.98
1823.53
8972.18
7084.67
7035.87
8537.09
8772.18
16078.2
33246
32110.8
39143.4
32277.5
32440.9
51616.8
18383.6
16352.5
27930.1
11125.6
16354.6
12801.6
6285.2
8573.42
-4158.72
4836.62
1092.86
9044.05
6995.08
-3114.03
-2073.59
-11301.9
-7738.92
-6086.49
-3519.07
-2095.65
-8213.71
-11837.9
-9191.41
-2341.3
-1040.99
-3583.1
-2528.78
-6369.81
-5486.38
-9455.18
-2775.87
-3136.91
7494.9
17310.3
19736.5
15230.9
38453.7
55199.9
35549.1
15926.7
10197.6
-5103.5
-3204.52
-4466.26
-9803.8
-2737.02
5964.66
4487.09
2445.73
4469.02
1844.55
-2689.18
3054.85
-2521.28
-1423.7
-5066.61
-9689.92
-11506.6
-8772.12
-8494.87
1905.91
-3910.01
3.56706
-5353.42
-4590.98
-898.971
3672.43
3690.05
1819.24
-4489.25
-9170.58
8288.88
16508.3
12241.5
26540.3
9800.26
659.206
6779.72
1738.67
12489.4
27263.2
41702.2
36863.6
46229.2
19746.4
11891.2
534.345
-2255.96
-5182.43
669.173
-4169.69
1041.35
-1513.82
-417.135
-914.85
-3789.72
-7120.54
7176.52
663.011
8543.13
-1811.4
-2867.23
833.241
5930.25
5742.65
21510
29892.6
24249.6
19661.9
4405.78
11815.8
-2320.9
-3122.93
-8637.8
-6836.51
-2957.2
-5399.34
640.959
8731.14
11027.5
7950.22
3986.72
2352.85
-705.333
-288.552
-1411.98
-1335.29
1542.94
5368.55
-4888.39
10758
4342
-4339.35
3107.76
4264.46
10679.6
4768.31
18599.8
19754.2
17255.9
8470.75
4945.72
-1675.01
-1620.5
62.019
3730.7
-3872.2
-2954.41
-1163.25
-3541.67
-3002.26
-3549.49
-2637.63
-2896.71
-8303.17
-14088
-3944.47
-1050.72
-3744.04
-1412.36
154.183
477.735
18.2231
662.151
9038.87
15705.1
11230.2
14815
11032.3
12544.3
16171.4
18364.5
9766.65
5355.12
7042.22
10634.8
10297.8
25350.6
32026.3
35732.4
21859.5
19406.9
20732.8
10776.4
19324.8
29034
33664.7
42407.4
21686.2
7896.61
2836.03
3245.93
10006.3
2064.36
649.859
4181.03
17664
6257.8
10007.3
4201.29
9516.83
8299.51
18924.7
29470.3
20771.5
48967.1
35781.5
21542.7
1236.26
-5803.54
-2346.35
-9398.01
-8014.47
-5232.74
-1918.21
1.94749
-1011.02
-7003.01
1437.36
9354.71
6302.67
10723.6
1379.05
-4908.3
1985.78
8616.3
11177.7
3589.91
-10904.6
5860.19
3051.09
6963
4457.07
7327.52
6955.91
15789.6
13266.8
6085.37
2583.64
1402.9
1214.89
1508.07
218.083
1812.6
-7014.09
-3002.22
-81.1499
-5413.43
-5478.37
1195.28
5765.02
-1455.22
7197.08
7287.5
-311.245
-4160.42
6062.57
11919.1
-1903.19
-8860
-10637.2
-8559.55
-6633.83
-8273.79
-4504.12
-2441.9
3478.92
16639.9
5148.76
9175.4
1125.45
409.741
13407.2
24026.9
13402.7
18187.9
15725
60181.1
71389.3
96124.7
62639.6
75920.8
47943.2
37895.2
22389.8
9336.08
-1627.45
812.334
-1799.88
1104.79
5780.47
-738.558
2258.76
-1298.92
3761.42
-4474.21
3814.23
24871.7
10931.4
7412.43
22959.3
16278.9
17467
17720.2
25534.8
10999.7
9823.94
12986.3
14727.3
22343.6
16875.1
7873.6
11401.9
-5325.72
-1719.28
-4608.04
-2916.49
-4092.96
-5706.1
-628.982
854.757
4639.31
18080.4
33097.8
50348.6
36535.9
12600.8
28008.8
38961
38103.7
38776.6
44328.3
37202.1
6668.27
-229.201
-41.5567
2521.91
-1458.88
-2030.84
-3211.83
1429.02
-176.564
-464.496
4721.34
939.996
-6497.35
-1812.72
89.7419
-2943.5
-4053.54
-3002.83
7959.24
6809.2
4368.34
12146.9
820.671
-10357
-2660.24
1168.76
4020.01
1845.53
-2171.87
-7217.66
-7791.11
5770.93
7412.96
3809.29
-10740.7
-5347.55
-6164.43
-4015.22
1788.3
9555.96
771.507
-3973.71
-4713.4
-4673.23
200.788
-1329.8
-2576.75
-2460.56
9462.12
8186.86
-5270.17
-39.3912
6109.4
11770.9
14289.2
6114.17
10898.5
9005.68
-11927.2
-790.74
-7442.06
-1084.87
-2494.57
-5775.39
-3388.5
-2434.73
2149.41
-5336.54
-2316.96
4348.62
1538
7660.71
-1437.51
-3348.81
1280.77
-2554.8
13731.9
7849.52
16644
841.542
7681.58
14218.8
14743.4
13030.7
16252.2
14468.5
7838.33
4744.27
-614.948
-860.727
858.817
5468.37
-2071.44
1133.66
9675.96
3065.13
9696.38
2795.57
-2929.93
-3759.34
-9626.62
-2622.47
7030.41
4387.85
-1922.61
9729.4
-782.117
-287.974
-5106.19
-2957.81
-3972.59
-6515.73
-5732.77
-1436.53
673.028
-1388.14
-6378.71
-1129.97
532.507
-307.075
-1381.77
-6112.54
-1286.65
19509.6
23473
4606.16
-1667.83
-7382.77
-9952.41
-9199.7
3078.04
35102.8
20438.8
7588.63
-4136.57
17548
44311.1
30534
23410.9
9675.12
15246
15238.7
21171.5
2918.18
-5993.03
-3374.51
-7415.53
-2822.63
-2061.66
-4620.92
-4748.92
-11193.2
13017.3
16796.1
11742.1
1494.4
-2455.92
-4394.39
1133.19
-7350.96
4979.46
18716
25003.1
39169.7
33541.2
28745.6
40184.2
37290.1
41062.3
35407.6
19320.7
10485.1
-5144.25
-2201.65
197.986
-4064.02
705.807
1836.71
1469.72
1258.6
152.723
-1569.15
-6686.23
-715.651
-4270.85
1194.34
474.245
-3859.82
7234.72
5386.65
89.2122
-2339.31
-7497.54
-2340.08
4498.24
1455.94
8955.94
-1328.74
15850.4
19393.8
5914.08
-94.0489
1678.53
3443.99
921.607
2141.15
10593.1
19337
17917.7
18063.8
24797.8
17036.4
12495.2
10821.6
3170.41
3362.46
14789
11442.6
1179.39
-2650.21
-1115.04
-224.996
-1827.07
-3084.69
-2387.08
-3242.22
-3705.63
949.195
9747.95
8925.98
4808.9
10000.1
13621.7
-3120.85
949.28
-7416.84
-1282.06
-3105.26
2692.57
2488.17
-7574.68
958.131
9484.47
13140.5
7978.13
3064.97
-1915.24
-3901.8
1658
-9598.07
-4641.59
-4791.25
-2655.86
906.386
-1445.74
575.896
8741.44
8543.16
18033.5
10331.8
-5137.73
-2338.13
1909.71
16002.7
21638.6
13293.8
2658.76
15097.3
12990.6
6325.83
4642.26
7078.5
29262
5885.03
-3963.06
-1062.39
-5909.24
-2917.01
1945.61
3708.65
565.668
8499.11
8835.06
9780.1
8197.52
1176.99
-6148.1
6783.82
1547.28
14245.4
4076.39
-681.722
-716.931
3.21446
-1600.27
-6065.83
-725.167
253.8
1447.27
-3857.31
1863.99
3919.12
16335.6
17719.6
28633.1
44444
57862.1
54579.3
44231.8
34157.9
15432.3
38346
48204.1
40829.2
40140.3
63632.3
57524.9
57142.3
38056.7
29621.7
43380.3
64160.3
74356.2
51402.7
50611
48526.6
49306.2
76533.6
40585.3
49417.7
31040.6
52415
62886.1
63729.7
77245.2
59065.9
80078.1
97755.6
52350.5
42073.1
27222.2
50789.6
60408.2
60513.3
45588.2
76934
49325.7
28943.8
25302
48288.7
54363
48441.1
41763.8
21288.8
-2728.52
5360.41
3342.16
14.0654
-3454.01
-2979.41
-571.387
65.5385
-2884.72
852.444
-3180.67
6015
14902
34926.5
18421.3
-1010.25
2704.41
-2062.05
-4060.8
-1713.63
-2767.13
-1314.75
-1381.06
3047.01
4270.37
7989.07
4799.99
-2857.31
9616.42
937.347
2021.24
-4624.43
-1974.54
1320.8
2858.58
-4362.57
-6739.47
-19078.8
-9780.29
-2681.94
-3309.24
-6391.43
-7946.7
-5112.85
-5088.42
1505.56
-620.356
1593.38
3719.69
-1799.53
3650.51
142.248
15947.1
9985.22
12789.1
24909.3
17849.4
22582.7
26017
45262.6
43407.2
28094
21979.7
6284.51
2255.98
2457.62
-1179.9
-4051.61
5060.97
2684.05
15972.1
31613.5
32844.3
14816.2
12872.3
12146.7
6410.78
6629.08
8628.41
20264.4
30401.5
27384.5
39816
23114.4
46015.8
25760.1
6916.67
10612
34514.5
5209.68
2684.51
6448.65
6136.24
-1609.23
5156.71
4723.23
-3818.67
-2748.57
-6095.71
-4511.24
-916.628
-3774.83
1922.54
-1661.52
1365.37
-3662.75
-773.875
-2390.94
323.727
-2889.1
34.4056
2812.05
1244.89
7971.5
17461.9
24807.6
18451.6
8430.8
2080.11
12569.3
292.375
3376.46
-3063.97
3981.75
17024.5
22696.1
11070.2
13259.4
17978.5
16249.8
7593.34
38.4204
8231.39
20113.2
21587.8
-4737.47
-6139.96
732.622
804.398
-80.5443
-600.586
-2743.81
-7420.63
-1845.1
2082.85
671.188
-1206.21
-2121.17
-884.106
-4916.04
-3161.93
1017.97
-6676.73
-2722.24
-1037.96
2404.64
3435.63
-1645.72
1349.73
5178.29
15566.7
18289.6
50388.4
30180.7
19312.9
33302.8
44546.9
53765.6
28789.7
40499.6
22555.8
34335.4
42080.8
27653.2
20904.8
26003.9
16787.4
34798.9
18703.2
8484.25
21957.4
13264
11478.1
4018.82
2296.58
-2413.74
-6621.63
-1146.16
-5583.3
-271.855
-6534.66
-4827.93
-4070.15
-1730.51
108.199
-1882.01
1107.07
-1439.2
-2754.29
-3162.06
-317.829
-4648.77
491.555
11503.4
3076.19
1746.76
-6147.94
537.909
725.372
610.757
145.859
7906.9
76.4677
-1027.19
3244.41
-2194.78
-3209.79
5734.19
2720.46
4828.01
15025.4
-712.835
3026.2
-8011.25
-9389
755.615
8468.13
3352.81
-6831.21
-2260.78
-684.948
522.661
11033.1
30282.4
34883.5
21714.3
6866.63
2368.66
5430.93
13170.3
6311.09
2331.98
4659.76
-4350.08
14546.9
4276.75
6264.32
16211
24801
59453.1
54588.6
40696.7
19353.6
20559.7
21592.9
11825.5
6147.88
928.73
19941.8
6628.91
16568.2
21885
16637.8
16377
13334.3
9139.42
11794.5
14985
-96.8905
2095.32
-1034.69
-2381.1
3508.77
-1263.25
-7466.3
8823.81
1237.13
5140.78
7248.08
-21.4098
138.552
-3789.73
2353.69
-1249
-3500.99
-2792.21
-10765.3
-8361.42
-1692.71
1501.99
1867.42
1623.34
14785.1
10173.2
19042
19942.7
17144
29100.3
25547.8
29145.3
21317.5
6176.75
2139.8
3255.62
3541.03
35.8507
5199.73
399.738
5882.67
3123.05
682.42
9988.79
27191.9
63819
36957.4
43671.3
52009.9
32836
17076
14064
7954.79
3401.43
1538.38
-426.206
-303.56
6376.06
-3304.38
-1606.12
789.928
-454.673
4031.61
10452
12669.6
7238.62
7901.28
100.974
8233.14
-3096.26
-2371.03
-2756.74
3242.6
4383.48
9371.17
15885.6
4481.14
13466.3
-3768.12
-797.427
-4789.31
-1246.15
1417.41
3498.6
-1293.14
-7678.97
-7409.51
-5755.43
-15961.7
-8003.04
-7071.44
27.5753
611.068
-2468.83
-4880.79
10448.5
17351.4
2996.31
16266.2
2878.7
-3621.35
9228.03
11049.8
9725.31
14337
12031.7
33240.1
23188.2
15982.3
43012.3
49783.4
51110.8
61145.8
89496.7
95974.1
110325
109024
82891.5
103091
107348
98928.4
111779
81146
78101.1
62740.3
68617.4
79739.6
99540
50495.2
86000.2
95235.5
85880
32155.6
21341.3
12754.6
13122.3
10980
2886.72
4325.1
-524.831
3524.64
1491.33
-4705.26
-2063.89
-5767.36
-1533.32
-3246.48
-3937.81
-4190.57
183.899
-122.113
-106.714
-2044.58
-2490.17
-4049.3
-6484.43
-2721.75
-227.359
3263.32
4417.54
3321.43
5923.78
3778.8
9358.59
16701.3
11140.3
7517.04
-4171.75
-1936.62
-4473.68
2885.01
-3756.73
-339.341
4499
205.267
520.428
4676.06
10382.8
5002.58
29880
26741.5
10899.8
409.837
11401.9
28755.9
41341.7
36431.7
19279.6
20853.1
29369.3
29263.1
27007.8
26534.8
41710.5
67581.8
68531.1
61419.9
45067.1
35409.6
37155.7
20796.5
21451.6
33774.7
12221.2
12183.1
23349.8
28290.5
15421.4
-1954.78
13932
8495.16
10776.9
11628.4
6735.64
-418.269
3441.01
2009.21
-1107.14
-2914.6
-4008.22
4570.32
-373.632
1721.73
-9201.33
174.191
-10263.2
-7800.59
-2530.37
3896.57
4045.3
-4282.12
-5128.52
-3682.55
-9383.36
-6612.51
-745.92
3298.29
6790.9
20233.6
27723.3
20917.9
23815.2
5856.24
1221.28
-177.459
-2444.78
4312.78
-186.876
119.023
-2216.03
4766.35
-1938.81
16971.6
19279.4
10004.5
7655.06
12203.2
1846.75
-824.134
451.586
-858.379
-6480.39
-5496.12
-13483.5
-5372.18
-6944.78
-6542.99
-6250.81
-1844.53
171.26
-1733.64
612.243
-4033.26
-6862.8
-12057.3
3201.47
-2494.66
15900
15764.6
20654.6
14928.1
21079.1
44463.5
26295.4
16216.4
15797.5
-7804.76
-6504.34
-5207.79
-1086.15
15837
10279.1
372.172
6573.75
2858.15
2946.83
15500.6
9538.37
22645.9
15737.2
15606.1
31707
8166.38
4495.15
-959.577
-2930.76
465.653
-810.553
-1810.12
6435.45
8005.39
2573.53
-284.882
-11162.6
-2330.01
1671.07
3209.14
1160.88
4229.71
4355.39
-340.122
6828.64
-181.316
5687.91
2943.24
-3722.98
-9173.51
-3195.79
1149.04
31387
27137.8
19966.9
13601.9
15336.3
-10994.4
-7942.44
-7876.48
-4274.18
-5503.77
-1865.38
3053.6
-464.264
47.3964
12080
6085.76
12775.5
31116.6
26541
17684.9
13056.5
4608.44
-181.422
-2875.83
-3925.37
-6482.24
-7262.99
-5107.82
-9461.11
-3653.03
-8520.11
-1058.4
-1499.92
236.163
3366.21
11356.4
4811.85
3693.7
12.9851
-4344.33
-3997.09
-3916.44
-2346.18
-3494.39
-11259.9
-16056.8
3261.41
-9372.96
-3728.19
-1460.07
-3234.7
-205.547
4540.47
89.6436
-4609.18
-2525.1
92.6499
11628.2
8073.89
3053.03
18625.3
4376.12
-1975.38
5780.02
3524.94
-9020.51
-9185.27
-6557.86
-3957.84
-4548.31
1019.98
5496.99
9323.91
-5810.42
-8652.57
-6247.93
1736.23
-216.34
-1208.32
2829.18
6232.85
10524.3
-1203.27
-5426.08
-12082.1
-5437.47
-2934.81
432.211
-5030.06
-2906.53
-4663.36
-1262.59
133.446
15814.6
41803
36404.4
22451.5
16477
11925.7
3973.25
2879.62
1728.68
5188.09
7112.48
1674.33
-4809.9
-14398.8
-2063.4
-5759.4
3037.85
-91.6046
-1414.49
-2799.93
-3545.6
4656.54
-1740.79
3680.58
9092.66
2044.77
2161.18
-4394.17
-2917.02
2460.43
9137.79
4278.67
7243.28
2632.96
3583.54
-5730.51
1067.47
29919.4
27583
38951.3
26517.8
35065.1
25165.6
11517.6
16914.1
8337.89
-1682.07
1777.51
-863.288
387.782
1191.8
5131.39
13335.2
6121.11
1582.46
5804.92
4132.86
-874.726
4672.86
9389.71
3640.21
14469
12073.5
23466.8
13158.1
18389.6
3036.73
11391.5
19387.1
22890.5
18008.5
19655.7
31090.6
17102.7
27545.9
20441.8
31676.9
24242
5807.23
5790.45
20903.2
40959.1
19887.8
7872.06
17003.8
26393.8
19721.6
11201
8020.96
10314
5745.21
23253.5
33043.2
21324
15080.6
9025.54
-11400.5
-3621.12
-4345.55
-1158.68
-1499.83
3974.87
4551.3
6561.91
10567.7
10543.6
-4696.85
-2103.37
-2642.86
939.454
-7.09253
-18.9177
-1199.43
-5631.01
-3909.71
5070.01
12674.3
9647.17
43.2793
-1049.63
-1841.63
-3951.8
-4940.59
-3638.35
-1122.37
-4498.21
-2622.46
357.556
-2934.43
-240.028
-717.2
14073.7
28196.8
27652.6
35785
13331.1
34842.7
35964.3
50436.8
36289.5
51827.8
66442.6
57556.5
43946.8
33671.2
34451.2
17910.8
35011.2
23770.6
377.71
623.928
-744.998
-3933.94
-2932.2
7890.64
-1558.62
-6509.28
215.234
6505.94
2508.81
1309.85
927.002
520.165
431.357
7777.79
4223.23
-4643.38
-576.569
-3049.54
-11947.4
-9065.73
-814.987
253.97
-4469.32
-3962.99
17775.3
8829.42
6261.16
19288.6
19055
22029.4
24375.5
9531.25
-715.511
670.984
1339.72
3352.23
-3292.3
-12215.5
-5940.21
1133.21
-3558.06
-540.527
-1871.39
548.338
-3527.59
-2522.24
-7404.73
-7966.9
-5913.89
-6173.89
-4515.18
6958.94
12378.7
10114.1
10378.2
8746.09
8223.46
-973.354
602.838
-1778.98
-3817.56
-196.836
-6065.45
5613.61
1933.27
13183.5
12255.5
37785.5
36651.5
37623.7
22962.9
9977.29
10605.3
10218.6
-3768.12
1359.08
2433.4
8879.59
8871.22
15717.8
14614
7106.1
2571.92
-363.363
1598.49
137.677
-7572.58
901.942
3413.92
3207.54
1700.08
-2429.98
-871.675
-3053.99
-2977.32
-3424.31
-3393.81
-3319.76
-5450.55
-4348.55
77.0894
4023.65
5018.62
-4536.15
7958.47
1657.51
-8248.13
-5109.74
30.2904
-166.719
-2650.33
-1788.98
693.806
3635.82
11412.1
8268.76
-73.8684
-216.794
-1875.06
-4036.47
-2768.8
5038.74
12155.2
1400.61
-5330.14
-1192.75
-1226.09
2357.14
-178.999
-3046.33
6872.4
-470.444
-2576.97
2613.15
2072.19
-2727.87
2111.28
97.519
-1166.89
-2361.84
290.69
133.761
-17175.4
-6210.09
3223.43
644.255
3459.84
2314.57
-12095.1
-2235.2
-3031.68
-3247.83
946.643
2995.19
4615.56
19725.1
11753.1
5231.97
-8406.09
-7254.79
-905.495
3314.62
-1721.79
-236.136
1156.1
8084.06
11534.3
19080.4
40252.4
23989.8
21460
17958.7
16914.4
-3860.22
-3448.16
-1771.38
-182.764
814.838
-2195.68
1207.59
-7052.55
-876.534
25872.3
34373.1
56995.6
85744
60090
33302.7
30325.8
30146.3
12833.9
22581.5
22767.1
24323.4
24540.2
26334.1
38383.9
27849.1
37460.1
33765.9
34826.5
16071.3
14572.8
19643.3
-1810.3
-3338.34
-2875.96
-1488.26
-3597.48
1504.4
4407.55
-1099
-297.557
3509.88
3421.79
6595.91
4239.64
-290.96
5259.76
1132.45
-922.79
401.82
-309.568
196.233
-8589.27
107.303
656.018
3068.86
4767.72
4205.1
-9548.34
-10400.9
-10604.2
-9643.56
-14194.3
-4917.67
6242.28
7195.1
2422.69
-7832.6
12949.4
7948.24
4862.67
-2608
-1716.84
-1709.01
-1751.89
-4257.78
-3422.41
351.437
4925.44
-902.306
-6565.97
113.908
-3860.39
-431.984
15177.2
22659.1
11383.9
6088.31
9980.6
4720.65
5148.39
-1376.2
-3468.61
-6994.38
1386.34
22861.5
24411.8
30081.3
34784.8
46739.2
40564.9
29926.2
17742.6
5941
3334.91
353.104
-407.819
4628.78
3216.79
1148.87
553.841
-2103.6
-3219.43
-3042.7
443.905
5366.96
10479.6
4224.82
-145.528
-1943.87
171.599
-13121.6
-12897.6
-17251.7
-19710.7
-9513.91
-6965.88
-7140.85
-3580.28
-1841.48
-96.1978
-1191.81
-52.3
-1750.82
-1746.16
500.867
5299.23
11511.6
2415.51
11366
15501.1
6880.73
576.737
977.11
1741.45
6504.46
-4146.59
-2575.79
-623.496
-2862
-5332.36
-1886.79
-32.1722
19303.5
-4862.4
1413.04
23102.1
29312.4
34917.4
47433.3
56113.8
38900.2
18570.8
311.566
-3665.27
-1478.64
-288.498
-6119.82
-3250.71
1572.73
1299.77
3209.42
-4210.42
4388.63
4578.17
-5045.67
-685.271
7247.4
4010.32
10109.7
14428.6
5518.83
104.205
2451.75
-7360.22
-9451.06
-843.527
-769.013
-706.2
-371.592
1530.91
-2305.36
4576.96
-14346
-7392.27
-6318.91
-5398.55
498.916
-4241.95
244.381
-261.732
-10513.8
-1789.15
-2331.01
903.277
-1224.15
-7917.21
-2783.25
-6243.93
-5483.71
193.513
-5992.1
-2526.21
-3030.73
2251.47
2811.02
2968.92
3943.8
11366.3
8960.19
10160
2802.71
7048.64
30677.8
44581
46497.4
35552.3
50939.4
44329.2
22308.5
4219.03
18114.6
4221.14
10563.6
16989.5
20543.4
22367.2
39884.2
22145
7310.03
13127
17108.1
11849.7
4772.62
-2605.82
3239.27
-1176.67
570.888
4722.59
487.401
-2559.41
-5568.42
-1764.27
-494.146
2530.27
6896.48
7805.19
4702.37
-3250.56
12495.7
12137.9
5295.57
5244.48
16870.7
14730.1
5183.33
1355.04
-2163.34
2352.08
4766.32
3803.33
273.994
4076.18
1225.65
-6279.52
-1409.94
-1862.32
-4035.16
-17166.6
3787.35
7634.86
8442.5
8114.15
1042.26
11949.4
3106.33
-4150.2
3635.23
3491.38
7945.4
1220.34
6647.62
15269.1
10624.2
18653.6
30436.7
22372.9
9048.12
18618.8
24659.1
31541.3
22898.8
9106.81
-5859.18
-1238.81
-721.976
5336.76
10916.8
14386.3
-4498.98
-1742.75
1612.03
-2759.96
-163.054
19791
12173.5
25398.2
28119.1
40575.2
48464.5
19918.4
27512
9280.54
4985.26
5701.66
14207.3
21890.3
2510.49
-211.617
-2858.09
68.2654
-1145.24
5883.22
8349.41
6785.2
-1921.22
-5942.77
528.938
-139.629
-779.049
2668.7
7979.04
37269
9306.87
18599.8
24801.5
29567.8
10292.2
6237.04
-1893.98
-4284.25
13395.6
8717.89
18785.8
30271.4
22628.3
32066.2
33623.1
-1108.16
3154.06
8555.42
24106.6
22897.8
24863.3
5386.82
3475.03
-2414.23
10108.2
-575.054
-9021.43
-663.176
-2842.02
-2255.74
-6209.06
-6325.28
-7145.95
-3835.65
745.367
-3972.57
-6049.2
-3396.41
2280.51
599.458
-5334.73
-3876.31
2377.31
2430.62
13788.1
9942.18
-814.56
-437.335
-1655.32
-5341.16
274.314
547.106
-3362.42
-3589.94
355.013
-4553.1
-4565.23
-2092.51
-649.196
-339.269
-2067.49
34.4671
16.1853
309.404
24.8394
-9392.37
1338.87
-866.393
-1862.74
-4080.35
-6189.09
-4396.52
-1370.83
-2675.7
1944.62
-328.206
527.324
-1379.11
1001.97
-12205
-4645.26
-6959.18
-3762.32
-387.233
20.5865
2347.25
-3227.32
64.1667
-6468.38
-4228.27
163.343
-4913.27
-2310.08
-5852.83
-1962.54
-887.153
-3038.45
-2407.83
-8436.23
1807.62
-7160.94
810.557
570.385
-39.0008
1808.26
7349.33
10818
9467.19
20773.4
11434.2
6084.01
3833.84
-1164.23
-1521.11
7317.76
8357.69
11687.4
18234
16001.8
11048.5
23087.7
3859.72
4540.8
-269.472
-3174.48
-2705.35
-7695.56
-3333.4
328.364
-3112.22
-2433.55
-4580.37
-6642.83
-5483.22
-4760.36
-7017.75
-3067.24
-9042.81
5575.04
-1409.17
-1749.3
-2618.97
-231.98
17173.1
8941.36
4327.14
-3874.93
-1431.66
5282.24
4443.98
8764.38
2829.77
-296.327
-201.393
-418.071
2492.79
-565.593
4777.54
2132.79
-1649.92
-459.532
5587.95
7522.74
3139.93
265.51
-1079.04
762.067
2195.68
2961.54
12329.3
22416.1
39588.3
63461.9
61432
27230.3
58456.4
86658.4
40925.9
36345
65728.2
65265.9
62925.4
62000.6
43119.5
49232
70411.6
106321
139009
147144
105638
105409
142214
125188
129651
155060
138511
120438
87347.9
73055.7
67245.9
62918.6
72015.1
65075.8
70287.1
42930.2
55949.4
38489.3
26595.4
22996.9
18643.1
27076.7
17858.3
13079.3
16126.6
-1541.38
6035.69
5481.99
254.223
-2157.2
-1313.13
-1222.66
1740.42
-571.683
58.2011
9605.37
-1355.86
3033.96
-2232.09
-2555.68
2359.86
360.215
3191.88
12877.1
15299.9
4957.31
-6995.65
-6489.38
-1874.89
-7411.58
-340.194
766.006
-2301.3
-4268.09
-13738.5
-14489.5
-12801.6
-10654.7
-15222.7
-10762.2
11529.2
-3844.23
-1365.03
-8993.79
-5674.68
-6761.14
-4059.3
-5989.37
-1132.77
-4479.68
3357.22
-566.809
-13.8737
-2743.88
-5083.97
-5161.92
-4922.33
705.369
-7416.34
-170.303
2965.83
-2665.98
182.5
13042.4
878.563
229.894
-109.484
-1384.55
447.723
-2171.53
-1514.87
205.604
-2138.45
-6043.16
-4005.3
-225.803
-5186.54
-6169.68
921.167
-5727.79
-273.344
4642.77
22476.5
21304.2
38661.7
22066.2
30483.4
24489
10617.7
-468.195
-1934.58
-6784.19
-4744.9
-1805.16
-334.813
-3953.1
-10510.4
-758.402
-5693.46
-4967.94
6457.12
6272.97
5950.03
-3298.22
-1681.94
5967.57
2256.4
-3808.63
-7318.7
-162.267
-955.546
-2514.55
33.5895
7702.94
-2429.42
3921.16
1902.44
11317.4
3211.97
7037.25
-851.297
-5147.11
-2296.93
956.681
-5837.94
-1477.18
-4158.32
-5584.48
-2466.85
-1374.69
-776.823
3673.61
-2883.61
-2913.5
4297.04
2009.65
-9992.17
-1667.81
2090.47
-5454.69
1188
1539.2
374.93
1586.22
9149.27
24918.8
9344
8661.29
1738.8
13989.8
-6031.4
-1318.21
-5009.04
-3166.75
-5276.5
-5569.61
4722.2
7691.18
5887.3
15733.5
10979.3
-3863.39
-4998.59
-6356.57
-2290.54
309.289
-49.7228
-8587.26
-5915.39
1511.99
1230.79
1168.18
-2800
3178.53
2494.21
-6972.5
-1306.16
-2468.83
1225.36
1004.37
-2881.3
-2861.25
-9165.27
-8182.17
1754.21
13572.8
-1752.04
-2714.25
-3164.22
4978.54
500.202
-1621.28
-110.627
4948.13
8750.15
6142.26
7005.67
32114.6
33226.7
22377.7
20999.4
13695.1
19999.3
15863.1
4688.21
-4071.26
-8434.1
513.817
-1000.55
-3740.1
-225.6
2274.96
1641.23
603.004
-1923.56
1441.08
2337.5
4804.04
-5759.32
1465.29
773.946
6542.23
8132.15
21000.5
73374.7
29942.7
12824.8
7632.01
21572.3
40010
20599.3
13469.6
8842.45
4068.52
916.833
3419.22
-4280.32
-8144
-4892.05
5432.34
7110.5
2919.36
1832.46
19474.1
