-5250.59
-1750.7
-1172.78
-9184.52
927.24
-1164.68
-8913.53
2276.73
-1868.16
-1362.46
-5363.45
-2781.38
-1648.51
-4525.05
4263.96
4517.48
6588.35
14570.2
25806.3
950.061
9550.91
22405.6
-26.8011
12067.3
12978.4
22937.7
8301.63
13810.3
24851.3
17829.4
-2095.73
-609.214
772.962
-768.932
947.477
-820.54
-7668.22
2232.48
-17578
-14532.3
-20613.7
-9414.56
-13243
22741.8
5612.34
-13330.8
-17949.8
-29870
-34042.7
-23893.5
-14044.3
3548.06
2504.63
44499.9
56500.1
93018.6
62488
84318.9
93479.5
135220
128967
126308
93036.4
76873.1
79014.1
71857.5
37786.9
40790.4
45830
22923.9
22609
30866.4
33309.7
11006.3
23069
-2568.26
8417.54
5676.31
8525.72
-1142.5
-3374.46
-3985.2
-9210.09
-13007
-1049.75
267.492
1241.14
-12786.3
-5382.96
-1575.86
17229.3
21337.8
46392.4
53562.8
-1640.43
-23684
-21978.1
-14595.9
-6416.42
-1429.61
5058.3
5680.46
475.965
6897.8
6693.48
-9630.86
-11981.3
1287.43
-45330.9
-28201.2
-34197.9
-43139.9
-39000
-23510.5
-25524.6
-12031.1
-2283.66
-8853.33
-5449.17
-3052.18
5274.17
9699.81
9762.59
12625.2
12514.1
-2994.95
-5323.88
-3425.44
-5342.72
15291.5
4638.12
16599.6
28195.8
30985.8
8095.65
24107.7
38293.7
23007
26437.1
1971.6
-2827.36
-7259.53
-25797.1
-23357.4
-15817.1
-35949.7
-42004.7
-5914.12
1129.38
6353.37
21277.6
20060.6
19473.1
36339.8
38344.2
36196.2
38384.2
25628.4
21707.1
25516.2
15804.7
7523.03
11614.3
27787.5
-2773.45
23477.7
43007.2
23934.4
17054.2
33921.1
47770.8
37174.8
55150.8
33326.4
24057.2
28703.4
25861
13667.2
10669.7
5142.15
9603.33
-7171.33
5338.69
17510.4
35370.7
5059.06
10566
10415.8
-5898.08
6979.15
10364.8
6092.77
-5959.76
-14116.6
-14125.3
-13887.1
-12276.6
-18205.6
-16377.5
-15365.9
-7956.86
-27778.9
7013.42
-3078.68
-1526.24
-6534.41
-1368.57
9045.11
-4817.79
-8716.83
-8675.32
-10764
-18087.1
247.24
-1860.98
-3326.33
678.838
3879.46
273.449
2591.3
-10222
-8018.92
6970.36
-3851.43
-1281.03
10062.5
27770.6
28264.2
25483.8
44879.3
49927.7
48623.5
50986.7
30373.8
28063.3
19395.8
24063.4
4121.14
4705.95
-1202.28
-11512.3
-3007.58
-18729.7
-27823.5
-35609.8
-36663.9
-24146.1
3155.4
-2374.19
-16949
-26424.9
-8514.78
-6969.97
3571.89
-4901.79
-4113.61
24130.9
18753.8
-4838.42
-2056.23
-4320.28
2854.62
13450.8
-2320.34
-7133.43
-5187.64
-1569.98
-3909.71
-8064.92
1523.57
-11190.4
-5198.56
8845.76
332.021
-3068.08
-8878.83
-7921.51
-11139.1
-19542.5
-10452.3
-4252.72
1244.11
-5315.4
-3133.21
-2801.19
3022.71
5292.53
850.182
-8669.99
-10625.3
-14361.2
-4665.82
-11122.9
-10491.6
-10011
13177.9
10832.5
1154.58
-4570.41
9560.28
6266.91
-152.188
2163.47
-14441
-14661
-7220.35
-945.228
3235.83
-1353.32
1238.56
428.897
9690.67
10406
6948.08
-3227.9
8520.52
18902.4
-1516.01
-7249.81
-1413.11
21228.8
6282.44
19720.2
18331.1
283.464
3688.72
471.526
-6924.77
-5479.29
-5143.87
-4164.49
-2506.14
3550.26
-4678.84
-10996.5
-13388.2
-2363.89
-7620.04
-14895
-12379.5
-1625.54
-3841.59
680.023
6048.13
-2285.08
-6901.91
2882
-133.876
11709.1
7179.13
9051.37
3616.95
9831.95
19157.4
10304.1
15329.1
8386.67
-40.3067
-4886.29
-1810.37
20861.1
6068.54
5982.36
2520.62
17044
34997
48211.6
22266
-10037.6
-12621
10068.8
27512.2
23482
33840.1
15521.6
27936.7
9123.27
12039.5
3950.77
-2538.67
1551.79
3999.79
5388.55
2704.85
-4821.76
-457.153
-2395.68
-3976.18
17580.1
18853.8
40.401
5544.21
1655.92
10008.9
-6264.57
-13877.4
-16842.3
-5331.36
-2819.72
-7217.17
1972.74
717.222
3699.59
8208.23
14949.2
41397.3
32574.6
44195.2
14243.3
25731.5
20603.1
14222.7
23820.7
21980
31839.9
34434.5
18005
26560.6
23790.8
52977.4
-558.763
319.482
31162.6
34256.2
3809.33
13807.3
13688.9
25338.1
26248.6
21651.7
56444.4
60977.9
29965.1
42108.4
77623.6
28498.7
36299.4
27871.5
-735.753
54149.1
51406.7
44717.6
25996.4
54372
43401.5
77886.6
46843.4
18329.9
32835
18325.4
5783.96
3734.06
-416.525
-11726.3
699.935
10206
-4145.68
423.356
-8233.78
-2053.37
7346.21
2928.72
1221.7
-4560.11
-165.977
2659.02
4948.93
3805.67
-9160.44
-4725.55
5389.72
15574.3
11160.4
13268.7
20655.7
31644.5
15170.6
-10169
-3743.03
6330.36
464.584
-8238.73
-2640.65
-8168.83
-7622.78
692.917
-23734.3
-13670.6
-7243.05
-2683.97
-2314.67
5692.74
-158.96
274.187
-12404.5
12470.3
5052.59
-9825.74
3519.69
16436.9
34077.6
51730.9
86449.3
92413.1
92145.6
82892.4
81906.9
68427.1
40261.2
38987.4
75894.9
79861.8
62008.2
62127.5
43142.2
43061.6
19123.4
37706.8
-4847.95
-9640.43
-48155
-46607.5
-26531.7
-19754.4
-11890.9
15143.9
5577.56
6316.34
1714.01
4965.83
11176
2240.23
-2875.82
-4768.65
2343.93
-5597.39
5375.02
10225.5
3820.51
4381.57
9539.01
6994.59
736.478
9914.19
18346.5
4042.2
-6742.94
-10279.6
-19450
1850.19
-4413.44
24300.7
5711.75
2035.35
661.439
1112.64
9555.84
-7948.46
-8508.04
-11570
-2550.35
-33026.8
-30241
-61400.1
-57898.1
-45827
-65736.3
-59479.3
-65774.1
-46181.1
-18066.4
-19042.6
1903.3
12804.5
1265.45
14889.1
-4386.95
6554.95
24126.3
17097.9
6110.19
13643.3
4722.12
-6183.64
23000.9
26826.7
20208.4
5448.9
21866
23341.8
9655.23
-131.947
-7457.5
9723.43
-2290.47
14553.3
6930.48
2255.41
1938.8
-3094.41
-12856.4
-20934.6
-29058.3
-38152.1
-39790.5
-43926.2
-31548.9
-18640.2
-19150.2
-14705.7
-1947.34
6831.62
3053.07
19253
5584.8
30947.5
39113.5
29686.1
12791.2
10921.1
24955.3
19085.5
32543.1
23799.6
20455.9
777.622
-3456.31
-16350.2
-10617.7
-13104.1
-11734
-6282.15
-11176.9
1011.87
10194.8
3079.66
-1869.31
4705.5
-12093
-4945.19
-8418.32
-11089
14261.4
28977.3
32938.4
36847.7
29693.7
16985.6
10396.8
-4181.26
2902.25
4719
6759.86
5850.03
-10136.6
792.528
-8154.62
-11673.9
-8474.29
-43414.8
-27988.9
-1205.59
14929.2
-757.721
-8736.9
5049.92
-5622.41
-18008.2
-22819.7
-20899.3
-13349.9
-10600.9
-2622.11
-7359.94
-15553.3
-9746.52
4773.64
2479.11
7491.42
2758.06
5463.69
-787.008
-16074
-38759.7
-17013.3
-14458.3
-6936.33
-6394.18
-1565.49
-4002.21
-2085.81
13662
10752.8
6325.06
21206.3
15708.1
32676.7
44799.5
26992.6
34877.9
16672
10191.3
22544.2
18045.3
38824.1
35172.1
39690.4
42995.4
42552.3
41220.6
24899.1
33989
35893.5
37453.7
21749.3
-526.851
30000.1
2526.18
-14163.1
1461.16
-8090.93
6443.67
14322.2
14190.6
-2854.03
-20894.2
-18234.1
-18139.5
-38050
-23310.1
-16172
-2405.73
11835.7
-2120.44
-3438.91
-1906.32
1357.68
-278.765
3989.19
676.766
-3923.56
11830.3
12918.6
-526.67
-3454.42
-5001.41
-13808.2
-17095.5
-13055.5
-14932.8
-17092.1
-14777.8
-31153.7
-32863.1
-32963.9
-39771.3
-31474.1
-15657.6
-874.425
-13862.2
-28864.2
-40655.2
-21255.8
-7499.59
-3945.54
-18228.9
-3747.92
18710.2
4781.58
-12128
21904
13332.6
13149.1
4858.76
1689.17
-11209.5
633.092
-5594.23
-1380.83
25988.5
22444.1
32251.5
23904.4
28544.7
56365.8
70354.3
54029
55287.7
33978
62243.5
114798
135175
130496
86734.7
101041
91014.4
63155.1
10808.8
27865.8
34166.8
56833.2
67042.3
75844.6
61683.8
29752.5
20906.5
14908.7
24227.8
38453
45758
41581
35119
21064.3
16728.7
36104.1
41031
53659.8
41804.8
13489.5
5834.24
7483.12
-6711.59
7507.16
3702.55
5691.33
2720.91
7024.02
3042.46
-1046.35
-302.354
-9804.91
1036.95
502.819
3341.24
3441.94
12435
39741.5
31470
21283.6
8678.07
11853.6
1440.06
77.8928
-6849.02
2500.16
924.394
-20073
-22790.8
-11545.7
-21074.6
-17985.2
-3180.35
-6881.73
-3097.67
-9147.3
-14610.2
-6452.88
3069.09
-12287.6
-8859.71
-17247.6
-3376.86
-11120.6
4414.94
-8692.12
8259.79
6864.04
1746.22
746.861
-2463.99
-1867.96
8268.71
10336.3
1160.97
-2610.72
-4608.51
-1562.69
1132.37
-6005.58
-4326.22
5009.14
11733.4
6006.24
-1477.15
2982.25
12488.4
-1844.54
-11628.7
-7349.67
-3746.54
4609.39
1431
-4715.27
4484.75
-2287.84
-1912.79
-1674.18
692.08
-1550.85
4650.87
4952.69
-1258.62
8565.42
-7225.95
-1520.28
287.628
-7198.66
4198.22
-9176.94
-18824.1
-12051.1
9740.56
3117.96
13449.8
23035.6
16071.8
17012
16088.4
-8902.23
-10423.1
-16066.4
-497.758
4242.13
3134.61
-1759.11
1139.4
8234.89
16299.3
9668.19
8841.44
-2716.57
-958.265
24885.6
1583.68
1606.92
17303.1
7842.82
276.727
-4933.71
8735.27
-8701.28
6579.61
13706.7
28205
37197.6
9028.17
1431.98
14272.5
2205.83
-8860.94
-37557.5
-23237.6
-6533.46
1479.84
1086.61
-2233.82
16246.5
1840.06
9176.23
15494.2
-2247.12
4363.24
-4630.64
10773.5
16878.6
25921.2
5480.88
15266.9
-1519.23
155.106
-26383.9
-28067.5
-30869.8
-18586.7
-15347.2
7769.96
10544.8
10957.6
2456.28
-1479.21
10922.9
18580.4
33493.2
16893.7
5502.87
770.78
4539.25
-5139.24
1645.62
350.534
-3347.5
64.1442
9111.62
17515.8
1189.39
9657.16
30527.9
-1989.5
3542.09
5650.01
6163.66
9051.97
12617.3
757.767
1833.37
39175.9
40273.9
29612.8
31688.8
12593.1
40387.4
33283.4
31830.5
82839.7
52800.9
27103.4
29829.3
33259.2
35229.6
23731.3
73765.8
72973.3
49786.8
20728.9
24123.3
22748.3
43880
39266.2
45611
38482.8
43365.9
35946
10659.7
3417.89
6078.13
-787.958
-909.651
9885.03
10694.7
2292.91
7233.68
2738.44
1148
8504.27
1367.74
5099.73
1377.69
11473.8
2343.25
-13141
-3376.97
6836.23
-2598.54
5222.64
-7598.64
-1719.42
-6656.87
-191.57
2125.55
14767.6
21275.2
34446
21577.2
8509.33
5632.23
21138.6
5308.84
6694.68
9888.36
528.7
1617.65
5679.38
320.258
-10125.4
-7488.84
-8394.94
3712.18
-2903.5
-11386.5
-6626.62
-17541.4
-17015.7
-2116.83
-1011.16
4465.2
13768.9
19049.2
23034
-538.143
-4841.89
3021.35
11053.8
7117.75
8736.11
12626.3
6206.12
14475.8
3580.18
-7116.55
202.792
-9048.83
-9637.45
1313.75
-12130.5
-5790.46
-1721.86
-900.173
-18404.3
-4390.38
-7685.5
-11993.2
-18522.5
-7502.7
-1510.57
-14490.2
-3994.77
-6249.78
-6084.88
2828.53
2068.07
1616.95
-2598.4
3559.05
21192.5
154.502
-104.47
4762.22
703.514
16626.9
14463.3
-1600.58
5732.08
3615.24
-3937.74
-6882.84
459.315
-8324.05
10740.4
1469.65
3024.81
-13.3487
-1115.75
1874.85
4985.93
-430.666
4790.24
4554.11
-559.677
3667.41
-5816.86
-5227.57
-659.632
4274.07
9968.9
-3050.24
-3477.75
-4987.95
-11014.3
-338.256
-403.648
-1096.39
6057.63
7554.71
10174.2
25961.9
24788.8
18374.2
9459
6404.5
5850.73
5594.81
9090.03
-1206.9
8979.27
905.185
-1932.69
-2239.94
-1474.53
-2239.81
1037.07
2843.23
25292
16929
23257.3
42689.7
43195.3
46226.3
47710.8
36223.4
14476.8
-13994.1
-37681.1
-24456
-32065.3
-33954.8
-15735.8
-15821.8
-4441.91
-9125.33
-963.572
28853.3
11212.3
-8416.53
20181.4
42919.5
36747.8
33653
13250
2511.21
10589.6
6085.35
3673.59
10512
14105.2
20824.6
27099.6
26709.7
38621.2
23879.3
25389.4
22459.8
33698.2
32688.5
27828.7
-351.853
11185.5
8146.24
6542.28
3408.41
7293.78
8420.65
5781.34
-689.394
9150.93
4551.73
7986.52
5558.5
15629.6
16677.1
10451.8
2015.59
16916.7
15471.8
6882.02
21582.9
15372.5
8816.99
22581.5
20401.7
24052.3
17060.1
23196.6
17150.8
4525.15
6417.95
1182.55
-3047.93
14532.1
18.0616
-9269.36
11155.5
46890.4
32089.8
36776.1
38759.5
50044.4
36560.4
59968.1
89187.4
68308.2
60523.1
62898.4
59724.8
55959.4
43916
14592.5
19558.2
19815.9
13535.5
13323
-363.929
10560.7
6553.53
-10430.4
-25438.4
-51142.8
-39688.8
-21797.2
-8433.08
-13189.7
1474.23
193.55
-6282.12
-6970.58
19226.9
17247.7
-1301.09
5035.85
13051.4
9375.45
2515.11
11204.6
1765.95
-14835.6
2893.74
-1544.85
-13328.3
-1832.23
4974.09
7736.25
8540.14
-3789.63
-4838.19
-10098.8
-11920.9
-6996.12
-3204.37
18521.4
27038.6
18629.1
7682.8
7201.17
8347.45
2112.91
1688.86
-5706.69
1555.25
-3898.64
4772.34
6378.67
18252.6
1255.59
18437.9
21992.6
18298.1
23994.3
8066.95
15540.8
33660.4
15757.2
54826.2
52219.2
73239.6
56005.4
32967.8
13785.5
16938.2
17379.4
-3165.89
-12974.3
-3924.95
-1643.65
-2288.44
-5954.71
3081.12
26740.9
22798.7
-2624.79
728.446
2530.78
6927.88
-1218.26
2622.08
773.31
12407.5
31908.8
9621.96
-3245.77
-20600.5
-19836.9
-45759
-59073
-20487.8
-23996.3
-11320
-11402.5
-1546.48
4938.05
-10829
-12920.6
-10134.6
-16698.4
-7255.59
-4153.67
-412.599
4205.85
1710.55
-13292.8
-23376.2
-36945.2
-26036.5
-7265.12
-4175.81
-1914.18
2311.61
-3659.11
-4907.78
-9265.65
-3326.94
9471.62
140.875
3451.14
4694.08
9280.79
512.79
-817.259
-1927.33
8048.41
-3912.76
2674.8
8904.99
-1872.77
-5927.3
-3672.24
-9345.31
3457.25
-9809.46
2863.52
601.652
14248.9
12159.2
-13146
-15078
-17982.5
-7307.8
-9454.44
-2849.14
462.963
-6536.91
-6740.28
-10667.7
-221.29
1197.41
3974.99
-4601.68
-26311.1
-8019.84
1107.9
11985.9
4865.41
-5633.59
-5052.58
-3584.37
-6839.47
-4576.54
-2496.56
-998.6
-7901.83
-5849.09
-2398.16
14365.8
11111.4
35688.2
35966.8
37863.5
42924.2
35322
55268.5
36009.5
30729.9
57895
67566.4
26867.7
11229.4
9325.57
30296.1
5804.91
15603.7
24863.5
20436.2
34073.5
11732.8
21163.6
16719.7
-1016.14
-981.133
2999.15
10120.4
6716.55
-9875.22
-18979.4
-35868.5
-13569.3
-4672.04
13739.2
9399.86
-1913.8
-29974.2
-18495.6
-7528.23
-9311.82
-18945.1
-19286.5
-3708.52
-1342.34
8495.22
5827.06
-8006.76
-3062.95
-1496.34
2745.8
3777.08
-2460.89
-7389.32
7044.45
564.666
5129.14
215.757
-2009.97
-1733.13
4760.74
3668.86
2434.66
3593.88
-1636.37
1257.44
-657.898
-4409.94
1966.06
-2603.9
429.343
-47.0391
847.346
-7194.97
-7874.43
-853.815
-20011.1
-15756.9
-12893.8
-24202.8
-21387.7
-40246
-34975
-20718.7
-46372.3
-46808.1
-32371.8
-39202.6
-7615.61
-5606.65
-3014.35
14077.4
11189.2
13163.6
22254.8
32959
21795.1
40587.3
23595.1
11270.3
-138.898
-337.039
2387.33
12306.3
1970.06
2926.2
-2363.2
3371.42
6446.08
4244.98
2390.4
2279.01
10.4108
6984.54
4797.24
3181.53
-2514.42
-9939.3
-16861.3
-9831.05
1064.01
14469.8
-1609.69
-6114.83
6736.21
12132.1
40623.5
57164.6
97247.4
102204
53302.3
43927.3
59007.5
40251.1
4194.21
11123.7
18297.3
1346.24
4089.52
8161.69
495.661
-1046.14
-1294.14
2457.62
4633.09
690.764
583.734
-7953.76
-16733.2
-17003.1
1928.39
4075.29
-5944.32
-12975.1
-923.376
1680.06
3024.03
-4239.53
-2051.89
-160.33
713.872
3916.21
-3742.85
-4832.38
1202.45
-7279.4
-16656.9
-7400.9
7193.17
18290.7
29037.3
4423.71
2031.42
7491.32
15595.6
15292.3
10402.2
33248.1
22090.1
6871.2
5514.65
5692.39
48983.1
39976.3
49041.7
39008.3
45325
24548
28541
15540.3
37322.8
35682.1
45582.8
29350.6
27489.6
16454.7
12328.9
15479.8
-12352.6
-2062.04
-8338.7
-19723.3
6568.28
13538.6
27223.5
18413.7
10690.6
16188.7
31903.8
30863.2
32558.2
44770.3
49675.1
43412.3
20876.8
5032.68
6341.64
14620.3
9024.96
9900.51
-9161.6
24968.4
42736.6
68132.8
61005.3
33898.1
46074.1
31208.7
18629.7
30345.4
23498.3
246.083
9662.55
3666.9
3047.43
4982.89
-5266.75
-9629.75
-7938.17
-4522.28
3619.34
-2789.49
9866.19
3681.86
7664.67
20136.9
-818.005
-1639.76
-1467.76
-3879.91
14721.4
-1042.21
2765.99
-1325.75
7603.03
4860.69
7121.06
-6652.02
-3325.13
-2348.58
939.906
-2389.81
-3038.55
-5232.17
101.172
-8518.18
-6252.55
-710.637
-2065.24
-1582.13
15355.3
7693.44
2702.58
2059.95
-12173.1
8894.12
-3409.1
-25933.8
-16053.2
-24618.5
-3349.86
4192.99
4243.08
5310.13
13956.1
2409.94
4861.17
13556.9
15746
15636.8
17526.7
18942
-4696.31
-6253.07
-4707.26
-5738.2
-11629.4
-20717.8
-5282.48
-10774.9
-22618.1
-17359.9
-7509.37
376.853
-718.085
3535.18
-1010.11
-6018.85
-3049.79
4410.51
7692.27
8504.82
9145.04
-10300.8
-766.859
5348.11
-679.95
-16700.9
-6253.23
4818.68
1856.4
4618.98
-5385.67
3880.63
20837.1
32073.3
35930.7
40917.3
42712.6
42538.5
45979.6
60309.4
54074.7
48535.3
62038.4
38851.8
30144.4
44092.7
36817
45342.9
65786.3
87675.3
80896.9
96490
55409.6
65413.4
37971.9
54815
47203.9
60602.6
66711.9
48334.4
42873.4
31127.7
20694.7
50366.5
82129.1
83747.2
105394
89646.1
48702.1
34222.1
36157
37192.9
44883.4
51975.2
57907.7
34939.2
38799.4
27074.1
16037.5
17271.7
37714.4
6878.97
1253.21
-3937.98
262.119
12536.1
10878.5
26012.5
12836.7
8592.69
28669
24935
14311
19571.1
17109
19976.9
15725.3
14879
10851.4
14647.6
-316.631
2171.94
-9928.69
8621.08
2603.22
2738.03
-2332.83
-6636.48
-18347.7
-48208.6
-50353.9
-43210.3
-73748.5
-55285.5
-81367.1
-71948.5
-40659.5
-25168.9
-34351.6
-7051.38
11645.8
744.21
12202.3
6114.11
4798
12440.9
11508.5
5195.75
17770
11196.2
8665.85
961.018
984.584
4074.33
-1803.63
11161.6
5695.11
7164.02
22119.7
9404.16
-1247.44
-1787.6
4843.57
-251.516
-3572.35
-5860.63
-4934.05
-4758.71
3687.82
5336.86
-109.371
-951.792
-3558.98
11704.2
-8767.65
-19888.5
-16326.2
-9359.8
-12060.6
2699.36
-1570.75
-6079.38
-14260.7
-810.982
-978.111
-11955.6
-25420.3
-4080.05
-4999.31
10148.7
-1774.81
-2349.84
7917.75
-1136.47
-11227.8
-10725.5
-5699.36
-1425.89
-4037.35
-5909.8
-5136.01
30473.2
25112.5
20176
18908.9
-6934.26
9057.63
6822.25
14639.2
3218.07
1822.14
-1846.35
3839.72
508.271
3624.6
3310.92
2796.7
15280.5
29185.3
20620.6
21321.1
17934.9
18206.7
23704.9
27764.9
15887.8
12196.4
-1664.23
-16234.8
-5867.26
-11434.4
-15284.6
-773.967
-5434.87
529.106
-5130.48
-1709.9
405.275
-11560.3
1231.41
5247.24
-2800.44
-8144.79
-4805.9
-15052.1
-8789.65
-23652.3
-12660.9
-40102.8
-30988
-8653.92
467.104
2117.57
-7290.53
-4006.59
6829.52
19387.6
15110.9
18049.1
38538.6
23636.2
24963.9
22969.4
1981.28
2774.07
26741.6
34875.4
20475.2
13832.3
32025.1
78799
72140.5
48592.6
41566
31920.7
7832.39
35824.5
36546.8
26273.1
11854.4
16726.4
1777.12
8074.73
3339.73
11579.5
18499
18572
13158.4
5500.12
124.878
5509.62
-13900.4
-2792.16
-5315.32
-9998.3
-5770.37
-10033.1
-1382.44
-6230.67
2935.49
12247.5
9693.5
2784.16
4306.15
-3797.81
-2038.97
6505.49
24825.8
5414.39
6083.39
-2727.54
-12160.3
-34793.9
-24932.4
-2545.91
12284.6
7611.1
-5427.02
-14661.2
-13996.3
-11435.1
-13842.8
-17833.5
-16200.7
-21083.6
-9540.14
-332.916
7115.1
-2429.18
-11409.4
-14373.6
-6654.33
-1437.46
-17176.9
-18905.1
-8287.62
-2346.51
-2659.36
-5270.03
3868.09
-1702.41
-417.014
4883.19
4826.63
15283.9
45201.6
24648.1
22274.7
32267
26360.8
31023.9
20882.8
22041.2
32879.9
37690.2
40186.8
25268.7
63062.1
91577.2
82579
63334.8
78281.6
61204
43355.4
30877.6
45722.1
50452.1
22934.5
9824.39
4989.3
6835.52
3388.87
-1694.18
-413.918
11924.3
20282.8
25804.1
24649.1
17295.3
22993.7
34025.7
-1693.77
16819.2
38475.5
29367.9
19097
19752.9
16118.7
45515
25106.6
20073.4
10612.1
9638.07
18031.7
9202.31
10361.1
13507.9
13448.3
30045.6
9555.51
32835.4
29602.8
-6264.42
10285.6
-325.692
23556.4
9392.92
4791.52
4910.77
5851.23
1281.44
-1786.88
-922.995
-4290.2
1191.26
-3477.99
-17630.3
-7908.3
-4115.66
18282.2
49397.3
37537.3
24481.3
5579.48
8165.55
7478.55
20450.6
8527.45
-3694
3857.52
-5846.25
-11289.3
-10261.8
-7843.83
-6059.2
17802.6
11345.3
-18121.4
-2314.11
27037.2
9712.63
4471.75
-6526.79
6235.74
-741.228
-26764.1
-6513.01
-16394
-16120.7
-5075.4
6403.83
17714.5
14104.7
15718.1
17395.2
15841.4
30269.3
23737.7
29780.8
22319
14049.5
22508.5
7738.63
23691.6
3519.26
-10606.8
3907.82
-21217.6
-322.186
-8761.11
9738.29
-2463.27
4958.07
9011
8347.32
2436.52
-5485.15
-12526.8
-12513.8
-23647.2
-39135.3
-16610.8
-19325.8
-9513.52
-3710.5
-618.409
-8435.28
-14086.5
-22158.8
-27594.4
2751.99
10401.8
32601.7
36482
38370.5
30508.7
18072
18938.6
8450.62
-2621.98
-15358.1
-3274.53
13870.8
-558.82
4752.45
9021.88
5211.43
14161.2
8584.23
33917.1
44058.6
67351.8
60713.5
65496.7
94800.1
99334.2
98449.1
83128.2
89323.4
84777.8
110472
86124.5
115899
151983
155703
196645
186183
128589
76942.5
39022
53198.6
28357.4
23665.8
31939.3
29390.5
36077.6
44401.3
33233.9
45651.9
56089.7
64417.5
35820.3
23356.8
59525.1
76736
73367.2
84466.1
92384.9
47643.5
49768.7
14286.3
26980.3
26781.7
5619.86
-24334.8
-26182.8
-2392.3
6190.09
-642.897
2551.94
5432.83
10063.9
29254.8
11.9176
44679.3
48665.1
47674.1
54460.6
65327.9
24953
41910.3
82166.9
122719
115876
74015.5
91743.8
64270.8
37691.3
27888.2
27801.1
9835.34
7171.53
11040.8
9104.54
11775
27807.7
28088.7
23966.6
18093.7
14469.5
25112.5
29987.9
6019.12
7666.94
11869.2
18525.2
17691
30654.1
17784.7
24171.4
-1220.12
6233.6
8177.62
16623.8
11969.2
25100.3
25763.5
27029.3
15877.4
13901.9
13661.3
5382.74
-698.005
1153.96
171.002
-4502.7
-2098.85
7365.4
-948.791
24134.5
14142.9
7250.2
3609.06
3848.63
194.019
48.9764
2652.87
5751.58
1348.26
-1407.19
2497.28
8421.04
1460.93
-4958.17
-3421.47
-6951.22
2863.67
1454.33
520.338
-4950.86
-1423.34
495.01
-5854.86
-11826.1
-12874.7
-31826.1
-33501.5
-37138.6
-16057.6
-24269.1
-8699.23
-4344.51
-1433.2
-1970.17
-706.105
7340.34
3902.09
7151.79
19021.4
790.359
-5135.7
-695.197
6654.8
5911.79
7729.29
14229.3
11963.2
20608.2
22882.7
38152
71899.5
46026.8
22468.4
15592.3
53838.6
54269.6
69292.7
74297.3
35855.5
37174.2
32740.7
28064.2
26171.3
26089.2
22917.3
15916.8
23174.5
1713.14
-7172.9
4013.94
-13086.7
3651.51
4199.57
12147.6
-24227.9
-4079.2
-14598.7
-11237.2
-9399.71
-6163.44
-11254.1
-16906.6
-28368.5
-21789.6
-36556.1
-13816.6
-26747.3
-16544.2
-10872
-21624.5
-25816.8
-12111.9
-23019.6
-27995
-22081.2
-15227.8
-6762.55
-10559.7
-7880.86
-3291.77
11125.9
-4347.18
-291.663
5400.63
-1951.08
-4136.86
4287.24
6178.75
9817.31
10593.3
-1939.05
11359.1
4659
2661.93
376.645
-3134.88
1469.82
-70.5376
7637.5
11129.8
-3112.72
-474.69
-5486.91
-2256.9
-2207.31
-870.843
-1370.96
-22283.1
-14556.7
-17019.7
-3418.76
13840.2
-22240.3
-14360.8
-3392.17
-4737.55
-6362.84
-8102.33
-6906.13
-3448.5
4008.71
9472.49
-4324.89
-5961.93
-620.073
-4985.63
-10336.5
-6058.84
-720.092
285.426
-4701.47
73.7903
2664
522.24
3603.74
13863.7
26028.2
24377
7493.74
6460.56
16267.4
-194.673
-9148.61
-2682.6
16883.9
15701.2
15724.5
32821
45650.1
77858.6
42318.7
27941.2
17804.4
13240.6
34743.9
32201.9
31692.4
25367.7
18704.7
9345.56
-1357.62
-5926.44
3368.35
-52.1251
-12484.5
-3809.26
2461.98
-801.331
4284.37
-4076.39
-3127.97
-14301.8
-22289.6
-6433.41
-14127.2
-7327.3
1293.63
-8642.96
3524.07
8042.69
-3780.75
2333.42
600.975
-174.891
33.6547
-2830.93
2128.8
-2253.16
448.628
-7891.77
503.679
-11168.2
-4996.32
-187.586
-10861.1
-5687.47
-1004.53
3098.89
5621.42
-4003.04
-2326.94
1462.68
7022.14
-6715.87
1228.83
5183.09
5487.71
-16576.7
-5117.98
-15401.8
-19424.5
-3158.19
329.692
14851.5
-520.117
2281.91
-4120.08
-6890.7
-4912.59
-3466.97
-10621
3471.22
5857.6
1362.58
2415.42
-6757.72
-35681.5
-30341.8
-35292.5
-29029.3
-25460.1
-3472.49
-11184.1
-10028.1
-2214.83
-707.13
-5080.02
-439.93
-342.462
-6089.13
584.571
1816.87
6758.24
-6193.85
21297.2
12302.8
23473.7
43274.2
19229.6
35837.2
16398.4
14402.9
-2955.2
274.474
278.275
3994.46
3399.55
-15447.7
-4103.02
-4455.97
-6485.14
-25002.5
-27600.2
-36357
-21186.8
-4741.93
-2503.75
4730.09
-11590
-600.269
-5391.82
-6078.61
-7881.13
-4404.11
-318.235
-14273.1
-5757.4
-7177.61
-490.72
-5782.27
2815.27
-3068.62
-8554.18
-16049.7
-15970.8
-19104.8
-23058.2
-18351.4
-7471.26
5144.24
6895.42
4377.92
6601.57
8639.6
-5409.06
-5709.36
-5263.5
-25484.1
-34454.6
-21618.7
-20230.5
4994.72
2740.22
-8889.59
7517.58
2713.16
-9604.68
-15052.2
-14927.9
-5771.88
-5907.82
-14967.2
-17210.2
-3011.55
-2152.34
8677.84
12686.1
13275.5
23865.8
29705.5
7629.36
-15110.5
-22577.3
-47490.9
-25498.9
-29356.1
-18416.3
3650.36
6086.44
-10341.2
-6641.21
-48.5711
-520.146
-12601.5
-6494.34
-10284.5
-4307.56
-12241.1
-9440.18
-3771.38
-2269.51
-7421.22
-7074.5
17578.9
19200.7
27638.6
11869.8
7001.93
10888.8
1544.84
-5549.52
-17826.8
-11577.5
-46699.9
-20574.4
-27350.5
-11061.2
-11055.9
-18677.7
510.488
-7974.33
-20342
-20390.7
-17608.6
-3868.03
-2412.4
-3576.25
7238.64
8941.52
-5296.16
-11220.5
-2625.3
-4028.23
-9482.14
9598.56
6222.03
4916.82
-1198.39
4819.78
5364.22
-456.754
-7064.91
5572.87
378.459
1725.37
-9078.45
-14129.7
-11122.3
4866.8
-3669.84
-10953.9
-12862.6
11977.1
-1950.84
7316.42
14222.6
23505.7
33153.8
30280.8
43278.6
54661.9
51404
46096.5
49295.3
24535.5
149.547
18415.2
5763.29
32357
41035.1
53510.3
33450
-1718.33
19198.7
-35.2676
-1056.21
-140.624
-2252.36
6308.05
2966.03
10281.7
22712.9
3372.69
-14838.3
-9557.67
7225.64
5564.1
4905.82
-343.031
-1421.14
-915.909
9896.98
8555.49
19795
20776.2
35131.9
56915.3
33354.8
36835.3
41540.9
17525.2
7344.9
19749.1
34990.2
26827.3
4733.51
16912.7
12942.5
20929.3
32305.1
21948.2
5159.25
-23358.2
-7279.75
25549.8
2919.5
-9490.91
320.403
-1842.7
-20413.8
-34940.2
-17802.9
-6962.41
-5851.25
-2770.17
16300.9
9868.01
12384.2
27480.7
19418.6
53127
65647.3
55476.8
58072.1
62619.8
39273.2
24577.6
55012.6
66181.7
48577
33129.4
41805.1
15341.1
28930.1
30700.9
13763.9
11414
29426.3
44668.9
13703
9198.36
13646.2
-965.06
431.178
5890.01
5128.07
13742
2826.98
-8027.58
5205.13
21820.9
6756.36
12111.5
4037.6
-970.807
-934.553
13968.1
-936.583
-6574.41
4804.26
571.69
1619.39
4685.29
1560.73
-2806.37
5691.11
10962.5
2312.24
-1391.94
-14076.2
-13446
-8642.87
-20175.5
-41225
-26551.3
-30733.5
-25310.5
-26764.7
-16813.7
-12267.6
2237.9
3827.79
2424.43
-9989.72
-6095.68
3851.98
-93.3662
-4056.66
-17579
2866.94
-1564.33
10868.5
3688.72
-9658.71
-23085.7
-23254
1044.85
6320.93
7052.03
-4808.53
-2227.43
8817.26
-8031.47
8882.74
14046.5
14685.6
9581.88
3522.14
7404.65
13421.1
12778.3
-13691
8566.29
28753.8
13167.3
15017
29914
34346.5
26259.1
14419.3
14927.6
3460.14
1366.1
2713.49
3857.55
6416.35
4019.9
15319.2
9214.38
9602.08
8247.84
10421.3
2719.66
14538.9
738.669
510.014
14142.5
18351.4
17838.6
38497.7
15576.6
3929.36
7535.01
703.177
-24631.8
-35266.7
-34707.6
-21220.1
-26334.2
-7990.48
-2700.46
-10696.1
-86.8101
5134.03
10336
4527.93
7595.85
-284.636
-2710.34
-1635.69
-1868.8
3833.51
4617.49
-3077.02
9808.59
9695.16
10201.6
-543.186
5640.43
1601.98
2432.87
8700.33
23571.2
6267.55
337.168
1156.75
18066.8
12356.1
7895.51
-7795.17
-21934.1
2573.36
3676.9
3152.3
12559.5
3291.62
17037.3
19559.9
20902
5885.21
14332.5
11314.6
1914.24
3138.4
14515.7
-3200.13
-4423.81
-387.736
434.711
1777.7
-4618.12
-1422.38
1847.72
4367.43
-10520.7
422.41
1190.82
6805.92
2440.03
3484.81
-1142.58
-8659.43
4525.52
-4314.42
-971.528
-1520.65
1753.35
2554.64
5451.27
885.438
-4723.47
-5293.32
-3579.47
-3789.93
8082.89
8623.84
-877.606
-3055.17
-6886.05
-11852.1
-7284.24
-7155.61
-4127.04
-12248.7
-6918.37
-4468.98
-2154.49
-1451.22
2302.91
2915.01
3629.06
-195.305
1649.55
-4243.37
-9206.91
-13560.3
-21666.3
-9375.28
-6021.15
-7423.45
-2750.79
-27946.8
-17807.8
-2861.15
3623.87
-6297.49
6956.01
102.84
9382.25
-13737.8
-21054.6
-13208.6
-5718.71
-3864.57
-5107.71
2177.02
-4264.06
7530.89
6542.9
4721.36
10035.3
7457.12
7340.38
6329.33
4656.75
2170.49
-1336.78
-5279.61
-14330.8
-8138.32
3286.96
-148.031
-2063.54
-8213.85
4156.78
-922.981
-3649.52
-11425.6
-5335.46
-18403.3
-8732.51
-16613.5
-17868.3
-8673.21
3667.16
5202.11
262.625
-5081.91
-1417.3
1095.78
-4096.67
-6286.38
-4192.84
-3708.33
-10371.9
-8366.67
-2197.43
-9281.15
-12024.5
1188.07
5438.28
1663.81
-4638.04
-1720.89
8449.09
19207.4
41574.7
23091
1433.03
-17772
-12567.3
-12163
-5424.23
7655.67
1964.4
-8038.74
3318.65
105.005
-1182.74
-997.85
3107.1
4182.21
6128.02
12705
-12497.2
-37181.8
-40779.8
-30558.4
-35421.4
-17511.1
-14481.5
2413.25
-12067.7
-28316.5
-9054.8
-13190.6
10814.5
15723.2
7549.68
6338.94
1897.85
29352.1
18423
24678.7
20059.7
25178.7
22501.2
-489.578
3175.93
428.241
3124.32
9350.07
37848.2
30562
4628.1
14914.9
-1271.84
14006.6
10230.4
33100.8
31807.4
20504.9
36457.2
9198.97
-6173.19
15685.1
5387.88
-2078.51
8639.99
31053.4
19905.9
-16953.3
-25108.7
8196.59
441.237
870.995
691.099
4284
-1399.26
-1163.84
-173.845
-14823.1
-21943
-23735.3
5304.98
-1658.33
904.708
193.927
-2762.53
-9871.69
-7102.23
-7863.36
-2832.55
3752.88
525.678
2772.78
9297.11
8081.17
8948.12
9232.91
20710
17406.1
21207.7
32014
25637.9
32228.2
32325.3
24950.6
-6384.24
5720.46
-7013.65
-11913.3
-8585.79
-7177.17
-2163.06
7456.3
18029.6
21887.4
25938.2
-6270.84
-23988.6
-13260.7
-19231.2
-15091.6
-3331.76
10363.1
-4317.88
-3691.74
-17384.6
-23405.9
-1815.06
-2192.86
-1930.87
3687.19
2530.05
-8554.81
-1949.53
5554.21
-8342.44
-8377.44
2468.46
-2902.25
-7151.26
1019.27
-661.829
3638.9
-3213.42
6181.67
6795.26
7764.09
8063.14
15305.2
16474.3
22841.5
33488.8
-2674.25
-12494.3
-1572.57
14576.8
23354
6629.67
-1013.85
-13088.9
2339.63
-1388.07
-9734.45
-12507.2
-7482.55
-611.835
-13788.6
-13233.1
-10150.5
1886.12
-7779.65
-12908
-4861.68
-12657.5
-16820.6
-17683.9
-13152.1
-12708.3
-14172.3
-9794.38
18.9981
-8157.28
-7141.01
-15731.2
-10185.2
6612.84
9469.79
-775.305
19312.1
19526.4
10445.5
-1416.45
194.337
-3011.53
-11357.3
-3427.24
7712.28
2788.99
7831.22
16643.5
4819.6
9046.45
9827.17
1600.81
7625.57
10918
7288.92
-4285.2
25035.1
13805.6
8623.66
7262.33
7550.4
10604.5
4999.3
5561.64
1822.04
2571.48
21885.6
14697
-2929.91
-16397
-13278.1
-4097.32
9039.52
11112.1
-5189.92
-7329.85
7744.08
33370.9
23728.1
13707.7
31082.6
40800.1
83451.5
101414
65437.8
55639.3
73856.6
44720.3
34106.9
49772
51416.1
61157.9
52210.2
51589.6
11071.7
4241.69
4275.41
4923.47
7643.74
-2941.73
62.0261
-17019.9
-5612.01
-1775.9
-1748.54
3050.83
-4757.29
-1629.28
-439.061
-5478.39
2516.42
7540.63
-18847
-8702.72
-7824.82
-7359.39
-27708.2
-45379.1
-18672
-33204.4
-16418.9
-6646.54
-5818.43
5152.43
4310.01
8297.81
-2702.85
-2859.7
-7510.82
-10773.8
-8158.87
-11333.3
1702.17
3920.68
1074.62
3792.13
1732.61
17719.3
837.739
6060.59
19065.7
13511.8
14284.1
837.822
25181.9
10471
7224.69
2918.22
1779.25
-5653.4
-196.726
5807.67
12366.1
32678.3
-4950.18
-10690.1
-6314.68
-15600.8
-16954
-18527.7
-11043.9
-14627.3
-2956.47
4910.59
9067.78
31311.3
41149.9
16091
18611.2
8758.69
3101.9
-1015.09
2535.51
-1855.3
-6502.47
-2624.07
-1326.64
3147.46
14620.9
9990.08
3171.96
-6044.77
-2213.58
2699.64
3726.79
-7008.42
-30546.8
-31233.6
-12263.5
-6688.06
-26820.8
2822.69
-14862.2
-15646.9
-28010.3
-27351.7
-18715
-42077.7
-16280.9
-16012
-3489.37
5283.4
7802.06
16746.9
521.092
-7296.51
2546.17
-1513.92
-8489.03
-13194.8
7119.73
12016.1
6916.81
9493.04
-16959
-10381.9
-11718.4
1256.09
2700.21
-1347.26
639.328
8686.58
-164.373
2674.8
2320.42
-723.948
2671.23
-10563.6
378.76
-8331.83
6080
4488.83
-2954.99
1032
-8585.98
-28407.2
-11509.8
515.942
6347.15
11286.1
4875.14
-7988.6
-8230.58
-8793.11
4344.78
8816.88
1855.57
-7488.28
-1950.85
2894.46
16221.9
10302.5
4863.97
4484.3
3506.73
-54.8305
-11343.8
-12458.7
-9781.99
-2038.03
-7458.13
-16660
-29274.8
-22680.6
-7006.68
-16517.5
-16730.3
-27720
-7181.94
-17559.2
-14846.7
-10879.4
-9344.01
10362.3
5064.94
2292.09
3689.16
17186.5
10243.1
11675.2
-8071.1
-4676.53
-13619.4
1087.73
-11828.4
-7129.01
1451.36
7936.66
7381.73
-4349.78
11040.4
15349.2
21264.8
12678.1
3097.68
363.778
24170.8
29450.2
44988.6
51966
57786.4
52202.3
65331.7
37427.2
42191.2
47217.5
33419.7
28462.5
34367.4
43837.3
34347
15148.3
25285.1
17067.5
854.222
-11470.6
2927.53
-1075.41
1547.53
-5503.58
-1541.44
-9870.64
-1388.07
-1353.65
-531.081
4179.42
216.487
1874.25
2936.07
-7982.82
1633.63
8796.05
14987.9
12506.8
4204.96
-10555.7
-22522.4
8606.23
-7332.22
-15871.8
-16797.6
9694.15
5766.12
10333.6
11411.6
14704.8
19074.2
32960.4
26380.8
40424.8
19813.5
25795.7
28406.4
13556.6
5946.73
9938.35
15121.7
13703.1
4924.78
-127.993
2105.36
-11501.1
-1004.72
-1883.51
-14448.8
-5708.4
41250.5
60308.2
60847.9
77478.1
79641.4
71562.6
47438.1
36228.3
24496.3
32139.2
34108.2
44061.6
26457.9
30644.7
36601.5
16723.3
6141.39
3513.24
7642.57
4021.15
13750.2
5128.76
1568.91
-6493.01
1899.23
866.44
-1027.39
-4595.59
-8232.4
-14314
-3965.52
-2336.27
1846.23
9834.26
13032.7
3616.53
1618.1
21091.1
15468.2
39689.1
47760.2
26879.7
14936.6
7106.83
14813.5
12760.5
15438.4
11845.3
7547.26
-7691.53
-22634.2
-20213.4
-6143.9
-1003.8
-16474.7
-12033.8
-19557.6
-9447.11
-20019.8
-18093.9
-4841.8
-7108.39
-8291.84
-10205.4
-10629.6
-6380.62
-13611.7
4612.76
-5757.18
-7882.38
681.512
-699.658
-535.76
5399.23
6570.13
21107.3
19064
27400.8
24753.9
22065.6
8512.74
28144.3
23474
30719.3
18151.7
-6288.1
3957.6
-2176.3
2654.03
-9161.25
-1382.42
-4454.17
-4601.17
-10137.5
-9486.25
-3103.54
-7321.33
-15817.5
-4094.72
4422.07
-8779.75
-12507.1
-32870.6
-17479.6
-8243.84
-7672.04
-7725.59
-5431.08
2353.04
-2710.28
3047.97
7134.61
9894.03
-5772.91
-5934.02
-2225.36
-11815.6
-3608.19
-1520.96
-11618.7
5028.63
2145.83
2196.97
3194.34
5757.48
982.263
-3340.04
-6960.92
9000.32
10366.2
11834.5
14761.1
-4747.29
-1025.75
-8710
4749.27
55.3986
-2506.88
612.806
994.732
-6881.24
-9579.75
-7521.6
-4075.42
-5632.29
-319.043
8273.63
-1493.91
8757.47
-3216.65
-11522.2
-5517.48
-24340.3
-10972.4
-14341.3
-13648.3
-9631.04
-6672.92
11575.8
16660.7
10796.7
17076.2
20256.8
14630.9
2366.15
-4307.78
-2344.36
-3467.97
-1631.05
-2951.18
2903.29
399.685
1926.52
7700.46
8138.97
14677.3
4503.08
7624.08
14093.5
29734.4
32720.7
17419.6
26319.3
4912.96
28867.5
15901.3
7163.91
29221.4
27318.4
12633.7
18835.9
20830
17441.2
25059.5
36854.9
20175.5
30055.4
6848.29
24120.9
27025.9
19958.6
10373.5
15543.9
28688.9
46258.5
29544.4
25702
13886.8
5550.69
-11090.5
-853.092
19308.7
33664.6
24215.3
53700
48690.5
35330.4
22155.9
18309.1
-5172.84
-5021.35
-4856.1
2362.2
7149.03
4614.27
9401.37
7637.04
10021.8
1247.39
-2171.32
-5489.09
-1217.27
-6649.48
9695.09
-3539.73
-41.739
12088.6
7746.48
2415.14
-2624.35
-4406.87
466.498
130.496
-2137.8
612.846
1718.92
-1262.56
8447.18
-2509.28
-3889.77
-512.613
1372.45
2334.75
-4849.16
-12872.3
-4951.38
-12719.5
-975.128
2261
-901.356
2734.96
-5870.88
5371.87
2198.74
9749.95
5468.98
-7773.83
-267.573
-1622.05
1885.41
-3088.36
-6025.3
-12321.7
-6711.7
-1988.82
-15485.7
-34712.2
-17424.2
-38197
-16070.4
-11262.6
-6946.63
-3261.58
-7667.14
-5483.77
-3689.94
-5001.8
-4192.91
3039.71
190.995
-7301.97
-3195.47
11640.4
-1489.91
2336.47
1871.85
17309.3
11858.9
18015.1
3358.61
12421.8
8102.59
13052.8
4177.99
-1233.33
-3341.68
-3835.92
-3420.88
-10985.1
-5917.39
-1927.97
-141.956
2426.11
3704.75
2208.4
2022.76
-5836.22
-5663.61
-15168.1
-27053.5
-20833.5
-10024.9
-18093.5
-9047.52
-1427.73
3100.88
17017.3
4988.9
-4429.26
5843.74
-8089.85
2347.01
6727.89
-2836.3
4429.71
6582.9
13968.7
15444.7
15389.1
11044.9
12299.4
4539.46
4886.47
9490.87
10946.9
25055.1
28542.6
9178.48
8875.22
10726.8
2816.56
-12674
-30072.7
-16469.3
-21837.5
-32459.9
-35191.5
-31041.9
-45897.9
-37606.9
-22895.9
-8854.92
-2318.68
-13.8575
1930.2
8292.57
10058.1
10880.2
15578.4
-3778.83
10955.5
6293.11
-969.76
-7499.12
-14956.5
5931.54
10270.5
9534.15
-6128.64
4280.68
527.314
-2848.76
4665.11
3527.28
-5493.72
1856.54
834.78
2231.22
21712.7
6348.33
-15090.9
7165.4
10410
7177.8
899.59
4893.73
4611.79
9345.61
31682.6
26353
25287.6
40457.3
20045.5
23417.8
2355
2166.36
3790.44
-1331.64
-8965.18
-9752.83
2816.52
11909.4
20897.4
25147.1
30920
34459.2
36556.5
37064.1
22955.2
12459.4
9875.59
8889.71
19768.9
7055.87
1254.05
1663.98
11727.3
3406
516.667
2069.41
-2092.05
-6706.69
-7237.9
15854.2
-556.358
7583.07
5879.09
19177.1
11834.3
9914.74
14486.4
5150.78
-624.608
-1180.2
11627.9
23218.3
8835.22
28255.4
47330.6
31750.1
56316.2
66740.3
50737.1
25263.4
39363.2
23455.5
30251.5
25546.9
34228.6
23023.3
11778.6
5481.97
-3764.6
29824.6
45785.5
17052.2
47219.4
93610.7
86329
105101
58193.7
32673.2
44864.2
20384.7
10605.5
8944.45
14134.3
13004.8
29910.1
20396.8
20800.3
2388.4
13580.2
1076.6
15753.2
6685.82
15307.1
11157
6554.59
8514.75
2553.72
-475.247
5728.31
-2758.77
1297.72
1565.07
-3439.23
114.123
-3713.37
-2635.17
2061.01
-797.126
1439.95
-2155.29
1692.76
4429.42
5649.61
-618.351
-9347.55
-3452.74
3960.9
475.634
838.019
2653.86
4949.83
4550.76
-9287.02
8970.18
23324.9
16416.2
21085.6
30140.9
32218.9
12695
4063.97
2786.96
3654.54
-599.389
-6.14235
2904.19
-9950.64
-1000.32
3617
-1766.44
1106.66
1785.22
926.692
-3475.1
-9173.89
-6716.8
-4533.99
9154.23
15728.7
6805.05
176.433
1795.91
4511.86
-10150.6
-1745
-611.02
1024.73
-16337.2
-16760.1
-11736.7
-3680.78
9287.26
9336.69
1368.76
5003
20920.2
20083.4
10403
3477.2
-4738.77
-3498.59
585.739
-8900.31
-14637.6
-24577.4
-39875.3
-17315.2
-26722
24886.2
35911.2
24168.6
22246.4
27245.9
18179.1
10146.8
8373.81
60.2398
9753.92
19942.4
9447.73
17647.6
22066.7
31836.7
20003
21812.8
27993.5
30742.1
50575.4
22189.2
29500.6
25430
23679.7
18707.1
22606.1
36185.4
17741.1
14573
18727.5
4858.28
4962.41
-5538.93
-7921.8
-290.953
2494.15
9934.14
17140.1
5039.6
-1868.07
1239.05
-5336.8
-5016.5
719.326
3806.72
2078.46
3778.91
-16198.9
-6994.86
722.417
-1840.32
-11744.1
1199.82
2759.16
11778.1
10761.2
14816.9
5881.96
-8959.72
-9732.88
1321.82
523.63
-5737.66
28874.9
27245.2
30280.8
29742.1
31631.9
21132.6
22169.4
2279.12
9639.4
19913.7
11315.9
3655.48
8227.79
14746
5476.58
15554.6
-7514.03
-13046.1
-117.293
-15442.3
4043.19
-3359.29
8595.21
-16222
4920.69
669.588
-358.32
790.327
-9950.85
13265
11574.7
13763.5
-4131.82
34.326
-5238.15
-5106.83
2440.74
9128.82
20646.7
24951.4
21402.9
22125
19339.2
13742.6
15200.3
9503.78
10626.9
33335.2
14126.5
20779.8
4072.36
12002
39870.9
41887.3
51619.9
31101.3
34753.7
33868.3
16666.6
10307.3
-0.190021
6492.81
1808.64
7285.49
1415.21
1660.44
-1072.37
1466.27
6104.63
2238.65
14215.2
-10318.3
-3162.49
8334.6
-13417.2
-22787.1
-34110.8
-15217.1
-2738.35
2875.43
243.43
13217
18764.8
26814.8
38457.4
31058.2
23685.3
10576.4
18833
3293.93
17759.8
5733.34
12539.6
2220.19
-17877.5
-36643
-18557.3
7591.95
9392.02
27884.5
15127.9
2305.48
-20194.5
-18041.8
-5745.21
-10754.8
-5037.01
-361.242
3236.42
17279.6
36380.6
25667.1
29811.8
22744
-4113.49
-561.552
-16039.4
-5562.32
1335.79
5233.53
3662.79
-6161.06
-15750.2
-9357.79
-8474.85
-18581
-15291.9
8477.08
10938.2
30969.6
48381
29106.4
44261.7
51824.5
65065.4
29816
29211.4
27696.1
16816.6
6886.92
7365.94
13868.3
25285.7
24644.7
35994.1
30015.9
10450.2
5450.46
-5787.4
34411.6
12224.1
-2848.56
-1140.4
1153.56
6640.92
3042.42
48.1564
-5236.91
17774.5
19273.5
4304.55
22456.1
21610.2
-13407.4
7.57724
5068.44
-955.687
796.73
-11043
611.127
-422
-1218.1
-6382.88
-10318.5
-5522.03
4460.67
14421.8
4902.95
14865.1
-4973.02
-3105.3
-4797.77
-5267.74
-18535.3
-12959.7
-4690.45
3300.77
4996.64
1455.31
5854.01
11583.1
26699.4
21432
-1952.44
-4889.53
-4566.05
-14277.4
-14073.9
-20508.6
-22753.8
-8079.26
-9735.6
-9068.47
-7907.16
6306.01
4100.28
14667.1
28179.9
18525.8
25351.9
33365.1
29015.4
17192.9
6720.07
-4587.99
-22358.5
-12477.9
445.758
-22304.2
-17828.3
-26356.5
-18039.8
-21765.5
-22456.5
6242.12
-141.918
3442.34
12075.7
5716.89
7424.38
22662.3
10371.5
23991.2
38262
27022.6
6589.15
12442.6
9464.19
2149.96
3439
517.409
-1612.5
25209.6
30820.1
45822.6
40456.2
17044.3
-11419.1
-10889.8
-25516.7
-14962.7
2952.85
2020.53
-4286.82
-6073.37
-7525.12
-6350.26
-2509.08
-463.045
-3405.43
-3634.39
-13390.9
-18436.2
-2666.82
8368.99
7850.3
25888.6
10013.6
8244.09
21349.3
10254.3
18749.4
31447.8
7055.02
16586.2
24670.8
37875.2
38795.5
30693.5
23764.8
8356.95
17015.6
11014.1
-404.359
854.719
7868.36
9970.83
20066.7
35490.7
43194.5
36976.1
55277
44617.7
-3914.93
14197
736.411
-9181.9
7502.02
24518.5
10484.3
25276.5
41274.7
60703.3
62083
20160.9
38373
37579.7
57764.2
97384.4
81090.5
91892.6
55596.4
27524.8
21505.6
20814.1
20080.9
26481
3078.84
-6731.72
-8544.99
-26891.4
-27203.8
-39397.4
-45906.5
-28318.7
-20736.4
-13751.4
10592.2
12725.3
1205.95
1358.59
-2899.01
6391.03
39554.2
29541.9
12876.3
21206.4
5336.67
4870.07
7048.96
5939.79
4291.11
3008.72
-4230.93
2102.99
4365.44
3871.11
5192.15
11064.1
2679.35
17791.4
638.602
11552.3
-2653.33
-5057.17
-20734.6
-23967.7
-21902.4
-12417
-17838
-8430.34
-9996.83
-26428.9
-23527.3
-12016.5
-6745.14
-8521.44
-15047.1
-14642.8
-16211.9
3266.64
-11460.1
-16901.6
3697.27
-15939.5
-18869.8
4002.2
4236.73
9927.19
11848.8
-1610.52
-16063.3
-28543.3
-17753.4
-13969.9
-14680.7
-14169.4
-11483.7
-12018.3
-11287.9
-12868.7
-19237.7
-6021.99
-20992.5
-24254.5
-7421.04
7632.02
16101.1
856.351
11234.9
1917.26
3365.4
-2758.3
1463.9
5084.36
5070.64
-1003.35
-2434.97
-21924.2
-7657.74
-12393.6
-5946.44
-251.702
1418.3
1358.34
3055.8
3366.74
-482.405
35236.5
24278.4
15660.4
8001.11
17029.3
24656.5
17213.9
33650.9
26451.5
26600.1
18517.8
4353.95
24717.4
42110.4
84759.9
58976.6
42381.5
28952.6
50664.4
68929.7
76462.4
56591.4
43361.4
2001.02
-14104.2
165.416
-1440.36
2599.63
-3427.15
-1542.57
4410.4
-715.084
-23253.5
-2194.45
2187.16
8102.51
5588.3
568.104
-927.891
5243.43
15263.9
4732.36
1610.14
15026
9542.2
1428.29
-4709.38
-5038.14
-3579.47
-6392.67
-717.561
5414.85
-9179.21
-7371.27
3189.47
-2901.78
5530.25
-4471.21
-4048.87
-11567.2
-45294.9
-34857.1
-60333.8
-30205.5
-32852.2
-24067.1
-8084.47
-26674.8
-20536
7450.59
-11671.7
-14301
-9240.74
-17326.2
5651.84
-2185.67
-2995.19
-23887.2
-48459.6
-39745.1
-6069.34
-1829.62
-11918.7
-3751.8
-257.061
4910.77
4616.42
-756.583
-6208.37
-2468.78
-11703.4
-9073.24
-22107.2
-23247.4
-2291.69
-6125.19
-2110.15
-7674.21
-12357.8
-4274.99
-2336.52
-1842.89
2372.08
10290
2271.23
-617.464
-4788.19
-20.093
-4878.2
-6519.6
5306.13
5066.3
-8428.93
-4208.85
-17236.4
-23851.3
-11442.1
-21770.9
-31139.5
-13865.6
-2084.04
-26231.9
-9653.76
-21971.1
-21131.5
-8895.35
-15416.2
-2346.05
-827.831
-936.859
3234.94
-378.742
6938.95
7447.15
13698.9
1785.49
-1856.78
-5351.12
-1658.62
3286.89
10218.7
6853.61
6503.74
-425.19
17217.2
14933.7
10369.2
24703
11827.2
8666.47
8411.53
11501.5
19602.7
6225.81
9751.32
1974.87
-2156.67
-955.317
-1057.38
-1367.62
-3565.98
-5267.73
2285.93
-24555.9
-16465
-5241.52
-3100.4
-11834.5
-5698.87
-7116.2
-10869.7
-11629.9
-5982.52
-5925.32
-8573.02
-9758
-4168.29
-4076.02
-5717.92
2823.86
-1212.36
-2676.11
-2903.55
1437.48
-1417.05
-5768.83
10774.6
3957.29
-1175.09
-505.696
190.918
-5452.87
925.258
-1845.79
-9473.66
-7139.02
-25717.8
-1824.94
1824.07
3101.89
9751.01
7323.91
7691.36
6212.57
-18219.8
-28240.3
-822.522
14729.5
4561.77
-15955.2
-6750.48
-17237.1
-11927.6
-29232.2
-45272
-26914.7
-16077.5
-14744.7
-9443.77
-10645.9
-217.802
16474.4
19773.5
16918.2
14814.4
16128.8
44452.6
49362.2
43560.6
70348.4
65121.6
53599.9
54155.8
48176.5
60741.4
57782.3
66049
76279.2
70593.9
78951
56715.3
66283.8
50158
19925.7
12942
1407.55
-1940.97
2146.07
-3605.95
-10325.4
-8978.98
2491.57
-2556.79
-562.456
-2104.86
7007.4
-10282.2
-18661.7
5861.58
17508.4
12287.1
18351.1
3318.29
2618.82
-1716.79
-3172.73
-3967.71
-6098.84
-4698.91
2931.38
-6207.68
-3367.66
572.879
-2200.86
-8302.8
-1799.53
1908.85
-3963.04
-18186.3
-4434.4
-20007
6934.73
5102.08
16241.2
9360.95
14829.1
-16129.6
-8848.21
7056.98
16789.1
10618.2
31817.7
28043.9
32595
20053
74515
67536.8
79807.4
72606.3
54902.6
59595.7
14740
1008.87
14393.9
1793.19
4057.88
9846.58
-7218.02
-6362.29
1689.33
2937.54
17876.4
6335.66
-1355.28
-17197.4
-8386.15
-9381.13
7528.98
6818.88
-70.1115
-2003.44
-1881.15
958.361
-10423
712.182
-1264.76
11748.3
8538.06
4009.61
-2242.64
-8289.72
5548.18
8021.37
11963.4
28593.1
20455.6
53351.2
50714.4
26433.6
-8580.86
3448.21
-2052.68
669.662
4466.06
6559.61
7506.53
1054.23
2055.02
12679.4
10793.4
6085.05
-8448.95
-9234.78
-29033.4
-21463.5
-6698.57
3067.11
-12395.8
-19238.2
-18322.4
8280.82
-17998.4
3031.35
-7342.68
-16683.1
-11890.5
-17168.5
2542.48
-3367.64
-1804.11
-178.007
201.49
5601.5
-2051.96
-320.124
12028.8
-1075.92
1954.27
-6076.6
-8426.9
-1348.84
-4996.72
7717.07
274.849
-5568.03
-577.502
-13434.9
2370.52
-13909.3
-3018.11
-6326.54
-14797.6
-33724.7
-6202.88
-5636.57
-12597.8
-2541.94
3200.9
18988.5
-667.398
-11797.3
12283
15109.7
4405.57
-1923.23
2292.97
34931.4
24391.1
15272.7
9963.61
18734.3
17887.4
13222.3
15838.7
13679.2
-1296.41
-6999.14
10121.3
-4452.5
-6089.85
-8914.57
-7229.23
-22716.7
-20096.7
-3401.73
4424.57
8920.89
12134.2
1938.12
-19901.5
-2277.8
10017.2
6904.35
-1858.88
-10163.4
-5739.58
-4442.18
-7079.72
-6264.37
-5748.5
-3962.84
1804.73
-4776
9794.8
8149.42
11677.1
6373.31
1934.9
5515.23
6226.33
5421.69
-3614.87
1452.23
8835.8
1516.11
9235.39
34.9123
805.218
-5917.57
-7038.33
-11660.6
-8853.06
-8359.73
3164.07
2793.67
4545.67
134.729
14628.5
3835.7
-87.1567
1011.91
4473.97
2314.14
-3889.05
982.556
412.009
-7510.58
-13220.8
-4891.19
-6711.62
-6114.29
-7678.46
-6709.4
-4774.93
2387.66
-17513.7
-24093.8
-17134.2
-24333.2
-4246.4
77.3856
-7902.26
4421.55
20077.1
8455.01
10198.8
-8001.21
2314.58
14828
8166.72
-15493.7
12165.1
19382.1
38937.4
14475.2
10124.3
3784.11
2788.94
1693.53
-9591.78
-13107.3
-3113.88
3399.56
7670.63
5741.74
2645.85
-1112.47
-1480.17
-9902.71
29501.3
20314.5
12495.1
6643.69
21553.9
21764.6
37891
23361.4
4392.67
-6091.19
1842.38
5332.42
10287.2
9107.3
37458.8
3842.21
21666.8
22738.5
32550.4
33119.2
49081
22052.3
13075.3
29707.5
1489.71
4421.64
7301.03
1039.21
9024.27
6967.22
9572.73
1000.53
-11087.9
-8519.68
1947
-6036.07
-16078.8
-5931.41
3003.42
24404.7
23720.3
22464.8
30342.8
10542.5
3210.61
11082.3
17982.2
25633.2
19724.9
2229.81
10580.8
10488.9
44451.7
28651.7
15566.6
25027.3
38953.2
22710
30010.5
25260.4
15609.3
17263.1
14724.8
25459.8
35433.4
43037.5
11496
196.199
4512.1
1071.64
2750.53
12176.9
5142.58
-5295.32
6368.06
-3459
5063.43
38030.2
33508.7
18814.7
32654.5
29244.4
31221.8
12105.2
6307.96
28690.3
20689.8
20570.8
31887.1
49921.2
29473.6
23757.3
17989.7
31649.5
32314.1
30060.1
14687.2
17565.3
18807.2
11970.6
-17.1271
-6474.53
-10327.1
-3920.49
-921.134
931.59
-13092.1
-13216.6
-5239.49
612.757
-10147.4
2007.83
-4287.54
-369.336
883.481
-1587.56
7999.01
-5841.62
1568.27
-994.697
7336.11
-10775.2
-7299.14
-13107.9
-5262.19
4508.24
3858.46
-4341.89
751.073
2077.3
-3828.51
-4612.62
-10124.8
-11946.7
-9916.62
-2670.68
5512.18
21467.5
11307.2
8362.96
4950.48
-4087.96
-5358.42
-5171.05
-6899.18
-13350.5
3012.9
2648.87
3201.38
-519.012
2502.86
238.152
1701.24
5020.42
6516.08
17768.5
35643.9
19896
18751
17934.4
18068.5
18238.3
26954.2
63546.5
20968.5
7372.37
14355.3
16078.9
2695.26
-2457.86
-21650.6
-4044.78
-10983.5
-3783.86
-1629.19
-1137.68
15027
-2820.46
4819.17
-1481.66
-8161.14
-10535.2
-8038.79
57.5564
2449.91
-21872.2
-14664.7
1363.19
-6373.67
-1827.8
-13.6116
1698.01
1866.44
12141.3
9902.51
-2038.34
-5751.32
-3490.04
-5496.37
-18324.9
-8698.39
-1987.61
-9825.79
-10373.8
-15017
2474.27
1907.3
4573.38
-523.163
-2567.7
-2583.72
-10400.1
-127.756
-9713.71
-8027.23
-5937.68
-4132.01
-4937.83
-21607.9
-9943.73
-8242.74
988.68
7708.06
4333.71
-313.865
1861.19
6090.48
12454.3
17985.3
8254.51
197.208
12162.7
17881.7
23249
17900.4
-2440.55
9184.23
10859.6
17966.7
33949.8
24268.9
17916.1
4712.33
-1963.96
-4925.21
3507.17
-7283.33
-9074.17
-13898.2
547.413
-12439.7
-10927.6
-12416.6
-780.955
-4390.52
5273.53
-833.586
3776.89
-5140.81
14223.2
2162.48
-7482.26
-7931.21
1043.23
9990.73
19633.3
33640.6
28425.6
23972.6
2999.01
4756.48
25941.9
36492.4
38211.3
31649.2
19710.8
20213.9
15109.9
41959.6
928.891
19186.2
28763.7
41959.7
35339.2
54572.9
40734.4
38287.2
18465.8
37526.8
22120.6
27199
28576.4
34733
15157.3
20581.1
39820.4
29304.8
38860.9
42764.3
47719.4
37519.4
23590
36207.2
26557.9
24230.4
15368.6
4825.38
1857.38
-1982.32
-1620.56
2226.36
-11503.1
2059.65
-424.355
15165.1
23085.6
29851
24606.5
4906.79
10279.3
-806.38
-4621.79
-26511.4
-13445.8
-15200.4
-6128.39
-1227.76
-7504.61
3941.85
9273.13
990.397
4091.69
2437.31
-7976.91
-6240.65
-2087.34
-11148.5
-54300.8
-51084.2
-46220
-41239.1
-7279.66
-6597.05
-4969.58
-13664.5
-6975.69
-23581.4
-10781.8
4476.73
-8248.03
-17589.2
-18020.2
-9665.54
4938.65
-2283.83
-1609.53
691.327
-4107.94
-3815.83
-15116.6
-22773.6
-5326.67
-1320.75
-13621.7
-2343.09
-434.823
-2797.47
9341.4
6311.89
14301.3
-2970.9
-7749.05
-30.4336
-16.4967
-7831.67
-872.312
-233.249
-6631.33
-7496.89
1851.49
1648.99
10237.6
-2023.72
335.167
615.266
-14911.1
1681.17
-974.571
-1562.39
-782.024
-3972.19
-3397.46
-6475.89
5280.71
4592.29
23837.6
31243.5
42716.1
54293.1
39879.7
29544.1
55092
44531.9
37963
71006.9
85922
87646.7
52238.5
79093.8
53059.9
49406
45829
46186.2
38506.3
29957.1
19803.4
5089.51
2221.11
10938.5
826.495
6849.47
5020.59
9971.57
1934.46
414.635
440.739
-2958.17
5213.7
-537.022
3363.27
2074.72
-7030.67
12580
17336.3
11892.9
614.697
5979.03
-8057.84
-5740.39
-3079.9
-16104.6
-12261.8
-5226.67
-14043.1
-4339.75
-1867.14
148.697
2224.46
-10465.5
-11520.4
7099.69
4054.88
9541.59
205.12
25202.8
16682.4
16531
15246.9
17574.5
17812
5728.74
-973.219
-4116.23
4790.03
-6261.64
-20577.3
2858.26
13217.3
6718.45
788.903
6022.52
-11845.2
-11741.1
-6142.14
25605.9
-7226.67
-12436.9
-3972.24
14323
-688.324
6135.12
11.273
7538.33
10083.1
-4275.1
-7410.7
-15706.6
-16570.5
-21998.9
-12996.1
-21860.1
-19661.9
-20503.3
-40779.2
-31014
-17017.1
-1965.81
8298.02
-1674.54
2338.66
966.493
595.359
-1396.4
1449.55
4928.01
-4361.07
6080.11
-1658.73
-5972.38
324.491
5006.02
6867.03
5555.88
-6469.03
-6340.37
-2100.84
-231.774
-10609.1
-23419.8
-32611.2
-9440.7
-5602.62
-27757.4
4469.93
-6472.6
-30449.6
-31675.1
400.447
-16426.8
7430.82
-10398.8
-3632.57
-23860.4
-5179.19
-11104.4
-163.793
-2151.89
-306.926
-5048.26
-2251.95
7599.3
8989.65
27729.1
22611.2
8985.58
13153.7
13180
4759.23
-6247.6
-28038.3
-17716.2
-14758.5
-21946.4
-18154.6
-5261.87
2043.01
-3033.03
-14235.5
-32351
-26279.3
-39809.7
-46325.5
-16532.2
-9632.35
-2261.03
-6377
-13527.6
-25730
-12661.1
-5840.62
-7519.44
2725.37
-9230.74
-16033.1
-17796
-6633.98
-4931.73
-8767.66
-6338.91
-11019.7
-12978.7
-13458.6
-11685
-23014.7
-12750.6
-14971.9
-4171.8
-3435.73
-2152.79
-3572.76
-4581.55
5069.5
2085.58
-2781.36
11615.7
12441.2
20247.3
11980
6952.37
4931.35
12228.9
-12032.7
4211.23
2809.72
1950.82
-4102.5
-1270.05
20136.7
-9578.5
-7571.89
1120.88
14100.4
28394.7
2895.48
-1735.2
7765.67
11850.6
0.69701
4117.92
4331.53
12645.9
8571.28
-887.279
-427.931
-3002.83
-8178.72
4428.51
10924.6
14166.4
11041.4
12533.6
13303.4
8736.31
13732
7228.84
10725.8
13584.4
1691.8
9166.89
19676
8467.14
3933.61
3532.78
2907.42
-7876.06
-8394.55
860.805
16265.8
35391.4
17240.5
14547
9981.03
3555.67
-6461.76
-12660.8
1726.06
-4659.69
-6403.58
-11656.2
-2839.14
-492.666
14257.4
483.803
4515.67
4351.15
7902.3
9718.02
11703.7
5519.78
10981.1
13730.2
35775.6
31962.7
9158.51
16944.1
3016.24
6120.85
16564.9
13173.2
22702
38826.8
35561.4
49697.1
17742.4
16100.8
25355.9
18414.8
30741.6
50158.9
45392.1
59934.6
36029.6
7687.85
17099.3
1995.6
2614.17
945.982
2936.2
2312.41
-8990.07
4511.29
30155
64282.1
41044.4
32362.4
2972.75
19404.4
41918
32702.9
28692
6419.6
-18005.1
10383.9
5991.74
8705.12
-1383.94
28963.8
44321.8
47805.1
40175.1
55717.5
52238.4
50312.7
63452.5
55260.8
73189.6
54313
55852.1
56059.4
73079.3
53971.3
24573.6
19104.2
20520.6
39155.7
62832.1
72422
67535.4
53258.3
50691.5
47524.4
21735
3825.83
3127.47
7781.99
-6631.93
6619.3
-13113.5
16010.3
40821.5
52826.6
60401.7
66947.2
28511.2
27276.9
38997.2
21693.3
14033.1
32554.8
14460.2
10290.5
12378.3
18233.2
44393.4
44936.1
50136
50243.5
53827.5
66738.7
68740.4
59651.7
24794.3
-7190.97
51232.2
14711.6
32122.5
28346.6
21009.1
14175.7
4359.83
-10166.2
-2610.08
-6252.89
-19686.6
-10988.7
-5162.61
-5346.61
-77.1393
5123.9
9557.03
33971.2
15257.6
30074.3
32056
33903.1
35839.2
49776.2
39696.6
48994.4
49888.2
38227.5
37240.3
44383.4
60627
25053.9
17944.1
5509.51
-18219
15632.7
12773.3
561.395
1241.38
9020.06
4921.29
18515.9
15359.2
5329.84
8222.86
15254.3
21879.5
14135.7
7062.48
-1148.1
-2057.7
-963.368
-11750.3
565.775
-3842.78
1679.36
1412.98
8052.83
10719.5
-4192.05
7633.44
6938.52
4979.91
4492.16
17635.5
15251.2
19703.9
9497.29
11509
20500.6
13686.4
12980.9
-8447.5
-2918.03
-2537.46
-3382.76
-3620.2
-13018.8
-13073.5
-10811
-837.992
-1083.18
-7688.93
-1303.57
9351.76
20427.1
26038.9
22529.9
58812.8
37677.5
12587.6
12514.9
2529.88
1750.91
15970.6
15616.3
16222.1
26585.9
27528.8
34226.4
41577.5
29541.4
15294.4
18022.7
48523.1
52146.6
85985.9
61157.6
61095.7
57693.1
38689
42722.8
40284.9
49784.3
36715.9
2280.98
-14527.8
-15621.7
-8044.41
4709.03
3241.72
2219.41
-819.861
-2139.38
-684.09
-1468.01
273.363
8150.71
11444.4
18765.8
1322.8
962.686
9549.05
1701.86
-5972.99
-3045.61
-2306.23
-4804.32
-24693.4
-39355.1
-43059.8
-37980.5
-5726.58
-14426.1
-7435.17
-10618.7
-4803.61
-11144.9
-12214.1
7695.45
-507.458
-15097.5
-14333.2
1749.42
11435.8
6381.92
15873.5
41848.5
23923.3
21902.8
17175
4214.22
-1989.59
1488.81
3497.31
-6093.1
-5979.81
-1348.34
4661.59
719.002
7685.24
4937.34
9252.33
2852.13
6938.4
-9303.39
-9315.64
9561.98
10489.6
312.089
19100.7
30510.9
22552.1
27983.1
48251.7
48965.3
78086.7
96820.3
104942
143806
96024
107200
102333
60859
31892.4
1878.46
13072.3
-11771.3
-34710.2
-26534.2
-20996.7
230.068
-10798.4
-17602.6
-15366.8
-5195.29
-1775.24
-12864.7
-15049.9
-26753.9
-12186.1
-10677.1
-27249.7
-22394
-2394.84
5906.13
10245.3
-2048.85
-253.967
626.571
13110.1
11080
119.566
-77.8017
-5536.6
-4564.81
-21435.2
-8690.17
759
-8167.54
-3095.24
922.911
1109.42
-2482.5
-6656.58
12503.1
-2294.51
-20325
-35558.2
-40313.6
-1730.56
-2248.57
-1096.47
-5536.05
-473.397
2513.54
13445.2
527.74
3172.23
-485.571
-2345.23
-4970.97
12946.7
26618.9
15784
7996.93
340.386
-8471.43
-37208.3
-23732.6
-6739.77
1971.61
5272.08
-15021.6
-12427
-3487.23
-5522.32
-10174
-2311.53
3504.84
1030.41
-10979.9
1319.33
-1145.66
-3298.16
-9921.02
-10875.6
-3232.9
-5774.85
-7634.68
1540.57
3539.01
-1031.03
2288.55
4363.16
4997.99
6709.38
5423.15
12313.4
-13732.7
-13895.4
-11416.9
-11428
-3785.45
-1129.05
-4887.13
5416.39
4782.5
3669.44
-797.929
-4138.36
-6945.04
-336.918
-3055.45
-3713.18
23123.5
11600.3
7994.95
-9941.18
-14560.7
4874.75
13505.3
10728.3
24923.7
16083.4
23343.2
64142.4
71373.4
92998
62685.6
64786.2
71692.3
93826.7
105058
80154.5
59731.1
53912.7
42000.8
65291.4
67726.1
59737.5
52334.5
42413
79358.9
83137.7
83345
75453.4
73475.8
39188.1
38091.2
50552
36991.4
36128.6
36727.4
34803.5
16045.5
-174.442
-25006.4
-31527.9
-34593.9
-26435.1
-5832.35
6047.8
-1778.4
-2880.8
-8611.39
-2881.98
-3983.84
5423.34
11832.2
5852.25
1767.89
-13620.6
10555.1
16890.5
24457.6
38096.1
36643
59182.7
51836.4
63520
76342.5
59612.9
40774.2
39888
37910.5
24751
28542.3
5180.03
5534.25
11044.6
8347.92
-6552.1
-23432.4
-27868.4
-13140
-6948.89
-4287.94
4472.72
10111.4
4263.77
1174.25
-2931.26
-5497.2
11268.9
10949.8
10054.4
12864.2
-1663.28
-2589.15
-3408.03
-8386.22
-2098.01
-728.423
3355.72
10652.1
25981.2
20237.8
26246.7
9472.55
5572.44
41997.6
46719.7
51123.6
42947.9
36741.2
31183.5
17582.7
11144
25368.8
31764.9
35517.5
7743.92
-9605.62
211.313
9011.71
-10122.5
-15767.9
295.742
-8309.69
-1620.8
-13610.1
-2041.89
-13521.7
-22538.3
-28528.1
-32148.9
-11482.3
-9576.38
-3187
-4735.66
732.717
1350.68
3657.09
-1015.37
2524.35
-1419.42
2097.14
-1601
1406.28
2011.08
5681.92
-7134.29
-17400.2
-11999.6
-4781.5
2780.03
11199.4
6507.85
3329.53
6625.79
16261.3
6630.44
14626.6
22859.7
-15424.8
-6615.64
-5182.32
6568.33
12667.5
9858.39
5091.45
10191.5
9572.34
17586.2
31415.4
11796.8
15678
-7229.97
877.175
8684.3
16405.3
19489.4
9121.6
26545.3
24183.4
26223.8
33791.7
32760
23853.4
8378.31
16191.7
21917.9
38932.6
35106.9
43857.3
37850.6
61463.8
69210.2
44574.3
36033
31105.6
14718.1
1849.22
8278.56
7195.38
19717.2
14728.9
-9484.58
-8816.77
525.636
-611.887
-7252.53
-8560.11
415.453
-1761.14
3902.78
14679.2
13207.2
-2511.68
-18378.6
-10701
9127.04
8374.67
23787.6
30044.5
59622.8
48504.2
65424.5
31578.9
28092.4
17610.4
17094.6
23046
15812.4
17560.8
25182.2
66248.6
70526.5
96500.9
92544.6
71355.1
25981.3
3625
-5820.79
19311.1
-18576.9
-5995.9
2982.08
-14177.5
-14236.1
-19468.7
-2030.72
684.58
12941.2
36362.7
6746.19
11258.9
11273.5
1015.12
6968.18
5742.63
3913.75
-1074.57
-3861.47
-5776.63
-4689.75
-5571.8
-12849.2
-14997.4
-37046.3
-13721.5
182.729
3965.09
7969.35
5627.44
7791.96
2246.81
-2583.89
-19060.6
-17943.6
-4916.23
-10672.6
-2450.1
-9121.08
-1707.27
-6617.41
-403.852
1201
-2328.03
2391.06
118.987
10454.4
4296.02
15813.9
5843.32
11931.8
10124.6
17826.3
24008.1
70113.8
94984
89852.3
56395.2
35138.3
36038.6
23724.8
52624.7
30756.1
24946.7
38051.8
40213.1
47880.1
43640.7
45632.6
31785.2
17654.7
186.982
5242.95
1809.12
14173.6
3350.98
18700.4
13961.2
8685.27
4062.58
7050.06
6625.04
-1672
5528.85
1297.85
1063.79
2953.83
16678.1
3683.19
631.428
-7401.93
-15638.7
-10219.6
-10082.4
-15915.7
-12289.8
-10185.1
-22956
-5465.88
-4364.34
-1347.56
3288.8
-3767.75
-9178.67
-7847.55
-4421.84
-6015.98
1859.25
701.69
-4875.71
-704.684
6588.77
19630.1
26085.2
20605
11047
22739.7
16213.8
11627.8
21734.5
23156
14983.8
21965.8
21072.5
1542.36
3747.95
30978.4
20138
43744
22979.2
10898.7
9156.5
8412.01
11043.2
29113.7
20744.8
-2834.9
-4212.78
-5076.79
-6039.98
12409.6
24943.1
13183.7
1494.83
3332.33
13530.1
8861.26
23365.6
16746.1
17123.7
10880.2
-1751.29
-3659.82
-2799.54
2290.53
7189.99
309.328
-8335.83
-20136.5
-21976.5
-10932.8
268.385
3683.53
2748.05
-3984.03
-12211.1
-10471.8
-8206.21
-704.664
11653.8
7737.95
2883.73
1306.24
-2804.22
976.061
645.059
-26105.6
-19723.3
-38480.7
-19458.1
-4913.05
-10697.1
620.83
10763.4
7305.61
18506.8
31189.9
22184.3
27811.9
32418.2
32027.7
21698.6
18926.9
28776.8
16214.2
21647.1
10159.1
-1550.26
-19423.8
-24406.2
-20878.5
-13545.9
-2215.77
14191.3
-4127.62
-10552.3
-5347.75
-545.419
-238.635
-1523.88
1635.34
-3784.57
5025.79
8482.32
-4353.45
-2203.1
-6654.05
-7214.62
-11790.8
-2913.07
-7744.97
10749.6
9919.77
-2101.84
-4463.44
-14966.5
-16868.3
-9447.1
-7278.13
-4016.88
1933.64
-6237.45
-11766.4
-6919.22
-12589.7
-22986.1
-19152.2
-25764.5
-26438.5
-5344.96
-33845.5
-42957.3
-38501.8
-27278.6
-7289.49
-11495.6
-26336
-8760.77
-4840.64
11181.3
-8155.22
-16259.7
-3057.32
-44931.8
-50816.3
-60715.4
-54537.8
-42602
-12475
-5207.49
12781.3
14173.7
16352.5
10321.3
-5159.57
13511.6
-4153.81
-13850.4
-17634.4
-7461.73
-6919.47
-8496.83
-14225.7
-9906.34
-27904.4
-47064.2
-27826.2
5533.43
18932.4
-2775.84
-17077.3
-25007
-7979.52
-9809.05
-3803.8
-4602.84
1124.13
-4993.03
7022.66
20368.3
20785.4
11912.4
-4567.26
13102.6
321.765
4304.14
10352.1
8605.83
1369.79
6188.93
-2153.47
-5249.13
-8718.17
-19731.1
-5434
-3211.14
4721.1
-1715.52
-3813.23
150.402
-3901.38
-9118.25
-9241.32
-5097.85
-9378.9
5115.9
7443
12636.6
4262.49
10282.4
-160.486
-9060.67
-1246.21
5848.73
-1339.5
7106.23
4241.69
1191.85
3978.02
-13880.8
-15776.3
-779.068
2824.16
-8178.14
6317.29
-7029.69
-6179.25
-10241.6
-8442.26
5016.93
-405.017
3436.85
7693.94
1188.38
1021.89
-2596.26
-12100.7
2931.79
8618.75
3314.34
-9541.15
2036.36
8478.87
-2883.97
-4622.59
-522.94
9373.85
34560
28309.5
33904.5
42421.2
30214.5
2301.38
4994.06
9876.41
11281.1
10143.9
13811.4
13103.4
21362.9
20204.3
27114
22724.7
10160.1
-14171.2
-26095.7
-36859.4
-22133.3
-28993.4
-9986.27
-22233.4
-12512.1
5145.66
5834.99
11334
15257.7
33131.5
10269.1
-2095.3
-1196.32
6411.26
-240.186
-9212.95
5226.5
-526.396
18121
16550.5
8977.52
11997.2
13023.9
-10619.8
-5086.22
13188.9
9218.82
6075.77
1178.5
-3803.88
3943.7
24340.3
14790.9
20450.8
15483.4
7500.94
-188.042
3002.17
3699.32
995.622
6559.75
463.663
-5424.88
-9554.78
-17147.4
-20306.9
-3776.87
-4056.18
-15077.9
-6639.5
435.457
-5056.97
-2686.96
-4454.25
310.693
2092.75
6850.54
19376.3
14025.7
8454.74
15817.5
-6482.69
-21855.9
-6075.44
814.169
-13568.8
-14406.2
-8051
-7250.96
2672.55
3212.67
-3205
-3444.52
-657.707
12918.5
16861.5
23038.9
16122.8
8373.64
13333.3
6467.63
-5978.49
-9649.13
-12662.2
-10729.5
7879
12326.1
1465.24
17571.1
2197.88
-10149.1
-2355.73
-2703.47
-11384.6
-15227.1
-6102.24
-5766.27
-9194.44
-743.891
-6071.61
-1863.99
-5432.94
-8039.37
-1075.15
-7389.56
-6089.26
963.842
1026.2
-4482.93
-5574.91
214.03
13599.5
2719.46
9249.18
8511.47
3367.74
5913.96
-157.228
-6421.8
4618.63
4844.35
-3732.73
-4237.26
-12219.8
-17548.8
-7832.37
-10825.2
7441.95
2347.41
-4310.7
-4518.2
-2504.14
2718.45
-1061.28
5413.16
7242.55
-15594.4
-23176.1
-28456.2
-6660.91
121.647
-4370.27
-7191.15
-4515.31
-9930.29
1147.21
808.658
3900.21
-7596.73
-10201.8
15666.7
21325.5
35840.7
33826.5
16637.5
22611.1
14860.5
15928.2
36729.1
29679.8
12995.8
28529.4
8564.98
31857.7
39346.7
52856.6
68940
71728
26248.2
-9589.71
-8191.72
-403.528
8759.06
8255.76
9042.4
7105.54
-17835
-25848.5
-18906.2
4941.5
10477.5
3368.2
5533.78
4490.25
680.383
5796.22
40092.9
13718.8
7477.47
577.515
3852.31
-9953.37
6169.85
15557.4
14376.8
37244.4
26061.5
16445.4
23606.7
44165.4
50327
49227.1
43819.8
43187
63332
40858.2
26622.1
-7714.32
-1216.46
12349.5
22124.1
12203.4
37511.5
12880.3
10302.4
1897.85
-3693.57
-2477.88
-4264.73
7489.68
19402.6
22322.7
64634
44351.2
23413
15271.1
6944.51
8680.59
3830.47
1501.62
-4114.18
9830.12
19615.1
4535.87
3816.65
1948.15
2839.03
-5307.45
631.136
-46.8381
6269.4
7634.01
2505.03
3726.23
-250.516
4487.83
5086.41
2658.23
799.914
3335.48
10369.5
9048.67
15016.6
2033.39
1070.55
3016.72
12126.7
22754.7
38087.8
55103.2
18890.7
20268
15233.7
19786.1
968.418
363.85
15258.8
1816.1
10017.1
1829.47
11247.3
964.532
-3368.95
14992.3
16530.6
5118.66
12122.7
11636.9
14744.8
19786
11721.1
32383.6
76649.6
82159.2
103431
49871.4
73574.7
81473.8
107501
61945.9
71214.4
83825.7
75739.4
43291.2
47615.3
54568.4
32326.2
35977.3
43914.9
51212.6
23531.3
21400.7
15956.3
-6423.67
-17055.5
7323.49
8056
12996.2
33362.9
29949.6
22967.3
-7252.15
-19947.3
6967.75
3722.17
-651.761
-302.256
1915.03
-1243.83
-3039.06
3544.78
4260.37
10218.7
3118.69
-4297.19
-6188.49
-7396.92
-1666.86
242.237
-3011.23
4784.26
11012
2094.89
904.072
-333.56
2999.71
-5290.75
2079.27
4825.73
1952.21
-1614.33
379.027
3944.07
540.072
-19.1175
2594.52
-174.778
-857.21
-6881.55
-1888.56
-1928.69
6287.44
20796
-6590.35
-1840.36
-3733.98
684.182
-1595.8
-14575
-322.891
-2604.61
536.541
82.0916
16055.4
26444.9
4355.58
-961.5
-9255.87
3677.51
6332.69
10494.1
23282.6
39201.3
43495.1
55790.8
54614.9
21940.9
9185.42
6025.64
11521.3
3278.65
-3680.48
-6659.75
-6885.84
-18293.7
-5197.26
2986.02
1309.06
1506.15
-6691.34
-4691.99
-13205.7
1894.03
8201.16
-3345.39
2124.91
1015.74
6952.21
-11262.8
-5888.29
-10918
-166.964
-14678.4
-8993.52
-7215.17
5292.12
-3169
-10432.3
-11876.7
-8799.24
-8242.46
-1802.81
-1019.29
-6150.48
-4915.91
-8153.01
241.902
-1581.23
-3463.69
3998.33
-4877.71
-730.503
-551.886
14672.4
3541.2
-2417.54
-2598.67
-1993.7
-731.833
-3867.99
-1290.83
3535.38
-7266.91
-4063.18
-5728.25
-1354.43
-2619.46
-6369.17
-4544.32
-4423.86
-2454.44
226.952
-1479.26
-239.086
11125.7
14753.1
28333.3
21090
23237.6
28673.3
40221.9
32227.2
27760.4
31484
51587.1
43865.4
51133.4
25136.4
8069.21
-2685.3
-4465.69
-10394.8
-3152.53
1089.67
3022.97
206.638
1774.33
-7622.52
-8241.69
-16714.7
-19980.5
-11798.5
-8991.65
-14463.6
-18891.1
-771.433
2479.09
12871
-563.838
-2417.24
-5135.08
-1255.73
-2140.46
-1.58907
3770.57
641.796
1609.86
44.8861
-7670.98
-13421.7
-11901
-19453.9
943.975
-13208.4
-6517.59
-6825.64
-22510.2
-4734.88
-2669.01
-9580.77
661.328
10258.4
12774.3
25499
26820.9
4253.29
5607.8
-4689.43
-8791.61
4676.91
2543.67
7957.17
3398.87
-5135.65
12941.3
28668.1
26108.1
17895.2
27383.1
23147.6
16423
12840.3
22242
22178.4
18454.3
5012.26
6523.38
3168.53
934.86
5402.93
-228.464
5567.94
7545.64
14060.9
13700
-1594.99
9251.52
19824.8
23972.6
12870.7
31329.4
14544.5
11264
32170.2
58121.6
50333.5
43252.6
15213.7
41599.8
64016.9
60224.2
27584.5
32986.1
11539.3
26102.4
23129.7
33147.2
50249.1
30116.1
12174.9
18333.8
12767.4
18346.1
11424
3999.85
-2830.58
-15455.7
-43855.7
-13861
-8798.53
-159.686
6375.55
1363.77
1998.55
3780.49
2658.3
-11513.2
3456.14
701.194
-4090.48
-6702.26
9128.59
5779.85
1940.93
7302.67
-2723.87
16900.8
41678.9
37414
40081
30265.6
35228.8
43614
28098.7
14171.8
29676.1
9489.63
4173.79
10330.6
13616.3
22933.4
3820.11
1586.06
2421.91
1369.34
-15478.1
-21863.8
-25965.7
-21105.2
-24385.6
-8827.94
-9524.65
-10922
-7761.55
-11401.9
-26608.4
-13714.8
-3938.53
-550.201
1600.13
-7814.99
533.842
-2693.24
5294.38
977.415
6599.25
21274
22919.1
-6873.87
29457.3
38858.7
23299.7
23619.9
26114.2
18916.1
7569.22
18317.9
13289.4
1567.32
7180.92
1128.44
5298.65
6420.91
-3031.96
-11930.2
-18010.1
-5466.91
-3665.25
5345.01
7880.44
11039.7
-4885.91
2316.27
-1755.74
-8866.42
-4785.63
2312.82
-4482.12
-2865.04
-621.758
-1409.13
5738.78
-3375.02
-7326.6
9233.96
34930.3
32200
25710.3
-5722.97
-2318.85
604.29
-2706.61
8784.29
20138.3
49055
30846.5
42051.3
21345.9
9825.63
-753.062
-10229.7
-12671
-5224.12
-6847.98
2407.05
-1599.89
-2958.61
-1859.16
-15637.3
-990.325
-8284.82
-8023.84
8977.52
-7807.55
-10380.8
-8046.53
440.008
11019.5
21209.8
25402.6
24343.7
20392.2
10703
9197.86
1857.39
-5303.79
117.602
3873.81
5508.02
-4067.19
80.2133
10554.6
1105.25
4087.92
-2801.52
-3091.96
-1980.55
-2941.54
1343.89
690.985
6348.17
651.65
-23058.8
-11499
-9943.26
-23794.4
-12286.8
-9231.42
4252.47
11984.4
13183.2
14265.6
2398.13
-2072.8
1493.66
-8159.07
-6297.57
8604.53
6922.36
-2317.47
-1299.2
-13436.6
-5971.61
-806.621
-14393.4
-12895.6
-13350.2
6141.39
8339.76
-1897.28
1772.37
-2307.81
-3760.51
-2668.3
7009.89
-2864.48
9383.72
-1686.95
15277.7
11404.7
7410.27
1535.52
3919.48
-471.366
7526.39
2403.08
9773.55
12115.2
17770.6
9944.01
26588.1
44055.5
38942.5
18952.7
19676.4
26032.7
22830.6
25794.7
32414.1
32549.7
42751.8
19632.3
13918.3
186.835
2348.37
10514.4
11620.1
-1398.67
2235.5
3387.29
2473.26
11297.4
9589.57
5836.66
-4966.27
8508.46
24936.4
16991
40903.9
35952.9
31306.3
8837.74
-15361.4
-5664.76
11789.4
8019.33
909.243
1372.29
-6656.94
-11058.2
-19909.8
-12317.5
8291.26
-1773.41
8111.19
-3655.38
2585.62
10575.7
7836.24
17659.4
34545.6
-4928.65
-2574.88
5998.8
12013.6
10238.7
6048.55
4782.32
18104.7
16246
6558.31
-4397.36
-12766.7
-9999.12
-6492.97
-14283.1
-656.109
-4777.5
-2071.92
7755.38
6758.65
5259.18
12061.9
5547.58
18409.2
16027
24911.9
30092.8
11680.1
14241.9
12108.1
-7263.15
-16127
-20162.4
-10680.5
-17524.8
-10288.4
-21972.8
-17314.4
2182.53
12145
21649.7
19224.7
33830.3
10138.8
8160.17
13621.1
-7231.24
3603.12
-9119.78
43696.8
77697.7
94054.4
76944
72387.3
49899.8
40582.7
14364.4
1943.8
14713.2
-3466.96
6528.25
-5368.59
1404.17
-8579.19
-40.9635
2754.21
1742.53
7515.66
19130.6
29310.1
9251.03
-2065.11
19835.3
9703.22
12915.7
16004.3
21643.9
9464.9
8168.22
7852.94
22341.7
19186.6
11166.6
-13311.3
-31811.7
-36754.1
-19565.7
-24398.5
-22839.9
-20216.1
-32500.6
-21867
-29735
-37136.6
-8321.49
29456.1
41956
28159.4
6727.11
5814.44
31310
31173.6
42611.1
40886
38678.3
13507.1
-3345.61
-4519.29
-14825
-16150.1
-15753.1
1196.77
-857.538
-9531.12
-8848.42
-729.259
601.1
-11338.3
-1060.41
-6831.67
-10803
-622.209
7929.92
4880.25
13499.5
9135.32
-2546.62
-382.4
7825.2
-156.895
-3009.2
1768.25
42.7998
17505.5
5930.06
-2434.26
-4478.73
-4833.52
-7529.09
-31036.2
-22122.1
-28290.2
-15340.7
-21158.1
-3897.89
-3581.07
3212.48
-7165.17
713.826
4049.4
-2083.49
6330.1
12637.3
11965.9
12739.8
15892.5
-7235.67
4166.89
25352.1
29515
-4879.12
-8283.1
-8186.08
-27781.2
-1874.43
-11511.6
-9905.14
-9274.96
-29607.8
-14719
-13695.7
-393.253
-2623.09
-2565.19
754.228
8362.15
-1936.86
-19078.3
-12060.5
2855.18
11537.6
19561.7
28316.7
13710.1
-964.532
2779.5
12916.3
20695.4
8509.21
10033.2
11699.7
19324.5
4953.67
6118.43
-4729.31
-1628.19
5665.67
6010.94
5004.35
8727.77
5555.05
12561.5
8075.73
-2172.76
2517.35
7287.19
2396.7
-777.093
5917.14
3631.53
7461.32
-2299.55
627.942
8051.45
-2044.55
-7602.41
-6214.89
-8704.37
-10835.2
503.423
-2819.42
1041.47
2610.92
-1076.76
-932.93
-614.432
-14730.4
-2944.15
9087.92
29596.5
9013.65
7622.54
7535.22
-5732.84
-31453.8
-16989.6
21340
6525.45
4410.45
2053.08
3538
24041.6
26910.1
20976.3
17119.6
17883.2
15501.9
17970.1
5340.13
2671.27
4889.12
13489.8
1641.44
-1393.58
-461.51
-14.796
19462.9
21917
14455.2
7073.42
-3827.37
-8960.21
-1536.73
-7934.92
-3360.96
7480.3
7404.51
18340.8
29648.2
18321.2
19774.2
39138.7
36151.6
45254.7
36442.1
29312.4
37651.1
-2468.4
-516.562
-8816.05
-6153.23
6308.41
-6277.73
-4216.49
2147.72
571.79
-6028.83
-15510.9
-28553
-15576.1
-7260.77
-8562.09
-12943.6
2873.19
3176.98
-2717.92
-8129.86
-6980.12
-861.066
463.375
-2844.97
5795.77
2320.43
16791.8
8140.61
5350.66
-2200.99
-20767.3
-10091.5
-2539.4
22714.9
22040.1
13492.6
39440.5
19611
34679.8
33630.3
17906.5
14350.7
16324
23710.2
13262.8
5921.5
391.357
-13164
-8802.34
-9914.45
-22581
-19210.6
-14744.7
-23583.1
-15094.4
-1382.33
5729.77
12883.9
2243.41
-2964.74
2548.92
-7584.89
-9119.28
-2228
-5127.54
1823.91
5111.81
-397.636
5797.9
7088.87
10799.3
21251.7
20386.8
-3362.88
-6770.99
-9584.56
682.601
-1340.72
-16554
-19555.5
-16640.4
-10395.9
-12440.7
-19426.3
-1809.78
10742.6
2781.26
-18014.7
-25036.6
-18742.3
-4927.5
14712.9
8505.22
14113.6
1566.42
4582.42
17981.7
1795.77
10255.2
22345.1
33385
4207.74
-8063.96
-11258.4
-12476.5
-9037.15
-5374.7
-6139.79
1935.77
8478.76
12425.9
-296.415
4290.93
-3514.13
-5868.61
7563.33
5699.09
3055.27
-576.23
-4000.67
3203.04
-2746.14
14.7937
762.937
-4969.66
-435.166
2063.82
1321.88
-3029.55
3676.57
14219.4
3231.85
8106.82
28116.1
54831.2
36471.7
27944.4
15997.8
-8117.01
26113.1
37886.3
22764.8
18097.6
56329.4
57571.7
50272.1
35469.9
28771.6
48464.6
63549
80821.5
49416.5
57273.7
47155.2
49167
80667.1
49191.2
47191.8
25492
54423.6
69120.4
63188.4
64299.2
36959.6
63973.4
106588
72709.1
39169.9
32085.8
50089.3
53683.6
64801.9
39098.2
69482.6
47257.8
38255
24355.1
46886.9
52440.8
43904.3
41263.7
19690.1
9381.99
5411.77
11850.4
5547.57
-7765.1
-9584.04
-2306.32
1327
4577.68
-5478.03
-2402.9
-6226.38
17343.8
29794.6
14854.9
-5478.84
-10539.8
-13410.3
-10312.1
-9731.74
-8657.07
-8048.33
-11732.5
-6018.24
-6363.48
-1072.54
4431.99
12766.9
-2187.72
-18220.2
-22948.1
-20015.7
-12457.3
-12315.2
-23392.3
250.306
-301.066
6302.52
710.219
1948.15
-11422.1
-45366.9
-43946.6
-36470.8
-24789.8
-12372.5
-10979
-1552.94
3628.5
2122.65
4046.08
-958.304
12578.3
9239
11867.9
23517.7
17137.7
32889.7
37662.7
51008.5
34367.6
32832.3
23458.6
9829.46
677.408
-8308.69
-10863.2
-11980.4
-5207.86
-7176.86
10168.1
20860.8
26050.2
8916.5
14225.5
6313.62
3920.5
6920.38
14491.2
19135.8
31376.5
29872
35076
11860.9
44609
45403.3
23501.4
14739.5
29676.3
-275.782
-4342.06
1403.34
9930.09
4948.72
4261.9
-3040.29
-7690.58
-11561.6
-5998.91
170.135
-15461.6
-16007.3
-14706.6
-31906.8
-23417.3
-6840.89
-15510.6
-10054.7
-5795.39
-9414.43
-5895.11
-9555.06
-1864.74
5990.41
17766.7
20592
9920.12
7468.77
8072.71
9029.83
376.621
2355.49
1743.69
5853.11
5297.26
20432.7
14830.3
17238.5
26957.8
18541.2
7832.03
6245.24
10207.5
20645.1
14378.2
-8991.16
-12995.2
-10913.1
-12173.5
-7186.57
-2180.06
1259.46
-3450.87
-9350.04
-12577.1
-5347.17
-8260.96
-1818.87
1660.09
3691.63
8165.08
-2874.03
-7956.24
-3076.22
-1412.01
-2894.13
-697.999
14448.3
-9806.38
8620.13
8173.59
7832.45
51507.9
32857.2
20371.2
39422.3
58348.8
63988.5
36620.1
43603.6
20906.8
34984.6
40387.6
26975.4
12336.1
17072.7
2321.71
20813.2
7156.26
-1597.99
11611.6
12482.5
7759.28
4456.78
8779.74
7773.26
6353.88
-1925.3
5686.2
-2870.51
-899.279
-5116.42
-11790.4
-23356.7
-13653.4
-8469.75
-17017
-20983.4
-24548.1
-11506.8
-12703.6
-6454.19
7548.2
-7264.1
1979.43
-279.263
1124.72
103.181
-3036.72
-6997.46
364.791
3145.79
-19234
-18707.6
-8373.4
-13333.8
-15649
-7016.36
1366.49
-18272.2
13056.1
230.842
2507.22
23119.5
4746.07
-2090.71
-3336.25
6351.49
-14992.5
-15628.1
-8107.79
3625.26
8753.16
19478.3
28821.7
21009.7
11471.4
4452.18
5208.16
7437.53
-8838.88
-7420.95
2793.2
-23288.5
-20299.6
-2475.83
4743.96
14025.3
27105.3
62617.5
53241.8
46636.7
18711.7
24995.7
24644
10929.9
3062.93
9848.73
22019.6
18781.1
23365.3
23453.9
12620.4
16555.3
14695.6
6027.22
8399.89
7118.08
372.984
605.755
5488.12
1113.15
-508.161
8539.54
10157.5
11549.5
-3723.95
-10938.1
-2331.16
-10855.6
7145.34
15130.2
-16268.7
-10536.7
-11424.8
-354.092
-13832.9
-29294.9
-16951.1
-7561.28
-11855.7
-1253.67
6163.56
1732.15
13240
28426.8
7743.69
27486.7
15677.4
27796.1
14294.4
2571.71
-8320.39
-5116.63
-5525.55
1786.83
4823.36
5417.19
13471.1
17543.5
11341.2
10035.8
25518.2
62381
34345.8
39793
52005.2
30145.3
15929.9
9491.57
8289.56
2892.5
-3774.92
550.856
-104.345
6100.7
262.418
-2031
-3852.54
-4662.07
1526.46
4562.04
4190.59
1557.54
584.691
-7245.97
-5687.49
-1547.42
252.109
-2868.56
-1044.84
10444.9
3527.56
10738.1
10218.9
16375.5
18798.2
8566.03
7615.26
-2191.93
5115.82
-5102.2
-11818.7
-19275.4
-26024.2
-15032.3
-31501.1
-20957.2
-12944.7
-10366.7
-254.996
1108.56
5680.05
10658
13445.9
5707.12
15412.4
17923.1
12021.2
15270.6
4864.55
6968.21
5741.68
7825.53
34857.2
18000.5
15929.6
27251.9
50058.9
51235
62837.6
97114.5
90050.2
104933
108596
105987
122314
112205
84652.5
112050
73234.3
75576.5
59944.2
64821.1
85556.5
100980
40286.2
80991.5
82473.7
51862.6
865.942
-24318.8
-19757.1
-22335.9
-5541.37
-6641.6
214.88
2048.21
2426.02
-1330.03
-13556.7
-12480
-10908.3
1198.95
-2979.73
8205.79
16016.5
5498.91
-875.822
4668.29
2113.61
1736.26
8860.32
1888.2
-7303.15
560.199
-23.9065
-1792.67
601.888
-539.181
-6087.25
4985.06
3214.11
-3591.9
11189.6
13103.8
-850.955
-5313.63
-5118.51
-1675.8
5393.14
2802.61
-1351.48
-2972.96
-728.036
-3469.94
253.903
27979.6
28121.2
11083.9
-755.877
14741.4
37966.6
32963.5
39495.6
23780
22241.8
31258.6
30848.1
14090.9
18474
43335.3
70847.1
60639.4
44978.6
42888.9
30804.4
32701.5
25259.2
20051.9
35462.5
9030.11
12457.2
17908.7
23303.7
10512.7
8625.82
15963.1
7640.49
6852.45
8439.63
-2865.56
-2345.08
929.429
-8378.42
-13797.2
-20094.4
-21410
-8851.13
-16248
-3933.2
-10989.5
-13737.8
-11180.1
-18552.9
-10514.4
-4947.06
-7415.05
-10709.6
-12270.6
-8006.05
3130.81
5515.13
-3442.04
-3852.74
2573.32
19608.2
28953.4
23083.7
24361.2
5649.58
-11779.2
-4545.72
-2344.04
-421.157
-991.638
-4949.26
-7259.15
6524.95
6894.42
10392.5
19420.8
14970.2
4947.18
12787.2
-5970.21
-16056.8
-32205.4
-44417.8
-35977.4
-28517.8
-31511.1
-28022.9
-54284.3
-34892
-17005.6
244.371
-3563.43
8657.93
-418.877
-6997.56
2118.49
2524.05
1259.73
-6114.25
6303.98
11039.6
11961.9
14501.8
13586.6
41202.1
27733
13496.5
4968.84
-12872
-20067.2
-32356.5
-21957.2
10508.9
14130.5
-7469.56
-2200.93
-1248.14
-4220
5072.11
-3186.33
12065.4
10351
11444.1
26776.3
-4825.12
3586.6
-1141.2
1734.18
3363.39
-5689.1
-579.197
4981.44
5178.34
-4526.46
8492.93
13319.2
572.379
-3404.02
4061.85
-2630.23
1074.39
-10053.6
-3346.27
5398.53
-1147.08
4430.79
-6581.59
5254.69
9668.14
5295.33
-966.616
18665.5
24903.9
6148.38
7904.26
13653.7
-17199
-10352.8
-21207.4
-14327.6
-12020.3
-18112.8
-14491
-11603.1
-9494.51
-2811.72
-2485.87
32032.6
16170.2
6025.99
13767.9
12003
2943.89
-5665.22
-25166.6
-12585.2
-24610.5
-33523.6
-22898.9
-22772.3
-10382.1
-17978.1
-8623.2
-7606.07
1032.25
5116.48
13838.3
4694.14
2628.71
2451.75
-11453.2
-18041.7
-20166
-13484
-17933.7
-8105.22
-5032.6
8734.13
14039.8
2255.86
-668.411
-923.254
-1401.07
-4044.13
-12629.3
-15246.1
-16486.8
5783.17
19418.1
11098.3
7739.65
-2361.62
-16523.1
-12699.4
-4679.4
11365.6
-183.713
-14057
-4737.85
-16244.3
65.7303
5131.75
6303.64
13410.2
7495.01
21112.8
12366.9
-7005.42
-7681.46
-14949.4
3361.27
11952.4
944.563
-19719.5
-16001.6
4586.41
-3828.08
-11438.9
-10088.8
-11718.1
-15951.7
-19017.9
-10849.3
-3069.55
13282.4
48816.1
35262.5
23021.9
16786.3
7566.09
-2766.66
-6591.4
-2030.8
1209.06
3779.35
164.223
941.394
11464.2
4009.67
3729.62
-2401.54
2926.77
-15.7117
7135.35
7978.28
15244.8
9260.33
11678.2
13964.3
-11820.7
4680.1
2734.58
11177.6
379.818
-5354.16
3668.54
10017.6
2008.68
3020.26
10436.8
6646.07
29112.9
19044.8
40182.5
29488.5
35996.4
32055
29540.1
17605.4
12088.2
2136.72
-7720.47
-4845
-2013.45
11739.1
4599.53
5775.94
-18077.8
-17601.1
-14123.7
-12010.2
-10936.3
-1326.5
-11300.7
-7717.65
11991.9
9888.6
-3455.35
-7935.74
17262.7
7415.51
8584.13
16474.2
18383.4
18251.1
18515.4
29941.2
21312.9
29042.8
23296.9
40093.2
23607
676.572
10702
23398.7
39316.3
16029.2
14896.2
20793
21533.7
20284.2
13001.4
9809.37
10072.2
4922.02
18468
30415.6
42098.4
2240.85
4006.87
12817.9
-350.139
-11432.3
-5382.31
1898.09
-945.384
3117.32
6825.31
17092.2
16261.4
5210.75
1034.59
1590.09
-144.688
437.126
-1571.38
709.967
2015.94
2830.74
6971.84
9502.6
6145.21
-27748.6
-24245.7
-22680.3
-8084.53
-128.602
-7.66701
-5800.03
-10711.8
-5112.18
1301.3
-2196.84
-2561.61
-7801.11
8962.36
20443.4
18250.6
36424.7
15169
39266.7
34688.4
47776.4
33176.5
47480.3
62167.8
51799.7
34027.4
21476.9
22406.4
23605.8
46424.6
20919.7
2844.57
721.407
9272.15
-4445.08
2251.35
13670.3
5860.34
3864.36
-4549.3
-164.306
6152.97
2215.52
-539.177
-916.344
1614.93
12942.1
6110.46
-2663.8
9422.48
-1116.2
8222.01
-4675.66
-3610.67
-12087.9
-12665.5
1171.36
25367.3
1935.18
-10491.7
8962.8
18108.4
19370.3
20485.7
6516.07
4179.54
5847.63
3234.25
993.642
-1267.98
8411.46
-37155
-9480.46
-6632.73
-2079.94
-986.966
-20591.4
-16956.7
-19520.2
-35121.1
-46278.7
-34067.3
-27642.5
5742.89
6273.79
13130.7
16500.6
2688.25
11592.4
8782.13
7496.07
9109.88
15596.1
13692.1
6832.76
2790.22
7730.27
-12064.7
-5692.51
7817.09
33631.1
32049.8
37300.9
26044.6
16561
16925.7
9998.1
2604.44
-191.054
726.555
7057.23
7481.72
20307
16499.4
8288.12
4243.16
-2957.26
-3933.29
589.963
4544.47
4224.3
-1161.28
1707.06
-3110.64
-7131.1
2975.86
318.913
-6520.66
-3128.42
1445.39
-4099.52
-19010.2
-21846.8
-6766.4
8042.81
10934.6
-233.541
4166.57
-717.461
-7786.26
-3188.78
-6830.63
-2689.14
-13378.5
-4616.67
1325.92
3163.2
15636.3
10048.8
5322.81
-3261.78
-7042.97
-4433.91
12242.6
11935.3
14864.3
-2140.92
-23804.1
-17180.1
-4935.69
-4422.54
1676.71
9068.07
4946.95
-5391.69
-14847.4
-5439.93
-12475.6
-22711.2
-7065.88
-13044.4
-11624.7
-12026.8
-12751.5
-32975.9
-54636.3
-37121.7
-17905.6
-267.806
6271.83
5742.56
12425.4
-1833.64
-2331.45
577.858
-366.272
-6236.42
-2192.89
14623.3
-8605.49
-6041.72
-18320.2
-7748.01
-6736.03
-9138.31
-5528.19
-3184.32
-2672.11
-10156.2
5010.14
17426.5
44209.6
28171.9
26472.5
8071.87
-4329.86
-35798.7
-15483
-26238.8
-192.381
-3503.5
-7777.79
349.842
3949.81
11934.1
27810.4
51024.2
68855.9
71265.5
50593.4
25912.8
28733.5
22604.8
10959.1
22366.9
27488.2
30094.7
26602.7
23162.9
38154.9
21687.5
32005
34273
33167
30533.5
11563.1
12560.6
-14479
-15443.7
-2479.66
-16120.1
-11383.9
-4205.91
-2036.51
-3772.21
7937.4
2001.49
-4008.02
10774.7
-6754.94
-11419.3
-8078.09
-18833.8
-13475
-10079.5
-5920.93
436.563
2455.86
-1723.71
4317.54
6956.75
-10363.6
-2857.79
-6584.9
-15543.4
-21518.5
-4130.04
9924.8
3385.37
5492.57
4651.77
6839.41
-2120.82
12779.1
7535.84
7261.94
-6091.8
-6124.47
-12276.2
-25255.3
-24583.9
-3581.31
-1537.5
30.526
22858.6
7649.82
5340.08
8938.15
2379.26
18702.8
19505
9714.56
6395.78
17205.5
9512.49
1456
-18289.7
-19103.4
-25423
-25825.5
788.007
-9225.01
10112.5
14137.2
46576
37161.5
27757.6
18072
10886.8
14695
6549.71
-2198.59
-3571.73
2467.78
-4.45957
-410.123
3998.81
4424.97
3836.84
-699.935
4442.51
8010.29
1590.84
875.759
-1915.38
-7826.45
-5203.25
-6244.6
11948.7
17674.5
9931.79
9015.41
7407.96
-2933.56
-635.699
-5976.86
2798.77
-14.7621
1718.37
-1885.65
2173.27
5793.4
16421.1
6316.12
13354.7
15292.6
6352.2
-4136.58
-1850.29
5555.86
9232.03
16759.6
-568.662
7368.98
-6611.27
-10841.8
-6465.89
-200.116
17184.1
20246.1
14041
10822.9
30396.4
36882.6
37435.1
49453.5
45209.6
17833.2
25151.3
28771.2
22267.4
7467.44
1178.94
-2837.29
7601.1
5410.35
1723.1
-19365.1
-1728.46
-2458.37
-5997.65
-11133.6
8283.17
5683.3
19567.3
15496.9
-4513.19
-1581.77
-4480.41
21556.5
7780.1
-656.89
-2211.76
839.841
-611.787
-2223.45
684.16
5677.03
8556.04
-2611.13
-412.753
-3313.64
-2832.05
5076.25
3802.76
1753.79
8628.24
18861.4
5087.44
-785.851
-13731.2
-4361.04
-4655.67
1526.24
4664.49
-4770.17
-8097.01
-14500.6
-20628.6
3900.56
-2111.81
1902.24
5445.48
8426.71
11067.7
11719.7
1239.89
5907.96
25600.2
47371.7
50413.2
43263.5
57727.3
48493.2
46520
-16864.2
-1889.04
-13448.2
-5416.4
3515.48
20503.9
15000.3
36352.9
18915
4280.33
10339.2
16847.8
7247.95
-7951.77
2489.1
-4370.34
-1054.64
-462.848
715.405
-9529.25
-28081.7
-23105.5
-20026.2
-6181.22
1624.41
5985.99
14633
7884.02
2403.23
7093.55
12317.7
440.347
27778.8
12005.9
816.502
-16243.1
-14088.1
-9397.5
-4930.09
1895.2
5717.43
170.856
-3316.12
-13308.1
-7899.07
-8721.64
-15455.9
-8355.42
-2637.14
-1102.03
10248.8
5164.65
-2965.28
-3603.57
3152.63
-8927.93
-6390.46
1501.59
-2835.96
16353.9
-2794.05
-1006.82
-7127.49
573.534
18900.4
31551.5
20588.2
27121
19083.5
24882.3
44422.8
22382.5
13547
13613.9
4692.69
-8953.99
-10804.9
-10267.5
-13679.3
-27151.7
-30326.2
-10629.1
11068.9
12394.4
21998.5
10773.3
24582.1
29098.3
40297.1
48722.2
22553.1
27858.7
12968.5
5367.83
6000.15
17500.8
18741.7
-4417.28
-9327.92
-7348.9
-16110.8
-3440.38
3735.57
2293.63
-998.648
89.4834
4515.06
5252.36
-3938.72
-3965.77
2569.47
9368.84
30976.1
15593.2
7674.34
13585.8
14342.2
-515.312
-3546.89
-29285.3
-34123.4
-4808.08
-4427.81
15372.2
24126.8
19325.7
25521.1
26848.3
5793.32
11495.4
18066.1
27112.9
23334.7
25052.8
4110.6
-307.96
-5825.15
3464.84
2438.07
7971.94
-3329.2
-4455.5
-8076.59
-34591.8
-35891.8
-16510.9
-13875.4
-8535.06
-19145
-31045.7
-21765.5
-6795
-807.734
-2730.83
-10012.1
932.114
-763.146
15463.1
7528.2
1952.25
-7022.93
-114.485
-2766.57
270.839
-781.496
2707.61
5781.57
2691.07
5149.23
1508.7
-2722.45
-327.198
-716.214
1060.24
-919.272
-1205.59
-1706.11
3043.47
5053.17
9461.66
-9829.42
-9260.6
-17978.6
-11806.3
-2191.62
984.271
2810.35
-571.69
-947.142
-2094.14
-6088.68
2073.01
-17907.3
-13820.3
-12406
-613.499
-10257.9
-14.5186
-2611.66
1210.75
-5444.3
547.774
-6030.31
-547.951
3321.94
6684.82
7478.88
-6274.9
-8156.28
-9376.71
3129.16
-5771.82
-7064.33
-4177.63
-7089.84
-7616.04
3489.33
19796.6
13145.3
19052.3
10230.3
18742.2
10091.1
2573.29
5225.4
80.3224
-1189.91
5674.08
15953.1
10152.1
15881.9
30001.3
11470.8
13193.3
-10586.1
-2639.15
-2635.77
-12426.2
-11461.2
-6744.2
-19718.9
-14856.4
-34762.6
-27013.7
-24395.8
-35349.6
-20821.9
-9023.08
-25449.1
-28296.4
-12504.7
109.507
-10303
-4911.53
-20866.5
-17700.2
9854.87
3931.48
-4503.87
-2329.89
-85.7691
1129.02
6482.16
9932.66
-3589.52
-2948.26
-997.285
1041.04
3726.82
-4326.78
670.914
-22627.1
-12824.1
-9501.65
-2359.88
6830.68
4055.99
2296.41
-492.621
1876.69
-2933.51
-3078.55
9520.49
16586.1
26285.7
57726.9
60440.7
28287.3
60902.8
86825.8
39793.4
33342.5
63783
64381.7
62705.8
67065.6
44582.7
44883.6
68693.1
109226
137580
140901
113321
101510
144296
118359
130156
155850
137516
117663
87135.8
68616.4
65111.8
55832.5
71228.1
66245.3
63831
40628.3
41711.3
29894
19708.1
25867.2
16805
18911
14342.6
13138.3
16497.4
1468.06
211.919
7205.67
-5026.08
-3617.48
-3848.8
-2504.72
-1446.7
-1971.66
-8932.44
340.422
68.4325
3298.71
8505.21
6639.23
-2645.32
-1246.93
152.147
626.939
12113.6
3636.64
-27058.5
-25276.2
-1268.9
-651.723
603.819
-763.127
2919.24
5012.35
6505.62
1855.89
9851.21
-5340.6
4270.59
-7992.63
3878.69
-1470.51
-2855.05
-38455.9
-13598.5
7056.51
12662.8
4956.23
2556.67
7163.23
4797.78
-1141.74
-7913.53
-28370.4
-31929.2
-39208.2
-11066.7
-6459.97
-2051.9
-5543.08
-12842.4
-5841.69
-2359.76
5689.98
-3467.7
-3758.15
-1919.33
-422.127
4538.94
-1121.58
2013.62
664.687
-1728.16
6025.58
4854.38
-9089.53
-13878.6
-20125.8
-11878.9
-903.922
514.73
712.298
13045.9
9271.49
35009.8
12316
28113.3
17998.1
-3267.67
-12357.1
-16641.1
-36507.7
-29684.3
-14616.7
-4490.59
-13851.4
-1200.06
4566.04
-2085.98
4227.02
9226.71
1118.64
4595.55
3853.55
817.649
7833.25
-7853.56
-4288.77
-4170.49
-1491.89
-3170.1
-8162.06
-7054.62
-8923.06
-16148.7
-4117.08
-1663.58
11413.6
1205.89
-4472.84
2257.19
786.863
-6763.14
-3198.21
2995.22
-4512.8
1503.78
-1625.79
-8356.11
-7204.32
-1809.03
-2957.35
-9359.21
1467.3
3027.48
-9998.31
-8375.5
-13855.5
-16968.4
-12539.4
-11118
-6080.68
-16235.3
2050.64
14383.7
27407.8
7990.08
12445
8580.38
13269
1093.45
806.724
4995.18
-882.256
-3504.79
-1651.83
1636.23
-3473
8014.63
12286
-6245.04
-8478.36
-5822.73
14591.9
-1860.67
-1305.43
2832.79
4140.17
7800.69
4284.2
11106.8
-5121.62
-1767.44
4082.08
9470.63
15431.8
-923.078
5816.88
-15156.2
-5744.88
-8348.94
-17636.6
-50542.3
-32982.1
-16139.4
17988.9
17480
9918.58
8016.66
-7798.33
-7586.49
-6901.01
-7202.98
-2846.16
1140.69
1273.92
11364.1
27904.9
32825.3
17923.8
21438.3
10380.8
13478.6
14727.4
2938.69
2945.66
6579.68
-3628.64
-8654.36
5038.48
-1513.78
-7366.57
2186.61
-1177.02
1928.09
457.233
6136.31
1212.23
-1925.75
-2427.27
-2709.91
19727.5
6529.89
17955.6
65817.6
29787
6646.31
3403.05
26881.7
27805.1
10754.8
-13361.8
-1121.65
-12750.8
-20746.3
-19344.2
-18708.4
-13180.3
-12518.4
16474.7
14300.3
682.97
-12805.9
9368.38
