2521.93
-2326.6
-7969.22
-4069.31
-6819.68
1724.86
-3385.13
-550.817
-770.984
-3302.8
-1118.98
-1520.43
-1051.85
-203.581
3285.36
-341.822
-6302.86
7007.56
784.9
-4798.85
1744.42
6919.92
-7813.49
-2682.72
-5495.22
7666.3
3486.53
-3406.8
-5091.52
5353.66
-2888.02
-1595.95
8251.11
7646.46
-575.689
4562.38
1367.42
7048.65
-5353.06
-438.354
1232.68
326.448
-617.491
-1061.42
4529.33
2475.57
8480.35
-3527.62
-1522.43
4284.33
-5442.33
-3361.78
16652.4
-2212.13
9818.12
-2693.59
-1235.76
287.145
2329.47
2839.91
-4275.58
-8969.84
8089.6
5305.78
-2462.45
7330.82
-1565.49
-6540.56
-5293.69
875.044
1956.54
-3118.4
-1087.59
-2175.85
7533.69
1920.87
-4511.21
1841.92
-7020.26
-5887.75
595.274
2383.3
113.889
-6299.25
-11034.7
-2105.46
6789.56
-5247.94
-401.734
-3578.22
-3170.98
-2376.44
856.122
-6436.14
-8765.61
959.52
-1568.41
1190.21
985.051
2280.15
-937.717
-93.0592
-8672.6
-4185.85
3930.83
3422.03
-252.81
163.448
-6087.92
-7229.95
6829.47
719.095
4929.04
5120.5
-3793.56
1420.07
349.639
5867.73
7838.09
9860.73
-9429.9
-10598
7164.97
6191.81
-191.292
-8170.06
-5764.86
-5802.99
-8063.37
-490.52
-1165.15
-13583.2
-7694.33
3064.69
-2989.12
3761.72
6580.98
3881.8
8176.5
5970.3
5152.45
2392.36
-3169.42
-1829.41
5481.59
6065.66
1179.83
3249.38
-2279.52
2110.12
-3439.83
1482.24
1499.12
-10124.7
1058.04
7378.72
-1235.91
-7118.21
-4426.38
4116.84
-4314.01
-12925.3
-7560.34
6497.62
-227.957
-3800.05
1918.93
7718.8
-22977.7
-1830.83
-5251.22
-1597.22
8225.91
891.293
3615.8
6406.16
-604.54
-6211.45
-2735.23
287.358
2262.26
-321.565
-5549.42
1119.74
7970.73
1796.13
7517.29
6151.97
8557
1090.66
3249.01
17911.2
6367.8
2713.64
-3624.07
-1018.29
1311.42
10902.2
-3000.36
-1801.12
7244.26
-480.154
-257.703
-12505.6
-1895.01
-3356.58
-7738.64
-5335
18.7709
-1909.67
-6479.85
3490.98
598.107
3143.9
-1160.48
7399.65
-298.474
2481.71
520.124
-3333.9
-3408.58
11979.5
-6997.73
-5835.53
6123.32
919.946
-1299.7
4019.97
-2509.08
15991.6
1558.66
1542.53
-6958.62
9490.26
-7084.09
18967
762.158
3422.67
5367.06
-1131.48
-4916.8
-2069.59
3970.59
6391.33
5326.48
9017.59
-4686.75
-4478.69
5302.31
4762.89
1141.68
6137.53
-2567.86
-1302.74
8640.04
246.344
-1990.51
-17372.6
-278.362
-3176.1
-12410
2058.6
3081.04
5199.14
1202.85
4507.42
2415.53
-1557.91
1008.44
5225.78
-6222.65
5214.77
-24.2384
-2332.56
-4670.32
6759.56
258.166
1740.49
1360.37
1430.17
-2510.79
-2087.28
-1583.54
6961.18
4330.27
-2268.66
1838.83
-1149.55
-4551.36
-5980.21
3776.28
2138.23
10863.4
2171.03
3348.94
-24.2786
-6151.12
7396.76
1904.71
3775.25
3938.23
2057.73
-432.304
6164.49
-14532.7
499.342
1565.3
2049.35
-3244.18
-72.2192
-3539.21
2834.26
-61.5034
1298.39
-11593.4
-6581.91
-377.314
-1605.91
1818.07
1029.5
2097.88
-11268
-4644.53
10039.8
-1789.59
1846.35
-552.414
5002.51
-123.657
775.504
-6355.99
-2679.68
1271.37
-1833.8
10178.5
-7465.65
-2631.17
2304.43
-3330.51
4266.37
-5933.27
-1450.2
-2956.87
-1692.01
5236.93
-2937.27
3531
-6344.68
8549.64
-4527.74
4995.4
1521.82
9735.15
21788.8
2238.89
12585.4
-3969.04
3158.95
-2171.76
-2969.64
-1188.18
8533.68
-780.363
2184.43
2262.08
2069.53
9070.38
657.017
-2350.96
-7310.8
-955.27
4379.36
3601.48
-1845.36
-801.463
3522.61
1231.51
958.687
2149.3
9266.83
-4564.85
7494.91
9109.32
-6567.16
7069.39
-5492.12
1048.95
9419.3
-1277.53
-5315.02
2642.46
9307.12
-1962.82
-3021.31
950.901
6320.74
4668.41
-2685.44
-1760.45
5108.1
187.384
6547.96
-1024.25
-7801.45
-6261.6
-2027.03
-4780.18
5044.1
-661.937
9917.95
-1143.07
-778.295
10270
-9530.34
-1291.01
-245.839
-2872.66
2898.49
-8062.6
-5407.33
-8471.37
6230.74
12274.8
136.543
4841.81
2789.64
3435.19
2106.64
-1543.05
-3.67192
-7014.69
5214.08
-3532.35
5932.02
-8727.3
-2314.01
3887.81
-7417.55
4098.26
505.394
8588.41
4020.04
-12473.1
1047.48
749.543
867.607
3039.99
-3460.36
3143.23
-425.638
-921.203
3470.31
-10241.8
5559.35
2469.37
-1054.37
577.191
-1683.84
-2575.63
-876.003
-1688.02
-5037.28
4362.03
-1787.78
3911.34
-4201.15
-1407.91
-324.359
2995.51
-583.683
-4976.58
-756.361
3903.11
661.166
3467.24
-1623.13
1907.71
6973.38
1082.2
-2052.94
3689.32
-6592.43
-975.677
4198.29
-6649.5
3890.89
6664.34
2890.22
-8807.64
-2709.15
-2414.79
6408.71
-303.154
-3536.87
2040.26
-7751.53
9326.58
177.706
10359
10899.7
3722.79
-6844.11
-5296.89
-873.135
567.538
-8185.33
-957.181
-1585.1
3043.73
-3208.03
3284.06
-1938.7
-345.428
-10744.8
-67.332
3694.7
-4558.83
-7790.09
187.853
-2484.69
-857.475
-1992.67
3181.51
-3510.91
-3980.37
1545.65
3815.26
5589.86
3968.38
-11252.2
4148.19
-2601.19
2987.53
1342.02
7041.43
3744.39
-1277.28
5602.16
3468.72
-134.671
5387.72
4526.99
111.935
1202.07
6077.18
1060.5
5352.56
6001.94
1260.51
5916.24
750.913
5788.16
-5173.8
2965.26
-8323.86
-4531.75
-7399.95
-6594.36
11054.5
719.524
-6330.79
-15938
-2994.93
-506.807
-1515
-2091.61
-4780.27
-660.01
-997.075
-1663.54
13594
3758.74
1234.02
868.266
-2792.73
8048.31
-9482.71
-8720.8
-2270.97
3481.94
3702.12
4492.9
-695.116
-2796.01
1926.27
769.981
-463.133
4339.15
3011.56
-1857.08
-6163.26
-320.023
-3102.04
-3695.1
5417.29
-5949.81
-4809.24
730.109
-5000.78
-4175.19
-103.871
-1326.54
1128.77
-3775.56
-5312.65
2777.27
6066.76
6887
-332.182
-2862.64
-1919.88
3640.69
1580.62
-97.1725
6372.41
-3059.55
4219.34
-1461.85
6467.69
1597.62
-3063.76
-2790.54
2069.24
-541.813
-3448.49
-1152.2
-2150.57
3415.59
-1985.17
8692.82
1276.42
-523.277
2018.45
1740.84
4802.7
-2616.02
-737.603
-2321.1
1882.22
2922.59
-15959.3
-6514.9
-1156.36
5797.88
-5240.05
9035.74
-2949.33
1832.27
3674.25
28.62
2078.2
832.091
-775.381
-1845.22
1399.57
7518.77
-5903.71
-13673.5
5904.97
-4152.49
-3993.97
-2186.79
14057
-681.385
1669.29
-3940.4
-1900.51
909.038
-824.871
-657.695
5801.64
-5673.16
-3284.32
3514.51
1451.6
4973.89
-3032.98
-11989.7
-2957.91
-4118.51
383.903
-644.682
811.542
219.71
2304.82
-1828.69
5192.65
4549.58
-1661.72
-12334.5
3591.45
4045.59
-7380.07
10640.6
3713.16
-3183.62
1504.72
-4719.79
-506.396
-1298.87
-3983.62
10417
-2694.09
796.732
-2773.38
-1776.74
9872.36
5689.71
577.089
-853.62
-6624.55
-968.449
4474.22
3531.02
-5631.12
-9561.86
2609.18
581.452
3376.34
183.1
-8158.1
-5793.79
3365.12
-2867.75
7327.55
-1163.65
3552.87
743.77
416.507
-1648.24
-2233.93
-2790.94
-8219.73
4693.52
-5348.42
-3273.21
1899.48
-4664.8
6441.91
1202.89
5376.06
2989.13
-4066.61
4223.69
-1002.03
-6644.85
2080.48
-1995.3
4953.62
-2687.09
-919.384
1278.78
251.703
-8446.28
49.8
-3989.05
1944.93
-9318.66
-1091.35
-4747.37
-1064.33
-9734.65
12667.3
3601.21
11990.8
2378.98
-1202.51
-7633.9
-8124.59
352.727
-2678.54
-1163.36
-539.271
3609.27
-4920.22
6965.56
2678.22
-5976.99
4426.78
-340.639
-2040.53
305.542
-11396.2
-13895
336.942
281.301
15.036
-7282.17
5343.71
-2202.45
1932.53
-581.032
-5541.8
-10727.3
-4364.7
998.944
486.573
5847.64
3254.72
-1858.57
-4880.76
1653.97
-784.125
1739.31
-2939.75
-5723.77
3668.47
5121.75
3309.16
-919.193
12243.7
5057.85
1454.91
-2997.19
-4288.45
2792.65
2879.3
5148.33
-910.765
377.529
1004.89
1153.7
4793.76
7171.75
-570.851
-6141.55
-4605.11
-1504.95
-1910.92
4830.85
4718.03
-3528.45
4110.92
9014.55
3161.88
1112.72
3748.28
1024.97
3398.42
2995.85
-4621.65
3648.77
-2715.2
5727.02
4944.93
3381.79
-2027.54
-4183.67
5834.35
41.9395
1104.37
4730.77
-1082.22
-4348.53
2299.93
4071.64
-9209.44
5936.03
6240.88
9003.68
12808.1
5024.52
-2583.81
1572.38
-809.295
-2426.04
694.608
-588.838
-2267.24
1139.25
-993.6
5062.14
-1013.54
-2284.62
4355.09
-1635.2
144.854
-3302.97
8211.89
2518.14
-6926.55
-167.068
5659.03
-11271.2
-1295.09
-3745.14
7840.09
-9020
7591.96
5009.23
6589.55
1650.01
2082.9
2211.08
3609.89
788.285
-2330.02
5499.89
-7424.21
-2076.72
-6069.22
463.427
550.643
-282.039
679.676
4638.74
2958.23
-2466.12
-3191.65
-1461.88
41.3933
680.773
-2853.67
4955.74
-1956.78
4720.15
-3195.84
-256.242
2218.34
-582.499
2738.78
-5315.91
-937.157
1160.99
-2608.4
3935.52
2271.45
1353.53
5605.29
6941.65
1216.42
445.628
-6294.53
-255.744
-1783.33
89.0488
-4715.27
-2761.02
2705.91
1334.93
5689.33
493.498
-5463.09
-613.357
1033.26
9947.22
3786.24
-13375.8
-740.879
3955.59
-2477.28
-6473.81
2987.76
1426.76
-85.9986
857.557
-2945.67
35.9223
5010.03
-1089.75
10613
1971.75
3541.64
2837.25
-468.165
4660.19
-5917.83
1687.35
2462.56
2067.07
-1887.25
-2365
3435.22
1759.81
-5610.87
-746.437
-3907.26
4176.54
4035.71
892.185
-197.227
-3503.68
9420.76
-193.42
-9474.16
2810.76
-723.045
-3499.72
-1877.59
-2604.3
-789.868
-111.879
-424.091
-3268.78
-491.597
-804.568
-197.808
-2360.28
-308.646
4561.62
-2034.15
791.908
-1808.26
6308.67
3095.46
9562.24
5636.72
-3270.19
-1793.57
7535.54
-11424.2
-3245.59
5454.9
8517.62
-8819.62
1294.83
4412.95
3453.94
-862.933
906.238
471.379
-1797.01
2246.41
-1226.46
204.978
2440.23
1873.41
-2447.75
6066.25
574.37
9079.53
-18242.4
4679.37
5959.01
7447.99
-2423.15
-2115.74
-54.1019
-432.006
-9326.24
-7388.08
1371.7
-2039.2
-7091.78
413.117
983.386
-8829.99
560.008
-3172.4
3994.91
-702.26
1260.84
2088.99
6601.81
-2823.67
-3380.29
-3311.21
-7814.61
5777.91
-3197.46
-8733.9
1715.37
-363.214
5012.23
-7312.86
2451.72
-12966
-21758.7
334.77
129.523
-1298.86
-2681.54
-920.547
-4096.27
-3080.77
-1805.86
-7406.43
888.96
-6231.23
-1353.06
7366.22
-176.612
-9753.25
-7422.67
-1447.3
544.361
-2787.22
-983.65
-5234.08
-5983.65
3323.07
-2949.97
4480.84
668.173
8298.07
937.918
-9131.18
-7263.94
-4962.08
8746.96
-774.647
-10104.4
12331.8
-1180.24
-1030.08
1485.58
2141.17
3429.43
-589.775
-5288.06
5066.55
2353.53
2627.06
-10569.8
-4021.5
-2675.05
-3121.73
-2418.74
3591.58
-2015.13
2588.86
-8552.06
-659.109
-8939.37
-1161.57
-1356.02
693.311
-1337.89
-715.855
-4121.15
3499.11
-7888.01
-2903.87
10852.3
-8477.4
-5989.28
3518.77
-10900.1
-6523.58
3155.07
228.716
38.0249
-5322.36
-4879.33
2126.79
-6192.44
6502.15
-1594.51
11996.8
-5684.02
-13108.7
-1574.58
7608.82
1707.71
819.396
-213.519
-3579.31
3289.86
2754.42
2750.29
9823.77
3117.41
6243.12
2596.92
4316.78
1685.51
218.412
-4166.5
-7526.16
-5404.22
-237.273
-709.65
-3635.69
4900.66
-6023.47
10.6525
-1325.01
418.947
10163
4646.63
-5036.33
-2337.73
1275.64
4899
-2309.06
-8301.41
3267.43
1605.63
3565.22
5307.26
-495.023
10997.4
5360.08
3918.9
3462.86
-8698.51
-9634.48
5984.25
-4563.04
-2635.76
-5716.76
-3542.95
226.286
2383.21
-4554.25
-149.939
-9635.63
4405.34
-2146.28
4306.61
2065.37
-3869.96
-5213.28
4819.88
3391.53
-3908.65
-6784.33
-1790.03
1058.71
3835.54
-16311.9
7274.87
2175.8
2001.69
2429.94
4655.46
5045.69
-2499.48
-187.467
-3018.65
-17929.7
-5835.32
-1895.27
5443.62
-446.4
-2137.84
-8510.9
-4129.53
1463.27
835.807
-6061.81
5534.21
-7694.22
6838.09
13646.4
-1989.84
-7012.86
-6307.92
-7905.03
-1315.29
-693.364
-5140.58
6108.69
-6129.93
-3132.11
1055.66
-4152.54
-1637.94
4322.78
1799.66
1023.25
150.23
4178.72
-10600.3
4743.06
11800.7
4177.1
-5899.64
4529.37
-5969.98
-1676.17
-5829.67
5633.28
8862.17
1707.22
-7073.72
-9430.88
-11828.9
1829.55
1356.71
-5026.46
37.2577
-4882.89
3573.22
-11087.3
106.103
-3547.93
-1881.44
19262.3
6075.27
7742.98
-500.45
291.159
-1672.1
1506.62
-2411.23
-5109.08
-3295.96
2084.93
-2717.9
1597.53
2243.18
-1397.51
2371.31
-1339.6
-459.217
-3362.41
8442.24
2567.22
-581.267
4327.45
-9989.81
-3565.99
-5841.4
-6179.92
3405.27
6007.5
-2195.23
-13640.2
2608.61
2732.57
-1162.73
176.103
3718.27
-5121.67
3229.74
-2840.4
5153.03
-1592.99
-8825.01
1288.16
4895.8
4893.4
-4622.3
5165.11
9873.52
8948.72
-284.575
-2541.87
10761.7
4220.74
-2097.09
-1443.94
-5327.7
-3128.5
-1444.77
-1644.95
3874.77
-2307.59
5786.26
3542.6
955.539
1096.97
5162.81
-3986.3
12767.1
4418.92
8201.46
1173.61
-6141.88
145.945
2811.7
1058.08
2448
-1797.67
2461.06
-2160.65
2507.74
7163.74
1223.1
883.239
-11331
12249.5
-2099.54
-846.771
1612.09
-3365.53
780.258
189.009
2581.47
5413.6
6631.17
-3393.27
-1744.57
-3345.28
4529.72
166.58
4258.33
1761.15
-1829.4
15994.5
2761.73
-4452.9
6283.85
9.50306
4354.37
1956.27
2304.07
2983.67
12313.3
-1330.27
4364.72
5479.93
-661.638
-1780.09
-2119.81
8283.38
1001.98
-4342.42
-3728.73
-353.74
9255.87
-2682.53
2673.17
-6505.93
2689.63
-10183.6
4255.29
576.146
4502.66
1717.09
-4097.12
10.6858
-593.788
-1867.51
-5505.82
5168.06
10667.9
-2466.14
-1819.6
-4810.07
16.0851
8618.84
-2984.28
-738.762
3641.46
-11883.1
-1439.36
-2229.74
-722.302
1066.43
4547.54
-197.195
852.95
-1277.35
-1031.12
-3918.46
5249.88
-2800.8
-2106.15
550.17
942.126
-3653.37
-9996.62
-186.284
-3433.87
1186.1
14329.5
3951.29
211.164
1906.54
1473.98
5396.74
-783.517
8476.38
-4557.2
3578.69
-1202.71
-1908.53
163.65
-1541.6
5982.13
-962.733
-10974.5
-712.967
-2065.05
-5254.43
5492.88
179.31
2659.03
3991.82
-1338.19
-13376.8
1585.16
8058.64
7399.32
-1788
6670.01
1019.55
-6791.17
4992.79
20.3233
-9191.55
-16130.5
12086.1
1424.2
1957.04
-821.782
-4492.36
-3392.37
-3170.44
5206.79
-3985.84
492.449
537.132
1051.44
4813.91
-1515.18
2297.79
3327.91
-5497.3
-110.948
7400.5
-3279.61
-1595.2
5086.76
-4270.26
-1115.84
-11261.1
-930.95
-8653.06
-7689.58
7466.16
-2659.58
5992.75
-4001.08
789.15
452.016
802.91
-1699.66
2189.06
-3602.29
-428.134
-3091.49
-2144.92
-1376.9
-6346.26
6805.53
-4891.61
-1801.83
-5876.06
-1492.15
-3911.12
2401.02
14467.1
1089.54
-1950.06
3288.7
3827.1
2170.38
-2651.27
569.559
-6078.67
-3166.22
-1681.25
7742.24
4221.68
-2769.48
-824.125
-7338.6
3467.63
8953.46
476.744
2396.79
-1672.58
1682.43
777.359
-3552.36
-4588.43
2405.36
-1329.62
-51.1646
-6632.76
3659.17
-2463.35
-960.655
1298.14
10823.6
40.8405
-978.222
17029.3
-8900.46
362.22
-3550.4
-2390.65
390.029
3259.93
2346.77
3658.75
4031.16
-5452.78
-5814.21
-918.489
7535.28
-2271.26
-4526.89
5734.85
4266.28
1202.92
-4737.57
-9144.15
4466.99
7293.86
-12719.1
-3310.2
7038.02
3746.77
-600.151
560.607
-6142.32
246.775
1296.64
10568.1
-7004.15
-10265.4
2740.8
9779.1
4933.64
4281.76
-427.222
2111.2
-4072.19
15026.4
-9308.82
-7333.13
429.413
-3584.27
1153.42
-3675.57
-619.194
-7123.97
-749.395
2931.16
2914.53
1023.42
-2402.26
-2839.42
7821.19
-842.546
2013.31
-4056.6
4743.96
366.939
11173.6
-5935.75
111.563
2776.63
-2746.97
2821.2
5874.13
-3461.59
6600.31
505.063
-5338.87
866.05
-1731.33
4283.02
-7446.02
-617.42
5279.05
-1205.35
-1848.44
-4594.01
1538.56
1684.55
2394.92
5511.82
4038.2
4311.05
-7119.13
-7620.86
1840.03
9614.46
-4.45124
-633.947
1836.87
-3009.56
-3667.51
1749.72
839.674
1907.06
-7963.79
573.143
-1598.41
-429.967
1921.54
10146.2
-3397.61
3319.13
-232.316
2802.9
-4846.72
4698.25
-10370.6
-1224.06
-1508.16
2488.47
5565.76
379.384
-2235.56
1724.17
2619.92
-1482.2
-704.227
4625.87
1377.32
9197.93
-5311.94
-3715.48
4887.73
3336.83
10666.7
5130.45
3672.07
-933.952
-3950.97
-11065.6
-6847.15
-3050.32
-6036.23
-208.012
12859.2
-449.313
1753.13
-9755.2
1457.57
8776.04
1278.09
563.49
-3813.8
-1236.23
-516.203
-4320
13567.4
4912.01
-483.372
2217.64
-9622.3
8598.22
829.411
6531.95
5580.73
2207.35
-1430.31
4285.74
-367.8
-8314.18
-1506.42
-4781.05
-304.359
716.808
-1654.21
-509.274
2706.79
-1142.47
-467.631
-1049.15
8965.86
772.079
1459.69
1907.28
-1232.26
1223.67
3620.83
1957.85
-268.448
6253.91
10074.3
-5792.24
1123.37
-2404.03
1317.1
-3500.61
2513.27
-10247.3
3781.28
10243.5
5996.75
1763.04
-5003.01
93.7261
3781.91
-46.6265
-761.361
-6570.08
11088.3
-206.862
-786.065
-10526.8
-5781.3
5075.53
-1660.11
-681.855
-5480.19
-1763.64
-4118.22
-699.392
-10377.3
-529.8
-9116.59
6855.84
-4849.02
-6158.89
5584.11
-2210.96
1589.36
11116.4
-2169.74
-1025.96
-5243.77
-666.245
5423.6
806.453
-2942.17
-7727.48
1141.62
4095.16
-2342.02
2576
-6538.04
-548.21
-4638.08
3734.02
-8955.59
-5918.36
6503.36
11080.7
-590.394
-5007.16
3038.86
3712.66
1382.05
-194.811
-7831.87
2909.89
-9077.75
5698.18
-1813.79
5773.03
-2835.27
5617.97
6332.9
5847.48
11270.6
-867.635
559.288
-234.697
-878.734
1630.06
-5140.04
-5622.66
-1688.85
-10150.3
400.422
-1516.03
-229.531
-11460.5
1809.13
3836.2
1827.45
1500.62
-5558.87
4694.54
3394.71
2251.51
1209.03
1169.67
-762.067
-1459.17
1892.39
7963.45
-10674
3799.82
7340.17
2591.41
-1688.61
-5662.61
1538.24
1038.54
3741.84
-4223.38
3537.55
11940
-2743.88
5104
-233.79
-6645.53
2688.22
-2142.34
8620.28
2296.39
7430.84
4607.05
-5996.68
440.806
-1488.17
929.638
4119.59
7232.13
4185.92
1267.94
-7518.65
5554.14
9479.15
-554.928
-6515.98
1534.69
338.644
3280.57
-1846.89
-2461.51
-486.142
-2411.54
-2393.06
2083.85
-1303.14
2586.73
-3873.65
119.048
9344.21
-3272.52
-602.782
4035.52
-9901.31
5933.35
-773.999
4435.32
-2441.59
5146.06
-2316.1
-4952.27
-6851.57
1778.1
-2690.85
-2925.94
-5676.06
-739.157
-4439.63
-3217.32
6317.32
-1085.49
6104.15
-2294.49
-6984.31
-3690.62
-9162.26
-755.636
2300.75
2677.07
7621.99
-5868.51
-3655.32
-3884.34
8461.57
3088.03
1588.51
2303.02
-666.653
-3290.01
-3589.9
-96.4052
1130.85
-1317.87
1003.86
-5315.91
1563.41
-1560.95
-6567.9
-3763
-3019.97
3406.7
-544.621
-1940.61
8814.95
-9007.63
-2669.76
1237.55
-1897.12
4620.25
-5526.21
1311.94
-4037.44
-754.747
-2358.37
314.667
-1861.86
782.283
4486.5
-6425.19
7201.32
1408.88
-7133.71
7657.84
220.222
-1408.9
2104.84
-1857.12
811.947
-6185.67
4439.21
3057.83
-8771.51
-1997.28
5987.21
-1677.79
527.396
-2719.29
650.203
2693.2
-2875.12
-3977.81
191.052
-875.771
-630.195
102.92
-6593.5
2159.06
-6211.03
1705.67
10694.3
-4742.45
10849.5
-6069.81
1647.66
2166.71
-5304.41
1960.98
-2582.3
10933
1052.98
-4180.84
-1027.64
-403.306
2067.25
9390.47
-3867.48
695.967
-4384.66
3301.64
14072.3
5647.05
-1536.96
2329.93
-5178.96
6511.6
2423.2
-5091.05
-2990.16
1597.13
3371.55
-566.522
985.177
1559.56
-84.7319
-108.468
3644.91
-2311.89
-4630.12
-972.991
186.513
-4160.4
-941.251
-1829.61
8825.34
-2474.97
3080.02
119.942
-712.931
-787.661
3872.08
-1350.79
-2574.71
14029.6
-1416.9
-3401.98
9153.87
-3992.15
7049.94
2575.87
2149.91
2917.47
2457.17
-11478.5
3169.25
-3336.53
-2741.18
-5442.58
-3198.47
-1520.03
2556.66
-2396.31
4498.4
229.215
-2161.58
-2131.42
-3581.64
4498.43
-652.043
6621.17
-2861.44
1868.82
-9399.31
-4492.6
1256.4
1031.84
2450.64
2482.01
-6533.61
-2465.49
2981.07
-4717.92
-2956.34
1691.34
3405.13
-2986.79
-2432.09
5388.48
-5758.33
-3566.16
-626.184
-4962.36
5193.88
9966.7
-1967.26
1921.87
6053.87
-6391.08
2012.81
-1320.1
-2262.3
2043.29
2765.64
5264.81
351.046
9905.08
4229.04
-4455.79
-6453.87
9783.05
5945.94
-3377.41
-6077.68
-2782.27
2122.13
4833.3
-8780.17
-993.082
2492.73
1509.35
615.186
3464.98
4010.46
-1403.9
2758.22
5025.47
4513.24
8256.68
4012.84
-5041.66
-2181.31
3697.53
6947.51
706.508
-3141.71
5017.39
1307.61
6870.82
-5851.98
-3832.46
2369.75
-2159.88
17075.5
10448.3
-2110.76
5402.46
-5193.45
-3633.92
1592.74
-8231.81
5983.99
997.457
6168.27
2658.72
3389.8
5020.99
817.157
1852.24
-1390.05
14041.4
-1832.05
-4993.04
-4155.13
-8637.68
3373.18
-1582.1
1997.65
-411.868
1940.92
-1284.17
-3334.82
6740.48
-488.536
-2754.53
5891.62
1695.28
2006.16
-7546.24
4572.18
424.74
-8262.72
5652.68
-695.702
2103.34
2528.52
-15428.5
6905.69
3680.4
7687.77
2526.55
3023.29
-7991.29
424.096
-4147.39
400.337
-762.172
-2069.37
664.365
-5434.15
-7166.86
2204.78
3292.76
705.204
3493.95
12016.5
442.784
5359.83
2402.33
-25.4404
-6520.59
-3653.47
3017.73
3690.71
-2143.6
-6667.39
-3761.35
2064.35
-6860.36
5719.49
-4672.01
-2976.41
5085.02
-686.555
1875.45
1007.97
680.028
-6863.61
-9033.03
675.909
8822.14
-7223.66
-2934.82
249.644
1307.2
-3077.37
-2671.91
3254.35
-1717.86
4418.44
264.084
1451.36
-772.655
-6745.76
3586.83
-1344.96
3962.15
-1979.44
-2103.28
-3808.97
2936.57
-5714.63
7.72782
33873.9
2867.01
2151.08
-371.492
-3194.49
-4032.13
-2867.2
1636.55
3483.79
7629.86
5794.29
-7484.75
1128.13
-2004.83
-487.289
1037.85
-1715.96
-1162.67
1169.8
-10768.6
1056.86
-5479.18
332.014
2476.9
2439.7
-6477.7
-13743.5
-3960.32
722.827
-7457.61
-992.799
-4706.72
1941.95
-8250.78
4521.36
-2342.53
-1280.28
3788.56
-2855.26
-21.0137
-4391.49
-2498.65
-2587.43
-1982.38
-3027.28
6028.4
-984.168
-2950.62
-4244.9
-619.829
-3725.01
4093.61
4966.6
11959.8
48.3287
-6181.34
2681.78
-12138.4
-3671.86
7380.31
-3008.08
359.748
-2168.29
-1910.67
6243.3
3867.82
-5364.94
-1948.5
-898.331
-970.329
3906.06
379.133
-7552.05
-593.053
-216.887
2178.7
-3879.15
-679.524
-7786.03
117.697
-1436.04
-7274.86
2370.34
-3121.16
-186.438
-7040.84
3378.09
-7763.7
994.875
1707.33
-1907.69
21.6678
-6049.89
945.175
621.317
-202.099
-1851.53
4940.58
3698.81
-1971.49
-727.462
-3289.44
4138.2
1974.47
-578.099
-8731.33
-6547.28
-586.453
-11531.9
3008.52
2373.74
-932.148
-392.26
1537.09
330.603
-627.053
-9.66887
-1724.95
4483.81
-7703.94
5862.85
82.8458
2437.54
-2941.96
-2652.37
-5141.72
-2429.35
-5277.44
-268.27
11466.9
-4743.6
2666.09
2522.18
-7322.71
-295.002
-183.799
2506.97
7408.09
-958.067
1218.7
5517.53
-710.148
1948.37
745.079
9976.08
-5353.71
1431.58
-2097.67
347.036
-24.9157
-2956.82
129.044
1333.02
-711.785
-4971.78
5223.5
1310.52
7117.55
-5901.3
-184.081
136.628
-2932.8
-3668.42
-2277.92
-4888.29
-3541.23
-1920.26
-2844.66
14273.5
601.603
3575.18
-303.18
2872.74
-843.913
6364.32
-1230.34
-2651.37
-9175.92
-4586.79
-3164.31
-495.462
-2265.04
-920.896
2657.76
5951.72
-15589.2
-14410.4
-1665.6
5084.4
7507.09
5645.12
3839.09
-557.189
-5569.19
-8441.37
-1453.31
-3214.77
2431.19
1517.82
-4211.87
3226.77
4300.01
165.267
-1480.9
-70.5825
1989.47
-3556.35
-3904.51
-3663.62
-2322.46
1209.52
5172.43
-377.593
9.10302
-2716.35
-790.509
1224.89
18.4494
436.019
-5337.44
-147.576
-3016.63
-2079.74
9065.4
2722.64
-8645.16
1352
-18474.4
-620.545
-3781.82
-11194.3
-668.583
-4521.41
2756.2
4083.23
-992.066
-300.207
1936.4
160.413
13275
1176.52
-4806.53
1710.58
-2103.57
-2230.12
-2696.57
2252.68
2557.25
5056.26
2770.41
-1492.11
6135.51
-953.101
7694.57
-2424.7
3927.27
2733.74
2739.37
3833.95
1328.3
-3142.75
-3279.23
879.46
-7019.24
-527.581
-1783.67
-1809.75
150.513
-1665.16
-6683.57
-6433.07
5379.51
3953.41
761.93
-2369.1
-6059.75
-4219.35
576.256
300.5
190.415
-7468.21
14253.8
-8260.74
4767.71
4364.77
-889.141
-1787.4
-376.536
-2817.64
-5334.3
-2742.41
-6007.16
-4092.02
5099.47
-4790.23
-1438.5
-1258.65
4609.32
898.252
-3420.67
1460.14
1038.31
-1486.41
-2702.91
950.249
3649.3
2362.35
-1310.71
5240.66
93.402
-1186.78
-115.537
-1589.7
745.805
6164.88
2228.73
-1226.55
2216.5
-4118.46
-2399.57
820.172
1470.64
-398.696
368.88
14650.3
13120
-2342.93
-5280.89
-10545.8
-4241.64
-105.76
1226.52
2530.26
945.376
-789.64
867.652
-3503.61
-1704.91
1751.48
-4012.39
3405.54
3787.58
1388.77
6295.65
4699.38
-7200.41
-8027.58
3203.26
-1668.99
294.022
-11550.2
-2631.02
4335.2
-2214.97
2878.08
1351.66
324.531
613.276
-8883.94
-5861.49
-6450.11
-4751.81
6598.81
3479.24
659.308
1704.41
8036.69
5197.11
-5195.81
-1862.43
1371.47
-1375.64
-1692
2154.32
5350.92
4866.9
1288.07
-1342
-7743.31
11709.2
-5005.05
-4490.72
-9965.81
-870.214
1923.25
-3546.85
4747.82
-1469.03
2738.29
-4505.7
-4799.16
-5291.22
491.079
-4609.11
-6196.88
-3852.8
5435.85
6695.36
15996.6
5968.66
-10005.2
-3430.47
-3095.56
2407.37
3346.2
-2657.21
3560.74
-1095.23
-3866.03
-3730.29
-2080.62
-5350.78
1716.1
-2902.29
-2689.44
510.448
175.737
-1612.15
7799.41
5337.4
-5065.7
-2816.53
-11367
-1819.55
-5767.35
3723.27
1229.54
350.713
8829.24
1048.22
6368.94
-2442.27
-3294.82
6120
-7887
315.847
-2623.68
-1786.31
1574.47
7532.75
-6344.31
5189.54
-6494.62
3602.12
-8300.73
4158.28
2739.85
7163.6
3153.32
-2500.59
-1616.48
6318.91
-1687.13
345.748
-3272.66
-2281.26
555.628
-85.6746
-3332.04
2819.72
3936.42
-1718.82
-7419.47
-6564.76
-4132.48
2783.72
4521.07
375.526
-3942.95
-3774.84
-8786.12
3798.37
2319.53
-9833.05
-11039.1
10118.9
10557
-1566.78
-2018.11
10117.2
6377.63
-1872.13
-768.039
1879.54
-120.076
-9611.43
-5586.27
-4824.97
-826.038
3237.11
-7288.37
5489.59
-1498.14
-9846.16
-640.896
-1904.97
-3087.33
2872.2
-1259.23
257.391
907.56
-3302.26
2125.6
5166.48
-4640.97
1409.44
837.41
7239.32
7540.91
-2516.52
-8052.3
1185.15
-5522.74
-1015.13
-15606
12670.8
-5488.84
6685.28
-2919.95
-3779.39
10227.2
6677.93
7879.05
6664.89
3398.32
3215.26
12304.3
3942.19
7058.79
-5339.34
2447.38
5389.02
6051.71
3385.56
632.548
-28.8163
-525.805
-3080.74
1697.21
-5272.72
7673.9
3251.49
4007.81
-1605.51
-224.532
-3017.05
-3269.02
632.518
2398.57
1664.73
-1632.66
3255.93
-1991.97
673.84
4229.55
-458.545
5059.4
-8293.2
-1349.99
-4848.23
-3890.04
407.249
-3141.31
605.109
4947.53
3030.64
-7112.8
-360.75
-2525.36
5880.47
10513.3
-2996.61
522.127
-8882.45
6527.99
5792.28
876.786
1388.94
4605.2
8012.86
-68.8029
-3196.59
-7421.99
1201.48
1414.89
-3429.5
-1323.69
1320.96
1007.82
-1385.42
6425.71
6364.45
-2602.18
2969.67
-9059.09
-7293.52
756.446
-5490.16
-300.806
1024.84
-291.295
9080.63
2847.96
-2035.71
-2925.38
-3671.82
-1546.39
-2626.83
-4496.09
1298.44
-528.277
2905.86
-8323.12
1902.34
6390.83
-1037.66
1443.15
-6779.22
859.088
-6148.26
-1963.18
-1518.78
-677.256
3101.51
-2048.34
-1874.1
1474.62
-684.664
-7520.4
-5695.89
736.928
508.808
-9002.33
-6434.51
-6088.11
6588.81
254.988
1293.42
-4846.85
-6464.08
-5351.97
1.88736
-1863.93
4180.99
-4190.81
-3140.53
-125.376
131.944
-1761.26
3681.9
-4319.2
1582.68
3281.15
184.276
-4173.74
-4940.99
744.304
-6991.85
3305.22
1076.21
-2096.02
212.408
-7033.32
1538.73
6622.56
-8310.24
-4712.78
4886.59
4981.36
4549.83
10506.8
820.686
-3971.95
-8553.09
-2651.32
9186.9
-5098.88
-7548.28
11988.2
-3599.99
1841.46
10877.6
4773.76
-903.92
-9349.19
325.382
-5124.8
1334.02
-3417.94
151.927
3503.4
7563.61
-6582.77
-627.96
-1903.79
-2919.02
-1054.24
1205.58
2330.61
-4608.37
-904.738
-429.76
2652.27
94.1565
-3746.26
122.314
2184.71
-2096.53
578.304
-183.211
-735.331
5249.26
-4025.29
-2505.41
-1590.79
-4030.89
4890.11
-1250.78
-2848.24
3944.52
-4657.92
-15115.7
-3879.89
12336.2
-8171.41
-2084.45
3626.58
3298.01
-5374.37
-2529.07
-5177.46
-2144.09
2587.92
-3121.15
-5388.68
-2817.41
-2085.08
2027.19
-974.317
513.588
3822.54
-1047.64
1649.22
5968.43
3544.62
132.893
-3056.26
438.627
5099.1
-4035.18
-1060.31
-2966.14
1230.09
-1138.3
-3628.29
1499.21
3652.17
-3566.99
2456.67
8769.31
8203.48
427.302
-3733.12
1305.17
-4935.02
2210.38
-1993.66
236.936
6649.32
4215.38
-1913.58
-3991.09
-1189.26
4096.49
5931.91
1550.09
-2137.67
-1675.14
2064.47
5433.72
-6746.62
2822.77
379.165
-1148
498.601
15620.9
4942.31
3798.4
-1153.4
6351.66
-448.089
-2851.1
-583.414
4341.08
6925.06
-1415.23
1443.82
-43.8478
-4936.7
-512.426
-2787.8
-2141.61
-8254.96
3262.18
3169.24
4333.49
702.339
933.541
-3237.27
5282.42
12619
-1988.92
714.059
-229.979
1143.06
8516.72
-470.48
4334.99
9783.69
15028.4
-5995.98
-4466.89
4897.81
-4663.88
-8232.48
-1905.01
4489.91
1545.81
-3547.04
3608.29
-4193.83
-238.698
2179.63
6896.85
-2254.55
-3310.22
5918.43
644.453
8356.83
-12650.1
2670.14
5684.37
2621.14
11503.7
-1274.48
-8103.19
81.0987
11683.6
893.24
8500.73
1105.42
-7805.89
-3882.27
4437.47
12655.6
1205.15
1832.48
-7189.82
94.4081
-6800.07
-6127.3
3299.8
-6121.04
3502.49
-2270.88
2674.2
-970.027
-6403.37
-2164.07
6974.83
2178.83
892.185
-648.058
921.255
-11149.1
-2282.31
-3848.2
2764.45
6265.15
-7749.17
883.897
2759.52
-3220.25
2512.35
2462.22
-2944.77
-2407.29
3926.62
-7553.62
-5412.03
126.221
-4573.99
297.525
-9014.82
-7672.53
-5004.23
-3013.99
-480.08
-6450.78
-2029.99
1965.81
757.5
2067.19
295.352
-3220.49
3044.17
-8399.85
3144.26
-2706.66
-2932.88
-321.102
5573.39
-2373.7
110.57
-2103.6
10015.8
1229.27
4463.77
-8588.89
-878.082
912.46
-720.182
4570.52
389.847
-2961.56
742.952
1216.15
-5970.26
-2783.2
-4508.91
4390.33
8188.32
889.462
-2522.92
9242.77
2826.78
-1501.92
1024.01
3193.16
4584.42
4856.55
5216.21
469.261
-7643.4
-7159.66
-327.886
251.587
-2213.6
-7587.19
-76.1837
7680.92
2198.62
-15560.9
-2185.88
137.822
13758.9
-11861.3
11518.2
-3713.93
3021.56
-5067.47
5943.55
1113.68
9059.71
19678.3
462.421
796.909
1592.09
5665.69
4031.17
17376.1
4453.44
-4621.55
1263.3
7345.56
5317.47
1587.43
85.3053
6399.13
-8366.97
-3231.93
3262.56
-508.666
-4221.54
-12370.7
-3502.8
-2001.39
-697.772
-5916.88
4237.8
-1408.06
6102.94
-2424.71
-6306.18
8617.18
12355.4
-5224.01
-1346.15
804.449
2699.49
-2029.78
6306.14
2896.77
2814.56
655.778
3651.33
-5783.89
-3186.89
1473.61
1902.19
3596.01
1015.56
1217.7
-2389.75
-3023.24
-956.085
-6644.67
-1962.13
1912.05
185.257
-2077.9
3091.51
1126.06
5544.54
7142.65
15278.7
-889.197
-3824.96
4666.02
-12737.7
7966.79
-3638.74
-1714.46
6533.84
12937.1
9923.22
-2088.54
-5651.85
-2941.48
902.199
-4982.74
-53.8722
5245.58
-4063.63
226.678
-5881.37
13819.8
1990.79
969.458
-2256.08
-15716.6
-7028.5
-4313.39
-1776.23
-3167.58
-3014.44
458.787
2915.33
8020.71
-3232.49
-7628.57
-1314.86
-848.205
2458.56
-8267.46
4620.81
-1142.33
190.528
-1479.55
-701.834
1088.4
965.061
-1844.46
-1609.16
-5382.76
5162.57
3215.19
-1878.06
756.394
-2456.17
3890.5
-2508.03
-9025.4
12332.3
-3953.88
10956.5
5539.13
-659.038
7693.46
372.356
-17717.4
5468.89
-5669.09
-9283.59
-4071.96
13199.1
2547.6
4819.84
6477.03
-2100.98
-11487.2
4847.59
5665.57
-3186.23
3020.95
3387.37
-3877.32
3084.82
182.893
-7126.58
-7278.69
-2802.75
1791.74
-5342.81
-80.3258
-3395
-5451.32
1566.47
-8593.3
562.595
-250.113
-9066.91
3087.16
-1421.75
6404.17
3810.06
-6053.31
-3122.31
13362.9
614.13
-6981.83
-4249.19
-676.496
2079.33
1239.98
-6233.61
1552.39
-1482.16
-6911.89
8161.55
15741.7
6019.87
-5827.34
492.468
4982.6
5985.49
1065.06
-3993.82
2313.9
-2373.73
-1891.84
-3107.48
-4335.91
2399.24
-1470.51
-2107.45
-4915.82
22.5185
6626.51
-861.766
-1373.67
815.975
4905.46
10152.7
-2937.99
2792.82
4010.09
-5736.12
-3174.44
3070.67
3600.4
-4485.14
-1766.47
3781.82
104.526
7622.83
5625.77
3419.24
4766.67
15073.8
-8748.35
7887.69
53.3671
-2748.96
7941.22
-1019.55
-7325.22
-1966.5
49.5382
-8074.87
-3905.34
-5140.01
1472.61
-5110.6
-426.372
-5409.97
7067.02
-5311.53
8338.24
-10570.2
5074.9
198.18
-1727.09
-6501.9
1807.84
6862.5
-2053.73
-644.542
-1485.28
3117.37
694.536
-3622.91
-601.738
6032.61
1028.25
-6795.07
-3925.36
-6164.63
620.829
3509.42
-330.731
-124.498
6370.91
7229.83
2106.79
878.757
-6682.52
-1356.37
9812.98
2426.15
-1319.78
4475.95
6716.84
3031.67
8422.7
963.773
-1619.7
-13829.7
5313.57
-4232.72
1136.13
-1158.45
-1419.67
3670.37
1496.69
-2229.82
-4019.19
-400.109
7235.49
2059.47
-3569.39
7364.44
-561.343
-5072.45
3717.7
6122.46
-2463.56
-7743.39
4097.77
-6718.14
-2308.5
-2436.34
-3732.24
-5967.9
2037.23
-10323.5
9086.55
-3037.89
9024.02
363.219
2028.58
-3569.26
-2300.32
-5418.49
1978.71
-6490.25
-3763.12
6877.1
-3480.76
-2879.4
4444.53
-282.044
14431.7
-10315.2
-5799.25
-821.971
-4406.26
-535.125
-1799.37
-856.957
-81.9938
8850.66
-5710.16
-5034.24
-4124.51
429.3
-8295.77
895.368
-9335.12
-1871.98
-1515.92
-5139.2
5600.14
4065.83
-2382.61
5026.9
642.415
-4320.03
1760.44
-10404.5
3991.73
-4204.21
406.11
-8328.78
192.6
5517.14
1323.55
-2825.76
-2400.69
13430.5
1464.55
4216.59
4296.82
-9636.49
-4204.41
-732.055
8752.56
5061.36
-176.469
-1377.59
-1881.89
23.4801
-5178.48
-3561.56
-2234.39
1981.61
2528.94
-349.678
-1559.67
2130.69
-4353.75
-2010.65
1774.03
5066.24
4079.07
5908.79
-708.238
-4618.53
-3445.74
12656
-9593.26
4509.92
-6101.73
776.227
-868.571
2613.94
8568.78
1794.14
-353.322
4227.13
5093.61
10478.3
1740.27
-5270.5
2035.57
5354.6
-4964.03
12327.2
1524.71
-3291.87
-2601.53
3425.72
6164.99
1198.32
2064.79
2247.39
1745.64
-5251.08
-103.691
-10355
-2901.97
6854.43
-21.1176
680.828
7272.26
-5922
-11809.8
2434.69
1590.58
11123.5
5260.71
-1886.37
-5206.08
-5027.84
3930.52
13003
-6872.04
-2252.66
-3577.35
-11502.8
2982.84
-6385.73
982.439
-7350.91
-8283.29
2458.49
2126.6
3870.63
6293.2
-5533.47
-4701.76
-1088.75
203.934
4469.01
3864.82
-6582.49
121.212
951.001
-11649.3
-6748.9
-191.588
-2482.86
-5884.23
3604.96
2912.48
-3177.86
-6064.46
3648.52
4327.42
-1726.3
2054.83
4117.72
4956.33
4474.44
1050.65
4920.93
2281.27
1082.85
2900.65
-1931.77
-1088.58
201.642
4086.67
-1604.88
-558.929
-4647.96
4581.22
2287.06
-5210.03
-9438.13
1771.83
2399.04
-1519.28
6343.66
-3262.39
2780.15
-6043.41
10306.4
-4080.04
5783.13
-447.856
2177.94
4344.47
996.048
-2655.84
2046.84
2207.5
838.702
7577.15
4859.22
-6159.66
-1287.28
3505.45
-23.0839
5715.08
-2786.4
2079.76
1339.49
5065.12
2317
-124.596
-862.812
5767.72
8123.91
-579.397
-5113.19
-2429.06
4059.76
340.345
1657.06
-2869.02
2869.05
6517.73
2588.1
4064.22
2493.78
-5220.15
4125.94
2737.94
-1556.62
-1913.19
-3819.93
5209.98
4087.39
-6148.29
3621.09
8602.42
2518.47
4180
-5116.27
10535.8
791.996
799.294
-1340.02
-1246.36
-731.478
-1383.8
-6152.96
-6813.63
-4161.19
-5829.33
964.55
-6123.44
-3028.45
4815.17
2834.67
-1078.37
-957.896
2972.85
-12457.4
-6656.78
-2777.42
-3132.41
1.71826
4263.38
195.789
-6627.83
-4261.19
-768.173
747.05
8918.64
-2877.12
-253.053
-1295.88
2014.88
1251.27
-72.7358
1297.63
-10380.4
-7511.15
1329.91
-10317.2
3813.39
-5556.06
-3648.58
-2560.72
-2135.27
-6194.65
-2567.91
-4513.84
7499
6723.15
-8629.87
164.65
2956.57
1515.83
10525
-985.308
-1629.82
9397.23
1407.15
1989.82
3894.77
2650.16
2933.44
2192.12
-4143.62
50.8063
-540.571
-6104.58
5027.25
3680.69
-1345.37
-2153.07
1386.11
-1113.65
-1361.77
1096.78
4841.76
-1216.67
-7726.45
-569.16
3135.25
-6537.25
4018.38
-4201.69
6926.09
4372.96
2097.11
-2430.56
4868.73
3242.09
2663.2
-1309.08
2398.08
-3972.99
3146.09
10096.4
1309.7
1945.59
-1031.69
-7509.97
660.575
-3086.87
3887.79
2095.93
1872.89
365.681
3881.33
1155.82
-9613.57
-4301.74
3806.73
3392.11
-138.721
-2316.85
6500.1
-1622.95
2356.6
6814.56
8920.23
-3872.43
-7318.99
-5254.92
8346.87
5060.88
241.027
-3866.98
-2471.11
-15094.1
3395.1
3566.75
5583.04
1015.92
-1110.46
-4952.58
-9556.04
2563.75
3615.99
352.487
-1968.23
-8146.14
-11985.4
1396.42
2835.75
500.796
7574.32
119.22
-201.498
-7652.17
72.9629
4936.37
-3532.39
10859.4
4098.76
1507.51
-2686.56
-1933.45
895.078
9916.63
-2030.97
-718.111
90.4616
-6953.63
1306.32
-2660.21
-6154.92
-7034.72
1228.94
3633.17
-2015.05
-6448.05
508.407
2981.51
-2087.49
-1520.84
-4689.07
-3470.82
2322.77
-7551.69
-3347.12
2552.06
8521.61
1729.09
8947.39
-4615.31
4434.5
8518.89
-9888.02
-4782.8
-2077.74
5408.01
3412.34
-569.732
1150.53
-276.034
-889.387
-3011.17
-234.47
4559.4
-6278.27
76.7271
-1550.38
-338.338
-2899.19
-778.439
-1373.41
-3039.35
4818.09
-210.807
6858.7
2207.93
-3896.7
-143.32
-36.4641
1582.34
-6438.03
-5205.37
-1428.12
-11018.3
-3162.87
-1833.18
5164.85
786.117
669.867
394.836
5545.25
8233.17
-1445.26
-9074.35
2527.57
2638.96
1102.67
-454.339
1933.2
-1990.04
5654.5
3171.24
-4294
8455.63
6074.41
-7282.63
-1436.53
-1885.5
592.093
-10394.4
8882.86
-6651.54
-4862.18
5193.76
318.827
600.635
1737.31
6061.83
-2536.19
-1084.27
1444.98
1443.04
1774.74
567.325
-12174.1
-8450.58
4906.29
-3038.88
-2138.94
3827.05
-8336.8
2284.72
217.727
-1792.11
743.731
2593.99
-287.86
-16695.3
192.259
-1915.09
-1854.22
578.472
4817.76
-849.219
-5348.55
-1731.74
-4115.43
-2742.25
1475.58
1759.55
-5188.51
-394.172
-10016.4
1374.99
6544.8
-444.428
-3893.3
-1882.31
-9648.07
4689.4
2548.09
7974.08
2124.71
143.3
4.8316
2551.63
8722.6
-2614.37
852.838
-2167.63
-5118.83
-2545.52
3999.65
-551.902
-1926.96
-6010.17
-3685.13
-2448.27
2269.03
-599.968
-5603.54
1234.59
-3944.08
-1263.88
3408.83
9587.8
-1522.79
1396.44
6823.65
-3538.63
279.036
5573.46
276.782
3611.26
-475.939
1325.59
936.62
-3561.81
-497.615
-5462.48
4243.1
-695.605
2119.61
-8186.45
8045.93
4031.2
5943.23
4115.82
-4621.8
-355.266
1403.47
2244.57
-2512.39
-8405.51
5457.79
663.42
-6399.79
-11779.2
8806.13
4069.79
-2804.17
8384.15
-428.657
8070.07
-8873.83
5812.19
5902.4
-8605.83
-1642.03
-939.867
1511.76
5897.85
-3884.81
3271.02
-2052.13
2190.32
-3211.62
1687.15
-844.443
3423.82
-9095.02
4596.93
1886.31
-1974.69
-1508.87
2903.09
4120.5
12799
-2993.34
1395.58
3334.66
-4108.25
-1648.8
916.675
7485.23
-10074.7
-2239.94
-2942.59
-5571.44
3048.38
-849.43
1093.28
-1018.57
-16116.1
1677.85
437.212
1051.23
1647.65
4943.35
-2030.1
1331.82
2112.43
1026.66
7887.53
2831.63
257.739
223.085
3231.52
1188.97
-945.922
6066.39
5392.72
-3459.7
2949.73
-3233.22
-1683.84
-723.3
5802.71
5031.13
23764.1
300.903
-4695.23
8221.04
6587.95
6367.12
987.401
-33.6894
-136.118
-5515.86
9592.18
-177.904
4494.15
1095.06
5714.3
64.0451
1039.33
3406.87
-7662.49
1601.73
7117.68
-4769.82
10107.9
6234.54
-4086.44
1607.73
2706.62
5252.58
2988.42
4012.17
-2575.12
9169.57
-1132.13
5913.21
-5524.63
13386.6
11641.7
6725.07
1662.79
-3788.27
-7072.4
-5731.66
4816.83
2696.07
-803.535
2101.32
1032.48
-505.168
7045.1
4764.13
-2348.72
2744.92
943.897
-2255.64
2747.2
-3398.34
42.0404
-2979.98
-656.978
-3676.12
-144.81
2268.56
-4904.88
7588.71
-2081.37
465.407
505.748
6170.04
5302.04
-11949.4
-7938.86
-1115.45
675.635
2369.84
1026.58
-1349.97
-738.82
1934.57
1049.09
7305.48
7356.79
-2134.31
-2104.74
4137.61
-3585.19
-2703.91
2115.29
11244.3
-1692.04
4574.49
-2336.17
-2770.01
-4955.12
5337.09
4188.29
6223.92
-3744.71
-3954.6
843.464
-10359.3
-1563.99
-7777.5
-882.539
9104.97
18343
647.763
131.323
-4266.3
-2373.67
4569.1
2822.91
1183.96
-535.575
6833.58
5533.03
-3317.97
-691.18
2275
5428.52
-4038.01
-354.111
-2223.69
8441.84
-3554.61
4230.89
5393.34
-2062.64
-4544.39
3187.04
-1728.97
545.069
-2294.56
-3005.05
4161.44
50.8184
-1053.99
-4642.61
6671.23
-89.9658
-5770.8
-2262.58
-4598.04
5166.88
2241.79
930.973
547.991
14165.9
-638.93
-4106.19
-715.468
7622.48
-749.872
6257.46
-2338.37
-10873
-5440.25
6349.72
-1353.37
4697.4
1414.68
8712.39
-735.667
4452.99
6440.04
6396.81
748.307
-4623.97
-8219.8
14563.9
5507.92
6920.11
-2224.18
2448.71
-1386.15
-1471.9
-626.995
3442.31
-899.13
-2010.64
5230.2
-340.054
-3308.77
-1611.2
1289.45
1976.42
-1778.66
5722.65
-12829.2
6125.27
4942.01
8781.97
-875.546
-1956.94
2826.45
-564.514
82.0106
3258.69
-535.792
-7695.3
8393.06
7549.27
-5418.86
-277.032
-57.1777
3219.16
8503.31
612.975
-589.483
13246.5
2153.53
-619.927
-8317.54
-2646.99
4446.36
-342.326
2139.18
5192.55
-1716.27
4309.54
5333.99
3950.16
-321.474
10500.4
8012.9
-6116.08
-6011.86
-681.311
-687.791
1340.38
-646.844
8757.21
1972.5
2117.43
479.191
-1587.11
-5388.99
-4240.18
-12199.5
5214.9
-4068.33
1355.65
5802.9
-2936.06
-3560.61
-1016.83
12662.5
-152.275
1533.23
2114.53
-2878.03
-764.823
-1082.88
1704.34
1373.96
-6327.71
2158.98
-5092.06
-4701.18
-14497.4
723.7
-3304.08
-853.333
477.707
-249.958
-2724.23
3652.09
-1509.69
-2610.38
3793.36
-6167.3
-910.998
3396.01
-6901.76
-5002.15
-508.719
-5438.11
-2369.1
1280.31
-639.422
-2500.14
-957.721
-4090.73
-1329.98
640.079
-2601.08
726.485
4562.87
-3504.82
-800.719
1747.08
-1051.64
3812.08
1316.43
1454.96
-686.83
6185.31
-6455.42
-14353
-4534.09
1572.95
522.649
-693.832
-6155.59
7565.92
3209.73
-6328.69
-5045.86
2441.15
-2121.36
6628.64
3194.51
-3747.95
2992.31
-1714.97
2709.3
-2030.11
-904.008
-10613.2
-13112.4
-2298.45
1223.02
1761.58
203.858
-7819
172.703
1576.99
1545.7
-5086.66
-1214.82
-59.0423
-984.91
162.127
-1464.86
-1264.46
-2488.39
1907.44
-7683.25
-3602.39
-4033.23
5312.63
-3689.1
2763.79
5347
-977.397
-1056.29
1159.29
-713.762
-8822.6
9288.28
883.512
-5408.58
3611.94
-5911.89
3962.83
3098.17
-4813.97
-1013.08
-3813.16
-2896.11
-4424.88
356.207
-1187.73
1706.88
1386.8
-561.953
7704.9
1005.18
2847.72
-4861.15
5722.94
-1317.16
650.744
-5741.41
4488.37
-5633.03
-5891.16
-1876.75
8198.94
-1904.77
-7426.27
483.735
-2975.6
4131.67
-5190.53
-300.979
4046.67
8535.35
2061.08
4866.81
7787.17
-1540.52
7333.66
3011.92
12235.3
6392.86
16063.6
-2862.95
-290.945
3193.87
2113.35
-5068
-3175.22
694.57
-1334.3
-1305.04
2255.79
-960.325
-3332.58
-3537.51
5947.48
-7080.55
-3233.26
-7586.99
-2880.22
7623.77
2340.6
2978.58
1488.34
-2133.06
-1897.95
10445.8
-3660.87
-1482.03
-6349.33
-10163.8
-2615.23
-3315.44
1088.02
5242.51
-1263.8
949.182
9247.12
2347.91
-2370.78
-1957.8
11401.9
5215.07
4.80414
-2227.25
764.749
1028.93
-1121.39
-5071.73
-2464.75
9111.65
3118.53
1418.83
-6796.95
-8182.81
5123.04
-629.986
1888.59
-159.419
1941.34
-920.672
-1205.09
-5814.61
-5789.7
7419.05
-5315.48
2572.89
743.048
-838.895
2629.01
5000.66
2328.1
-3939.48
4322.83
-1794.97
-845.349
1732.38
-727.479
-9206.36
8733.96
-1396.55
216.263
11036.7
163.844
-3392.95
-3693.26
-5087.15
-2179.52
2786.84
8050.24
-4400.64
2118.21
-1780.52
-3139.33
-110.011
-2156.23
-7003.44
2060.59
-894.125
3942.95
-7443.5
-4421.6
6246.89
1776.54
-1146.71
3848.14
10365.4
1518.75
3125.26
-57.0642
-902.891
-1640.4
800.444
364.023
-7777.23
-3143.14
-742.181
-1057.3
-3098.43
-2261.53
10094
-6198.28
-1514.38
-3957.04
-76.4788
-12368.6
370.588
6830.94
2936.68
152.096
3291.89
-4063.79
-807.494
-8300.52
-8588.91
1334.36
6345.62
57.1054
75.8664
18643.7
-1673.13
-381.212
-844.407
2873.03
-2720.27
-1972.41
-4234.14
3618.85
-4483.19
-5512.84
-705.518
-3326.77
1509.69
4451.74
-444.476
-5873.04
-899.716
4114.48
-7891.45
1089.06
-2495.04
9234.44
-3614.5
1963.41
4865.86
-3789.03
1208.68
-4753.6
-1995.29
-8501.23
4984.16
502.311
-5136.68
-3568.07
-3242.04
-6435.01
-4375.06
-8691.6
-3109.92
2526.85
5566.7
2000.38
4295.1
1864.94
277.407
-795.67
-2747.6
4444.61
-3672.59
5526.08
-3073.52
2396.98
1925.08
-12736.9
-1343.32
5088.62
8301.67
5219.59
-6927.92
1718.14
4464.94
7293.54
-398.056
4232.17
-7802.01
-1196.07
5598.31
2528.28
10516.6
-5571.56
-3590.97
-1634.78
2362.92
16052.1
3659.81
360.322
-634.767
-2221.13
10758.6
-5742.97
-2063.48
3380.26
-1183.1
-5152.14
-8115.56
-358.081
-5303.7
-665.841
410.719
-3859.03
349.709
326.617
374.06
-4134.11
1973.01
1787.11
-5622.96
931.248
-7221.79
-9683.3
714.621
2193.79
18590.6
-759.173
3776
-1158.23
-2212.65
-4096.66
8257.62
-2837.54
1252.64
3288.45
2731.34
1964.15
-6048.86
2004
-3374.58
1850.41
-2838.7
803.274
973.011
3502.5
-6669.27
-10592.6
-11461.9
1161.65
5698.82
2305.52
1314.86
17448.5
-2105.83
-2346.45
9272.9
2442.5
1704.79
1074.89
10847.9
770.261
3031.03
-408.808
855.256
-1324.88
414.661
-3953.77
188.401
5495.79
6210.23
-11280.1
-4448.44
2456.19
4242.97
-1099.38
-1977.82
9686.89
4733.03
590.902
4420.08
855.583
-1260.1
-5300.87
-4139.29
8.08043
3312.72
2449.65
2240.87
-2437.03
-9928.63
4282
-1569.65
-3551.8
-2224.52
4513.95
-9060.54
5804.96
131.389
3900.57
5165.94
5141.67
8532.03
12077
9887.74
-1802.54
-3664.13
-4864.08
-4229.02
2706.29
816.238
2339.15
-5425.76
4829.49
-242.699
8725.55
7279.31
8027.35
4408.42
-4500.49
-3385.71
-4138.4
4209.85
6520.44
1404.53
937.123
-3184.59
2770.14
-1004.18
770.163
-3677.26
7779.48
-3789.63
-1549.99
-15818
-3827.63
-2352.34
2299.93
3108.11
2472.48
-2813.55
8499.38
1538.65
3055.83
-10160.2
-1843.73
-4239.22
-6400.86
-1937.52
-1316.17
-3178.8
-967.387
-1044.44
-5465.87
10378.2
-3861.42
723.435
-245.521
3237.86
1936.97
-3304.92
4396.8
-9849.82
-2955.79
-2060.83
893.798
136.494
-262.714
987.011
-966.218
-5699.18
-448.623
8199.1
1443.09
