135.793
242.688
324.41
-1256.11
334.254
1410.47
-633.261
-3316.47
-2095.71
-1051.59
-2397.91
-5559.69
-5391.72
-4071.19
-2305.08
-2522.12
-445.582
-1361.2
-19.3832
1072.22
322.291
628.947
-1316.53
-2955.55
504.1
1492.9
429.319
-2106.94
-3294.76
-7173.76
-3732.87
-4337.26
-4026.22
-3513.56
-499.271
-759.636
-1848.07
-1831.58
-3061.34
-4002.31
-1502.63
427.033
-832.258
1720.39
2210.27
1148.43
202.702
410.238
186.594
192.838
1169.06
3030.24
1119.15
-1732.11
-1464.44
-1700.16
-518.153
-447.611
338.687
-1393.27
678.217
869.864
1341.12
10.591
-1570.55
-2238.05
-4379.55
-1883.28
-1060.1
-2793.58
-751.838
5481.24
1612.41
2306.97
-1731.71
1316
-308.534
-1926.41
-201.667
664.008
-3149.56
-3381.14
-1813.71
-2886.38
-2312.4
-1528.09
-844.175
-76.7925
389.564
3364.28
1127.28
3049.29
617.606
-1774.94
169.235
-3385.66
773.804
255.436
2035
128.875
602.391
-161.028
1125.92
3907.88
3813.63
1308.97
2083.62
3530.26
4471.57
792.15
-8.53524
3018.53
3286.46
9458.49
8320.94
5089.97
7521.52
2314.74
3048.97
-720.763
-730.327
-929.976
-630.943
-823.854
732.425
17.1572
-146.145
652.737
2077.04
5903.58
9264.88
12077.4
11223
9749.67
10020.3
14152.3
12725.5
7167.58
140.159
5241.17
3377.92
3116.96
3231.46
431.818
1969.37
1183.74
4578.71
9381.63
4587.98
964.606
1107.6
207.879
-1332.21
-253.955
1336.74
-3586.91
-1858.44
-2967.06
-1638.48
461.25
237.825
-1243.83
-3353.76
-1037.86
-11.0803
-340.501
1146.65
-55.5316
-1384.25
-1250.13
-3097.63
-3195.75
2626.63
7491.54
9351.5
9145.94
9189.78
3553.1
799.56
2984.12
3888.15
5946.78
12133.4
10737.5
3740.7
6285.23
9439.49
4467.17
2241.67
-4322.24
-713.765
-795.828
-929.204
3291
4638.42
6930.4
5840.49
3143.54
4280.73
2597.45
-575.191
-2839.15
-3206.82
-661.595
352.655
-651.299
1305.45
9.54309
741.993
245.562
-697.177
437.024
-2.09123
1614.59
-572.2
-4691.04
-1444.02
-955.979
1218.74
1527.96
-229.639
-741.096
634.495
-747.783
-1073.56
-1662.56
-4468.17
1220.17
111.089
971.481
1633.89
299.584
594.991
2020.36
2772.6
1842.31
3050.48
606.111
1188.57
-805.919
1858.28
721.047
1419.65
1787.62
168.69
1500.72
-988.716
-3224.62
-1324.22
-1081.31
1300.13
-139.89
285.067
-1430.94
-159.205
308.226
3024.03
2103.35
4080.03
8865.73
5504.68
1194.96
-2626.78
-2666.04
-306.136
-368.315
446.156
560.989
2601.98
1281.59
3375.34
407.996
-570.217
1025
902.042
31.8672
-83.9901
-599.632
-3351.2
1507.08
1923.63
45.1393
471.633
-1510.2
-3468.86
-1326.39
-754.049
240.305
1729.39
8019.44
6873.97
7043.21
2254.38
1409.71
-1319.06
-269.11
-746.348
-1433.37
-384.877
4079.27
2495.37
67.7181
2556.98
1867.4
2077.94
227.247
2094.06
6298.76
1429.92
1374.53
1159.54
1418.03
-424.46
-2428.37
279.123
-1934.36
-245.715
-140.133
-149.119
-348.988
1115.57
-588.882
-1109.26
-1098.32
-1151.83
-2177.82
-473.195
4675.67
7712.28
6147.49
1638.57
3331.18
6475.31
3391.51
7381.27
1090.26
2039.22
-558.065
1120.33
402.523
3747.49
2293.45
566.5
2282.14
2032.77
-49.1562
-330.594
2574.09
4222.58
4399.27
2993.66
3972.12
3558.5
1895.18
2158.07
1098.53
2633.97
2276.87
800.288
4261.14
5069.88
2900.93
-662.384
-2704.66
-5543.28
-5076.58
-4628.7
-4038.03
-1618.98
-796.267
-816.997
1987.11
6453.77
3283.35
2132.35
2189.93
9155.28
8293.91
9936.33
11476.8
11864.1
14938.3
13218.8
20199
18469.4
13086.6
8040.32
9559.23
9877.84
5214.24
5302.06
6293.65
13096.8
14390.3
12572
10377.4
8349.92
8299.82
12820.6
4689.87
3922.49
6804.91
10650
5804.04
3692.17
-747.989
915.75
1874.13
3581.78
843.689
741.749
1263.08
15.1383
85.7168
958.076
2524.43
650.661
1384.05
615.54
1443.26
1553.08
3135.03
1011.24
2651.98
1661.4
942.28
2846.37
-486.057
-273.032
-1240.39
-1329.44
-1607.09
-229.957
1658.06
4890.96
6432.99
2496.05
6454.64
702.23
-3440.09
-3627
-1119.13
-3474.08
-2842.55
-670.512
895.36
1201.45
-277.494
-106.046
-467.958
-232.666
-879.366
-1033.35
500.076
946.372
655.154
-177.264
256.775
1213.24
-452.4
939.719
3143
497.39
-330.54
2229.38
5166.09
1091.65
1433.07
1456.38
2082.79
1310.81
1763.7
-139.76
-1295.41
-2070.36
-520.366
-611.534
-845.725
-985.631
444.625
-1534.74
98.2961
1773.64
510.938
1609.14
4903.63
6669.56
5114.84
1721.11
-4463.46
-2519.18
-1035.94
520.389
-7.14483
900.349
-119.175
2385.43
3774.48
5875.81
6284.5
9073.64
4996.68
10738.6
11359.5
14485.9
10701.5
8460.49
5660.56
3063.11
276.066
3773.04
2305.42
-1111.34
707.369
2190.99
-654.45
1825.57
1442.72
297.454
-166.669
-22.8516
-3016.27
-596.006
5.31304
2864.82
5.39183
-389.624
-1176.67
318.825
-159.947
667.046
3420.29
2975.91
5259.25
1530.76
1098.89
-116.344
-678.336
-50.2048
-1076.58
-792.522
376.571
40.8738
-353.778
381.15
2374.83
4342.57
1393.93
-3265.83
-1315.51
111.279
-712.57
-723.614
2321.44
796.068
-1031.88
-1506.64
-6318.09
-3709.15
-488.201
-458.768
330.111
-1597.27
1211.28
164.021
-1025.31
-1010.41
-2432.19
-680.401
-1865.17
3359.06
4546.75
3949.61
6973.67
10185.9
13095.8
13672.6
13363.2
12370.3
18203.4
10334.5
7658.65
4682.16
7085.23
3154.97
3469.14
6939.84
10953.2
5676.7
6440.89
5384.83
804.128
2422.61
-612.649
-1004.92
1860.5
579.621
4143.44
2489.82
2586.31
2064.05
2314.01
1297.22
-43.8327
597.1
2472.73
1542.37
-302.264
707.105
-1170.23
-1610.2
-2343.98
-3562.67
-1109.64
625.491
1628.95
-995.209
-4951.49
1347.9
4018.25
2191.73
5642.23
12034.6
11013
10573.3
10791.7
7960.48
8089.55
6249.18
8295.31
8701.89
1743.75
6458.77
4146.72
5745.03
4537.28
9050.28
11648.2
20528
24202.2
20732.8
14877.6
9110.29
6435.53
4965.53
204.215
-3594.32
-4565.38
-6337.51
-1453.69
-930.124
108.527
710.2
5361.56
5230.28
4982.02
7677.07
6842.01
9356.51
2977.99
9836.04
10740.3
6627.74
12668.6
8145.72
9901.13
11158
5196.87
1246.25
2290.88
70.4614
279.662
-778.627
-4927.64
-3890.75
-1994.92
-83.9753
-1492.91
-1176.48
-984.932
328.984
614.4
451.717
-846.02
3406.94
5048.46
1698.43
3897.82
1060.64
2715.49
1772.2
5008.85
6260.3
6193.71
4962.76
2682.41
-1309.34
-1127.69
-944.13
-1501.96
49.7321
-556.828
-749.108
500.779
-575.296
-308.141
1104.21
-1190.13
-589.47
-1114.17
-226.44
737.352
-374.378
198.915
1171.84
2676.15
4439.84
-23.1704
129.982
516.498
2615.06
5825.86
2344.1
-2448.51
-962.25
-669.732
2711.16
2244.32
2154.7
4289.66
2519.77
842.063
1873.79
2981.85
4748.14
1904.09
5946.24
4948.71
11339.7
14192.4
10298.2
5153.26
2792.86
2627.51
2571.67
5105.66
6888.97
8179.98
4599.7
2281.7
516.889
1428.41
895.569
-2124.54
594.986
4913.35
3247.42
773.447
3548.35
1119.24
324.234
1548.33
-909.757
609.695
2783.7
2017.83
518.612
-555.785
-2008.88
-2608.54
-1778.57
-478.142
157.132
1107.07
427.921
6422.65
2898.03
3096.44
6181.59
4072.57
1376.9
-842.597
781.69
1385.87
1218.76
-530.37
1798.13
1920.72
-351.323
-2913.45
-2920.74
-973.651
-300.637
1482.35
857.579
523.725
517.367
-370.997
-254.682
-978.417
-951.471
-230.91
-1425.49
430.045
1440.78
304.57
685.054
2257.22
2859.15
5747.25
9421.13
14597.6
10256.1
14127.1
18101.8
16259.7
16706.8
10410.1
12112.6
8076.85
5924.09
4721.76
5258.64
3567.06
4750.68
885.944
-376.97
2075.92
641.868
921.637
1408.85
1873.88
-699.91
957.059
894.09
-918.466
693.966
-179.354
431.509
1039.51
2078.25
-237.152
600.952
-371.756
848.283
608.454
-1337.43
446.483
-2998.92
-435.702
-222.066
-679.933
-1561.71
-539.447
-29.738
1965.38
2473.78
150.624
1812.42
5123.06
1347.01
3177.04
320.386
1534.74
2860.27
-890.343
-1107.64
-287.866
-1529.89
1152.67
609.659
1000.12
1339.04
30.3068
-775.607
-1157.98
-556.707
2501.78
1595.71
3645.55
2101.62
5717.1
6844.47
7386.19
13992.5
17751.5
7291.49
5008.75
6648.26
7905.3
14159
11679.6
6638.31
7233.9
8617.69
11033.8
13185
14166
17076.5
18444.9
20935.1
13900.5
16004.4
10253.2
4703.42
7030.4
4764.05
-721.859
-100.185
6672.69
3914.35
3665.46
7595.44
8159.55
1218.16
1718.42
432.164
-1951.83
-2539.37
1705.23
4513.62
1642.11
215.281
104.388
-1073.47
-943.685
1492.71
822.522
-4215.64
-957.399
1091.25
1539.14
6930.7
3562.21
6286.19
3623.83
2628.02
2946.58
2115.67
774.884
1598.66
862.673
2324.33
3823.86
3055.72
503.505
-1355.83
-690.229
-987.391
998.971
136.222
521.118
-222.588
-391.066
1997.64
1260.08
718.779
2079.6
488.174
19.4289
-474.066
-994.183
-1250.28
34.9729
2363.83
2293.25
3385.37
308.402
-119.232
523.668
-876.464
2936.18
5078.07
4891
3792.26
3976.01
149.484
663.693
3152.04
721.904
-95.2483
904.434
3566.34
3629.9
1910.1
1014.46
1560.22
481.126
432.671
696.586
673.563
-4480.18
-3703.24
-4611.85
-5345.68
-1199.61
-898.466
-1451.18
-2821.64
300.349
480.39
1449.42
895.325
1036.04
-473.688
843.961
-122.378
2268.8
1537
921.06
650.73
3170.6
1149.38
4027.6
896.763
-1231.31
-2072.18
-2390.46
-828.204
1214.66
3374.56
2926.31
3398.19
2305.21
1482.56
1731.5
1129.22
-904.855
122.494
-357.825
556.058
-76.9232
-1543.19
-307.689
-1143.28
-3587.32
-7915.7
-1222.33
-745.781
362.592
-876.55
1147.59
213.629
722.477
-2573.56
-2120.78
-148.095
-2159.99
-1350.01
-2091.06
874.573
1468.06
3216.96
5121.92
3292.44
5054.98
3742.05
5654.72
78.3208
1515.03
285.28
889.529
678.146
-1173.7
-134.93
-2000.02
-1908.53
-7.03112
1116
1702.09
-710.354
-71.2976
-51.0581
972.333
77.745
728.054
-614.309
435.698
2697.05
917.896
3284.64
8132.39
10127.7
5036.93
1106.94
756.24
-726.625
-39.7824
7.97359
186.141
867.812
816.969
-938.615
205.833
439.973
-624.051
1572.26
2524.51
2769.66
-1330.97
2075.08
-1704.3
259.272
-800.557
-326.579
1608.7
641.207
-115.704
707.778
-75.8497
1412.59
1305.02
1716.49
-671.571
-411.648
-1194.29
-1261.36
-440.416
430.439
-14.12
-66.4291
-1356.73
2947.12
1368.6
1846.85
3503.93
1312.88
107.72
1105.81
744.752
-2168.66
77.0142
-2.39362
30.1617
1211.3
-1040.83
1117.38
3552.79
707.456
1120.02
371.656
1362.29
345.684
-1120.34
-1120.48
-488.012
-785.097
-1798.24
-1069.16
271.278
404.71
-334.499
701.91
-1486.39
-1360.65
335.876
-407.975
2191.5
1549.78
735.444
816.435
-1273.77
164.329
488.22
1203.45
312.304
-998.442
-740.832
1019.51
-1280.36
-815.745
315.282
2375.16
-61.0954
-820.397
-3175.84
-4846.48
-2446.97
1524.15
3377.4
-2698.71
69.4527
234.116
637.947
1718.77
769.005
816.066
-691.223
937.698
2052.19
-324.963
2451.01
5104.49
2041.08
1600.55
3752.53
2879.76
4301.68
-1064.82
188.746
1112.86
-0.182623
1804.96
206.394
-1217.23
-2007.83
-6385.09
-5996.71
-4198.59
-1549.17
-627.756
376.344
-464.397
1725.26
1329.48
2714.79
7411.64
7108.85
6578.69
7238.72
12152.8
2684.34
-2458.26
1155.9
2195.42
2076.79
1793.81
2225.01
2617
3229.25
7732.97
3783.83
2100.66
-207.305
-2629.25
-940.927
2391.75
2020.82
2819.54
-1177.64
-585.821
-1873.24
-180.097
1913.19
-531.188
1354.68
178.607
-920.182
1964.36
-190.652
-979.804
-1108.66
1600.8
3076.4
3181.47
5970.6
3484.84
2682.68
3418.17
3244.19
932.568
1181.8
943.402
2879.99
2752.13
2344.1
3952.26
6731.45
-866.519
-506.927
324.943
818.412
-350.223
522.924
203.016
-681.174
-510.868
-626.053
4386.53
3361.95
6892.87
9391.02
10747.4
8205.86
11197.6
7354.31
4796.52
10229.6
10534.1
13419
12895.2
13200.6
8355.97
4175.15
5983.07
3520.98
2045.62
1068.35
1524.05
1130.79
904.259
1223.19
2542.91
5254.16
3257.61
4518
2385.06
3846.81
1540.65
6958.93
6365.9
5320.89
4332.53
4403.06
1547.44
3821.03
3051.51
2467.7
2414.11
8217.56
4811.03
1107.12
1684.39
3134.98
1070.92
237.451
-945.953
485.081
1439.37
-558.448
1824.43
2942.32
4129.11
5947.75
9121.99
5734.97
4185.49
938.274
2054.06
2683.3
3139.69
108.114
570.4
3350.11
2715.08
3019.29
4515.05
4309.37
-1267.97
-904.026
-2203.27
-896.323
3007.66
370.623
663.476
834.512
-116.595
1703.44
-302.436
486.813
538.282
-147.904
2528.77
4580.44
-44.7442
-1734.73
1185.79
-960.054
-28.5332
-2388.03
-2426.45
177.203
-486.417
-233.975
-206.931
-1110.33
-326.728
-1302.03
-1615.79
-288.405
-1747.69
-3596.32
-4876.89
-2430.09
-5627.48
-4113.24
94.0272
-136.82
-1123.93
477.659
-108.546
-216.658
-649.169
459.47
-695.573
1718.6
1225.34
-520.092
-771.953
-691.341
-146.185
1300.06
1889.18
340.727
572.495
408.831
4372.61
3977.48
-102.751
2418.26
2398.14
2434.08
2923.12
4107.44
5684.33
3234.28
4567.84
3029.85
1979.05
-1746.7
-1642.58
-602.588
-1194.75
864.14
436.908
-620.167
-95.0854
80.7155
137.191
1183.76
2127.34
2835.67
3428.87
2951.91
2235.68
2129.9
4822.73
-518.517
1617.71
1050.79
-1178.22
-533.935
278.692
2770.72
136.17
1475.14
6776
6075.49
5707.32
9117.01
8003.45
8889.85
6359.7
9171.82
8793.44
4051.79
4862.56
8410.08
10408.7
3223.96
1622.95
2140.49
834.988
-699.741
-174.13
-1545.05
-768.92
-1320.4
205.325
-1784.82
-581.813
-2482.17
259.208
-540.257
-422.374
305.559
-2278.09
-2399.77
-434.494
1143.44
728.396
1861.89
-2152.13
-137.791
3093.45
3675.35
4528.14
10075.2
14000
4064.64
648.46
3860.49
1956.54
-2164.11
-3148.9
-1617.9
-477.096
-1171
462.762
-601.5
-2617.91
-1761.51
-410.123
-236.873
-1587.26
-4562.36
-1547.97
-1675.75
-516.472
519.334
1811.6
1038.18
-1341.56
-2745.94
2969.94
1204.51
3156.16
3203.08
4764.8
4066.15
201.564
1329.67
-2183.06
-7119.36
-3023.56
5896.04
10867.5
9736.43
5827.19
4035.15
6560.27
2067.54
-586.208
-200.119
1420.36
-1579.35
-2467.47
-472.615
299.717
784.999
482.389
491.531
-1819.98
-2382.28
-1996.76
1238.04
-84.8463
-428.517
2644.31
3965
813.993
-1225.96
3754.04
4813.46
8302.36
10078.3
11767.3
16636.5
12046.3
12442.4
16307
15275.5
18717.4
14096.2
12374.6
12131.3
17084.1
26905.7
29834.5
22955.3
23911.1
20761.2
26708.9
18715.2
14750.7
7875.52
9672.62
5817.22
5420.18
3424.28
10421.5
2707.44
4745.63
3063.36
700.677
3306.21
1570.95
-825.296
-140.88
-1928.8
-372.35
1372.78
-193.038
-240.088
216.553
-207.941
1179.88
-4.33324
-3194.76
-4298.1
366.667
45.9346
-1299.04
-1962.26
2293.05
-1793.93
-915.642
-3321.16
-2462.54
-3238.71
-930.797
580.218
817.814
3901.53
4003.48
2058.85
1228.83
513.258
884.698
2608.7
3023.77
-118.596
862.243
-2547.01
731.403
2260.82
934.327
348.616
-1453.42
-2009.87
-8878.26
-121.745
3272.63
2117.52
1840.28
2909.18
1275.4
5910.52
2016.32
7325.4
10599.3
6845.06
7634.37
13523.9
7727.78
8076.17
9080.46
8445.32
13564.2
14555.9
22778.2
18885.3
24354.7
25054.6
21580.1
22353.1
10571
10558.7
4595.94
63.5007
-1017.6
1561.41
-232.199
47.229
-1751.3
63.6191
-751.78
3954.38
1645.41
-1097.44
-3626.83
-4988.49
-5472.61
481.814
-1122.62
-2959.56
-1584.21
3201.28
-1628.57
2748.23
-801.054
263.864
-636.278
756.97
-673.866
-34.9847
499.011
-3191.63
-489.482
1325.07
2359.7
1156.65
-862.133
-242.804
1536.28
-243.725
-678.371
1630.51
3762.93
2354.54
2489.4
1591.63
-220.855
-1507.52
-1502.47
432.02
-3555.45
-2859.45
-2750.96
-5250.64
-31.0805
-1440.83
-970.451
510.04
-1009.22
-961.78
-302.462
2225.78
2425.36
2017.8
3835.02
3265.99
77.3181
2831.94
3674.64
4360.3
3971.6
2928.47
2837.51
5336.4
4820.08
2187.13
2655.12
500.774
4578.5
3591.24
3581.67
4083.7
7787.39
5157.85
8360.82
8711.76
8377.3
4582.14
2506.75
-99.326
2421.15
1659.14
410.073
3750.17
3811.31
957.305
3534.95
2059.28
5850.46
1985.55
-221.166
5.8454
-210.435
471.478
-2170
-93.1599
8300.83
11786.1
5908.63
9532.7
3094.86
-1821.14
1252.98
1494.41
1272.55
220.261
58.3943
827.376
381.583
1125.12
1468.53
128.186
1903.3
103.491
-130.097
559.458
-263.129
-177.728
55.1951
974.873
-1416.45
-1718.95
-322.663
136.972
-755.977
-1104.85
370.082
-1433.44
-1186.34
-3445.39
-2933.85
-994.982
-2183.9
-1040.75
-820.796
-1127.25
-442.173
695.165
2788.43
789.042
3699.64
-1397.98
1006.07
1086.57
186.641
597.572
216.634
756.57
1796.43
1191.13
2410.86
4193.96
4401.09
1727.33
2498.61
4060.43
4789.4
8315.45
7750.26
4520.82
11012.8
6375.67
7679.35
6310.39
10503
12738.1
10877.1
9505.95
8179.03
6270.07
4132.12
5106.5
3186.45
-473.734
428.036
230.833
2906.67
4074.27
964.09
1387.37
2376.62
1839.54
-121.892
982.74
3483.44
-77.3444
515.776
197.581
406.967
796.564
250.755
-1954.23
-327.86
-1594.72
2021.4
2730.28
-913.813
-1837.36
-108.325
-606.373
-482.743
1408.32
3068.23
867.188
1202.89
-478.877
-2635.08
-927.338
-5.28979
211.734
323.659
1100.06
-643.652
375.754
-1591.05
-2047.42
-3106.83
-3549.8
-896.873
-1206.12
-1205.51
999.783
-244.878
-0.120502
843.735
861.579
-230.609
1416.93
430.284
655.101
843.359
-313.977
-395.649
-645.573
-1236.29
-183.753
-1163.4
3404.95
1190.05
-1010.03
1040.9
304.975
2760.73
6618.19
2414.96
1097.41
436.156
124.224
-1858.08
-837.105
1598.16
1263.13
-1135.97
1153.12
2098.25
6247.28
5733.3
6281.61
5040.29
5020.62
8416.45
3471.15
2274.07
7753.74
6081.25
9547.72
9329.06
8022.21
4234.16
1529.74
-719.987
-443.83
2282.53
3855.04
4863.81
3443.65
2153.72
-244.31
9839.9
7866.67
5623.28
3837.15
5150.35
7042.71
6091.03
3761.37
-3133.29
-1269.44
-3694.17
-212.302
525.405
-4021.7
-6737.07
400.929
2601.48
6872
7786.53
5129.46
3832.24
5033.67
6479.42
10945.8
6902.49
2245.39
1947.23
4883.15
2041.21
2661.54
1831.69
-2477.71
1595.04
779.047
6668.81
11827.6
8128.48
6820.02
1669.69
720.991
5277.55
8931.14
12056
11525.5
2379.36
2140.85
444.566
373.731
2593.83
1261.32
2517.31
5560.71
3364.74
7504.51
2306.51
6115.34
8116.93
10964.8
16082.6
14177.4
9145.91
1630.5
7357.85
2754.16
4675.75
395.661
-1697.85
-1730.6
950.467
2864
795.323
-879.684
-1195.54
73.8326
618.364
2808.39
-471.565
1484.2
-716.492
203.132
416.04
1389.93
403.192
324.438
442.35
2361.59
2259.86
-763.94
2881.1
9481.47
9309.77
12456.9
3193.54
4090.98
2199.7
-2889.62
-2651.38
-1594.78
-498.745
115.266
1415.94
-10.3283
605.732
18.7574
-83.6684
961.499
1320.08
-633.47
124.834
2372.52
1648.05
778.819
1731.32
-134.741
-759.583
78.2013
923.067
3214.01
2448.91
1986.75
1849.56
191.077
287.233
-2824.1
-2113.91
6847.17
8478.74
18038.2
18816.3
23657.1
16642.3
11365.5
10791.9
6879.87
2911.37
2654.2
654.688
2798.33
2529.08
1106.89
-42.8593
1049.58
1055.49
879.468
1280.78
119.32
-1387.61
-3548.43
-3278.52
98.2644
-404.624
-621.761
-66.7725
-712.595
-443.258
-954.72
858.091
720.254
-290.28
-328.773
-43.6257
-687.463
-1045.48
-3413.99
-3174.09
140.944
-2122.15
1210.26
579.294
228.325
-64.8807
1530.75
1180.54
2320.06
1979.83
523.053
-448.186
1414.73
4968.63
2523.03
8869.37
11814.5
6369.82
2960.75
360.699
1266.75
1809.16
2572.9
286.55
240.208
4203.92
3167.12
2917.84
4439.01
1228.73
-141.322
-523.61
-629.764
-1513.79
-2865.27
-99.7021
668.251
-966.796
-1579.32
864.274
-1263.38
3438.6
47.8082
1738.68
-266.076
661.159
-111.924
1238.43
3988.61
1654.46
520.229
605.092
-125.256
-1077.38
-2039.36
-789.312
983.746
480.833
2180.9
-271.73
849.995
3397.79
1137.85
1678.69
3086.89
6207.88
-948.371
1375.81
-2286.53
-1287.74
-418.041
-205.051
730.096
8735.61
5946.38
1779.61
2688.56
5852.73
31.1169
-26.2581
-2550.89
534.225
579.844
526.274
-2274.23
-2109.79
617.937
-1006.06
2343.6
529.465
-387.393
1241.08
884.624
-223.339
-9.38992
-527.961
3140.42
609.978
-769.172
-126.423
-49.3867
-738.652
-508.472
49.4822
326.973
-293.825
1416.43
-980.797
2569.01
4521.39
5222.22
1639.81
1064.59
-617.104
741.727
-70.0111
-266.77
-113.597
4501.32
5665.34
670.849
336.105
247.202
-187.476
1791.99
1106.66
328.974
-2284.85
770.663
284.648
659.479
1779.06
3677.14
6662.33
4463.06
6464.47
4530.32
1031.85
-290.865
-944.365
629.815
1125.69
-794.103
-1503.57
-935.044
-198.58
1278.75
273.455
1308.28
-213.567
-1305.05
-2651.46
-1222.29
1634.83
3648.32
1207.47
1113.88
-4039.03
-8026.52
-4576.18
-2622.89
-4907.25
-6583.55
-8666.24
-6476.24
-628.858
1376.07
725.92
-848.885
-2825.02
-912.108
-931.932
286.491
725.614
-870.218
-1981.72
1003.45
4148.62
522.991
-1529.52
-2742.06
-1757.73
-1082.92
-790.346
1576.04
2199.1
807.239
343.83
-1504.61
-2410.16
-1128.87
-454.677
-1327.59
1295.39
582.207
850.348
4984.77
1986.43
2884.42
1898.06
3063.99
3095.08
1942.66
-955.065
-1381.76
1062.61
1672.79
1607.99
2615.26
5230.67
2738.07
1864.8
683.036
1478.2
98.4756
-1059.92
-1833.37
-6708.34
-1895
72.7596
-149.525
-866.079
2339.39
1102.06
-1008.36
-3053
-928.287
-3287.66
-1781.09
1264.94
1911.57
-712.224
-2054.45
113.456
67.5671
-573.969
1670.04
-123.129
-932.185
-1170.77
-2542.82
-3705.19
-81.6356
-1967.44
3104.85
202.44
2350.11
3658.79
3516.54
3309.17
4570.89
2680.23
1134.18
100.341
-1297.65
-3117.13
-3737.47
-886.79
132.618
236.988
-252.9
-76.2535
103.087
138.683
-2413.9
-4273.73
-3195.55
-3593.82
-4810.25
-1563.58
-3506.38
-3478.27
876.72
-569.547
-1353.75
-3695.03
-1465.86
365.449
-1719.79
-1598.82
-306.927
545.5
464.224
52.441
485.764
278.939
768.394
-182.489
381.611
289.743
-904.076
1558.01
3664.56
7463.12
1542.35
1132.47
5324.26
4288.47
-125.679
-1799.82
-2453.17
-897.02
1577.84
1462.51
2295.36
1575.12
94.625
-814.263
691.012
155.65
-1729.01
-769.876
-547.627
-63.8849
1052.7
-529.741
1576.78
-352.385
-559.201
-1083.82
-657.709
-266.837
-624.471
541.479
-657.062
-243.823
-715.653
2082.51
4036.68
1504.53
-491.273
-1083.54
-2886.95
-116.836
1361.47
1037.81
-1138
1115.28
-1745.63
2640.14
1984.34
587.596
-546.417
-84.6839
-3120.38
-3023.09
-4162.14
-5220.4
-1674.45
-3421.85
-354.485
-6116.05
-5481.01
-2025.59
-5956.13
-3803.26
-2384.7
-2140.49
-661.123
-749.452
-2516.25
-3442.17
-1506.14
-2576.88
-1165.75
670.579
8.77058
-3514.59
-1251.9
1110.55
1046.41
764.297
-447.833
427.141
-464.03
-3.11389
-130.157
954.506
-281.713
2653.14
1655.55
347.279
429.609
1145.85
844.045
545.649
-431.341
-265.318
-833.85
21.5683
-5.26457
-23.7519
-576.168
4224.89
2419.12
1815.78
3045.09
-429.414
-1496.78
-1275.33
-2669.28
-1155.94
1389.51
5988.39
11150.3
11219.6
10683.6
8886.6
15054.7
4270.18
4049.67
6597.14
4989.16
4619.7
9213.18
1964.05
739.174
539.244
3341.17
773.792
-714.504
805.601
771.78
-166.231
-323.381
-1155.4
-1274.55
111.447
248.751
538.479
-421.679
-336.085
-1037.92
616.429
383.341
-436.036
-62.5611
5522.06
12139.8
8487.74
7682.01
8618.67
7149.58
3143.6
1158.46
547.731
4612.92
4603.3
1615.25
3835.16
2054.91
1375.41
272.695
-1093.51
-3720.35
-2029.42
609.218
-698.349
3107.14
-396.049
729.486
1808.96
2426.91
2284.76
-4559.78
-5207.34
-5103.01
-2534.49
6104.36
3482.25
3153.08
2269.85
1963.2
1353.02
94.4143
-2668.61
-2573.82
-3485.97
-6674.28
-4019.97
-5524.75
-1546.65
-3825.63
-187.915
917.278
1037.54
1961.19
5894.47
3919.94
2297.8
2949.79
-1035.94
-5451.28
-2404.03
971.826
2584.8
4378.45
6209.12
3630.58
4479.85
5998.15
2146.47
9193.4
5459.7
5516.3
8166.58
7661.48
7083.74
6001.4
6556.83
3871.63
1782.96
338.805
-795.946
-1557.97
-867.191
-96.0403
127.481
-281.737
5341.87
3494.9
2520.84
653.834
1748.69
2789.3
3650.12
1069.94
-734.893
767.969
6526.19
2088.13
1472.83
-1194.89
2698.18
1875.78
4458.47
352.744
6065.37
2784.15
10049.7
8943.56
4423.38
2075
4115.22
5140.82
2290.74
4043.05
2382.46
4268.08
4055.89
1667.56
-116.01
1637.82
-85.9263
761.714
1180.51
4211.76
3585.27
2865.11
3573.21
283.873
4132.87
6472.14
14392.3
20548.4
8314.61
6671.82
-898.829
-2142.6
-1561.02
3683.09
4249.28
6639.55
-453.528
121.075
-628.292
-1914.29
-3292.7
-1327.56
-756.153
-1949.05
-2816.34
-3135.82
-1390.57
235.387
-2216.68
-1506.77
-859.794
-869.063
-1391.69
2888.18
3629.28
6574.26
5864.57
5202.48
2605.53
2370.31
1643.9
-746.065
-139.703
-1167.22
252.125
1285.02
-1528.47
-117.985
-704.971
-1233.66
701.035
-600.585
-408.033
-330.978
-271.371
-328.815
256.478
-1450.78
-1158.3
1620.81
-83.7696
-917.35
-2796.45
-2225.54
2091.73
-238.447
828.872
-1384.48
-100.86
-533.919
-775.935
-1286.52
-1480.77
732.982
7627.71
7960.58
6619.37
11440
11957.1
7472.57
9754.97
2160.42
5024.87
6834.81
-45.3806
-551.438
2116.55
-40.3858
2291.32
1607.28
1596.57
8455.72
-2431.82
4855.35
5709.04
8139.69
7105.63
9104.04
8001.44
6124.02
5370.12
2004.92
280.22
-1060.51
3196.14
1955.03
-1274.51
2174.08
3394.15
1766.12
898.49
885.943
-1071.08
-927.744
-827.086
-2121.51
-1077.97
-107.048
-633.999
2642.76
1175.66
1505.09
1172.27
1757.64
4959.55
4540.15
6550.55
4449.6
6872.59
8810.65
9268.14
4973.35
11976.4
6234.7
1482.12
3997.19
2084.9
325.641
762.883
368.931
926.609
-515.533
-85.7923
2.90232
715.653
2664.56
-2943.12
-3517.29
-1427.07
-2213.86
178.614
-178.65
-55.3763
-397.781
-1597.91
112.373
-19.2297
-1791
1011.97
253.773
910.766
987.129
1138.68
2541.24
190.892
-1781.21
534.495
-589.97
1666.32
-2106.78
-889.18
-1344.63
-2307.2
-743.206
-751.084
-556.516
-696.964
180.772
274.774
-505.092
-74.7373
505.332
756.427
2231.26
2093.22
4958.73
2526.12
-798.086
1307.09
1989.12
-1024.41
5141.39
1607.84
2421.58
1911.8
2007.97
4616.31
4492.8
7156.85
5358.44
4086.25
11817.9
13540.6
13971.7
12489.3
4174.47
2754.51
1716.03
-1090.2
-4210.37
-4057.62
-1635.37
-4842.96
-1878.08
-384.346
-159.373
3900.06
7060.74
9240.37
10103.1
4401.18
1108.69
2089.46
40.3149
-1394.51
-1707.93
-751.136
-647.163
-154.017
-863.163
-336.088
97.7437
1566.92
5667.98
5712.62
4005.18
7118.07
8724.55
7189.03
4529.12
5830.72
14118.7
10644.5
2822.62
574.014
3275.54
915.17
4264.91
-634.067
-576.481
4169.23
8544.38
2515.24
511.894
1008.27
2282.82
90.3846
3373.16
917.791
2832.55
-265.31
-319.455
167.017
-891.065
-1588.61
-2232.48
406.367
2899.4
333.504
-1752.52
-2913.59
77.0609
-1250.46
630.2
394.946
243.008
1171.05
-3140.98
-271.989
701.437
975.73
-785.033
-3786.61
-2851.96
-2481.63
284.224
-802.527
754.29
2153.63
1133.7
4452.65
-1645.66
413.411
-1211.15
-974.901
1452.36
3808.12
4865.73
3000.32
-1904.59
7835.92
5422.01
2651.71
7222.98
14105
20795
28754.6
10716.7
5270.92
-581.801
6325.44
2490.72
1341.98
-2192.72
-1385.57
388.89
273.686
499.102
154.907
1999.63
-979.127
851.672
1977.76
-1672.3
2127.45
1070.71
792.099
-559.099
439.565
-306.975
-379.788
-431.004
2058.34
-253.776
