32924.1
-79140.2
-15238.6
847896
606942
-222171
863028
1.35539e+06
4.28934e+06
2.19256e+06
1.74572e+06
1.1699e+06
-170685
153834
2.86895e+06
2.95949e+06
-588639
-647644
51876.1
-2.20805e+06
-1.90412e+06
-1.54384e+06
-2.0628e+06
-2.16948e+06
-775141
-848643
-3.30158e+06
-1.05026e+06
-714564
-404899
-969077
-66994.6
578496
501783
129856
-237636
-76360.8
87410.2
263014
-426870
80488.3
400427
310000
-127978
33051.2
-467850
-956254
-833027
-544012
-85912
-941142
-276822
71394.3
-599736
954045
1.21046e+06
-185273
2.39142e+06
4.55283e+06
5.29295e+06
2.05504e+06
3.30562e+06
1.58511e+06
-134946
52261.2
768502
358177
-820565
-941652
-399935
-283133
-1.23709e+06
-4.00245e+06
-3.47146e+06
-1.64676e+06
-1.79352e+06
-1.24357e+06
-426843
-798200
-1.02684e+06
-868850
-793986
-2.5969e+06
-4.59644e+06
-1.77453e+06
1.8891e+06
3.23332e+06
1.05916e+07
1.8031e+07
1.86579e+07
1.12554e+07
7.77564e+06
1.70579e+07
1.03446e+07
7.46768e+06
9.36027e+06
6.68221e+06
1.34387e+07
1.77754e+07
1.07288e+07
5.66412e+06
4.7247e+06
3.3775e+06
3.31994e+06
508569
407711
693223
-173710
-916362
-1.3503e+06
-1.44175e+06
-657384
-197314
1.60297e+06
-647224
-2.40744e+06
-166580
-122693
-29159
-813424
-628714
167479
1.17543e+06
643866
245658
210895
159122
789813
-118587
-947984
-580485
503868
1.54216e+06
1.36181e+06
64037.7
1.40823e+06
23235
-571340
208131
-470430
-949418
-1.79275e+06
-485130
-780373
-224646
-711786
-109064
339349
-1.03071e+06
-653073
-378230
-465937
988436
434134
1.20184e+06
141674
693909
193506
-809536
-761240
-266382
490810
678583
-76341.1
-135075
453673
-120858
-8441.08
-220538
240711
123109
135012
-172820
-164250
-647179
-3.22749e+06
-3.04433e+06
-154606
-2.02365e+06
-592796
-1.8435e+06
-1.24323e+06
-6.78834e+06
-5.8265e+06
-1.01824e+07
-4.12281e+06
-4.99735e+06
-3.3965e+06
-703516
-2.32793e+06
-1.14928e+06
-820049
433801
-1.91327e+06
-846181
-353921
-108802
-207390
928148
320816
87118.8
165743
139781
-193016
166815
1.16757e+06
392103
503043
749331
150188
-235621
-1.15875e+06
-538027
-537174
-171158
-2.80566e+06
-387059
-409328
-70963.4
-192889
-10418.3
40934.6
-1.81955e+06
-367846
586078
970017
54724.6
-35548.5
-159406
-56260.4
-459590
-41766
180345
235628
-455249
943894
771338
2.59397e+06
1.25531e+06
-179599
474959
489324
3.55603e+06
898192
-35651.5
-25858
76925.1
439438
52407
-60072.9
-222584
205284
797518
4.46823e+06
1.13494e+06
868136
618788
1.08985e+06
-3.20099e+06
1.83025e+06
408617
-377333
-2.104e+06
-1.32612e+06
926307
2.42584e+06
-1.57691e+06
-969125
-36222.7
214894
-21939.7
-50940.2
-69653.1
-445721
-13408.4
-2.37064e+06
-1.11841e+06
-130119
-264324
-23982.1
245226
101634
366071
231175
351959
298569
1.37e+06
1.43129e+06
4.24749e+06
463713
66154.7
1.96867e+06
845120
-273567
-421294
-24675.1
491296
1.15024e+06
1.10617e+06
2.57536e+06
479894
879331
1.10627e+06
406056
-591148
22789.5
17975.1
-41814.9
373160
705961
147559
-381288
-168967
261.057
-274721
-153862
597336
756579
-224994
1.81365e+06
1.18004e+06
79867.8
-739082
-772111
-1.81608e+06
-2.26108e+06
-581810
-1.02617e+06
-110114
72798.9
-148940
256263
1.71715e+06
15102.5
50621.1
-360465
301688
110050
-64091.5
-260796
-27736.1
402003
-354569
30139.8
81632.1
-1.61138e+06
-2.60274e+06
-840783
1.17596e+06
3.30284e+06
2.34503e+06
3.52599e+06
-482353
207282
-440206
-206507
-423550
-2.9499e+06
-1.61702e+06
-975326
-109310
278026
-75755.9
-292732
501589
557123
-2.42076e+06
-1.87415e+06
-468292
257062
377843
-52399.4
386235
1.75922e+06
3.12516e+06
1.53845e+06
1.31957e+06
-177990
22460.4
180012
493527
65429.8
352107
483473
849374
15392.2
-552302
-1.07112e+06
-199738
-271316
-288786
-476247
-381698
87405.2
-1.28752e+06
-812403
-1.68671e+06
-1.16319e+06
-4.13476e+06
-5.43234e+06
-4.063e+06
-1.33263e+06
-716932
-1.80942e+06
-3.2059e+06
-1.56933e+06
-3.43268e+06
291827
-900876
-529793
-1.94767e+06
-357936
-78499.3
-252442
306275
-836438
-805714
-2.16309e+06
-2.05299e+06
-639067
245666
-796014
-457331
-1.03629e+06
-309511
49826.1
68228.5
236838
68413.6
729077
-186945
-183324
57887.1
-119161
-267511
-192096
803537
86863.5
-111075
484028
-923791
305080
53872.9
-31614.9
128355
153242
31959.2
231100
219078
1.91021e+06
1.08813e+06
2.29398e+06
1.54715e+06
1.36171e+06
1.99108e+06
4.53252e+06
3.8614e+06
84714.3
2.06066e+06
3.65578e+06
3.4395e+06
574733
1.0065e+06
983168
745002
1.77567e+06
5.20174e+06
6.60593e+06
589985
2.79547e+06
1.35555e+06
3.64211e+06
-1.10557e+06
2.28659e+06
1.32447e+06
793239
1.62315e+06
425800
169946
1.03169e+06
14993.2
-176193
291566
328448
-222972
4.69445e+06
5.6903e+06
7.46664e+06
3.92827e+06
2.41667e+06
1.44263e+06
4.65548e+06
-4.34427e+06
-1.77875e+06
-1.21991e+06
1.44222e+06
76602.1
-271496
373080
585582
37823.3
84809.2
-279354
2.06547e+06
-1.35433e+06
494013
101527
-306207
-302531
-173762
-40530.7
-153239
-120455
159727
24003.8
-571845
-1.61655e+06
-1.62752e+06
-20940.5
-82791.9
-109537
363051
-1.16408e+06
-302669
2.96505e+06
1.52548e+07
2.20687e+07
8.36948e+06
1.06779e+07
5.61027e+06
1.74503e+06
2.35415e+06
2.92902e+06
663354
1.05143e+06
834919
1.98865e+06
2.88652e+06
3.43566e+06
7.643e+06
3.39021e+06
3.64938e+06
812685
500141
31614.4
24978
-23416.6
864045
259407
-3.23936e+06
-2.67127e+06
-3.92916e+06
495213
-1.4504e+06
-668076
-755617
-358228
794655
1.17451e+06
1.3955e+06
1.2934e+06
335784
579063
-94195.3
-44188.3
-258515
243697
147337
1.08446e+06
1.84667e+06
1.51152e+06
985128
934.608
423497
250721
370668
-510443
243419
642793
1.76549e+06
928762
1.11663e+06
88705.9
-428833
1.32693e+06
2.27402e+06
536134
1.51186e+06
2.66635e+06
1.18303e+06
2.88228e+06
5.87421e+06
1.84198e+06
1.75738e+06
1.74141e+06
2.15655e+06
71432.1
-408529
322290
472134
-56615.4
50783.9
-244047
-143487
-203763
-125772
-896967
-111704
-177925
268982
-14397.9
46101.5
291918
115152
1.10264e+06
-1.03768e+06
671981
444463
604274
440838
135415
-1.07418e+06
1.34242e+06
402006
-608102
579470
939868
374807
-415234
213967
-149048
-526129
-228537
-3922.88
875133
1.47032e+06
745824
258974
1.04492e+06
854424
1.29132e+06
2.37526e+06
2.93056e+06
4.45879e+06
4.5241e+06
4.325e+06
3.58675e+06
6.01722e+06
5.80756e+06
4.99984e+06
680324
1.65386e+06
497982
2.41256e+06
2.72616e+06
863216
629383
-808538
329831
-1.53474e+06
1.37053e+06
-1.63165e+06
-437770
-272023
-1.79776e+06
-1.10743e+06
-288275
-363167
246853
-170713
-23744.1
-56835.2
1.60824e+06
280276
355743
4997.18
-12874.7
-2.10633e+06
226050
-57307.5
-201460
-594038
1.94217e+06
1.02009e+06
3.30395e+06
2.65678e+06
3.78238e+06
4.70556e+06
3.87113e+06
3.17267e+06
2.44993e+06
1.58534e+06
751347
2.08023e+06
3.39573e+06
1.59743e+06
-1.35129e+06
126181
1.26484e+06
2.17989e+06
4.87044e+06
5.31542e+06
2.29604e+06
3.60437e+06
3.12831e+06
4.48553e+06
2.32845e+06
2.02319e+06
486449
1.00964e+06
103918
214684
-72120.4
-146446
201132
471223
-125194
136060
-559563
92401.3
-355148
408544
-92703.6
-40460.9
-802699
-728345
-1.08548e+06
1511.45
232775
-1.36252e+06
-936630
-630356
-836221
-11489
-1.34959e+06
-119371
-16537.8
193232
-510556
-367268
123190
218030
112853
-201438
-431843
-103135
-313864
-98348.2
567528
488888
-128806
-1.45879e+06
-1.93264e+06
-1.17747e+06
-1.33358e+06
29847.8
21639.7
229263
-3497.09
-190752
-201091
1.24271e+06
109075
438464
-270458
-147796
-285507
-175764
-341646
-368787
32833.7
-19487.4
54497.4
-182351
40053.9
-484199
-472742
-378545
-562569
-1.15821e+06
-397324
-205665
1.63564e+06
-110195
-706607
-1.40374e+06
-4.5592e+06
-1.28682e+06
98681.4
-641886
-288786
-1.26853e+06
-6.46355e+06
-3.45161e+06
-3.14426e+06
-1.53908e+06
-8.41288e+06
-1.06272e+07
-9.40975e+06
-1.29933e+07
-9.58262e+06
-2.66754e+06
-585418
245822
-13610.7
460235
-1.04411e+06
1170.16
755190
1.42847e+06
1.12235e+06
1.87513e+06
1.74918e+06
1.3977e+06
-7.50008e+06
-4.63323e+06
-2.40809e+06
465589
-2.05539e+06
-466895
-1.11419e+06
-660917
1.93207e+06
928934
889623
225942
97177.7
-281405
787819
389715
-17873.2
-1.73635e+06
-1.46946e+06
-876870
144220
-133924
529123
-1.01514e+06
-977254
-57389.8
-554872
-1.40323e+06
-642388
-318428
89115.8
57323.1
-168527
-2.05336e+06
813556
109977
-160154
-202387
-15803.8
14417.4
-98590.8
-221548
-192266
-1.29551e+06
-168193
-104645
-65249.7
26018.5
-1.71603e+06
-2.18058e+06
-1.61113e+06
-379533
-122654
650326
-526751
-772767
1898.49
-69697.5
-1.19923e+06
-1.54774e+06
-1.68248e+06
-2.1816e+06
-1.04853e+06
-487463
1.22342e+06
1.524e+06
5.97565e+06
838532
-1.47276e+06
-926963
-178645
191857
226377
306149
-212804
-99448.3
-635120
-503537
-3.60157e+06
-3.46548e+06
-224204
-1.15193e+06
-1.5858e+06
-2.61675e+06
-2.00138e+06
-174347
-181419
-62106.8
208535
-581355
94295.1
293810
749801
97210.8
639014
557942
1.81818e+06
1.96839e+06
1.69038e+06
429529
156419
46922.1
102635
90345
373345
125274
355951
-98889.9
-667932
-36051.8
58279.7
-506414
329332
69852.2
-2.25061e+06
-1.10846e+06
-883197
-5.49102e+06
-2.15008e+06
-3.15725e+06
2.48214e+06
-250462
-849927
-1.79403e+06
-1.02328e+06
-194488
340145
369035
-61606.1
-1.51102e+06
-1.91801e+06
-1.11201e+06
-1.81264e+06
-1.71809e+06
-500165
56193.2
216397
44164.6
267634
351029
-637079
-303867
-578492
-90733.5
2.34034e+06
-46406.8
67254
1.20548e+06
428476
1.67245e+06
584258
1.45843e+06
392973
404574
-443208
-547856
-134064
-333772
-616836
274400
-475632
-168362
-337090
-1.68633e+06
-218550
1.21269e+06
400988
2.24774e+06
2.5792e+06
3.37277e+06
4.20505e+06
2.84925e+06
3.90973e+06
3.723e+06
7.26854e+06
7.76404e+06
270958
-374734
54738.3
-9513.22
-1.60543e+06
-380567
447539
-395728
-1.0903e+06
1.1675e+06
523402
695122
-2.31781e+06
-8389.71
-303708
251033
-266689
-3.14198e+06
-5.48564e+06
-4.06799e+06
-1.45874e+06
-5.34409e+06
-2.75803e+06
429023
-354162
112096
-217835
-167947
1.08375e+06
-78367.7
-86594.4
-348542
-373330
2.12954e+06
1.56647e+06
571572
184037
1.19092e+06
2.3242e+06
3.38423e+06
162659
-482887
-1.38609e+06
222647
45244.1
-263232
668921
344639
42965.5
-484153
-133741
480722
-550435
1.2172e+06
1.13422e+06
1.8905e+06
-141941
459780
201623
128796
-345617
-660430
-1.53164e+06
1136.97
159408
-726263
-660154
-600743
-1.38877e+06
598202
220532
-1.5811e+06
-642274
-538600
5146.82
-237474
-140586
241740
237602
820801
-145505
-415158
-162258
333314
578458
205351
-60777.1
312978
618371
539519
718430
599454
2.69268e+06
1.12919e+06
-154600
830745
-809386
-20251.4
-1.27991e+06
-635921
211135
-207643
117578
77570.7
-171593
450284
1.85138e+06
704065
296800
544865
-78074.3
1.18946e+06
673995
601154
-113847
-101601
-156607
-343711
-96080.2
803435
-1.11636e+06
-700835
-605580
-545527
-53247.1
-100053
125530
254819
2.72705e+06
2.53938e+06
21375.8
-861124
-47744.7
576776
214690
2.17812e+06
1.13918e+06
16524.8
252694
1.22966e+06
47420.5
-548498
-390522
-326739
-3.03073e+06
-606782
-1.22617e+06
375577
-319305
68522.9
-123083
642233
1.25607e+06
2.83106e+06
3.31768e+06
872409
304329
7163.16
-276788
8992.77
290617
741128
4.91005e+06
607514
773213
49562
-136325
-451578
34628.2
-167937
34126.8
-469250
351219
-42541.5
28984.6
-56595.9
-53907.2
99708
152688
-29666
-138619
-175418
1.62998e+06
532739
4.52689e+06
2.33838e+06
897109
4.95633e+06
1.23588e+06
1.70183e+06
169128
21762.8
-309161
906344
667951
2.39152e+06
551246
105537
-481850
-540175
-968004
-1.90745e+06
58621.1
616642
-23192.4
589657
-734858
-12234.5
-1.89425e+06
-155334
-935695
-96268.6
101929
-567940
-289144
-243313
-280248
537712
1.04754e+06
2.28511e+06
1.70111e+06
-921524
-1.37252e+06
-167324
-1.41212e+06
2.20867e+06
1.4048e+06
603694
443193
44092.2
-4570.21
44226.6
-1.59259e+06
894214
1.15697e+06
304059
3.59041e+06
2.08601e+06
209171
1.10432e+06
246748
115180
1.94513e+06
5.54169e+06
4.67004e+06
2.34822e+06
15848.3
-1.0681e+06
-561762
-1.27389e+06
201707
-102883
533524
-942497
-97123.3
15351.9
271746
147160
275757
-107315
-90690.2
-232220
231724
-13484.9
-72210.6
589891
-10589.5
-459842
197827
-45565.9
217955
-33333.9
-154059
-56224
-223885
-931534
-168127
-980284
-2.09167e+06
-2.28182e+06
-715783
-2.33346e+06
-991687
-890573
133064
-104570
-202593
-523319
-676334
-799072
-1.70487e+06
803549
105111
-197483
1.85671e+06
4.6583e+06
675510
-373032
-327905
-214024
-1.06742e+06
56824.7
78807.6
-222390
-348894
-406873
-57926.8
-634270
-243004
-996050
-420657
90334.3
10407.6
355546
1.73991e+06
-297994
-84246.5
724250
1.24514e+06
238706
581228
478421
-726993
-2.2324e+06
-1.06381e+06
84313.6
26774.4
-739128
-65349.1
791884
1.02224e+06
2.39389e+06
461877
-105182
965055
82433.9
133822
-262629
363562
444228
1.60377e+06
1.38287e+06
1901.95
9896.2
325036
-37023.1
-63802.6
-271032
-147809
249886
-120519
-33292.1
183290
-146209
267945
210130
-99555.4
33352.5
-128078
33076.3
1.41319e+06
1.46201e+06
1.0704e+06
82454.1
232823
1.09977e+06
-1.68927e+06
-697698
-1.50967e+06
-1.16692e+06
1.52053e+06
1.2945e+06
1.33784e+06
-1.13029e+06
-581459
707775
14430.3
767447
597012
479709
593218
376436
15884.2
73226.9
75464.1
161523
-44622
-92991.9
403432
-184193
-698598
-822697
295671
-1.91791e+06
-530152
15943.7
-719381
-1.44965e+06
-827372
392965
238634
146905
543869
393288
-101708
-210979
1.56987e+06
4.66985e+06
3.12928e+06
339724
12914.7
3422.35
-207802
-627350
827997
1.17967e+06
2.74717e+06
356125
192792
-325235
-129060
409649
159683
-9696.8
-249554
-1.17817e+06
-190491
-2.25454e+06
-1.48293e+06
-109354
-453358
36203
972960
179052
2.77735e+06
2.06091e+06
2.56288e+06
624360
315458
-110987
1.54122e+06
1.33604e+06
1.44127e+06
1.95481e+06
341699
-336846
-680465
485323
744717
1.37268e+06
201875
2.90688e+06
1.31453e+06
398970
282846
-176901
534315
900153
2.91547e+06
1.86294e+06
1.8773e+06
835716
2.11714e+06
3.4064e+06
4.46446e+06
7.8333e+06
3.2827e+06
3.43144e+06
1.36405e+06
600762
-1.8062e+06
-704473
314140
145619
1.85264e+06
57687.3
-431247
406885
533795
393609
804666
568252
326005
162265
297952
-1.2898e+06
-755450
626528
69194.4
-295232
-437559
-2.84858e+06
-925065
-1.13733e+06
-1.81405e+06
-2.90774e+06
-1.59825e+06
-2.12748e+06
-1.33403e+06
-929900
-289885
-1.36329e+06
-1.16857e+07
-1.27718e+07
-5.59556e+06
-4.02387e+06
-2.80107e+06
135995
1.42988e+06
-3.03124e+06
-1.97297e+06
-7.12847e+06
-2.07386e+06
-2.11035e+06
-1.03993e+06
1.52087e+06
435717
14875.8
-1.81268e+06
-4.31062e+06
-77855.6
992926
1.32414e+06
1.50675e+06
6.44159e+06
7.22439e+06
1.41328e+07
2.15392e+06
2.05099e+06
2.934e+06
582757
470117
1.96286e+06
1.08284e+06
-396375
-1.4063e+06
-1.86835e+06
-405523
847104
-144098
114070
-723294
-776670
-706903
1.08633e+06
210011
761235
1.15191e+06
1707.75
293629
-541168
-723841
809415
1.16305e+06
169962
-38795.2
218846
86129.2
-32385.8
-418716
964539
644263
149777
557383
169833
-354196
-43502.9
-46277.3
550886
1.06661e+06
2.71927e+06
1.61974e+06
2.52731e+06
1.08989e+06
1.34287e+06
1.80495e+06
1.61595e+06
2.7169e+06
987609
-86915
21584.1
-35257.8
799621
1.71964e+06
2.67296e+06
735402
4.46847e+06
2.38767e+06
739871
20000.9
179295
655606
274945
348291
-488067
-578158
-682756
-912127
-890333
85059
644577
3.43005e+06
3.66184e+06
2.26127e+06
820114
2.22374e+06
1.80924e+06
-353785
2.44779e+06
1.95277e+06
286799
1.94551e+06
-150092
-445169
1.10665e+06
81001.5
-1.54353e+06
-666297
-488187
-319702
-131503
-97846.8
-18893.8
174434
-393605
-91179.1
-97691.1
239416
1.75035e+06
3.15869e+06
1.18892e+06
3.69644e+06
3.30968e+06
561422
-21501.2
-171784
-1.12845e+06
-424312
-124378
-192574
-1.08101e+06
-1194.76
-243614
-252890
-389528
-1.27452e+06
-535488
-665876
-138867
47668.1
-230267
-1.92997e+06
-1.59328e+06
-844594
-1.7285e+06
-398103
-242746
-5776.8
-707473
58178.2
-658657
-617508
-2.36213e+06
-1.23917e+06
-348843
68862.7
-582227
-994087
-1.55443e+06
-656940
698333
219468
829941
1.3068e+06
944027
3.76681e+06
17964.7
-20709.5
-581377
-341612
-504182
-147546
122234
192960
-55814.8
1.07182e+06
79185.6
72632.7
-329856
-579193
-349254
-1.87462e+06
-254835
-392007
-54201.8
-764784
467515
289804
-373967
-1.05296e+06
-891850
-178119
-1.23228e+06
-2.44031e+06
-1.22785e+06
-3.57508e+06
-184198
1.18541e+06
14976.9
754389
156419
18959.8
637440
756561
46580.3
230200
237140
-9176.85
-197637
-1.26369e+06
-43989.7
-429386
-279800
241612
106938
17573.1
22393.6
-133932
-860415
-318695
847939
333900
62864.8
-3.09057e+06
-507121
-324694
-3.13097e+06
97053.7
2.48551e+06
4.92142e+06
1.77602e+06
1.51869e+06
1.41278e+06
1.22207e+06
625170
2.05146e+06
2.47698e+06
-506229
-111044
293871
145119
241307
267244
-194489
94902.1
395922
130952
-135184
-458742
-468882
-64209.7
-332279
-1.62096e+06
-595646
-4.33127e+06
-3.22107e+06
-376512
-486934
-840022
-152487
-2.49601e+06
-1.46189e+06
-1.07783e+06
-981092
-1.05626e+06
-453348
1.42864e+06
1.65602e+06
1.67725e+06
3.17008e+06
1.40819e+06
64290.2
1.4325e+06
1.86984e+06
1.69527e+06
1.09913e+06
1.04605e+06
1.24698e+06
859218
2.02092e+06
517150
198952
765235
776507
116365
-223750
575807
-1.53792e+06
215076
2.5824e+06
242418
188631
-158823
219871
117387
46923.8
-148603
-1.41758e+06
-1.45418e+06
-434400
-1.1121e+06
-184437
-314718
78220
-22934.4
-109966
805.85
-386469
-76244.9
761739
1.77919e+06
954180
1.50798e+06
626789
31575.3
118786
391287
880970
692035
282535
751065
1.15005e+06
366045
116829
-775961
434111
-328833
176316
16527.2
-927778
-832449
278887
109003
300929
72073.8
-436240
1.81791e+06
572414
866363
346181
178607
6.66034e+06
6.01646e+06
4.79782e+06
1.43673e+06
317616
48516.7
6140.77
-535850
-1.86682e+06
-2.51684e+06
-2.57898e+06
-1.77847e+06
-2.22268e+06
-3.60364e+06
-3.42368e+06
-2.57976e+06
-5.10547e+06
-1.65231e+06
-1.50493e+06
-1.8136e+06
-1.42869e+06
-634287
-1.63593e+06
-1.07621e+06
-2.46465e+06
-2.57059e+06
-611704
-84154.2
981716
1.89706e+06
3.27183e+06
648591
-552874
-852889
288152
561679
1.52451e+06
2.00902e+06
584096
487285
266505
-283757
-1.2041e+06
-2.18585e+06
-1.6729e+06
-3.44263e+06
-3.13682e+06
-2.19528e+06
-1.62781e+06
-1.5331e+06
-779592
-2.02551e+06
-5.35509e+06
-78152.1
-1.93266e+06
-708881
-330867
-636677
1.8367e+06
982351
1.1465e+06
922629
295166
-93751.8
1.09771e+06
1.16568e+06
3.36145e+06
935849
1.90255e+06
1.90095e+06
1.01122e+06
2.78007e+06
1.61491e+06
1.40717e+06
292148
54213.3
-55794
1.42775e+06
1.99123e+06
1.76265e+06
560938
124972
1.54804e+06
10644.7
2.08885e+06
4.13307e+06
1.69903e+06
16034.1
591672
4.29987e+06
962599
449757
2.15343e+06
2.66416e+06
2.69843e+06
1.09893e+06
-612742
-591715
-404619
-14615.5
-113840
-269150
-267081
54779.6
75106.6
-50698.5
-50830.3
-89515.9
-331777
-74144.6
129025
539968
1.23677e+06
1.11346e+06
281498
-147242
-408977
271664
-489118
-396957
350505
92431.9
37221.4
27692.8
-267095
-9224.54
371967
235046
-53468.3
-284621
1.27838e+06
640880
-988859
-1.13465e+06
1.099e+06
980631
386818
-2.87528e+06
-2.2591e+06
-1.19067e+06
1.61483e+06
254450
-993774
-133865
-96259.6
402268
485796
223398
201347
2.69086e+06
833059
-1.32148e+06
-2.13792e+06
-2.0839e+06
-3.32537e+06
-5.23948e+06
-1.66723e+06
-1.02512e+06
825798
1.13906e+06
376843
-48884.4
-706725
-533432
165326
82817.2
56640.7
588912
307308
1.40852e+06
1.91384e+06
2.37551e+06
4.23119e+06
5.0203e+06
5.55901e+06
4.31206e+06
2.52295e+06
1.44352e+06
-620691
-932865
-218716
237101
-801916
-1.37156e+06
-2.31825e+06
-3.98803e+06
-2.62919e+06
1.34402e+06
274921
2.36983e+06
1.14989e+06
1.96247e+06
3.36051e+06
1.48827e+06
965581
221840
425659
73046.1
82605.7
214189
188154
488684
767479
-226133
-1.68892e+06
786462
3.34891e+06
172477
447235
459219
760688
-826400
-3.14384e+06
12331
-238744
2.14328e+06
1.49419e+06
2.43613e+06
3.23591e+06
1.81968e+06
2.59959e+06
2.46338e+06
187677
5576.73
-260237
-312730
-18461.3
875333
196445
487669
309247
678262
-50801.9
78812.3
248540
-51779
-28517
-360505
-174593
426050
-1.20527e+06
-1.49898e+06
-454087
-743561
-233608
589623
656144
-2.54717e+06
-52253.3
-1.82546e+06
-207014
-74835.4
437271
221045
-68247.4
11643.9
-123244
-17510.9
-121297
-810903
-818328
-236535
-192420
178422
-491821
-557.316
-245808
-476922
392186
-595620
-1.47392e+06
-360771
-165420
-310376
388531
298869
190309
518462
-223661
108274
-654276
-1.15518e+06
-890611
-1.30129e+06
-3.72258e+06
-3.56557e+06
-494647
-3.80994e+06
-1.22953e+06
-3.21252e+06
-4.53276e+06
-1.00134e+06
11983.7
-1.95266e+06
-1.62914e+06
-3.95949e+06
-1.34109e+06
-399947
-370436
253679
166713
317877
983604
-890008
-403700
-243984
-250671
-908444
320084
957944
550210
2.58816e+06
2.67605e+06
2.87936e+06
4.31581e+06
1.87326e+06
1.34093e+06
-1.17698e+06
-1.30211e+06
-152945
-689693
-197139
-158735
-1.08906e+06
-211005
-937463
3.09363e+06
2.83732e+06
2.54587e+06
293484
2.39362e+06
1.31451e+06
2.32826e+06
6.55937e+06
1.24733e+06
168071
-1.7496e+06
931976
-432747
-887992
-2.24719e+06
-5.12654e+06
-6.69898e+06
-4.61654e+06
-2.11566e+06
262003
1.41338e+06
-423267
-3.4202e+06
-1.27176e+06
-5164.24
-197648
-4.45334e+06
-8.63325e+06
-1.8275e+06
-352765
-327929
-128386
-14773.9
-313812
-228325
-439716
-199152
-34543.9
-381740
-212639
-285708
481870
-307015
-646653
1.36997e+06
1.40277e+06
3.03823e+06
1.47684e+06
257514
713024
1.13011e+06
3.22756e+06
4.33382e+06
2.58933e+06
696603
1.15787e+06
403660
-227384
-28610.8
-244648
-251692
76445.1
620207
2.42053e+06
613077
967664
-1.66334e+06
-3.08978e+06
-535287
-1.08119e+06
1.93796e+06
3.91494e+06
3.34201e+06
2.79202e+06
946976
-685548
363532
540516
4.26299e+06
2.39467e+06
3.33521e+06
1.47379e+06
388350
460751
716832
-28790.2
-10575.9
-191190
-87506.2
182821
-18908.7
-479040
-739311
-958618
-2.46367e+06
-2.81053e+06
-1.54429e+06
-931852
112127
-255363
-688132
193292
264786
1.51858e+06
3.56931e+06
916118
2.21899e+06
1.19305e+06
-525216
-750383
10922.2
-1.14435e+06
-332155
-188701
-184648
-280911
-977415
-1.6677e+06
-1.22278e+06
-726381
-7.36191e+06
153145
396206
-7882.33
1.212e+06
192622
196734
816854
-77369
-96444.6
852620
254671
-395634
549757
-60332.6
27473.7
-41396.5
-345814
1.18282e+06
1.12431e+06
-259548
-833299
481620
1.3682e+06
1.50753e+06
934672
3.16971e+06
1.78351e+06
201361
-1.90133e+06
-1.10944e+06
5.1748e+06
3.09033e+06
4.89495e+06
529191
-188446
488229
1.41752e+06
344579
-174136
732792
-276512
-127533
-1.14389e+06
-252619
-2.83001e+06
-2.12009e+06
-1.59814e+06
-2.37665e+06
-926952
-109563
290875
-589583
-613940
-575541
-1.51898e+06
-1.03961e+06
-929773
-2.45358e+06
-1.42412e+06
-1.01757e+06
-16870.8
-350771
-215250
10738.4
243785
598523
1.59344e+06
-299989
461088
-42255.7
-578084
-582089
154263
-1.15509e+06
-360916
247549
-625810
-341737
130691
148256
724895
314432
-283843
1.01673e+06
279766
1.23414e+06
1.75235e+06
4.62018e+06
2.21648e+06
411598
1.0696e+06
1.02388e+06
-524981
-309415
306722
-307840
-250395
102413
-387987
260066
-20587.1
203712
-617385
1.13618e+06
-468010
-90696.7
911076
-466949
379998
-925646
-2.18051e+06
-1.0987e+06
371844
-546719
-847388
87032.3
-1.89845e+06
-217587
-4.52223e+06
-2.02712e+06
-1.10848e+06
-43662.2
1.63407e+06
359686
1.42866e+06
1.06349e+06
-505385
-1.0912e+06
-2.02841e+06
-493640
-260090
441675
2.07621e+06
-657331
222681
720642
381478
27797.2
17564.9
1.62138e+06
1.27577e+06
1.11553e+06
418752
-480063
-757178
-148470
-1.3135e+06
423144
-2.96297e+06
-1.14307e+06
-636462
-4298.36
1.68592e+06
332075
13082.3
-7494.23
-499866
-375230
-144398
-1.41279e+06
598690
20208.3
410674
382280
-228864
113363
-221661
-40809.4
-1.07651e+06
239152
81443.3
-31439.4
-619257
-1.30061e+06
-977333
-991251
-849554
-857604
-320091
93407.2
-444821
-648075
-1.99934e+06
-483286
286886
-273261
-849933
-609458
-555385
-508618
-104738
68985.7
202866
-113751
-18754.5
1.0988e+06
1.19407e+06
1.49247e+06
7.09616e+06
4.67619e+06
6.46304e+06
1.67567e+06
1.33184e+06
1.741e+06
537637
271155
630876
679845
1.17838e+06
545778
589470
2.28464e+06
255169
-13701.9
238679
-2085.85
1.04234e+06
-343029
282766
-941449
263700
-39830.8
42457.4
22194
-109872
-337606
97232.7
-306429
-729495
-172125
324408
-415518
-505491
-360170
379308
278960
-1.75984e+06
-957963
-121488
403486
2.04254e+06
-91234
452754
431159
718092
1.56582e+06
-527684
-687880
-332652
-415872
-591837
173460
448643
-518368
-141309
-6119.19
-322380
60534.5
-1.29924e+06
-1.20861e+06
-463655
-182348
-1.03136e+06
373586
232739
97476.9
43421.3
-29992.3
-157598
280433
-186063
25945.1
-656910
1.43989e+06
104381
915372
-62733.4
279893
1.26588e+06
1.58446e+06
401049
-20989.7
-666462
-763875
369529
-535632
777170
2.50059e+06
2.35597e+06
1.12713e+06
1.98168e+06
1.04445e+06
5.88525e+06
5.29302e+06
1.3454e+06
1.88703e+06
1.85899e+06
2.74306e+06
3.37824e+06
5.1853e+06
1.07241e+06
1.67995e+06
1.79256e+06
1.28999e+06
162657
2.16635e+06
4.44599e+06
-781268
-29041.4
365871
321435
168163
11836.1
-36956.3
13896.6
498249
193856
46699.7
40547.6
2.02627e+06
876046
133315
-85796.5
-55081.7
262574
-6643.95
71730.5
-194853
558289
4.96555e+06
3.78181e+06
3.42729e+06
2.87253e+06
1.48408e+06
946341
479119
-565534
-272969
-571070
-125363
107800
85393
4678.14
-60799.1
321669
161817
398411
385409
846219
-238217
-876133
-49726.9
752211
-19172.4
508758
-640963
617274
3.83169e+06
-244904
1.57414e+06
3.33828e+06
957167
585069
-7.31026e+06
-621038
-383831
1.82203e+06
2.55794e+06
8.2071e+06
3.92158e+06
-476349
-1.10525e+06
-1.43248e+06
-255978
-386884
-2.21406e+06
-415755
-294317
-222550
-687621
1.15685e+06
-319658
-4.2792e+06
1.72393e+06
-2.30752e+06
597144
-1.19474e+06
-101415
349648
-845131
-224555
20052.6
577327
785882
-489027
-633825
-1.04821e+06
-893412
-1.75456e+06
989566
3.23422e+06
2.67895e+06
1.71839e+06
1.58039e+06
488438
1.24395e+06
-351401
-975885
-372707
-626811
554651
-33552.3
312810
1.29081e+06
597351
1.60175e+06
3.55447e+06
965767
700127
264746
693333
897286
221857
51170.2
366103
99880.8
-40138.9
264533
950520
332236
-498998
17824
-104741
-175759
17911.4
-95676.2
121911
-109624
785935
418625
20073.2
-34860.4
-71292.2
-136468
2.109e+06
40357.1
-1.24271e+06
-40723.9
180341
1.66702e+06
2.347e+06
-96722.8
356438
171511
51047.3
2.27132e+06
1.08109e+06
852948
2.61042e+06
1.96912e+06
2.39085e+06
3.04864e+06
5.07179e+06
8.52141e+06
1.04562e+07
1.02124e+07
1.60003e+06
1.73025e+06
2.72476e+06
3.20268e+06
4.98536e+06
806752
1.47009e+06
6.92923e+06
2.41687e+06
1.24546e+06
17810.2
447996
-270837
-144247
-524528
-402425
-224701
-32344.4
-145608
-342956
-31724.8
332765
-52554.9
-781816
-1.218e+06
-1.49925e+06
-1.30903e+06
-1.22805e+06
-1.04689e+06
-1.60557e+06
-440440
-558653
74955.6
2.759e+06
383336
496347
590596
817581
732682
800543
1.95827e+06
227357
255112
409964
-3.83006e+06
1.22086e+06
622582
-104520
199901
435925
106760
637150
1.17663e+06
2.79201e+06
234452
5.23137e+06
8.53924e+06
1.35003e+07
9.38686e+06
6.11309e+06
-518338
-241691
1.15669e+06
-466069
-103107
132228
575324
320897
323867
2.4006e+06
4.18855e+06
4.21804e+06
1.99564e+06
1.75047e+06
1.52426e+06
958374
-789906
-292943
665530
338055
282740
-255678
-798623
-124814
100340
75017
-49959.1
-208329
-387831
-919217
-209295
-328840
140120
183326
278064
236647
-133433
-44917.1
-29615.7
-79117.9
357060
84371
141218
60334.6
-2.19767e+06
2.09555e+06
1.46838e+06
1.67277e+06
398007
1.60934e+06
1.42056e+06
4.37139e+06
3.90799e+06
7.65065e+06
2.6897e+06
3.28378e+06
2.19403e+06
3.78077e+06
2.90392e+06
2.93792e+06
3.89948e+06
1.86303e+06
1.31292e+06
483652
472970
-278136
-4.47821e+06
-7.53171e+06
-806034
-822059
-450069
493683
-6211.01
-10637.3
64257.9
166598
4200.39
-282499
-108420
-364843
230219
-809704
157176
607828
7351.55
984723
2.57101e+06
1.41569e+06
651262
734435
304217
-28752
-21072.2
487188
31520.4
90858.7
688107
-748149
-1.02903e+06
-927730
-1.77048e+06
-393687
-768830
-218123
87792.1
1.02025e+06
481652
-106437
654283
408954
569703
493212
230904
147702
-872859
-178391
-1.33665e+06
576687
1.71793e+06
1.66525e+06
2.39574e+06
223545
266810
-109928
93401.6
772515
2.18917e+06
1.55577e+06
1.79663e+06
2.43882e+06
8.25468e+06
2.6339e+06
2.4034e+06
3.78786e+06
2.0717e+06
658935
144626
397741
1.0326e+06
1.64531e+06
817301
1.43727e+06
1.86144e+06
448644
448753
-283163
3.43172e+06
935948
1.15931e+06
367509
76908.6
-4315.02
78127.5
254482
649324
984847
1.44411e+06
-74057
3.65757e+06
-217874
-96347.6
166489
-278624
-1.06319e+06
-1.46299e+06
-702169
-415477
-356656
1.74775e+06
8.5357e+06
2.3302e+06
7.73826e+06
1.05285e+07
1.91015e+07
8.60138e+06
7.76234e+06
5.55659e+06
-141064
-636899
-3.53642e+06
-4.86034e+06
-1.71314e+06
-1.05552e+06
-171709
-1.01555e+06
-1.66893e+06
-1.53757e+06
-2.27788e+06
648540
66044.2
158792
-167137
255771
-4765.34
31595.6
27199.3
-1.20704e+06
-306021
131050
-858939
-241201
78480.2
438812
-929784
-4.24821e+06
-2.98772e+06
-577072
-561196
-1.24408e+06
-1.30717e+06
-1.74287e+06
-1.14758e+06
-1.54874e+06
-7.90146e+06
-9.33502e+06
-4.45013e+06
-3.95694e+06
-2.37017e+06
-455354
-529554
-520452
70092.9
-1.19143e+06
-122265
-139331
569259
119497
94855.7
-61960.1
-447955
-542721
-189176
320998
430175
722992
241577
408334
-209764
-793806
-154397
-54996.5
223848
-1120.58
-114566
-117972
36813.6
-906242
-269776
-150477
-559060
-3.18679e+06
-384916
-41561.9
608582
486631
97410.7
184842
-173570
339217
294196
150785
-134435
-215418
-874011
-236984
103182
364406
1.61987e+06
1.48456e+06
850715
741524
549023
273762
117480
-290419
-495040
-969240
273472
-366408
135094
134663
-93666.9
-198230
-501145
463766
37154
-148477
-389682
-612353
-52896.7
-10571.3
-323790
3.475e+06
3.8281e+06
3.28473e+06
526058
401139
-229250
129979
-262846
-28756.8
-29590.3
-45212.7
139774
-288471
-1.86082e+06
680849
106720
1836.4
365923
675830
497602
718308
219175
1.2638e+06
-220910
82073.2
-46141.4
-127863
86631.1
-260168
27675.6
112634
116043
-691017
-1.29855e+06
-1.62046e+06
-1.94851e+06
-2.6927e+06
-85685.2
1.59759e+06
2.21778e+06
85523.6
177335
328001
312310
295959
145345
259272
16661.6
-35575.9
571210
1.2806e+06
2.63784e+06
1.28076e+06
8564.7
100573
-282379
-396051
-244251
-882305
-3.79703e+06
-1.23842e+06
-588712
-374150
-276064
3.49296e+06
3.23981e+06
962644
-276668
-269920
150601
-77178.3
-1.08027e+06
-71371.6
-211793
-324237
367018
1.19709e+06
40112.8
88751.1
559486
-26651.5
2.32172e+06
2.40886e+06
987585
1.02721e+06
1.08608e+06
4.8285e+06
2.3565e+06
1.46897e+06
1.53905e+06
120854
284221
494209
-458075
-316410
-248974
-323450
321468
1.47655e+06
782183
178628
414476
1.14762e+06
-1.2797e+06
-1.69949e+06
1.6005e+06
1.07166e+06
1.00617e+06
1.9734e+06
184958
31349.2
33073
1.67435e+06
-140715
386005
1.55541e+06
716990
1.38038e+06
143760
-267093
-1.08385e+06
-1.39648e+06
-366859
-174837
-326495
-1.80784e+06
-403481
252091
307463
59234.2
38775.3
-440591
-544074
-208164
828132
556867
-9645.33
19094
-545429
-1.53985e+06
-256174
-158785
-356625
-460019
-138996
-123727
-115139
-46892
-621921
-719820
-1.22288e+06
-649364
-1.43333e+06
-123776
-612659
-139787
137408
-378378
-78438.9
-120364
574870
452021
323342
1.28409e+06
77487.4
-240985
-20039.8
-319974
387866
-777971
-117756
177026
-70101.9
-671722
-94631.5
-528708
-393395
336555
181689
19888.7
435907
-191926
-50554.6
40185.7
-299958
-684598
-718253
-615896
-2.91315e+06
-1.42057e+06
-1.41261e+06
76095.6
-1.45655e+06
-1.33929e+06
-91663.9
-533513
1.33162e+06
-2.98251e+06
-4.02924e+06
-1.43829e+06
161613
28830.1
639615
-17643.3
204340
212466
335277
77877
1.16719e+06
705784
1.33294e+06
3.31279e+06
1.07427e+06
1.00088e+06
2.19542e+06
1.06291e+06
-167594
-4.32382e+06
-2.74083e+06
-2.05682e+06
-269606
528071
-442737
1.38803e+06
2.75365e+06
4.28548e+06
1.73282e+06
3.97395e+06
5.04958e+06
1.30783e+06
1.65677e+06
-532978
-511562
-386112
132392
101559
291267
492790
-416080
-1.28153e+06
-871018
-21955.2
131246
582140
-1.78423e+06
-621734
-129852
-1.09729e+06
56580.3
-25503.8
-321122
-1.578e+06
-338952
-104489
-212048
-10145.8
-465091
-260078
58436
-220859
546415
-595015
-14129.3
-44072.5
-28663
-207528
-431156
-1.37009e+06
-1.21976e+06
-2.68373e+06
-605974
545000
804662
284945
1.45596e+06
-352737
549781
1.64448e+06
1.54249e+06
2.11198e+06
-1.13413e+06
-51691.5
-256100
-437655
-638718
-17832.3
-395142
271417
-96148.1
-121242
-231054
292495
-39620.7
-1.05531e+06
-761994
-1.43716e+06
-818610
10425.5
-180866
-19133.4
-433290
-851902
-285178
-1.39889e+06
-227519
-281546
107527
151015
-1.13931e+06
62116.8
-120101
89987.1
-105496
99924
106127
2.01458e+06
-356812
1.33018e+06
2.03239e+06
4.23166e+06
-210662
-393153
-1.70289e+06
-976472
-1.43017e+06
-128520
1.32063e+06
-262951
-1.29936e+06
333141
-2.35222e+06
-1.21928e+06
-936939
-1.1637e+06
370638
409386
819669
3.36036e+06
1.91666e+06
6.84542e+06
4.34987e+06
5.40718e+06
2.31362e+06
969942
287923
429774
-835975
-188990
-1.79297e+06
-1.40717e+06
-984490
455484
1.33275e+06
1.03462e+06
2.74414e+06
1.72062e+06
2.27282e+06
3.92445e+06
-175953
1.13587e+06
110679
-60108.3
-245217
-235201
-278049
-1.8659e+06
763514
-116033
56924.5
1.85997e+06
1.82994e+06
1.89984e+06
-1.76844e+06
-636063
-186265
-155745
622267
47859.5
214392
547589
-296451
-66174.7
38288.9
-9234.19
-208468
-1.50302e+06
-1.95673e+06
-4.37801e+06
-2.42411e+06
-843735
933963
-157232
-860929
-67710.3
707482
2.38519e+06
1.26366e+06
1.46652e+06
-348106
-1.90226e+06
-518309
-265074
-631019
-968300
-1.67463e+06
140627
-998425
-557828
-1.38263e+06
-1.42864e+06
-692204
-290999
-278704
-39223.5
-215042
-241510
-323626
17916.6
-11718.9
52543.4
-68305.1
-720786
-21545.9
-420170
-276888
523454
2.25998e+06
1.09688e+06
558562
149979
118354
-65158
-349936
-2.55838e+06
-2.42642e+06
-1.37966e+06
-677954
-327968
174715
-230808
-212458
-342898
-124683
131211
48442.8
-193884
-63614.8
-249108
268033
42497.7
104059
516152
-9448.95
7324.08
-320477
-316744
-5857.8
21745.6
-65334.1
174250
280184
32385.3
444102
423734
-40794.1
-368399
-350161
-1.18998e+06
-78118.3
142477
381060
751744
1.42807e+06
916884
2.20829e+06
3.34872e+06
3.42216e+06
2.0294e+06
1.89417e+06
2.04963e+06
81048
949062
69677.4
-125772
851790
170263
402167
565038
-313000
-27364.3
-45859.4
66259.2
187649
77193.8
65246
37965.8
414653
7298.27
-149959
-137435
1.03119e+06
-947310
-491107
-74904.1
-155832
205716
-206072
-61624.1
-212201
-241975
265383
330073
1.18949e+06
347199
74123.9
-17986.4
-16295.3
398373
-582169
-143936
-33489.2
145389
1.12181e+06
-55336.6
246275
-216249
-303989
-649973
-381076
-129927
-66631.8
11087.1
-67202.9
-116280
-20418.5
-118340
-115019
206385
-282280
259030
1.1866e+06
141683
-82703.1
143631
947828
3.8107e+06
615922
459225
1.50564e+06
1.06652e+06
1.49423e+06
588565
926329
-526071
-57681.1
3.9217e+06
2.44857e+06
1.62448e+06
917031
2.66926e+06
1.96063e+06
621173
1.08665e+06
3.37574e+06
903452
859090
269268
462086
-125113
-187994
-1.00732e+06
-319354
-1.49019e+06
589056
26797.8
213271
-824152
-457836
1.50037e+06
1.5364e+06
255381
-1.25109e+06
512517
1.63193e+06
1.41442e+06
89582.3
982812
466094
1.52596e+06
3.01496e+06
2.9381e+06
-476747
609760
1.18934e+06
325392
20555.8
114607
357798
1.91563e+06
2.76773e+06
2.16045e+06
1.24356e+06
2.14682e+06
483435
-268588
-861884
-446766
321215
339720
1.65608e+06
-403534
-34088.9
-1.57139e+06
-246806
-1.37226e+06
-21014.5
179575
2.59708e+06
1.54467e+06
332988
-1.432e+06
-1.01184e+06
-966464
-783474
-347144
247396
3.68501e+06
3.02313e+06
121602
-3.01675e+06
-70729.1
264998
1.81195e+06
2.82076e+06
-108339
343074
-79361.6
266468
664031
223839
620388
114831
-121241
75797.8
141935
-89277
-37392.4
-666264
-69535.1
271832
-22823.5
10016
93210.4
196665
324075
32382
-1.32815e+06
-1.17794e+06
-1.68773e+06
-911629
-2.75482e+06
-240326
-419268
121642
-72571.9
-114022
-227299
-622288
715782
309083
-111555
280576
858116
1.81572e+06
535756
777183
643334
4.02868e+06
3.59255e+06
1.34487e+06
2.10527e+06
3.53187e+06
1.82454e+06
3.16677e+06
692598
3.28456e+06
5.0609e+06
1.94151e+06
-693437
-375746
-122175
422382
-259109
-182143
-76277.7
-626759
-300694
73473.5
-119624
73662.7
-391722
-213440
15706.2
267310
590009
-166821
1.13404e+06
544834
399151
1.46989e+06
107547
-532322
-476936
-205683
-379048
-1.64274e+06
-569144
-2.03341e+06
-156301
-719079
-304966
-981800
-145490
1.04248e+06
3.17923e+06
2.33928e+06
2.20638e+06
342321
-871018
193709
-7528.08
-492675
126499
-70226.8
9809.61
396164
243692
-133517
-384981
-616065
53198.5
-1.3189e+06
-735605
-302490
-707597
-293140
447561
1.35349e+06
1.863e+06
-235150
-1.76191e+06
-1.26489e+06
-1.66028e+06
-504570
-3.36838e+06
-2.47225e+06
-353004
507585
962368
276409
1.9866e+06
451967
615580
281032
2712.36
-4942.64
66998.9
1.23793e+06
1.18156e+06
2.47308e+06
-6764.32
1.56522e+06
508697
687272
497609
613697
2.23831e+06
2.66453e+06
1.5753e+06
174976
415297
-74234.3
1.32898e+06
2.69551e+06
2.28995e+06
210343
-1.35351e+06
-739695
-93044.6
-2.12233e+06
-3.26186e+06
-805339
-1.1419e+06
-2.8144e+06
-795754
-170645
97715.3
-267666
-610022
-844416
-766703
-423285
-311969
535741
-721856
542705
-1.61558e+06
-1.24197e+06
-2.16116e+06
-4.35871e+06
1.63434e+06
4.08068e+06
4.17931e+06
2.54369e+06
954098
2.39017e+06
737147
1.52332e+06
6.34062e+06
3.43057e+06
3.59671e+06
6.87676e+06
7.25345e+06
1.37286e+07
7.0329e+06
8.71179e+06
9.09456e+06
6.06755e+06
4.24512e+06
1.23579e+07
1.02771e+07
4.18741e+06
3.92091e+06
3.36193e+06
2.04305e+06
6.20814e+06
3.28739e+06
5.46155e+06
4.12282e+06
104598
90619.9
-1.04532e+06
-1.83064e+06
-949087
-1.12207e+06
-1.14642e+06
-528763
-1.15566e+06
-161825
-1.71652e+06
-2.59665e+06
-8.20093e+06
-2.68683e+06
-1.27207e+06
-880349
-1.51083e+06
-3.12521e+06
-359712
-1.1462e+06
673574
-379346
-381021
-2.20071e+06
-1.11635e+06
-248784
934389
-434757
-336168
932736
-953730
644527
814392
1.2266e+06
958983
736576
58535.6
860489
377827
970829
1.38869e+06
5.42658e+06
6.19351e+06
4.99987e+06
5.91069e+06
2.8297e+06
5.13041e+06
3.35285e+06
-1.92841e+06
1.14266e+06
-248002
-299117
-18204
569849
112940
-351811
103868
627899
-483934
1.23246e+06
703055
406448
950165
179880
-726831
-179978
234315
-396247
-306342
-633197
-1.00588e+06
-955547
-868760
-2.79975e+06
-545534
-653939
-237102
-166999
837128
808243
1.81133e+06
595156
1.01607e+06
443955
394954
190126
-1.21365e+06
-293643
-1.85241e+06
-4.46363e+06
-2.86816e+06
-5.06219e+06
-3.20402e+06
-2.54485e+06
-365948
-1.20269e+06
-1.53454e+06
58032.9
687359
253037
99111
-10913.3
-13313.9
58425.4
704089
326783
27910.9
39317.3
45756.3
726022
-93083.1
-726019
-131930
-362091
-91089.7
10402
896286
840571
544970
-867166
-308639
-286998
-147057
-1.53106e+06
-188105
-619737
-88293.8
601162
162107
2.23439e+06
-19140
-168340
-619523
-129565
-279214
254775
36217.3
-15113.2
152680
-378958
-14821.7
930880
336980
593505
-11232.3
-429765
-520423
-215037
-99197.1
382778
306986
105812
-175887
-1.16126e+06
-731037
747330
347612
937026
182737
-201934
49742.5
-759096
-745917
-719477
-83303
5.77451e+06
-1.38596e+06
-1.95676e+06
2.06314e+06
11073.9
310517
644518
1.5859e+06
648653
955627
2.43942e+06
325821
-14180.4
-685798
-89535.3
-851728
747601
-283834
780077
-550754
-428245
-597531
-732989
-220490
-1.15411e+06
-444263
-581427
-1.25095e+06
-739190
-394165
593895
180120
124811
441395
-96989.7
-98715.9
1.3605e+06
1.31947e+06
502185
350917
1.52119e+06
445447
506988
-535036
-19597.3
-1.04374e+06
572442
3.97092e+06
1.80978e+06
1.1284e+06
502134
1.53061e+06
269960
335599
-14408.7
232282
-548650
851139
919510
-443602
486167
850274
981810
-212445
-1.02382e+06
-2.69434e+06
-423092
-305744
-712346
8170.53
1.10703e+06
35794.5
913729
678644
3.74974e+06
323016
-16865.5
2.88089e+06
1.08414e+06
651613
1.48021e+06
2.59058e+06
4.76114e+06
3.31125e+06
2.03104e+06
424991
-1.28627e+06
-247239
-453064
218617
989979
4.54064e+06
8.9908e+06
1.39578e+07
1.16053e+07
1.0534e+07
-308370
-48463.2
3.01262e+06
9.20189e+06
5.55233e+06
934368
182453
1.42628e+06
769535
836328
4899.89
25177.3
-1.1789e+06
-251455
-343266
-167532
-464111
-2.17854e+06
-2.72744e+06
-1.25595e+06
1.26727e+06
490127
88937.7
-1.17022e+06
-620849
-1.11771e+06
-254085
-5.48731e+06
-7.44487e+06
-2.70579e+06
-1.51008e+06
-1.72596e+06
-1.09414e+06
-867990
-435428
-452296
289681
61089.2
96740.7
-92628.3
120884
1.35657e+06
875369
11803.8
-451799
7507.06
-15782.6
-214391
-139385
285111
563279
91116
-1.05706e+06
-1.17647e+06
-222401
621397
-23255.4
60976.7
-405992
51878.5
16917.8
-69042.2
-129603
-466503
409593
-252967
376589
806324
-45016.1
192084
-149607
-453843
-290042
810701
453568
-530063
-420670
-305437
-954062
-1.31809e+06
-71536.3
95582
75887
-1.17973e+06
18906.9
-584436
385591
345213
481442
904642
1.02069e+06
1.42811e+06
385059
3.68893e+06
4.869e+06
634764
-12310
165522
790825
590758
641638
758082
261469
1.44483e+06
238238
177833
-431942
-199417
-523883
-1.89194e+06
-3.98215e+06
-1.54135e+06
-3.94512e+06
-2.78047e+06
-1.26872e+06
216475
-354765
-547385
-118493
176030
-470324
-194317
-146695
69564.3
-72168.7
-2.07046e+06
-366754
-1.05539e+06
-1.70648e+06
-5.19941e+06
-1.34112e+06
-559658
480079
391990
186215
-20883
245423
1.07323e+06
1.90449e+06
1.9107e+06
1.89589e+06
211371
539551
199099
5874.23
-410264
88603.1
132582
44708.7
-92883.3
-17735
-98103.8
-203630
-314190
-418431
-370409
-891048
-91529.5
-668228
-386249
-63155.9
-67005
119623
481035
290273
-88850.2
2.24858e+06
2.89726e+06
1.68308e+06
-717962
-395646
729152
791182
2.79129e+06
-35382.7
-927598
-646768
-1.09877e+06
83285.4
494391
-94708.8
-256879
161901
-135230
-484823
-22827.3
-70874.6
2.71152e+06
491321
528246
4.03263e+06
377577
-597908
36805.7
599371
944142
4.31478e+06
1.29209e+06
7.66418e+06
1.63152e+06
-387610
3.6999e+06
-808933
2.71253e+06
2.37214e+06
704798
-2.5525e+06
-717584
386801
-16295.1
-828531
263209
274961
739064
642930
420831
966100
1.84883e+06
1.41873e+06
528028
-420421
-2.30605e+06
1.90165e+06
3.08262e+06
1.46065e+06
3.41555e+06
-4.23076e+06
-602980
-1.67113e+06
660662
350319
-413664
-1421.16
68304.4
-850232
-1.92709e+06
-1.3792e+06
-313955
358335
-99092.7
-156027
-1.13602e+06
-1.76823e+06
-3.10963e+06
-4.28166e+06
-8.90685e+06
-6.29217e+06
-7.37573e+06
-2.40641e+06
-2.12141e+06
-462696
-131089
-240539
337049
463345
644607
388416
575062
1.60612e+06
486824
949639
621724
1.00094e+06
1.68296e+06
1.40748e+06
621430
3.25378e+06
2.08767e+06
3.71951e+06
1.39524e+06
4.34529e+06
3.91264e+06
902459
1.99975e+06
3.7189e+06
887604
2.10445e+06
195984
-2.53217e+06
-2.07361e+06
-3.15671e+06
-5.42436e+06
-4.34842e+06
-2.01767e+06
-686999
-50623.7
-1.35617e+06
1.00729e+06
1.09752e+06
-570113
-444517
-1.1225e+06
-27166.7
-113718
-890559
-65473.6
-1.30058e+06
578026
-228637
486763
277629
-845851
558276
2.05347e+06
6.03319e+06
3.4892e+06
-261715
-1.31567e+06
-665271
373705
-928319
226037
668192
228675
-667411
-13763
-11140.1
33137.7
1.18663e+06
-17907
337401
-52711.5
-29153.3
244432
281351
1.00118e+06
157750
9454.68
-88256.2
-277495
-1.06587e+06
944105
3.70567e+06
1.64388e+06
1.25683e+06
2.12134e+06
868075
385686
3.67375e+06
2.71022e+06
1.39363e+06
3.91236e+06
6.91212e+06
1.63659e+06
2.49159e+06
2.19848e+06
2.51385e+06
1.83944e+06
-224907
7243.97
448216
1.04115e+06
1.44272e+06
1.33001e+06
3.23391e+06
4.97415e+06
4.54053e+06
2.88307e+06
1.10504e+06
124845
355741
937195
-310456
-280157
87803.7
376325
-187276
-264564
-329851
-165940
-66619.4
-457248
53134.1
524734
769550
196547
-2.03547e+06
-375717
-47224.1
-9447.5
210616
1.56941e+06
-1.10738e+06
222839
550.845
1.02095e+06
25731.3
489719
-418096
-197958
-140548
-875115
-168830
-49841.2
104647
194078
-532871
-265509
-566918
241388
-248032
-240073
-1.40483e+06
-888700
-983323
-2.85652e+06
-4.11772e+06
-1.02552e+06
-2.44134e+06
-1.06728e+06
-972790
-188210
349169
343456
-1.14343e+06
-2.87683e+06
-2.34084e+06
-721083
-1.85632e+06
-1.39835e+06
-920583
-415860
-1.22134e+06
87155.3
2.50847e+06
3.19976e+06
3.32542e+06
6.36776e+06
4.331e+06
1.69935e+06
1.17315e+06
2.85273e+06
2.24502e+06
3.26367e+06
2.62093e+06
4.21658e+06
3.7664e+06
1.26097e+06
916084
-42487.2
-142774
-89724.3
-984831
330832
419748
347381
513469
1.27152e+06
1.20156e+06
2.78491e+06
4.38925e+06
2.75768e+06
2.83333e+06
4.48503e+06
1.76123e+06
-2.45541e+06
-893516
-1.22559e+06
560932
1.30343e+06
-1.00818e+06
-512.386
-628369
-447997
-76342.3
-1.69722e+06
-1.37237e+06
-1.58193e+06
-143980
-200393
192904
-374429
-916057
-1.16653e+06
-251721
34752.4
223455
108730
346930
-110022
285179
1.42369e+06
-216626
-937745
-290525
299324
-675662
-71555.4
-241922
7248.12
-369054
-700554
-126675
-187218
1.72694e+06
2.07309e+06
1.91242e+06
521630
-80065.8
-196108
-430251
1.15308e+06
2.20972e+06
494226
-27250.1
109254
193018
221067
334042
758793
981742
4.40574e+06
2.16947e+06
2.80645e+06
3.78533e+06
6.38585e+06
944225
872152
1.87114e+06
3.72592e+06
123337
1.46253e+06
153664
73547.5
154609
-10635.8
1.93015e+06
-78660.2
-2.57702e+06
-4.6738e+06
-1.30628e+06
-1.37647e+06
-658100
90510.9
-794688
14686.2
235790
95770.7
102598
153965
-18889.7
-341318
-123763
-329576
-215667
-66851.6
-216291
-1.87688e+06
-181586
-942085
-944256
992190
-741145
-114520
56997.9
-1.74165e+06
-1.0094e+06
-1.00648e+06
-183883
839718
1.61968e+06
436931
475208
1.61575e+06
1.48357e+06
949819
619632
1.17034e+06
743931
699912
1.11055e+06
-171167
-490266
-500721
-1.78683e+06
-1.5381e+06
-2.18801e+06
-1.92002e+06
-5.12127e+06
-1.07706e+06
-1.28015e+06
-1.51736e+06
-126171
-440411
92180.8
1.01748e+06
1.51395e+06
-675347
-966813
-691111
-1.19648e+06
-333271
-297173
-102732
-574040
312621
397563
-1.55815e+06
-851454
-1.45236e+06
-625316
641200
773270
634962
473842
224694
72443.1
1.01034e+06
1.2244e+06
2.03558e+06
-83448.1
979722
2.72985e+06
1.04107e+06
-218866
57312.5
-136579
-238434
-1.98055e+06
-1.97878e+06
-4.43444e+06
-6.29463e+06
-6.66175e+06
-2.88125e+06
-3.1562e+06
-1.80439e+06
-1.5363e+06
-2.12493e+06
19320.5
-147955
2513.48
-250392
-166665
-470807
-355734
-801275
-161650
-193551
473785
-302764
302763
434631
-957918
-922927
-135326
-23539.4
-5720.95
-1.48701e+06
-1.65013e+06
-1.52334e+06
-1.23873e+06
-519623
427562
-422616
-630089
-258730
170874
307384
882819
1.27325e+06
497194
2.85673e+06
1.98552e+06
3.08876e+06
3.25976e+06
5.6451e+06
4.77877e+06
7.45789e+06
2.02195e+06
1.0526e+06
288303
282200
552947
654445
1.48171e+06
868971
1.92971e+06
1.09792e+06
794022
939731
3.99267e+06
4.59079e+06
-478329
2.58295e+06
1.79254e+06
3.95238e+06
843419
1.92629e+06
637373
-441361
-1.14474e+06
-1.2048e+06
1.70679e+06
825730
618731
-36843.9
-94768.9
-303974
-23106.1
117052
4491.82
-1.07869e+06
-116003
276586
-423334
-281423
1.19828e+06
-2.70686e+06
-875834
-82449.2
139894
1.12653e+06
145051
93081.2
-14437.5
308088
19961.9
-170258
-342402
-136398
-882502
77864.4
10836.7
-919947
-863413
-510379
-467413
-329901
-450202
-90151.3
-142437
125209
132825
-850279
-333350
-356156
-195512
174367
-471499
-117345
-2.55636e+06
-228783
-1.13726e+06
-2.04951e+06
-3.65378e+06
-4.62525e+06
-1.90465e+06
-1.02289e+06
-1.8071e+06
-2.53853e+06
-757708
-3.34103e+06
-1.87975e+06
69010.3
-5.06984e+06
-3.29875e+06
-2.88778e+06
-3.62922e+06
-2.52797e+06
-54977
-2.07201e+06
-2.64369e+06
-862161
-1.05432e+06
-527853
-452995
-320753
131082
-148848
-29380.3
-847566
-96826.9
-158191
167786
407935
884702
1.66716e+06
879633
4.77939e+06
5.20777e+06
4.66903e+06
2.835e+06
1.30546e+06
2.2474e+06
1.51812e+06
365323
534381
1.24558e+06
2.5495e+06
411024
777069
-356578
-120614
-2.59599e+06
-1.68823e+06
994344
1.87518e+06
-358283
-697746
-265040
-1.94107e+06
-1.39392e+06
-2.186e+06
-2.24511e+06
-2.77195e+06
-1.33479e+06
-111878
-1.21425e+06
-3.86753e+06
56912.1
-1.13583e+06
-3.0608e+06
-4.18133e+06
-4.36482e+06
245333
-3.22859e+06
-1.18867e+06
183488
-178072
277808
-699518
33230.5
-459619
-892801
-1.05245e+06
1.38671e+06
2.69156e+06
430277
5.98848e+06
4.12407e+06
1.10079e+07
4.87108e+06
1.30473e+06
980878
81374.4
88957.1
1.05868e+06
-221799
2.37053e+06
3.07193e+06
35242.9
461825
-2629.39
1.31454e+06
1.44124e+06
374815
94510.5
146032
-526622
-1.84933e+06
-238619
11633.1
617731
-597513
-951125
-244365
-244014
-194061
-300344
-479109
83199.6
32881.3
-83296.6
849109
427462
307454
-84718.8
-129300
-2.40121e+06
-1.34203e+06
220610
1573.58
47678.7
-245750
180327
-449823
-1.05874e+06
-717270
-619710
-209621
-792225
-863798
-661180
-620024
820956
883175
-687976
-723230
-1.245e+06
-1.81276e+06
-1.01495e+06
378010
22308
-18562.4
-794457
-1.91062e+06
-2.22157e+06
-57177.2
-128388
203144
84770.4
-1.01224e+06
266526
-433494
-165635
-684143
-146.884
-3.87619e+06
-1.23293e+06
314979
-825345
-1.14937e+06
-1.12899e+06
-305557
-1.60376e+06
-164662
-1.19555e+06
-394157
536004
2.62567e+06
945305
-540095
-160842
-271672
-220872
-100810
-553.721
115664
56299
279209
1.00704e+06
764018
2.77338e+06
-130261
-527563
-196534
-210104
-56330.5
744681
197128
3084.08
-301750
434051
-687289
-555378
1.2429e+06
257662
1.62215e+06
3.55286e+06
3.16534e+06
5.52029e+06
1.43596e+07
7.59545e+06
8.16881e+06
1.18933e+07
5.61317e+06
5.49036e+06
3.69268e+06
4.15943e+06
1.74205e+06
1.13578e+06
1.55085e+06
330928
-848446
-2.44227e+06
-6.0688e+06
-1.99808e+06
2.96088e+06
2.21177e+06
1.37708e+06
-2.10988e+06
-3.43617e+06
2.38377e+06
968300
3.17697e+06
1.10838e+06
484686
3.52243e+06
5.7103e+06
1.6653e+06
9.80769e+06
7.61532e+06
5.50399e+06
5.60401e+06
3.77627e+06
1.58476e+06
764080
786597
-81810.7
1.94752e+06
1.38781e+06
1.69876e+06
698254
-1.04777e+06
91308.8
2.80029e+06
1.64827e+06
7.36816e+06
2.9986e+06
2.91599e+06
9.19949e+06
3.08429e+06
876490
443741
973611
1.98181e+06
4.14569e+06
1.62395e+06
2.51715e+06
15604.3
82933.2
-417050
-235959
-127012
1.12589e+06
920110
133697
1.88122e+06
859098
1.03481e+06
818329
711111
-994815
-624071
195079
283277
484103
87188.9
111195
-340321
444874
231909
-656334
48469.2
827824
337282
1.10309e+06
2.40065e+06
2.81695e+06
994568
3.92025e+06
-258648
-399520
1.77591e+06
-23317.5
1.16082e+06
525231
284984
-254362
296272
685356
-97368.2
843898
752389
-290856
95247.6
-732348
-133810
1229.88
426118
76797.4
-436948
276684
-850046
-931299
-238339
-1.79863e+06
-3.36218e+06
-783249
200818
1.12085e+06
2.77075e+06
6.24955e+06
3.76288e+06
3.28537e+06
5.41917e+06
2.8694e+06
1.71405e+06
1.12155e+06
-217681
74767.3
420202
336251
-227733
137824
152114
-553287
-163975
-87001.4
-19552.8
-410298
-706157
-385824
-1.19016e+06
-1.15204e+06
-3.55244e+06
-6.05885e+06
-7.00915e+06
-1.32436e+06
-194514
-189161
714905
1.16272e+06
415109
-53754.7
-1.0825e+06
-614393
-493360
403185
-45.2267
-247543
51901.4
1.20293e+06
1.06858e+06
172403
-136347
359704
763714
1.24606e+06
2.54462e+06
1.7866e+06
178826
328137
307755
17364.3
414406
237412
16224
714288
-30288.1
-949135
-2.26364e+06
-1.87959e+06
-1.5177e+06
-1.29859e+06
-2.95969e+06
-196949
-179021
1.85321e+06
3.64262e+06
7.54996e+06
1.32261e+07
1.28058e+07
1.31001e+07
4.35911e+06
3.91859e+06
3.44006e+06
2.24359e+06
-67840.1
584701
-2.62181e+06
-2.81234e+06
-1.5751e+06
-678742
124208
-415546
467580
-97628.9
-255667
-72601.7
-173712
-2.27648e+06
-2.68015e+06
-2.43138e+06
-1.14583e+06
-160454
-166894
-199433
-404058
-226583
-43829
-130250
858314
1.11369e+06
804801
154168
-600835
-647325
-1.65606e+06
-128194
-643024
-2.46458e+06
-3.15174e+06
-3.18483e+06
-1.16574e+06
-2.09114e+06
-1.05737e+06
-2.01763e+06
-883011
-218961
738577
987138
554824
1.30912e+06
2.60037e+06
885658
2.10935e+06
1.44264e+06
236642
213004
720011
2.75642e+06
1.56807e+06
714611
1.75722e+06
446386
-280700
-1.05781e+06
119454
-187246
-653301
-1.30778e+06
-1.64459e+06
-2.62772e+06
-8.64619e+06
-1.78103e+06
-1.34919e+06
-1.61031e+06
-214791
-236159
-1.30558e+06
-7.426e+06
-1.35444e+06
220535
-500317
-3.35516e+06
-2.41483e+06
-3.13993e+06
-4.33444e+06
-1.68862e+06
-1.56895e+06
-242840
-710536
-204131
202662
-248036
1.06558e+06
490732
358076
445215
1.15235e+06
-34594.3
407362
1.39642e+06
727857
362543
960790
-48003.8
1.56266e+06
3.43044e+06
2.79414e+06
4.59973e+06
3.28834e+06
877246
246862
115100
1.04834e+06
410710
-294031
-441716
-89403.8
-420164
931121
669831
1.42662e+06
583126
2.21389e+06
1.51282e+06
569392
2.70038e+06
2.09438e+06
1.69833e+06
1.7834e+06
5.45214e+06
4.18754e+06
1.26612e+06
1.18133e+06
7.41971e+06
3.34864e+06
1.05946e+06
-243628
388925
875063
830320
488673
3.94664e+06
2.08714e+06
-2.72947e+06
-3.39471e+06
-328709
-1.83409e+06
2.47072e+06
1.39274e+06
440262
102477
1.02033e+06
966915
-46688.6
-466869
-691147
-290330
-107089
-1.16763e+06
-1.27361e+06
10109.4
70885.3
363901
-129305
-497496
438902
1.99213e+06
-460209
848707
1.65267e+06
2.38383e+06
481564
184368
354308
-229726
61514.9
308355
1.83254e+06
3.36019e+06
3.77934e+06
3.13466e+06
1.00211e+07
6.43253e+06
4.62069e+06
3.53776e+06
969966
1.30558e+06
3.75705e+06
3.60008e+06
1.59734e+06
697699
97326.9
994536
1.34615e+06
2.50032e+06
448529
99455.9
-84709.5
49575.4
604534
839658
678766
-311322
-226532
-878609
715.091
-728830
-116199
-44874.9
-245062
-194229
-647305
-1.35483e+06
-1.39752e+06
-1.17499e+06
-868615
-1.2741e+06
-1.89528e+06
-2.12753e+06
221462
-135978
-106592
-125377
-160139
-1.14065e+06
-691846
1.73998e+06
521313
-220396
-133095
-56150.6
-362470
113227
715153
2.05276e+06
1.80745e+06
-222568
15545
183.955
-393170
-2.31005e+06
-912618
-935484
-700773
-1.19502e+06
-845131
6736.03
-461179
20319.2
1.06307e+06
389685
554272
-92394.6
222692
28155.5
-338796
177483
-52315.7
532783
-437637
-2800.93
137800
237412
357289
1.7892e+06
1.67058e+06
4.37055e+06
2.21118e+06
1.11651e+06
2.02783e+06
1.37659e+06
1.46941e+06
-577788
2.73721e+06
3.27669e+06
4.6565e+06
8.66042e+06
5.23581e+06
5.1918e+06
2.69388e+06
2.27548e+06
1.08855e+06
1.82935e+06
3.10077e+06
377309
-5.2602e+06
94419.8
1.23411e+06
1.76502e+06
2.83487e+06
1.15779e+07
8.80927e+06
3.42857e+06
2.27964e+06
6.88195e+06
4.20194e+06
3.18653e+06
3.3467e+06
2.17418e+06
1.79992e+06
2.08753e+06
4.60561e+06
6.07063e+06
-1.80869e+06
2.4716e+06
3.59376e+06
3.88827e+06
4.39555e+06
739389
1.26348e+06
853197
1.97721e+06
2.86448e+06
2.21382e+06
-299575
-140363
-111030
-165417
668709
-718649
-393132
-855430
-1.6741e+06
-717006
-390103
-1.17049e+06
-1.96327e+06
-1.07305e+06
-1.8662e+06
-1.10227e+06
-527348
-937510
-396209
-430110
-660735
-482526
297771
-159543
92216.1
-230092
-282613
-207483
-700118
-1.22286e+06
-853289
-26312.2
-157311
-105426
50661.9
81157.1
-854496
-477060
6519.94
-487040
916125
1.44165e+06
1.8093e+06
148362
-65093.7
-69003.8
-403056
-272566
-476001
-462691
-260467
-284686
-959514
216451
-421157
-287734
-182600
-277249
-64528.4
-275962
78223.5
-69665.3
-94383.6
-439409
-491945
149166
-532580
-8192.84
-539269
-226441
-182830
-813277
-140949
80662.2
206871
13892.3
358970
-85676.7
-201255
-358750
261096
14132
-2.26412e+06
-1.04376e+06
-1.54709e+06
-2.48843e+06
403727
306594
465924
-822969
94638.3
-607603
-69280.2
-47643.2
-40763.9
154034
405602
-286137
1.02494e+06
1.67155e+06
1.1041e+06
403767
-76323.2
-1.27345e+06
-1.67268e+06
-291988
166743
2.77005e+06
1.09964e+06
-33708.9
846447
1.15367e+06
696556
-1.58657e+06
-603457
269838
-1.78039e+06
-969576
-603579
107749
816478
367222
-231092
519657
-296231
1.13862e+06
-877733
1.42756e+06
1.12659e+06
304876
-279046
-445668
2.84622e+06
494349
254110
175400
124730
300172
105709
1.63995e+06
3.74519e+06
2.15147e+06
5.48735e+06
3.39037e+06
137229
-1.40094e+06
-2.6781e+06
-4.02997e+06
-1.77317e+06
-1.05384e+07
-5.40474e+06
-1.73792e+06
63906.3
757297
790533
807978
67806.6
-905614
173601
360418
710016
1.29548e+06
18593.9
-156622
136763
99267.7
2.54012e+06
854572
3.83569e+06
2.92936e+06
1.75414e+07
6.76095e+06
6.67638e+06
6.32709e+06
2.64115e+06
2.82836e+06
3.25175e+06
6.52728e+06
3.27597e+06
3.04681e+06
4.23112e+06
556728
2.32238e+06
1.48635e+06
1.31235e+06
1.2833e+06
2.68829e+06
990521
670415
105336
772234
2.32767e+06
1.09252e+06
37217.7
-208430
-111381
-81998.5
33758.6
20610.6
-146238
14093.8
292224
-385698
-54167.6
-422763
53232.1
239727
685032
1.11557e+06
170286
-61048
-39455.4
37743.3
-14067.4
1.1098e+06
953906
389526
839116
430153
-106568
501297
1.906e+06
531028
135600
-75812.1
340733
145668
309460
1.17281e+06
1.42169e+06
4.23151e+06
2.34655e+06
1.60041e+06
647601
128688
-772750
-1.23523e+06
-58847.6
-2.3514e+06
-1.19159e+06
-1.75132e+06
-1.88259e+06
-804508
-1.05532e+06
-1.40441e+06
-2.28265e+06
-5.50303e+06
-2.81281e+06
-2.55057e+06
-523960
-183419
-451165
-963238
-825853
-87928
-1.69427e+06
-411003
-1.10325e+06
-376411
-82859.1
26452.7
-440229
-938875
-2562.83
-468997
-263170
510967
142849
-249229
-1.01128e+06
-248476
-343622
-1.05903e+06
642735
1.17929e+06
-688037
563747
882576
316768
-370299
1.69481e+06
3.5953e+06
3.21023e+06
3.12604e+06
8.96747e+06
4.90304e+06
3.18446e+06
-3.68711e+06
-1.31175e+06
-1.37795e+06
5.50364e+06
2.1454e+06
7.93541e+06
1.62977e+06
-4.10386e+06
5.94331e+06
7.42453e+06
-1.12091e+06
-1.351e+06
-6.88755e+06
-4.19502e+06
-2.73588e+06
470590
1.07162e+06
1.99101e+06
2.16639e+06
1.31779e+06
4.68152e+06
5.24489e+06
518013
-370284
-584351
-1.66e+06
-707935
-1.18924e+06
-1.24109e+06
-290079
-566393
-1.21514e+06
-937902
-371620
-1.75353e+06
-3.07874e+06
-2.83922e+06
-5.71821e+06
-3.22193e+06
-1.6758e+06
-580385
-983731
-184930
262940
111025
264347
555720
-49574.7
85481
-349521
-71331.4
-163976
-169039
-288009
-516540
129273
-887325
-1.56353e+06
-2.10651e+06
-635274
-897723
-649337
-974473
-836676
-1.91583e+06
-5.81795e+06
-3.23095e+06
-195715
384851
-472286
-565198
-1.45195e+06
278463
-407004
949565
4.40834e+06
8.18029e+06
9.39008e+06
1.14343e+07
2.72396e+06
1.43283e+06
1.47586e+06
-1.70645e+06
-3.17117e+06
-556199
2.08163e+06
2.72152e+06
2.68767e+06
456964
-462146
2.0814e+06
3.06554e+06
436494
1.5371e+06
1.4461e+06
-12385.9
756551
1.03955e+06
784807
764645
32751.9
277335
383356
-169311
-487788
-1.44388e+06
-3.65686e+06
183633
515213
207811
-1.06126e+06
-469467
-258471
-91334.5
-80419.3
51479.3
307618
1.30985e+06
1.30723e+06
4.48933e+06
2.13965e+06
187599
874850
-1.6412e+06
187261
1.14299e+06
1.14852e+06
701840
1.50474e+06
-170430
-16348
618252
1.89884e+06
1.05146e+06
2.8457e+06
2.01445e+06
695506
1711.52
-139880
696153
106447
133472
43982.2
8283.18
32190
132241
170224
-482600
-491572
-500228
-107479
-43391.4
219507
-748619
154379
273162
1.10174e+06
4.01814e+06
1.77022e+06
-479796
1.42489e+06
186547
-307821
-18508.6
-5594.97
8700.54
-49586.1
330465
541218
-12176.7
-301733
132171
-1.32172e+06
-1.44004e+06
333090
-438828
-281417
790711
-1.30015e+06
278296
728965
-567164
132174
-1.41061e+06
91462.3
-1.42031e+06
37897.9
-90525.4
394827
-722397
220330
854982
666106
341189
-35738.2
701566
1.24533e+06
622383
824000
554348
604032
110627
1.18879e+06
-92323
1.27304e+06
466183
149279
-748294
-716485
-53050.5
6103.64
17220.1
117051
410901
12669.9
233757
-65076.9
-157547
-1.68012e+06
-558860
-709421
-45951.6
-178255
-1.0308e+06
-1.50022e+06
-847878
-376954
-2.592e+06
-1.17569e+06
-144627
-1.30081e+06
-1.0946e+06
-271683
-2.39222e+06
-446516
-205161
-2.41971e+06
-918654
-2.88219e+06
1.06493e+06
3.3072e+06
2.96717e+06
2492.92
-85939.1
-166814
24432.8
116174
185712
-231582
40297.8
-554158
-1.03076e+06
1.67608e+06
1.85617e+06
1.19252e+06
1.96234e+06
1.06699e+06
645644
347656
253381
113582
980939
-110713
130531
1.01001e+06
3.44704e+06
1.71519e+06
2.4327e+06
4.10807e+06
4.91182e+06
4.64981e+06
3.13899e+06
4.39278e+06
7.9693e+06
8.88204e+06
6.45077e+06
7.00535e+06
5.094e+06
4.89963e+06
1.75415e+06
1.51454e+06
595152
75803.1
162341
311584
761290
376294
272334
629590
301741
-943581
-571718
578175
-78292.9
-587220
494262
-55812.2
-787640
-26705.9
-115334
601010
-319922
1.86098e+06
1.16167e+06
1.2207e+06
1.8188e+06
4.87518e+06
4.78469e+06
3.654e+06
1.78457e+06
296162
368569
3.21674e+06
6.99064e+06
2.5837e+06
3.01558e+06
489765
632348
2.19534e+06
-1.37007e+06
-529360
-727489
-206223
-104246
5213.02
-140789
-157369
234718
-43489.3
-84058.8
-399366
1.29008e+06
-1.92486e+06
428173
1.60434e+06
73054
-825155
2.72008e+06
983753
514079
440378
3.14496e+06
1.14502e+06
154371
-234320
1.20981e+06
596151
119267
-360045
-520147
-659990
-1.10158e+06
-1.28814e+06
-4.70829e+06
-4.87361e+06
-1.87539e+06
-1.29882e+06
-239492
219292
-2.19069e+06
-501822
-717707
-578619
-162281
147545
195321
-361453
-489855
525434
-191309
-43576
848605
115854
1.6276e+06
490165
346355
118459
-18896.4
106089
-440572
-17864.2
-50222.7
72854.7
-15816.2
-75352.7
-1.13048e+06
-897937
201910
1.0489e+06
29261.5
195642
-172001
349939
70542.3
58869.9
123474
503693
1.71419e+06
617151
74246.6
-488729
-890464
-470621
-571348
16571.4
-107420
24195.6
-33818.5
-320588
-493183
-628414
43986.4
-465376
-240753
-639474
-745504
-2.9098e+06
-2.28486e+06
-3.02394e+06
-2.74749e+06
-1.11338e+06
-1.27027e+06
240760
78886
-1.46325e+06
-1.19767e+06
-699104
55508.2
347297
1.31295e+06
58278.4
-69219.3
-149070
-57775.7
-1.64683e+06
-504129
-1.12767e+06
-582752
413485
975901
2.37944e+06
4.02008e+06
906033
3.33193e+06
6.85272e+06
4.63982e+06
3.81843e+06
3.25364e+06
8.77341e+06
8.04815e+06
634596
-348420
1.49062e+06
315246
187433
127963
244320
294779
2.32685e+06
2.44228e+06
2.82227e+06
1.08739e+06
1.09868e+06
335201
-311860
1.93668e+06
4.7854e+06
889698
305832
-688834
1.03348e+06
250107
511014
860490
81218.2
-47099.3
-187648
124001
11968
564687
2.05451e+06
1.62738e+06
224825
726470
-792918
-120539
84463.9
168841
-635268
-349826
157278
-88725.8
136564
433253
-93927.3
47856.7
425696
1.68189e+06
1.0407e+06
433608
436382
-144591
-1.80188e+06
-2.84211e+06
-157457
-985241
334611
-141380
1.24715e+06
1.01281e+06
742252
-1.34922e+06
-1.62194e+06
-3.42273e+06
-653175
-563337
-279183
428394
106511
89502.7
-44543
-64264.1
266624
356622
4.05358e+06
3.2395e+06
868969
-561455
3.1591e+06
-544765
1.31237e+06
4.85485e+06
1.22711e+07
4.35147e+06
612851
1.58484e+06
-1.81246e+06
-193871
-248124
872260
1.58281e+06
377005
1.12902e+06
288690
820483
1.20762e+06
1.767e+06
1.54824e+06
5.55894e+06
3.64517e+06
772454
1.91203e+06
1.32077e+06
181006
381967
-124821
-164913
-249206
35962.5
-21868.2
-244473
152540
1792.11
440541
180772
1.10885e+06
652803
349595
-901565
85049.3
1.30903e+06
922188
472164
570078
513464
-2.66513e+06
-466566
1.1417e+06
-345342
629990
-208412
554112
442419
417006
452064
22454.6
-486764
-131939
-338091
-171347
-99580.9
-185205
-1.04581e+06
998064
1.72977e+06
5.46379e+06
-390261
5237.56
-6.91959e+06
-1.31104e+07
-3.92844e+06
-1.13423e+06
-627599
899035
1.93636e+06
-516808
-92319
365234
159825
44936.6
-1.47719e+06
-41991.1
948995
1.72833e+06
-11297.4
65639.6
93264.1
130700
218804
483847
573553
203869
-128183
-1.84683e+06
-807487
-396272
1.83571e+06
-490063
-1.20279e+06
-126374
-311259
-343995
-71529.3
179435
29007.1
649046
1.14098e+06
-384670
-508842
55382.2
833526
470021
819195
1.60303e+06
24648.9
-693197
1.93921e+06
642450
60958.8
669414
853811
160722
1.24125e+06
77299.4
1.03035e+06
1.31081e+06
-521223
-599998
-1.36269e+06
-411041
-366806
-1.40599e+06
-606948
1.34938e+06
-179452
-347430
-95655.8
358825
-62476.7
91904
-175821
-73304.2
-1.1388e+06
390774
-252440
-134855
-1.10616e+06
-374078
131426
332625
-749507
-586409
-313070
-2.73245e+06
-3.17758e+06
-4.75426e+06
-1.07489e+06
1.70448e+06
4.67304e+06
1.21581e+06
1.40343e+06
1.13525e+06
1.49837e+06
2.35949e+06
6.45174e+06
9.02426e+06
1.3593e+07
5.52569e+06
2.4559e+06
2.20428e+06
529354
1.54992e+06
2.26692e+06
568588
1.43403e+06
1.18428e+06
251508
70402.5
302925
-352928
158591
-59566.1
14604.6
114953
-25783.8
-164500
-341499
304434
288631
36200.5
30022.6
-76332.9
135559
204251
631773
-72759.1
38006.3
3653.84
-328070
-571006
-100695
-293670
-282703
-306722
-679449
-167771
-393600
-104966
-362733
-18484.5
1.50577e+06
-164139
403711
2.25461e+06
1.58806e+06
676557
49260.2
2.4796e+06
-149741
349472
-208901
-523036
-98941.9
1.38949e+06
740988
-260736
-952534
-235262
-1.05274e+06
658612
3630.04
75010.3
64557.7
28509.3
32154.4
28296.7
35899.1
70728.2
196169
521599
586957
981712
1.04634e+06
452680
-68784.6
208580
92463.9
-69207.6
-416060
107012
-105452
315496
-741745
224940
-863474
-798847
114468
-554913
-590450
462161
454447
1.99666e+06
570434
1.9319e+06
-268189
110904
203904
425894
-615741
-3325.49
-1.05426e+06
-156754
401655
335343
1.00801e+06
997762
2.02725e+06
4.5614e+06
1.4721e+06
1.4178e+06
108360
49333.7
129829
-309815
-554024
-2.60156e+06
-4690.92
397616
1.3982e+06
-128844
1.34726e+06
751197
1.14726e+06
-220070
-1.65724e+06
-805148
-221315
-186357
-106132
377326
148226
-149712
508588
-12187.6
-274882
-544532
-429269
-65304.2
-53012.1
20326.8
-208630
-1.24267e+06
-4.16122e+06
-2.89342e+06
-875763
1.10968e+06
364968
2.05758e+06
524739
1.41073e+06
157894
398326
605250
-181050
-666021
-762442
-202991
-1.86781e+06
-766863
-37577.9
272537
641840
1.95975e+06
855398
-58678.2
35633.3
63874.8
-268947
-60076.2
218074
-181969
-472457
754200
980211
407229
-487847
-3.7585e+06
-2.83633e+06
-333431
-827625
-927639
-1.47941e+06
-4.16602e+06
-2.70285e+06
-3.91544e+06
-1.96125e+06
275777
-1.33263e+06
-1.26572e+06
-807673
-1.12067e+06
-469641
-133976
1.07964e+06
1.66568e+06
2.08915e+06
1.24577e+06
1.4548e+06
1.88347e+06
1.21663e+06
1.56123e+06
554617
-108745
-262786
174597
254839
-573386
-31058.5
-125091
134664
56930
-148170
-81791.7
89839.8
241970
-197653
-124565
-68647.8
-569478
-348450
-801055
-1.178e+06
-1.17411e+06
275461
221619
1.00595e+06
1.15586e+06
293949
677663
773852
-702583
-1.97565e+06
-2.82592e+06
-1.21581e+06
-748006
281034
1.08048e+06
1.20329e+06
757979
1.68884e+06
842082
5.16235e+06
2.18322e+06
6.24991e+06
6.52742e+06
9.1943e+06
2.48304e+07
2.55317e+07
1.41233e+07
1.0899e+07
1.4437e+07
1.31175e+07
1.4572e+07
1.49077e+07
1.18114e+07
5.45157e+06
3.39017e+06
1.79277e+06
2.1131e+06
1.79962e+06
234781
175961
23460.6
-197604
58430.4
-282536
-162670
-484247
-364603
-417756
-880036
-516228
91102.1
-145608
-53379.2
-503325
142058
-8417.24
-138975
128094
889213
-317914
-419240
223735
-102119
614641
-7912.75
42064.6
570600
290936
21540.5
548721
-576114
68643.5
85844.7
1.0417e+06
1.92902e+06
-20072.4
-231978
-740403
69736.5
73048.5
-763843
-2410.61
-369925
2.17492e+06
3.02243e+06
4.60716e+06
1.7291e+06
1.06943e+06
4.92057e+06
1.53766e+06
2.28726e+06
1.12761e+06
2.08099e+06
2.19775e+06
2.14466e+06
-809696
185442
745261
742659
530189
927821
27206.3
1.59586e+06
35670
340198
-335989
-10988.6
50674.5
-61866.6
-213373
-892017
-1.1024e+06
-1.27257e+06
-554040
-2.26729e+06
-1.49786e+06
-1.27163e+06
-1.10661e+06
1.23285e+06
-1.97472e+06
-175324
-357505
-277975
2.76601e+06
1.42773e+06
237546
2.16955e+06
1.4889e+06
1.00516e+06
215331
1.95189e+06
-1.22642e+06
-828925
2.72121e+06
3.87921e+06
536769
1.48661e+06
5.00739e+06
4.2732e+06
1.99007e+06
3.02296e+06
2.89261e+06
4.04935e+06
1.86312e+06
2.50866e+06
-390795
-1.08331e+06
-468784
-827271
-26203.3
-12238.2
-932266
-1.23275e+06
-614866
-1.76636e+06
-2.50771e+06
-2.77815e+06
-3.50061e+06
-2.14069e+06
-1.11149e+06
55884
-362063
-11320.8
-238446
29532.1
94839.6
-59545.7
253053
-2971.81
-215864
305694
95108.7
-452336
-70180.4
-48021.3
-248358
-425543
-203107
-2.0742e+06
-1.61039e+06
-1.34724e+06
-1.0554e+06
-1.12121e+06
-1.99999e+06
-1.11637e+06
-340725
-4.39223e+06
-3.07227e+06
-2.23284e+06
-3.82138e+06
-2.15794e+06
-1.55847e+06
-891049
149927
86114.7
76758.8
-68870.9
-479946
-391823
-857073
71026.6
117468
-43715
-97728.3
-317167
735677
139603
416403
23452.9
45258.7
296224
-20055.2
34335.9
33299.5
-52104.4
-872248
-630691
-1.28298e+06
-101885
240559
413189
20848.3
220138
1.47588e+06
-3.09053e+06
-2.64964e+06
-1.02331e+06
-167338
472745
-3.42816e+06
-1.09989e+06
-1.62378e+06
-484767
302667
-299999
-474174
-79680.4
-68849.1
15683.3
252205
-376.414
334655
-127422
729819
1.09773e+06
-822651
-1.79587e+06
-1.8393e+06
-5.43514e+06
-3.84739e+06
-2.08194e+06
-3.1537e+06
-4.31624e+06
-3.49842e+06
-4.1357e+06
-2.24148e+06
-2.03859e+06
-3.68271e+06
-3.88448e+06
-7.73912e+06
-7.56076e+06
-2.27947e+06
-3.47176e+06
-1.38973e+06
285505
858210
-80447.1
248818
-7853.22
-87315
89682.3
169072
-10998.9
-82430.2
-1.55848e+06
-1.35556e+06
-635173
-287851
-808298
3004.39
-85957.5
-97226.9
239923
143761
-943549
-1.04786e+06
-418427
-716022
-2.27983e+06
-1.26693e+06
-204086
413769
-897250
-784467
-585584
-700231
52923.5
-8268.45
-370063
-239201
-90519.2
-467268
-69534.7
-32214.2
-642903
-987939
-253020
58391.8
-334378
109163
1.83126e+06
2.68652e+06
1.09034e+06
1.73908e+06
1.32971e+06
1.08398e+06
6.05158e+06
1.10735e+07
6.86069e+06
7.50058e+06
7.98479e+06
9.83246e+06
7.33315e+06
6.73535e+06
7.82439e+06
4.83692e+06
3.60579e+06
1.38528e+06
-32264.7
63708.7
1.09095e+06
-733578
1.59475e+06
2.4792e+06
2.71895e+06
3.63085e+06
524487
1.04888e+06
667420
1.08963e+06
470577
2.45858e+06
1.82088e+06
1.25699e+06
-620861
-150236
481914
-534472
1.14209e+06
-69842
-134551
187017
-68726.2
-204737
-340204
-139788
-1.47027e+06
-284311
87328
370358
-187610
371684
525361
-1.23256e+06
-124701
72455.5
58005.6
-234452
-126454
101412
-104035
136330
-293518
-7496.76
-313763
422716
368374
596169
807783
797407
1.64404e+06
159119
927499
-495005
-1.43612e+06
-21410.8
-302749
602894
1.33784e+06
-373501
382065
159055
1.0298e+06
898475
423014
557159
2.0658e+06
364333
784000
737614
1.50482e+06
4.84112e+06
1.84256e+06
-196849
684985
272375
505273
3.98184e+06
961518
3.2599e+06
1.33134e+06
2.48188e+06
1.40273e+06
2.24279e+06
1.46253e+06
-507232
-2.08093e+06
-1.13805e+06
-299728
-2.10712e+06
-1.1543e+06
-335237
3.62153e+06
734558
444182
-821555
61815.7
-2.07161e+06
-140973
-151015
-219390
-35507.7
326517
7262.36
-1.37278e+06
-204086
-116180
131541
992989
452427
500671
23319.2
1.35264e+06
-546543
-1.84957e+06
-1.0488e+06
547308
-512567
-661334
-469798
-1.33111e+06
-1.44032e+06
-430003
22206.7
-139314
-39449.9
521956
269789
214418
269869
-39842.7
430922
212395
1.98377e+06
3.43202e+06
1.45213e+06
1.72901e+06
3.94452e+06
6.98429e+06
4.64825e+06
2.53497e+06
2.00864e+06
1.71668e+06
691063
1.68621e+06
1.07463e+06
-4.82489e+06
1.05001e+06
-3.14795e+06
-2.46867e+06
-227699
-215228
463969
-388358
-34102.5
-271713
-416499
-576629
-665518
1.12843e+06
2.66046e+06
2.24013e+06
35396.2
-311282
-3.93231e+06
-4.07925e+06
-1.57475e+06
-448746
-433307
266502
-778139
-1.5079e+06
-1.83429e+06
-2.58572e+06
-2.10696e+06
-3.42616e+06
-2.68504e+06
-5.98799e+06
-5.15415e+06
-3.42543e+06
-3.56514e+06
-2.86473e+06
-1.81636e+06
392768
3129.35
185648
209211
-184398
100760
1.09953e+06
582217
3.21317e+06
2.68147e+06
2.81662e+06
3.442e+06
3.62464e+06
2.21117e+06
3.699e+06
673129
241809
1.99176e+06
641227
1.61534e+06
673052
-1.49314e+06
573100
-1.19215e+06
-213642
65960.1
-16001.6
-48889.8
366846
461620
761731
162183
820621
939104
396310
469267
303900
-455877
991892
2.50497e+06
948732
432111
-90672.7
-288929
-814960
-407460
-467710
-1.17873e+06
-1.78887e+06
-498050
-940875
-2.14919e+06
-504465
-1.91403e+06
-6.44236e+06
-1.53802e+06
314876
2.82586e+06
241332
-1.12121e+06
-2.7912e+06
-4.54592e+06
-3.34256e+06
-1.70234e+06
-265376
-837909
-271348
-1.35114e+06
-148958
149317
115922
-234806
-418134
142313
54451.2
-115703
-30605.6
513723
31047.3
-2.28182e+06
-337540
-439819
-391644
-276055
-257355
-541298
-1.08699e+06
-233275
-169744
-355935
-666292
-258414
-1.29734e+06
-1.96454e+06
-2.34683e+06
-1.68465e+06
-440642
-110487
-9217.17
869280
-1.95057e+06
-1.6428e+06
837770
-163776
1.55335e+06
770141
-336310
-1.23441e+06
-3.58421e+06
-5.60047e+06
1.9178e+06
5.23275e+06
5.79662e+06
3.21736e+06
3.83555e+06
5.23024e+06
1.00241e+06
-1.10883e+06
-370079
772926
786637
36073
7523.76
-223656
-693112
399779
100126
15726.4
261316
-9746.34
366508
-286569
-153314
-235585
-556690
-349251
335472
-474759
-424684
-791829
-1.01601e+06
-2.21751e+06
1.06989e+06
7838.85
-25860.5
1.03008e+06
414097
2.06866e+06
720091
-66468.5
977529
1.23313e+06
2.25219e+06
278946
395636
847358
524614
688174
645718
133554
256222
58266.4
-398556
-659562
-634230
-702812
-1.09943e+06
-860442
-128468
384882
-1.84505e+06
226009
-1.15255e+06
-1.61539e+06
-1.26287e+06
-467283
-211458
-695476
-436359
-129321
-92138.7
-268876
-20160.4
48310
-664016
-243956
-515147
-1.69265e+06
-1.20059e+06
-1.66592e+06
-1.14685e+06
-1.5263e+06
-358633
1.1237e+06
551920
736188
-181008
-236076
-508917
-1.63773e+06
-3.56688e+06
-2.44968e+06
-2.75624e+06
-2.36773e+06
-3.12715e+06
-2.24642e+06
-1.30369e+06
-888134
-1.30329e+06
-729681
-1.91347e+06
-1.42178e+06
-1.8789e+06
-1.15648e+06
936518
-1.37152e+06
-666019
-9.18897e+06
-3.96669e+06
-1.87538e+06
-1.98963e+06
-426234
-310794
-302155
135981
-345247
-857448
-2.86598e+06
-4.91139e+06
-1.74797e+06
-521577
-980908
-1.46914e+06
-524272
-49168.7
-83979.7
-1.543e+06
3.78903e+06
1.98943e+06
1.51292e+06
1.25389e+06
-3.04804e+06
522706
6.55055e+06
4.67012e+06
634032
-1.80946e+06
-3.95196e+06
-807931
-706865
-7.94547e+06
-3.89149e+06
-3.8611e+06
-1.42857e+06
800074
374774
4787.61
-783156
-1.80838e+06
-2.05201e+06
-998967
-363980
-249073
-807729
-1.59923e+06
1475.21
-76216.3
-698628
-874285
-121687
-1.68531e+06
-1.77072e+06
-1.46414e+06
-1.88739e+06
-467376
-3.94602e+06
-3.30007e+06
-2.11348e+06
-3.44654e+06
-513938
411706
-1.29809e+06
-2.29672e+06
533083
298725
764497
-648919
590586
123043
501154
-114724
1.32326e+06
-411198
-1.68388e+06
-451089
-1.09141e+06
-3.55841e+06
-8.54938e+06
-590876
1.17755e+06
1.8299e+06
-594.006
147602
-342435
-396223
-181531
-1.57079e+06
-649229
1.76084e+06
-2.77336e+06
-1.34945e+06
-1.08684e+06
-563344
-2.40473e+06
-1.93992e+06
-160563
-19393.5
-145121
373770
-204523
73578.2
1.00896e+06
1.67653e+06
-1.49484e+06
-1.48414e+06
-30969.1
437915
604312
670665
499205
107638
538554
-481747
264650
-1.82648e+06
-323967
-557163
454554
-420889
-797616
705702
397463
2709.21
-62194.3
-16406.3
60421
203026
-251887
-639284
-5.21134e+06
-4.43846e+06
-2.22863e+06
-677601
-1.03592e+06
158736
-710263
249805
197673
-312122
-522901
1.17122e+06
1.2633e+06
843785
523212
125021
-1.7351e+06
562247
20840.4
46312.9
-161130
-445140
-245045
22694.7
228595
98117.8
46887.5
620351
-1.5618e+06
-137099
545189
3.12392e+06
2.36711e+06
1.686e+06
2.35048e+06
993778
952971
1.09914e+06
611150
671730
2.4946e+06
2.84798e+06
1.14467e+06
-85575.6
210615
870527
-79131.3
488362
452774
-6684.37
-204746
-24950.9
-984384
173687
30410.8
-731683
-824192
-365870
320564
-321654
-102586
150302
-551243
-1.0833e+06
955240
688766
485911
298609
313086
265274
325902
834623
715239
67041.9
29717.4
-4590.64
-491267
-181219
182153
312445
79784.7
624519
309257
-126931
142039
283517
328524
176955
-401072
445916
-250662
893904
-778916
-644414
-577071
-112858
-509478
-221982
-1.17525e+06
-2.0614e+06
-2.30542e+06
-1.33066e+06
-5.58637e+06
307690
-2.13302e+06
-1.93827e+06
-4.25537e+06
-1.29917e+06
-1.48756e+06
-1.34813e+06
-1.17656e+06
190391
-776087
188340
-77661.7
145932
186936
-860296
-1.4061e+06
-448463
-917079
-1.01009e+06
-1.11234e+06
-470450
-779838
-116745
342515
-1.86815e+06
-2.1788e+06
1.46968e+06
1.67965e+06
956748
961029
978535
-21754.8
-517250
585478
1.22603e+06
227976
680948
1.09211e+06
145527
990128
1.07696e+06
-170258
-372791
-118314
-84192.8
781951
820005
89306.6
426174
213345
-166100
-381643
-144859
18814.5
-205339
481447
271532
937715
1.29767e+06
2.14122e+06
1.97327e+06
-255135
3.44168e+06
1.83264e+06
639515
1.9764e+06
310732
866198
868514
863424
1.60391e+06
485742
571075
847302
-1.56778e+06
-1.79778e+06
-1.93906e+06
-259938
664776
254937
178800
-2.47647e+06
-585942
-1.0227e+06
-517591
-430229
-1.39477e+06
-46557.2
427585
-1.51492e+06
-1.04682e+06
-1.27683e+06
-257504
-340706
-790403
-570165
-390854
-1.716e+06
-2.84374e+06
1.22992e+06
2.33582e+06
1.93668e+06
1.5649e+06
3.45946e+06
2.66865e+06
1.10994e+06
1.50831e+06
4.09079e+06
4.07548e+06
2.79533e+06
4.72335e+06
2.47423e+06
993672
225827
408378
1.04483e+06
351392
475079
291934
7792.74
32798.2
-842654
-30670.3
641443
1.02206e+06
69857.2
-731758
-1.57308e+06
-538531
295774
-562007
-254669
-192684
-481814
-391355
1.38526e+06
2.22366e+06
-179805
-380064
795925
106172
-255231
497862
-338768
-120670
-317989
72557
-685535
-96849
-829569
-14574.8
-307870
183120
131339
-1.06026e+06
-587490
-716070
-95551.6
215560
330620
27763.1
390308
75828.9
116267
815688
96225.1
569427
-120754
-592598
578685
-313076
51956.9
-298873
720.593
303208
249312
281223
-81265.2
-497690
-1.16743e+06
-587545
-100289
303716
-310801
83631.7
-804839
-637360
289004
312279
-27955
-825.094
-588060
-942981
-518475
-412478
-120476
-90880.2
395189
-627786
-1.22613e+06
-294377
-153843
-66636
7582.45
134190
-122188
782569
2.42256e+06
664025
626363
68168.2
-1.94586e+06
-121421
-320121
-528531
-227852
-698722
476009
495213
720282
603063
1.95398e+06
2.83709e+06
274750
-781908
-455757
-503731
-312344
-105204
-171766
355631
-52698.2
-35556.7
-400202
-1.54706e+06
588783
-1.58533e+06
-660560
-384417
-2.30259e+06
-91680.8
237378
-160262
211192
-1.19766e+06
-344623
162181
-206749
77141.6
-240785
-209010
76124.2
241939
1.37702e+06
575065
-20936.2
209973
-394330
-868648
-1.13916e+06
-173167
-35390.9
95218.2
395778
395002
953076
116827
1.94952e+06
1.92212e+06
267177
-1.94062e+06
-962636
11236.3
-128427
48724.5
61747.9
-149251
-1164.46
-226938
30371.3
-814991
-781151
-813801
15836.4
1.12684e+06
-118433
-263859
-271715
16241.6
-1.85135e+06
-278123
-2.49525e+06
-219042
-695551
-206660
-44653.3
-582255
-546409
-1.01096e+06
-2.87261e+06
-506553
-756271
-299862
104347
-830392
1.39537e+06
215208
103438
-764975
-111913
72064.1
16553.2
-259247
-938427
-1.70809e+06
-1.9301e+06
64712.7
-774717
-642556
409878
-34838.4
-624127
27811
-13273.2
213584
205189
-470822
749839
-104832
412959
-145676
-995021
-1.42219e+06
-733002
-5.73209e+06
-2.75409e+06
-1.90907e+06
517474
1.0717e+06
38445.8
-333761
-95429.2
-2.14222e+06
-1.60603e+06
-445953
223977
1.14726e+06
1.26801e+06
6.19046e+06
4.62538e+06
1.12096e+06
1.32828e+06
1.07908e+06
385988
302774
-863081
-90042.8
161478
-150438
877150
-962443
-50132.7
134617
-497014
-295631
1332.49
-1.31267e+06
-391857
1.07175e+06
49007.8
-299951
-179057
208083
31480.2
28718.1
804.787
-81700.4
-47577.9
-168964
213703
302419
-713698
-784405
-182109
129063
531547
-8898.56
234086
1.10967e+06
4.74619e+06
3.61712e+06
7.53064e+06
3.37471e+06
3.15375e+06
7.18144e+06
208274
651709
283361
462604
53243.4
-448637
-18789
-37460.4
238962
-393433
435313
598580
636961
97857.9
350347
102729
52322.7
-712101
-84607.6
505616
-559980
1.30954e+06
2.22387e+06
-369515
-78577.6
101673
-11039.7
79280.6
-238357
-301792
-336482
-155031
47576.2
89722.5
-2.1186e+06
-537405
-1.10015e+06
699477
610297
551946
452752
687910
-481386
-10209.3
839315
1.43997e+06
2.24549e+06
2.12972e+06
1.36058e+06
997981
-332192
1.13742e+06
882102
559284
311995
1.62763e+06
3.11684e+06
1.1513e+07
1.86363e+07
2.66961e+07
9.81453e+06
1.03851e+07
1.50362e+06
287196
1.2202e+06
3.50749e+06
1.7374e+06
38557.4
-52556.3
-147399
-1.16556e+06
637854
-405359
-36753.4
-133837
-11862.1
-1.33594e+06
-1.1733e+06
-3.27697e+06
-1.99167e+06
-49547.4
-5.37957e+06
-3.57073e+06
-2.93774e+06
-1.00542e+06
-886526
-853214
-233689
-216810
-786183
-80817.2
742.585
-132480
-544822
-1.20278e+06
-256687
-1.74349e+06
194072
-1.01074e+06
178027
-264419
-54373.2
-537012
222820
-653800
-401991
-509076
-978365
753409
-1.6687e+06
-1.02174e+06
49007.5
-266789
-630324
-155099
-189387
-622944
-139858
-424539
-45443.2
-272077
287602
269121
150336
228358
2.62069e+06
3.54685e+06
6.06091e+06
3.07126e+06
2.82764e+06
843339
-222823
598739
2.93544e+06
70179.3
819919
970946
3.78342e+06
2.31652e+06
1.39895e+06
-350932
176512
2.60962e+06
1.054e+06
2.50364e+06
-612244
822367
551607
650870
-572251
-778393
-460179
-980335
-835051
-80254.2
-363260
-1.00466e+06
-3.07874e+06
-4.97736e+06
-2.15126e+06
-2.89913e+06
-185771
-54099.4
-183008
187256
-103431
-117821
-644608
-463869
-2.64291e+06
-1.27772e+06
-1.23299e+06
-3.37049e+06
-1.87401e+06
-4.63121e+06
-3.72577e+06
-1.64761e+06
-1.11604e+06
-197248
-799138
-746826
-2.25415e+06
-3.14246e+06
-1.26811e+06
-289573
-342623
2.49668e+06
559557
759081
-369512
-137367
-1.33791e+06
-84747
-427133
-742268
165546
199071
41352.5
-451259
-483816
-852651
-1.0418e+06
364787
508570
530219
585779
-910502
538245
-450835
-343616
-313139
-429899
176164
-236188
-45483
-42674.1
110651
-442267
-168147
223695
-3.00657e+06
-2.3019e+06
-3.51224e+06
-1.50816e+06
-1.42466e+06
-3.13556e+06
-9.75167e+06
-1.05591e+07
-1.33862e+07
-7.12514e+06
-1.63529e+06
-249689
135491
140183
35499.9
253449
542570
-188334
-2.99592e+06
-1.49507e+06
447943
22885
362336
1.42546e+06
768414
-501899
-388215
-837691
19991.9
128454
-2.20847e+06
-486060
-703643
-517181
-1.69167e+06
-2.17009e+06
-1.63556e+06
-1.38032e+06
-299026
-257585
-91538.2
-58741.5
-959627
-379639
-153443
-181634
535566
-1.02632e+06
-1.23394e+06
-358228
-804331
-501092
-1.22672e+06
-2.4237e+06
-2.16471e+06
-454060
-836521
-2.25742e+06
-911061
-462106
69187.8
830193
-930505
-462788
-691560
-1.50816e+06
-947395
-805350
-1.70079e+06
-1.78463e+06
-109591
-3.08246e+06
-1.97477e+06
-756299
-577242
-1.19038e+06
-501601
193016
1.22872e+06
-530439
-634989
-235636
391054
455428
1.52168e+06
131783
635289
319649
114592
-5341.59
532697
-1.14497e+06
-5.0635e+06
-3.74459e+06
-1.00577e+06
-499942
-280709
-53583.7
-70477
-355361
-1.02195e+06
-1.96587e+06
-493204
-734515
-139628
-680882
-874869
-34397.8
-167277
326687
687852
227044
863634
624773
3.63949e+06
572497
416812
-396546
2.38607e+06
139467
915569
1.28284e+06
135544
2.03923e+06
-493076
2.08965e+06
151965
848164
691058
58307
805345
348460
-788858
443733
-176998
109603
-1.27412e+06
-1.60841e+06
-1.98633e+06
-1.13198e+06
-1.85337e+06
-1.85478e+06
-2.04714e+06
-656458
-116433
-1.51795e+06
-907816
-1.51032e+06
125168
-628534
-2.04835e+06
-2.22684e+06
-1.31135e+06
-2.42044e+06
-2.38434e+06
-425785
211024
461040
-384211
-178432
-412912
343303
57756.1
744592
195028
316757
569878
-476743
-103936
1.12208e+06
840339
844225
812880
-17649.1
14014.1
269833
691486
120333
-126004
34367.7
65999.8
875008
-188038
-68526.2
-459396
-1.37696e+06
-1.57084e+06
-1.40746e+06
-1.21766e+06
73422.8
-1.40838e+06
60386.5
866094
17477.9
-91111.2
1.24921e+06
185014
231946
411854
885997
34810.6
-180151
191753
501906
-178144
169806
705009
220935
427795
635092
-794843
-1.29957e+06
-671255
-446747
214602
479953
105851
1.81077e+06
1.26776e+06
1.58048e+06
1.3081e+06
-868601
-885250
-113935
692657
290620
-8894.6
177884
631465
1.74529e+06
654520
583685
-163159
300797
-456206
-257888
-215529
-84747.3
-955877
-1.20836e+06
-77242.3
114386
-91460.1
-675478
-499256
960783
698981
-34692.1
177397
457435
-9462.61
169547
124747
-675612
-950714
1.23597e+06
-540466
27247.6
253518
233908
202051
472958
396471
149103
-615506
-908811
335971
138069
-1.05292e+06
-956950
-1.10324e+06
-314582
249511
-472764
-824864
-136486
877334
-576179
-1.99329e+06
-3.36435e+06
-221396
-344808
-629842
664172
-6884.53
132677
2.88825e+06
804242
2.16417e+06
-1.01416e+06
-334295
523771
312876
-9752.53
-648217
-471909
-709085
-244105
220238
2.49251e+06
3.29277e+06
4.40894e+06
1.91628e+06
691143
1.2488e+06
-1.04589e+06
-477744
424086
68813.1
104288
-69741.9
202555
953792
392739
536965
87918.3
137137
-44693.5
-156938
193470
190662
-891001
134132
165.058
-1.10079e+06
-1.6855e+06
-285186
-184476
-85817.8
982442
501910
1.16273e+06
378214
257951
-20193.6
287591
-130576
-1.50692e+06
-723675
-609540
222036
-1.68904e+06
-30637.7
577285
-790017
417443
279222
253250
-2.31627e+06
-2.57881e+06
-1.56061e+06
-666000
239850
-1.87681e+06
556702
-782492
446640
-306868
-6675.51
922391
-861340
-217486
-212699
-706214
573610
-205267
-1.13955e+06
-89972.8
3.28681e+06
1.26827e+06
3.62819e+06
250145
2.02303e+06
-919487
-374406
-2.27521e+06
-2.892e+06
-307683
-972353
-1.55466e+06
-243220
21662.7
-818705
-74319.4
410261
4.01894e+06
2.27024e+06
309357
1.96671e+06
-1.72057e+06
-1.39974e+06
-405539
-381226
-1.30411e+06
-1.11853e+06
-1.34127e+06
-9854.37
-492661
-1.1416e+06
-308988
-481557
517930
-198863
-959172
-2.01804e+06
-5.08311e+06
-2.94436e+06
-2.59862e+06
-916714
-596007
889567
-385128
-235033
1.22533e+06
-223254
-109189
-113773
-331583
294238
-16062.5
130236
61752.9
201416
-382172
226974
43089.3
-104177
-548950
985635
1.06888e+06
932473
47376.1
-865915
-502118
-1.19766e+06
-65000.1
-187859
-700129
-1.09033e+06
-1.19707e+06
-866785
1.17679e+06
480050
-1.36939e+06
-2.64882e+06
-4.70973e+06
-5.92349e+06
-5.16298e+06
-5.37078e+06
-1.8998e+06
-4.00106e+06
-2.1214e+06
-914649
-1.44568e+06
-1.70528e+06
-2.11957e+06
-1.36262e+06
-659530
-310299
-112437
-58046.1
-239794
-69687.7
407335
-119032
-255217
483508
889176
-340156
-401071
-3.50376e+06
-652760
1.16913e+06
-241594
746497
-2.08543e+06
-1.6883e+06
-4.49104e+06
-5.27904e+06
-8.59745e+06
-7.13211e+06
-7.05335e+06
-5.80345e+06
-2.99668e+06
-2.37323e+06
-658147
-2.23661e+06
-1.4413e+06
-1.18868e+06
-3.22442e+06
-685279
-2.95593e+06
-405638
-5.32905e+06
-8.09487e+06
-7.68629e+06
-7.36653e+06
-2.22832e+06
-1.80747e+06
-6.06922e+06
-5.77555e+06
244465
-1.24335e+06
-803066
-1.32511e+06
-77514.3
-1.07806e+06
-1.19922e+06
-2.58481e+06
-1.40772e+06
-1.03561e+06
-1.85044e+06
-905879
-3.12581e+06
-2.28575e+06
-1.23193e+06
-346896
-1.16713e+06
979103
-539289
256721
1.36437e+06
932243
-348975
140682
206964
1.23588e+06
1.35708e+06
166204
603930
763019
347020
-43510.1
560993
-23597.9
219591
-213962
-74610.2
171382
165007
-139802
-780533
-1.17311e+06
-454956
-95833.7
-166702
-271114
-724126
661302
145385
-68418.6
-826317
-391429
183545
60517
494676
224065
-201353
623802
582358
-140847
84610.5
100820
1.50695e+06
662766
465654
307820
-281807
-74855
-243680
337297
109591
92903.4
-49523.2
-62427.7
21068.3
-411754
21670
-1.86681e+06
-913222
-821789
939889
188508
-405533
-2.04362e+06
-2.50399e+06
-714311
4.53107e+06
1.02412e+06
2.75572e+06
94278.8
211687
1.65649e+06
709135
107604
-615050
-2.94147e+06
-218853
-1.57318e+06
-3.45959e+06
-1.61199e+06
-331662
-580679
-300579
103116
1.4463e+06
64456.7
-229724
191992
215787
206749
-647932
447990
521404
856750
434242
215874
2.42708e+06
2.19685e+06
2.204e+06
1.537e+06
-296046
-620377
-243171
346864
888903
4.60506e+06
7.61463e+06
1.04067e+07
9.36363e+06
1.59773e+07
2.17164e+07
1.49944e+07
1.86911e+07
1.2859e+07
8.43436e+06
1.119e+07
1.14537e+07
8.47055e+06
8.19337e+06
1.05326e+07
1.47433e+07
4.80749e+06
8.40786e+06
3.93579e+06
1.50428e+06
3.64303e+06
1.02471e+06
-903973
-5.74503e+06
-3.57561e+06
-4.12178e+06
-3.57561e+06
-8.81389e+06
-5.17767e+06
-1.54077e+06
-859034
-714173
170363
-789069
-1.06686e+06
42382.4
327002
708956
1.02539e+06
-175737
187464
72419.8
-136232
-13245.4
-273453
-605364
-66041.4
-131442
747174
1.80318e+06
1.68098e+06
-744254
-49455.9
-555247
142057
1.02656e+06
262984
274867
100625
-631419
373045
-437859
-136863
272129
39707.8
133910
-276061
114173
8561.96
309419
1.28118e+06
2.17812e+06
786524
-356915
249913
-468158
-203844
1.22337e+06
1.58284e+06
1.03784e+06
1.36905e+06
1.89928e+06
5.10806e+06
1.82666e+06
-218018
-1.49896e+06
-2.97274e+06
-2.75123e+06
-2.04035e+06
-2.53944e+06
-3.98891e+06
-1.06879e+06
-151443
-96358
1484.57
-114947
-171863
-2.18434e+06
-816169
-914553
37665.5
-601740
-321767
-238797
1.29861e+06
580633
277109
383323
2.13232e+06
289749
133500
12631.6
159981
756448
203959
11020.6
-117936
226669
-57165.8
701106
352768
-111058
-468418
-18740.5
-445565
-737228
-21650.6
-234516
-70583.9
-145197
-249114
152144
-1.66644e+06
-1.80127e+06
-184964
-1.833e+06
-1.37298e+06
-936331
-60005.1
474168
1.67917e+06
753193
1.45814e+06
6.42624e+06
4.56676e+06
5.83659e+06
3.19115e+06
1.06026e+06
-1.21864e+06
-1.74987e+06
-2.24603e+06
-2.10692e+06
-31354.2
-3.10308e+06
-579914
-187728
-918071
53961
-255934
80929.4
-192457
-25226.7
-62786.1
-230424
-150706
-462673
-280764
45572.3
282453
2.92862e+06
691849
1.65295e+06
2.38163e+06
-1.06436e+06
-528356
234578
-398761
-258546
-3.98246e+06
-500898
-908696
-2.29524e+06
-1.58117e+06
70444.1
-139049
712985
3.11804e+06
1.65001e+06
2.60554e+06
806560
727192
866524
2.02141e+06
1.0619e+06
244562
590600
428204
-60412.5
-642466
-130779
628967
122827
-302895
-1.21629e+06
-7.39185e+06
-7.12429e+06
-1.47058e+06
-620230
-131585
-884375
59542.2
-178565
-2.36492e+06
733333
-1.17189e+06
-1.89891e+06
-1.00496e+06
340370
-734408
-2.03837e+06
703412
-290012
-1.54619e+06
-1.14602e+06
-252371
-199411
163057
727948
899974
835042
67400.1
-1.4001e+06
-298978
-210732
-215474
-990564
-47416.9
112947
70354.5
133754
44104.2
-66114.2
68072.3
191087
116512
-149208
42258.4
248040
134060
93074.2
-756089
-630111
-331866
-2.20051e+06
-1.38523e+06
-262797
-707239
134062
-941919
101522
12471.6
-76722.2
-1021.41
78150.1
-20448.2
25836.9
387320
614583
115766
59748.8
-7376.24
-52890.7
-175481
-161911
-1.58102e+06
-1.11971e+06
-35571
90903.2
18568.2
-269639
103814
70670.1
996228
131828
312905
-135920
-397254
-342723
-517414
-1.31402e+06
-105723
178083
-118041
153964
1.62655e+06
645797
-150353
-186737
-129712
-234708
-233021
-113503
34163.4
315984
807546
995053
2.9305e+06
4.08435e+06
954325
61224.7
542889
599051
9786.22
55586.3
-475229
-145898
-702319
-748644
-360857
-261471
-255825
6494.18
1.01819e+06
903586
1.32587e+06
1.1919e+06
228767
495235
-979718
-477814
-245733
-1.76884e+06
-14461.2
-881612
-589817
-576992
-505699
-1.05394e+06
-980203
376389
-3.12537e+06
-397705
-108373
-568940
-559334
204638
3352.59
-767188
-225195
623076
796223
-803107
-257078
-219276
95110.6
-196040
-350888
-437414
-305814
-110112
-1.23508e+06
-1.50229e+06
-1.41968e+06
-1.25517e+06
-488627
-589874
-223166
-261230
-246694
22352.2
-213312
-555641
17293.9
1.04103e+06
-237100
-1.85983e+06
-1.98516e+06
-255482
-133699
337810
356181
-266035
-721922
-796593
173657
386584
666323
82881.8
1.13651e+06
594191
891936
201213
254502
1.17653e+06
-74113.2
-4751.03
-489956
-462584
-691164
-613546
66523
-756242
190994
77788.5
420044
1.4111e+06
-99410.6
89531.1
759197
218875
1.07701e+06
295218
193956
46433.8
247157
23179
28601.4
274198
290774
-482789
-134616
137905
-138595
-282750
470029
-465656
227050
-202691
-1.43898e+06
-2.19265e+06
-235120
-374989
-51081.8
-11455.5
-606783
-1.2355e+06
-335951
-278769
-663054
-1.37906e+06
-707934
45008.8
-384853
365754
746613
3.98652e+06
3.77781e+06
3.53214e+06
1.9468e+06
297694
-6.1512e+06
-3.63649e+06
-161365
-2.41534e+06
-451337
-3.83491e+06
-2.1479e+06
-655428
-840880
60318.2
1.39097e+06
225187
-504950
224646
110885
73516.9
-940732
-523724
-982644
-2.7308e+06
-1.54739e+06
-24825.1
-127241
-6324.57
942378
-342475
-80727.2
-7942.64
-720661
-837810
-202625
-301985
291500
241493
1.15695e+06
225932
159356
144958
-250461
275980
1.83247e+06
42858.1
827799
287045
-68326.4
501974
1.00021e+06
155759
18024.5
-88916.9
200753
-585938
-120675
25721.1
65575.5
-159023
71464.4
349102
-17987.1
2345.71
-818289
467324
664555
820076
942986
1.22536e+06
586971
782152
-837014
1.50312e+06
328691
564922
-117231
-753454
-1.02655e+06
-1.06293e+06
-311369
884666
280489
390644
-284335
-468144
513145
288095
-307674
-24806.3
-658303
422868
-1.35281e+06
-1.5388e+06
-2.35678e+06
-4.39192e+06
-6.07998e+06
-4.66808e+06
-4.10879e+06
-2.64209e+06
285460
-498751
142076
3.49833e+06
973020
3.08289e+06
2.58113e+06
5.98805e+06
2.90989e+06
1.452e+06
3.69127e+06
924147
3.49046e+06
865962
-1.38498e+06
-788899
-2.95765e+06
-98898.2
21222
-107689
513060
329608
2.08458e+06
2.61044e+06
1.02408e+06
583353
137682
257400
558084
384922
56307.9
235538
2.03144e+06
2.61856e+06
3.06554e+06
1.03808e+06
2.63339e+06
2.61254e+06
1.08007e+06
2.01963e+06
94942.1
-355759
56128.8
177096
-23964.6
705377
-201083
896448
-65909.3
7093.07
-92395.7
366279
127253
-35561.9
-167690
169316
32964.8
-183700
1.9554e+06
875341
2.04164e+06
707146
3.91595e+06
4.91667e+06
3.569e+06
2.31002e+06
2.56074e+06
3.82852e+06
3.26937e+06
4.3982e+06
1.80392e+06
2.87463e+06
3.09209e+06
175778
-33072.8
-11556.3
38463
-840960
-36081.2
-191009
-341657
-481438
-217687
-270723
137595
1.27389e+06
1.69645e+06
947904
307323
543124
-803271
-1.22658e+06
-345588
-2.47525e+06
704560
328903
-181886
-408285
-561480
-485701
-1.69953e+06
-88153.5
1.09015e+06
736818
1.82361e+06
4.48858e+06
2.55988e+06
5.36483e+06
4.90482e+06
5.48554e+06
4.44985e+06
1.7574e+06
1.16679e+06
1.28863e+06
785425
300062
290360
394183
152551
-688021
19490.6
195.079
-1.14238e+06
-656796
-1.22837e+06
-1.25809e+06
-520458
4.03384e+06
2.56987e+06
1.71243e+06
4.86071e+06
2.53904e+06
1.708e+06
155085
-416333
-126557
-853863
346017
-2.61336e+06
57071.5
247624
1.93354e+06
408539
1.00087e+06
804388
302936
-610047
-504961
-776751
-49606.1
1.40093e+06
196022
-33231.4
94898.9
-2.83671e+06
-2.08589e+06
-1.4271e+06
-935272
-614637
397604
730283
1.11997e+06
695346
-419905
-1.10894e+06
-627061
-182046
467868
37956.7
-295598
27786.7
-425217
-378988
-1.45453e+06
446851
-175174
-339751
-97759.5
-1.38777e+06
901661
-349021
1.07174e+06
-1.71695e+06
618499
929718
1.08238e+06
-1.44801e+06
-690215
253641
563710
774754
1.19437e+06
2.09567e+06
611640
855258
11586.9
76908.7
907635
440852
72546.1
194849
-1.20148e+06
-1.81975e+06
-926586
-693524
601231
-552266
-5956.32
564294
1.34954e+06
1.43991e+06
248476
983843
-287181
-316032
-305947
21982
19655.7
144013
-77972.9
70727.2
52376.9
-142806
-64312.5
-629726
-2.64053e+06
-1.31492e+06
147360
317371
73094.1
524266
520133
1.03912e+06
88411
633291
74730.4
44045
1.38682e+06
635559
1.22831e+06
543280
-2.42369e+06
-1.88855e+06
-1.50883e+06
225640
1483.37
946751
704982
2.99242e+06
3.44289e+06
985709
433286
770882
3.64949e+06
2.97761e+06
2.00446e+06
341077
1.46856e+06
2.03631e+06
2.56385e+06
5.23369e+06
1.0638e+07
8.19159e+06
6.31817e+06
9.32774e+06
2.12955e+06
5.13079e+06
2.73322e+06
7.58102e+06
1.08914e+06
1.67841e+06
884765
1.36388e+06
367181
125052
-539289
-38509.9
-430266
548339
609666
-670067
-1.49261e+06
-805963
1.2285e+06
765239
-3.50765e+06
-7.48508e+06
-3.76497e+06
-742519
-4.7542e+06
-894463
-2.2289e+06
178861
-115049
496159
-297971
1.6542e+06
2.70294e+06
1.33859e+06
606612
590107
886401
-41522.4
483066
-709487
-333257
-299470
-429137
36967.3
103330
77905.6
-155657
-263924
-46787.4
9870.95
500008
-186272
-988237
-109784
-652746
-104002
-155506
-189717
-358941
203839
-271580
-430381
-95685.9
12063.1
234739
-834594
671564
367506
186203
322627
196577
860380
-206051
-26694.5
-2.42734e+06
-301663
-287827
563901
328098
-224238
-152895
-45264.2
-519107
-1.0657e+06
443059
-744864
-5476.27
373708
943915
-234910
-1.17508e+06
-410157
282896
748012
353140
1.37685e+06
-575411
-254012
-37376.3
318984
155567
964254
-366458
-1.07034e+06
-587882
123954
-455894
-45877.9
-1.69513e+06
-1.35079e+06
