117.665071
-94.906495
168.1909964
-138.250162
-34.999432
80.971379
189.1240879
89.6899099
-122.207729
26.547094344
80.1530993
153.682753
-108.120235
-29.363676
122.480875
29.7390762
-31.2585763
35.2216367
-1.8528215
223.700555
83.7546367
-104.328648
101.3739685
-69.0841907
-52.897566
-4.9920293
-115.138183
-307.091966
-37.9128949
-18.007501
-135.598721
-88.911804
-15.691355
-274.6756344
131.370011
-255.1007867
20.1402772
-23.526972977
-107.626231
-178.983709
89.1073629
121.8409741
107.92279015
129.915459
-22.64766
1.153953
142.304402
-215.2195631
-133.296623
-101.413398
67.677283
-246.235423
-10.224988
-26.4492241
-47.8853755
-98.42194416
-26.0484708
-141.0275091
15.43821
-240.4029063
-3.15988294
-69.3340762
48.1421905
-39.409646
-55.770409
194.024458
90.2333608
140.626873
109.6186141
-149.299601
-30.425713
181.235846
24.66570804
-110.2817258
-96.116251
-141.153173
-111.1394201
-100.277758
-25.312902
99.5572509
-54.27304213
-116.055257
-85.276962
220.3360515
123.3268827
-57.55779
211.710213
9.747078
-16.9029031
159.5350999
-239.44828606
-35.2504509
135.0189465
-28.9537936
-66.163709
-64.543462
-211.875204
85.0275744
-50.6335464
17.2508851
-17.4015723
47.6748591
-13.599761
-14.711348
-10.890473
-38.6636179
146.4576032
-231.2669461
159.279659
-59.920101
-89.1216514
-219.850331
78.207653
173.814922
-93.850496
-48.738161
-211.2460684
-0.4287819
168.999408
156.258103
73.94809979
-45.043743
22.9929273
62.4940013
107.551703
-125.411855
126.741581
306.026675
88.656744
-58.8898483
-31.5188762
121.556058
-195.0707251
128.575955
-146.9925605
-40.989556
-46.592232
-45.6034046
105.1305024
-78.2601894
253.618295
-40.7637461
10.5572438
10.143849
-191.4383226
68.261885
-60.59958
118.4659652
158.988419
-62.0295567
110.523028
280.9468593
48.280468
15.950753
21.572486
158.1014753
66.430423
170.027609
4.75276
75.204085
-179.218123
-173.0253315
-199.1257714
-84.419909
-139.935734
-69.7583613
-64.421189
-100.566589
79.0665286
23.36111127
70.7349219
54.662216
-141.597272
265.9327365
183.79062268
-155.615867
2.109092
-7.630529
-18.0567078
116.10538475
2.7954047
-137.3665541
69.608172
107.412408
-24.23890997
231.3678513
-10.767027
-220.7123775
-89.493742
-67.088499
-185.8476502
83.3418703
-335.975705
-177.5260063
-68.5484713
21.231961
-109.101459
-51.065691
-6.2570115
-34.67532596
71.060255
11.0282636
-78.1264741
135.24977
102.7685096
26.542534
88.91652162
-198.156974
90.5005333
18.1659307
212.1570023
-159.027279
91.751772
56.2766949
68.778018
-150.494065
-10.848519
-33.1611607
57.73291272
12.75528605
-38.7127455
-264.104817
-50.877849
-127.401051
68.2461699
45.4702861
-78.2905521
-111.39519244
310.87080761
-140.2770813
168.9313807
-187.9320459
38.074804
-86.21079
-38.429688
123.103638
-163.4249334
-95.861665
-134.386181
-27.775702204
22.306842
54.447756
135.625686386
136.1015584
23.7393287
161.3495222
-191.4755566
-229.887022
30.6573956
360.564288
