111825.2064
-34194.7906
113060.72
1263788.901
183697.7538
883936.488
152674.195
806742.89
419729.634
652210.137
290052.532
294776.8055
146252.121
138474.548
261294.861
20254.7589
303882.9006
242427.513
-548315.347
-84119.026
68584.621
-199023.1099
110252.034
447510.57
365880.593
47015.8982
558997.328
577293.509
162327.5837
321200.856
380659.875
454863.992
375253.315
-88244.538
140717.606
437074.369
633034.0189
-589649.725
331133.471
603931.737
1235841.145
589140.5908
622549.9504
-152948.2516
-51425.856
857979.5389
258478.633
589982.478
78183.187
293425.3874
23815.638
790911.73
141103.2137
161315.456
535197.748
550797.68
-562073.3505
1139880.595
-13627.7438
815036.9106
790613.672
841534.625
-61428.314
458234.78717
213598.0346
151655.944
-176387.8699
905051.34
-82770.0445
374101.2544
1076534.5989
116900.1131
440736.6242
243611.468
290440.88
390990.860483
987714.255
-750697.9551
642699.984
778880.0632
452747.3017
708406.287
60467.718
821517.891
499417.113
134956.88
20440.571
123256.071
-248392.716
325279.589
651810.2883
613883.2522
706334.535
621443.0947
929077.879
914583.8399
1156752.785
1159769.05
474087.796
-42673.581
796685.8714
147949.353
56429.072
-490388.4627
-376001.584
545817.73
201589.974
962754.14856
298122.442
489936.441
-115924.713
434556.6013
211255.882
558389.1467
-2280.487
1125749.553
-437749.201
358982.7394
489868.389
207425.5438
322999.1706
311749.395
-140258.0834
438283.617
578288.361
21165.9055
529845.775
72412.3123
29238.3877
270456.482
33786.147
183004.85
354562.7449
198128.155
1607378.971
-370707.4133
733264.679
-352662.505
-337376.032
380638.816
1231347.275
373447.53
419724.1371
-98850.6395
60295.65
-208842.376
444251.2941
970095.126
520717.325
-60169.383
246023.615
-401496.4762
922857.362
-342071.1155
866597.685
751743.233
162172.786
450927.4813
63996.3278
-174411.26761
-33684.2672
552944.112
202463.6617
175518.3326
-369145.9751
494250.86592
460345.0919
621174.922
245314.504
-11610.5907
-135093.3056
862804.737
1156360.6758
575183.8256
635440.417
-39014.129
324899.2073
649447.432
597469.101
187903.258
-340993.2708
771484.539
216174.28256
293224.458
226299.471
213563.0386
763212.929
568870.8653
334917.589
211695.6382
624190.682
423314.943
535896.1549
-111460.308
142411.6516
-110177.4562
-139793.327
902872.328
383028.57
494426.8658
10487.074
257396.7324
451070.362
525409.93025
153158.068
416458.3731
-495449.3746
109423.657
10553.29044
-134281.042
573835.46
-233322.294
730944.3144
-318889.579
295312.137
413719.759
291624.2103
284552.644
186268.227
201245.063
68095.4228
297642.464
432143.485
214637.9236
224861.382
836048.44
376054.546
102038.81
-158914.5889
255170.8294
-152561.93
786084.36
796890.353
-328247.575
325974.8255
372707.235
-190580.519
-260785.7566
182762.99
947387.684
79142.1023
546124.978
828400.1957
735856.062
285635.2877
874723.064
463372.9622
499815.567
699773.9917
15325.202
952924.4344
316042.457
502828.868
-53191.651
731968.52
-121367.607
477441.6425
-488836.8917
-2709.348
-81691.969
1088018.332
1409464.635
1229140.715
255628.2147
286255.301
198043.9644
121443.26983
181215.023
76924.154
104627.374
392073.252
576768.802
-157050.59607
123551.788
437416.0471
436662.659
488413.774
1067995.2092
132775.426
209899.964
232957.613
179919.1999
-55175.502
840567.862
-75910.0039
513106.4074
472938.301
126146.5853
701405.264
3023.697
349624.66187
-84569.6489
352507.945
467256.6711
102231.4107
-60505.8217
70145.364
343630.4479
442403.44531
1428615.1014
839558.6579
354134.783
-5081.747
78326.5692
129705.6166
433859.0
196966.16
-183055.274
830131.995
241549.4829
520893.687
269388.3827
-49450.349
258204.063
684356.774
41909.8757
20357.241
-80563.7465
485475.26
452664.051
189486.264
385313.89372
335862.0726
-412719.093
137459.8165
197834.8925
-312788.6204
-556951.452
869218.125
818141.3104
631538.6
459844.6669
-102617.134
226244.5676
280355.7578
225058.252
-126150.851
371144.575
689346.4921
977352.099
364698.8052
-92083.975
236980.8783
-598570.305
-437045.5462
259176.8181
504738.647
174805.9252
115626.34
119265.6755
424632.457
624766.339
138682.4791
562673.337
181110.077
404776.932
-45644.5408
373605.952
13169.272
943793.205
91666.726
448455.605
473866.102
-47273.384
199426.445
-54276.583
98371.523
364316.3877
378935.624
775791.663
722586.16
841807.261
340011.2288
281745.54
749912.968
445633.088
626807.1113
150325.908587
142996.5115
1054744.633
905987.23607
641094.941
93739.391
595524.302
-291191.924
357665.586
-23636.9027
278616.4188
80091.7395
1181425.068
-187141.258
-312840.4371
42749.1343
684649.775
72539.5107
-4798.8632
-482385.055
769847.758
265420.5826
-94844.851
1203376.719
129492.445
191209.765
603481.59
39678.6405
-203185.777
-1039.227
121811.76183
-258064.94
275070.5277
921510.623
222638.8846
121239.781
317656.4626
-407331.584
377504.877
398032.6796
388302.1915
432249.092
864181.337
184950.613
615934.956
592703.2631
733652.39531
35005.9658
-129218.784
-185763.870561
170522.308
442730.854
223109.61
31896.9297
456640.642
216178.3753
-265174.836
630377.831
511832.188
219158.74
116521.1489
-280707.827
256569.344
34161.93
69671.113
2935.1666
542107.717
1287761.625
755581.064
-347629.415
831587.6918
154343.8156
461666.9848
19651.052
479619.9955
-358216.3803
-40269.772
188534.4362
8829.983
207315.4129
-29752.871
1321749.6481
993238.688
380903.092
333508.924
877102.664
1115906.9986
-233502.7388
267769.028
657022.9134
-835093.009
411863.162
302208.9063
189516.754
250416.285
-98922.653
253898.384
-311037.227
276060.4753
861225.814
-40728.185
-288066.4601
271596.261
612215.702
183277.077
4979.0919
-484761.7618
126813.227
129079.519
249803.2711
-582051.2443
322513.795
51900.1914
755923.338
143682.81867
-97039.345
177768.322
33674.004
598457.2639
327188.559
748447.74
1064312.056
689793.1087
262672.011
484892.8262
720397.382
418500.183
322974.6806
959152.723
1063088.449
904401.038
622145.497
488504.2266
172956.3235
844422.844
71127.506
347851.334
-157284.123
851576.5604
214924.51
354331.0104
153732.12
148085.2605
804242.292
506507.882
397398.8172
299936.6663
676853.5554
125498.6583
125931.832
-269703.4671
47498.4735
669341.353
433311.539
233614.1396
-41821.82
817762.647
356027.7194
274286.494
47435.4525
332407.531
368005.6193
609729.72
364612.571
292318.378
-64126.9776
-647076.6591
371685.078
656361.1076
241996.353
296362.239
603929.42
1006929.66
1200856.52
-183118.811
186101.7761
422683.0283
229018.771
438734.45
842345.455
233215.659
-103821.752
54320.89939
294541.745731
67216.763
541737.966
109586.1933
1014466.372
383403.473
-396902.2739
552732.9083
-68308.2807
-498886.7215
368194.7073
326573.9562
-22064.484
484836.885
310546.728
598274.427
467044.2266
403583.838
802256.802
-256035.2929
329325.617
411077.041
779316.6823
250015.682
137791.0683
256569.543
250144.274
205571.264
278291.701
529083.1136
73802.9449
24728.1522
326192.128
153933.5783
783059.0667
168786.905
73647.462
395011.2443
359651.2682
443100.343
298592.8
249339.254
-638936.649
-572811.4255
272350.687
267381.481
1429331.33
771317.4754
388104.038
219771.566
95156.4919
698381.842
853185.9779
958999.0879
-172293.0129
-306634.838
554584.8844
190670.434
-254206.7278
147763.5111
144704.77889
138532.167
621439.8783
-108388.958
487833.222
530031.399
325489.53
-27901.4778
635857.207
-280929.9081
468253.0112
-31057.02
365882.9962
536977.247
468022.563
632430.4955
526500.2
296388.833
-570655.492
373899.699
264580.8167
-17602.265
232971.574
341140.9444
-116615.593
803622.1774
1054387.41477
-3697.158
547182.9517
482390.6578
678190.253
164566.213
102405.7216
374640.386
485747.896
524505.479
474576.033
-110683.2611
-58055.6534
5998.0057
138494.995
1037177.283
760611.7183
1120528.357
-22772.106
1712381.6055
-72940.394
-10646.902
216913.2939
1267155.895
-283327.479
425533.8832
-69157.309
193414.115
808422.68042
-267756.777
341603.246
261405.7049
684248.975
277533.047
627618.19
1163955.9121
96162.587
116757.0963
723009.718
485229.136
419476.4554
294433.079
-94124.3076
114635.058
347887.172
311096.43
151396.536
1115610.38627
144470.0868
650067.044
86305.675
995406.9501
548723.942
943717.1442
479027.966
-186376.4116
458754.2395
24434.844
-83043.8308
504851.536
466051.1233
145129.65976
-434912.754
146863.372
-184140.762
400982.7545
-593844.405
209914.889
616581.7662
290272.73
437843.928
291736.033
562890.075
89373.334
37749.4846
141712.641
768819.193
571029.6113
132636.4956
492189.6882
650459.1884
92184.91
265380.115
432917.916
225183.297
201404.57
190972.9847
5026.519
-40524.829
128238.078
593722.2978
612064.748
438626.771
348825.669
811459.594
295840.4768
309904.698
-593768.04829
721683.3963
245334.006
-238646.4032
-170199.7715
-424154.95238
662104.876
613669.7417
163870.419
677726.0229
270092.741
420812.526
560818.618
264812.6045
-248281.726
542640.2706
-202039.98346
212603.77
619593.027
308810.511
-67865.051
917313.1284
459373.766
651099.502
462399.877
-75482.145
290585.7065
793331.2516
631558.757
204076.805
722211.493
-135820.289
-43302.299
1024986.874
860718.56
201560.1587
20540.3957
10825.057
18085.377
695351.01
235771.9215
-67111.0991
82702.928
164218.0091
489850.921
777555.6304
451357.686
213946.9218
592477.968
-23883.802
-30937.05
13708.004
305331.574
-472890.252
12271.577
-2176.61952
616508.537
474633.7865
507129.337
245752.9423
762467.0319
1406982.501
-680352.491
482820.4418
741291.1769
180117.777
460852.036
86187.429
451051.722
-133476.812
965106.208
101291.165
1181884.395
1070041.5031
653328.0
753061.4383
121769.98709
-515987.9879
394438.316
405035.22579
-142102.411
1048594.9217
580817.153
635716.844
504211.1548
99768.75918
827342.789
393920.8426
570308.9584
-253044.9122
474213.7668
88760.339
794895.0163
181752.456
136071.742
292702.8007
63977.985
200870.6839
-716127.33
456044.063
41620.3678
425643.786
-26504.528
30897.73424
45191.5649
898395.7366
-621350.625
239146.6556
721188.487
-209111.222
317448.5054
389475.2051
229340.224
-6918.7618
-92728.6336
-173914.164
28409.5254
291662.8533
865026.774
-34119.6749
352549.502
226167.1652
145999.075
582186.422
-319180.64099
846755.308
898480.57046
-1067885.9934
213271.68
285999.107
149301.632
668044.2583
-90928.9475
212059.7283
563668.392
-277615.6688
734223.63063
567274.9774
-393683.609
-217946.65
484400.123
600335.432
260687.771
739539.71
76621.35
947252.27
1211076.6583
-419282.344
-332807.478
834828.4075
482165.656
-270036.941
-51601.6969
292331.672
626310.785
624498.349
733019.577
-20150.3791
209108.9622
-292010.624
795029.029
-44449.442
335979.377
452026.909
473710.821
-13025.718
516995.802
32100.367
474304.008
-68079.278
-425031.976
400094.899
736916.5704
623865.533
440304.9442
-1284685.443
107146.131
534655.582
2839.674
684203.594
370882.4845
192227.409
610419.85
878692.1022
386199.466
160792.75704
629908.316
-217029.3497
-380910.9591
344900.851
439768.299
612467.7256
-412138.6365
705916.14
-139853.185
-387689.286
527613.927
1053420.0015
847900.039
628725.0904
1165514.0271
592715.183
295398.433
-47164.2258
548593.3643
332462.364
413312.2074
566294.427
436607.99
361619.193
1091384.457
668905.293
834.822
169864.1564
515773.572
480567.596
808610.576
625373.203
757465.249
656059.9168
79785.634
415290.3568
286043.09
120971.677877
-239990.366
780630.592
827608.346
184106.848
596399.675
-7717.0402
-85450.3644
527038.824
388342.58937
495828.6751
-136060.517
750103.820985
1118422.9261
25919.6142
-154176.06644
210981.8582
241980.0451
-28769.9913
223372.004
-713195.461
128605.4707
116375.397
-96993.46016
-119332.187
-76346.0785
-326274.828
192686.00383
438267.246
606922.285
581881.394
-81636.06
-323876.4345
-11344.9731
