110057.508
-118197.8556
364426.86594
666096.982
-231538.77755
723995.534
-206512.525
594798.9276
129975.1985
668252.9336
273215.3283
247843.125
238752.395
11038.8428
-63521.449
-24995.957
218458.838
513975.6154
-755480.3817
-415263.785
-198964.323
-256203.2796
307492.797
354711.534
-22804.8959
117091.385
352325.703
406148.7939
-34871.4468
331997.651
30331.1107
30084.444
402207.403
-266363.5202
-7732.2034
98146.945
610599.832
-373696.375
-111025.50528
393415.292
606163.049
494256.061
308243.019
-4418.6562
-274261.236
336382.2804
41815.2746
58094.009
91177.798
418216.102
29352.3948
785998.4803
183270.7355
264774.365
222250.636
224310.424
-641442.561
1158951.1174
-263907.197
650230.8304
327812.539
485215.278
-180895.427
326804.62937
-88247.0057
223891.50117
86518.724
542867.99
48666.6953
390983.244
801149.0194
198887.299
322709.387
-95061.3142
801720.90357
317859.2043
545983.391
-523641.8019
648377.5473
561552.9596
399431.952
229257.9741
231651.1756
892836.3792
390977.753
173325.164
96850.21
715885.8306
-124765.4903
348119.4443
134305.151
465098.177
709809.001
432205.5882
720659.634
752264.5563
811698.6975
414506.03624
219804.187
-15671.0793
856267.8573
-450734.8293
2983.877
-859201.66
-531700.586
152286.393
285028.83
615968.37
353013.646
652875.093
-166295.7009
654318.05879
299087.8018
846885.4878
-111359.0864
750739.01
-187399.9271
282789.1745
113658.355771
547619.5952
322552.1129
256908.661
-77297.981
-93403.835
603191.345
-576390.089
822414.2722
-205401.067
-413944.7502
61273.848
-134422.9885
11687.434
395268.605
-214482.129
1455894.365
-463192.978
960122.318
-169630.506
-578737.743
102101.935
1074262.299
37551.264
208342.974
-115130.3902
-64406.803
-94429.449
514735.2903
788559.717
721317.06799
174062.452
-94128.92482
-327613.318
1026820.633
-499879.302
556443.626
427783.613
174202.893
114027.495
-73803.079
-377974.989
-245397.941
-57481.0136
339800.1155
350373.211
-670399.214
134269.5635
310383.5237
441772.8163
347681.3
16567.436
-288300.8026
33707.8022
925514.647
435578.9662
338537.0694
-681281.505
-52182.252
299478.314
497551.963
207911.4341
-710391.308408
772447.578
344985.248
-141600.532
158302.7018
392033.905
726688.5621
348332.477
109781.059
66580.4726
842700.158
128026.009
243631.6431
-558754.9
233252.6689
-150946.317
118430.451
847340.784
341199.196
125975.084
-356850.04875
313157.909
224192.715
369130.199
-20920.574
211578.8051
-332917.7289
-366661.6976
52560.072
-343796.0613
99412.389
-466154.6541
1090220.54
-538804.226
126118.8828
495295.832
38407.7
261167.689
404765.983
269401.167
110465.828
373299.2621
277893.9199
111716.11
47460.2097
369208.5583
376947.0307
-179430.0343
-133977.4024
536916.036
-355629.6433
925927.8826
711397.496
-185241.998
227549.83
599783.98
-394201.017
-543876.4101
194436.51043
913077.999
-134624.372
355189.763
1074075.855
731273.042
-78448.9187
251272.0224
770584.9112
398783.8496
431820.94949
-289834.732
1193366.7879
525225.192
267413.293
6497.15
155140.481
-126429.18
32929.347
-669198.0423
-2474.122
-386136.4937
682876.8377
1121294.1602
941114.085
-315430.128
407930.2157
371301.357
-275612.806
410216.462
-128729.874
100724.973
36101.88379
733794.6013
-18115.121
-7485.066
147437.106
134355.265
397104.1239
1189545.347
36087.022
252360.1033
167259.8799
1324.7003
-223016.8249
424128.24
215095.6584
774925.128
264383.2101
59840.168
545239.703
206766.947
-60368.965
177576.115
209765.808
128891.718
296490.35
309509.382
71245.949
-55588.65881
-19993.60967
1059300.716
897561.3363
250955.688
606795.7195
-36625.2676
6362.578
601500.1757
97712.34
-377042.569
589662.601
-586456.2414
299942.0007
-161012.486
70740.5101
101567.2323
371704.703
290879.6505
-261207.44
-789078.9452
457038.417
561008.743
467894.92726
156270.7818
446260.6503
-298547.788
102846.819
76190.64
-6434.9472
-715438.386
1095831.1278
707945.8198
395908.086
391382.5471
-565765.122
59515.378
-121150.0819
-103939.8129
132287.4
244279.4858
485994.748
706184.00074
301055.7151
-25947.028
-96789.9945
-729430.42
-565410.373
15021.472
418534.2494
334311.389
-117652.775
184169.1115
583730.471
631486.554
-4638.657
-129060.327
292060.321
-302108.362
-192705.116
33456.3504
435886.5808
327798.2536
-18234.40139
156425.844
329336.487
168757.5008
-210563.0744
-312921.8774
-394998.2189
23606.712
180462.884
518603.949
816061.814
1073098.348
-52906.636
48429.3894
292648.64
407634.8886
666515.89
-10152.1618
61414.961
797356.789
797448.9496
-107759.0037
546802.584
-17188.9085
-352719.8365
207874.379
29080.864
351209.44935
87753.758
836739.413
-34901.686
-747884.1344
-12584.1272
655492.682
-439716.883
-574856.836
-400329.9166
738431.324
231444.85512
-354391.9909
841776.794
618264.4059
340132.415
498798.959
-41821.1239
-516182.967
-175586.9376
343807.79
-427098.8692
274860.414
983165.6917
498411.785
309135.644
40685.7718
-702963.56
462825.611
38547.694
139735.013
332714.817
572382.6826
289255.2195
553337.8084
586478.112
457335.093
574809.2925
-503432.1812
-377208.482
68972.841
412854.1898
-65492.184
394191.395
-18993.0254
-168743.823
-386620.761
479963.455
296772.1579
230599.675
86130.672
-346072.7866
550678.275
-175628.116
-87556.829
37599.185
211689.9462
930305.159303
533261.409
-203997.359
888888.8967
37265.7349
341852.6588
-82575.764
196659.6733
-837512.8615
-231594.5317
42638.7734
-514593.896
417115.1404
73678.791
733585.303
948154.937
534289.527
103769.5882
913796.3958
1102222.80615
-383875.6996
-9763.192
548864.621
-847347.4019
417057.943
324576.6643
472474.806
183738.0769
-258428.4026
153049.622
-346294.798
71424.524
259404.326
330317.352
-716921.7848
-171118.241
188077.889
-193095.0997
-683472.20683
-748501.962
247496.483
-42289.92
-136082.209
-477778.561
54016.9137
322477.651
635072.782
428966.175
-20100.9665
-351107.798
88793.473
735404.7406
474099.406
339805.053
535849.9356
401716.5512
262832.259
247939.337
456586.8385
-98160.77358
404937.347
1223761.8016
355928.4607
486500.8267
548635.253
397662.5079
-51507.096
642101.354
35126.789
322336.322
-192331.433
713093.8302
-657198.5375
-101285.8735
292130.97803
-319148.6168
493976.865
-99674.8202
547834.6323
478523.506
148049.82
-184926.86356
90537.676
-227856.82954
-47032.1128
312297.6698
533583.276
-165100.3696
35546.534
301337.2714
160900.856
-427032.9224
185451.895
-272593.903
48833.954
425231.8112
400715.708
497019.164
-406089.2497
-874418.393
438004.6999
905462.322
86226.05
-208839.967
149399.487
933677.238
948510.06
-509279.682
293166.3182
60318.42
49808.2678
251025.641
399525.2679
316390.5851
252075.5686
22234.615
780560.424
-179745.8668
658410.7813
-139935.1265
1030553.254
272588.491
-430143.1903
425315.1079
-43449.215
-284042.394
-120943.93
340714.388
67071.9139
53591.689
308625.684
375257.3508
27097.324
384642.85623
927993.971
-119942.027
81673.83
624768.9485
535393.782
495872.416
-509889.014
391984.12
-129317.7844
453659.1166
-42983.247
337847.8489
215688.3696
169414.772
-198939.9482
24260.8276
375295.802
-262279.543
260862.359
183237.9141
417766.6354
-113502.2241
-121744.1052
-310814.653
-415912.61
-600785.6943
-9652.597
336004.387
1363523.643
864608.208
121837.446
-238406.307
84499.555
441028.066
1440435.353
726682.524
-504140.501478
-234983.739
313603.119
-353339.8978
-680259.087
-16537.941
147182.963
-1907.074
257669.2713
-324456.1628
9131.482
341278.891
530348.6841
120216.881
600393.882
136679.854
528704.405
-350654.741
245193.334
975317.349
579191.478
491005.079
279527.231
374885.2779
-576562.033
232285.762
769999.3246
73594.078
154984.44
241410.996
-79332.988
594076.183
859098.626
187470.386
192696.107
216341.161
428885.034
-374386.271
48127.1253
-71854.816
412500.132
566066.7984
4485.714
-396115.215
-146623.9193
113476.539
-183539.945
985829.115
907799.7622
897220.621
61755.1529
1038187.178
107294.349
-319503.7449
94619.529
861302.42
-364366.2892
160498.05367
-85285.083
77186.316
617104.816
-128416.51
156607.286
-192264.8738
606690.5996
-87035.7836
679060.751
833296.223
-507420.013
61793.086
447805.338
264137.1515
69530.431
184837.479
-357563.13707
10419.969
-152866.389
72872.215
34301.37
1013984.015
-334976.437
42391.656
152374.9982
655058.089
394611.943
810546.0284
483529.4785
79835.816
670816.065
-24318.974
152905.957
240053.8097
17713.352
59712.557
-687407.8468
67082.9439
-177553.862
-10597.2468
-499850.823
-76871.269
305003.7248
99270.5912
256546.71
-129403.978
194478.776
169021.321
337415.773
310982.7799
599904.2184
206334.21426
-190938.459
224279.82468
396264.611
-772369.001
250165.4739
472660.457
486556.036
191479.08286
118888.086
-75277.115
-298094.095
-302555.9754
463816.8219
322933.124
244065.0113
198752.27
808261.0593
-17469.7123
-77889.754
-976183.23
161864.973
84548.233
-240558.55
83556.0369
-469366.183
294353.3669
151831.065
376755.9399
331217.22
152941.3246
302831.804
405481.5705
132953.738
-324140.146
543990.9619
-544762.665
113501.2438
667534.6665
204880.12517
-74126.3465
514362.0
-316600.105
302723.383
230661.682
-97322.3573
117408.03
316933.3021
189623.3993
185549.538
461889.484
-633029.3624
289246.3408
398954.453
506458.906
139172.184
356769.098
-96182.678
115379.757
291213.833
262701.7492
-140894.014
-674088.885
20530.9052
291106.397
538716.55
381132.5379
72042.793
-170431.865
-272399.41
-45361.225
-110174.3073
462121.243
-475503.296
74695.368
-167971.603
551347.27
243398.849
149420.288
-202174.8927
284553.081
1303143.652
-838172.1515
156795.764
649211.5505
298350.564
283136.479
-114259.53
130008.351265
-335344.916
755429.992
82210.012
1481875.0145
649150.6305
902760.6334
201694.0766
4895.8411
-195292.5681
-225019.3171
36285.50117
-298827.5621
852457.386
517567.145
156605.9683
381151.023
271296.613
571002.151
21223.3766
363851.133
-753160.81
416506.133
-143108.242
617842.93
330885.891
490592.29217
239759.3912
84828.469
-9632.379
-687167.604
177600.452
-183756.839
377349.525
72782.787
-162057.313925
258838.286
601280.9492
-856258.053
-129073.6569
220438.874
133906.8753
-80054.0461
396775.7192
-121857.09389
254048.0011
-244340.109
-18237.808
245599.59092
154877.418
1017994.97
71666.05979
291194.067
528829.239
515734.86142
687077.062
-520517.5519
555293.776
374850.17
-988656.214
32361.37289
469105.324
223513.2316
452541.009
-452062.806
279892.789
331619.174
-500718.2933
529179.554
39178.06818
-58725.2195
-597568.742
466676.78
539542.1269
-292536.28
137000.9146
-66138.702
329914.574
465578.891
-316677.237
-809276.694
206786.9211
332785.6153
-12185.799
-235865.2511
511409.8296
503025.857
195133.965
78452.15396
-50623.537
297719.7455
-177666.963
420050.68
-348833.1805
-226420.4605
249485.7553
-10744.037
-63899.468
139180.333
-51233.5787
297265.7776
-104881.6802
-419847.253
738075.742
288683.292
608823.3903
311168.989
-1240658.111
259768.416
479717.264
-77909.827
897287.2106
462600.616
-42870.4016
82820.853
269600.501
139457.7638
216039.228
586146.5313
-357006.632
-450106.928
124285.88827
461571.9486
472419.9633
-894471.392
614556.406
-479808.0496
-261658.8542
372757.022
721846.5344
420073.4802
210454.549
1261296.1925
317345.8471
-86907.6039
-101896.461
396028.82
-110482.0076
6232.231
756043.6832
417727.741
675066.3697
887520.2908
687441.133
-19491.4789
-96360.058
388680.349
-134288.7427
710672.9686
293688.191
626851.106
740477.423
-31504.599
413605.1946
179600.045
-200884.357
-415204.363
657103.934
465841.0271
-308335.1743
527741.7091
-123292.055
-278395.128
279280.822
335593.73
782655.775
-438921.3728
502994.4473
611235.677
64905.516
-241301.542
51645.8639
-261581.668
241647.792
-365685.541
-715839.667
182993.577
-159175.618
176974.859
-259778.5602
185255.2377
-317415.538
-37968.081
77405.467
348617.324
120626.942
-541665.3
-786965.2876
-64835.759
