-2171.21
-738.407
17404
3569.97
6295.22
5458.72
6201.82
1100.96
5795.47
-11780.4
2863.44
-816.232
-5619.11
-770.896
116.71
-5765.34
-3298.59
1482.65
10243.6
21184.4
-2976.03
22085.9
20892.6
4655.6
3947.52
172.419
4747.48
-16595.8
-3570.36
6488.16
-1952.97
1615.85
4610.18
8839.42
27393.2
5454.66
2605.42
12339.4
19011.7
13119.2
4581.59
-1843.08
2912.61
-3462.39
-2106.46
-3066.92
-5979.18
1247.34
213.935
-1790.97
5181.18
-615.846
-507.995
2618.54
561.509
8501.28
1100.88
4218.35
-5031.88
-993.312
5168.17
5784.85
7009.34
-1958.23
1999.46
-561.882
-35.2179
520.209
-340.152
619.848
-2741.11
653.132
18908.1
305.608
-11163.4
1160.5
2680.01
-5341.09
-2169.29
12563.3
2135.18
-9942.3
13386.2
-1784.76
3691.99
-15537
5414.64
32630.5
4827.1
6748.83
-6687.29
1804.72
31422.6
10586.2
7336.76
2379.58
-1213.86
203.338
3937.23
-4056.34
-5177.68
1279.61
4743.01
11934.3
9810.35
-3567.83
471.919
13433.9
-500.786
-4559.32
6667.08
-4020.77
7235.13
-1962.96
-2249.78
15259.2
4040.1
-7374.52
-8250.22
-10729.7
5649.78
5770.63
-2330.43
-2462.43
11494.4
1621.6
-2337.87
-8694.52
17231.6
-330.503
2464.33
-1143.66
-8454.29
1379.84
2622.49
215.121
-9624.67
4664.17
-321.616
-7291.09
3246.53
-6171.52
13904.1
-1951.62
-1204
-2337.97
20760.2
7233.39
-6755.13
-646.768
-2776.02
4759.82
3056.53
12167.6
-3199.03
6383.39
5192.88
2072.28
-9754.18
10925.6
-9007.21
742.034
-4845.5
4225.38
14046.3
-12838.8
8321.7
-1647.42
1589.34
-2409.01
23572.3
14845.4
-1120.33
-599.416
1653.77
4547.15
8287.75
5546.29
-3529.29
4269.55
3147.86
-280.406
4612.45
7025.61
-9683
-1364.8
-9058.09
-7461.94
661.12
3920.87
10712.2
-428.651
12297.8
-9645.82
-1318.05
-1324.31
1965.31
11706.9
5299.5
7844.33
-3450.68
10017.8
7183.33
4694.23
2432.5
-9075.89
10407.9
3323.86
4363.62
9864.75
-5679.57
-1610.67
9998.53
-8082.63
509.266
-757.952
1376.68
-9089.61
11271.6
-2917.37
-95.017
207.555
-2755.51
1748.22
13307.1
-5940.87
8310.14
2434.99
9540.57
2134.28
3058.63
1565.79
615.314
-3607.07
-6544.11
3570.14
-6279.72
-432.188
291.371
19505.5
6105.75
9528.55
4645.7
8091.19
-11602.4
-1851.25
10423.7
3734.98
3109.65
-4382.44
-7587.61
-10874.2
-4137.99
8317.94
475.79
346.946
2753.95
1700.65
-4495.55
31571.9
-10796.8
-3422.69
461.63
-11051.7
6701.18
2787.22
2695.79
5769.42
4448.73
-5519.3
17300.8
-468.256
2976.12
-14352
-2039.08
25373.6
-7310.15
12897.5
-1590.94
-2443.35
4493.9
995.868
2407.81
1277.83
-3082.46
6660.45
1707.01
2995.83
8046.03
1388.72
11194.9
40740.9
1905.51
8384.54
2111.63
2232.33
963.59
-2058.77
-874.041
12844.7
-11074.7
2392.38
-3740.86
730.584
-16466
3382.02
-2619.31
1471.65
2580.88
5061.42
1487.17
16532
-2933.47
4332.91
2050.52
11776
2048.72
12139.5
-1028.79
5986.49
-9560.42
9827.01
-8396.42
19275.9
11118.1
1044.15
-7017.2
2002.9
-1237.79
-3708.46
29559.7
1340.68
2100.48
-3587.75
4880.48
2958.34
-16232.3
-7521.66
7906.29
1736.18
15074.5
-2257.27
19404.8
8863.25
10776.9
-520.329
-3163.62
-8167.01
-4731.66
13116.7
13284.9
72.5144
1648.04
7076.62
13564.2
3716.4
-4996.62
-2020.45
-21177.5
-1083.17
554.428
3968.57
101.164
53.3713
4154.79
1641.93
10678.6
6667.19
3155.58
5208.11
20200.4
-2553.11
-1785.24
14987.2
-1724.58
404.724
3784.25
4901.48
-3674.35
1785.72
1381.57
-9112.55
161.785
-1134.17
-3755.15
10875.1
-2287.63
-6721.52
8178.65
1766.35
5796.12
4995.31
5271.47
7394.49
13424.8
-1901.28
7224.23
5634.76
11190.6
-1031.9
1468.06
11664.4
249.312
-8658.27
-5259.1
3543.23
6566.16
877.526
5864.3
761.349
5984.43
3210.28
-10817.1
-6467.24
-422.866
1976.8
4194.67
5915.5
-1855.51
1924.88
3834.16
23586.8
-1557.49
4961.5
7.73201
3696.51
-938.657
-10890.7
934.562
-9864.61
-7962.2
783.203
2949.97
8360.81
24122.4
8247.12
6381.04
-8621.24
4008.25
-613.083
-1288.35
-466.012
-848.314
-3486.36
-1449.93
-5683.34
-4256
6425.39
3640.39
3603.86
4348.77
-1647.49
-5907.17
-11582.4
-2050.75
3312.82
997.388
-4311.53
3836.18
-3777.6
-1092.85
19.2133
2113.27
7541.88
-3112.44
5214.56
-1973.84
248.728
4335.95
3502.64
-3263.89
17844.3
14581.4
12133.7
17898.9
3970.7
5064.57
-4308.12
-9136.32
130.856
-6628.19
3648.31
2157.71
-1176.16
-9753.56
3559.5
3799.72
-2184.93
-3495.48
1572.07
11787
1536.7
-7351.45
5165.58
110.33
16737.9
2380.98
-11139.7
285.839
3222.69
