-2618.7701
4159.553
14566.5281
-4087.510217
-13129.077
56179.661
72085.65
14138.703
-4812.305
6746.5611
-7000.1673
-19370.518
4707.21
20075.523
-14990.292
28262.8
20169.498
28168.967
8883.28
-9098.564
-4507.5979
-3740.4566
11956.9969
25718.434
-17419.806
-878.434
-1302.411
-7020.6826
-2501.0765
-2243.8335
-2684.06527
4193.1003
5026.8323
-6856.216
1300.22152
6676.7204
13412.976
15865.339
3763.019
-3564.9661
18729.7036
27013.23
17251.8996
41335.9145
41441.67
-753.8528
356.9233
10749.324
-7095.65222
1939.8989
67134.36
40792.207
-11789.136
2792.701
1475.1891
847.8381
-46457.296
3712.328
13953.28
3236.57872
-26363.49
16045.987
7684.5535
-2652.469
14894.206
-6227.1947
-8811.5195
-4269.011
-9929.468
20549.212
30879.01
17422.16671
-9389.477
-681.45826
-4685.133
-22739.1213
-10896.715
6306.798
43838.15
79716.79
43699.07
30490.773
2935.03695
11195.817
-6280.6717
-8073.042
-2186.8869
164.294
958.428
474.3603
-2712.5665
6608.927
3435.8522
5163.5036
9758.112
-2567.6022
7335.3316
-8834.695
8959.114
7452.0876
18728.936
39210.28
42847.58
12046.0039
2712.497
1068.7687
13839.883
-3690.6521
1516.2315
5940.9191
-6901.2205
-6503.554
6295.1609
489.7572
1260.51956
-1535.69141
11297.396
1286.19559
30103.186
-18619.031
19135.841
19579.47
15337.1892
8462.2372
15425.048
7025.9243
46867.0
36278.76
-15317.7046
5055.9134
-374.085
2874.616
3104.077
17674.022
30152.412
3942.3231
1996.9155
-18941.0363
-10607.8355
-5022.829
2162.923
243.657
-6397.98321
-2279.384
-4207.5189
33754.0
27012.833
9014.7645
-10644.539
-5031.112
297.7852
673.0256
-8688.882221
-29553.535
18505.08
3039.9444
-1811.853
32476.4604
24457.332
-3323.2631
-1695.213
-407.3272
14789.86
30058.223
20784.82
12682.226
23786.713
34620.753
1817.5768
3355.565
2151.088
-2630.1344
-4541.184
7620.229
-3301.067
-4788.10065
56.2751
21903.262
46464.35
65018.75
61856.43
41379.4
12651.99
17660.723
2085.5379
-50318.21
2493.2519
6450.7612
1494.7767
-4269.2012
-6921.6974
-1807.6658
8878.648
4653.57658
18258.049
-6139.5255
-8007.945
-4547.0734
21334.891
39880.794
12727.64
-3741.6588
4972.945
-4914.977
-10956.12534
-8418.441
11298.7935
33151.44
57225.92
10731.6526
21305.771
17573.154
14174.99001
-2067.3193
17280.521
-2670.582
-947.8544
12171.389
9823.723
482.4651
-14927.0284
13740.588
3305.6691
65518.957
130268.1
39693.69
61078.84
12754.282
23824.5743
72173.42
18341.637
18169.212
16287.689
4883.2169
6141.77625
118.3804
-13547.7879
-4130.1143
7876.0942
46672.01
24925.175
-5254.95
-18518.484
-17679.871
628.5975
3355.4667
-1721.461
-8036.046
-2823.689
6711.4165
9544.557609
34853.6
945.9092
-7093.79711
934.3861
-3674.3503
-409.9034
-3960.46061
-8077.864
-11976.3799
9796.3297
7478.52
-12706.556
-6321.90797
-10489.9539
-1819.166
-9305.798
-2707.15
-9211.943
-5969.3868
5466.335
-13943.008
-8656.127
-393.0669
-2570.5011
6568.049
32566.299
17760.9361
3945.31
18135.7322
21882.723
6959.72168
-5107.907
46378.0
32088.55
10748.1268
5231.1037
2596.793
-20452.1257
-3597.62886
-5244.5768
5199.488
14919.452
9271.1137
9017.8774
-2778.889
-1934.5072
2761.8608
7874.5769
3989.838
6499.5086
537.4581
-318.399
-14.8144
-6250.737
-4698.5503
-6119.7791
-4820.15
4500.718
-3660.4592
-7068.7069
-4769.2883
8286.907
-3917.6092
-9462.25369
-9967.626
15366.29308
11983.894
15434.824
3196.6571
-5559.65753
-657.8708
22443.551
646.802
-5266.158
-4396.855
-1589.791
9672.1089
127.1006
-8984.6615
-10723.4227
4784.7514
6514.825
8813.523
2014.596
23208.831
58675.92
5935.9207
-2105.3821
-17532.014
-2303.685
8474.6583
6156.0748
-6791.048
13311.889
1175.635
-11806.396
-15352.132
1659.075
-2293.2366
-471.9363
-4114.445
2833.52
-7731.6985
-15121.109
3269.088
4607.038
34168.0142
34180.63
-763.3061
2192.7174
-3362.024
22677.02
5447.2494
41793.091
28950.353
2926.0553
-307.7
21949.844
-8155.987
-10940.003
4316.1679
17941.714
-5008.4061
-11067.302
-791.376
-393.0856
3014.0599
-2962.8827
-8581.085
7865.516
3135.958
18029.308
23625.21
23522.085
21843.2565
5684.666
1335.4437
424.5262
-3079.8773
1167.0383
-7656.7893
-11491.801
2246.5281
6237.002
-1815.5197
-8627.563
2882.599
13935.254
-11794.316
-12980.2633
3048.8
1154.5286
5308.6379
18709.239
14303.231
12996.3607
1602.66397
10369.69253
40060.69
23671.75
47373.129
14107.81
3145.946
668.64531
-514.6894
15581.9089
-108.72204
1182.8005
-3859.3572
4479.9618
1389.17
14469.52594
26952.74
10704.4833
2819.5076
-1417.7169
6521.1599
18448.518
795.8209
2310.0978
8517.9313
15334.035
26826.06408
2360.339
-6750.027
19500.088
479.456
1884.2468
2965.281
5808.147
29193.285
17116.683
6759.258
169.6681
387.563
1239.239
-7698.207
14393.331
-10008.746
2376.2714
11956.0179
9709.012
-4657.1035
8755.486
23810.932
21965.02334
15858.293
60437.14
5104.302
-12457.2919
13654.612
4658.9206
-10817.064
-12879.14
-3646.042
-15600.29
-1717.366
-4008.6062
9209.15627
23585.912
51283.956
-3462.59
5946.0659
-2213.0046
-18486.689
-15663.076
-13244.0465
-6545.178
-2774.182
-1413.7718
-17662.014
-3349.7201
3447.2387
13522.724
-2575.671
-8472.969
-3180.743
81.74931
-689.112
-10740.986
-7048.3724
46027.81
60159.64
-978.7391
3487.099
-2523.498
-2323.281
12688.483
45940.053
2688.285
-3212.25134
4094.89495
17537.8116
86.808
-8574.964
-4386.269
-126.6746
-9263.1246
1709.08454
15177.124
-5539.8952
1816.914
-3758.067
5088.2439
-2903.78933
3177.4336
-5270.6298
-6887.1792
9019.961
2055.718
8821.8129
14648.9
23055.959
2166.7232
8906.991
18780.844
24941.17
8201.29209
19857.273
28798.33
7123.9471
-3864.43753
-2733.3799
-3324.4849
2549.774
1416.6557
25701.77
-263.939
-1241.6344
-1847.1512
-7996.511
-2379.8118
-4097.0865
11856.227
11072.295
-6893.8614
1377.5423
24596.603
27605.049
28356.96
34483.9
2852.1003
3106.117
-777.4539
-23202.258
-8558.976
-7134.0977
696.7119
-551.1136
-2087.9224
43283.66
56803.76
6528.219
4126.03
-6446.21
2560.83243
8370.859
834.775
899.804
-20541.958
-466.7338
-456.14227
-10964.5411
-12393.64012
6391.8226
-8428.126
-18811.528
-10929.528
-11426.895
-1922.336
6417.594
4453.3948
4349.9409
8672.913
6657.402
6744.838
7.3265
15270.968
22246.548
29013.075
17417.8616
14095.007
43794.3859
47109.92
39069.899
27856.785
25138.31
43258.636
4870.21
15234.02
42964.74
6769.178
8463.305
2349.1081
12928.075
-5714.3805
19220.5148
21140.162
47940.06
9875.517
3211.9264
-14724.984
-7760.028
12950.914
718.18585
6923.1417
77403.86
11535.1994
-12851.845
-1502.7413
-4762.5974
-9770.719
251.56339
-808.7752963
-5144.317
-3580.09
-579.301
-1636.6309
2890.0801
50116.8
68297.83
60175.3
-106.83169
1066.053
36498.93
26167.991
-6254.3103
1973.9925
14151.9596
33034.09
-4113.0749
-12881.9939
1453.1263
755.733
4818.665
11626.5398
21862.31
41995.61
4788.9473
-1808.3589
31832.924
49656.23
-2607.725
9038.3775
-9386.609
-1777.4317
-2771.6209
26335.742
43135.71
20917.351
6761.9813
-4972.6217
-6397.9325
7447.90497
15805.277
20643.49
5298.662
8053.757
-6986.71336
294.2931
-7919.7822
25183.38
-7043.2278
-600.2407
-3542.357
-9275.14
-23686.472
-21359.007
-5457.494
-15765.976
-6997.87
6946.8622
-1692.578
-3214.5797
3623.6253
-2596.0463
-1007.9252
-675.8265
20807.647
10019.431
-9187.853
5668.83814
6485.397
9070.2552
-6524.1112
2325.6941
-5313.4143
7411.0487
1971.35
-5790.2644
-3693.1085
3034.9087
-3842.475
-6456.5326
-3105.3697
20456.103
37090.681
-4528.7311
9757.062
13414.975
35152.581
10088.551
21420.061
3363.2002
2994.0352
11776.454
15785.7909
8602.0262
63674.86
55184.42
14813.896
3736.32445
91.27417
2005.8469
-95.54136
-80.7405
3886.6439
27114.886
-2087.3615
-1683.243
-7021.7359
-4209.9587
656.1593
-2873.4478
9133.0779
33873.673
-2983.7896
-7673.2101
-1309.7364
-9763.356659
6394.7774
12356.918
12752.539
9860.6258
31183.16
36326.42
219.43
-330.65366
10528.619
24608.046
-3922.17
-11627.909
3877.0029
19918.981
-1437.5006
-512.797
8903.6898
17566.8532
-5679.0833
-35.5802
9427.4516
21.6945
-7368.5954
4650.2508
-5000.2311
1573.155
7237.392
26334.725
13288.3763
11810.41
6774.409
-1091.962
9742.712
-3209.3926
13559.731
-9426.813
11915.264
46302.99
1586.9088
14308.923
-5739.74
-7109.995
20025.859
-7324.3417
1166.95068
1891.18871
-13700.795
5293.3927
-2999.131
-7415.7681
9443.8979
6607.026
4900.6847
-482.7407
-2783.115
3959.961
15256.005
6717.3478
2957.387
29093.362
-3610.58987
-8754.974
1592.6308
18825.942
2489.0157
-5367.2276
611.642
-3473.357
-9492.828
12835.5863
-2235.82
1053.8323
1338.0753
22938.891
46119.18
52831.49
58219.57
46842.75
3805.9054
874.143
-3533.7095
-10304.81632
-17768.767
15036.5965
11601.8196
10617.199
28436.61
-1177.143
-14027.5342
4578.374
10401.8971
3270.378
-4317.904
-277.856
32465.877
22754.551
6324.1948
-12459.532
-2827.1688
-8375.0099
1141.176
8158.255
-578.911
27632.54
13166.1243
2189.5171
-8858.925
8222.107
5037.981
29873.573
1674.9974
-388.87879
7901.509
-13714.775
6976.8138
18579.27
93737.88
77601.13
-1848.1354
-1161.319
1058.7634
1002.134
5227.6601
24434.01
38681.17
15971.726
-6076.603
-10735.766
5619.643
593.86044
-2555.27
-22431.3693
3659.8193
2615.059
3887.4481
3262.6542
423.52196
6476.496
-7957.196
5752.9564
-18146.87
-2776.7248
-2354.0986
-2121.33
-3049.27625
3684.755
-11241.749
12669.814
2537.0272
6930.115
8052.571
18201.349
-5082.5387
4345.041
22057.9231
18846.792
11508.2613
4313.2065
-124.4884
-7503.9422
21037.452
36302.75
2536.8326
3406.56075
145.578
8532.3782
-19249.2968
978.212
8001.932
14744.67211
5936.8886
-2001.9906
-3657.6492
160.444
-2595.947
-6263.501
-16497.6833
149.551
-3839.987
2307.947
30499.69811
24997.178
10844.377
-2250.459
-4526.5654
-3765.821
-4248.879
8083.463
-4126.223
17772.328
1106.4321
2754.1236
885.3924
7249.62
4637.751
29976.87
-986.456
5513.99
619.7644
2179.665
-4869.8171
17014.635
18345.42
10140.633
-8045.70424
7039.275
-5139.547
-2346.06
5272.34643
18275.253
-4670.641
23654.084
-1556.6462
8150.572
-423.508
16529.0785
-9086.142
-11058.6573
1756.14688
1088.5076
-3740.5834
-4958.4906
-1457.47732
-4569.054
10274.26951
9213.7432
-18659.869
-15074.3966
1828.5009
-4011.2382
10919.2188
56474.17
102293.51
95454.38
28520.27
901.1316
908.10387
-3212.4008
-3109.298
-1073.1567
-11011.537
-233.791
-2703.3301
-1921.717
283.675
-3844.649
-2065.18511
-2721.708
-8954.644
8960.492
645.611
2208.1671
-10087.638
537.039
15425.414
-10.602
4585.1063
14383.331
-5516.371
