-204.1422
5338.6367
15600.943
-994.3802
5866.91407
60343.098
72815.14
15167.433
-926.5097
12211.9402
2088.2495
2452.9951
7455.055
24369.122
395.16895
27881.64
27256.2
19073.2929
13285.449
8796.687
12138.2763
486.01
12514.0362
30188.587
3227.09675
9297.3557
-5706.958
-542.9089
-208.1378
-360.698
-2389.1802
5975.154
8556.5845
-200.2792
804.1126
5646.3885
20196.343
7112.46451
4293.3906
-855.46256
22245.15462
29849.39
49750.55
53373.01
46682.32
400.1083
-61.4045
9950.999
3153.353
7431.2903
73779.71
60852.27
8812.8316
6814.0469
1776.8738
-4779.2461
1081.288
13049.805
29851.46
10159.1768
-1010.26098
21086.1552
10769.4871
-139.8127
13131.56166
3832.2579
1576.3878
-2686.61781
648.0896
28989.33
35878.95
31954.482
6949.2295
7884.9376
1156.8249
6487.1292
14503.13
12236.3077
52227.82
91167.9
42095.24
33715.172
-2904.33
11120.5756
-1330.4666
-32.0142
-239.9589
3188.74671
-2843.5583
2739.919
597.9319
10797.268
4955.237
-399.9097
19740.9254
4325.4811
12749.622
4632.7403
11947.197
17052.665
25317.79
64020.47
44282.69
9567.745
4509.72907
3604.1684
11809.032
167.9958
7459.9057
-3103.4942
2311.9141
-1771.5579
6201.69033
2836.3237
-2064.2336
-383.7665
8650.8408
1812.321
37254.822
6309.4029
20376.96
22410.5578
9676.6564
5290.1975
17890.788
10011.85607
49619.43
38276.807
1622.4257
5032.3518
-877.11657
8374.748
9544.164
25549.29
36920.68
7690.0612
2757.36822
-3027.006
-659.376
-502.87458
1590.88
3376.5809
4807.0038
-720.915
170.479
34195.4
35183.8
11790.544
2540.2805
-1243.9123
-502.7157
-479.548
2491.1173
-291.7144
18028.114
-1524.7866
2496.3507
41780.77
31444.476
1383.0086
-1644.86671
4784.8296
22136.021
32619.832
23580.111
14668.92
30506.34
39348.25
3465.9245
11290.944
3175.5313
-85.53
-4181.63638
9401.9016
241.4079
-3183.7367
-5033.599
17794.6047
42139.98
70699.61
55303.5
40843.03
14219.801
18503.334
1695.6722
5037.4051
7739.8151
4636.8531
2714.78295
-4919.5638
284.5411
43.9266
24131.1
4954.001
14692.2188
812.127
2009.0774
12745.968
22615.37
42361.29
12659.23
1063.584
5562.2448
5198.29628
1722.118
533.48785
9251.71478
31788.86
55195.45
21723.562
28947.63
21816.052
18742.143
-581.8458
13569.828
9407.5616
9496.5249
9802.311
17386.09
4526.3753
852.9916
18992.015
7387.1047
66580.03
127618.67
40256.79
64203.08
45952.02
38455.41
75908.72
14600.747
20425.64
12239.147
2205.7436
-1813.35068
4387.7032
-439.36806
-919.7616
5201.0487
42846.43
27342.827
9587.113
89.6665
2471.993
2068.6161
1782.574
347.6997
5397.505
4308.7383
3911.8914
5150.27153
29573.2782
3276.27254
-1440.205
-2621.3162
-10.848
-3260.90155
1444.00289
2766.90633
325.2284
12660.509
3824.6644
3998.01
-3208.9111
1428.0722
5301.4649
4886.5481
6120.0902
14669.241
7192.6497
12313.7376
8426.3086
2944.75187
-2630.8038
-537.2978
2793.571
38419.55
23511.6697
8770.588
17666.549
23731.365
15085.2553
6198.278
48946.38
38666.74
4549.2825
9858.765
4455.989
7384.1459
1235.53474
2505.2827
-4417.1206
21088.589
8200.7742
14888.376
9047.5894
-666.628
1818.972
5404.116
6382.665
8074.00055
847.90019
-2618.217
-1526.5665
1671.2164
2549.6084
-1446.3517
-5193.231555
1965.7833
55.9982
359.83456
-396.4687
8892.2252
2659.0177
6589.555
6464.979
21802.375
17185.85
19105.504
17506.514
-872.0067
2450.26596
25880.746
8755.49
701.127
-2873.3349
-996.5598
17980.463
10439.5972
2530.513
532.1847
6604.8904
7419.262
1872.1084
-166.5013
33527.1114
57076.89
9683.9547
482.2864
1008.3002
-1741.1982
6816.14957
13484.5064
4872.2281
10116.4624
496.10498
1015.5093
692.35207
4206.6437
2835.34735
-2891.60701
3323.8984
3225.0302
2990.054
-118.9568
2346.5916
9005.795
34955.6
38035.64
9401.3334
-624.64016
5841.8894
23880.93
6128.134
55301.606
34095.9
1398.4873
3843.1398
34392.61
7772.5128
-1284.15386
7048.3285
21233.279
1134.60881
1238.2668
-501.4547
-31.6526
6461.0299
1203.2106
5578.6039
9581.8497
-3402.3445
18062.656
29568.09
30183.51
20517.094
6840.5364
2892.2373
-134.6678
6378.2067
2871.6928
-291.1523
950.7476
3574.46112
4698.1126
1559.858
-1391.3538
3885.006
9207.154
-133.679
2358.84362
898.9599
1858.078
21128.076
22268.7814
18353.1991
4061.2214
-883.85727
-1103.676
44630.89
35531.44
47790.124
13654.751
3315.54741
321.9657
2075.9833
11691.2555
615.8712
-4452.6452
1443.8232
4705.6152
23388.853
17297.738
40145.03
12603.6125
3463.5367
1142.858
7420.589
19238.816
1177.0757
-634.808
9161.2233
21121.823
31579.477
314.8479
1481.785
19297.16
19958.809
7938.5489
7723.47109
8388.2993
29961.2
29466.08
15617.84
3681.7907
6345.848
2316.94
-1489.3649
15179.346
6795.1472
9395.205
9992.292
14553.3614
-521.07806
2186.737
26286.761
25672.6637
26896.725
59315.02
7263.733464
441.748
9379.692
2997.2017
10047.804
3308.4668
6841.775
-822.3271
-1037.1932
6217.3012
8316.383
24560.774
58603.98
21847.932
7349.0256
2018.9244
2060.7996
15317.56239
942.8135
-1131.4629
-1760.964
-403.888
2238.3771
4137.6272
1348.83101
13248.445
1918.78377
949.542
3109.832
-3948.5547
5816.2519
16660.13
9399.087
44360.76
62988.47
3761.2287
-5034.7403
1604.53671
-404.321704
15409.18
51267.8
7718.155
4512.307082
10533.56081
14850.971
3474.9651
6103.458
3147.223
2833.22706
1066.231
4903.491
15626.0956
2664.9012
3563.489
2030.2227
-673.7988
-533.3986
660.75765
4146.334
-21.90345
23106.4
4942.2647
11792.025
18359.308
27793.392
14176.729
8891.439
23698.16
24099.9353
3302.0589
18284.909
19821.328
9663.86822
618.5672
1050.8904
3130.0724
7684.8065
3986.5603
18806.334
6167.0616
-2238.8156
-179.1457
602.8912
139.5459
351.365
12196.396
10999.729
-1106.2292
-3244.2127
24735.646
28163.81
28878.44
33572.65
5417.2052
-813.7496
2637.1644
4498.8934
9222.318
-1913.99973
-3809.4766
-948.8435
-258.76499
51148.9
61448.78
7087.785
2236.7329
1054.8836
5594.742
8865.942
16633.138
10049.593
3361.0161
1610.0713
-27.0799
3707.891
12436.9458
6281.6212
5841.902
2754.0531
-3565.5512
-988.07978
2361.52279
762.55
6992.7483
-238.08145
10284.58711
13764.2861
7730.8269
-1143.0036
19200.718
27046.88
17919.727
15060.702
27302.58
46053.44
46065.14
43158.18
26998.875
33191.44
57554.13
9348.489
11030.764
46493.75
12366.04322
11079.6257
1936.419964
7957.95026
1464.30682
21860.891
20048.552
58324.27
5775.567
-511.58428
867.9221
-1569.79286
10407.9838
1672.0274
4906.8442
78046.82
21205.746
3645.0672
4057.8346
5945.0755
10593.765
599.0495
9026.935
4030.93903
2259.3983
2514.6631
-494.3125
6087.523
54479.17
69505.83
62128.08
17993.803
-577.1785
40314.971
28246.521
220.7747
2718.982
25889.167
31144.12
8920.183
1603.4181
-683.683
5932.5495
7685.805
12453.236
17886.1
44155.06
9545.745
3531.1549
31138.703
57112.71
8068.255
7315.8461
-1144.6002
5421.1433
370.4396
39493.13
47816.15
20224.0192
8788.5518
429.5089
1676.81084
11124.832
8862.1238
22083.086
5764.764
7385.3995
-2441.7498
8615.88135
5729.3413
30724.01
4341.3534
-2636.871
2000.8641
1438.9398
5657.4961
4189.79139
6592.0159
871.0699
4640.59899
3533.4802
-1145.6059
-2328.8161
1506.67872
2488.4434
199.756
-2408.607
19785.836
13232.651
7580.2197
8023.8238
12685.7447
-2533.7257
2208.87162
4597.0051
3644.8782
8490.737
6470.0692
1875.9071
-1839.2656
-2907.94
378.0489
105.4786
-1704.2216
19281.085
59482.52
10300.8599
15059.0823
11754.858
40020.44
13221.187
24215.333
-2822.6017
-942.2444
13357.8583
17347.456
2676.931265
77183.61
56248.06
21625.3308
10079.3143
-1333.4774
1632.553
-773.7362
-863.5077
7102.6816
24894.292
188.2425
322.474
682.17311
-2713.2048
40.7331
2245.86779
8911.97383
30510.916
1812.17167
770.1526
-361.24212
850.4466
9228.2163
12914.19
20318.618
3741.2611
29805.936
34397.77
15818.3028
1416.1767
14167.872
26331.16
3285.792
-1920.34024
4667.32633
13439.267
1252.748
-4404.3351
7915.325
20986.036
413.24226
5520.3213
6608.563
3333.0013
5537.174
8201.288696
-2642.9874
1491.94165
14486.859
21903.92
13142.1772
18020.183
3551.3579
4329.7643
6006.898
3299.1846
-325.745
312.535682
13073.0349
51842.512
1832.5466
16471.466
14204.217
20009.0213
26564.195
1853.453
1844.4716
-160.386
1977.12428
1615.7116
5296.8392
1421.12665
8387.5947
6471.97
1379.0912
-476.93104
-1326.0809
10260.1595
18055.267
-2847.5542
7692.793
27759.634
45.76544
2947.262
7060.2345
11760.478
5302.9612
6465.57032
513.24486
1284.77008
7306.2739
13415.487
2359.8467
2606.0618
1618.5915
42343.98
53016.93
51012.97
62978.84
48865.21
4186.2218
7812.0512
3295.39118
1294.92
1097.8059
14116.97118
15519.239
16068.829
27870.849
2165.1459
1027.7603
8741.613
9975.914
7751.000674
-1207.4519
-574.6
30734.27
29333.99
3870.9961
834.4185
1292.6526
4085.0938
1020.3269
12871.8593
12839.664
25739.649
11847.8803
1079.8443
814.7768
14968.67225
9199.2387
29054.383
3350.78171
5986.5329
4241.07817
-821.0082
4223.6862
20912.891
91355.4
82666.89
25284.7106
-1523.71696
306.532
5540.2221
7092.4048
22701.438
43955.2
16795.221
4937.537
1274.85349
6038.23045
4396.3854
8361.38
962.0282
6952.674
15836.27423
11336.414
6185.4469
-1112.3031
4799.7737
5059.7032
16578.451
-1007.8358
1191.7645
-2974.82412
5955.821
319.8869
1819.967
-595.16594
16541.0704
-1837.43231
310.229
7703.198
17053.4123
7648.92226
15911.736
22866.167
18060.745
9666.968
3160.883696
1519.38848
-1271.9421
25149.40115
41238.09
-785.0095
1486.5337
3766.142
6549.6086
1824.7488
6571.5739
7977.52688
13435.4722
4337.9954074
-278.86417
1201.5843
3081.2353
1880.1826
2129.7892
1055.8433
3450.028
1125.6714
13209.2226
29686.1641
26865.95
15823.03
2938.11
2381.2544
-1372.028
3673.38724
2743.0366
6438.5113
24906.981558
289.81672
-5483.7297
-2879.73012
6755.0687
638.4908
25115.0828
943.425
4030.86
-3101.2053
-2775.915
-1971.80207
18292.502
25454.96
14086.3838
2560.7862
9945.482
1583.5458
4115.1593
11356.7526
13022.08
8637.2004
23020.687
5922.95923
11300.8509
18242.437
16412.2832
-570.4735
-1031.392
2294.5479
-744.9413
-656.6031
-1196.3675
-1467.91892
-848.62705
7556.646
10738.49794
1118.5835
1038.7792
4687.1047
4028.0909
15839.715
57761.13
103096.76
96761.94
34236.88
2304.062
3176.8342
1752.179504
-4693.3355
-2448.3194
743.380488
-1154.5818
5292.3121
14587.9534
828.1354
1275.5144
2854.4065
-1603.4308
1648.7953
5698.749
2976.4819
-1202.0476
-28.6495
3009.7909
19865.868
-1227.4362
3782.906997
26842.328
4799.3791
