-89.38467
5892.767
14605.563
-2380.8652
-4292.461207
59244.784
70763.38
13647.396
-2592.124
7496.531
-4660.0
-8051.4633
5741.362126
21543.771
-9233.809
26987.85
23918.423
20035.916
10355.7853
-1759.034
1496.964
-4180.6045
10927.0992
28576.781
-6620.3348
3112.642
-3852.74665
-4682.9281
-780.9434
-4215.518
-4045.1908
4021.1624
8372.3941
-3585.4584
526.52763
7619.3025
17305.286
9192.77633
4588.81662
-1485.109
21656.2729
31146.14
30861.29
47542.09
43657.105
-1795.7635
-759.25277
10122.597
-1593.753
6029.856
71311.6
49125.99
-3341.4214
3958.5936
-1001.2153
-6104.5506
-26033.341
7334.865
20450.177
6119.602
-14361.852
18010.901
6517.566
-458.762
12732.085
-1728.748
-5593.1595
-4583.9836
-2767.2575
26810.4
30661.939
25352.405
-848.584
4136.5641
-4252.8799
-11266.363
1463.7578
8913.9737
49518.04
85549.78
42242.37
32801.656
-725.40796
10980.8061
-4120.438
-4637.476
-1661.2692
1589.51309
-3536.5669
1121.8022
-475.7718
7027.362
4024.72128
-1606.359
15610.682
286.663
11081.6062
-3786.1549
12314.4884
9845.858
21968.4443
49556.8
42591.33
9069.046
3046.1287
2351.7566
12575.112
-2724.2899
3845.1046
-2930.6604
-5043.7719
-7933.8445
7119.5978
2675.2435
-948.7002
-2159.4681
9429.2734
2391.64442
33527.748
-5546.127
19824.927
21080.234
12075.6614
5945.1661
16263.9662
9945.066
47873.62
37000.78
-9634.3199
3382.1675
-1550.8345
3100.6477
5973.896
22776.713
31918.275
4944.87
801.81
-13246.71
-6786.594
-3345.9943
1451.43722
1987.5428
-650.0464
-575.93501
-726.0453
34754.56
29918.9
9521.8858
-5344.469
-1932.0927
87.3055
-791.746
-4165.469
-18861.6968
15464.52
312.3406
314.19204
35089.3333
27557.861
-685.4799
-601.2728
2622.6148
16267.109
29517.567
21197.305
12204.455
27476.237
36597.069
5055.263
5670.4368
1698.8298
-2706.76128
-6224.31
8104.5373
-3702.6807
-4338.73823
-949.024
20131.597013
42338.81
67501.66
58134.52
41124.04
13453.5827
16194.616
1859.0192
-25733.72
5439.907
5547.3341
2667.6711
-6394.7131
-1045.9323
-1964.66
13770.8735
3073.3136
15864.779
-774.1318
-3940.209
5299.683
20711.153
41803.33
13034.041
-2233.9525
6122.1842
-456.3847
-5934.683
-3300.2254
7399.7141
30666.01
56402.72
14982.959
26027.566
21752.881
13638.299
251.37311
14596.085
4347.0956
4559.671
8986.825
15481.5692
3056.8177
-8776.58
14433.349
4322.691
66106.5
130494.36
39296.57
61759.49
26785.2558
28888.691
74721.95
14795.5028
17854.92
13850.736
2638.63753
1199.1996
1741.977
-7433.8491
-5220.9851
6687.8679
45404.95
26355.788
327.632
-10717.00099
-7823.81
457.1428
2022.1415
-1431.14667
-2060.8022
1021.3171
5331.91855
7342.2203
30674.206
3249.787
-6023.627
-2493.87653
-3610.8955
-5104.0274
-3025.2894
-5522.6745
-5897.692
10349.049
2412.627
-6671.9099
-4523.911
-5625.40321
2089.111
-2836.1574
1713.8583
2623.741
98.2999
8897.1535
-1912.002
-3106.726
-2453.69684
-831.7003
1522.37282
35866.17
20805.9993
6336.86
17235.506
23615.194
9120.694
-26.2786
50538.31
34534.528
6045.024
7633.404
3214.3678
-9551.625
-873.7568
-3162.199
-783.5924
17176.161
7893.1439
12065.674
2836.833
-1933.0966
-378.6035
4978.24
4342.7343
8140.07629
912.3511
-875.580392
-2539.7718
-362.0566
-1559.2502
-5571.284
-6278.032
1477.5028
-418.089574
-3704.3915
-1992.7866
7896.1417
-234.209
-1633.35
-4612.7769
19240.176
13466.61
18438.531
8678.546
-2851.6113
2676.2482
24446.119
4289.779
-5108.804
-3039.1191
-1466.5202
15140.724
3924.2035
-4114.5727
-6696.2524
6907.9872
5775.3797
2919.861
-2239.8005
29811.13
56671.01
8005.187
-1973.69803
-8211.6122
-4237.766
7221.574
8358.0606
-1676.919
11540.913
1459.9613
-4273.052
-6632.689
3219.83013
1306.442
-3157.2518
-2036.201
2090.6521
-2779.2476
-10277.001
3731.305
7011.62
34382.391
35652.54
3382.99
-972.4776
2586.328
23421.37
6267.8
48526.445
31409.07
1187.3528
5356.7475
28655.33
-207.6635
-6570.983
5069.0034
18347.69
-1886.367
-7305.7453
-941.4344
-1430.0092
4576.1186
-264.6295
-2771.42
8568.758
-562.93351
15583.882
26243.36
26267.14
18857.487
5359.007
1414.5955
299.1129
-335.8772
450.3162
-4980.151
-4243.30739
2418.9958
4048.8164
41.439
-5437.9155
3141.366
8467.185
-8939.5875
-6318.0897
3281.833628
365.8787
13128.2707
20138.677
15415.3911
6386.1525
-668.0817
4973.4761
40238.83
25906.74
46313.665
13955.693
2886.1823
210.94535
648.2413
11542.577
149.8953
-4824.718
197.493
4253.4188
11245.1797
14699.454
34763.07
10498.444
3293.28621
-1296.438
7521.384
18492.212
4321.5974
-1934.1399
9579.411
18833.238
29245.861
197.2652
-4667.588
18727.86
8040.056
3325.447
5403.008
6018.546
28598.452
23377.902
9571.186
3997.921
2863.26984
-493.0551
-4152.7735
16289.791
-3223.5893
4980.286
10347.193
10273.6142
-2551.206
4025.191
26037.548
24069.6095
19500.021
60766.36
6372.695
-6992.103
11540.2588
3889.67396
-1031.6533
-4545.59355
2503.8791
-10411.815
-2938.60147
-874.5655
9143.4332
23321.194
56794.02
9071.357
5281.6367
392.57
-9981.1978
-3163.496
-6564.2916
-4736.8332
-4169.411
71.8409
-8078.136
1017.8811
2485.2092
15787.052
1357.8068
-4975.1066
-344.1334
-1320.9189
3141.0909
1723.976
-1180.236
45370.11
60469.77
1109.74532
-3722.1232
-1298.2735
-1896.6596
14047.075
49052.66
2590.76668
1254.1931
6744.894
15428.951
2114.6617
-2910.776
-1055.919
4207.763
-4024.5611
503.8504
15737.18
-4494.333
1193.906
-1525.3826
202.31708
-2607.347
3327.3143
-1424.1046
-4781.7113
16143.75
3120.4415
11168.6277
15635.617
24803.82
7405.456
8661.48053
20885.993
22206.156
2678.52113
17462.2657
23561.49
8536.5378
-1395.2249
-2419.8364
-1454.156
6880.143
4730.1691
19582.97
3565.989
-4589.7897
-3540.5649
-4306.137
358.7588
-1259.874
11982.709
10281.1219
-3927.2933
-2263.4706
23487.958
29670.96
28475.2
33396.58
4645.251
-1896.094
3395.572
-9784.287
26.1191
-7244.0579
-4094.3778
-2021.8897
-1188.4601
46231.37
58434.61
8541.3163
647.281
-2392.06
4064.33
7422.9516
6321.1982
3718.7139
-8691.976
208.09892
-519.0609
-3631.3914
-2863.1191
5752.7088
-3830.7285
-9645.875
-5909.507
-7048.898
190.40143
3984.2556
5424.4296
249.0764
9729.318
10067.924
7093.787
-1541.2607
16007.6877
25073.311
20374.8899
14782.7172
18111.785
45076.538
45321.4
42184.713
26099.923
28931.07
47583.393
5198.089
10985.146
46294.78
9060.779
9779.544
5691.252
9038.9784
-2388.0429
20661.335
19517.187
50834.331
4715.24
881.37747
-8120.8514
-6394.1185
10681.859
1636.2679
4914.427
77236.39
12697.445
-6336.157
306.6656
-494.9386
-1082.9772
171.3404
3089.9598
-2098.483
-419.137
1837.334
-317.59383
5005.416
52383.08
68842.67
61961.55
8213.752
439.8981
37624.1317
28792.116
-5678.9698
2062.62497
18904.361
30239.04
502.9221
-6029.2235
229.1355
5610.9132
5198.62041
10489.227
15907.403
42654.52
6671.599
279.5557
31009.478
54010.94
2918.7665
7202.065439
-4270.6916
-513.928
282.6819
33243.579
46060.94
19969.2881
6925.55
-1962.69
-999.7726
7480.37192
10876.841
22227.162
5242.9405
7909.889
-6395.209
3499.1139
928.7065
27562.87
-1047.38091
-2267.0357
1209.36
-4301.8009
-10992.341
-11595.53975
-1300.4681
-6282.8737
-1937.822
4581.96757
-1704.845
-4294.3198
1652.553
1139.6138
-687.304
-4002.1112
17721.3315
10936.064
-1974.715
5638.9791
10759.0191
2415.1758
-620.9416
2125.364
-3595.649
6267.9722
3570.7476
-601.018
-3229.634797
-1767.401
-4148.4304
-3796.121196
-3320.492
18512.022
46829.55
2338.8744
12109.934
11562.138
37065.912
13277.052
21259.929
-1894.2966
941.9603
10919.1807
14956.766
4497.93877
69132.28
53385.03
17087.673
4000.6674
-920.618
3743.8258
-241.78428
-242.8137
6415.2408
26456.728
-916.655
-2775.24
-4719.613
-5027.6462
-2252.6867
380.12691
9891.792
30823.746
-624.8726
-4603.954
-1342.7125
-5862.0413
6528.414
11286.002
15492.835
5323.89599
30328.21
33312.45
6640.638
-1472.6461
12119.69
24804.805
-84.5037
-9195.6086
2400.9169
14841.7437
-105.02
-3591.825
6673.9554
18871.3937
-4533.248
2300.1977
8340.31
2199.76643
-1469.905
6433.4734
-5467.361
2505.65757
9524.97
23133.55
12254.8057
15537.976
2079.0308
1474.9808
5772.056
-297.77571
4130.994
-6776.53
11044.276
47564.008
-145.14573
14130.12
1221.607
2815.893
22776.654
-3972.7473
1641.1391
-47.152522
-6308.5682
-864.53539
-284.744
-3423.8808
7161.4405
5282.9549
3366.1037
-2401.2242
-2536.9548
5802.8612
17832.854
-217.1882
4367.9067
29163.891
-3005.564759
-6235.694
3681.3125
13936.8088
2000.01
183.879
-1017.7812
-2204.6596
-348.016
12296.34561
385.6106
4446.372
952.9055
30763.804
49189.48
50767.94
59358.97
46630.24
941.15601
4200.2675
-1124.6578
-8944.913
-7716.3187
14315.8812
14444.2588
12749.2231
27387.18
1063.0101
-5659.597827
7024.3217
10007.3335
4860.042
-1756.1123
-2085.624
30548.554
26676.665
6320.744
-6856.202
-906.7374
-3567.10322
1372.5248
10332.436
4324.673
26038.214
13546.8157
1550.9831
-6189.396
12613.7679
6550.5855
29155.549
2746.9854
2262.814
4564.9083
-9525.3771
4739.549
21685.789
91879.92
79862.35
10444.69501
-2991.94287
-1574.0327
2890.8763
7518.12181
23640.088
41694.38
17251.085
-1683.5438
-7562.76256
5168.061
2839.376
3760.306
-14857.3577
3235.9174
7225.67
8894.597
4097.87196
1713.7117
6176.71065
-2684.142
7567.713
-8871.2864
-358.54437
-6233.2913
2136.337
-3162.55927
-142.4155
-7152.998
13953.6349
361.8683
2707.179
8156.21687
16885.8724
538.716
8819.9207
21941.345
17664.397
11611.1738
2596.048
1859.3449
-4231.45966
22704.554
38338.15
670.94
1340.0025
241.1196
5679.7886
-9204.34
911.222
5464.5692
13559.7531
3900.270239
-1530.0296
-1737.2207
537.4267
-1803.6416
-2442.128
-6063.3195
1777.549
3121.076
7318.665
28559.65
25006.31
13373.232
-76.6321
-2421.1875
-5353.8049
-2609.076
2436.5491
2520.628
20621.7579
1339.2357
-3909.9409
-1111.33248
5243.872
434.9136
24744.151
-1707.7461
2447.852
-1178.2491
-1619.3354
-4204.343
16791.564
19432.691
11918.573
-2760.5845
7120.546
-995.8091
-1026.7645
6879.40461
14826.901
560.8371
22325.822
965.5341
8134.3847
6623.774
16163.095
-5917.67556
-4377.7542
107.0265
-1263.123
-4587.893
-5343.5969
-1226.137
-4642.7208
8305.314
10439.29225
-10537.847
-8013.1882
4336.89
-1856.8986
12321.35802
56071.0
103427.7
97383.48
31218.0
1982.1515284
2310.8562
-2149.0627
-8757.27063
-2891.7701
-4661.3993
-1791.42623
-449.4084
5232.746
-1673.3463
-1774.6846
111.1123
-3243.006
-3923.788
6497.873
895.737
310.2205
-6614.004752
90.81712
15621.5812
158.4219
4828.6622
19659.767
-1613.158
