1095.02
582.227
630.534
200.718
801.936
1257.22
2870.03
1169.17
724.781
778.557
2768.59
2376.31
739.402
1967.98
2832.21
2584.27
838.048
-13.802
61.3957
7103.11
10608.3
8838.66
5081.76
2134.22
1772.5
2662.06
881.047
-63.7707
233.717
287.165
1022.1
433.343
313.896
2884.21
3766.55
2008.95
1327.5
269.87
822.566
902.068
885.741
1156.11
3800.63
950.605
1904.78
388.717
129.32
1093.15
566.393
4653.24
-236.56
809.367
1007.55
117.682
3932.14
63.4833
431.897
329.96
248.398
727.038
540.947
543.73
1509.99
4321.47
11745.1
2323.99
5695.89
8429.97
5331.06
5327.17
3884.76
661.207
1472.34
3721.87
5126.43
9678.03
17289
16657.9
9559.61
16399.2
19933.6
15447
14480.1
12173.9
12876.2
13347.3
9246.88
6061.3
14234.8
13740.5
17803.7
24077.1
11878.7
12388.7
12115.2
10909.8
18195.4
12533.7
11449.8
17346.8
27908.5
28332.2
13871.8
18017.5
16985.9
20237.9
13453.8
14504.8
3002.8
2847.14
5093.67
5232.25
9558.27
5385.75
7818.05
5084.47
10733.2
14617.6
14197.8
9127.11
18850.6
23042.8
19518.8
12939.7
16673.6
16587.1
16052
15503.6
31927.3
37957.2
15337.6
29404.8
31922.9
18299.4
19949.4
11786.1
1478.35
2847.47
2669.12
494.884
3789.96
1756.9
1668.13
1513.73
1746.15
2611.64
1630.08
2471.17
1053.88
777.832
178.958
1522.92
820.359
5358.91
12212.6
10861.1
5235.2
2163.21
2.65214
1033.96
5553.48
10684.6
8113.18
8244.94
8628.49
13829.4
9624.54
3263.57
2199.09
102.472
1835.32
91.6304
2268.36
2446.45
4519.92
9572.08
8484.93
871.669
1519.51
844.579
716.306
390.727
569.012
903.371
1664.14
6662.92
6218.24
10723.3
2419.63
4406.84
4055.27
5755.44
1060.92
-21.2179
139.351
-702.181
156.806
1579.12
161.506
221.593
1639.31
502.447
1457.99
2035.25
1369.66
1017.14
1070.2
1125.06
544.024
1538.91
191.753
312.394
1011.16
2069.52
3132.58
201.733
1601.05
1609.64
11163.1
10060.8
12967.2
12727.4
25440.1
25160.7
21540.8
24458.5
22121
27488.5
38311.5
26391.2
18569.6
11025.5
6996.44
17955.6
15402.4
8404.97
10936.9
6409.69
523.057
220.881
127.662
57.8869
1016.87
1869.52
5767.73
6179.49
4372.46
6544.43
12048.5
8522.66
799.774
1670.32
172.001
170.093
1142.1
223.726
-104.161
1966.89
5436.95
18192.9
26207.4
29055
25436.7
16746.4
13415.3
24665.4
17941
6782.87
7842.29
2163.29
1673.32
475.471
228.483
526.445
35.1771
521.937
1975.28
4460.27
3590.89
1752.54
3198.51
321.424
4706.17
4101.19
11452.5
7244.2
11227.9
9651.97
12736.5
9842.95
4744.03
5952.96
7059.71
16573.1
15080.5
12846.9
12125.4
9849.17
9754.66
14915.8
18648.2
21979.3
16340.5
14370.3
17887.5
5217.35
9795.08
9086.21
7017.4
5349.09
6091.12
10512.8
3388.02
2839.81
2644.67
1512.05
-2.84626
1408
2014.95
4215.59
3167.16
1017.46
-62.1201
2486.24
1677.97
1460.55
8115.51
11154.3
16495.8
16190.6
10540.6
7160.54
6445.46
3583.53
2370.25
1143.22
5505.92
227.906
3466.81
185.766
1268.84
1122.35
1060.3
3085.77
27.2666
2867.32
-170.436
6.16906
1133.64
364.843
1543.34
3929.78
9753.28
24812.3
18324.2
16627.9
24062.9
24133.7
9966.09
2542.6
4469.12
5969.3
2950.17
2288.57
1135.94
717.39
3074.54
3346.72
1976.22
292.821
2733.24
4963.79
112.339
263.905
735.09
356.633
430.751
268.201
3195.23
4066.98
4678.85
3064.44
1072.02
1072.17
343.299
535.078
3385.82
2668.79
5159.11
4690.91
18462.2
26376.9
12617.5
10244
12991.1
10893.9
14056.8
6664.37
7047.74
6437.51
6391.45
6156.53
2997.23
11322.2
10502.1
21033.3
14210.9
7339.44
11323
8313.4
22385.4
11003.5
5942.23
10560.7
13060.8
20516.6
14617.4
7612.74
5868.98
5124.07
1002.86
1464.41
265.859
1767.1
670.219
425.828
291.545
151.469
-179.508
698.304
5157.5
3227.85
477.674
1042.61
2625.69
2815.16
2387.31
2021.63
1765.88
-213.142
484.506
1965.15
35.499
202.495
174.638
612.031
8174.49
7485.46
5697.25
3264.52
3623.02
6361.82
12321.7
9577.16
1489.16
1554.46
-524.029
1.69656
4423.82
2957.14
6421.09
5556.51
131.337
163.831
228.483
1405.49
3678.46
4317.03
3468.23
2987.94
1068.35
110.046
908.838
2449.87
1167.16
1257.5
243.963
1192.91
412.986
862.078
461.242
5288.1
1779.39
4711.47
1379.63
7426.03
1728.87
4556.28
7312.16
8598.34
13951.1
7165.81
4972.09
1641.42
2318.92
145.893
312.601
415.393
334.177
117.902
789.751
526.676
388.441
672.782
2444.81
4697.79
1780.89
6946.44
20046.5
29684.5
20203.1
16631.2
20930.1
21792.6
10536.5
8390.12
7444.22
4942.13
3641.81
2599.98
7537.75
942.223
11.9126
750.613
38.3864
1329.74
544.142
105.625
1300.58
444.394
1001.77
579.755
342.593
-34.1299
852.16
2233.89
3555.25
6069.95
3543.8
7869.22
11519.7
10206.4
5460.46
9495.83
6091.94
2003.56
2430.4
783.106
3615.7
2130.35
1291.3
4632.72
902.832
1857.94
9547.17
2238.69
4657.2
3250.5
6826.86
8659.27
4428.38
7702.37
9619.44
8106.73
10212.5
6641.02
8272.41
15477.7
12673.4
14060.6
8366.13
11385.1
10555.8
5349.74
6844.4
7191.15
7409.14
2958.67
3316.96
3468.32
966.251
961.305
4162.96
7396.94
4857.1
734.508
237.148
5297.41
3364.15
2680.65
-354.659
1236.53
2120.18
511.755
152.913
3318.45
2292.09
1036.96
1156.51
2825.13
546.462
1579.72
5697.1
2523.84
2616.15
3756.34
-507.386
-4.29693
128.37
-194.629
637.521
1587.06
2628.04
4576.33
2332.04
9952.38
4044.99
409.071
1932.99
6188.77
2852.42
693.327
1530.62
3231.57
1175.51
904.178
77.6313
3149.22
2766.49
3272.47
2231.89
6204.17
5634.55
12267.3
1732.37
954.612
434.305
1601.86
-2.31477
1095.66
349.291
-45.9753
375.206
632.823
1000.97
668.145
396.811
967.684
4046.96
7810.96
8617.93
8414.85
3863.24
1097.92
5369.4
7763.29
14399.8
21298.9
12051.7
19249.7
18435.6
10072.7
8752.65
673.864
734.394
641.488
1382.44
2730.19
885.224
793.153
2430.65
5320.04
12315.2
6180.8
5162.33
11118.1
7168.51
5593.93
4379.13
1956.99
5804.69
7261.17
9226.47
6260.98
15541.2
16821.2
13580.1
4358.77
1391.79
2908.73
328.457
1365.12
803.073
2897.21
11929.8
9547.25
8087.05
14636.8
5832.19
6460.55
9509.36
11142.7
9288.86
4030.2
3216.26
550.306
184.871
1192.34
432.575
-400.89
1162.9
-187.439
1571.02
174.72
-24.2896
392.295
845.845
74.3579
245.748
2119.7
764.474
9598.71
9587.98
12860.2
18777.5
27572.7
19451.2
10700.5
4596.31
145.52
402.275
904.725
1433.36
1971.48
673.511
1765.53
2163.54
7730.93
8072.8
3331.69
3827.62
8062.26
5194.48
6013.55
2768.25
4249.22
5483.96
7063.35
9374.83
7042.41
8057.3
5065.5
5991.22
7590.51
2895.99
1704.53
2302.86
3147.89
454.979
572.942
1852.02
1853.11
2833.87
2263.41
7053.99
19532.5
18255.8
14319.5
25115.5
20303.4
21355.8
16458.5
7567.19
5976.39
8954.61
10906.2
2148.58
1189.18
2424.6
1768.8
900.182
1021.09
2344.26
3428.96
9640.31
2949.38
1017.04
2813.27
12787.5
17905.9
10425.4
5826.2
3261.05
110.258
379.809
964.548
595.141
1228.2
2956.15
93.2258
1083.55
387.051
523.537
2215.8
7892.95
8841.47
6595.59
2643.42
-70.6435
1702.27
827.983
-199.662
6.45541
10.8917
108.714
992.825
1486.48
3187.66
2780.5
6449.95
8303.81
3960.86
4243.92
1831.08
1980.72
168.258
80.8922
1889.8
1623.12
714.99
591.679
-51.6983
1332.25
967.16
2875.48
1391.08
5771.53
7589.74
8291.91
5343.35
3273.28
2618.24
2962.48
6780.5
5291.26
6441.06
5888.01
4541.01
1202.83
786.314
226.21
-327.942
529.279
301.31
949.436
2787.31
1342.74
786.349
694.003
1717.63
4795.93
2152.2
1069.42
187.273
112
1256.36
124.496
474.652
-115.038
1079.79
4142.9
4712.36
1884.36
366.974
-103.015
995.868
2591.41
452.43
1750.63
2528.08
26.7348
1702.09
2316.05
3936.58
3719.28
243.104
1422.64
-102.743
923.022
3849.51
2798.83
2489.95
6067.49
1736.01
2245.52
3513.37
3306.14
1271.46
4997.06
3938.75
9368.49
4344.38
5293.86
1014.28
1220.86
2232.46
570.056
576.228
102.077
35.8847
1316.19
1356
653.838
1017.23
1975.08
928.498
-68.0514
323.983
767.048
7000.53
10421.7
9602.54
4412.97
2731.32
1751.98
60.595
1010.53
989.06
2303.11
2102.94
2652.43
5722.59
4239.64
3742.06
1151.01
31.0752
164.033
473.526
-57.1574
2434.35
221.584
3612.24
176.468
421.627
704.242
1331.46
-57.9595
-9.05843
-538.456
1236.89
3044.2
5730.26
4416.41
1328.22
1118.89
2196.24
227.752
151.293
2516.08
1748.99
439.602
747.584
344.249
2942.08
2725.34
2985.16
1043.23
3451.57
-253.347
2865.09
13158.6
10204.7
18762.3
20674.4
13490.8
16428.9
10557.1
10291.5
21925.1
26530.3
28799.3
12160.4
26766.3
19389
8905.93
15886.5
10904.2
11255.1
7886.25
2934.76
15055.3
5566.3
5892.45
2001.94
2203.09
1259.72
333.611
2435.3
3116.17
12226.2
20278.1
26523.7
21506.1
13414.1
24772.7
23080.7
36577.9
27671.7
20922.5
15674.3
16578.2
13744.4
10618.2
19536
17078.5
15550.1
17173.6
16950.7
8817.47
1431.1
2977.18
-57.603
804.332
2645.94
4152.69
207.057
-111.615
200.462
3328.12
4507.63
4302.37
3358.83
48.3097
1029.71
761.69
2714.89
2940.34
1694.85
933.727
4604.89
7904.14
6481.32
5689.74
9569
14085.6
9384.08
3321.44
1416.11
1041.62
1460.17
38.1229
178.024
323.608
2125.33
367.363
41.2435
638.141
611.401
3437.95
2072.86
1346.73
624.869
562.947
23.4669
-29.7857
2183.03
1478.35
686.295
1632.91
461.435
236.09
601.441
279.307
3424.54
2143.1
2230.38
4873.13
5937.99
16735.1
7230.62
13937.2
29726.4
31971.1
17311.2
10939.8
16287.7
5519.52
19412.3
12010
15198.9
12533.7
8440.95
6731.12
10121.4
7941.75
10142.9
29982.1
32069.1
43654.9
39340.9
37005.6
35445.7
43619.1
50710
46661.4
29187.4
30660.8
12986.7
3218.6
681.913
1180.41
4032.78
2128.66
2576.71
4274.48
1535.27
1152.31
2510.84
827.343
3025.63
9338.06
5442.59
8076.16
6657.91
7885.85
7071.62
7072.23
6691.13
9452.9
5021.84
4069.09
1196.47
4507.01
8152.44
1022.45
2225.47
1746.21
2300.7
1389
354.759
661.83
690.533
121.095
1784.91
140.46
1713.64
936.948
122.218
743.013
1905.11
4895.67
1440.43
344.477
287.774
868.424
581.599
1259.46
2449.07
237.092
560.397
-43.406
52.773
357.966
5593.97
9125.99
10773
5099.8
3928.75
1537.58
3596.5
7172.6
9587.02
25081.4
45710.1
53473.4
44005.3
29637.6
29504.4
23435.1
15750.2
7975.92
2574.49
1272.71
2791.21
1282.38
3880.07
970.366
2593.52
3722.67
241.9
540.618
356.465
303.457
419.575
208.838
-18.5848
847.472
1141.46
-261.033
2015.31
2221.7
1274.8
1374.24
1362.75
3224.36
2828.53
919.441
-276.419
289.466
70.0222
1097.36
-8.93903
464.178
2334.02
559.269
294.322
1839.48
2081.48
2291.13
430.894
435.181
390.893
1906.27
2941.59
395.194
-127.416
123.183
1018.57
357.307
-140.839
768.619
1587.53
2091.33
613.665
496.999
925.473
4824.57
5062.07
3537.04
7911.74
978.943
4862.35
3458.56
2098.5
961.886
621.407
5348.26
8400.01
4429.47
14800.1
13195.2
7723.53
3491.17
2493.74
9807.86
15299.4
9566.69
15082.1
20772.4
25675.5
20973.4
18454.6
13477.8
5304.34
11569.3
12692.6
21102.3
21762.9
17691
23229.6
10365.5
9876.05
4516.37
4679.54
1943.88
1807.22
717.081
628.722
177.411
2052.6
3253.5
995.168
3534.99
2679.66
2897.49
11754.4
4464.13
11711.7
21786.5
14918.9
12459.2
11324.4
19551.3
7957.04
9855.14
6235.09
951.899
2685.47
2571.01
1176.57
545.1
1613.46
666.339
1626.84
-85.3054
2728.78
474.441
232.116
1130.19
3808.81
5821.22
14110.7
19062.3
14499.8
14630.6
21571.5
17473.9
6059.96
1122.03
1423.57
2650.46
7575.66
2758.66
393.765
603.333
1600.89
4507.38
12277.3
24151.4
22223.4
19361.3
15018.4
13207
20219.2
5561.23
1350.18
350.105
526.68
3381.05
5188.42
1513.14
5102.67
4571.88
2687.17
3277.35
4261.49
6000.79
4871.02
1461.48
1404.24
82.6893
1227.98
452.739
1082.45
496.067
179.985
1135.33
1298.35
517.613
3148.48
2726.23
549.522
316.31
778.075
775.983
1263.68
2844.79
1548.76
2275.45
1649.08
476.993
105.32
674.678
81.1788
1354.37
1284.94
267.589
180.863
1102.39
6191.42
10384.1
8074.96
4849.22
3030.97
2550.8
932.365
5490.01
1607.42
4440.09
3091.89
4352.69
1669.69
4558.93
13371.3
5476.47
7465.75
9389.46
9917.22
5050.97
5523.55
8140.63
12077
5059.03
8156.27
4821.21
373.833
1306.32
533.612
2498.65
2638.64
2533.11
3064.49
1193.75
387.995
-63.9185
1411.36
3695.12
3832.53
2233.16
5239.91
5690.46
12812.7
12065.6
7305.93
5692.79
1536.96
555.608
2821.83
915.653
321.064
87.3273
39.711
648.244
2227.42
5240.65
4853.59
14081.1
11791.1
14162.2
8248.05
8909.26
1618.64
1151.88
1252.86
2397.25
3353.41
1997.53
106.356
760.177
1679.05
502.332
1986.66
7515.56
13190.5
9233.06
9857.49
10929.5
7303.3
2385.43
1494.26
5.41913
1874.45
409.418
885.584
612.299
2165.06
1367.21
5552.85
4806.73
657.16
1513.57
5734.14
4754.06
3645.1
68.0415
-93.2059
1066.61
998.413
3664.72
7816.06
16032.4
22687.3
14538.8
15915
7331.56
15114.1
20937.6
21834.9
9189.21
377.55
1223.09
4153.9
5491.91
10899.4
10182.1
4126.08
-14.2892
5143.29
5005.8
3650.54
559.756
3152.75
824.873
766.505
2267.81
738.476
2520.59
4435.13
646.399
-110.741
257.392
2208.39
3201.87
2534.21
5239.02
2513.27
168.914
88.7396
847.581
584.398
538.235
1302.31
7736.13
2370.7
716.787
1751.81
516.992
205.4
1667.54
1025.26
343.245
5568.51
5412.08
826.18
929.816
10446.5
148.549
459.253
468.746
519.466
264.622
-122.917
-445.339
841.231
-94.7218
1473.42
251.731
1283.23
140.358
153.682
1235.09
755.923
975.926
1350.03
385.246
814.233
2218.6
3204.56
2934.22
3527.5
11245.2
18558.9
14934.2
19374.9
12192.8
5552.05
1957.96
597.425
1476.71
2354.71
3293.2
2511.06
16.9801
-26.0326
817.079
1300.52
4429.74
5379.99
4914.13
2610.58
5654.42
4968.7
12974.5
7663.89
2900.51
5479.09
5075.72
6290.93
4166.65
17554.7
13707
13685.4
1329.98
167.562
669.262
589.039
610.397
798.137
1913.18
7012.45
5087.48
4142.6
587.203
22.1495
420.064
384.495
2739.13
2627.33
11655.4
6768.52
6656.47
5384.63
2461.01
481.505
1786.8
41.2566
-449.088
1931.22
1925.32
498.726
306.506
408.964
389.522
-6.80573
606.756
5412.42
7574.32
4352.4
4249.44
2660.61
6108.2
12565.8
4272.95
682.409
-245.903
277.844
2205.77
8349.93
5213.93
5286.81
7602.86
952.575
4133.69
5584.57
5488.95
4479.66
3281.13
6746.08
3407.5
1610.37
1052.98
381.326
1676.97
2018.23
5390.74
931.282
6455.23
6569.73
6231.43
14837.9
9719.83
10689
12315
12878.7
11180.1
17450.5
26304.3
35273
39058.4
42780.3
39396.2
38635.9
36490.5
19108.6
14255.4
18304.8
15397.9
25243.7
27842.6
13435.2
25351.5
13632.9
16624.3
14398.8
6904.6
2455.33
549.588
1566.65
950.72
2171.65
13488.6
7045.21
2315.59
4027.17
4924.52
5439.3
7777.78
3299.75
513.332
693.215
2575.23
1701.7
2122.93
2807.3
3934.56
6503.51
8729.83
8690.73
12326.6
22538.2
23985.5
12998.8
10606.1
23779.7
12191.2
16560.4
24952.9
24927.6
20916.9
19165.1
14912.6
14475.6
5045.24
4693.01
5275.64
3620.27
2000.35
109.042
708.494
-121.612
3221.64
3338.56
2182.21
1114.72
393.232
8772.42
4517.01
10271.7
6958.9
1730.52
13099.5
8150.16
6958.24
3831.5
9362.82
2681.02
1377.13
2499.34
2019.01
1238.52
3032.28
3350.66
1177.5
3011.15
6049.47
9805.58
7032.11
4086.84
235.32
1465.88
3559.11
2386.55
363.919
562.592
1480.25
901.226
-184.947
147.681
534.355
1149.75
2929.06
8443.2
14341.3
5161.83
6442.07
2955.57
2590.08
7195.33
1906.44
3588
9560.37
6196.09
4500.72
1236.91
2748.25
3018.39
1479.31
9396.59
4008.85
4393.6
9961.11
18360.1
19233.6
27774.5
36608.5
37128.2
34632.8
22850.5
15864.7
7401.03
4813.95
10069.3
6960.82
14018.3
23216.7
18730
7948.28
922.415
-59.0097
2385.67
2867.92
1049.21
2090.27
676.682
691.101
1738.63
126.532
1145.95
4772.18
11701
36129
31087
28302.2
28281.4
25626.4
22337.1
15494.8
15878.7
4161.2
1143.47
2106.32
1154.74
1131.55
1072.34
267.618
539.891
988.469
1242.73
375.05
1039.8
2514.64
3669.43
2444.73
3189.62
4096.01
2485.74
3145.34
6465.04
6750.26
6467.2
4132.37
5561.63
3755.19
2974.32
532.608
303.546
396.79
3313.02
3272.84
2294.65
157.171
220.906
863.556
2439.39
969.023
-169.162
23.1149
1146.67
343.624
553.09
5846.7
3711.36
397.025
2209.62
3292.6
2701.41
1354.6
1571.11
2618.76
2089.34
3375.54
5188.82
721.592
1724.74
4979.98
8511.03
4708.08
53.0636
1024.08
4790.84
684.057
7727.79
12273.8
16256.4
28187.4
21210.1
32398.3
22236.6
21995.6
14563.3
15908
10224
8806.35
9580.86
6809.57
20557.1
24283.4
33345.6
24788.9
40284.7
32313.1
36524.9
43229.8
35559
20497.7
6931.86
6677.58
2815.29
3157.31
1897.93
4718.02
3530.78
4254.44
3359.9
3022.17
6740.83
2253.93
2704.99
304.886
-323.972
1002.73
1709.07
2843.35
2394.83
770.379
145.085
1053.57
6628.99
3192.74
8821.76
3205.59
1893.51
1075.64
3179.09
467.066
419.096
7819.08
6504.27
2854.66
11214.8
2525.52
1211.81
2457.91
3839.7
9696.89
3551.96
5946.96
10433.1
3764.63
3506.21
69.5116
3514.28
329.554
655.43
406.366
6370.07
6627.36
10594.9
11929.5
13893.5
6254.42
4675.67
4987.85
1949.53
-36.4767
1348.26
983.291
1009.94
-241.668
5610.56
3767.94
821.195
6377.29
8134.79
6892.26
6794.33
8692.14
3548.91
2348.34
660.936
2701.94
1247.35
2201.58
4233.77
1858.09
1842.96
1163.89
292.482
1814.68
2295.5
2146.11
5650.67
813.92
371.101
1423.32
1979.7
4930.16
4831.81
3501.88
1191.08
312.315
4492.49
823.013
1615.4
2011.33
586.265
4779.44
2539.19
526.027
2006.2
6211.13
3954.86
6964
4947.71
8149.74
4343.26
8513.58
6776.62
8157.36
5861.59
5063.16
4920.67
7351.61
4032.32
3330.38
8780.42
10102.5
6484.96
3708.93
26.8552
1055.19
4889.03
9660.25
8280.75
8797.46
6951.26
2589.56
227.273
3615.62
2224.32
2719.83
6798.1
8487.36
3489.75
3825.7
5984.48
6332.03
4356.86
1892.06
2494.69
63.4226
1757.03
2224.44
2828.59
7077.76
10684.3
13785.8
8005.24
10309
4483.2
9110.8
8449.04
2171.53
2256.5
1172.59
-28.7129
-208.679
1018.47
2803.34
2189.61
918.369
2312.46
49.551
300.465
276.438
3783.77
20670.1
8493.11
15634
26590.7
17295.2
7330.91
3135.67
3008.38
2305.23
7884.47
7076.57
4144.35
4234.51
6014.19
1730.7
2021.2
3840.05
4006.78
5258.5
9263.72
5359.67
2385.05
1447.95
-131.611
1021.88
4798.9
3442.24
2081.58
3900.45
6453.03
5476.68
2870.46
7779.9
11200.6
18020
12241
10997
16930.1
13323.9
12639.9
19762.1
20532.9
12078.2
10959.7
4463.99
1693.12
582.495
687.654
18.2445
404.681
2008.02
880.691
580.053
401.97
116.331
148.924
773.572
2202.02
1612.08
145.501
1199.33
509.351
2107.58
570.508
2228.33
3426.75
6744.7
4801.51
10412.3
20308.5
11458.2
4505.91
4808.25
588.536
685.139
2843.17
2606.08
2536.49
1400.83
1466.72
3097.03
2389.99
1232.3
65.5994
6.58908
759.71
1762.84
303.837
-86.2453
677.695
1174.21
1837.98
539.915
590.427
1756.93
4062.41
6443.06
4100.94
13256.6
12182.1
5734.02
4422.35
3931.17
4469.31
7704.16
3331.05
517.192
2671.77
759.613
96.692
366.497
331.963
4243.36
-248.26
1055.88
3063.29
3665.51
3272.83
4696.18
5777.7
6027.97
18861.3
24302.2
19891.9
11918.6
10578.3
18763.3
19074
12498.8
15056.5
10234.5
10307.6
3703.4
1470.84
5545.95
5570.65
5941.52
5941.42
9015.91
6293.41
4040.73
627.034
870.833
2027.57
1112.32
1704.68
3655.58
6292.41
12314.3
9839.64
8794.58
18737
11593.9
18614.3
12994.3
3408.83
4636.69
2166.83
3089.77
1883.12
627.908
2464.32
1198.81
197.65
6324.72
6447.82
1356.3
-369.267
930.603
3002.79
323.955
971.138
3718.69
4845.65
245.044
467.187
144.549
570.94
3960.32
8532.44
6638.44
6774.26
7523.36
7916.97
3247.62
893.04
2893.84
3162.86
744.753
831.632
19.6782
601.37
663.488
789.713
2220.18
5965.03
3194.4
5720.95
7230.48
13672.4
14343.1
14765.9
15265.1
17956.1
20603.3
17454.8
9727.02
12248.1
7974.74
3817.58
674.36
1465.71
1745.08
772.544
2469.03
4246.13
4670.12
6567.93
13078.5
6452.95
6782.72
5734.04
10170.6
2238.63
540.817
42.1588
1065.82
1592.36
429.111
2364.1
9065.93
14418.7
21502.1
16627.9
15167.1
14096.2
19904
24071.4
20302.3
14335.6
11231
9838.13
1459.58
-249.986
2633.11
775.164
-448.877
773.53
130.4
1333.87
2189.8
2097.04
154.468
1297.16
498.465
2076.96
1321.25
1489.62
-271.84
973.062
123.578
270.294
2867.43
4765.21
3236.83
9746.25
30415.8
29853.2
10718.6
4843.42
815.493
2256.08
2601.29
514.514
999.938
1039.09
2140.95
1387.48
2191.01
1786.32
1057.8
855.129
2007.48
4527.53
800.43
2087.12
964.119
243.745
1633.42
-208.985
2431.71
1296.15
1238.82
-181.78
903.524
-184.575
1766.02
197.025
196.956
-132.33
-1.39735
2641.79
4609.77
-342.426
181.676
718.645
409.01
721.248
4021.62
1177.58
1343.27
1268.45
3132.91
10247.5
15076
29253.9
23264.9
24515.7
8247.62
13710.5
8975.76
3719.47
4526
10414.3
4023.59
3708.94
3899.51
3418.35
3843.28
1550.68
1247.57
987.222
264.71
1253.46
1606.41
7636.77
8264.41
12344.6
15715.3
18189.3
18491
12134.7
15523.5
18612.4
19358.9
23213
36496.8
46669.9
55103.7
36846.7
34294
28946.3
26674.3
17547.5
13693.9
20945.9
10950.8
12653.8
5358.94
3964.33
1914.66
397.048
-135.87
2928.61
513.547
2250.96
4837.32
4788.68
5257.24
2375.29
4063.38
12231.3
8654.63
11085.9
18971.8
12875.9
10032.6
6591.23
2222.87
1054.19
232.242
1751.42
1635.27
7890.79
7327.99
14720.8
6009.03
5313.89
2306.45
1683.34
778.425
398.269
2331.34
2079.32
1568.84
1281.51
1819.3
268.609
1311.4
4254.21
5257.41
8592.3
1705.32
5539.39
4848.23
2608.84
4236.19
4158.88
11174.5
8534.5
3335.5
10652.6
13202.1
25591.5
32090.8
35584.7
35542.6
28891.7
29164.4
17969
15409.2
21980.8
14840.9
19408.9
12241.1
10602.1
18558.6
8562.71
8854.61
4044.4
4467.01
2765.6
2790.87
1529.41
229.23
217.814
79.9225
2414.38
1067.33
3201.03
529.201
564.887
1232.37
147.355
323.873
2626.36
6461.8
8629.28
14488.2
11718.7
14598.7
18857.8
12651.8
4659.29
921.766
302.837
719.228
499.675
269.099
283.664
186.826
200.565
1271
1463.66
1851.33
975.334
1154.88
345.873
801.979
1504.03
505.761
2345.53
5261.78
19037
10866.6
9034.43
10709.5
5307.03
5144.26
2660.25
1491.12
1492.15
669.3
645.737
5081.87
7675.18
4661.12
17718.1
14675.1
5918.19
5924.78
10861.2
4890.1
5814.15
6343.36
4620.88
237.037
913.662
308.981
1609.12
2230.57
4329.48
4248.64
257.193
867.012
2032.7
-44.449
1444.39
427.744
1035.91
3112.89
6986.31
958.766
123.703
1641.1
1357.68
6262.95
2671.38
2372.31
2424.76
641.918
1635.78
8438.05
14745.3
12956.2
6246.41
2376.04
3590.58
1725.29
1228.91
-309.753
136.491
857.789
955.986
957.275
115.207
962.667
1773.33
4164.6
1268.07
1082.45
354.167
420.433
2743.54
5568.32
6769.78
8102.72
4098.56
6035.68
1870.52
1421.28
894.087
1175.13
2771.39
13214.2
4923.57
4981.23
10116.1
7537.31
14924.5
16690.7
15860.7
6996.87
12398.7
15291.1
25097.5
40537.1
30311.3
24228.4
16164.3
15617.3
15212
25337.2
38282.2
18674.2
20596.2
21087.3
16663.9
17245.6
15467.7
8718.78
4708.41
2900.45
3653.22
2687.18
2575.73
2872.8
272.863
1535.34
355.88
-107.839
3523.63
6706.76
1123.74
5826.97
1962.57
1602.28
2127.7
2870.02
637.612
-429.008
1856.61
-178.947
316.587
2057.08
4677.07
8479.89
11031.3
20611.8
27815.9
36311.6
33187.5
44175.5
37575.2
19353
21444.5
19866.8
29931.3
33591.5
28469.1
29529.1
44964.1
40834
49846.9
59320.3
81103.9
78865.8
68623.2
58879.8
57516.3
57324.1
53834.3
62068.7
51819.8
39266
34153.2
39145.5
35706.1
28946.5
17060.9
6596.33
477.197
1067.4
3353.53
4151.26
8475.45
3295.12
1504.03
4704.97
1996.04
-102.627
274.019
213.349
1280.01
3494.25
789.731
588.253
-74.1388
820.68
461.985
1602.87
3520.23
2756.58
2862.22
6912.91
10915
6081.91
3544.67
7196.82
12138
7604.34
2654.75
3021.89
2329.95
671.138
482.711
255.409
548.227
1022.89
3549.53
2586.09
67.3303
774.484
457.805
163.193
1984.31
148.565
-130.408
2491.6
486.629
-462.931
1755.2
669.042
2154.66
375.265
5966.43
9133.58
8221.71
5160.33
4271.32
1665.26
3291.51
926.454
2438.73
250.336
-276.612
1607.86
8207.05
5947.16
1584.16
336.158
102.024
-28.0296
552.201
-136.133
2462.43
1656.56
3215.84
13064
20990.1
17037.2
18488.9
15967.6
13449.2
4633.31
4550.23
1343.36
1041.5
3468.93
5410.69
3879.79
3249.54
3947.19
6806.79
11648.2
18494.3
9494.97
11445.3
2254.91
664.208
3252.39
2943.94
7898.35
3561.93
1586.82
-434.638
1621.96
-165.509
2632.04
287.022
818.614
74.3742
6132.18
6799.23
5341.17
11685.7
5355.07
8287.83
2232.87
497.93
957.38
-178.156
341.424
-22.1634
2879.5
2697.17
1055.83
407.051
-146.079
1759.25
5171.94
15616.3
7792.05
14005.2
6276.67
1959.32
5486.46
2695.25
6875.25
6557.52
7783.75
17838.1
16351.3
2861.57
9274.02
7636.47
9576.62
12179.1
12959
21471.8
21210.9
10284.6
6273.94
5168.21
7864.64
17489.3
15831.1
24312.5
20897.4
29213.9
27314.3
13237.2
10536.7
23574.6
20018.6
6325.14
3020.86
2125.71
-114.459
120.825
5569.8
3088
4835.73
11159.3
7990.36
12636.6
20140.8
9892.22
8613.07
1217.14
5412.66
12797
6560.16
3162.12
2084.88
242.885
3048.43
4949.21
7858.61
10176
22298.8
21475.6
25904.2
21932.4
44914.4
35428.6
52967
50487.2
18052.4
37251.6
32252.1
37893
30741.9
32558.5
29198.5
44004
54189.3
53245.3
39396.3
23687.5
11888.9
6308.56
3293.44
7.27743
1676.24
82.719
38.6388
1348.75
3411.58
1435.15
3931.46
3030.07
311.187
66.6567
1033.55
2240.53
355.835
-16.3128
1910.33
2815.6
7497.23
4146.65
5466.47
5499.66
3213.64
5406.66
2275.78
3717.63
-2.68233
-141.922
1206.48
509.922
787.004
888.136
1581.38
4401.28
2923.15
449.842
2523.64
2567.3
2291.09
3370.59
13985.5
5940.75
625.833
1631.61
2446.35
-179.778
1267.45
1221.43
646.742
577.284
3272.27
605.867
500.133
-48.9336
1029.94
1871.77
-288.767
1946.47
4716.07
4340.14
9132.87
12154.7
11632.9
4741.61
4113.87
6252.06
3968.6
3132.9
253.59
-456.47
780.934
4841.41
3046.29
6097.63
9019.17
16174.6
20294.3
47933.4
53191.3
59923.4
52743.2
52246.9
62748.6
49083.8
43932.1
57597.8
32532.5
25578.5
19705
15564.9
10206.4
27667.6
26817.1
26642.8
31303.7
23716.1
33038.3
26550.5
12408.1
6771.66
2538.24
532.758
1025.07
481.328
-5.4272
1406.28
1172.06
1243.1
-25.5201
-418.791
744.392
410.832
4083.51
598.129
-295.194
-67.1666
2076.91
3281.26
4197.58
8790.39
409.71
-119.914
5485.83
3231.77
6114.36
2990.76
7120.07
10011.5
13846.5
13851.4
15464.8
18875.8
19328.9
14694.7
9750.66
7404.28
6627.67
3203.72
4976.79
10815
12034.3
4882.74
5810.47
3518.29
628.338
2935.18
3110.56
3491.47
1246.81
339.243
251.453
375.804
2190.49
1084.96
1622.91
863.28
933.263
1206.03
2417.39
1982.57
5762.4
15155.8
26179.5
25504
31439.6
60644
67706.7
46221
66854.2
69566.7
57660.5
75390.4
64962.2
57107.3
62706.9
59206.7
51850
45518.3
38635.6
46348.7
53919.8
44998
34488.6
35111.9
26997.2
18515.6
20756.4
9328.06
11351
6195.74
8876.86
1877.34
2418.53
1534.56
5297.83
16.8205
336.979
4139.97
4019.01
2352.28
4009.64
12785.4
12342.3
11212.5
6100.54
3073.9
10742.1
2388.47
2286.52
12098.3
12495.7
15265.9
11772
13426
4897.92
1505.85
915.107
1037.47
2801.85
4019.34
11186.4
6983.7
6939.1
2495.95
1346.38
2084.44
170.327
192.226
722.895
1005.06
-123.922
4715.97
7142.21
4796.24
7016.08
14046.9
4842.46
19319.3
28317.9
49514.1
59492
42031
49218.1
47180.9
27309.3
21611
29274.4
29268.2
18028.2
15211.7
12015.6
20326.2
20906.8
9184.27
9261.89
5499.81
4329.22
2942.16
7072.58
3271.65
4482.75
2701.23
994.075
3107.74
248.284
132.321
-200.784
132.183
5141.66
39.0315
2994.43
3314.1
2092.34
10106.3
5136.95
4096.64
9062.18
3524.55
4771.58
1758.04
3853.01
2122.96
3137.13
729.226
153.939
1671.2
1865.57
5670.63
14667.4
13359.7
22394
21974.1
21471.3
25389.6
42626.6
24178
12849
15949.5
17312.7
20699.3
28745.9
15180.6
15349.5
9787.97
13802.8
14408.1
14159.2
3995.55
3706.83
2808.77
1827.64
1151.12
670.898
1905.77
1020.99
2372.77
934.665
969.426
5005.07
8987.24
3573.39
3096.61
4126.05
18272
18956.9
14900
15685.1
16600.6
12041.2
14938.7
22367.7
19722.8
36907.7
40362.5
43370.9
35606.2
43511.8
33418.8
19624.4
18286.1
35943.6
32801.3
20416.4
48097
39679.4
19193.1
17211.3
23042.4
14656.8
27239.2
20580.8
12213.6
16481.3
5343.33
5349.53
5186.65
1742.35
1331.68
1236.03
1654.66
493.082
2153.09
1683.66
7774.04
16151.5
9560.58
4987.49
3332.67
2182.63
2010.1
-5.17273
-239.046
-122.834
-404.977
2961.23
1715.07
1141.83
4422.88
5691.68
2895.05
4394.09
3445.78
8600.08
9163.84
2723.12
74.3595
464.023
4835.83
848.106
1342.62
951.457
1001.14
545.49
2929.76
2789.11
8173.56
13207.8
5163.52
10244.5
11520.8
2722.39
3725.31
1870.75
2055.74
1081.86
1842.86
1356.98
4794.82
3267.87
1138.3
2191.96
1222.15
2547.27
1450.2
1348.62
2088.77
5046.88
3706.3
4923.78
2770.37
2049.61
1524.49
2963.69
1080.14
2718.67
572.259
-117.507
654.272
631.888
702.323
461.154
690.099
766.384
3976.35
3220.88
2580.04
342.157
1106.52
4252.35
5307.4
4267.39
4667.2
4852.98
11283
17988.9
8565.68
6627.74
9922.14
3720.29
4948.52
638.033
1966.44
2082.37
6820.4
3792.98
1702.04
1049.64
1291.14
820.632
-252.486
-139.393
-29.1515
1216.46
3079.2
1897.24
1312.44
2559.78
1503.81
1468.7
1080.4
2551.93
1341.81
2193.45
5498.28
534.076
1184.41
2614.09
980.013
8930.04
12420.8
22492.4
20262.8
12358.4
19081.3
20277.2
21035.2
13004.2
2488.96
1075.58
1233.32
570.505
1319.33
-136.81
8892
9520.01
13800
14061.8
11705.9
19236.1
9704.69
10645.7
13380.4
15369
17652.6
20345.3
27956.1
15724.8
6004.59
2364.53
5310.16
286.282
1765.61
1916.69
2811.05
1169.18
3322.97
1304.3
263.968
1137.2
1568.51
1137.96
2398.47
3300.83
4816.07
1225.74
1426.34
-281.174
728.179
1185.52
49.3377
676.342
555.629
2485.62
443.622
1175.63
1055.32
3624.97
2903.44
6719.34
8335.19
4996.85
767.703
-165.666
58.9007
1309.27
356.828
-278.677
874.907
806.788
3243.82
3182.79
4969.29
2337.57
766.506
-213.168
-192.995
304.761
1511.01
148.51
1088.26
529.246
721.645
-221.081
1958.01
2709.51
1887.03
1174.51
150.78
1901.18
3587.72
2454.79
4441.34
9792.59
11074.6
9964.87
6086.06
1779.17
3059.41
9663.07
3630.11
10521.7
7254.43
8190.88
2803.28
495.063
1345.32
810.714
1013.21
356.881
592.561
1889.69
2466.57
222.613
1811.05
1402.05
800.628
1285.34
915.657
693.667
91.5424
357.625
736.795
1266.09
1142.34
1.76209
287.152
955.35
106.593
247.81
1366.81
4131.67
379.796
901.399
4100.33
90.9284
-286.42
1819.13
6128
2426.54
371.301
811.385
4528.8
3778.46
4150.85
9684.87
9368.73
4816.2
4144.25
2839.46
1835.17
2698.23
748.191
1777.39
381.292
1804.5
53.1481
419.36
3066.77
2161.75
6291.66
8465.25
9655.77
4402.51
7835.67
4041.26
3588.85
16168.4
12991.3
32811.8
37967.5
26040.1
25099.7
16641.3
11216.6
1702.74
4495.18
1979.39
4744.52
3450.39
2054.58
1446.88
3376.62
907.316
277.187
1192.16
148.276
282.434
993.968
4162.59
4854.75
194.164
302.727
85.7869
42.5949
3067.39
2338.96
2192.05
1819.79
2273.18
2512.9
-467.593
614.888
2262.13
1789.62
5929.53
3673.1
2750.24
1072.21
679.811
1660.96
1786.16
3584.68
1060.54
657.602
-113.767
1190.98
2196.78
4655.79
9320.19
7481
2838.64
4204.94
2036.79
1728.99
651.565
3105.2
3335.26
1378.77
792.008
2681.15
1959.41
3640.76
259.65
722.054
80.3704
1327.79
3828.07
2343.41
6883.12
3270.04
3422.88
7316.16
6211.27
665.218
354.192
1902.45
443.413
3267.38
2976.88
-296.346
1098.48
343.395
737.737
155.081
2885.98
1118.56
36.3868
554.328
1454.38
4673.28
3684
3807.24
3503.24
1584.66
2206.66
1086.56
217.895
2072.62
3046.29
1813.63
1453.47
513.915
-64.6353
894.269
465.593
1173.9
359.631
2832.45
3297.87
1057.55
1073.97
5918.39
2953.52
4147.7
7710.49
6088.62
5774.5
2806.7
4377.69
3222.4
1907.02
6703.5
2938.91
3759.92
2999.69
2987.05
1235.44
4834.55
6041.7
7704.45
6339.26
6200.19
15209.8
15274.5
17217.7
6195.57
8972.97
15719.7
15125.6
20492.6
14520.5
4490.95
4646.43
2091.03
844.098
183.346
302.147
1796.04
936.802
888.552
739
-150.529
3103.57
5463.88
3297.44
3843.96
3522.52
3.57117
3687.94
795.299
1664.2
1042.57
1247.16
825.039
13.6586
1281.33
36.0333
-146.342
1849.86
1589.55
3575.06
874.215
1461.63
343.887
458.383
465.853
1765.72
5766.21
11268
9055.18
16922.6
9386.22
17161.2
10991.4
25937.9
19715.3
16551.6
22734.9
23260.7
23019.2
22316.9
15484.6
8448.7
3594.88
4896.44
3846.2
5720.87
7331.98
10914
13548.7
16248.5
17240.8
16983.1
22114.4
13272.8
11230.4
6459.15
10505.1
9850.52
10354.2
11235.4
14122.6
14467.4
23253.9
22003.8
24652.3
21212.2
22362.2
40495.1
48195.8
51276.8
47487.8
46923.9
29923.1
19435.9
15498.6
2278.69
838.362
3048.53
1544.78
-4.33839
2883.76
2293.19
-90.8513
1313.19
283.099
1797.1
-30.1371
491.357
1501
-41.0004
1311.25
2336.16
547.899
1322.52
1826.19
3237.68
666.926
947.458
2702.54
749.58
4994.1
1082.45
1476.76
938.352
1608.23
2362.53
1112.25
1800.01
677.434
447.904
244.116
858.277
2847.35
2217.48
2695.61
-14.9595
473.243
2781.36
678.998
-482.48
799.945
2221.71
10308.8
5478.31
9140.44
7645.68
2018.39
-247.443
-243.307
579.571
5541.06
1038.18
161.39
222.611
84.2664
2415.87
4989.06
5041.05
8807.75
709.288
449.969
869.153
2844.11
2755.26
3135.51
1906.25
1215.16
569.964
832.949
630.366
3078.85
-283.119
388.738
5540.2
2573.16
6092.41
6054.81
12840.2
7114.1
2469.73
2629.71
84.6714
181.496
1840.69
862.296
430.742
99.7464
511.615
819.635
480.403
4024.63
9121.13
5379.32
2884.12
658.911
546.516
321.741
4060.29
6962.44
13764.2
20454.3
19140.9
23770.4
18955.1
20934.8
27028.9
31804.9
23980.3
21196.9
32410.7
30008.1
30027.2
38267.1
33760.4
48924.8
46572.7
29802.9
14762
24740.9
24758.5
20065.4
11560.4
12852.9
13019.1
14865.1
12522.5
8603.59
14168.4
14548.2
20854.8
14190.8
6127.18
4754.19
4615.85
294.547
995.57
145.268
547.214
138.874
27.7018
-179.884
2566.36
1547.29
4422.47
4927.14
2125.04
103.242
1904.14
-332.868
388.955
113.066
774.506
1839.99
734.124
1094.91
7374.14
6637.52
10626
6546.16
10385.4
11071.5
5154.3
9222.64
13520
4442.49
4631.17
6338.21
5432.93
7615.28
10629.5
3571.36
-80.061
31.5547
1570.23
409.58
3290.66
1813.67
875.595
364.803
2759.02
5230.83
10621.4
2067.98
1517.58
696.243
1696.1
2532.7
1093.37
2961.28
1938.39
1338.74
798.953
279.883
5399.67
6875.45
2144.7
1270.02
1228.04
3691.35
1588.39
2258.12
1086.86
6747.47
3847.1
3012.64
1623.46
4581.99
1446.69
3605.94
6713.82
10373.6
17002
15362.2
11246.8
9987.48
13233
19019.6
13358.4
10070.7
8030.5
16428
19697.2
9989.88
14641.8
1081.38
5405.84
7818.33
7026.54
1892.85
985.869
829.283
224.628
-259.812
4642.52
176.933
1683.2
-680.882
-97.4013
436.365
5375.75
7110.89
2156.12
1134.1
524.883
-135.865
-89.5056
2221.22
639.136
1091.07
628.99
323.941
380.324
284.884
1469.76
5250.57
10257.7
3940.84
5153.36
1788.07
372.807
4441.51
3499.48
1400.59
1144.18
213.298
2631.29
-343.195
453.934
-131.609
9.42108
1069.08
143.297
1274.09
-94.5519
2977.78
764.354
194.908
126.335
599.183
2548.5
503.72
1518.78
2328.66
766.207
4792.73
621.919
1581.3
777.05
218.428
-349.824
2761.33
4281.38
826.326
165.727
436.519
294.101
7226.92
8405.3
10312.7
9024.88
1354.16
2871.31
1268.3
2681.78
1175.66
985.287
453.282
-358.989
-489.503
-21.1457
-85.3029
365.058
644.622
1674.96
1462.35
-270.917
723.991
1188.57
1743.05
3497.46
4777.39
4254.81
4348.3
6303.56
4935.19
15517.6
16739.8
29482
22074.9
29940
26085.8
27026.4
32879.3
41118.8
18975.8
25019.1
24007.5
22342.8
10097
12529.4
15438.7
12209
8920.51
10165
5295.41
6891.57
4789.99
3344.9
5214.72
5603.35
1131.48
3033.62
6050.42
7592.86
10120.4
12782.7
19211.6
13797.1
10522.7
5715.22
4323.11
6524.54
9722.26
11717.6
19068
17452.4
18028.8
10579.1
8516.94
12856.5
21391.6
17493.3
24804.8
18934
17638
14762.5
12488.5
10119.5
10133.8
8323.08
6370.39
-32.1666
688.326
-351.913
355.78
260.457
85.9374
441.44
-61.7488
1142.03
1380.3
99.8417
2963.48
2562.92
2076.17
-405.656
1080.04
428.147
506.235
1636.56
551.837
-109.87
1308.75
803.696
3048.75
185.534
842.182
892.557
1243.27
-203.037
380.804
-6.69331
238.14
2613.24
8665.21
7348.09
5002.91
19759.3
14593.7
19730.8
17194.5
11920.2
16487.5
15865.8
10470.6
7609.72
3182.6
4333.26
8320.13
15482
28935.1
24398.9
38078.4
31381.9
38459.3
37334
41683.3
72461.1
44409.6
58188.2
45399.9
29973.2
22964.2
25043.7
22625.8
16443.5
22933.8
19640.1
22257.8
10827.4
8199.84
7790.51
1338.2
-164.604
187.505
1814.17
427.897
1430.86
-537.405
1944.88
331.253
1854.56
858.941
-257.236
262.045
725.872
2898.61
5558.12
12471.5
5557.61
5734.41
19969
19290.7
26979.9
40577.9
17299.2
19353.6
14145.4
20346.1
24704.6
16605.9
10259.7
6393.57
4872.17
4757.86
8420.73
8396.97
26634.2
14487.2
20580.1
15114
11688.8
8051.37
2413.26
4094.71
1665.72
29.0313
-67.9498
3930.43
370.415
1992.69
1180.39
844.626
2187.66
439.652
-3.50684
-170.183
-210.962
399.768
479.133
1370
2510.62
3141.48
1155.48
991.562
2707.3
3795.49
9982.62
7442.35
328.532
-26.3859
1639.56
1715.87
3905.86
2644.83
1528.91
2151.95
2093.29
8256.89
6250.74
1481.06
2151.92
385.408
1475.45
-57.2549
1167.57
921.296
2751.9
1368.55
1245.46
650.741
1174.33
4796.29
3723.33
253.421
2402.31
1982.9
1458.31
12083.8
11671.8
6595.54
9912.88
7367.38
3587.99
803.852
3920.28
9610.52
4806.21
3232.2
3613.02
2411.67
807.391
3149.63
8095.2
3660.86
2090.4
-49.1452
4524.18
2597.47
3766.7
3177.38
320.588
99.0551
1556.53
1087.09
2527.48
6836.85
11307.9
7601.49
15146.8
27444.2
18202.6
29791
37124.2
17969.4
7617.99
5863.48
9136.71
2952.05
12542.8
15496.3
16868.2
15284.6
18391.2
10595.8
13261.9
12906.8
14077.4
19348.2
23004.7
20233.1
21482
20418.6
12725.3
17386.1
13379
1339.15
3958.76
3126.87
4793.25
2537.85
2040.49
4030.9
2138.58
2203.46
1092.35
1582.16
1927.76
7909.08
4046.06
8431.87
10833.7
6408.8
2012.53
7832.03
11042.1
6748.67
6355.93
9722.56
9133.48
983.488
1108.24
156.682
199.076
3147.88
6554.03
4243.45
5361.84
4986.28
6403.66
4388.75
5550.19
10292.4
4996.25
9978.4
9730.13
8075.23
10209.3
12007.5
23071.9
27199.9
19818.1
13634
18582.6
6632.4
5128.61
1533.27
1762.58
3591.38
1735.8
4467.72
12573.9
20701.6
22109.5
27810.4
13678.8
8332.05
4880.79
17150.5
5869.52
1081.43
987.318
1624.05
1070.96
391.043
205.203
-37.8796
583.241
420.72
2557.64
1804.2
2346.83
3004.09
635.376
1659.34
958.007
562.758
574.536
1611.9
271.296
-59.8782
2777.42
401.851
2069.31
1880.48
5994.83
12011.9
5155.66
5644.82
3771.38
4193.43
9295.94
10186.5
9230.07
19296.5
30450.8
23351.7
19181
19183.6
16019.3
23560.2
16824.8
19758.5
21183.1
24829.6
24676.7
31873.6
23017.2
31093.7
32145.4
34125.1
41021.3
15646.8
15015.8
13112.6
4194.67
4870.18
1422.92
3495.61
134.345
1593.54
2745.83
2337.7
3688.39
1221.33
905.754
503.042
135.895
943.584
866.933
3212.74
6163.25
7097.69
10935.5
12135
10914.4
8750.73
14040.8
4086.44
2595.88
5495.47
8799.85
17257.6
16172.8
21606.1
26741.3
19858.6
30510.3
31265
17588.7
18790.4
17604.4
19951.3
29140
26336.6
24783.7
18185.2
2249.37
1199.91
2088.93
77.9926
5604.2
9422.76
6097.63
2167.77
2570.24
6521.82
6368.05
8886.14
15365.9
10829.1
9876.69
2750.78
1712.47
930.936
361.565
257.987
-9.53806
377.095
5424.05
5849.06
2351
595.697
2124.49
-425.492
1924.86
3211.58
3720.13
4254.86
715.915
1650.73
5231.08
3088.26
5477.11
2651.64
1372.26
778.938
3871.07
2312.68
1171.4
859.769
293.136
131.884
1714.03
1849.33
814.216
682.902
-411.624
594.026
1653.88
2932.29
1596.23
1653.91
1576.14
4360.08
5934.71
2412.69
4485.08
2528.63
4275.16
2616.37
1230.41
1800.71
3295.87
2737.2
639.554
1418.78
550.82
1421.93
-99.4137
1042.44
500.074
1946.97
4142.97
432.339
5579.56
8484.37
2033.72
97.1157
1842.76
882.434
848.518
1068.6
2090.93
2105.5
1750.2
1689.35
4135.06
739.028
4483.9
2094.08
607.627
805.13
703.803
1368.58
119.947
-388.255
225.188
736.258
-301.708
1471.97
457
-176.932
719.324
-96.4217
735.576
21.593
130.97
205.441
-230.512
511.271
5199.86
1368.05
1223.14
828.035
100.302
217.025
51.7816
-138.558
91.27
2854.59
1284.17
-239.454
1711.84
4087.74
1643.37
2645.04
2550.26
2534.87
1811.47
2535.99
766.059
2831.33
1067.25
4057.16
3938.82
4281.27
2471.14
1140.46
4179.55
421.518
427.397
83.521
853.468
1154.95
4527.03
109.889
1051.96
3002.59
2042.37
829.596
153.71
1034.89
1793.07
2198.59
1386.14
3347.46
536.199
633.985
3463.18
3301.84
999.594
759.997
526.121
2354.87
133.048
1443.53
4183.64
9904.31
13318.6
12023.7
10087.2
5238.62
8550.09
7463.38
225.954
2836.09
2191.93
1412.91
2215.07
-450.889
1211.74
427.497
4041.02
2455.78
-321.371
493.158
299.265
789.644
780.75
209.118
222.623
1592.18
-66.4738
684.125
399.668
-36.1257
179.069
2032.86
2088.48
161.572
3058.61
1380.79
1379.51
6835.23
1473.63
694.616
-361.78
3076.44
3494.46
7094.95
22014.1
34886.5
44004.8
40212.7
35451.5
44335.3
40541.4
33692.6
21502.4
37175.7
34070.3
25632.8
11458.2
2804.95
1533.13
2178.04
2361.63
1029.31
-447.686
1810.37
445.845
757.671
577.204
646.071
499.059
2504.38
4334.12
2769.99
2618.55
5816.43
3363.64
10000.4
7925.89
13212.1
11274.8
7068.19
7997.5
2626.25
1223.78
1198.77
1596.13
3165.46
1845.26
-388.541
1925.95
7101.82
4262.57
1729.43
103.391
1318.05
834.668
189.56
2534.98
3983.53
1949.41
8758.75
6276.85
3743.68
706.555
183.816
659.563
196.826
458.068
2183.46
7618.2
3705.07
1561.73
3090.01
2816.36
2595.51
2247.81
2547.51
420.181
-46.0875
628.293
-280.331
809.74
417.656
1023.2
-100.571
60.7958
3991.99
3425.93
338.981
935.482
503.212
268.19
1323.3
339.786
773.566
5.71617
3845.95
1527.27
688.893
407.305
6433.58
3772.98
5832.04
3808.8
-33.4014
139.389
276.57
56.3978
840.056
260.092
592.907
-288.449
515.739
1543.38
4478.34
2314.08
1592.02
2191.3
2969.21
2556.39
4610.56
3597.02
5996.58
5085.77
13649.7
13287.8
10668.4
10700.2
6620.16
7386.27
5452.3
3628.75
1050.21
2260.42
265.247
-261.519
624.893
1877.37
3764.51
9547.64
7126.65
1219.64
486.628
6323.22
2331.43
2866.84
4324.02
6369.53
17046.8
14893.4
17228.1
9610.03
4652.76
6381.08
5403.04
13780.4
5697.54
7805.61
4881.03
2341.64
2610.58
5566.38
4983.36
1494.06
2367.82
1719.2
121.489
476.184
358.64
1229.38
338.745
1630.64
4043.83
5250.12
3991.63
6686.08
8210.88
3768.4
3251.57
3067.58
1406.85
1618.7
1442.14
4932.68
7950.21
2960.48
2098.22
8173.74
5273.13
1029.74
367.765
293.117
189.521
4095.56
11269
196.496
1053.45
732.588
42.6239
1944.94
22.0192
595.746
1371.03
-42.5445
729.192
1419.66
3283.78
432.207
106.93
1571.2
1242.77
134.534
875.679
3049.04
2118.17
5100.78
985.685
1374.56
214.165
247.553
268.902
205.645
76.3983
1414.47
1435.85
2884.57
1787.24
2960.98
2061.29
7116.64
19416.6
25338.2
24837
29017.9
19519.2
11389.5
4795.82
2290.77
924.365
894.631
577.229
14.0269
139.414
3255
3834.89
61.5293
3493.28
2764.95
16054.2
12907.4
7447.83
6730.85
7580.07
3362.92
-353.577
1126.12
1475.21
378.357
-58.9108
595.344
317.258
972.714
3110.46
2012.67
1412.2
173.188
194.394
750.137
-92.7296
-317.219
18.9943
535.57
3515.35
2784.81
357.102
-112.625
1419.14
3706.6
3604.51
1806.25
1676.32
897.22
-519.694
146.636
38.5353
830.542
64.2183
780.241
4473.69
4920.27
1475.56
1411.65
3010.17
7113.6
6440.23
8700.85
15362.9
12721.9
7015.43
3066.17
3624.22
3554.34
2694.49
2399.4
896.063
1468.84
2652.32
92.7228
1385.94
980.184
9756.79
3272.82
4861.69
8041.98
14639.2
7547.19
18248.3
26001.4
35534.9
26984.2
28342.5
9750.75
4505.31
1481.97
4674.46
6776.49
17133.7
11370.7
10204.8
5602.06
14393.4
18722.3
14806.6
17529.4
12924.4
9638.89
4936.09
1174.81
743.706
1981.83
11913
11972.7
9537.87
7872.77
3192.37
657.576
274.959
1717.78
3966.42
2799.5
632.955
1100.32
2929.92
61.9951
351.82
2384.42
5811.6
13602.5
20107.9
20125.2
17084.4
17578.4
21864.7
18227.2
21934.7
18473.5
19715.5
17846.6
10435.5
10545.6
4295.36
5334.84
7562.57
8411.99
5615.5
5156.82
2168.01
3172.93
2739.1
316.903
1022.55
150.398
2658.06
2623.13
1245.05
2056.04
1324.97
1190.93
821.528
1370.87
760.758
3237.64
478.353
2642.97
758.526
1418.76
2388.31
4215.08
5965.3
9402.28
4612.79
5159.36
3023.65
8751.5
8894.36
8399.04
10367.7
5491.38
829.749
48.2837
770.291
626.083
3546.94
4748.8
10136.8
27912.8
27403.6
35559
23193.3
21116.1
10740.8
23883.6
15123
21368.4
17389.8
24401.6
16592.8
12093.5
3736.39
384.221
775.437
2486.46
1294.15
681.157
1683.06
1251.19
2215.92
2314.97
1057.97
227.547
83.4134
300.319
1166.07
3268.46
684.864
1092.08
214.828
1485.06
1734.6
4189.69
571.556
56.6951
1381.44
1389.24
2366.25
2166.64
17587.9
14020.7
19736.9
11551
15541.7
14163.2
3397.03
-211.832
1885.96
1427.57
466.94
2656.21
4854.28
2982.1
1313.08
480.875
1952.52
887.8
1375.23
-206.163
140.59
1180.91
115.459
2250
3700.58
5023.8
8467.92
4382.34
2432.96
587.164
3934.08
9025.93
8902.55
7547.35
9344.99
13524.2
14696.5
13060.2
12224.5
10114.3
14438.4
3153.15
6749.03
16770.4
8570.78
6723.05
6777.53
388.84
2343.25
5919.72
5496.18
12126.9
10862.1
4108.22
1320.78
56.5075
-203.941
-49.9203
1220.58
860.449
1687.12
1043.73
1000.64
141.809
1037.35
-158.787
510.206
3115.25
2422.03
806.928
1386.18
-605.214
4907.3
2342.15
1932.45
560.631
6792.46
3022.42
164.136
9761.16
2705.82
2810.12
3130.62
5734.16
14133.2
12381.8
13034.9
12612.3
13015.6
10948.4
13947.1
17839.4
16289.3
18079.1
6400.19
10561.5
7045.52
9933.53
12553.5
8313.2
13368.4
13370.4
22479.5
19052.9
29395.3
21938.9
12887.8
11864.3
2531.57
6208.27
3504.27
8665.74
7438.14
5334.91
5547.43
14508.4
9995.89
5060.28
1073.09
195.599
146.11
1882.01
1052.03
125.564
1261.95
7365.6
6264.26
700.576
640.336
2105.8
1112.6
1696.47
932.849
8846.31
14820
6188.27
5051.36
9340.77
10661.6
15397.7
15274.8
9677.6
12353.9
27821.7
44537.7
40141.2
38337
34909
9419.02
17025.2
13603.4
11063.2
6252.31
2042.85
4061.72
3566.27
3937.45
7998.33
3646.3
2193.74
1530.44
516.121
63.3038
-328.871
2423.72
474.143
448.45
1446.2
120.099
366.354
1983.9
7316.75
11397.6
10736.1
20175.7
15484.4
12331.6
12628.1
15494.5
8780.14
11553.7
11907.6
29240.2
35042.1
39020.6
52732.5
46780.3
29385.2
30706.3
11789.1
18710.2
19037.3
31526.8
27741.8
12721.8
8360.97
10513.9
12416.8
8684.76
9093.46
16998.4
12832.6
15417.5
17931.8
6563.73
3405.2
2172.71
12799.2
12227.7
8726.87
7862.11
11673.1
8504.18
4642.69
1676.67
-218.325
1470.17
680.302
402.852
454.265
96.5952
383.646
4336.39
1558.68
6022.95
2019.53
594.997
2099.8
1648.18
1758.22
1221.06
173.666
1997.61
1582.54
1526.9
1885.62
1096.2
2396.73
3542.19
4269.93
4327.38
4668.23
873.237
7458.01
392.341
1629.09
105.011
1699.87
359.523
334.236
1508.68
2978.62
1114.85
4549.19
4020.58
372.148
3206.99
1723.07
889.512
1003.73
111.978
1460.17
1307.26
2794.6
5016.11
13572.1
25100.5
13049.4
13911.5
20885.5
23072.7
15191.9
13021.1
828.427
2581.93
338.215
2584.68
415.46
1067.16
5289.11
522.106
3409.06
2042.6
975.207
2740.55
2796.8
5359.49
5683.67
10741.2
13377.5
22137.2
13494.5
18019.6
4097.96
4091.47
4975.41
13792.3
13620.1
13288.3
18086.6
18574.1
13813.2
8195.62
3562.98
2444.79
2380.66
2691.12
2046.3
7954.55
1838.59
1107.4
2531.02
381.255
2674.34
1231.21
1385.29
5414.88
5848.11
6230.84
659.784
294.769
405.426
3624.65
905.867
2741.81
1831.43
825.405
481.017
1643.12
2038.9
6461.24
2159.77
257.701
-114.255
1436.15
518.618
905.833
-32.0651
360.239
436.692
234.048
1420.15
585.919
334.585
2259.2
6079.88
14350.1
7056.48
7968.73
12969.4
3106.69
-355.325
4264.71
3892.17
3875.73
576.719
2864.95
3170.35
707.996
294.777
9722.91
5640.43
13892.2
4452.05
7723.89
4107.52
2227.53
7040.3
3946.08
6749.34
8760.92
9563.49
8239.19
1122.92
437.697
1512.99
1850.8
2461.88
4058.22
3711.27
1122.23
1762.96
5771.53
5035.65
7056.54
6691.38
14557.5
19791.6
27905.2
24084.3
19921.3
19796.5
26731.6
41407.4
42018.2
35387.3
29197.2
36395.4
45407.9
35186.8
37813.6
25483.2
43528.9
40014
22584.2
12860.7
8771.89
3166.56
8887.23
7715.57
7679.73
1673.86
4987.39
1372.14
610.182
-137.799
352.643
2179.39
3307.11
2836.1
-264.744
1172.33
15.0504
2590.99
3795.7
3329.98
9896.64
4009.09
5969.95
6145.57
5856.64
9807.42
4162.23
3102.25
5082.65
7478.3
6313.73
4579.19
4737.09
1389.14
4373.27
9302.18
11319.7
12652.2
12910.9
19784.6
21084.5
27596
19553.9
26429
48104.7
38874.2
52763.7
39807
40382.8
53950.2
42406
31628.4
22003.6
37808.5
30465.1
36257.6
40288.2
40015.5
35347.2
45673.1
44332.1
25911.8
10638.8
6908.65
4150.89
7316.39
5075.09
9230.54
2192.39
5424.37
4164.97
560.691
284.014
1186.47
540.936
1784.11
722.043
2208.58
4113.42
12497.1
18629.1
9394.01
9811.47
15188.2
19345.7
23464.4
18443.8
32378
19228.2
15317.7
7214.29
8306.15
11435.6
10466.9
5084.83
5785.23
8222.87
5071.32
3533.46
6247.63
7138.66
7093.62
7169.21
11575.1
10573.8
7894.99
1384.52
78.9484
32.0974
1448.01
2933.44
3236.79
6384.08
13634.4
4763.85
9163.86
11890.2
10672.1
14828.5
18643.7
6494.42
11489.9
7443.8
7473.79
5879.4
5869.35
1662.17
2441.22
1899.53
1937.06
9235.99
6142.9
8485.11
5436.65
4030.12
5165.74
4390.52
2201.14
7172.07
3491.36
483.844
17.009
83.0974
2294.11
1018.53
198.845
303.649
290.787
4881.64
2180.03
2935.62
7621.35
12568.9
12972.1
21321.1
24196.3
17673
15690.4
5514.3
1788.35
567.659
957.876
232.919
1448.24
5698.3
5638.7
651
385.328
516.727
137.922
3631.74
1592.88
7570.82
4543.17
3229.74
1437.94
-74.1899
1116.26
11472.6
6863.1
3360.36
1768.2
934.944
828.059
1253.01
7800.88
15468.1
13867.9
28244.6
64492.8
84558.6
65152.5
63956.9
65089.6
69412
59195.3
55073.1
65383.5
55249.8
32244.9
9583.32
5660.5
3556.28
181.681
195.279
-100.77
6.03742
1270.61
1565.08
803.571
988.5
401.093
280.648
343.095
496.515
7500.8
15241.6
15584.3
17751
12197
10270.8
4993.09
5047.78
5395.58
4438.97
2822.33
4839.59
3595.84
4778.49
7254.93
11328.4
10845.7
10370.7
28157.7
33034.3
29132.7
36951.6
41459.3
68821.1
68941.7
77450.2
69171.5
38304.7
29777.7
7249.58
14415.1
17867.7
5684.49
8302.55
7331.61
6041.33
8082.55
3446.31
14031.1
7536.64
5167.42
4732.15
2550.84
1141.2
587.39
7256.92
1173.05
5939.58
10473.6
10497.2
30055
25491.3
16718.4
14412.5
5486.62
1214.21
492.611
2891.22
2600.62
3262.6
352.987
-434.689
2152.42
1277.54
2062.11
852.924
517.353
1552.97
2170.33
808.041
3351.2
1638.55
461.016
790.149
5083.19
9707.92
7002.46
2576.84
4793.85
7052.21
9124.41
8217.92
3843
4985.02
5586.53
14651.8
7564.81
3226.6
1933.99
6706.71
8487.99
7805.46
15457.5
803.073
2351.94
5474.24
1137.96
1960.07
444.268
1464.23
683.571
1831.87
1181.81
2724.77
125.336
23.69
3715.17
2965.79
410.199
236.435
825.79
5611.86
1441.26
11.9879
1487.14
198.792
902.271
1581.5
2355.9
427.877
2266.75
50.3663
138.408
1492.77
1639.6
3857.41
10074
7080.93
2491.28
267.811
2153.8
3048.18
7955.58
10221
1515.76
280.544
1452.72
2811.37
2083.55
3089.22
2288.19
2762.18
750.288
1480.71
3250.29
1181.82
5281.52
5594.76
2156.89
6422.22
7484.68
199.519
413.793
44.4747
218.747
1711.17
8776.89
9700.53
5586.25
3984.57
7880.76
13861.7
12581.1
8072.05
2254.04
5316.92
7968.11
12653
6868.88
9470.81
3581.82
4447.16
2211.55
428.223
239.759
-242.919
734.694
3016.38
8666.47
10557.4
13273
10220.6
16413.4
17304.8
13974.2
16911.8
25546.2
12726
4351.93
18660.1
12896.1
11054.1
7190.24
3717.79
10905.7
15031.2
26662.6
8636.12
4966.92
6080.96
4998.67
2446.85
1832
5369.24
3781.7
4158.52
6312.44
7715.79
9104.32
1842.44
1968.51
2714.64
93.6777
-220.827
849.448
-59.0443
211.311
961.018
5672.24
3012.33
84.8797
3409.56
2604.97
6484.52
2156.86
5885.61
2706.22
2159.98
7283.78
5942.59
8928.91
5089.5
870.514
1707.13
1194.62
2578.33
2873.6
7973.8
2393.64
2641.61
390.539
-3.18136
639.06
315.492
1911.39
4756.59
5319.72
11631.9
5946.16
1688.44
9020.57
15567.7
20755.4
34070
40593
28741.1
21087.5
15664.2
23728.2
34576.9
29246
8646.14
14583.2
14429.9
11604.9
22701.9
13929.6
9595.48
12167.1
19165.3
8861.58
1217.29
2816.47
3311.81
4358.51
5684.98
4984.66
5417.82
320.829
3004.63
1028.75
8583.36
3198.54
6819.32
1707.76
5076.6
4590.37
2197.39
11664.7
8789.21
4947.39
3361.84
10111.4
6770.44
5061.48
6923.88
7693.49
1704.51
5550.93
4673.26
2813.34
3061.69
5408.22
3923.88
3575.54
1452.3
2273.51
1426.97
1540.14
-366.693
590.761
1161.25
315.606
1303.33
1014.93
2277.2
-16.2704
1806.59
1343.07
387.01
1135.52
5441.21
12377.8
23819.7
27747.2
27553.6
16780.4
2123.63
661.383
230.082
2187.2
4748.88
9469.42
4550.72
7828.77
3419.29
383.737
1677.14
3486.49
7876.6
13965.7
20153.7
20132.7
8290.49
9249.32
15128.3
21043.7
25640.1
51831.6
66377.8
42075.9
44027.7
31538.9
34592.4
37873
29507.1
27603.9
13059.6
11722
11031.7
19651.7
17024.2
11789.1
18815.4
10439.5
8503.19
5104.43
461.64
6021.2
5959.88
8067
9978.33
8009.71
4617.83
14584.7
14520.1
39026.5
36243.7
19715.4
14213.3
13227.3
15703.2
23818.1
39207.1
49651.5
38165.6
40168.8
27467.8
26286.5
19445.3
12157.7
8381.06
12070.9
2322.73
105.029
341.808
87.1194
2192.17
4631.45
1743.25
388.869
125.45
12.0904
628.916
571.682
1103.25
1621.31
7346.02
7810.93
19606.1
16778
23821
35984.5
24683.1
35814.5
46184.9
24618.3
29285.3
19660.8
13902.7
25035.4
17096.3
12499.8
8367.94
3142.04
1630.36
2884.73
2323.61
4013.76
7645.39
11871.4
12214.2
9807.62
4175.72
7903.14
7001.76
8367.48
6043.33
6957.44
3872.74
22.2682
2361.95
5793.84
1239.32
1581.33
4348.08
4632.52
265.479
655.058
1683.93
4316.55
564.446
7872.94
13602.6
23888.5
25892
7133.32
6155.46
2287.72
217.672
-133.478
979.824
-290.938
737.737
-357.417
2357.59
1117.17
-135.084
1252.44
3115.44
8586.2
2552.92
3695.5
6676.32
1209.41
1147.67
2912.58
3360.56
1277.38
278.037
2709.04
1665.61
-330.973
820.78
648.811
2276.84
1408.88
2096.07
3363.99
4496.2
12205.3
10611
8875
10830.7
8589.98
1762.35
264.923
4260.06
2734.14
3829.98
807.787
518.499
2004.93
4672.94
663.808
2459.58
5500.48
9367.51
14274.7
9996.85
4085.18
8659.66
6185.35
8524.62
11931.8
16503.1
11797
7098.33
3938.32
1438.77
3242.63
4286.46
3387.58
908.447
1592.13
1522.93
1349.49
247.957
309.204
2024.57
196.913
1122.16
10841.4
20173.2
14931
8925.27
7236.61
1510.54
1687.89
4109.63
16703.7
22106.3
16796.1
41352.5
41161.7
34597.7
30897.8
26787.8
26143.3
21597.9
17668.8
23520
17278.4
13858.9
5063.52
4931.52
1688.07
14190.1
27310.6
28857.9
32747.7
28315.7
26661
16419.4
15500.2
8729.25
7993.08
7378.76
3446.39
3962.17
4611.09
10502.1
5525.71
12122.2
18789.6
5148.73
2729.61
3815.85
7438.2
18626.1
30812.1
16459.3
8663.91
14478
16572.9
16703.9
4374.75
3820.41
5955.09
7868.68
5480.56
8776.99
6463.14
15087.4
6614.82
3411.92
14139.2
6237.79
2855.25
2717.89
1608.17
1197.85
1092.22
1187.77
4789.85
1830.63
3725.42
1834.52
-60.1196
199.079
1694.12
2245.82
5899.62
9476.23
4869.49
2657.41
3370.62
3763.88
1112.91
938.806
1674.97
1098.32
455.34
452.314
-181.825
1053.3
-466.805
1845.6
2778.67
218.237
2096.11
1678.8
351.221
152.416
138.14
924.939
-17.7872
738.027
2857.16
3165.6
233.266
-471.874
304.538
5652.36
7788.67
8644.38
8774.01
11282.1
21000
13402.6
7266.34
14713.6
18597.1
14024.6
10741.7
14713.5
21549
36882.9
34421.4
23027
24990.8
27579.5
13100.5
8472.42
14911.8
8165.57
7773.68
1752.36
741.557
134.441
1246.52
549.848
3578.15
2384.82
4726.64
7371.82
3801.97
2849.88
4094.21
739.334
2738.79
2309.64
5934.16
6601.92
3749.77
2372.91
1564.53
337.751
478.938
-1149.08
2369.11
3798.57
5316.21
3710.65
1343.69
1919.05
1951.4
887.998
10294.6
12212
16189
14313.8
15005.8
19682.6
17569.4
14505.5
11564.1
4803.67
3333.73
54.3591
-244.051
571.553
120.145
-2.86732
1301.77
413.144
2267.47
718.441
132.963
2699.55
848.542
2108.47
2999.66
2116.6
2386.4
1282.58
2776.92
1921.79
1230.46
4550.49
1869.61
4554.24
4337.36
1492.88
2956.34
1176.02
261.89
325.435
68.7943
1378.14
4093.56
7677.64
11080.5
14677.7
9263.91
5630.1
5147.24
13570.1
8536.42
7101.32
1784.35
2617.45
2790.89
673.888
2991.79
1196.31
3087.78
7294.72
7597.5
4199.15
29.776
1360.68
1031.66
-41.8106
668.13
881.554
374.061
740.602
3352.18
225.225
2264.52
3215.3
6633.82
3093.17
7301.69
13784.4
9017.7
6107.61
164.015
-44.0753
1763.31
8033.07
12338.6
11708.7
18916.2
26258.9
18640.2
10759.7
8735.11
14813.1
9693.88
23993.8
16175
24394
18649.6
16469.6
14323.6
2751.97
154.108
1659.17
2847.57
4816.29
3123.52
3052.6
4825.45
10523.7
1247.67
881.153
1146.04
1527.63
898.432
-134.903
-163.839
2839.71
1392.19
1338.13
4719.9
5202.36
5580.92
6536.44
7015.63
16999.6
12651.2
13970.8
11811.7
6435.47
4331.42
2038.87
-132.024
179.62
2017.22
3079.84
5694.19
1273.59
1665.74
3254.01
835.684
-116.574
153.629
758.857
4608.43
5768.43
1644.06
-32.8568
1539.88
562.933
716.149
-201.682
503.58
642.222
1613.7
5106.3
14825.7
16886.3
5183.88
1484.29
722.806
3381.84
5849.43
14654
21738.2
24789.8
6105.56
7099.37
4115.6
8698.14
3097.62
1705.1
1840.52
1679.71
1488.93
605.753
2809.9
3200.99
1576.36
9539.82
6570.8
7420.97
9756.03
3466.63
5172
2209.24
25553.9
24428.2
37392.4
42910.1
38789.7
41159.2
52672.7
42626.5
34822.8
20463.2
21322.4
9394.44
10735.6
5498.48
3772.32
9725.75
13756.9
21254.1
16167.1
19488.3
14717.9
976.019
-19.3989
309.905
3503.58
6449.95
1127.37
1261.28
416.783
163.918
737.192
5434.74
1644.87
4442.77
290.414
2812.59
9022.51
10419.5
10323.6
4329.09
4708.05
3208.81
2507.27
2213.49
751.334
630.818
-135.23
2281.24
576.222
331.128
4145.22
14180.5
13355.8
28064
14969.4
19356.6
20915.1
26731.2
32768.3
34983.8
38789.9
47214.7
19760.5
9272.29
11590.7
15229.4
15769.5
23532
28121.2
10435.7
21241.9
14145.9
14310.7
12248.1
22372.7
11151.2
10117.2
15969.9
17717.3
10144.8
9515.27
4850.34
3273.19
3487.06
7370.33
3952.81
1844.49
443.822
143.985
133.961
704.134
1667.97
4352.43
-79.0097
220.134
112.655
3055.2
3579.48
198.949
1840.06
7887.08
20344.6
28052.1
27196.9
40603.4
34502.7
22763.9
18813.3
14385.5
11892.9
8103.69
18172.6
18679.3
10495.4
8051.41
5401.23
11970.7
30570
51377.5
41913.7
47502.4
60436.4
34105.5
38154.6
41250.2
37631.1
26764.3
7635.95
4555.86
3707.47
523.653
-142.033
2459.56
2365.55
1123.69
2171.47
1077.86
767.276
9831.72
15525.6
23737.5
20214.7
7731.72
9695.42
6231.22
4936.14
8910.26
6870.75
8415.53
3273.83
2101.57
7900.49
2467.3
627.45
-108.64
3840.9
524.947
430.679
1237.2
4079.81
6528.47
11185.9
9799.9
5287.98
1038.19
852.741
3261.74
8715.79
11815.3
4262.72
6906.93
7865.7
3207.75
798.53
3175.71
186.92
7004.99
4179.23
16283.8
21881
34274.4
30659.6
23901.3
30411.5
23893.6
19303.2
11490.1
10342.5
2335.93
115.209
-280.52
1139.13
708.733
1069.49
-13.4216
723.902
-539.339
960.705
588.697
2053.37
218.379
407.706
665.723
5026.99
2440.39
1476.6
416.134
17.7914
680.421
1536.32
235.103
973.293
961.618
-157.954
1330.99
1221.71
1818.04
1079.88
894.931
435.523
28.4654
51.9769
1755.34
-242.18
2364.23
1553.09
3407.26
2924.33
1103.91
1872.3
1102.82
616.043
69.5664
700.68
791.309
438.264
153.182
299.41
370.648
1078.2
228.884
447.202
1158.43
1028.62
5546.62
1461.44
1886.94
1195.85
951.857
917.413
1185.76
27.9432
191.736
623.758
1974.69
2192.88
5751.4
3918.45
2718.49
107.673
502.424
834.955
939.111
906.073
459.584
2113.89
1274.51
1351.96
1105.31
1139.01
3084.12
7251.1
4920.43
2334
5828.52
3389.39
12659.6
7453.15
12522.1
12439.2
16844.4
11286.4
6408.96
8243.7
1476.42
749.553
1131.79
578.666
2849.31
910.927
610.344
74.5646
3238.49
4647.6
3105.47
869.899
511.751
3143.19
942.741
2964.66
1026.04
1307.38
791.701
2169.17
3371.05
5222.59
3233.84
743.485
318.577
496.017
653.887
-279.623
1172.9
1904.7
3063.01
12340.4
6075.05
3368.79
2175.93
1219.92
1505.66
1012.14
169.657
6494.36
1077.23
6752.06
5816.14
6045.78
11849.2
10932
2854.55
2022.91
1424.15
5999.97
4368.3
8332.9
13263.5
9120.19
3954.76
3595.37
4013.28
6190.17
16338.7
11242.1
22918.4
18389.3
23934.5
28269
26184.7
10056
9485.71
12605.8
25523.3
19316.3
10448.2
5635.73
7014.44
1009.49
938.961
6448.77
5207.88
2138.88
312.669
1421.7
994.327
3450.16
5677.4
4950.94
6035.2
12478.7
12727.7
20834.9
3830.29
3368.77
1392.04
-28.6786
-198.794
387.369
581.211
-213.808
1456.14
1287.6
750.189
4210.06
4587.41
7900.35
8019.19
9959.11
18389.2
8978.68
9696.54
16635.5
10018.7
8868.09
9087.8
17757.7
10565.3
8288.1
5222.22
9006.46
13512.9
6778.47
8168.19
9817.36
7274.05
16568.4
15947.9
22103.2
20392.1
21020.9
13704.9
20260.5
29535.7
24384.7
21932.9
15802.4
3119.47
15339.6
16367.7
3485.63
3043.84
4461.57
8440.58
1289.21
4435.55
769.458
2215.47
2085.95
745.288
1913.3
5149.51
-26.1559
360.574
1021.31
1863.47
198.559
1.77614
2532.44
5235.98
4687.52
5598.74
11941.5
14331.5
11543.9
19927.2
13962.4
17347
20750.1
7863.59
12702.1
5180.27
8076.14
9265.68
8681.73
6202.29
4955.03
4576.93
1974.24
7583.67
1684.49
7100.59
10549.7
10446
3594.01
8468.95
6173.64
3675.78
4202.82
1161.71
2423.99
1925.14
1147.38
2043.37
17.8235
378.253
13.3528
709.614
182.566
913.372
3721.45
2580.67
3657.95
2384.4
1141.83
3297.62
3321.95
5289.73
10176.9
5011.96
3232.85
5820.79
5405.68
3834.6
-234.288
508.268
1475.92
618.353
308.511
3352.7
5840.7
4172
2585.66
1724.86
503.316
1101.01
-57.7975
2267.56
3987.23
246.705
1149.88
2891.69
4065.01
1584.17
727.837
2981.46
2724.12
2067.86
2271.57
752.915
179.484
806.161
432.727
3026.65
8285.5
1241.77
2592.18
-212.699
801.646
163.379
846.153
2075.38
1730.06
1929.74
7801.53
1908.22
2367.85
2602.19
-85.3599
64.7396
-294.589
2418.92
2541.35
8274.88
1934.56
3385.79
2341.39
2471.02
1869.43
345.194
277.095
709.854
2685.69
2600.7
59.9435
1036.25
229.982
3148.53
61.7606
-90.3691
-91.4904
241.335
276.173
4556.28
13015.3
28523.7
28838.7
20673.3
19039
30829
35867.2
30948.4
22660.8
23904.2
21724.2
18710.3
18176.3
18274.4
20831.8
20808.2
14737.3
19711.3
32017.5
35214.5
19843.9
15815.2
16334.4
19771.4
31187.8
35600.9
37415.8
37260
38559.6
53937.2
40915.6
36233.7
24322.5
21224.7
26116.5
11843.3
12464
6071.73
12693.3
14782.3
25639.2
20508.1
18769.3
15131
18479.6
10366
24838.2
9565.67
17462.3
4877.65
11104.2
4043.78
3741.59
3277.68
406.184
951.254
837.739
774.216
1483.44
909.006
-146.287
207.206
442.985
147.173
5418.36
4254.96
6714.63
6783.26
6627.38
10494.4
15223.5
14360.2
11349
16857.4
15311.8
12345.1
3921.67
-248.274
573.052
1123.72
183.967
738.71
4527.91
1945.09
3758.83
11358.6
11649.1
17640.4
15959.8
22417.5
19083.2
22612.6
12373.1
10561.7
18463.5
26315.3
18225.7
15667.2
23253.8
26956.8
19975.1
5891.79
5010.84
4162.76
3704.34
2036.37
162.668
1892.11
601.891
1578.21
1590.19
324.331
107.589
1564.87
383.617
55.3739
811.938
915.063
2558.06
6525.29
3168.68
145.9
1886.43
3132
835.803
836.755
549.592
3611.88
4870.09
2647.87
1500.41
2883.52
-155.538
979.128
550.122
934.452
1673.7
1033.79
1488.65
1490.68
-422.703
892.424
393.699
-152.339
748.125
90.0535
658.431
-145.803
2852.68
3205.52
3276.71
1018.93
1377.27
4026.38
652.291
2312.06
649.38
701.259
196.534
221.267
501.72
4823.46
1159.87
1130.26
1965.91
1385.82
1688.44
3323.39
7273.54
17263.5
9683.77
13034.9
12265.4
9777.36
2931.52
9207.2
7345.67
4019.18
4475.08
4085.15
7003.35
3789.22
2350.96
4256.38
5171.82
5582.55
8264.69
6304.51
14251.5
12721.8
7176.11
9399.36
12359.6
2816.32
3764.46
1521.27
1322.1
551.339
208.04
2767.74
313.713
302.621
2537.59
4351.23
2672.46
6393.99
6305.06
3834
927.755
2202.35
4572.04
8458.98
8424.85
16715.7
20822.6
20793.3
33931.8
41233.3
50787
37588.6
53115.5
53730.9
62702
61868
59519.9
48352.1
40229.4
42981.3
33265.4
29317.3
46630.5
53877.8
47764.8
31179.3
37951.1
22942
4902.89
6189.88
13278.8
19285.4
26592.7
14158
20192
13349.5
9056.55
7604.3
4497
602.916
1880.59
1999.75
4151.69
9397.07
14364.3
13247.2
6749.9
9025.17
12131.4
9264.8
2540.85
4254.69
4895.76
10156
10140.9
5701.77
11531.2
13491.5
7339.14
8487.88
6482.17
3509.98
3645.05
3017.12
3474.61
5000.16
1686.95
2980.34
1785.82
4653.7
2265.01
11686.6
18173.3
7498.32
2090.97
1421.06
16.9189
622.007
1702.34
2552.38
519.815
1511.09
400.026
3495.19
5089.06
2930.77
4360.07
5362.01
8433.66
10798.6
9877.13
12932.4
9054.39
10781.2
7330.87
14582.5
8272.36
11514.7
5529.99
12148
6313.59
5635.05
9507.1
2801.8
3561.42
4512.8
11084.7
12104.8
18595.1
12533.2
16108.8
6952.95
9587.68
33045.4
15599.6
10282.9
11606.9
11941.1
21584.1
25800.4
37241.3
33075.1
38924.5
25617.6
35032.1
36084.6
42262.1
38011.4
25298.3
11074.4
11526.9
14707.2
21903.8
13723.4
8060.65
11457.4
11040.6
4248.65
-436.146
-145.488
110.294
36.9209
1451.41
128.815
1355.05
64.1662
27.3692
3316.19
6409.68
1042.24
4745.38
9865.16
6020.01
11740.5
14244.8
7581.46
15316.9
17212
13987.7
19257.4
25606.8
28051.4
31261.3
22145.5
20135.8
31019.6
36614.1
38574.8
52489.4
33628.2
59691.2
43736.8
47793.1
53693.6
61345.6
47997.5
63193.9
74764.1
80501.5
69972.5
69054.4
49914.6
50060.2
50865
77358.7
61724.2
60392.7
62113.6
53317.7
32686
33807.3
22933.7
23995.6
16834.4
24538.6
31203.5
40084.2
22028
41446.5
23689.1
11754.2
8634.8
2400.42
894.482
3135.19
10357.7
8394.4
19748.6
31527.3
25725.9
16693
14259.4
21481.5
11506.6
7395.72
6586.54
14241.6
13660
1588.44
910.324
2012.59
3915.03
5445.71
1492.67
3149.54
850.572
94.7467
1042.07
2141.55
1818.18
857.458
2749.52
2424.68
1067.68
2828.72
1977.43
1101.82
2390.48
6032.99
2517.09
2317.11
1602.71
463.762
978.234
1908.49
980.117
-558.976
-186.652
243.005
860.271
245.392
3781.33
5086.03
785.056
663.5
2610.63
675.504
430.015
263.158
622.449
607.687
615.164
551.634
2630.56
394.985
165.871
184.627
576.85
528.669
220.388
2506.14
6204.2
16003.3
11223.1
9842.47
4416.77
1374.49
1412.39
637.777
125.892
441.377
974.61
1042.25
1217.5
719.9
3830.57
1234.39
625.065
2864.33
12855.1
8873.07
17963.4
11342
21129.8
13269.1
12105.6
2432.25
2160.68
10703
7460.18
17121.7
4455.81
3725.3
1308.8
102.801
1865
60.358
4610.83
-185.177
3508.17
5755.64
3075.09
5332.08
6578.2
7213.8
3725.2
1544.89
4475.68
1997.57
1658.31
5249.84
5633.27
8419.87
19276.4
17829.1
19005.1
7979.09
14670.4
13585.1
10860.9
9728.02
4170.41
5378.46
3650.51
4415.82
7849.37
2903.38
4022.03
1293.96
4385.99
3433.87
4908.93
3648.59
1387.37
251.518
422.44
579.428
2392.57
2165.97
6587.21
5660.4
-157.734
1839.38
2319.89
2603.32
1283.03
2458.47
113.58
1665.82
2046.97
703.776
-281.428
815.955
5304.18
3611.01
1635.28
978.858
735.778
64.3562
2308.16
1607
623.002
840.406
4967.84
3430.96
974.952
193.298
3521.68
7214.54
568.211
1084.19
955.523
2104.21
512.459
5016.57
3739.4
2787.35
2954.39
1241.89
844.577
1421.58
659.782
4304.83
1040.47
1547.38
1261.14
1277.39
5258.6
8915.94
9289.16
7332.55
4301.73
3987.31
10655.1
5043.52
4661.37
19750.7
13213.7
11593.4
4217.28
2092.17
1751.53
1227.96
1290.29
6232.02
2664.01
1298.66
95.3701
336.42
1878.36
8021.77
9182.03
7922.32
5736.1
11244.5
4603.82
785.311
-216.695
181.26
1522.36
41.1707
4077.33
3659.63
8320.9
12094
18204
9787.73
9019.17
7652.27
11779.8
20326.6
14868.7
5090.82
5934.81
1820.27
949.995
1292.31
2236.02
716.8
3268.43
854.082
1431.39
1034.3
1187.63
1865.08
242.94
136.987
5524.76
2594.75
6053.37
6287.89
11961.3
7083.07
11279.5
4352.77
7060.18
3074.34
131.679
278.804
1040.88
1088.34
2478.96
44.3629
273.251
894.055
2730.73
-44.6027
266.028
3365.65
2613.78
2338.89
3175.36
2009.73
10508.5
5051.23
7640.61
3116.17
6861.47
5731.15
3677.86
2352.99
102.073
65.2451
1749.29
1179.61
1093.82
731.198
4286.05
719.469
4111.22
1489.85
1794.22
2178.55
36.0372
-309.15
2167.11
241.309
312.127
846.95
89.8074
1363.01
686.979
1322.6
3007.88
2965.23
3729.78
970.858
1096.54
8340.48
14045.7
15412.4
10419.2
40065.8
33990.3
29749.7
9169.49
18976.8
14872
9352.13
2112.63
1814.86
1967.38
1511.57
5485.88
5101.28
10372
7960.71
15519
2270.68
367.457
777.746
-77.8495
2083.26
3167.7
2988.97
2157.48
1728.9
7642.46
2688.08
5440.15
1623.81
1928.69
3907.78
2368.19
10155.5
-23.5327
531.914
361.924
4566.46
-161.872
1229.29
2399
3856.08
2206.07
6346.53
3434.51
20054.3
15505.7
22299.6
24177.4
28741.6
9264.8
10289.5
9172.94
18730.3
11612.9
8045.54
14436.8
16106.8
12381.4
10278
5535.2
243.653
-367.211
1010.39
85.6856
375.789
1075.15
1890
6731.31
6782.22
5378.42
4797.35
1535.65
4721.64
8180.56
14936.5
16103.2
15682.5
16762
13896
20452.1
29220.1
22862.6
24662.4
21296.6
11099.9
11837.8
11282.1
15968.4
17180.4
7038.65
13953.8
21235.6
12405.6
10166.3
11469.3
7644.14
11606.9
5159.8
1108.2
1799.28
2008.47
3573.6
6348.36
5817.93
2085.56
545.585
646.058
3677.16
2552.7
603.651
6986.71
2786.38
2016.1
1204.36
3069.4
2799.77
134.19
1185.99
2633.79
2015.26
1345.75
1900.5
467.601
79.2879
-512.423
538.886
4041
3466.16
6605.55
8923.71
6817.35
10288
5515.29
3093.81
4254.5
6747.78
8507.94
6973.23
4892.41
4995.45
4305.87
12818.6
4931.97
1692.29
1546.19
2943.1
5641.03
6338.04
5782.47
8886.92
15010.1
4127.92
3661.69
3230.86
4657.42
9811.96
2920.35
3270.4
4427.97
4274.26
6770.57
11156
15095.1
13824.6
14525.1
15587.9
21761.4
15609.9
7027.27
6528.89
20312.8
13941.4
10442.3
4247.9
1235.01
3456.42
3406.53
4900.35
7230.88
16364.4
7827.59
5104.18
4943.85
2177.42
5655.36
8336.15
7895.74
2035.85
6070.9
1044.8
-59.8116
4324.68
2819.67
5427.08
4794.41
8562.2
14177.7
14460.8
11147.1
5844.71
4261.46
4657
2770.6
946.99
721.959
280.178
40.9027
-85.1303
1115.76
2903.46
4379.68
5324.13
5026.31
2100.96
1467.81
1561.43
315.495
505.691
-159.436
696.982
604.105
908.971
319.245
-85.4031
45.0313
2595.71
2888.61
12630
15773.9
8488.81
6277.62
7159.43
4362.07
3227.33
348.94
801.949
845.512
13943.7
2364.44
2363.77
2179.93
3435.38
2656.02
2264.29
1292.23
1495.78
2490.93
5581.25
723.007
614.425
1595.64
436.93
434.69
1804.66
1.0186
1141.92
1570.74
1836.15
1481.29
2629.9
570.917
273.128
1180.61
-401.685
929.293
1537.63
-322.959
5939.08
10573.6
16686
11401.5
7152.43
86.1091
-89.38
263.071
5668.08
743.648
1964.03
146.371
829.867
-229.943
1670.56
-157.211
1818.65
5478.21
3521.27
1385.69
1785.24
-44.8012
1779.99
6040.48
5518.23
12665.4
18759.1
25308.5
23558.9
25769.4
17578.4
10586.5
11462.5
1684.95
672.531
810.048
3189.33
5555.26
8612.78
12449.5
4352.12
1920.56
1169.4
2233.05
-188.828
1248.49
3009.29
2132.06
847.88
2406.49
1394.6
8.62074
394.671
752.481
3413.88
4788.79
2913.58
502.66
874.585
278.873
2861.54
2175.08
321.077
2225.79
1417.98
1401.75
2855.6
1540.91
2275.15
652.806
841.683
3961.1
12132.4
23955
18146.7
21935.3
29405.4
43413.7
50654.2
50912.7
51484.1
64252.1
59876.3
56733.5
50157.8
37757.1
38547.2
25462.4
37801.8
45174.1
30639
25868.3
23855.1
27463.3
23170.5
14340.5
27541
16174.4
23214
12338.4
5115.39
3397.47
4407.64
5612.86
3547.14
1306.33
2047.57
588.491
-85.4827
210.026
829.28
4157.29
204.084
1597.25
611.38
711.623
-101.725
2467.77
2012.32
410.43
959.755
1728.76
933.5
21.6975
30.046
907.282
1042.8
1747.25
4045.01
3598.28
4266.69
1810.93
945.451
111.887
988.206
1958.15
1801.68
2337.01
435.465
150.162
-158.755
156.131
819.502
3701.31
7447.35
5755.44
5922.16
4635.14
2621.61
1733.55
3001.48
596.524
-191.817
1793.97
824.911
1051.07
6591.29
9869.6
11439.9
14217.2
10957.5
12479.9
13549.9
13922.9
14320.9
7937.95
8841.83
3611.85
4668.18
8118.16
4106.44
3562.05
339.052
1833.14
364.909
-43.5829
2342.34
1341.94
6916.48
1444.83
951.12
1645.73
1577.58
753.442
604.673
2575.92
379.265
1028.29
-34.372
4217.01
2498.69
850.185
1498.79
1349.6
559.835
1193.85
1498.82
4391.17
1605.07
1302.51
1961.5
1815.7
2730.41
2124.28
262.133
95.7087
363.942
818.76
3736.18
1283.1
2352.24
9193.14
2489.39
1279.49
1369.63
2602.04
5376.59
384.085
1502.6
6076.44
814.247
-243.096
5568.22
3940.04
1292.14
1008.28
-149.859
1502.14
3957.72
238.332
959.379
-513.176
2411.48
351.777
92.6011
2549.46
1902.53
2957.6
7154.63
7932.97
1558.44
5077.72
3042.72
2254.99
106.807
-242.787
-249.827
965.968
2205.38
3418.14
6196.6
2685.05
321.836
1976.42
2190.58
-130.505
150.751
777.993
2147.16
5479.38
3841.71
9579.89
19543.4
12083.8
14459
18935.1
18131.7
23297.6
8938.3
3620.5
4420.4
6174.05
3264.89
1555.77
1999.59
5159.21
9610.23
7576.1
5419.44
2597.49
518.762
906.763
363.813
229.968
24.9177
2698.13
1414.19
3715.05
495.811
3902.03
3846.23
2165.35
467.532
1887.36
826.115
2495.36
410.633
1293.95
3976.37
10682.2
3257.1
1270.44
3350.96
4580.76
60.8254
267.685
2038.69
785.568
1656
2364.16
545.202
646.125
3721.2
6515.73
10023.8
13476.3
8132.18
7825.63
4954.82
1041.39
4007.6
1387.4
2336.24
3500.4
2742.54
1092.64
442.365
1154.77
818.937
1928.13
-227.182
779.925
2902.44
169.71
21.2052
498.379
563.461
2941.08
1779.53
2489.32
184.469
919.835
2526.96
2265.38
307.4
3292.09
3596.46
797.734
1206.69
1198.85
7259.35
6153.08
17453.8
19320.1
13386.2
10985.3
10779.5
9068.17
9616.92
9808.54
10398.9
12269.4
8927.76
21067
10968.2
11696.7
15503.6
6065.35
6126.38
2292.53
3027.77
1120.08
768.457
3148.01
12415.1
23092.1
20588.1
23455.9
19497
32033.7
21924.2
15452.5
23813.4
27420.5
23222.7
18091.3
20461
21226.2
22465.6
15212.5
12903.6
13706.1
19696.2
14268.3
6426.38
3536.44
3273.54
2550.86
6705.59
4747.45
3824.61
5333.41
723.651
588.863
1799.11
-23.9134
2661.63
1980.17
1896.26
2308.18
1480.85
1040.72
721.692
565.187
333.478
394.56
670.671
493.33
656.061
933.125
-217.975
360.642
288.698
126.729
511.7
1265.09
656.64
1952.69
3712.78
4431.3
866.812
2666.77
201.53
1644.3
336.622
794.357
653.101
731.78
1387.83
6512.53
8455.02
6905.76
9956.48
8096.03
2954.63
4251.31
3085.75
2290.12
753.976
638.805
225.123
2224.52
2579.6
8647.92
2471.88
3980.55
5728.73
2005.08
2711.73
626.798
197.615
65.7412
4875.75
5883.77
4400.66
3003.43
269.305
1944.01
7025.01
9010.24
9336.6
4447.93
5090.81
8288.71
12005
12048.7
17945.5
18201.2
10799.8
11076.2
12208.3
18166.3
34443.6
42563.3
24113.7
17323.3
15406.4
16490.7
17364.3
17936
17777.5
26368.7
27055.9
24044.9
36743.8
43431.1
47871.9
41751.7
32096.9
18068.1
34018.1
16695
22564.6
18781.3
18012.7
20585.5
19754.3
18524.2
24685.5
21445
24991.2
38286
22428.1
34765
33729
34032.6
21291.6
15363.3
11538.4
15165.3
6175.42
5850.66
13147
19292.8
24494.4
20006.8
8300.58
12705.1
11356
7389.83
4884.39
1113.08
4325.93
7756.65
7014.09
4193.02
9831.28
6150.66
7591.03
11039.6
21869.9
24056.1
28611.7
35036.7
33940.4
44604.6
38236.1
23664.8
40324.2
38485.7
28132.2
20606.4
11512.1
8662.74
7972.49
16185.4
37896.9
39498.7
41286.8
36658.1
21156.8
9745.48
4759.47
8092.3
5957.73
9017.9
3158.88
7780.35
5680.13
4660.26
10004.3
5966.86
4891.45
205.78
1145.13
461.257
1744.32
1555.7
3938.25
5232.71
3505.51
2283.58
367.986
1706.66
1988.13
89.7257
193.069
226.26
868.724
1137.26
85.0579
436.347
2668.6
5637.61
6175.11
12211.6
11103.3
25053.6
25400.3
19638.3
10545.1
13837.5
20624
16084.4
8043.81
10920.8
8744.57
16033.9
24204.2
24589.7
20312.9
29163.3
33939
33417.7
20693.3
8011.18
7851.46
16516.1
11515.9
15841.5
13001.3
3651.06
707.709
1006.53
755.994
1990.47
2353.65
2038.44
3225.55
5728.91
3540.03
3153.83
6082.54
9629.35
4042.77
6026.97
4665.1
3669.79
2096.15
115.223
1847.27
952.57
870.769
688.24
3040.95
8047.84
7612.33
6349.8
3443.31
1586.63
348.974
144.109
1481.13
438.59
12.6565
364.28
264.985
1544.78
1989.25
6096.26
1168.03
1436.25
1216.28
973.696
2213.34
432.078
178
914.994
931.494
3901.28
2638.08
2115.49
5454.99
544.099
1350.71
403.672
1875.93
6161.53
1085.39
9358.66
9640.49
5143.79
11041.8
5541.01
2842.54
3365.25
2525.55
5799.07
2467.01
2467.71
2205.91
3689.91
3058.02
3260.59
280.317
927.177
3001.94
341.319
-122.572
1243.8
4326.16
6463.05
10515.7
18011
12888.6
9245.95
11230.8
7930.31
1416.12
5262.37
407.965
242.12
254.32
2276.86
683.447
-196.66
1114.44
339.277
2047.57
82.2685
2629.05
5956.96
3973.48
5644.16
11169.9
16286.7
12677.4
16368.9
24107.6
11292
4301.62
569.224
6511.34
2637.21
3945.51
1015.35
2930.34
3071.85
1045.02
899.596
2201.65
1105.58
-641.524
460.115
482.644
2335.02
4098.92
3636.16
3529.27
705.713
1486.06
2314.37
2632.32
628.821
5187.14
1199.25
2563.6
1177.06
552.277
2676.69
1517.3
2974.48
1675.23
1369.78
-4.5431
874.311
4910.45
10221.2
14242.8
9205.55
5298.18
517.059
1421.54
43.9329
91.3027
-394.369
3819.17
-508.254
1011.9
2856.14
3487.54
3985.71
4626.72
5353.87
12151.8
11599.7
9338.83
11589.7
6788.54
1276.95
772.922
755.535
3669.73
5466.2
3886.07
10761.7
2897.34
11814.9
9748.79
13183.7
4201.21
3051.49
3981.19
2044.8
6166.01
10637.6
19055.1
28881.2
20776.6
10164.1
12762.6
7274.99
10229.4
2032.64
3130.06
7186.64
5138.99
5970.83
1475.96
6877.37
11837
2385.85
1994.06
1397.49
1236.86
3511.77
1898.21
3513.83
10201.9
10661.4
13428.2
9849.56
7733.22
2036.85
1968.64
4769.17
4013.31
6791.43
2923.43
1711.13
452.517
385.235
648.096
1340.03
1036.73
-90.0288
2303.37
2933.07
4232.57
12843.7
5567.07
11150.9
10319.9
6919.82
3838.6
4571.98
12384.6
3157.37
6477.13
3420.9
1624.59
2272.3
2272.3
2486.44
3101.49
4167.56
9752.05
11176.8
16282.1
14397.8
14921
27577.3
19468.7
22265.3
23358.3
19980.1
18101.1
15202
10270.7
1972.28
976.855
3634.57
1292.73
3300.08
3438.7
1494.36
4302.41
5508.9
8552.75
5929.67
1022.69
1242.46
1403.92
2214.75
327.684
805.2
177.715
276.476
2453.08
2157.04
5621.18
2754.95
958.825
329.432
1407.39
482.734
968.544
1015.19
285.419
215.28
2596.09
5593.72
8405.5
12161.2
13283.7
6549.33
10114.9
7607.2
8782.08
16539.3
21792.7
25798.1
35429
16467.2
19628.6
12730.9
4056.63
13800
15268.9
29469.3
20664.7
17642.2
19887
8980.2
2690.09
-264.145
645.405
3006.73
5438.7
4212.71
3361.64
2944.63
1729.86
5007.38
5689.4
4871.8
1989.48
4470.79
1274.67
5578.25
5899.25
4292.98
2573.94
812.442
3292.25
1237.57
5206.54
896.264
3730.09
2063.17
936.693
2466.36
1760.55
1254.88
1337.68
5479.05
8522.47
3105.03
590.028
-103.144
-171.443
4583.9
4751.69
1097.79
1030.02
2048.88
2296.86
4419.69
7265.11
9764.98
6587.12
2364.52
1032.9
643.905
90.2577
1322.04
-224.59
669.073
104.034
2433.94
830.791
4383.75
8411.05
10429.2
1879.98
4072.06
5721.44
6183.92
1272.17
1061.87
2741.53
5766.09
5874.4
3484.24
2439.77
207.538
534.061
666.447
983.133
203.6
1172.51
116.54
1991.86
5445.2
4999.51
6728.54
10760.5
10038.6
12027.2
8140.48
7791.42
5311.86
3836.76
5567.85
2477.31
-111.678
-296.889
2818.71
8087.95
20710.5
14301.8
13096.5
10579.6
18866.5
11503
13245.4
7378.27
3738.09
1760.22
6407.1
3609.14
4733.16
2976.7
370.824
3226.41
6962.62
12072.5
4356.62
3351.05
-75.702
1676.08
15187.3
12495.5
14340.6
4881.14
4645.26
4193.61
4165
1272.35
2049.02
143.524
2721.93
862.52
3491.07
5002.17
1369.04
458.77
340.45
-128.69
839.092
1297.83
3204.57
7026.15
6512.38
6478.02
5016.13
2608.49
1035.59
658.971
1175.74
327.708
879.096
10.4086
1796.5
803.32
1028.05
3213.13
826.4
1169.78
-328.308
1139.74
1047.09
1708.74
984.399
1810.2
816.698
-255.758
617.694
6887.22
12654.4
13660.1
9252.15
7799.59
5042.55
1149.85
1550.58
349.553
66.0477
799.369
2935.54
1445.66
894.29
831.734
-238.607
51.3227
1933.81
2201.56
7443.35
7852
13984.5
4461.09
5713.23
1735.89
883.333
2902.92
2597.59
2155.79
2629.29
957.033
3512.75
5644.67
3196.67
2550.99
581.399
217.85
104.014
1642.53
347.068
456.319
1153.42
5858.81
9860.4
5610.09
2635.73
2823.65
10504.1
9634.56
8605.2
11344.2
9426.02
9749.51
2031.64
6366.98
9415.33
19422.6
30768.7
31616.8
18407.1
22781.4
13716.4
11759.5
23209.7
21818.1
19994.7
6166.8
21141.9
16216.7
9784.95
29161.9
12528.6
9230.99
1935.69
3195.77
6891.22
5877.88
2322.85
1078.95
1898.16
1981.26
1528.2
1731.63
2935.13
4242.59
411.476
447.431
872.461
497.747
746.137
327.205
1319.87
1068.24
2544.56
2777.27
5750.52
4893.75
15495.1
3391.38
3208.15
1212.32
2811.14
4038.43
8249.28
13457.5
12439.4
14363.8
15085.3
22306.9
24374.7
20622.1
15958.5
3836.26
2030.76
5184.99
1504.32
1316.31
79.9859
632.819
598.543
1082.76
3861.83
827.674
1311.45
1688.33
4003.72
3034.62
5623.96
3164.95
3247.8
3471.84
6142.73
7605.98
18695.7
16195.6
18236
6230.74
2509.73
7075.21
12536
6960.29
8745.22
4180.45
3210.31
10309
10534.8
5028.4
9868.87
8984.52
14601.9
11397.8
23072.5
21438
19654.3
19326.5
26646.5
23159.4
12888.5
8988.91
4573.92
3147.52
6052.79
4520
1302.31
2539.3
2318.9
3038.21
-21.7535
295.27
10829.5
16005.4
8873.89
1495.51
339.918
-354.211
454.738
435.292
151.886
-64.3154
-251.068
342.894
126.613
-440.183
249.783
386.315
3280.98
231.602
4109.78
4727.03
8174.38
7430.51
2652.05
2305.98
-199
1872.81
3273.38
954.208
1323.23
2160.98
222.779
-11.475
1387.06
3609.61
2694.85
3474.98
3539.04
2836.05
8628.77
6858.27
2124.95
1497.84
6284.15
11300.7
6224.04
3262.05
7059.76
8255.45
2923.48
1860.63
3450.24
3608.48
12528.3
7090.36
5051.48
2214.63
4351.32
8496.27
6188.76
6965.22
10721.9
4658.13
687.073
1196.38
3520.78
4146.88
1675.8
690.602
823.168
662.298
752.445
716.688
1108.7
2899.5
4932.23
1363.74
335.84
2589.33
1148.06
429.177
731.698
2254.61
419.839
474.409
905.125
-712.661
1701.2
539.392
2529.14
396.161
40.5022
664.15
487.923
2894
5139.72
3547.74
5651.31
11605.1
29109.7
32050.8
10072.6
10509.9
4230.63
2106.96
1102.75
4515.22
119.423
2789.69
286.726
353.267
-246.974
44.044
1645.65
1900.6
2522.94
38.2267
-286.457
1015.46
1079.68
3929.09
6938.13
7441.42
5754.26
1228.35
2542.17
1523.86
2130.99
2726.83
1841.51
1013.72
814.881
4861.61
1825.77
1268.11
1766.28
1213.93
23.1538
862.311
4676.13
4629.68
3934.95
17.2291
1144.7
287.102
219.719
191.74
295.55
966.791
621.339
583.649
-257.558
547.199
660.682
-426.334
-81.3054
677.58
8631.53
6289.98
4508.43
12655.4
7452.14
8215.16
7559.33
15188.5
20958.6
18338.8
6111.48
15512.7
24608.1
33857.9
38395.7
18992.8
25974.9
34372.3
18872.9
22467.1
33034
20135.1
37212.5
27359.7
41164.9
35947.5
18608.7
21475.9
26546.5
28162.9
36653.9
46633.6
55680.6
59813.8
68275.6
49495.4
43071.4
35612.2
42822.3
49381.5
76159.9
57037.4
36802.1
21545.4
36356.1
37680.5
34678
35584.8
18679.6
16756.4
36680.8
48236.4
42184.9
39740.1
52211.2
61239.2
43584.5
31517.1
34136.5
24740.7
25825
40961.8
30043
50125.9
32361.2
13462.6
11457.1
15224.7
16917.4
16799.8
12485.2
3985.92
2282.52
3880.35
765.02
1589.48
1625.52
1822.45
5878.76
5136.42
1778.79
5548.66
8653.2
6659.57
9523.62
9568.86
3775.51
6377.48
5080.69
802.268
870.659
701.065
1223.73
7397.36
15425.3
11005.5
6928.34
3444.77
871.475
1113.07
729.711
2087.73
2031.1
2190.94
4516.46
2052.25
3387.18
5418.51
5463.92
8344.36
21840.5
11917.3
4175.76
2240.46
144.977
549.486
1845.06
329.637
1839.2
893.018
981.273
1416.33
866.613
1959.72
379.579
342.976
856.962
-132.696
990.821
623.502
2335.53
1949.82
1509.61
1747.1
1380.19
3916.38
6088.57
11890.6
9362.16
1694.1
1589.27
1391.4
1202.92
559.853
2803.48
315.286
96.2561
-539.819
898.943
2181.4
1920.63
1233.89
2604.21
1238.95
1033.21
4410.57
6127.94
5926.23
4227.35
3035.35
7293.23
16359.8
11688.5
13217.9
22916.9
22588.1
27960.1
20712
18824.1
23228.9
19902.4
22367.7
19997.3
14432.4
24027.1
14690.4
8078.49
4744.31
11077.7
15060.9
28697.7
32406.4
33057.4
30966.4
24196.7
30535
38313.2
20288.9
18720.9
15432.5
21506.1
35088.9
36034.1
26009.5
39641.2
17641.4
15409.5
11526.4
15612.1
31272.4
21885.4
13242.2
13426.5
5303.53
4252.69
87.2817
445.546
-713.844
171.839
192.932
3296.9
5113.2
1949.75
2316
477.379
1594.26
1455.6
342.569
487.409
2090.51
3557.51
402.205
1366.64
738.083
58.2013
524.623
-322.308
813.182
2673.44
3682.41
4812.26
2298.35
618.984
1155.65
2747.15
1967.53
1768.64
1964.41
2095.83
6679.4
6144.82
12670.1
13774.7
1629.93
1437.2
1831.18
96.8933
1461.29
1007.97
5446.71
1750.95
1359.89
4019.85
8572.28
2714.4
3936.24
1278.19
2438.28
726.896
770.928
943.048
2002.66
705.693
