17771.4
11659.4
9785.27
7672.67
15657.5
14696.6
8921.81
12698.4
3427.18
2200.8
852.264
987.434
2147.81
803.582
1415.24
-55.7345
397.984
157.335
-523.572
443.518
1191
-381.584
-703.119
-1087.84
3141.93
5541.16
1955.56
5369.28
4460.62
11330.1
4764.81
2065.81
976.886
-446.242
468.724
8382.81
9046.3
3593.98
346.935
998.68
-6.09749
307.01
78.6878
-115.172
1266.53
983.106
1329.7
6012.48
4404.3
2826.44
-69.3197
2787.09
369.385
4165.3
1464.39
6955.91
4831.48
2811.51
1223.05
1812.12
1471.81
1659.86
1094.54
-213.788
-68.7868
1262.27
6026.76
7043.12
12447.9
15991.5
16269.1
12407.1
14332.9
9750.29
7876.43
15994.1
21301.6
12822.9
7307.47
13477.5
22585.2
20793
15976.2
22481.1
17984.8
8781.91
13230.5
5001.8
1277.16
277.876
237.002
2023.58
2313.85
1443.34
484.146
531.013
5048.87
5623.27
6721.29
3135.49
2639.88
5851.53
5775.01
526.351
2185.7
9485.98
8230.54
4491.61
21581.7
25559.7
7020.22
5438.78
-577.359
217.139
281.087
580.069
1960.03
1109.39
321.071
-267.934
-425.108
-137.257
-755.789
1411.2
2649.64
-287.413
-101.352
-473.661
820.037
4746.4
3938.88
5852.49
2878.55
934.574
-123.374
79.3087
338.572
922.557
374.751
128.448
1471.19
622.588
1086.13
2006.08
5994.06
4274.28
6188.78
401.389
2974.74
7371.83
4734.15
11161.3
5986.26
5726.92
3001.23
5905.72
6794.01
16422
10747.2
4410.76
4097.51
4045.12
3035.47
7657.39
8180.2
5376.31
4936.19
12863.4
2182.03
6586.32
2204.47
1550.84
1435.77
-39.3292
767.013
946.732
1790.21
1238.8
-664.114
-294.589
-343.816
1836.26
6457.44
3486.22
4492.82
4715.49
3047.12
1004.78
5928.65
4383.17
3968.94
5971.64
11062.1
13331.6
21895
17082.3
13270.3
12637.7
6217.59
4476.54
4058.06
3260.33
3267.87
5862.48
9242.83
4963.3
10037.7
9970.65
10331
20545.6
13989.5
11751.2
6791.66
3434.94
2366.24
7036.67
5078.19
4882.77
3579.72
3448.05
1921.59
2256.33
3747.21
2110.86
-60.5511
4989.99
12477.4
14615.3
5473.58
7779.81
9989.56
2979.68
5544.62
1033.15
3006.38
1128.56
2311.7
4608.26
4871.38
1357.49
2378.27
4786.85
6381.11
5541.66
9487.44
2714.87
5985.82
6378.02
8201.95
13055.5
5259.1
6220.09
8959.91
7476.13
11159.6
8159.79
2659.85
2464.77
-28.1604
455.536
-435.891
-131.88
326.858
2482.83
4735.62
2908.81
-5.73618
108.266
-245.001
-282.466
181.877
444.499
2328.41
3663.39
3936.96
1779.25
2055.45
1582.13
6645.67
3909.75
559.308
102.912
131.089
384.645
2759.96
2883.16
1027.16
2992.12
1070.02
73.6302
587.195
326.147
146.991
102.284
624.547
3944.85
764.8
454.411
1125.41
-168.37
150.917
1374.62
1235.4
-319.946
882.223
-173.24
1255.7
8796.82
18749.4
9762.89
3219.91
4973.16
4498.46
3533.67
14902.9
20382
26197.3
23684.8
37937.9
18842
31164.1
30853.1
14817.3
7276.43
8627.85
5212.83
8147.37
5760.34
3473.36
2177.24
817.068
5169.42
1560.97
623.328
879.382
-51.2407
-160.32
-599.72
231.396
-437.35
262.722
-385.365
-83.9813
1483.73
2707.13
445.588
-142.208
850.204
135.229
1278.56
3873.11
1061.68
-55.4002
6887.49
7666.32
5515.16
4873.99
2734.5
5846.28
4838.45
979.235
-0.689048
2692.74
9984.02
9010.64
14833.1
4451.32
616.18
-469.829
-274.61
374.321
23.7948
-8.41091
502.264
443.274
3294.68
6256.04
2598.98
6746.65
12491.8
14373.8
11987.1
9857.53
3631.62
9226.8
17177.3
21622.1
10055.1
4746.38
3437.13
931.682
281.978
27.2527
-399.853
-43.324
713.001
1531.42
405.106
802.846
3819.73
316.682
-827.195
1509.91
442.904
530.407
1935.55
5774.25
4250.91
4091.59
8617.33
2958.11
631.727
2452.77
16334.2
17325.7
22979.4
17229
15129.4
23871
25243.6
22661.7
15373.8
25510.7
20367.9
16646.8
9419.87
8205.51
8105.75
11220.4
11813.5
9168.45
11402.2
5875.83
1026.03
729.707
4709.07
2558.39
3380.24
6980.68
2139.99
-268.568
485.454
198.506
5102.56
5973.77
777.784
1333.67
5903.6
5773.37
207.969
-387.478
-130.488
2836.76
12862.3
9399.61
9446.15
18680.7
26810.6
49130.5
48946.6
43727.4
42065.5
34124.1
35683.1
45905.5
47835.4
37721.4
38367.6
26295.8
22115.5
9338.36
7114.1
9642.83
8684.43
9708.27
11446
6956.94
4660.78
3554.38
612.72
684.819
86.3151
1248.94
3371.5
3898.49
4427.98
4961.35
6179.78
10354.2
15814.2
16971.9
27142.6
39065.7
45226.7
61665
54797.3
63369.3
64999.4
61884.6
44296.5
30739.2
21444.5
14821.9
15387.2
5871.36
6310.51
4447.68
8250.3
10025.7
13147.7
16302.2
17818
13111.6
5718.56
3562.8
6717.69
5240.39
6489.09
6200.97
12486.1
6643.33
809.214
281.37
-76.7698
1079.87
11082.1
2594.64
188.915
678.135
170.912
713.859
109.122
4432.34
1731.74
752.036
504.396
-505.882
3526.85
13246.1
20445.7
13632.3
29831.1
24691.9
17862.3
21252.2
20541.4
16717
23468.5
17624
21252.2
25348.6
14390.7
18453.3
23506.7
32611.9
24156.5
15444
16222.8
9468.44
13080.7
10091
4597.11
5224.42
5171.79
2595.33
-1450.4
-618.582
1140.11
972.182
297.074
707.855
1065.54
391.557
2412.14
1280.65
276.827
-73.6335
1147.05
780.063
5.86664
-269.182
675.223
155.785
-207.897
89.3866
1832.6
10499
5133.75
4672.12
7191.93
8921.82
7421.24
7088.62
2706.69
6502.24
3912.11
9638.62
4253.11
4591.8
6031.61
6274.66
11334.7
7243.46
7788.1
6693.65
3095.68
1962.69
563.665
518.72
2100.71
111.785
913.224
505.257
5484.95
137.727
2106.61
-890.447
360.552
3041.35
664.457
1085.18
649.961
1545.25
5620.93
973.079
1003.66
415.135
326.341
1978.36
1432
1354.57
2853.62
10132.2
6498.79
23334.5
20508.8
29450.7
30380.6
26943.1
14011.5
14277.6
13086.7
5427.48
9741.21
6779.14
8913.6
8422.58
14124.8
5786.4
4797.27
9257.95
6910.6
9882.3
3424.51
79.149
1739.3
1085.24
-2.19392
185.76
1460.14
2012.64
3806.55
2458.88
2305.63
850.948
3674.18
6206.47
12933.3
21899.6
15245.5
13856.2
10506
2162.11
2439.66
2897.13
2552.71
1347.59
468.751
1061.03
689.522
360.746
4369.2
1656.64
3612.42
-323.666
284.83
32.8571
4665.38
4095.06
7682.36
5587.3
2563.88
7457.12
6686.97
13449.9
13963.5
7043.02
7248.92
1718.99
-46.9747
2608.5
10316.6
10594.5
15936.1
19819.2
17816.8
26227.1
32988.2
24750
12087.6
16143.4
19072.7
9072.19
7209.89
211.983
1028.67
5224.82
2433.67
307.698
906.499
4342.69
5481.35
2476.42
1739.29
-351.738
140.357
1874.67
459.824
182.413
1154.19
3676.08
2680.2
1045.3
5659.99
6787.55
2090.94
6665.34
3196.24
1870.21
9238.74
10233.8
3629.78
7543.05
11673.5
7703.15
9427.19
2353.48
8289.73
6603.57
5248.8
8183.12
8391.71
2518.98
6496.62
3086.62
2378.03
568.577
3038.16
-359.976
315.041
2190.55
4889.99
11946.5
3475.13
8540.09
16790.2
9561.71
11484.1
1850.31
1858.79
2720.85
4808.64
1426.16
294.343
16.6072
2374.52
3382
1958.41
1995.07
1165.34
4368.83
2673.46
3067.47
1797.61
2977.38
1897.1
879.71
360.646
1702.22
145.456
702.111
3705.43
2742.74
2345.27
496.583
323.844
87.664
219.478
339.827
282.818
472.281
-40.0478
10.266
650.1
-146.797
146.114
2402.62
-83.8755
-236.004
-154.716
117.243
2862.36
853.434
988.148
288.15
3003.17
1691.46
1189.52
1330.75
1602.46
5241.42
6817.39
16810.2
27277.8
40092
61560.2
52810.3
51769.1
37637.9
26284.4
38934.2
51926.5
50183.2
53917.2
46504.6
50718.4
28473.1
11023.1
5298.51
134.832
461.52
1752.86
6077.86
12334.8
7118.98
4186.11
3601.59
4134.6
2095.53
3009.38
1874.91
1558.77
1763.46
-256.739
369.485
2000.28
4265.63
6156.95
1485.97
2894.56
2573.32
3881.23
6198.85
13679.9
13594.8
14341.9
24093.7
28356.3
33453.8
25120.5
30030.2
34392.8
22762.8
20083.4
32328.1
6810.85
5101.1
4623.21
13320.5
10644.8
3381.74
5120.17
4607.22
12953.6
12854.1
14185.5
8512.16
19125.1
18653.1
17184.1
16503.2
20774.6
15227
16101.8
14396.9
20342.8
28814.1
27501.7
34911.6
26846.3
34503.3
30218.4
35751.1
22675.2
34916.5
55163.8
49031.4
33705.1
24659.7
15568.8
8100.6
2301.73
2251.63
2082.08
1323.82
363.897
29.0236
-6.27048
20.7552
1432.91
3497.26
3828.27
1762.47
3039.34
2002.94
1746.55
402.907
2748.56
232.551
1207.62
3526.1
-196.717
1436.24
-464.855
54.8869
659.372
2408.84
290.022
1045.53
7560.48
7915.55
10748.4
4556.94
9151.28
8758.47
6770.9
5043.31
6714.22
4608.19
3148.66
4077.95
3689.91
5485.16
9531.36
5693.38
2410.44
3036.39
9027.84
7961.63
6674.04
3704.45
1712.36
906.157
483.052
778.464
194.321
-27.1491
1879.88
2263.08
368.1
226.831
-198.859
4915.69
5447.76
3968.25
7705.05
26576.5
17383.6
11559.8
12034.9
16039.7
11661.9
15179.4
5456.27
5241.37
10047.2
10910.3
9250.87
10285.5
13638.1
9797.15
13900.5
7847.96
9920.42
18777.4
18838.2
18220.5
16982.7
13625.8
9017.24
5389.73
12779.8
9368.95
6098.62
12387.6
30085.3
23140.2
14570.9
9583.41
2946.67
8392.41
5234.25
7455.44
15827.8
9207.54
13374.2
15832.8
4543.59
4978.51
7919.73
2437.19
2367.66
2883.43
5574.17
6561.03
4168.51
3980.33
1014.34
-336.578
-127.567
872.733
-122.05
469.107
750.806
4351.48
740.421
883.47
457.243
1794.81
5559.42
5783.53
15813
8422.92
7537.73
2614.53
338.825
282.916
74.1406
1962.83
767.474
1430.81
4179.01
894.812
3488.8
1739.26
368.635
412.617
-10.6176
-819.286
1073.48
1332.71
1840.75
3388.82
1691.78
12209.2
9513.58
10306.9
3595.71
812.63
1109.33
564.345
757.548
359.167
111.33
393.512
-71.5116
-63.4804
554.718
-57.4337
1810.22
736.146
462.157
-483
-57.9338
313.258
486.83
92.9693
358.949
1417.73
138.423
-116.928
142.593
62.4192
-68.9236
-141.673
231.647
131.243
329.674
12387
22770
21826.8
11957.3
4042.89
3651.04
962.964
-60.6982
784.722
1184.17
2606.84
489.208
488.723
3594.18
2782.47
848.463
45.0931
1177.34
1069.53
1095.25
867.085
2700.03
717.473
1275.1
1465.24
-280.171
704.104
2515.48
913.11
4186.12
4131.43
1366.46
6183.48
14260.2
11502.8
19295
10145.5
11357.2
7013.8
1765.37
606.378
6199.78
3921.25
3300.65
4218.61
7673.36
3238.48
7278.12
8611.82
21677.4
25052.9
29361.7
23238.3
15019
21730.4
39153.4
40542.9
40268.7
25811.9
22442.3
21244.7
4712.78
4047.85
1138.45
-37.4831
625.096
486.575
3287.5
1580.32
4382.58
1800.22
426.369
196.887
192.983
724.423
147.168
196.145
3679.16
1311.91
2839.1
7239.51
20495.7
24612
23176.9
27554.3
21540.9
9872.87
6260.58
5446.44
11402.1
10645.7
14878.3
19502.5
6791.12
5016.3
9908.63
14620.4
10945.8
5914.65
10242
8809.93
3413.59
1103.05
1310.86
1876.66
97.6343
379.396
593.868
1734.26
206.018
785.294
-77.314
-678.965
-407.073
309.749
-218.55
68.4254
241.229
2670.74
3343.15
3617.5
2395.72
584.126
269.544
445.487
692.693
267.644
1532.59
4244.14
6420.6
11262.5
15362.2
14798.4
16701.1
11626.3
7490.99
12657.6
12791.8
4396.12
3785.39
2219.23
-205.451
1203.94
756.849
624.237
214.233
-220.72
1140.82
3710.38
1549.88
2352.31
2473.39
2399.49
1432.07
2738.58
2912.88
-245.402
1464.44
1689.08
2923.55
964.423
377.056
1363.27
1437
991.042
1799.15
805.353
-1570.1
1685.44
2142.65
147.533
1771.84
525.211
1794.05
2870.59
3296.39
7569.76
4756.05
1624.39
-220.939
-117.659
297.644
-211.293
958.046
1074.15
2837.09
2856.87
4402.32
2303.39
4260.27
834.931
1593.03
3116.02
6541.88
6390.69
5512.06
2012.14
3962.06
669.219
-201.304
297.433
3945.27
4313.2
11453.6
14459.9
14566.9
10926.3
10530.9
9275.41
13745.5
10433.5
10481.7
6710.83
21036.3
12873.4
14712.6
13997.9
20403.3
16274.3
23208.5
21809.7
24877.4
21715.7
18614.6
10486.7
6608.36
3802.17
1201.75
-328.001
236.214
110.763
361.604
1772.97
817.37
2373.59
1623.01
899.743
450.27
773.023
437.136
499.045
127.58
1171.06
4086.24
9498.35
10320.1
10962.7
5115.02
1244.53
-378.3
712.718
1886.9
2201.4
3817.61
6079.82
6432.92
4598.48
6887.76
10022.7
16531.3
11537.1
9677.62
7039.39
7327.08
5763.5
3876.47
97.3623
841.755
5171.92
4053.56
2389.89
3816.74
2014.29
1039.43
969.535
1173.04
1505.91
986.241
328.808
469.232
1832.83
2311.22
3191.96
4479.31
805.864
3733.46
290.537
62.6683
528.971
434.51
-348.272
1141.27
1808.25
1515.48
3061.58
1296.93
303.611
1873.56
1555.93
1498.84
2637
6935.12
3453.71
6414.55
3171.12
4385.23
1580.69
862.702
1039.52
4403.82
1844.33
106.45
345.113
-434.459
4107.82
10486.1
26934.1
16991.5
28605.4
23700.3
24097.7
19912.6
2116.21
4269.79
5085.13
7501.82
7523
10067.5
9466.08
5555.14
1963.67
458.36
1821.98
6810.41
996.772
4799.41
7728.89
7631.9
11018.1
6783.46
7326.86
13778.7
2487.72
3235.36
9244.28
4669.78
3684.62
1198.73
329.359
1875.49
610.463
1230.81
222.832
-236.506
781.418
635.024
736.378
1108.48
4747.53
2884.17
3020.24
4858.4
7298.58
13287.3
10332.6
5075.75
4070.65
6630.31
10169.7
17921.5
19116.2
11796.4
6087.15
387.824
3231.52
6377.43
1925.88
8127.89
10130.8
5265.24
2834.25
9855.52
10533.6
5361.94
5247.18
7767.51
3527.66
2361.23
1040.27
21.9231
401.33
192.351
2742.35
10935.1
4472.1
8566.69
8096.97
9874.92
7913.45
10552.5
3515.99
6188.26
3269.77
386.192
561.734
1666.11
2867.57
6885.37
4150.31
5026.44
1565.96
814.608
2028.73
161.576
-246.564
4.59623
190.668
1967.48
1035.17
114.063
626.115
-373.533
-76.7162
17.3284
-651.371
1112.2
355.374
1066.54
2580.15
5518
5223.95
16501.2
12299
7893.67
7316.92
6368.33
1878.41
-35.834
2012.63
534.653
392.881
752.378
2262.52
2794.66
5163.85
4090.98
6954.98
9253.17
9940.75
5986.61
1395.36
523.542
1139.3
-244.475
1430.3
317.943
2028.07
1296.4
752.715
-345.616
-199.535
485.263
537.846
117.749
588.997
2752.17
4631.61
3737.98
630.601
1011.33
1220.11
548.383
1116.57
4468.42
7223.9
7521.64
4864.57
1503.27
1151.5
2384.45
3018.41
2836.01
2018.32
2944.64
11932.2
8147.21
10302
3416.84
6936.96
7998.87
7734.43
9272.61
9926.22
4287.94
2253.92
13787.2
12592.9
11154.6
10143.1
12516.3
6990.06
8854.74
8633.69
5433.97
3468.39
3357.29
5023.88
1529.86
2855.82
1629.27
-147.137
189.656
696.483
1031.63
4203.47
3365.7
6395.79
6824.24
1087.92
3213.09
7531.79
5914.66
5000.46
1056.12
754.122
21.5125
1062.05
707.915
270.81
1502.2
458.518
2711.56
-140.175
178.546
3080.29
347.875
340.227
1.49876
1407.03
1164.4
9784.51
12580.5
16876.9
20461.3
13651.7
14747.7
16210.4
40427.2
34402.6
21633.9
18734.2
13466.2
10290.2
6159.94
3636.69
405.624
1804.8
291.17
607.41
686.991
314.068
2776.47
633.372
138.691
3464.84
5849.29
9675.93
10579.3
6715.05
2792.78
7999.55
4738.39
3543.19
907.362
701.362
2805.81
-85.1425
2917.13
1179.22
2412.72
-607.331
596.519
-45.6191
773.716
6461.44
5403.83
9969.57
19178.1
18640
16524.8
16969.3
13823.4
13511.5
16441.9
7492.84
15345.8
18352
21135
12125
2892.44
3468.37
-73.5532
460.729
1192.06
5707.33
7074.73
12104.4
20256.9
10542.6
6022.14
12293.2
16666.9
16227.3
15532
11858.8
12697.8
9989.59
5982.07
6750.38
6705.9
1871.65
9745.1
16521.5
11782.9
3337.94
129.232
1603.35
45.3755
1470.25
99.5803
-667.653
5551.2
4232.94
874.894
382.945
2982.17
734.59
395.27
412.44
723.447
1592.35
576.755
2478.51
1085.76
864.15
1011.71
-649.316
-440.695
202.505
841.94
2347.56
634.65
4357.77
7824.05
11527.9
19087.6
18874.3
8136.76
5618.96
10117.3
2927.43
1345.97
1634.13
1464.4
2710.75
10472.6
9691.87
20376.2
13358.5
17148.2
16905.1
24385.9
35904.5
37229.4
8665.92
5247.33
2480.53
-623.257
4602.14
3847.64
6056.55
6000.51
10111.9
6517.39
10919.6
2553.91
40.7381
-413.273
464.32
899.849
363.824
869.511
2494.68
104.163
31.354
-283.701
642.119
626.817
370.252
-88.4958
505.124
1299.68
6934.12
10640.1
5623.11
2768.48
-244.965
1763.11
2767.67
3295.6
6622.79
1674.82
109.482
896.161
3235.68
4646.05
8107.42
19479.3
7778.07
7224.46
12033.2
7636.53
2690.57
2022.97
1230.07
-332.77
932.125
5452.65
225.721
574.645
3761.96
2897.99
6338.73
14842.2
11426.8
14119.1
8105.19
11964.4
9903.23
4343.04
4686.38
3125.11
4208.35
690.22
1444.84
618.614
-262.04
373.188
2007.66
126.023
2299.69
1257.71
501.464
27.062
885.103
-922.468
4663.66
2135.84
1608.08
236.747
5164.21
748.559
1789.29
589.91
330.091
-129.814
507.136
-60.2471
1509.53
544.325
2907.68
8648.62
15434.6
17950.7
11715.7
9653.78
15160.5
26904.6
30262.9
41346.7
33123.9
25860
23611.7
30125.8
6105.82
7289.85
10126.7
9713.51
6204.03
5464.16
68.097
988.727
1232.36
993.442
2371.51
520.446
686.281
742.061
315.316
-367.884
4221.87
6114.62
31550.9
37411.6
34200.6
24767.2
28590
13768.4
11713.9
6306.41
9615.87
6557.45
10670.4
12358.4
15231.6
7989.43
12585.5
9210.5
9318
12683.5
5712.76
18133.6
11113.3
5917.25
5080.39
2323.88
499.413
-133.375
1623.92
1479.91
969.662
929.381
1493.88
6150.87
3901.02
769.085
-153.219
1906.33
4649.92
6420.14
5317.89
7789.84
10192.5
14463.6
8520.36
3993.37
-465.389
-365.18
139.952
1299.41
174.633
1005.45
1227.16
-187.891
450.659
-127.663
232.627
184.559
2009.66
184.492
318.533
397.244
551.762
-52.2828
249.364
2058.27
2118.47
11749.1
3525.66
451.926
708.967
3431.43
6604.98
6031.74
8741.2
7150.58
4988.66
7916.13
6928.18
6996.32
12470.8
19377.4
31692.8
17321.7
16755.1
25361.2
26316.2
29364.3
39353.8
41948.1
40192.5
34988.4
27029.5
15487.5
8188.89
14500.7
32284.2
4743.78
3987.95
1970.22
565.467
-269.534
-14.9195
424.031
3716.82
3879.05
3429.03
4949.57
74.1262
50.3518
143.09
3714.9
4922.93
2745.85
1031.48
-332.129
6971.49
8640.45
4705.21
4244.32
12169.2
31029.6
36787.6
24489.4
17191.1
14696.9
16358.4
20630.5
16383.1
6905.47
3017.42
426.979
-105.755
946.245
-546.594
534.233
-111.935
-59.8124
584.003
337.717
919.495
2011.81
836.515
-37.8995
158.059
1892.95
6363.92
11316.3
8139.17
12088.7
14469.9
9377.47
7027.86
10166.2
8173.89
5089.51
8660.27
6698.56
9093.95
10332.2
5366.78
4946.5
9559.55
6150.55
2974.69
6325.27
2740.71
2414.32
3427.28
2552.55
1952.51
10226.1
17683.8
6247.03
496.911
982.775
-255.819
1350.73
-138.024
91.4442
1278.06
1637.34
6109.74
7963.69
10029.4
20392.9
17483.1
18519.8
15947.6
13917.9
14656.7
19828.4
9404.03
6859.8
8007.36
13609.5
10742.7
4272.84
10108.9
15650.7
7148.8
5210.46
10317.1
13961.5
6807.43
3840.99
11363.7
18185.4
15399.3
12578.4
2002.09
682.278
553.455
311.71
-122.497
1502.02
1338.09
2397.58
3252.79
-2.03912
121.01
-1.11624
-387.443
1059.15
-36.7221
333.697
-384.396
253.061
625.618
-627.569
283.282
682.103
366.159
1367.2
6759.92
3950.67
6414.81
3432.79
-391.518
724.887
-69.8273
1876.71
2500.23
207.33
1095.48
320.269
60.066
-44.9232
2990.75
9703.05
5039.08
4197.38
1276.52
7737.33
4486.39
1564.95
697.313
609.943
389.311
1886.64
536.975
540.704
847.092
413.544
823.352
1822.61
63.2899
419.325
1091.08
225.039
-299.642
445.209
774.714
1993.7
810.387
-193.711
772.954
449.917
731.816
0.129598
518.157
851.682
501.604
-78.1216
52.1839
2828.23
1413.22
1357.86
455.058
3032.13
-284.311
2561.27
2553.15
2268.89
614.375
7102.27
5946.93
1277.25
6740.83
3353.6
1532.55
-102.809
5.5107
118.775
8883.73
5794.75
1272.16
-219.206
605.802
3420.59
1043.42
-139.03
758.101
2373.68
8532.75
9442.71
877.262
270.743
2135.41
3784.92
2184.78
5970.62
7433.25
4362.55
7020.79
12150.5
3839.65
6525.1
3724.12
2115.07
692.076
-86.0289
-156.492
1315.06
1769.11
3147.99
-272.996
609.863
1559.37
83.357
138.693
529.466
5541.47
9294.07
3823.7
5367.44
4620.7
9352.35
12872.1
4630.69
-97.1061
494.658
2045.84
654.617
609.531
593.585
3127.68
2992.23
5150.31
10296.6
14274.8
13499.4
22422.5
41921.7
30506.6
18012.8
7776.13
8557.77
10857.2
9333.13
15175.8
3794.31
6856.88
1892.43
1143.51
1336.6
651.81
2546.38
6079.65
19631.4
14589
6121.68
6634.12
1370.68
-31.7262
1132.61
6591.56
5413.84
2640.34
6041.2
5267.4
6064.06
1898.2
7913.62
7339.13
4752.64
4263.58
1953.13
1023.36
3007.47
1283.88
2875.65
-296.387
8421.5
7358.2
1428.89
5972.65
4333.36
744.066
3420.54
-133.956
-749.799
762.798
750.664
1997.66
759.959
1024.05
4007.52
183.114
-52.6047
764.239
752.557
-186.873
1351.34
4059.36
-642.749
339.04
962.808
741.168
845.695
44.6424
1366.96
166.111
702.57
-187.847
323.206
2956.02
10019.7
11958.5
5856.59
14112.1
19667.1
24561.2
15640.5
28060.6
37140.3
35985.4
16028.9
13282.3
26622.7
25174.9
27197.2
25669.3
17703.8
27523.2
25280
21479.2
30533.1
36081.8
50858.1
39918
36206.3
28587.3
28958.9
21625.9
17122.5
22529
12543
12506.2
12702.6
796.785
185.03
3292.71
112.824
-47.7288
440.647
2021.43
5352.04
7673.69
9947.88
13390.7
21150
30225.4
36441
27976.4
33121.4
29857.9
41129.1
19172.9
25395.8
19862.6
17532.3
9652.62
6939.63
6564.36
2294.4
1845.57
775.031
7761.02
6555.53
516.094
-595.577
1142.83
2396.2
3911.33
10198.1
16532.8
17600.9
4461.72
6875.38
6068.75
14032.7
12443.1
9745.07
17621.3
10988.5
20648.5
13302.6
13953.4
5660.49
2482.35
6247.18
4736.53
6563.59
1146.96
1136.43
2387.27
206.188
1861.9
4022.58
4172.41
1187.59
508.135
3171.78
6038.04
585.723
4211.69
15106.1
9055.89
8753.11
5452.91
3708.72
3801.05
9227.89
11955.9
16573.8
10001.3
17324
6768.34
7482.73
8507.09
11395.5
12435.2
5768.96
1265.34
-180.174
309.454
480.127
-139.927
2400.73
741.378
2562.06
2163.07
3804.98
13452.6
17959.2
14915.2
19569.7
17306.2
18236.7
26022.5
24621.8
12396.8
7380.78
721.277
455.038
1650.7
-356.074
408.505
860.004
2161.97
3075.42
888.823
1792.31
2220.65
1240.76
1006.54
156.494
287.067
2876.05
3256.96
4279.02
9036.76
15460
16496.4
11351.9
8447.98
12813.8
4159.15
4302.79
5184.65
7889.32
10493.2
10092.5
4672.7
2053.59
3438.76
5472.16
2003.49
434.372
-1319.29
434.424
1963.97
2315.46
-305.574
342.531
2996.23
2213.93
10658.6
17796.6
20306.6
22860.7
15732.6
13231.3
5764.99
12746.8
25968.1
7716.58
1651.97
10417.9
4135.08
4534.79
3710.28
9128.6
17934.7
12974.9
16780
17937.3
11148.2
13341.6
15785.7
9431.88
1578.16
167.402
-261.707
748.438
836.371
3564.63
2134.87
102.39
693.907
91.055
-285.488
93.926
959.042
523.273
2202.33
330.867
276.637
116.643
974.099
1160.39
2356.43
2.18419
484.413
322.525
688.52
-183.541
283.611
105.239
-37.7344
2082.29
1920.04
3392.84
5549.09
17319.6
12598.1
7323.28
11046.7
14992.7
13760.9
7219.91
11124.3
7191.3
3466.02
5370.25
11216.1
10712.5
16303
21519.2
33783.6
35103.7
21969.4
17521.7
14220.9
21707.4
23588.8
14455.7
7464.51
3195.83
3962.64
1104.36
3576.88
1137.72
1012.84
280.679
112.896
-200.064
3185.06
798.541
2015.41
265.537
920.274
-151.448
-22.2859
642.575
586.252
-266.597
2389.14
-52.4158
1331.61
2523.07
-397.738
857.4
468.581
966.702
130.205
162.235
8282.74
5322.52
167.846
1528.14
5828.15
8384.53
7331.02
11551.7
11768.5
9958.3
20465.5
20465.4
12109.3
15061.1
10455.3
12658.3
12318
9542.51
7889.07
7998.67
4224.27
1171.39
5378.03
10723.4
19102.5
35266.9
43071.2
38709.9
21602.8
12526.8
14464.2
22265.2
15145.8
16071.9
27233.1
14155.2
6451.41
7665.52
7645.67
10031.7
4340.91
5851.32
3954.65
9755.44
9178
6502.45
13431.5
11373.6
7034.86
9747.85
4078.9
5340.41
4961.06
1598.3
205.29
222.129
370.416
3686.66
7118.36
6213.06
12244.4
6170.44
12697.8
15707.9
7209.37
8729.46
2808.75
1575.28
299.356
645.263
3135.34
7444.76
5003.99
12675.9
5325.15
1530.43
-9.75782
710.736
1474.03
-163.505
1354.29
7.43052
215.627
2697.28
4525.74
13739.7
2461.48
719.202
1393.14
3123.62
3636.06
3821.24
295.626
-39.0883
2563.47
4414.4
13291.5
13557.9
5653.57
13029
18356.6
14147.9
13769.9
14736
21053.7
4028.17
13390.9
12321.3
16296.7
4101.11
1524.67
10931.2
9151.31
10531.9
10452.1
1586.96
188.717
399.191
35.5778
1085.12
1324.9
-129.464
2069.42
668.937
316.255
1289.21
7249.45
13015.5
15550.3
5180.94
12368.2
3048.94
-220.345
-329.84
155.474
574.645
1134.22
5788.45
5786.57
7167.42
1859.63
6068.84
6643.7
10718.2
11181.7
15128.9
16588.7
13490.2
10394.7
4690.91
11892.2
10520.6
9558.21
8019.25
7992.15
14806.2
7301.11
8636.01
4029.64
1212.3
-46.9709
55.3395
459.466
355.816
309.582
284.517
425.869
1738.22
1311.32
1245.34
439.173
6663.22
6244.74
3905.88
5931.6
580.953
14.2355
744.955
2076.94
268.678
569.446
-505.149
700.182
1512.5
5347.5
5873.37
11636.3
20166.8
16944.8
13895.6
25150.8
13696.6
11211.3
10823
11916.3
6127.16
3012.8
1695.09
238.699
-532.807
-123.205
784.272
507.119
16.4957
743.949
1277.88
578.504
167.089
2220.25
82.9557
-155.909
39.3383
1364.14
503.665
69.2947
758.86
1491.34
5946.92
8669.57
4638.5
2376.12
4459.87
123.49
4255.68
-720.364
19.7089
498.308
624.282
1486.69
50.3948
-152.786
177.614
1203.34
1653.8
503.421
4569.63
180.658
1805.51
310.319
1474.69
4469.24
6358.71
11294.5
16138.8
14443.9
10985.3
8295.66
8430.84
8105.31
760.716
450.124
-510.009
139.619
236.617
-217.521
1271.24
6.5888
1046.69
2294.98
156.233
429.473
616.031
4906.52
11803.3
4656.86
6000.1
9322.15
2298.52
226.818
854.837
807.757
1940.14
-263.902
173.725
642.803
3122.24
4318.55
5424.59
3886.28
4468.09
10153.1
17333
13881
18086.4
13742.6
7980.27
4678.46
4658.07
942.955
1582.69
839.725
1074.81
5644.56
3150.51
1483.71
190.39
1348.49
5386.02
106.557
1069.9
431.662
188.771
-363.938
230.183
1509.58
41.5227
-60.7753
1673.38
4557.27
402.513
4169.31
5437.23
15565.5
9804.43
9444.4
7816.05
5336.93
10453.3
13000.8
14303
14311.2
12835.9
13960.9
11508.3
10489.3
4797.98
16324.9
27996.8
13629.1
15550.2
23316.9
18551.2
11093
14225.3
11572.2
11151.9
9435.08
11983.2
3448.55
8338.29
20011
13956.3
11886.9
5399.75
5260.03
6688.51
7160.09
11371.2
7984.71
4908.24
4786.89
510.024
1324.79
2191.15
4078.08
1052.97
697.283
-177.895
596.357
1278.48
6347.46
464.109
1647.65
262.292
110.942
694.357
724.083
173.767
295.79
189.01
50.6555
-2.31516
-190.029
189.967
1268.78
1513.78
91.0932
968.856
213.93
81.107
3436.68
557.282
-395.255
62.5463
1430.3
1267.53
921.588
1984.89
2142
2773.7
4823.92
4738.81
956.16
231.855
-16.103
1505.19
557.284
-242.231
-46.0526
-0.104432
-13.8539
55.0187
2081.08
2686.56
2000.89
1043.26
3023.72
-395.986
-20.3136
862.745
2331.97
95.6375
137.09
1468.15
4473.67
2206.47
5274.36
5136.35
4690.49
9590.54
8888.91
1413.4
705.733
-740.884
-6.75147
1673.21
1278.03
891.63
2414.67
4995.19
7959.71
2733.39
7498.41
2220.16
7327.84
5434.28
4179.33
7659.88
3865.8
-212.611
375.43
2730.81
2047.76
989.543
-282.702
151.218
-285.64
330.645
3.2778
304.392
-5.95996
69.8256
-284.582
-440.5
329.316
1546.39
2465.8
2142.18
477.053
3010.77
2129.71
3199.84
3444.08
3051.71
1776.63
57.1707
-186.953
371.032
2683.89
2684.63
3748.19
1486.37
786.302
1208.21
2090.9
879.697
1446.81
3444.19
9610.33
7161.3
8575.04
20027
16486.9
14936.3
12211.5
10194.5
8887.66
5686.52
2885.63
414.309
-1200.38
1522.92
-291.477
2398.07
7867.82
14305.7
17736.9
13800.4
18370.1
23299.2
24392
20102.4
19600.7
17010.8
24533.3
19648
15825.5
16774.3
17555
14987.7
22423.3
27881.3
23112.4
11369.7
23947.7
20376
22786.8
23796.6
20506.4
20546.9
12956
3311.27
8488.93
7840.1
6225.12
6205.03
18454.3
14152.5
23210.8
10453.6
6021.91
5306.92
7436.46
4829.08
6952.51
2014.62
3307.98
14850.5
11101
13299.5
13056.2
9766.76
10579.2
12297.6
14872.5
16390.2
16331.2
8343.92
10040
20121.8
21337.6
17601.5
9265.21
22744.3
20016.2
26620.9
35000.8
24417.5
17908.3
38300.4
32184.8
31824.6
22913.2
21215.6
44920.3
38417.2
30067.3
28909.4
43713.8
41167.7
24128.7
19003.3
7508.33
7435.79
3738.8
1972.54
1379.65
1201.89
2717.21
6053.53
5705.19
7686.94
4771.1
3209.79
14445.2
10372
7589.94
9266.67
6083.68
6749.36
1221.98
551.097
-426.249
499.033
2695.42
5022.5
2358.68
2086.98
2717.13
61.1553
1213.6
2528.12
148.271
191.72
673.203
301.665
4199.24
2900.12
1188.99
4144.16
11907.4
11219.5
6867.58
4935.97
9085.26
14220.9
16315.2
8531.18
6246.09
3097.21
8925.07
11360.9
5153.98
4138.81
870.1
935.029
675.602
160.316
1624.45
2691.58
9584.5
15137.5
19921.4
7098.21
7555.93
7917.25
7206.15
2819.82
1213.66
6507.04
9771.56
12142.7
10292.1
4942.72
15606.1
13254.9
6467.85
14265.7
7917.21
6417.69
11886.2
9869.11
11121.9
11252.6
10899.8
4425.55
5595.81
5793.26
5612.93
5402.2
-255.771
88.5786
1390.79
6679.3
6459.53
4415.81
4394.07
4634.68
3063.34
2480.05
1096.9
1011.25
1356.84
841.487
2084.58
-1013
99.1605
1124.29
-111.043
554.849
908.44
-344.985
198.924
223.914
203.719
3616.06
1266.39
1886.19
929.8
-184.248
311.15
1023.9
425.831
593.194
3846.46
1079.02
255.674
1251.23
1883.32
361.654
1132.13
1187.66
1709.33
2232.79
1193.05
-256.023
-491.797
-426.386
3603.24
1562.62
1486.63
2400.7
3494.25
311.998
2176.75
808.034
291.1
261.955
2987.4
1238.44
177.486
1280.01
1268.37
1500.17
514.292
-71.8265
-143.513
564.778
231.485
2214.95
2738.84
6669.96
14402.7
9313.61
4207.14
1701.29
2668.7
7176.1
287.223
268.201
191.152
1608.6
6043.76
3721.02
1779.59
937.913
674.432
17.0735
3178.24
1690.1
6174.46
3751.24
3806.02
3570.61
318.548
4543.66
6186.25
1006.3
596.565
313.037
3992.66
6128.71
5628.8
7346.25
11662.3
22051.8
17419.4
11351
13828.2
18770
8369.34
18120.2
17238.5
18982.4
16704.9
11886.8
4436.53
11546.1
3908.34
1963.01
8097.22
5640.65
1365.74
2010.52
4105.31
6889.32
2226.25
1390.87
1779.29
7966.53
6866.73
3900.17
14024.3
6703.17
12438.9
12579.9
413.529
206.066
2835.42
4007.19
3630.55
3697.57
1959.76
950.61
1580.02
3949.06
3589.14
3970.77
1296.35
-308.014
2822.14
6238.38
19642.9
10492.7
6339.09
-265.486
699.94
1913.03
-254.81
1899.31
821.33
2197.7
684.527
-221.129
-209.363
272.666
148.048
-2.40336
2287.31
701.001
1906.57
2462.05
4007.8
356.57
598.856
-85.5807
3452.75
4785.74
2067.6
12003.2
6498.84
5619.18
6418.09
6685.16
2210.81
1538.77
176.964
-46.7905
3517.94
9083.44
15463.6
11538.7
5713.4
10249.3
25928.9
35564.4
26558.6
22367.9
13272
14175.2
20802.9
11172.3
5506.78
6614.61
4928.89
2100.13
1092.37
265.959
102.423
695.237
-186.19
-102.994
1120.48
1436.86
849.064
2516.69
80.8539
488.901
610.327
251.089
10.8639
1728.83
1343.27
3819.26
6751.38
7286.86
5138.48
4639.1
8124.91
1519.4
1919.41
637.639
43.6817
17.42
462.726
-46.6594
-376.998
4520.85
1726.4
5848.09
4297.6
10124.9
5965.81
4783.04
10724.2
6284.59
6657.2
14561.1
6993.77
7744
5083.59
-198.269
654.388
5624.53
933.797
1410.62
790.333
573.671
547.691
-88.9983
1078.62
632.648
1633.91
1392.13
7609.15
15651.6
9505.78
4001.18
967.816
817.732
1762.68
147.839
1976.29
2086.17
3338.97
2640.23
4503.44
93.717
1442.13
5674.88
7993.58
1910.03
1657.38
3035.32
415.586
2168.05
364.818
440.041
2856.18
3579.39
5218.23
6785.42
5905.39
5424.92
12810.8
1411.86
1863.31
2466.54
-4.0083
-505.281
2257.03
5290
9308.44
4184.37
2197.22
-275.705
565.975
507.31
1502.36
5367.53
4460.43
1184.93
4131.15
1423.2
4878.01
6761.91
3292.75
4156.82
8650.2
2688.31
1989.36
5392.36
5109.76
1966.72
709.895
4229.51
862.397
1244.54
2200.49
2097.31
4376.77
3128.42
185.261
5429.24
769.727
1574.51
294.868
1131.65
2791.41
-466.636
4670.86
68.6085
-22.8117
2467.34
3841.27
3828.31
445.45
110.126
-56.6048
811.478
-459.937
-72.262
463.015
543.694
2400.69
359.377
7080
9659.99
10763.4
4591.26
12562.6
15714.2
11772.2
22656.4
25464.2
15541.8
30273.8
28031.9
28735.1
34245.9
18649
12438.1
11584.5
4547.24
2198.29
1810.18
532.924
13.2833
259.055
-419.511
4352.59
14440.8
10267.6
2773.54
4417.57
10521.9
8116.94
4266.14
7085.62
6472.71
5389.23
2534.98
67.0033
-265.635
2875.56
5867.41
4979.24
4282.44
7628.38
12469.5
16855.3
15556.4
22066.4
21237.1
21611.7
21053.8
22628.6
14312.3
16539
5594.57
9041.29
3562.23
567.292
-799.635
239.278
382.259
1802.53
2708.91
3189.38
4237.69
4739.34
8661.52
12786.8
13241.9
10925
9461.22
3479.64
5578.14
1595.56
630.161
3243.37
2204.04
2075
2409.25
9580.23
566.025
1129.29
929.103
-5.09614
-176.242
602.87
1834.43
-221.146
1437.44
2590.86
522.462
3040.73
2441.9
1169.67
3704.8
-248.237
457.143
2459.14
1396.36
7265.81
8795.43
6987.69
8336.69
6805.96
5945.3
2110.29
1388.06
385.266
261.99
2698.75
2026.65
2037.87
4757.88
840.109
2480.07
4748.78
4785.19
8883.07
8293.7
3551.76
1865.37
4073.19
1620.53
7660.66
4239.97
2125.02
974.309
1236.04
282.013
1370
2773.38
-66.877
2750.14
13349.7
10432.2
8745.33
5343.75
4379.99
770.143
926.485
2373.55
52.7585
5876.33
10421.4
1108.67
78.8311
-6.78559
486.319
626.581
1746.16
1626.72
2088.16
6791.35
1754.84
385.371
-385.478
683.477
2456.71
5631.15
9129.9
12233.9
5632.61
5519.99
9258.24
4497.7
-150.026
-217.465
2311.17
1740.2
1294.81
9486.81
13576.8
14436
9685.25
18725.4
13793.9
5456.67
6935.9
4819.07
1981.75
2818.94
1247.57
1348.81
1965.58
2379.7
613.225
3265.27
158.327
604.963
1731.07
12.6955
429.606
2877.08
1711.32
16075.1
5423.37
13596.4
7597.34
3106.59
774.703
587.35
5237.46
5138.84
2069.57
4715.78
6911.09
676.053
2314.15
1998.9
-22.0409
-10.498
-110.599
1606.21
2470.29
1571.86
1488.03
783.514
1673.66
920.561
2975.12
624.212
659.526
3033.14
3361.73
1616.97
-635.07
-380.803
205.168
155.049
-120.061
-491.216
-150.084
1009.83
158.001
-577.903
7.78191
557.467
254.185
737.263
549.429
4500.75
6379.02
4743.7
5017.16
14962.2
27000
58286.5
48924.4
35390
44695.2
27714.8
21655.3
23292.2
15531.5
16299.1
35485.1
40573.7
24876.7
28700.6
10554.9
4619.65
1073.49
251.223
78.2144
1322.97
1004.71
146.812
1545.77
-217.05
1271.69
44.8413
2035.41
2952.27
1312.91
-226.51
29.9014
132.897
1312.27
4939.23
3820.78
6820.85
6390.58
10694.9
3355.61
5084.81
1871.17
4357.77
3946.54
4421.72
1525.31
6388.98
668.975
2900.67
-34.4687
-76.4788
139.613
35.9941
2140.76
-68.9691
1412.68
4125.75
3547.36
1427.31
-467.117
2814.04
6587.15
14418.3
13303.6
25707
14146.7
8837.01
10880.6
1029.72
3037.27
1162.27
3473.86
4361.87
6744.86
10630.5
8088.8
8152.03
3601.67
2857.76
3658.22
3823.44
5051.03
1162.74
458.437
3193.03
11737.8
13391.6
16510.2
17546.8
10688
8516.38
9391.38
7925.49
15459.2
12909.1
13522.2
9681.23
15697.8
25503.1
24856.1
33527.8
28876.7
44330.4
38273.5
18977.5
15373.8
9791.57
9816.51
8164.97
17210.5
13213
7106.65
7078.83
2961.9
5175.95
4846.03
4595.47
7989.87
12830.9
11010.8
5454.17
2723
625.315
1032.59
1090.29
2377.22
11440.4
23150.3
20725.7
13065.3
7029.07
5017.97
6141.74
4730.95
3772.7
4011.61
1722.29
1733.71
-142.529
141.058
1119.25
6216.34
24753.6
7166.87
1501.41
4247.45
4932.84
2606.3
5732.49
9424.34
21699.5
26538.3
25090.9
16613.1
12910.8
16876.7
25842.8
19603.2
12218.6
8168.56
982.04
4657.69
561.473
339.324
1218.51
-46.3366
2376.75
1317.22
2361.92
942.318
3594.45
4277.51
3989.12
7499.35
6111.12
11945.6
13570.8
13171
16497
17525.2
20743.9
20537
20063.2
5045.21
355.227
1260.4
4173.65
3231.33
3077.71
2424.93
548.452
225.199
221.382
1050.22
7439.52
18705.7
12094
21650.8
10110.9
7620.57
7329.94
2898.25
5145.54
2066.23
632.997
5200.53
3534.59
6052.88
2042.56
2488.39
462.365
615.13
261.199
-190.095
1175.97
914.286
158.649
1631.85
2029.15
2381.58
629.506
293.207
1671.64
798.441
280.775
626.72
2589.49
7074.62
16592.6
3560.93
2034.75
3899.03
8669.02
4148.88
9762.59
6216.84
1987.09
1343.14
6460.16
9940.15
14811.8
18831.6
20647.5
15183.7
18840.8
20716.3
27714.6
19173.6
16064.5
15540.6
6432.07
14916.8
22825.1
24586.4
24752.6
15166.9
18536.2
27725.5
16770.2
8600.5
11341.2
6137.69
4775.63
362.622
-1122.74
-420.412
700.867
1738.67
215.965
521.565
561.113
1237.37
899.07
372.679
65.0781
305.418
128.111
214.407
498.437
789.65
802.903
2394.56
1295.77
-886.01
366.205
313.104
1418.52
87.8712
112.719
1180.77
1548.56
371.551
1384.71
3582.21
5647.04
4509.08
1368.47
422.246
1977.27
51.2689
1620.1
676.513
570.979
398.271
-249.987
1017.68
3652.63
503.841
813.26
4346.96
9477.51
23692.4
26696.2
33320.2
39781
29671.3
18612.5
6990.4
15463.4
6444.93
4268.6
1556.2
1856.3
823.675
2414.81
1541.92
2235.98
152.993
616.241
-134.148
260.072
901.866
284.429
354.42
657.884
978.069
1809.98
437.408
826.737
1012.2
1087.25
1999.5
1978.26
463.847
37.717
4322.49
3175.36
2322.07
2331.31
267.117
-209.558
2515.02
3428.87
7504.78
5282.83
3076.87
8434.53
6875.25
854.825
7465.75
16672.5
10365.3
19151.7
16074.9
7124.98
9915.21
16230.9
13926.6
14076.6
8961.56
9037.77
3847.88
7877.07
15739.4
10328.2
8767.71
11598.9
12676.2
5071.74
2472.22
2941.72
417.283
-29.4354
92.2981
1102.53
2925.31
6206.37
3550.09
2385.16
534.044
-3.0876
2497.06
3321.73
4739.02
1335.98
7674.71
8043.04
3316.66
4641.93
2523.94
6060.87
6883.79
379.478
-115.387
861.214
484.22
468.835
323.554
535.764
5272.66
802.447
1180.01
1003.45
241.167
3423
5142.11
11066.5
9313.45
11774.6
2721.11
3529.15
7913.7
24427.4
13995.4
14392.6
19387
4482.33
3788.27
14954.2
20483.7
27068.5
39577.4
34577.3
36862.4
21864
15961.8
5477.42
5404.69
5519.15
4833.63
4304.68
1422.92
2444.79
4230.13
14620.4
13407
21364.9
12043.4
13005.1
7126.49
13639.3
11436.9
28619.9
26737.5
13882.4
14115.6
10682.6
17328.8
16559.2
13879.5
19583.1
16144.1
11018
5451.69
5529.59
15673.9
6159.12
3791.34
142.818
186.87
590.27
1501.94
2736.89
1591.14
897.284
5657.84
9355.81
18535.9
18175
15051.5
29620
29766.6
21400.6
16483.4
14033.3
11111.3
9494.89
8239.74
5800.48
7206.92
5681.03
541.183
1077.63
859.365
2384.99
1687.72
3644.43
749.24
-39.8404
-217.055
2341.96
485.495
233.003
195.778
942.366
634.07
-84.8408
1357.77
269.918
5788.4
455.249
1003.79
-225.693
-276.03
1442.28
4070.84
2956.12
4445.44
8442.13
11971.8
21244.5
19375
27781.8
28532.7
23598.2
14973.7
16350.6
12716.3
14912.5
8157.06
10825.1
11213.7
10944.7
15524.9
14456.6
16241.7
1781.18
1064.67
3781.64
9037.57
4823.48
2352.77
902.785
821.288
4962.2
3543.06
6627.15
7197.86
5559.66
2377.91
15274.5
7054.22
3032.62
1749.51
1299.63
2528.12
2587.09
9968.29
16176.1
26984.3
23864.8
9924.02
7490.76
5461.87
7323.68
7791.69
1542.98
-247.613
605.939
-796.674
628.949
2711.83
1272.24
-614.69
1201.33
2123.29
-23.1523
-70.4588
3632.83
5472.39
7459.7
8340.6
5591.68
3063.98
1545.76
-196.652
2960.6
6423.72
5497
2398.22
4808.78
4365.36
6198.86
6212.07
2149.75
260.968
49.3748
-28.0988
-919.878
1199.08
3751.12
1464.47
661.592
199.147
2340.03
565.694
1831.42
373.191
916.326
1258
2121.09
2726.67
1618.83
1052.4
186.642
148.806
246.413
81.9426
3025.53
2933
-19.8244
1445.94
4651.27
8950.89
7282.16
2537.26
399.805
2071.65
243.487
-814.531
724.888
3035.48
1561.32
2563.67
1567.03
1583.61
-79.3722
-71.6202
217.717
208.382
74.4467
1301.07
761.23
7497.03
6326.3
7182.03
14203.4
13721.8
16817
11008.5
13630.4
17019.8
16319
21145.6
9635.55
18360.1
16200.4
18142.7
20012.9
21206
22887.5
13959.2
17016.3
6706.54
3153
4422.88
7992.65
11900.3
4105.3
4505.88
137.234
1172.79
2188.34
212.667
1597.96
42.3492
-240.114
3566.22
519.525
17.3053
1378
131.703
-445.329
-352.519
4315.09
14368.4
21923.8
12578.7
4551.89
12245.8
20353.4
14536.3
12313.4
12298.8
28739.7
11906.7
12802.9
7646.06
3867.29
13131
12948.1
14644.9
10500.5
4120.51
6682.55
8597.32
10112.9
2867.37
4179.21
3527.59
6362.24
13632.3
13666.5
10661.2
2753.5
2817.57
10317.9
15841.1
11517.2
11325.9
12756.8
7012.54
2710.52
165.627
-81.8828
-837.782
215.429
2372.97
637.726
-175.053
306.293
354.365
1768.46
349.118
793.187
378.187
941.133
554.857
4643.03
7712.82
5540.17
8989.29
10037.8
12232.4
189.026
-761.917
161.224
-50.2867
149.347
1101.23
1694.88
2405.02
602.643
2574.57
118.635
-269.398
271.967
-684.433
1138.12
1633.42
331.814
144.15
7395.14
2526.72
1365.65
6489.3
2202.21
5835.67
11318.5
6816.21
5850.28
568.562
705.329
178.54
88.1608
1168.78
487.818
828.234
2410.42
130.024
984.953
12.9139
621.076
1010.65
320.893
805.171
5809.8
5073.67
2736.29
3317.68
7992.54
1349.38
798.039
2518.39
7462.03
1235.97
2061.06
1126.26
3009.87
1663.32
6381.57
8181.18
5982.62
4550.59
5801.15
9926.61
7520
5277.94
8972.61
3305.15
2383.77
901.056
2053.94
3074.37
1932.7
1263.8
3451.19
37.0923
1406.29
15.0396
-344.138
28.9359
67.0713
918.319
631.907
-392.306
10862.3
4247.39
8784.84
9315.43
4770.34
2437.54
5448.82
4180.99
4494.03
20678.6
19736.3
12039.9
7820.16
17849.5
16743.4
19311.7
17787.6
18216.3
16394.3
7754.58
7495.8
4845.16
17533.6
19131.2
25903.6
33297.6
27257.2
16857.1
20202.1
24324.1
31279.1
44675.8
32564
30748
22958.9
20498.4
12984.8
6674.46
5910.16
1751.97
832.964
1315.31
3478.44
2774
2555.33
3945.58
1884.95
-340.224
170.646
1713.31
505.083
1106.26
1987.47
2165.74
12306.2
3259.35
11102
15000.6
8810.73
4259.33
2442.11
3636.42
715.709
986.355
5522.79
2586.15
246.444
2883.22
1396.52
2487.53
14535.6
25269.2
12128.9
24233
24669.3
25610.1
37049.7
35551.3
23534.2
24698.5
31158
20545.3
21056.8
24682.9
15678.2
9254
13728.4
57.2209
2539.8
3002.33
4285.85
4174.34
8278.49
983.58
4373.28
1073.63
6938.69
10337.9
15129.7
9523.86
14751.2
3954.77
4042.02
952.6
595.809
1278.35
7435.86
10708.6
7387.74
2195.81
233.29
2051.26
1439.53
149.645
3083.85
7888.87
5087.91
2536.65
6760.23
603.824
105.545
-196.256
1358.48
1043.58
4752.33
3277.73
800.023
3381.09
1827.75
-67.4124
2997.25
1519.46
1709.15
7950.73
5453.96
15707.8
26971.2
22839.9
35907.8
41424.7
43621.8
34149.9
27284.8
25898.3
31930.3
12342.1
16928.2
27612.3
12108.4
11367.4
2048.24
1198.01
-251.051
2245.47
2788.44
5434
22019.4
20024.2
19941
12670.6
6215.33
6376.47
7417.69
484.855
3110.48
4776.86
10231
5176.36
4783.41
7479.08
10429.7
8458.01
10635
12059.7
4419.13
743.304
436.029
-363.313
3074.3
6937.62
3532.15
2929.47
1001.92
2987.58
1882.04
-484.059
2797.28
4386.35
6841.22
3299.25
2228.4
5579.93
5950.83
3219.49
4018.19
5604.27
3641.49
10075.4
11158.1
9148.9
3503.8
12239.9
6587.66
3885.08
4777.55
4067.23
905.14
2495.24
1963.68
-138.153
2085.86
6730.04
4387.35
1919.65
1815.82
3031.73
788.292
1453.69
4030.81
5531.05
9957.2
20641.5
16402.6
16889
5156.82
4833.01
2494.02
13017.4
25124.7
23870.9
20449.4
24723.2
24091
13906.6
12208.2
12789.7
11018.1
7753.77
7354.28
12843.5
9699.36
23050.1
29895.5
15441.5
8533.54
9309.61
12134.8
9606.39
3935.36
4602.6
7587.97
4045.9
1498.19
-315.655
351.34
329.923
1074.99
2944.9
-406.818
108.821
1561.53
1012.13
817.587
-64.9766
122.964
236.168
779.97
-128.672
1723.22
2536.83
6958.7
8460.42
3716.9
896.962
1332.32
1150.78
4647.92
3832.87
5360.2
5020.77
1619.73
1810.8
4009.07
1167.23
222.894
41.7709
2126.83
1321.04
1016.23
583.206
308.311
1826.48
3069.66
6240.5
193.921
810.635
4811.81
5002.27
1784.05
598.087
3241.93
3012.06
335.684
-204.16
723.787
-281.861
-59.8839
-181.764
414.572
142.702
529.157
-456.677
1475.11
311.272
1660.33
8720.92
5123.51
3841.65
6059.07
8805.23
16489.6
13957.1
10898.8
19744.4
18877.9
13089.8
11631.3
24037.1
20355.7
14989.3
18932.1
18799.8
20952
9237.58
11086.4
10447.4
11430.1
1695.95
1972.32
2266.59
5105.06
3415.86
200.906
513.966
448.71
200.864
365.801
-340.608
3797.57
2231.16
147.489
3005.1
2403.25
1056.45
3134.94
3630.12
3150.47
-272.627
50.2672
1597.41
-216.12
1903.51
76.0892
1977.64
-59.9141
-7.48792
1732.87
2294.88
1159.39
2835.48
908.518
589.036
246.708
308.71
1263.27
1133.37
6977.11
7502.44
8906.26
3559.36
7300.06
16032.2
4236.75
6353.44
6896.22
1937.56
3056.47
138.984
531.007
1341.91
1604.53
3610.06
1970.91
7288.28
10221.6
13108.3
13308.5
17279.7
12284.6
15934.5
21959.6
14566
15850.5
9873.11
4540.76
5361.51
3965.8
6232.83
3321.74
5829.36
13860.9
27927.3
27823.1
23950.2
42338.5
38550
21919
22930
15422.3
7756.05
13034.4
11189.7
16898.5
17489.7
10822.7
13818.3
9435.02
11597.6
12555.8
7464.63
10149.9
2241.31
4177.02
5223.67
4853.28
2229.83
2725.63
3318.74
2763.45
625.401
1852.52
2557.03
202.387
613.724
2216.56
3112.21
6642.43
3828.27
4317.31
6883.67
7965.53
8488.1
7838.64
5147.49
8504.21
3792.31
8335.17
3151.39
3249.13
3998.9
2007.44
-56.4345
-281.458
731.028
94.2875
529.069
-464.674
3077.31
4905.39
6570.86
1950.77
5998.09
2671.94
3584.61
11968.1
17630.1
13206.9
7354.74
8041.83
2810.97
764.961
57.418
2603.8
875.137
592.756
345.682
113.999
-12.8772
120.898
2070.72
308.607
2685.77
2475.22
3433.74
8763.43
19681.9
21871.9
32956.6
28972.1
23060.4
12159.7
15336.8
4484.25
8746.39
7907.22
3902.5
2664.43
9915.64
14935.9
11348.3
2508.18
4845.01
9149.75
8589.07
1253.04
868.653
1664.17
671.229
-118.693
6249.77
9277.3
16513.2
9802.42
11082.7
5922.32
7162.16
9889.25
12221.5
14617.3
5582.79
6513.21
6842.41
12867
6607.93
7824.27
6710.16
13043.8
10915.1
13460.4
9187.95
4767.8
6459.36
5258.24
3098.65
2976.34
5352.98
2089.72
4599.3
4415.2
-108.866
-68.2022
2117.03
3946.11
4651.08
5797.74
2957.74
6903.56
6177.35
8313.88
5052.76
7762.95
1039.17
-724.799
2436.03
720.527
2732.34
4806.16
11562.9
314.336
255.954
5183.98
732.008
1639.44
105.412
1693.35
1802.97
7599.09
5327.81
2754.12
1515.19
990.157
1798.55
1117.29
348.552
-168.172
1463.45
5277.54
4279.05
3001.13
1971.38
2773.04
9232.95
8865.65
5236.29
9785.59
10499
11738.1
3132.74
5824.35
6996.23
5566.02
13390
14300.3
14366.6
20674.9
14523.7
16872.5
27709.2
27286.9
22146.2
31561.7
23184.1
20555
16397.3
9238.12
9108.24
10769.4
15408.5
9288.6
4845.14
1014.43
189.329
-3.32282
557.23
3496.5
5706.46
5409.32
5544.63
5282.56
4320.65
2042
3109.84
408.734
1077.87
425.06
1004.1
215.44
839.393
148.593
417.545
2881.26
9886.18
3152.09
2347.96
282.158
1196.28
83.2999
-542.988
-548.862
507.708
-64.2953
194.861
831.198
620.149
248.122
1412.3
415.779
2087.84
5602.04
5691.86
8823.89
15095.6
9571.26
17758.3
11021.8
14896.7
5302.1
4737.73
4706.83
1464.17
4308.45
2180.6
431.522
859.461
2337.54
2474.8
2886.15
1085.37
2895.57
5497.98
5449.43
-48.2281
-194.498
-601.539
885.457
-292.811
3176.89
10176
11332.5
10927.9
15759.7
6236.78
11747.6
18167.3
18239.1
17915.2
20002.9
5661.2
2528.07
4854.14
2452.61
3635.52
1839.01
-191.255
-303.465
785.108
347.232
504.066
1298.44
4747.79
4845.74
2838.26
-296.766
-136.456
-155.829
943.638
1474.9
798.397
499.32
718.206
405.255
214.862
1379.98
875.112
-27.633
3085.37
4158
1150.61
595.366
341.164
642.483
263.913
-0.658085
1662.41
-122.306
1395.22
1569.72
1471.63
5369.76
1221.12
1372.9
736.342
747
2017.85
3077.54
768.393
-300.967
1158.06
314.556
606.425
2511.06
1160.87
1193.94
-2.08081
1029.96
1931.85
5912.01
1773.8
11.8321
939.243
1547.09
510.452
-634.952
54.0671
1950.18
902.955
1525.34
2069.97
813.294
5176.39
2913.28
-396.993
-355.84
-403.486
711.867
-361.293
-376.418
1044.91
-145.768
4272.33
2752.79
1460.78
7050.11
1573.73
2009
1614.95
4486.96
12344.6
6513.18
5456.13
4861.79
1796.96
1093.43
1853.79
1832.27
2678.25
8088.77
13884
4008.43
1252.79
524.608
167.882
853.723
87.7742
-237.884
746.083
809.353
-228.944
59.8238
403.991
2749.03
5872.87
971.129
1219.88
905.182
2738.65
-295.359
1610.95
7412.35
7094.4
11669.7
6051.89
12910.2
12195.4
14096.5
15444
11929.1
23479.5
19166
9106.53
6168.24
2209.6
5489.23
891.294
1853.83
1599.37
5377.36
1394.34
4837.98
4226.29
1736.22
1557.43
5130.37
1632.01
950.918
2770.09
8918.3
24421.9
38516.3
16297.5
22695.6
15768.5
6363.63
9190.98
7201.55
5424.99
3979.35
3886.32
7901.71
12796.9
21864.7
8680.17
8990.1
10545.2
8205.06
9265.39
5906.77
3438.49
5357.83
7152.63
13920.3
6918.91
3925.87
4871.24
3189.01
7958.49
10198.6
8543.98
1384.28
75.5361
1608.28
4374.59
3491.06
571.663
1354
4357.79
1810.34
737.824
1691.51
2316.3
600.064
590.913
588.616
186.648
-21.5396
210.462
1652.26
6791.07
3541.93
2338.95
1927.54
703.155
1553.57
2514.58
6289.97
3666.67
9693.28
10199.9
5221.5
2728.84
6124.18
9938.84
1420.24
4574.82
6737.75
11168.4
4820.56
6008.67
6046.11
12664.8
4028.8
5359.77
4754.46
7227.8
3420.06
12456
19055.4
12630.3
15109.9
14204.2
6493.32
11937
11935.9
3383.81
2866.26
5069.05
2079.58
3129.53
6949.41
2214.4
6218.39
7459.4
14842.6
14396.8
14883.2
14681.8
13774.5
7614.97
8969.06
3155.78
11531.2
4719.26
14550.6
7563.56
5942.84
1405.43
226.623
19.0902
299.131
175.323
-493.996
68.8976
1532.58
130.268
659.709
3976.12
1959.85
1383.65
1606.73
2365.42
4644.86
3343.95
3603.42
2995.98
1432.21
1210.91
326.22
1484.09
1058.14
413.345
2391.2
6621.31
1814.66
931.155
248.86
360.46
556.946
865.225
1.40421
1232.5
1450.91
245.302
211.336
4190.75
3292.46
1864.83
2910.07
353.816
-125.222
-241.396
-161.876
1790.11
1064.77
505.977
115.411
5307.62
6177.01
3080.4
-4.32232
336.551
-144.808
225.016
17.4557
159.783
-370.498
1300.28
254.832
744.508
3265.03
-175.103
1121.62
-625.043
-46.9581
474.69
628.848
4657.58
11853.9
2990.85
6687.26
1748.49
667.646
3891.04
2802.57
5251.51
6246.01
4011.4
6026.4
7607.83
2592.09
661.175
10479.2
6526.83
2051.29
546.786
-144.866
-222.282
83.1348
-146.385
48.9085
281.732
1944.77
708.869
17.7425
993.524
2486.44
3468.77
2599.84
350.144
381.942
755.614
1005.75
1372.47
-113.603
1567.33
1691.15
2005.9
3944.82
911.858
3034.24
5430.12
5009.15
3658.02
1433.98
2524.38
261.061
768.674
471.694
3606.02
3913.37
1231.59
366.778
1192.78
232.131
361.719
-93.4755
-127.939
4093.82
10090.2
19867.3
21505
17649.5
14669.6
15548.9
20899.9
14426.8
12806
13221.1
12336.1
12130
10578.4
9339.8
9735.51
5155.92
2222.21
9058.42
10117.5
10204.9
4452.28
6209.45
6931.51
8482.42
3852.96
1585.04
773.368
-401.264
716.718
1005.88
1345.38
-951.082
186.036
287.549
1678
-531.28
-48.6889
540.16
128.739
349.34
746.13
2350.69
923.122
835.169
129.873
125.426
430.096
2419.76
5586.65
6807.01
6427.82
6715.43
473.379
1441.05
2691.05
3612.39
1785.3
1866.09
-210.841
1538.2
1276.68
3058.35
2738.29
4229.43
3988.75
2391.64
296.482
545.757
263.164
2231.05
1464.1
-529.393
871.773
4363.66
6161.09
954.283
917.633
3460.67
511.501
2798.25
2372.27
1086.51
3654.57
1974.74
3453.26
4101.34
3917.55
6291.54
20316.8
26969.8
12705.3
15399.5
8453.71
3228.65
8642.85
4160.21
10238.4
23045.4
25060.7
36262.3
48946.3
42483.4
24668.7
16878.5
28335.5
19482.9
23766.8
32932
24104.2
20279.6
20637.6
18133.4
22154.2
25105.3
24944.7
21337.8
23751
19026.2
18520.9
17294.6
9406.84
25832.7
22617.2
15942.2
4344.18
3623.15
35.2838
885.277
422.778
977.038
1743.54
461.966
4246.29
5774.48
3202.56
5356.31
1404.16
5412.73
1112.97
682.518
1902.89
217.499
555.718
381.219
1481.96
1214.76
2094.17
2547.28
6166.6
1470.56
2550.74
-437.781
-37.2344
3432.94
2791.51
1572.63
1232.82
1034.74
870.224
-64.9953
796.938
2624.22
-18.5974
-61.8332
1137.2
275.003
636.575
2481.53
1388.04
4178.1
1073.61
625.603
2102.39
923.874
-204.357
4672.31
524.403
1128.4
-223.393
1084.61
3685.52
96.1001
1331.04
4218.3
3559.97
10692
1184.25
726.042
-233.689
87.2533
829.384
1990.6
4137.43
6252.64
15232.7
15570.8
19942.1
17315.4
17339.1
6543.27
1139.82
4089.45
6441.86
2123.19
-277.402
670.707
219.551
322.141
2031.19
6518.37
14629.1
14129
10877.5
2875.88
2452.54
3801.75
5714.87
16.6965
1255.01
1269.39
924.199
3784.24
57.6847
-769.4
724.725
1439.48
4203.64
1395.28
295.572
174.105
251.237
1010.35
-15.7708
424.224
2028.47
2313.12
2923.03
3529.76
5833.99
1021.2
4309.4
1211.14
530.013
6049.16
5673.11
12266.4
10620.1
14501.2
14944.6
11589.6
8534.71
4873.84
6071.45
10800.2
5107.46
5045.01
2593.77
1347.98
1194.98
280.842
-96.5448
1134.4
-135.461
-547.191
647.811
270.295
46.0714
1100.51
718.728
2842.97
45.9369
9287.75
5108.25
17021.3
24568.8
21248.2
10542.8
1652.82
3404.98
2169.02
4798.64
4972.02
2855.16
862.125
607.339
76.1494
514.67
396.605
-8.44261
959.938
289.508
1935.45
656.613
2477.11
665.134
-437.856
2330.2
3998.42
2946.39
153.716
-249.071
1834.1
315.762
-126.347
2899.45
194.077
939.552
234.77
441.004
307.773
726.899
-78.3229
499.576
4694.76
13163
12197.7
12242
6846.18
2533.68
8421.63
11555.8
1553.92
143.465
44.3177
4339.62
5530.95
5692.7
7795.37
895.908
676.806
3131.57
3084
125.13
-380.088
1120.18
3769.56
3605.14
1413.95
3448.12
5994.36
1711.08
1208.89
76.422
1896.8
1049.97
1953.78
11579.3
18240.8
1801.05
1162.63
3909.21
8809.69
3655.05
2064.49
965.235
871.004
1251.94
929.775
5580.68
4241.75
3728.22
1934.98
93.6163
370.132
838.888
7690.64
9836.7
5166.58
1909.27
209.672
1128.49
1786.5
6828.54
5582.52
13575.1
7780.1
11786.3
4961.02
429.621
62.396
228.393
2471.25
3599.35
3089.6
780.749
1706.26
4347.74
361.545
263.619
82.1842
340.697
761.194
815.867
6716.78
15402.7
6610.82
6801.44
11680.3
15084.5
2261.74
5317.65
5059.94
1179.68
550.372
410.941
882.317
941.175
1615.89
-16.7591
-216.752
256.365
-384.406
1272.89
2225.13
8883.61
2912.67
749.05
552.621
1496.53
3792.86
2376.09
729.084
3649.82
5789.84
10707.7
18602.8
12719.9
9555.88
2427.93
9137.44
5138.98
7487.01
4481.69
7778.46
7023.84
3344.53
-226.348
24.3709
68.5148
2938.46
-435.988
2737.69
3191.92
2978.06
584.076
700.2
1810.1
816.308
508.022
193.575
2959.6
1961.46
2971.31
8027.8
2601.86
1620.15
657.295
1336.38
169.108
1295.77
5060.88
1653.68
983.38
-117.959
-201.845
873.312
-13.5743
276.155
1773.6
5779.88
4322.65
9034.06
2812.21
157.026
-100.825
-641.851
86.1226
8795.58
6699.16
10996.9
8341.62
8457.02
10723.3
11483.1
8381.1
4419.96
3991.19
8909.05
5317.31
6064.74
9083.83
6684.68
2245.64
8652.17
13376.5
18008.7
17756.6
11258.8
19972
5649.56
3732.05
989.368
902.957
160.358
-139.328
-8.84076
817.457
807.327
1312.94
1157.83
2816.68
1729.17
1201.25
3553.13
301.909
-58.2633
2141.14
-494.717
182.698
700.954
47.1203
769.898
2673.01
10371.7
2447.3
1786.7
1537.61
874.469
748.153
257.292
2556.83
2208.69
0.104717
2085.77
3685.68
5780.8
5863.07
3807.93
2145.26
7436.94
1489.51
3309.04
562.514
7267.6
4576.8
1447.63
1905.61
3425.19
2927.72
2828.09
548.966
991.447
402.077
523.115
409.579
1239.4
2446.62
7043.7
5211.85
4187.09
1316.24
972.574
-28.7821
911.911
1488.4
735.564
621.01
1562.9
2332.38
4649.61
4090.65
3957.69
2460.63
11973.6
12524
4673.94
3465.49
237.277
0.856021
1491.98
17040.2
10687.8
22930.2
17746
18370
13389.5
9528.29
11011.5
8519.21
8178.11
3088.49
3145.67
9764.08
12040.7
8298.78
3560.76
654.428
670.673
1898.93
2469.23
1.4681
1427.06
1599.38
-135.377
-715.601
1613.74
887.198
182.536
6080.12
490.159
4538.06
183.847
-52.6625
435.61
1210.66
-569.818
-266.488
291.449
619.081
-74.8319
1224.88
573.674
709.819
973.281
623.901
3614.51
7077.97
1119.05
2953.62
-322.605
3971.69
2992.8
5585.95
4600.4
657.289
1457.77
1333.85
1088.88
976.877
1622.68
80.3048
1448.72
6578.71
8764.91
12410.6
6690.05
4691.58
4608.49
4584.58
12432
9198.04
15840.5
9329.31
16514.5
15951.1
14029.3
14708.8
15791.2
17551.7
13535.3
12359.1
14337.1
22917.8
40031.8
45856.5
31094.5
14522.9
13147.6
14772.8
14580.6
13321.3
17614
28449
30212
48081.9
35874.7
22542.3
32327.8
24804.1
15665.9
20716.5
26526.3
32120.1
37392.5
18758.1
12579
13994.5
4555.37
763.033
320.849
-28.5264
718.992
-105.575
-28.9102
771.765
4526.8
3220.28
3202.66
4702.61
2679.21
-182.182
-185.009
3160.72
4328.02
3381.25
3450.78
-91.5481
1779.22
2573.04
-221.523
42.1765
862.592
1555.04
2390.61
2538.6
142.653
-323.947
243.213
599.043
-68.9429
1226.66
219.197
272.026
-31.2807
-37.4502
10772.8
14602.6
15645.2
13501
21349.6
10820
13226.1
7751.16
5707.75
7027.84
8911.83
13617.3
10418.8
5522.02
6148.07
7860.5
6455.8
5365.39
3759.7
2063.99
1333
8014.85
18005
9819.18
9161.14
11351.5
17300.3
25957.3
41143
49534.5
34326.1
30393.6
29838
17736.1
18817.8
11083.7
12337.2
1902.5
431.764
2896.39
373.838
-396.315
276.232
3652.18
3968.07
3962.51
3641.97
3095.58
3651.8
998.764
506.908
1159.23
-116.221
846.286
473.372
222.442
839.279
6364.6
3373.18
2811.37
3502.8
1069.34
1228.21
2424.11
1430.45
-275.48
3551.22
8230.42
858.921
830.978
2557.91
1447.13
7793.05
849.617
402.102
162.918
-727.818
265.918
813.455
-397.374
41.0614
396.715
-140.248
225.975
1613.1
3377.63
6381.92
8436.9
18071.5
13128.1
2629.46
5439.85
5746.55
2565.41
8370.97
3490.5
1466.53
4465.62
831.409
2336.58
1543.07
2695.57
839.259
1802.16
774.788
4386.86
154.212
1435.55
1752.34
579.848
1426.35
520.008
164.255
-176.68
1654.78
261.648
-389.68
-299.438
4125.24
504.41
-47.9355
3662.18
1820.63
2715.55
2179.08
-92.4832
191.176
328.384
-90.6102
1490.71
-6.79594
5.68427
1291.88
-565.669
450.319
2498.78
1239.74
3243.76
1618.07
7862.82
6382.11
18037.6
24171.5
14666.4
26120.7
17641.2
11384.1
10311.6
25831.7
19212
14949.5
23919
20006.2
21710.9
46142.2
58402.4
36614.6
22024.1
19918.3
20084.2
19574.4
12902.8
9447.25
6572.77
1544.23
360.768
-16.6982
1323.81
661.773
308.718
-250.366
1583.29
-13.9731
688.053
86.1576
4140.96
4214.92
1500.5
2303.47
1851.4
968.483
3761.45
18205.5
16488.1
14897.5
9837.17
18187.5
20704.6
19375.6
12952.8
1858.17
2958.43
5769.58
8821.98
3328.18
7648.44
5355.44
4918.61
3974.33
4402.68
3300.82
1236.67
4367.04
11738.3
13064
15384.7
18200.7
5031.76
599.213
10076.6
12291.7
10160.7
15291.4
15069.2
22089.6
8229.42
710.057
-169.69
-136.344
1668.68
-275.182
462.213
164.993
272.512
-394.472
-60.3628
105.172
112.72
2080.74
3573.41
3756.23
1782.38
1656.64
74.2103
869.118
361.385
1604.8
100.93
1414.69
5109.75
3844.49
8088.9
9928.7
4697.06
983.136
4257.14
1064.37
1196.93
3022.09
1389.27
3527.33
3078.18
-443.856
1516.5
1271.79
2546.59
7309.28
3067.6
1082.06
3736.28
19.1176
312.388
1117.14
1123.62
-116.579
678.923
444.775
1662.2
1549.06
4038.2
2909.05
1132.42
366.935
217.558
836.294
638.769
816.393
7.30919
798.932
2051.32
5760.37
2561.33
736.207
493.143
845.69
372.212
2072.67
2013.2
-4.28858
-515.458
452.6
5885.26
-75.8538
-653.014
-419.46
2183.39
4065.16
11868.9
25247.3
13729.2
15696.7
30642.7
31398.1
20955
25278.3
18592.6
18785.2
6271.36
2407.36
9246.35
4655.13
3033.26
1048.98
2987.5
1521.32
2697.13
-592.274
174.919
227.951
3934.95
1680.37
-488.754
1278.92
-19.0724
829.653
1741.38
2209.5
327.442
-87.9158
228.478
1178.33
1151.26
1895.37
3466.11
9540.06
7450.75
4499.33
7410.9
4012.6
5931.33
1796.23
804.6
2913.31
9530.52
8890.75
1523.41
-171.503
589.231
3819.7
7114.1
5202.93
9568.34
14372.7
19612
11451.3
21122.7
24585.6
23003.5
27758.6
17084.7
20686.8
22118.4
24112.6
28894.7
32483.8
19536.3
8943.9
6945.94
13003.3
19435.6
15803
8136.42
1796.55
6337.68
6675.98
1615.91
1300.11
6255.88
1764.44
1742.19
2345.66
8698.3
9101.66
4977.77
1494.8
459.164
519.32
603.277
2288.45
4500.62
6794.55
789.655
3674
1260.61
2653.88
593.191
90.6358
2635.98
692.88
3054.22
1512.09
3005.96
4149.24
3439.05
2804.79
-279.712
336.401
120.418
669.698
1851.46
2904.77
4421.23
6479.67
5522.16
9143.89
6916.06
3841.28
5661.79
1105.26
12798.2
15104.4
19973.6
8866.19
4226.35
2934.18
923.369
3445.82
371.308
878.502
314.24
775.869
1015.29
-115.892
-106.308
24.9186
775.475
1992.9
3265.97
8482.54
9714.53
-306.015
5805.67
7195.72
5635.27
688.814
-160.401
506.077
-617.674
152.647
10.733
248.235
274.889
1020.23
1227.5
5786.79
7766.56
3101.3
2816.45
301.694
45.0816
855.726
2561.71
589.987
673.37
1029.84
333.863
1046.97
330.113
16.4092
557.519
1004.97
828.039
-176.795
212.165
-104.709
-458.12
604.959
175.701
1051.75
-147.255
637.519
111.769
908.472
6948.36
10629.1
12102.6
17042.9
12709.9
6602.6
11031.1
6700.96
16339.7
14262.8
9973.93
11158.1
9620.01
13440.9
10770.4
10946.9
11610.4
2114.19
3710.71
5481.49
6356.9
2723.9
5780.99
4843.23
111.466
5961.05
6879.41
4640.99
3428.3
3198.51
2408.52
2757.28
5056
3679.22
1515.43
4097.29
9155.47
12926.5
15280.4
9546.75
17120
31444.3
17374.6
18022.8
20168.1
38460.9
58167.5
65601.9
58608.4
43215
54195
49501.6
51034.4
40440.9
52487.3
60429.4
35929.7
45101.3
23136.5
25778.8
27456.3
35572.6
18577
6290.4
8698.79
7200.35
1553.21
1371.78
891.991
1356.22
331.753
127.161
320.688
509.346
1258.54
3751.24
10264.9
4313.26
4210.39
325.827
2834.35
868.592
-42.2881
293.213
1296.84
2810.07
5904.85
1404.55
113.442
-52.6647
6284.41
14813.9
12766.6
4121.82
10468.1
4594.96
5992.88
3362.59
-96.8045
883.879
1803.52
875.311
2254.14
-166.963
-10.7398
329.408
-145.121
-90.7612
1736.09
406.48
1336.4
582.497
1138.93
2954.91
2105.66
61.5054
-15.4318
209.428
-102.852
-69.6642
703.154
2169.22
2566.47
816.615
1318.94
6729.73
7952.96
1079.13
368.945
2277.94
4421.36
6056.39
7348.4
8005.21
5006.59
3180.78
2197.14
2943.36
1129.8
4616.45
3423.8
4807.5
4899.82
1508.78
4819.11
7565.99
5587.01
2519.16
1092.85
2545.95
7334.8
8177.8
4920.33
4765.84
2268.27
2087.74
543.445
784.743
774.501
-48.2888
2383.53
2468.12
2138.04
1173.41
3399.55
1073.18
3821.4
262.537
1219.5
-51.2283
56.9095
620.793
985.829
3.69935
39.9696
869.674
517.354
285.538
554.842
388.106
889.519
-204.211
88.2468
466.244
179.056
154.276
609.033
2632.87
794.589
855.43
9563.95
6313.97
2876.17
3833.72
9791.72
9320.48
3790.19
-74.1913
2575.73
4728.53
2230.62
457.924
1408.91
2542.63
-208.659
1281.44
85.7944
831.768
1933.97
5294.44
10453.4
2272.53
8683.63
9972.93
4586.02
8217.73
10875
1131.59
-551.713
9.02241
1379.24
2262.3
983.829
2293.03
2235.74
760.392
1031.48
1065.44
1700.1
3166.6
109.296
-109.42
649.695
727.124
405.267
829.872
2012.65
1540.81
9835.25
14592.2
11268.9
10835.5
2775.15
-29.8105
2113.13
41.5013
1035.56
1579.47
1057.11
2122.38
8498.61
7815.82
18916.3
12123
13577.8
24396.4
21047.9
39320.7
29796.7
21548.4
14321.3
10957
16870.9
14586.1
7655.04
9495.19
6506.91
2821.83
2119.67
1257.45
8033.63
4822.62
1609.14
5823.78
9855.2
13323.7
20241
20757.9
24443.2
53444
49121.1
29403.8
27925.7
25533.5
40610.2
27831.8
18909.3
12569.2
23049.8
18916.9
12755.4
13107.9
3921.37
551.789
7634.98
12710.1
13160.1
5600.12
2745.92
3222.25
4935.32
218.362
-460.048
56.814
2356.34
4282.73
6520.07
1083.19
-586.079
698.836
4946.81
10597
17045.1
7344.87
5738.36
5177.31
1527.75
2733.86
-150.282
207.498
390.693
1056.8
2082.84
4192.39
6910.87
12293.9
11353.8
3788.1
4194.83
2868.93
957.78
65.4234
-257.063
3539.69
2780.51
3802.85
7031.98
11880
19051.3
14290.2
8315.31
8579.03
16013
8638.02
14407.8
9458.64
2711.79
-297.826
769.201
600.322
-153.305
2756.16
-638.787
1143.19
3285.97
1164.7
8338.8
4843.71
7371.74
3948.43
3254.49
2276.94
581.843
1646.11
2220.1
1173.56
-320.723
1002.64
-88.6844
582.73
4599.95
2753.46
-353.911
1154.45
-337.192
-95.2209
2701.84
5060.86
7140.08
3534.93
2631.26
187.013
675.127
825.843
2117.93
8697.07
2582.79
3615.01
8083.91
12079.8
5331.76
2861.7
1897.5
2799.48
6269.09
4833.2
7991.78
12495.3
10516.6
3113.65
4736.24
2581.94
1010.7
6726.23
7622.09
4287.38
6557.7
6433.77
8105.76
2835.39
265.271
2108.27
-348.687
544.003
865.818
1785.72
1810.35
106.822
2065.97
5999.19
7870.55
6379.07
3904.47
5299.61
653.092
633.813
906.457
1297.72
866.21
-34.4077
928.095
926.199
203.834
691.479
347.819
5401.78
7018.86
4885.36
8128.45
17377.2
20614.9
17262.6
14844.3
17981.9
14762.7
6107.02
5299.08
4698.18
2573.52
1621.39
724.848
1505.87
1457.97
1155.01
-39.7683
4416.43
10059.9
7970.45
5043.71
8928.9
9356.64
20683.4
26071.2
16199.4
13733.3
9767.84
11826.1
18193.2
29737
33825.8
25400.9
22269.6
21162.7
22496.7
12938.2
25203.9
21338.3
11292.1
7029.28
6878.67
8574.71
2061.7
761.949
375.418
1125.5
2494.61
8165.12
8169.15
8071.18
2181.57
4974.01
7662
16915.2
14157.1
17708.2
12386.5
4647.93
1107.86
1912.97
3048.39
6848.97
12905.5
11084.2
10642.7
9867.53
16090.7
11368.9
17547.3
19892.3
21992.2
28149.3
39300.1
30150
35746
44137.4
24869.6
25601.8
31602.1
19219.2
10824.9
11224.5
4356.52
5499.43
2022.32
3780.54
1006.97
354.828
-139.156
2246.51
8623.79
4421.86
2100.36
8590.29
11167.9
13944.5
16866
10038.4
3533.19
2588.7
2935.25
5788.59
13653.4
8264.25
7969.72
8755.71
6820.49
4887.47
7094.13
4052.96
3795.43
5558.17
11921.7
2341.27
934.049
189.159
-31.6045
539.841
359.928
1475.72
-164.538
-357.614
769.249
1332.81
957.531
-33.709
2108.41
21.6212
3345.89
1367.26
861.179
1548.52
-367.754
36.406
-188.258
2778.69
10234.2
13558.4
14736.5
6993.36
14832.4
22380.3
17118
13355
15318.5
14016.1
14101.9
2749.05
2637.15
1490.22
3803.8
6233.34
11379.7
5228.06
10791.2
5706.32
9246.25
13368.8
12652.1
20866
12564.6
18101.6
17046.8
6441.09
777.388
4386.28
6739.16
2880.46
2496.54
2521.71
1031.31
1719
3955.6
3356.71
7909.97
3202.82
2620.42
8845.62
3449.61
3420.4
2692.75
6504.14
8948.1
2709.04
598.096
1840.61
2515.75
7131.79
3550.8
253.282
278.935
-175.278
826.516
3029.82
376.503
780.699
3337.07
7425.05
8796.24
6989.75
6052.82
2399.21
862.34
151.946
8250.05
4179.84
6044.74
6166.22
4407.18
506.912
609.497
1249.15
488.784
728.575
535.836
471.978
190.357
790.479
-162.958
-281.754
-52.9632
188.111
1564.26
2304.96
1961.66
894.815
-125.644
773.323
362.684
-372.657
4841.55
9705.87
16454.5
20036.3
28149.7
24167.7
28049.9
29481.1
26635.3
11775.5
9702.6
6413.08
11631.2
5014.11
17708
21245.8
22108.5
20359.4
36034
31350.9
17407.4
9135.64
10572.6
12213.7
10248.6
10419.1
19487.1
25105
24996.4
20594.2
23848.4
25704.1
40496.1
23727.4
7292.88
13474.1
18321.6
8491.2
5641.48
993.811
1667.68
4718.96
335.55
1189.83
6.71587
-279.484
850.271
1539.04
936.274
104.204
1594.94
873.265
461.18
562.305
1268.87
692.419
241.346
-319.872
921.123
686.409
862.098
976.026
1206
1789.97
-137.565
392.267
514.088
637.779
-216.644
2699.37
1424.71
159.664
211.215
140.286
1457.06
694.619
1273.98
4939.22
3769.27
10674.4
5729.07
7862.19
16935.3
25227.6
37266.6
32244.6
32304.7
39958.4
26843.9
16244.4
11402.1
29136.2
10588.9
8336.74
3481.68
5276.85
3480.75
8924.63
14580.3
9818.3
27221.5
22522.7
25536.5
35061.9
46402.8
28727.6
21780.2
8608.59
12905.6
4364.56
4826.02
4786.7
6339.02
2071.68
787.383
4620.61
4474.88
4238.95
3650.97
487.979
577.617
453.376
1954.23
2645.38
4566.36
1821.71
-80.0378
169.244
-124.715
1329.43
2205.24
781.211
1933.59
379.212
2280.47
-63.2102
733.772
6824.19
574.734
-329.469
534.092
4411.58
3022.84
10246.2
5569.45
9411.03
6983.23
4838.31
4919.8
2358.09
1217.75
616.866
118.571
231.933
269.155
158.154
167.207
3973.95
6117.62
10162.2
3338.83
7963.45
9498.17
7544.82
860.314
916.859
264.87
1752.67
-0.0474285
2977.56
3567.06
1922.01
728.645
327.755
441.775
1023.19
1846.3
2136.49
175.465
-158.541
1781.31
508.295
2555.79
221.574
538.203
5397.47
7064.33
4368.02
1495.99
886.721
2050.46
742.52
506.538
541.944
204.002
2877.66
10500.3
14973.8
24401.4
15144.4
5114.7
7709.87
7632.54
5681.58
11015.5
4123.47
12196.2
10611.1
8975.91
5904.51
3883.11
475.112
816.708
-66.0231
3335.91
4634.81
7787.79
21729.5
19795.4
24590.7
18229.5
8544.27
12542.3
6232.5
3713.71
10004
9504.27
2138.1
4464.74
3714.85
1000.29
34.9999
-95.4362
2815.97
1176.56
255.266
1801.82
1561.39
319.403
2660.73
10704.7
14811.9
11800.1
13339.5
10614.8
10631.1
7039.15
10559.9
8726.1
8379.75
12311.2
10083.7
10671.6
10948.5
8247.46
3344.8
2081.26
-570.422
228.481
-429.391
1386.43
1644.78
2782.25
3942
1454.6
576.826
740.7
-183.314
-248.474
202.974
2192.04
1999.47
3629.1
1374.1
3338.42
3330.95
1764.61
6948.06
4732.5
3127.51
853.917
328.69
1248.04
705.753
187.809
516.448
383.857
-76.4938
-33.9719
207.219
-469.445
-104.202
-172.175
652.971
101.07
3302.2
1186.5
3706.91
3010.63
2550.44
2272.99
9795.35
2311.78
2975.87
3149.15
76.7958
1495.46
2791.77
934.242
1607.7
4594.91
1450.65
84.1202
-342.274
134.171
76.3628
423.141
2037.93
3521.03
4097.07
3883.16
5247.86
8237.47
13272.9
21637.1
23102.2
8431.87
20872.7
30886.5
14033.6
16048.9
27793.3
26432
22981.2
11061.6
7053.38
9830
27847.3
8713.82
770.754
601.148
1204.49
115.27
1379.41
148.051
13.5759
1540.87
1545.34
1457.84
651.633
1415.25
-59.1057
261.628
-78.0687
1061.36
852.186
255.413
1856.93
4947.43
7276.93
4778.61
-46.983
39.4899
-914.005
346.853
3683.05
1424.59
6328.09
130.438
1258.62
5316.58
12373.3
12827
15238.6
23356.1
19371
25856.5
23910.9
16205.1
29987.2
41825.6
26402.3
46129.8
33061.6
16575.9
10029.9
11854
19399.4
6654.22
4261.26
7666.71
1138.42
1408.8
-3.95192
130.581
341.728
1525.38
3915.1
10108.5
7245.12
8508.73
4742.28
8190.15
6160.61
198.325
189.433
-65.302
193.502
3540.82
1288.06
4788.21
5725.96
13663
15153.8
16043.1
8596.98
4813.15
3601.2
3219.2
6630.68
2288.04
2046.61
-117.808
26.7857
293.437
-29.7321
152.05
158.11
-608.56
49.473
716.142
421.76
3993.91
4501.99
4823.28
5117.71
3072.67
12415.1
14296.5
4137.5
3083.4
2567.01
348.394
1115.89
1338.56
2073.16
1009.92
1485.17
1133.19
3467.27
3335.83
4073.4
4232.15
4628.42
10619.9
3710.2
3499.49
1211.07
3023.02
503.562
222.773
28.1955
-165.832
-991.819
270.71
-102.606
178.347
260.348
2022.59
1820.93
978.73
869.188
679.396
-760.912
-22.7138
2087.17
-35.8973
-12.8396
2845.57
4652.8
7315.22
3358.65
3310.9
3438.18
3125.77
5077.78
3413.26
1745.97
143.881
240.955
607.76
1174.81
1026.19
-233.971
2062.9
6418.49
3583.01
736.572
2413.1
1469.84
350.379
4.65219
115.417
-471.592
-565.591
412.991
-153.925
2002.7
490.787
1747.87
1240.85
3598.69
1323.14
1400.11
3508.71
3098.24
8844.09
3099.43
6659.4
4831.63
2674.2
1695.79
-61.149
10061.3
7365
7665.89
4110.71
4229.87
3159.83
10017.9
3073.87
2037.22
2301.16
2235.03
6680.69
10509.6
26624.9
44510.6
39422
27355
24123.9
6880.29
11922.8
17425.7
24240.9
16770.8
13770.8
5165.2
9770.76
8042.66
12975.3
21592.7
18428.3
12368.8
13352.9
25656.2
26553.8
15859
11462.1
6832.19
2692.4
2383.57
3985.33
5806.34
4823.13
7517.58
16721.7
25629
25139.4
24207.1
18501.6
13829
15037.5
20425.7
13762.1
20882.9
8436.17
10085.1
4074.3
3835.54
1591.67
3744.27
3811.15
2139.5
330.859
-258.388
6322.01
8709.44
9840.73
9387.37
12479.1
7873.59
6051.16
21466.2
26346.3
26110.7
32721.9
19603.9
11541.2
6499.6
7753.3
10860.1
9206.33
6125.41
25517.8
15148.3
19829.7
13888.5
7286.9
3299.04
743.22
368.293
-305.24
1160.61
841.107
249.713
733.877
787.942
488.464
448.386
1269
-926.988
3890
352.086
2171.29
2328.06
587.745
-315.387
-409.834
711.621
-105.561
2754.17
1048.87
-647.901
3172.06
2370.76
7551.48
2776.84
1234.72
1099.09
1303.23
2008.93
609.439
1316.52
2320.28
185.445
681.225
847.734
668.461
2065.08
1596.06
1167.09
3482.24
7323.99
8807.82
15505.2
16342.7
23782.5
16644.7
10408.4
5550.44
13392.5
6322.43
4747.57
2034.28
2207.51
4263.94
630.307
-438.024
1912.21
1209.22
418.558
166.376
2771.79
2537.99
2684.21
7095.11
838.257
1865.88
-118.478
50.9589
485.86
785.285
2410.64
4653.26
751.014
1107.25
1635.87
813.202
2818.04
10285.5
1343.54
1033.38
297.629
617.776
126.872
154.132
214.177
-236.547
401.672
1399.12
901.599
432.605
210.336
98.2458
367.069
1032.39
-270.76
1056.32
492.028
2822.58
3204.31
3838.04
4133.79
8846.59
5981.69
11559.5
10248.9
20644.1
16983.2
26153
25259.4
24355.8
18356.9
23119.6
41641.3
71365
73683.9
60748
53049.2
40041.3
33429.2
31160.4
14870
21124.9
11505
13456.8
14597.9
11277.5
5440.42
9190.7
10638.5
8417.18
25889.2
28832.4
26737.5
24352.3
14304.2
17228.7
16581.3
10310.7
5287.42
369.331
3959.71
6421.27
8929.24
8414.05
3996.97
833.292
553.352
33.3818
1777.08
3431.79
5563.66
3115.17
6438.57
4879.84
5867.73
7508.05
13008.7
14530.8
12690.7
7026.76
10759.9
16196.8
14015.5
20145.4
26237
18796.8
21788.4
12487.3
7692.21
4965.1
4535.56
5175.32
2108.24
1061.86
1584.64
8633.43
4708.63
3274.29
-498.634
566.724
807.201
4007.39
886.672
-23.9182
-22.85
1826.83
2895.35
54.5086
1094.51
-42.7168
-54.8773
3928
4578.93
2109.4
527.209
888.525
2207.61
397.812
784.877
1937.4
3175.25
329.052
-75.3428
1140.22
1607.01
872.769
2242.28
753.937
289.722
3942.37
10535
5634.54
1437.79
2894.7
1852.51
7752.42
9717.6
15676.5
12184.2
11978.2
10062.3
7206.96
9866.04
7256.53
960.843
-163.491
1125.93
933.581
1898.59
3527.04
3026.08
2296.95
1652.39
443.548
2791.06
5324.6
1837.1
1260.45
453.515
-180.027
567.496
496.202
17.4602
2496.4
1342.89
965.739
2209.53
37.8653
3142.86
5802.88
1878.2
222.255
1941.41
5386.46
1991.34
6365.87
-11.2859
145.091
-310.438
2403.86
7052.78
12302.1
7358.01
6145.59
5195.27
4650.18
5060.55
3850.5
1488.68
1531.2
5409.23
5020.37
5757.29
6910.8
9179.93
5535.33
2074.26
860.743
2649.14
3787.87
4507.49
1657.98
427.51
4807.89
1964.22
1265.9
574.092
324.027
187.476
843.241
1825.85
485.814
663.974
932.535
2111.75
2588.53
690.555
151.092
1808.03
-42.6606
-599.008
65.8317
1783.74
2507.16
13315.4
16530.8
15722.4
13216.3
5447.08
3940.57
-24.4057
1295.53
161.914
-75.0068
1421.73
1729.13
450.193
3480.47
5367.91
5079.65
9333.04
12845.4
2428.4
5014.04
1587.66
569.184
123.085
1299.56
5616.82
5657.73
13777.9
16123.9
23668.7
24180.9
18576.7
17991.6
31532.2
36138.3
43880.9
25775.3
34265
34510.6
28240.7
29674.5
42129.9
34979.5
37184.6
47213
35073.9
12360.7
15713.1
25941.9
23210
22185
10602
10546.5
10535.1
6010.96
375.291
3714.67
2595.44
1120.26
1179.88
194.211
471.815
359.979
1198.06
994.907
-351.382
383.75
-13.5397
365.15
603.639
49.5749
2354.22
2874.87
1445.44
1274.51
3699.08
1086.5
193.246
1184.72
2241.23
401.563
616.689
-12.583
268.981
344.763
493.753
250.532
828.411
197.505
5864.9
7960.99
9450.76
18233
11360
4805.93
3987.77
4993.51
595.421
243.633
450.163
2536.91
777.99
-28.4884
-244.917
1392.15
1311.37
692.009
1071.13
2548.64
4807.96
3765.8
7366.53
15379.2
13100.4
18489
20856.7
21489
38983.9
56695
53429.5
32128.2
27814.2
13515.9
7280.8
732.949
-269.09
249.032
3307.56
15997.9
19434.1
14148.5
5683.7
1952.29
3780.29
5290.52
7610.61
14448
7720.93
2672.56
2515.65
1841.31
8569.27
3068.8
4584.47
4068
8044.96
586.929
132.75
75.2525
137.646
-74.9656
401.465
967.779
85.6464
293.416
1506.57
2352.12
354.543
-381.749
143.431
-103.809
1735.05
222.14
-84.5039
578.629
2883.02
-837.421
376.377
361.538
2426.93
1781.46
270.563
3956.47
1734.28
934.956
1266.89
2730.93
-37.2226
438.397
2336.52
1228.65
-412.098
-237.385
-203.491
2047.74
9045.68
5772.11
2560.08
1836.89
1776.53
10337.3
6584.08
2932.95
776.889
1896.82
2793.82
5271.77
5739.54
1914.07
1503.96
1323.3
3948.58
3000.75
8663.41
3304.34
8667.78
2675.76
-26.4322
5689.86
421.781
298.076
472.578
1668.6
-413.522
1760.11
809.599
5944.21
6376.99
18188.4
10371.2
3612.4
3412.85
2201.76
588.072
1107
-37.1369
702.208
765.745
872.395
-670.646
-399.642
176.398
6169.3
2773.14
3010.72
2142.59
3324.41
8750.34
2299.22
10154.3
6421.32
3658.08
1742.6
862.823
2337.44
3404.05
4405.28
6676.38
12705.1
13726.6
9094.58
6782.98
1718.52
18.4804
663.21
42.5419
2010.52
3508.67
-762.563
-283.453
489.116
160.229
-58.1728
1541.6
535.255
-428.215
1326.67
229.506
-826.565
-302.136
142.179
3326.02
5697.66
4373.22
20087.2
12415
11128.5
11409.5
12491.1
8896.74
11949
3935.45
8649.93
2214.99
4175.29
2523.81
1181
3153.78
6891.33
6286.86
11351.6
14614.2
10212.1
7820.31
14227.6
10610.4
14558.5
25669.7
29371.6
43961.2
37301.1
32568.1
41031.4
33909.3
38391.2
25696.6
20850.5
28528.9
30139.2
15696.1
10095
4884.26
5265.85
7197.32
1731.86
-595.868
141.231
4547.53
3751.52
2234.59
3697.18
6495.56
4745.68
2546.82
1010.45
560.99
560.511
897.3
666.955
238.108
286.146
1904.97
-221.84
923.999
-71.7455
27.4265
1276.01
531.237
432.954
4170.04
110.154
1832.67
249.754
669.544
-25.5921
121.06
727.208
449.136
327.194
657.013
654.979
955.457
2430.62
3125.23
10422.4
8315.51
14061
6890.56
6842.12
3627.9
4182.52
2376.96
2087.25
6845.14
7161.69
3045.14
6366.98
3175.28
6749.16
3494.22
13734.9
16377.1
5250.77
6076.78
7886.95
5433.26
5838.17
6793.28
7993.85
19049.6
12767.8
13098.3
11959
5993.37
-213.61
433.062
121.959
1183.18
944.877
-60.9846
1561.59
5126.28
2018.36
3163.89
5229.72
7559.86
6881.86
3341.27
2794.15
4791.87
6660.93
3869.05
2184.15
1092.29
1246.97
1445.8
129.859
2396.86
1943.53
-13.563
-110.478
2706.08
2997.62
132.721
2935.59
-53.4267
1493.84
9212.96
7130.82
8268.26
6857.35
9227.49
6587.42
1723.81
1465.68
632.288
962.88
7220.06
13519.7
18379.4
12851.1
25433.3
18607.8
17428.2
11830.7
15336.1
21650.8
19462.9
25281.5
27907.5
17525.9
9394.51
11756.3
21146.1
18390
16793.1
18647.6
34069.3
22923.3
26352.7
24738.4
18926.6
22052.3
16587.6
12040.1
2081.92
1634.03
3939.22
-86.2185
228.067
82.3222
1041.76
911.377
108.119
4248.85
2376.18
129.015
1008.45
-877.961
1368.87
4658.63
2567.46
4965.91
3690.58
7275.19
4377.98
615.474
2467.4
889.435
231.074
1820.39
152.344
370.448
394.714
212.253
96.2714
-43.4826
-212.899
1957.75
-47.6078
135.659
239.791
499.758
186.474
163.457
1857.85
284.621
2763.35
1410.82
558.196
2634.01
914.993
3407.59
-268.466
1401.19
715.659
-77.2863
3701.51
5793.15
5331.85
1279.87
-80.9255
1939.57
-386.617
521.027
-161.225
-28.1104
181.827
1877.19
2667.49
4099.54
339.871
272.671
-46.7597
892.228
383.429
580.359
1787.63
3413.19
825.584
1006.85
719.535
1792.83
899.174
10310.7
6631.58
3395.48
4347.33
8173.06
5130.28
1742.72
4364.39
500.606
426.498
1713.58
3374.56
243.806
946.88
1721.91
12243.4
5434.26
9889.52
7074.68
4309.94
3950.99
5026.05
4717.56
17677.9
26184
15677.7
6314.39
5963.67
5585.79
10443.2
18347.7
21180.3
25072
45493
50449.3
41009.1
34058.4
15971.4
26268.4
19461.1
11224.7
9852.85
10191.8
1471.41
3562.52
901.824
3330.99
685.195
758.656
-53.0639
1097.03
530.089
74.6222
44.8183
791.45
647.497
412.016
266.613
2041.69
108.709
458.377
633.568
408.004
639.4
6.54122
165.327
1101.67
622.013
-518.221
3161.78
926.49
698.295
320.116
496.942
-564.232
174.996
1988.49
3235.47
2905.47
-20.5697
4651.17
3285.99
2633.81
654.753
-151.712
3155.69
-123.487
75.3245
1609.3
3305.7
52.9033
700.843
14158.5
11623.5
9058.52
13976.1
24596.7
15793.6
21397.9
18221.5
26461.6
24167.9
12391.7
3781.97
-4.00556
5600.79
-143.783
596.056
196.547
407.55
-80.5572
35.1436
932.718
2729.66
2012.25
476.629
953.902
592.575
74.8123
445.272
-827.334
1033.83
3995.82
2445.56
410.329
2045.68
2900.62
495.092
471.928
262.332
-372.407
500.971
29.961
223.786
1246.63
522.394
2179.3
426.791
-43.829
543.222
1614.37
1499.15
314.179
1081.19
7742.06
1938.39
2896.09
4342.75
12627.2
11615.5
6602.3
12890.7
6078.56
1837.16
1024.2
3001.6
9486.53
7685.23
2611.17
1071.12
1487.73
1872.59
1991.83
8894.69
12444.9
14109.8
12243.3
9954.11
10272.2
9982.74
14304.2
13177.1
18901.1
17232.2
8379.82
2873.54
1598.56
2550.52
750.045
106.535
139.777
1117.3
2356.79
901.173
4271.55
5284.29
11805.4
9087.07
7361.36
7483.47
1188.29
1631.78
-65.9513
1757.01
7081.13
4488.26
127.246
-22.4895
317.029
393.868
65.7226
1071.1
1747.79
2172.43
1993.04
1292.98
948.761
-154.233
167.239
499.89
15.3375
334.723
1108.87
3079.13
650.655
145.667
176.56
-226.646
-265.305
892.815
4706.69
5762.06
4794.5
3900.53
912.058
829.678
-537.089
1738.7
655.828
183.727
-162.701
1626.69
1305.58
2580.75
549.526
996.368
847.74
1143.15
-453.717
168.372
612.952
1350.95
5598.82
6043.38
9090.4
10956.2
10156.2
9807.46
8638.17
7196.9
5875.94
6710.13
4324.93
2238.79
1214.38
4214.47
5237.77
11681.4
6980.26
5603.04
1150
998.331
262.704
1652.42
923.025
565.421
722.718
-286.666
1266.74
3440.33
2351.05
7167.65
3634.6
1763.51
4216.66
3441.07
213.017
1938.97
1509.15
2397.99
11898.4
8090.72
7347.85
8542.65
10178.6
3155.4
6747.95
2763.26
4110.94
9807.87
5809.27
466.043
1902.43
1875.78
3540.51
2346.81
823.933
3054.09
4398.38
3569.48
2905.65
5178.68
8406.55
5387.7
4508.91
3284.88
3489.44
4231.62
10479.3
9857.64
4045.59
3950.88
1656.68
645.715
1364.68
266.925
415.884
136.901
265.242
6168.12
8827.48
9783.65
8209.23
7003.87
8175.21
4352.43
2994.21
2376.36
449.446
997.458
462.376
1708.84
1222.99
464.516
476.188
-67.1362
850.66
3818.01
3313.69
3133.52
3072.54
3604
7602.98
17164
20566.8
15987.5
19704.4
11917.3
9657
4533.5
4676.75
5881.7
549.29
1953.17
928.541
-143.383
148.011
406.778
1884.63
2174.76
2500.52
588.015
601.14
949.302
-204.918
-319.152
-1100.65
438.223
770.478
-749.859
1444.19
-398.025
219.687
-14.4007
2527.85
169.344
910.274
1906.36
5431
20059.5
7942.97
11603.1
15585.7
15639.7
7364.7
6880.81
10395.8
8164.83
28993.1
29396.2
20401.9
19033.7
23537.7
12914.7
12325.7
9132.11
4739.14
1383.92
2144.06
9945.77
12335.2
6972.19
6426.46
1462.41
2962.31
1343.17
2677.79
978.566
1196.11
4943.11
4129.34
2022.13
49.6123
1319.14
3391.5
1997.66
6559.18
6365.15
9710.49
12620.8
14587.7
9811.95
13432.7
16137.6
6587.11
3833.92
6819.83
12819.6
8789.95
17293.9
14437.2
18671.1
4725.24
462.921
966.34
3873.76
4190.61
7826.04
12862.3
12776.9
4654.94
1225.93
1195.71
55.6365
2238.8
2847.9
899.418
804.237
2156.82
6330.7
5655.3
2148.67
4300.82
12271.3
17154.7
17508.7
12456.3
16833.6
13470.4
25762
28015.1
17410.6
10798
6011.16
2503.35
2353.15
813.21
115.059
1686.26
5123.95
14358.5
14445.6
14603
16771.9
4999.81
1712.1
2190.67
2567.36
5980.89
5143.2
4287
7359.15
7706.7
4137.89
4618.88
5169.85
6366.1
11390.4
6945.49
1265.42
2283.38
4216.5
1760.7
9648.34
15343.8
15133
31278.7
13778.5
13183.3
7423.41
9057.67
7077.09
17576.9
19259.8
17160.5
10325.4
-18.1733
181.609
-348.414
670.583
4991.55
4004.59
588.755
1575.24
3195.18
8274.37
5231.78
3632.4
1231.36
669.582
3908.82
703.66
777.451
1283.92
1628.71
-69.1451
185.16
1039.92
373.991
-54.7959
1073.68
1982.86
318.107
247.72
1489.45
1304.48
3051.43
652.404
1566.36
9899.56
19165.4
13762.2
10122.9
11490.2
8402.49
9601.23
7518.6
733.269
356.014
5117.78
11298.2
5114.73
1804.03
1633.96
140.582
1639.26
197.645
417.228
1433.53
1435.59
1332.96
7790.74
673.355
4006.76
5310.14
10742.5
29289.7
23244.4
21308.9
14651
15466.4
8879.23
600.853
2189.64
5995.08
7351.55
841.328
2319.33
1973.02
3161.93
7157.28
2933.66
7269.45
6319.61
1344.82
3752.77
2006.42
374.774
152.417
-657.152
604.485
3230.67
1795.68
2935.36
5172.99
3293.8
8009.2
3549.01
1978.05
270.984
1560.65
225.514
1081.73
1375.08
2269.07
904.311
-255.316
3132.47
7412.35
6516.93
11151.6
5600.42
2962.78
1812.13
983.406
604.921
437.948
891.239
740.497
666.914
1617.07
1864.18
1197.87
652.45
-365.196
2040.65
1234.57
1664.49
690.505
3356.39
289.122
776.278
4127.36
1796.78
5323.95
3176.64
5831.21
2064.33
596.545
663.525
116.643
248.104
-10.6904
915.91
3756.19
12749.3
14087.5
20520
17684.7
19078.9
24375.9
15150.2
21475.5
7282.59
18186.5
31712.8
33887
28364.1
23395.7
15119.9
17691
17999.2
16862.3
3626.17
4548.07
10526.3
6026.26
2471.19
7442.13
15151.9
8310.91
13465.3
11369.1
14788.3
9692.44
14077.6
13233.9
12718
17465.2
4599.27
194.103
232.158
118.633
2755.94
1195
1869.99
1492.4
3652.71
10607.4
11554.4
17447.1
14260.7
11980
8715.7
14127.5
9804.54
1674.58
213.282
731.554
-181.468
-245.056
648.921
2310.13
3780.64
165.845
363.433
2.50702
387.155
3155.89
1494.23
5381.9
1906.4
1883.15
3508.3
1221.58
1101.85
2242.93
857.739
176.591
473.186
144.424
1210.59
1588.3
401.856
279.51
-144.163
-601.309
71.2784
-72.9209
408.057
29.3445
1023.94
3828.51
3984.25
2771.9
6308.75
3298.81
2654.9
443.624
1566.57
865.194
397.543
-362.214
146.313
6750.38
4228.87
3571.68
7738.52
15614.2
5606.83
5273.42
7807.07
7412.6
9824.52
16545.5
16619.8
27076.5
14854.6
16417.7
26505.8
36632.8
40263.3
24084
27127.2
18687.4
31440.9
30695.6
19288
19495.3
13573
10453.9
1820.69
4067.18
4379.36
3830.73
16158.3
21295.3
16582.8
12304
9913.4
2454.97
1395.83
212.335
471.142
1380.46
2600.9
2473.32
7941.16
10686.3
2590.74
8993.76
3897.64
6290.99
16323.4
5083.71
6695.84
2738.07
1374.37
-244.657
2035.29
2269.77
1448.53
276.062
191.719
-709.19
9.22278
759.979
1434.23
1867.26
2131.53
2429.08
345.747
242.548
797.27
4184.54
518.426
1414.1
-926.534
70.2376
1139.41
3297.67
2126.9
-466.608
965.661
53.4776
687.775
238.632
904.266
663.363
5808.62
290.465
1477.22
4207.99
4907.36
5697.48
16769.8
10737.4
5555.07
2294.81
1290.47
-8.67066
736.324
2324.76
892.333
-186.796
825.613
1041.68
1734.55
800.675
112.613
956.927
-210.28
630.53
3003.33
4797.89
12686.2
11401.7
15895.7
18430
11830.7
15433.5
14249.1
2875.86
3536.01
1543.53
7908.65
4568.17
4967.07
10163.1
4701.22
5425.3
8047.92
4730.65
355.028
745.466
