2212.97
-366.873
-1431.07
-1063.78
3690.47
5736.55
150.214
-938.427
3251.02
1043.57
-2732.27
-2611.7
-1527.02
-2519.32
270.602
-815.163
-2163.22
397.703
4016.67
335.902
9.72402
-485.363
2181.85
8364.18
2115.87
-368.476
110.036
3842.59
4981.04
-1214.29
2410
2382.97
141.427
153.692
5790.39
5534.34
5042.3
1857.37
4315.56
-1333.6
73.8202
1099.45
-2702.32
3569.49
-1126.2
-2336.3
-654.337
654.73
-478.739
-505.937
3854.38
5569.82
2014.9
1545.32
3288.32
14494.9
4295.78
10798.2
-598.708
177.961
-36.508
1189.43
7676.4
2011.77
1263.33
-886.601
477.445
82.657
-1397.89
-1536.24
824.954
-991.006
-201.335
-362.193
-1995.86
786.385
5168.21
-451.524
9939.55
-1555.95
276.708
-501.406
2475.37
-1177.56
683.128
289.069
4358.99
2910.79
8375.66
2986.38
385.799
7271.74
4607.26
1303.04
-899.718
-595.73
-3082.01
11230
1118.31
7314.72
10395.4
-820.323
-2383.92
1878.21
-1169.12
4722.92
-49.4596
-2021.83
526.132
2806.47
2168.09
7937.8
-1029.07
4824.85
-721.449
-2475.98
-1097.99
182.921
2124.1
-1971.91
3982.32
-690.734
2645.92
9008.07
9581.37
-1147.91
3473.7
-222.031
-388.816
-310.452
-1132.31
-405.889
-2734.55
-1970.54
1033.61
-1355
2032.14
541.273
10641.4
6205.99
8018.4
-1918.82
3772.85
4055.23
-1046.67
2565.14
8590.52
13936.2
12279.1
6518.5
1703.98
889.891
3323.83
3559.37
686.207
-282.345
322.966
-43.1549
-1123.92
93.3444
891.894
1095.84
-1655.07
-276.742
-281.762
1173.14
-533.71
3250.43
-996.878
-1921.74
-389.35
1227.4
2722.62
3427.67
-37.9719
-304.025
3612.51
777.52
-1342.4
276.387
470.701
1499.95
200.439
-32.484
992.412
-1986.91
1509.07
4720.98
-158.977
262.587
-1033.66
-3353.27
1931.29
-933.261
-1406.92
-689.287
-3342.4
-1351.62
-2225.28
-1950.36
-1608.36
-2013.89
-880.997
-1477.09
-1012.03
1059.17
561.995
3957.63
12373.1
5954.72
-324.367
-58.6157
-2886.94
394.233
-1079.01
-2068.73
-1418.31
-2180.59
-2797.5
-903.972
-1141.2
-2259.3
1266.44
872.138
223.597
-239.562
1450.43
-2641.13
701.018
129.911
-2526.35
1099.31
6613.52
3236.13
6949.47
-958.748
1677.34
2186.99
12480.6
-1549.17
-1061.27
-1173.32
1040.16
6064.44
9428.67
7066.93
9698.44
6089.21
11641.9
8896.64
4695.89
6680.31
1679.83
-1247.97
5850.71
4806.03
-3309.87
-1992.38
537.113
16325.2
5421.29
120.679
5359.29
2448.62
-65.352
-1008.4
2571.39
2744.16
3380.97
-873.129
5374.07
-677.135
4581.52
2179.88
2702.81
-792.397
-2102.71
-733.787
-307.468
272.877
3467.94
18261.7
10.343
-2986.93
2911.12
-418.046
5484.99
3478.12
2908.33
-1489.26
-1067.52
-522.764
-22.9886
-3250.9
96.7522
-1676.24
-583.164
63.7756
-748.946
-71.9241
-1551.51
23.2216
-1534.02
2752.14
3918.77
3243.19
977.421
7308.6
3496.36
5660.97
6705.51
9740.64
10229.8
16379.4
8960.55
12775.7
-168.593
-2389.44
-471.35
-929.846
-530.976
-2727.58
968.272
65.3818
4255.82
4513.22
628.054
4278.07
10538.1
4845.67
-3222.16
420.691
2520.74
-683.1
-3501.46
-1671.82
-291.613
-2040.14
-2837.85
-2235.55
-1104.62
110.371
2086.44
-2013.67
-1959.83
1118.29
1534.46
-4289.09
5730.29
999.725
-812.001
1479.33
1179.52
1341.74
11125.6
4067.49
7221.58
731.369
344.572
15.3789
1666.04
-1948.99
252.681
-381.313
-113.315
-555.628
-1449.65
947.248
2886.82
-4057.69
-189.944
-338.651
416.599
146.929
1717.34
496.397
1299.03
-3129.99
-36.4582
1593.41
-938.226
-337.801
31.7545
-529.748
-1272.71
1362.23
689.855
918.669
-2537.07
867.608
6747.03
645.864
9134.99
1426.46
-24.1583
6630.55
-837.165
-2173.66
382.478
-139.309
592.444
-356.775
-2294.72
-1796.44
-3305.79
715.569
1766.37
-2214.41
-258.378
-488.686
-454.538
-2113.12
-1640.57
-1186.88
9358.23
4381.62
12575.9
16851.1
20660.6
19180.6
9015.61
5637.64
3998.3
2936.34
5552.33
818.806
262.673
-3585.11
-1287.91
-2124.16
-699.631
-7459.12
-1973.51
456.297
-2804.4
-2113.63
5951.92
3872.47
864.336
-555.443
-6233.59
530.147
1970.52
-1826.67
-115.909
-711.531
-3955.57
-2879.43
-3026.78
2149.9
-1896.73
-1719.6
-1184.85
-1929.15
-2911.44
164.342
-1021.5
2084.8
1227.65
-814.478
231.522
-2108.78
-2934.72
890.335
-29.5677
4509.66
7494.96
-562.725
-5728.78
-507.153
-2101.66
-293.14
14393.3
7864.46
4145.81
858.082
2800.98
3469.07
3104.36
-59.3603
2058.52
-178.934
-22.3339
4049.86
-438.58
1000.63
4017.93
3669.55
1284.73
2258.55
-2211.8
7018.95
5656.77
710.669
-259.415
4795.47
-687.472
-2448.98
-152.835
120.334
1846.36
-1598.64
-2185.72
-105.996
3065.24
-1982.16
-4516.52
-2200.81
1365.12
374.97
-2991.52
-2323.43
-3259.2
740.243
8153.95
6679.65
3432.76
3442.57
2362.45
428.703
544.745
1241.48
-647.627
-1183.88
-489.282
-262.03
3597.88
-1486.82
-633.798
-1320.37
-2425.87
-233.004
-2798.84
-3849.98
-1999.46
3202.64
2797.77
1649.59
-177.355
-374.906
-1066.49
601.859
-1987.52
-691.73
-422.412
769.572
-1162.4
-3045.19
-2870.8
-72.6911
709.582
-702.151
-1598.58
-516.659
-2605.97
5113.33
12349.6
2989.45
1074.92
1151.41
-771.699
-948.282
-2976.57
-2167.52
-146.005
-463.103
31.3734
-1279.55
594.692
-2342.77
2320.05
1834.76
-828.765
-1750.77
-2311.67
-26.2086
2697.69
1663.15
4147.49
-1248.96
-756.869
-1456.57
-1762.85
-4279.11
-1449.63
-1720.5
-1410.58
-1574.48
-2661.95
-2821.8
-899.285
1176.07
393.711
-985.421
-8013.79
2353.7
-377.442
1872.12
1760.43
-409.289
-1452.36
513.981
-1110.19
-1846.97
-1406.06
-996.868
3685.61
4027.39
12065.8
10077.6
2113.47
4638.91
4906.58
1340.1
923.442
1567.2
-184.844
273.201
-666.537
1544.32
-301.19
-1713.12
-57.7316
2088.69
-1558.6
99.5629
1140.86
-1276.77
178.417
-600.616
-3078.47
6374.33
26401.8
18194.2
8431.72
583.723
-3022.58
2090.26
162.082
-549.131
-1833.63
-847.025
-399.645
841.923
-2515.67
-971.807
109.484
-505.595
-2391.6
1870.35
303.906
5496.67
-470.194
7390.07
2556.19
226.88
-2705.61
-617.769
1179.23
852.897
935.371
-686.285
-514.912
-602.313
-1235.02
3417.07
-735.016
-3921.57
-628.281
2388.91
-708.309
8440.24
534.48
17269.6
16330.1
17702.3
18128.6
12749.6
9455
1696.56
-409.772
-1136.57
-1488.05
1039.03
11095.9
4977.55
-1319.19
472.773
-4182.54
1738.38
-3530.65
370.802
1100.82
-445.654
-1131.25
3620
-808.398
-2440.64
-2851.02
2598.21
555.629
-1328.84
-276.029
-829.75
-5094.45
-1115.82
578.725
346.694
20.5327
647.826
-22.8492
558.513
-1705.83
-1654.35
-82.6599
-488.906
1538.36
354.242
-2013.64
553.175
795.382
9404.45
137.008
602.665
473.83
-2425.73
2075.99
4935.31
-1430.43
3044.87
370.195
-2712.55
-3078.52
1304.17
1051.16
-1475.65
-2135.14
-2879.51
-955.535
-1622.27
2742.97
320.894
579.87
539.324
113.762
-2144.5
-2572.61
168.089
2655.25
1493.02
7424.85
6038.26
890.583
-2221.03
1693.89
-244.496
-1431.97
5387.77
4096.42
11021.2
6392.11
5550.45
817.085
1477.15
-944.805
-1393.33
925.424
-1247.81
1078.09
-1855.5
233.279
2034.5
1962.41
3950.95
4976.85
6257.29
3173.04
6670.07
7361.13
5219.93
-1334.13
3398.76
332.711
-478.778
-755.485
-14.2289
-962.184
-1060.78
-1597.16
-537.327
-2386.02
1900.32
-2349.83
1473.43
-1631.23
2185.1
1736.09
404.93
-1870.76
332.189
121.356
-821.019
-2749.11
-6899.62
495.978
-90.0069
-1248.63
4857.42
10132.4
14555.1
12931.1
8001.25
13316.7
7165.06
1048.28
3897.5
-1073.88
576.597
5130.61
2163.72
1752.11
-2273.2
-2127.72
7660.84
15235
5729.2
2087.14
-389.117
5086.06
6016.74
3499.55
3121.97
2355.26
1101.83
3749.65
-1245.09
349.149
853.318
1608.75
-555.859
-109.532
-99.0301
5423.98
1645.79
2455.25
-129.897
851.498
3690.97
11971.1
-1152.76
-1027.19
-751.871
450.77
5427.39
-2633.27
-2759.44
11835.4
5975.13
14219.4
6966.28
129.344
-380.007
1989.96
-3122.53
2036.86
5379.16
-267.573
696.939
3784.49
-930.196
-707.481
-2155.41
-359.487
4705.39
1287.26
1196.43
-26.7288
1249.06
831.072
4962.35
5113.07
2068.26
8356.74
3864.11
2842.55
6063.39
162.7
-808.802
-830.186
-3340.23
1868.1
2525.24
1028.93
2773.12
8097.75
5542.78
-153.125
1467.39
-8.74372
2689.62
-110.682
-272.947
67.3125
90.4923
1005.48
701.234
-642.699
1540.54
-1052.13
-1881.01
1985.54
873.644
2781.94
-1349.28
1101.74
5290.12
3674.72
16587.6
12693.5
3690.9
15934.9
7550.6
4869.86
-1543.53
-1572.61
1558.84
3997.86
2589.95
-114.549
-1229.16
-1816.26
-766.388
-688.66
-860.158
-1592.74
1.68844
1599.61
-897.491
-1244.4
-751.888
384.143
-1076.47
338.571
-1013.65
-837.1
-41.1891
2.50883
-1587.28
679.798
1699.69
313.673
-1239.74
2085.56
-850.711
-2260.74
307.262
2149.51
850.041
331.817
6937.67
20812.2
14226.1
-2330.28
-2647.6
3194.25
2009.7
5842.21
10724.7
8133.86
300.068
-3344.8
1937.45
-295.613
8738.41
-994.611
-2457.03
-1901.27
2470.69
2799.74
2321.99
-1995.34
82.4314
1431.91
4101.5
-782.844
92.2492
-676.304
1238.49
-732.255
-1925.43
-252.901
-557.074
-1116.35
-399.157
-766.904
795.679
7776.68
4474.54
4501.28
10452.3
10615.7
4542.07
-1332.67
-1978.68
-24.1066
3752.41
660.585
-4886.88
-126.946
-857.093
-232.25
2266.3
-852.129
-7402.58
-495.368
6895.29
-1519.51
1513.55
-360.306
-3599.31
716.085
8809.03
9522.49
1871.61
281.564
3218.32
3134.86
588.54
-53.7796
516.414
873.802
699.892
-985.757
4021.53
-1640.38
-977.344
1512.64
4844.37
2128.94
-1281.55
-1893.01
139.601
1095.51
2323.5
1220.48
369.72
-1663.52
-4829.17
-1710.3
-1443.69
-2432
-1469.06
-6413.32
-3315.5
324.675
233.339
-20.6692
327.28
-1125.17
-590.227
4716.72
5181.46
3601.65
1883.06
-2194.3
-3031.71
433.338
141.617
-35.5234
126.127
-1882.7
563.662
2941.08
9733.64
8988.94
-1085.76
465.241
-1813.08
-2138.19
-4563.26
-6155.96
994.503
-4081
-200.344
-1149.46
236.114
-255.874
-443.87
-695.525
-1882.81
1295.73
112.7
-1706.5
-872.25
-1056.46
-120.243
-1231.52
-284.123
638.474
-1627.27
-382.771
-913.827
-4356.28
-5321.16
882.145
-1307.99
5242.35
9859.72
14479.2
14252.2
3608.32
-1487.07
1948.59
304.198
2982.13
1087.62
227.779
3067.06
1714.24
-320.206
-410.406
-612.479
-895.314
-2569.87
370.338
342.026
4236.6
-1775.57
4531.4
-3000.53
617.684
4429.83
-1089.14
-1357.26
-2274.03
819.491
-97.7785
2235.29
5339.85
8894.01
12310.7
14524
30037.9
28558.9
10749.1
5224.53
7963.67
19016.4
25357.9
13184.2
1601.56
8572.06
5333.36
11823.8
8215.6
10677.1
2272.74
709.278
3714.4
-1660.97
11213.9
75.7898
-1109.55
-2265.34
132.671
613.786
-788.473
-357.062
-619.238
589.388
112.63
-576.337
-1082.18
-1832.01
71.0668
1328.24
7006.12
14759.4
8505.51
8376.74
7082.43
1169.61
120.81
1458.05
2088.42
-1090.98
-6774.92
-914.248
757.95
-94.2214
-561.455
656.609
348.274
507.4
-3550.08
2982.77
2907.54
610.025
799.979
-625.405
2636.89
6064.55
660.506
-183.791
2958.14
12748.1
9075.25
1465.53
2269.06
-4019.83
-9240.59
-7973.45
348.59
188.986
-1842.53
-1381.42
-1124.66
-1520.91
595.7
1302.73
4612.39
2722.82
2972.28
-1451.74
83.21
-155.92
-278.567
4808.36
-2467.45
1276.63
-1307.02
68.5007
3443.83
10437.1
14134
2026.05
1218.76
1242.5
480.036
1440.33
2089.07
-424.446
-1583.88
-3559
1857.9
1411.21
-2015.43
-511.396
1750.16
-2539.38
-2175.67
822.693
89.0942
-410.931
4316.4
-2137.87
-95.5081
908.628
13120.3
1716.41
2484.82
1500.87
-466.914
8677.24
6163.63
15568.9
8745.52
9146
4057.26
702.461
-1870.64
-1548.49
-1995.38
220.551
7585.32
953.054
1970.14
1776.77
-3306.82
-2965.03
182.543
4384.85
981.834
-292.587
-41.3846
2692.91
-4657.39
-1409.65
-68.1191
3689.85
18977.5
21409.3
41184.2
37923.6
15848.1
19410
11915.3
-198.261
-346.542
381.03
-143.934
8759.44
7487.57
2624.91
-504.792
1267.26
1352.65
1739.63
1056.94
1873.2
-1445.04
3979.37
-976.149
2926.95
3631.27
10428.3
9808.79
-488.004
2874.67
-1490.81
1159.69
-1514.02
1146.81
-22.3238
-6949.17
601.29
-794.163
-1253.07
-69.1169
635.787
-2742.12
-949.506
-579.638
-788.239
307.63
1654.65
-1099.58
534.241
1399.19
-1834.07
-4741.99
-2333.08
1754.61
-1345.55
-2872.94
-336.832
-14.5634
1426.7
1400.58
393.781
1333.7
2660.02
417.024
972.655
166.627
409.58
6321.73
6062.16
4201.59
2889.87
867.196
771.825
-1203.94
-656.99
-785.435
4021.64
4082.75
14844.4
5180.23
-1950.37
458.245
4268.77
3298.79
2745.47
-295.514
-1085.33
-358.867
-3120.1
1954.94
-1436.61
130.314
895.63
1288.8
390.895
-1287.13
1068.29
-151.642
1561.97
-605.286
2115.92
3179.62
-720.452
-606.61
782.021
-835.874
-415.086
5081.65
10227.4
8576.06
5319.69
-1499.7
5240.16
-2146.39
3082.23
-386.953
-1587.71
-1998.48
1293.18
1331.07
1655.14
5332.16
2033.68
-548.719
747.231
-2998.57
-1255.48
-4769.89
1163.05
-2482.97
-4909.37
2852.7
4535.59
5680.95
1775.58
-4898.67
3079.08
3502.36
2519.48
816.251
-604.999
416.236
-148.068
314.774
-810.633
-606.742
-165.906
-612.388
2649.15
-928.696
230.392
3992
-1434.85
-984.729
-1133.97
247.67
276.303
-1033.79
-856.436
-1302.83
-853.478
-861.855
598.332
7667.3
-1239.7
-2267.75
-2577.28
449.631
-386.699
9939.86
2118.04
388.535
1309.71
380.807
224.395
-337.002
798.57
1468.76
1588.6
102.929
-3899
-1900.28
-1794.51
-5.44761
-2723.65
-2275.32
-1532.86
3887.29
-1199.66
577.565
-2313.75
27.4239
-1602.07
6280.1
9429
10832.6
17362.5
12162.9
1771.84
468.564
261.49
4291.47
-3543.09
-2505.11
-1260.43
-292.061
-498.42
2399.04
3726.09
-1929.5
-1115.61
-1631.6
-364.07
-156.927
-48.2512
-1486.97
2087.68
-2889.37
-5406.34
-5464.93
-3102.16
634.794
1701.68
1226.36
-334.099
-3354.22
-4353.04
-5844.66
-4652.8
-903.381
-1284.75
-1826.59
1360.99
647.348
770.047
-1183.77
-572.296
575.541
-56.6869
-181.375
-173.361
-868.693
-5321.19
1687.48
-1204.14
1120.65
1208.45
-1513.78
-1171.35
12868.1
9629.51
6840.78
578.332
-599.389
223.885
-501.561
-5077.02
-751.031
747.603
2152.56
2140.62
-606.783
141.202
-1167.33
22.4086
1244.4
345.479
1149.34
3434.15
439.427
-319.639
-973.978
-69.2341
-820.6
-800.747
-4553.76
4210.29
-647.231
-1771.15
-2152.43
9797.15
2287.8
-1651.32
-2148.89
346.21
-416.826
-1804.22
-481.244
796.025
1022.79
5414.89
1232.8
2415.06
574.402
3924.26
1293.75
-803.512
4011.74
6512.28
16391.8
7078.84
3135.87
9006.26
-1127.82
-4726.16
-747.729
-1436.06
-955.841
2797.56
3818.83
1031.75
-2106.32
-194.22
-266.332
-267.054
7095
7638.59
23228.9
7541.31
2853.53
5520.69
1486.02
2007.67
1587.39
6752.65
206.652
-1611.75
-1888.17
-4738.7
-2947.31
-2123.17
4698.72
-2758.68
1967.75
1320.42
901.089
-479.283
-16.286
-860.957
-601.907
378.051
-5607.49
-1583.03
822.343
-250.494
3977.34
1189.11
3435.43
1284.7
7358.25
405.747
4364.66
1183.13
8131.44
3572.09
527.518
1964.37
-2244.39
-1653.89
-339.04
517.437
-1384.41
-447.223
46.4223
-302.887
-144.886
1057.23
-508.099
-164.98
1674.02
-438.851
2171.22
-1028.88
5205.55
983.825
-1389.95
-524.491
1820.24
-3021.53
-1757.8
2134.2
-536.315
-3130.72
-369.032
-3689.58
1038.06
3515.98
9221.59
945.89
221.894
-3010.53
6071.17
-1414.22
-1021.31
2008.02
2706.78
1565.05
1510.85
-1130.8
1004.64
-3675.8
-469.009
6595.65
1861.9
-3733.72
-1162.29
-3323.11
618.855
2618.02
3836.48
-971.345
-4074.28
-1865.61
2218.15
-683.583
-579.524
-1286.93
4833.91
816.683
544.944
338.591
-1073.31
-1441.02
-3996.53
1622.88
-76.1383
-1755.19
102.37
-729.85
5646.97
1892.51
-3307.84
2227.35
-668.639
-730.556
-646.255
3458.89
2107.96
1063.78
-3652.42
-1461.27
2290.14
-1328.22
1833.18
877.459
336.879
-598.979
-2348.55
-1820.34
-1248.95
-286.491
-3535.2
185.827
-531.926
3214.24
3593.09
3517.73
-975.062
-593.348
168.027
-715.721
1123.32
-671.094
-382.37
5867.46
6371.51
5173.44
-193.938
-2283.45
-248.069
-4317.76
-668.571
657.84
-780.141
-1965.53
-1884.45
1917.6
-1409.21
-300.207
-318.864
2966.34
4247.61
4680.01
136.008
-304.063
3531.69
-824.12
-354.087
-4598.39
-1833.29
2245.98
-1065
2738.77
-169.625
4914.75
1675.08
2550.09
-1665.36
1251.55
2453.15
-479.724
-642.866
14619.2
6638.25
9263.75
11799.1
4108.38
461.964
-1587.97
-354.232
3521.09
7817.17
15343.9
2011.04
-3080.86
-890.397
-298.483
3451.59
702.408
12776.8
-728.327
6010.97
428.084
-1911.6
-3063.09
3741.12
1785.77
10761.6
-896.676
1123.96
323.792
4484.8
2442.3
3275.23
5584.96
3609.96
4191.23
12653.6
9833.54
618.947
-2377.2
807.623
713.301
7210.57
5726.11
2061.44
6645.35
6063.2
294.806
1481.86
-665.422
822.416
5470.84
755.622
3040.51
-1228.74
-701.816
506.933
982.623
2114.96
3782.6
3835.52
3535.91
-1027.64
-1986.52
1868.11
1669.85
1092.46
-1521.87
-388.164
-2000.08
-2777.09
1264.93
15435.1
-701.724
3254.74
-977.226
-2235
-2122.47
-3447.7
-2.50443
-174.809
911.548
-2055.13
-2492.73
-270.69
146.938
1677.42
-428.316
-296.3
1059.77
-397.301
-1212.99
-1379.74
6545.27
723.741
-1397.86
-2914.83
1043.34
-1253.81
1350.64
-2227.65
-445.368
-518.862
-2371.33
38.1085
-877.571
-328.969
5393.76
5154.01
-1858.79
9541.44
7957.9
4273.3
13071.9
928.668
2860.47
12180.1
-550.018
-1404.5
4400.29
-446.362
-322.961
-3501.58
-1261.1
-359.583
-588.081
2605.73
-2081.15
2845.44
1742.36
802.315
-845.193
-144.749
-543.343
4885.28
5035.3
12664.8
3988.1
391.459
958.546
1100.81
1807.18
3814.33
4059.83
1220.54
-1307.17
-789.786
-1172.77
228.376
1680.64
861.602
2.40063
5234.04
11207
6272.06
1428.76
1333.32
7410.1
2044.15
-971.565
-695.88
-629.048
2572.29
-383.6
-1904.01
620.291
-2318.76
-372.532
-151.095
954.051
2748.6
-315.072
-4227.49
99.2913
-214.621
-765.209
-4565.92
-3409.08
-1556.64
-3535.34
499.531
3712.59
2055.59
11040.6
9914.32
15377.8
7547.25
-193.433
1375.88
2812.86
6242.56
-3154.29
290.373
3366.95
313.071
-139.142
-1338.98
-1661.62
-102.165
2553.27
-1790.2
1623.63
-2623.41
-634.503
563.872
-1193.5
-973.836
-519.828
784.712
587.035
-1438.54
-250.867
-2223.56
637.195
3343.51
2110.87
1924.89
846.193
561.66
-1782.75
422.266
6330.11
-690.818
9246.11
79.7147
-317.403
-1676.57
-660.163
-1723.25
-1552.8
-2511.88
1478.06
-2955.07
-178.213
-883.816
225.465
-1710.2
694.724
-2207.91
-139.702
143.027
-1084.49
-769.99
2965.67
-2707.12
-1205.74
-1115.68
-404.783
-967.404
-2717.91
6193.28
-646.014
-3422.34
1245.78
-2506.02
-1866.96
135.185
4837.94
-211.994
1637.92
910.992
498.749
1008.66
3908.34
4128.81
781.288
-1723.76
1563.9
2249.96
1512.6
666.589
-1856.7
-21.7985
-1916.73
13.0052
1167.59
-203.528
817.055
2101.28
-1649.23
2996.57
704.844
-1340.92
-287.411
286.443
-3089.47
-1018.25
1444.7
705.149
-529.14
-2243.21
-4472.95
-930.316
-346.781
56.837
140.851
1661.92
-1354.91
-2065.08
1057.07
2313.82
-563.183
-414.576
253.991
-989.192
-2566.08
2961.02
-757.97
-724.772
3687.79
2843.88
3565.82
3013.36
3289.02
2668.14
3988.48
-329.017
-445.648
-751.757
197.489
-680.592
104.989
1971.97
644.102
-1990.68
-1469.12
1748.91
-1828
213.846
-2159.28
3660.16
5188.19
5159.19
-1893.8
589.368
647.624
-513.9
-907.594
3275.38
16107.6
19052.2
12135.8
52.5507
-740.383
330.774
-2246.51
1171.31
-375.099
1865.18
4725.07
929.984
-1778.85
-1288.38
-6431.01
711.041
2910.16
-1020.01
1752.45
2509.12
-870.919
1260.25
-528.28
1203.8
10201
-35.1858
5601.75
-373.013
2778.48
706.032
923.911
82.6821
-3548.31
881.273
1665.03
-2152.4
1630.86
11654.3
6155.98
-416.788
-2210
-100.1
2246.49
697.49
397.498
-326.686
1698.95
-1443.62
-1071.3
-2268.17
-374.339
717.502
-1.9533
-2259.35
-2111.23
-1414.82
-2881.74
50.7164
1684.96
792.748
2126.12
2336.5
3211.01
1598.94
-809.378
-331.754
-914.719
1922.91
-531.124
-1848.2
-2489.58
-3424.49
-2697.95
2824.04
-745.405
235.672
-56.2056
1160.14
1431.04
2564.96
-1033.77
-3388.42
-119.811
-865.593
873.096
1935.33
988.949
-62.0089
-1714.17
549.404
2374.53
1761.22
5093.72
1931.68
-2820.36
2913.55
-3266.73
-3676.57
-2638.04
-1820.45
-1129.34
-100.749
-612.553
1583.15
4671.14
9425.39
19920.8
16671.9
5797.97
883.892
-390.661
2367.7
5195.44
-996.829
-3562.4
-2437.83
-4106.9
-3622.52
3429.43
-3179.16
-776.164
-2615.74
-2643.56
-1314.67
-404.337
-1499.54
-513.035
-109.716
-1051.98
-1115.83
-84.8664
5703.97
329.104
-2180.53
-864.661
1046.94
-1765.41
1583.26
1310.22
-1230.78
-2578.07
1731.22
1272.42
-3963.18
-187.344
358.291
772.908
-948.104
1026.93
2964.93
1142.8
-2051.81
-842.669
-1914.33
-5538.6
-5051.09
921.629
1588.29
-1390.1
2550.38
1281.87
816.576
-600.819
-4939.92
-1036.38
6306.18
7860.23
4227.29
-1216.68
273.211
-1111.03
-1606.03
-3422.31
411.887
-1751.39
1442.5
923.96
-9.48348
-240.374
1980.85
-233.214
-1753.31
45.8739
-354.042
-1164.6
-1912.91
-457.176
-1122.05
-2529.16
-2945.55
-2978.88
-982.991
-1097.69
-1487.65
-1291.73
-2376.86
-1320.27
-903.371
-398.825
6699.19
-1014.4
20.3045
-947.175
125.709
311.465
-213.357
868.092
0.459494
61.1849
-312.075
-381.022
4592.33
3168.21
1612.55
-1609.75
-849.087
7293.32
3403.01
6357.4
6419.98
2587.98
1337.05
97.025
-164.47
2271.87
-1689.07
-5575.54
281.037
387.105
193.808
-1380.23
1101.94
-2262.65
-2289.32
774.721
-84.6365
-969.861
1719.08
-1444.88
1787.45
-352.655
664.553
-1262.48
-1198.83
-2422.72
4132.9
1456.25
4331.45
2732.48
-138.157
857.935
358.043
172.867
3440.58
5191.98
-1123.6
-1046.6
-1088.27
-2951.99
-332.863
-386.802
-615.747
1405.11
-1315.27
-4197.46
-2716.35
-5155.31
662.297
160.297
1077.61
5691.95
3990.08
2606.92
966.491
507.994
-453.047
24.2197
1001.62
2790.63
-1075.29
1260.64
-4442.94
-4493.5
276.966
-375.588
2409.89
689.064
2039.28
1701.14
5829.18
2487.45
-1240.29
3984.38
1441.68
9839.8
694.765
-546
-110.009
1014.03
4836.44
175.421
1850.82
-1814.93
-474.904
-366.967
-457.468
-73.6087
1898.63
7471.73
9350.1
4118.49
4464.58
932.587
1481.66
1515.71
2517.78
-3057.45
-111.2
-949.111
-1788.64
4327.8
7664.49
1433.81
-452.894
-320.184
-735.37
-2233.07
-489.824
-193.193
-1983.97
-1785.71
-1977.19
-316.217
-287.103
-618.878
2658.63
-1533.07
-1134.13
505.499
-1428.25
-118.699
-885.899
1502.87
-2206.04
675.239
1299.98
1618.36
245.276
392.681
-310.629
1602.06
-662.483
-174.945
-551.981
933.095
3820.98
4381.83
12925
8008.74
2023.18
-902.231
-43.4998
939.182
5581.66
2072.14
9375.53
2862.2
-1824.04
-3525.72
-5298.57
110.838
3223.3
4852.69
2637.16
1006.07
-2172.11
-721.269
453.526
-499.628
1023.82
415.048
-2397.55
2715.19
6456.28
24876.7
7252.38
4520.33
776.221
7086.62
2546.82
610.548
3.62814
129.097
-45.3211
-71.9131
-1431.46
-1526.1
332.419
-663.372
-336.718
1733.02
2475.81
2769.89
-4768.53
-1408.98
-1701.94
2617.55
988.519
-346.325
-419
-201.716
-2748.95
192.263
-2299.88
-2024.24
740.2
-124.019
-1633.69
-3770.45
-3175.23
-1706.26
-1870.09
3909.1
3320.9
960.419
19848.1
16387.7
1725.77
663.769
-182.879
-267.361
-1896.53
727.571
-1297.34
-1617.63
-3616.77
-4057.98
-2863.74
-2937.34
-145.3
2109.81
2825.03
-1170.37
1593.08
1702.24
13267.4
8446.63
4627.22
987.872
3005.24
100.583
466.782
1135.12
852.136
3824.99
-2989.28
-1807.88
264.637
-2368.2
-590.735
-3813.02
-1782.03
-1550.58
-2418.29
751.588
405.996
-1162
-736.528
7947.38
2020.36
7444.46
-809.167
2989.15
1219.14
15316.8
4552.9
-935.942
3481.07
-2519.22
-3308.43
513.203
1911.99
-387.827
-878.891
-1913.51
-1077.31
-1534.51
2958.92
-654.767
2257.18
1242.15
1306.09
-1228.15
-4803.89
-3077.74
-4083.23
-4122.89
-1193.57
-3909.23
3293.63
-412.944
-1882.71
-144.661
380.797
621.555
-690.968
-581.976
-7204.16
-185.834
-1220.31
-1974.87
-1186.84
-1198.36
-1297.92
666.035
2144.61
2226.66
-1861.97
1346.61
-1502.56
-3137.44
7028.01
-2945.14
-763.195
-922.516
-958.658
-353.161
3902.62
-394.595
932.192
537.413
-3225.55
-104.792
-4971.26
2321.12
789.038
2254.35
3049.83
-1410.54
-958.108
-3402.97
505.759
-881.877
-2228.76
-1527.83
-1673.21
610.236
-3024.89
-188.058
-389.072
-1007.54
3266.08
3276.9
1217.58
-1593.69
925.378
6754.37
6798.43
3272.48
-1341.74
533.864
283.138
-838.414
5863.16
10240.6
492.2
2322.12
-1034.31
-953.49
-3167.51
-3144.84
-4773.83
-1493.65
-751.13
2627.81
-729.488
-2583.34
-653.864
86.4697
-1530.87
2033.83
-5103.76
-374.076
-193.133
-2867.63
687.599
994.766
244.461
2320.93
2036.98
-257.23
-2374.19
-793.312
1820.53
-870.209
5942.68
737.72
1043.01
-1984.43
-330.201
-491.509
2871.82
-2111.59
-1262.61
552.684
2011.69
1504.71
5709.16
-8.03026
-415.955
-495.742
-536.728
1597.13
-808.306
-1623.86
111.511
2262.09
3355.41
303.534
350.416
1520.24
-239.949
-2067.82
2467.88
-4161.88
-1806.05
1153.7
-388.001
-204.977
784.845
-2760.47
-1461.8
-67.6982
6102.12
2081.82
2452.57
428.187
1277.12
-2358.92
375.135
964.222
4819.64
3660.28
559.151
-5848.23
-1873.09
-3492.55
433.114
1514.68
-882.179
-2153
88.6827
-374.76
2703.83
-819.648
127.208
2029.4
39.4261
-1255.26
-803.9
-205.413
-2599.47
-762.191
1226.01
2388.48
-1354.88
67.7455
-239.259
10956.5
3990.08
3535.86
296.184
-2300.26
2039.09
-3606.54
-1110.66
1505.47
-1966.92
-87.2661
-114.897
-2212.29
392.149
119.522
13230.9
4643.14
-561.612
-1225.72
-1940.02
4.1247
-2152.86
2942.58
-2178.59
-1311.49
-1907.44
-264.334
1461.65
-1657.71
284.873
633.076
-504.714
663.109
-313.615
1069.63
-3269.49
330.58
4253.15
1142.12
-1784.46
-860.71
1713.61
5313.26
7861.94
5563.82
-856.82
-2538.2
-3433.09
-268.058
-5835.8
-3854.85
-5905.95
275.819
-4004.16
-201.236
-1407.08
3591.51
2254.72
-393.083
-601.528
375.555
2325.37
-3200.96
-1063.02
-629.156
-704.871
-1265.38
-2057.67
2132.51
404.442
929.141
2237.3
-478.462
-5548.26
-903.272
1002.9
-3882.72
4099.41
6244.86
2121.39
1212.1
265.85
880.871
524.823
7269.22
5273.39
8216.82
9639.05
8902.17
-24.5814
866.363
3.60746
224.339
-923.99
476.764
-1214.52
9475.42
6137.71
-467.611
-313.14
2492.1
3847.05
6021.56
1651.2
7207.07
109.857
117.779
-1265.1
-1564.55
2871.1
461.803
-765.616
3218.62
348.909
2786.74
5032.32
4957.53
2875.5
-1843.03
1456.38
-422.659
-1393.67
-2535.49
-2547.53
-835.45
-724.579
312.163
8155.01
1848.09
4441.21
982.99
8811.63
5968.91
3647.28
8448.69
17705.2
12661.9
3519.24
-779.627
-3751.01
428.632
-1061.25
-3347.46
141.87
372.355
557.256
811.824
-3445.34
-285.085
-487.011
-204.249
-2352.76
-1436.97
-968.203
1982.84
8484.09
2782.21
3461.34
1455.66
-2592.4
-4654.38
2942.49
-403.822
-696.936
1753.33
6162.06
2494.34
6162.06
7650.71
3260.62
8897.61
-18.6198
3085.32
376.124
-661.625
-1012.78
776.233
8990.43
10990.6
126.579
-2769.73
-996.027
-1840.93
2779.92
947.371
2881.33
4003.38
1774.03
1018.76
-2815.35
314.273
-1340.25
2881.02
8959.36
937.573
735.078
-284.287
756.82
3232.61
-499.156
-881.031
332.701
-500.561
-946.813
942.282
1289.23
1782.6
-176.504
222.752
3316.49
7182.83
7992
4552.73
365.72
-515.22
-1012.86
8361.72
21052.2
20238.9
18915.6
5239.27
5950.72
9014.5
-634.717
-1076.85
1078.74
-1265.32
64.5849
2657.57
4360.42
4469.21
2093.54
3547
-1098.31
857.848
-2228.61
-386.557
-5264.74
-4662.42
1107.37
2577.81
-517.376
-483.206
-1201.61
-650.989
-2234.36
393.574
-2129
3020.35
2006.92
4128.81
14951.5
5217.15
1377.96
-191.437
520.851
-879.149
-963.924
1388.36
-112.162
2029.2
-1170.44
5252.63
5590.48
-4000.98
-107.082
7731.35
2686.98
1554.75
5055.06
10233.6
7301.08
11295.1
3192.25
4407.14
3058.67
-23.4453
2894.33
-2275.68
-1108.73
2944.21
1426.9
-1580.47
-2679.06
179.215
3237.91
4974.64
39824.4
18955.9
7498.5
10224.3
4453.22
6344.05
2238.79
-5144.34
-5225
496.375
1525.2
13777.4
7012.47
2558.94
-1537.2
5652.34
7082.16
33.2538
-837.072
-1698.57
-945.635
-2004.72
-836.273
2606.2
4347.12
-1532.24
-1237.1
1933.72
-210.966
-2960.62
1020.67
-315.198
-400.825
-2082.45
-1754.28
-1905.12
649.986
2410.44
-1171.15
-1983.11
4452.42
-510.424
836.436
9241.11
1800.3
-1264.97
7177.61
-142.202
763.814
327.401
5650.97
43.6506
248.637
-1977.33
1053.09
-299.332
-1484.56
-2226.89
739.445
-132.737
2773.93
3986.53
1356.04
244.117
3824.25
6666.79
5484.33
705.651
2359.94
812.164
2295.85
-345.628
-5958.92
-1429.61
-174.487
4642.1
1059.21
1834.64
228.911
-1717.48
-2823.29
3510.43
-121.538
69.3891
1538.79
1823.68
-1282.46
-835.894
-1085.31
-2036.39
2382.94
-2965.33
-1424.74
1090.97
2685.73
1074.74
9048.51
2115.55
4079.37
7247.14
418.669
-1204.31
-1929.62
367.19
-2.89336
-992.43
-1213.46
-7574.6
149.092
-378.757
-993.187
-108.147
1761.29
-1485.09
-1705.63
930.909
-223.584
1720.06
656.868
27.1965
1508.58
-3507.41
-3274.7
-1015.1
2370.96
619.992
5833.67
10551.9
10318.5
844.039
-2746.52
6539.87
121.424
5702.54
-774.236
1439.57
-1166.99
1989.85
-1837.75
-496.782
-530.471
-1706.93
4958.43
-2620.79
1368.65
7690.17
5653.82
613.058
-1891.96
-3884.1
-694.536
-3052.38
6093.31
1862.39
6476.55
4249.39
3222.12
-1933.04
3462.1
-480.779
95.667
1829.27
-1752.65
-2585.32
2360.14
2682.56
1232.93
-1318.49
-2143.26
944.475
-734.029
-712.774
-2084.6
-12743.9
-4617.82
3379.86
3745
-2817.26
2579.66
-4040.34
472.528
1258.23
2.84551
-1475.47
-2776.52
309.624
836.293
-796.431
4751.16
7259.64
-1089.67
-214.612
1464.79
1469.42
3754.65
5056.23
7599.7
9859.67
5389.53
5955.01
2936.04
-705.947
-2582.79
7690.95
-196.422
194.053
-1219.19
321.712
2713.87
126.79
-911.911
687.321
-75.614
5708.43
329.621
-1495.34
1497.73
2131.47
1901.94
-2721.59
1546.03
292.129
-273.017
-2761.26
-1333.08
-356.11
-1394.28
-3142.87
-667.043
14566
18194.1
970.965
9996.91
-414.162
1469.46
1129.41
56.548
-126.369
17.0133
-991.781
-1161.62
528.422
579.136
11436.3
15223.3
16323.3
8773.6
147.776
-4785.88
-1775.19
-1503.02
-1768.85
6838.44
-672.352
4283.41
2079.37
5926.12
986.89
1645.79
-1043.35
-1827.51
-3049.7
3407.31
452.964
6124.7
4470.95
-535.581
-521.688
1334.46
-1824.18
1612.49
-1785.89
-1253.98
-1222.27
137.379
936.22
14853.3
10106.9
16876.2
4963.47
-1928.54
-85.3979
-492.098
921.152
3573.71
1056.14
-629.315
-674.44
1660.57
5067.39
8592.48
2309.14
-4021.94
-6181.78
-376.17
-888.728
-470.721
-5599.62
697.113
-3203
-2012.09
337.88
1817.39
906.75
-1585.39
1357.45
4943.95
6997.72
7492.93
7097.29
15733.1
11187.6
-3411.1
-5286.13
-3383.77
-974.162
-1036.72
2669.86
-1068.75
-2608.4
1922.08
-1741.99
-3918.81
-116.868
-98.3951
-3933.13
1146.92
125.168
-19.9435
77.6129
2256.98
1970.96
-1231.94
1262.8
10949.2
3453.07
6726.01
499.249
5588.5
8062.03
1597.18
4969.7
2107.25
1233.28
2975.74
4051.65
7337.36
5562.48
8645.68
1719.46
-4203.42
-1555.2
995.925
-1708.56
-1671.45
-524.074
238.934
-2807.57
482.328
-358.846
4169.72
2440.8
-1715.86
-269.446
-61.2384
1095.72
-3036.66
-664.718
682.173
-3236.99
-686.839
708.254
205.055
606.457
-1245.28
806.745
1484.43
4927.2
683.97
1870.12
4843.79
-1224.29
-2067.48
-50.6299
-923.468
3453.83
6588.46
2824.58
4893.91
664.381
7513.4
893.34
-2552.06
-687.324
80.0524
-760.584
279.684
-1327.62
684.599
1408.96
-1347.65
-723.093
-422.867
-786.078
-1123.56
-2297.8
864.369
-1667.13
-1231.41
5796.04
8080.03
4688.89
3957.62
-2024.55
1407.42
2038.37
1304
-457.368
-1877.63
-1234.88
1766.63
6641.42
-4896.75
-1330.09
836.701
2037.98
-2041.26
-3150.11
-4596.02
659.538
-1555.48
351.496
2599.99
2586.27
-1.55848
-1272.89
-193.603
-160.256
-2012.51
-1352.03
-1272.68
-3111.71
328.011
1705.26
-779.514
1364.87
759.99
-4354.56
-2710.65
3588.92
6109.96
5991.51
2272.35
6961.67
20499.7
2332.91
2145.59
1329.38
4468.04
7139.88
3819.93
-2395.25
-3753.61
-947.095
-78.3438
2025.84
2007.7
718.758
2173.7
-1854.75
-4422.84
-82.1249
2141.64
3732.25
-2684.36
-3699.48
-790.718
-1453.1
-658.502
-184.594
5724.51
1061.44
-235.465
947.293
183.762
1078.62
3134.9
309.644
1074.79
2461.48
2631.4
-1451.02
101.175
-1988.91
627.177
2415.27
153.151
-2545.71
-1106.23
936.769
-1455.78
-927.114
-4112.59
-1919.3
-2865.49
1716.47
10630.7
6354.54
1938.53
-756.9
-1804.01
-2268.96
4898.73
-123.383
2266.72
5657.83
3262.98
191.287
902.886
516.558
-1250.37
-3123.01
-748.433
2964.4
4361.77
-355.484
-1646.69
-137.906
-756.205
-407.31
-273.945
-1624.72
4113.23
2389.98
-550.796
656.043
244.61
-84.356
-969.841
-2034.43
2205.86
-735.244
-6052.5
-5497.26
-20.7818
-2918.66
4673.98
456.635
-1340.93
-2096.23
-661.652
-1358.64
-548.238
2618.08
-1120.72
-2241.39
-3298.4
-1154.74
-3007.01
-1814.98
1493.69
2218.85
2915.51
1488.68
1032.81
-856.79
-1664.49
1358.04
3276.12
2306.06
4695.33
5150.29
1230.35
-3345.45
-708.083
3009.23
1448.71
-2242.13
2760.44
318.478
229.794
1728.94
-3403.76
10097.7
17684.2
-690.335
-739.644
459.535
-189.883
-952.093
3477.5
931.875
2696.4
3383.43
1727.07
8836.33
-889.847
1453.12
495.626
-637.845
-4301.9
6932.93
12128
4107.53
10280.6
-1686.86
646.551
-3.8789
792.839
-937.412
345.416
5247.58
12151.5
-1417.65
1324.55
-593.504
-884.364
-2269.73
3062.52
2126.2
1659.41
-172.558
-226.299
5970.63
3017.35
2101.93
538.778
-1157.76
-258.226
2459.52
-405.847
-4.17656
-369.922
-7390.97
-1577.38
1117.48
2737.83
-972.947
6585.99
6252.15
6882.09
-961.752
-161.082
2302.26
496.225
418.654
10154.2
2099.45
-2371.7
260.03
774.138
-345.552
-1851.87
5624.34
199.517
940.998
-1425.17
-6467.81
639.729
390.893
-1670.79
-2208.42
5990.03
4079.89
1433.03
-4458.66
270.425
3060.31
-510.091
-886.339
-3647.01
-3086.74
-2834.8
626.638
-498.402
-3055.04
943.275
178.179
-1404.13
1694.87
-665.271
-1784.45
-1341.67
2276.81
8123.29
-1783.84
659.207
-2174.91
1012.48
2956.68
-2010.81
5677.71
7077.22
2199.55
-38.9564
1921.88
710.129
524.613
5662.66
7489.26
3044.75
1363.91
-1893.03
2343.51
1960.35
20383.4
5073.48
-1191.01
4921.07
9991.63
3402.42
-4381.91
-3427.93
1971.11
-949
-639.757
-557.326
-538.805
108.656
156.933
-164.706
721.678
-3113.19
2507.07
3946.85
1682.82
-2380.05
6270.6
3001.88
1608.1
196.55
5987.82
8086.28
5976.45
-1128.25
1079.93
-3384.5
-775.319
-685.678
-57.8192
21.6582
-346.208
6238.31
57.0097
-1877.02
29.6702
-1892.13
132.865
1952.51
1121.53
-388.068
-1267.26
-1276.11
-1155.96
-1233.97
-538.151
-4023.96
-3235.78
-7574.24
2077.69
1785.04
1119.76
5623.73
-1634.02
-2340.62
-1244.77
514.733
-726.236
-2307.98
340.273
-2312.01
384.534
-217.127
-561.414
4540.44
14717.7
-1476.33
-970.874
3439.07
3375.97
6575.74
4338.17
-1711.48
526.936
-3357.76
-3203.71
612.763
-852.533
-70.5234
5226.47
1440.56
4961.97
6034.02
26256.7
22488.7
15588.6
563.876
694.993
-1331.37
-1713.86
4499.46
15343.2
1477.76
5266.46
660.708
-295.302
-1288.37
-3445.39
-545.452
4803.21
1994.81
-284.483
-175.251
789.389
-426.427
5670.3
-1309.96
4751.32
358.352
-1104.64
136.631
1191.81
-322.589
-854.234
-23.4658
-2279.92
1635.51
803.644
2874.34
-497.298
-4484.63
1733.28
4178.16
-1235.72
-1095.02
1288.23
-1020.57
-109.865
-4710.51
-4200.54
74.1882
-2642.16
-350.151
2525.57
3639.44
5618.92
5723.15
1034.6
1725.35
742.782
90.7381
44.5674
-255.612
-1568.8
3739.49
-621.169
-1002.74
-843.646
4342.27
-154.864
1686.64
-1256.31
-308.545
2037.19
-860.146
-1728.69
-837.342
-828.358
-1997.97
-890.567
3148.24
543.992
1844.88
-791.258
761.592
2351.41
2143.28
-323.969
-4885.68
-3417.84
-2077.84
5445.47
1011.39
2647.59
-1140.35
-279.191
-909.285
-2416.44
-1144.12
-725.203
-1419.44
-746.697
-1827.12
-3134
2293.86
1268.39
2382.22
750.471
-4015.52
1325.91
11036.4
4480.41
1279.39
-2642
-2536.32
1502.14
-267.956
-2443.13
-355.066
1338.09
-1735.42
677.075
399.923
1814.31
-1478.23
-3207.23
1067.62
7512.96
9159.62
12423.8
605.467
-530.201
-1212.48
4716.36
1623.29
-4417.91
-6985.19
149.969
-1207.26
3796.62
3030.12
-867.307
-72.1158
-2164.06
-2808.75
-201.392
-2205.86
-2067.3
-2216.89
5628.69
7358.89
515.474
458.897
756.988
-1074.97
186.857
-3833.98
-3810.88
-7484.11
-3159.13
-465.761
2966.69
5949.93
10469.4
2553.34
-137.21
-12.4722
-5986.73
-4784.85
-238.118
-2183
-71.4162
7849.96
2113.59
-594.621
1824.1
-3501.86
440.408
-2153.26
1191.93
2089.78
-1276.61
8152.05
-410.255
-1564.18
-170.549
-446.489
-3217.46
4403.77
510.463
466.963
1838.19
462.072
832.699
6953.6
6300.22
-73.4735
-1744.71
-3898.63
-1824.58
-483.847
1550.9
-284.786
-809.611
-22.0508
2070.98
-116.5
214.115
-1635.31
-494.832
-2717.29
-286.246
1534.03
8449.6
4038.04
-1624.17
1741.69
2035.07
-81.7447
-381.379
-1993.45
-2102.35
-5022
-1555.4
-97.6123
5520.67
-407.176
414.128
811.331
-859.022
-1355.3
1117.76
-2659.35
-1423.87
-1273.42
1967.97
-718.559
577.889
-1301.1
2869.84
2252.74
166.806
1129.06
182.865
-2393.68
-2331.08
-1573.27
-1484.36
-385.394
-1014.87
270.538
6205.53
576.091
3111.98
11280.3
11065.6
3181.92
3488.95
5600.58
12884.6
7339.01
5379.76
4061.76
9266.37
3226.99
4929.75
7257.93
-1981.7
-597.507
538.448
1201.14
2773.78
5485.54
13551.3
15699.2
12766.9
2480.76
1511.95
-1489.07
-1614.13
40.7596
58.9766
-2219.01
11.7853
-213.182
17.3974
-739.569
268.088
305.309
602.385
-2812.15
-2650.26
571.512
-1547.34
-968.508
914.804
-3210.57
-3349.06
-2060.23
-1831.58
-1264.49
-2303.65
-3621.19
1459.36
2453.38
-2450.62
-10603.9
-2452.75
1142.59
-439.808
-362.875
5321.4
2149.14
1662.52
3436.29
-2352.28
3838.64
1393.68
1419.46
268.6
-702.692
-1520.2
-1862.27
6520.76
-717.22
729.75
954.534
1662.51
4805.14
1727.25
3808.03
6500.23
1875.11
897.331
2712.06
166.446
3371.99
3778.07
-1494.1
-302.025
900.986
-1403.2
533.545
7736.72
12058.9
-1866.15
-556.183
-660.803
1150.09
-647.42
-1221.46
-2701.61
2900.03
-243.344
436.048
-459.8
1640.27
-1141.68
-1358.5
-815.988
4890.28
12719.8
2737.94
4376.2
1975.54
-25.5809
140.041
-1094.39
3424.32
3294.92
1525.83
4853.57
-48.1276
5672.22
2729.86
-396.687
743.592
-1460.13
-5317.75
-2988.18
335.661
1080.71
741.672
-4497.23
-988.757
-695.966
3346.48
17681.1
518.983
646.595
491.765
775.802
-2834.47
-404.966
2193.7
21912.5
8850.89
4056.12
2004.93
2902.46
5115.54
9532.61
5580.28
3366.55
-2113.36
-313.285
-166.311
-271.849
2321.71
4067.84
425.272
-2577.53
-2709.17
-592.691
2855.26
-719.263
-257.681
-13.1387
-1575.18
-4029.66
-2743.28
76.5697
-698.387
109.736
573.788
2566.8
-666.416
-1123.65
-3999.77
-1306.15
-2894.73
-185.781
-254.242
2461.12
22.0358
3772.83
583.243
-2123.95
-2270.32
628.247
-2661.43
-3915.93
-5915.8
-3649.41
-4049.84
-578.904
75.3434
-583.98
-3304.32
-4456.42
3766.48
9615.65
2922.82
1698.52
2653.87
254.016
1538.41
1121.32
-4575.81
-6.62615
-1503.18
-535.338
-1679.83
1100.48
-2189.44
-1269.44
-483.903
-2025.54
-1168.13
-2989.54
-1184.2
466.517
-5335
286.858
-1280.81
-4103.76
101.631
2277.41
4357.56
6218.75
4995.15
-667.762
704.868
-979.341
3220.92
-6166
-2644.74
-2261.86
-4025.96
-2101.71
3794.11
2792.77
1001.02
-147.964
-1733.34
-196.314
-1978.25
1648.21
-16.5494
-3990.29
-1425.68
-1740.27
-361.457
2573.26
6438.17
13604.3
16306.9
7263.55
4336.09
3195.99
2.28319
-2368.9
1142.75
-4926.48
5468.35
3864.88
-1416.78
-1188.71
-240.866
-461.772
-1529.93
-1313.69
-885.783
-37.5692
-511.787
-289.294
4456.89
1560.38
361.184
-1735.61
-461.996
-861.308
2215.7
8457.47
10062.8
1972.48
-280.693
391.04
1599.38
-996.864
-5819.16
-4073.51
-3945.67
-1409.61
-4342.9
-2453.06
-5009.14
1786.01
2182.65
5095.59
3420.32
3677.94
2592.33
3030.95
1888
658.039
-1865.92
-2327.26
189.778
2407.03
-3071.51
137.53
-502.204
914.574
-66.1141
650.312
922.289
429.862
613.066
56.3929
-783.142
-1890.1
1849.16
-1406.55
725.144
1342.75
1165.31
727.402
-1083.53
-1588.72
-343.348
3120.2
40.8694
772.314
-1640.93
-509.218
-707.497
10065.2
-8.75247
2424.17
2320.32
280.073
-257.836
5052.6
14704.6
4712.14
12464.3
8555.52
16673.1
12575.8
14052.2
7213.72
13248.7
10275.7
-1600.43
102.469
1858.24
5459.08
55.6192
3100.69
-688.055
-1471.9
1145.26
-132.517
105.523
263.092
-2027.27
1513.93
1966.92
8685.49
7647.79
-409.449
569.239
-4497.71
-1404.74
2554.86
2338.2
-1338.76
-7002.16
1783.55
8357.05
8184.93
4265.81
11539.2
4838.87
-308.866
-718.83
-298.831
1208.83
1905.5
11214.1
8816.37
9435.54
-1320.25
-144.604
-2886.35
-328.267
-635.085
843.84
3560.09
-2760.86
4478.3
673.155
2007.49
5770.67
11185.9
11377.8
917.966
2847.2
-532.966
-786.572
-5093.73
-3904.47
-4630.27
-1971.59
-1444.07
-65.8981
-169.114
-1688.24
-355.16
-595.373
101.968
357.797
4564.37
2851.33
-100.755
-806.659
14482.7
13651.3
14619
8231.13
-133.834
-863.823
-1081.23
-138.128
-620.536
-342.614
570.393
3632.54
-3141.27
-1511.67
857.818
-379.172
622.132
327.9
-523.079
-4243.83
-493.746
-2020.38
3026.85
2234.69
27.8027
-763.356
4265.63
-820.617
-2288.97
1758.55
2510.83
6275.59
1087.52
120.268
-2632.23
8008.88
3214.26
1409.83
-1858.73
-1185.03
-2340.59
61.5633
-766.838
291.956
928.563
634.866
578.464
-2180.1
-2495.87
-340.486
-785.513
249.405
2987.54
2446.31
-787.973
9851.6
2712.65
1230.31
3778.3
9346.69
3068.12
8008.31
-874.339
748.19
-1940.58
619.391
-409.262
8574.58
20.5811
1668.02
-323.995
-1689.93
-484.355
-915.115
110.321
-1747.07
-1529.06
-1817.44
700.225
-529.293
-1705.07
-1066.75
-1384.77
-2486.1
442.59
1496.78
-1513.05
624.375
639.928
1556.37
417.226
1239.97
-2559.73
2443.38
-718.57
2499.4
7121.15
7860.98
459.339
6974.04
7687.34
5448.29
2904.69
3850.64
6712.11
-381.667
-733.463
820.88
-865.262
-1736.39
-1846.41
3785.07
6236.47
7138.47
5807.57
13106.2
6107.8
4033.56
5175.78
912.408
920.352
318.4
1572.03
598.408
191.05
-425.891
-1216.01
-901.77
1839.69
1596.34
4117.34
-4467.35
3353.48
-3647.17
260.475
-355.18
-2989.37
-132.565
-572.839
-1749.75
-1102.72
-1488.58
-538.126
4826.01
5384.71
210.615
-1867.53
-457.314
448.436
203.252
767.04
1594.04
2030.99
-1374.37
8532.16
-258.375
-5679.73
-707.988
31.6341
226.759
7789.6
-61.7848
-246.762
-3125.3
-1386.09
-1891.08
-2252.5
-2501.38
-6087.42
-1980.08
6255.92
4516.24
-853.677
2714.02
339.857
3127.61
5517.44
2312.83
1167.02
1105.38
360.589
-905.96
-2656.16
-5173.87
24.9417
-1687.15
-1932.69
-2779.88
2136.67
1852.09
1546.34
-977.386
778.469
1772.62
11277.1
-3750.41
3346.45
1935
13035.8
404.204
6864.67
2978.39
262.071
346.503
-703.792
-1167.91
1396.67
173.084
-2342.87
284.873
3385.23
-65.4348
1364.59
-851.269
596.576
-1075.89
5664.78
-1719.54
-4073.04
-53.1007
-611.245
-420.797
901.551
30.4679
-255.41
125.403
952.851
105.234
1293.25
-596.472
-1458.33
269.156
1502.19
-4435.81
-883.355
1278.29
1690.89
-1582.72
-2534.9
-1654.81
-503.398
-802.067
-661.688
4185.36
4185.76
1325.31
-2360.3
-149.046
8870.1
2940.1
-777.627
4684.28
5267.25
655.8
-1904.78
504.325
1143.46
-3042.14
494.815
-1045.99
-920.908
-2987.36
3969.73
1807.79
1764.56
2206.75
367.567
768.676
10009.5
1772.16
-1528.12
-1805.95
-1385.48
-3480.16
406.084
-2275.9
-2539.7
2097.83
6510.16
11700.4
12383.8
-2087.03
1777.91
528.706
-2837.16
601.416
825.421
-1800.01
-713.423
-1263.47
-1739.91
-4247.2
-3327.21
-5652.92
-2659.13
-232.666
-3407.37
-94.7937
3818.95
3351.99
11529.1
11830.9
5894.18
9090.7
1656.8
-348.095
452.439
-552.801
-58.2738
959.397
-2284.09
-1049.11
-725.213
-1439.65
-320.669
11009
483.917
-1294.13
-83.4615
3899.62
-909.882
-79.6049
-1505.41
-3461.01
-2061.22
4400.27
2754.62
8951.05
10064.1
3736.14
2507.04
-1087.52
1741.69
2120.61
5193.75
1353.81
2161.19
356.902
440.544
3808.58
-225.524
-845.893
1171.82
-3018.79
-1542.79
2098.18
7554.06
10664.9
2454.46
1831.13
-303.741
-899.432
24.1038
-1970.09
1781.44
1817.22
1004.31
-1312.95
-2550.75
-1633.77
-781.511
-874.179
-79.9897
-2754.61
258.125
-1379.16
-5152.53
534.104
-1324.68
455.122
789.365
-3860.67
-1158.72
-1311.6
-1783.5
-1755.23
516.903
427.482
2931.38
-2507.04
-1457.6
-1938.03
-1353.6
957.575
-1119.91
503.236
-5773.83
-405.185
-669.482
481.53
-1304.23
2662.59
-17.4598
-2079.66
-1847.19
6409.41
11267
4241.78
564.942
1127.61
1244.23
1210.14
320.543
-2478.36
-4247.73
-3862.25
1356.49
803.43
3105.33
-80.3951
-3095.37
-1309.63
-46.7947
-842.367
-776.565
-385.185
395.634
5254.76
11938
7013.54
6994.04
4282.26
-529.61
-559.432
-2150.55
-4035.7
-780.962
1038.67
-58.0879
-398.944
-463.91
825.6
-2227.36
1463.29
8138.77
171.502
1529.19
2794.76
5923.87
-271.763
12026
6877.23
12780.8
1797.59
-1470.08
-1277.72
1490.69
3068.59
4710.66
5520.46
-675.02
2580.13
-899.408
314.17
-2304.23
470.582
-455.009
-1698.03
-3159.76
-790.012
-770.107
459.146
-1243.96
-1016.46
5281.92
3850.43
173.746
7804.67
-782.106
8253.54
7066.29
-2190.93
397.436
-2142.8
1144.37
-2984.15
-3435.63
1354.88
-521.49
174.384
-428.235
2869.79
4868.48
1016.94
1453.92
609.922
-257.487
-214.622
-767.559
87.3679
-520.35
1682.77
4479.93
1418.11
-1451.63
-3859.09
-2578.61
1039.08
514.766
1009.3
2642.4
-104.792
-4026.61
1544.72
-5539.85
2325.6
-22.7098
-1823.73
1988.95
4135.61
4683.63
3186.02
3033.68
6666.03
10346.6
1120.6
101.349
-1951.93
-632.431
1809.06
374.745
-2341.08
-1289.04
673.736
-2095.76
-977.114
-1332.02
-2480.07
-2779.64
-1002.42
-204.688
-801.242
-320.008
-338.688
-2292.52
416.596
-3521.63
-3167.69
9549.29
7711.04
2197.82
2262.56
-1892.61
1981.17
175.984
1796.35
-2600.22
319.943
6643.43
1647.2
-418.202
2782.14
1248.14
11404.7
2705.24
-1109.63
3422.98
6608.37
2737.15
-418.191
-838.286
-690.625
-2191.22
1521.52
-514.908
-1206.01
2134.09
-621.562
-150.01
3124.78
-1724.1
-400.136
402.924
-1727.43
-2442.4
-3018.04
-3128.46
5249.19
-270.418
14504.5
7252.86
-1627.66
-2273.02
-717.77
514.407
8415.7
664.095
2264.56
-3896.28
4964.8
11850.1
-271.048
658.048
-2102.03
-1321.98
455.299
-1140.78
-266.644
161.573
-1258.42
690.65
321
6697.62
5727.73
-183.05
-580.59
3273.35
2396.31
615.823
1439.18
1633.39
-465.253
-1226.45
-20.6516
-839.717
478.805
-1027.87
-527.611
-475.521
-1406.19
-4697.89
-47.6403
-75.5229
-2054.02
865.034
175.697
-2000.73
-2230.05
-1352.9
350.898
-769.699
-299.211
-608.469
-775.227
453.112
337.556
-4494.38
-666.695
-2534.82
582.413
-1834.15
-1485.19
-2083.87
-2243.34
-416.99
75.8979
5195.66
-1550.66
-168.912
3049.4
8078.46
5244.12
-2223.86
-1018.2
1623.85
792.834
-1291.77
2541.37
2423.61
4206.66
-509.006
518.73
-130.579
5826.72
-1412.81
5543.29
3861.28
4631.6
2402.28
1909.68
-1081.89
-3678.84
-840.739
-170.216
-550.413
-1801.8
-1173.99
-894.927
-867.361
-946.397
-5342.39
-70.0608
-2448.58
2143.5
-2287.88
19.8337
-1113.67
-377.14
1423.93
-1573.64
-6105.17
-158.946
-1233.46
-1873.35
-3715.51
3054.63
-5457.28
310.391
-2076.96
950.024
1015.11
1008.92
-3910.87
-1136.8
-1092.37
-4489.11
-1498.49
15.1648
3093.02
8232.92
5526.24
11052.1
-458.91
589.131
-376.005
-228.33
3926.89
-2942.09
674.151
6355.51
4697.69
-1576.46
2938.18
1431.79
-165.017
-1388.93
-1769
-300.902
4718.01
6972.96
3129.52
2459.71
-3000.17
2075.33
-1304.77
-3001.35
-256.13
-213.727
2123.02
2490.69
2538.95
8069.11
3594.48
3453.68
-733.033
2732.54
-1003.67
134.703
6424.84
7596.25
-2043.99
1130.76
112.977
2503.55
-88.9628
476.882
490.297
767.659
291.966
185.347
-858.575
-314.552
1663.98
-386.445
2240.79
7007.41
11009.3
3313.64
714.986
-1081.94
-1290.83
-488.353
232.716
-1284.08
2558.21
2788.1
-1112.21
-321.267
146.196
-895.101
-4145.37
4140.56
-1201.47
8968.12
4761.86
5547.77
196.484
801.084
-1133.04
602.417
-1959.24
198.796
-1741.1
-902.758
-421.697
-3693.24
-209.517
1939.45
-843.463
-2986.68
1563.1
419.472
-2407.03
-1775.12
-502.153
1103.03
-1425.9
-1616.42
-6847.14
-5291.14
-2279.71
-1123.19
211.847
-134.016
-132.485
-4199.65
2001.17
2531.67
4419.22
1371.93
-1976.86
-378.631
-189.666
-436.331
-670.755
3490.05
3467.23
1524.57
1313.84
-445.428
-4433.38
-2805.53
353.246
2340.81
-225.265
430.8
495.018
-7195.9
-4174.11
-386.32
279.352
-45.6032
2229.94
-1044.37
350.005
-1094.73
-94.8716
-1127.02
1333.51
1181.31
1013.38
3392.13
669.874
3570.62
7076.54
6754.15
4742.94
8928.04
11388.9
2247.13
-33.9533
-684.651
-3577.69
-1621.74
606.877
5009.31
-883.465
-695.489
446.934
-226.718
3227.86
-217.674
-1093.15
-1242.76
2769.8
2331.52
1415.18
4876.75
9141.95
1900.3
-1004.78
-215.16
4116.71
1160.87
1613.77
3332.61
-980.943
-2562.5
-671.495
568.968
-1009.72
-4076.6
-2700.71
2866.59
3863.31
1005.19
-556.018
-29.0149
1245.33
4018.73
2195.32
1742.19
703.998
715.345
1507.21
1701.09
-4734.87
-930.102
-129.844
1420.83
3255.06
-1330.42
-3950.58
-904.218
-124.188
-75.9159
-1524.98
-2623.12
723.224
1154.67
-1572.34
1056.85
-548.125
-1083.3
-2184.81
3417.7
609.77
-3254.86
-2205.95
-1252.64
-1401.44
-2457.32
-34.2331
10910.6
15017.5
-105.755
-254.797
-3034.27
-190.056
-1205.6
-1025.05
2702.2
-1395.9
-976.279
-1432.02
49.0295
12265.2
7929.18
9457.92
3720.08
46.8036
-3263.96
-3836.48
-2435.46
-1464.99
3108.93
-2801.56
-2464.29
161.258
1984.67
246.912
-1385.03
-4834.09
-1977.82
-1233.03
-1857.98
17.1434
4508.24
2015.01
-442.361
3059.79
2767.31
-1476.38
372.313
5174.38
-2893.18
1770.72
3350.89
-1791.27
-1329.32
1255.6
473.279
285.332
489.411
-1374.49
-2353.15
-1819.92
-304.113
-1970.66
-791.347
345.553
2130.21
3945.72
2795.67
5285.8
7031.84
-17.7734
-5454.04
649.787
1073.1
-645.204
-294.093
-2707.58
887.149
-166.729
-3600.86
-440.415
-5805.24
741.275
5750.42
5082.63
907.585
-2057.72
772.759
3164.07
1513.19
-1584.02
488.476
-757.079
69.0813
-1966.42
2231.39
-975.814
2419.64
-363.974
2969.05
-603.795
-5414.82
-551.257
5179.98
4612.22
9631.75
3564.7
-375.139
630.013
1643.22
-2276.44
-129.055
1414.34
1273.48
-176.282
-233.855
5570.44
1435.52
879.978
5264.3
661.227
900.45
-3262.4
-5834.89
11633.4
3514.73
-1092.9
3643.54
-100.698
-2653.91
6055.15
11081.5
3575.88
-2109.93
-283.419
-1350.23
-311.416
-2276.96
2208.08
-810.176
-3246.39
682.941
1079.24
-4579.25
-2696.85
-471.763
-916.363
-1730.54
-1325.86
-209.448
-631.335
-320.48
2534.55
278.317
785.649
-338.249
438.017
-800.16
2456.23
196.318
9667.74
2550.76
3.62596
-1166.65
335.531
-1099.02
854.511
-475.66
1627.47
11751.5
4054.96
-433.869
-109.896
3121.65
6493.93
-864.384
472.613
-769.708
1086.3
1055.62
-2869.65
5514.03
18881
12470.1
14204.7
5825.76
9321.72
13416.6
5281.97
1030.86
3372.43
4039.43
8039.69
10598.6
-559.63
40.5084
-1698.64
-4405.82
-5472.04
4614.01
1868.4
-1617.2
-3316.42
-596.523
1709.83
3275.06
-3477.15
6998.81
-5301.17
-173.259
540.064
600.023
5868.87
-125.296
-7870.81
-4603.5
-2782.42
-145.771
-1987.13
442.967
602.972
1474.9
-569.396
-1364.24
1105.2
9160.82
3222.04
-1061.54
1683.89
-809.539
4349.12
-2426.97
238.585
4350.49
-1967.41
4471.1
6725.13
2439.83
10182.1
11073.7
12.3333
-1760.36
-705.476
866.438
1739.98
31.0797
2178.51
-1430.78
1691.4
-1718.73
67.496
-1612.73
-355.274
-3413.04
-1269.72
-725.876
2034.64
734.518
-2075.4
-2786.38
-3130.71
-1258.73
-4583.94
-1290.36
6335.21
2720.56
-3330.15
941.199
-926.638
2403.19
348.039
438.001
-228.793
5211.63
-425.32
991.257
4011.98
329.508
1184.63
-1437.23
-697.421
103.205
-1129.05
609.641
-1330
-349.409
-511.109
-666.319
367.018
3134
3270.81
10260.9
15328.6
15086.8
19599.3
23148.7
19099.6
12547
9125.66
-823.154
2023.6
1394.19
-462.917
179.392
2011.92
3835.13
757.391
539.105
999.426
339.095
388.581
5407.78
523.009
-2070.21
-462.759
4811.46
-3675.12
-443.803
687.889
-3738.95
5418.05
-80.6557
-295.208
8295.05
718.693
-500.68
1074.57
-296.784
-2143.44
-5342.25
-1141.53
-1705
-173.447
1505.88
-1602.89
-972.466
-4012.48
-1829.29
-767.837
-1375.66
4054.91
3680.59
-2910.72
-2947.64
-1839.62
-1511.31
-1390.69
-3346.93
492.196
-1293.84
-1239.33
313.564
-1606.17
1909.97
2813.97
-3858.92
3154.13
-3946.79
-1295.88
112.887
-1349.73
458.77
-3577.92
-2031.84
-4439.87
818.504
5837.84
5173.38
11409.3
3599.72
12629.1
8460.31
-293.557
1589.08
-127.768
1898.3
-34.1261
989.235
542.137
-433.963
-733.592
2628.06
-1295.73
5571.79
1348.32
-770.361
-2278.83
-438.877
-1382.27
729.556
-644.08
4640.2
9717.03
-298.732
-5750.26
-3265.84
-5358.58
-2865.72
-2253.29
-953.806
3244.01
5248.51
1642.88
13235.3
6431.55
2694.21
5094.43
3433.58
-1558.26
-2806.39
334.341
1348.11
711.979
-561.583
8711.37
4654.12
-6955.65
-4234.67
2201.47
27.3764
-7137.73
-3230.99
7448.48
14546.2
3378.75
8287.34
-497.488
290.501
-549.405
1177.28
-269.322
-1099.11
6168.54
4799.88
7462.02
-3795.21
-5119.2
-6525.65
-4393.78
131.054
-2805.31
1470.31
5356.4
846.143
-1283.2
4273.97
-474.517
-300.412
260.02
-396.231
-614.968
124.934
210.286
1347.68
-243.972
-1654.49
-285.71
-398.518
9267.17
6223.36
3695.77
952.789
1962.17
-2147.6
-291.501
1108.07
-96.4465
1068.31
-1185.9
4112.4
7592.37
-911.164
-807.845
-750.079
1148.93
-1236.75
-1598.68
-3177.59
140.151
-630.136
-324.514
1143.24
-993.303
-1932.78
-1378.39
-6801.67
-5481.16
-1520.9
-1496.7
-221.567
3138.16
-828.425
-1263.31
-1991.96
-1568.56
-1969.65
-1981.08
4841.01
-1387.66
630.206
-1386.04
240.035
1164.38
1872.23
-2873.5
2184.11
3265.23
2284.18
3748.62
-1495.71
664.528
-1396.83
-2982.89
-3821.34
-526.731
-1346.61
-1030.92
778.347
342.679
-1447.9
6.61521
-1677.56
-1290.68
311.13
-3140.85
35.2067
-3963.06
758.7
-147.323
1844.25
5204.25
2837.89
168.463
-2044.13
5648.8
14741
1032.79
1116.43
1467.49
3442.44
1597.76
-610.457
2983.62
-2535.79
-6648.58
-722.866
3119.79
2717.32
2171.7
2588.52
905.763
-292.24
1738.16
-495.966
1149.29
-3084.07
823.364
2486.21
3452.86
-469.638
524.513
3979.55
1480.47
2935.92
-368.316
-8444.27
-2420.2
-139.462
1591.04
-2947.53
374.346
-2114.96
-2260.63
-2566.2
-3488.45
815.662
989.647
-608.909
-2746.28
-1321.69
-474.756
2640.04
-2412.52
-1168.61
96.9948
-1554.82
2728.55
-534.399
-873.33
8151.56
3604.61
1625.11
767.12
-1457.62
-6773.87
3134.88
3142.46
3094.46
-5250.64
892.507
-1515.3
-31.8842
-1018.11
1474.02
6690.31
4769.01
-2347.5
-111.813
-2014.34
-878.537
193.738
-2878.52
-2459.43
-2760.87
-1401.64
-1559.75
-5585.32
-5170.92
-5165.48
-5497.95
-877.715
4785.92
4649.45
4920.16
3342.15
4618.92
2479.41
-2393.76
-1443.83
-674.153
-1363.33
-202.173
9426.06
11396.3
6642.76
194.017
17132.1
21103.5
8573.38
772.987
748.629
-882.79
-932.086
-3006.1
-2236.47
-1146.49
83.3732
2533.77
-1346.69
-4847.86
-6565.79
-130.64
922.993
736.233
-2977.92
490.722
-3809.29
-2379.58
636.582
-1061.92
2264.8
-630.407
-1181.15
-1086.64
-2836.06
-1828.04
-2391.23
2609.94
270.466
985.215
719.974
5812.59
2565.97
3833.02
1427.68
3665.86
403.688
12780.9
545.711
-190.719
4019.32
-257.256
-3418.6
-262.936
-1105.76
1319.52
1358.38
-2096.13
-919.307
-1646.53
3532.65
7880.47
15101.5
18403.7
15286.4
222.692
26103.7
14013.9
7790.02
4748.73
4722.44
2457.06
-3620.18
-1502.66
-808.996
-3.79689
-1294.09
818.579
244.484
5033.19
3756.79
-453.922
-902.404
-260.406
427.15
2588.7
2209.72
11299.5
-949.001
-2275.12
-577.342
-1032.78
-3681.27
-1709.62
-2210.41
-4172.66
-2198.24
-5898.39
1792.72
1727.65
438.775
301.875
-1763.77
-2186.15
-1910.59
-908.043
9725.07
9407.85
15335.8
10272.2
10105.7
2291.8
5267.71
24900.4
9136.49
8014.21
7704.44
1454.33
8428.37
204.583
-3035.97
-1884.3
-2335.54
3135.11
1301.89
77.6063
-695.806
578.9
-901.53
-1077.95
-242.398
544.502
-928.416
2892.61
277.013
4338.88
-1716.81
-818.061
-2587.85
-1995.47
-2122.69
2791.55
5014.41
6298.49
2981.8
10047.1
-1065.94
-390.33
155.986
2440.7
3005.06
2512.03
3324.37
-1678.52
-1527.79
2236.62
306.464
-64.8428
-3910.53
-894.202
-1623.81
-402.377
-639.26
3232.37
-2816.62
212.191
-376.854
-2049.86
-3200.1
-7622.72
682.836
2165.52
-528.796
-3572.66
-1037.17
-4863.61
1341.71
2392.41
4183.25
798.287
-2709.45
666.51
-1859.01
-1128.26
2717.04
-201.331
-2678.21
-737.839
-331.14
3514.92
-2762.34
-499.494
4690.44
304.3
-1306.71
-79.5697
-2074.92
706.847
-1399.53
-3634.08
-964.652
238.671
-438.467
1605.09
5489.3
-546.177
-2817.87
-2303.74
-3412.49
663.839
585.148
353.838
5608.71
7529.67
1987.6
1889.61
2107.31
5671.7
3947.48
1690.82
11645.2
6094.09
7285.63
7561.59
195.042
1740.98
1088.76
3554.04
-13.4164
4884.04
-340.094
-2017.88
-1309.3
-584.544
-1410.01
-2392.68
-4322.05
-97.2216
1667.25
-641.649
887.543
-5716.89
-345.05
2429.51
3861.43
-594.925
1155.84
-416.326
-1642.71
1341.23
-3206.84
869.84
-1606.97
-225.694
2703.48
-819.506
151.121
531.442
1216.6
326.013
-6720.31
679.132
148.109
-1621.06
-89.3632
-27.6966
3529.48
-1214.03
3217.88
1811.06
-281.098
1790.71
3669.5
-363.342
1054.31
6851.1
18694.5
7186.22
2227.59
3226.51
8196.27
10402
12719.2
5062.63
2858.03
10280.6
9221.97
-895.045
-2282.75
-834.703
-889.236
1503.67
-5743.32
-343.248
-389.167
9178.78
4801.77
-987.071
-239.036
-1198.28
1564.77
1702.97
190.522
1257.41
1531.27
4498.24
4596.29
8307.52
5414.26
-174.439
-1019.57
-2742.49
-3286.8
-1849.88
-1065.86
-3054.88
-1791.56
1303.03
-348.679
-2670.48
-2854.15
-2778.25
3193.32
3635.88
0.502905
2898.13
1781.29
-3099.74
-11.6306
4797.4
11734.6
24324.7
12160.2
6135.63
4509.7
-155.378
833.661
-2033.05
-578.945
3041.53
-3430.84
2675
-319.574
3879.48
12720.1
5182.81
6483.88
7162.33
-1459.54
-522.4
176.222
5332.03
10695.8
9396.08
3412.52
9342.74
2007.5
2582.47
760.85
614.663
-1045.91
-488.22
-1307.01
-89.1852
6091.28
2138.09
2384.99
-1719.49
-1637.45
-761.634
-1163.88
-260.19
347.773
-4052.35
5447.21
9278.29
1505.19
-4670.94
940.957
1688.71
821.895
1129.36
-676.881
1588.64
400.057
456.836
192.133
702.994
2695.84
2950.02
-227.729
-182.38
1534.95
10812
5691.25
-159.774
-542.389
1140
902.943
340.073
-2519.34
-1673.62
-1922.76
-7930.67
-1355.53
879.767
-2420.86
-2952.41
-2160.51
612.563
2544.81
6667.04
9967.35
2548.51
1253.54
2438.76
-2372.78
233.855
-2185.29
-6296.38
-3355.99
1874.17
5052.49
5441.64
888.627
819.645
-1559.58
-702.349
987.422
-226.63
-850.108
-1051.99
-719.771
-2115.57
780.659
348.544
732.094
1205.17
1062.85
247.319
775.674
1239.76
-238.016
226.371
-1960.89
-452.21
-227.141
-2630.04
-2351.31
-4630.1
-513.025
-1510.53
-182.572
-928.775
669.506
-3362.81
-4993.54
6849.24
7577.85
-2008.73
-1039.25
1830.52
-3259.84
-5753.58
-16.2868
-893.64
-835.517
-464.021
2746.02
2852.28
10915.8
6538.12
1796.42
-69.9261
-413.859
349.59
1028.92
-2658.3
1945.89
-2499.8
-1047.84
559.329
463.495
5.82873
-1536.3
82.3817
1444.91
-7108.91
-4685.93
848.934
-1874.27
-2119.74
-397.931
5296.28
1972.65
2022.73
-284.041
1539.41
7.49909
4.22356
-971.683
-919.877
1852.86
470.877
1086.83
398.575
-8.8516
-1955.04
-1598.47
-1358.65
-876.542
-1120.09
-2081.48
-893.402
-1999.88
-2196.73
-412.214
-391.142
-381.889
-1548.48
-20.4413
-2101.53
-3149.47
810.637
-1437.47
-500.089
-1360.65
2991.02
-454.38
953.079
5975.41
-712.82
4045.76
3338.24
2021.53
2322.52
1359.8
-936.385
2967.97
1494.26
10403.3
-835.249
2173.04
-598.718
250.969
-1327.97
-1878.65
166.696
-1132.33
-308.694
305.934
1079.5
-264.309
-1273.58
972.105
-1282.69
-2972.05
-822.786
-2998.63
-1997
-354.194
31.6072
-1500.75
9351.27
-644.544
1800.6
293.229
-270.668
-1128.51
379.693
2634.12
654.984
4190.07
977.855
3589.43
3073.36
984.764
-1161.03
3173.06
6237.12
2350.18
-637.585
111.144
387.156
429.841
2445.02
-1752.52
-89.061
1942.72
-172.806
1365.03
-421.155
735.607
-1765.71
-3346.75
1506.57
4923.9
566.558
-3792.67
-5052.57
-4240.74
-264.987
9817.18
7048.9
12819.6
13114.9
7447.49
5270.86
1270.82
4625.28
-1896.43
-1206.21
-2637.11
-1228.18
509.589
-657.795
-781.172
-1533.03
5835.08
8444.71
3208.03
89.2357
4552.24
3894.27
-484.87
2274.95
3412.91
-635.28
-618.812
-433.183
7215.05
5759.38
645.879
-2020.87
-2048.56
-6509.94
-5184.67
-3114.26
-2535.82
-450.886
865.541
-41.7652
-6409.06
-3060.4
-3788.07
637.449
10327.5
13895.9
11924.1
7726.68
6360.79
10534.4
11703.7
-2339.62
-4281.72
-5281.83
-3065.87
-2998.32
-4887.5
-1672.6
-1363.19
-2026.53
-926.441
-175.281
522.96
-4388.8
-4131.27
-1811.61
-779.825
-1133.26
6026.27
1538.85
-258.986
-442.314
16.6141
998.487
-1310.81
2343.84
3794.78
7226.87
1232.56
4176.63
-2856.95
-2109.66
-886.975
-805.784
-3769.28
-693.517
1194.43
-1369.87
-991.834
350.056
268.783
7252.66
-1485.05
642.824
-567.068
2117.1
3416.62
1405.1
3645.25
3947.25
265.295
172.719
661.576
-1977.38
-2572.94
-4526.79
-2711.28
-5196.47
322.103
-1981.98
2034.91
-1473.57
-1281.8
-504.103
-2320.38
1788.09
2593.4
1132.41
-729.508
4263.56
-2182.87
-2348.34
-1349.91
-211.536
-2032.17
-541.592
-2039.97
-2557.05
-35.6373
4663.99
3687.14
-2276.36
-1543.66
7128.28
2516.28
-1458.66
4991.19
14307.2
16895.2
11682.9
7939.55
531.601
1133.4
4355.2
-833.149
172.147
-122.227
-1006.82
2881.26
3153.26
3297.03
1515.82
1564.14
-748.325
842.895
5296.13
4287.55
-48.0044
-945.25
4041.32
15502.5
7333.78
-993.209
-678.169
151.149
-138.923
-510.673
1047.72
-2987.51
1490.12
6063.2
1589.78
725.499
102.668
-1230.25
-1295.82
-579.423
-276.866
25.4172
-1797.57
11154
4757.07
4944.49
5699.25
1548.34
7303.62
-2316.27
-1895.42
1917.23
-204.565
-885.592
-420.027
133.987
-3232.68
1687.04
2912.75
-68.0519
-1269.02
-2478.97
1319.54
-1931.24
-401.112
2628.53
-43.1334
1541.23
519.19
-1474.9
4292.25
-285.864
-966.44
-2328.09
3821.92
-2436.32
824.139
1361.45
1793.91
-295.108
-1034.7
-225.237
-34.4121
-1861.4
514.681
4256.68
-1339.17
-2273.09
1205.28
5221.51
835.743
-867.913
10370.7
-66.5731
342.007
3205.77
5029.51
3348.1
2799.32
-1034.14
-1052.82
-850.22
563.492
-1972.95
-396.537
-235.204
-683.045
3407.82
-461.209
494.667
562.983
2483.64
1341.12
2801.47
-617.901
3873.09
5687.98
2652.63
-477.982
1433.88
-45.1846
890.62
-831.808
2986.55
4902.03
9896.11
-1553.95
-334.771
-2889.25
-1961.98
-554.803
-557.437
-966.142
7598.57
5934.52
94.3956
8056.41
7279.25
7112.13
3924.25
3032.52
-3101.42
-1906.97
200.039
-1568.85
298.801
-6643.67
-7233.75
-3424.71
-529.767
-2247.41
1472.66
-4754.35
-892.816
-1760.25
-3290.82
-1532.63
-3665.06
-1270.41
873.297
-2623.9
-422.136
304.07
-594.177
-2042.64
-778.877
2261.01
-125.217
-1137.52
-401.527
-989.189
7586.21
-244.121
1731.89
-1833.61
-1649.84
559.222
-1849.62
-1680.67
-353.819
-1597.64
4849.54
-681.664
-3305.67
-1432.15
581.641
-303.39
455.883
353.731
-233.913
-4483.84
-977.024
-263.148
-1282.32
-1173.94
337.382
403.664
-2931.64
-2040.71
1299.18
-326.479
-606.028
1365.56
23.0154
-1706.04
477.699
1323.32
502.169
4837.54
-359.145
3753.15
-2330.36
3480.41
-704.336
-3491.22
-31.8273
6320.84
1032.74
3198.41
-2826.09
-2673.78
3138.31
-2094.44
-4663.68
8858.99
11369
10532.7
506.543
4374.32
7474.52
-53.88
-1431.79
-7682.25
-5265.6
-1611.71
-1004.33
-1276.52
-2321.76
-3084.65
890.53
-315.903
920.611
4212.54
-357.181
-787.868
-5095.99
-582.877
-52.814
500.174
7193.98
-2414.32
2705.56
11450.1
-1124.6
535.744
-2592.31
5716.34
3099.25
3338.5
2649.32
2170.44
10743.2
7152.49
62.4125
6809.63
2765.47
-952.421
8075.76
-1550.91
-2500.49
-1663.63
4904.43
6395.12
2583.41
13349.5
14491.8
13940.5
-152.839
-2170.81
1497.04
3034.68
4954.38
-2320.15
-2003.11
1168.28
880.749
1207.68
-474.766
-286.929
-142.229
298.573
304.528
229.093
728.626
2150.92
1485.72
323.564
-801.448
570.887
-658.768
-2252.91
879.845
-643.784
-1995.42
269.016
784.33
770.4
-6072.22
-6424.02
-841.893
-3651.15
-2387.25
-1314.84
-1257.14
15236.3
13979.6
7759.23
3047.92
-1383.54
183.371
21.924
-448.086
-591.22
-396.056
-3243.15
-1175.86
364.558
-692.465
-821.805
-2040.31
1327.67
-277.568
-1119.21
156.476
7587.98
-3467.69
1028.92
-1766.42
-3066.62
-2901.08
129.947
7055.99
1504.48
1316.4
-1467.65
349.2
-2302.38
-2299.92
-4106.21
-863.599
2390.39
2799.18
750.853
-524.996
-2904.61
-2453.11
-485.386
-27.2918
-267.738
451.978
-2831.39
-5112.96
-3109.59
6474.19
1052.21
-2311.88
2684.33
982.127
1418.83
-1186.14
233.097
-48.8028
-2705.99
-2454.31
-3757.77
-559.725
-4406.02
-3527.76
3468.72
-2835.98
-1796.7
1226.59
4030.33
2819.52
-514.027
-1848.93
387.109
2664.81
782.678
1833.79
-1714.75
3149.89
-1503.85
10522.4
11677.5
3346.7
-1044.43
6588.25
7311.42
265.474
2476.75
-169.736
487.289
-1223.22
6556.51
2717.6
-1444.89
-791.701
-213.283
-221.19
1957.35
-831.852
-385.382
-1554.79
-1278.51
505.763
-1472.03
-123.484
-911.779
-6332.37
-1354.08
-3877.1
-1489.12
-702.413
1714.59
1232.4
-3019.74
-3405.19
-1183.11
537.581
327.437
-1825.57
-4711.46
-2988.93
-2223.61
-703.697
7494.13
-23.6016
9432.39
13756.5
8462.35
-1192.59
-1644.43
-4272.32
566.997
-63.0767
-597.776
3849.08
-2710.86
-326.19
938.267
1987.93
-533.222
-664.666
6567.59
4556.6
-212.902
-331.611
-927.804
-5010.34
-600.447
5013.7
-152.452
110.387
332.517
-151.137
8557.9
488.149
2046.12
4314.18
-1121.51
-1991
-2139.8
-6857.8
-490.615
-207.885
823.924
-4333.63
-1389.39
2034.16
57.9136
-1834.98
3047.36
-3527.7
-1232.15
-1978.91
-319.626
547.602
128.674
52.1497
874.693
-608.366
-711.915
-1326.19
507.201
-2276.29
765.832
3883.68
131.623
-388.579
-416.1
-2182.71
4109.02
1149.73
-525.705
94.1811
2044.06
1342.15
954.606
-1314.9
-117.947
-168.13
-1105.18
-178.704
1260.28
6681.66
-719.418
6647.84
3820.55
19709.5
16947.4
25163.3
4653.13
-2095.41
-163.545
16559.1
9319.04
1626.15
-3214.03
-874.877
-1199.69
392.441
138.648
-2769.05
-3103.59
-2908.35
-5298.3
1907.03
-1086.77
-283.248
-795.654
-135.232
-5311.91
-2304.64
2210.15
-572.381
-1911.46
-3350.33
-1712.91
-3717.04
-1123.86
-3698.45
6913.64
7096.91
7580.42
-1764.24
3317.09
5018.48
-1218.37
-826.834
-5233.21
-2184.32
-6484.95
-1294.86
-3324.32
-2345.56
-1417.97
-746.6
3213.53
1082.62
-3432.6
-3354.56
-1987.43
165.019
-1381.72
34.6132
97.8923
-534.758
1260.62
-1621.29
-1170.34
-497.462
-376.872
2979.5
-2423.31
-241.813
-3730.86
-1941.21
6298.42
-1556.29
818.716
1759.81
-1437.25
-1493.76
-4899.47
-2084.17
3.78759
2043.08
-248.004
-1806.58
381.746
2453.39
1967.04
3527.48
3146.81
-754.834
-888.169
-2188.04
-3553.54
-633.336
168.9
-3257
-380.056
-1672.43
-2976.06
1891.45
4708.17
-1475.23
1648.33
105.509
-2906.44
5403.08
-1122.61
196.565
152.958
2044.56
412.409
6825.39
3536.64
565.658
-11.0521
-3707.41
-2038.47
-1129.31
-2696.82
-199.982
33.3619
889.789
-2089
-373.13
-1791.72
-992.626
-1564.54
192.854
-717.708
-1421.19
-3174.67
-6610.91
-1889.74
-2417.91
3437.98
-1394.93
-1124.24
-10565.1
-4702.12
-2623.6
750.982
639.101
-2943.74
-1712.71
212.625
-1811.73
-448.824
6255.67
1273.41
-2622.05
-1836.28
-4984.97
1405.77
-1710.83
-6140.65
-4600.78
-5372.29
1549.58
532.198
-975.623
-778.172
-1472.51
323.256
1262.35
-1539.61
-2674.23
52.9179
-24.9551
690.344
-2858.75
-1351.81
-789.586
-1972.83
12747.7
7158.57
-8.16047
-112.043
5605.79
23516.8
12748.5
-507.933
-75.5581
4540.12
-1767.05
-593.06
-2566.97
76.0153
9407.92
16657.7
17082.7
2857.71
-665.46
659.383
455.052
693.654
-1241.77
-2924.39
-932.002
-146.106
-1291.14
17.0988
3766.29
7402.22
-2539.91
373.44
-1060.48
618.637
273.017
4969.75
1870.86
491.904
4505.82
33.2206
-714.526
-1491.53
-822.406
-2.72355
-1589.57
532.956
-1080.74
-659.238
2218.15
-5876.98
1114.39
1657.34
-418.799
-5236.53
1224.84
5630.29
8073.04
-79.3357
1486.21
-4182.75
-2008.93
2966.35
2624.6
4639.93
-232.43
1083.92
3133.3
3318.92
-2445.76
-125.742
4393.97
3434.61
-2036.95
-1740.09
-687.994
7288.64
-1994.65
-6316.23
-845.635
-2448.23
-2205.57
-1719.83
-3845.86
-2260.56
2669.13
1762.27
2101.37
744.836
2638.87
-116.339
1926.94
2300.5
4116.02
516.962
-2449.13
961.548
-637.353
11.7822
-7164.34
-4447.72
-574.818
3669.37
6398.93
3736.16
214.979
1262.57
2413.43
-1446.22
3176.63
5876.24
-2631.02
-3256.91
-326.613
-3326
4319.82
744.859
-675.494
-912.982
5098.31
6614.68
-365.658
644.53
20224
12946.5
17131.3
-1565.88
-2705.77
42.8048
-405.332
-1630.67
-124.345
-4740.52
1265.49
-1625.88
1147.27
-1732.25
-96.5365
-26.8944
7097.45
6437.41
-1746.42
-2301.82
-1292.46
-3729.44
-301.094
-1666.92
-2116.73
-1654.63
1082.1
879.02
-2842.66
-520.181
-1279.75
733.999
6997.03
4635.98
5129.77
-469.636
5958.76
6233.65
2535.77
-742.8
286.093
-1686.82
970.521
-880.143
12.2641
-928.947
-2358.71
-1539.52
426.052
1493.29
1489
52.101
937.546
8878.47
-2522.87
-323.135
-876.207
1342.21
-2362.95
-1261.71
-626.347
-2932.79
1047.26
822.031
-604.538
-1266.35
-1097.87
2161.65
372.003
1037.54
-842.351
-1811.28
66.1719
2812.89
-2083.13
-2278.15
-830.409
-1003.48
229.733
2102.62
1746.92
815.75
579.485
-376.52
115.738
-218.656
-1172.75
5245.65
1369.74
335.585
1041.39
2425.82
1859.6
143.726
2291.65
546.597
1064.12
7389.37
8202.67
1473.77
1173.53
-2311.06
1904.21
3620.22
-794.418
-1617.47
76.7795
-531.548
3706.07
-1120.05
-2964.54
-1564.51
480.027
1079.53
6123.36
1163.95
958.189
-1539.04
-2074.93
-4949.33
-2256.57
-1583.91
3769.92
-469.784
96.5438
291.89
7490.15
9426.57
1098.31
449.29
-455.473
-1570.51
4704.95
2139.25
3491.47
5470.67
2067.11
640.427
-1639.31
-149.681
-843.851
-4262.85
-2036.39
742.393
112.724
275.235
-2288.83
331.559
3110.16
4619.74
-420.201
985.196
-344.28
1407.14
10091.5
4086.57
-1288.51
1343.9
1942.71
-3161.35
-3413.32
1180.44
2665.59
-1420.84
-1040.76
-1199.57
-873.874
-160.104
-746.725
1104.62
199.638
-1741.08
2544.28
1713.86
3618.69
10957.4
4049.3
-1733.55
3875.94
839.975
-1141.38
655.64
-348.187
2782.67
6469.11
2542.38
11582.1
10647
1998.43
-3150.85
-2156.71
-4740.18
-2963.19
-6733.29
-936.978
-2779.74
141.912
-3580.83
-1785.4
-2247.71
-1783.68
334.941
-1421.87
1028.58
-757.331
4876.56
8053.35
2911.43
3540.68
-668.395
-1208.81
5214.56
4685.79
-172.554
4587.84
4789.71
6223.13
6912.66
4322.54
1766.95
1832.41
12467.2
6865.23
3406.25
-900.18
-572.951
497.473
-1730.41
906.115
-1102.24
-814.541
-290.645
-1295.06
-1211.1
-3132.28
61.3721
-894.791
868.5
-3077.44
-249.098
4014.79
3641.66
2068.5
378.171
-1883.91
1832.6
616.145
-1582.44
-549.16
1522.74
-1710.55
198.467
-1684.34
1153.37
1157.27
-2481.16
-1771.17
6004.77
653.278
-1379.78
1033.16
-344.221
-3107.03
7351.73
7521.47
954.382
-417.541
2141.55
766.73
2709.66
-509.086
-1007.15
-1296.94
-1954.36
-3379.06
-2692.16
-1104.52
860.406
-4439.6
-1133.8
-1843.92
-1207.1
2167.49
-1362.34
-2551.35
-1637.63
-1862.15
-2315.81
-2319.79
-1502.58
-315.307
5998.78
3040.62
476.089
-3453.11
-1731.06
621.675
187.32
-1431.51
-2197.31
1671.55
-1911.3
1397.48
-2942.67
-3192.18
-1708.15
-318.12
-172.808
-1034.55
-4291.37
516.116
-2860.77
-2575.41
-3183.46
1595.87
5135.09
2588.06
1883.42
6851.4
679.44
3752.13
-471.698
1442.78
7372.27
-1893.05
1456.24
1651.13
6187.34
-849.666
1391.6
-971.152
-122.527
-643.552
-3404.95
6653.74
14157.8
6597.98
2.7328
-1182.54
-241.888
1183.14
242.392
-500.485
165.06
-512.739
-880.511
-919.914
-2305.56
3011.72
14126.3
2172.79
2313.12
-189.901
6199.38
852.102
989.413
-4842.56
403.852
971.878
110.043
697.594
1078.84
226.533
6217.15
18258.6
4951.06
-1296.14
9432.54
1075.74
334.216
1514.2
-10.4598
2859.03
-2341.08
-1173.63
3791.37
-12.5367
-1190.6
112.63
-2168.26
-928.19
122.353
-2283.82
1546.36
3223.95
-1046.9
1704.79
-1411.46
-697.944
-2226.44
1563.85
-161.552
-3096.26
-4047.46
-49.8498
-1428.95
-561.971
2184.87
4467.26
-1247.12
-1284.02
-253.866
-1402.49
-2704.94
793.588
1674.78
1365.16
-4858.17
-88.7686
-2594.89
-3592.11
-2473.27
-1603.42
-508.776
1025.51
841.688
-502.309
6549.69
2365.51
1543.75
4563.74
-1563.17
-1551.76
772.026
-978.766
3732.91
9580.35
9331.92
-1696.82
2528.91
2726.31
-2644.89
-3819.75
986.959
97.8292
-1751.99
-836.614
916.809
8096.88
-44.6025
-2983.43
-662.932
-2300.86
-3777.1
-599.588
-3419.72
-2122.66
1737.45
-783.438
-889.115
-628.218
-588.203
540.928
96.4132
-2034.41
1868.06
-1373.51
-1452.02
764.214
-1495.23
57.1285
1571.1
-589.964
812.692
-353.983
3056.74
3539.92
6462.69
3795.61
13872.7
9960.78
16616
24807.7
9405.49
6052.98
8972.59
3572.1
-1459.87
-3633.68
-4358.01
-866.064
2577.83
18339.8
28676.3
13971.4
3766.78
3486.53
7321.59
68.0742
-1079.81
1009.05
-241.912
-857.382
-3745.57
-4020.25
2488.4
-234.036
1773.42
-1294.55
-2353.74
137.912
-1482.87
30.3659
604.319
5457.52
2709.79
3194.33
1545.6
864.838
-1441.18
-5026.74
-4925.38
-4934.55
1733.15
-2469.64
-2953.72
-582.386
7239.85
988.865
5038.44
-1056.05
-3763.1
-3996.61
-772.679
43.3897
-447.914
7869.02
3519.93
4696.61
830.026
1831.37
8589.45
4777.92
-416.783
1409.09
-5761.59
-295.532
-4832.17
-3676.94
-9744.91
-2841.97
4700.96
-3019.11
-2704.07
-729.892
2017.92
9349.89
3524.77
-489.767
-4143.08
-5958.9
-776.03
453.849
-291.27
559.783
23535.3
5594.12
1892.22
-2123.47
-1854.2
1336.24
4537.89
4161.79
4460.8
184.766
3135.28
-1084.05
778.7
-689.253
-2547.42
195.943
948.381
65.6364
443.787
9688.16
5201.02
3573.49
1262.31
-229.484
-3654.96
-2681.63
-1343.94
-503.382
-2264.68
-2432.86
-110.375
-1775.5
-326.074
1903.98
5987.05
584.461
3141.87
-1141.89
1598.29
-628.221
1412.28
-1181.6
-1471.69
-1720.1
978.786
7188.41
19747.8
14020.1
15941.6
13908.9
4857.63
811.969
2649.5
5960.39
6540.31
13816.3
9646.96
226.491
-2224.09
-791.022
655.127
-2952.96
81.3928
2081.7
4895.31
-251.607
-1209.68
-82.9723
-1617.75
2603.47
-1653.54
-1597.87
3544.99
1682.08
-6155.77
1686.29
3652.22
5632.88
4345.1
5322.67
704.595
-2218.31
-3344.31
114.152
605.015
3963.88
1808.84
-2539.83
3759.07
9590.23
12564.2
8068.91
-4863.04
-5260.35
-1855.56
-3434.23
-994.448
-1024.77
-3456.61
994.403
745.552
-1055.24
577.966
1043.1
2280.93
1273.34
4102.44
-354.361
-3952.69
-6443.44
-4706.84
2971.79
2224.37
2379.48
-116.283
1351.63
2101.1
2161.36
507.282
-1100.87
1330.17
-912.579
-3901.84
-251.864
-59.1005
-1506.04
1625.48
-1558.33
-1342.67
-175.067
-413.729
841.963
-235.685
-111.507
107.105
-2554.38
-594.061
-511.779
-815.303
-610.728
-218.107
-910.903
-2384.79
3955.42
-742.44
-30.6886
1078.35
-2878.15
-3724.54
5387.66
6064.87
-1010.66
-2344.09
-1164.48
556.544
-1170.68
2134.4
574.324
-610.219
-673.808
2361.89
3062.64
-2834.31
1983.81
-1472.82
-593.277
-1296.62
-1782.98
1195.03
-491.222
-3449.79
-6811.19
1505.58
-2010.39
2235.07
-2999.54
239.893
630.953
11010.8
9573.45
5863.44
-936.46
3259.18
11248.1
4619.92
12977.9
9591.83
11785.3
-535.153
-2899.47
-2755.77
-1394.81
-1276.89
-238.369
2632.16
1030.82
-2128.02
-75.2479
-1615.9
-2341.74
-2509.72
-1585.07
-718.198
-1471.2
892.579
-401.271
-1071.99
4068.06
6202.02
-3702.91
-2717.48
3812.51
4522.15
1121.64
-740.271
7213.69
3893.04
-4075.79
-298.788
-900.335
-1002.48
-139.624
974.894
-795.943
2266.12
188.993
-3044.9
-1260.53
1791.96
747.507
361.421
649.001
681.243
-3348.98
810.887
-906.687
1242.94
2242.55
-2646.79
-2621.53
-3438.39
-3181.09
-4624.77
-3841.68
-1393.18
-377.107
186.83
1581.44
5636.63
10697.6
3681.73
1896.25
-1063.43
591.739
7982.41
2446.66
-3032.84
-1727.14
235.154
-982.954
-998.139
618.668
-1211.65
13.7132
6.21284
-2543.61
-1660.38
-984.416
-705.054
-964.955
-113.998
-1181.46
-3169.08
-1554.79
-1802.59
2211.03
-108.593
-784.104
-1502.33
516.515
-424.854
-1984.2
-99.9573
-906.101
-985.153
545.132
3893.45
-844.141
-7176.58
-3871.08
-240.123
-3547.42
773.858
1688.96
246.342
-1435.04
1953.08
-581.871
-909.941
-1185.72
938.456
420.922
-3236.02
-237.165
70.8983
2016.3
-1874.01
3579.24
1524.92
7917.74
13804.1
16240.5
6210.63
1576.61
-1784.17
-525.53
162.72
491.954
-1338.41
-1178.32
12588
7490.34
-1110.74
-3756.51
-1925.12
-267.706
1218.09
-137.895
-93.0281
1683.96
3521.88
1837.27
2917.99
1163.53
-1269.92
1407.31
-244.128
-867.627
1902.09
2123.92
204.752
-1115.35
2979.43
3211.85
1186.7
880.579
2015.7
5043.86
4171.78
4499.42
1257.63
10231.6
220.025
984.908
6018.49
7978.87
8520.99
-1106.01
993.775
283.715
4132.17
167.821
23.2657
147.805
791.566
-1986.7
1302.69
833.63
1163.76
1208.01
4599.77
-1584.62
1659.07
870.768
-330.086
-3321.76
7353.5
9233.5
478.604
-1421.39
1101.4
-694.192
871.693
2099.7
1637.81
-343.935
-1041.48
-1411.94
-3034.93
-327.162
423.848
747.056
2132.25
-1323.43
4005.62
-2837.81
-1770.5
-1202.56
2859.4
-1154.27
-580.494
1222.03
4033.8
3818.76
7171.88
2485.58
5066.54
5822.58
7934.9
3912.56
-1359.67
4222.97
-336.14
-1500.81
298.35
1144.33
1914.54
-274.649
556.822
-4.40405
813.279
-1142.51
-485.764
-267.131
1689.64
5640.64
5502.94
1602.39
3092.25
629.534
2206.03
-676.069
-1819.7
-1014.09
-646.13
857.926
1609
-599.955
-5576.08
-1483.82
-461.543
-832.776
-486.256
-1331.63
-5498.02
-690.107
-385.791
2328.51
-2944.79
-1675.73
89.4307
-958.019
312.713
-2298.75
10854.9
10784.5
11534.6
2683.18
387.818
-900.571
1453.14
3673.17
-144.882
-701.305
-6419.65
-316.59
11185.2
-1919.82
-1042.35
1643.72
1086.04
3619.5
17039.6
-794.069
-43.0422
830.708
-314.639
789.993
1955.5
-1591.42
-3214.21
-1041.04
2868.36
154.42
-1805.91
1056.97
-1644.33
-1178.09
1241.46
-5179.31
-3484.03
-4892.4
-4413.1
-193.424
-4376.9
1709.72
-335.544
-2876.22
-3455.26
-2456.13
931.759
178.982
1627.61
-1912.92
1006.99
4556.49
941.574
5728.96
7865.75
7541.96
11679.3
6670.93
-4223.67
-1167.12
-1415.93
-1403.37
2907.28
226.281
2404.81
1301.98
673.01
-1583.11
2210.48
3325.78
-7961.34
-2471.67
1458.54
-33.9199
-2534.23
-3142.54
-3873.99
-1613.92
-410.252
91.6274
268.653
-2610.88
1363.07
-1713.58
-544.757
-615.72
-14.1673
-841.696
905.768
-1039.22
-246.67
-1385.38
-335.05
-6465.41
-3082.9
4361.56
945.529
-425.353
-1609.44
339.795
-1225.16
-221.301
642.45
4819.49
-486.352
119.882
2174.13
-4878.65
-3169.37
322.721
-3028.38
-1028.09
-769.374
-222.285
7325.97
-1427.39
-1093.05
1233.47
-723.038
-1256.55
147.025
-2044.61
-748.416
2767.03
1054.21
-469.815
-2617.59
-896.924
-344.707
-1363.02
2097.87
1022.95
1092.7
-654.549
812.034
-1927.46
-1471.64
-2276.12
1992.2
-71.7875
-2628.02
-1029.16
1405.32
-222.435
2475.79
-724.256
-357.3
2635.53
-807.236
18.0937
3749.76
9600.35
8293.9
-681.567
-2112.24
-253.329
0.0667348
2876.59
1640.26
-3159.76
-2770.65
4844.05
1916.17
420.631
302.388
1978.62
-3632.25
-671.54
1358.97
-1980.1
1253
-448.476
-66.6473
1022.04
-1336.43
-1475.64
-1021.89
-1017.63
2687.8
4599.08
5366.11
-281.671
-2647.85
-3898.1
3036.59
1665.03
-1846.23
-1506.2
393.751
1698.01
-4661.68
-2357.45
413.788
2023.3
4852.41
1066.39
-2168.24
2755.71
1342.2
1048.43
1719.66
-2138.39
510.488
-409.89
3765.26
-197.294
2822.56
2612.38
-19.7557
6190.09
4248.52
-776.669
-2031.55
86.6017
1013.45
-2963.53
-699.336
-620.749
-3078.03
-1841.04
-91.582
-685.953
-535.295
1468.22
36.7548
-427.669
-2171.83
2297.89
1295.7
-1509.85
-1547.99
-1283.98
-561.332
5763.73
1538.49
297.375
-4217.56
3194.54
1727.09
3136.04
4068.98
27.6607
-1261.32
686.806
-1035.23
386.645
56.6927
-968.62
-1781.42
515.857
1863.38
220.702
8726.53
5722.74
-55.932
8248.41
12744.7
5484.06
-1324.18
-1688.4
2383.13
-446.922
-1387.93
-899.903
4022.56
304.911
3524.12
-740.163
761.684
90.7406
-885.972
-173.092
3142.77
433.685
1370.06
-471.645
-1365.94
-756.09
-2303.44
-1438.23
2087.17
-44.6753
-1869.28
7748.17
6597.07
-4380.24
-2423.58
5141.66
6033.21
-5936.25
339.704
-1059.14
-764.262
837.11
8276.55
2275.94
2061.51
-372.66
-2665.33
-6362.7
4656.8
-2168.63
706.231
-4925.07
-516.491
335.245
-81.0471
1526.19
2559.6
-513.907
-600.937
78.2961
-1594.3
1333.66
-255.082
1508.28
-817.226
6564.04
701.4
-843.447
-26.8648
705.666
3633.73
-4219.76
833.011
-1357.61
1204.53
1307.24
6171.26
3817.39
15349.4
1987.39
12897.9
2559.61
835.244
-487.189
2576.9
7748.88
1522.16
2965.15
-3260.64
-8338.2
-2594.41
5009.77
5893.61
-11.5708
1206.79
146.513
2054.39
4851.77
8336.96
5968.2
-2697.46
791.456
-2087.43
-405.889
-1425.97
2206.9
1837.73
-231.54
-1541.75
-523.002
-1746.2
-306.648
4025.15
-1894.09
-2865.72
-5449.87
-944.051
-1001.1
-924.783
-446.366
-1589.3
-806.572
-2029.9
-1792.64
-528.395
-2878.5
-9.10305
419.376
-894.342
-916.296
-276.778
-1161.07
3971.13
7526.51
2217.22
9937.16
19098.3
7091.22
1790.16
-730.878
-862.346
-1513.71
623.174
-1884.26
-1904.49
62.1325
1609
-361.79
-814.779
-636.134
-3071.04
440.481
-2329.17
-2095.22
152.824
281.323
828.413
817.396
764.55
1214.22
3742.61
2914
-1482.73
-841.543
8413.94
2616.91
5165.34
-950.437
-364.296
-811.616
1782.67
6973.49
4678.28
-1817.15
-3646.48
-3036.24
-3913.63
231.377
490.563
-2069.29
-3301.2
-632.351
1764.83
-524.695
-475.403
-797.176
-620.969
1297.56
2759.64
296.358
1933.8
-270.68
-79.209
5265.21
401.09
-685.543
-494.142
1004.71
-328.659
926.911
-826.447
-4.26251
1322.28
175.556
9767.24
7542.86
6077.83
595.076
318.745
1791.96
-3965.47
-1289.13
-1160.13
1165.92
2359.1
3739.91
-12.7311
-3030.82
-120.415
-3124.12
-3818.93
-1298.31
-4329.66
-606.934
-2876.93
-902.659
245.422
-2252.58
575.4
1787.05
-1154.3
1108.86
-732.459
1118.07
-1520.35
-4983.26
-7916.7
-1341.77
-5144.12
-3863.91
-4842.24
-3554.44
875.209
-564.397
2866.35
2715.15
155.054
-342.789
-479.173
-1480.17
-1319.02
493.346
-1011.91
896.206
-1053
3064.4
2820.41
-2333.93
-4404.2
-4513.4
-1311.09
-1564.09
-2121.9
-3056.72
111.856
-536.152
784.22
2274.11
-1608.85
-563.902
1104.99
-993.597
-1420.15
1414.66
-1191.13
-5007.76
-5156.66
-3449.15
-5520.66
-2928
-1213.27
-1551.26
-472.055
5496.34
5225.69
9537.74
4897.91
13283.9
6516.87
-432.526
400.772
3895.35
-1897.85
-4695.53
-5189.56
368.767
3054.95
1982.22
7258.91
-588.408
-503.574
190.503
-1788.76
8192.26
46.0319
430.339
188.497
-473.334
-1828.51
-2156.99
-2606.44
-1606.45
2711.97
12967.5
4682.81
3048.21
1237.21
-2223.7
2605.69
-1358.73
-243.232
-540.48
-1365.42
-2244.04
-2638.47
-1798.12
-3040.5
-2329.31
-577.353
-1429.06
1459.18
8673.71
5112.83
1551.04
-484.417
548.836
6733.94
6302.29
12.6823
553.905
1783.15
592.278
-2547.2
-65.0843
446.587
-607.719
894.483
1764.34
4503.48
-2529.02
-3371.08
-867.524
-1733.29
-1439.47
-954.816
-47.4185
1255.36
-1624.12
712.462
-783.237
-452.057
358.574
842.393
2429.21
430.231
-1990.62
565.52
335.251
-263.282
-741.782
-93.5881
-1223.01
-577.945
-761.088
4243.38
3403.99
-1104.27
-1259.56
4848.18
2806.08
-90.3782
-407.246
270.974
-369.017
-1379.78
-3619.61
-2826.8
684.781
5915.24
43.9148
-599.766
-364.822
-1362.8
-2905.47
-2723.45
-14.3531
5039.91
21626.2
30313.4
8561.01
2668.98
1964.91
2729.71
736.446
1123.48
-596.788
3327.83
1152.22
-709.557
-594.279
-1315.1
-1069.8
549.947
-1671.77
2135.93
-4506.74
-6995.7
-7586.28
-1093.13
-1789.39
-1882.52
-1478.93
-4394.56
-1801.93
-946.076
-2585.39
-561.899
4603.17
10336.6
4439.23
9147.56
1776.77
9656.69
10570.1
5843.91
11057.3
8298.91
512.291
-1074.2
-548.281
4909.1
1424.12
362.477
5408.4
6850.81
4124.98
14859
11108.9
-1209.94
-1528.86
1287.79
7746.46
6673.83
8739.71
4541.85
1236.59
633.757
3323.13
1195.78
-2425.46
-2108.39
-261.08
1449.96
-1150.71
-20.2332
5483.02
269.465
-669.922
-1664.21
-1511.43
1560.21
442.259
524.345
-1107.37
423.199
1771.23
-383.02
6319.33
-696.93
4421.1
-1144.87
-2981.16
-2478.14
-3200.02
-424.201
226.885
2613.06
836.549
-2054.34
236.591
233.216
743.09
822.006
-1514.48
-290.458
3513.17
6199.28
3954.32
5061.94
3335.8
1236.75
-438.995
211.615
-1387.51
7804.12
980.861
14245.1
4344.83
3299.08
3898.71
896.393
1201.65
-2179.49
145.186
-1657.42
-1961.44
1310.33
-1526.93
2226.25
5476.03
6422.54
4454.37
4902.53
-5370.9
-2644
-1438.25
-2179.33
-808.364
-2229.73
-125.765
-2554.82
20.8444
10117.4
320.955
2578.25
7778.97
16766.2
2480.17
77.5631
-1.79659
-1023.42
1408.88
12177.3
4772.82
10033
-1011.12
-2225.92
-2184.61
-1555.87
-5210.24
-2705.97
96.9606
-828.521
2552.6
4054.56
-1050.05
-1250.43
-1960.8
4889.02
5314.55
8549.46
2576.54
-240.85
513.666
10094.1
-914.602
919.792
346.577
1290.56
1546.77
1145.59
-5379.73
4791.31
-898.151
-2740.54
2001.56
747.329
-2181.45
-914.232
-979.158
-1647.77
-344.331
2940.53
-705.93
2718.05
1962.02
1674.47
849.334
5049.35
-680.746
-1891.57
1626.13
-3836.09
1081.68
36.5652
-1060.3
651.63
1239.23
-314.653
75.541
-1667.03
-665.933
1734.19
2718.83
240.886
1524.08
1171.86
-1272.54
-2661.18
-113.221
343.943
-3194.04
3780.71
-541.308
524.255
763.527
-1260.96
-1516.05
2856.88
-121.679
2693.05
3351.05
3496.58
6096.97
145.912
8305.41
-2807.17
4056.11
1548.97
-194.057
-636.172
-3309.53
-3857.5
-825.565
-1238.72
354.621
-2550.06
-1029.63
385.622
2225.19
599.116
-540.09
2720.26
-790.127
369.863
-706.915
4733.01
8390.17
-346.176
642.583
17729
35033.4
4230.35
4400.61
-754.739
-1430.1
-478.595
-284.261
-625.722
-1310.69
467.094
8814.91
-802.996
-153.769
-307.635
-2407.96
-540.271
706.989
-1678.81
-944.477
-1364.05
-749.697
943.69
4016.1
1295.85
9273.39
10806.5
6171.99
11396.1
8671.17
3861.73
6670.97
-20.2399
-1464.3
-1561.2
-260.962
-1009.96
-5237.52
-4294.62
-4009.94
-1593.94
537.844
5509.86
6863.75
-5378.19
-3142.15
2544.61
7631.73
1120.96
2242.88
-716.426
-3482.03
-2121.81
3216.39
5370.5
2722.69
4406.68
18977
15983
11931.3
5996.6
4138.22
605.638
1832.26
2099.95
-1893.66
-1621.17
-1567.21
636.878
-175.658
-1478.55
-2872.87
2572.68
-1562.17
-843.211
304.285
2836.61
904.352
789.203
4387.86
4454.77
1198.61
2299.43
4275.59
59.5982
-125.79
-1658.01
-427.894
-876.42
4452.24
-527.313
799.973
27179.1
1308.28
-548.416
-1680.31
-77.5782
-2036.53
-670.905
-945.839
-1991.97
-694.325
2290.89
1105.84
3670.2
-989.907
-3111.33
3125.11
-302.455
-457.928
1242.13
4218.66
-1797.26
-1887.79
746.163
-2872.21
-10137.6
376.127
7055.38
2609.5
-3224.45
-7826.93
-6669.24
-2104.14
-723.89
-1295.96
-1241.14
-535.393
1859.65
2931.49
1532.25
331.615
-547.725
-1765.96
-223
2973.7
-152.377
1657.86
20451.9
17786.5
6389.68
1808.96
831.716
-1021.57
-4686.84
-4679.98
-3504.28
-4322.2
-2443.25
-365.028
-2676.3
-3309.8
7733.94
1607.79
-209.754
3742.93
-42.4033
7270.87
4659.18
-402.494
-275.784
-360.812
-7027.08
-563.842
13617.7
8947.2
548.652
2320.74
320.361
251.188
-3650.73
2414.04
701.701
981.907
831.971
8572.76
8656.7
4422.43
2072.55
14665.7
-941.874
-2973.81
-1745.69
1210.08
-658.816
1395.75
-47.4478
1853.22
-842.166
501.855
-174.061
29.5125
3685.8
-980.601
-689.576
4865.57
-184.006
2762.22
1384.84
-2931.9
-1799.97
-3464.87
4447.24
4235.41
6539.06
8561.17
3624.49
3433.15
5212.37
-220.459
-1244.68
-3772.36
3667.24
-2212.54
-449.984
4638.99
189.543
3555.52
1526.25
1944.27
-1984.1
-3514.32
-1051.67
4126.44
8418.77
1690.13
2392.54
2832.24
922.077
2456.22
-4353.48
-2324.03
-1304.32
6121.52
1826.22
1596.25
2723.42
5747.19
6943.5
13351.1
13790.1
7595.42
691.579
1109.69
601.544
-880.795
12402.4
18463.6
14906.5
5052.66
-162
2166.11
-30.1871
-33.7648
-1757.4
464.738
140.311
-409.925
-1636.68
-611.473
1400.57
-481.291
-726.838
3039.08
2129.95
295.711
-1349.12
2182.39
18.359
19.9536
-2448.88
-121.746
-1731.77
4035.27
3546.57
-1075.57
10349.4
1678.32
1375.44
-1675.66
-1970.27
88.571
2576.3
928.39
-2803.1
-1313.23
256.425
3213.28
6112.5
3243.99
-2198.09
-573.684
267.45
-1991.92
-2264.73
-4881.43
868.99
1561.56
1762.17
1208.2
3351.04
8772.23
6435.1
5770.77
1148.49
10438.5
2114.9
-1603.6
478.857
5154.44
168.595
-1383.12
-542.102
5787.94
43.3842
-2217.27
-2839.99
-2382.75
-784.188
-806.987
-1044.83
-67.7639
69.8187
-4815.46
-1059
1555.87
-1259.3
-5603.13
-2806.56
-10545.6
-888.635
1419.08
7233.2
20187
11801.4
13329.8
8846.88
4536.72
2343.63
2641.9
7762.74
6533.82
13212.8
1737.67
-830.812
-3128.8
445.338
-1133.34
-3708.08
-1840.29
93.8535
-631.26
-514.924
-3019.41
-1681.13
-14.9279
-2876.46
560.669
5544.79
13164.7
4233.17
1142.78
6653.73
5933.48
-753.717
-1482.99
3284.62
651.959
-1764.08
-1491.98
-2593.06
-1135.43
-222.176
-1912.24
71.614
1145.04
4773.28
9107.08
1758.09
10039.6
3375.66
-1383.01
-920.672
-1271.52
-573.558
-1144.04
-3970.36
-538.359
-855.779
-2404.17
231.643
960.55
-293.256
1031.8
-1392.74
5758.45
4641.25
8098.09
-1424.53
1395.66
677.551
309.714
6922.19
8694.35
11924.7
-777.347
-731.26
434.969
-772.728
7566.51
1571.3
-4985.26
-426.411
-3026.84
-4671.22
1490.14
1707.51
6936.06
1313.18
-604.856
3660.13
-574.131
1632.4
-1115.23
-20.7681
701.783
631.135
404.054
-419.474
-2140.67
4115.72
-1160.22
