3298.5
1532.82
2605.18
2147.41
7784.78
14485.3
4099.49
8020.27
3454.42
9008.15
5603.19
9830.6
6581.72
4556.19
2121.6
1494.12
5240.09
5774.5
10930.3
3329.02
3685.52
7206.92
4592.47
9260.06
3170.03
1751.52
1496.3
4114.08
7631.25
8842.44
1408.85
3785.77
550.705
1827.64
6616.28
7156.82
6045.83
6519.52
9659
3099.18
1338.65
2993.81
4797.94
6288.63
5990.69
5380.55
1684.5
1795.18
4589.2
1681.09
4845.66
6991.94
6410.09
5162.09
4067.17
22772.3
15318.5
15567
3381.1
521.678
1384.6
1667.22
8602.23
2107.54
1096.31
1943.47
918.367
803.804
3654.15
1878.95
-144.336
1184.32
332.039
284.048
2147.12
4464.44
5619.81
8238.99
21520.7
3345.64
1542.62
122.457
3276.4
2223.22
5262.2
6175.61
4923.57
7235.58
9243.95
10788.2
2886.12
12272.5
13609.7
6161.18
1313.2
7334.18
4972.64
21089.5
14413.2
10247.5
15369.6
1723.43
4083.6
3832.27
940.691
6205.54
3540.04
4191.4
4234.61
7269.9
3191.17
10265.8
4017.16
5845.45
1361.2
3399.83
1095.04
5037.11
2745.06
7965.36
6143.87
755.984
3071.42
11328.7
12095.7
2605.16
5120.34
1660.9
-201.541
404.665
3155.38
1822.48
5214.92
4593.46
5580.36
2332.01
3998.9
9294.26
13551.5
15634.6
27775.2
9773.57
3038.82
6980.47
2587.54
5246.35
9918.16
17336.7
13469.7
10628.4
2094.6
2949.98
1967.48
4196.06
3837.03
6681.54
15675.5
131.218
1308.55
2261.59
2530.59
6086.42
3806.38
1635.18
562.172
325.574
36.7908
4437.68
2975.26
3532.25
2966.21
1148.66
4442.04
8604.78
993.534
94.9231
3584.57
963.551
2361.04
7511.86
11508.3
1348.2
1604.07
817.147
2692.89
3666.55
5069.84
15895.6
7134.26
6460.16
1689.83
7062.85
2538.91
3030.89
4098.2
2170.79
5580.81
5575.67
3556.24
6456.7
2054.71
2064.36
6758.49
3401.85
519.26
752.244
2371
5843.39
13270.2
9885.29
8907.78
3155.16
5851.16
5484.36
3008.17
5574.74
3348.34
4539.07
4350.6
4660.95
1686.43
3242.4
6377.58
4444.11
1181.81
4014.65
7716.17
5486.49
208.848
2816.23
8202.67
7062.9
15926.3
4613.33
8241.24
3338.63
6265.81
4308.66
17497.4
1265.71
4011.97
1424.01
1982.45
10462.6
13135.5
9295.15
14108.6
9469.35
14000.7
8973.52
5179.33
7819.34
3956.57
3634.01
6769.59
10040.6
6166.45
3095.18
1117.86
15764.2
11266.1
15805.6
12351.7
6847.95
9965.61
2021.37
2658.1
5250.7
1628.7
1124
7043.82
1649.91
8259.28
5749.48
7771.21
1509.17
3126.41
2406.3
2006.94
1232.48
4481.07
17850.8
5938.95
11250.1
5044.95
3485.36
5715.3
5119.36
3603.06
4268.87
3739.57
3285.91
3318.32
6313.53
1497.06
5028.97
888.771
727.835
2513.12
9289.42
2804.01
401.103
12299.8
16834
4286
5385.44
1429.98
12274.8
5709.51
6068.16
7064.59
14060.9
15987.1
30892.4
22512.8
15337.2
6338.35
3981.38
1539.93
3118.25
1152.83
5405.64
2377.8
248.281
4884.32
5502.41
1405.62
7070.04
14144
14336.2
7261.05
1849.21
3268.26
2114.12
8462.92
4989.54
4693.49
2085.41
4582.83
3479.45
1669.05
-150.007
4851.48
4875.22
2866.34
675.089
3165.07
8997.36
16032.8
7118.78
1136.71
2524.2
1842.3
1845.61
12673.5
4788.05
8642.49
10177.6
6105.71
2332.27
555.012
4178.35
3657.63
1044.58
1638.72
1937.04
2989.86
4660.45
7116.89
5152.66
234.601
2262.86
222.599
1463.66
10820.2
2136.26
5919.84
7993.78
1465.07
3137.37
2728.67
3498.08
836.203
1057.28
3148.11
3832.44
3340.74
4972.57
4426.2
18.5105
12361.3
1837.02
12111.9
6989.75
4094.26
11448.1
3162.07
2559.28
3789.15
5328.46
2367.53
1320.79
5817.43
4948.01
7636.26
1213.89
3161.12
3957.61
2335.8
1501.33
663.574
3439.24
2464.67
6042.25
9858.82
11349.8
14584.5
22133.6
22761
31188.2
15027.3
7058.38
4498.19
4857
8176.28
1731.24
1043.4
8071.94
124.679
3873.7
2271.57
14597.2
3710.67
1762.57
6135.73
2520.05
6113.16
9279.62
1569.78
1501.38
13073.9
10181.6
3649.1
4494.85
2831.41
4200.28
7148.26
7704.39
5808.08
5261.2
3455.62
5366.45
2117.12
8448.16
2182.28
203.204
1077.86
3879.52
2172.06
3449.35
2410.12
3359.38
7925.76
4105.56
1862.71
5484.41
10080.2
4539.75
11787
4572.76
10384.4
12221.5
16749.4
16029.5
4262.62
3977.07
4811.59
5593.95
5345.37
1801.8
3097.23
2798.4
860.857
4783.28
600.635
1051.33
5740.57
6247.48
11427.1
1569.26
4694.78
9969.72
7482.7
1768.62
1417.49
5692.05
17900.1
10313.4
7620.52
5519.17
5393.21
5902.77
7107.46
2699.39
9127.02
5244.19
9176.05
3063.11
3031.76
46.2368
5869.83
7674.64
7274.06
5221.01
15233.3
12947.6
7637.69
5622.66
8919.37
18107.1
11521.1
4738.22
6048.69
2313.29
912.743
3132.73
10767.3
6259.72
3746.22
5198.51
3202.93
-26.5715
4677.11
5985.34
8396.91
4629.24
3517.82
1278.73
5240.97
1447.95
2873.88
2820
5474.09
263.619
2753.04
3151.71
1480.9
7039.96
4855.96
2984.72
2581.84
3146.35
4156.36
3508.8
7178.75
7040.53
14001.4
7229.78
2619.41
1063.49
5175.43
3394.62
3674.45
6740.11
1574.32
2237.66
2026.51
2949.6
778.786
3946.94
4720.55
377.262
1288.81
3080.95
3633.8
664.346
5921.29
5211.44
3058.9
2803.18
5739.36
1976.6
4137.37
6615.1
1072.58
3754.91
1882.4
1414.02
5199.24
5386.19
2077.3
1524.49
4840.98
2756.44
12180.4
3989.36
487.568
4769.01
3246.58
60.1034
2266.11
1107.92
1296.05
2709.01
3036.15
4824.16
6690.73
4674.97
19862.5
14861.5
5776.23
6134.36
10844.9
2365.67
1400.41
2723.3
2613.85
2610.83
3072.69
2620.34
2119.43
2250.84
1922.63
2183.49
5501.21
3350.39
985.862
5135.38
2261.6
800.933
6158.26
8632.59
33254.8
37551.9
21005.8
7838.48
5728.95
3041.28
1487.08
2311.42
1807.75
821.812
338.884
988.382
5065.69
1793.26
1846.8
3430.89
5450.85
10892.8
2831.68
6679.96
569.927
10953.5
8202.27
5776.6
5671.5
651.828
2493.31
3401.09
2463.96
2556.95
655.321
985.497
1637.1
4766.79
2973.08
9508.29
4712.61
5154.77
9332.64
14687
12924.4
22878.8
40472.7
24301.6
20037.2
14383
9608.04
4875.36
3915.63
6482.75
2573.42
8523.08
12563.9
10380.1
7102.4
2689.44
6803.73
3073.24
6163.32
7523.81
1979.95
1833.86
2702.09
1518.86
1631.54
8014.34
5464.18
2869.87
2108.92
2868.71
2257.4
2598.43
9727.92
5239.97
5763.62
1404.34
657.721
5917.18
1490.44
855.677
2117.88
7579.43
2559.57
3694.89
2788.93
1547.9
5960.7
2834.63
5229.84
11009.5
7164.42
3071.64
1203.38
3876.59
3192.45
5120.17
3570.53
3658.4
6633.07
4420.84
8184.1
7818.73
710.475
1136.66
2680.59
4535.41
2232.13
4201.62
4410.69
801.364
2687.45
437.66
4042.3
5292.33
8580.85
1891.84
2773.69
5572.88
13521.4
9740.03
361.125
4360.53
3701.34
4248.97
6956.89
7939.24
6970.61
10341.7
7894.92
8689.4
5906.35
1354.33
1859.58
5726.1
830.395
1264.97
1166.95
3410.82
3160.33
6816
2105.25
4809.08
7570.14
7851.81
4454.3
7528.17
10009.4
6717.83
1336.22
3756.75
2772.03
3119.81
299.642
150.398
130.937
3102.64
552.201
3328.95
2719.59
2635.16
3747.55
2886.65
778.245
4565.22
954.974
1382.74
4893.27
2052.01
2688.94
5414.4
5682.75
12480.6
4835.7
4588.51
4164.58
9049.15
14147.5
14985.7
15303.4
9426.3
19108.9
8560.91
2862.65
4352.75
3269.46
3364.78
8610.76
8425.26
9843.62
2989.41
6397.32
21151.1
19624.3
8723.39
6348.55
5807.26
7461.8
6810.22
4168.71
11828.8
6860.08
2533.16
5332.16
3181.29
1002.11
1852.08
7486.25
3635.41
120.819
3624.1
6942.09
2277
2871.55
1693.77
2464.57
6723.39
12542.8
7131.32
1568.13
1158.67
3041.82
6714.1
5605.64
8659.72
15886.8
7553.21
16174.3
6076.85
426.746
3244.07
2375.16
3715.72
7350.89
7939.36
8649.56
4161.5
5589.89
1889.29
4413.48
8315.35
1179.01
4930.73
5434.82
4797.06
6308.41
8007.19
5267.36
7157.22
6932.82
5089.79
13202.3
7681.39
6814.55
8498.5
1805.68
3665.22
2014.46
3239.03
2754.98
3832.73
1875.21
4503.57
8215.72
6716.79
1881.23
3496.92
4926.04
5088.84
1062.19
5496.66
3422.44
6771.18
3444.4
546.074
1138.42
1960.71
2115.5
3201.55
1474.11
3789.49
2980.17
491.683
7738.73
6825.38
5121.06
18553.9
19142
10619.9
16121.1
12029.9
8973.35
2780.49
8036.98
11187
5346.11
4847.58
2282.07
2206.89
3160.44
2572.47
802.445
-23.2287
2203.16
665.012
932.943
2005.52
1268.95
1331.66
2613.89
6349
3302.93
1839.53
2497.8
860.903
399.68
2323.87
4352.92
2835.11
-108.277
3568.31
4142.27
3221.83
2878.7
5952.04
2039.64
1180.14
2784.74
14768.9
22186.9
19990.1
14270.8
5294.7
16883.5
11410.9
12525
10956.5
10496.2
3345.27
9103.57
6386.93
4897.41
8193.97
4430.28
6573.94
3978.44
7120.19
3310.36
3565.74
4343.35
1368.8
3316.82
4368.23
507.275
3813.69
590.617
2054.54
725.851
3032.27
2096.98
4361.69
3333.85
1003.1
1111.25
3119.72
11417.9
6379.77
6819.1
11180.1
12403.2
9881.92
3397.98
5012.03
2799.11
7369.93
3578.82
12049.1
5139.14
3178.57
1260.34
2090.42
4409.22
12279.9
7335.92
11290.9
4069.09
3618.82
2577.91
8375.44
7585.11
9206.55
11827.2
7930.14
13914.6
13334.5
3023.13
2386.92
1364.81
1367.61
3845.56
317.486
2606.81
3602.83
4283.05
3138.68
8604.85
8402.02
4110.55
4896.27
3769.84
6071.98
1869.99
5516.81
11429.5
4106.66
3249.84
10170.5
3785.24
2702.41
5585.23
8259.6
10348.8
9682.86
590.71
4925.2
753.224
838.732
2743.1
9588.08
7584.86
4555.22
3987.69
8320.27
4972.53
4585.91
1887.66
6907.16
2223.3
3332.92
3900.79
1476.76
10550.7
12953
11338.4
6871.08
7021.5
5063.04
3189.42
7795.86
10491.1
7682.76
10433.1
278.733
1497.3
6754.04
3745.36
3860.31
1276.32
1917.48
1575.26
2708.65
2177.44
1567.3
7132.22
2953.21
2949.46
2658.85
2921.07
8612.16
24.0986
2781.7
7829.1
10459.9
-108.554
2166.32
6473.92
13247
15503.1
11135.8
7196.06
2558.05
4567.06
3343.53
8539.55
1879.57
501.629
7073.49
5427.41
422.17
960.375
459.865
1369.09
4534.99
2269.37
2954.7
5233.78
4000.73
5332.61
6614.88
3770.24
8707.8
1927.79
2056.54
4250.32
624.562
4823.89
3867.52
9355.25
11959.7
16512.7
17243.7
30638.2
34664.4
12567.6
5605.7
8904.04
24489.5
34235.2
17830.1
5214.56
8901.39
10786.1
16232.4
9008.65
15741.2
3436.15
6247.98
7299.98
2323.51
15637.4
6335.39
4211.71
4407.31
1094.07
1647.55
2334.33
2997.3
1938.51
414.374
2733.36
4767.96
1270.15
3787.01
11650
11787
8156.6
13172.5
12437.1
7800.32
7316.43
5149.66
3777.56
3211.27
1445.24
1282.36
12350.4
1514.01
882.502
1288.14
329.897
2359.27
1040.26
2811.22
5262.22
4106.74
2894.8
5414.97
8042.01
3055.72
4467.69
10233.2
2086.66
1520.38
4961.22
13588
11021.2
6904.23
5030.7
5123.36
15842.3
15346.9
697.522
2579.8
2688.59
867.194
3356.76
3280.8
1979.79
4266.78
3467.36
3475.78
3341.77
3539.38
1878.43
-152.017
2556.78
7267.43
4011.4
996.035
2757.12
2991.88
8136.7
13408.1
18221.1
6217.39
3615.5
697.072
4468.03
4979.7
5133.76
3577.58
3490.19
7633.06
2859.73
6061.65
6261.37
1667.29
3456.63
3818.36
3799.33
2718.65
3013.04
3534.88
4217.27
3977.63
983.761
3681.06
14556.6
2458.68
3186.18
2330.08
4926.76
8486.61
6671.03
20578.1
17903.2
9261.66
7967.42
3419.8
4717.97
1828.01
3505.67
3923.62
9478.89
681.445
6024.8
8989.48
6349.46
6369.9
1903.7
6198.43
4213.82
1435.54
394.769
2833.71
7911.25
2943.14
324.699
4764.45
23443.2
19569.9
40942.7
37149.6
16843
33065.7
22173.3
8484.05
1482.65
2227.78
857.824
16760.8
7029.72
8750.39
1818.63
10530.4
8894.13
9910.52
5920.16
2911.81
4305.56
5770.06
612.436
7040.29
6419.83
11382.4
10188.9
4596.52
10417
3020.63
2570.47
2851.41
2082.01
1603.72
12653.1
5540.69
1165.8
2554.88
1597.41
2733.02
4964.02
4453.3
8469.12
2087.67
783.406
3689.43
913.836
4535.39
3511.45
3137.33
7452.76
9766.25
2341.83
2234.38
3837.97
1193.57
5523.22
3492.8
3099.87
418.867
6452.19
7410.87
4208.02
2863.87
1471.56
1266.86
13840.3
5779.5
9579.49
3360.32
465.175
691.653
3856.41
3527.94
6436.71
11932
8576.55
37702.1
24936.3
5061.15
2455.37
4395.55
6631.23
3143.67
-508.235
3138.71
2061.09
8570.25
2315.4
6551.57
1327.9
805.949
1350.37
4431.77
5799.53
1342.23
179.432
1294.48
3865.99
3823.13
6760.53
2274.1
3257.12
2705.11
3353.69
1107.85
15043.1
9608.86
9300.24
13055.2
8461.19
6025.81
4531.05
4383.87
2422.34
3001.51
6691.18
1048.11
2953.93
4023.18
8077.04
1385.7
879.781
5494.69
5163.14
4354.96
13383.8
2914.22
5115.84
9420.64
4005.9
5595.41
6989.39
9338.48
10766.2
8970.54
4842.71
2634.88
893.024
5.29247
20.1283
230.458
677.109
3238.8
3731.79
333.001
327.137
11640.2
7025.53
3149.59
5781.87
3000.6
6938.94
3382.02
3155.01
3063.82
851.574
2531.15
570.499
1654.01
4363.12
2518.09
8118.64
1479.28
4500.52
3096.71
2202.97
2461.73
9771.75
2994.07
3810.79
2663.79
1262.56
1028.66
283.418
92.1922
2683.96
1798.7
1601.38
6126.14
3712.51
5059.39
15135.1
11685.6
4548.57
10971.9
6679.25
2915.03
1960.26
4961.17
1089.82
4757.61
5292.87
14557.2
14906.3
26421.2
10689.6
3297.95
4970.58
5460.91
11965.2
6368.96
6226.43
3012.18
236.076
3072.44
3238.71
3676.54
3627
2586.4
7895.85
2537.59
2336.11
3796.44
5165.71
3638.24
5194.5
9257.55
8012.24
5282.85
2793.81
651.286
6313.08
4145.58
6614.62
8696.3
10757.7
8459.14
1274.17
5869.27
1060.11
3158.12
4376.79
2587.46
1820.48
3357.26
2799.65
187.129
2278.37
1339.11
2287.69
9476.6
2618.52
9932.91
3969.94
3498.21
1329.48
2838.2
16921.2
21143.3
8168.12
2550.56
2859.03
3528.41
949.907
13876.6
426.071
4928.9
13130.3
6198.19
12097.7
5465.49
1643.88
882.451
2572.11
1904.07
-284.973
3983.14
532.723
255.347
2563.52
1716.73
2453.84
2822.27
7880.77
8258.05
7707.06
3851.12
3983.37
13460.3
6381.56
7303.77
3043.31
285.609
1863.08
3157.94
3838.19
1025.06
3931.68
7767.22
2317.77
1484.43
89.1073
6746.39
4819.63
2627.94
3797.46
9804.57
19996.4
9416.14
7485.41
9420.41
6607.63
10012.1
11581.9
4964.85
1214.44
9823.85
5281.55
1418.96
2565.68
1409.22
6929.55
7048.73
8032.84
12110.4
25571.6
8416.11
3953.34
5814.59
4725.7
4729.21
8198.76
7223.61
1145.21
4113.01
9302.83
13040.5
6170.28
10667.8
16180.3
6508.67
8331.13
2912
3727.31
2215.14
681.301
544.119
1633.35
3218.7
10493.9
4047.38
3061.44
2601.3
4980.18
2600.09
3239.38
2662.9
13293.6
3787.1
5183.55
1271.15
10827.7
3568.98
3137.65
7580.68
4461.77
3062.69
1681.19
1440.96
3305.82
2225.2
1997.46
1085.62
251.363
2304.1
1220.74
774.481
1143.01
341.964
2090.36
2752.73
4863.09
5728.24
9044.3
3827.78
4760.84
7565
4084.76
6313.02
4960.99
5735.47
6360.45
9854.67
5092.53
2736.8
10006.3
1311.6
1274.83
9636.85
17958.6
6491.74
5707.21
12501.4
4094.04
7082.2
5709.93
819
6792.69
4554.33
1719.29
8198.93
3663.45
8646.41
4128.4
6795.71
1986.28
4126.68
5534.69
8702.63
6158.48
4963.21
3583.23
1261.48
2613.48
3249.96
4887.22
2934.79
989.742
3707.71
1876.51
4032.32
7196.71
2647.53
3631.08
9168.82
7744.58
11652.4
7465.29
5895.09
9001.84
5598.88
2086.59
1598.13
1373.83
5352.61
10800.9
1632.82
5407
2537.34
1405.49
2039.88
502.788
1090.58
803.948
1396.53
4124.74
3748.42
2365.39
624.619
4969.86
7770.03
7301.62
8637.42
2733.97
6871.13
2668.79
1143.22
468.661
1480.3
765.656
2737.12
2290.01
6026.07
6453.47
8653.58
3792.41
2956.06
3458.21
6233.66
1967.14
-120.703
560.808
4217.34
2971.17
5785.79
1999.54
4138.47
3061.13
4350.75
3745.21
6933.09
494.999
91.9454
4650.94
7211.15
9196.57
6274.25
3946.77
2744.58
3872.4
6476.44
-247.175
6319.06
2869.3
3991.65
3773.83
3184.11
4663.05
4874.14
577.506
19884.8
10878.9
9445.85
16742.7
9541.53
6718.4
2380.54
7157.65
6161.88
11633.6
15111.7
9252.48
4646.22
6540.29
432.137
3846.43
3455.42
20652.1
5498.39
7048.03
6581.68
12478.3
6671.89
5670.29
3697.15
13278
2781.7
6472.2
708.775
4010.99
7855.82
8237.71
6186.87
8185.46
5444.81
14578.9
8787.72
4535.79
9267.87
6822.88
5521.83
12105
6677.81
6805.95
8163.73
10799.9
21093.5
2925.35
2250.65
1826.85
8388.48
2369.89
7188.49
656.37
2262.36
538.848
1588.25
4439.36
4098.76
4337.18
4294.72
6007.9
4876.84
1074.83
2537.47
3463.18
4163.85
1049.63
5189.95
6431.42
12222.1
19253.4
5156.69
4726.05
1763.06
3289.27
4495.94
7462.51
3845.35
3643.72
1223.23
9121.01
3323.9
1024.97
-274.188
1997.85
751.56
2159.38
3042.75
2170.8
1331.71
2565.35
10653.9
3729.51
3571.28
5135.5
3325.98
3328.65
5046.63
5929.83
4910.92
1439.78
4637.35
2580.81
3558.69
3345
7166.83
19292
3837.99
7964.91
10321.4
12327.9
20371.7
9252.45
7083.86
13785.5
1269.83
3593.26
5542.97
3267.4
1859.65
4746.97
1788.41
4657.93
438.626
1257.85
2518.36
3305.97
6900.13
264.227
1383.17
-73.3663
2382.16
4089.15
4830.87
12287.5
5112.42
2753.42
2293.46
4878.74
2464.8
5705.88
6716.64
3449.84
2770.83
3458.22
3470.95
2442.31
3009.49
855.763
6037.3
11937.2
16846.8
9042.85
2614.92
4000.14
11029.3
1690.78
1590.13
2094.62
4470.29
2582.56
213.932
3685.27
3643.93
10987.1
1253.89
679.888
2029.02
2120.27
3264.69
7477.07
3437.69
5268.49
4642.01
12434.9
8276.4
3610.8
7168.97
2842.48
4738.15
4537.84
11111.2
15188.4
18439.3
7931.6
1681.36
3627.07
3737.97
12878.2
4856.48
5974.09
3579.98
2740.73
2972.44
3622.49
3012.79
2607.63
4488.75
15835.7
6651.41
12291.8
4567.41
2311.48
3404.55
3390.42
2060.22
2806.64
932.957
3499.97
1262.82
3981.86
1625.94
4329.71
3837.19
674.825
1243.55
4314.86
3237.13
1901.38
9160.57
6119.47
11902.9
3826.76
47.7978
4521.34
4708.55
4120.19
1330.15
8521.08
11406.6
5989.18
-63.7302
3190.85
2883.49
3876.04
2579.15
3684.23
2146.64
894.341
840.819
2274.91
7568.59
5058.07
2722.25
5969.1
300.098
2923.92
2392.68
6169.78
437.145
5218.26
4482.71
7672.6
5574.33
1466.68
8561.73
6111.51
8444.89
2473.39
657.613
1631.49
4407.3
5855.11
1042.17
2554.82
1068.59
7448.7
3565.67
2482.39
2907.26
2951.35
4030.41
959.572
5001.92
1161.19
2295.61
3505.29
3541.19
3215.55
1499.62
3716.55
2584.75
1366.78
4018.75
7607
3709.07
1851.74
6537.64
14248.4
7660.43
1316.81
1304.54
5716.96
3782.43
1377.78
5329.87
5976.06
3156.48
7275.5
328.469
2873.24
508.642
4163.9
5178.34
4004.63
3560.85
4315.06
4957.96
3123.88
4453.14
5992.46
6778.92
3103
5378.08
2305.32
1756.9
2393
3509.68
1016.12
1741.94
7196.39
1561.64
2864.08
2851.34
2932.61
4203.61
8571.42
4614.29
7563.75
9195.27
8038.57
2768.23
1277.24
2366.73
761.314
2032.36
7258.7
25053.2
24036.5
15099.5
6452.9
3624.19
6363
3425.84
4762.27
4272.85
3214.02
6153.57
1602.76
3522.78
4796.83
14729.8
4926.67
5485.19
1197.32
1001.12
2963.3
609.122
1701.15
3605.06
2562.27
11321.8
3215.32
7112.48
2406.09
4502.04
6434.02
2584.14
4414.57
5617.37
5431.09
2085.52
3234.87
7105.82
11802.8
10392.7
5536.38
8191.5
184.79
2534.98
3986.58
4078.53
80.8776
419.13
4614.58
2879.96
2807.52
1415.33
2236.6
1915.49
6080.16
2924.4
2117.2
5075.09
2871.58
2261.48
2971.05
4350.05
7951.91
3779.79
730.483
80.005
3282.61
-287.081
3689.02
733.377
4147.2
4925.03
5580.31
4741.38
4726.38
3495.32
371.968
2091.5
6180.49
17871.8
9494.09
13265.6
4690.32
6330.75
3136.5
1325.78
15578.5
3303.81
1864.85
4593.13
57.3443
4565.42
2876.83
8612.63
7915.91
3911.93
6722.68
4492.61
7943.86
6082.78
5076.61
2154.41
1600.27
1448.38
3885.68
13264.2
16881.3
19860.1
17836.3
11639.3
4829.39
467.428
2586.81
5398.59
2953.3
7079.38
8611.63
7022.45
8157.72
16688.7
8608.6
6337
14135.1
4774.9
1239.95
30.7403
3779.87
1137.58
3393.08
2702.36
4997.46
1529.78
6718.96
3535.96
3580.8
6543.34
-329.084
2925.36
4174.35
1351.64
4799.78
4771.08
10850.2
5169.11
6637.29
737.065
531.243
3353.51
1196.94
5273.62
3284.71
4351.27
4280.4
1675.53
9030.51
11800
11089.8
10538.5
11818.8
839.897
4074.62
7910.55
281.078
3739.65
9342.3
4836.93
8182.94
9691.31
12608.1
2464.84
1707.35
4721.09
2734.17
5800.97
2198.02
9016.33
2382.41
2940.29
371.452
2182.44
2376.38
1893.31
2565.23
1602.64
2947.81
5668.56
4009.95
1236.74
3305.73
4402.89
8221.5
7358.96
2932.95
5421.11
1212.73
261.555
4118.96
3345.11
2927.16
4244.67
7758.39
2034.47
6984.35
11277.5
1352.34
1359.18
2428.27
3733.16
880.539
935.819
739.213
69.6581
6331.9
5142.14
5758.01
2179.16
2842.58
10437.2
7280.09
12544.2
8902.25
5432.13
2606.86
873.015
237.11
1320.64
2513.17
9637.45
2183.52
1246.39
2161.17
648.572
2771.1
4718.91
6180.11
6990.55
5385.78
3299.02
2240.18
4760.48
2381.75
3409.06
719.412
4007.79
2687.57
8535.59
15829.2
9778.66
7969.12
6375.85
2271.45
2021.42
5238.91
5995.85
7259.37
8889.1
2010.26
999.812
1376.52
3795.74
1092.85
1499.64
1443.97
2586.38
4242.4
19435
12853.4
14318.5
9099.02
12370.6
2458.54
6199.94
4748.23
3509.41
3098.97
1052.31
695.58
113.603
4267.89
4207.27
3167.7
308.679
10712.1
9419.91
7919.9
2055.03
3127.88
1529.87
4136.58
6250.5
14572.7
2204.33
3885.93
6200.03
9719.74
12716.3
8599.42
2265.93
2851.3
2705.61
7031.11
961.784
1308.09
2302.85
5716.32
926.55
5066.99
4846.7
18653.1
14039.8
15903.6
5276.14
8395.08
2065.41
3720.18
2042.17
7042.69
8211.38
2460.71
3688.99
7390.51
7575.58
9891.31
1496.56
1.56864
815.349
3677.42
6834.42
3992.11
2981.3
3380.18
4664.41
4142.57
842.772
7277.38
3219
3369.03
1464.07
2415.18
3684.48
1772.88
5262.08
10951.6
5588.32
3371.82
4791.75
773.017
3463.37
3854.18
1512.12
1076.76
419.012
3708.96
2138.68
1125.7
758.635
4394.62
23732.2
23703.8
11881.2
4787.9
2091.52
325.557
7607.03
7097.86
9527.36
11714.2
4429.56
3892.88
11322.6
8309.19
6939.4
4464.84
7469.97
5632.03
-219.991
4530.24
3276.91
831.272
-5.73983
1003.75
6776.4
5869.41
4430
10584.6
28346.2
15385.5
10784.7
5804.24
16867.6
6468.27
5340.18
482.629
1401.09
887.048
7958.35
3140.05
7523.51
3954.39
2747.36
2419.15
5276.48
15519.5
23310
13326.8
11868.2
4695.34
3877.93
3621.89
1234.88
1128.12
4634.85
6086.39
1917.3
4188.79
2848.04
1231.99
1923.85
2485.63
6519.4
9700.23
3254.69
4647.35
6706.11
21978.6
8097.7
28080.8
18630.1
3962.32
3334.46
146.83
2145.41
5413.28
1264.24
939.384
3225.38
5751.53
6129.47
6145.08
5213.22
5232.08
5595.79
2629.81
7491.28
4082.92
8462.82
18679.9
17952.9
8328.3
8188.52
9443.56
5709.51
4438.51
4852.34
3084.2
5414.11
4870.49
3114.78
4177.91
4742.58
2588.84
9025.48
8676.19
2179.84
4350.88
1754.44
5509.18
2778.12
2071.4
9031.87
13265.2
11877.4
2597.34
5296.55
2443.78
17887.3
8238.24
3928.76
11000.5
10456.8
7279.67
3780.14
2472.27
1207.5
4434.03
2940.27
778.354
1972.1
9061.37
2889.1
4660.49
1639.44
3051.79
1797.03
8371.82
6827.47
7675.82
7310.32
1854.65
6762.96
6418.11
1323.75
3098.07
-346.242
2404.58
242.536
652.916
1026.86
12826.9
10283.4
2336.04
3405.23
827.61
3055.55
470.432
608.793
3954.81
1867.35
3760.36
1317.96
2638.12
6610.12
11487.3
8483.53
6266.3
2199.53
2524.59
2315.57
11377.2
7087.63
5031.34
2087.28
5057.25
1494.54
5719.66
2464.66
1405.87
6500.1
4319.73
2326.78
1792.41
5818.74
3672.86
505.856
4627.18
7206.18
4824.17
3902.65
6917.2
2510.96
3107.37
6570.55
8146.48
3370.56
1820.73
4517.45
12377.6
15694.2
13176.7
580.337
1433.04
987.809
5595.67
2471.9
8336.79
11281
2347.03
1180.23
4826.01
16557.8
7259.52
12042.1
8299.17
2847.28
2370.91
6731.08
4952.8
9611.44
1565.58
1092.25
5029.43
3882.43
10159.6
1882.5
2605.03
6210.09
2605.23
1128.4
634.775
2681.75
5731.04
243.149
7060.31
760.555
4092.73
2175.57
7753.34
2461.99
4478.73
5144.1
768.234
1201.96
6629.58
2120.61
1156.73
1325.53
2275.3
2961.58
6868.72
265.467
169.388
1140.07
1803.18
2538.15
2135.93
3355.67
723.462
2305.69
4081.48
7545.38
5389.97
2338.31
1229.6
2814.78
8356.12
7394.31
3043.47
2559.56
-366.697
314.539
1446.46
8190.26
4124.56
7260.71
7746.37
9249.7
9381.55
4317.04
9365.79
4329.43
2524.62
892.895
8108.85
4425.82
2595.17
11489.5
4038.86
5246.11
7886.11
4687.22
2181.54
7331.81
1588.01
791.112
3983.37
3277.75
3019.62
870.658
465.015
2413.83
1899.97
605.501
5873.87
1013.48
2195.23
5596.48
2729.5
398.956
2296.62
10962.1
5070.98
3107.31
-104.211
3531.46
3955.17
3647.12
4648.97
2329.64
1968.57
2680.45
488.197
2573.01
2546.41
1824.89
15973.2
12976.1
14953.2
6548.57
3067.06
1845.37
3829.53
6023.3
2653.98
5179.54
8551.17
1756.44
2901.39
2676.88
710.739
909.585
591.135
1390.28
215.226
2781.16
8727.05
7995.76
6067
8795.62
3524.81
1279.04
5770.6
13561.9
10907
12584.5
1386.25
4708.95
5641.19
1768.41
11815
14482.4
13705.7
3030.85
4967.66
1051.83
6781.07
6572.66
3791.03
5870.48
3042.85
5301.86
2795.27
6612.04
3518.65
1263.26
2954.15
3568
6975.84
5938.94
3777.88
1472.56
4250.23
3233.97
10307.5
3826.05
8227.08
6612.91
3830.88
5918.6
6905.87
7523.18
6636.08
3969.21
4928.04
9502.48
7076.02
17924.8
20583.3
10217
6553.48
4168.95
2365.67
294.701
1265.57
1224.39
5607.91
14211.6
18296.5
5270.07
809.845
5330.1
11307.6
21696.2
7804.48
7327.3
156.376
4450
3921.83
3735.94
4733.65
743.66
3234.04
4191.34
1097.44
3037.92
13457.2
5934.74
2651.69
1618.99
1836.86
3242.92
7839.76
16420.2
6626.69
1721.29
2978.94
1959.61
13479.3
2989.68
5463.17
5542.73
18701.5
13559.6
7827.75
9228.1
20437.4
13416.3
3990.84
3929.67
7820.6
6760.59
1604.36
4816.8
1661.67
3435.99
796.501
2352.83
6595.17
3637.41
3420.05
553.53
6135.4
2465.83
4854.3
1053.04
10356.3
8553.81
6256.33
5099.79
4558.13
7714.44
5596.68
5468.77
1958.76
5721.51
9660.81
3834.81
8345.09
11296.1
6231.26
12908.6
8592.4
18655.6
1522.73
3299.71
728.841
1487.29
10606.2
17546.1
3403.32
6545.07
2141.25
1036.13
4485.35
7469.87
2972.98
5060.85
5308.53
3672.14
8341.67
948.663
3843.21
9706.73
9649.75
4761.48
1959.62
7483.32
2419.23
6221.32
3699.02
1208.09
11283.6
5822.63
4297.84
3607.97
670.146
4737.92
2550.05
5335.02
6908.93
8053.85
9044.58
6977.83
-43.5502
3803.09
4608.92
12833.5
23439.1
20406.4
23148.4
7809.35
7354.56
9596.51
1314.12
1247.38
2460.33
4809.68
2005.74
10151.3
9938.05
13036.3
8691.7
4612.74
2315.52
2717.79
2991.4
937.367
11198.2
7305.36
1965.35
1834.27
1246.46
432.941
1596.36
720.255
6323.4
303.664
9330.95
4349.66
5174.02
6367.01
19933.9
19198.6
4534.82
1457.63
616.859
2098.14
2289.67
6143.3
3462.57
4096.95
2413.26
7628.68
11235.3
6145.48
7572.73
11222
2081.8
5466.02
8032.63
11741.3
8513.68
15235.1
4194.33
3052.01
6229.57
922.292
6650.94
3652.07
7759.62
8555.23
2939.64
3586.6
3506.07
598.737
6867.71
16179.1
43225.1
23209.4
10343.2
20858.9
6945.63
8196.51
6333.84
9628.35
10193.6
1981.37
3724.36
17225
8815.93
10685.5
7394.01
12986.6
11279.3
16005.2
13009.1
4765.48
4164.98
9815.87
3514.83
4412.59
4653.42
3610.41
2530.61
4206.53
1227.01
6886.09
176.507
2986.32
1803.28
3670.53
2804.18
3139.66
2404.36
6473.44
8868.09
2926.39
4076.89
225.227
4580.71
15498.3
15452.2
2592.78
8918.71
1213.79
4033.21
5971.97
5467.42
1642.06
3218.06
3922.73
5116.76
1804.31
1659.08
3720.32
531.29
482.747
3483.03
6954.04
743.657
698.281
5509.59
18485.1
10695.5
913.12
1701.2
490.92
1596.41
-94.364
9488.03
4009.16
1574.29
8642.55
5374.73
3081.73
835.451
4894.04
5829.56
5298.09
4034.52
1998.97
4760.2
4931.73
9286.7
1771.19
2367.18
3853.18
3394.86
6568.56
2425.17
3027.3
3540.91
6589.45
12116.1
3560.3
9147
8924.14
3987.51
7118.73
3174.93
1151.73
3953.02
3284.16
3349.06
14902.8
-262.17
2556.07
5430.56
626.801
535.064
1456.05
1979.01
1521.94
1187.08
1719.66
2542.34
4206.44
5579.34
7597.13
6786.49
1193.43
2523.26
5281.02
12729.8
14302.6
18346.1
7149.25
6314.34
11290.9
952.114
9087.06
11855.7
10159
10769.7
2794.51
3619.28
1367.07
217.856
6129.98
11845
12744.1
9017.72
9032.67
7162.94
3381.3
12846.1
7039.29
3393.02
3815.01
6337.49
5856.08
8716.6
4728.71
7226.05
3192.52
4322.27
1134.65
1488.1
3345.67
7169.12
5413.68
5532.61
5478.16
2143.35
3240.9
7578.59
5181.87
2712.67
11237.5
14906.2
23669.1
11356.2
12522.5
9020.75
13276.8
21848.2
21091.2
12671.2
2194.91
2192.04
2275.55
4141.12
514.515
861.461
2720.98
10857.5
8233.42
1940.12
2450.39
4623.47
988.239
6249.1
4086.21
8387.62
13958.8
6138.65
11895
5359.11
3030.32
8828.5
9816.24
483.993
1284.12
1470.71
1021.42
640.133
2420.78
728.17
4728.12
7542.29
10895.1
11006
3076.41
6311.52
3183.79
8779.02
5204.83
4814.12
2171.94
3360.11
4659.41
3851.79
3190.06
3124.78
5479.33
5384.61
19294.4
16846.8
6850.14
10881.5
6903.12
4140.02
2495.02
1205.7
1061.64
230.812
1791.55
1982.7
1715.6
12665
18460.7
22009
20118.1
16050.7
7072.14
8599.57
6449.1
7200.1
3966.12
12631.1
10615.3
10920.9
5080.73
8546.24
3970.81
2640.8
1724.52
4100.49
4812.25
8786.39
5464.43
9948.15
11993.2
166.849
339.55
2261.32
1513.43
4742.32
3132.72
3751.87
1971.36
4935.41
3344.67
17910.3
14091.7
18360.1
5861.41
3222.94
-204.359
-202.274
3990.24
10899.1
1921.53
688.535
1043.17
3563.05
9514.18
10394.1
10433.5
6398.6
9370.69
5810.68
4021.9
8005.42
13112.6
6426.65
8762.08
3609.34
293.502
2952.47
6829.44
3823.19
14380.5
7286.37
17225.9
13424.4
13664.8
18796.9
13846.1
6520.02
11605.2
7099.32
1248.04
1223.23
9497.21
2127.32
11090.3
6176.31
6715.6
6426.14
2885.5
2256.54
11676.3
5271.39
2555.86
1027.41
-347.573
6665.16
9395.05
1312.76
2628.92
10660.5
4009.31
7960.5
1960.64
7218.49
10101.5
2655.53
8390.19
6665
3394.5
4647.04
6039.52
9030.85
17203
10939.3
11291.3
21633.1
5111.97
746.292
3545.15
2785.11
2608.75
921.1
4459.39
943.542
1947.17
3633.8
4752.28
6336.83
3188.08
1347.29
6028.53
4790.73
2164.69
1597.76
6291.45
4447.96
3890.75
1421.63
562.636
6369.49
7394.68
3416.06
6673.64
4347.21
4208.93
5602.31
2019.25
3883.61
320.846
2596.34
3673.48
7766.38
3437.66
9741.51
4502.96
8498.42
2014.46
4319.01
1552.83
2777.99
2550.23
1261.36
1827.48
4170.52
1016.83
1778.84
2281.06
264.16
3569.77
11315.8
5199.42
1706.62
2325.15
8946.9
4454.43
10543.1
6532.1
3491.12
2085.22
2860.06
5238.16
2118.36
294.949
5394.07
3212.08
2616.87
8283.01
8193.11
2831.59
1958.41
1859.86
5548.68
5191.96
7278.75
6270.82
3185.83
1352.18
3624.68
3706.39
1448.02
2979.98
2015.05
1662.61
3823.34
4560.15
2613.04
5909.48
2707.09
1256.97
1416.33
7001.92
2355.32
6064.61
4760.16
12483.3
11737.7
8249.53
7338.64
6584.64
21425.4
5513.71
5563.56
3342.23
6122.42
11169.5
6014.9
4754.35
5625.23
445.367
1363.72
3460.78
10293.5
9004.97
5623.47
4257.59
9104.52
1723.98
3635.04
7614.9
5213.73
8133.81
3085.19
2021.33
1272.43
2526.04
5498.31
3238.35
1156.12
3371.81
1859.28
1369.3
9715.3
7755.01
5590.24
3982.57
4618.82
1892.38
3474.78
3241.12
1499.56
1264.95
1678.06
8140.24
4010.56
3279.99
3137.03
6114.16
6580.93
3829.48
7653.41
11179.5
17250.5
22076.9
12010.5
11168.5
3508.64
11136.7
5579.52
784.263
2891.22
11603.4
5947.63
804.698
1953.44
897.325
2552.5
5528.58
6167.25
4943.93
5689.64
313.885
3350.79
41.5185
2443.77
2838.44
2216.89
3444.71
6939.37
4545.28
9120.78
6728.07
3230.61
2034.86
340.56
3579.84
1683.79
3523.34
11413.2
15246.8
4996.17
4453.58
4361.84
5345.62
5585.28
3816.93
1432.43
2600.99
91.1813
4373.72
3137.27
2728.51
6817.7
7431.19
4857.64
4177.58
7199.72
2602.3
6201.14
11372.3
10459.5
2005.35
2950.58
6192.28
12866.1
9185.69
7379.32
11408.2
3894.18
4770.12
2388.58
2738.61
5859.49
4398.56
5846.08
1160.39
4490.03
12553
7784.05
13054.4
17505
2048.63
651.172
2289.56
4153
1443.84
10564.5
5032.99
3119.57
7756.92
6334
15792.9
12113.7
9291.77
3682.07
1494.34
8125.44
6267.49
13195.5
10524.2
15140.6
9138.29
5373.54
9059.69
2337.56
5067.12
3932.63
8787.86
12049.1
1522.17
4012.22
219.114
2010.14
4691.71
2497
8304.93
6599.89
2594.41
1987.8
11337.5
4599.7
3691.63
724.679
2271.68
2013
2548.63
3607.36
-264.307
3046.1
13672.6
3939.23
4374.05
3591.92
7150.27
9786.91
9881.9
7085.67
4366.03
2962.72
6452.14
2630.35
1296.26
17458.2
2774.55
2824.7
2798.28
1125.75
6288.13
15877
12750
9417.94
5010.86
2202.6
12323.5
13578.1
9507.39
4112.22
5308.81
8635.51
14104.6
6964.5
8599.21
3799.64
4322.94
2515.46
2450
5905.2
5730.03
3137.73
826.174
3234.37
5582
2417.94
1709.76
2586.8
4252.1
2719.08
2977.05
1701.45
2007.57
13356
4571.37
4141.9
8725.83
2377.25
6042.52
4838.92
5334.31
9015.52
5496.83
264.003
1558.58
9933.39
7218.68
16062.1
8234.34
5019.75
4407.35
5283.69
3715.84
6948.32
25590.8
5428.3
3720.49
8266.26
11880.9
17260.7
10438.5
6387.45
5911.17
2493.67
1140.05
289.604
1702.97
1018.43
1710.2
1468.83
2299.38
6442.41
5461.77
5792.93
3137.44
8377.09
9907.07
7706.68
9851.66
9021.43
8936.68
8627.19
7320.15
2320.72
7142.14
6923.11
1399.48
3118.63
3738.14
2646.9
2538.88
6117.4
1856.65
5463.77
1909.92
8018.61
7874.33
9864.87
7388.54
5014.59
2290.67
3060.28
3381.74
3322.1
3562.71
8951.96
7398
13164.3
4152.4
1957.71
6304.34
14092.1
8019.74
4009.56
1460.42
1513.12
3223.39
4755.16
3112.58
2101.67
1385.7
3057.35
11366.8
4270.36
19623.4
4375.21
2153.54
4992.43
7133.33
10777
4893.3
1727.1
3095.74
4743.89
6655.44
3537.94
2981.27
1280.65
6235.76
9850.67
10657.3
14121.5
36265.5
24650.1
24047
4142.34
3470.83
4159.44
3336.49
6921.75
18310.2
2557.72
10858.6
3213.51
2555.55
3714.6
7673.56
3091.9
5219.69
1628.05
2246.75
326.123
2192.78
953.654
8000.99
9633.03
11957
11390.9
2919.66
388.298
420.975
6997.26
3398.72
1174.63
10169.8
7998.78
5477.87
5462.04
1398.13
6261.66
4622.09
7873.11
7032.68
6120.15
-67.8509
3323.99
6244.24
6854.17
8483.83
1481.34
4031.81
3444.27
4698.58
9285.98
6165.24
4983.82
1494.5
3935.11
-91.604
2136.16
1325.93
589.21
3073.61
5067.77
2295.41
4371.79
1672.22
6925.39
8919.22
5989.11
5507.25
4117.14
3823.04
2721.84
3016.44
3860.87
921.2
6851.4
7676.85
4383.68
2420.66
3426.09
8152.67
2914.98
1239.09
4087.17
-91.1911
10986.4
8160.64
2751.85
7689.11
434.909
4045.51
4570.16
2103.34
4359.16
6263.36
5606.32
8745.5
3009.83
2195.27
2523.46
7378.08
2218.58
2992.79
3787.53
6333.31
9001.83
6755.72
13596.3
5437.51
9937.38
4894.68
3606.5
3407.65
3312.77
5730.67
932.052
4216.21
4856.77
2000.79
1102.84
3021.06
2436.13
4831.84
10979
16024.3
12779
16950
4428.64
1214.17
3197.47
7224.43
2244.55
8189.09
12804.1
2927.08
1895.04
4638.81
6048.12
2994.31
3868.75
8272.25
6709.37
775.561
3949.24
5892.35
6250.5
6378.14
9098.44
1576.4
727.157
-281.183
3906.42
6812.5
7758.53
11264.6
12975.4
4618.94
2171.28
4013.63
7833.18
11434
4466.24
4686.43
6032.65
10156.3
9378.49
6957.88
4020.13
3181.34
15659.5
3377.33
4235.31
6806.1
7698.87
3255.8
3795.08
1840.26
1309
9078.28
10660.3
1850.43
2642.93
1523.71
1585.96
5324.91
4607.98
1756.1
3474.91
2355.82
2205.59
1985.71
6778.42
10770.1
5023.59
5866.99
8362.03
4371.76
3935.1
1948.45
620.104
2446.19
2965.29
3404.78
3240.03
1810.35
1289.96
976.554
7083.62
835.933
6114.06
11341.2
9024.99
5667.07
1807.91
2650.66
1845.17
2007.46
3694.57
3890.59
14438
3753.57
2833.82
11299.7
1433.99
2322.79
1292.88
1386.13
2279.69
2506.86
6503.05
3873.58
2918.94
2362.61
4435.62
7410.77
8998.47
3466.03
1487.47
3807.96
1659.14
2302.27
6440.28
9612.43
2993.45
11319.2
1214.53
4112.8
2364.75
5703.61
2251.62
3832.55
13839.6
19030.6
3538.86
3319.91
11667.5
20900.2
10832.2
6910.09
10298.9
18929.8
4322.3
7511.55
9311.71
4501.3
919.948
1643.3
2185.94
4812.63
5495.49
16315.5
25277.5
19748.1
3972.11
3403.29
2509.19
3898.19
379.276
1114.64
4714.2
1610.36
3163.68
35.6895
1873.05
3265.46
475.856
2051.52
4463.45
7031.67
2501.19
4145.96
1956.03
238.247
5294.5
5726.79
3175.38
6848.97
4974.32
3781.14
5195.12
4442.46
4421.81
8227.87
19645.6
4808.97
1944.03
1667.16
1752.22
10614.1
4674.47
9878.59
7588.36
6646.04
14226
7550.41
11941
3416.89
1776.1
2601.36
4218
7938.16
2484.43
1573.72
4337.67
2558.44
3315.03
2956.18
5603.2
8066.97
1005.25
2249.53
9866.86
7033.15
5159.29
2623.31
4280.33
1555.12
15707.5
7818.15
1897.25
8233.91
14669.5
1693.05
2252.25
892.168
6201.09
-58.9922
1665.6
7200.51
2261
3496.5
2613.86
2044.91
8324.42
4171.64
2306.56
6211.78
5923.25
15497.3
1622.37
5427.7
5050.95
9164.64
2972.3
2591.47
5168.55
4514.88
8678.21
6608.28
10379.6
6598.3
4399.42
1411.5
52.2613
4030.79
9227.58
6225.52
3129.41
3569.39
2150.59
9875.59
2143.73
3312.57
12295.4
30092
17008.3
11970.6
2536.68
2418.1
4741.49
7415.83
8434.57
29295.5
14117.5
7154.78
2627.8
4003.95
7055.93
10760.8
5656.21
4081.94
3682.99
920.972
1017
461.68
3049.12
11501.6
3301.14
3762.03
5291.25
1628.89
6468.87
2677.72
1144.86
227.471
3689.69
7274.76
4546.32
472.866
359.988
5851.69
2009.28
6727.92
3882.55
2357.69
7265.75
8708.9
9672.97
7468.32
4426.97
2574.65
2040.75
4611.34
4309.6
4431.11
3800.89
3669.4
8074.91
9271.71
11287.1
6164.97
7316.05
1510.2
337.812
2278.29
6344.22
10344.7
14615.7
15272.2
2841.75
3740.11
6976.04
1243.03
4452.21
2021.57
8971.41
3661.31
6281.38
2124.3
6057.3
2685.82
3572.18
5082.05
1025.03
6192.28
2488.41
4584.96
4009.55
10376.1
9021.31
2056.91
3932.96
8842.92
3162.96
2515.12
4442.61
6679.15
5357.96
2293.12
2088.32
4247.03
8524.24
8944.64
4556.51
4568.96
6645.27
4550.6
3062.46
2774.05
6848.87
1068.75
1924.38
1279.49
4742.19
4004.66
1620.77
7493.96
2479.91
1588.72
1163.59
6839.7
9247.39
13710.8
19681.1
9523.62
14147.6
16102.6
8597.32
4145.67
10415.2
15087.9
12025.5
6783.41
6293.08
1689.56
4305.47
3569.41
3352.34
1649.16
905.722
1838.61
1621.22
779.977
2796.27
4440.33
1115.53
2858.14
2446.79
6426.79
2337.4
8253.06
12099.1
7613.6
6086.75
425.856
5665.85
3074.84
10063
8989.89
8921.53
4690.78
14171.9
5183.1
8021.7
2569.2
4579.17
7564.58
7322.73
9333.75
14900
7690.07
5632.55
1906.76
3600.46
6303.69
3478.76
4294.71
4558
563.586
755.282
6863.66
1077.3
1183.9
4879.25
1168.43
1551.81
166.691
2989.48
3477.21
5803.31
7336.37
273.209
3975.97
4279.47
4224.05
2028.66
3417.62
3544.85
3064.45
6300.76
2355.77
2385.99
2388.04
7989.09
20762.9
2099.28
2773.54
11035.5
12700.7
6136.89
8109.91
18013.8
6962.24
13141.9
10592.7
19283.2
16077.8
15286.7
14560
18441.6
18604.5
8161.76
3136.03
3270.86
6872.55
919.373
2585.61
697.647
2956.7
1007.06
6303.11
13171.5
11605.4
8407.88
3427.95
5326.92
14408
6726.05
2659.37
3151.5
9353
4153.22
12291.6
5052.65
5102.37
13924
2495.87
9488.55
9178.46
5627.85
17118.6
8661.88
6445.33
4023.31
4587.75
3623.48
8995.26
12572.5
10077.7
11748.7
7314.97
1988.51
4191.24
3234.95
8320.84
4191.14
4937.45
3594.16
8142.99
4212.45
5124.38
7870.82
13469.2
13492.5
4285.89
4744.94
849.713
2814.55
9375.74
7369.82
10702.3
4144.99
7070.55
1825.06
1942.25
2080.8
2905.52
1357.62
61.6254
853.004
7076.55
3829.29
2264.77
1553.33
18551.3
14441.9
19973.2
8465.39
1661.14
1252.74
3939.6
1270.54
289.152
623.099
916.619
2720.63
7540.54
1790.25
2623.66
2812.91
8470.21
15890.2
2318.63
9169.3
7132.42
3913.61
5208.64
2993.97
2982.11
6066.63
4837.01
1919.35
4090.73
6664.66
14180.9
9640.68
2996.03
3615.88
2855.55
10421.4
8255.39
7048.03
5578.56
6795.94
8851.06
5445.45
5172.82
4060.29
5978.3
1975.76
2842.44
5989.71
6268.29
3163.49
2382.77
1872.51
5020.17
8143
9563.95
14194.6
6023.78
1507.63
3648.33
9626.67
7291.15
15428
7590.36
6079.23
4758.58
3362.7
414.574
8530.63
4681.9
2768.96
2021.14
2755.92
2654.29
2305.79
1435.96
3121.84
3127.78
3157.81
1144.25
3528.76
5066.92
932.919
1969.1
4434.71
694.72
2090.95
1803.19
2810.13
1255.22
2690.25
2600.4
1727.53
6004.6
647.947
6668.43
5081.57
16777.8
14923.7
2044.65
7282.88
6952.72
9728.71
5415.38
6776.48
7295.24
3823.14
1978.35
935.617
1838.17
6022.66
7246.07
11413.2
15924.2
5106.26
9828.77
17254.9
12938
3953.86
4456.7
1087.7
1406.49
5084.52
3557.78
2351.76
9416.93
3742.78
698.174
1171.68
3446.63
317.663
7382.7
13823
6935.85
5931.97
3477.11
845.045
6453.67
7869.09
723.972
3661.7
2137.85
2176.72
2786.54
7300.89
5091.9
2389.77
2114.65
697.547
1702.18
4297.6
1842.41
1316.27
5911.34
2959.93
11658.8
4164.06
8556.62
1680.31
350.043
1173.62
18467.5
15193.6
8417.74
4250.39
3365.98
8867.84
4802.51
6363.01
11205.3
2348.31
6644.94
7548.11
1874.51
3456.48
5238.35
5903.05
5443.34
7518.82
1941.19
4014.31
1457.96
1334.22
5109.97
9738.67
1358.04
3153.77
7426.18
11916.3
1835.93
9697.58
4147.92
3499.17
5989.05
4633.72
13301.1
8400.94
6079.6
11378.8
18787
7413.49
9951.43
5351.78
1815.63
-164.22
2657.66
2544.32
4211.17
92.7087
1244.84
2315.38
3648.76
5282.54
3307.18
4865.55
1885.98
2112.46
14935.8
7099.94
5564.51
1184.33
342.044
1626.16
3069.23
439.911
1468.91
799.261
1140.4
1968.61
1578.84
910.986
2384.7
1479.09
4025.65
6558.58
3991.5
77.8331
2300.07
5679.62
3371.39
6214.93
84.3559
1658.61
494.21
7791.7
5326.15
5846.41
10664.6
835.136
10385.5
8997.97
1821.22
8191.8
5912.17
2053.63
3615.35
2702.53
4328.96
7028.81
3566.48
2990.54
2710.73
5504.75
2924.6
2646.6
5689.53
3949.48
687.442
3608.53
18485.5
7143.63
1471.11
6067.85
2892.42
7482.78
2264.2
4292.49
5216.66
3381.76
5733.68
11167.6
15621.2
5904.99
5244.13
4654.1
6357.64
783.151
957.681
2706.86
1575.61
2456.14
2635.81
8615.32
8873.22
13215.8
7644.71
242.489
6037.45
1700.83
4707.66
13562.4
13455.7
12921.4
5510.12
9308.87
3617.46
5534.57
2626.71
921.256
969.504
4509.84
4368.89
3314.92
3201.38
3821.89
5111.36
20061.2
1423.1
2670.1
9936.89
5875.53
2331.29
1754.5
2295.86
8672.2
14198.5
10466.2
4621.27
10033.8
17333.6
8975.67
4826.25
2137.87
2570.88
1044.53
5154.51
6455.55
5399.72
2073.11
2959.57
4824.19
319.392
1638.47
978.861
2686.93
3111.86
2443.95
13272.9
21811.1
7968.08
8062.37
3901.72
4908.68
891.869
5129.46
5008.87
3543.13
2443.44
5329.7
5422.53
2841.45
306.232
1142.65
1600.89
4115.68
1043.28
6262.81
11025.6
1764.21
1173.92
4139.26
4886.62
7563.6
3790.87
1990.93
1427.09
2085.47
201.949
1679.4
2080.02
3697.36
4362.86
3318.93
1373.85
3459.3
3366.83
8536.01
11396.7
2606.92
1954.7
5811.5
1875.88
3204.84
185.199
4329.63
3853.16
7776.66
19909.3
7895.72
1434.02
3870.07
-266.422
3123.03
3560.14
7107.44
5861.41
9959.82
2113.61
8851.91
13308.6
4063.24
4652.13
51.8737
915.085
1234.37
2872.9
3009.6
2539.72
6968.84
15887.2
11590.8
10010.7
7172.66
1765.53
3128.55
2685.87
6675.97
2136.23
3157.21
2086.94
6670.42
2628.04
2260.31
3701.78
3865.74
10396.5
996.481
1457.55
6189.09
6271.73
5918.35
13074
14852.2
13727.1
5571.81
11980.1
5901.25
3691.75
13418.6
7924.72
6448.07
484.869
3415.65
4778.71
1173.1
4222.25
3669.92
7929.77
5580
5345.49
3840.38
5125.72
1426.01
2655.75
3976.81
3952.09
4286.09
1264.02
9572.2
16828.9
11187.8
9303.56
5625.27
3140.83
4020.31
2960.59
3274.82
5800.16
2530.73
3696.89
1640.74
3045.84
6084.85
4763.72
511.064
435.477
2038.69
1635.07
2744.51
876.838
1594.63
1246.21
812.153
3932.17
1306.34
2605.95
8613.39
3936.3
3463.76
1307.04
5593.2
6100.27
6538.91
8647.83
2106.05
9823.82
5223.42
1342.21
7950.1
5699.51
5465.78
13434.7
7032.34
3211.44
12656.5
18816.7
16837.4
3010.24
2492.82
1664.55
3423.94
4940.3
7199.74
1799.48
2869.76
1500.8
6059.6
8360.52
15029.5
4702.9
2042.11
-73.4886
1313.44
2112.22
1143.76
2916.2
3370.22
6593.93
8281.14
12936.7
7249.74
2177.13
4951.94
3821.95
2240.03
1446.78
247.913
4539.56
6434.88
12239.7
9209.56
8710.39
8812.23
7703.5
12750
3422.07
2771.6
4924.45
10099.4
4753.04
7761.6
2764.54
4655.73
2400.86
2459.2
2330.31
4083.13
4929.73
1488.37
2276.07
7331.57
2148.93
2667.34
1714.74
3298.03
2412.18
4186.21
1339.05
12296.6
7126.13
20823.5
9773.59
749.739
13027.9
1861.79
1361.85
8889.63
5702.43
4006.82
8052.32
12312.6
13660.9
1511.69
2289.2
3476.03
2198.39
772.725
1241.83
370.777
3291.32
2175.83
1981.99
2168.19
8054.08
8300.89
5289.5
947.913
772.293
2841.88
2705.54
5703.52
4983.97
2279.53
4384.98
1269.12
930.86
1821.67
3044.68
3681.65
2030.24
3732.02
7811.39
2639.07
3332.43
2697.39
1135.58
6403.1
2210.45
5657.02
1260.34
566.914
2171.25
1668.73
8027.15
2261.41
1144
1939.31
4960.13
1402.37
7250.81
3818.24
3007.83
1886.25
1763.46
4411.13
5929.92
8466.4
17215.4
3583.64
4921.35
9334.22
9751.08
7101.29
4401.56
5333.03
1851.37
3636.44
4784.13
2969.14
6337.33
6460.55
2492.86
2714.32
1542.12
10000
2448.03
14858.5
8700.43
5597.73
5649.42
1700.56
3208.57
5421.34
1644.11
746.749
3154.85
3121.09
2569.67
2052.2
1851.68
2652.67
11462.3
5877.88
9802.46
3563.08
7191.8
3961.66
1610.26
5482.24
9499.93
15886.6
17208.8
292.726
6342.83
4585.94
8762.36
22439.7
9921.05
1481.81
6974.28
3105.05
3439.02
10024.2
9830.14
4133.03
5858.32
11852.5
2321.08
21727.8
11988.9
9920.28
7722.54
12118.9
4584.94
6849.57
2333.09
5838.62
3511.06
3109.73
1847.46
6785.36
7953.64
2585.41
4140.28
2517.44
2214.48
3629.95
4424.97
573.518
7305.68
11490.6
6006.35
4369.06
4640.99
1504.95
986.417
9612.38
3056.95
1034.25
4501.37
4307.47
8771.35
11179.4
4613.2
6327.34
3848
9773.86
4097.4
1292.93
7957.81
9207.95
5066.24
2936.61
719.435
4189.81
-275.614
432.84
3823.44
4425.36
1667.41
3683.43
2259.47
1995.04
3644.44
624.271
6087.23
8000.55
12319.5
7356.99
4986.78
1831.98
9061.18
731.438
886.06
1183.91
3085.92
3685.71
308.966
2586.32
2886.78
2700.3
9734.96
8725.8
4475.75
14045.6
8474.17
10912
6622.86
3972.12
3396.62
5852.42
3798.44
2145.43
5802.67
16975.1
3200.03
6281.35
6555.25
2902.25
1530.65
8426.65
5569.78
10728.6
4672.42
6014.29
2824.51
1759.76
1725.91
2040.01
11800.5
12687.6
5005.68
5153.16
4733.91
864.961
4086.6
8577.65
1334.04
2581.22
5724.97
2232.68
6184.95
1102.35
625.425
1002.72
4162.14
4589.54
6418.26
2325.59
2212.17
726.288
9723.69
6328.75
1903.99
7307.68
2725.22
3063.9
4723.89
14909.2
7380.14
1172.33
285.465
574.733
1386.48
1460.05
-312.64
1653.73
7710.02
1441.64
2150.84
1589.39
1400.41
4031.39
1942.03
6781.57
10739.5
15991.9
12990.7
10699.3
17006.6
5624.19
1379.73
1915.64
11127.3
5772.89
1778.88
9049.17
2079.87
705.654
2823.24
9151.77
6822.94
1897.75
1294.1
2115.29
4207.11
6128.31
11205.7
19769.3
9680.1
11784.1
4271.04
6222.12
4583.71
1942.93
4892.33
3693.95
5055.04
4257.15
2382.88
6690.4
5985.31
9060.18
4187
7027.36
5550.27
6175.19
3255.96
991.189
3739.63
8172.3
7708.25
2350.96
568.262
875.93
4104.21
7116.53
9487.63
1312.09
7148.91
5387.55
9484.14
5890.05
6523.42
4091.66
1486.78
7583.9
12587.8
9532.46
3419.58
2585.26
6131.5
2110.93
3657.86
3506.45
10095.9
7901.16
9040.73
5332.59
6351.32
10372.4
8187.42
4397.53
11292.2
15546.6
15769.1
3426.58
670.981
6520.27
462.699
2030.57
2723.43
12011.5
6100.36
1257.04
7805.76
1068.71
12877.7
10738.5
11706.7
8193.14
589.24
5444.01
7182.21
3615.61
2178.23
4841.53
4318.41
10568.7
3460.9
2011.48
3510.25
2209.22
8611.23
13247.1
6162.08
3769.14
1385.14
6766.47
11841.3
523.919
16109.9
5774.05
4350.56
761.315
3221.63
4986.38
2943.88
6623.42
5075.04
1834.42
4333.6
1306.97
3151.35
1533.4
1550.81
5442.26
3842.23
1129.48
3044.78
2311.67
2263.73
6391.82
9603.61
3413.4
5493.16
14748.3
11170.6
16004.6
6915.84
5014.93
1556.41
611.091
5324.41
2155.5
4468.91
7733.59
4711.7
11132.8
2720.4
5548.26
4153.48
4141.08
8889.78
6321.94
3649.37
2048.97
2657.01
1709.03
1616.32
422.789
2819.44
3824.97
3940.13
2708.58
1194.84
1926.49
2369.16
8696.8
6005.7
8540.43
9253.64
9768.9
7450.75
178.551
1198.45
1739.14
3151.31
2024.19
2215.84
5856.14
-87.9701
4510.06
6664.05
731.776
5191.17
8305.57
5550.14
7877.91
10869.4
10737.6
16614.7
6559.3
6623.67
6172.17
1675
5228.3
12094.8
14813.5
6729.38
7697.55
2630.75
1249.65
1195.8
4215.41
2126.44
2611.43
3471.89
277.306
1002.17
7774.69
8478.01
1784.98
241.463
2356.79
3079.91
2979.52
913.462
1526.07
6843.58
461.219
1335.26
645.554
2096.04
1282.6
6087.59
6312.95
15075
11104.5
3066.14
3434.64
2280.01
1542.76
556.047
2859.39
2168.63
13624
4143.37
2943.72
2125.31
6611.16
5808.59
1739.3
12027.5
10268.6
7359.36
13650.3
20456.9
31583.6
27253.1
15246.1
16675.1
4995.76
12881.5
13740.4
5495.01
8546.63
3863.74
5126.18
8817.74
9378.98
2532.24
847.001
3836.46
8642.5
9134.55
2142.39
3485.14
2810.16
7211.73
5523.82
11964.4
4258.05
6862.85
15373.7
12158.8
783.077
6778.54
9993.99
9161.03
6425.36
15964.8
13654.9
6293.78
1316.42
3998.84
988.534
1468.32
2337.24
6531.82
3254.17
7313.67
9884.4
8233.61
1639.88
7752.12
4612.02
7175.61
6117.48
2235.83
5181.47
2818.74
9010.52
7691.32
7887.76
13944.5
12341.3
1658.7
5663.67
2153.11
4957.61
2387.9
2205.9
2234.16
4482.59
3819.67
4035.43
1050.81
5425.27
2709.94
5950.16
1938.18
5138.28
1682.69
1457.92
7928.69
5217.94
6620.39
10644.1
10988.6
14276.3
7737.08
6989.21
8265.98
3361.4
1746.21
4407.54
2010.1
4530.86
6422.42
6505.45
2226.05
5072.7
6006.95
3557.5
2849.99
3969.57
1338.56
4943.98
4464
7446.58
6938.51
1777.23
1276.81
3923.42
4150.54
3997.08
4704.95
13289.1
18567.7
19514.8
26541.7
26439
18489.6
19662.6
11632.8
7581.14
1877.87
6282.56
1126
10085.8
3294.34
3553.92
2065.63
2804
3443.85
2072.98
1261.42
4629.61
4149.59
3918.57
5916.67
8615.77
7069.69
1128.98
714.216
9684.07
4954.18
862.239
4947.74
14189.3
10575.2
808.645
1629.16
3665.87
2748.08
7672.14
7411.47
3246.83
164.615
8120.93
2169.88
2239.77
8088.72
5050.42
268.719
1733.03
4316.51
7879.01
6119.33
5967.32
2807.28
5192.16
3012.9
4291.57
385.182
3334.15
1574.8
2667.59
1350.1
3129.39
10441
6366.92
7151.26
8820.47
1162.55
2707.94
4405.49
4433.81
14640.3
3671.52
8575.59
2266.89
10210.6
8260.96
14552.4
7856.94
16263.9
8443.98
2918.98
915.264
1648.46
4402.92
2151.87
2340.22
866.75
2530.56
2748.01
3770.87
4953.86
6794.25
6830.32
1817.98
4096.72
6674
1360.34
6706.26
3004.44
7997.63
10688.4
2965.77
9528.16
12847.9
11519.6
10060.5
13669.9
10747.3
6782.31
14418.6
12015.1
20372.3
20786.4
5155.07
4170.44
6599.59
2534.72
5603.54
4128.11
6965.34
4710.37
1194.02
10287.4
17608.6
12938.3
8552.17
6527.43
4418.09
12389.4
7353.49
7508.93
19076.2
4168.71
9792.68
4441.16
1814.94
1917.67
3846.9
1377.9
2154.26
6523.43
8872.68
8929
6211.41
8896.94
11137.4
13161.4
10227.9
9056.4
17284.6
7310.61
2610.12
2925.02
3801.17
545.663
1143.37
2783.07
1308.9
1478.86
4999.82
5631.09
2184.8
1479.52
2091.62
972.653
6535.36
11783.1
9629.71
6484.25
7916.05
2600.37
8822.74
2924.04
8152.08
7563.36
3343.16
3756.83
5654.78
8844.07
2022.52
1104.59
5592.76
2651.2
2571.77
4150.17
5533.98
4585.65
1358.49
2833.61
3005.51
2715.05
3536.46
2716.01
13966.7
10992.8
6097.23
3668.07
4438.84
4236.24
1386.5
1608.11
3417.6
1274.47
3367.07
2855.49
3697.9
2826.11
2363.1
4327.83
3317.17
1037.76
3474.26
5502.76
1509.01
6816.77
2708.55
3316.02
2581.67
224.227
5843.61
5711.59
7073.36
6607.62
2450.28
1561.82
3793.01
5118.23
1831.41
1592.12
4307.92
2335.4
2227.72
4703.77
2733.15
4498.72
2527.46
3192.86
4702.82
7250.88
8410.76
6812.34
3430.56
12226.4
18848.5
3444.6
1780.08
4159.87
8358.78
8177.82
9286.38
4917.03
6056.94
11599.8
4634.62
3843.89
3026.69
2419.85
5601.26
2710.65
2726.43
4319.06
9195.36
1727.11
7792.73
3121.75
8657.53
7107.6
6939.84
1782.08
11430
2039.39
4292.74
5038.74
15495.9
10860.2
6729.8
916.891
2611.59
252.986
4527.41
6499.28
5015.53
8995.6
11237.6
2475.22
5527.22
5526.89
2766.22
2683.63
2630.07
3823.66
425.533
1618.54
4764.27
8182.69
4454.66
10980.3
13720.8
7457.15
4293.79
1600.48
614.31
13438.7
8711.15
2652.31
11152.2
8686.43
4363.96
6657.38
1782.86
2156.11
781.035
8549.47
6015.01
4643.54
13984.2
3389.72
1576.2
2699.86
7310.41
4614.51
5024.14
2089.32
3051.37
10041.9
11009.2
10787.1
9277.09
7518.76
5926.51
10349.9
6554.76
3575.98
11619.4
7946.04
3010.06
2467.31
3496.38
2539.82
3194.83
11495.4
22124
13636.5
26011.9
19599
26570.4
13281.1
2590.82
1975.21
2943.16
2008.36
6393.92
2055.41
2741
1789.99
4888.07
3931.34
9584.76
11601.8
3243.95
1058.66
8260.44
8412.52
814.215
7566.2
1406.22
4182.83
2932.89
956.822
410.281
1253.51
1422.95
4112.27
3123.84
4973.32
5578.73
3755.72
2330.51
761.22
5627.51
4338.89
4453.77
6618.21
3422.87
2685
12840.6
1305.15
2502.04
7561.18
15084.5
11067.9
2013.86
1743.32
2170.56
5954.51
2958.07
1751.3
3752.33
9228.25
19459.4
25656.1
20388.8
16870.1
2127.47
27104.7
16128.2
8918.41
10090.2
11413.9
17890.8
6786.1
4648.03
1834.3
4283.48
1261.36
7519.04
5623.04
8642.65
6503.36
11279.5
3432.48
7467.48
4404.65
4036.71
3664.64
13155.9
4910.81
6189.12
5686.63
1829.64
6378.21
6465.95
4587.98
8592.41
6561.37
10998.5
4135.96
1914.73
7117.62
7356.55
3158.24
4066.14
2886.18
2155.26
11704.4
14951.6
15828.1
13386.4
14930.2
7426.35
9041.42
32598
10820.7
9665.96
11045.1
10395.2
20271.1
4814.17
7144.87
2548.03
3239.79
3526.05
2359.12
70.9694
1665.83
5162.42
4124.38
4626.61
1581.24
626.336
2897.48
3920.4
43.5707
2042.14
2923.52
2215.9
5512.5
4462.11
3470.92
5645.35
6958.58
7727.59
6615.72
12167
4244.79
3321.06
1086.66
3244.22
5263.17
5258.57
2092.85
3254.19
2793.39
2232.09
4563.24
1066.39
13804.9
3508.46
1442.58
896.972
73.4786
3933.39
5853.29
1607.23
1179.03
6532.95
5844.68
11346.2
2647.69
4622.82
4611.53
8278.45
590.576
8961.13
6057.15
9359.32
5029.62
3128.45
3553.82
3112.58
2404.58
-110.518
3692.49
4034.21
4891.56
2315.47
405.698
8106.21
11834.6
6983.18
5710.09
600.38
3215.18
646.507
3429.84
462.335
6804.98
6581.23
3137.99
736.671
2628.08
5984.19
9333.69
2283.88
6499.84
4291.98
6858.01
1952.79
8256.04
473.858
6834.97
11621.4
11153.9
4897
3686.35
13433.6
11903.5
11380.1
14579.3
8104.22
8329.89
8433.22
2313.32
3351.89
5608.74
8258.43
4349.74
5319.29
12788.8
3080.08
2717.09
874.579
2008.03
4629.62
7134.66
1335.4
4510.14
882.215
3228.63
8430.03
830.481
3487.08
5137.14
2133.41
3712.71
1611.11
1538.18
4462.07
4675.75
2133.33
1356.97
2313.51
3448.56
3881.85
1143.8
2859.78
891.762
11065.3
13216.6
2512.26
5945.68
3499.33
5470.13
5101.95
8241.56
2023.23
4157.33
5447.37
5045.72
5894.03
12137
3238.99
9272.84
16288.9
19860.8
8840.34
4977.7
4696.44
10453.8
12496.8
14589
4878.52
3596.09
19392
20212.7
5918.83
4902.62
2280.41
6190.79
1592.1
8507.46
1390.79
6731.1
10270.3
7864.55
3417.46
1665.65
1795.19
2354.06
1506.99
3549.52
2407.32
4092.28
5012.39
14983.8
12702.3
7022.2
2288.68
3526.77
7098.15
7382.35
4177.18
5606.17
7278.01
2948.27
6776.35
5944.68
6517.81
5200.93
7081.29
6655.79
3586.7
2185.55
7880.52
3103.09
6131.96
6778.43
4882.13
10478.3
28812.1
13394.1
8463.57
5308.3
689.071
-97.3042
4633.05
6021.23
9157.29
5941.12
10159.5
2368.22
5653.24
21127.2
8448.81
6779.55
8010.26
1663.96
395.263
1260.16
10050.2
11471.9
11061.9
5023.59
13854
6050.39
2980.71
4158.41
4556.22
4527.45
236.032
7773.97
7347.06
10879.5
4828.12
3283.4
1236.68
3501.76
3562.78
2224.54
-503.559
-279.481
6609.3
5571.02
14666.6
9408.44
8165.15
2106.08
2346.26
3026.3
2451.64
1609.1
2132.88
2084.97
2008.95
646.857
842.055
4472.09
7423.91
2123.17
1327.84
2408.49
12277.6
8503.63
458.327
294.264
414.314
5243.56
1788.23
10178.4
3525.62
9540.94
14607.9
2220.24
4818.52
3434.08
8652.17
5785.25
5481.65
4431.5
6105.71
10680
2389.59
5144.54
2954.4
5704.19
2320.27
3523.56
13409.9
7939.86
2775.45
7142.78
5855.63
1179.57
2184.25
2385.15
1955.94
1966.38
379.825
4657.62
1823.36
1341.25
2896.81
1692.74
257.351
215.843
3458.91
4088.72
2011.39
3232.7
463.248
956.117
380.347
2760.84
1010.23
217.424
5815.74
3808.84
15469.2
3237.58
3271.68
255.906
2075.38
979.271
8734.41
12959
18841
19393.4
3401.01
2602.24
2507.43
5458.23
8532.72
1538.1
5929.41
1125.51
1876.46
11972.6
6520.88
17220.4
21784.1
7996.65
4883.24
1849.11
4883.22
5900.21
3812.87
1988.94
3632.22
1024.51
8881.89
3592.9
554.156
3531.49
995.585
4180.41
11923.1
8338.86
3233.94
8828.23
4474.35
2381.46
7141.9
5431.55
4592.18
5797.11
1261.75
-347.07
5870.92
8582.86
5475.34
3597.47
2073.47
1666.47
368.432
1919.18
11489.1
8477.95
2731.91
291.164
1918.17
3512.93
3743.45
2845.01
1446.21
3076.51
4000.74
1533.05
1500.63
463.512
1250.74
7464.61
6083.58
3246.72
2695.74
1584.96
11419.3
4576.27
1861.81
8262.27
2772.5
6208.12
6833.31
3971.64
4875.13
6209.16
1016.72
5254.23
1444.14
13821.5
9128.86
5273.74
249.938
485.354
6186.97
4306.93
1985.56
6897.76
4265.02
3477.12
11077.5
11028.8
9082.95
1492.85
1716.03
5387.4
4370.98
10723.6
3500.5
1242.37
5694.53
7728.73
23534.4
18735.8
4736.12
5421.36
1465.7
1161.77
660.079
5534.1
10936.4
5881.19
1654.54
4587.28
4518.67
717.363
1038.84
6580.25
13201.7
2432
103.174
640.873
1284.9
853.959
6819.94
3747.6
551.223
1600.99
3026.43
4720.53
2698.02
2092.58
4329.83
5907.24
2811.95
12250.4
4380.07
5560.41
9624.14
7721.57
3233.02
12417.5
14684.5
21241.9
26177
12266
8734.2
4767.56
4128.88
6448.64
2234.73
4329.31
3525.21
10449.3
2565.32
3457.43
2440.95
7237.08
18749.4
6647.6
4918.56
8788.2
5736.39
2324.7
3413.01
4598.86
1399.95
1235.12
2619.81
11132.9
9582.85
10408.4
2726.19
6392.36
11567.6
10575.9
4702.58
6248.43
2663.7
2171.62
5908.07
11337.4
4617.12
6102.56
9101.57
10970
16290
12541.5
6800.87
12797.2
17264
14722.5
10764.4
11464.7
10037.6
3894.17
6595.99
8698.73
3638.01
3900.36
4713.49
2746.97
4088.56
3352.53
9694.89
7728.32
3004.68
2000.49
9423.67
8859.99
1362.72
4352.74
1315.31
1001.26
4354.76
7116
8366.83
5187.64
8998.82
2523.18
5156.85
7806.68
3128.21
836.535
1003.31
5890.94
5625.83
1786.1
4801.36
2341.58
1344.95
4697.18
12715
3339.53
977.207
2816.52
2399.77
5232.86
3217.48
4790.68
5420.37
2352.27
2637.7
2457.54
3684.25
5351.31
8072.48
7428.68
9992.49
13372.4
4364.66
2083.63
3885.64
3367.32
2108.78
2409.81
3854.37
5947.28
3062.13
1332.24
9787.78
9850.18
4109.43
6124.01
1355.89
1931.64
3012.26
3187.75
8221.13
3525.62
7760.75
10499.2
7881.04
9084.94
10437.2
2537.08
5306.63
10397.5
19440.9
16819.8
18539.5
10303.2
8254.3
5646.05
6867.07
8212.13
3325.81
705.526
3412.2
6109.54
4740.09
4963.08
3629.25
443.186
8945.63
5633.44
13274.9
6518.36
6951.43
1314.25
4848.32
17730.3
8233.15
1243.51
2365.57
1299.37
3117.9
837.632
2218.16
6017.37
11270.2
18499.3
2009.27
1598.26
1150.14
7352.65
2148.82
1175.96
969.619
2433.83
10909.5
14203.4
9339.52
7317.36
7768.4
7652.52
7879.62
4797.62
3833.06
3604.18
3636.92
1648.21
2437.39
277.55
5736.11
2962.23
3199.83
4937.38
7498.03
3944.15
8024.24
2418.67
6953.05
4576.82
1006.29
3890.63
4155.09
4055
3895.43
1357.93
1468.62
3066.27
12156.8
4625.74
1752.44
3607.8
1768.22
3058.66
4824.41
1301.79
718.805
4380.68
2483.73
8736.25
1016.53
5405.42
9581.05
9467.93
9227.62
17900.8
22605.9
95.9848
2179.33
9576.31
5281.33
7662.71
2805.21
1996.47
9539.96
2601.79
1288.04
4534.58
1092.23
827.199
3404.87
1934.71
5101.12
3537.54
2171.59
3317.16
767.487
3750.59
8820.18
3862.39
10066.6
2485.55
2550.84
876.047
132.349
481.115
2685.59
5617.25
6292.03
14652.9
9970.33
923.262
8159.85
3052.16
2107.86
3746.65
5195.45
12932.4
9900.23
2698.53
11364.6
7915.52
11689
13019.9
6524.08
9985.6
2806.82
324.996
5147.36
1863.59
13938.1
13675.1
5579.22
5262.29
10862.7
2324.65
8242.48
1361.98
4032.89
5624.52
8017.78
9989.12
4125.72
4742.6
5531.16
1034.43
3221.05
2925.24
3028.93
1662.01
5666.47
412.538
2040.92
15564
9862.71
10546.8
300.589
2829.42
6151.09
3042.47
4121.65
2500.21
4395.43
585.163
3845.01
12759.4
2550.84
8885.27
4677.14
4499.13
1968.36
526.496
1626.5
1045
7237.29
2168.61
698.696
2609.26
4620.44
733.909
1403.91
5341.58
4346.85
10864.8
1538.53
2297.49
1282.53
3853.97
2728.41
-285.978
2629.81
870.982
4899.77
1982.79
4367.4
3836.09
10531.1
2848.87
6165.58
1163.02
6759.29
10566.4
9776.56
4168.31
7098.27
6881.66
3223.3
9910.03
11956.2
11015.6
13956.8
934.737
6087.71
17534.3
15101.8
8767.1
16527.4
9347.54
8457.37
2935.59
1917.42
3374.91
4208.13
2313.6
1448.79
6638.49
4598.04
3860.52
3651.23
7751.61
-539.884
3729.32
6206.53
9801.66
2376.24
6844.77
15328.4
4320.63
1982.93
3414.14
7163.25
15650.2
11011.5
7228.12
9421.94
15712.8
9016.21
5226.32
7598.67
7947.73
4386.6
8460.93
4387.59
5100.58
8328.22
7420.21
6737.73
3944.59
14359.8
15606.6
17849.7
2950.99
6139.83
3476.27
6503.53
6724.85
3940.61
5949.6
3629.36
3744.81
416.018
3067.43
438.017
2412.51
3464.73
1122.88
4953.25
4399.52
1550.48
559.436
1532.35
5436.09
3811.84
446.537
2342.5
2158.05
3495.87
4321.1
1084
1514.75
4958.36
10958.3
10436.2
3346.18
7940.96
6858.56
2893.69
2732.07
19460.1
14737.2
7545.09
7936.62
7829.42
3047.45
1667.95
8436.23
1746.85
2905.76
2626.34
3192.65
1438.47
2497.88
2669.94
5857.09
1033.75
3451.22
3414.35
-69.3497
8169.49
6588.03
10697.8
4296.6
4712.28
5075.21
1914.94
8559.51
3636.3
1873.26
3573.35
92.4778
3452.56
3456.77
5095.23
-405.375
3549.6
3401.69
9026.28
1220.04
3427.41
4725.94
7935.31
3445.14
1051.5
609.544
4489.08
11194.1
7494.91
9226.23
6038.5
4669.95
7781.78
1182.99
2947.76
1215.95
6980.84
1516.14
9405.53
3918.59
7562.53
7935.62
10417
5168.27
10151.7
6960.31
3555.2
3043.38
5954.46
3010.39
1718.88
6025.7
4678.24
9086.01
5216.3
7460.01
3458.73
5570.17
1090.96
11857
13411.6
6391.43
5443.96
9260.88
11548
663.86
3162.19
939.482
2475.66
1844.28
7585
2896.03
3915.35
2269.05
1770.19
2902.27
3539.98
1557.79
4730.64
2928.61
9616.57
960.318
3623.29
9259.13
5352.22
15559.1
7708.67
5837.35
6452.21
5890.36
5289.51
7111.55
11579.4
6757.31
1675.73
4466.54
1801.78
5847.43
8358.39
5158.46
5025.91
3097.42
8977.99
2738.92
15852.7
17904.5
10089.2
2631.94
3900.5
7554.47
5793.71
182.217
2802.79
5781.65
3398.32
611.246
1122.65
3299.28
4872.13
3622.17
6474.73
6957.45
713.08
2239.28
1846.5
8018.08
274.458
6918.48
1617.26
338.826
1908.76
3728.45
8640.1
1713.65
3189.09
4978.46
6412.22
3342.88
7523.8
13943.8
1593.46
3020.1
2794.62
15159.9
3856.56
6321.94
6536.76
5256.79
13986.1
9131.05
2359.7
4031.66
1268.2
2345.97
-35.3141
367.551
4398.51
1447.68
1628.08
3841.6
2739.21
4376.03
7444.45
4189.88
338.01
3762.17
3779.08
5486.16
10967.7
2452.51
340.744
1004.83
3748.46
1414.43
2412.09
3140.73
2268.67
9361.33
2589.78
5409.75
2328.98
9013.46
5127.8
9515.17
9696.81
22782.7
19815
31107.3
8770.37
3978.26
3992.91
26639.9
12732.5
3173.77
5672.62
2393.73
2977.07
7191.06
1114.17
11149.4
5789.88
6886.26
9842.13
3989.12
2666.64
2323.05
1077.67
3748.97
11522.9
6408.39
2937.84
1453.8
2116.12
12203.7
4086.31
8863.88
8415.16
8969.91
11035.1
10477.2
9369
4609.09
5512.75
5331.87
2696.66
1097.33
7296.55
10247.6
13473
6997.13
6469.08
2739.99
6815.94
1586.97
2990.77
4497.51
8542.89
5042.91
2972.22
2263.02
5725.29
2548.37
1716.69
985.321
2461.55
2472.44
1649.83
1921.85
2038.72
4804.57
3627.76
824.345
8397.84
10422.1
7997.15
3897.84
524.764
6967.09
6321.79
5239.2
10010.3
5724.47
2137.55
3521.11
1549.22
11746.7
3100.83
4337.88
5443.83
9049.66
5135.54
1586.61
560.005
5044.08
7913.93
2311.41
2847.58
4419.29
3997.11
4322.83
7413.48
13379.9
9778.86
1487.07
2645.49
7797
4397.88
12661.4
9427.9
6417.14
2981.07
2939.44
2115.44
7399.39
5410.47
3315.51
723.451
5996.78
5328.5
1514.57
5189.7
1149.36
577.828
3859.04
6342.62
4047.42
3887.64
3067.88
1751.26
1278.43
1020.58
5485.27
7399.71
11608.3
2389.82
6259.13
7765.23
5506.78
1380.62
18801.6
9206.34
4141.91
2140.12
3199.97
11072.9
3484.35
2692.89
2587.96
3492.22
7708.18
-229.395
4581.89
5400.73
10492.8
5296.99
7353.24
11069.4
11757.2
18773.6
1049.05
1061.27
2642.54
609.139
3111.28
3013.42
5270.63
2293.67
6554.21
1382.5
3509.56
1362.9
3800.53
2308.9
2606.11
4212.33
13171.7
10534.4
2845.31
530.872
7327.48
26851.5
12921.4
7471.61
961.757
11307.4
3342.77
2402.58
5637.58
1777.91
7712.13
20960.9
26217.3
4797.7
1339.72
4361.94
237.853
234.934
9164.85
3949.89
2309.34
761.949
1126.33
2292.89
10937.6
10280.7
6326.68
2245.18
1486.03
1437.02
3943.62
7718.79
4329.83
11809.6
11855.4
3157.22
3704.34
3690.92
4071.98
2969.99
6335.35
1124.4
1035.84
3328.94
5838.7
10881.9
3719.96
5145.69
877.116
11328.6
8279.52
10556.4
10755.8
2493.79
3783.2
9632.51
2819.72
8091.18
3750.17
3269.35
893.144
2063.97
5941.85
5562.7
4618.63
1218.79
7540.67
5097.33
2964.39
3859.36
656.297
7864.05
7595.2
11750.7
7570.98
2533.21
7082.95
3013.46
5714.67
3296.4
8757.29
9959.85
5020.46
942.741
4795.02
685.33
3215.66
2591.57
5242.42
1380.99
3913.74
3005.87
5132.61
11229.6
14681.2
12173
2386.17
4170.94
6054.13
9492.78
2285.11
6345.27
3405.44
2438.11
5102.33
5348.56
6079.24
9260.11
2895.97
6680.62
13016.1
3516.76
395.499
4165.21
10861.8
9032.42
712.269
1895.21
22177.8
20507.6
27029.4
7497.42
4356.18
1754.03
2015.91
286.249
2445.42
9839.59
318.358
5890.6
1886.67
2155.54
-2.77019
2591.97
9487.02
10979.8
4455.83
5655.81
3502.37
8239.11
1212.1
3775.98
4299.73
9167.38
1285.59
1823.97
3693.93
2212.45
1070.93
3578.68
9743.39
8922.82
7055.74
6682.03
5972.2
8722.42
3265.64
3910.76
694.968
4042.72
4875.63
1478.24
2200.22
3820.4
3328.69
1977.72
1555.81
4478.16
3730.33
2382.39
5310.99
12573.6
5520.31
1458.18
4394.08
2946.76
4606.03
2099.83
2170.29
4605.91
1247.41
2875.28
922.807
3194.46
2900.81
3586.27
9043.68
920.168
1215.05
4408.33
1073.96
4555.04
4264.41
3856.43
846.936
2122.11
2003.33
1877.75
2243.18
1074.47
1261.28
2434.97
7693.13
6204.6
7770.87
10605.4
3285.86
1960.75
2310.26
4626.76
6442.67
4113.02
6100.01
24.6272
3743.75
9047.39
10055.1
4175.96
1672.44
4173.63
7905.18
3603.51
-86.0823
3852.02
4141.14
5855.33
6577.14
1327.06
5822.26
2166.05
813.617
6462.98
8693.67
2894.88
1405.54
11049.8
2897.89
9462.65
11005.7
4221.23
3770.78
7241.52
3911.82
368.642
8973.25
11973.2
8119.86
4707.68
1931.01
5494.64
7660.04
8839.83
7725.35
8507.76
4943.63
5152.34
4300
5794.89
3731.71
7311.89
4786.92
2622.81
2979.09
583.533
2621.33
1329.11
5570.77
5716.96
2592.84
519.881
502.443
3603.32
19889.2
26564.8
20175
9733.98
8254.46
6496.12
5148.81
5938.56
3593.87
2671.42
3372.58
2046.04
1410.64
1651.48
1043.73
6769.78
495.423
2970.96
4748.37
4106.08
10107.1
13002.1
6778.34
5946.03
4268.55
3337.19
2773.22
1629.1
1033.27
4373.9
8052.09
7488.8
18362.3
24176.1
29355.5
23147.6
17319.4
11805.5
8016.4
14522.3
9398.23
7463.7
3957.41
8653.6
3931.02
4782.59
2780.41
4626.62
1076.13
5720.58
1880.43
5792.57
9562.34
4816.86
4070.16
890.037
4793.28
11086.8
9895.97
3528.43
10173.6
13093.5
9378.46
10947.8
5693.17
10173.5
6936.13
13034.2
11835.2
9101.72
2956.61
4532.7
2058.75
2132.18
2283.95
3240.52
892.708
7118.66
3168.4
2524.78
6220.98
2956.06
6441.12
3708.01
5394.09
1619.12
5441.22
3320.47
2000.95
1942.19
3814.81
4185.72
1148.28
3282.12
4180.05
711.92
2571.72
458.195
13858.9
3159.06
7010.41
3799.72
3453.72
7190.27
1438.68
2200.84
49.1119
1294.21
5921.74
8663.26
11077.6
6108.22
3768.85
3611.63
2761.34
2026.59
1912.56
1707.63
2129.15
6013.19
8562.43
5733.71
2343.57
3179.27
8290.11
2061.19
3663.37
2168.08
6728.85
4416.37
5152.36
5057.2
4860.56
3693.72
4472.81
3094.21
157.749
5423.49
7690.74
768.931
6507.1
1910.44
2073.41
1445.73
986.815
3519.4
2538.62
3579.02
5816.28
6024.06
5753.86
7684.83
2070.11
2279.67
1136.65
4790.7
2467.88
4768.25
5032.32
3002.57
3805.02
5498.06
5846.41
7339.77
6740.51
3299.89
13636
5466.77
3337.14
14462.7
3998.19
5891.45
4745.12
12520.1
2398.11
3738.51
7363.57
6889.03
2255.66
6653.65
10932.3
16001.9
6856.45
364.109
1109.6
2344.13
522.446
1701.97
2050.06
1760.26
1771.41
1021.61
1282.11
3724.7
6075.56
17434.9
2723.47
3838.83
2389.88
7986.44
725.936
674.408
7776.27
118.952
1001.09
1074.79
4263.42
2028.38
2900.69
7633.18
28492.1
17868.7
13849.5
10120.2
6471.06
3433.26
2208.7
493.357
2785.98
3155.16
3182.08
4150.1
4528.93
11924.4
772.055
3722.08
1409.6
3944.97
4251.98
7561.66
5453.37
2408.26
5996.45
1606.88
4190.69
4321.05
1260.85
5005.46
8464.99
7951.41
2178.7
1456.94
9594.22
7273.28
14578.2
2190.02
2428.9
2786.4
4631.36
4972.25
798.824
2365.57
4169.58
15740.6
642.118
8070.39
5215.49
5051.47
1347.44
393.883
1331.56
1337.79
-411.306
8368.15
5976.56
3912.12
5310.34
1869.17
4023.71
1892.16
-524.002
10789.1
9970.49
10414.7
2592.48
8526.04
8983.69
6944.44
5673.5
6469.36
274.472
2079.49
1062.65
2175.79
11726.5
5997.55
5720.03
10531.3
4352
6492.33
2822.59
6796.88
2789.03
4314.95
1909.83
4170.26
984.639
2965.89
7454.62
8792.7
2977.2
3003
2285.95
2985.42
2204.26
4985.04
1249.94
2125.2
1059.82
1122.45
1704.96
5317.14
9008.36
13381.1
5353.4
17510.5
9120.39
24517.8
32142.4
15237.5
13301.1
13254.2
5027.41
4136.58
5993.82
8364.34
3226.07
3965.92
22315.2
39987.5
19400.3
3039.13
5330.76
8460.66
3212.24
4199.25
1901.25
6428.93
3351.2
5884.01
6599.03
5315.88
2001.79
1827.72
2904.58
3886.23
1330.8
8300.33
5766.85
2009.2
9386.04
2479.8
6078.88
7472.27
1523.67
4491.63
8835.76
9088.94
9275.8
7076.65
7990.05
3790.18
8136.11
10180.5
2287.3
6455.65
4020.58
5334.9
6663.29
2843.34
5304.61
2217.86
11256.7
7583.64
8836.73
11108
5231.11
11759.5
7740.66
1487.45
1182.33
12408.7
7887.83
8662.86
9096.24
16971.7
8064.15
11165.2
4960.99
7710.75
2638.47
7732.76
9993.72
4981.5
1769.16
7323.21
10047.8
3178.57
2130.85
560.211
7711.65
29128.7
10688.1
4447.96
3727.35
2562.66
412.019
6535.6
3416.03
5090.25
2316.58
2714.1
3101.53
858.996
1698.42
3314.06
2183.97
964.032
1723.38
1589.88
11057
9880.49
10008.6
2381.78
1920.46
7537.17
5473.18
8192.31
5723.51
4003.86
5560.7
-4.51418
4276.13
785.393
4555.41
5840.78
2636.93
6509.29
1678.37
991.405
2460.19
2182.64
3635.21
4085.79
3341.56
6090.51
22157.2
23846.3
18904
17447.3
13980.7
8013.96
1175.38
4009.36
16008.6
8031.43
16018.3
10234.3
4910.15
4328.49
4082.97
795.909
7455.83
1078.2
3064.83
8057.24
1465.97
1355.63
1292.81
3677.5
5905.06
5966.68
3365.99
7130.9
8196.87
10905.9
14876.6
14625.8
6142.94
5309.96
7411.83
2515.18
3038.88
4411.93
1728.39
1010.69
6513.47
4193.18
3232.12
3676.28
12332
12992.2
10766.2
9576.29
8922.99
5230.04
7260.04
3133.95
6749.88
10298
3697.06
2613.83
1933.34
635.996
3494.15
3025.59
3597.57
5310.96
3903.26
5066.27
12199.5
6858.26
7830.41
6886.06
3176.78
1160.62
1254.28
4137.63
5545.65
947.751
823.233
2891.91
6606.2
6877.91
1062.88
836.326
2855.19
12127.1
4761.26
2022.97
873.588
1196.96
368.246
5060.92
691.067
2442.95
4471.2
6536.75
2310.66
7228.4
2767.56
550.75
1375.04
5526.63
10999.3
755.38
244.548
4071.53
4451.91
12061.5
12520.2
11057.5
3177.23
5862.84
2800.06
2444.61
2544.39
1487.74
-120.792
2546.8
6715.92
2546.95
3837.26
8210.82
6264.95
1226.85
2120.48
88.4215
2339.07
752.858
1431.13
6631.4
12384.7
4294.06
4258.77
3155.33
2647.81
25.9214
1847.86
27393.5
20510.8
10930.7
549.517
7791.01
11258.9
10153.7
14676.2
9254.52
12545.7
4116.05
6251.23
3709.47
2407.64
5336.27
589.373
4415.11
4342.06
5692.61
2151.4
3609.63
3559.98
5247.71
4400.99
2062.17
4382.97
2182.74
1004.07
918.902
9273.29
9956.8
21099.7
24884.9
11428
11721.8
9027.05
6067.84
9478.66
6103.43
8451.4
843.035
1938.4
8142.31
10450
1290.72
3030.08
5911.3
2478.66
10776.7
5608.1
2440.67
6888.39
6254.37
1238.57
1820.9
5809.5
1079.29
396.561
2935.98
5605.61
5448.96
14881.5
11538.6
6935.14
8551.84
6297.86
2575.5
1579.56
2099.15
8625.97
21668.3
15600
5776.16
3054.87
3033.47
5290.33
8616.64
2482.87
4980.8
3962.86
-390.597
5048.11
964.65
1029.14
2864.94
80.4014
-129.311
3431.45
3927.3
3079.82
425.456
1979.6
5424.6
6829.62
6026.86
4123.5
7707.1
4580.59
7311.96
7795.09
5536.41
-183.732
2825.72
4473.03
1202.14
1976.67
1003.89
1829.49
7652.71
3373.69
12898.5
7468.24
413.77
6712.74
6696.39
10242.6
763.889
3570.5
578.437
1257.62
2965
2456.58
5996.66
1980.55
3821.46
2456.35
174.441
4492.28
4146.56
4087.41
1886.25
10375.4
13030.4
15227.7
8003.35
5429.39
4846.17
1282.43
671.864
3319.49
1494.79
2378.42
14068.7
7221.83
11942.6
6405.37
1481.09
1956.1
3236.12
866.617
11226.9
7374.51
4687.71
5348.02
6582.47
3002.47
1936.53
4356.33
2661.98
372.133
1320.75
3142.21
2046.31
4855.19
7778.85
5246.58
3613.23
4599.1
3812.37
6524.99
4884.91
5920.24
5909.19
12752.2
855.347
5370.9
7941.26
9140.01
9103.1
4414.68
12870.9
2009.76
10476.1
2681.7
1036.55
1239.5
1384.4
7009.96
6548.43
2723.73
3109.99
6793.73
7423.79
4387.47
5876.78
4873.91
257.54
4516.73
14865.3
11820
11615.8
2308.31
2510.2
1911.73
2172.2
2390.93
3281.69
1146.19
1952.15
3858.75
4173.37
2652.32
1119.76
2695.01
3954.96
12416
4650.13
3515.54
2376.76
5337.72
5704.51
3464.08
2157.35
2241.88
8004.29
5601.29
9984.21
11625.6
11341.2
6034.09
13358
3332.32
11703.7
9904.75
4914.54
2425.76
2646.17
1349.58
2818.89
9707.91
1636.31
2397.72
1462.88
2530.63
4756.51
3299.34
2797.72
8702.24
7895.03
10564.8
3675.45
610.629
3942.43
497.115
5422.53
1074.85
2042.81
621.735
1585.85
4810.97
8442.57
3291.35
8486.21
3669.84
2816.97
10946.1
9446.15
1110.38
1291.21
6593.11
8102.31
4880.7
4323.2
1620.8
1908.35
2673.24
11818.3
10427.3
15527.2
3759.64
4286.74
1134.81
3399.88
7156.25
1744.88
2776.83
10409
9642.95
12854.3
5157.83
5632.34
3876.04
5374.36
8485.95
22070.2
14936.7
1180.83
1132.91
1198.16
1449.37
3620.29
4008.62
6852.43
2361.34
4984.27
1026.35
2403.95
4976.8
2270.49
2906.91
11460
11267.5
7387.24
11162.9
7624.67
1661.05
8019.19
4666.22
5171.38
4435.71
10718
6727.6
177.469
1393.21
3900.32
11631.1
6699.35
7600.19
4540.73
7744.78
11226
11933.4
12088.7
15074.1
7691.52
4908.76
5106.25
3709.14
13392.4
2027.72
6056.57
7239.66
6245.93
3292.74
2986.73
5365.96
19983.8
4890.61
4583.77
2095
8919.75
9361.66
8053.72
5923.19
1730.13
7467.34
2837.45
4389.71
1476.1
2752.33
4546.34
1739.27
1712.75
2998.35
1768.42
192.183
1295.25
1804.76
1041.82
9201.41
5165.23
10702.6
4617.8
3491.45
1721.03
3133.73
3941.16
895.806
1679.55
4718.02
3721.45
938.894
2259.77
14243.9
5734.72
11340.6
5971.59
2159.3
1490.85
1586.49
8705.05
3317.83
1508.97
1826.72
904.014
3636.67
1997.88
5461.15
1146.61
3620.08
1458.2
5042.63
5138.3
3643.89
1317.52
1674.01
2513.51
1696.46
1816.9
1482.85
3582.9
3591.19
8527.1
6923.15
2361.24
3552.24
4044.33
4566.54
1563.35
197.348
3099
1923.36
1902.34
6243.61
3809.87
3768.42
8275.86
12201.8
9811.2
4930.6
8162.47
1307.02
2183.85
5676.7
1150.76
5973.38
5773
6567.55
6504.27
4843.77
4026.26
6640.84
8448.14
7116.47
6434.42
4758.26
7230.76
907.269
1378.84
749.81
5025.9
9217.42
501.918
2996.58
7592.97
6078.34
5314.09
2755.59
5256.87
13370.4
9457.98
2656.14
6167.8
2122
1348.58
3319.64
9105.57
6415.58
896.577
11105.7
9666.84
2883.99
2606.4
2561.21
4186.49
4886.19
11746.8
8031.55
7891.06
1656.83
5413.69
5999.21
5977.28
7880.34
701.095
8821.28
5176.64
5919.97
5453.92
1639.88
2159.46
4577.11
5587.67
1597.15
7969.91
1620.39
-473.837
-301.394
1703.78
4796.26
5571.59
838.969
6503.75
6246.8
1177
1702.09
2790.49
4584.6
2967.54
12323.7
2909.51
10886.8
6759.6
2808.09
6116.12
15445.4
4417.77
1577.77
1089.61
367.671
947.877
2910.56
2431.04
2589.25
7197.02
2241.2
14507.2
2438.93
12010.2
8877.99
4086.44
10295.2
15739.6
11433
5345.17
5829.41
5484.32
1468.08
6686.83
1496.54
6807.05
1616.39
6432.5
2427.84
2292.12
126.012
686.555
1782.98
1436.56
2250.52
3944.91
4144.2
2177.2
523.243
4786.5
2506.69
10183.6
2868.83
3693.12
8597.69
8056.88
9426.67
7960.38
6077.97
14909
9408.61
2436.84
1916.09
3076.16
4038.57
8933.77
6203.69
3319.6
4844.37
6516.13
11457.9
10140.8
6329.83
7477.4
8581.45
1306.65
2510.42
-380.299
3883.95
3035.45
1054.6
1502.36
576.742
4185.93
617.984
946.165
1793.13
3965.78
9827.53
3450.27
1137.82
2696.71
1300.51
4264.67
10695.8
5374.07
2265.13
818.67
923.942
7552
11709
22382.1
7166.01
16111.4
4063.63
5180.76
4166.06
2244.59
14927.1
5122.7
7610.3
5336.54
16466.3
7155.58
7527.59
9259.16
4858.04
2896.05
2448.06
4279.42
6676.68
12124.8
9106.4
6403.9
4817.79
3391.55
1486.78
1917.35
2324.72
2761.42
8475.68
3247.48
1423.53
2168.62
3147.61
4686.56
2687.14
4417.74
8859.97
1356.84
2527.34
1055.4
276.17
7008.48
327.979
4003.82
4890.88
7044.95
6290.94
1409.98
2476.51
3266.61
2668.13
1190.1
6925.09
8087.55
11211.3
7893.25
13225.3
21189.9
8640.58
3421.8
4835.37
662.449
3845.56
2297.66
2110.77
2363.25
808.35
4344.57
912.166
2215.1
3309.21
6011.57
5743.81
9944.27
3379.91
3186.7
2904.09
1123.7
922.387
3638.45
1321.25
7431.19
2458.99
4851.97
3314.24
13523
4494.5
4881.73
5521.41
4391.47
6334.36
4722.64
10925.8
10771.8
10250
9461.46
4671.3
6921.4
394.806
4561.01
3725.61
3361.89
2236.49
2895.75
347.655
839.235
3194.1
1253.44
4355.49
6272.73
3058.2
5114.5
1819.2
579.835
6145.44
2278.88
1438.08
2656.95
4124.68
1921.74
3035.44
1916.71
2529.85
1182.34
2125.97
12426.3
9466.91
13830.1
6074.8
13344.7
15844.3
8793.91
5318.26
3964.89
1843.33
3552.39
5031.27
1899.37
5851.78
9339.2
4849.88
6816.12
2379.51
7958.49
10586.8
5273.5
3531.48
2586.81
3049.02
1301.13
2633.75
1877.92
6024.98
300.737
1749.59
2962.86
9260.59
15704.9
14905.7
9689.16
8729.39
9206.98
6582.23
1800.71
3069.08
4294.65
5439.11
1485.6
2811.13
3965.47
3963.02
2794.91
3871.02
3242.53
804.2
1229.63
3785.3
3870.14
4284.94
8495.01
7271.79
4951.18
3491.69
5433.29
5020.98
1486.55
1362.65
1436.43
10941.8
4647.35
2008.14
-11.9329
2199.14
1968.87
2978.35
1347.59
12673.3
8862.19
10317.7
18414.2
4938.07
2950.56
3235.05
3822.65
9682.98
6256.86
12909.7
9449.71
13998.9
7421.8
8969.04
2537.04
8228.4
7560.76
7742.56
9753.85
12610.5
4816.52
4588.58
7557.39
1139.82
2166.44
247.231
2718.12
9202.45
1825.31
109.394
1316.43
1918.15
5081.84
7789.32
8893.77
5283.1
6068.42
15148.2
13855.5
3908
5095.06
3145.23
2369.82
2749.64
1598.56
3901.76
844.121
3560.93
7165.33
3095.44
6002.33
4515.79
6560.12
2261.67
9010.31
10996.3
7511.14
5593.31
1628.58
10094.8
10872.3
9922.66
1334.3
1565.25
6617.55
2740.06
5289.78
2075.37
77.4043
3590.36
1467.34
1222.86
6833.78
3670.12
8810.01
1683.5
2050.7
1516.57
3428.07
3937.72
2409.1
2081.97
1810.16
4411.13
4132.53
880.282
696.537
3597.87
2765.64
2786.51
1114.16
1446.41
783.294
786.309
-168.697
3000.14
2426.84
1451.66
6244.9
16694.7
4107.11
3911.55
8682.56
4645.93
493.229
1733.08
2641.62
3902.87
5468.26
6393.32
5730.14
2049.69
9317.54
10552.3
7234.67
7888.02
9323.54
3979.38
4092.63
7307.41
12012
30926.5
35314.4
11232.4
7088.79
7427.91
10379.9
9547.47
560.037
4061.34
5212.31
6596.92
417.671
1599.7
1607.71
2599.25
2118.73
3480.31
3396.87
9178.58
11888.9
18141.3
9380.44
4233.37
2695.44
4858.15
8249.64
6013.91
7409.17
5741.34
2903.95
7392.35
9449.97
5649.94
11497.1
6425.71
10298.5
11447.2
10372.2
18966.5
10412.8
2902.46
2747.61
2483.21
8029.89
6319.15
3804.18
5353.17
5386.55
5323.59
15955.6
14901
8533.97
2957.69
1812.14
8429.09
11930.6
16782.7
7303.21
2525.54
1000.02
3697.38
5099.15
4583.31
4724.9
5989.23
4685.25
2486.4
691.777
7876.86
-47.5057
2357.53
2915.19
5399.64
5604.22
643.861
1031.16
4118.91
4165.21
1954.84
4099.78
6228.47
6350.12
5630.65
5126.88
5421.41
10523.5
8384.12
966.07
761.479
3832.92
713.673
2839.18
1135.27
819.1
1368.68
5343.75
5058.4
1668.39
5359.9
11199.6
10439.1
6619.71
4292.76
2682.19
2864.02
975.368
3155.8
12945.6
2915.56
25803.3
13699.2
11129
4997.45
422.521
3336.54
3086.16
2475.62
2050.32
4508.5
3301.48
2818.15
4912.98
6420.83
5884.18
5595.65
11515
11272.8
4971.95
2586.62
4219.33
3934.61
4023.73
2741.96
4314.87
1237.33
15809.4
5677.45
2852.89
7813.01
17203.2
4626.22
278.498
771.578
1279.21
6191.86
13814.5
7232.97
9329.79
2742.9
6374.77
4711.54
4930.98
10430.1
4730.15
2894.22
2700.51
4645.02
6341.94
7367
2707.34
4137.35
4964.81
10821
9099.95
2414.15
1338.56
3066.06
11646.8
5474.08
4538.96
5510.79
4575.23
7040.92
4392.83
13516.3
7706.13
3667.07
4409.84
6576.82
1392.14
4508.06
1290
9695.69
1953.86
458.832
5139.2
2893.15
5558.04
9336.83
9343.82
7521.94
8876.24
3113.41
2487.27
3200.91
7340.17
3105.6
3871.31
1296.22
4824.4
814.01
2998.6
8527.25
6664.51
2179.01
5404.65
3385.87
5607.31
4568.55
597.699
1045.93
7017.43
1157.12
2784.48
3879.67
4357.25
-41.8496
1076.67
4892.28
1866.3
3383.45
5443.51
880.91
7178.39
10080.1
12204.8
8414.41
4766.98
8774.33
5985.97
12752.2
1761.62
999.294
3331.5
6802.44
6260.47
3072.39
9885.02
1019.74
2366.83
6349.21
4726.94
3605.9
2915.18
1194.08
3151.81
1192.88
1220.98
11261.9
8097.36
9024.97
2992.92
8053.04
21118.3
36315.5
8424.28
3667.18
2330.73
2804.02
4414.41
2590.01
4653.71
3407.55
4449.65
7974.39
1356.47
7075.26
2860.18
5479.45
724.69
41.4418
3690.16
3051.67
2211.48
1588.47
2133.67
8803.55
7958.11
12190.8
11143.6
7577.84
10286.8
11052.7
17523
16090.5
3191.54
2340.92
4608.33
2168.37
8357.9
8941.33
8457.19
7800.04
2088.46
3276.1
5216.11
9116.1
9917
9673.83
11750.6
13237.1
5640.72
6780.52
6510.61
6898.91
4314.02
6781.34
6812.63
2008.11
6685.61
20492.5
18045.1
12338.9
6157.93
10885.5
4990.95
611.329
1990.08
5788.88
1733.76
3303.08
3092.16
5061.2
3164.15
12455.5
9653.51
3895.89
-237.817
798.015
5130.67
2842.31
624.277
5671.75
4818.87
2365.41
4602.96
7151.52
4289.08
1013.73
2862.8
856.236
11089.3
5523.7
3930.56
5885.14
30050.1
4516.99
968.974
2006.48
3206.24
4909.26
23.152
6144.64
2798.78
2683.64
2343.53
1684.56
4128.88
1835.6
6875.72
3440.13
1915.18
1122.87
1010.44
3732.78
2547.93
2409.82
248.197
6856.61
16564
9191.61
9384.68
5707.66
10780.1
14650.8
11271.4
5090.41
2049.2
2874.5
2398.16
1610.79
4828.39
5465.55
1726.68
4874.29
4805.58
4108.09
2136.87
3639.02
913.383
2682.16
21053.2
16762.8
10581.2
7982.32
2011.97
4360.98
8619.29
9557.87
7265.96
6822.53
4586.83
3242.82
3189.39
7053.22
8042.91
4975.98
1627.42
2798.17
612.661
8969.23
6597.4
12528.8
11804.4
10586.6
19235.3
9839.8
18692
11196.5
3428.17
6982.26
747.013
1967.59
6858.48
9512.46
4758.97
463.405
417.531
12231.1
12753.6
6522.79
4968.19
14555.8
6987.76
8038.64
5404.33
6176.79
2243.63
8970.31
2280.86
3116.34
782.602
1000.89
1371.3
4570.44
4586.17
8833.05
2038.22
7308.19
2268.01
7663.02
4515.16
6433.72
2839.16
5674.98
4012.1
7120.17
14172
9685.29
2880.97
3839.23
9749.57
8766.28
2875.46
6726.43
4333.44
3734.09
811.527
9007.42
260.589
6651.14
3474.49
1062.87
4852.49
6139.35
5309.18
13010.4
20826.4
16390.9
2831.24
9886.79
6072.9
12700.1
8101.95
5950.52
1927.8
9266.46
6280.43
1522.64
6967.48
5507.92
6669.03
16647
16802.8
9072.96
2250.75
1477.61
8350.52
6641.47
21697.6
25518.8
18501.7
8455.81
-50.1901
5981.22
1824.24
4057.6
5436.71
4395.14
696.179
2167.78
3972.76
759.233
5501.89
1064.35
1358.45
5798.98
4437.01
65.3651
7252.59
2983.6
5640.86
2966.77
5063.93
8032.58
23575.6
24198.3
6598.1
1509.69
10637.5
3603.1
3275.78
3294.42
5052.7
1926.61
3754.11
7932.61
5636.45
1924.08
542.635
4250.32
6085.48
3254.89
4496.82
7236.09
2870.85
3249.63
4505.21
8040.11
2720.88
7394.3
4447.99
4867.24
3128.53
12257.8
8223.29
7175.65
8860.08
10945.7
6083.89
2319.72
2162.14
7146.69
4100.85
2993.39
474.132
5412.43
5650.47
4460.4
4669.88
5343.95
1011.56
-184.313
3948.75
3170.51
1633.35
11996.4
5711.67
2286.05
3399.54
10183
6929.56
22217.8
4484.65
2632.93
9827.95
20218.7
11988
15541.2
8970.94
4253.55
2896.71
4351.18
12581.2
17061.2
19210
3599.64
2255.07
7403.97
6396.94
13371.7
6022.48
3105.24
1406.42
3291.94
5174.44
4075.05
2570.49
2546.36
6116.51
13287
9757.51
13720.5
6565.78
727.292
7132.49
7032.78
1020.63
2187.2
5068.02
762.77
3276.2
1431.4
2993.72
2444.8
5768.17
7419.69
9221.91
4688.44
7606.98
13051.3
1459.9
12890.4
6730.62
2135.49
11446.7
2512.08
242.012
753.199
8505.08
3192.95
3778.9
3643.2
1643.54
1633.73
915.764
2797.76
3373.23
7545.59
8433.49
10895.2
3430.89
2994.81
-1.85571
1255.18
8073.67
9882.01
18680.3
1575.36
2192.52
3297.88
761.755
13568.1
3890.79
9195.96
9978.75
7537.35
10392.9
1599.84
1928.79
13613.3
6142.06
4249.7
4748.25
677.834
2130.24
1602.19
5007.35
616.692
1718.58
1758.99
655.276
3557.02
8206.95
2692.32
