155.01038867
-90.66882
53.5290294
67.282227
5.843024
-104.744356
-229.32231
-24.0991587
-115.3749924
115.2467445
-6.2987925
18.0987126
-105.7337752
-79.3662055
12.31329354
111.406349
154.6314087
95.5513454
-263.63676977
96.3504817
76.775268
-46.2756637
35.793852
88.2735297
-49.4684436
-89.4351757
-116.276727
-61.77917412
76.972691
-95.953115
-48.64540609
114.6252923
82.22382
-47.628308
-72.463051
98.1595558
16.7682876
-29.224967
49.042543
-101.440559
33.7179794
189.404484
-13.972533
95.924352
2.9941566
22.8001267
-159.8682826
-76.330927
-32.6820399
73.226709
-81.7229418
240.434342
41.975924
281.6725096
184.582341
-98.560938
-11.4592196
-79.13013782
14.735965
-191.1593359
4.1157585
180.004799
-63.524285
-160.1570382
-126.7511563
70.2042255
49.5911109
-51.6474916
-197.6609005
216.562049
173.317691
-116.6917224
-91.5777109
-41.2772672
-55.5226474
17.1020466
155.565577
-32.087164
-52.404872
-16.748144
-79.424469405
-234.2351605
-66.358213
136.747438
26.6718278
134.1067243
-54.17076
-61.8852151
4.50590108
-19.44014267
-5.34761661
-45.1386051
-171.8630112
-31.977993
-78.253163
96.842771
75.2177104
-63.0770501
98.1908061
20.9484922
-126.269628
52.952195
-80.993513
138.436484
152.62695
-47.1747338
-73.868967
-28.536764
-224.454586
-16.09405
-10.8616484
10.5389502
-67.555298
-67.896382
42.725608
86.0822388
107.20632
13.988996
-117.389114
-46.7980438
112.7480515
148.923991
137.15283
-10.6949683
24.005677
44.668132
70.2734309
-50.2438299
184.587452
236.806977
45.727946
13.5056541
-52.722631
-12.741096
-27.848030119
72.9281236
296.92064358
-130.224727
91.664956
24.695876
44.4644586
164.215091
154.818619
-55.118902
156.84637009
79.14646
54.4537397
47.244985
-49.4573295
0.323235
-6.925801
83.0390376
119.549669
-133.759864
101.928092
6.612614
118.1809011
234.722895
-84.7967603
29.573665
71.633007
-201.29082072
-40.235041
-114.9295167
33.717053
-205.4048855
-107.997572
-95.116284
-86.083457
-192.968902
-13.3784679
140.326214
95.55186
-263.0889197
340.743825
131.34208
73.150682
-74.685472
-15.3355692
-13.9017743
63.7951377
43.7764833
20.2470163
89.192357
117.155361
-61.0940255
-151.323298
-79.201232
20.9160623
163.646319
172.6084446
-188.9651
-45.439467
20.007924
-227.092076
202.202561
3.37619997
-14.3634983
126.3626155
73.755127
71.0410245
37.2315051
63.082604
12.4637223
-115.42207854
-84.814068
138.5099248
-82.321227
-19.8342763
-85.833091
-21.9124289
97.9122436
114.7370169
172.6036842
69.056031
53.7544496
200.261725
-156.285727
2.521376
-99.795437
-24.208981
-327.293936
-192.932922
97.238332
17.3114081
116.7868675
-114.912406
-155.976921
65.847592
-100.1791655
150.0567561
31.3194284
33.597233
-104.9730368
-40.2240956
5.957334
-81.205894
-48.689293
-260.5961072
237.7697101
33.50396014
25.5930042
105.7791733
173.629608
199.1387188
-4.869933
-147.1329589
75.1109266
25.0540348
7.4421976
