-455.066
2710.44
-6152.61
1434.67
6066.33
1906.43
1394.94
192.813
-1946.45
2263.25
2755.9
640.865
-1129.12
-457.005
1220.3
178.631
267.496
-748.324
-145.345
-471.401
-189.559
-281.092
32.8594
-305.273
-1894.69
2746.56
3592.88
-1124.56
-5127.82
-346.684
-187.157
672.417
762.537
1203.93
-1385.43
-1858.85
-1318.33
14474.3
5112.39
1154.5
3333.57
3507.33
13969.7
859.696
5521.04
13182.3
-659.864
3910.46
354.581
502.313
-3096.56
-1838.25
1014.92
-4.77825
914.588
-3102.03
5571.53
425.528
-6765.15
-3121.8
437.119
-3332.59
-2003.63
928.319
578.616
147.701
2196.13
1960.16
-3928.5
-846.038
4512.12
1776.09
-716.92
3962.81
3945.2
2386.22
-163.531
-1149.56
-2986.57
-325.661
2371.17
794.154
902.039
-714.695
-849.103
-1402.76
2115.98
387.19
-3484.67
4546.01
2141.56
2493.13
3251.38
13.2695
-10422.8
623.794
6545.18
7438.14
2041.96
13313.6
4134.54
4093.98
-1208.27
-311.459
8745.32
775.913
291.798
4458.57
1130.48
-1818.08
375.756
69.7039
-147.606
2566.55
-1596.39
1236.2
7834.3
-1224.39
5411.03
-778.755
5213.85
-701.158
4839.22
232.433
-160.941
-902.712
-7149.26
3688.23
-2339.12
163.857
-881.582
2930.49
663.698
-1468.53
1079.22
196.494
-1543.61
-3007.5
7204.55
-365.289
399.887
591.072
455.251
2918.83
873.129
15863.2
38.4488
-870.864
594.644
-182.661
4789.8
-1739.52
6204.09
180.887
652.324
2190.27
2312.69
6450.3
608.876
-2795.4
1436.81
974.149
-2545.42
2926.4
-3171.42
-1564.44
-459.526
-1662.54
-3848.13
-931.607
1971.65
-999.656
-1702.09
372.069
61.0157
-345.442
893.64
743.896
4812.53
-339.196
567.302
2350.23
1877.73
785.622
1461.42
-4112.86
2935.32
454.463
715.257
3502.39
922.999
-434.675
203.999
-454.795
-3338.31
284.827
-226.6
2163.43
971.745
683.427
-548.855
1218.16
4483.76
-210.514
3567.3
234.6
3007.51
-1044.02
2844.8
-2256.88
2155.94
-2403.53
-2504.9
3453.55
-1268.16
8806.3
-3174.58
-1018.86
3557.07
3059.23
-433.019
-599.336
1575.43
1916.61
-246.847
8943.93
2639.96
-1302.94
-1340.65
1407.99
939.058
-421.645
-5463.37
-1900.07
2565.94
-213.384
7022.82
-1369.54
-3915.17
211.99
4594.18
-3171.65
-409.067
4188.53
5778.36
761.056
6666.54
-1053.86
1689.29
-246.297
3256.24
-1828.75
-1878.61
-576.164
-50.3643
2690.14
8601.23
-125.32
2058.57
705.292
2795.32
3148.65
-473.41
2128.42
220.062
351.12
2840.98
-318.513
-2356.42
-313.478
409.607
-178.011
-1263.29
-171.24
1369.63
-1236.78
30.0875
665.181
914.553
2366.85
-65.7076
252.447
996.522
-564.358
-1862.51
-579.195
-423.736
-69.2582
-421.58
-726.974
954.8
-4008.23
-4473.43
-1474.7
-642.526
-780.698
-1694.49
-688.992
-379.552
-610.326
-557.46
57.0099
-2132.03
-2026.72
10661.8
-3811.31
-607.047
2779.56
-377.552
1927.47
-965.711
-232.967
-203.723
984.541
-780.054
1882
5747.55
9843
-695.731
1293.37
80.3389
2438.71
8046.12
1550.05
2418.38
2265.04
-3167.85
47.8859
1747.55
315.022
710.043
-403.947
643.442
4699.81
796.417
1324.42
3243.13
-1399.07
-435.232
1359.95
-1417.11
-942.613
5493.41
-4460.75
-883.999
851.978
6307.83
5661.06
-2131.37
-4088
8043.33
5728.34
-1308.39
425.84
-1396.48
3274.8
-3085.06
3087.44
13269.8
-14.6848
-940.954
-427.366
4141.51
4269.95
-15.998
550.948
5301.86
-569.184
3361.76
230.962
-627.539
-863.225
1063.39
539.893
568.292
503.913
7286.36
591.287
436.456
2559.22
-1370.9
92.4246
-6538.53
879.5
449.636
-261.792
2753.7
428.523
5116.24
-3427.91
-218.995
-145.171
9425.28
-571.629
-564.158
-3111.02
359.938
1735.33
101.635
-762.363
-678.08
-1780.03
2436.33
-99.7933
1262.52
1298.28
-578.352
2832.6
-5751.48
1050.05
-4504.77
2118.3
2297.64
148.738
-5001.53
-5656.57
2144.44
-1132.94
11017.4
-1778.74
7936.19
472.268
5189.65
467.442
2414.36
313.297
445.662
-2130.01
-1692.26
1380.1
-372.73
-2879.64
-2331.79
-1049.94
-1391.12
-4334.36
2042.57
997.645
-1067.49
2524.22
643.991
-616.381
-1161.77
-595.217
-2005.67
542.826
1810.77
-1175.12
8109.29
1177.28
2653.29
826.946
198.52
751.397
1040.57
-1216.84
-1509.71
2986.01
-737.432
-3347.87
93.725
5263.74
-944.281
36.9226
-141.098
1101.7
34.8601
587.213
2401.06
-15.9801
7628.16
7532.93
-879.177
-718.385
-269.978
-2011.79
2041.01
-3810.21
-564.616
704.494
-1966.57
4373.22
206.097
4917.2
21.5056
-535.893
-649.231
-377.748
1900.69
-545.366
-502.04
2268.71
1746.87
-778.82
908.064
-4919.97
687.706
-1220.62
-235.131
373.745
11134.8
-289.966
236.732
991.203
-6983.35
765.79
-1404.54
-519.11
-2451
-868.027
2494.66
621.033
-3077.37
-829.769
-3783.03
-432.914
8817.25
1474.25
212.765
310.295
-2041.23
163.282
-2063.16
-2821.81
-1034.21
980.74
-4724.59
5303.39
3417.31
14072.9
-1488.03
5998.25
3827.45
-1855.09
3282.91
-1861.3
-1667.92
6109.21
1808.29
2658.94
473.415
-869.173
-2292.74
4004.2
2648.05
216.507
121.188
2028.53
-1481.43
2614.3
3542.2
4209.69
275.847
2609.63
-3586.19
-1303.8
-681.778
784.627
1129.13
1190.52
2094.62
395.211
142.364
-2966.87
4186.66
0.434953
7594.05
4060.39
2332.09
-456.541
-511.787
3736.82
375.097
4643.55
4634.31
513.324
-1991.74
2527.33
-1605.74
398.205
4501.34
8537.4
167.547
111.01
-448.931
283.981
-844.296
625.191
-404.357
-210.863
-2480.42
-413.756
2350.08
275.678
327.86
3440.82
0.304444
4954.94
1672.36
-1813.59
349.883
914.511
2878.72
449.523
7511.49
4802
207.633
9082.95
-1542.34
-1013.75
-1599.14
87.5491
1921.8
1697.41
6173.81
1197.81
-964.048
107.164
-156.465
7026.26
1097.57
570.676
-75.4431
331.227
144.286
-810.508
18.144
7087.08
4728.68
-366.275
1891.7
-406.007
-137.787
10546.8
-3106.44
57.621
-1319.23
727.351
-922.95
-5.16001
10538.6
2766.82
1212.36
1045.51
7068.29
-200.701
455.444
265.331
2472.28
2792.54
-520.97
-702.492
2822.61
420.235
-275.21
-891.713
22.8155
-481.284
765.721
-2837.44
15883.8
784.19
204.497
-198.887
3018.63
-179.096
995.525
1707.8
-158.163
1782.33
1813.92
-1471.18
-3433.6
353.917
358.788
839.381
-2760.61
7832.93
-965.363
-1014.82
1542.24
467.757
2664.69
-1425.5
1629.7
486.02
2257.58
1665.82
759.776
560.777
-988.627
-873.826
4067.43
1131.23
1217.91
384.085
-2053.89
4254.12
-511.419
109.167
1944.17
2651.58
727.406
2117.44
6905.35
1039.37
-188.002
1060.32
1737.83
-801.045
168.829
-6437.82
-3431.38
1060.03
468.613
-698.724
-816.143
451.097
-219.78
-650.533
-871.327
2512.21
3058.09
364.069
-1348.84
2348.86
880.435
316.513
1023.48
-1618.98
-175.169
-1297.16
1489.18
-486.777
248.481
3469.98
4253.74
10190.6
-2767.68
2803.46
3317.12
-667.506
1594.68
-951.863
1557.96
743.727
3577.29
-867.671
1128.85
-4101.19
-1592.88
670.688
-2025.26
-738.741
7276.67
-687.51
4840.17
2831.56
-1338.49
14076.3
6824.37
3310.61
9035.01
2138.64
2144.06
1063.47
1440.66
-2758.42
59.6604
-1032.14
670.781
-816.922
-108.906
1955.88
5239.25
-465.9
-3433.13
4814
519.692
2376.93
-4110.89
-523.873
-823.468
1105.89
5637
-475.244
-290.003
308.794
1078.17
-619.768
-156.519
1715.11
841.298
893.284
-2116.52
-2096.17
-5142.34
16228
4050.05
-632.79
2625.98
-510.515
-3539.04
4324.05
-2949.71
808.102
-307.52
-1067.14
-205.877
1444.39
-809.47
3399.62
3540.59
5378.23
3226.05
9803.96
1892.04
891.164
-239.847
4560.92
-227.386
-1310.12
947.848
589.375
2902.92
1369.13
1092.84
-5432.86
-993.612
1218.86
3689.44
816.132
1594.07
-3855.51
4806.87
11287.4
4488.53
1684.78
-183.892
-162.466
-199.694
1504.76
6471.81
209.961
2274.56
-663.349
2391.14
-8114.38
-974.025
8976.33
-960.427
-286.338
-7431.59
6348.36
1486.84
9002.16
5798.81
488.758
2786.68
8049.88
2524.83
24.1287
6167.11
1395.84
300.485
6471.05
5831.06
1052.74
494.375
-427.713
-3627.37
-2873.69
2665.76
3462.27
414.88
-1915.17
-233.943
7110.03
2775.81
733.052
957.327
2182.85
-2765.52
-581.653
1420.83
1959.39
-2747.58
1032.92
1167.71
-878.867
-165.999
-443.425
727.234
4107.18
-1679.24
-398.239
-333.64
-981.781
1776.81
851.699
1352.65
1230.18
3940.04
-972.135
18076.2
-4129.22
-76.8895
-580.145
5715.25
5797.66
-2.26779
1200.22
-2735.66
6420.37
-4180.62
-254.3
3640.94
4305.17
402.055
-865.048
-533.687
1214.98
-240.239
1535.06
70.4906
-510.42
1234.08
-990.579
6460.46
1154.87
-603.631
559.339
-1515.15
-624.564
965.935
808.971
2597.1
3559.45
1843.2
3609.5
9300.23
-199.849
-873.593
258.124
-260.249
10229.8
-1979.25
-331.186
2414.58
2310.12
-4664.61
-6591.34
-463.597
294.149
469.036
547.486
1198.94
4535.61
-1941.4
1153.33
-1668.39
-549.465
371.534
3494.53
676.191
617.262
39.8039
686.935
3153.35
-521.184
4369.7
2320.16
285.91
14.1902
562.808
6599.46
952.778
2306.18
0.892318
1328.35
2054.13
1055.73
1809.31
3530.67
2923.6
-449.238
-3273.96
1266.8
663.587
-2024.62
1142.01
281.664
-45.8124
1664.81
294.028
3244.32
139.009
-99.0738
-1716.99
149.667
2078.78
4556.68
345.403
-756.921
1811.46
674.1
-1443.82
-1125.79
-2998.64
1167.81
-544.608
-2252.04
-982.374
569.262
1514.33
420.612
-1381.88
-1572.01
3721.62
-792.414
1061.5
-632.254
1815.6
-1871.31
855.925
759.304
-2190.6
-555.831
757.436
2036.25
-3331.88
-940.45
412.803
84.5081
5302.52
-1255.45
464.728
9082.98
-439.018
639.872
1225.91
528.691
5650.87
7842.85
4131.71
9350.01
-880.813
-3721.39
95.3844
-705.183
-785.713
6928.74
-941.066
-3271.05
391.605
1817.72
-512.909
-1262.95
-1076.12
1075
3861.81
-2694.06
-229.497
-8.57344
4105.84
-1323.34
2428.44
14551
4825.26
-2323.13
2065.54
-208.285
5785.8
-152.008
674.644
561.087
-3405.04
-74.2159
-1449.22
732.246
-379.081
-730.736
6234.28
9476.15
-153.48
362.208
1075.38
-641.136
794.561
919.32
-2105.83
-18.7281
-2024
-756.7
3227.92
-1018.82
500.115
-82.1704
2110.25
927.495
4.46758
-41.784
6176.83
-92.573
-1004.34
2062.6
105.247
2380.25
11060
-525.897
-654.971
-1595.21
2311.69
10545.7
-1104.97
1330.13
4868.69
2053.29
4183.58
900.222
2826.7
-1415.51
-363.995
-116.755
-3152.12
-564.168
5183.59
-1131.35
-178.884
-259.311
1008.73
808.73
-2857.26
-562.904
-370.581
153.363
456.833
1415.27
890.309
10525.8
-84.362
679.789
-220.345
902.987
4099.59
3607.63
1929.95
429.307
3429.2
12680.4
3930.58
244.299
-3342.38
-71.2955
-2265.59
-492.176
-856.035
428.543
1070.61
2861.93
3701.46
-2728.47
-645.198
351.157
-1930.27
1132.75
579.499
147.723
263.343
2965.01
-432.261
-954.875
2918.66
11450.7
202.083
693.241
-538.333
2465.37
19.2702
-1358.73
-226.746
-2168.03
-3126.12
-681.217
-1297.33
261.963
-322.632
-503.662
839.566
264.047
635.529
-229.408
-598.805
5145.92
-378.351
430.506
1038
-311.042
2254.45
-239.876
2076.48
7605.42
-1166.35
392.264
-811.359
-431.884
2641.28
-5929.15
-1297.24
-2464.23
-731.86
-1392.12
-6.96264
-305.919
786.011
26.2152
763.428
2615.05
-815.531
-2423.13
1502.06
28.8196
-910.782
1697.17
-586.27
355.792
3596.19
-700.722
-1440.54
-76.9773
-292.691
833.068
-2551.15
-2804.75
419.024
953.42
-714.979
2622.15
4905.23
11847.6
1382.59
5597.92
983.632
4123.45
-550.91
573.794
769.798
-180.27
-969.187
-1252.96
608.579
86.3595
1070.4
5766.1
414.128
-1417.66
2823
12628.3
-4951.39
2262.15
-1260.35
935.046
-3472.88
722.356
11.1262
40.5963
723.263
-1226.24
-349.927
1086.1
-1728.6
2617.09
1781.91
16.5378
-232.587
353.375
2051.25
5278.7
1677.13
-2118.3
2240.72
3059.59
-474.083
134.637
2108.96
-175.733
-2682.67
-502.254
476.232
-108.958
373.291
129.898
1988.56
-2188.4
-360.915
751.141
587.068
-2679.01
263.648
3394.74
-1908.36
2185.06
-1241.86
-92.2087
733.15
667.33
-2171.42
-2655.42
-1322.47
707.465
10495.8
3541.18
-1898.19
-330.384
1871.11
3387.64
697.614
3245.41
1267.42
723.5
-1066.97
-113.687
-3210.62
680.492
802.352
8065.93
1296.13
-1573.04
-1422.03
-1046.17
763.993
4409.34
3916.01
-1365.05
820.754
3184.93
2058.32
-346.731
1824.52
9983.5
943.156
3601.71
-506.564
7418.68
-98.3149
-181.521
6446.52
553.764
2004.06
2026.17
610.789
3168.88
1205.17
-1426.6
8659.18
2136.94
-294.265
5101.34
-3362.81
-2958.23
7102.04
4743.81
786.661
2412.09
2284.02
-2308.56
-273.067
-771.726
1590.86
6453.4
918.091
4020.58
2797.67
2729.79
1255.14
9246.91
291.543
-1721.02
1574.17
5917.54
317.917
3883.79
-156.527
7197.19
907.266
4542.3
1170.5
-262.755
598.309
-752.202
-1979.48
3411.01
1348.28
-198.346
253.017
720.274
1277.45
3770.51
2095.62
4574.88
1036.54
8918.88
1429.24
140.728
1096.22
1094.9
2356.9
-964.691
318.248
922.744
-1542.15
1269.78
-2124.25
-58.4803
-80.11
-2183.88
600.095
1833.89
135.188
535.644
108.068
4125.79
2412.78
-2000.14
-1242.21
420.271
409.112
6055.13
-571.287
-417.558
472.753
202.583
314.972
-3036.48
-157.14
-824.211
1087.66
-2665.45
1022.56
660.449
-143.526
-3008.73
2304.65
-1240.37
-124.896
-338.733
868.125
284.15
230.549
-35.191
-160.019
1547.69
-1311.92
1106.19
1658.85
1656.61
273.046
10761.4
677.623
39.9233
-774.809
3121.24
1995.63
16258
2294.11
-3185.62
323.786
2443.89
-3066.62
-2388.43
-947.367
-280.43
-1204
6425.06
-2097.25
-399.803
-430.903
11511.7
-698.827
3308.12
5735.56
2708.17
-152.906
259.632
1021.78
-289.792
1499.31
-576.104
2221.55
694.238
-217.787
8391.01
-2731.35
-1850.86
74.0967
1504.56
-616.792
4531.25
-158.653
807.791
3589.53
3304.71
1189.16
542.993
-108.777
659.963
217.962
-4095.13
1134.06
467.25
-715.227
1073.71
-500.293
-5353.16
676.681
-4445.54
-1933.58
2720.65
1351.63
-753.321
-977.908
-397.336
11047.8
-2291.44
-345.866
-2454.5
-345.928
3283.22
3949.53
-137.097
940.965
-702.455
13183.2
525.898
-1669.83
-4019.5
-219.822
-663.455
3726.48
9215.17
-1942.69
-2591.64
2326.67
9398.63
2963.07
-2109.47
865.453
69.7568
5539.77
6770.39
2551.53
414.049
61.3092
809.98
-1088.18
10532.2
-248.434
-607.554
-206.672
2477.93
-965.642
3476.24
2285.21
1970.08
-862.477
3080.86
-4006.67
-1087.58
-1688.69
-747.994
165.22
740.618
234.789
-1265.21
5128.98
-139.556
-201.573
276.843
84.0176
5267.52
250.728
-2463.82
85.0787
2392.76
3701.23
3577.46
3428.68
-697.52
-483.038
-381.967
-161.54
2568.74
40.9893
153.997
-537.432
2468.28
2716.62
4527.58
5322.3
-1163.5
-1556.98
-245.807
1325.74
-2104.83
633.104
-1486.86
4455.38
1513.83
4187.7
-851.36
-969.307
600.101
1708.3
3229.22
2871.3
-945.968
3773.54
6034.32
185.261
-158.444
-306.142
7463.39
-2951.45
-956.446
-50.574
-81.9439
-682.283
1474.96
-118.705
777.275
497.901
902.606
2987.17
-4970.97
505.715
9341.91
-1126.41
-1032.21
4474.7
921.499
-526.257
6733.98
579.633
-401.815
4463.36
843.948
-367.01
-773.376
1754.58
-3648.9
-740.92
1475.24
400.567
2481.18
-801.674
-2425.96
-222.667
2714.24
286.023
180.688
-2625.69
1716.05
-1054.18
-219.56
-1917.98
-70.6118
933.57
2792.26
-1870.62
657.862
-575.662
1742.94
-1465.76
-145.141
-1307.31
3532.92
765.821
2410.25
-329.201
555.249
-3813.09
134.488
-1785.36
2050.46
-496.022
-763.865
1146.47
4813.92
5036.43
1680.79
-238.337
-505.243
886.442
6923.07
1551.24
3553.39
3072.68
-1456.27
1901.09
1670.95
-841.058
2662.9
3146.78
1759.31
849.556
1326.69
23.0516
-963.606
-175.442
153.303
619.454
625.169
532.736
1201.88
5047.74
155.545
-735.733
436.418
-1238.22
-916.824
131.722
617.046
1301.97
1940
1327.19
3100.11
93.3111
-1922.4
-2260.49
4165.8
-1354.25
-349.772
-1791.02
1959.22
1528.14
2514.34
-435.148
563.89
1248.5
2583.56
101.846
-572.496
-4699.85
4540.21
2437.32
-1070.02
497.815
1134.73
-1210.85
4751.2
6686.99
328.111
4209.95
-2551.42
-788.013
-2005.26
8009.82
6079.49
7724.94
-861.028
-181.417
807.459
8.85124
1928.64
-1521.63
-622.441
420.247
-907.157
450.248
483.226
-2957.96
-179.205
-530.288
-3690.06
2619.35
1468.3
999.348
10096.9
722.535
4365.49
-209.648
-116.509
-189.7
-825.645
61.7947
-417.875
406.342
3349.64
2676.79
-191.087
-805.815
201.966
1212.72
-339.169
-203.767
3494.2
-905.825
4245.28
6871.84
4884.41
93.3919
-1581.82
1786.26
-1395.83
-390.104
-2555.19
-2671.55
2757.07
638.794
133.069
-3306.53
8046.97
2977.11
797.029
537.039
-650.98
-709.584
-71.9978
-1480.68
1744.02
1974.53
755.45
1964.38
154.448
974.893
1944.59
-2923.14
2129.13
3177.22
203.472
-712.749
-239.402
-111.259
-251.647
-806.555
-118.565
83.2725
-1146.63
-4641.52
1641.08
1836.73
804.389
1858.31
-1166.4
-4371.16
-1655.51
-875.461
5481.88
1129.6
-92.7941
-109.027
11616.9
-2778.91
-2140.2
254.684
2477.33
2138.75
1694.04
1538.54
86.6122
-202.715
-229.019
-2358.09
-256.211
6088.73
3093.54
11290.9
-1008.58
3443.18
400.005
9252.95
-1178.8
909.065
3816.52
469.276
4900.88
5352.35
-815.786
1102.38
-518.346
301.926
-1284.2
1054.64
154.307
-3960.51
630.314
791.04
-32.5152
277.671
7443.01
774.491
-383.209
-73.2809
2684.38
1509.87
-350.885
-2389.82
6286.45
16457.2
8142.14
-296.792
5730.63
3482.09
7275.71
1011.19
-1461.85
-1303.13
-622.043
-1113.37
-2019.73
3329.59
6882.02
1509.78
1865.82
6127.97
11.5319
458.713
188.007
2654.45
10305.3
3809.81
-2480.2
1351.22
2061.34
705.323
296.436
5754.71
846.497
-587.915
1007.82
18045.3
1978.01
-142.029
-986.995
3138.78
-3777.85
2091.32
-73.8847
-1183.53
701.007
1866.92
797.049
-296.8
-594.764
3225.37
-266.924
-324.412
3678.27
873.551
-393.368
70.6762
-1859.65
-573.113
8815.51
334.859
-5081.22
409.165
1575.46
-683.244
-961.916
211.623
10028
-741.845
-502.076
19.8563
-577.76
1716.62
344.283
613.914
695.131
473.33
4895.59
2237.77
-2985.02
1786.34
-828.466
-2774.45
-81.2176
-1167.64
-313.319
-1936.38
-392.602
480.381
3959.47
1585.14
5660.15
479.347
1123.66
1341.19
1275.91
6670.53
-2352.34
1437.62
4768.79
1598.65
3184.9
3210.56
1146.73
-513.954
1613.21
1594.45
1444
646.728
-1743.9
5255.68
214.993
2469.63
8157.72
3976.87
-975.272
557.129
3394.22
3773.45
-2186.1
1821.95
1027.18
648.461
-11.2655
342.322
2556.23
4198.27
-478.276
4622.52
1245.63
-551.344
591.945
-1009.12
182.948
-275.059
551.31
165.786
539.102
-3034.45
-238.681
-100.534
201.667
60.9345
4289.89
19388.7
-10585.3
-1179.54
-215.248
-7621.29
9592.49
930.705
-4362.64
2376.85
-1468.75
329.934
-1303.24
701.823
771.755
-553.954
-1958.04
1659.19
7067.72
152.48
3464.76
-2.04395
-97.3373
-696.443
-43.3282
211.048
-4297.27
-861.676
384.349
554.28
380.294
368.373
884.824
495.058
-2820.64
51.0217
-96.4989
-64.0832
3147.03
-934.584
-97.5838
3457.69
-120.628
254.829
-550.036
-2195.3
250.536
6108.27
1940.02
2583.82
155.125
2628.57
-2408.87
5.28948
-896.852
-1629.12
9271.1
1126.19
-1531.2
-981.384
1761.63
-284.501
-7635.48
3067.64
1968.08
-1075.7
1716.39
589.924
-2815.68
2509.55
7239.36
2847.67
-269.069
-359.097
260.475
1343.72
-1433.7
-752.42
5309.73
598.78
-1052.19
-1312.41
8098.07
3575.24
62.7626
1310.26
-122.672
1793.81
256.801
-2007.27
6381.39
5156.59
430.131
-1540.88
4316.28
2520.11
652.432
215.704
134.803
13008.3
1435.38
1179.95
3028.57
306.687
-1598.95
1275.84
-2425.8
498.551
-644.279
11.1953
650.128
-2139.61
-349.877
3066.41
4797.2
1191.73
-551.953
-2153.3
648.526
8993.47
689.357
2854.77
-1038.6
1115.09
1867.24
4473.62
-283.497
-579.039
-695.29
-1810.33
5955.55
1701.74
-293.208
-5687.29
-1260.61
781.732
1889.86
8246.45
4650.79
8576.54
2988.11
-496.208
-28.7266
610.104
4248.83
6494.26
7474.28
2365.33
3203.31
292.199
1012.06
1907.61
-15.3418
3846.17
-1977.07
5321.27
1364.41
406.984
2172.57
2535.23
3896.38
1399.6
7236.61
1104.2
821.331
-2016.31
-1711.91
-650.216
-796.7
1156.9
2853.59
2205.3
517.048
2215.97
-1311.87
-1769.71
-1800.22
2698.19
10887.2
2864.32
9607.29
380.805
436.908
2669.7
3614.92
-245.585
-239.647
-56.1148
-830.664
12425
629.018
-26.4384
-258.949
-200.219
-1588.93
796.463
-47.0025
779.184
1442.26
4289.52
1890.96
8126.99
439.858
5503.87
24035.9
531.979
628.375
-387.008
949.12
724.155
524.919
-56.8244
-963.311
-1212.57
1430.22
2696
1307.37
12320.1
1459.62
1578.95
285.883
-1160.1
-1037.55
5118.68
-1408.07
-886.553
-858.273
-549.944
9648.62
5228.5
1204.94
5836.74
-2368.23
384.146
2332.85
1455.17
-731.354
-1629.48
11.5826
-574.875
5242.91
553.302
515.427
-897.347
-527.252
193.532
1460.65
2684.38
829.677
-1168.95
-489.107
-896.881
1176.96
-497.999
1360.28
1069.91
-2240.25
7126.81
1025.73
3200.87
1770.69
-513.739
127.769
1362.78
-1764.65
249.151
-811.423
-725.819
5011.36
-1427.69
-609.625
-990.6
-917.261
1386.82
-2921.71
-1830.02
406.036
-1587.21
-150.774
311.713
1543.23
5499.47
1151.61
-338.943
-279.112
1276.1
-884.926
-1166.99
3438.03
-6078.8
237.91
-1115.65
-2762.44
-429.584
-966.917
-1033.81
-1223.29
-475.848
1918.17
-25.6714
3898.42
916.742
5295.55
805.343
-962.992
-1122.4
2701.3
1403.36
-728.154
1062.29
1329.52
12057.8
2199.93
1421.67
-4518.51
8707.75
-1107.53
3996.06
1846.8
13.9687
1360.67
474.133
182.715
1706.48
634.77
5217.59
-606.779
3696.5
-2157.22
-147.584
-462.71
5979.66
-1716.47
2432.93
8551.15
-102.942
5757.99
-3381.46
1827.17
-357.683
3073.5
534.995
393.413
-221.339
3457.65
-320.661
-4103.61
-4951.87
1962.65
973.925
193.373
2221.7
1403.11
2262.13
704.354
-1868.95
-18.1573
678.694
1227.81
2185.29
-1632.5
8566.97
-2206.93
60.624
3197.95
1491
4517.16
580.577
1719.65
697.702
141.79
-411.461
-6706.36
3290.17
414.305
3866.32
-2257.44
-1304.89
417.646
-928.698
139.863
1612.13
3149.64
4256.82
1720.11
3290.31
-4174.9
-1496.07
709.689
-380.414
8245.36
680.253
-612.785
3034.29
1642.88
-651.059
11128.5
1773.23
-4082.75
4919.63
2671.92
2722.56
1070.7
-1525.91
-89.7799
-520.76
648.971
1000.64
-3894.31
3046.57
1623.15
-281.386
2120.31
1071.49
3609.94
181.174
-1553.74
258.487
286.254
706.274
288.795
-554.782
484.835
-1566.55
956.044
1432.31
279.513
-459.63
-397.14
-1722.51
-151.806
3890.04
-4446.95
1522.56
21214.5
-437.991
-316.48
3065.79
-634.629
59.8372
-1154.79
-573.816
1556.27
-264.312
1065.16
-1870.19
2302.11
-1349.59
561.72
-761.785
764.801
4229.66
-138.181
-1845.14
79.7032
3415.47
-2404.79
38.4118
4172.92
1627.29
917.629
-1115.01
-509.12
-532.856
3668.46
-58.2657
-1469.77
442.937
125.402
-1820.65
1990.16
3147.96
730.733
-1624.66
435.727
1096.85
720.658
2918.27
6324.13
1240.01
384.481
-129.089
4349.17
3154.04
5070.99
758.277
2031.78
1210.08
-919.611
1273.74
2429.43
2225.45
7900.02
2471.76
-926.197
-2669.16
3431.29
-176.819
189.744
9176.04
-1452.39
-631.909
-1279.73
1063.13
-170.809
2483.31
5586.32
4452.8
1676.12
131.832
12480.2
-1093.63
-452.26
3437.74
1393.53
40.1651
-1945.7
1318.74
2338.27
-1436.52
1196.4
3840.15
617.231
-291.345
4486.06
-2036.52
-605.165
2560.39
-3343.89
124.214
7229.92
3081.53
1977.82
7789.62
15.5002
2611.75
853.32
-2497.67
4083.58
-19.9578
908.595
-233.955
1215.47
-362.404
132.825
-1059.11
6065.14
602.302
-904.604
1060.63
-177.689
1374.91
-1763.55
-4733.33
1460.01
-1139.78
4961.29
2819.66
-951.657
9270.35
-69.8961
21774.6
-83.0301
6911.11
1511.42
-942.609
-640.941
-1697.51
2531.2
1747.25
387.711
-2326.7
-1305.63
-156.275
-2863.57
1466.65
321.846
4023.31
569.469
209.053
-1168.39
2725.07
5136.35
1677.21
656.721
5444.68
328.335
-431.039
156.439
52.0431
191.205
-4075.66
5540.53
11.3999
261.457
5724
616.249
2360.71
12162.5
-212.879
1399.3
-625.773
-924.533
4020.36
5507.27
-1489.86
-568.216
3378.18
1601.65
-161.143
-813.001
-69.3032
347.414
1265.54
3240
398.072
421.856
-812.778
611.075
2711.04
358.081
212.276
782.726
-3641.58
2341.6
-617.547
-108.284
-1436.75
692.431
2897.67
5156.31
5838.32
998.59
265.665
156.796
-446.727
-1085.81
-894.209
2031.02
-392.893
-3561.69
201.429
19.3773
-844.777
-136.375
-2072.07
4384.81
567.753
619.949
2507.89
-2596.46
347.194
2369.09
6113.42
5557.26
1252.79
5510.75
-1281.28
5365.81
4719.56
-1226.71
7392.28
4578.66
-943.057
152.458
514.076
1414.68
1890.03
418.04
4335.76
-3005.59
1531.53
5414.63
-1391.62
-1432.45
2378.72
2684.24
1860.28
552.219
-941.709
184.462
-1371.56
277.84
6288.68
4805.6
2807.09
2463.01
8325.6
469.155
89.9856
-3222.66
-704.506
2331.36
1235.08
-810.908
2245.26
3483.78
-1067.98
652.103
-459.537
-1723.21
-48.2912
-2704.48
-502.031
254.767
959.255
450.602
450.398
330.157
22095.4
993.232
1559.07
1547.73
-2419.54
1346.58
5735.29
1208.61
4191.01
-4231.75
-612.597
-541.209
-3569.12
-640.168
9639.29
-205.106
8219.66
1068.39
6475.17
2827.51
-2828.75
4992.62
2687.54
3923.25
1125.21
7800.12
1776.83
9312.15
-416.919
3803.31
850.854
-2350.08
-353.665
-2399.33
3708.32
-690.79
1427.27
520.932
3635.81
-178.558
456.094
13352.1
-1934.74
438.108
6764.21
3030.69
810.527
716.041
-718.301
5884.06
-701.575
218.503
3498.22
2045.85
-3458.37
-443.613
3368.76
-741.703
3658.13
14.0358
-2767.57
-584.652
59.9557
1287.39
2624.77
-1232.29
-2641.15
675.095
-2793.87
-742.452
-1940.09
1791.27
-11.3431
798.742
1653.85
2618.1
1816.89
6583.68
44.879
676.219
-451.718
-1501.04
2775.94
1915.59
-1151.91
175.913
377.446
-698.111
2365.13
225.168
1818.87
-1349.56
-1253.98
1860.48
-2798.47
360.553
1788.59
4301.51
11933.1
3312.33
1073.72
21.2181
6066.84
809.247
1967.83
-4316.34
-330.13
149.714
781.092
-4592.67
-337.279
2590.93
3493.65
1836.14
2212.78
-955.053
4312.66
5343.49
2697.26
1261.58
-839.152
-560.881
-1058.88
902.047
-1619.93
15.0841
-998.333
1804.91
5011.15
2971.46
155.833
-2563.04
-753.468
1181.97
535.225
4109.16
-344.525
567.206
2740.46
-1917.47
2183.11
-105.12
1865.92
799.941
1405.82
213.305
-821.943
-796.059
-1470.91
-17.3161
-1674.06
-1010
-856.495
-91.9238
-854.918
100.421
1805.74
420.101
3512.01
-2566.95
3449.07
-4659.28
349.363
-1367.31
88.7672
-988.665
-47.3505
1438.97
-718.258
256.483
81.3561
3206.78
158.087
2959.96
3852.54
248.147
-3044.59
-1973.18
4665.04
2313.78
623.607
1741.68
-928.095
-860.888
-221.124
137.323
2774.08
-191.586
499.903
2768.69
-952.048
-1890.66
-185.669
2001.66
1037.57
-313.069
-2426.57
1788.96
1253.3
397.849
-2262.27
6640.24
-180.739
59.1284
864.871
938.389
470.405
711.624
-2387.85
1264.6
2650.51
7783.22
153.839
281.662
-1159.46
8723.14
-4.08939
3380.83
61.8253
222.987
-3384.79
-136.85
596.432
1461.78
-563.511
4581.95
9374.06
-441.44
1087.47
-20.0393
294.265
924.881
1982.75
-459.639
-0.628105
379.723
-193.671
-1080.06
-83.3685
-1193.31
-564.625
2661.72
-129.992
4069.46
-1412.56
-131.679
79.3501
4898.88
873.432
-111.8
347.119
-3421.16
-2497.67
-1245.18
-472.332
345.49
7921.08
1001.76
15269.5
-1053.21
-1549.53
-1470.32
-121.756
1939.89
194.762
2452.24
31.3122
347.28
733.359
395.96
1178.56
2544.99
1438.53
-1110
1823.09
-1697.57
-755.026
-10.1649
75.4839
-143.794
2606.3
6436.01
9020.46
23527.6
4709.19
5374.71
-685.73
3850.69
-657.84
3431.86
2367.51
800.35
-468.18
456.941
2468.86
923.41
4500.11
-1090.07
-1118.48
602.831
-805.83
480.793
-766.478
647.67
202.481
-274.416
5575.42
-1569.75
2013.96
5079.53
8343.31
8782.55
-614.033
-1494.07
70.9776
-268.479
624.197
-486.081
539.544
246.522
-35.6878
468.138
3498.09
-1165.54
-490.466
-760.513
-1631.45
545.542
1449.41
1614.73
765.246
-2267.13
-315.45
197.089
5785.16
1892.01
-1439.51
1052.98
-524.233
4013.63
-1106.44
585.106
1494.88
7633.56
-3345.02
617.105
-1872.1
1764.76
560.449
-479.362
1327.54
2629.71
-3437.23
-157.241
6057.15
-2555.36
-900.588
-1946.75
-2103.87
2669.75
-1282.65
2781.93
5140.62
832.144
-5550.65
-1849.85
-5489.39
162.329
-168.549
-803.354
2540.95
6076.86
3506.28
1003.78
1974.84
-301.405
6873.02
7964.11
-2734.95
-4283.82
-1556.21
809.572
-488.129
1342.96
637.852
-3653.02
-415.766
24.9276
350.799
6949.86
-232.076
-584.16
169.07
-1819.37
3065.53
773.427
208.659
233.113
936.053
2210.88
-977.03
-1554.76
842.084
553.841
59.957
5950.08
422.51
-112.476
-741.259
-1946.62
2577.96
1084.64
311.775
1854.26
1086.3
-1500.14
-694.808
1732.2
-2000.12
-959.988
-1307.48
812.44
-6.58366
1369.65
2343.49
899.383
3541.2
248.023
-1816.32
-1947.3
-1482.28
104.264
1976.39
-1250.09
50.5548
-1206.59
-108.444
11454
2810.97
396.824
1876.39
-1389.21
1515.36
2518.51
1341.65
369.682
-4466.57
-2319.16
5982.64
-482.296
2778.53
5801.37
-345.04
-3865.56
1646.18
2529.47
11553.6
1430.96
-857.536
2.70473
-1559.48
-3134.26
-1056.21
-464.106
2646.57
-2662.08
4541.19
22.6415
1218.12
1357.93
2648.16
-1801.78
2904.53
-1002.68
-1770.19
756.506
-3680.2
413.767
10998.9
-1617.67
-1003.51
3803.13
-1852.68
11157.2
2788.61
-1130.23
-1040.02
-3456.05
4002.78
4890.18
3766.85
1799.22
418.154
1988.54
-1284.68
2368.98
14795.1
22002.7
9260.75
2487.23
-316.966
-2997.69
434.617
463.845
1085.98
572.688
1491.04
3581.74
-2488.3
1186.71
-553.547
-502.969
528.936
1033.97
7023.7
1283.31
16.529
1624.47
2538.68
-775.872
-143.913
573.791
6920.31
6881.79
1356
1329.56
5543.17
2267.29
-2174.85
623.716
1507.07
6004.96
1252.13
2323.9
939.806
3483.02
-880.014
9234.78
-327.528
-2335.77
102.803
8548.2
1853.16
6078.42
1196.83
1485.67
-1682.94
-687.404
179.665
6135.93
3382.04
-1599.08
-247.799
-2638.52
14384.3
1706.94
3911.22
1826.06
6889.34
-332.708
1022.34
1971.24
1819.61
4041.25
3311.86
2242.48
3490.08
-810.509
1340.03
3447.61
1026.63
20590.7
941.354
3100.72
-1698.12
-887.196
-957.979
308.255
9702.32
-2098.89
-33.3803
-3681.65
-3486.27
828.072
2488.07
326.963
1447.32
747.525
973.39
528.96
5161.32
688.962
178.208
-1558.67
-1977.26
-438.185
51.2952
463.213
-678.401
7721.63
2461.9
-1749.6
823.131
65.317
800.968
782.152
-1070.87
6654.27
4970.22
1557.56
-55.9436
-1383.21
-518.816
477.211
1357.49
1130.79
1988.52
-6973.7
356.25
-110.243
1904.8
5230.79
-1533.02
-2003.68
7280.89
1891.28
1193.12
527.957
-59.6554
257.55
99.0287
1296.28
3098.33
3348.05
7325.12
8565.07
6387.03
-892.67
990.776
2822.75
-2488.11
3178.84
2464.81
-1644.07
-354.469
18417
1122.87
5264.37
837.957
12683.5
-375.438
-2641.41
233.379
4364.83
-1786.92
-1819.79
7208.09
162.407
1435.64
-533.87
2719.82
6845.69
7099.5
2616.36
-562.749
2422.54
3297.74
-108.714
1816.63
1265.02
-3444.14
-288.479
2312.08
877.263
-204.484
2394.98
-4561.45
20.8388
4852.61
2400.18
6674.87
-810.177
1235.12
659.683
-61.1322
8022.68
9.99409
3385.79
420.443
3187.27
6118.59
12368.2
-593.791
7362.18
6112.45
-316.992
1602.1
6056.57
-1212.35
13043.8
-969.091
-4885.7
1284.7
1534.1
7776.06
-74.0694
629.867
-123.928
585.998
-1886.04
5063.43
4333.72
11589
-1558.26
-2560.93
50.4366
3602.82
11391.5
2570.39
-260.913
567.254
-1920.87
857.427
-2077.96
-4145.01
1162.62
2195.29
252.699
-707.104
1357.09
808.662
-682.589
2289.7
8033.8
4005.95
2772.21
-545.947
13286.9
-442.228
8010.39
766.989
966.995
-1424.73
986.275
1983.42
869.565
-696.442
-3673.01
777.041
-467.062
2686.67
-246.813
2919.31
-520.308
-1029.23
953.312
1887.98
3607.14
313.217
495.785
-1927.69
9107.54
8628.64
-4311.07
1408.8
-3013.91
1199.09
4664.48
-56.3923
644.718
6321.75
-257.827
-427.033
5821.92
11538.8
-991.621
-1734.65
183.533
202.733
3839.96
6086.49
-2602.34
-2733.89
6774.84
-1498.46
-4933.63
3510.23
1027.74
-281.648
2159.66
11069.7
-198.726
1541.73
307.481
-2597.3
-350.325
-1005.05
2493.89
3355.68
11971.8
2794.82
2825.01
-2152.76
-645.93
-123.264
311.746
1807.91
-710.102
467.483
1952.57
1293.79
-687.264
38.3439
531.629
4475.5
1051.67
4715.29
-1091.88
589.321
-113.692
-826.357
1491.91
6131.64
2453.66
-315.821
685.493
-1839.47
-593.248
384.383
988.244
-37.929
2923.34
885.652
-526.137
965.521
-289.322
7196.07
-3.86916
-1365.47
7887.04
1543.5
3965.51
-635.025
3348.55
58.6733
12582.4
-1939.79
-866.924
1146.82
-414.711
730.326
2924.58
455.297
2648.82
2164.05
-631.68
-1071.6
246.267
-3692.34
-1414.41
10796.2
979.859
319.52
1010.79
801.279
669.919
4682.97
-1802.1
-624.062
706.978
-65.7956
-62.0289
1982.54
193.406
-1287.36
-3828.77
1035.47
599.188
7545.71
11727.5
-1913.14
-62.7732
-1251.49
-344.09
146.586
860.163
157.715
-587.291
-213.133
73.7927
-2506
-1514.86
-522.843
-1788.68
1614.41
1415.13
-607.82
671.355
299.229
-464.191
1868.04
-32.8681
-433.336
2550.29
1107.25
-1767.84
-145.834
2143.01
-2507
30.1382
3019.15
1967.18
207.072
-922.263
-615.721
236.51
957.058
-756.71
2691.55
62.4501
431.298
2605.95
25246.4
1315.64
395.686
-2584.18
699.364
-995.907
-343.248
944.688
-570.242
372.907
447.447
922.204
1928.31
3147.08
3505.56
57.4974
2433.4
2038.49
-363.992
1164.63
1105.02
-1268.29
-1627.51
5482.78
833.581
4159.46
-120.812
5324.6
-3654.57
974.229
1317.72
-701.04
78.1013
478.689
5256.43
1050.01
-607.205
1015.11
322.586
1633.28
6389.47
-805.118
-6965.33
-849.323
5277.08
2631.38
352.401
-1124.2
5286.65
-828.842
-11.6015
623.877
-235.644
-278.767
3055.07
2301.09
484.628
6358.09
2442.63
6775.96
7986.14
-1247.98
14.1883
6216.09
4540.52
-44.0173
-492.985
-214.487
162.819
992.666
2329.18
17.8265
428.823
2263.29
128.968
12.9825
763.565
-4065.08
774.131
1131.2
-427.171
-2690.27
488.333
593.399
-3892.25
-897.422
1686.15
-175.93
113.113
6389.49
-1586.63
6049.95
1670
-2368.56
-574.031
4133.43
5972.26
-45.3203
-4396.88
-1194.84
-102.948
1058.8
4361.21
172.71
-99.7329
3730.03
11639.3
381.136
-9334.66
3241.56
175.714
760.068
-906.596
-2230.33
763.744
-1924.98
-763.193
3208.68
319.109
3406.45
-15.9598
7107.13
-1894.81
1811.37
-766.453
-722.768
761.466
4877.72
694.238
2614.1
-1435.41
1805.08
226.503
2359.38
-1802.38
5882.6
734.054
1577.46
2678.74
14516.5
5041.63
2782.5
-3609.65
91.0822
8334.43
5471.37
1430.03
1395.3
1859.47
1982.75
1897.7
-686.179
-968.263
105.708
-213.304
-444.437
11149.2
-18.5113
2083.87
830.585
3965.68
-1795.45
-2722.59
-3080.04
-633.687
-1269.92
-830.59
-3522.81
-853.92
484.295
1105.91
1675.28
1147.2
-847.319
-482.51
14203.3
-2343.97
2520.9
-19.2688
-44.2701
3220.94
-132.379
1430.09
-155.394
10876.6
16349.6
4613.42
-2950.62
-157.684
6499.78
664.443
4294.59
141.834
4463.02
-160.309
720.567
-678.645
-108.106
544.126
566.387
1241.35
-731.563
5444.35
-123.337
-1559.82
-48.8218
-126.563
5499.81
-2747.11
-1505.53
-1353.83
-513.582
1021.04
896.737
4904.39
-2625.54
-2868.48
1476
-3245.69
140.739
8802.41
2108.41
3741.24
-1411.73
-3684.83
327.766
-3367.21
987.56
-2943.6
-477.917
1457.73
123.827
550.835
5535.16
-805.404
-584.468
-643.892
-431.114
2728.57
-688.002
1646.47
2538.41
-958.252
-2704.04
-1453.29
2994.95
3066.7
127.892
2372.53
6631.83
618.635
1915.74
-428.431
-748.319
1359.3
7360.94
1444.33
-3730.47
-3722
3625.15
-1038.28
327.423
524.625
2328.99
4093.92
297.246
3920.71
1932.06
-1547.23
2789.32
-643.363
247.084
-2206.96
2122.22
3656.68
5923.69
2302.96
9958.01
-2763.47
191.413
-1197.39
-1234.74
-141.509
539.262
-603.464
7259.08
-1022.18
3098.79
-333.737
-492.023
13800
5800.09
3544.85
3895.88
-462.623
5165.44
2603.55
572.452
-437.814
-1908.81
735.311
3140.39
-2167.9
7178.38
1967.58
17570.5
3959.82
-1171.41
-998.043
2994.76
3247.76
1157.39
1541.87
-1309.9
-1546.67
831.598
396.62
1183.88
767.888
92.362
-3093.74
1058.56
3636.37
3353.37
2837.59
1503.22
282.976
1520.29
-145.926
-2126.61
1247.65
5894.96
-3880.06
2505.05
-356.459
-7.30191
-4660.81
1642
-3165.84
355.061
-397.162
-627.027
570.517
597.533
111.306
1422.07
-8080.84
-1493.77
-399.894
-199.19
2151.69
1918.6
-102.666
11115.8
1519.63
-910.653
520.836
-2984.49
3935.84
3978.43
-383.053
1778.16
-2267.52
-3256.86
-238.489
8104.64
177.944
-174.733
-1765.75
-617.448
1739.04
3036.98
1212.79
3428.48
5587.58
-1652.49
6295.71
-1551.45
-538.178
6827.53
2013.65
3995.52
2400.88
-2608.81
-279.758
-761.556
2515.24
-9.57609
565.104
286.96
646.774
-420.246
3279.61
-1480.58
-1117
-372.805
-135.344
1333.19
1059.05
-829.862
972.309
-1050.68
7261.1
2539.2
3812.69
-121.013
229.623
3479.79
-916.161
42.6249
505.254
84.4989
2306.5
2306.56
471.12
2609.16
2301.92
1990.06
2723.27
3183.23
-2673.15
10123
-4367
-1299.9
3061.59
-505.736
-2447.1
-1797.59
-78.0535
2485.28
5386.63
-1888.16
-1058.15
-2691.12
-198.867
11557.8
1421
-101.253
1195.51
-173.509
-528.913
1679.84
-349.557
3637.86
834.175
1225.66
-40.0125
2214.25
1944.66
753.447
1067.88
-5145.41
-2990.08
975.39
-805.014
-882.927
-806.898
694.454
-45.9028
-135.228
1786.6
12321.3
4396.78
-438.631
722.455
-142.86
-2041.15
-1358.9
-3461.96
2623.6
-516.066
1354.29
-2532.49
4594.18
3514.64
1608.44
1388.77
6482.75
-37.1183
-936.127
3034.55
6841.87
1995.07
2001.87
-440.374
226.826
439.336
5378.6
-487.437
10830.5
666.007
-1935.63
-712.261
-1080.21
304.276
763.565
2490.22
3709.17
441.591
2512.42
-3.34235
890.492
427.096
484.177
1546.29
222.454
2913.08
1591.71
2309.26
692.781
-175.016
1687.05
2070.14
-3354.66
-365.71
-2648.91
436.961
-5066.78
5627.51
2115.76
-652.981
1951.57
297.317
2263.82
2420.24
64.4422
410.317
1343.88
662.821
-1449.87
45.6215
1107.23
1126.44
4492.78
1488.42
-2266.54
5561.1
-252.452
-670.571
11464.6
4104.05
728.812
1296.37
-844.386
-1506.73
385.325
5629.82
471.673
-1434.53
138.397
-29.0569
850.802
-2139.74
1402.12
15074.2
-1628.34
866.917
619.015
-794.545
-2442.59
-546.097
1218.96
826.692
1279.01
-931.121
984.547
4114.64
-670.377
3789.93
4880.86
254.964
-2395.46
-3324.84
4510.26
1429.29
-602.687
-315.945
963.403
-447.952
-1841.93
-2477.78
1043.14
-3065.78
6619.5
480.497
2910.46
-277.114
3790.69
-1165.17
-1615.07
-162.245
-444.147
959.176
3995.13
-1201.55
143.398
-303.703
8454.73
7853.06
-947.425
-1221.72
333.158
214.508
-236.027
1813.36
1377.64
-2057.84
2756.42
140.586
848.642
-702.763
-691.492
1507.2
1949.15
-663.662
440.431
27.9011
2620.08
3246.74
-91.1744
7145.65
-2547.62
-1851.31
-655.003
-620.891
305.952
2461.08
1222.72
-1168.3
1515.85
1696.42
94.7761
-947.902
-552.936
-1407.65
5187.54
214.537
-696.67
-465.848
243.293
-833.488
959.624
1856.92
-201.675
-760.839
-1660.08
-6122.69
-655.02
1013.39
-786.218
-1564.72
901.608
-467.246
1661.16
-630.774
3022.44
14.414
308.466
-111.065
738.598
751.202
111.073
535.205
3627.96
-839.31
-21.7295
3311.36
-735.416
-1444.15
5358.64
1022.94
1405.21
-2230.97
1162.99
-2316.91
4160.49
719.004
1747.36
-191.725
154.626
-830.868
-945.07
-308.98
-1626.31
3463.43
3690.2
-581.194
954.647
-1982.51
-420.386
2286.8
-1264.73
455.782
142.64
2586.24
-1350.68
3931.74
6404.58
6961.84
4905.2
-107.808
-47.0032
-290.84
143.422
-367.637
1333.76
75.0571
-918.726
1181.66
-731.896
2354.27
3861.42
-603.126
1656.28
-2307.97
5162.95
28.3628
312.54
2479.45
2464.38
822.899
-400.65
733.795
1947.86
-856.097
-356.997
2369.26
-164.715
-1301.74
10315.2
-967.834
-1812.43
1864.25
482.416
2258.29
1706.78
384.679
10417.4
8888.15
47.6372
2499.01
168.393
-421.588
3796.87
-525.54
115.571
-543.923
683.448
145.04
1202.21
-903.179
406.537
60.5826
8320.41
-348.878
-963.285
-534.061
605.38
1812.03
-1821.72
506.656
1376.16
-518.935
-594.696
1889.02
-620.989
-1035.41
-822.801
-879.945
925.919
733.478
-159.401
802.409
3330.33
7580.16
1680.25
6391.67
-88.3052
-3553.88
-795.349
-3623.5
-2619.82
4293.31
18743.3
-2107.06
-793.021
2669.61
7314.3
815.955
4868.8
342.625
378.334
9404.14
-337.35
4244.41
-277.709
1865.41
9955.82
6497.14
499.675
179.098
850.42
-1352.32
-310.803
-1469.76
-1629.89
4598.74
2684.51
6042.95
1406.08
716.815
864.014
81.7733
889.026
3723.08
659.915
581.169
-1495.45
1658.34
1176.74
1871.97
-1472.98
5599.04
2788.91
-2916.5
6780.48
9054.21
-2530.11
-3258.09
1362.24
-737.36
-1399.48
236.051
346.579
2348.2
272.484
-4311.73
572.983
-167.947
386.942
683.238
271.757
6182.66
-1377.21
-5581.74
28.07
-2321.26
-4276.88
659.896
-382.327
4180.48
-275.947
2511.6
-263.995
-670.077
4395.93
5780.57
-129.581
770.22
1199.07
-119.451
2247.11
682.453
6885.19
1284.82
-2299.59
2340.84
-1349.74
-1101.63
-578.373
2925.37
861.95
-241.622
545.635
-36.4048
-1128.59
-2457.27
7374.83
1563.88
-696.847
3965.3
-34.4751
2858.06
-85.9737
-482.225
3745.93
570.795
-736.567
-1.45094
9886.76
1714.11
-1134.36
-123.279
1416.79
-806.231
-1087.35
133.588
4277.71
-1660.13
1918.4
908.406
-967.18
4838.99
-3999.48
343.771
128.075
-951.656
3512.97
946.864
1295.09
-112.876
11811.9
-1253.45
190.722
-2801.26
-1074.99
-1268.09
-193.686
-3090.18
2063.12
-1763.23
1363.81
2294.75
-2078.99
4.45498
2511.26
1155.91
-1822.1
-5960
-36.756
5856
5955.58
-1356.96
-149.485
3541.54
-789.162
7810.7
787.39
749.523
837.252
-224.394
-576.569
5120.63
736.769
-1635.08
-1158.74
3846.33
-584.072
3000.42
4149.35
6252.62
309.515
1524.79
1612.87
437.755
-4192.95
858.069
359.877
1149.29
4258.38
-701.809
5675.69
2232.06
140.006
1044.76
-664.66
-2202.86
-3122.4
5829.89
2168.96
1067
-2869.58
102.996
3.2396
6508.41
-2142.84
-4160.23
5999.77
4329.1
10896
1856.84
-601.279
270.67
-2080.4
5534.93
-340.754
-1234.85
6272.11
-2694.31
-920.101
469.933
890.08
10080.5
6457.77
-217.763
-1468.89
545.874
40.4481
-937.204
2380.52
-2919.37
9080.93
679.058
-1078.55
39.5478
1536.63
1443.76
6242.04
-1307.54
105.442
301.316
-410.295
-2932.27
2815.67
-784.756
-1637
655.869
-3102.42
325.578
3568.04
5765.56
-773.102
-145.273
-5490.83
2741.73
-3000.01
2101.84
-538.656
-270.805
-496.422
-1600.24
404.932
-438.945
5553.66
132.313
-570.676
-1074.21
-144.936
11284.8
7348.05
4657.17
-1690.97
-149.176
-2168.94
5032.2
-350.143
1106.74
-557.968
-1059.98
610.019
148.837
2799.12
326.768
1169.04
-554.428
-1290.29
4291.12
3483.95
2089.77
-1028.32
2844.12
4853.99
-416.298
301.192
-1864.93
3301.27
9493.79
857.374
583.942
-1193.09
4276.15
-2149.72
-645.57
-523.197
1522.34
2242.17
301.105
1072.28
294.015
-453.212
80.1063
-491.815
8451.15
-491.285
-2833.09
2901.5
1522.33
-3206.36
1443.89
621.843
2057.02
-401.795
888.951
-1193.07
1213.77
2078.63
-644.534
416.898
118.471
553.605
-1104.32
4772.44
-982.552
-877.85
-1668.97
685.913
-413.538
5846.63
47.8716
-59.9399
1177.56
-3854.44
-1364.68
528.056
10553.9
2433.48
-2407.76
309.065
-2695.34
-649.207
-131.61
-4593.99
-1033.44
-1149.21
-3958.91
-81.5099
-2765.17
-910.553
-164.324
653.009
-1109.67
13.4224
1081.77
-1377.3
51.4063
-261.132
5421.98
1449.7
-794.338
304.102
462.963
-1547.68
2408.15
1247.81
4284.14
3372.18
5289.43
886.506
847.875
746.986
-196.155
586.561
-504.907
1909.08
332.517
-1979.24
-75.0439
-553.006
5367.27
-966.545
-4329.25
2737.36
1900.94
-89.0969
3014.43
4547.94
-8985.14
-199.15
145.618
-833.531
-2826.47
198.471
471.071
34.2221
-3818.58
-536.645
-950.557
5490.16
49.7447
1251.92
878.358
101.331
-5196.81
844.525
127.662
1768.58
-529.992
4047.16
-760.952
-2325.12
-47.3336
156.379
1583.21
-597.893
-622.552
-277.936
-2255.56
7044.76
-389.758
6161.74
2540.42
4760.79
5479.44
470.11
-776.645
4472.89
-300.246
656.698
1477.91
12528.4
4647.75
4126.17
-1040.94
-391.348
-153.448
-3990.4
-1875.13
835.026
-710.045
-1253.19
105.811
1956.12
1379.7
-521.075
924.429
249.72
4508.03
2267.98
1177.59
1776.95
-317.049
4440.57
454.705
7785.59
282.655
-3535.86
4260.01
930.718
458.813
1699.22
3368.87
1777.62
-397.346
2000.55
4549.42
175.388
-993.845
645.88
-796.42
1287.01
-4.08522
-1717.66
5560.59
179.948
592.112
-4556.11
-1229.05
1526.63
-610.782
1178.31
-1113.56
5848.43
-2280.08
-260.207
615.838
-2044.38
722.975
2308.9
3503.55
2405.87
7219.18
1277.97
-28.7883
1948.62
-2051.95
2253.49
-568.552
5174.56
-587.83
-1541.17
940.619
4403.01
-259.375
2976.22
1664.9
2679.02
4368.09
1683.45
-2934.05
2086.98
-2032.05
-999.024
1929.2
1093.5
-216.668
11358.5
7441.65
1711.4
6241.65
2903.82
-23.7506
-2208.38
2140.26
-1366.92
-478.293
-530.96
1951.96
1591.88
523.3
9166.07
51.2595
2671.65
8976.86
270.844
658.374
-703.8
1177.04
470.786
3160.27
-1252.3
88.8231
-120.407
1543.73
3394.7
91.007
-1484.14
1632.47
1352.27
-733.708
-380.308
4200.3
3247.99
1913.19
2277.43
2837.89
1204.59
228.472
437.797
1674.24
1787.97
-1414.12
38.7131
1530.38
-822.543
-6.24104
529.669
-4.00826
-167.107
4345.04
-364.046
2071.32
656.723
6337.5
2234.02
497.066
-2686.04
-2096.66
5355.01
-436.543
-896.392
-151.01
156.853
-1046.6
3364.29
-1001.23
2620
-459.788
-675.626
1074.74
24.2387
-629.346
1328.34
1940.09
-89.2727
3595.63
-494.615
1341.99
-1724.43
1361.2
7776.36
9231.73
51.2056
-1917.31
-382.345
613.917
1280.53
4436.97
1836.63
4766.82
-1502.6
-277.323
898.965
-4530.26
42.2265
-1427.64
658.071
-397.486
-526.514
465.823
1672.61
5170.17
-700.284
56.8865
2572.21
13349.4
-1876.02
2663.72
1350.21
1385.65
7458.19
1245.23
1764.04
-354.078
-358.088
-1437.07
132.125
7382.31
118.036
-885.092
2705.48
-319.984
3738.2
311.589
6354.4
2537.62
151.448
4045.92
-949.439
-2135.18
-4366.76
254.733
1196.69
-104.09
-678.362
-131.408
-448.182
-663.889
-2370.39
1831.79
8559.78
4920.04
-150.355
885.761
5060.51
-430.785
-2146.49
-985.354
-319.031
3023.78
1678.44
561.524
4188.67
-105.994
2124.83
1938.27
222.043
1410.35
-946.365
-4224.16
-382.338
4597.38
235.232
3035.55
-396.953
6826.12
1467.76
4423.31
354.741
5664.18
1323.64
-408.012
-310.898
2024.75
-1142.63
41.1904
3097.34
461.643
2636.83
470.819
3011.64
213.425
2565.19
2353.45
2662.97
-1881.8
-301.318
329.095
-1050.73
2795.04
-360.067
1040.65
678.882
-213.764
13257.1
4712.58
-115.16
-1545.07
-735.459
-649.48
-307.304
14013.9
-475.854
-2709.22
185.74
1402.95
5159.56
-1347.11
-1340.94
2352.45
-239.196
-2601.59
-838.008
23.936
3329.8
1884.31
-2358.2
249.667
-265.471
1392.85
191.429
3674.57
2369.96
566.429
4294.24
-644.063
2930.76
-2696.43
-1723.24
-1505.82
-159.757
-363.869
1036.12
3070.4
999.691
8.86681
13537.7
5637.98
2335.57
7348.81
336.187
-952.303
9315.33
973.77
3976.81
-62.8858
2057.15
402.489
2133.62
-871.117
629.258
-1902.52
-623.178
1181.42
805.388
-630.089
10126.1
3280.18
232.944
3165
-507.49
-98.9315
-3835.98
217.081
-399.509
992.657
-263.931
3999.28
7014.8
5343.8
2441.02
96.5745
-306.68
73.4308
-522.344
459.975
972.507
6722.5
-732.21
-475.89
597.488
3313.12
-2152.53
-400.012
-201.673
1497.61
5092.18
350.11
8975.52
2189.09
403.627
3915.61
7247.45
3771.63
5736.42
3961.17
2985.03
4450.21
-65.1054
2779.55
3868.18
292.215
3342.68
1950.42
-3608.16
1526.05
1198.56
1672.98
-213.603
4855.53
-28.3711
-508.552
373.571
-483.683
2383.84
-1670.03
-26.5659
1570.61
-2109.76
123.246
2189.55
-791.871
179.574
443.349
928.529
779.777
-2059.57
2223.32
384.555
-1503.65
-1213.17
-949.066
-442.662
-433.913
268.77
657.855
329.491
-1165.87
18041.7
1120.68
1377.31
2400.7
1943.86
1064.54
-1981.48
2547.74
703.532
36.5044
-2566.5
-190.559
-799.669
-901.799
-1203.96
957.006
1659.22
9328.59
-273.03
-359.041
919.054
229.094
292.874
778.555
-1267.4
-2065.42
6806.63
-722.874
360.231
1190.2
-4575.98
-1409.77
63.7112
1615.75
-44.2753
1541.75
-508.247
4565.77
717.383
8009.98
-1191.64
447.015
720.195
3321.55
900.247
545.195
-1103.64
1185.96
1384.62
831.146
9669.81
1600.85
1706.42
-2036.06
-2084.54
326.214
-272.829
-1672.52
-1567.69
531.505
257.664
1778.55
1574.33
4184.93
4461.01
-1620.84
639.114
-134.68
3639.34
-1413.98
4220.4
2799.47
5998
11996.4
-2493.57
289.221
-346.773
-442.892
901.37
-1459.85
-701.641
1592.54
11223.9
1003.4
-2046.78
394.578
-318.345
100.99
-1168.53
499.647
3781.42
-752.814
-1364.78
1303.82
-2350.41
5.33144
1135.83
-321.579
-1074.03
-358.025
1358.51
-285.953
-4525.84
-365.347
-358.251
142.078
627.128
3222.03
780.673
-114.486
613.452
2951.19
-1841.01
314.343
2161.46
3117.8
2079.89
1121.04
-147.63
-300.589
2502.98
568.65
201.354
-2211.3
2217.99
-522.11
-1480.15
1248.58
-724.66
-2010.72
5339.23
-1253.39
-265.854
982.72
3084.16
3843.51
-1061.24
5639.41
317.25
1653.64
6106.64
-730.196
1772.49
4633.24
1125.29
539.223
-19.3573
-566.41
-1673.92
223.784
-894.653
-563.981
-1846.71
818.86
-1679.06
7771.83
46.5208
1640.97
2551.84
-495.189
-52.7889
-535.831
-834.819
1440.69
1958.38
7797.51
-1239.62
5981.55
-153.176
12058.5
980.828
1030.06
3097.64
-4406.42
2173.82
496.806
977.956
500.728
12004.9
3320.72
910.116
261.028
5227.09
-1469.93
1613.21
403.077
1619.14
174.1
2737.29
4617.81
2680.02
4626.47
1219.98
-653.997
-1499.02
-534.935
5101.77
505.367
515.533
374.23
1917.07
730.061
2350.68
392.524
-1238.49
658.326
-682.084
9251.94
-408.003
-1020.86
293.675
865.936
168.169
1474.93
-4525.29
-974.029
1336.65
2481.38
-807.207
179.414
1817.19
-875.581
-999.756
2247.86
-363.845
-2261.07
-2470.57
5851.52
3085.12
2023.75
-777.481
-831.219
736.11
267.241
4650.82
2024.28
-529.956
-4129.88
-1803.69
-2059.88
3077.04
5428.8
491.753
-2653.64
-399.964
-1062.48
2463.93
-490.743
-811.222
2765.74
3944.09
2915.88
966.408
-2616.94
1518.27
-407.596
1468.58
1509.55
2246.54
2784.1
1559.89
16504.1
-358.602
-1112.41
3252.35
-1812.39
-693.542
1357.79
1960.19
5526.66
-153.838
121.336
90.7823
3337.15
-3470.87
4675.71
3053.48
-1023.61
1536.72
-775.747
1612.31
1470.87
-3122.64
-551.482
833.338
1133.98
7033.51
12587.3
793.652
345.069
13422.8
155.13
122.998
20144.5
-815.018
405.426
1929.16
-746.669
1956.05
2046.63
-2226.68
-351.698
3859.68
68.9113
189.605
218.233
1335.88
-1287.3
-745.104
2298.93
-1041.24
-3981.8
1885.21
14871.7
-641.656
-105.288
-548.08
163.215
4923.65
1556.42
-756.834
357.198
-1271.52
-635.17
7664.49
4089.25
-690.779
1716.64
617.846
6409.02
105.486
-30.8238
-91.5361
-429.851
3327.87
1064.68
1162.09
-272.382
4538.24
677.345
-176.832
-277.648
-1283.25
-516.983
8353.3
7201.13
1135.93
723.008
234.077
492.423
412.031
-514.68
4659.62
757.474
951.903
253.503
730.015
-2782.15
406.187
-4295.66
7420.12
1186.35
453.715
1597.53
-110.212
1847.57
55.4931
5483.06
804.911
-1250.56
-1897.53
918.048
-552.163
-3406.2
1396.48
-464.547
-1184.14
-983.896
809.765
1594.54
-494.542
989.456
-1975.82
4397.51
2887.01
638.98
-2596.69
1157.04
-37.0084
294.43
-342.574
-1070.53
938.222
-2193.67
79.1795
1240.57
393.932
2434.36
2777.16
2727.35
6668.12
-2887.35
-308.209
1293.91
1282.96
262.97
-991.451
-690.31
651.96
640.677
-243.767
-2372.15
1797.43
2025.9
-2272.21
-1698.31
114.43
3011.01
-2554.09
-1896.28
-929.648
140.644
4654.99
5040.13
-1670.1
2004.91
336.714
431.033
-53.044
-1101.83
977.154
-363.51
589.416
-3922.94
12428.6
1088.45
4779.2
6452.98
-1783.54
-2598.55
371.836
-776.761
1054.08
1189.42
6935.96
1064.09
-817.011
749.946
-1970.47
6462.92
10380
6521.84
5375.39
-1878.89
910.68
1080.83
-26.4222
3119.93
689.326
-190.667
1638.1
6644.56
1509.93
-116.89
-1801.55
-84.216
4539.9
-1009.55
3332.36
3462.39
13534.1
141.105
-904.526
432.883
4846.41
487.261
15067.6
181.083
162.1
2072.18
-1148.46
896.968
331.699
5766.9
430.466
-1655.59
9300.44
6014.45
-756.311
-2081.9
6548.45
6494.37
14473.7
2225.37
181.752
-1149.67
6394.53
-1124.56
512.664
703.431
3932.83
978.153
8037
-3078.42
3557.33
695.912
261.299
1125.75
-523.643
-4339.17
-1863.27
1503.22
-2171.4
2557.16
-2170.17
-366.223
-1329.35
-18.8091
2929.67
-1957.38
2885.11
3230.24
-2478.67
-9656.9
3540.01
663.972
-315.531
2035.99
-1733.97
2602.26
14241.2
-146.189
-209.439
2221.06
-1108.39
265.293
-108.139
752.785
304.99
190.056
2076.15
5576.65
-95.8772
-1768.25
-770.877
-870.809
-839.054
2118.37
453.023
-203.407
868.548
5020.01
336.706
681.97
-4920.78
12370.1
1077.69
517.166
2020.67
776.425
1000.56
-192.969
351.91
272.863
2341.25
-1518.74
-1606.66
285.799
-114.913
792.311
5395.48
-895.37
-234.598
-318.849
-653.139
286.817
3926.3
-2602.38
180.418
874.511
-1959.36
-1781.97
-835.438
-437.306
-2089.53
-1636.7
3317.25
-3785.49
-1101.03
1676.19
-1244.7
2421.71
688.101
2267.57
-2923.51
4606.34
11268.7
1225.68
5703.04
-5698.46
744.651
-757.465
-228.886
15.5048
866.41
1125.25
542.383
3253.7
-808.851
2537.96
2551.5
1300.12
-2906.79
1244.5
8464.8
-2909.82
-793.066
1886.54
-1734.11
3.47766
872.617
-2072.22
-1118.94
2937.49
372.856
-101.333
3361.87
-690.958
-1833.45
879.662
1536.51
-805.686
87.4388
2400.6
513.824
-3652.34
-427.154
1741.44
6793.05
3620.93
-1958.75
712.906
1132.68
16022.9
-1474.17
4806.2
1759.39
2.03373
37.0328
526.228
-355.931
806.091
617.257
1174.33
-259.809
-1426.47
1948.67
586.438
-520.607
790.801
1569.83
-319.819
-792.913
-212.91
2376.75
-207.336
3573.95
330.619
10607.1
1176.01
-3413.3
2351.55
-1060.61
1201.53
-1643.38
-619.165
-311.278
623.715
7478.32
17242.5
-454.474
-330.143
8433.3
-2557.34
159.866
-566.857
815.75
658.871
-681.581
1362.8
-161.125
1230.93
6032.39
4010.82
3943.45
1314.6
-2043.7
-1266.69
-1444.13
-509.638
-677.766
184.894
-1207.14
-769.57
1542.61
1202.57
-555.135
155.22
215.036
147.938
134.042
2205.48
-518.2
-621.564
-54.9695
2392.81
191.927
-988.132
660.347
-591.743
2274.79
-709.728
3138.12
4723.24
3475.8
8225.75
2766.38
-2921.07
484.98
5820.04
4344.36
-1010.71
-133.949
770.625
369.031
-1216.79
-680.63
-15.9933
956.961
5778.99
1078.9
-431.457
867.924
1093.22
-109.199
-1963.79
6936.1
-917.942
197.525
4971.01
-584.208
-267.733
-1214.53
1642.74
2700.42
4183.15
-611.933
-178.525
-623.127
-2125.39
-471.016
-2246.48
-1092.24
11752.7
31279.4
2811.84
1219.37
9379.87
-1201.65
264.128
-2192.98
-5193.41
223.433
2107.25
184.456
-1097.78
-505.429
3640.69
2817.13
-3135.92
-879.027
201.028
-1294.82
-457.814
2312.22
5167.39
84.4874
-933.641
-1872.52
7652.32
3351.35
-1452.34
-299.891
-115.771
3667.49
-2444.58
6130.68
-506.016
447.334
104.877
2517.17
2384.06
1093.96
-1519.66
-24.749
-2469.28
600.96
-53.3325
361.75
261.219
121.481
-1336.3
-1088.21
-1039.56
229.344
521.864
4597.64
2391.85
-339.004
50.7509
6893.98
156.519
-2863.56
-187.699
710
300.939
2336.73
287.173
-182.049
949.335
-846.86
-836.467
1031.79
993.316
336.908
-2798.18
921.747
3204.18
1480.89
1033.86
-998.065
686.136
2740.6
715.489
961.41
110.585
684.964
1254
4217.02
4341.02
1357.37
5357.35
15.2695
799.033
-639.231
115.982
-2438.68
6074.69
7047.13
-1648.89
1045.61
1451.64
-902.997
953.879
1519.69
1462.36
11104.3
3110.76
-392.953
-622.362
3196.27
4830.52
794.824
582.311
-1407.02
-1097.71
4706.71
3124.41
2211.63
-4151.82
4477.94
533.952
4844.48
-688.79
3617.77
-1167.01
2348.3
1240.65
961.727
-428.495
898.305
2318.19
-4145.9
-188.95
-39.3598
-1893.36
-5661.76
7971.57
203.728
2478.01
164.836
-194.231
1828.81
-1071.36
168.034
1451.14
1933.01
2671.81
5443.08
917.937
-2298.23
525.567
-2350.32
-815.125
-68.7433
1074.87
-673.537
-22.0359
1744.66
293.48
-321.733
682.581
1508.39
1816.88
361.646
3808.9
1427.59
-58.9435
-600.429
1867.14
298.117
1826.58
-531.456
239.759
307.146
500.92
-1262.84
-6170.4
-1889.71
5431.53
619.307
460.229
5976.74
6976.53
1171.42
5033.39
-254.584
6226.06
2889.06
1150.87
-1927.52
4171.44
-158.919
817.182
2070.32
4145.69
691.287
2448.66
1555.71
484.828
11926.3
-1658.14
-3352.43
-369.11
679.021
2362.14
-942.372
1968.35
-1339.25
1806.74
1513.27
1877.05
-1333.09
-960.441
-172.304
2836.46
-563.32
-628.951
823.133
-2173.02
-63.3991
1622.2
-2064.9
-1518.36
2751.95
-1907.04
948.159
-573.096
1392.19
3225.12
1826.96
-836.341
123.691
-1828.27
-1815.97
361.152
-1563.18
302.96
-594.209
449.911
73.1169
-626.579
792.167
-623.71
-1928.67
516.545
-563.366
-1385.33
2027.86
-1541.25
510.301
-398.332
-118.204
3446.67
662.016
1365.61
8199.79
22842.3
5640.59
2208.56
-659.044
2726.8
-535.2
3679.42
2628.77
-645.007
1225.69
2072.19
-651.338
411.947
-88.8845
1012.64
1287.16
-1207.34
737.816
5852.13
6638.56
-1466.41
-740.362
831.561
8016.55
6796.4
1741.13
1536.56
2731.17
9085.52
20349.6
3897.52
5708.02
1117.97
10058.6
851.981
204.069
6577.33
251.158
-2567.71
-170.61
232.698
586.614
-700.976
1763.66
155.2
-3667.61
1173.28
-493.634
2095.26
168.79
3659.7
-2642.07
1791.5
2312.25
814.857
1440.41
-691.64
3007.11
3115.72
-794.176
-147.358
2786.08
5419.07
2415.44
-997.57
-1312.45
-999.103
2177.29
1740.97
8.15132
5652.32
3602.67
-204.776
-2935.77
154.563
6612.24
553.37
-754.86
5437.28
-931.603
3424.65
-222.134
5709.05
-259.808
341.489
307.708
1147.98
3099.41
-2173.03
-656.335
883.562
-1966.65
-2206.01
1654.98
-2252.29
2694.68
-382.18
287.564
1032.42
1099.54
-752.705
1059.51
-1553.86
-1584.68
218.082
8238.58
-3197.13
-2887.06
4507.99
-2657.15
-695.746
3741.8
-800.61
-403.806
587.879
120.607
7840.25
-909.763
-345.241
2618.82
293.371
4827.54
2580.08
1856.84
1608.31
4032.45
-214.673
1269.67
1838.22
-1630.71
3306.36
408.016
11100.7
-613.458
352.692
-1037.64
2750.29
-1301.42
-59.9004
3740.15
-780.172
749.147
-2324.83
1870.57
2418.89
4719.69
463.272
372.81
-106.708
-478.048
2271.96
-2569.56
-318.969
422.974
2780.18
-662.573
-755.025
5391.79
2816.15
-1010.05
1061.85
-1345.47
-1087.71
1571.34
-235.606
-1576.13
-297.548
-131.061
-506.528
2440.63
4304.49
106.706
1449.69
13174.8
-14.2302
14055.1
3720.57
1552.23
4244.72
5901.41
4185.57
49.2893
-941.071
780.443
-3921.32
-5703.91
1088.41
637.942
-72.1149
-688.207
-285.786
-1253.57
2447.84
6814.03
2187.45
53.2693
153.019
992.096
-1048.16
-25.0106
596.874
-1956.42
2474.19
-2749.8
1296.34
443.89
5915.69
-2839.41
1467.51
-3168.68
-190.967
121.098
4413.34
1986.25
1520.63
7576.99
-826.005
7255.46
994.483
-2141.9
1170.45
1917.77
1029.12
2707.28
3252
65.437
-3186.93
-2380.87
-53.8592
1030.64
2862.46
496.928
3529.36
3298.65
-1914.93
8320.78
3986.55
3847.82
1520.7
-401.41
1653.57
-3041.64
-1562.11
3228.73
-1240.98
-2342.84
-2041.97
-1538.19
-359.444
40.4677
1896.49
-800.238
3253.18
335.501
372.476
-2581.06
-424.471
2508.5
1184.87
-52.379
-729.921
587.425
1422.58
4911.55
1004.73
296.518
2603.08
382.502
1205.06
1905.1
-1257.38
5429.87
274.794
4417.92
-1118.07
129.528
-1585.51
-1173.96
-3529.31
-465.866
374.293
-67.7784
-1457.87
-612.604
862.493
2036.34
3131.9
-468.122
-383.604
2568.16
3942.51
-556.216
-2154.57
2286.78
-1688.03
-3546.53
-539.481
768.249
871.366
3019.17
4835.69
-303.06
1841.09
-1928.91
1025.3
-2425.91
-4675.66
2077.04
5842.04
4841.34
3164.89
-475.642
2045.26
-73.094
2607.05
-145.803
609.857
-633.383
-817.375
595.344
7025.55
388.274
2036.14
442.497
1223.38
-1115
3485.15
-950.415
-220.108
2933.83
-2178.17
-244.075
-650.888
1654.49
5600.46
2144.26
3555.91
-820.879
1176.05
572.959
-1519.39
3083.4
1173.55
6598.79
-236.438
409.131
-1197.24
-120.007
-2113.31
-150.871
2765.1
9600.34
12037.2
10455.4
4751.03
-1207.5
10363.9
4708.04
2010.16
846.318
-630.363
489.438
-464.486
-214.529
1709.72
-1760.62
-1516.66
-6587.3
5005.22
6680.53
2225.73
-1469.67
3298.97
550.631
-133.294
28.1952
-1536.34
-99.5365
753.272
382.551
1166.83
6244.61
10049.2
7596.07
-984.222
1931.9
-762.967
1083.13
-1354.91
660.765
2195.95
3273.16
2770.07
1249.48
4294.95
7850.33
60.5671
-2299.79
-2814.58
-292.674
-644.075
553.052
-162.118
-830.745
5544.48
1672.01
160.691
1744.39
5827.09
-252.371
713.679
304.745
-592.925
3123.39
1065.13
802.952
-815.414
1349.35
2209.22
211.179
934.182
7046.55
-293.894
237.357
-761.159
357.81
-1031.87
1475.01
618.162
2161.24
-1612.35
4409.75
2880.63
2544.54
-697.294
7373.71
-1449.84
1265.41
967.494
-1229.42
354.354
1358.84
-254.945
-1620.54
723.551
808.473
-1308.48
960.031
-4999.45
6595.44
-1188.78
-1756.57
3394.51
453.067
-2092.42
-1184.64
-1307.29
153.492
-628.925
-1002.67
-1672.65
2203.66
4040.68
-104.353
1362.02
312.577
-788.634
170.124
593.312
2516.42
1312.12
-1711.19
4688.6
1932.31
3245.47
980.867
-2803.15
7497.41
53.1019
3476.87
10439
9841.9
6008.04
-1014.71
956.255
1986.54
2371.85
-4.1595
623.744
5766.46
-1816.66
823.077
-1715.06
3872.47
10130.7
9110.03
-2322.54
4694.34
1327.02
13129.7
2590.93
1752.53
6260.98
1561.15
-1029.1
2792.38
4737.4
2826.68
-549.417
78.185
1246.73
6020.46
4016.75
-967.089
-3807
7249.12
4237.59
-987.971
1489.38
-535.303
-740.353
1221.37
-490.629
3751.82
342.503
-1897.13
2084.07
-490.354
900.857
-1805.81
1840.93
3516.49
1078.61
1399.11
391.737
2673.96
1926.2
765.694
-431.629
1020.64
877.111
-1586.73
6258.19
12184.7
74.6504
7402.59
7236.45
7539.97
13794.4
44.0264
-542.662
5153.97
-478.614
3562.1
2551.38
1682.51
3670.54
5377.74
5931.09
974.422
5835.48
-2481.71
2495.99
3178.23
4713.21
-324.572
734.182
-903.815
2593.69
-400.575
1116.72
1002.65
-2779.34
320.54
-760.455
-2622.04
12200.9
620.457
-1390.78
1164.27
4910.21
-1078.62
746.552
-1399.05
905.203
-1023.44
504.12
-966.694
-563.615
198.988
3198.6
5400.42
4120.93
126.437
343.006
-2040
-1802.22
-2822.18
299.96
53.5502
346.594
772.629
39.7267
-1006.46
1981.01
-1611.46
6193.15
-140.814
454.564
3994.32
4320.01
2417.98
-276.794
1032.64
2129.63
3658.09
168.835
3315.14
566.593
16.567
-3691.22
324.488
633.188
-1675.5
1594.22
-1458.33
6749.62
270.126
-134.048
-956.936
1262.44
1633.81
-1518.1
-2216.79
-1924.59
-6873.84
656.529
4246.22
-1566.53
752.233
-2947.18
685.419
-499.444
1628.53
5468.03
385.454
16035.9
2914.91
2597.26
681.037
-915.589
5790.37
-3461.98
-2298.2
2492.91
12056.5
-1663.01
-330.629
4499.72
1365.31
381.146
2544.26
610.327
2181.19
893.734
2815.84
-1733.17
5169.1
-2736.39
-21.2247
-4294.49
-1438.97
-676.154
80.5213
10836.8
5376.7
13611
4413.33
2007.74
585.712
835.162
-208.193
138.079
558.439
-770.67
600.354
-1315.11
1008.64
3394.81
-303.37
-3439.25
-1137.72
1645.65
829.219
1414.28
4495.03
-1083.87
339.366
1711.71
78.6861
-109.032
6793.45
1228.2
8761.08
2782.36
805.863
-3701.24
1933.17
678.272
-4024.57
-797.662
-883.153
462.77
1259.7
-1775.07
-1647.96
-1023.32
1258.42
12037.1
2368.24
-47.7362
574.784
474.73
235.446
-707.766
15.8856
-1825.22
352.972
-1518.57
4147.34
3021.35
-749.685
-4479.28
-1229.81
6172.54
456.81
-1648.52
1211.23
581.293
2120.42
445.33
465.969
11367.2
-158.678
975.43
-488.585
2635.22
-1506.06
6330.31
1178.62
6689.57
-27.4047
781.305
-1126.11
-1359.79
311.933
1542.06
1455.3
1810.16
2515.61
746.468
-1240.64
-1868.82
-2453.38
-1613.96
1442.8
2591.75
282.295
5962.56
1888.52
-1197.71
751.991
391.586
10081.2
-222.369
-1087.85
316.965
2615.77
415.108
-7392.85
-769.374
5807.79
2865.29
9224.48
736.646
3205.1
-342.327
-51.4147
2153.52
-562.473
2204.13
2113.66
1118.83
10090.8
5785.43
436.084
-895.917
3808.49
-427.661
-552.862
1044.05
1101.05
-1504.36
2564.63
1036.13
3953.73
-756.803
11919.4
347.749
-532.999
8886.08
315.019
1221.09
-4020.76
543.228
-1.89084
466.405
3424.8
-1278.34
-1356.19
266.146
-979.807
2292.35
1678.85
1313.85
-2620.82
1672.93
-917.787
390.432
2182.1
-2683.42
109.093
2602.55
-20.7173
592.199
1070.02
-276.083
152.794
1954.62
-795.24
990.545
3652.55
-610.825
-101.043
2453.98
2403.3
5388.63
361.1
-951.313
928.859
-726.164
80.5763
939.85
9871.2
12362
-1712.13
2681.33
1488.85
-121.177
-688.778
-289.817
6508.93
-550.017
799.186
570.893
-1048.81
-59.4386
-164.816
-3463.34
-1096.56
-217.47
154.04
-927.318
-935.676
4486.11
3345.94
-147.378
-147.145
1523.4
-1035.41
-1990.29
575.534
-361.928
560.355
8.54858
-2105.59
-274.173
-1651.78
1914.71
8332.22
941.382
1297.47
1300.98
-1536.65
-242.666
-1157.91
4060.55
924.146
1023.75
3303.97
-1557.11
-1529.89
-690.277
552.338
873.954
174.752
819.612
-491.41
-32.6895
-1423.94
12850.3
-957.433
-1198.95
-1688.18
7646.57
5658.47
2600.4
309.4
1482.77
-1326.3
-846.538
-212.749
-1011.35
3276.62
341.561
7867.95
-1216.88
-792.286
2540.43
-904.321
530.061
1083.67
538.403
111.949
-448.227
4320.29
-2319.48
3406.37
2298.87
-649.931
-643.212
-3211.71
-6593.02
1588.9
-3407.33
963.228
-1216.28
-389.311
898.76
6797.09
-2905.23
1909.04
2889.81
-301.998
14671.1
-851.864
881.787
1075.44
-121.23
-1325.28
5379.15
3106.16
2139.81
-342.328
-2041.32
-6079.31
7710.73
2573.31
3070.77
1412.18
1878.6
6834.37
1033.34
-743.488
-440
5049.96
-1923.33
6180.82
-539.913
-1016.87
-103.766
-525.711
10766.3
-195.49
285.849
2937.64
-682.87
-134.244
-1668.57
-590
168.039
846.719
103.253
2084.25
3356.47
795.573
-267.322
-544.869
2586.87
1004.36
-1201.62
-1329.27
6133.6
29.5481
-371.06
209.777
93.3708
358.887
-2469.2
-1577.36
-1241.23
232.89
-922.868
4051.89
-3474.06
-444.703
496.976
7133.85
99.8359
1440.93
315.398
-1594.23
-694.872
3005.56
-2207.9
-717.745
5017
-2182.88
3828.82
9063.64
-1075.75
1096.72
255.911
2801.65
-398.83
-2594.55
-184.753
569.748
749.479
-1763.76
-2798.46
6181.31
-51.2279
1494.27
3061.68
-221.773
2971.52
1525.37
-4656.72
84.6526
2221.18
-3666.39
-161.678
135.894
-468.706
-1362.8
284.578
332.698
3152.31
-1166.02
-1862.66
-2686.62
-749.175
-131.961
2528.61
611.814
4463.87
-243.262
-743.133
348.989
-177.838
-3781.33
4653.55
4276.69
-117.816
333.307
288.523
2471.24
1957.14
1761.02
9439.51
5677.26
-987.219
-6674.8
-771.192
265.213
-2013.55
232.491
480.374
-678.605
2635.86
-1564.52
-593.768
-820.002
-1591.47
1652.09
-461.279
8104.91
13208.4
-1104.76
1866.24
-4813.09
3422.58
1449.25
-67.5729
3138.69
-136.151
687.057
-363.663
-415.409
-225.632
-745.966
109.505
-346.005
4170.94
2180.73
-443.857
4789.81
2418.49
-301.646
3325.42
4238.05
14403
1832.42
-2083.81
1677.57
898.535
1175.38
3082.79
-1795.93
-460.731
1218.97
-694.976
-299.018
-291.716
2453.24
1083.04
-2915.45
199.758
-256.478
1915.19
-376
-35.9874
1400.98
-1283.47
465.145
-1553.44
-1657.67
275.369
499.713
-69.5781
-397.767
-3052.1
7534.21
2184.28
1076.37
1771.43
-1148.04
-1014.55
6696.49
1400.6
-1500.35
-124.135
1755.81
5603.21
-1234.68
-539.88
5277.74
596.126
342.151
-1302.52
1139.04
493.172
63.4579
197.054
2633.11
-4401.54
-2236.64
-541.709
118.829
1598.19
5769
-781.295
2871.62
-162.644
804.363
2027.66
2277.89
388.894
2844.5
-381.242
3026.97
535.917
2463.06
893.861
-4966.18
-138.006
176.702
-423.633
-461.241
-2121.01
-166.036
4539.37
-685.774
4525.37
3013.14
2808.48
2970.21
2752.29
8179.96
-238.37
-393.588
1040.8
2944.56
-1060.1
192.205
432.869
-1832.97
-2181.18
-74.2711
-2951.97
460.502
158.202
12.1948
1235.32
987.045
6163.56
-1431.18
910.929
81.3991
-1366.46
970.075
-1538.84
-1370.6
3699.42
3758.15
3450.3
-1259.54
2594.01
-158.606
2226.19
1464.11
6721.59
6440.36
258.665
4062.07
4573.46
818.195
4357.84
2851.97
1732.55
13416.1
10151
3507.93
178.19
643.602
-14.5543
2718.8
-1744.73
592.298
-269.707
-319.826
-2335.4
1740.96
5701.49
-3060.39
511.289
-399.132
1636.63
-856.543
630.911
-1089.08
1020.33
532.771
5065.6
6938.48
1148.87
110.066
1749.59
535.624
5161.88
4554.38
1130.39
2841.8
1954.79
6619.97
-1993.18
-64.2972
-125.604
122.555
13.105
2342.6
7195.15
-49.4587
660.261
3013.48
2432.47
8539.6
152.084
2640.7
-581.858
104.315
-7.85825
2405.41
-182.601
391.74
2368.32
-270.691
2072.95
255.379
-228.965
3208.67
6200.86
-237.723
-1443.84
2629.52
3800.88
-968.177
-357.324
5246.69
1719.69
1349.87
-2542.77
6390.62
-200.338
3915.07
4212.32
-3910.04
-966.275
-2092.84
-558.18
4399.12
-105.683
-5245.13
-1397.85
-2408.39
6757.24
-3162.06
-348.815
680.552
1044.7
-1130.8
-2079.46
-854.673
-782.568
-1169.36
-448.477
5249.71
2025.35
7657.71
3560.18
575.101
-457.364
2239.87
2821.49
396.955
3262.16
903.232
17.5131
-1780.11
-2677.78
10542.7
342.972
260.85
14835
4859.51
-969.112
535.195
2797.63
186.662
4399.35
-3041.01
-57.244
-2650.27
50.7934
2366.4
1393.63
-2845.82
-345.06
1296.1
1397.59
80.315
5721.87
635.117
885.471
-2133.95
447.885
-1763.79
-508.762
326.648
322.154
4507.56
1.28697
227.368
-2267.11
4058.97
1918.04
-3286.11
-1436.64
-74.4169
5085.74
75.8664
-462.278
-2691.27
-2272.21
6192.26
-2383.76
5472.19
-458.721
-599.728
175.657
1409.38
2874.89
159.345
1778.57
1034.06
4638.39
-882.172
2872.75
197.372
-66.9129
3710.01
4611.41
-1288.67
2450.1
3198.52
5778.14
-869.293
-174.04
-862.509
3302.59
2538.08
2937.87
2324.87
-1034.06
-181.113
610.079
1345
546.591
999.81
2614.3
1031.9
922.053
-1561.53
613.835
6531.41
1166.62
882.572
14786.7
2170.13
3917.3
1447.31
3025.12
12040.5
-720.456
-2919.61
-1583.81
-317.001
1013.44
2301.11
-2112.42
-1634.09
771.257
-49.8253
4331.78
1351.94
489.548
-633.282
12289.2
4442.28
1025.05
-959.77
1015
-1544.33
506.781
1925.73
-1931.81
-1301.14
857.858
3343.36
-492.221
-177.374
94.1026
-1917.41
-2977.29
730.958
909.463
394.576
2434.86
3114.94
316.35
1168.82
-741.464
1692.08
-5199.13
-3186.37
-950.58
7353.45
-1430.96
-685.567
1256.7
3265.3
-1110.34
5723.99
2188.93
-1303.51
1244.43
1818.16
-1667.77
-1238
1221.42
-5201.75
-1099.29
-965.092
402.342
-924.905
1718.04
-4190.1
1409.55
-2959.8
1680
-10.9956
1190.63
1558.86
267.661
-1089.98
1020.04
2548.77
-1606.48
2304.52
64.8098
9239.77
2615.83
15470.1
34.6103
-286.453
3258.88
7228.63
2674.48
268.926
-1606.84
777.293
1339.47
-1341.45
5350.63
2273.09
4448.75
-676.135
545.825
-105.781
4110.11
455.249
-2560.46
1217.97
-2789.88
1357.65
-1092.76
5227.42
2533.46
133.458
3505.66
11006.8
4199.96
626.223
3775.54
3051.71
2214.3
-1038.67
264.86
5521.82
-741.437
-2297.95
-1309.8
81.4134
124.012
2306.87
-1648.34
2368.81
2430.67
-627.979
8744.88
2849.3
2361.31
205.976
-1783.56
1116.96
563.593
-328.717
305.494
-3881.47
2604.65
-441.823
3395
-1565.94
2208.55
3077.34
477.121
1710.93
3367.11
-82.2064
-1560.28
-711.716
1537.48
1195.65
4749.92
2170.46
25454.9
-1359.94
4956.73
915.997
-272.015
6997.67
-1505.14
-3276.01
3418.34
3735.72
235.669
-1899.66
-2706.29
-2034.68
-355.12
-1304.34
-1000.04
-2095.68
-689.636
-411.113
3882.19
-602.455
-209.192
7457.92
7217.91
-2077.79
1742.99
-475.572
-1027.69
-2114.23
-1345.42
1382.83
506.539
1871.29
1617.2
855.462
-920.579
-2181.91
14672.1
6034.53
212.039
416.706
5113.49
1586.84
-348.247
368.206
-1855.17
3164.16
1459.36
404.921
644.754
942.651
5487.31
-1953.11
420.232
4671.71
-347.687
-1198.31
-149.291
2393.26
1692.78
-556.3
-591.033
1884.79
-1780.05
3326.13
632.605
9877.95
2722.11
703.931
840.132
3338.26
151.994
5095.29
3148.54
3215.87
1107.05
3952.95
474.658
1229.52
3042.87
535.62
-373.267
3457.3
1182.52
3154.81
72.8802
2185.47
-2010.84
-2404.86
1223.7
1929.72
12619
1745.37
1977.77
-3262.98
861.913
-1078.78
-2746.9
-117.681
-1263.08
689.902
410.403
4182.83
-184.942
-159.736
809.651
-1913.02
-790.077
6455.28
1058.63
-1783.12
6539.39
-784.599
1687.68
424.137
663.069
892.33
-1410.77
-814.37
-258.887
-818.496
5721.33
9023.84
975.834
22.9104
6426.89
594.108
2677.07
-4068.66
449.84
-1447.04
-2292.76
171.809
3637.15
26.2498
-1784.73
2615.61
-531.456
-193.276
5640.36
1356.25
-864.054
-539.234
-2038.65
55.0177
893.655
-305.789
1487.06
275.105
560.5
569.073
-568.224
2381.82
793.822
-2376.53
3725.99
1718.13
341.059
-1985.64
-1174.98
1162.23
-2507.04
-142.46
612.529
5334.94
482.375
1092.98
-2610.95
6441.65
100.777
-1256.85
442
2592.97
1515.45
1404.02
687.993
1323.78
972.895
947.948
703.457
2585.52
-698.658
2538.92
971.297
5982.32
342.342
1368.48
-1964.66
-193.243
934.069
12343.3
6202.22
-557.74
3550.05
-1199.43
3250.99
-2252.63
1648.07
-331.495
258.693
-503.91
-1514.04
280.875
1380.48
4444.28
526.641
7677.61
-62.5996
2422.86
-208.809
4731.3
3673.41
-2549.34
-2699.48
764.778
3744.72
-2265.63
5194.88
-2338.58
-884.913
-1964.6
5437.18
6739.57
3778.15
1256.54
84.7906
602.868
850.966
-2615.12
-55.874
521.894
892.624
1804.1
3308.75
-1022.39
15863.9
6785.16
4241.56
-6652.78
-922.462
687.598
-1770.39
-87.3017
1270.46
3014.62
1373.73
2888.53
4100.39
1931.87
3482
1308.48
-1226.58
3173.21
68.1796
-1577.41
64.3347
-183.979
1565.52
-656.931
1192.61
-1373.57
357.775
157.944
2125.91
11697.1
-4.27575
-2287.85
114.254
1271.98
-1571.46
1327.53
-801.667
5892.9
-424.524
-1358.86
1417.67
1289.4
3261.47
1409.69
2723.28
3608.54
-4.91973
931.634
400.642
2591.59
1046.68
3507.13
3670.5
-965.762
-436.368
692.279
1246.1
1584.54
523.255
2213.34
-330.748
-3078.44
687.943
8498.1
898.4
2191.43
-150.797
2718.51
5555.47
-1341.68
-1415.84
-736.914
1497.12
-850.878
259.022
9089.54
5143.73
273.405
2009.44
-204.18
2318.58
8194.45
553.782
5212.22
573.174
217.761
47.8464
-2784.22
940.92
1084.98
2773.63
694.017
-92.6458
90.1303
677.499
-2388.27
592.866
-640.256
120.89
3245.07
1868.72
-1351.36
333.448
-278.053
1149.63
-439.302
1701.45
10588.1
1519.3
1687.46
-1625.23
-2094.79
986.164
99.756
620.7
4570.36
65.9327
164.181
788.855
-1186.96
186.959
10002.7
-1216.45
933.063
601.834
563.392
2768.28
1786.27
-2928.74
4010.56
-1671.17
-4679.72
1572.51
-2496.91
-1209.95
7402.29
786.2
1598.2
2017.28
3249.71
42.9235
-1810.51
-519.424
336.165
129.794
-927.58
2959.22
-145.442
-1064.66
1499.01
656.603
11701.5
2506.65
1280.98
644.244
2311.44
3389.31
-892.985
-2038.83
-2402.31
2997.16
3225.37
9959.66
-169.95
1082.1
333.551
3529.21
-2297.08
1813.99
-2135.92
-1834.75
3279.83
-149.652
-2429.75
-170.026
-3121.87
-892.117
1330.59
875.924
106.345
-347.85
-137.675
-632.549
-464.664
-189.245
-464.11
9334.16
6055.94
1242.9
188.74
185.526
-3845.84
44.5096
6364.68
11002.7
6297.74
5363.81
5589.53
253.221
8328.11
-132.846
3174.9
5183.32
-213.265
-1540.28
-1211.63
-2319.96
2160.27
789.806
-1851.41
5959.03
11526.3
4796.57
7792.11
1554.02
-2566.62
5434.21
-353.237
-114.863
304.803
148.366
6431.83
2313.21
-2177.85
3817.26
248.471
-681.382
271.473
2078.81
730.908
9507.52
-2979.6
-851.658
1181.34
56.892
-2262.31
1220.87
4783.94
-601.903
3752.53
-153.727
-520.812
-1002.41
5582.96
1204.44
946.576
-238.273
1624.94
913.052
123.586
-745.166
6051.22
-436.351
4140.76
-408.162
-1514.81
-2753.96
7040.36
1592.74
2265.51
3397.63
1153.87
-284.56
-265.358
6456.48
1459.67
-1909.88
-351.378
-1436.3
2750.02
4218.56
86.2247
58.3572
6457.77
1527.77
1538.74
-373.458
5150.23
5410.09
2634.27
272.504
4587.03
1730.51
987.512
-835.593
-1073.62
346.282
-359.905
137.123
-112.993
572.132
-838.428
316.475
271.452
-657.528
1431.8
-2685.72
6097.15
-1144.96
-1347.43
-1133.63
-573.825
3900.2
237.117
7036.01
2115.87
-3968.09
80.377
17968.3
8301.2
-1151.27
-1092.78
39.1422
29.875
-3026.37
2504.67
-445.177
3560.85
1448.6
6760.89
1902.43
7849.86
-31.2027
-1555.8
-1432.41
1855.29
-200.822
2272.2
-778.651
-1575.13
-2388.26
3170.31
-344.182
1939.06
938.399
1380.05
-260.948
424.869
3307.53
5449.74
40.9333
1099.66
-2570.98
335.268
-1150.49
13235
3011.33
-820.938
-1237.24
4033.93
4342.39
384.333
-937.285
-238.876
901.704
1336.03
-80.8516
-4648.79
-582.163
-1934.81
2700.72
-1510.6
1619.28
-375.317
-884.55
-7217.54
8559.35
-3515.68
-646.818
-1422.49
-2887.48
135.563
886.49
12660.4
7053.22
8952.09
796.145
-2103.46
-1366.37
3250.65
373.608
8467.33
385.752
649.338
13908.7
-292.083
-5014.97
1831.75
6175.09
-1390.54
2662.55
443.541
-481.094
816.269
43.2271
2578.32
1954.93
503.369
554.629
234.768
971.106
2280.9
2836.74
-1923.66
8079.8
5455.14
629.056
3248.67
658.191
3823.61
1179.42
1160.66
1205.34
-229.628
648.55
-131.74
3828.74
223.822
-674.21
8245.08
-389.337
1489.78
-53.6397
-223.144
55.8004
221.662
5451.47
298.753
-1358.02
206.109
-5579.09
611.794
-2213.69
2920.52
-2557.44
-1529.07
-479.812
721.415
-957.73
3089.5
889.439
-3207.24
844.917
-2961.81
1005.28
4668.11
979.889
-454.094
467.759
1475.53
122.643
5381.46
-306.201
-3198.19
878.835
6486.72
95.3982
6707.81
447.764
-2128.14
3292.22
-5287.27
1855.28
1491.43
653.813
-2250.77
6021.58
342.336
2764.79
7170.13
1493.66
3842.97
-407.017
-242.5
4049.93
858.098
508.035
193.17
-323.948
-4401.86
280.737
-2351.98
-1100.05
2221.75
-394.955
-1737.1
2437.86
2223.83
-2838.51
197.306
-3398.52
689.89
-236.608
-412.782
-590.766
-347.981
-383.218
2328.1
1557.98
4684.76
204.45
2644.18
-335.443
2659.61
1452.55
164.347
2592.5
3139.38
1372.24
-579.447
3156.96
1698.23
568.069
-28.2377
-1477.17
882.912
2265.92
-178.9
806.455
1686.71
-15.4262
-3055.55
2332
3108.91
2504.07
-47.2679
-762.137
4655.31
-767.839
-2787.41
3267.07
-3711.79
2322.7
1306.36
-892.316
882.023
26.0091
-1472.94
710.166
-1285.68
-1614.79
3997.03
1361.18
12809.3
8157.62
-991.197
-1198.22
-527.052
-1588.18
631.126
-6.42046
372.583
2815.88
-566.361
9251.81
-81.3519
16913.3
-158.377
-1359.37
-362.173
-10.2082
-670.396
8143.23
2312.35
-444.692
5481.4
4276.91
634.764
-729.475
2464.79
2830.3
-1442.09
2063.2
-3823.38
-810.172
1441.1
926.062
2548.66
5112.39
-4016.84
8104.5
-2620.98
-1348.88
-494.89
3706.46
508.498
-279.406
-1237.1
1783.86
32.6125
-3488.17
553.495
1254.76
-645.419
-1689.45
2054.08
593.914
9714.69
-906.651
-934.761
-1955.6
-2585.06
-60.6554
1280.43
3234.97
3311.12
4954.52
-399.816
-423.217
-164.23
1059.15
1345.06
-340.217
3204.17
-2015.45
4106.26
-1303.05
-329.48
222.731
-530.053
-11.4266
769.458
-1573.37
2594.81
932.077
1189.29
-344.458
10219.4
4136.03
5094.63
-870.972
-2094.6
-714.487
-1735.66
619.711
1054.87
4379.42
-1316.94
11659.5
1719.35
2013.23
2864.11
1587.1
2325.07
8307.79
2271.48
-1852.91
1495.54
1897.21
-5331.77
-2248.54
-249.416
-1162.79
566.56
-406.999
1840.36
-385.456
-1155.72
1278.69
15133.3
1493.98
-1354.18
339.412
-169.733
-2040.49
288.79
1089.86
4917.74
539.268
2052.01
-2847.42
3638.43
248.393
-460.197
2133.2
-2792.34
3123.6
1464.37
5340.77
1990.42
-1272.11
-1125.78
2685.32
47.9241
-2269.07
-1639.63
4090
1283.37
2752.26
-997.412
2740.38
487.358
657.119
-974.021
-223.381
-2993.41
-361.376
1071.33
1593.76
-239.073
395.029
5649.22
2857.02
86.101
4763.04
112.273
-200.265
-203.278
345.139
891.72
585.28
2259.88
1485.57
7104.56
-488.193
2023.51
1486.58
-5127.9
736.314
3511.47
13531.2
13002.5
-773.292
2145.16
330.755
-3689.97
2144.28
-2529.73
-502.629
2455.01
-202.219
46.0607
649.87
52.0572
296.143
218.541
2948.52
-903.666
-2135.21
11417.1
74.1977
-54.3202
81.8259
2003.61
6214.59
111.317
11682.6
-1466.7
1595.53
1422.14
1719.71
-787.647
-268.142
567.118
391.802
-1558.93
840.539
-3184.66
8.90714
1475.64
-49.0063
6300.59
-2494.25
852.143
831.514
367.126
184.659
445.325
-99.3418
-2748.91
303.781
11196.2
-1436.29
3432.35
4136.69
10873
-1162.48
1878.58
2802.46
-1042.65
1428.59
-784.951
-1375.13
-1468.59
2040.02
-2235.64
1110.7
-1244.65
197.969
644.175
-789.541
694.238
848.823
-2996.3
808.64
3497.66
405.367
2175.17
186.846
1463.99
772.645
1751.55
355.15
1507
-2542.09
1199.66
-2617.63
2086.83
868.513
-165.914
-512.49
291.04
-430.404
-264.573
2458.12
135.139
-600.538
-452.902
932.198
23921.3
1974.92
4054.75
1954.36
3785.57
4746.21
-681.895
-163.017
-1284.2
228.827
-3088.59
809.407
5054.04
262.355
-75.5094
-114.059
71.4892
-869.936
14.7734
-1447.66
9716.42
1889.19
-681.327
-1997.92
-684.398
3625.56
1992.48
-4229.06
766.291
7488.86
-4658.22
1324.54
927.665
-1138.64
-851
1896.91
-171.011
-1358.3
-233.043
4134.05
358.787
444.011
2.31517
256.645
-1034.77
-2347.29
673.12
822.48
404.289
157.417
1746.68
4592.84
1699.17
-1636.31
2450.36
10602.2
3596.06
-860.852
263.605
1653.77
1937.31
-64.0921
187.938
-4736.49
4012
-270.964
-1196.2
-663.673
-898.057
31.205
1017.2
-27.5657
1458.01
341.563
2451.55
-4940.92
1615.01
-8.98087
-509.418
-266.982
421.124
-746.795
-2472.48
-188.46
147.798
2119.75
-1515.96
694.761
192.538
-1835.34
-1808.9
1233.58
-2116.71
733.92
459.162
-1641
-1132.86
12322.3
-186.774
2888.54
-92.307
-33.7513
1480.05
2560.33
1495.97
-990.861
7068.16
-844.125
17.9138
-1279.95
1894.97
-164.271
2935.64
-130.812
-1484.88
739.627
1395.98
6366.38
-726.698
-757.246
-1808.4
-935.354
-461.199
6007.22
-781.473
2204.25
1832.33
364.751
3777.15
1250.67
3359.02
918.852
-197.393
963.931
-1466.09
-744.046
4302.14
619.985
-379.979
-2692.71
-969.359
961.949
8969.98
4806.26
-2423.28
-1631.19
-651.773
1026.19
-1290.06
5338.82
-1599.45
-870.989
-198.834
369.209
135.122
-360.3
3309
-1347.89
10120.3
262.124
2324.15
-23.1115
-1298.38
2266.5
-2880.23
1564.85
576.747
-478.249
1687.41
2117.31
-125.419
-413.877
1164.65
-454.093
1550.02
92.4214
-1547.26
-63.6502
7744.97
1874.02
-1340.81
876.997
3892.27
10094.6
5644.22
-487.978
3565.37
1339.49
236.306
-1341.46
-613.964
322.506
-2695.13
1243.87
-759.446
-195.033
4431.73
6876.84
9022.22
-248.084
-402.844
-405.247
496.22
6952.77
4869.07
428.06
-1203.85
-181.448
2086.87
13.8943
12919.8
6477.57
-411.646
-356.532
384.626
2394.37
453.145
-636.89
2874.2
-1914.46
-8.22427
-398.304
1615.71
-105.827
-173.534
-1712.61
463.046
585.745
975.176
3741.12
1660.51
-1534.19
1153.89
2099.53
1901.44
-884.833
9447.26
5326.98
939.728
5581.93
-1144.34
-1329.52
-2906.66
9316.18
6258.13
1819.51
540.429
-699.931
1960.3
-487.491
4675.96
4582.43
-935.549
5761.3
1432.9
-945.105
-8.34063
650.2
1155.99
742.178
950.254
60.7063
-1193.6
-427.739
-136.54
-473.595
21079.2
1565.13
-426.217
964.733
-1174.4
-2019.6
3610.02
-677.409
5017.46
1507.56
88.4801
636.963
1579.1
215.701
3282.45
-1385.38
171.236
2095.86
458.114
-1146.72
1882.43
225.154
1703.54
-1065.26
-1610.39
5493.6
2993.33
-2847.8
4462.58
-5.24839
6682.18
94.2855
-278.653
-2607.77
621.26
-760.459
-2857.3
5889.97
-1650.79
440.738
3318.32
4798.98
-97.8451
7084.9
-1313.61
3629.52
-1216.81
713.413
-1171.61
-256.006
499.608
1131.48
-2555.02
623.513
-160.873
-939.233
-1185.88
2962.43
-2497.69
-56.7393
655.176
-8165.61
2152.64
906.986
-1003.33
-804.761
1520.6
-998.236
-20.37
1583.23
6670.24
8137.9
1559.58
-1769.72
6845.07
-3808.38
2068.64
2431.18
4936.91
3438.65
373.653
6789.17
779.846
2312.65
1696.83
-360.434
5421.14
-5411.76
305.162
3244.28
637.298
1313.26
-1682.16
-59.2206
-53.3165
1095.19
5961.79
-2755.51
601.891
1811.68
530.739
-6481.5
-659.478
1008.34
-31.0713
595.165
1487.3
-187.588
1483.1
3592.22
-964.936
669.801
1525.73
128.214
-828.145
1434.96
11946.7
328.902
-2022.57
1913.08
433.761
416.7
322.012
650.8
-293.758
-849.209
-526.097
-2628.93
1871.45
2063.08
1566.55
2305
-3054.48
-4100.53
-413.722
11855.2
2997.13
-850.91
2164.53
980.806
-2291.34
-2176.98
801.692
5.54305
4272.66
141.927
-181.369
1839.45
-1324.86
-388.224
-4149.68
361.621
-2524.55
-883.682
12134.8
-1.07007
-62.0174
-694.792
-1212.62
9983.86
-316.504
-522.172
5020.32
4807.31
-492.979
1672.02
-285.578
748.793
711.001
2199.5
455.626
4247.96
-447.8
62.8838
3194.21
-1748.13
531.578
1322.89
4746.54
-4127.99
557.597
1718.49
-196.136
4509.96
1228.08
2118.71
-1258.88
1474.28
4745.95
2049.66
618.634
6371.19
-1034.4
1223.08
5348.62
603.127
-1297.57
998.913
2200.72
1674.77
-437.897
-1722.09
2795.62
-425.421
-45.3863
118.276
1736.06
-381.234
726.055
5701.54
4821.92
-177.759
-123.456
623.204
1921.52
8247.82
-438.778
1453.75
430.923
-19.658
-4964.41
2150.31
1341.62
15003.1
-118.122
1678.99
-469.761
2934.2
-747.846
63.3274
1102.53
-819.665
1145.03
1311.48
-591.22
-425.781
-3144.3
-78.8358
2670.28
-2005.84
5148.49
1392.35
-464.485
-1317.86
291.511
762.406
-2695.38
631.743
570.78
7556.47
34.4693
11903.2
2582.95
9187.38
875.884
2857.59
88.4302
4818.28
-1841.32
-1734.89
-650.788
-881.224
4080.69
2110.7
2828.61
987.692
-669.826
-3120.38
-368.186
-20.751
1533.06
7953.95
1269.31
398.636
1530.66
-1320.31
75.6858
2018.19
1885.47
4477.61
2415.5
7392.05
8312.82
982.592
1135.84
-3454.19
1794.98
2895.64
4993.82
-3606.93
8837.48
-844.147
4850.01
-1151.57
-727.614
-495.588
-693.386
252.608
618.005
-259.882
-4594.29
1381.85
3196.9
-1430.54
4123.11
5511.68
722.32
-1969.06
758.905
5015.83
-1712.33
1657.42
-231.068
-2410.4
384.214
-689.322
-757.607
-2126.63
-1145.36
1072.05
-163.75
9720.01
5352.3
-6633.64
2317.77
-8.27102
573.342
-1760.27
354.013
-2353.87
4090.3
530.731
6519.58
7473.76
7304
4842.29
-173.807
-1648.22
-1390.44
9325.11
1209.37
-1523.86
-311.347
694.243
-928.351
353.758
2961.17
-1281.77
1471.5
-314.555
480.042
33.1306
135.878
-1072.25
-39.0303
2946.59
474.525
688.785
1544.41
702.7
-143.667
1104.21
159.687
-742.135
935.734
-420.339
1054.22
-1366.87
700.904
-716.663
12956.9
12554.4
1994.41
-214.545
195.943
1383.01
2091.81
-441.833
-441.419
1219.62
-1079.94
232.588
-2957.34
219.958
534.22
2368.96
-976.425
1248.69
-4804.34
-1310.05
3604.72
-1442.98
-131.958
4942.74
-146.261
1180.6
-3251.57
2135.37
1226.07
3194.14
4389.03
11700.5
946.759
11.1125
730.935
95.7314
202.437
-3159.83
5410.93
1328.99
-1216.89
-1042.08
2938.78
2266.4
981.318
14115.4
-3315.86
703.563
1353.83
1226.33
-1422.98
-840.37
-3906.75
977.818
6564.51
-176.514
3739.43
-1477.06
180.301
-1523.04
-688.669
2431.4
18637.1
-297.155
-963.97
-2054.94
-786.161
-78.8071
-319.636
3741.27
548.771
-1494.92
-437.558
-946.086
5025.3
1222.04
-374.04
-3144.59
770.097
490.693
397.46
184.151
-335.398
5276.44
2556.6
508.539
-170.117
60.2067
1172.71
-1205.1
-2857.63
8462.13
708.329
-168.034
-1485.15
-821.177
230.334
6311.74
2559.56
148.942
2766.06
365.996
5701.98
8137.02
25714.6
4869.79
4597.33
-567.328
-1018.58
-605.929
-1527.3
2627.47
-251.811
82.5564
-1482.68
3659.96
2557.33
-1155.81
4260
3016.5
-646.416
344.679
-2385.8
-744.03
1713.35
6242.14
-1455.37
3733.9
3542.62
2193.3
3882.86
4730.87
1050.98
7752.22
-2099.72
899.978
1585.84
554.135
-233.103
7073.98
5034.75
-2647.11
1062.01
6802.03
-1411.27
-1453.42
1909.03
-862.154
30.9631
4.26356
547.405
-709.022
3387.36
1228.27
405.343
174.739
-26.8784
-533.513
7576.24
5814.81
-178.714
984.002
-666.063
-7185.34
-674.834
-626.459
13013.9
4216.83
288.772
-121.269
1069.06
-74.3267
-5584.37
4454.14
-2035.19
-3737.79
825.3
4123.4
747.209
-6350.49
-2327.37
-2797.83
-805.447
818.954
-1459.62
-1002.27
-1441.27
67.8295
-976.333
1017.89
-758.837
-935.942
-928.541
196.515
3925.66
2906.66
-187.693
2397.78
3703.18
468.513
5168.46
-510.309
35.6405
3448.43
-3390.88
574.498
-3241.54
-2819.29
2468.25
-2798.94
-1485.37
18441.5
6757.24
-105.649
1116.72
422.419
2186.39
2401.94
1786.27
6235.5
437.981
-1593.29
1476.75
512.704
2339.09
301.571
-490.259
111.474
4771.41
1957.82
-1107.14
710.692
251.127
-1753.42
51.9675
1649.91
684.595
2913.04
8102.87
-532.937
-105.791
2569.43
-2248.75
-33.8369
654.748
802.202
-1638.14
2661.64
2741.48
1400.35
1940.81
-967.043
-4538.73
-1102.44
420.723
1424.29
-2470.82
10582
274.26
2409.56
1503.77
2267.02
5479.04
2404.7
-388.764
-1065.77
1761.98
-1404.91
3243.03
184.856
-3740.93
266.6
-1213.67
1292.86
4008.08
-253.365
-239.327
405.413
-592.389
-1349.87
-700.601
1375.69
1933.97
1052.21
3978.77
186.584
663.806
-507.768
-820.701
-424.865
-1588.31
4004.9
1533.38
-742.492
4880.86
-876.309
-252.824
-877.263
-281.738
1524.01
-873.455
2703.74
1586.54
1294.95
4443.27
-940.346
-1326.63
-1308.39
2536.13
-1484.27
-1081.69
10139.6
-243.452
-63.9566
2296.6
-424.533
1848.84
1221.7
798.518
10463.6
-1033.75
-306.149
-623.613
-1093.18
-94.3111
958.147
1870.92
2123.49
9.51997
356.399
907.012
1552.39
65.6085
-76.8991
1360.7
988.023
916.292
-1240.86
-685.582
5482.83
3708.56
-40.5348
-2893.91
2273.37
578.528
4576.51
4406.05
449.089
1625.16
282.576
612.249
-30.8818
4729.41
-729.443
-381.18
459.885
533.532
58.5672
-588.701
-675.358
-419.207
685.739
-1929.01
5251.17
302.852
-2668.32
2643.14
985.419
348.212
1027.94
-268.359
-3559.16
-62.2599
-1225.02
3598.13
1064.5
2497.78
-2116.8
-2135.67
6987.06
-519.156
