274.714
2811.35
3506.65
3261.61
4321.88
5065.78
4649.8
-215.361
928.5
6322.41
2963.41
2059.07
1305.47
-208.778
584.103
2439.11
6755.34
2435.45
3214.36
1540.32
848.651
566.384
593.171
570.412
92.8525
5711.55
534.3
5052.66
939.304
-191.973
1182.89
3811.34
4980.63
548.593
23.5556
415.744
742.991
472.925
4585.93
2617.09
598.281
2436.7
162.12
1229.19
675.594
1637.35
3684.97
2913.17
203.89
11858.1
15361.4
643.965
-61.4773
2041.06
438.11
137.468
7052.49
3465.35
3281.41
260.53
534.773
-142.889
813.894
2740.98
1792.78
1349.11
-379.012
5160.34
4379.62
3144.64
2503.97
2998.33
404.838
405.169
1834.66
3173.74
1646.37
-460.649
9201.3
1151.88
1583.86
1561.63
8871.42
1721.5
1154.35
2791.37
-287.926
-65.1429
1501.92
536.102
764.379
1576.25
573.6
5243.4
3034.05
446.109
9.37817
2102.24
158.717
461.309
3605.82
4742.55
1035.65
-60.6449
547.57
1822.82
1252.16
-802.979
1053.18
1968.88
3363.05
1765.3
589.103
1162.72
251.217
267.718
926.272
47.4034
2330.81
440.175
10525.7
1989.99
273.941
3779.16
2534.33
3541.7
5978.95
52.817
1103.8
1397.21
2673.88
6634.3
2723.37
1192.25
78.5575
508.195
1195.27
1944.79
794.734
1570.52
-346.458
1557.54
1368.88
2435.78
3601.78
15125.8
1873.77
7374.7
-126.85
473.011
3407.95
3674.21
504.814
491.973
156.387
3550.7
4556.94
541.092
5481.44
3100.95
702.261
1509.78
-32.1769
1423.46
6086.76
375.473
921.572
3796.6
2438.75
292.912
2677.93
8803.57
9665.6
2862.29
1227.62
1830
1058.37
-425.532
-192.232
10102.4
999.067
2632.13
2617.57
741.176
-47.2039
1091.71
688.178
3038.95
2230.72
380.741
3365.2
116.577
1836.1
5798.62
188.249
2106.32
546.136
-302.781
1690.29
1326.69
2393.52
1526.6
2209.29
2147.1
1646.2
1273.54
537.573
1167.69
806.907
3284.27
379.578
501.672
297.629
6662.76
1943.85
2147.71
1534.36
5848.06
-99.3858
3367.69
1895.32
677.909
3332.74
1047.02
1909.33
2528
1472.52
2054.2
1473.83
1161.43
1193.48
7142.06
9379.5
7508.2
1069.64
4421.42
978.201
116.307
2761
159.243
7549.32
5044.48
2231.89
601.805
238.716
-41.1106
-3.47401
1535.07
2935.96
1218.38
256.657
1425.53
1314.62
-330.527
1026.91
6420.01
5146.17
4752.48
1334.61
10125.5
5609.2
-258.65
7467.54
3743.01
2055.21
5089.05
1059.16
924.729
1016.79
986.386
722.864
1029.42
166.561
327.874
-265.019
616.433
13780
497.015
1587.44
1229.72
413.237
4716.58
5818.49
1749.3
1531.69
571.44
460.14
137.858
156.802
1121.75
694.447
909.555
9885.31
1306.48
1104.85
79.0731
1531.83
757.88
2645.07
499.243
1138.13
4813.57
1486.62
3361.6
649.921
5101.19
-8.1458
194.868
1544.34
518.591
1359.5
3820.58
6900.72
6479.53
5696.78
3433.19
4082.26
3088.53
-97.5014
1761.89
1860.97
5866.71
2126.28
-20.1266
8225.64
916.986
7.96687
628.169
81.9572
984.237
212.762
1543.68
194.765
1785.92
-309.926
265.773
1580.68
-75.4127
4145.01
970.759
1958.41
-168.393
13423.9
-462.973
305.848
813.054
4192.92
369.517
1030.53
3718.28
2224.73
1832.64
108.894
948.935
5588.08
160.588
1151.51
7690.69
4218.32
2713.36
-84.7958
1385.83
3093.05
5073.48
2993.49
1784.54
8588.17
9279.81
1835.3
1143.2
3984.31
4.96851
318.343
160.358
8437.12
4273.89
1071.58
731.747
1887.92
1678.37
133.291
6785.24
10413.6
243.684
864.799
1655
2030.07
629.299
1803.67
1739.67
1618.66
2735.93
1794.02
-43.0899
1731.77
396.338
-97.7047
1.17518
-31.3577
8485.13
1339.41
964.884
964.256
4008.72
225.544
7169.83
1697.13
333.282
2584.24
130.357
2595.7
677.062
7337.75
1814.49
7790.64
8645.72
3835.61
-233.138
2457.75
10695.4
2939.64
-120.271
940.462
546.062
3494.39
678.95
784.332
2087.79
9546.87
1885.7
1432.13
9179.74
1376.25
995.465
-350.403
3028.55
1914.37
4987.61
192.982
3290.7
1918.28
2351.45
-272.799
2304.58
6077.99
988.32
3686.61
2582.33
5.53413
2165.64
2723.07
2347.14
8547.59
146.957
6844.7
2121.08
715.335
50.3287
591.147
2009.37
1197.18
658.854
3460.09
881.058
2044.84
-132.852
4151.27
778.567
1046.88
1038.29
2429.5
686.363
1940.83
221.658
526.114
1754.56
4712.9
3119.61
762.136
6181.47
-60.5625
1687.98
1520.1
2249.96
4059.42
2477.29
1388.86
647.495
589.242
570.373
267.092
3384.46
166.712
2594.59
1714.76
2309.4
5188.43
593.026
820.496
-181.316
5538.86
-450.867
968.749
2909.24
1695.64
-223.675
11339.5
920.838
7181.43
2455.84
90.866
2602.86
2526.91
903.974
3008.83
13.1187
-73.224
1404.92
1468.33
1178.83
472.806
1810.98
5684.64
2113.47
6065.4
354.686
728.748
2692.71
319.506
-1024.88
247.355
6408.42
1773.06
2444.8
512.452
-3.39873
155.683
2791.36
2482.54
2717.62
310.108
2182.71
4332.44
-114.232
4825.9
2969.89
994.664
1501.95
36.2931
812.99
3858.4
-195.302
87.5696
8457.55
6826.9
1923.55
1437.53
8251.92
2100.8
1031.27
3667.37
42.8124
343.83
230.03
6754.92
9376.08
1053.46
3759.29
3031.26
3429.51
1087.73
1070.7
4277.15
521.29
4997.54
2734.98
2151.64
3553.89
2363.78
8779.46
1454.36
6814.48
84.3158
2221.98
2562.13
1440.11
3068.48
634.593
-466.018
4262.05
1984.15
593.959
169.633
1651.46
4718.78
2779.21
1841.78
1270.45
827.783
314.494
2979.24
241.105
5581.56
2389.34
1542.37
3762.11
1571.16
6164.55
887.705
157.037
522.349
421.276
128.796
1081.17
728.45
351.041
987.706
1250.03
4186.92
7326.58
6294.76
6050.28
-352.36
3229.95
-55.046
3417.96
6642.5
6128.41
9800.06
1260.65
5281.72
2424.6
2198.51
3061.35
377.61
1140.26
2453.98
11.38
-159.682
2156.88
3906.85
4848.84
1410.63
1127.79
934.334
3497.84
602.678
5044.16
713.191
3277.05
1942.97
1636.89
841.173
941.089
1950.36
13744.1
4740.96
336.165
2933.18
6435.39
8347.2
1754.64
470.745
-83.2907
3861.21
2014.58
2208.09
1014.04
4216.2
578.947
1472.68
2175.7
1869.95
855.41
2992.81
11416
1083.11
803.33
492.261
1110.89
540.332
3666.1
2687.97
4958.99
28.6399
390.937
3204.13
2250.8
3779.05
538.675
2866.82
1293.08
2009.05
1988.29
1100.19
1096.29
561.689
8525.42
3209.01
1099.49
635.033
724.168
6184.63
5493.54
1208.61
238.224
53.8287
6011.29
589.946
-80.7864
1978.87
1197.76
2173.42
3014.42
434.3
1361.66
1266.5
325.03
1753.04
4428.63
8192.11
3109.77
3963.19
3841.15
8015.16
2526.69
738.075
396.457
4696.36
5081.2
2136.5
1488.41
6620.47
1843.87
3784.91
-256.624
266.748
825.874
1642.12
2530.91
-369.279
5856.58
1880.22
2169.12
3500.45
3670.62
-183.479
509.041
-103.16
4730.31
332.767
-3.90191
116.839
-493.683
1440.86
1385.05
1668.02
14293.3
1130.66
1119.34
1534.16
2910.18
7381.61
784.967
1527.74
9072.02
264.684
5169.45
543.807
14203.5
2570.84
1689.17
6637.35
3347.94
798.013
5530.34
214.549
2454.92
1856.5
2719.91
1355.29
2436.69
627.092
2850.04
926.408
611.537
1316.4
1539.84
4680.8
-41.362
455.299
2193.05
-81.7128
2043.46
2519.48
227.876
161.971
-40.768
994.135
3992.32
615.997
7591.44
482.606
1069.63
1340.73
2113.34
323.327
1342.7
2054.04
175.213
424.557
5465.24
1827.31
2046.74
3992.46
7774.58
1347.38
293.072
1971.39
2677.31
1224.5
436.484
295.969
3657.26
4046.8
60.8573
384.785
2925.54
1762.59
972.462
2956.85
1475.17
6385.23
2213.67
1912.2
472.703
4274.49
13.1529
-74.3614
2864.76
750.059
414.564
762.92
690.573
1446.17
2365.36
1065.29
19198.2
247.028
3987.72
720.757
606.879
1878.8
0.900547
2859.68
-426.118
584.216
786.428
4912.2
14498.5
635.699
3314.37
1079.64
481.513
715.202
-55.6932
-453.827
2090.63
1311.21
3009.51
12787.3
7538.38
1448.18
4293.99
1255.26
0.834289
6095.65
2470.43
1535.16
572.688
12042.9
528.551
4657.18
2188.39
9647.23
1636.14
2784.62
6704.88
3345.46
2386.35
4927.25
9665.99
1432.43
7221.05
12233.8
1500.99
98.7127
-47.7301
-48.2553
948.695
1018.34
2874.85
4800.81
661.871
5698.04
-49.1095
904.012
502.235
3956.96
3440.61
458.495
2052.01
2459.71
-47.4927
59.7539
2692.45
3877.87
-259.042
2448.61
991.652
1121.58
2618.56
2093.65
242.782
2014.64
1462.15
575.791
180.71
7875.71
1901.43
1475.21
735.499
4690.03
11899.4
1155.57
861.3
3170.5
795.274
88.5341
785.665
4893.93
-176.981
7954.53
976.599
1076.25
4056.03
459.857
3291.44
1321.92
725.571
2485.74
11333.2
-24.364
268.635
232.525
9230.01
830.332
1354.64
2787.13
1801.95
1135.17
1141.37
336.26
1102.12
495.063
-207.083
2405.68
2728.44
1608.88
1254.33
11466.3
2628.34
1584.55
376.22
2275.37
4237.2
6528.85
2381.21
3178.18
7987
5049.74
2401.88
1482.13
2471.12
4591.37
14570.7
23703.2
6037.67
731.67
6247.73
1644.18
5377.37
2420.3
20.8114
3077.09
977.048
198.72
4605.94
1249.94
733.346
394.946
5982.8
1078.26
1334.55
334.658
5268.77
2676.96
11291.3
3661.19
3594.17
3157.4
667.686
1762.47
8748.19
2380.9
3613.9
1496.53
1745.87
-512.912
2289.26
954.803
3219.77
378.959
979.007
8205.57
2340.4
3847.09
5088.35
1899.73
11532
12180.9
7021.11
392.977
1968.24
1519.56
408.208
353.767
1865.68
-245.803
6943.17
1508.69
1730.7
661.014
34.2959
3956.75
-88.8068
721.555
3795.43
3079.44
1552.23
1152.21
828.755
787.762
1128.68
1750.2
4963.04
1118.91
1324.86
-230.18
121.536
2314.96
5149.94
1156.71
1245.82
470.589
-53.8036
2311.13
2548.21
3219.18
447.641
5751.47
1738.68
128.124
2274.93
2516.63
3632.19
1471.4
4168.87
426.767
267.34
4640.66
-21.8297
2999.45
1654.16
2502.05
3033.52
-83.7032
943.618
2049.5
1360.07
3356.42
1384.04
1736.93
2679.09
1485.62
9749.97
1717.76
11922.3
1388.12
362.525
1956.64
2538.25
2774.17
-45.5725
3020.96
1020.68
-211.586
413.239
1015.72
1004.17
859.159
3755.89
1130.65
1588.2
1156.25
1215.42
1891.47
8647.44
8891.49
2682.12
2863.8
1471.78
1593.24
2852.5
6586.31
153.345
215.416
3243.19
1692.62
376.077
3291.3
-25.2368
278.995
2937.37
1243.57
1339.27
7682.97
3126.97
1765.81
8506.8
3337.59
3355.51
588.426
-20.083
9042.17
1025.39
14169.2
1245.41
2253.11
1200.29
820.714
968.67
434.731
443.093
4352.77
406.346
2050.27
4189
3512.78
53.8129
3296.04
695.635
7175.12
3022.25
5660.28
3580.65
2088.99
1208.13
7804.2
-608.515
1709.01
4506.61
4722.07
8008.2
5309.74
2440.91
196.263
741.55
10571.5
6621.38
1363.67
1474.3
1987.51
1333.18
1183.18
1866.59
700.169
-258.61
1537.41
107.594
1855.47
2564.78
6082.71
1908.6
412.004
3770.21
508.861
127.894
404.733
809.807
-148.106
1554.96
629.991
-33.5031
2054.81
739.931
2012.78
4062.01
786.063
5347.33
3435.27
4517.4
27595.4
1208.14
2986.3
-87.5628
3707.77
3330.78
2281
785.524
3896.47
2015.53
-169.494
1575.53
1440.36
941.434
1115.84
7730.05
2319.39
508.845
916.362
1399.68
179.416
1114.06
10483.6
742.413
698.264
805.067
3153.49
2828.37
441.214
-409.691
2267.95
4118.72
4019.23
872.772
766.749
2315.83
1897.5
792.516
4273.41
2830.48
3714.38
40.1498
2755.66
131.996
4068.57
594.667
275.74
979.155
1278.77
14303.7
1501.01
6726.11
1200.8
5768.65
-41.1126
2092.7
-223.775
661.704
12541.4
20886.5
1246.01
284.435
2591.37
1623.68
489.395
2270.03
1792.56
10801.2
3897.01
2115.02
1666.71
-31.7691
922.784
5491.52
6969.69
1375.9
1279.54
532.844
2111.26
-168.364
913.254
2054.28
1350.64
5540.07
3240.73
2195.23
3538.12
597.666
3617.61
260.873
2892.74
1072.82
114.201
757.187
201.853
2564.89
4101.68
1454.79
3584.98
182.539
246.007
17349.4
10766.3
2052.76
5257.57
1655.32
1651.26
2152.03
-74.0002
3737.67
530.222
2254.33
5503.38
1673.25
206.223
-729.291
628.873
1352.34
427.804
1720.15
810.084
3641.38
724.189
4858.83
5394.42
1165.43
3074.38
4588.5
2204.56
4030.74
87.1874
15302
2083.43
246.699
3674.17
1046.05
668.463
2702.1
1163.74
3297.32
13491.7
638.854
3805.05
3865.73
1314.7
3116.87
2505.17
9520.9
2133.1
129.673
3601.98
806.877
1698.92
641.179
2712.15
516.568
2473.12
1366.77
-186.187
1478.38
16964.9
-12.7871
942.116
4262.5
2178.6
2477.57
535.932
2243.02
3690.87
4056.64
3569.37
2929.29
1888.6
15698.9
11636.8
343.027
3963.26
82.1005
477.05
384.345
8466.82
2364.58
5773.24
647.552
8403.34
523.462
3457.7
178.042
727.019
837.203
1835.69
2233.7
4604.85
3554.52
14822.9
3111.49
442.042
1797.29
3408.92
353.746
4605.01
3635.1
1147.98
604.012
3114.61
2066.71
5541.81
795.27
925.212
75.1951
3471.09
2385.63
2501.07
1365.73
1030.15
10243.5
976.56
1618.84
99.3626
2955
1834.7
4007
1066.64
754.751
3495.52
-161.583
13208.3
569.142
2295.85
980.409
868.991
884.786
548.453
2665.97
1017.86
-388.511
40.7894
1061.26
758.489
9548.38
4147.13
7308.56
1250.63
549.208
5359.22
-106.567
1013.07
44.904
9118.9
1589.1
-39.7381
1241.22
1484.49
917.36
3688.72
884.415
6003.78
445.11
8969.6
292.611
2555.74
-56.2578
592.711
5558.43
2488.75
8575.93
1264.76
1980.25
700.322
12541.4
8695.95
33697.7
9051.17
1235.83
1752.86
4733.53
948.919
-455.764
764.612
-98.8599
1235.27
4062.58
6040
5372.31
2256.72
5153.23
7196.31
5252.79
2572.41
499.863
778.266
1047.12
1608.14
3659.05
1527.46
1211.08
1818.91
3806.3
772.498
2035.68
1940.08
1766.86
803.028
7639.71
6436.73
1973.2
16045.7
2241.56
412.791
133.889
8283.75
2300.73
2591.18
4527.2
3974.59
8.10464
-348.88
1320.52
-189.298
2316.24
3716.65
2900.97
3056.03
3387.29
18028.9
1574.21
1308.72
3871.38
1735.73
1779.12
1853.99
1879.59
2232.28
3323.78
119.535
375.558
-172.014
177.535
182.494
1029.24
-268.598
1701.92
364.947
3316.06
511.861
4097.61
3152.2
317.682
4300.15
7729.6
1851.77
6317.7
364.443
5238.59
6716.79
4937.84
635.932
1484.05
3833.18
961.243
5971.45
4082.93
10310.5
1031.66
7855.46
1332.3
4681.84
-235.176
8967.97
1663.05
4111.54
3785.24
6336.41
1692.62
1494.18
1987.31
1675.56
2038.69
1705.02
1505.21
836.275
10545.1
355.693
7859.51
3085.21
147.484
660.548
688.239
1982.29
286.516
939.137
326.069
0.745133
1901.18
2472.16
329.606
2588.04
5035.12
4498.11
1261.97
2978.86
-150.78
1314.81
4454
3128.76
-116.411
9231.79
282.933
476.589
-69.9858
1003.04
4224.67
1115.26
419.263
1624.45
-196.436
1427.25
5838.42
752.023
3282.57
797.919
464.822
511.457
5810.63
2610.46
4441.99
-307.957
531.701
541.201
-315.136
9642.91
1954.86
2341.68
8721.57
9757.6
3396.54
2185.11
3854.32
3228.88
1719.32
2258.46
6277.87
452.392
199.672
2092.64
5883.76
594.754
3164.14
2511.45
806.018
3970.87
7277.17
633.741
554.444
1622.14
1760.08
1406.29
9768.9
1690.09
3340.88
7789.14
6411.41
-274.523
863.511
1698.18
2384.22
780.015
5239.27
1953.96
1103.27
1528.02
3345.11
840.443
1449.54
1401.16
1515.8
2460.14
3305.87
1308.68
5941.55
517.645
2132.46
271.802
1302.66
2759.96
496.969
786.481
-218.69
-162.521
-435.075
2986.63
3710.46
1543.2
3461.85
6594.72
3490.95
-177.613
3310.94
5791.9
3926.22
1538.08
7804.99
512.009
373.569
1841.13
2222.66
1413.2
834.66
46.489
964.21
666.615
5059.57
2297.39
1645.45
1019.58
102.064
2247.76
-763.321
1049.54
9015.43
439.554
9862.19
2500.67
2826.97
2535.46
689.286
1128.83
5289.64
4143.88
7616.42
642.147
3570.57
3357.94
615.617
5677.42
5705.5
1355.85
101.467
1368.59
-508.259
387.632
7715.78
1251.82
951.872
1583.71
4993.41
1417.42
-661.481
1721.54
2366.34
1334.08
2036.13
-7.49931
1847.12
3006.12
1321.57
306.877
1384.25
1975.47
387.111
4431.4
1803.65
1721.64
254.607
2290.84
1033.33
705.714
8136.49
3466.63
2879.11
1420.38
8034.04
941.575
3147.41
2246.17
2610.07
1969.39
2496.25
3153.09
1537.54
1219.76
-134.483
1075.22
1063.7
3596.55
695.067
999.474
669.407
480.354
3462.87
2629.14
-144.212
491.389
4004.2
1534.97
3536.14
33.0325
1021.65
3006.19
3407.64
2510.31
4398.37
2053.73
2665.74
3846.84
-132.178
749.757
780.584
1030.12
581.688
6587.47
3925.12
1463.3
3408.56
1132.65
775.747
3405.62
394.754
67.106
844.139
174.948
3170.78
1617.91
1153.55
7566.51
11185.8
3370.53
1922.15
4846.19
3366.01
-136.491
2822.3
2632.51
2927.28
952.739
752.78
2389.82
1615.14
370.274
530.071
3377.57
888.415
3882.55
784.365
6959.37
3377.31
3384.34
7727.92
10707.4
7292
-130.937
3191.87
3943.29
-13.9227
186.34
4838.49
1771.05
931.619
237.334
2.57286
1204.94
3026.82
8215.55
621.092
190.239
198.637
154.838
396.444
1792.72
978.23
587.749
2750.46
9248.8
3883.95
6143.17
1919.84
2502.95
683.997
3236.87
6362.88
715.307
2678.61
1580.25
2836.96
3577.04
188.631
27.3211
2230.92
1700.45
295.343
1481.17
8060.91
2227.39
4315.97
340.106
5856.24
1870.65
-119.728
2460.59
3088.21
108.235
2091.08
5426.94
3434.62
677.241
4617.96
7053.47
1756.43
142.553
373.892
6918.41
1040.17
1327.44
3241.83
-399.211
2267.7
798.37
4656.83
-194.468
3827.42
753.977
2474.57
2958.23
2174.4
2863.26
2347.9
2533.75
379.64
1128.56
1848.23
282.553
88.7476
1257.2
428.836
3757.04
551.362
1461.25
1948.87
6.32426
2956.91
1924.52
758.077
1586.21
-228.733
1282.04
3085.28
-108.239
1957.25
320.727
952.804
1068.19
13291.5
-293.824
1703.53
501.583
13663.1
635.582
5750.87
1280.68
9378.02
2394.39
1435.69
3474.32
1000.21
1832.06
1566.25
618.518
814.334
4122.08
1517.92
1986.01
2934.35
-40.135
646.865
8112.19
9214.77
1276.4
1063.27
5695.86
2218.92
2194.55
3294.62
1210.14
662.841
456.772
6906.54
5442.59
5774.28
250.082
1111.82
2737.13
817.561
1231.34
603.696
59.8265
2019.75
627.303
3057.51
4461.43
3275.46
618.87
-318.63
4254.1
2261.98
46.7506
706.957
-286.862
5265.8
2924
39.4449
268.84
3162.5
5778.94
379.692
1251.53
1502.07
1152.72
-115.215
1877.45
2596.15
1476.83
1700.93
265.637
7803.32
1073.46
863.842
800.339
1885.65
7017.94
2745.84
191.692
2618.21
538.294
5239.91
2419.91
3119.18
6450.51
2336.91
3274.68
12832.7
-244.345
520.909
1019.02
4285.98
123.62
977.38
1666.47
1578.17
1642.15
192.008
3825.42
326.345
6832.72
1320.43
3594.44
2955.2
1255.14
15211.6
4460.36
9435.08
619.123
419.424
1126.91
3198.43
2798.47
5629.1
5851.8
2919.37
147.22
5734.7
144.414
8914.72
1764.2
2538.64
1675.66
483.25
5151.3
23383.6
-633.167
74.0917
331.532
1933.21
2738.35
2461.27
10567.7
405.286
3644.95
-970.052
8420.51
46.6105
10421.1
673.04
960.743
4366.76
1752.82
3348.72
1594.08
1166.06
5155.42
-143.019
5309.48
1358.42
13031.5
4124.34
1099.39
2948.59
4188.58
-102.796
2418.97
-540.897
981.073
2646.8
-25.4138
7367.17
212.29
1360.03
895.403
1663.89
1177.87
-51.5212
1133.65
8107.38
653.6
1685.4
4504.22
1741.51
3098.96
-35.6578
370.612
2396.02
1845.14
3996.32
6510.36
837.358
-139.592
7108.26
872.914
6557.92
16311.4
1627.99
1208.06
2799.32
1401.41
1282.19
4898.23
7352.35
74.9764
3289.9
3397.17
6220.93
3539.4
1707.7
996.471
5103.78
1441.75
1486.83
1679.85
1230.78
1417.76
831.692
506.964
554.909
74.9902
1058.68
627.747
7277.24
494.218
221.77
2028.17
195.616
9255.25
6805.74
3018.67
6024.38
1097.95
1965.37
1559.93
555.96
1561.52
1343.06
2806.32
2240.78
1906.59
1360.73
1894.68
536.274
83.5498
1030.12
661.647
281.205
2583.75
3991.89
1187.85
199.85
3989.74
1427.82
1815.72
1403.74
-332.524
1104.53
7217.39
2801.39
4553.05
873.962
880.376
-210.416
-63.6487
273.171
95.0831
1571.31
-253.652
3538.24
1024.62
3303.48
198.983
-177.432
3106.66
1174.96
511.841
324.49
1980.77
1968.91
74.987
435.931
2275.14
18384.4
1876.08
330.86
2425.11
1668.81
1406.13
3008.25
2511.62
3609.99
6709.06
1109.71
2902.96
4516.01
511.241
3827.58
49.3928
-82.4912
422.106
3288.79
780.597
272.446
3400.83
5361.69
9716.83
2813.31
136.973
334.618
4117.83
3130.69
3348.34
3000.53
14161.2
938.099
-198.023
12697
818.25
1578.31
1940.9
1052.29
2459.99
6745.25
1572.77
1209.54
4160.09
390.874
553.659
1381.81
5902.86
9159.51
3108.13
698.307
470.619
778.23
1684.72
3914.77
-446.233
2297.76
5913.41
1522.71
1273.04
406.546
590.572
1412.49
12957.8
4977.53
542.376
241.33
-170.832
966.205
4314.73
5714.93
-131.318
1779.74
1607.78
4419.33
6400.78
1231.99
859.045
522.261
2635.83
426.667
1426.02
1116.21
2492.95
2399.14
6282.31
1231.89
1744.63
976.498
2235.56
2327.91
196.083
914.145
8095.13
3352.85
3326.58
1550.34
7208.05
1997.94
5294.76
-66.672
361.998
-212.507
9771.54
1874.16
744.25
9853.43
4888.23
2202.48
911.779
7449.01
5736.26
5315.48
6320.89
8730.78
-293.981
560.877
2164.21
5611.8
1580.11
1785.33
1310.59
225.464
1765.82
6119.42
371.254
3740.48
41.7788
4585.54
3922.94
1903.28
373.521
3664.19
3852.1
3299.31
692.126
291.917
1898.29
3576.67
2221.38
1986.45
-108.313
2626.15
-92.2207
2759.1
2074.02
2420.82
221.379
1815.34
7431.9
3619.88
864.674
3397.14
7683.37
413.207
836.849
1425.73
1574.23
-156.795
9678.81
334.048
1988.45
1282.11
1923.81
534.645
3285.95
344.162
2907.63
-19.2269
7895.01
20303
3313.42
3187.54
2369.11
2829.89
966.267
13622.2
725.662
3005.34
145.032
1666.12
3538.31
2201.17
1783.42
588.434
1140.57
1696.81
8561.79
7873.68
298.138
10285.6
6858.23
1038.71
1615.38
7936.84
293.743
3902.57
-361.544
1394.79
443.168
398.348
945.492
569.92
10071.8
5564.36
706.554
2467.45
5282.49
-348.981
38.1317
3381.76
809.821
1328.53
8064.15
3134.73
4084.46
1168.07
3608.02
7596.82
4211.55
410.392
9689.31
6768.43
7989.61
1409.92
2902.19
451.354
1627.16
1715.11
4963.07
3737.06
2700.95
2227.14
3216.19
267.872
753.238
4280.75
138.062
1186.83
-287.158
98.1516
2921.09
2554.19
73.5956
3063.02
1506.13
3584.53
571.42
4503.78
8509.14
9677.04
18021.8
1347.58
3952.95
3726.16
9356.72
-336.76
6120.01
352.817
4138.98
395.425
6859.61
1349.98
1828.44
1527.66
2082.2
1773.45
2740.19
1332.18
1464.02
3018.03
770.23
3217.74
172.148
961.246
1736.28
946.103
5901.93
2552.75
1180.12
1149.09
1991.42
797.778
2450.26
935.756
-24.6188
811.346
306.114
1143.1
167.797
2014.57
2473.44
5242.78
309.376
1184.63
3292.48
1754.05
3017.76
2780.55
3532.39
1215.02
3006.75
3860.16
2623.52
-106.669
-634.794
1254.09
526.169
2762.42
3012.51
2350.2
162.277
-329.862
2015.36
2999.35
-400.441
496.987
3400.07
1231.09
-0.0840751
227.474
2043.81
1107.59
706.887
146.91
102.036
-341.539
17.3493
8803.9
137.666
593.515
269.165
-103.375
-65.1126
2254.88
1409.06
913.726
1212.07
2849.31
4159.88
22538.9
3134.27
2846.01
1747.07
1612.64
4471.69
2370.95
881.122
1305.3
-255.909
749.121
3.89579
3489
1298.58
109.223
1783.65
5355.16
6358.79
3977.19
1064.06
1323.54
638.535
875.122
859.237
1880.56
868.143
992.27
1197.1
149.485
1495.05
2057.88
72.5177
3991.66
1119.77
575.512
1845.07
513.707
130.281
445.002
6413.92
5505.3
2178.78
1136.24
8836.11
397.715
311.817
1884.03
413.85
3406.61
1650.23
1509.31
2876.8
638.42
3125.79
5255.13
1841.86
43.791
1896.62
256.681
672.447
2202.69
5560.8
1589.91
3288.71
4744.57
3371.73
1697.12
1993.13
3130.29
3746.91
1968.18
4397.32
3807.25
1994.93
5856.76
2145.45
7492.36
844.769
1402.99
742.818
-111.006
2254.62
8238.88
794.524
4935.75
645.081
398.78
103.997
34.5069
-284.807
931.916
242.305
945.085
275.462
-39.2548
2810.56
3381.87
1776.47
1.77324
1589.93
1425.1
481.28
484.647
5248.46
1011.1
6012.79
-48.8436
1242.56
2001.24
861.389
6623.93
1806.79
476.421
1626.39
3903.4
636.768
-280.628
2611.39
82.9383
-13.6143
209.489
620.583
6276.25
1961.7
-0.372279
6435.59
1957.7
1018.25
1630.92
690.129
439.845
5654.31
-184.155
1918.59
1337.34
-6.39859
73.393
513.107
2909.6
3724.86
4064.68
20297.6
16674.8
1827.22
2117.67
4378.57
1205.34
3640.56
2441.08
3323.72
4562.32
-532.55
688.972
95.9372
430.465
1902.75
2522.63
1023.41
729.577
4456.28
1173.72
11146.2
7096.2
1807.8
1016.24
892.225
2294.71
1066.34
1019.44
290.832
-266.25
2103.49
670.407
6312.24
5809.86
2219.72
5257.3
19594
981.438
13084.9
-237.912
392.044
5059.34
227.856
4726.4
1041.74
3494.24
2007.86
1260.38
555.487
753.899
222.395
3136.1
3747.28
7850.55
6637.61
2426.64
352.358
-228.384
2236.57
1038.85
-105.531
987.155
1226.3
807.897
5599.02
495.399
405.978
649.286
1112.97
1269.49
357.332
312.964
3120.1
200.738
3372.48
3402.22
1333.39
49.0357
2673.04
1178.55
1366.91
4835.75
92.1649
-71.3353
523.626
123.02
1173.55
2215.06
1268.15
2250.19
3408.77
3989.96
4603.2
631.281
179.687
2130.64
1345.03
3923.92
4211.23
3519.38
15884.4
8605.25
2562.08
331.099
-612.99
418.115
5079.37
1681.32
383.353
2614.39
2431.89
883.101
212.844
3944.64
1047.38
2184.24
3823.62
17141.1
1192
1805.86
-356.053
1191.68
5426.86
2866.41
849.134
4423.7
627.984
7088.96
2065.55
-668.221
823.098
1179.7
2906.64
11971.2
668.368
9400.15
4049.02
1782.99
3088.34
825.99
3408.73
9477.39
5880.79
10179.2
2994.35
873.831
8959.86
3168.11
-24.7354
3550.04
570.622
1821.87
2839.21
6125.74
454.817
5525.18
3845.5
-60.9696
1803.5
6143.77
402.007
13490
468.222
153.714
4458.51
590.879
2007.39
12765.9
832.6
25.5059
1330.2
11632.8
18445.2
13067.1
4528.68
1302.87
1550.85
47.6826
1702.13
198.38
1149.12
6184.85
1147.34
44.6358
5408.89
3154.62
4143.23
215.169
315.988
8846.6
1024.41
1043.56
288.506
21976.3
3168.24
1357.65
1882.8
7014.05
1429.77
796.628
771.871
920.463
104.138
39.0534
4351.7
551.492
178.348
3138.23
6176.97
1104.67
1946.04
1738.33
2619.75
2729.49
-109.004
-48.5029
834.434
254.269
547.719
1002.91
2635.46
380.111
885.041
4.20478
213.928
3698.17
7987.27
1457.84
9429.73
2605.98
1525.31
-624.728
7389.8
558.198
2647.25
11.6
1021
3970.44
2955.5
2047.57
233.185
4623.85
7233.98
390.26
3529.28
1103.1
1107.08
5153.17
-75.6774
-225.029
1548.58
495.855
2203.06
3740.55
140.14
7377.27
4075.87
1192.27
362.097
332.464
896.374
1122.15
1548.97
11633.3
2221.17
1541.96
3953.57
-1968.15
4774.49
1739.7
10533.2
4087.03
-325.772
2942.62
1554.47
733.241
3646.97
1201.59
416.326
2192.48
411.922
1338.5
4118.13
1703.94
2056.93
3952.81
3259.39
2429.09
1558.4
7264.19
619.895
154.983
4527.79
2185.99
-61.9666
310.421
527.48
831.304
818.415
862.114
1949.43
8426.86
1968.62
8642.99
5503.73
-1859.09
105.77
440.191
912.443
-438.768
6779.66
2442.91
-101.577
1811.73
-325.804
2523.55
1758.37
4765.37
28087.1
634.185
285.365
2946.38
15.1031
12.6957
1616.43
2202.62
965.018
1962.51
3890.01
304.898
9888.06
5792.26
12818.6
627.443
982.887
792.522
12142.7
2744.6
1507.14
1968.17
611.587
334.904
5259.15
46.2321
469.206
11369.3
1110.9
3064.67
25.9807
4426.6
1051.18
526.321
-18.8989
1682.08
1783.71
503.893
-103.217
4290.79
301.835
5400.54
5024.53
5995.69
2615.78
1087.72
1838.32
2143.04
1496.44
8385.31
863.346
371.074
523.611
1628.09
2375.61
922.244
4600.29
3794.21
3216.14
155.601
1102.94
1497.04
1321.54
-54.117
506.763
1206.53
279.519
1764.45
598.385
5926.85
-7.59874
8228.32
240.374
1565.45
466.202
394.315
-152.964
1488.02
1624.88
1957.05
4353.21
857.13
1246.37
7524.77
8798.38
2455.65
359.441
4407.34
384.738
1256.48
530.601
243.061
1983.57
1294.4
1242.9
2549.49
136.016
2019.43
945.686
2224.22
-331.049
266.182
3904.78
41.3024
558.43
296.448
816.005
2975.41
5763.06
1031.77
3086.33
4799.07
3406.4
-113.421
9954.51
218.204
149.45
2608.22
956.167
557.664
3292.12
9038.1
1056.43
794.677
231.283
6593.81
439.176
-208.868
7855.85
266.24
20462.8
2412.21
3798.38
3824.38
3756.88
3610.97
860.929
2844.46
213.848
4203.66
221.406
7842.49
1116.79
291.286
4278.6
421.267
1644.32
-1.36824
4046.35
2402.24
3108.52
3126.25
5760.56
3300.62
499.559
1279.43
15340.4
3949.99
1261.08
1830.07
9313.68
339.831
10927.3
2089.81
4854.09
97.0232
947.009
2284.22
6345.39
895.162
7023.23
635.232
5064.85
1292.36
1498.2
1734.21
-311.213
-94.1799
6094
-382.061
1064.35
2379.98
-87.1848
1166.94
662.084
397.762
-315.109
989.256
805.194
1509.17
6445.95
257.98
4622.65
446.781
8604.34
1824.24
337.043
252.452
7389.52
7874.9
2240.24
6420.99
934.868
745.473
480.699
544.787
560.77
1112.32
1335.18
1063.14
501.194
825.51
4367.13
525.115
484.056
1566.48
4873.57
2296.21
2941.1
2546.23
1608.55
311.776
105.615
216.341
-265.895
3133.66
138.549
628.44
3066.44
69.5264
3703.06
782.805
652.744
3066.22
11264.2
1727.67
1823.07
3870.95
2180.34
1282.86
4009.74
1017.99
11921
584.005
246.438
-85.9513
915.542
1823.5
2200.8
1967.15
2689.08
1207.96
2445.85
401.142
3478.58
1021.08
209.59
1221.55
1868.97
1849.85
1480.11
1020.7
3626.87
9491.25
1153.49
1049.51
1096.38
961.576
2755.85
2424.23
1134.88
-528.332
530.142
4603.16
3346.28
3187.46
6223.28
2437.79
1225.54
7919.95
1773.1
8339.62
1984.24
1611.4
1106.59
2454.74
762.755
4146.82
20587.7
682.501
2244
240.959
1675.01
3077.48
1231.79
3476.18
333.526
-237.199
4330.2
-97.45
3135.25
2486.67
7287.42
2193.16
2871.9
580.67
2012.84
3243.44
769.295
1502.76
719.032
873.03
161.05
1589.76
398.912
805.177
5848.12
299.816
9829.59
2861.38
5200.87
477.352
483.076
2531.24
-284.748
3543.91
654.898
3615.55
631.793
1697.25
11666.3
3586.89
4005.9
1749.81
6101.21
5165.77
3606.94
1522.1
650.052
3015.81
1396.62
1450.41
1169.01
1990.83
6510.24
2296.79
1.44983
888.777
2016.02
391.989
145.015
3183.49
-421.231
1696.88
2378.19
889.739
128.41
-79.9983
1711.93
8123.41
94.442
464.251
13640
1186.22
1171.99
12390.6
1427.44
363.588
2794.45
3001.32
2585.34
1801.1
913.845
419.404
1098.84
1627.7
2782.59
3528.29
6270.06
323.755
952.095
1127.52
-70.9524
4020.16
4993.29
1041.85
1654.02
705.8
9325.75
1434.98
4748.84
2393.34
111.951
414.336
-550.387
2417.41
317.413
-509.283
9.04861
3.92226
2482.03
4620.4
-113.032
625.343
593.317
331.03
2345.43
846.997
1639.83
689.55
2016.73
9195.48
10809.5
1156.27
1064.01
3769.27
234.124
3283.78
9460.78
3153.95
1481.61
3103.58
5636.36
551.59
3535.54
4524.33
284.822
2172.06
2145.87
6235.01
5817.92
1916.63
1802.62
2478.36
698.216
1108.82
419.4
1356.75
885.02
1139.39
2475.59
2621.69
182.478
1264.46
7533.34
801.864
2894.79
1817.16
2701.42
789.678
1151.11
4412.65
878.074
1155.47
6013.44
6598.43
147.11
2466.74
840.703
-508.659
3821.11
196.79
2190.47
2099.87
585.566
994.386
2993.87
1358.93
84.753
1974.68
1100.23
4928.64
4698.48
3027.45
1911.96
7023.97
1052.97
20997.3
7856.5
7672.68
6357.99
5525
1627.02
356.899
5846.74
10760.2
13982.3
2956.99
809.907
7638.27
4673.58
4109.37
5237.28
5062.37
1153.5
9021.03
7319.98
-458.889
896.034
897.695
998.204
-501.687
3161.5
5129.69
-179.09
572.136
5736.55
7665.41
2606.93
-74.3795
1112.64
1390.65
-326.313
1303.49
839.453
3376.87
8628.1
10723.7
1400.1
2495.91
776.662
5088.96
672.55
4482.99
862.773
2460.89
3956.19
4706.82
3415.03
1419.36
2541.68
7538.18
7448.52
2562.19
-363.863
11341.5
2423.25
1927.1
1097.14
390.661
498.151
9264.44
12592.5
283.12
2907.93
623.795
1967.9
184.272
5223.99
3500.94
4122.62
2596.37
2454.76
12383.4
7494.45
2081.36
1348.56
1557.7
519.953
2105.3
1273.95
605.48
118.458
107.932
55.4138
7284.2
11229
1035.13
5991.23
296.301
2437.71
3736.67
1696.33
-856.621
1989.18
5595.9
9250.52
1901.92
2602.19
3565.27
3387.99
5538.49
4400.34
1938.61
2206.16
809.042
2883.05
1842.64
10751.1
3837.03
1750.39
4913.49
7311.6
1345.1
1544.99
1295.96
6105.31
52.5447
589.752
541.692
908.93
65.663
811.455
9910.9
3765.65
1066.08
2234.38
946.302
8976.06
571.722
744.131
9903.67
-110.111
4819.4
-102.334
1809.69
1280.26
999.623
99.4421
4304.26
10.8994
-859.814
2331.81
9091.14
2431.38
3240.96
1478.04
907.149
-354.044
2570.74
8755.07
3197.07
9704.03
1039.06
2895.82
551.5
3677.2
8205.13
1560.6
3015.69
2111.37
1392.5
1959.86
11559.7
914.128
729.963
5704.6
1428.1
2353.79
3691.59
5132.47
4088.39
2577.34
386.4
1787
981.983
355.974
1625.64
1098.19
3121.94
812.713
219.781
3425.68
6653.14
3172.45
2799.78
8484.24
2139.35
1232.48
3066.3
571.38
3509.86
2636.15
116.149
2457.06
4577.48
585.407
1879.82
2393.1
1352.68
1760.36
6242.9
-707.716
4533.46
2144.51
-130.188
585.762
581.832
852.49
10446.8
6717.96
5000.89
714.296
1117.88
-727.176
4637.21
1876.41
7562.87
4888.64
3255.05
2052.55
4750.69
2258.98
3818.57
1077.59
1473.36
-182.608
606.341
489.101
6197.96
7660.04
499.919
4383.95
-397.283
2003.24
2439.33
1410.33
1050.56
1083.27
9769.89
289.397
3524.84
281.114
1520.81
928.322
3156.24
4380.93
9081.32
310.246
2749.3
1649.59
2264.84
4289.43
1351.93
416.378
-375.415
1033.62
7342.69
3.80313
4949.93
5460.81
821.768
420.535
2919.71
527.678
3582.45
-342.793
-240.75
2971.89
6600.62
1827.59
3581.87
288.869
236.64
749.298
8809.48
5357.83
2766.12
6372.43
-21.2607
1760.17
691.852
-23.7813
99.7674
2731.7
4136.33
489.123
740.518
9586.98
1145.64
11255
8875.27
43.5338
1604.22
5625.95
953.592
1712.35
261.027
4469.54
-353.764
2555.26
4560.74
2874.08
-182.466
2740.34
391.772
1717.97
4039.43
756.264
2126.69
385.401
309.278
10067.1
3877.04
831.192
14758.4
563.679
3386.48
4803.56
1034.66
-356.746
2995.15
939.623
2910.88
2861.43
4540.3
6657.02
8054.17
9081.9
2686.97
2006.38
246.294
-128.854
28.4929
1817.02
5041.78
2258.7
3384.57
6621.84
2201.76
18413.5
1129.75
13542.2
2892.14
2707.82
1028.65
654.423
976.091
367.195
1878.05
-789.525
2372.69
7224.33
2210.33
1309.44
1001
1046.3
2940.87
1880.83
1101.58
853.786
252.113
28.1871
132.251
-400.81
1891.47
1689.1
1027
577.064
2378.54
2749.36
1310.21
2499.87
482.246
1271.56
581.587
7687.19
2740.27
1286.53
5613.03
1152.79
2454.85
-159.715
-130.249
1215.72
2311.25
5001.84
2220.35
1227.03
2807.47
471.506
2405.83
1052.42
5834.81
502.697
7257.32
816.068
213.376
9948.53
3739.43
6082.97
3450.69
488.278
3163.78
341.166
3459.05
4716.9
1539.62
-59.3129
4057.93
729.016
285.193
2775.23
2949
332.709
1679.41
3878.44
1899.73
1528.49
745.518
1009.08
7539.64
5853.67
2541.58
4623.16
8596.5
10697.3
4226.89
4675.84
1291.88
116.031
2177.6
1343.53
365.614
2070.04
12841.5
-261.444
-42.9166
2370.28
75.9282
892.68
2107.28
189.267
572.396
42.6359
2370.6
1313.15
2599.67
-77.1916
3132.64
3146.31
4104.74
7417.97
1548.75
1942.72
4070.4
1142.71
-49.913
77.9553
1506.45
564.793
1237.12
868.656
966.482
1539.48
8390.71
-37.5021
4856.97
1739.49
7663.37
1438.79
913.425
649.911
1391.95
210.49
654.644
1527.35
1666.75
769.157
9224.29
1854.93
3829.18
893.269
6602.35
25.8068
713.614
176.744
955.303
1971.51
3942.61
2251.77
51.552
20804.5
2684.95
3798.14
1123
-380.637
33.78
1019.7
812.305
1265.57
1065.18
1206.61
142.806
2540.56
4808.85
-294.893
9520.75
12335.5
1760.34
8504.73
306.927
624.161
1149.23
-158.13
-100.146
98.7783
5066.32
1134.2
3263.28
3496.77
7218.99
3532.68
16227.3
1967.02
12787.1
10122.5
9950.84
2114.96
229.677
167.265
1291.81
308.349
1258.86
3405.56
2611.89
2457.98
3859.04
2543.08
1229.95
7619.95
13034.8
3308.4
2991.14
2462.97
924.028
3048.12
398.588
2010.22
21023
793.263
1796.12
1260.67
833.07
1507.75
1000.39
4018.53
270.066
4118.6
8589.14
2491.15
1610.99
2373.56
379.541
5837.9
125.086
-161.493
15.1157
269.167
1694.83
774.504
358.33
644.322
4453.79
344.942
-26.3974
1809.13
1483.14
3608.62
3915.74
417.69
326.98
1300.53
612.355
72.9708
-29.1445
2187.97
-294.279
1031.41
4491.78
4436.51
3315.06
-318.14
1539.68
2374.25
678.102
2002.64
121.343
793.418
1234.44
885.201
4456.42
4687.51
3226.9
3573.98
1645.69
-46.3629
13315.1
6516.15
1164.65
1329.9
1487.93
5327.27
2140.25
1897.61
113.219
1902.56
3996.99
92.2738
198.8
4437.44
-209.196
3622.99
1348.7
3527.53
681.288
3727.97
388.361
201.404
322.764
2441.55
419.122
2959.58
270.785
1426.79
-72.0834
982.857
464.839
1583.3
147.538
-174.406
192.488
1259.58
800.166
1008.6
1148.01
1074.55
1927.12
3237.32
1917.6
1191.09
349.445
3087.73
695.408
2321.22
5632.76
15165.9
811.083
2238.61
1352.08
3793.14
682.126
4187.28
977.724
1010.89
2446.26
6261.71
1048.78
1381.22
1787.23
5824.46
2201.23
1169.71
1328.89
3464.34
1938.27
4260.6
788.815
5738.19
93.9472
4162.4
1115.16
459.858
3094.42
504.49
1435.18
-61.1347
5690.67
8536.58
4071.76
6332.82
7432.88
7823.36
2849.19
278.269
269.701
157.521
1818.32
1090.68
-189.87
1228.61
28082.8
929.443
2842.38
6360.75
6950.49
554.377
7718.15
781.96
10907.6
7092.44
5592.33
2607.98
-204.631
1052.7
2465.61
2357.1
258.063
-298.655
1508
7499.49
6201.06
921.01
778.664
1727.28
519.501
2097.43
-428.642
-255.714
4113.91
1788.59
2818.09
1119.57
598.731
7025.45
805.592
879.849
6296.65
675.125
2505.4
2455.17
2561.13
3480.1
-267.222
2430.6
3847.05
1299.17
1611.41
1685.86
1707.9
2248.79
1015.16
4874.78
1551.85
5149.66
2374.19
15883.1
3294.32
10172.5
2726.68
3566.26
1747.48
1353.92
3759.71
4235.18
140.027
5219.13
1260.98
851.062
-290.907
2983.89
7548.35
250.919
5283.11
1591.5
3311.47
176.427
1206.04
4128.35
841.414
4336.24
1652.74
1463.18
80.8621
3029.89
6437.21
2608.89
460.699
6907.93
1482.06
688.797
-16.2763
3740.78
1166.45
765.526
704.882
5065.43
397.16
7083.25
293.765
1111.36
4068.29
499.853
-11.7234
769.189
2242.81
12762.8
-41.2539
2330.73
3345.07
409.436
1303.9
656.583
2243.82
500.696
6010.74
3264.58
4002.03
6112.85
32.6682
1145.19
4625.77
4960.52
3017.75
1631.46
2867.8
8609.28
197.305
172.492
10735
5870.86
3481.43
1772.78
1925.38
-5.98772
236.072
614.854
68.5311
6247.78
5256.56
542.215
1046.68
5575.13
3044.71
2311.94
2559.92
5926.65
3576.4
-626.04
1584.08
1230.16
377.872
3735
1017
1104.63
1504.97
282.497
5693.36
371.482
78.1024
5409.08
1468.66
-275.298
1758.84
8547.65
2208.85
129.445
1953.95
1301.76
2455.24
3766.09
-651.517
3522.24
130.041
-38.0332
1877.19
385.084
254.127
761.241
998.093
3770.9
1031.69
4106.87
-161.388
6233.62
49.5456
2665.28
556.195
906.755
3258.81
-412.737
2467.59
1055.32
1366.12
237.392
5017.65
2447.3
3007.85
3140.34
3034.97
1293.91
1634.85
572.882
477.454
7065.98
4190.75
8531.83
2139.1
1932.51
4647.04
8358.94
5410.75
3696.07
-185.962
6497.22
18628
4838.86
3432.86
4576.04
4654.7
1658.04
1776.23
1917.33
2216.94
3051.94
489.728
97.4396
975.121
-276.79
15994.6
3101.74
-402.844
3230.98
6233.62
5729.79
15854.1
4078.01
2492.67
1757.71
773.166
1995.7
1731.23
2038.66
657.155
1503.76
3088.84
2334.67
2938.25
487.426
4723.53
4830.28
4534.5
6135.87
1089.26
2778.67
3862.88
2982.48
604.982
595.331
1013.05
1960.29
81.3688
1185.32
456.988
4440.53
1795.8
974.084
14830.9
8422.78
5479.16
1053.88
650.436
15804.2
394.794
6203.84
1239.67
1165.93
1841.52
6288.12
894.454
7306.71
2016.32
231.428
171.264
1194.31
4608.38
4335.15
8916.66
9508.28
9997.79
7531.85
7817.91
1205.99
-2.08797
3570.01
5807.81
8131.28
4841.56
756.014
9309.68
-386.281
1018.04
591.041
2064.86
3558.95
245.009
695.342
5027.57
641.195
2168.15
3880.07
189.402
2783.38
1332.36
8250.11
15605.6
918.972
1920.24
3711.46
1425.31
524.671
836.174
5484.33
197.687
214.965
5001.87
1548.33
524.55
-190.164
994.483
1496.91
8834.12
3967.2
674.522
1846.23
458.365
787.666
2848.94
3100.47
402.557
3101.29
5164.42
90.6598
1634.92
-40.1596
2649.72
895.78
39.7078
2212.98
154.808
4093.5
4393.18
9627.82
6895.22
-12.6049
4269.41
10900.3
927.451
3321.66
126.487
299.543
11110.4
5849
3005.96
2029.69
3054.75
985.368
5027.88
10614.4
7107.34
282.131
1094.76
27.9949
1360.06
2142.92
5740.76
2121.84
3841.61
870.025
687.591
2217.76
899.664
683.669
16187.2
-58.6893
115.616
2675.96
369.795
663.641
2270.51
6911.74
-86.8416
2102.83
2247.99
5034.73
3803.26
1630.51
1742.93
3201.5
4770.21
4184.28
1786.92
1106.08
2022.06
-899.807
2046.36
6019.87
947.226
6240.25
2781.67
994.173
2355.58
2406.26
1965
3283
2064.34
14390.4
7175.73
6069.49
1667.46
432.472
91.4122
753.138
573.674
1582.24
1557.45
2516.42
3344.33
1098.14
636.49
580.457
1632.2
1276.22
902.818
3432.67
1565.68
2088.27
914.482
1532.22
-155.811
283.78
1237.04
3202.51
583.747
2677.69
2071.85
3477.35
-91.9603
859.018
9492.22
228.817
76.5394
5028.61
4127.95
4473.61
2717.4
5617.35
5235.08
1743.43
-653.637
2774.19
932.658
6110.33
4274.19
-76.467
480.296
852.638
2553.92
2497.45
5135.76
185.865
1573.48
-69.6258
715.524
1350.76
449.932
966.903
4476.96
1516.05
400.669
1017.13
4244.79
3222.74
-138.883
-120.926
1048.01
459.93
3896.89
1574.37
3302.36
1724.42
358.024
704.156
1338.66
5535.91
508.192
-287.286
508.495
218.247
535.746
1320.14
1701.79
5245.18
-318.904
636.214
6766.28
-787.432
1634.6
3556.56
682.933
3561.56
444.825
993.805
3091.39
15771.7
2639.31
1898.72
3804.36
3301.05
1340.22
18341.1
316.422
3465.09
-247.231
1594.97
4689.62
2023.93
1581.82
9899
2509.81
3344.99
5533.09
7723.96
9732.81
522.899
2087.98
15983.1
296.237
2347.87
2167.54
-56.6155
2742.48
1879.49
174.253
394.188
1673.69
597.487
45.0116
3742.11
1752.93
1836.1
2043.81
3094.57
939.753
-235.339
799.719
1167.3
3430.81
1240.38
3883.05
2136.36
5386.57
7068.43
1044.11
9021.38
678.283
616.53
-186.358
3849.89
1700.27
428.672
603.398
-135.661
3551.7
1559.25
81.6025
1806.33
533.118
4368.01
1303.82
4457.9
1301.7
667.052
251.985
255.966
2071.59
3721.3
16726
3833.24
1453.56
138.86
5839.81
10583.9
6436.41
745.147
5880.41
7228.36
212.864
2613.75
2782.59
-389.119
3983.29
2043.59
2507.27
6475.82
1583.9
630.463
950.223
716.884
520.322
7677.88
1325.62
1704.12
13420.6
1366.27
660.623
4158.75
558.924
1866.15
6073.22
4706.83
180.586
2483.17
2409.12
11143.9
18103.2
8610.76
2548.66
970.706
2037.08
193.832
787.882
2567.51
2616.97
1334.21
158.225
7850.45
789.67
7542.37
1980.56
0.634095
2209.01
-2068.84
1807.28
158.839
141.239
1052.51
1885.7
769.692
3360.55
3859.07
6692.65
536.531
1827.52
3053.04
1336.75
674.904
1983.93
1867.08
4823.95
5784.92
1272.33
470.241
786.376
276.4
15409.9
4245.19
960.903
2574.3
3399.19
8140.44
1251.22
723.961
1236.9
1977.9
2774.54
2317.46
1091.4
404.137
1124.99
1113.99
1072.67
1685.44
1974.85
1425.68
-378.834
1131.34
317.779
2849.64
3029.12
1015
1365.22
1375
2367.84
1101.44
1073.94
-8.10135
5284.27
2752.33
2278.61
4621.68
8874.81
1218.81
1601.64
7181.94
11554.8
15637.3
6742.38
914.936
565.231
-4.8707
1923.05
1803.53
1463.22
145.652
1221.05
2709.51
3677.07
708.351
498.742
1398.88
29.7698
1702.55
5939.81
-195.575
-76.965
49.0891
-9.26804
433.706
1798.76
2017.38
1807.8
587.157
1305.5
478.011
540.418
3803.82
-472.454
1628.99
165.326
1880.29
14667.4
208.819
9023.8
462.463
2004.36
2873.79
12927.3
1298.94
882.746
-136.241
23998.6
6845.28
6263.9
1860.33
2320.27
-880.892
337.393
676.08
-398.828
1340.08
566.23
1402.28
1045.81
3748.82
675.247
3975.65
6015.05
1924.37
1154.45
142.941
2899.33
8286.17
3688.45
15482.7
552.026
164.255
-203.813
14948.8
3634.36
3288.37
2015.99
593.197
4074.27
3719.54
105.453
3729.25
347.848
797.471
-125.397
2092.23
2432.08
3003.53
979.991
-142.365
5563.81
-32.5748
1879.37
412.887
1890.99
1637.43
1289.22
2988.83
2958.14
1026.64
4868.63
9976.86
1046.17
12338.3
622.114
3536.9
1483.32
4798.88
2835.37
3995.19
-545.917
4658.29
2745.96
21543.7
1282.05
667.26
8953.57
-413.904
434.221
377.775
442.276
788.617
459.656
1140.93
464.046
1077.71
3144.04
1719.87
1750.65
7024.06
30522.7
4817.48
1207.46
109.783
478.718
450.122
2058.47
1136.4
1525.2
565.101
4182.51
974.431
117.277
5418.59
10895.8
-369.804
2972
2153.79
2321.18
1426.46
535.082
4221.11
1615.45
1522.11
1233.82
3172.94
539.734
3161.91
-305.013
3122.5
1001.73
2209.18
2858.12
2677.55
5559.49
4325.57
404.697
938.823
6694.75
1319.25
3964.23
1278.02
1023.46
772.833
3948.53
552.303
4506.51
297.902
1767.27
1820.2
182.259
216.264
5981.68
869.505
116.483
6237.84
1917.56
5372.58
224.075
1396.71
12959.4
3129.68
2479.07
2056.08
1877.58
1902.71
1869.5
-393.447
3125.43
924.199
85.6412
1276.39
4042.79
5811.42
563.819
1510.18
3527.94
947.438
933.492
783.56
1948.43
3548.64
1663.83
2157.2
1603.06
2524.41
4180.76
842.02
1151.04
2981.75
1751.26
8494.15
531.064
4425.06
-681.696
4563.32
928.447
5277.26
5219.27
3747.81
343.159
273.079
8624.37
4311.77
-50.5223
1503.08
12958
1410.09
4397.27
3296.46
328.472
1490.8
4373.64
1441.82
644.746
5079.32
6305.68
-282.124
12984.9
14636.5
-243.136
1863.21
789.126
104.952
1935.18
5273.15
4543.82
1783.37
8377.86
521.004
2295.24
4362.72
2007.58
3196.89
1831.32
2248.42
1449.43
2868.7
958.771
4817.49
2052.39
95.1537
854.424
33.5373
9665.84
2616.68
1526.55
-86.5358
806.688
725.526
-128.685
257.276
38.2296
7170.82
261.863
1352.93
2189.64
85.6897
2394.91
1364.36
876.369
1515.91
1595.81
2206.86
1338.1
579.683
4985.5
1538.39
1049.46
2301.2
448.753
1549.99
1620.39
73.4785
603.486
3311
6675.57
4767.75
2102.22
3547.47
3257.46
12551.1
9426.2
1322.21
2804.17
8611.07
1292.03
1670.36
-44.2501
4841.46
4098.12
312.519
3493.88
13870.5
794.576
7569.77
9439.27
1097.51
424.116
826.294
885.862
2724.5
1064.6
1722.1
1548.5
1790.28
7889.16
-109.613
231.203
2530.58
791.535
19.9262
3792.34
1994.69
650.762
3192.21
18316.4
2399.69
-1057.04
323.135
-48.6005
219.009
278.634
1547.76
2597.76
1542.71
325.231
4459.54
7445.71
5037.14
347.994
2511.35
1174.6
2878.85
732.616
7272.66
999.497
-580.238
391.714
-174.147
592.811
269.851
1153.9
3053.34
675.778
252.691
726.28
1045.05
9864.39
3013.73
-41.3557
4174.33
4005.39
1269.18
638.641
330.613
1207.06
1717.18
6181.77
1547.8
310.698
3994.22
618.034
2309.44
-332.642
1317.64
193.797
-54.085
3663.22
2317.75
209.401
1327.2
398.564
5499.32
9986.78
3430.22
1593.46
9265.2
3098.2
1351.57
1343.9
17092
9361.35
1602.49
3508.24
56.9904
309.825
450.085
-48.8247
16397.9
533.875
2080.52
1139.64
2673.67
1427.48
11.8045
822.313
3514.38
6068.46
1088.51
1048.8
5756.31
809.724
1752.29
2609.49
110.271
1798.05
6135.03
1607
1346.65
2700.66
8715.21
1053.42
2254.19
4226.81
3992.54
58.7676
2703.36
3325.2
1053.67
2106.64
1567.64
9697.94
1582.53
12480.7
2337.58
1561.14
3695.9
11310.8
6539.83
2100.9
3510.88
4710.5
287.522
2727.73
1224.55
-42.2465
2774.78
-149.907
4091.01
3833.78
4175.62
1440.55
7839.59
751.056
1903.8
3333.83
1267.67
739.355
492.097
417.448
2687.5
2177.84
556.987
872.021
3682.29
4143.37
2461.78
3858.95
781.779
1790.05
3264.09
679.015
1335.34
794.021
13264.4
868.976
518.508
2426.51
5864.06
290.759
2047.05
1002.24
366.8
5826.91
2653.65
1240.42
2081.98
-687.336
5176.32
683.312
2850.02
2832.05
268.849
-807.937
1124.88
861.672
2496.58
248.525
-24.5349
3297.17
326.786
-177.292
1676.43
9.44041
6867.33
5082.35
426.108
1448.16
247.716
3100.04
688.893
443.315
2625
-79.8825
-496.568
7041.2
-80.4794
608.905
9179.18
2451.05
915.086
-81.0683
5704.48
2332.22
3610.91
4616.82
2398.8
-797.353
3637.81
2465.27
4696.06
1265.71
56.9421
9813.58
11321.1
6067.14
242.054
1367.04
978.663
161.258
4319.22
2408.64
304.985
2118.5
4957.15
2836.1
23707.7
4559.09
1698.25
3400.5
3460.94
1862.36
14.9503
1007.36
-148.694
1725.08
971.827
218.291
3869.77
1380.02
120.619
8748.97
699.75
5606.1
259.018
909.682
318.389
183.449
2544.45
4110.25
211.875
4070.4
5622.59
4772.56
1602.19
308.033
379.572
122.24
1206.93
3619.86
3994.74
3867.31
2738.51
403.316
-228.065
5257.32
1256.79
1027.52
78.9317
2896.93
476.307
4806.25
12178.5
3838.79
15573.2
2193.09
1001.37
3134.16
4288.86
3652.7
678.871
-43.8125
8737.68
1875.68
2236.34
2691.34
1327.93
3799.32
8148
141.086
1834.41
-225.88
1021.58
1154.67
2316.89
5256.51
1231.06
1392.3
823.151
656.395
-126.472
1629.81
6554.02
7737.58
18362.1
552.811
1169.57
1350.09
1862.35
503.9
1253.73
2161.27
62.382
1533.45
461.764
4579.5
141.341
2195.72
413.915
1007.58
1990.38
495.371
1647.42
6530.33
281.821
847.88
5850.52
4120.69
3883.32
999.152
671.901
1221.99
3496.5
-475.821
2019.02
1379.49
2488.68
1208.1
7411.16
2366.89
3771.61
1651.1
1303.88
9319.95
1540.09
1444.21
1255.97
3583.41
9930.74
2942.55
-79.5777
403.672
328.338
998.2
2590.63
5638.35
9879.73
6965.15
4308.16
2563.62
15029.1
1024.7
182.09
3927.62
-86.0596
2102.81
1249.92
-78.7257
423.635
647.502
4781.49
7536.76
18880.2
169.362
-597.011
441.377
5352.69
1446.98
3978.75
459.292
491.701
2672.14
412.887
2597.08
2790.56
1906.14
2586.47
4898.61
8587.41
5493.08
7433.7
8361.21
1568.09
278.918
14534.1
-387.091
748.621
-112.862
496.283
4899.79
153.045
1245.74
-505.798
1391.42
210.629
1342.41
3324.22
2754.06
3733.54
499.932
3569.88
5050.76
652.601
1772.1
1229.31
2653.96
39.4286
485.609
2580.08
6177.04
251.325
470.823
6647.92
10352.2
-25.9631
7338.98
-291.095
882.551
10744.1
1241.33
3013.58
2575.22
3125.43
3195.26
3346.23
4437.2
395.136
625.573
3793.56
5578.79
1498.19
4922.76
362.242
2767.04
7917.54
3408.7
3151.91
2949.02
2077.71
40.7377
638.285
-231.285
947.28
2954.97
3111.98
1404.85
347.66
13664.8
3707.9
4555.49
3223.42
2694.43
3385.41
1464.89
444.506
1396.32
1137.16
2654.91
1380.67
3331.71
946.741
2255.78
4485.49
-179.861
686.223
1842.27
649.408
1318.41
2950.4
14742.6
120.357
2185.01
-267.254
334.999
1904.33
1765.08
4999.32
387.554
2034.38
2483.13
3050.64
7598.06
65.9627
1283.35
1792.31
366.518
1139.23
3403.87
3440.28
157.75
3559.86
5721.76
1635.65
15841.5
1105.63
530.387
3619.74
1290.13
1761.07
795.098
1667.24
25.2482
2352.68
4504.4
3943.48
8502.69
5541.82
6748.23
3597.45
1033.66
3861.76
1390.61
537.743
6658.84
1377.08
3762.21
1688.47
1854.44
1472.86
3239.12
1120.52
1417.02
2580.05
729.911
920.271
2484
212.004
603.111
1341.5
1689.21
5181.76
-209.706
2080.37
1348.9
3031.06
3948.29
72.6619
2105.12
4468.62
1320.41
1162.76
1155.83
986.093
1196.05
327.265
650.653
293.837
1536.2
2829.48
962.083
1330.65
830.89
8645.99
1838.76
7302.43
2632.65
-129.076
4444.36
3470.06
921.065
5453.22
1393.85
-175.619
457.946
2216.49
2431.89
3045.88
1922.67
3418.99
1717.52
7462.43
398.547
1196.04
9612.06
2872.19
2233.77
10890.2
438.622
1280.26
2017.08
2709.69
7420.91
3158.75
2535.55
613.845
673.165
5114.41
3622.43
10.3431
6338.52
168.355
494.646
559.94
2316.52
1321.06
1082.36
1626.04
2543.3
934.334
5226.74
1228.63
134.526
2202.66
810.052
2004.15
1495.98
1292.07
1096.93
4340.15
2470.16
7859.98
7855.82
8961.55
-236.841
5685.28
-203.725
1888.95
2352.17
5660.79
5453.68
571.513
228.077
-198.845
416.19
6212.48
3821.9
2687.68
5893.84
7536.24
2895.02
5008.44
1089.43
883.968
2079
7882.67
2340.58
1414.78
627.479
6836.89
6799.79
416.049
463.587
670.618
-756.924
2671.53
243.826
313.253
162.754
2371.07
10163.8
8635.16
1129.46
2889.48
5040.09
11553.8
216.894
1082.53
1261.42
3092.14
1056.69
172.062
-230.393
4083.78
2101.13
1440.58
6176.81
1205.38
-60.8661
2107.42
817.98
1314.76
737.446
2710.13
4074.05
1569.91
3813.91
1413.41
838.93
3054.8
726.594
2382.64
451.447
297.623
-31.278
8361.75
143.87
16251
4416.43
101.745
7727.46
972.352
954.527
1041.98
800.215
3214
495.034
336.604
3488.78
373.687
2652.23
518.88
1665.49
5092.18
7864.15
121.876
577.642
12.0745
-170.044
1311.87
35.4972
935.301
2062.9
446.907
366.228
2048.18
818.897
604.952
617.584
4291.15
5953.23
-455.571
11646.9
144.424
175.319
790.614
49.709
663.169
683.291
2847.34
1103.33
9878.02
2902.15
872.443
87.7182
1396.9
1343.44
1520.36
88.768
3940.91
2788.86
1952.53
2399.28
919.029
4534.9
1308.34
1520.65
1512.7
1120.93
1044.83
2577.35
941.601
3000.55
8183.22
1174.21
5723.98
711.498
385.532
2045.35
3516.35
-372.566
1707.87
12962.8
8276.89
3171.42
511.786
5979.92
7395.53
705.75
750.257
438.164
435.16
1250.16
-83.0457
707.359
6570.94
5154.16
833.435
1292.19
491.292
1213.59
182.124
4624.01
3106.11
9240.72
4284.76
927.517
1537.64
751.907
4813.75
17820.5
4881.39
3702.43
5243.43
2213.92
2283.9
1611.89
3016.29
1547.94
66.4674
4634.66
7934.08
1513.58
81.5657
3142.36
2768.79
401.337
149.844
2420.79
3032.71
14897.3
10100.3
-27.2974
726.032
1797.72
3668.75
-465.754
727.913
485.336
2846.33
651.071
913.891
3478.8
3902.03
6124.65
9147.21
882.604
1343.57
188.246
1486.4
1470.78
425.16
2404.17
1707.6
519.546
2809.92
4056.89
3278.53
872.698
620.357
796.914
7966.76
247.231
991.843
2009.85
441.287
770.487
203.189
2241.84
4496.13
11209.3
3043.89
3700.72
5480.44
849.499
584.007
1386.84
1675
1549.74
6247.72
5036.62
3297.06
7538.54
3048.67
1090.27
1407.79
1822.95
2670.4
3061.98
4569.51
-1269.1
3043.58
2962.63
4091.97
932.938
5373.53
5591.18
4853.57
687.821
2037.59
727.307
111.345
768.689
4314.07
1291.77
624.047
1107.41
-63.6612
462.577
8302.46
2301.79
1693.72
3907.67
126.849
5414.1
1726.48
1744.08
5457.76
451.636
235.106
2676.37
767.868
2309.4
361.947
5072.7
1593.21
1157.89
1183.46
791.257
4928.2
373.185
125.075
4100.71
93.2229
1657.97
3912.18
1478.94
-248.084
2529.98
-6.23339
3962.61
-519.968
676.932
2112.91
-679.089
1291.14
1114.55
4713.5
1734.94
2433.97
2568.45
7749.25
422.915
334.706
556.988
671.994
5827.42
622.517
3205.24
3695.57
3204.07
396.979
913.128
1187.85
-261.192
3124.81
2265.7
1774.13
1529.73
1453.97
108.02
1634.51
-293.283
7221.66
1160.51
8735.57
899.833
1404.2
3780.08
2860.24
4255.11
4929.83
527.886
1896.93
3990.59
242.011
1083.5
6080.42
-563.081
636.259
1906.01
2166.1
2931.87
334.322
369.228
668
282.017
538.671
1409.6
2742.96
8217.97
3606.97
631.236
889.802
2990.64
1102.89
344.749
2494.1
251.099
959.946
1565.3
-278.481
1319.82
3756.78
2573.81
1846.85
7981.39
3217.31
2743.99
737.502
4175.14
1122.41
53.0672
589.121
-0.712037
9687.77
2178.71
1661.48
-233.792
1681.01
2808.73
11414
4933.31
2042
3170.58
6954.75
5248.39
2052.24
-37.9658
1640.05
3784.82
2201.32
102.342
2022.66
874.5
4611.81
-149.906
324.056
3064.6
3009.41
7444.68
2408.98
599.505
2069.71
7772.9
4329.46
2175.36
2550.57
4209.98
5091.82
4749.27
-85.0766
4410.3
3651.05
3226.77
12283.1
871.17
2694.93
3002.54
3059.05
2453.53
692.967
4232.01
3731.74
2306.16
2196.29
2749.99
2738.04
1125.68
4892.53
8664.72
-35.2849
1150.78
210.556
104.062
1790.24
1335.34
117.422
128.212
-40.5293
1290.65
642.911
1810.54
343.836
8882.55
2217.77
4622.55
1057.96
694.465
464.972
7601.24
11990.3
350.81
1146.91
1479.23
1104.69
1276.38
654.346
1911
2527.05
1056.95
4391.63
518.561
800.762
1362.78
4377.33
968.857
944.805
391.107
11753.3
4664.31
251.26
2236.52
16133.6
4747.67
4222.69
7151.98
900.316
530.786
1918.13
-222.51
-379.262
2311.84
1213.23
384.675
4800.27
5476.55
4258.36
79.5603
8834.68
2087.94
6969.67
2489.99
361.689
602.604
1622.75
103.265
1454.98
1630.24
2006.01
7924.44
6223.4
808.473
456.011
681.27
2597.94
1289.8
3288.4
-56.2193
4066.05
8021.09
1047.37
965.123
5523.89
377.562
648.635
1459.06
965.787
4598.58
753.007
1849.91
3222.24
-75.779
1318.43
2878.27
-262.14
4423.72
604.764
16997.5
2920.85
-418.161
1497.58
4206.89
2446.53
3336.68
32.6383
6218.14
489.923
239.139
6290.27
1614.16
4291.31
-694.942
1655.12
8639.57
300.152
1062.33
1453.59
1720.51
-318.086
4072.36
896.835
9018.82
1994.14
3619.19
13126.8
1789.15
1199.61
574.627
3914.62
-370.49
1403.07
959.067
759.438
363.067
1484.28
1383.88
3928.53
171.216
615.548
2443.77
7215.54
1851.8
99.8036
1040.89
1014
6442.49
6860.19
2976.03
8854.81
3445.05
3249.32
-372.493
-55.6293
503.04
4401.73
1075.5
963.238
1603.85
4511.19
-418.867
188.459
7151.7
4389.89
14689.6
1756.35
8370.09
477.613
-123.401
1364.37
10301.5
876.298
2589.29
2732.55
14239.7
507.733
1724.05
778.063
1706.93
1170.49
671.419
1044.05
-63.9202
725.056
1030.71
1937.19
2265.23
193.72
4690.83
-85.9997
-113.371
1915.24
1032.55
2240.84
1750.68
239.407
3761.95
4619.91
5419.76
1625.3
555.489
635.643
156.512
1196.43
2304.92
192.18
1649.72
1804.33
2239.89
4700.32
2038.28
662.343
489.72
2135.1
7667.33
3664.8
454.989
3697.93
956.217
3021.56
3398.02
1861.87
2995.47
1303.91
377.846
1605.02
2280.6
9905.85
1712
763.909
3166.66
7603.94
182.071
4106.84
995.466
3693.15
77.1577
1114.36
1756.49
5369.93
1134.13
162.269
3879.3
1640.91
1737.95
1980.09
178.988
2869.89
1612.8
1763.39
2281.44
863.926
1135.31
1469.13
12224.4
15176.4
8893.08
7158.17
750.265
1474.68
717.979
1507.94
1645.42
13545
817.201
1926.6
519.558
-377.868
1820.01
1155.51
170.283
8633.38
1310.58
535.553
621.415
382.861
2737.84
3723.13
2715.02
5904.05
239.686
2798.99
94.2646
3030.87
-483.581
2585.24
3697.43
3393.08
324.494
3745.42
4971.46
7541.54
4401.47
7777.1
7648.89
838.201
681.079
170.379
4027.78
5462.56
2180.26
2996.05
2625.05
2888.87
2238.35
-155.135
2226.92
2631.76
2588.1
208.585
7313.6
3773.39
2594.75
264.51
3527.18
3059.73
5886.76
3564.82
1019.1
2697.49
3818.53
1408.87
1248.57
4791.87
6181.13
4206.97
5888.7
7343.18
1594.13
3068.52
5120.77
6510.58
2998.32
1670.19
99.0269
-53.6725
2453.17
2518.63
5895.2
1292.53
670.772
1177.18
694.656
1427.21
3290.37
2634.89
2472.33
1483.27
2049.95
-152.116
1835.17
555.308
16371.6
1594.09
1226.82
1085.43
2609.41
4501.82
5872.28
343.543
4911.75
2272.94
4071.82
6306.26
3750.6
3523.49
1972.53
170.378
204.842
530.194
3855.24
4343.88
3331.43
3617.29
9350.55
6726.06
1450.61
6146.59
784.317
822.13
2128.68
333.114
2537.84
4063.39
1348.48
-169.642
4098.59
440.484
347.767
1183.43
20.4386
2.91612
851.418
3476.69
1665.83
1394.25
2634.54
3703.18
510.853
8371.74
533.518
2876.74
4883.91
2873.36
7509.44
133.756
2234.55
840.037
12085.6
7446.95
2801.23
5387.85
1851.11
3384.73
2662.41
1952.95
-373.042
6718.86
1545.32
6146.44
891.313
2466.68
1901.52
482.315
4872.9
7575.55
742.377
2809.96
5690.54
-50.3042
10535.9
2894.06
4967.4
1736.58
12478.2
6111.84
10404.4
-475.648
1422.86
-102.543
736.578
3585.37
3019.67
537.251
37.5626
374.739
529.65
2081.75
773.302
1039.87
2126.94
5035.94
866.029
22.9426
2465.98
-401.715
-62.8951
3627.8
2747.51
9127.04
109.75
995.061
961.218
1451.77
3062.01
578.14
2120.73
2220.9
3002.03
2618.39
2512.56
251.361
-441.382
388.141
1357.65
1592.63
47.3696
7244.78
3526.69
7079.7
7058.07
909.295
575.979
1328.64
4951.54
8078.91
1917.3
2534.83
410.657
279.771
7842.35
933.208
5813.98
642.279
-276.338
-717.596
3289.84
490.899
1093.18
3084.54
231.196
-542.033
2547.38
416.658
509.915
1183.93
779.712
1844.57
1033.61
1319.89
769.769
-122.554
2980.01
-5.52312
516.693
3331.56
4258.97
726.961
827.183
652.568
350.402
5477.06
9658.2
7347.93
14852.6
9984.79
2452.02
7689.39
1658.7
4559.64
713.538
4275.5
688.65
1987.53
710.147
2534.8
1758.05
1717.76
1367.66
575.621
734.948
2702.92
2595.79
5485.04
216.183
261.277
1089.64
480.328
756.791
3059.9
11873.4
3397.07
300.171
1318.77
1902.01
2267.34
134.019
734.217
1482.7
2046.24
1029.98
10970.5
-125.12
3279.55
15530.3
5405.91
8196.63
2267.24
5327.99
2983.71
1006.1
145.821
1763.55
1699.31
5208.98
1223.52
3564.78
2309.2
283.055
7519.45
452.269
4177.77
128.261
2947.59
2338.69
2306.3
7183.7
789.604
-68.0254
6691.49
1317.98
3678.89
1656.95
4314.57
2706.8
2232.95
3442.65
2103.68
937.868
7280.02
12737.6
276.431
1863.72
5758.56
884.759
78.795
1284.74
641.188
802.977
4499.69
842.093
4605.43
972.451
2284.45
1040.87
136.974
-330.736
2040.58
785.926
6834.81
1501.88
918.686
2940.96
1272.14
2588.33
3984.22
3182
1826.1
1867.48
672.07
-186.496
182.846
-123.113
961.858
1218.68
1858.19
602.73
2828.81
635.259
3052.5
3601.6
3531.5
2054.86
4761.05
1019.72
1265.68
537.676
1345.65
143.85
756.653
557.109
3506.57
4061.79
631.483
6718.33
1868.8
2448.04
954.859
1637.11
1196.13
3562.32
1319.03
1611.38
654.706
176.974
4514.31
1635.08
6135.99
340.792
616.534
1316.97
4188.39
3051.11
1961.27
1003.02
3926.16
475.336
1209.17
1835.79
105.689
73.866
4918.05
1891.93
2839.56
1428.33
6611.91
8836.82
21573.5
4108.25
2341.76
5060.55
2060.97
9176.5
394.241
1153.75
3396.42
2137.25
2949.16
1280.97
-229.753
145.911
2435.94
2700.45
-399.425
6190.17
1203.71
1883.15
6396.03
966.244
-533.472
-221.704
3919.95
793.508
1643.41
2382.23
707.295
7794.9
1547.82
1806.23
2265.41
338.14
2079.96
559.019
1605.34
1094.23
12861.7
669.682
-101.242
2413.97
10143
1154.26
9114.51
3299.28
2887.87
276.298
1007.13
-33.6901
317.067
3326.62
2968.63
861.34
2505.03
3392.36
14040.8
4954.72
7556.46
4053.8
765.974
2399.07
2180.16
2047.62
3407.32
13131.4
3319.96
990.639
3546.51
2923.3
3072.01
917.631
783.765
821.429
8460.63
1235.68
1452.06
1326.19
5201.35
3269.55
969.117
2923.89
2292.35
4356.21
1898.59
804.018
911.024
1485.22
5239.14
618.957
563.843
1913.64
4255.38
1432.58
978.178
716.124
554.344
1175.54
1045.65
3272.18
7335.85
19673.7
10179.4
11505.2
4678.95
2782.02
4253.72
180.276
18168.3
1364.35
2012.26
11958.3
756.402
651.013
472.109
1320.42
2076.6
2251.71
8538.62
201.443
1195.47
5251.06
-52.37
1411.93
4039.66
1842.36
938.116
283.026
800.277
559.832
1138.17
757.652
5348.79
1123.38
2511.81
1094.3
880.312
288.384
1571.65
241.168
946.616
4591.57
776.513
633.08
6902.51
441.982
1096.32
1176.91
3901.28
755.218
2755.7
255.062
1894.51
2056.59
-34.8111
8252.07
2511.68
1127.05
4159.76
1029.76
2248.11
4401.21
4282.71
-234.598
165.16
4391.14
1137.84
3423.73
1616.68
881.679
2106.54
1319.08
3419.5
318.204
938.331
5798.56
828.571
-152.052
2146.85
616.385
12077.4
2832.19
-522.98
46.4123
2732.2
2939.27
303.445
579.416
6334.36
-263.574
470.288
4599.8
678.435
2594.71
148.455
682.304
433.566
6346.84
181.775
60.5911
43.5731
480.061
3191.13
12645.4
2342.6
1189.67
-145.173
6323.1
2599.87
2233.5
1275.03
3885.12
14722.6
6813.99
1018.78
1974.64
886.083
2059.33
1341.4
830.266
6897.24
5840.79
2398.35
1575.21
4914.39
3912.92
62.1297
1420
1330.51
2230.87
-195.613
346.932
3505.86
5076.91
5765.11
515.257
1405.36
-414.366
2621.92
1034.19
5142.48
2803.57
868.293
3288.52
8745.82
1925.12
2713.72
218.759
7292.61
2192.9
418.554
2964.23
1537.16
2338.58
2604.31
2512.98
1003.81
2370.04
1995.28
6103.33
1377.54
8806.95
9640.97
239.515
2532.69
1914.43
2143.83
2195.77
1218.86
488.416
-231.026
2230.23
251.89
-415.265
-393.893
5141.99
1608.11
2249.14
3453.85
9620.05
3333.13
2917.71
385.805
2953.87
1350.9
4627.24
1772.76
4219.94
788.925
165.879
4884.04
2211.89
1986
2830.31
870.181
1496.22
9214.09
557.796
862.611
1915.21
318.948
8950.38
2463.56
843.936
2200.23
2396.64
3886.22
1173.69
4073.71
1277.9
10744.3
755.537
1819.64
776.606
1382.65
2039.5
679.825
11003.9
13571.3
355.111
10596.2
774.278
351.396
567.626
603.547
990.318
300.786
452.803
1746.15
485.446
542.685
2797.59
3004.2
964.353
1522.6
22850.9
491.538
999.832
9848.73
14887.7
14197
1028.32
3061.53
-144.003
5656.38
1478.81
-91.8386
860.089
-344.857
2850.18
8043.59
1550.27
1906.31
7192.47
4010.4
243.14
6908.46
193.787
203.316
17875.7
1538.88
3214.26
1479.75
596.062
1274.19
2415.51
766.243
2916
6630.04
8982.29
-621.773
1924.83
5970.05
1169.73
1366.91
398.595
-98.8891
5254.71
2858.12
8671.78
3303.77
4721.95
70.602
3892.67
3133.75
1298.61
1139.55
-8.39123
1978.39
12932.7
1414.59
2158.06
9076.53
7449.46
2133.91
789.286
11401.1
3834.62
1469.75
436.493
1534.38
386.623
10329.7
3150.36
2009.07
6103.59
4420.58
2697.31
496.755
919.866
1847.24
5007.23
6072.74
-79.6561
616.934
-654.761
-88.2689
2297.95
1349.66
6110.44
695.501
2389.2
2872.27
1650.35
2616.07
1767.28
-30.3643
1244.13
16016.8
5062.6
6876.17
988.032
367.891
1902.2
1446.61
3950.71
1039
1033.52
-701.015
701.449
50.542
5161.51
1252.63
5037.15
2974.08
1095.67
1066.21
4360.41
19.4726
219.379
1221.93
1139.25
968.884
1044.99
1449.29
4764.32
206.788
6620.43
4407.9
2026.06
7051.55
909.542
-48.1545
2785.08
2772.37
4134.09
12493.4
2176.29
587.446
1376.38
1661
6693.87
1103.75
2819.68
1507.54
6122.96
10875.8
971.951
10870.5
1377.57
2585.79
937.104
-6.31896
933.519
366.595
604.087
6543.19
939.165
1973.91
1392.46
1155.65
5239.75
6557.99
-502.138
488.658
3473.91
877.607
545.014
1396.11
263.742
1990.05
3245.06
2958.62
394.785
4219
5611.44
1284.31
994.12
-442.51
17872.3
2028.92
1735.81
810.276
-237.682
3234.41
1103.12
4445.43
4853.4
568.944
6339.67
435.215
46.9569
-367.144
4080.9
15596.2
5732.28
7408.26
1468.41
540.358
3451.75
5476.81
6836.1
1113.63
-141.205
2717.83
-20.5775
1846.07
4776.83
-708.005
1753.56
1519.13
1960.15
3616.52
2071.75
4245.09
1764.02
818.1
807.502
1020.76
557.621
4736.16
6190.91
-156.958
9.98532
4370.72
699.689
456.615
2207.61
31.7581
664.808
3796.73
916.781
5050.51
2034.98
1083.11
2926.12
8579.91
-263.805
-1535.4
9871.69
113.87
1201.66
1614.25
1412.22
1600.4
3994.9
-40.3232
1330.16
3875.68
4334.52
3305.33
1960.45
-78.1673
180.969
510.156
1696.94
5436.54
19966.4
11137.8
2583.5
2467.57
539.182
1695.96
752.735
3277.75
4041.21
-185.633
8911.43
4858.31
2968.95
5602.33
4740.48
1436.01
5129.93
79.7709
-678.041
4019.54
1680.9
1059.41
196.957
530.759
1782.08
401.201
6191.55
3577.21
2083.79
1846.86
1512.48
3366.3
-43.0098
758.957
694.537
477.638
251.989
10173.6
1361
3412.08
-202.912
8289.33
1995.63
1495.8
2301.9
3919.18
3803.93
-9.54453
199.213
3575.8
10918.6
3843.31
836.172
1791.86
-141.742
513.125
1216.92
1648.06
1146.26
3151.07
-13.8489
2597.62
3773.63
5025.6
496.827
5321.47
4278.96
5450.4
868.291
-72.1086
88.8053
2602.33
1218.9
1555.11
258.837
3024.13
740.045
550.125
1095.22
1852.66
288.057
5867.1
9472.27
8135.01
-321.743
3028.54
881.255
5045.6
1163.07
730.557
6935.6
4905.94
2463.21
1699.44
128.326
788.166
5540.31
703.55
2533.84
1359.71
8197.18
4344.46
4076.74
2503.33
2636.72
1117.8
749.077
5757.66
481.417
-105.336
868.279
11209.1
6568.32
817.468
3092.66
4634.63
11054.5
805.031
884.15
5570.56
1806.15
776.436
12769
2777.35
2324.69
387.567
749.376
3193.97
1839.27
2015.28
2093.84
10935.6
4150.06
6456.88
736.082
2909.4
5496.34
2226.93
2466.07
421.036
421.473
2262.62
176.37
1963.06
4514.66
4529.89
5998.68
1999.13
-328.951
1104.74
1489.78
2852.43
572.454
1540.14
2643.38
502.17
2164.17
-259.846
886.526
758.24
2638.55
393.631
8626.57
3971.4
1993.23
3771.46
739.416
2196.21
536.688
939.858
2136.48
4873.48
159.481
2758.47
2236.22
1868.46
6626.81
11.5652
4063.74
-409.303
4112.65
8055.75
4110.63
2840.33
6028.32
1464.05
11873.7
2611.16
1181.15
11600.2
548.656
3582.75
1301.33
1181.92
1950.19
213.558
3104.27
1486.23
1454.43
761.626
1696.88
327.848
5037.69
360.401
3179.23
1063.78
917.989
3316.64
1359.95
5329.01
-348.819
1116.63
14884.4
764.08
427.42
492.563
102.886
1615.92
1962.53
1908.6
2227.68
4818.23
179.26
-211.74
425.343
470.742
267.393
479.032
-447.121
215.646
-192.032
1839.34
1076.52
1358.81
19.0091
8473
691.199
1012.59
1918.57
-896.822
1742.22
775.401
708.186
2406.2
13930.6
1209.17
3077.97
2610.35
1747.22
2941.21
5136.88
3996.23
4453.59
2609.6
1253.56
3177.53
2536.1
2064.43
10977.7
-181.341
203.895
269.233
1603.5
4980.11
325.728
4605.04
5210.63
768.905
9234.85
3094.16
1114.77
-282.165
818.499
2634.9
674.845
7000.78
3495.9
339.652
3894.65
6620.03
1312.78
712.206
3138.89
-234.733
2179.26
4055.95
1132.37
289.652
5471.96
2726.35
356.96
2012.57
2072.05
2740.35
743.351
2090.55
665.904
2489.65
470.241
-441.802
3062.81
2603.9
749.032
9601.95
2292.73
-236.214
1539.33
2953
1450.2
-283.826
1149.01
873.504
-102.343
578.56
805.513
1606.44
900.927
3859.61
899.45
3764.13
91.3811
11788.2
-443.065
-170.79
1877.64
161.054
4826.89
3142.59
-185.835
910.415
1456.89
8139.2
618.737
2853.62
119.361
7026.28
-576.087
333.22
3459.1
5379.85
1580.29
4088.87
628.768
5850.86
1544.53
527.637
-532.593
1174.68
1039.26
308.436
1155.92
5811.05
11797
1395.72
438.699
4776.37
8796.27
6056.92
360.353
1080.45
5091.28
12049.9
3474.49
644.822
-543.744
494.538
3531.55
1327.87
604.586
539.061
-111.435
3800.7
852.086
3199.13
573.338
1010.36
2333.56
7957.89
423.662
-18.7936
659.069
1642.48
10483.6
2296.92
1783.5
729.969
3416.46
1576.11
962.092
1567.84
5859.89
22.9771
12.5237
624.474
3918.01
1482.67
7178.28
1448.01
2192.6
2896.96
1391.63
441.983
14434.4
3560.41
3911.1
1841.19
2830.11
5335.89
451.098
-432.92
398.375
-376.708
441.737
5503.78
3273.77
4544.08
919.352
202.965
7964.39
651.074
3142.78
3086.4
3139.29
2260.74
1640.01
705.174
1999.6
2352.36
417.284
15.1695
11103.8
76.6763
1108.9
12167.4
3419.14
1719.47
6797.46
3153.7
2237.58
334.102
7121.02
3152.11
6635.34
428.544
1857.31
395.994
-33.8389
1303.51
-325.418
1714.59
1308.44
392.633
3040.72
-12.4999
6721.93
3972.38
-151.708
4905.02
3261.64
3096.87
94.6606
1765.94
8327.68
2243.95
3137.82
1033.68
-886.103
2757.85
796.186
5057.31
-36.8696
3889.52
764.102
1002.21
779.99
5521.51
715.709
3138.96
1725.56
481.359
19.7087
1443.21
802.366
549.561
2109.31
765.47
2770.46
2862.91
1776.84
1119.07
3632.44
8785.8
7176.23
485.479
-352.219
1082.59
1957.21
-192.066
767.876
1176.52
5870.21
977.539
-495.466
282.386
2441.49
2968.74
397.304
-332.847
3192.08
2741.33
513.283
4082.3
215.669
2147.86
7548.94
2647.42
1597.84
2738.04
2072.89
2278.03
6395.49
5172.53
3540.78
2179.18
2213.32
2077.74
-31.4548
184.363
389.091
1683.67
-176.079
1332.69
2681.39
7824.18
100.222
3582.61
1366.1
2893.83
7167.46
7501.23
-505.2
2912.22
198.158
1902.71
543.568
3132.24
548.307
-1176.83
1752.72
2025.01
1032.27
3182.46
3488.43
1343.67
3705.98
953.343
4980.44
1555.22
1158.71
1942.92
8763.02
663.569
3799.63
-169.163
491.987
100.883
1163.45
555.067
1972.48
252.56
367.374
1159.76
379.719
7028.16
1426.4
238.233
2150.62
3372.72
2507.33
819.957
5807.92
1175.75
7133.11
2005.71
630.934
8204.04
161.666
3672.38
-18.5601
844.121
1214.23
287.873
1985.65
687.81
542.055
1590.68
-629.749
903.205
620.857
-371.069
895.088
5499.03
116.811
1674.69
1664.72
8502.55
727.927
-73.1659
744.248
235.297
-132.402
424.079
2819.03
3685.43
390.196
1349.46
13863.9
6427.56
987.191
3338.82
2313.25
2774.34
1282.71
69.2819
-15.0039
16529.9
810.26
2382.75
3072.47
1347.26
-26.4236
-46.2524
5015.98
5155.47
5414.9
11614.5
742.824
344.086
2232.96
1328.2
982.151
804.144
355.874
-46.4757
461.656
604.512
608.638
271.16
5329.39
2566.14
1842.92
450.099
182.161
441.328
3350.83
3199.89
6085.33
1504.08
1535.22
3392.79
2348.1
688.52
825.112
423.75
3028.27
3334.67
474.13
2378.53
2471.51
1188.99
666.852
396.68
680.322
5230.03
2848.64
-13.1363
1356.03
716.239
384.749
5141.97
1427.15
2687.13
3784.48
362.97
1305.56
777.615
312.737
6176.46
4847.61
540.391
1428.94
3435.6
930.329
4887.33
4002.05
2208.66
4647.93
4762.06
4449.74
11243.1
2495.32
7697.06
2351.87
1041.73
6146.04
1023.18
1307.22
54.0391
340.668
473.772
3796.57
11351.9
10243.3
1416.24
7203.3
3133.42
1954.43
4250.36
5699.17
2549.52
2947.73
120.407
1922.6
142.854
384.231
1196.94
365.739
940.612
409.749
554.511
1829.05
2781.6
3284.02
-144.709
3851.37
1156.01
9670.43
721.018
1927.71
5238.21
1458.77
758.505
1054
2230.91
2111.38
1680.11
233.938
-375.927
3619.54
175.957
356.895
605.859
1686.69
1051.92
2310.14
719.437
382.617
269.465
808.387
871.399
1127.78
4194.58
764.706
1703.11
990.219
5660.74
1539.92
621.816
572.269
1035.03
3038.05
5219.57
13075.4
4809.58
6783.84
1445.2
1545.57
887.195
1234.62
3190.7
1150.46
916.345
4421.15
3803.23
3553.84
2364.01
3696.81
7617.9
883.499
1272.85
3038.47
1186.04
-573.483
1751.35
1578.87
1207.49
1087.8
5204.88
2558.65
-340.109
1032.1
3720.06
3595.54
18923.5
1039.17
722.161
794.304
781.214
1377.67
1436.96
440.866
4109.53
4635.92
10731
8788.38
3917.07
1524.41
1403.24
5307.87
1889.26
5851.66
4527.39
-367.766
869.784
629.224
108.793
-256.594
4778.46
4540.57
585.094
-828.649
910.427
777.298
1468.74
989.625
1778.65
14566.6
2538.23
4496.37
1322.86
4279.12
4298.34
1645.54
7494.19
8771.28
721.456
7865.15
1900.6
1859.63
6885.98
3692.12
997.591
4490.85
1837.25
-304.281
8095.97
4477.49
8053.02
1362.34
6438.4
975.063
-132.665
1022.81
3014.02
6229.87
2993.6
595.468
828.052
684.655
9641.3
-487.254
849.3
9045.42
1500.99
455.678
8878.38
3129.08
1593.76
-65.6813
1706.91
5262.7
3071.77
1711
5111.13
310.373
1359.39
-108.269
2167.53
14914.4
25.6812
6884.61
662.343
4605.39
962.599
423.096
5706.43
528.629
-10.0248
426.132
459.303
1088.38
4620.89
2104.19
5306.63
2510.09
1610.45
1777.04
501.05
804.623
1821.4
7030.25
2318.52
1865.58
4199.27
32.5893
-21.616
4390.86
1741.02
675.565
466.639
269.378
7341.9
3350.69
2532.84
1150.69
9606.91
11698
1482.02
586.644
84.7089
-107.963
3243.21
1334.43
11544
8194.29
1783.54
1093.17
5707.2
1111.05
1308.66
8728.27
-255.974
6214.27
497.144
4672.66
782.937
35.3996
8024.45
4157.55
1966.88
1173.6
1909.66
1726.78
1212.27
314.658
87.2997
3522.87
1906.07
702.816
1471.01
1762.26
1420.54
2252.44
1005.83
2926.66
6256.7
4024.25
-163.036
938.844
117.75
-168.942
2734.39
6984.83
2993.97
1771.06
1500.62
1678.19
3100.58
2857.76
4898.22
-25.3725
4556.77
1734.79
4533.13
16614.1
898.322
4534.11
75.8978
-115.522
13732.2
1555.14
1759.6
4586.54
2850.59
336.642
2531.19
1040.57
7423.4
193.128
3973.51
2549.37
-63.5533
5072.23
571.695
1122.53
333.267
661.697
248.804
3679.75
1173.9
1147.36
4826.73
2477.77
2171.92
2775.19
2120.31
3455.5
6344.3
373.238
1957.57
4139.17
4569.45
6536.24
3529.9
2.51593
1428.16
520.101
831.404
858.961
4546.91
17432
4520.74
2930.58
2993.3
390.186
1245.16
1681.54
7041.55
5910.04
5475.45
1206.74
6066.04
2000.2
12293.3
19779.3
986.636
980.532
-24.6219
1110.16
876.353
1165.85
498.662
1264.24
291.441
4256.38
235.307
146.506
3489.45
1411.35
2557.39
-232.018
2640.92
6708
1096.41
1471.73
18750.5
319.495
3016.89
2116.13
1191.27
214.228
2665.74
5951.04
4297.17
-210.598
1675.19
1664.02
681.145
2357.15
6282.17
4235.28
846.209
740.008
841.865
39.0928
1148.2
1233.15
463.937
2433.71
7325.94
6083.49
5435.77
1081.87
590.512
913.817
2112.48
1123.04
4159.53
4241.02
396.591
9288.87
1553.36
425.814
3134.71
3214.64
10733.6
-85.9464
3133.59
-151.2
567.937
2505.38
61.2316
313.2
2893.11
2088.71
36.3439
17861.4
3075.13
438.99
6155.26
7729.55
1338.24
1258.24
2520.25
61.1364
922.769
3245.35
2262.98
433.381
433.298
4775.26
-21.6493
4892.1
145.232
1434.51
1819.07
5173.61
3301.92
12831.1
3591.44
610.26
3338.21
11200.1
3908.19
3185.58
1090.43
62.2069
231.866
963.779
1974.16
-50.1241
160.067
281.428
432.263
6143.44
6600.2
-253.326
6156.3
1165.82
2333.42
264.238
11.092
413.741
651.877
101.721
4732.57
1425.13
2575.4
1720.06
1568.82
1726.78
-33.8419
2712.39
2895.38
6819.34
8641.11
580.256
2255.29
5502.67
4145.09
339.772
1527.28
2726.18
1170.02
137.264
2423.23
475.59
530.581
3074.41
982.667
908.531
4661.78
2763.08
-98.0343
2061.77
-226.915
332.883
966.993
531.86
3225.47
891.476
434.285
1922.31
9245.86
3629.76
3481.57
534.566
301.011
1465.6
8794.99
2032.96
1518.18
121.639
1311.89
1091.94
532.966
1494.06
4025.15
1732.06
1789.54
1205.44
2898.61
2646.66
3370.41
3484.47
1347.75
-380.683
225.615
2739.41
2496.09
2261.48
4396.79
122.818
1001.84
840.132
6482.53
9125.25
2313.14
968.293
265.749
857.496
1341.68
1042.46
5603.81
2197.02
216.846
3877.06
1271.27
338.159
827.369
4176.99
2304.62
2521.19
-430.324
112.916
220.414
10650
764.865
1027.22
312.503
435.118
1083.06
121.683
1.16925
6402.59
-71.9481
6124.31
634.69
1733.01
506.482
3324.46
2124.79
3477.03
3968.3
1838.25
1548.07
-62.9166
5378.54
5674.14
1720.8
4928.33
243.867
226.79
1346.72
1776.49
2936.16
170.142
-227.394
3783.36
3118.05
551.754
2631.39
543.132
2452.78
429.756
1555.04
-551.717
5003.11
72.0273
1218.06
766.3
594.71
14.6691
612.099
932.722
7651.7
416.143
925.023
4227.21
1537.59
3649.2
121.279
1297.01
890.413
2730.58
513.686
297.085
16117.1
910.351
749.441
777.236
324.957
322.438
1099.31
-123.186
12298
3872.64
1093.18
8921.35
1805.19
-777.839
307.67
1235.06
-10.7698
4303.31
2377.87
1445.77
1787.7
1071.53
5423.14
541.08
-332.694
762.376
-877.166
238.449
679.204
2024.27
1088.8
3544.34
2768.08
2039.02
975.091
359.142
9636.03
632.696
1326.29
6838.52
746.925
2756.9
4905.41
5018.32
367.334
1041.57
1280.82
308.345
2074.75
658.718
-212.774
752.561
-250.395
826.135
2298.84
2383.06
4487.98
1245.07
788.199
1089.84
2335.04
655.682
819.63
1576.69
-257.154
2756.05
2277.38
3135.89
2883.04
2626.18
10915.9
5726.4
-1019.5
4860.3
1629.28
1812.98
5946.05
4522.34
2073.95
3347.72
1077.69
-29.671
78.2175
2874.27
2353.96
4667.43
2760.51
528.94
1163.58
1196.9
3493.41
1279.27
4156.47
10011.3
2456.07
4090.43
-322.588
1883.21
2398.31
601.53
2180.79
2372.08
2173.79
51.3554
830.201
3208.22
17087.6
3221.57
1125.32
726.031
3073.37
6472.42
1602.15
697.833
2527.59
3533.17
1344.48
423.462
30.9047
7892.72
10146.9
1164.29
2695.75
-449.648
4059.25
138.165
2693.05
6582.37
1541.48
15731.9
4767.07
6007.1
3074.87
624.915
184.785
5831.15
9626.33
266.195
7129.12
2390.23
1097.21
409.034
2204.69
1288.35
6476.18
7424.41
2179.46
190.155
793.127
4561.67
2933.33
390.004
2074.56
3730.55
3449.67
102.279
1027.44
798.046
-13.7309
6001.09
184.204
1836.36
659.324
1149.12
1280.53
1187.31
1560.69
6117.86
3274.55
1759.81
3645.26
11955.1
1213.31
1113.17
457.474
5266.73
9681.92
3798.99
14245.4
4112.65
4212.5
3556.38
911.94
1219.98
1781.45
1888.86
2655.48
3008.75
1005.68
320.565
1841.74
9473.18
667.756
1175.63
427.269
2243.32
736.747
1325.01
425.347
2600.18
491.42
4902.81
-19.82
-322.562
1023.03
371.348
584.359
2162.65
1147.47
-295.174
3487.09
2806.15
2108.08
1692.86
4432.78
1159.83
1741.63
2888.03
-49.4204
773.142
1821.66
9711.2
7751.61
2570.06
5717.48
1972.83
1657.6
944.866
-11.4437
3330.86
2785.02
3674.66
923.255
1438.91
4943.26
392.683
2087.27
469.365
1269.95
1138.24
3505.44
1424.93
3891.3
2074
911.737
3617.35
2768.66
447.605
2640.63
776.782
3445.36
364.44
5107.83
3257.28
123.292
2821.45
564.478
8922.98
8087.97
1980.86
2057.44
8683.59
-237.077
1710.38
2091.39
3676.53
2472.58
478.06
427.018
6524.68
5939.07
1270.29
365
1118.34
2221.34
139.146
985.931
1426.92
1617.87
1295.84
1334.6
2827.14
7653.83
11873.2
1037.46
738.573
93.4041
2912.96
713.719
1945.77
7837.02
228.257
4074.74
19578
7168.09
3070.28
1373.18
165.027
851.833
975.422
5124.98
1348.01
7408.21
2196.21
2070.78
934.27
1533.91
3315.25
5968.81
291.983
578.762
6389.81
575.791
2617.08
2128.36
7902.01
2341.57
14740.1
370.07
3525.04
543.465
3922.36
3036.3
3815.58
4285.73
2538.06
1870.9
-48.7315
2009.9
875.453
8866.62
3273.21
-4.7749
1647.09
2258.58
166.77
-272.69
6404.68
277.76
4.7387
1.03997
5321.45
-869.342
3175.52
498.83
4711.44
4219.13
1966.19
808.044
701.706
1495.96
1708.59
576.485
1423.68
4265.78
976.061
3223.35
4533.29
9318.07
258.32
3669.76
408.415
1532.26
1452.54
1042.65
330.37
1635.03
509.569
3002.51
1549.54
208.636
3256.69
4758.78
6974.23
1819.21
1779.84
6220.18
2017.15
105.098
321.112
1139.58
534.726
141.555
1300.89
1208.53
992.832
6786.15
-197.012
158.144
6976.07
5290.89
683.422
2649.56
4138.69
5126.52
1982.63
2477.28
1281.68
2810.46
3008.13
8065.94
1186.37
2112.46
837.742
136.958
1680.97
1690.4
2319.29
277.011
2179.93
133.228
3910.08
3015.91
2878.62
2184.05
3484.21
498.202
3217.66
165.254
1527.31
-3.28724
1436.09
5127.01
1265.89
5374.32
15892.3
3312.67
2834.94
11098.4
4470.28
3583.11
295.728
42.7353
3734.05
3823.8
3132.24
624.327
508.524
848.666
5307.44
5619.18
895.843
8993.86
5531.48
7403.53
-645.518
2156.9
3063.93
702.583
850.508
2307.68
6101.71
836.725
388.798
1140.13
1603.4
-1714.67
999.808
1527.39
4551.81
97.6604
1130.61
1654.31
355.056
2157.95
9307.45
3510.5
863.883
137.173
3018.07
712.936
66.6392
8728.52
2942.73
424.271
786.161
161.43
10064.6
4276.54
543.909
6173.01
1563.87
1076.4
8235.53
1934.96
170.421
4013.04
2667.04
4354.21
4537.83
1521.49
3866.05
2622.87
357.711
-269.043
690.731
-26.933
1008.34
11788.1
3955.34
10597.2
9459.26
1349.04
-150.8
410.16
3140.98
6434.89
2163.25
792.362
799.414
568.65
4179.01
2790.69
2519.56
2113.47
5478.62
12984.8
2366.67
247.997
-29.9675
115.402
1753.12
13167.4
2923.28
1142.19
6716.2
924.707
1136.53
226.477
2171.89
3327.27
5607.33
9303.15
236.806
5599.6
3207.7
1738.82
665.233
714.001
1578.6
1475.07
1950.85
13056.6
1587.36
1580.29
9326.42
8188.94
1203.2
766.03
76.1699
-73.1657
10042.6
4899.38
11420.3
5696.77
1181.34
3265.55
5173.71
539.24
362.663
4344.43
17269.8
3852.35
6335.04
3774.83
1501.77
183.664
1610.93
502.815
1679.12
2879.65
3745.03
1383.04
1188.97
1966.43
4672.93
3022.22
2819.26
1318.27
1675.56
3491.87
1132.82
2301.86
6845.38
50.3679
-31.2281
1620.14
711.173
8432.91
3910.09
1242.66
126.205
-203.972
124.66
2285.32
1529.6
260.571
633.45
63.4513
1559.83
3796.17
2683.94
2393.56
-382.297
1236.44
7015.46
4685.79
2033.3
245.544
-101.614
866.773
3117.78
1495.73
581.74
5424.54
695.441
1367.41
844.423
2140.89
461.076
911.553
1776.91
388.156
618.35
26.5016
3454.63
-343.563
1800.06
1428.31
52.2112
4282.59
1728.83
2423.39
337.744
1977.41
467.111
2646.2
7621.85
3234.43
1565.04
1312.76
-674.915
312.111
2131.65
208.055
1247.73
319.802
1417.74
1845.17
-276.394
362.693
536.284
2805.07
1909.13
3140.51
1203.58
4802.11
384.997
857.842
1514.35
3640.93
601.974
3203.88
2205.33
-581.947
625.02
4448.39
282.717
146.379
3214.56
2224.88
174.074
1066.79
1477.06
1648.79
1105.56
11018.5
112.483
1490.49
3298.2
-264.225
10065.4
2225.72
2038.67
1842.94
1925.18
3411.19
-275.832
1153.99
1560.56
2.58179
4762.35
448.6
1809.46
6073.76
3851.49
1959.68
1991.55
1840.83
1203.39
646.548
5271.43
7080.28
1675.61
-121.87
1770.33
1445.68
1796.06
2516.31
1191.64
2771.58
336.21
9777.58
1006.05
6905.91
2684.25
2358.5
3871.75
1583.64
2758.58
1011.42
-152.147
5454.53
705.159
-120.935
3869.79
-467.19
288.128
2102.02
10355.4
988.673
7099.67
1264.94
2665.62
703.638
-116.196
2713.8
4617.01
-314.821
1201.28
157.18
837.504
-367.649
598.398
613.594
921.453
1866.68
8385.38
3027.85
1987.8
9062.58
491.12
4527.2
4201.02
495.669
1545.2
825.691
1291.86
624.212
5362.41
1225.71
24.3673
-269.885
2282.91
1527.86
1196.84
1493.07
2021.49
3296.64
16528.7
3617.61
1964.41
1707.42
388.068
872.415
2038.82
6763.74
1102.68
2697.86
3183.48
831.098
3700.57
1618.39
-119.818
803.95
859.409
1873.77
1102.67
4085.5
997.129
3811.85
3046.63
511.936
648.382
6495.38
464.115
2589.09
-249.434
575.232
403.199
565.376
694.184
669.138
1080.76
1906.33
1673.49
2274.28
222.345
787.587
479.681
-253.948
1434.93
8217.77
2366.1
3952.61
864.228
1435.32
3732.71
1771.85
292.145
1295.3
345.23
-136.639
926.91
1552.3
669.986
4195.33
5041.65
4249.28
3013.52
-546.281
-448.275
5154.59
1371.57
847.021
4471.93
4276.97
3705.74
1632.65
10893.5
600.536
508.619
935.193
3078.89
681.66
-411.921
8877.99
3061.18
1520.92
2263.07
-109.843
893.986
90.1825
-200.409
1204.74
207.301
3591.7
335.32
5616.46
4425.74
1474.21
-5.33769
2675.82
6.25557
6292.21
639.792
822.71
1793.49
442.062
1867.17
5738.14
1894.32
2364.65
387.322
85.3913
4758.29
2025.52
2633.66
918.119
2567.82
9273.95
6052.69
1550.32
135.177
347.969
24.9388
955.992
740.664
3023.3
465.215
23.6164
24.6563
1036.4
2088.59
7666.51
8985.77
1034.77
3671.95
2546.3
3048.82
253.86
6111.32
3685.76
918.685
4165.2
1347.88
-310.844
1291.29
2154.69
3880.04
2310.41
93.5938
230.324
-138.932
2806.41
7108.34
4588.44
696.86
183.684
5319.01
6000.21
602.075
3607.5
224.933
599.186
1441.61
6639.65
1322.18
2385.22
2765.02
319.567
414.485
479.537
2376.97
4523.17
223.58
14660.3
1862.68
2743.85
222.974
279.125
105.43
2948.99
6291.98
9256.91
193.277
56.872
2797.55
6364.58
197.455
201.427
-249.634
6496.22
3070.53
3851.92
1761.18
101.203
3077.93
2771.56
504.722
5059.37
7356.3
-600.85
12389.7
10471.8
1907.96
-462.598
1511.53
646.405
666.021
472.835
1465.41
695.985
7293.76
3066.47
305.098
1313.9
-544.797
331.202
11640.3
1026.26
1374.89
2874.77
2808.42
1478.69
1556.01
590.78
1572.56
17221.8
1276.93
4723.43
1697.7
594.978
2795.69
6762.52
11461.9
2535.56
3637.2
4660.93
821.953
84.1257
698.006
2658.3
1580.81
1051.74
1015.82
1182.64
5137.17
2960.06
1591.2
2021.82
962.625
3840.13
13478.4
1609.89
4471.11
68.4999
4186.31
989.371
838.857
1969.18
-41.5129
1077.98
1466.16
891.691
14750.4
11329.8
-389.124
1340.71
5759.52
295.467
3503.13
4202.4
13329.1
1637.52
2270.55
-131.86
3047.07
150.135
5139.77
-43.2981
1451.39
2667.5
1419.81
403.969
1925.3
1342.53
4863.77
260.978
1356.3
712.784
454.211
1169.81
202.517
7323.49
55.3925
11118
4737.38
-421.938
10127.4
1099.03
1085.96
11646.2
346.726
2987.34
-56.4166
8265.11
4097.96
138.553
1077.18
615.725
7883.14
6556.86
6942.84
7769.45
708.617
3245.33
6479.1
