13274.52998
20390.33626
15420.0626082
15707.70584
13643.150673
15520.43397
18996.62392
16056.65661
13789.6799053
14078.779418
15689.823813
12197.80885
15352.50349
13519.68274
14163.03651
17192.41486
12693.30876
17351.33762
17659.82123
16491.66548
16995.82796
14664.21759
17099.84954
17129.615525
12197.975364
15216.13303
14317.737011
15590.459119
14351.11051
14382.18227
15295.879047
17766.41678
13828.76071
16771.89909
14276.39182
17263.13061
19216.48921
14445.68348
16619.03032
16326.674415
14532.363604
13701.954004
14594.16264
12101.234206
15342.14968
15801.561056
14314.33917
12501.60922
15523.905465
14368.273733
14353.736299
16370.55653
14298.32502
16985.422959
12755.397015
11772.48468
13459.03082
18813.56322
15295.561711
13151.559432
16627.009084
12301.146267
13545.27385
14124.30046
16569.4901234
17010.60828
14000.25285
16506.42652
12637.6994
14044.713887
15142.82982
15627.31596
15481.14859
14345.1322902
13263.6272
12275.728384
16754.90981
15524.833036
16807.3536
15049.41505
13564.28317
14367.53605
17339.34836
15029.84474
15874.63587
14811.01167
16689.230141
14379.71984
13511.773563
15958.9387
12094.69851
17424.92137
16120.27463
15998.375317
14421.14703
14672.92943
14862.68159
15650.392441
13542.0786158
18046.31012
18457.90405
14048.33784
14707.833611
14135.53118
14833.417717
15491.40045
11310.18106
14717.06357
14202.84895
12636.337798
19481.552258
13651.99653
13646.71756
13159.0922974
17596.13546
15648.427771
11567.85477
17008.79574
18371.46882
16998.25779
14469.550891
14352.0046706
17118.24441
15021.880618
15311.10404
20086.936186
13686.53136
14228.76999
14728.62902
16056.44335
16858.7595
14806.95524
16133.300782
12569.56235
15173.357063
14544.16912
15658.77997
16565.86856
14079.99491
13987.96281
17112.9829
16226.17411
13781.19826
15434.189393
13373.42241
16438.414784
13379.33755
16402.64183
15764.031721
13159.264538
13714.32033
14409.27142
17297.371071
15045.27508
14550.626171
14391.05239
15125.780229
17502.721751
17249.88491
14437.84133
13373.271551
15476.67538
17352.096683
14223.014756
13196.65088
15575.37719
12938.76331
16078.53311
15122.30754
16574.515629
14889.122133
14216.60654
16207.19101
15505.706326
15559.65148
18142.751549
15069.256932
11173.3192272
14380.51522
18002.6751
14640.802721
17230.680226
16392.71205
14167.678156
15131.54149
13959.765908
16689.32907
18333.38963
15331.16479
13822.955399
17419.168613
15939.917269
15430.68828
14423.8293
15706.19584
13720.13915
17271.11195
13492.580043
16355.78668
14203.67161
17691.7427
14038.54459
15440.8043
12974.016371
16312.13894
16204.833066
19142.332707
15074.09296
16695.11683
15965.43374
15224.39531
15992.07273
12932.364316
13085.9402917
13596.581964
15320.48038
17824.71989
16278.97691
11963.764697
14022.00984
16851.6428
15809.346049
18523.92346
15052.45192
14520.39485
18199.416527
14348.57544
14292.34629
17399.9237
18887.36674
16048.0321337
14428.32468
17060.59919
16299.52989
15877.669221
15313.02553
17252.25619
14265.77045
17077.621941
13629.32579
15640.135241
18099.19862
18153.86554
14423.72525
16438.49041
15156.56377
17535.95107
12219.947888
14614.01542
15397.16189
