1308.8809
310.10523
-2675.4846
-244.81168
-574.365483
1140.5908
1261.854
-3649.504
3773.7318
15173.991
1860.0479
-3481.32789
-1019.141
-1012.7583
-1067.90101
17.0719582
608.1154
-751.0697
-5850.356
-3180.5849
307.14237
-1899.242
839.779
1703.17742
203.07541
1041.74365
-32.9524
-568.3064
1836.9565
3104.7878
1280.37837
388.34893
-1901.1899
486.7907
406.14242
-732.1915
234.01212
2023.1266
-1027.17788
-4276.4457
-4734.921
-2331.1422
9.7596
-2046.607
35.2546
4447.599
4788.1323
3492.652
5290.1321
668.1955
659.5618
-848.85309
5933.429
4885.0312
1656.3376
-2700.9767
1119.5959
1588.9371
2342.885
1023.4223
546.7421
-169.8494
-89.4696
1287.2495
6895.78
49.8747
-2160.3623
740.26592
5334.0819
4678.959
4529.2339
-189.3834
-1821.339
-2475.6639
-1947.588
-1184.8871
194.32291
-834.1573
-2012.2017
-6392.316
-1110.6178
-1455.4983
-1245.1693
-1919.5983
-649.3173
791.6684
-3542.054
-2364.5537
322.5181
-3213.4796
563.9361
1625.90678
-1308.64557
-3442.1954
-2445.1106
-596.9049
2051.822411
-1622.0471
6168.8624
683.02678
-3790.5674
-1961.456
961.5722
1347.9675
1212.0885
-222.6624
-239.03826
1145.81583
954.2435
1628.1254
1138.0105
561.5054
-639.75299
-1213.0593
2429.8504
1137.5566
702.22483
2074.0852
1104.90221
-1529.8252
378.8828
-244.169719
345.32198
4507.789
1538.5225
-118.3774
-1936.8802
-3398.3162
1029.8923
480.9035
449.2109
340.34573
837.2133
1106.3336
147.05977
-1260.4884
1638.4288
677.94124
-673.09896
1648.0335
638.15752
-529.0437
1751.4587
808.7473
3231.82682
6348.29
-0.7419
225.6939
-3075.8567
-7924.2354
-1755.963
4795.4821
2066.15622
597.1934
1633.8991
2398.7737
2401.708
3938.7743
-535.08967
3120.43023
-363.9724
941.5231
1054.393782
394.1781
-2780.5177
-2570.821
1279.8173
-587.7979
39.7255
-2828.909
476.6832
-441.1343
2061.6968
2022.6635
216.99714
-792.9613
-635.21
4136.61
1252.8113
-568.15
255.40341
1246.6548
-131.5211
526.63007
2261.7958
-5004.172
-2482.2234
359.58475
-4150.8925
-3849.434
2482.5805
2299.1963
2499.1457
3467.3925
-211.9308
189.35454
437.3001
-919.575
-1089.4094
-3174.6531
311.844
3051.5108
-1813.2638
2188.0421
151.24207
1260.2034
-355.37
440.69268
-2673.8338
-87.61423
-899.47028
-2777.1926
-4933.356
-5160.3184
20.5366
2369.6311
2969.263
1890.1113
-2810.26
-2725.0316
-710.5748
2320.1438
518.6046
2231.13636
1796.598
940.80375
-2698.552
-117.9533
-1226.61237
1157.99273
493.50439
1650.7489
1082.5203
-4392.568
-1839.92596
989.02485
-71.52442
3244.0883
520.2596
-1077.7501
-1754.9325
-463.9988
711.6185
3465.42531
265.1357
-657.6599
-1617.26345
128.1158
3163.9389
2346.7304
73.9299
478.37091
1901.371
1279.3234
-1820.7191
-696.8197
1437.6979
1198.184
4957.921
1367.4101
527.2367
2530.1645
1229.8605
-390.8226
-551.20976
1782.24692
-2541.6056
-1939.27094
2645.4622
1745.2624
2464.61
-44.988753
-400.09976
1.618938
1817.016057
4683.1454
2562.24075
-460.20507
-2237.1825
-379.2364
2518.01
2383.8826
1738.128
-62.92777
-997.0816
-1298.4483
6926.322
2755.6613
-272.4109
213.987631
1231.2618
-648.38312
-902.5805
623.7901
5898.256
1427.0694
2708.5597
1297.2981
4950.2042
-2074.7496
756.49702
-1760.4909
-6494.465
-3161.8167
-822.4472
601.8121
-670.7987
-1058.5628
1262.63424
429.19197
1105.7637
-398.94649
2150.7228
-369.009626
-446.5588
1337.9105
-2123.1613
-1276.3017
1439.1997
2218.536404
1877.7935
1288.5937
233.3525
-2111.1455
-468.780519
-601.24259
473.0583
-821.91118
-530.1056
-3370.3978
-4920.4323
2577.547219
-698.1038
2633.3814
169.6727
336.8706
-69.11243
-557.6751
83.1055
242.4885
-2257.1056
346.1328
1414.52756
-1471.6285
4750.4482
-65.47103
2922.86295
-1823.1833
572.89005
-1293.4972
-286.7783
-5.9885
552.3725
-614.23396
-1558.0982
-195.16141
-450.0123
-496.696
4338.41611
378.874
381.6469
-26.0905
-765.8249
387.407
1078.8914
2429.8637
3900.876
385.41146
2972.596
3474.8524
1837.8249
2220.5011
-1192.8204
1610.6607
882.24254
-112.7178
-2940.0059
1960.59245
3315.864
1803.44402
209.3498
1145.4308
-1503.7291
1618.1609
-657.5292
-2921.7173
355.779
2962.021
1675.4806
-4280.3361
-1529.8232
-523.85
7939.803
8099.53
2889.6341
-5596.466
-2436.5215
-1021.27083
4551.4586
304.05836
184.8408
-2721.6527
1724.7186
-2414.3417
-596.205
985.93236
-601.76486
-437.74743
499.49283
-1293.4524
-509.3158
2386.8753
444.2027
-1714.33364
1348.2309
3020.7867
864.0311
-563.5773
2529.2039
1749.9878
9315.03
1774.21878
-1623.4058
-5292.1002
-878.681652
766.8859
1181.2469
1832.99482
-727.1857
807.4096
1823.123807
-1915.16702
-664.5679
-2804.46582
1812.7178
-429.2819
237.68889
2034.0601
-86.476279
493.3772
2596.2145
-193.097
279.085677
-785.476
-3660.65257
-5059.0501
2195.1497
5333.268
-2203.014
-1487.1275
230.12
1439.2934
-948.62586
1673.1031
3077.83366
3016.8384
1919.6039
-2188.4651
531.9857
1141.8517
-1095.20891
-1282.61453
-1813.3194
5248.456
2141.51588
3594.43
-2407.225
-749.4738
416.79081
-975.25855
1557.87148
3528.5399
3424.7688
-1367.3028
156.68262
-274.850284
-1277.20828
936.23
-4291.3817
-3726.0387
901.4771
1188.3907
-4064.34249
-2121.63402
-1597.264
102.35101
2872.478
2344.3515
902.9146
-1771.0106
-311.714
-272.24071
-601.45353
-916.5243
-1781.0264
-5998.361
-5321.024
-1100.78546
4917.506
936.0507
-2591.75838
-6290.011
-1005.11285
2574.2478
2268.0555
-1392.9477
-624.78255
-7.6173
-1635.7766
-725.7979
-402.9422
-2583.3174
-2358.9173
1336.4062
-410.07831
6671.552
4828.1794
-1742.95286
5367.4707
1576.66026
2831.9425
68.6797
2186.8493
1794.666
3289.7741
1735.4549
-698.7144
1306.948
3159.6505
-1369.2166
-3933.9252
-419.52764
1831.7054
-2664.3574
6985.2515
3577.5126
-1496.365
-113.4326
-1899.21045
-103.5849
1780.7589
-346.2549
-5159.6105
-3993.2312
1758.8257
4539.8602
-240.02417
4022.3
2600.0451
1415.1495
-587.1908
1980.66675
2204.5062
6601.3879
1602.2595
-947.2446
-1846.6185
936.4103
1467.3642
-1423.6507
1399.57734
3774.3409
5755.824
2577.7893
6730.286
2657.616
285.0423
-3905.267
-1213.1815
-831.1862
877.96
-698.098221
-616.6309
-1138.1805
-3194.1744
675.03764
-1459.0343
1095.58617
-1736.2373
351.7705
4107.3989
-2227.28179
1529.76264
7731.47
3878.8816
1204.9093
-130.3541
695.12629
591.870582
1768.046
-2734.9172
-252.5302
-850.521743
-1076.9383
4536.7295
844.3459
-2606.1581
1275.7462
-1786.7959
375.4971
-656.2908
-1770.6064
2423.03
520.5589
889.61324
747.92137
-385.99545
1451.7333
1989.1049
146.00059
583.45983
1895.1319
1687.2958
-568.5962
616.51289
-2336.1
-84.113
-3225.4566
-1666.3799
1835.16641
3175.29953
2324.8609
9899.594
1570.7464
1948.6457
2570.7828
3631.7575
847.29996
2044.02082
1212.23437
-4173.6388
-830.8682
2438.517
141.17919
-227.43452
-2125.6182
-594.99219
-846.4156
-37.8398
5377.196
1704.0741
2755.8284
231.2812
1423.2357
2311.4865
-848.9557
-1259.86794
2385.0658
3012.6487
2816.8464
1627.1161
-140.387
-307.0162
-92.7322
-2656.9366
-1619.5589
-253.9117
-1962.889
227.1778
322.24888
169.73801
-1033.073
-753.1123
1479.18612
5112.345
2777.55027
-479.6705
321.2767
-542.61211922
2544.8445
355.1797
-118.9567
721.68287
-17.1336
1437.074324
1345.19251
-171.94392
-493.19006
1399.554
-1029.3375
-194.9737
-222.06549
2214.7865
-1984.1543
1870.2577
-489.517
123.30967
-870.1535
904.8809
12083.034
12006.243
427.484
-626.93806
-262.504214
804.49013
-51.17465
2130.971
826.6483
-3399.448
353.3906
-267.5651
3302.675
-1275.1033
-757.2795
-88.1483
-2825.445
334.3207
681.2829
-220.567129
200.7511
-18.345
-481.1076
-6229.368
-6011.7932
632.1676
910.6331
-1719.6885
-463.9527
2178.3829
4730.5324
2386.6446
2920.91219
226.3049
-1000.4478
-598.24811
-367.2187
1700.7406
3014.71522
-1131.2312
-1551.684
-1067.8216
-1650.766
-813.1845
750.7497
4916.4014
1998.9618
-392.2029
-2214.9806
-4280.1044
2830.8841
2146.512
-541.00673
1238.0957
-3385.42
-2308.0274
-766.20685
1923.8045
-1124.67017
-1098.9207
242.26
1182.97473
127.6128
-305.408
2794.90212
40.87621
-1096.72004
-1330.1439
-2493.9616
-3936.403
-2968.628
-5065.359
-772.06865
2293.54315
-2692.7616
-1575.4787
-2176.5208
-3931.2934
3452.719
-818.40985
-4666.671
468.43335
663.33246
-1174.31876
-3091.9966
-382.61274
-1133.7812
786.96447
3513.8056
655.43063
-790.4663
898.47282
640.1366
-977.04874
-1940.2055
-3132.1544
-1336.39721
1535.661
2309.5189
445.58408
2059.2576
2420.108
981.9371
-3808.379
-631.8451
4712.275
16.8566
-295.3216
-480.0246
-883.5097
-616.45304
212.40444
217.9518
-66.3391
-1751.20117
1318.5158
3932.533
-249.9585
-690.3642
-1819.192
-996.0595
1430.9321
-84.918431
151.4935
-387.6475919
-604.5951
-1385.6743
-163.7893
-3240.2355
951.956
-655.2081
-911.2404
-945.23207
3146.6681
1656.7591
728.3728
-206.58789
-1719.335
2668.6469
2069.0142
11342.675
-1774.8645
-3713.4171
-1847.4894
-1225.7993
-1857.57206
836.2757
2379.5331
3499.601
-1968.2154
-2916.804983
-4111.532
-341.66736
-1624.45539
-745.1864
-679.0444
-5261.685
-5485.206
-1426.881
-1341.11296
-261.71854
-1955.34696
-2555.9539
-5016.7376
508.51909
-1304.12246
-812.9726
3025.807
2749.743
339.0378
-2332.627
-1428.84301
-695.9408
863.5789
-46.1971
308.73213
350.545
473.2476
2512.71411
-683.6258
-228.4693
286.3011
-580.19354
-1133.2553
563.5637
1381.3164
-877.0605
1184.0163
-1197.99635
2325.42001
-983.319
1049.575
-1387.9983
-2420.2696
89.4275
-1861.2564
-3691.528251
-940.55672
807.87872
650.0144
-3203.9114
-6047.863
-1191.77598
-919.9059
-5662.475
-7690.157
-4199.109
-3584.89793
416.9205
868.603
-996.8107
1431.81717
-125.1468
-1447.0581
-2120.3647
1703.9749
-2571.5905
2041.4182
3012.8059
13209.225
7949.1117
-5207.279
-504.1182
-907.10489
125.04252
73.488057
1780.9491
-2332.0701
-858.543
-134.1806
55.237
-59.3978
-1299.39697
1063.198
-2693.6637
1141.5668
-1154.0589
-1698.24675
1309.9405
-2216.9461
-3336.8261
-555.7485
-1585.29984
-464.01138
-1608.12845
397.40267
-18.0662
-1144.2637
-577.59565
1206.8488
344.28572
1362.58421
-2039.9887
1998.687
-598.96515
-243.9237
821.3388
1175.3231
-141.1499
-682.8741
-864.01274
183.58378
-881.65967
2547.5334
1560.7097
1199.1729
729.796422
2131.16124
525.0183
-892.00506
632.8084
410.8563
-1490.23398
-3121.9277
3685.7166
478.1678
883.96279
2758.57539
1188.2422
3909.7769
5230.2759
-379.47611
-435.3359
1558.1287
5508.864
-437.3648
2859.9409
3343.73564
985.0966
-417.7451
-506.6654
888.09321
1125.4632
-297.98541
1730.31267
-1065.5229
267.7808
588.9646
2424.0927
8036.452
3278.3619
-2523.619
-3706.0742
2048.85964
-14.47882
89.5142
415.32291
-322.8912
423.7317
510.874461
-1822.083
