44.98035
-684.483
611.709
-26.92155
-112.4379
-664.5935
-968.5075
1149.1807
3022.685
2111.455
2758.275
2447.935
922.641
850.54
186.6145
736.539
199.892
-243.3705
151.685635
490.5245
84.0725
1097.5485
-311.6755
-587.2302
-434.68795
-221.394
235.547
971.6795
1121.19
-104.726
617.4205
475.9135
-226.4015
1056.571
-186.2175
-748.423
115.963
23.545
-297.7254
172.69857
340.1675
-427.821
-345.5916
933.1025
1807.8
1420.425
533.4699
221.123
-549.0035
-1116.05
-973.352
-625.763
-156.2977
-94.178
1392.72
417.971
-533.5878
-745.9795
33.075
-162.7815
-133.1685
1075.148
-124.2325
355.0345
-149.897
406.9568
-182.1024
1324.0425
875.66
401.75
-315.43525
-733.9695
13.0415
-490.2935
-158.0295
-292.553
-1203.1225
-741.658
779.262
1177.1275
1714.615
2383.725
27.6265
2038.49
1851.825
1863.615
1599.675
853.101
-171.81595
-549.6362
382.149
1142.058
471.5845
420.494
253.0492
-823.195
-787.1495
-169.775
-297.467
249.0364
127.3391895
-441.5311
-935.5735
-217.59
-817.3005
250.74475
180.98
-905.849
-426.072
-519.7065
184.063
169.5882
201.4805
266.4965
287.0875
-33.6242
-603.6105
501.7965
672.1135
-540.8325
-273.5045
852.674
528.6475
271.45285
221.636
233.036
-133.101
471.3847
660.79045
-462.85
-269.2225
-522.107
88.145
1063.3855
344.333
182.4195
551.5875
113.8615
-367.997
-175.997
-835.6605
-697.8995
-1037.2235
-105.4645
-541.7385
304.322
-431.223
59.16695
439.5125
335.625
164.5445
870.049
93.0188
-124.5873
-882.3705
-813.71
-983.1855
-839.532
-379.0356
586.385
-50.57435
806.7025
-891.344
297.993
136.31425
-441.1525
199.372
-481.4665
-178.8496
1570.765
1364.844
421.905
469.7808
-414.798
-336.917
300.63465
95.6754
434.9665
217.17755
300.572
753.1175
-547.7825
96.6715
-1253.245
-429.11355
-830.8615
-512.479
80.8107
399.458
233.29525
111.50035
-152.9735
201.9195
-500.856
-467.981
408.665
-213.6391
-70.47285
81.695695
198.4785
22.384
332.0715
199.73565
344.4185
594.189
-460.2115
-1455.385
19.462
525.4105
1066.747
1467.495
708.342
-164.8235
137.37995
-349.7161
147.16592
-166.5383
503.6875
510.618
52.47475
315.4115
106.4465
92.4255
772.1875
558.712
6.13115
839.7785
139.5003
327.1995
575.07238
185.852
-126.503
-284.6288
-705.011
-224.1765
-479.1035
-92.195
24.768
-206.6985
-1421.055
-413.124
-1084.661
-1597.475
-646.519
-386.539
-2333.705
-399.33505
158.265
-1399.06
-1267.145
-762.655
-245.6912
293.655
1059.483
386.511
447.5865
410.8025
460.9665
195.021
-110.214
58.3735
100.5805
-469.0035
-336.8885
24.5625
57.7065
-1522.64
-3240.44
-2975.785
-1077.9475
-434.0665
1986.49
977.0245
81.24125
-10.8055
-457.3305
14.2894
-30.18
1159.301
1222.966
1605.995
705.4485
798.061
332.587525
-69.3235
-668.393
-1406.551
-1514.7325
-263.614
-1042.7
66.3707
239.6965
241.8235
195.3285
259.86395
828.8185
490.1335
196.994
-122.832
559.689
561.8475
-167.982
-168.51095
-47.9195
-798.065
-839.052
-1423.7325
654.494
-758.706
110.404
-864.264
-860.304
-780.439
-405.5475
-1887.57
-883.513
-773.4615
-452.089
83.274
438.0901
803.989
537.28785
1283.099
948.158
329.1855
-623.914305
-418.7885
56.272
-564.56335
-127.006295
-436.278
-434.77255
-550.821
-1541.955
-439.126
-35.0875
-321.933
3.539
7.80915
179.5208
-65.603
-269.0482
179.9244
782.523
9.6125
-618.15
-61.57685
726.624
-94.422
-121.1395
546.7915
313.1605
1173.5985
-36.15
154.3525
446.4015
1470.3325
2493.695
980.3055
756.0305
921.493
282.816
261.4905
630.391
1090.4635
1389.055
308.163
-691.82
-719.8445
-214.6325
-291.8426
-754.962
-34.796
1.0595
307.271
629.541
-166.5495
-579.658
-1603.225
-1049.204
466.0115
673.4815
724.2345
794.8055
-271.66595
-575.755
-131.977
983.2205
1001.451
1642.1025
276.0185
-188.8715
-527.2675
-1648.494
-602.788
-799.962
-611.4725
-107.0795
167.2235
-312.596
124.93635
-39.269
116.17
-110.5975
-96.65525
-383.46455
-1559.995
-1936.093
-1444.425
-487.7895
329.504
1086.3975
173.349
457.1345
115.14755
-667.8335
-930.2435
726.379
39.7525
-706.636
-2093.355
-367.610375
154.6435
63.67975
-125.534
349.7719
251.869
-288.4692
-103.4365
-93.832
-745.512
-624.189085
-1361.31
-1055.376
-194.5256
-408.886
-278.5795
-79.99935
-454.3365
-252.571
-1096.4885
-571.26
80.4115
340.244
-703.789
-603.146
-865.8985
-280.21
-617.2275
-256.070755
382.779
465.229
-107.395
-1235.705
180.69625
-376.205
-555.577
-482.402
4.399885
1255.712
1285.9165
13.53665
-332.45278
-284.5395
-35.50315
-340.6485
-1654.2675
-525.3315
-376.1135
-1308.6625
-1070.568
-900.9615
-75.342
-40.404
196.4855
-539.0915
-463.0715
-128.5825
6.479665
265.55415
-527.18085
-110.7165
-768.18
-291.583235
457.069
-240.627
-120.73215
398.5635
-813.4945
341.8225
-111.088
474.044
1046.4375
311.93075
-1.1504
178.0055
-498.2995
-35.8455
-138.58025
257.275
744.7875
264.2655
760.0825
1350.54
1652.44
1042.2595
2191.91
23.319
-456.0945
-343.59
1581.6
706.051
-0.9085
-887.975
-2026.89
-551.102
-874.8935
191.742
175.4355
339.5245
143.478
-36.0345
-275.427
-352.99765
-487.29
-863.3255
-954.427
498.5865
875.808
141.88525
373.1175
-224.4461235
224.9152
-379.8445
851.634
759.199
-298.54935
399.546
231.3984
1285.7785
809.9355
306.322
828.6245
-127.141
82.125
-200.3745
-400.3465
-68.309
506.0155
914.761
486.986
24.5984
415.636
188.1425
-441.535
-729.6325
-534.564
-473.92
307.205
111.1022
617.3285
738.8665
-147.8369
505.9985
258.34645
123.5555
-335.702
-320.318
142.95875
121.4205
-650.071
82.86
-221.571
2.8985
468.8955
-62.20685
-756.3315
278.03554
-331.51305
-423.8045
-897.7095
-746.9215
114.03325
163.6711
-241.83682
32.298225
-312.72425
159.363
-57.8885
-44.8535
-153.689
215.1335
-390.1275
352.82195
-231.3883
-8.9905
435.41965
1806.195
1598.86
227.68075
-658.7775
-800.978
784.1815
861.904
528.489
-726.7265
-836.66
-444.8375
-216.1365
-239.5185
-312.206
145.424
-307.4715
-263.0417
-886.3925
-4.809
589.715
1963.11
-33.6975
-277.927
-541.9385
-49.839
421.5615
99.1945
29.41425
-85.82935
-319.8685
224.8232
652.1995
-267.19625
-369.729
-137.3735
-395.5781
384.9725
-134.542
-55.5975
-210.573
-78.174
-616.2045
-267.3805
398.528
982.7225
575.402
541.025
848.185
350.8905
1145.195
-42.6925
-832.3675
-1218.2975
11.1421
-297.1913
-1042.8635
-109.90265
-587.362
-527.556
39.189
-28.53
51.673
-229.037
376.796
-97.1261
54.3125
456.0895
-43.1
-672.21665
359.4606
456.878
432.9935
-63.12605
-8.796
-43.1095
1515.785
496.6935
1298.478
913.588
-93.68225
240.0954
699.3505
1332.565
432.06225
1022.901
868.538
703.01
646.9285
911.9255
413.0961
1618.835
781.1685
-154.6576
215.7495
343.1436
45.4965
49.902
414.35
12.426
405.4455
-188.679
-627.7525
-1839.485
-667.5125
22.789
386.6395
1113.481
571.0305
778.955
520.8915
175.16895
462.8885
-776.872
40.5555
-46.7015
-1498.465
440.974
-355.828
665.5345
1411.59
1194.568
2297.08
1605.535
805.648
-396.3630495
-900.7415
-263.6625
164.6725
-801.3445
17.0825
441.5045
-600.276
999.627
-307.3193
522.7285
64.3341
404.132
199.45325
176.7831
-44.3993
97.6568
-954.0055
-791.814
554.3355
526.047
-110.2995
-28.34
-42.75835
-386.6545
320.4676
-326.182
-515.7085
-208.1246
32.7681
116.3054
-552.9705
-63.97005
-115.3355
525.2211
83.0383
-13.9365
-939.758
703.772
205.2905
-805.967
-420.0755
306.558
-782.112
-377.9144
-573.627
372.726
-205.70975
719.1395
358.6305
338.2755
418.73505
-748.6425
156.7125
-25.76
445.59
-712.8425
-1061.34
736.8655
-368.74735
-73.1647
99.03663
-171.087
529.2695
278.784755
-113.7055
-134.8055
-407.609
-936.958
-440.1224
-307.239
95.0826
13.93315
-128.8923
-50.5656
868.6985
380.888
297.894
886.5365
-764.638
245.863
-126.6365
-1081.181
-286.542
-301.7615
272.12365
485.5306
-259.8668
770.192
169.243
-15.32715
619.7305
358.5695
-72.952
499.033
316.651
34.867
940.895
442.59
255.2397
-47.142
-482.47
-264.14475
-1188.6
-676.094
-497.6665
406.221
-487.3755
150.628
149.407
1651.025
3778.585
916.9165
1200.3
-244.719
-83.375
-476.4205
-85.5455
699.63
464.5255
543.5845
595.819
110.569
-309.578
-310.0435
303.99825
-310.4135
-793.2595
3.37
559.395
475.7875
1470.705
405.9765
-565.8555
-99.757
62.6035
-737.472
-1211.435
-1685.95
-688.6925
-987.961
-649.284
-434.843
-62.688
256.99
157.14505
-1085.727
-826.4475
479.8125
427.3955
33.3284
-352.0547
311.1377
-443.8945
-1196.895
-809.541
-584.679
-643.009
76.17
270.3215
-716.11
-35.909365
-227.712
165.09105
664.7845
-13.7095
818.174
-134.746
-493.117
78.38
94.4531
304.759
-504.719
-289.20715
-234.084
264.5167
310.3385
-360.10535
-746.5895
-2475.16
-482.729
-436.8853
-250.934
93.0828
514.775
284.2455
-668.806
586.0765
560.4925
-46.781
-384.7535
-50.3325
-319.1755
-49.8495
4.5425
-707.532
48.189
812.391
975.0645
290.912
295.736
-423.9365
20.0405
-745.987
-284.6205
800.0025
-178.665
-572.697
-555.1665
391.4134
-787.793
-824.011
688.337
1505.355
894.5775
-118.3635
-638.7645
-977.326
-1215.97
269.25195
630.428
495.37
-278.445
215.7599
-170.019
-1231.495
-1411.45
-1161.04
-656.033
-644.2855
520.2355
76.5145
199.828
-379.6825
586.59926
563.683
-333.042
90.6885
-155.863
91.3375
246.679
249.56255
625.7945
-856.4025
-837.139
62.7778
2171.395
651.7344
24.2979
-614.56
-106.8065
-284.2865
97.65065
-244.401
-142.49175
-146.3865
842.309
-561.1395
-366.05785
-851.892
-433.406
38.178
260.897
-510.5175
-560.724
-136.378
-20.1745
528.717
358.02415
574.6025
428.4115
338.01
946.121
25.341
-891.077
-991.8725
-126.3655
318.1625
-2.0905
-135.135
-723.7305
-624.2935
293.1715
182.475
468.569
822.2745
316.0695
-772.503
-476.31015
-255.881
-982.222
-900.78
-99.8095
608.412
-49.1385
-621.48
1905.115
1369.3385
802.8385
-36.8618
128.3234
453.237
2258.31
170.15225
217.63145
1821.955
2505.22
1167.575
725.105
110.744
251.5905
21.3615
-408.5354
-83.17085
-732.376
345.92
-275.3245
-1461.6315
-813.4335
-384.498
-917.9255
-2600.59
-93.109
963.2195
672.9405
103.8575
88.3585
-312.8555
4.6395
-545.4535
-286.03815
136.5115
-583.4221
-546.17205
-145.7271
-972.6245
-1230.937
31.8975
-16.455
-655.046
87.00285
-25.286
414.862
1163.746
737.217
432.3465
-100.12855
1283.7455
1209.0055
943.9605
-394.93095
189.4355
-720.8595
-238.1815
-710.476
-2093.155
-890.5145
-242.99635
592.9255
677.5825
313.8885
31.14755
-606.41835
633.906
-30.067
-1073.134
-544.4275
120.1356
-12.1763
-69.91535
-352.655
-63.253
-381.1235
71.80865
-117.428
-367.06392
148.43725
306.3205
-359.8485
181.20975
-509.3915
-204.35908
-929.202
-1092.285
-824.8915
-1395.4465
368.6165
294.2019
-1130.514
218.9285
1262.635
258.77
310.712
115.3833
-300.07475
-95.43
-914.7175
-676.1515
-1593.165
459.248
193.1615
-746.7825
-345.585
-72.77505
-365.59375
-78.2154
425.291
-311.8585
-26.705
788.79485
1187.6705
30.4225
29.2621
275.1075
240.1725
-158.73435
548.8085
1128.228
48.56905
549.2655
-503.0715
-271.1675
109.1586
-138.2558
-213.932175
-75.628
-312.362
8.33355
-168.9055
-112.473
-426.2004
-846.501
-1544.41
-1081.775
-176.6315
-713.6385
636.8285
650.027
582.997
1182.165
110.129
-244.534915
-222.937
-361.728
-356.185
101.92385
1028.172
-720.8725
-682.7615
-526.8605
-79.3966
-54.9245
60.1275
-280.7195
1527.143
318.255
64.8032
-103.0083
97.647
-520.7275
-501.7975
101.898
869.6005
1247.168
-413.60445
-1685.98
-914.847
423.16255
-283.361
-237.3741
-974.653
-1112.19
-845.42
-279.4325
284.6035
-37.97995
-85.525
-225.23245
-70.9
-691.8995
-79.251
402.8695
-59.8695
-553.9755
-358.0779
-486.7815
-617.669
-103.09
-476.457
817.0225
1097.605
-19.4595
-257.9135
381.8595
-107.9981
-798.716
-844.5895
-75.725
-659.263
-687.66
-1169.725
-851.4915
-319.3085
259.1145
-71.38545
-79.1495
-550.5705
939.4525
322.80735
253.1944
5.834
-69.8665
-986.5305
-150.8107
1347.9755
2425.905
1719.27
-8.2737
80.965
-222.3355
-288.91
551.462
481.839
1139.046
440.776
-33.42305
-8.6225
-413.2766
-132.0264
512.0515
-12.067
309.6745
-346.731
-153.256
-1156.6875
-1233.54
-1091.484
-1548.425
-959.313
-1433.43
-1089.885
-1696.049
-1920.15
-328.7975
-706.1175
243.684
47.2305
172.766
4.043
65.809
455.7505
627.1435
227.517
578.1245
29.11637
239.25188
-190.699
-777.9265
-577.8
51.26305
-389.636
32.3155
-674.6985
-363.8885
88.8565
331.67
457.689
1216.415
756.166
-0.1884
-478.9695
-1814.03
-1278.3745
80.983
334.843
235.983
2032.895
-197.8775
-46.90365
433.939
306.6922
671.327
228.79875
-558.137
-234.877
-282.798
368.4984
-116.557
119.6315
-360.4174
-210.29455
655.6615
759.8005
560.9845
544.2662
-681.8575
-1114.124
-589.797
-95.1033
-158.2225
-421.79005
539.452
458.48285
-825.107
-995.3825
-125.0015
162.04085
212.701
66.5313
-913.998
-509.83
126.9466
-793.074
-342.83765
-559.0836
-139.5085
-327.24705
4.066
671.0085
478.3415
46.4405
-427.7885
-178.844
-127.92675
-267.981
359.4075
14.785
-87.6175
-562.6355
-589.6365
-408.6805
31.56845
-1163.6125
-185.7645
-551.004
26.0757
914.357
12.845
-942.4445
-117.2925
-247.2265
-247.00665
129.8
226.26305
-430.0955
-572.9085
345.021
107.4850315
-355.2437
-84.705
-419.439
1093.68
117.901
614.228
350.6475
179.17205
-75.267
-451.9445
-46.714
-264.0445
344.3225
133.13905
-285.36435
-329.4612
229.03955
-44.7783
332.524375
760.1145
297.686
-631.8235
217.18707
331.8266
166.4735
-492.184
164.25355
527.479
-33.737
-267.63955
-392.2875
-72.49705
114.302
895.5425
54.7802
-330.62465
-186.18655
128.20575
-509.7519
-390.2065
-171.53025
305.6643
322.364
828.1095
523.126
-469.9215
-152.202
128.9605
653.199
948.7005
715.5825
691.8013
1080.2545
801.0185
-18.0647
-933.8895
561.583
-132.5275
197.931
-555.836
-122.4625
357.9505
1034.653
1582.525
938.2975
15.52395
-733.1865
108.37695
17.3105
402.782
-229.392
154.07189
-162.8205
-425.51235
183.112
34.964
-190.164
-457.754
-291.0525
-230.0108
-844.4405
19.4796
654.00765
-329.7695
59.1945
118.1035
431.285
989.0565
-123.2215
-205.0865
-1085.4785
221.864
-1148.37
-514.2625
-1036.7965
-575.9725
-415.572
120.8805
37.5795
507.7495
1482.665
758.412
599.5135
-412.947
-328.0435
-566.688
-875.685
-1460.27
-622.1606
46.145
1206.317
915.2135
231.378
576.55
-1317.62
-629.4605
-521.481
-357.6675
-873.18
942.301
488.765
589.346
1185.974
-219.816
-730.3665
278.989
244.484
715.479
424.3317
145.8465
311.14965
-295.989
438.67
-41.6585
-1073.3185
-988.8035
-383.335
18.802
60.34
459.278
-402.977
-798.1575
32.979
809.291
-471.8385
321.3555
62.5639
199.2095
61.98353
518.675
-40.7166
-290.3715
218.84
-824.1005
-649.502
-1035.427
-1224.21
-341.4597
255.445
215.934
524.948
378.963
588.547
791.5585
-128.18885
-253.17875
-293.5145
-568.683
-319.8015
-374.5528
-374.1025
64.4175
70.10345
-70.99022
57.6485
-53.986
968.0395
1863.52
891.4935
1135.135
-115.65395
91.7301
780.238
182.69035
-838.4185
580.8065
168.2767
190.596
129.62965
-265.9765
-521.3195
437.76135
772.82495
1279.409
550.1995
437.6575
-246.86225
942.1305
783.513
321.444
131.687
1305.035
1885.5
580.55765
-673.438
52.56455
-469.3235
273.0175
834.2065
275.2771
719.41
414.96025
-163.73685
1590.335
2034.495
-237.715
882.602
91.788
1251.395
177.6985
386.9665
532.934
577.9
-1004.092
365.13655
386.6534
490.117
485.8606
1296.58
954.3765
336.3415
-982.007
-1482.69
-1172.88
-817.115
-226.9442
390.7925
23.621
-174.8815
857.931
860.476
211.495
-784.8515
-1380.37
-708.748
-144.9005
407.26
-149.2964
157.369
400.765
285.9725
230.8813
413.7495
1164.735
1113.19
919.7605
298.4575
-697.766
-893.057
-235.4025
345.4575
1038.734
768.894
622.42045
-112.7395
528.9895
-78.7656
88.4665
-220.286
-1377.047
370.96395
75.6945
271.886
-1005.546
-158.0915
-575.805
551.3935
566.5985
508.8245
-259.435
-572.6905
73.05385
1196.57
335.0755
549.5131
-311.47315
-214.47141
-25.7165
-133.51255
-140.831
-1054.271
-500.88
-721.503
-373.349
-310.9655
125.631
-1045.775
68.3
359.383
-341.637
248.3568
-1040.2105
-70.0023
-570.63
-722.0875
-523.73125
-274.4695
-331.2855
1185.18
-222.523
222.5105
407.6213
1321.333
-5.55075
964.023
733.0525
-192.9275
442.6781
372.553445
-363.192
399.812
-395.5495
178.656835
-421.462315
-200.6161
-100.285
358.025
198.445
-288.79785
703.1555
704.465
1140.7215
906.9425
-739.026
-97.06105
777.622
-302.765
-323.9395
296.2935
666.7395
724.8306
-280.02005
-33.134
441.6205
1038.953
975.0985
134.7365
-212.91415
809.8935
276.521
-764.435
-1235.382
-780.9865
-637.291
6.3208
-32.097
583.312
109.7355
-57.31845
-160.29215
-1555.72
-370.6115
-206.67405
-1021.981
102.02465
234.9061
-93.524
-472.05
357.826
142.1205
57.2149
-471.0345
-164.568
-542.8615
-64.119
-259.8085
16.5395
-380.10855
-730.005
-714.256
-284.736
180.8535
-120.439
615.7285
788.779
939.0235
357.526
-105.568
317.674
316.3335
89.964
-620.6765
-285.297
-179.957335
361.2705
-82.9164
36.045
-78.0345
531.9937
-938.9785
-764.359
486.3825
-430.935
-100.7865
-7.15175
73.936
318.7595
1112.9645
755.1605
-640.163785
142.676
821.183
-250.49078
-392.3385
693.4385
-531.351
-1134.722
-663.6495
-136.99545
-616.8085
-431.7015
-1047.4255
-1552.245
-704.995
-5.378
-486.4755
100.49755
-134.6738
-162.3155
461.8705
972.768
-860.259
-938.8035
-390.7455
440.0815
995.441
94.8575
240.5755
402.71205
1319.005
1408.485
1627.34
-93.2455
42.175
344.1035
361.9285
-156.68025
8.9585
-325.596
-805.593
-492.125
-1033.4205
-530.98
-32.12
431.3405
-432.807
-1530.715
-628.305
499.681
-417.3456
-733.241
-235.636
140.8014
598.766
304.13925
-367.576
-65.6935
-134.5735
990.3395
1414.85
3634.015
1711.995
-316.7375
-165.0825
-159.979
533.0735
720.0805
446.081
448.0625
1038.6865
674.3185
-20.75445
946.0855
1300.0265
2042.1015
1052.261
153.882
1976.125
1553.76
797.592
383.916
-845.398
-1406.011
-548.1395
-549.79815
-887.464
-580.3772
158.2715
189.4392
-1088.785
-495.3915
-72.4196
-1655.08
-841.6265
1020.2355
1707.7
1085.7005
664.1531
995.296
201.092
-140.791815
-862.945
-2061.675
-534.659
210.859
569.0225
-267.668
-153.718
1186.319
376.6195
-149.144
-68.1655
180.102
860.933
662.7925
-423.49065
-278.133
-40.5305
-125.24915
214.9298
218.9278
466.81685
452.1225
603.1565
398.96675
231.67345
-527.761
-290.9525
-510.282
-179.327
-69.5265
-368.151
-444.143
176.88
164.488
-389.1275
-1153.0655
289.2445
309.369
745.2605
231.4171
-209.691
-476.080715
864.232
-9.371
743.2395
930.1285
221.2585
-579.4505
-525.617
-957.2815
-886.6745
-208.37205
-46.5045
-380.7035
-855.281
477.10975
8.2
139.39035
-191.5485
217.824
-229.9325
-544.869
19.5215
1352.145
1391.46
341.022
-231.5705
161.6443
510.827
94.77865
-420.4855
-1373.586
-687.444
-340.7555
-215.7615
-497.529
-560.325
-731.744
369.816
306.757
275.1223
222.111
390.691
-57.933
-199.752
-543.466
-263.5979
91.09415
65.87
13.3107
434.89105
-270.8555
-347.166
112.87215
85.8208
331.68375
384.342
174.61485
271.431
530.5995
92.794
-63.77645
1632.58
485.343
1075.508
-474.438
503.41
681.567
1118.324
203.88975
36.8995
-511.4075
124.69225
208.43995
-54.91585
-498.6759
290.7868
199.8172
878.236
268.591
843.533
-322.68475
159.0235
-522.394
-488.2075
-482.179
136.90265
762.324
760.4385
-470.8405
755.9301
188.94795
-127.0335
-553.869
-799.442
-379.5895
-776.8585
-278.1945
14.15702
632.423
662.103
150.73815
-670.79535
741.9855
-145.37
279.0055
642.5355
264.475
302.0495
-305.769
-304.5794
-266.4485
-837.677
-568.86
124.86885
-226.0995
-290.047
367.936
348.237
768.92285
221.70105
-14.25
479.201
12.1113
-595.47
32.368
55.82887
275.48745
785.702
590.6695
1143.5905
513.86825
328.4465
573.635
-407.56045
1517.01
35.823
395.32485
-275.9645
-477.4455
-400.3545
439.4185
951.953
585.6745
608.768
287.4286
835.036
751.9166
1278.39
-392.509
-992.4415
-1140.1225
447.409
763.0225
-109.64295
-350.1665
183.389
134.365
155.248
912.996
-321.824
255.257
-522.232
-328.13235
-233.16515
-92.34205
0.45315
-20.993
82.0106
11.70835
-400.0675
-498.631
-1041.9485
-733.196
688.4755
40.1615
-225.6475
-152.0895
228.7309
-208.0995
-498.748
101.7059
356.134
216.9875
39.3545
-93.162
913.6775
286.276
118.6435
-721.329
1159.637
1403.015
167.1145
424.431
-520.0651
224.4584
-38.414
1081.342
-16.3245
-376.7165
132.99415
552.525
-257.257
-248.7895
-339.5515
446.368
1214.375
569.075
805.57
327.0115
-6.8015
75.7319
-282.449
-804.5935
661.9505
286.71755
303.642
-1130.1445
-1600.78
-803.8237
4.1847
-809.2215
-659.918
267.257
-138.2951
-125.255
-58.01525
178.486
-46.364
-545.4505
-1013.78
69.8727
-299.61
-4.865
6.229
159.6185
-29.943
237.6021125
495.74575
-1.015
-91.75975
-763.785
-810.258
-815.407
-817.7145
-390.9775
556.65129
-333.235
522.214
63.0535
231.081
-76.08545
-217.97065
-175.619
-174.64225
11.9325
-242.105265
146.00405
-127.7029
-356.9265
-323.0113
390.118
676.6465
268.785
457.9035
-679.165
68.98545
311.42005
576.6315
78.681
1756.825
548.3025
535.11775
755.6055
-285.8955
-644.207
-775.8835
36.8195
-107.2651
57.5945
70.3847
-677.5485
-1043.1055
86.90285
-1020.526
-510.909
224.42015
1091.0615
1361.7075
363.466
128.3785
-766.179
-95.402
-36.0395
600.513
-280.8435
-409.8365
787.549
280.1935
380.754
718.9625
686.013
347.811
280.4795
640.177165
-246.44135
-341.6925
-195.672
552.6285
-134.0545
601.4945
568.521
230.995
413.9439
273.7025
-285.28815
-639.284
199.6915
-226.8665
500.908
131.7852
-377.51231
486.983
2655.4
1478.22
473.6635
-470.86395
274.627
-172.99575
-717.825
-1143.597
-984.67
-367.8802
-440.4725
-138.871
1444.628
679.39
-456.7782
88.456
-589.9035
-449.237
151.783
188.8925
102.0805
-53.607
763.888
236.6445
793.1995
786.603
496.177
276.4715
77.8833
148.6898
282.112
8.484
311.30595
374.49095
-65.027
167.968
-8.2182
-1314.209
-860.4545
-857.654
-1548.525
-705.695
-399.525
-44.8055
-76.13435
-52.33655
-125.9825
-114.486
-652.9075
392.172
-287.84605
-334.9836
-303.146
-116.88605
-640.4965
180.52085
695.233
1586.84
1301.622
-407.0255
-770.2385
161.2563
-453.564
-252.086
-2.5895
-395.094
195.4806
-360.461
-184.95845
636.607
-839.9805
-356.206
433.5325
-46.463
275.08245
-1790.095
-1697.64
-541.7705
-20.96067
-1184.96
-666.851
-919.2255
195.059
-57.03
-90.171
397.13515
-346.1275
-1251.4915
-3019.815
-449.01805
734.9645
392.658
-295.8245
3.2265
-415.2895
199.5635
233.534
981.1075
50.0571
430.184
466.32933
941.049
-576.475
-868.0555
107.299
0.2185
-1139.825
-971.386
-1065.4905
-1640.645
-1545.91
-1054.9315
-541.333
1158.738
2125.925
119.2935
-607.9905
167.7185
678.476
-431.917
-531.401
-472.57
217.2602
707.628
187.7401
-136.053
-190.6315
30.542
613.608
105.5845
120.2825
-635.0375
-74.034
446.9875
-376.84
-139.3515
-351.556
-136.53155
-1009.694
-1696.91
-846.9705
-551.9355
-272.1691
232.751
963.16
900.819
160.896
518.9629
-365.569
392.71325
-289.6857
381.733
1022.65
108.78915
-13.8695
-125.4055
38.65005
685.806
412.2235
84.5025
-787.0635
-805.1935
-243.5945
235.927
-196.71
-33.48
747.45
355.1285
401.37
414.4015
-278.681
-392.915
385.938
693.264
-157.8955
-339.0795
-479.63995
-927.327
-489.427
-29.6095
669.495
13.5015
33.5435
-721.633
201.848
282.17
53.002395
69.84525
350.5205
514.6665
328.55315
133.514
136.645
135.496
958.8415
1183.2455
1982.03
1391.4015
-177.152
-218.38685
-911.681
-261.342
-134.4835
-21.1839
185.7179
689.06
-49.612
105.1937
-930.572
-375.6525
912.8015
869.1285
766.648
847.584
804.821
156.651
-930.2235
-1027.4585
311.27365
-28.30105
862.978
293.7578
-195.2265
34.12455
-196.9418
-140.79595
416.709
-459.833
88.9005
359.0275
249.1885
-1067.61
-1953.905
-1389.515
-1087.49
-16.26935
-409.6585
14.792
-680.8965
-1416.61
-2260.825
-1735.92
290.316
2243.05
1662.288
-297.32
419.624
462.6995
-3.3509
-1058.466
-830.1255
339.4133
-860.9915
-996.804
-386.5713
-655.4205
-1054.1055
