90.4339
543.024
75.195
386.158
937.9405
1881.205
-284.397
1089.807
3069.355
1761.285
874.2925
-2007.415
-1849.915
-124.1425
-32.6219
-493.612
-297.411
148.7246
-77.832
-874.0265
72.837
-499.659
560.879
-817.3555
-279.43335
-193.56595
-1595.385
-1159.6
-1431.735
-2085.34
-1610.555
-1280.5805
-1115.8485
1082.9775
854.901
474.91675
99.60365
-144.8736
-52.556
-324.359
1129.3495
1500.86
1854.205
1114.274
1320.14
478.5565
838.9805
1382.821
1578.675
446.62
971.2525
242.13
744.583
-592.039
-1150.9395
-2052.255
-510.42725
-749.07
-385.565
-1083.6605
103.2632
-1189.335
-627.3665
-919.2085
-617.1817
1326.905
2128.33
1094.164
-459.92405
312.4735
-1061.87
-674.4785
141.83
1241.25
1100.475
727.9845
-165.3265
-686.246
54.0333
-759.243
1160.272
1554.655
-42.677
1838.72
2162.85
1960.59
917.2765
997.702
522.63
499.5415
220.7095
-92.2165
-32.985
-1083.6845
9.7175
1900.98
2969.56
1042.1745
13.548
284.9695
10.35485
497.968
-1179.454
-397.202
13.115
-632.4422
-892.5955
-287.1175
-9.523
-457.9275
-951.4235
-500.3305
-140.3325
-66.2165
453.209
-235.5885
155.201
-628.5945
-517.52445
220.260405
12.823
760.6955
352.259
218.53275
878.4575
694.3875
494.836
903.811
-32.0085
-551.6585
340.3182965
-113.914
369.3455
-444.741
-394.434
-319.274
0.984
493.3516
-372.281
-145.75119
362.4935
-755.462
-1621.03
-787.52
-1547.16
-574.019
-564.9895
-521.916
-483.3895
-96.2145
-953.6675
-1697.765
-656.364
1450.345
1670.76
994.826
1449.085
1677.3
221.5275
-105.7857
384.4615
202.9756
1288.775
429.5655
-706.90535
-3619.43
-2275.11
137.69495
724.5525
1187.405
-951.157
839.175
942.1855
-668.066
-1651.645
-332.6365
-34.82215
-8.0455
894.452
-475.7535
-159.1465
149.1775
359.713
619.693
38.59176
-76.8945
-710.0555
-361.43225
624.5905
-59.5355
-621.307
175.21795
-237.179
483.768
455.338
-386.05275
251.6135
466.53
51.9565
-151.49715
926.124
631.3435
552.36
-1757.29
-1229.8265
-483.106
-458.801
353.4595
1574.487
2257.585
1759.185
399.8585
-750.5665
-997.85
276.5185
25.35195
-297.597
17.1685
1524.595
851.729
1188.331
926.654
144.352
-300.3385
-392.6127
1842.76
1661.899
-321.99
229.6655
1918.855
258.81815
167.90875
1034.0675
1078.355
611.757
1091.165
666.9405
541.641
140.0585
698.0
261.9045
-1238.3725
-1439.66
-413.036
501.757
-1423.935
-469.3139
-280.6595
-398.755
-1330.735
-104.9775
-235.74755
437.4455
234.7565
-620.7355
-162.71415
474.3365
-326.4008
578.6555
-65.201
-718.663
1609.555
1625.685
802.484
1997.475
697.076
-1281.8955
-2381.76
-3336.5
-929.334
-133.396
1888.775
1345.2695
-26.487
-737.939
471.0345
53.639
319.2641
2469.665
524.4885
-1098.225
-2112.65
-1024.8275
85.4625
-267.0995
-772.856
1433.9045
2440.11
816.79525
779.7385
1234.8285
242.4125
420.6885
-780.267
-214.149
-182.4495
1728.855
660.306
824.2855
3162.995
1178.178
-97.822
697.3125
243.61605
22.6015
-102.1585
-1257.2895
-1173.9935
-778.001
495.7455
-1438.845
-647.51
-1073.823
144.693
-1406.31
-398.40215
-894.4055
86.6475
-85.355
2307.39
3948.47
3818.3
1957.57
554.8
291.504
260.524
-550.4285
-622.2859
519.5555
493.6935
564.1565
163.724
957.362
632.702
92.3645
-108.407
281.37545
-75.6114
-202.6805
502.045655
423.362
1194.1875
-248.568
239.11925
544.3744
133.5986
414.411
385.9653
-23.0619
-474.888
-144.45375
939.5765
229.05225
413.59295
182.6315
183.2018
1405.36
2576.07
2166.135
-24.435
-1271.002
-27.89845
143.27305
489.9905
-332.967
1049.162
730.7575
-38.6528
200.8936
578.56
-550.6985
-1865.0
-269.17
743.942
613.8275
-804.2885
-1059.1625
423.6055
-1283.355
-1538.2
-226.8795
-737.4195
-948.0105
-1465.27
-1132.9105
276.781
-1134.1285
-1450.05
-1520.005
202.422
620.449
17.9425
-913.71015
-337.452
495.8305
73.159
1128.874
1190.733
258.0165
-1328.66
-478.2385
-65.10513
143.72265
176.774735
-4.6704
-276.686
-1281.23
-1799.7055
-519.53495
410.18015
-1635.7
-1236.8
481.103
-10.493
381.798
1155.1095
884.7295
104.9455
-989.823
-832.1745
-1635.1915
-305.733
156.6805
260.9532
264.2465
411.5485
2044.905
697.786
-697.545
680.93875
524.432
-508.674
278.3695
161.1905
-275.45
1378.048
1203.632
274.9115
-317.178
-370.2452
-529.7015
113.65185
289.148
47.0945
545.9676
-519.8905
-366.16
640.0855
-351.3086
-681.4675
-586.566
-469.639
-222.40595
-736.859
218.5315
440.07125
-127.4445
-216.341
544.5825
2609.21
1344.986
70.5945
501.8045
128.845
-171.9972
-387.311
-885.049
-947.087
-623.68
-869.085
-633.65485
-556.93395
-393.6455
-155.94165
-392.1165
-1449.045
746.345
1260.315
700.4105
-529.0505
-1298.7245
-1353.2835
194.7275
-191.7035
3273.62
437.3255
-1008.357
-1289.005
-584.895065
-340.81035
-909.4695
-462.871
530.4295
28.6832
535.643
488.7065
-176.747
420.9655
91.9695
-273.252
113.0325
-360.954
-952.6565
-1099.6515
-3406.455
-2617.54
-42.5855
-97.0775
279.6268
-29.044
-53.5808
159.5194
-439.4538
-149.1859
-1599.77
-173.7405
-278.4112
578.641
177.67
519.6119
-237.64585
-139.1705
137.75785
910.198
-149.85015
-476.6905
-10.4275
545.403
399.9288
81.726815
-619.9285
491.05
-135.4505
-647.044
-1200.03
-955.1135
-1220.9365
-536.5815
614.096
70.392905
118.106
561.9795
483.1149
178.7472
119.389
326.195
-152.68465
-115.24575
975.142
1275.315
238.72635
315.6215
-173.82165
298.7805
995.522
872.7095
373.61446
118.269
961.2945
-501.5838
-478.9085
-57.19
707.778
579.024
-185.678
-72.2045
131.056
168.938
-366.84
689.768
606.27
1237.8
806.387
-705.48836
-1497.31
-2004.485
-273.44675
-591.8455
-710.3895
-601.637
-1076.6215
415.2484
-615.798
189.41245
37.1415
1148.235
299.4725
30.4785
385.29925
1440.885
528.109
624.513
505.713
307.6925
776.494
-303.367
-1640.195
-1158.255
932.84425
1289.095
1236.63
239.15995
999.269
563.3885
369.1705
1133.8865
599.3465
-107.409
484.51035
-100.48775
263.1072
-143.9671
543.0985
553.1955
84.64815
-265.911
1703.77
3235.135
1014.4765
1090.603
1349.325
-335.7995
-734.1555
-497.8405
153.54245
53.657
59.1903
62.72315
-241.968
-316.982
31.01
77.3405
-179.88205
-434.8215
-501.97445
281.69
653.9195
1090.812
807.2865
1138.293
711.7835
669.959
-369.2125
-118.8515
-189.3675
-1553.8
-1498.365
-32.3975
914.556
608.855
385.054
1774.15
1249.7415
1520.04
1416.925
-248.6825
111.89965
-192.3155
-308.09735
427.3726
317.3555
699.044
-243.646
47.2215
355.588
528.6505
-226.841
340.5725
-60.3939
-1131.473
-351.702
-1564.05
-1470.515
941.544
1511.22
538.8948
722.847
849.8495
2575.6
1626.735
1892.445
4436.34
3303.24
1469.325
371.2475
-369.61175
-1285.655
-634.507
-648.1275
26.758965
-63.7575
-607.1504
-856.80485
-492.791
-1338.3305
415.361
-78.2905
-1339.258
-1040.2935
-2418.045
-2241.827
-482.9365
573.5885
-1097.736
-798.448
-1145.838
-516.8305
-506.3295
-173.6526
-251.4695
-37.4414
128.127
1068.917
-1170.673
-1288.0115
-1562.42
-1823.29
-848.406
544.85
1450.01
-389.1925
-1243.2745
-439.3706
54.2474
-100.5835
-1403.105
-1875.94
-2130.26
-2126.51
-152.3646
-1397.34
-803.1025
381.38125
234.2785
-43.0835
176.8253
527.299
-0.091
-403.7145
-1122.569
221.6676
66.932
-840.322
-430.6105
18.795
961.715
-345.8335
-1106.5215
-929.9304
251.1015
353.9005
-872.4715
-1651.435
-1163.448
183.93535
-113.858
-693.322
-1132.2845
-468.6139
654.518
279.083
-585.5155
-1137.7735
-1761.555
-415.306
-432.4925
1338.51
411.214
-212.613145
820.7915
551.562
-10.6155
-165.8496
-1368.08
-1070.6655
398.4735
1166.895
809.6335
1106.0155
-901.25
60.0045
342.1655
-521.80085
-1079.98
325.7745
-90.11155
-482.57
130.2285
468.3255
-500.5395
-997.767
-543.5
-567.9825
-699.608
-457.731
505.3765
-1014.858
-1386.64
-841.1135
-546.7679
91.114
-962.47865
-1074.6555
1098.2345
948.854
563.243
-484.299
-446.444
214.3775
-104.942
54.0165
-12.16
-795.288
-1267.0665
380.81
487.58355
243.92055
84.5395
-440.112
150.37775
-261.56
235.72455
721.62
-780.882
-895.8285
-477.1295
278.8765
611.2755
-120.20455
915.153
1790.685
1468.945
1201.2295
-399.1315
-24.918
-121.595
-352.063
-38.01015
-902.9665
-818.1285
573.6805
744.1815
892.8285
757.6055
1810.145
1948.99
-1148.4875
602.9796
1877.405
-458.626
-1504.26
-1135.118
-1584.1135
-1565.62
-2188.49
-1285.05
5.6575
1277.92
756.5685
1360.305
-409.00017
-1126.15
-685.0185
-215.5792
-366.9395
-486.0135
-96.70565
627.0935
288.27
-55.75275
-11.1155
-611.142
-106.1488
-485.3165
367.525
-1327.699
-1391.7085
-1120.785
5.577
229.7095
-509.2055
-133.1945
-699.183
-940.042
-1006.8875
-1456.735
-826.688
-448.9555
875.1045
783.459
-35.83996
-247.4065
646.063
121.9625
162.337
307.2375
-332.9165
-564.249
230.337
719.0835
2.29
-1251.115
-2013.355
-1075.1985
-2203.9
-2246.235
-396.5225
1313.145
191.4019
1570.68
35.3875
-1470.44
-3192.315
48.32
217.404
653.2385
-147.543
1151.3315
438.9625
-737.74
-1058.152
-680.28
-824.9925
-51.758
-272.126
164.3205
593.696
-598.6275
-120.5265
587.456
-140.0126
1203.785
1752.72
-734.3155
264.993
830.8125
-218.89995
22.802
-202.8415
-938.3285
188.1035
899.629
1389.634
-9.505
-792.4365
-436.6281
-463.40025
-767.9795
-1527.715
-716.065
-27.8475
598.759
309.051
218.929
1103.58
1585.685
116.5445
471.094
185.855
588.9421
512.5545
636.6555
256.689
562.9745
1382.843
1175.449
2679.54
1794.235
-422.352
-123.48
356.5495
611.895
-746.754
63.7065
962.011
1388.9015
806.3895
-1275.861
306.1585
-539.761
-68.96215
-1177.1515
-709.7168
928.397
890.9795
551.3945
-605.723
177.722
461.3535
1129.01
495.1875
172.877
-376.7855
-989.4645
287.5225
-114.401
-499.807
-63.837
115.444
-392.524
-319.1675
-98.262
-867.758
-478.214
-965.2205
-1347.7645
194.1176
-290.179
-433.398
564.9015
1303.16
124.262
-967.72
-1270.155
1073.41
1290.644
2128.635
1607.675
984.778
242.9785
-182.94445
338.8455
725.751
477.3925
8.935
1073.4055
1171.714
271.981
-975.217
-187.433
152.9904
426.6483
597.591
-33.3815
196.2695
-114.292
1038.5555
94.1375
497.73909
892.5065
560.6275
-63.4035
-1284.733
1068.83
515.034
-399.275
-694.5355
-1382.7
-466.673
-617.154
203.9385
843.859
161.351
-124.0845
1175.099
81.78565
-368.743
-354.1305
-673.1265
-532.968
-72.2735
-924.511
-2154.575
-708.913
312.19685
-153.6155
-2041.865
-495.4225
1074.386955
1334.763
738.39035
-270.2755
934.0245
413.6027
-651.092
-1270.515
-1522.516
-2176.925
-266.659
-970.1235
687.1575
548.887
1491.595
716.9915
28.798
-370.008
-1494.875
-1356.92
400.607
-91.50585
10.4575
-2.3315
-105.73875
470.4345
-101.21845
204.35625
-1009.395
-826.238
559.37
610.4075
33.4775
-101.95055
431.274
-980.9455
-953.0955
-1585.655
-257.43
467.3265
432.8395
464.4175
432.544
-1432.645
-1010.4825
-975.114
-739.599
-182.5775
-762.003
-2116.835
-1830.54
-1838.03
351.225
-307.257
-443.6515
773.397
198.2548
-199.5045
254.298
-1574.18
-766.0545
-100.2585
-489.4665
-22.3735
545.164
-238.429
450.0385
699.171
71.8752
256.9725
574.826
1070.2025
-609.825
65.2015
-341.64445
-955.2445
-694.323
-856.5965
-246.226
-242.65
-1268.966
-494.009
54.9285
-237.0945
14.249772
-463.5935
-1576.515
-1634.11
-446.3233
-1327.95
-1383.36
-1333.65
-309.3999
751.0025
147.4425
-44.9565
-696.2975
677.3205
-582.142
125.28885
-337.216
-555.0085
642.998
-22.8134
878.3685
1292.445
318.1019
1189.3585
-72.766
677.251
-642.82
110.854
664.6405
1795.055
1088.825
548.552
-835.1305
-1488.745
-377.1385
-469.433
-394.4235
664.6194
93.68545
327.1076
740.89
-61.9905
490.7455
786.1485
54.89
594.7575
-200.9345
-176.519
531.903
-139.214
-659.274
-524.156
-432.8435
558.9555
493.70775
382.0627
-1031.852
-859.337
-1082.212
-1294.595
-1305.6
-764.911
-1136.975
356.564
288.882
547.883
963.2955
1270.067
444.675
-773.237
-931.402
7.64425
-220.2225
1001.531
1831.27
77.18205
379.083
150.05165
163.6905
819.232
-417.09605
-279.1655
237.5485
1456.744
1444.605
1333.8315
760.7725
-41.411135
35.5125
745.89
1311.1265
379.7915
1748.545
1600.49
1099.625
256.0445
-411.5025
-1114.17
-167.06185
-345.08698
-973.9065
240.315
-229.066
-471.373
311.381
1764.65
-510.993
-1835.185
-1520.66
-1026.703
-358.949
-728.955
-1199.4265
-1362.67
-271.7185
-681.5635
-391.486
-1026.122
-189.244
-487.36
-165.05095
-720.4525
-654.7225
-638.167
19.9195
-595.853
-216.7545
789.782
423.819
-71.128
-504.242
-579.537
-167.757
-770.6915
-2872.495
-2688.035
-2419.285
-1230.7785
336.3625
1113.0
244.31
-1269.81
-617.358
-553.3995
995.2725
2674.23
13.7239
632.009
740.448
689.7345
7.3215
-9.3315
-720.386
-20.87
-107.1761
537.2795
-216.1885
-279.2985
925.843
127.633
775.177
211.28595
175.4246
-717.556
-514.5945
147.5791
-1359.895
-65.174
37.371
-1277.2815
525.809
-131.053
1211.66
-1231.14
-684.386
-236.906
-225.559
-505.5825
-682.9945
-869.817
40.35065
1559.075
1539.886
-452.0485
-118.52155
513.667
2391.425
-463.46
-463.8325
-291.9515
-62.31445
416.0595
50.343
-526.3965
-87.576
214.8485
1120.6305
435.122
151.53235
-235.8564
237.802845
-262.1145
-946.462
-722.14
254.287
511.5175
623.5395
534.3535
947.085
420.6415
120.132
-894.1545
890.874078
452.842
466.4501
-100.36455
-742.4885
1057.645
417.1255
495.021
137.6565
-1080.6435
-2025.26
-218.8588
-475.3215
-855.0575
-25.06335
-730.1705
-1719.65
-863.3665
259.7965
-875.1115
-434.4025
-226.7785
-463.424
239.71645
-3.905
366.4302
319.361
-104.004
-227.4725
368.70955
717.2885
136.4031
-75.31025
266.06225
225.5885
-833.562
-632.3825
-914.539
-1401.39
-736.90785
-505.8515
-646.801
-151.0075
307.8905
-283.1635
-382.5255
398.3445
386.608
-1006.4385
-347.7475
23.827
552.504
432.348
-439.8372
-1010.6945
-1344.7165
-214.8235
-1684.72
-1432.52
785.738
-594.411
834.5585
-618.3215
-636.92
1066.3635
1417.22
2057.35
206.321
-422.3425
-841.4805
-557.254
-277.892
212.0905
99.03995
148.25575
-167.415625
-834.9585
128.1738
-32.0785
47.98145
-51.48515
-673.72
-103.3735
-556.5875
-378.5035
-1657.185
-627.26
-527.516
615.1435
-710.824
987.06
1289.6995
478.2925
-58.5115
535.6845
1521.155
-1122.896
-355.939
-297.9733
-702.5385
-731.3865
-60.52865
206.459
-204.5475
78.02975
870.7435
1287.385
-22.357
-38.53685
827.5106
33.285
1202.455
958.85
-376.263
504.273
14.6155
-651.0786
-485.6295
-726.1145
-833.651
-750.191
-347.5105
800.4955
1266.4355
743.7105
500.195
983.433
967.4925
1214.122
120.1715
-93.48745
208.366
-274.298
-620.035
-665.1715
-589.2255
-1173.175
-490.2175
-1440.4575
-609.1045
-40.2694
55.444
-41.957
205.0256205
-116.85415
-108.82215
410.5585
-445.50235
-432.40285
662.003
488.6275
777.085
-220.3455
-145.785
-179.6563
-117.965
-508.0275
-144.7285
140.7705
776.757
280.474
-288.9502
-201.03855
839.8355
84.07545
977.648
482.967
1079.69
942.8925
-333.9905
-349.6457
592.4825
159.77375
682.2585
117.447
-853.7655
217.41405
-507.168
-305.4635
-350.4515
-793.402
-145.7395
1990.19
-78.4028
-969.6315
-1021.1685
-819.7215
-1519.7525
-269.06186
-580.5035
-1264.155
-926.0925
-235.1215
-877.761
-102.9675
725.338
354.9546
629.919
668.602
-620.295
859.5155
973.414
790.0285
715.881
783.1305
812.1795
1814.4625
-295.03
-99.6745
292.312
-473.477
-728.9675
209.048
1330.53
-60.0375
-850.6385
-328.6505
932.2925
890.4125
165.7215
1093.204
672.7725
346.5935
1423.825
-423.047
-249.7585
314.314
359.749
-598.553
403.3995
1283.785
903.6975
-471.8295
-1167.625
-409.487
99.816
-362.797
-822.5365
525.1326
-239.9219
-586.501
174.656
542.927
-565.069
-545.4875
-1580.335
-1649.53
-209.28785
631.2105
976.9125
859.2675
233.11
-689.4735
-219.2537
268.5365
583.946
1187.504
1417.66
1773.585
986.2305
1432.84
545.0396
426.2835
391.18205
-1155.7025
-904.2845
-2407.0
-2234.25
-1681.62
-897.2535
-400.45255
61.3585
251.08631
634.254
1629.905
-6.9925
-90.82811
-154.706
1578.875
-173.368
227.1599
-1199.152
-1231.332
67.601
411.8265
51.3795
153.648
397.3245
-799.4943
-971.5994
386.85
-246.168
-331.42975
-196.94655
187.9028
979.2765
1452.235
554.4434
729.6525
579.6385
661.4585
416.6565
1018.1225
194.4105
345.238
-568.0275
-640.739
107.71085
-148.5405
489.6575
372.971
1419.863
621.7255
333.389795
1171.4255
744.1925
829.568
853.965
-340.2483
1014.435
344.3895
-490.64
2.5525
83.797
367.0105
777.3895
-234.881
856.4735
961.566
-55.384
-801.969
-96.5941
592.8075
34.583125
39.3892
-1237.6
-194.53955
-494.087
777.456
-76.78335
-1049.341
8.309
-111.2064
-194.77205
-198.20995
-438.439
-70.6895
153.5187
30.122
-1150.5105
-971.1605
-206.9979
282.107
-512.221
-95.21955
1108.789
2148.83
1709.57
1468.005
919.7585
-955.4335
-1810.41
-1403.485
-1049.115
607.593
1550.8
1761.175
698.596
46.094
-226.16655
-239.1185
526.7031
633.8425
512.4595
-357.5765
189.877
1186.8475
-6.2705
699.98955
395.199
193.512
-222.552
-1058.346
-61.096
360.71251
1011.648
-611.10215
-1094.7345
-52.97125
252.3235
-946.7305
298.3745
832.721
-285.722
-1559.5
-799.2075
-506.7382
1161.855
-123.95435
529.0305
-429.6739
-587.1225
-387.688665
529.1516
212.132
-703.60695
-530.2815
-245.309
639.973
1328.252
-4.5878135
295.6748
1.7665
2015.475
2163.945
-522.47645
-1632.125
-274.0535
195.488
-674.386
-6.6375
346.8195
187.36392
-745.2655
169.877
8.615
310.7845
287.05735
1086.895
924.1125
888.9745
-100.2445
-866.951
-1309.99
-1942.89
-1742.4935
-709.6645
-115.7
-862.964
357.909
478.4525
-29.571
-80.146
938.5735
1014.67
395.07
2028.197
1727.335
1461.71
453.463
553.588
-716.6895
795.2077
-208.2905
-1172.572
41.794
-393.29
719.3165
219.4975
-259.766
1157.11
1917.26
138.342
-2869.895
-1439.585
253.0445
-419.1657
-114.499
-697.015
-524.3475
-683.773
-457.236
-117.458
-450.744
137.2875
756.212
581.5205
882.1945
-231.4745
-734.1025
330.7505
-79.868
-730.2165
-1003.2155
-713.813
84.9877
1096.5315
848.5195
919.1665
601.182
402.7585
389.7895
2261.67
2160.91
2190.095
-262.1652
-1235.0295
-2476.115
-2504.585
-1378.767
-55.712
32.512
638.787
1217.93
1304.505
1889.475
710.6855
1255.26
247.6014
24.124
927.6285
1859.9
1214.292
716.7175
-931.993
-250.3785
1089.6985
797.054
-328.06935
-485.395
-923.257
-97.2559
-1077.85
-1272.335
-1129.17
-227.74295
-2234.165
-2824.715
-2058.8
-1815.177
-1087.7695
-483.4035
179.44005
394.359
-970.0775
-468.857
-2133.645
-909.739
1697.76
1479.165
991.781
180.193
614.812
806.4885
20.341
567.1095
1316.9895
809.469
-424.318
-66.4795
117.3285
1721.215
505.7305
-471.5142
-303.746405
35.467
-1295.9205
-826.068
529.3965
369.067
430.2365
112.932
-315.6365
-678.0255
-757.5095
383.5575
-560.1705
-48.2365
82.1605
143.7795
-626.3305
-334.5966
-4.4285
214.025
71.6525
-414.679
177.301
649.625
-188.686
-435.66005
-1411.696
-1545.485
-2510.095
-2261.665
-895.633
-413.338
631.9345
2342.235
1086.6265
2646.31
199.28208
-97.5355
1200.66
1604.59
-499.9725
89.0865
-438.5255
-261.4085
-472.8035
220.4625
304.084
702.2955
578.038
-532.879
651.1885
417.667
268.5525
657.3145
-232.71245
806.1305
732.133
1421.6275
2443.61
1025.572
409.7645
564.2935
556.19
-219.131
-1046.011
-1088.634
17.7855
531.572
-371.6665
-402.7835
-1332.79
-1033.6515
-525.667
542.6095
2011.545
991.61
659.593
445.864
-310.628
-788.71
-869.767
-1352.86
-2216.75
-2536.83
-1019.137
1203.095
741.3945
448.617
-95.984
-302.244
234.161
-464.897
158.1834
259.2334
801.771
-377.8752
161.5012
1126.6565
450.3665
-76.4555
-1410.86
-2476.805
-196.5555
462.48515
-337.6122
-575.995
88.2955
998.667
570.777
-643.0215
-151.8535
528.17385
-221.408
52.8975
83.7465
859.4555
-1.3245
567.566
424.65175
-778.9755
-698.872
-1307.145
-249.27435
848.6205
-2.21005
-210.8557
-76.66521
707.0525
436.39075
-1098.703
-1383.115
-635.7365
-2281.08
-1263.595
-1147.9885
-1443.0645
-416.368
215.8705
-121.5335
110.3265
561.2615
-426.7185
-1034.801
-290.0115
-513.1635
-78.49265
43.623
485.5645
134.574
278.7905
658.643
2986.37
1645.125
577.4855
-1186.589
-28.853
290.8015
-73.5039
161.0985
702.5555
-539.841
-100.05185
-347.32525
252.5055
-519.49515
-183.8737
657.426
687.0815
849.148
125.0622
1120.924
-223.4173
1440.035
270.976
504.9675
-1093.5375
502.255
1088.103
-816.0405
-939.754
-487.8955
-143.269155
1083.0395
143.4482
-905.2435
-904.6005
-678.5945
733.3305
240.403
-305.496
1022.192
547.6795
1407.2385
758.506
-118.60615
50.81375
-1201.4985
-1581.285
-823.528
-388.5575
99.361
-270.93315
-15.6105
-367.405
-423.3254
-335.1786
-135.7544
2309.315
1662.105
1502.205
1000.3845
896.5409
1754.24
25.3875
-1360.4485
-1096.935
-710.0365
130.69995
-56.113
184.74915
-18.452
69.78695
-201.8915
-314.885
-58.632
-761.3175
-307.8465
-403.3165
-977.148
76.5315
-709.684
-720.2875
-977.3045
-748.8305
-232.79075
-61.4495
-243.7245
473.919215
-317.234
62.7398
-387.3075
-676.107
320.12415
1039.8375
1749.615
1342.5705
785.3655
138.88315
468.9965
-93.4665
999.818
-370.3009
-332.0825
566.725
274.6316
214.78815
120.056
241.87
705.7255
1101.546
926.982
789.169
1094.534
83.1765
-24.81
-347.0188
-1321.3
359.1056
894.668
921.8205
-30.9085
450.788
1116.9525
545.375
1086.638
216.8714
555.065
589.826
790.473
389.5005
259.28
152.553
211.6585
625.0555
1963.025
1097.2435
2427.87
1340.6185
688.3145
79.69
190.93854
415.336
562.9314
-61.259
325.775
-254.8779
-532.7845
1222.135
-177.5775
-1177.0215
-1408.7775
-3.6465
815.0395
-550.665
404.56313
-162.0175
904.794
1391.0035
152.83105
-712.8065
-959.704
-446.245
-1004.6765
-734.535
863.3685
548.673
305.6808628
-24.98095
-52.5862
307.88
-808.9475
-958.772
-427.4985
270.82
882.5295
2754.355
-808.808
-722.519
-793.1065
237.22735
727.871
995.341
555.1865
391.89715
53.0511
752.664
-268.3165
893.949
210.7805
520.86
1075.764
1531.2465
206.82935
200.0253
39.04515
421.8665
1204.6255
1439.33
904.741
197.8455
-1.26055
-373.8434
-372.158
596.375
656.342
922.363
650.5505
653.935
-1021.3095
-353.2055
-381.2305
-1168.046
-307.1195
472.326
-303.62935
-78.797
-989.2445
180.2155
144.5314
-302.7955
-185.15748
350.7175
168.8935
659.221
903.8695
119.2625
-243.5795
-229.9038
918.81
930.7235
210.5255
-2701.725
-3349.42
-246.2635
773.638
859.813
633.8235
401.0675
-58.892
220.521
1511.084
324.081
-90.5284
183.4695
185.513
108.195
-625.24
-792.8385
-1595.055
-378.971
1997.08
155.30505
-364.49025
575.5905
1218.3735
958.2605
432.433
1055.1785
239.7305
-22.0625
136.492
-356.194
-640.486
-1600.445
-566.8165
794.864
-162.2608
94.7195
-123.885
-291.675
-158.1615
-21.1925
156.970865
512.8975
1122.8345
2252.455
2497.59
557.9995
-14.6055
531.76295
393.06
1772.92
1402.235
1163.04
676.574
1873.01
1269.72
987.0663
-283.541
-723.977
-1362.9505
-52.9049
6.1295
297.514
335.974
450.238
-393.1445
-864.0025
649.299
134.1984
104.77
193.7557
244.558
219.96775
1127.372
434.23955
701.197
-76.8288
-1126.333
-1575.24
214.2255
-692.7145
-2142.32
-1710.675
-1336.937
-290.889
-636.562
-384.2365
-417.625
-995.5925
396.485
929.78
755.159
-65.363
62.335
367.175
190.466
-632.68255
-326.7062
1342.26
701.433
561.459
-1493.916
-747.9625
-345.9165
-389.2285
-82.5645
470.567
459.419
683.659
542.0011
-193.95485
-529.7555
-437.8065
-769.973
-808.3975
1266.5415
2105.16
386.48595
367.35
-269.17855
-1151.584
285.52375
-130.111
129.84675
591.555
628.527
749.153
-548.5085
-429.131
-340.803
-310.216
-40.263
-498.4325
-32.41705
-107.82495
-64.491
-225.577
773.312
767.6735
506.1125
472.3895
467.762
235.8205
-165.73547
409.6065
51.73125
569.118
-39.004
491.376
180.05065
897.3565
682.404
942.8845
-1427.738
-2885.93
-1671.685
-435.828
627.8595
-212.9505
16.94075
1309.0985
2046.065
420.0899
56.0975
-66.933
-126.28945
-40.405
-611.026
-224.22755
-1178.005
-691.9095
-752.177
143.787
785.085
408.6755
68.042
-377.85135
-821.5995
-1304.8
-655.1385
-412.022
-307.8525
643.684
1942.515
161.652
2215.77
826.292
1376.1
974.741
-264.96955
-124.2635
-537.654
426.119
1275.265
357.109
-612.481
-1071.522
-698.735
370.6205
217.3175
-970.031
