-100.5479471
-14.260653
-178.7215235
-18.714952
168.37922692
-18.694815
61.423752
113.680526
44.5152888
31.0222038
72.10807517
60.10535012
-19.74046
-15.5561451
272.44913684
-196.081261
209.057157
-36.9013232
-23.6363869
56.0608526
-82.425971
75.2531051
-68.2422555
-69.7942962
180.069007
39.382925
122.8261301
18.61458
-126.41705399
159.10042141
-130.525607
1.729003
-130.2560869
62.79845564
17.8915113
-8.9510838
-101.720224
-76.158304
-15.346179
41.396972
28.6331649
25.188976
20.7004359
6.4485436
-8.66167144
36.4786269
165.9490379
-37.9891323
-136.247968
-8.0734847
36.3646814
-27.4603957
-8.0179919
-12.373148
-38.8722916
-23.3858107
99.7335973
74.4745347
-41.614187
-59.7696674
-74.944062
-17.9984942
8.5008328
-72.1560851
17.7309598
-147.5212266
49.4901288
-30.3703684
-47.785515
46.2615139
27.118584
4.6830011
-18.3019387
-123.7342
28.537278
51.0047991
60.9251698
61.396607
-35.444075
48.274852
-63.022947
-109.2788339
-24.2861851
-30.162419
1.01062561
124.982916
-45.910384
-40.01721044
-12.5232973
148.500504938
116.472921
22.795287
47.6799847
11.9793329
-49.563348
-0.1802922
-175.2777226
-11.2845245
70.751708
73.4466441
-143.290041
35.3284451
70.6389536
-24.015249
89.323165
24.9602321
-140.884344
98.7401301
20.4169177
-9.8618659
80.233288
-19.9074358
154.857571
234.7419615
-7.9215915
-74.862089
95.7672306
44.78765681
101.523143
21.807883
-49.67353413
114.3458723
-38.6152357
-17.07994711
-141.8035305
102.408065
-32.549178
36.056257264
-42.9697053
3.12366476
38.462044
-106.5130311
-23.434953
-17.647752
-42.0013327
174.1519726
154.1333482
-43.239456
23.675989
-70.4295242
4.6009079
53.56981057
34.70851609
4.2408838
138.5975382
-146.351064
39.8980086
-10.4320122
60.7713837
-33.854558
-48.240898
8.909518
-69.68870053
-64.281969
64.5960888
118.617309
-12.843266
7.682939
35.10326
-120.20857
147.8945916
60.3925563
-76.3304618
-81.233672
-10.789356
84.969335
147.421632
155.1980961
113.7933788
9.7671811
172.75437445
69.81048931
38.955655
46.080677
-81.2571318
59.3564441
71.8718045
16.7820536
-81.27978544
20.7948478
-122.1426749
8.30599
-2.2282024
70.085086
-144.005721
7.0957366
24.6090372
21.524467
-82.6074154
-96.936959
65.980859
-74.0882365
21.9133808
-2.1853624
11.6399469
-194.121176
-40.2775004
-0.4055265
73.5221781
-187.001826
-83.6959465
-101.526418
23.9150094
-119.500639
31.4384777
77.557452
-40.92154
-57.566174
23.43734
-55.6074357
-77.5171191
48.2367466
14.4977385
94.9208331
50.742007
-39.068196
58.1471519
-59.689658
-112.216734
-73.75425
57.7691646
-77.025432
41.5743822
-20.5014321
-54.462194
39.801058
111.5619446
47.838917
-112.2370847
-66.144853
-26.762377
-32.053707
145.511746
70.813551
77.5032063
27.8984986
254.031468
-118.0040272
-103.362343
-26.52951558
29.395409
-0.812052
-180.374657
-157.34153
10.2211007
61.33738
252.79062139
-51.69886042
59.89704224
23.7374767
