-1990.41
1160.36
-523.331
676.17
558.658
1489.1
-938.061
343.044
386.986
3054.06
-1237.54
-547.069
947.039
456.694
404.782
255.514
426.581
-150.053
22.3745
-394.588
2833.52
-1983.82
4994.51
2403.37
110.907
-2753.33
1749.46
32.9581
763.004
2515.57
1341.54
913.535
-227.947
1536.04
2100.3
1344.98
4359.77
-862.218
3973.09
24.0881
-1781.38
922.224
620.625
-552.045
908.357
975.847
993.298
273.788
1460.24
3531.8
-843.301
-57.6319
3114.43
2080.57
-965.561
-220.226
3916.78
4230.86
736.293
2428.85
4510.28
-130.718
-3863.43
1046.27
1431.07
-1054.13
-437.522
-603.49
3679.28
3493.33
6369.1
1211.51
7735.6
16098.6
14558.3
15187.5
7851.96
-320.383
-465.301
1007.69
813.9
-508.767
6747.04
7246.89
7147.06
1990.14
1658.15
-1455.05
422.669
-1314.52
109.404
-1669.01
1476.01
3089.73
1024.67
4510.18
9907.13
19805.5
24535.2
9228.73
2776.46
2814.17
784.38
1388.62
666.859
2394.25
1073.35
0.163082
-437.074
-2935.06
-3477.13
1603.92
961.943
1751.11
2697.24
7805.79
7988.14
13614.1
5306.37
741.097
-1367.32
305.549
1998.34
-2298.89
-2150.97
-53.2353
3415.42
2770.14
-882.898
2267.34
5252.79
-58.651
-618.222
1095.68
5238.2
3619.97
12157.3
9135.55
5638.67
-298.539
600.959
-1291.55
-361.348
468.967
3410.78
222.129
1325.38
-956.238
62.0478
2227.77
2181.15
949.547
66.0909
3888.41
5186.42
9284.55
6942.69
492.669
6841.48
-1093.54
2840.67
2742.97
-990.251
-1414.38
1357.78
1496.49
-434.21
799.911
-1413.32
-424.279
-485.102
-583.046
518.824
464.515
-1607.8
-1864.84
8403.36
2831.11
1484.41
2435.6
-2248.79
-1103.93
-1119.07
-1277.49
54.4304
1979.6
1636.35
1250.88
2161.87
-1143.83
1102.02
867.367
9323.54
7635.9
4409.42
5657.9
5908.42
-1035.89
327.191
7542.88
8206.89
7637.48
1622.21
3555.06
1574.28
3074.28
2158.93
-57.7178
1368.99
2567.3
288.863
4118.09
1725.04
-331.969
-323.514
6778.49
4562.82
3185.84
32.6312
-23.1377
872.288
-398.278
-1145.87
2851.63
1697.67
-412.906
-572.682
-1512.38
-736.857
1275.83
-2562.43
3842.72
-129.701
1592.34
2526.72
8236.6
484.422
-294.942
4072.35
-1850.01
-1351.36
5148.44
13545.5
8691.14
4416.2
3436.12
65.6542
1622.14
4690
2138.57
-1047.25
-1097.08
359.152
-2432.14
4968.48
-3100.84
-680.855
-1913.51
6082.51
5716.66
4092.99
3313.95
549.83
2179.63
354.883
87.143
1487.96
-98.3687
279.725
-110.039
-104.772
163.265
1143.57
2004.52
244.229
631.805
1257.81
3073.73
4136.92
1409.86
863.334
3417.14
297.014
-1552.84
238.047
1726.92
739.918
1089.25
2433.34
10349.3
765.256
836.706
1393.99
6409.73
467.967
389.052
-890.872
-601.036
-53.0925
-1019.6
-1064.62
969.437
-138.629
2427.78
4830.09
8260.13
4319.04
4760.89
20920.8
17011.8
12739.3
5670.76
11839.7
3725.59
7066.89
686.92
901.847
1322.29
-305.204
4272.82
-881.963
383.947
1711.66
-1750.55
-864.142
1579.24
-297.639
-178.185
1262.86
553.657
1633.64
1187.76
3583.95
-867.073
512.633
1024.34
547.013
1258.92
-1240.31
-1535.86
-584.876
774.087
104.381
-1141.64
-1360.3
2073.7
-1512.71
347.485
8270.67
8239.35
1774.93
-578.875
567.119
804.568
2814.09
2941.12
-148.784
-721.586
515.179
-264.632
189.021
-1123.02
994.589
4895.92
3308.88
3627
-2238.62
-159.874
1560.65
-42.4076
2491.13
-661.286
1932.44
-1086.88
-48.8677
-399.617
-170.444
-209.216
3462.47
4629.17
287.504
605.722
2200.34
-1030.04
-331.796
2532.07
256.86
2733.21
149.778
109.676
-2447.92
2214.74
725.48
-179.858
306.768
2363.68
-505.739
1016.44
115.807
-1012.63
-967.698
2843.8
2957.55
-2143.32
3675.91
1518.16
2058.6
995.991
3714.53
236.24
822.605
1150.63
-398.622
783.276
2733.51
4060.48
7062.24
3937.12
-1208.67
3673.42
-1522.3
-1020.47
293.771
-330.672
1256.68
-1230.63
2691.12
523.784
803.844
-2276.32
-133.019
-505.852
2417.06
2647.33
1092.9
-844.196
662.705
2395.96
939.627
887.644
678.013
56.8189
482.106
123.072
511.571
-1528.31
188.652
-1159.22
408.299
-2059.72
-699.783
-1903.78
1323.89
-2101.49
1308.37
214.722
732.303
-1180.35
1333.14
-1153.37
639.122
1193.4
5815.04
4086.02
10606.9
1125.33
955.689
-112.599
-1125.37
2745.18
929.297
2116.05
-424.102
350.972
270.232
-444.838
12265.2
739.277
-292.023
1476.73
-489.015
924.166
525.562
3027.61
3435.63
1497.26
-1444.22
2240.17
4746.9
19142.4
8985.12
931.1
-752.497
-151.271
518.442
-382.407
-1635.81
5202.57
-287.374
4243.7
4271.47
1804.26
1679.06
-3375.57
2367.12
4014.82
1399.37
4409.16
658.853
443.415
2330.52
1628.72
1337.25
464.926
86.5069
3162.19
2130.22
1016.13
790.501
339.483
996.318
1302.52
-615.85
210.2
3013.4
780.646
2225.7
743.151
-912.189
1715.25
-1455.68
4267.24
2582.95
6770.61
5727.29
5342.75
787.202
1338.16
7319.53
11930.4
2847.18
1164.92
2741.25
-744.242
448.194
-848.331
-4.96938
2276.96
3060.83
2019.44
3023.92
8002.93
10865.7
2172.01
1709.37
2417.67
-246.623
883.015
1522.69
3717.35
2132.79
-192.25
-1645.54
3868.11
1209.96
375.239
1421.15
84.1369
-1424.39
613.894
1143.77
-2091.01
5299.61
1819.34
5482.32
7069.9
-141.184
1945.47
-1487.18
-491.918
496.819
-880.558
5424.47
2257.38
-1122.41
1253.42
8504.58
8304.35
4593.95
6261.9
9428.88
6413.32
-832.074
-180.508
1966.86
4084.37
-388.583
-81.4514
-1134.94
-546.881
317.061
-1312.22
2666.87
-1163.57
-352.049
-1569.89
1840.15
-611.369
512.36
4089.25
12054.3
1745.3
6692.84
727.318
1789.2
11392.4
6356.72
19223.6
3380.11
3781.61
-190.086
-246.617
-1314.5
1692.13
1312.35
-1845.73
-584.181
413.205
2044.05
-1277.51
-818.191
897.35
7389.18
4465.44
6173.21
2237.15
784.824
-1364.56
-4919.4
-289.515
360.571
3584.36
-2615.74
-185.845
970.866
902.183
-198.673
4588.15
3855.8
-741.951
328.414
4833.93
-556.391
1057.85
4700.55
4118.73
181.493
1481.7
252.497
545.438
1857.96
-358.065
3794.01
4993.79
11072.5
-370.711
-1414.6
1011.6
448.85
1042.35
686.63
2098.27
2558.49
-1570.22
1179.22
659.817
2477.49
-384.084
2644.62
2228.27
766.64
-898.021
257.516
1326.57
1793.78
1506.76
4052.79
1051.54
593.196
2115.25
-1868.05
5485.4
443.954
18678.6
19002.7
5188.79
-1148.02
4515.99
2684.19
-1423.54
529.241
2390.14
4269.72
1601.08
356.047
270.382
-478.981
1382.92
7924.87
4767.31
1463.9
737.991
7242.86
1828.48
-365.715
-1105.47
-377.922
2665.03
2189.69
369.986
4151.32
2952.08
-960.06
5839.25
2109.64
4759.54
12897.2
11738.3
15716.9
13003.3
10529.2
7092.35
933.913
-552.966
-937.558
1869.14
3249.42
2560.91
283.403
-844.216
847.019
512.103
-207.515
569.84
-558.677
2170.95
2756.8
685.822
1086
-305.131
693.918
1389.77
-1746.98
-24.8685
-65.8604
-390.713
-483.735
-366.941
405.541
663.919
823.183
-627.102
3006.65
6881.04
573.891
7783.61
4603.8
1276.96
2462.57
3926.49
-1071.09
187.48
-2771.6
250.071
-950.612
2315.57
2095.79
133.438
2952.2
6775.08
375.896
942.383
-982.927
-1892.61
417.632
-2047.12
174.213
623.865
-141.558
2237.95
2962.02
3486.87
9813.31
-2796.82
1624.3
1624.33
663.249
776.886
-117.251
-72.6195
2536.13
2228.06
1255.39
-1558.18
-2722.55
442.706
586.679
1180.27
-397.706
-1055.46
-1373.9
3032.01
1315
1893.8
53.0155
-4190.5
1201.92
-982.584
42.965
-169.321
1559.69
1396.56
7577.89
6571.12
2259.17
7257.82
752.439
851.735
1421.09
9018.61
-3186.91
1712.45
-514.117
6388.35
11184.9
210.612
2192.45
6920.35
10631.6
5271.97
3471.78
63.17
668.704
1807.44
-1611.43
-1442.87
107.81
322.856
-79.0032
280.938
1378.85
8505.26
1767.43
3601.7
-109.086
808.097
1390.01
-925.913
2180.82
2418.18
4360.01
2434.61
688.166
-609.086
-929.586
-2271.33
-53.8811
1708.83
-2801.7
-1400.72
1000.73
5929.81
2681.3
-504.598
-118.492
-640.357
185.676
2548.16
197.405
-145.008
-2165.57
-611.046
-2012.52
3320.52
-120.024
1334.35
3202.83
684.99
2666.63
1623.96
568.243
74.1776
1031.97
2094.82
874.254
-1877.53
-1092.18
-2344.64
-1383.24
-1292.87
-1021.06
-1201.43
2112.11
8231.9
-912.722
-731.694
1352.28
647.328
284.492
11787
4304.52
2378.7
-70.6736
3835.03
1694.31
1592.73
1354.74
379.162
2641.65
1051.76
-159.974
-2969.23
1349.56
468.148
-2110.88
2193.34
1218.59
4024.41
427.006
1348.95
1332.98
1394.5
1263.89
415.71
2908.62
561.088
1236.42
-1620.72
-1990.23
-3100.47
1441.28
1546.98
665.903
-1674.92
1074.62
1475.19
4740.3
4292.77
5302.91
708.327
-148.331
839.51
594.315
1478.45
3112.87
-1954.35
323.378
-1872.78
-89.5883
413.805
-60.5453
2859.77
997.874
3100.46
3783.93
6569.7
1413.92
1247.27
8830.95
920.347
751.982
-730.868
112.736
2312.91
-224.78
1292.5
671.383
258.952
2607.5
1268.04
-437.003
813.022
567.855
4163.65
3741.8
972.01
1000.16
816.853
-2846.87
-519.908
1041.93
1975.83
1205.68
2540.6
847.395
1285.28
905.579
-1648.71
-1946.22
2718.4
-1450.38
2069.57
77.9051
-375.354
-107.768
1907.89
2864.95
-1232.59
-1113.34
-128.576
-58.4603
3041.77
2788.89
-2755.1
337.516
1997.66
-177.219
46.3092
1702.22
81.2604
873.289
-893.815
4412.18
7701.85
829.283
44.9015
241.162
-256.818
1525.63
390.259
-596.168
-135.919
2602.68
705.353
-1052.75
-333.187
-252.705
1128.33
-92.6389
1128.86
48.3179
1267.14
-2768.86
444.101
-181.477
2109.46
-2018.23
380.829
919.301
-1417.65
1005.06
933.045
1524.48
220.964
1045.75
346.128
-950.094
1460.96
392.344
4395.62
-507.024
-1074.21
1575.95
2081.32
565.057
1270.05
5086.22
470.095
-248.729
609.732
528.709
985.589
-413.27
738.773
-768.901
1646.16
448.633
-123.651
-1521.74
456.727
-1449.24
-1439.29
1113.79
1265.66
4399.59
3862.68
729.461
947.475
2315.04
1521.12
1219.88
409.898
5492.2
191.612
-1438.46
-1333.79
921.658
808.786
805.505
2574.11
3086.73
4909.84
673.977
4593.84
382.264
956.117
3115.74
494.885
1961.16
-264.692
-665.817
-914.66
3229.3
6947.07
4648.63
404.215
2537.97
1021.27
2019.77
1671.17
-1318.91
1966.44
3704.26
-1085.87
-304.514
7322.99
4540.04
4998.89
-76.3549
-218.955
43.8532
-2812.99
-405.39
242.465
923.254
7113.83
1670.98
541.926
47.6129
-404.098
110.138
1205.3
1075.49
-1108.3
774.89
-567.591
11873.9
7692.18
5222.17
4998.72
-11.354
423.204
1554.67
1879.98
-1111.23
417.659
-1005.96
446.033
1253.49
-687.108
444.974
1762.44
2835.86
4363.7
396.319
1326.92
2885.16
3373.61
-706.449
245.864
1648.85
1202.34
-2111.78
1691.43
281.776
1283.31
3389.18
2906.09
4071.47
7210.79
659.374
835.493
1097.73
2500.63
3229.22
564.577
1103.33
1775.84
949.045
-306.491
1617.2
-737.831
-458.242
1431.2
-1964.63
1139.68
1407.01
260.168
-1195.27
1097.18
-1014.39
-2412.12
728.703
1137.21
4850.3
5869.96
2003.86
1727.06
-168.649
-600.992
-1799.01
1936.86
984.543
17618.3
5688.54
10003.4
5015.38
922.007
-818.222
1478.93
-1140.65
-769.211
-3088.83
823.089
862.371
3085.16
-1704.1
34.3237
664.8
-2178.1
1470.95
-67.8319
-5474.85
-6.98694
1032.11
-653.127
-373.304
-246.194
-415.268
2055.43
-366.991
-1116.87
1471.02
118.007
5103.66
2190.63
232.042
3649.3
6202.97
2654.2
1788.55
-870.054
288.333
675.69
7642.63
3157.23
-1812.75
-296.489
-678.329
1645.67
423.842
220.796
-2250.12
-5365.05
1296.26
1364.07
1761.22
1100.64
-571.91
1012.48
2526.15
1488.54
269.198
786.838
4237.96
1049.59
376.737
-400.309
2486.31
237.714
2953.34
-2823.5
-351.548
2034.51
-880.75
1474.36
-1073.32
-1834.62
276.042
-426.265
-1939.09
1350.4
-968.11
304.16
-15.3209
-478.458
7886.57
597.23
5230.73
8308.87
6667.42
1649.14
6784.82
1701.24
2421.49
6557.32
1851.56
926.19
132.69
1993.86
434.197
-880.6
-1269.87
-84.7777
2783.99
642.732
960.538
1066.13
238.15
704.508
-254.506
1824.52
19743.1
10809.1
18350.4
21703.4
11995.2
6686.58
8816.49
6430.69
2083.46
-1199.9
2406.42
-1267.1
2809.72
4344.5
3834.25
2664.07
-684.347
3012.17
3217.42
2246.14
-400.15
1124.84
627.181
-482.467
4852.19
5364.22
4.02696
1766.75
4490.89
1547.83
-608.219
-582.989
-328.259
570.57
-716.964
3574.83
7771.59
1130.94
-272.402
108.58
-386.211
-2035.9
747.167
885.153
-752.967
3831.55
1134.84
-100.275
-1407.54
-2088.09
315.101
1769.25
316.621
438.823
584.243
710.855
3017.97
157.126
2908.4
-1506.67
-1822.16
-1159.69
-257.014
-136.176
2550.99
766.375
27.5184
-1418.49
641.367
732.433
-227.097
125.335
815.296
-13.7444
889.488
1940.94
1055.59
-64.7862
-297.466
138.556
959.435
5407.44
244.888
2009.22
1051.62
-1297.9
-3170.29
1108.67
4680.76
1498.91
417.236
-190.007
1002.4
-420.792
-99.1028
-3216.99
-2061.77
1618.92
-730.284
1003.31
831.503
-141.187
-421.193
5000.98
-1141.35
348.835
357.202
4874.2
3589.94
2308.24
212.834
1342.85
-806.319
-513.426
-66.5811
2487.78
967.834
1394.18
1488.59
-1688.91
-84.4019
-1555.41
305.355
454.318
4194.48
3618.9
6756.8
139.537
-163.433
1318.25
-919.636
-1282.84
1694.03
281.972
1122.14
4083.79
6988.37
3585.26
2824.74
2480.73
140.239
4055.7
-1204.54
235.343
204.431
3825.48
-392.39
1096.81
287.806
874.768
1531.29
3215.55
-42.5321
86.8569
4979.52
1161.22
691.891
-2257.05
1617.54
3762.09
1910.95
430.551
4169
3924.39
1134.93
-128.234
-1376.26
4303.26
2233.14
-334.932
3196.15
2674.79
-2460.55
3431
3136.5
80.0097
-991.668
-1178.98
405.692
1762
8916.99
17639.3
3307.46
5473.06
-1034.68
973.128
1153.9
3943.15
2467.47
1069.24
1688.32
374.26
-766.748
-493.392
1590.97
2000.17
-192.925
916.193
1599.48
-1410.21
694.381
-61.2866
1629.47
-1383.02
-669.571
-694.168
-324.892
4613.61
2207.11
-1505.41
1003.85
3044.27
-466.531
3223.77
1481.77
-1041.56
868.301
1113.74
-765.629
6270.61
625.735
1586.69
-57.4736
-573.952
940.84
12514
5603.49
1602.83
11093.1
-173.204
-572.891
1571.22
960.684
-1211.53
-320.796
9.22366
809.947
-125.168
1725.46
7181.36
2185.1
2037.02
1139.32
-2024.5
-1487.56
862.333
566.14
3168.93
3402.64
3814.64
883.475
-137.113
-394.167
-198.589
-2172.42
-1798.47
-2039.03
33.8907
3352.71
785.283
1327.87
3020.7
426.338
1766.44
-241.53
1023.12
-790.125
-893.344
1974.22
3773.44
488.438
2655.28
-519.941
-152.759
-947.585
-476.669
873.131
1316.42
4156.93
1583.91
641.927
1531.03
1950.69
4108.57
1430.08
168.553
-28.3526
875.608
-1267.05
-111.074
239.133
-562.096
2485.28
566.231
26.5448
638.4
4316.46
977.197
1309.85
-2183.14
-232.19
-2958.59
-2345.65
500.414
2878.67
3550.24
378.787
-554.264
3680.1
-399.569
2073.2
559.496
4083.84
429.835
859.952
2964.96
1525.72
1477.28
-180.905
115.063
1056.25
3956.37
659.262
1066.96
2074.63
1428.91
3103.82
840.923
-728.202
738.884
-503.839
-4304.98
-604.91
-468.239
2789.1
591.325
3381.35
821.829
-450.595
4039.76
2058.03
-581.244
-1669.8
-996.232
-36.873
551.785
1720.52
3003.02
1874.11
1286.4
477.044
604.148
2564.09
3959.37
1992.76
-1296.1
1676.42
-356.052
1622.78
2299.98
813.287
5357.02
-669.348
864.303
922.453
1267.23
605.573
1668.83
-1994.35
-1370.29
-2339.26
-16.1105
-1612.98
-36.0739
-704.615
-660.4
177.79
1688.97
-528.269
-625.276
2453.72
1621.65
-1042.62
1004.36
757.007
-569.45
2150.25
1816.6
2599.83
-205.437
54.6667
802.168
190.71
-286.354
1884.09
-2607.22
-2316.56
-1492.9
271.871
4498.35
5863.79
3472.74
781.898
5140.39
1173.06
-539.01
-648.809
6666.51
-8.43077
1601.31
714.608
556.95
-365.112
961.46
4068.48
-94.9417
2068.34
-164.1
-834.425
-343.764
2683.5
-1838.85
1093.47
-325.477
-57.7618
3750.88
-899.278
3502.31
1956.15
-229.578
288.014
906.264
1430.96
5533.11
2835.74
5785.66
2472.89
7241.52
14006.4
3859.76
1135.21
-167.078
799.532
640.867
3038.82
32.6157
-974
655.312
72.4191
1006.24
10.3124
3138.33
3845.96
461.497
214.19
1060.31
3519.25
1473.25
2918.77
1507.08
-873.003
1075.64
2378.01
4715.13
5221.08
1379.91
3253.98
-492.286
1328.02
-4116.96
966.484
3683.92
689.597
2193.62
6619.08
8259.16
672.571
2322.31
-678.789
534.536
1277.96
491.616
3039.28
926.015
312.389
1766.69
82.9608
2984.76
3342.89
-1582.87
325.837
2088.93
-111.604
-13.6673
-560.789
345.388
-58.5322
3665.86
763.127
-1301.66
972.052
-1417.01
255.611
-890.879
-124.177
-586.136
1270.74
2083.72
5168.64
4927.04
2101.88
3849.16
6549.11
14572.5
9778.58
1447.28
3306.87
3009.69
2489.54
1324.92
3053.25
688.97
341.413
730.379
1159.98
1013.5
-69.0084
-265.366
-13.0703
1491.22
3752.83
4947.61
-16.8122
565.185
34.3444
-671.63
2970.21
-626.632
2833.26
13012.6
7373.61
662.44
92.8145
365.145
-445.764
-1039.48
4745.35
10856.1
1512.32
1895.67
-145.871
-798.386
3702.6
1005.91
1029.44
6067
1320.75
1007.48
-919.462
-2300.82
655.754
-559.596
-29.8183
-735.633
282.662
-1408.15
531.2
614.432
-1419.67
649.458
469.514
-1188.35
2282.35
1014.62
193.061
-820.386
5.79084
1942.12
4877.14
678.446
576.587
-1701.31
3082.01
3129.55
2765.05
6177.42
6930.56
4050.53
4993.83
3636.59
1764.97
1420.31
3141.39
-23.5779
2109.2
2611.51
5841.11
5112.44
10440.3
1127.49
-561.181
1355.94
1511.84
1343.22
6313.47
3521.85
6967.21
-406.329
3183.38
-2585.62
8.30496
-669.254
1119.39
1668.83
2771.7
8460.97
9100.02
9045.89
2999.31
5596.03
1669.8
-187.435
133.704
1471.77
3781.82
1245.2
4533.25
4878.09
2784.16
4492.1
-381.913
3011.37
417.198
-788.064
1518.03
186.477
-1506.9
1976.19
-289.116
1054.13
1258.22
-2455.7
153.784
142.666
3271.83
-2416.85
1404.54
1914.66
242.022
-2867.55
4743.65
713.541
321.274
4067.1
1108.7
3080.48
11547.3
5316.83
-918.379
-1141.82
1881.85
5254.86
2347.28
-777.804
-1258.37
-329.975
2062.5
5654.89
1253.17
2537.05
1904.75
1704.16
3326.23
1590.23
-83.5601
591.992
204.744
900.539
2157.96
1195
1792.08
1882.37
3470.25
7562.79
7156.95
3560.89
2901.29
5015.06
1341.28
56.861
947.396
-98.6688
-1104.44
-1177.33
-778.133
1282.41
222.676
5277.5
-1469.93
649.169
-159.409
835.885
6943.8
4881.62
8248.56
7422.07
2857.64
3140.9
3126.59
-1602.1
1779.67
-364.062
-250.198
-310.128
863.436
338.632
-3835.78
4130.07
2037.93
6971.23
718.512
-90.6032
473.604
-323.433
5218.79
5931.62
-2729.23
7562.19
2540.04
-1066.49
1281.83
-120.841
1025.32
-2426.86
-1451.89
2666.43
1139.66
1330.57
955.538
-259.048
579.55
1724.17
1045.02
-1495.74
-740.966
620.773
2640.84
836.152
-1301.23
553.267
3129.63
23080
8761.43
3927.96
2838.16
-737.292
162.513
140.422
719.521
3715.18
398.695
-951.081
435.223
3639.81
2261.82
-2127.13
109.332
352.354
23.9358
720.322
2787.94
3403.1
69.8836
2456.4
426.18
-1792.23
2560.17
2659.95
-540.37
-1695.64
-1182.45
712.531
1797.6
2464.75
1321.75
1967.79
-397.915
2486.99
6755.33
-495.917
3640.7
917.822
977.054
-21.9865
-515.674
496.512
2238.94
127.659
1952.73
1846.73
378.431
134.909
-902.176
1065.12
76.7761
2684.91
-171.872
10854.8
2435.74
1576.66
-118.678
4703.53
-523.254
-621.29
-3451.16
1511.99
3036.45
3150.18
1338.56
1403.69
657.812
-436.677
1345.09
5240.18
-2643.84
-759.626
2665.8
1579.86
3216.24
1907.09
3900.01
-795.657
-322.583
4836.86
949.326
3009.16
2962.91
680.432
-431.099
-368.482
-2351.8
-1278.39
850.9
-2291.24
861.603
-560.048
1901.27
3807.15
4786.49
6813.25
3913.9
833.022
7010.36
16702.3
15023.1
5885.1
276.503
2260.71
113.51
-466.321
-483.439
807.385
-1362.34
178.393
-860.894
726.801
-1926.6
-1349.72
824.385
2932.97
1865.37
224.418
3512.4
1962.42
2274.21
929.077
362.662
1208.76
1174.25
1099.71
5483.04
8395.96
-2368.09
584.341
1843.8
263.592
4930.06
2245.49
-2249.28
-334.811
2341.1
377.824
2069.57
449.525
1887.24
2101.17
1941.33
735.969
315.374
927.232
188.928
1390.89
-94.6052
604.101
3925.12
1455.61
-598.988
303.194
-1304.43
931.653
754.111
328.128
2017.88
1285.73
10471
796.305
-863.225
-74.848
1129.62
742.648
599.394
595.421
-1570.12
959.858
2359.43
-188.42
2672.81
10152.6
2450.68
2258.99
7.16684
17.0088
4612.38
-2669.28
372.135
2023.41
-8.80735
-551.932
539.741
2721.26
365.39
1840.47
-300.286
349.832
-492.377
790.991
5205.34
15525.4
12278.8
1067.44
1908.21
1608.55
634.743
2284.14
1047.91
584.081
484.502
1451.28
2197.47
-605.357
566.013
145.621
388.235
1854.24
6221.54
3081.68
537.598
-1670.89
1968.88
1644.17
-2486.56
-2986.01
-680.262
-17.656
490.877
-1576.7
132.498
-979.369
-461.484
-326.791
763.254
1891.06
-1173.6
-678.313
-1002.17
4245.17
1031.64
2401.48
2278.67
2947.36
4255.3
5379.12
2006.47
7402.94
-203.761
392.743
129.492
-579.794
153.5
844.149
-2291.77
-675.8
-412.236
513.071
160.988
1234.58
776.573
353.581
-1181.8
-2478.93
-1200.51
-1258.2
2472.46
1210.52
1858.53
-586.585
1372.14
842.491
227.891
4154.54
5818.22
1361.05
128.037
1409.57
1305.24
-536.944
-729.022
2903.07
-1493.53
4.72733
1792.2
2334.2
-643.713
358.109
109.363
332.503
-1068.49
-61.3832
-643.958
430.744
28.3813
800.752
1651.19
3045.9
1138.01
-1424.8
847.951
636.772
-1519.49
56.9895
902.361
3716.9
-4917.33
-2304.42
-87.7951
795.836
-1102.96
-2179.46
237.247
-2987.86
-1062.97
163.046
-47.5371
2975.88
682.723
3479.32
-3829.15
-294.19
-242.475
3904.32
-4229.86
2556.06
1316.18
1725.18
1029.32
1157.79
676.266
1175.78
-1516.35
-262.201
-489.525
822.192
-1207
395.368
-1405.22
197.058
1167.59
9852.11
1602.51
1047.22
8090.82
5291.31
9127.63
9512.36
5298.87
2734.42
5686.92
-776.784
-2396.28
-494.104
2473.21
173.84
1762.07
415.575
574.389
-2151.1
2344.22
-2912.86
-562.732
-1357.17
1342.41
-381.761
103.519
5719.13
1586.07
1777.02
94.7781
-1993.85
-721.847
-351.839
3334.12
-19.1642
612.527
-123.252
4215.98
1762.86
4507.86
678.847
-453.365
-218.127
1664.41
3390.02
89.2304
6682.07
6052.47
676.317
36.6973
2060.02
8244.44
1888.91
-2244.72
210.141
819.622
1617.82
-1264.26
274.91
-4417.48
-2437.94
-740.798
466.571
1523.94
1709.28
2261.5
4580.4
1927.24
3674.71
-1162.59
671.208
-1746.34
358.786
1025.68
210.966
-1147.48
236.602
999.856
1777.86
922.807
989.362
-447.276
1419.72
3340.45
2508.64
-1957.73
1126.41
2827.55
559.313
-317.722
1968.91
1012.72
1004.86
-1480.17
6504.6
5552.96
24.3387
381.567
1315.04
-832.798
2489.63
1061.4
-947.725
-1237.81
-213.881
-1063.45
-430.342
4149.06
1068.75
-2223.27
350.673
897.665
-1997.97
2050.73
2647.27
235.954
5947.89
9268.83
988.621
369.761
434.038
-721.076
408.256
791.192
1764.66
-1735.56
-723.519
453.24
-67.5733
4158.67
834.033
29.4166
-659.438
1712.62
1363.64
438.855
4515.12
4112.18
3973.98
6731.83
3344.71
1940.32
4098.48
3315.39
5900.84
1856.59
-2327.09
4244.13
8021.13
10092.2
-1602.11
3668.88
6302.31
-728.433
984.993
2339.68
363.058
1279.23
5118.99
434.466
-315.422
264.624
1724.88
611.275
1185.3
185.754
28.5617
-894.039
-167.333
-1122.38
-477.627
2172.78
1441.53
-396.188
4720.41
6959.98
-2307.04
2784.06
290.818
49.9027
-439.336
1529.68
803.822
624.985
-1264.97
248.478
-4.57264
-224.852
2736.2
-1234.72
3652.43
-1507.43
357.555
23.8094
1280.23
-506.906
1167.51
3677.01
8836.1
8809.87
14488.5
11712.8
14634.6
2991.38
6786.92
6989.49
-7.84389
281.377
-151.549
1154.91
975.304
691.92
-714.958
1265.17
-359.896
-647.387
708.08
-819.894
1854.6
2151.19
1787.48
4535.28
190.679
-308.959
812.253
13.6539
-3741.16
258.856
837.572
2018.59
-447.963
546.089
2644.84
814.082
8132.5
2019.9
-1184.48
-316.489
8108.42
5180.26
1386.72
-915.862
1049.29
1883.29
-2381.43
673.444
378.21
1081.53
3812.33
1075
56.9911
278.558
1776.71
2516.14
3823.31
4610.22
4217.46
2678.26
-1605.21
4223.5
4262.01
-1615.38
40.4113
3814.44
1515
1651.58
717.534
3821.98
5779.64
4398.84
-558.866
4166.87
-869.202
275.562
1626.44
-906.592
1822.03
-1179.05
405.974
-3845.04
239.329
1750.74
13519.6
3463.58
-408.208
1388.03
196.968
3547.74
-3278.05
1379.52
4214.13
-1380.48
2178.95
1296.3
3233.77
11994.6
2276.97
5354.01
1816.7
7140.68
2467.39
3419.76
3189.45
821.806
-431.987
814.624
5304.51
11568.4
1557.19
1692.33
60.0266
1789.05
603.882
-750.443
1250.34
193.8
-200.25
1156.12
1005.22
-32.1225
-658.702
-3554.74
-559.142
3709.84
779.241
-43.1997
1035.43
-22.8141
-1177.55
1705.74
-464.65
979.078
761.379
-671.145
1444.33
1780.77
2975.78
6364.34
3441.51
3014.01
60.6676
-1052.91
907.739
96.8641
922.267
-419.962
-2835.66
2313.09
638.394
433.613
-9.58919
2895.59
341.832
4924.85
1697.52
-1145.49
498.222
-1947.91
-2478.96
-1283.13
-67.0233
-113.659
1238.81
673.81
587.478
-494.723
-1818.47
1755.44
234.562
-607.148
1390.76
-109.222
-626.031
235.817
2603.86
1393.74
-1745.29
2776.2
3842.69
4537.76
-88.0235
2517.35
3375.45
-642.874
1371.93
547.451
3843.17
12368.9
2550.84
921.729
-51.248
515.614
548.125
-1622.3
6552.35
5864.89
1519.75
155.841
-994.027
-419.522
3853.06
4891.25
1492.23
6060.7
6728.6
9520.3
7366.8
-867.388
2694.28
3572.72
3617.62
432.138
-180.955
2727.17
-936.104
-637.023
-1702.53
1205.88
559.621
1163.55
2458.55
1252.88
3286.87
2146.34
443.807
5882.52
4858.04
4486.27
-297.475
-875.454
597.546
1091.67
1306.47
-1146.04
-250.775
-1908.39
1539.33
546.482
930.846
7875.38
-1420.3
5638.98
1449.07
-765.027
-1180.19
4535.02
1896.53
2023.24
9569.29
6257.49
909.637
3997.65
1227.75
6394.4
898.421
236.803
-98.9747
1490.53
1044.51
-690.192
273.484
-348.034
1132.43
635.461
2460.62
834.665
-466.373
-8.04896
-166.291
1112.17
588.206
444.866
1261.58
-1924.97
-224.283
5252.74
10468.3
-972.493
1008.3
751.575
-4675.08
-736.41
4686.62
3226.46
915.761
14361.6
13421.9
4598.03
3490.58
4686.01
9784.82
13681.7
5533.96
-636.407
1033.99
2672.91
3043.85
1392.34
-1404.41
-450.84
-3017.36
365.351
-541.3
-262.096
-792.793
1269.84
3615.72
756.85
12390.1
5235.56
1827.97
1084.61
-216.087
860.794
-1105.8
-1485.03
1717.57
-847.613
279.456
355.888
2311.02
-883.496
-1427.16
-1021.45
1075.67
-341.217
-2.92293
2551.99
790.991
2286.29
1974.13
699.99
4867.92
408.433
812.814
103.039
539.915
1297.81
-102.565
-437.748
1169.54
-415.649
-2003.4
-2718.3
-75.1377
1741.09
-24.6532
-3.82506
-980.009
1057.94
995.507
-450.078
112.011
829.386
6654.55
14680.7
14556.6
4381.58
5498.52
592.744
562.261
1290.27
-942.145
314.217
110.682
497.487
-69.4728
2010.45
-624.553
-875.902
-103.472
-363.338
986.998
2615.32
-619.124
1580.09
878.105
-409.547
1231.82
2156.49
5630.57
11359.8
2925.52
2140.99
166.464
-3706.82
-949.012
1218.64
291.939
1297.02
744.937
-463.654
-177.836
-463.696
7782.45
8720.45
-1201.87
3110.3
839.968
-459.817
-363.343
-547.895
5454.32
10207.4
2422.24
1502.19
-450.65
2695.94
990.905
-3938.72
1792.24
3928.8
12681.6
6645.15
451.05
859.633
9978.68
1250.03
1869.18
4057.51
771.133
310.802
-266.232
-1239.93
-393.104
-3.2353
1101.12
-2593.38
1134.66
2083.28
7406.14
3138.49
266.757
-191.237
1124.89
1049.64
5656.67
10645
5818.52
391.473
1830.04
1144.38
-124.778
113.329
1133.79
541.481
3826.43
1150.46
1455.93
549.579
865.061
1290.71
3756.05
-1595.04
907.551
1177.77
6859.31
-566.852
1030.3
-182.708
1352.91
1008.05
1563.97
2628.9
3.30308
-1606.03
-1615.11
5626.24
1079.15
-1359.39
826.649
1221.3
748.463
184.516
1109.28
4435.69
-1959.39
338.165
819.048
3789.14
2507.88
-869.213
-1122.73
465.989
-273.049
445.826
1258.14
3867.48
1758.91
12286.9
12711.3
10201.3
14144.4
2308.27
236.403
7391.09
619.846
7522.44
3955.58
177.134
998.066
506.577
538.429
381.263
441.977
-767.553
2841.88
-2542.52
-610.106
-204.916
1779.24
977.91
615.84
416.481
674.092
1345.04
-3.87599
2929.03
268.515
1583.62
-467.63
9779.92
2565.42
3580.96
1546.09
1498.92
1482.45
832.995
-494.926
3649.88
1627.3
-451.875
2856.93
359.031
-1903.72
-689.069
-834.195
1763.76
365.816
-178.251
-2442.35
-1656.89
29.592
-1192.05
-443.119
1007.86
1827.3
8304.48
3388.22
5988.07
6085.16
-413.933
886.36
-1.08587
289.939
1954.09
3200.36
317.551
1566.07
9846.35
11660.1
6365.9
-1050.63
4281.36
-690.708
156.437
-848.904
2249.11
-743.591
140.281
-798.536
230.41
-1341.43
-840.894
1891.65
3039.22
2433.27
1135.64
1725.21
59.2521
883.874
-282.907
-651.799
-687.973
2040.46
1366.31
2732.51
-546.637
753.877
293.254
466.628
1270.77
-357.635
-543.373
-161.354
2757.82
600.333
517.311
4044.04
1026.32
2908.33
2661.77
-1299.01
-268.361
351.245
-1275.12
871.756
706.509
1738.03
1634.66
-1073.33
3200.5
-1157.44
-340.937
-761.823
2957.39
-2464.03
-704.537
67.9248
1036.85
5195.38
533.497
4132.84
-1351.51
1157.7
9433.36
233.368
2091.86
524.85
1747.12
-242.886
-2654.98
112.202
7714.82
7964.7
1661.1
-1605.18
6155.59
13852.2
20255.6
9045.03
5130.26
923.107
51.3947
-431.539
1219.92
440.805
-305.534
-296.242
894.737
457.519
438.383
1420.57
2228.04
-268.352
-1467.38
1300.15
-440.347
320.294
1153.64
-2667.51
-1276.61
-1225.66
1627.19
805.468
-2065.69
125.259
1991.78
9733.53
5291.9
7179.5
1918.96
5043.69
882.162
-2439.56
1972.04
386.91
704.506
4126.83
6702.88
-464.748
558.256
680.231
819.442
481.6
3334.59
5649.55
2910.07
6020.17
2521.93
-4718.89
-1756.06
-886.159
3498.49
5914.34
-424.695
-158.676
-2380.39
299.86
-2170.11
2068.48
3427.12
9077.58
13785.2
10375.2
660.721
5860.35
2404.01
1826.17
-1580.65
941.447
236.067
7792.13
2563.89
2527.65
-332.408
525.795
309.638
5373.98
8720.19
-815.243
2539.33
1766.57
-2902.39
-1569.21
-621.181
1398.03
1152.47
-692.199
1766.37
-521.156
-1129.9
810.321
672.241
535.734
324.523
4217.91
3398.92
-1722.45
41.8953
1487.51
-409.951
2213.45
5531.95
3361.27
2995.2
2426.38
1328.82
2491.66
724.272
-1177.18
2270.44
207.774
-712.215
-690.749
983.363
1026.03
5210.22
6049.31
1216.8
-429.196
-252.019
-475.67
2305.8
735.976
1176.92
2264.34
-536.27
-196.824
1269.6
473.13
101.972
1711.37
155.093
1197.52
2073.02
2936.84
-150.813
-1089.57
2624.69
6872.01
-2845.64
-22.8963
1108.78
-2107.93
-1872.63
2866.99
1136.35
1599.39
3119.47
8125.96
6275.79
-2881.22
1359.47
1664.77
201.183
-867.814
-722.62
-356.151
-1115.68
988.928
12476.1
1907.17
875.825
-763.149
1107.51
1759.09
13623.3
936.611
-1181.39
-307.463
696.435
1170.59
489.542
11.0201
988.176
1501.13
1899.61
-84.5341
-430.662
1415.43
-419.401
3110.21
639.961
-1326.48
5249.15
8415.27
10140.6
4202
839.363
1494.05
2895.96
145.377
1760.25
935.919
-794.336
148.426
2749.87
1441.88
2815.27
3983.98
5431.1
4679.37
4871.86
-1643.99
7316.09
5175.99
1971
91.8694
299.793
1841.09
9464.05
6639.85
-543.575
-358.724
518.64
-635.915
1354.75
894.648
176.873
2220.61
1853.93
628.104
960.122
1353.18
93.7092
2099.23
706.465
1613.34
-874.191
-1762.57
3241.02
-933.071
-1856.67
-173.37
705.634
1564.16
12483.4
-1513.07
2770.41
2045.53
5026.58
1687.02
263.603
7464.82
1067.49
-441.69
849.194
453.581
20.7533
-309.156
-1157.4
778.546
1849.6
9256.76
4717.36
979.507
-209.183
2796.08
529.955
-178.047
-364.748
582.411
574
1341.33
1043.1
650.421
632.525
-3602.06
428.942
6248.18
3154.29
5680.26
113.757
2001.31
2892.87
759.687
332.235
-355.845
2349.48
-661.178
67.3736
-463.43
5702.27
2733.12
1896.5
-1364.65
6270.13
-596.151
-431.045
1531.5
21.2454
-68.3429
1490.18
1505.72
496.581
-1001.14
-1154.45
-552.309
-2244.52
-385.534
-1207.45
1291.22
366.048
-501.312
2023.61
-332.473
-2440.96
1243.4
-1378.53
-269.584
126.823
-38.6324
346.827
-454.144
749.911
2265.89
7681.28
-95.2967
491.424
-1827.63
-429.154
4291.36
241.724
1459.19
1118.58
1612.44
-449.813
667.392
6418.75
3241.4
6043.38
1327.86
-1315.17
7647.93
3849.81
1348.24
-699.698
-1894.48
1255.62
-55.8341
1481.54
866.006
-334.523
590.874
5340.37
-118.904
-1395.84
-692.147
-122.526
2210.84
2866.36
773.567
914.011
178.492
5975.96
16306.2
-2609.12
2850.03
-94.3314
626.224
874.805
-4601.49
-1025.63
-1428.41
7001.64
6078.28
11261.1
6158.37
679.007
772.815
1335.93
-2649.5
-279.227
647.613
414.823
3551.7
581.333
2614.2
-510.349
-1588.33
525.125
3113.87
3670.39
5648.86
101.495
6605.26
16416.3
302.173
-614.268
825.988
1975.08
4946.2
76.5869
3957.35
4577.63
1484.61
1519.11
4619.04
-357.677
589.364
313.232
3106.35
3788.73
883.485
5504.26
1388.07
4481.23
8832.46
3312.78
-925.9
-292.51
-615.388
-927.562
1832.34
596.594
5064.43
2222.7
2104.39
3416.06
4259.51
3186.34
-971.588
-56.2588
1279.01
-41.0971
-1914.93
91.1848
4061.43
7130.86
7147.81
4277.31
13192.7
2021.67
3098.56
5714.46
-2798.28
3330.19
402.897
966.209
1101.75
1318.17
501.205
5027.21
2271.21
2164.55
410.767
-803.973
537.172
44.6302
3147.74
3065.67
2374.27
5289.48
3500.37
6079.11
1191.31
-2730.21
1864.46
760.781
1555.35
930.108
-606.143
-632.122
-441.027
1638.71
3327.35
249.503
-679.613
796.077
897.693
1515.51
2069.82
30.2088
1392.42
-285.673
1960.66
1858.03
661.525
1489.06
460.336
-1354.05
538.66
-60.0273
6735.4
2477.59
3776.23
3476.4
3121
447.249
86.9743
5645.87
2516.47
1597.45
758.443
5128.5
1551.73
7250.98
597.742
405.037
283.247
355.345
5710.11
1978.06
3489.11
219.119
3821.03
4016.85
721.209
-1360.17
-633.012
1748.35
1189.09
-454.473
-2890.14
-2.72261
-416.43
598.437
-1472.16
-1815.52
931.106
4652.43
1260.08
3035.12
644.071
2562.23
4838.6
1026.31
1125.9
358.296
809.138
2784.58
3731.06
3725.87
2421.93
1095.51
-863.24
-1903.33
2961.31
849.077
1809.12
-1222.76
2384.14
2050.84
2108.67
3558.07
3529.5
4422.34
12313.1
9488.25
6337.87
-273.804
-1105.95
4219.77
-1470.98
1033.78
-1061.81
113.483
-976.168
2066.72
-467.69
-44.4983
4800.69
852.102
94.4589
4577.49
-556.275
1771.41
156.92
561.628
-368.029
-628.506
256.548
102.062
1523.58
1292.23
-494.033
20.256
-1429.84
-323.9
2056.75
4659.02
1868.46
2853.87
1146.45
9061.79
1213.48
445.646
97.8544
-651.644
2114.4
2764.07
1128.98
-1568.9
887.812
1557.28
-468.211
1067.17
1160.98
-763.997
3030.95
9201.2
4728.21
4136.25
2095.78
2611.89
2111.41
1753.94
6425.33
1928.25
983.765
94.4443
8535.72
3000.66
1977.25
1174.2
-1247.14
4540.44
6010.17
2185.98
3784.66
82.1362
-208.125
1021.11
1859.92
-13.6367
3140.12
2008.53
5685.5
97.6601
1419.63
1686.46
358.493
1212.86
-782.13
-721.528
1661.16
500.227
-835.765
1276.24
3408.08
243.75
1929.53
4274.99
-1158.9
1482.9
2862.87
-3961.87
-1080.8
2625.89
2352.25
792.028
-2750.88
13.6269
-1180.99
-1182.03
640.431
811.875
322.448
1733.31
3242.39
5266.8
-28.3248
3521.51
-25.7863
2237.35
2156.04
-1577.23
3198.07
16.1745
214.708
-2250.22
72.2473
-592.905
885.557
2096.73
140.075
2075.85
1764.62
1141.66
563.797
-314.715
-286.605
-112.379
256.685
-567.451
-320.751
352.638
2518.73
866.006
208.569
947.31
7660.07
2763.88
-486.727
146.989
-237.808
350.778
444.855
4384.34
977.627
2127.44
2100.36
-256.033
-2013.03
1551.87
497.944
-442.49
-2988.52
-594.111
812.701
3319.83
1025.93
1532.92
530.254
852.758
-2015.42
3160.17
-2438.43
129.587
1533.12
1931.4
166.551
-181.998
148.437
-751.771
4656.94
2088.67
757.767
-617.169
655.975
-290.506
2931.19
309.225
2078.45
-118.696
369.817
1674.83
1798.06
2235.84
3852.16
5368.42
3186.44
1205.28
3534.16
3709.56
2324.28
77.8026
-2076.37
-747.863
2418.16
9366.32
-600.661
6745.48
2864.27
25.8407
1553.16
575.136
316.346
2595.01
2118.77
3197.93
1610.32
959.046
1601.69
1477.19
-523.065
105.378
-64.7669
-246.032
2161.12
2258.51
330.413
1563.21
584.16
1879.05
2301.81
-185.529
-1702.87
-279.095
1882.42
1427.44
1332.58
540.957
880.97
205.599
2412.86
110.362
803.576
1058.01
-216.21
3950.71
-1196.79
-25.4453
7055.63
12474.6
9758.76
3711.39
1415.55
-202.429
-423.428
-1038.79
2407.29
1768.88
1373.84
5156.17
2260.09
1228.49
-5532.59
2606.79
1452.27
877.587
-1157.18
911.924
1915.77
1068.44
1700.37
1626.19
802.676
-97.3211
-229.809
1109.77
-1141.26
372.213
725.276
1449.49
1073.25
-269.831
403.181
90.4299
862.178
-5521.33
-933.272
920.058
-886.613
-358.569
498.128
1284.22
989.059
-290.973
127.755
1032.67
-773.737
1825.37
-411.796
370.513
-619.897
493.175
203.06
595.88
3038.48
1310.81
240.141
1482.76
5712.91
233.373
-209.838
653.219
3720.04
801.601
-2818.6
2313.84
945.156
-1112.88
-33.5706
-389.663
219.731
267.621
65.489
2699.92
682.955
-1081.82
-377.513
-1222.19
106.302
2213.2
1350.67
3886.77
507.516
-366.563
648.395
2865.12
4753.17
3072.55
-146.873
3874.86
2892.23
4611.5
-707.233
-1697.84
1792.83
1601.93
-382.28
-790.289
-1367.46
-577.974
2531
3742.78
4559.22
952.351
-1054.82
-1052.92
-729.913
-1463.22
2955.74
2769.36
1135.55
1626.65
633.694
527.762
-516.742
-2407.71
1065.89
1542.87
1474.42
42.8885
-286.782
7002.5
787.928
5978.06
3570.7
1397.86
787.555
4567.67
-263.633
990.44
1044.01
1567.8
438.905
1037.83
1424.66
1343.09
-416.482
2712.36
4036.7
1928.97
-2069.46
3209.87
6800.59
-821.434
-1241.71
552.256
1969.72
1856.24
-962.087
-2273.18
-1285.74
-58.3782
-3868.09
-2997.9
7203.33
-107.164
-945.495
-1851.33
855.42
2480.31
936.678
-1014.63
-523.451
-207.491
-931.004
1042.08
-2401.94
-523.492
3885.86
1114.69
-509.315
-721.39
2176.21
524.745
2959.09
1806.01
1222.47
54.7042
3862.36
1241.29
1007.84
363.139
9294.41
176.389
-47.0967
-1735.67
3859.93
1096.09
2080.85
5981.79
3530.18
919.097
2160.02
-287.418
1005.17
2392.53
-296.707
180.471
4876.14
1437.21
-569.26
717.063
-3758.39
-823.915
1337.03
-373.174
-30.6342
2969.79
748.488
3659.53
-601.024
-217.148
751.398
329.03
3690.65
2758.92
1048.13
2609.53
5921.66
1313.13
287.386
-128.884
-1186.35
-1649.08
-1562.24
1007.8
-2342.09
2129.45
1556.35
719.747
4280.16
416.102
560.457
1143.98
3430.33
1430.89
1408.41
1748.21
579.501
1775.21
1982.29
1084.44
-93.6712
4257.73
7240.57
2297.9
2570.19
483.312
-557.742
722.051
224.785
-52.0472
723.008
1145.71
-2915.7
-384.378
2704.8
3044.88
1012.5
1615.7
289.959
29.1957
1431.22
43.4408
-1214.3
1790.33
-1156.32
-1241.28
818.729
-788.158
-917.011
1238.27
2639.88
478.934
6751.74
-1111.38
1313.89
-1315.56
-2053.64
-521.666
367.324
-436.384
3162.18
406.144
3004.01
9499.89
-631.297
526.348
797.843
30.3507
3515.29
2684.32
5654.92
7262.51
5133.97
214.242
3693.81
1855.49
1181.9
-526.918
1333.33
877.07
-1071.12
-1973.6
188.5
-2761.98
3012.57
1798.27
-275.767
2982.62
3857.42
6881.77
2055.47
-540.779
5004.76
-311.452
3416.57
-1425.04
887.946
-604.96
632.23
1051.55
926.818
-496.973
5870.62
4133.32
-1141.97
819.787
1167.7
2288.54
446.586
-156.136
2435.62
458.126
1816.97
-1243.54
-1997.7
-532.668
6674.36
18805.5
4058.88
1061.12
9670.6
3852.47
2483.57
2428.47
1635.17
539.334
1370.1
283.634
375.38
1006.55
1304.31
615.111
2622.37
501.716
-184.427
-236.795
512.336
197.434
233.042
-1434.49
-625.076
-1367.83
770.19
2472.79
-279.003
1418.74
4953.83
3408.65
942.788
764.9
226.73
2593.52
3661.16
2537.63
1362.35
2583.21
1392.49
1687
-1415.2
1152.58
375.543
5474.23
-1453.59
619.898
-2513.49
1121.04
-2823.61
-1092.17
675.737
3541.85
3993.18
1314.36
1112.21
1952.72
-1964.25
-830.595
7673.62
851.295
1381.14
12531.1
5058.7
5564.9
6628.49
2650.66
1511.55
-5.80082
-141.51
1530.24
2952.41
232.922
1172.48
1732.69
198.056
-172.611
800.911
132.82
1901.41
154.297
-410.622
-981.075
159.124
164.493
-1099.35
-563.813
665.962
3037.59
1554.42
5230.05
11502.7
5328.27
4673.09
2012.46
4488.94
1256.26
-4450.32
-650.365
562.616
5758.33
-1011.85
-469.288
754.547
-541.244
643.723
-180.762
-534.03
1145.07
723.507
3769.93
1214.93
1941.83
218.817
82.1512
536.948
2714.96
1397.3
399.784
975.343
-2245.79
-335.519
760.704
7397.47
1732.21
654.199
405.364
-114.3
641.241
-1749.35
6010.18
1346.94
952.298
1444.93
-880.606
-193.005
-887.52
94.9579
2327.09
420.518
4035.53
2599.95
4878.77
1453.02
-699.157
1407.31
-471.317
434.921
4162.42
379.51
546.341
-37.2674
-940.321
-2143.93
-150.588
2070.18
-459.225
1046.22
3875.77
753.649
2640.77
248.751
1035.4
-410.553
771.1
1793.79
5103.02
3277.62
-356.465
701.678
-27.5964
-242.36
2571.76
1029.44
-752.957
1737.71
3148.37
1633.43
-926.627
-833.396
468.695
-200.971
-996.319
553.869
8055.24
99.7657
1616.71
2182.8
4170.23
-129.494
869.905
-1139.06
2541.63
871.512
-662.266
1763.31
6865.89
8418.22
4442.08
1748.99
5995.52
2781.44
4709.57
1090.97
1300.88
2332.26
1381.25
1103.44
6511.24
4705.7
6354.56
1778.34
-1067.87
1025.22
1026.58
967.551
1706.96
1316.95
147.008
1821.82
253.972
2857.91
6940.19
4051.92
6652.92
2250.72
5496.11
4931.66
5691.11
-49.4284
-1212.3
160.776
1063.48
1770.66
478.327
2114.76
1306.49
1916.16
1139.11
4999.11
-120.489
-248.202
1658
1712.68
1201.17
-1627.44
3366.55
9807.78
9367.23
8269.77
9614.98
13261.2
4286.96
497.101
615.242
-1074.25
679.578
-630.352
1231.9
-732.81
-3525.05
152.239
3422.48
9083.34
2856.05
43.8628
-36.7822
-1146.16
548.516
198.543
0.884545
2700.93
6766.11
-918.501
97.6356
-365.844
302.618
7247.13
417.289
-1182.12
-277.855
4456.86
2160.45
-499.573
-896.483
1744.73
203.114
-2435.92
2365.04
2235.32
-663.693
1294.1
3024.55
-299.532
1396.79
974.759
730.195
1715.29
-17.2262
4229.55
11792.1
2074.8
387.986
2264.19
-350.693
5705.55
3537.48
1307.99
-2180.24
-134.561
-3147.16
408.1
-559.255
-73.2664
1055.55
892.241
1510.65
-173.609
2516.7
559.076
2995.88
2433.46
448.091
1241.9
5053.39
2780.2
8109.88
3193.65
3759
2163.84
-2026.12
1687.73
5911.64
2901.23
1267.67
-908.352
-810.104
1537.92
-1925.43
-1586.25
480.713
713.213
-1016.64
5774.17
3464.85
1726.76
-324.578
1178.11
2861.21
-535.936
559.25
1544.06
6817.06
12768.6
6180.77
-1492.46
3251.75
8505.35
1125.11
1621.79
-481.646
355.667
-1173.13
1542.71
370.884
2167.47
155.703
552.731
4831.52
6641.1
5987.65
-1485.75
-502.971
-863.219
-1056.16
2099.71
1561.9
1816.14
1990.52
1386.22
1385.42
978.346
2939.7
11205.9
5857.56
-587.702
1152.11
516.891
2011.57
130.509
555
792.631
1400.88
-1687.34
-454.716
879.075
-1662.27
-693.576
4358.59
5968.06
1864.14
1451.71
2265.24
61.2989
2219.06
4398.05
307.223
20.7625
-589.625
-1123.87
912.663
680.666
-342.881
-750.4
510.277
459.142
3840.64
7205.71
585.722
-2060.43
-1632.94
1213.2
-272.387
388.519
1500.77
664.941
1493.23
1161.14
4428.47
797.708
2324.9
2972.54
3772.82
-819.903
739.332
-418.298
-1755.28
1317.57
808.078
9766.1
3285.17
3555.92
852.892
5434.47
15724.3
14953
12631.2
-1765.53
1117.33
5428.37
8746.17
4602.28
470.962
-1776.39
-79.0664
39.1494
-96.9214
-679.374
-493.989
191.012
2167.55
926.956
-32.2417
-129.291
6432.94
519.088
314.263
527.046
-1553.22
4384.21
4516.7
887.899
72.8313
201.594
-394.561
2705.22
-654.765
-1.07641
2146.92
8564.16
2093.47
-289.603
490.54
1107.52
2067.62
784.1
-704.542
-5894.67
-829.673
-716.44
2099.68
3800.79
894.844
-421.151
1513.99
-1654.02
-891.393
-239.432
1594.64
1255.24
6409.91
1869.05
79.1598
292.472
550.447
197.948
-24.1492
-703.726
7339.71
1846.18
622.362
5263.44
383.366
4456.61
2339.31
3207.4
1498.67
2248.22
4286.03
9983.46
14847.3
15568.6
6562.35
2490.89
3554.43
-116.12
-255.464
3403.03
-438.616
2134.09
-296.597
-642.294
135.964
-666.134
2747.54
-1783.76
3503.93
2056.89
3309.09
4595.74
4111.13
5268.83
8994.31
13650.3
7623.84
9499.19
4360.43
187.794
-666.966
895.715
676.297
585.544
2099.65
-1041.12
1969.15
-1049.33
1631.28
254.024
8501.74
11367.1
9218.72
4808.82
2316.79
4447.98
3046.92
2228.62
-220.79
2251.36
2872.94
740.287
-1560.26
-1130.67
398.268
515.6
422.645
-5.26307
-384.659
1326.82
4054.4
883.279
1360.23
-616.889
568.1
-668.409
1468.62
-1002.65
1283.5
1338.99
-5043.61
2041.62
5451.12
1334.15
3350.3
60.8474
-1512.49
-467.136
2496.02
811.51
5432.56
-3507.02
610.414
2020.54
3784.06
234.401
-1259.35
-807.052
162.4
3126.21
10665.3
4234.66
1991.9
-2105.6
-225.263
-96.274
-1162.67
-422.59
-704.089
839.743
-738.115
-2066.33
-858.107
5240.72
1848.7
1369.89
-2462.08
-605.456
-508.863
1220.43
75.7804
1114.15
3228.28
-1603.19
6882.89
3652.27
-1067.58
-489.321
1805
614.156
-1086.88
-526.153
-479.207
-790.997
1758.64
4062.31
3023.93
908.983
3876.72
2729.48
1513.16
4043.87
1720.78
285.337
900.021
1219.87
1834.22
-1512.7
1658.42
-403.169
-52.1971
482.854
1261.64
2033.2
3186.61
3397.81
5636.91
3843.67
4439.29
-67.0677
730.285
8403.56
1368.39
-3.68647
970.42
640.787
2785.1
2036.46
3221.13
826.72
891.549
-1538.02
9445.58
8973.21
367.488
-351.212
1567.76
4036.56
-1536.81
-1.69533
-1881.49
425.187
-126.367
-1276.59
-225.386
22.9176
-1488.1
4648.87
-749.094
871.641
835.232
508.576
1893.84
4498.36
454.637
1448.23
7617.34
1274.02
1777.05
-487.225
-323.936
-137.089
6948.55
7205.86
-4606.23
1029.07
1026.73
309.183
-604.535
1183.03
590.129
-366.731
990.852
7718.79
1137.23
848.221
-818.249
3045.86
6189.18
21149.2
1081.78
1509.19
-386.305
775.57
-1087.12
-975.615
-526.144
1702.55
-723.906
-1448.75
-1456.8
-500.428
-182.187
13367.6
3026.3
2261.91
-2240.01
-771.994
-658.95
-214.672
15.7806
-394.665
1491.54
669.002
295.513
1363.29
4384.16
4986.42
6220.06
3176.32
248.647
3613.83
3221.06
-579.68
115.706
590.384
1453.12
-1847.51
1858.27
301.141
-363.08
1576.25
-1115.37
1601.31
378.82
885.675
-399.303
501.562
646.52
7617
7914.13
10613.4
7889.88
7669.69
1353.64
3530.48
1558.14
890.525
-367.525
2221.64
3711.24
2581.54
4122.29
-378.819
-1729.32
2751.95
3839.11
11945.8
2383.6
486.739
8557.55
7692.57
2708.78
1516.07
-1125.55
-718.422
-114.688
2789.96
2763.76
-220.97
909.463
-467.315
1207.77
1275.2
3593.97
4037.09
7681.75
5342.3
6096.37
3293.93
603.57
1375.26
1923.98
2112.38
38.286
5158.61
3213.83
2394.96
1673.18
1807.71
1738.53
-672.857
4740.64
2589.82
2614.9
3683.09
3117.55
9124.34
4621.77
1334.35
379.275
-679.03
701.224
59.3808
-331.399
-221.603
-1915.75
-1279.79
1548.92
4045.98
4441.31
7389.38
4327.81
466.217
1926.33
8954.47
9104.89
15547.2
2301.24
5881.56
13469.5
2083.12
455.104
2040.06
2365.13
3410.04
8383.07
7085.23
3414.81
5724.34
21941
12026
1406.1
129.373
6641.37
66.9773
2157.56
355.054
-474.303
-1203.53
3173.71
-493.315
-834.735
266.884
6035.82
824.819
6817.46
7044.42
1627.79
1907.85
-3106
770.459
1694.14
1614.93
747.739
1942.22
5956.44
7975.86
16172.8
13673.5
-614.278
-1315.36
2569.11
2853.26
-439.612
3716.92
-159.975
865.258
1497.79
3249.88
2246.89
1574.87
97.8866
4426.03
1961.61
-310.192
1.05275
523.813
5228.91
937.751
1768.59
265.683
2571.88
2915.45
7283.41
1759.09
-664.271
-162.296
3685.46
568.689
-353.536
6190.46
-394.937
2191.28
5269.98
-329.688
-1674.6
-431.554
-999.011
870.538
929.064
-261.21
6913.55
-675.819
3665.78
2763.91
5140.53
4276.32
-1038.81
360.447
-1770.14
-30.8131
-189.103
-1018.77
1561.7
-980.819
-25.7124
1.96617
-1942.4
1034.92
3623.13
1855.93
1138.1
-593.435
11.9905
323.037
-831.247
1591.83
-1235.31
446.588
1867.75
-29.3756
1016.83
4166.06
-1941.27
-308.055
-299.114
13432
1987.14
-242.119
3150.03
-85.6783
517.129
-618.646
-551.051
-1057.37
-959.347
-700.247
1525.05
2440.1
586.767
2088.2
5286.05
10152.5
14638.4
2214.34
257.881
-172.188
3164.55
366.651
-2705.56
71.3417
1689.7
-1171.18
6403.46
9434.68
2381.52
-331.963
2696.19
334.505
964.117
-251.225
1164.39
175.917
541.488
845.844
-676.308
1236.36
-2772.84
-284.418
-1900.32
-692.43
827.691
3788.96
675.976
2327.23
1749.14
-662.633
-146.698
-2.16632
3715.48
2107.72
1022.19
-150.967
354.909
491.412
784.509
2119.79
-1472.77
3347.21
8318.22
1558.83
1735.62
642.735
-94.1878
3209.45
3127.43
-1290.87
-3264.03
1313.81
-2318.63
-570.528
-1694.04
2243.12
1135.94
3058.22
1324.28
726.39
246.837
-2078.81
-512.911
1206.32
-1425.11
1296.71
-51.8183
5757.78
2166.8
-318.391
1112.92
4023.84
230.403
-271.493
1009.93
432.817
-3070.37
2391.02
-4494.55
-2038.36
602.104
1994.4
2167.54
3260.06
6596.75
2775.55
6502.57
5228.64
-640.163
-934.474
-130.865
1130.85
396.248
-311.31
1375.86
-865.408
7288.48
971.728
686.591
1597.4
23.9595
1798.19
425.666
-1829.8
3438.54
8053.57
11121.9
5835.4
6480.81
5040.51
8640.47
931.851
3116.31
7095.87
6757.26
4219.13
10448.1
2099.16
870.453
2122.17
3415.16
7123.62
5024.18
5530.67
-1131.73
121.589
866.017
3431.17
2.04864
2369.16
-379.402
2521.49
2399.89
6734.99
2863.77
-97.3041
1542.39
39.9727
212.911
836.566
654.56
6628.25
2568.5
-63.7882
-449.985
81.8298
6072.71
564.412
87.2545
-1538.52
618.425
672.33
3697.61
1818.82
861.247
-238.486
369.221
835.883
4971.51
4929.97
3150.7
4735.44
3152.15
2401.17
4841.2
3979.04
7876.33
-573.829
-777.431
1095.07
1434.49
3388.97
234.405
1698.89
3633.84
-433.551
-1619.85
-121.221
-1869.1
-2139.7
-3717.63
-401.246
1373.58
6025.97
502.501
15.1983
1804.7
130.11
-36.8553
4712.14
1485.81
887.469
1081.77
412.223
2756.21
1279.39
122.632
3156.6
4063.86
4345.06
-326.495
-556.249
5874.37
5030.34
-979.104
452.653
1118.8
-65.5106
7712.93
-643.778
798.643
1195.58
3856.89
-2179.87
-394.425
-879.465
572.052
-297.07
1683.8
3921.95
6635.42
1247.92
-3038.68
-204.915
-593.202
26.2473
175.4
2152.28
-381.536
505.331
2061.51
2808.93
12284.3
4886.47
3289.09
13663.2
14465.9
3050.54
14963.4
4804.11
-313.781
1218.06
-37.5594
-637.254
-397.401
726.152
-108.396
1384.22
-2405.97
976.158
-206.944
1581.11
-39.1726
2883.04
4191.75
2489.45
-173.629
-1267.39
1580.44
4661.18
9707.96
5472.75
13461.6
5689.93
-1032.54
-2315.72
2156.11
1906.68
-869.774
-469.824
670.782
887.335
4315.77
16159.1
10902.2
4707.9
2810.06
-1076.47
316.63
-1155.68
3535.52
581.36
1025.81
604.808
3126.44
163.966
-1672.29
5067.74
4392.55
548.864
1111.56
184.809
-1085.48
-921.49
369.738
1348.34
3151.28
1379.3
4801.77
-1095.21
698.673
-509.219
-1508.52
1173.98
1129.08
1223.87
315.859
1505.18
2383.62
108.994
720.684
1007.82
235.759
3784.59
8195.59
1333.63
-2043.17
6822.24
1743.15
-1231.72
-1503.31
1399.34
2053.1
7109.92
4180.78
-898.086
204.131
707.34
1127.01
877.108
845.737
2205.77
-16.565
-854.865
-3409.93
-430.016
-1390.95
-1115.34
4882.37
2012.98
1335.19
-1118.23
-36.5646
3212.51
3253.5
8284.69
5325.72
4522.58
2455.28
6888.01
10068.3
8418.57
4543.53
2850.46
2250.91
-1783.75
1093.79
3788.8
2187.53
7086.17
-1214.59
1879.72
-2112.4
-1371.95
738.449
585.417
-558.93
2437.11
2399.41
935.996
1722.68
126.267
233.894
1050.45
-1497.81
-1433.56
2144.41
499.886
-657.094
-755.657
-742.773
-1976
-2530.21
-185.64
2143.29
954.333
415.784
-1026.73
-1478.02
1938.23
5522.55
1287.17
3643.58
7197.06
-239.173
-889.951
5152.7
1372.5
3327.42
-529.272
-1852.75
1296.68
458.359
-1130.7
-427.923
1304.67
6274.22
1222.38
1940.59
-1393.13
1709.76
2597.45
1751.75
-2053.97
525.932
-1484.18
1084.33
-321.258
3537.01
1639.84
538.798
-1472.83
-133.198
-380.94
2698.49
5879.73
-1635.69
-72.2872
2393.21
2431.31
5106.89
2448.46
-1319.62
-309.096
4178.35
6218.64
11074.2
-1127.48
146.59
-3391.3
-1020.93
966.598
178.082
299.612
684.126
-978.127
2303.4
658.35
3577.77
1392.32
138.242
-158.805
2185.18
-872.044
280.566
2610.46
1292.7
42.384
1364.3
98.8379
1484.26
-70.8871
-1061.56
919.242
-752.485
-1641.56
-725.541
-2220.95
-1362.36
1517.13
2098.17
1002.5
-1425.62
-835.143
-431.074
2564.2
816.676
-1763.88
-396.137
672.221
-1732.58
1194.51
2376.91
963.045
1044.27
618.83
498.113
-781.46
1464.7
1687.37
-159.284
725.585
9076.17
6347.15
216.972
-225.522
-863.929
-521.761
721.442
-789.15
1848.01
3354.87
289.649
533.917
4116.58
223.567
296.944
189.578
-2189.65
1754.37
193.479
-231.988
885.27
529.17
480.003
-1169.25
-318.281
1025.88
19.8101
-303.645
-281.056
-737.245
303.708
380.424
-173.905
-179.133
2384.6
5791.95
5480.41
534.829
3827.74
1392.23
4216.98
-436.087
2642.64
249.996
82.1921
-433.229
-1125.06
-238.504
6394.18
-1872.54
39.5459
1340.7
2828.08
801.578
-1290.5
7279.35
2200.04
1303.65
1191.3
-1687.46
1489.75
2105.46
1064.53
3497.05
3883.76
-2783.83
-927.975
2826.55
-532.271
-13.3152
3458.58
-561.71
-634.582
-550.443
-411.025
-344.677
3979.28
2074.46
-309.364
666.327
397.995
2635.16
2756.97
-1968.71
-553.641
-252.803
-656.526
178.527
6116.21
6308.22
4726.99
6242.85
1343.9
3212.26
3618.93
6427.87
5704.81
5280.04
1620.18
683.422
-181.491
2530.02
1125.77
965.144
5068.38
-8139.42
10.8371
621.185
-1550.61
-813.928
1380.27
-698.026
4134.54
1777.04
1965.69
-437.57
6743.68
148.208
3139.42
138.694
-1818.15
-1432.67
359.184
964.952
332.846
-870.384
4146.25
866.647
-383.154
2928.39
2859.26
4644.82
1956.07
811.269
5384.69
5403.25
6953.11
171.322
686.906
540.748
545.61
-7.89206
1747.78
-563.425
-118.174
1406.83
-558.277
216.273
-65.0281
1094.51
2906.61
10164.9
4346.04
3403.27
2208.92
307.177
-760.785
-1021.7
1.63745
503.822
7520.68
-2567.75
-410.339
999.137
620.798
-793.921
-3540.86
148.044
-2081.82
-314.308
-606.363
1864.35
-1538.24
2677.65
892.472
-938.004
3194.61
1500.48
3924.3
1619.19
394.185
-785.842
98.8101
2931.04
-18.6351
3833.4
-2844.57
2004.32
-1096.18
4.68284
4744.96
7176.42
1109.79
3533.47
495.533
1602.13
-2094.71
757.339
-888.234
481.114
1487.75
-485.367
2457.66
4299.74
-1539.39
74.4869
-25.2472
-290.44
655.693
4222.66
-998.371
1581.56
807.489
149.914
4391.27
-964.14
1728.12
3887.25
1367.1
-253.746
235.809
2711.36
1799.64
448.099
541.307
-3548.61
-707.004
1415.67
1007.4
-561.988
84.2503
3379.2
-988.963
122.224
308.449
-825.078
1405.19
4286.17
-1453.56
2251.43
1647.09
2087.58
2655.93
1289.33
-457.01
-1356.86
529.578
2806.13
-19.9385
-2406.96
-46.415
-1090.65
3243.69
263.977
1747.39
4477.48
1393.16
426.918
3310.48
1063.2
1808.27
-1246.91
-516.601
-527.015
-227.013
671.084
-299.763
113.648
-1546.61
-940.848
876.872
1024.22
-2193.85
254.642
-1690.77
-715.932
-82.5493
1643.21
1446.8
393.844
2637
5589.4
2221.89
-2880.59
2191.33
606.029
-377.711
-692.088
-766.372
-1743.98
1036.75
1050.21
-1935.28
3009.81
166.855
-1684.78
1090.05
-132.587
2385.56
-823.305
-221.741
-171.353
257.945
1256.52
-68.1362
-1401.47
-392.269
1567.3
-410.434
1463.19
1704.71
-2785.43
-1125.74
-742.556
-444.175
430.24
6939.41
9997.41
4759.25
210.962
807.057
-639.931
1640.36
945.291
3858.97
-391.496
544.517
-347.98
1408.01
-939.851
-313.754
574.507
1606.85
-163.344
618.292
496.375
-1563.44
-637.424
1486.98
1143.5
1518.67
3022.19
187.086
-769.083
-227.056
-1047
1444.63
1008.25
2321.56
3332.63
3527.24
605.376
3038.13
4022.2
1646.76
-1253.85
2537.2
-1093.65
-1182.26
-875.209
-640.662
2759.25
7486.56
201.517
1471.45
1642.95
661.739
682.686
1842.2
463.879
117.587
255.231
-579.108
-398.043
-960.475
-161.864
430.045
8.10152
2970.44
1667.74
2276.02
1154.07
-2847.77
597.604
398.664
1128.75
-1245.85
960.41
1008.43
-258.286
-1391.92
3527.56
5338.72
-1127.74
-1838.89
1924.89
-334.11
-1948.74
609.217
-1641.6
605.626
1250.37
4499.02
1755.5
3413.23
8511.98
1612.35
13914.3
2794.82
1308.21
4197.8
2954.44
5623.55
4312.83
3189.48
3709.73
1201.92
2333.08
624.314
203.54
-335.047
-2150.05
4007.23
1015.32
-23.0434
245.806
3228.57
2868.18
9114.44
-2344.98
1265.42
4213.37
-1324.19
831.657
1373.31
-835.142
150.587
728.787
-84.5941
-261.073
2532.51
805.039
2102.97
4034.16
3577.23
4556.25
-3348.42
-195.24
5067.86
990.728
552.088
-909.267
309.441
1636
-334.276
889.374
-962.03
-2870.18
1491.26
157.331
1823.17
-1170.84
1236.36
3145.66
-141.345
952.329
1184.09
590.401
556.744
2241.24
2264.43
2249.16
-386.968
472.3
1683.54
701.253
-436.959
9455.68
6643.3
4268.14
3300.81
4195.52
-502.121
229.164
991.572
5142.54
252.642
613.137
1348.65
692.157
3076.32
2353.72
1332.91
2575.75
424.403
2232.53
1037.9
2413.36
8428.35
996.985
10062.5
3278.51
1764.73
-446.765
564.225
58.0466
-3190.56
-1823.32
3598.99
-45.2129
-702.206
497.833
918.748
1176.89
234.068
861.053
2597.05
3887.05
5834.1
11751.5
6025.36
7156.95
7745.33
8837.79
5529.06
16959.8
4315.55
49.9653
4359.97
115.86
-1099.14
1251.33
3184.46
1680.97
-178.235
1469.27
3111.92
406.855
-274.252
72.6131
536.151
-866.493
1114.83
-189.76
880.537
6383.39
4113.31
6473.74
10284.9
4715.45
7444.46
1419.45
-1953.95
-1211.75
3874.09
1232.87
590.936
1027.29
1661.97
1463.4
407.946
693.071
4704.54
4231.2
2464.93
21.0038
-20.5967
-754.09
478.778
502.454
1184.62
97.5304
-837.225
107.41
466.563
2162.37
2078.19
3355.08
-1501.49
2668.91
259.943
-2743.81
564.634
-1613.84
136.75
496.466
3299.46
3159.52
3147.71
1377.07
5203.09
1287.84
3119.65
2837.15
5089.07
2143.2
-88.0783
-1468.41
1256.14
218.368
2126.64
11266.8
8279.01
5845.64
7203.13
7745.83
1590.39
522.767
157.804
797.769
570.779
3883.56
564.302
420.792
2018.36
4212.16
-495.276
90.0173
-186.012
1381.82
5156.09
-140.198
12045.9
2846.51
4563.82
4305.19
5706.16
2851.2
866.083
3108.6
2446.54
371.901
-425.443
7715.87
17008.8
13048.7
8481.4
586.123
-765.22
795.701
769.248
-86.4728
489.642
-179.473
-21.2026
1643.19
627.963
-386.862
-28.1605
3452.71
5536.65
80.2535
1062.95
-2133.78
7058.4
6556.12
6161.15
16709
2883.19
-1336.89
-691.567
-1752.76
-177.385
-663.006
395.681
3687.66
3488.25
1650.28
1206.42
-800.152
611.038
3440.14
-735.862
-2192.24
4150.6
-366.993
-27.7232
719.459
599.443
-523.928
2933.81
5866.2
556.491
4129.4
1840.26
901.527
1612.97
-201.307
5472.72
1672.18
2034.73
909.431
1213.98
1160.28
2038.39
1829.76
-2371.02
2135.28
-359.379
1883.45
2787.48
5228
10263.6
17121.6
17386.7
28204.7
11541.9
1274.17
-142.563
4524.72
2048.46
3627.02
763.522
6745.96
2597.45
-1080.45
123.249
1610.74
1928.09
2140.39
1335.69
727.057
-868.921
3556.45
49.5002
807.13
-1167.07
4968.41
5891.93
-828.148
2032.82
-413.21
-2039.77
-1770.34
4.9917
-1810.15
1494.27
29.2952
-382.806
-1785.37
-454.796
9155.58
-1074.44
895.617
542.64
12424
2980.1
31.8586
101.411
-431.477
1255.3
2571.73
2920.35
3588.48
1066.82
4318.95
-2950.83
-2560.12
795.948
35.528
1619.62
7084.39
-504.71
4398.85
-126.818
-262.985
943.536
2469.01
-710.355
-675.108
2181.84
3260.94
1105.29
3433.53
7928.47
2058.96
2980.15
4090.29
803.666
-3246.75
710.296
295.918
2016.02
6876.47
8468.9
3180.81
3998.83
8653.37
2599.05
-1564.36
-46.6767
-257.141
902.736
2473.84
3843.08
-1670.29
839.523
-1544.5
2464.52
1999.72
2212.34
1803.36
479.793
-604.665
2399.73
-388.505
263.932
834.767
-685.333
212.064
308.506
3777.64
-1940.76
436.888
518.526
1083.79
301.78
-356.64
-269.058
897.69
11992.3
3994.92
829.531
1626.71
-694.793
-383.397
653.604
789.922
140.619
1844.29
-558.258
-418.632
6425.55
2777.66
4946.04
689.523
2553.37
-1797.69
-749.472
-483.544
-858.919
121.956
2053.79
7594.66
2427.88
3275.24
107.099
-545.512
122.444
1551.33
1366.55
253.119
911.353
1697.96
1314.9
-244.846
193.127
3387.16
-23.0281
79.7837
3250.88
2048.44
1441.42
-1408.27
880.133
361.217
-466.947
-63.1881
-1364.8
769.884
-1503.11
-1284.75
-1215.44
1717.85
410.737
1997.67
5410.53
-2511.18
3429.37
10858.5
3855.64
-96.8941
-1754.65
1063.24
1042.55
720.123
4954.65
571.491
405.066
-927.789
104.513
54.8604
-1151.6
0.354782
828.008
1182.44
-610.934
2808.27
2978.02
-319.099
-240.514
1052.18
2608.14
3393.57
9944.94
2257.72
661.12
5319.13
995.416
1553.39
-1258.43
1611.44
4704.13
5109.07
902.005
1115.41
-561.821
-1000.83
2033
258.299
-1991.41
640.826
-2657.44
53.8513
19.0952
9517.4
7127.67
1015.96
1939.95
2124.49
1162.64
623.556
7462.27
729.985
840.925
592.709
2811.03
-1143.85
2365.16
-1414.88
356.712
-187.027
937.169
1812.92
6496.69
1480.23
8488.13
2944.4
558.209
307.318
2368.72
4114.91
-179.36
-96.5691
141.207
-1168.08
-2917.81
3397.51
8101.22
2034.02
8417.24
3968.46
6892.14
-732.556
-7.35144
-451.489
-2055.64
819.055
1720.87
1403.64
196.968
3173.82
-2097.93
-2239.09
-263.603
-43.2583
1608.35
1564.87
716.556
4935.52
3042.42
-380.682
952.461
4789.36
6136.28
3340.91
-838.487
481.685
1017.82
-127.396
-580.479
-1.33282
1416.48
472.019
82.5344
-760.271
2453.94
-2400.63
11009.9
777.635
3605.73
1250.95
147.627
-723.573
-399.307
3818.52
3781.76
738.183
2938.44
-64.6232
-1086.49
-1114.83
-682.767
-685.22
-209.594
500.854
1140.7
951.566
779.275
8140.58
4280.97
-718.603
-1366.1
946.256
7845.64
3213.48
121.563
641.931
-1266.11
3686.55
1227.3
360.237
527.117
-1147.88
-330.471
283.733
-3623.8
2487.23
1312.85
931.839
1253.69
-1676.69
509.508
1262.63
-519.268
-840.9
850.613
131.748
1747.45
-171.951
1899.79
2364.08
1685.29
1138.31
-2842.27
817.89
-425.867
1973.92
1124.94
1314.83
5026.21
-1850.54
-178.117
-963.716
-3378.5
3107.58
380.616
-453.887
333.999
579.705
-827.818
981.796
-609.056
9625.47
1824.1
62.7107
311.611
1010.29
3945.33
1565.65
2137.46
3158.7
-294.802
-652.336
-180.861
259.432
2516.45
339.491
-1085.97
85.5193
403.229
238.287
420.593
-1962.35
548.81
7247.11
5539.86
241.862
549.016
-1100.82
1154.86
1355.16
-764.774
-1068.45
-43.1158
-2710.07
-83.8208
-2293.14
600.359
1813.75
5388.98
3213.07
3549.68
1314.39
-736.445
-365.234
3222.97
2405.32
9617.89
13340
8731.01
1122.23
-219.085
388.089
475.192
1127.27
-2707.51
-1207.18
946.902
373.42
-443.771
-3096.17
-1055.96
3339.96
76.8839
-62.5791
-1064.42
-232.977
2320.63
4228.63
7919.92
9435.21
4907.89
6586.28
-753.673
1417.94
3301.19
3561.77
-198.023
-2157.13
649.93
-530.185
735.806
2411.2
897.594
1347.07
-654.49
-48.77
4158.71
770.805
-1162
2483.48
-489.644
279.311
5772.02
2495.1
-1742.67
1388.29
-452.979
-182.297
-65.6517
1307.45
2399.48
-234.805
-447.481
-2127.17
4657.79
1476.95
439.054
4484.34
6526.33
5641.17
5025.54
-1436.38
616.09
844.638
-1704.03
-2229.12
-1779.27
29.8088
470.36
-2798.28
1069.18
590.552
-7.2353
201.005
651.041
484.137
2178.57
1182.83
606.817
314.216
-512.797
-190.803
-160.252
1731.06
397.56
767.513
3044.72
1457.38
613.805
-2019.57
986.101
3455.95
1704.45
-211.616
-324.108
227.781
2985.42
-517.418
4980.64
2713.8
1834.4
3613.08
-1524.38
299.419
1942.66
415.427
-63.6071
475.85
102.163
-887.955
5502.59
1551.54
758.639
1837.93
139.267
-1545.56
-1685.09
798.578
499.254
-1363.42
-239.199
-1492.08
7629.93
6011.64
-39.1117
909.203
1046.21
379.033
-608.45
2067.57
1191.24
748.385
3620.81
528.028
1524.3
3062.72
373.776
476.041
-1209.25
86.6538
389.365
53.535
119.585
2690.99
1530.89
2578.89
-616.457
-516.126
83.6238
1282.01
-776.868
-16.6656
1677.77
4806.13
7442.38
5404.96
5268.34
5833.67
8321.52
2258.2
2912.66
1535.61
4082.59
3796.89
5838.03
4044.53
1843.91
-398.478
3936.13
2280.28
315.078
-684.293
11759.7
15308.4
6458.28
-1260.56
-233.231
237.315
6772.96
10874.9
8181.66
1193.58
1146.1
2229.51
-1435.38
1439.61
1566.84
-1492.85
2393.59
2828.12
3608.09
209.912
-8.10224
3127.3
2134.06
963.348
-4592.16
376.218
-531.911
3084.51
2267.39
6119.69
943.801
1629.45
-234.55
858.378
-177.648
-585.091
-10.133
-1872.59
141.035
1145.52
673.005
3609.12
2597.44
2179.35
-2971.11
527.609
6288.79
8717
2489.49
1335.24
3258.53
3473.75
4989.98
3690.53
-368.39
2436.29
2718.52
253.533
1539.91
7658.48
4318.41
1131.79
1360.54
-492.15
-621.614
827.57
-1663.83
152.081
-1202
2437.95
10000
-1459.4
653.122
-725.498
742.413
2231.93
-138.401
-2370.52
2628.44
48.194
1603.42
57.964
2375.53
2677.47
-348.851
-603.978
-1604.26
-422.916
3094.14
905.847
-313.568
6272.96
10710.4
10873.7
2765.6
2488.24
-1749.05
-1777.45
60.0529
2211.78
-258.226
731.807
-888.89
-68.8706
-164.401
9012.34
2104.74
1789.82
1441.03
5393.79
3728.82
2906.37
7548.13
4900.31
11687.3
6131.61
2003.03
3928.44
2342.86
-384.304
1957.99
5413.52
5840.73
2617.2
3032.53
3290.41
601.288
3.36
-1211.21
2247.07
1229.31
1607.69
-68.2772
-123.634
3564.04
4805.42
-1419.3
384.591
31.4647
796.253
3874.09
1603.81
-837.367
2067.83
-199.577
-1360.88
812.527
2816.86
-217.813
-925.353
6865.73
40.4135
1256.22
-25.7907
-81.1802
-10.3811
3116.6
-41.1903
150.289
2310.03
2643.8
-120.818
671.106
1182.05
4059.76
1462.23
-2836.01
103.588
-133.538
-1489.73
1353.29
1743.48
-1303.03
499.295
-380.921
-1465.88
2028.02
-1457.61
-367.092
1199.43
2627.65
2810.48
5168.49
1396.38
1519.48
-25.6276
608.748
1601.73
-265.333
-659.666
-1167.43
-82.3033
-1177.67
126.792
3999.75
13546
-1014.56
-55.717
1002.59
2599.33
621.112
1877.09
1461.92
-739.255
45.6829
963.982
1780.07
1056.66
4061.52
269.97
307.045
1167.71
5553.55
967.243
-130.603
2834.19
1753.18
-506.68
403.641
475.731
1062.64
2960.47
-598.55
-1582.1
828.955
2529.12
5235.08
5925.98
9606.23
-2124.32
-1246.95
-504.542
1051.6
3546.55
3788.76
-206.022
112.566
205.142
-2927.42
3829.24
1121.03
-1777.14
-27.0133
2795.48
159.752
1342.69
1018.37
-2565.35
688.496
4300.32
1281.3
2719.44
-703.95
4886.7
10802.9
4809.75
631.706
-865.531
4936.45
1131.53
108.451
-554.687
388.683
2231.05
2030.12
7609.07
2569.86
499.075
-55.3381
-157.8
1112.15
-915.043
-622.748
-10.092
4348.64
1079.97
164.964
1421.52
594.987
1281.7
-2142.15
642.154
2203.69
-732.922
10098.2
305.633
915.592
1868.62
1183.19
-1257.89
1864
1243.34
-2924.17
-67.5161
-1063.2
2864.14
371.163
2329.32
10600.3
3809.31
934.277
-1002.94
-156.397
-135.707
1376.89
-451.415
-879.007
712.964
2728.29
790.419
-619.608
818.592
1210.99
1417.66
3039.93
1215.15
-1193.67
5948.26
1973.94
1024.06
-887.569
6953.7
9339.8
56.1164
1160.68
1306.87
5981.87
825.093
-984.134
517.795
1866.6
-1243.41
1548.56
1261.1
-1241.5
-1325.47
1517.26
-256.058
-504.484
2033.9
-1014.87
-83.3147
1465.12
978.084
-292.329
-1880.98
-2196.72
-2173.36
-155.087
282.49
2659.87
-829.699
-572.489
3773.19
1640.05
2137.75
969.115
3673.11
4862.88
-1724.26
-376.681
-441.6
1352.23
-339.713
1890.85
2144.01
3751.67
3838.35
410.614
-331.34
590.322
151.618
-2399.09
-213.79
5245.36
4133.81
214.083
1217.87
3573.3
3739.96
1516.99
1711.22
1034.85
71.8312
3386.69
1429.07
4746.73
3453.8
6819.48
5289.6
4473.07
1749.17
-2565.33
4792.38
1951.21
-1711.26
-3946.62
773.919
3994.26
3135.07
367.536
3484.45
7034.96
5989.68
3621.52
2832.45
8940.17
10151.6
5943.53
1696.64
-8.90515
-1254.01
-3609.52
152.707
6532.73
-348.889
1072.96
11116.1
2009.85
-21.7884
290.587
153.571
428.309
1542.27
-530.963
4959.48
8390.11
4448.78
-907.255
149.219
535.518
2762.68
2727.96
3292.93
2515.91
597.707
3699.7
2023.72
3887.65
5936
6661.53
1076.15
-1506.98
-1831.68
442.809
2187.53
8370.35
341.891
183.236
8.49473
-552.418
2430.53
3005.7
315.843
-1056.8
33.8346
902.188
-2399.12
136.147
722.092
-189.257
-770.171
580.458
7195.35
-2148.27
4165.41
3696.59
1258.12
7066.16
336.226
-450.272
1788.97
3259.88
614.607
1915.51
3715.92
-426.058
978.006
1817.77
-1725.46
1943.02
2164.07
2313.5
-1539.9
867.773
2379.58
4100.15
5884.61
7977.55
1786.02
-988.247
692.289
2566.5
169.231
679.441
-19.4731
-302.299
1314.45
-757.368
774.983
55.323
1329.32
988.789
-61.6843
2193.03
370.331
1379.61
-55.1614
-89.4587
806.445
-1431.82
-761.222
284.278
5143.66
925.782
-1079.67
-1038.65
305.745
1811.67
1848.55
6960.29
2924.83
-518.318
-74.3164
305.737
1500.74
-1874.56
1173.02
2434.54
3510.57
202.311
-393.855
-1001.59
-123.013
1438.87
2069.93
2557.16
-1609.93
3897.26
1273.44
2231.17
37.4472
-488.7
-942.455
84.9885
4802.42
1102.55
1566.48
-734.819
2102.44
2499.59
1150.7
-1281.37
-266.315
61.502
5641.14
66.732
1625.61
3858.77
4475.89
4299.46
4608.43
1787.65
-37.4273
-1164.52
891.658
-143.658
-745.94
342.793
2552.43
5.34283
115.78
411.743
2449.27
5557.29
8171.85
2729.82
1611.45
1040.6
-2938.15
1052.25
-1909.1
886.887
-109.956
882.479
16.1976
-2765.19
1135.05
5582.9
4279.32
8573.15
2346.86
-52.5258
-1090.14
-1606.96
1156.21
-329.958
602.528
3355.55
567.778
-164.774
1452.81
1728.78
5279.07
626.867
2105.76
3762.89
475.049
-2661.02
770.081
-272.296
4343.46
8591.42
8615.33
1029.96
-199.279
-223.448
-2709.48
-718.138
-41.6429
-121.845
2631.95
3462.23
1036.34
5912.6
8604.55
4376.21
2775.25
-654.751
511.888
744.977
3914.91
-142.188
680.84
557.694
-834.594
835.554
3205.01
-3246.78
-1059.67
4555.23
27.9332
-433.65
-1271.63
-1637.2
510.098
1542.84
4418.87
-953.304
361.165
4586.46
-120.915
-3289.16
-2419.77
2002.24
-577.962
1764.93
-320.129
2849.28
4794.38
-1425.45
5356.69
4481.26
2671.08
-198.624
2970.93
2422.34
-178.267
1289.04
219.332
190.929
-1343.17
15.9883
1626.59
-1026.11
-248.54
-168.72
2705.75
924.435
1280.3
-281.478
14276.5
12030.6
1156.13
620.268
2100.63
1277.72
1438
1599.05
2541.33
1123.44
4485.97
1481.94
193.045
462.188
-569.326
-420.265
394.118
1228.56
53.0836
-1614.8
-736.082
2671.35
6499.25
1215.1
280.517
2036.83
5125.67
2787.24
6516.57
8827.5
3900.85
-215.172
1050.42
489.849
171.949
6664.27
7700.31
806.002
1799.66
2946.76
3646.52
-376.514
302.384
536.127
-1961.45
525.715
225.231
454.039
3003.72
3266.81
1924.29
1001.22
3312.42
864.167
395.754
1102.49
2505.33
-1357.78
-1131.88
-961.609
1000.49
7057.47
195.421
1978.27
5416.62
1739.59
6427.38
494.864
-1590.3
875.623
1924.96
155.57
3908.95
-359.727
-2458.94
4190.94
2310.97
-1862.99
1487.62
2346.76
1094.22
4099.7
2653.38
3268.51
2161.15
-1028.48
-1870.88
528.198
-1678.37
-395.657
209.428
3034.9
4886.21
2800.82
1968.67
-604.642
641.536
882.337
3296.54
5374.09
-545.588
-1999.38
1319.47
1691.59
5237.26
674.812
1370.19
-1837.77
-813.647
-292.771
524.33
-595.519
1256.91
6266.6
2705.73
981.097
-59.8598
4876.88
490.791
2242.3
5176.17
8314.64
12941.4
164.676
907.55
-228.551
4844.45
7858.79
8673.24
7564
-67.5416
-1998.8
1283.15
2090.4
32.3065
4078.09
1416.7
-1062.35
-245.816
386.557
72.8183
-1027.4
747.197
1466.9
4316.15
3699.87
3002.11
2116.62
3457.84
7421.18
12191.9
23219.7
10369.3
8707.85
-1528.18
432.636
-457.428
2462.6
764.909
3078.82
154.044
132.537
-437.647
898.621
1409.97
-709.608
1385.2
-749.491
-673.658
1197.15
-3035.98
1849.99
-1053.2
656.155
1786.13
1626.2
1242.32
-398.416
-1807.26
-452.191
1644.35
-1058.6
-754.258
135.343
410.046
-347.368
-1351.25
-1007.33
1682.58
2336.65
-1456.76
-244.316
-1148.33
-2831.72
4349.49
1432.61
-1729.99
-1822.79
758.793
4985.45
1204.63
2302.86
9462.98
6156.1
868.632
-1400.9
-1446.51
2123.71
165.717
620.786
4147.21
-3723.38
-766.381
-327.362
356.232
-2785.29
1573.97
953.797
-51.6507
3070.38
116.379
957.487
917.24
572.911
-3103.56
-361.21
-398.964
3460.4
1473.74
3003.06
680.306
2330.65
-1712.99
-390.706
-527.757
-297.708
635.464
-471.127
481.119
-78.0451
5031.34
2357.61
6320.06
2581.54
2407.83
963.398
6478.88
4126.07
299.885
4259.06
-162.958
-125.168
500.842
686.813
1848.06
126.348
1276.51
2362.63
-2292.45
-1182.04
307.224
-2106.43
393.754
-3798.83
-1033.38
567.461
204.122
2465.21
13129.1
2727.06
-454.404
636.816
5944.38
446.098
1218.84
-636.588
-934.278
1239.98
165.383
-1296.12
-797.231
996.05
-1342.84
4432.09
8527.49
5267.69
962.843
-640.03
-664.672
208.503
301.938
-784.576
2916.78
161.426
206.13
1948.93
3067.77
71.731
-5500.4
1753.36
6122.5
4177.66
2124.31
-4801.55
-369.16
1927.03
-562.73
-1638.52
6975.79
850.596
4997.74
1096.65
2020.16
-866.155
-320.017
-4759.44
-466.886
-419.555
2137.33
2735.84
8606.25
8140.39
-1785.35
-1193.95
1490.17
3339.11
1560.04
1515.21
-946.862
1660.82
-412.206
790.091
-369.208
188.862
2793.89
806.008
617.086
2781.26
11761.1
17576.9
4214.09
3591.3
3358.67
10252.5
7205.28
1783.46
1944.86
5420.45
7816.61
-647.388
162.122
1520.99
3006.66
3590.21
-492.464
668.267
2899.73
2057.31
815.14
702.227
-645.616
-807.526
-475.736
675.806
3271.26
690.42
-1232.86
-307.153
1364.62
-673.31
-2730.66
-1895.1
-3247.52
475.41
1573.4
4195.86
-1543.66
1788.06
-105.827
10111
8002.81
2464.43
1839.17
-481.93
6362.25
12927.5
1997.32
10620.5
7387.51
1313.58
-100.659
495.604
1323.24
879.222
-210.727
-1625.24
-3139.63
-57.3573
-640.046
-408.115
1134.37
-281.605
335.237
-2470.5
417.163
1949.04
5200.81
5663.73
-595.442
5026.39
2026.73
1226.01
5846.94
2481.18
2955.01
10.1781
-1554.53
1820.85
-620.483
-1167.45
-295.394
3125.22
2658.67
3762.68
5578.17
-2452.89
-1900.53
1911.17
2939.14
-30.7278
992.7
813.23
669.098
542.64
-1450.5
5545.11
5975.91
2184.45
3413.27
9277.28
5502.63
-565.307
783.077
1574.29
3265.77
1094.7
4373.08
4541.62
488.76
1655.98
2000.62
920.777
397.534
-1369.49
-235.691
3924.85
2061.72
-220.926
3363.66
-318.007
-1609.74
1637.61
719.128
5257.46
5156.88
5914.69
-321.71
1207.1
-1503.95
1193.33
3387.69
4183.25
5433.24
4700.48
3458.67
3022.38
4958.54
12149.3
8961.1
1372.01
-238.696
-636.63
-762.414
1489.85
661.938
576.037
-0.432967
2543.98
2019.8
2239.22
1441.27
1041.22
-1618.08
2375.6
-1281.33
3252.83
15412.2
3239.77
-577.127
3014.99
-417.878
-573.516
640.241
1000.76
58.6576
4143.59
2956.06
189.098
48.4433
2900.96
7605.3
7718.07
827.783
388.27
4462.61
4690.82
4410.33
-122.723
1435.07
563.061
-1223.96
-1564.97
2061.87
930.742
-240.333
-132.473
814.852
-664.748
313.665
1088.14
124.279
1132.98
195.918
763.346
573.765
770.013
210.454
299.07
909.252
2434.52
-2346.68
884.284
1766.19
568.015
2900.09
4938.78
12722
9029.68
183.872
-769.61
217.909
-449.001
1974.64
1411.97
2423.14
-2679.31
1972.28
491.584
-396.195
2769.18
1680.52
1020.84
98.5964
1564.05
2330.82
632.36
781.557
-679.519
-631.788
2059.26
9770.28
17304.4
7242.71
9928.41
174.795
2973.5
2234.14
1939.57
416.473
487.145
632.641
8636.08
2326.84
526.417
406.222
-129.878
782.837
1517.34
19.215
4800.85
7828.96
6990.12
2965.79
1995.38
-395.036
-1227.53
-53.7186
-701.031
-19.9369
4106.66
-915.378
-1189.48
-799.822
-2434.09
625.874
906.949
-948.871
-478.953
3994.69
3301.13
773.85
977.967
963.638
-1345.66
-461.698
1434.97
1227.35
-359.175
858.098
-2136.13
385.291
-972.368
362.617
897.349
-1844.77
1631.03
-1120.33
-1219.55
-1677.07
1975.17
-1010.42
1461.5
8653
2022.17
-1486.38
1010.57
2336.75
2219.62
8218.83
922.772
181.92
842.266
-752.609
2088.71
4414.76
4239.1
9219.76
789.032
4656.59
-1708.68
-867.651
832.249
484.02
167.433
2906.9
-657.741
1474.3
-978.459
115.99
-338.876
-515.053
3062.98
-243.613
3182.18
1840.29
1213.19
64.1421
5550.16
399.533
2822.12
186.516
1118.53
-1335.9
1630.42
635.095
-1152.39
1938.6
1312.37
2106.45
1249.03
836.236
-3217.85
544.684
549.779
676.527
2125.58
3448.27
5126.62
5681.86
1876.91
346.173
1103.35
1470.57
-346.711
-342.014
-3345.3
1339.37
-335.939
1909.11
1064.34
11991.8
5126.35
1629.91
1244.78
3801.74
630.289
721.952
-1403.85
2203.52
871.707
-906.225
71.6357
-392.667
1463.58
21.8399
862.478
688.729
155.591
565.807
-499.177
1488.38
931.654
11902.6
3379.95
4345.82
1538.24
6857.7
4359.4
3460.25
11948.5
-1027.34
1134.33
5370.24
5049.3
398.039
505.685
2572.22
423.265
-64.5048
1959.84
1798.97
1472.39
3977.75
8332.8
267.703
312.644
-2404.6
2312.74
-435.569
159.489
-2.65325
2291.54
754.224
-4332.51
316.157
55.969
461.951
-91.33
671.193
-1132.86
704.662
727.023
1100.75
7456.22
214.557
3336.91
1068.35
-947.856
576.088
-1232.34
1933.25
392.652
-2857.34
-319.451
-1394.76
245.541
457.261
3075.76
1012.46
2115.83
-1714.42
-1586.43
-2988.2
1917.29
1350.33
2779.33
2531.41
486.277
-22.2915
206.898
510.529
3309.1
2854.2
3278.48
183.635
3777.59
343.129
-2484.93
1478.79
301.826
-41.1991
2167.59
-1144.99
314.191
651.555
-797.66
6714.05
110.46
-470.169
-1933.42
-267.644
-1714.62
4071.69
249.604
-539.117
430.987
739.631
-740.867
-520.703
-1575.39
841.636
3077.87
-395.856
4397.76
1104.17
-970.742
-241.631
2299.64
10324.5
8430.71
3180.08
514.82
1887.03
1779.33
7211.4
3765.28
7976.83
7189.44
7987.13
4593.98
5371.13
-1243.62
40.9227
2961.91
1967.27
4019.49
5275.75
7488.98
1335.74
-1289.68
1333.23
946.123
-1315.79
2656.74
1490.31
-978.079
1632.14
12187.2
7.82947
4743.94
445.441
2260.42
5674.43
1031.21
2759.98
-3793.2
-67.9444
-866.131
-587.293
2746.86
188.774
-1980.95
167.043
5409.76
3893.01
964.05
1077.59
-724.66
-251.614
-243.118
3824.15
5627.45
1037.28
-151.4
-900.464
2128.18
994.387
-2290.28
-959.404
2523.95
3724.04
7005.14
6789.62
8286.02
7836.93
10141.9
1080.2
14690.1
10584.9
1866.55
523.034
-180.773
7122.99
3108.52
912.02
596.27
2047.75
438.309
-261.953
731.761
824.404
563.576
1798.18
-417.363
-1005.9
5545.83
5538.89
13854.5
10729.7
3039.7
8649.32
3937.26
5889.78
2777.45
5642.59
16656.8
7408.56
5561.71
2685.58
2867.37
7863.76
5347.44
2556.09
1201.66
3637.65
-1866.11
2843.73
1222.45
-2222.72
-172.707
114.602
-522.232
2576.01
-21.7709
-770.494
-610.547
-730.789
-2174.63
678.799
490.022
2578.82
875.823
-268.887
489.511
949.286
2640.24
-710.241
-1586.26
4146.45
534.836
-1417.47
1423.36
1628.29
1078.99
-1482.64
8528.51
3693.91
15537.7
3606.13
1026.25
1820.31
30.4411
-1334.67
161.613
-218.032
632.465
1121.67
2895.42
366.499
-715.505
1108.96
-2594.15
-123.636
7339.84
-1920.94
3280.16
8787.86
5392.03
4832.35
6158.4
4292.84
4600.06
6666.36
2994.26
-343.601
1789.7
-1143.31
531.141
-521.446
-784.34
877.133
1544.62
-2751.99
1391.77
993.577
-1027.01
-3108.73
957.438
114.407
-99.4574
546.356
2711.93
1063.31
2412.96
2574.85
2559.97
-733.958
1993.25
2539.42
6508.02
5284.03
1469.15
-1637.34
198.547
5920.21
2465.69
8999.15
4293.36
1712.3
121.217
-180.21
-526.688
4048.55
1232.09
721.12
1069.71
654.525
-343.893
1203.51
3075.94
1806.79
-813.78
643.986
-1660.28
-1276.14
1862.7
1064.65
6407.97
10637.2
13125.4
6439.05
-1195.84
-306.16
2340.41
2724.87
1941.31
2193.95
-14.1894
430.674
-1671.44
36.5095
-296.348
162.637
16.329
941.289
-2170.02
244.26
-289.071
2034.27
1470.76
2585.63
254.167
935.527
4765.57
3431.99
205.786
146.334
-255.568
672.708
-458.985
616.026
116.673
937.319
-71.3557
-1725.53
-1024.03
-2424.21
2166.52
85.2129
-224.779
5876.56
1845.75
2449.16
4399.31
-777.861
-294.104
-12.3712
637.554
-437.518
463.647
4667.99
302.996
-60.7644
256.091
206.472
2313.11
68.8795
-381.391
1004.58
3107.81
-74.703
193.697
696.338
-755.974
3629.08
4859.01
1872.96
-152.547
3696.85
1730.94
3807.53
5458.98
4684.66
5287.43
3631.95
7551.56
1460.43
-1192.96
-3097.6
202.16
6015.63
11815.2
437.02
-1684.92
2503.11
-705.936
3191.6
-133.229
-3341.23
1226.63
913.021
-841.131
59.1162
1022.87
4300.38
4795.83
-849.966
-358.118
750.872
2142.73
2532.33
-415.69
812.001
316.512
3693.87
-347.642
1874.63
454.885
-231.296
-202.785
3581.34
4556.54
5468.6
1379.78
-2304.08
4045.18
726.494
-406.619
542.075
4776.23
2705.82
8868.86
2576.47
9064.99
6211.72
1419.63
-800.829
-322.445
4681.29
103.405
-190.186
282.19
-1400.1
1010.59
744.434
557.792
1926.4
-954.979
538.053
-124.243
3835.66
2021.35
3316.06
4371.74
5260.14
1992.1
2302.63
9641.48
397.138
-142.2
-737.782
-535.936
783.319
-959.906
692.488
1522.23
1780.56
1204.58
170.527
775.644
-1801.13
232.626
12.7106
-664.794
-2299.88
-429.91
1937.87
440.524
1546.47
-894.012
292.212
462.611
411.221
567.022
-781.175
463.047
1161.96
468.733
-532.05
2864.67
1370.61
-440.041
2042.02
6834.73
3324.16
662.118
3390.01
1047.53
818.641
3317.88
3019.98
397.69
-1043.87
1047.32
2117.26
-633.978
129.619
565.173
-488.776
1024.89
-290.237
2042.66
6887.09
44.0861
-719.247
459.508
-392.229
781.469
2704.43
3451.08
7373.79
5437.02
-2102.19
-817.827
948.696
468.276
218.014
1862.25
-1205.87
-91.4448
-19.0855
-635.979
111.865
841.086
-98.8838
1300.58
1025.12
9001.18
5001.75
3095.35
742.231
1702.12
-67.4736
-220.149
-1542.78
2124.43
1882.37
328.347
2078.6
1719.42
49.3977
233.456
-1040.72
1439.59
9755.02
16828.9
26241.6
8125.91
3945.08
693.653
507.195
114.677
1032.29
-433.596
1325.2
-2221.96
616.224
-353.853
1157.27
997.924
672.046
186.947
305.317
-1824.16
441.553
1195.74
56.1599
967.502
868.718
-2498.79
1314.33
1934.82
-981.822
27.8341
2300.99
4937.32
3341.51
3850.42
-824.443
909.742
556.819
-1339.2
130.029
478.404
2038.33
712.488
1967.44
6533.58
5478.11
5493.41
371.377
2016.25
8745.5
8989.26
2915.54
6510.49
8037.09
1503.74
474.803
-28.6831
507.888
-1784.23
-951.389
-252.068
11468.9
1899.85
3570.86
465.874
638.65
1421.81
1258.02
-1379.84
-2100.98
-1406.76
81.0328
469.335
1669.52
-1427.67
7026.87
706.383
75.525
281.082
-209.975
169.151
155.85
76.324
-1247.38
3710.99
3942.22
800.249
2040.58
149.221
-571.98
1135.04
99.8105
-110.755
-1231.71
-355.004
-82.9304
-576.929
200.835
4109.21
1803.84
85.9529
1139.1
322.18
6586.28
1337.47
385.842
1325.42
5276.32
9417.56
8931.99
7683.79
449.091
-684.908
4804.43
-596.597
-1613.27
-111.788
-222.049
186.613
2111.63
-519.922
1529.7
179.237
-725.705
-1228.38
3519.98
1770.28
3487.31
1170.02
5244.68
-192.011
-183.287
4588.14
4855.26
-336.012
381.333
-1129.76
-235.553
2091.32
-303.515
-720.569
906.823
799.661
522.814
-1764.42
-493.537
2133.42
5700.35
7293.71
2450.4
2283.07
4029.78
3179.26
118.591
-114.088
1987.84
1839.58
441.917
1130.94
1068.88
-259.649
281.628
-506.829
964.296
-1237.16
-1069.48
-312.668
2657.02
231.067
-271.638
2019.24
-2777.2
-981.115
293.528
1364.87
363.321
-1083.1
1022.55
-1270.87
2338.48
607.338
-1050.82
2558.16
6555.81
7463.37
5740.93
3140.61
666.062
-3208.39
-311.742
3740.28
-995.368
1774.51
-2636.78
613.278
1064.61
-810.765
2745.67
2831.74
7195.8
1059.29
3751.94
2698.83
2903.77
11.1834
1584.48
-1097.67
1520.65
-1345.5
3577.07
6362.24
5204.53
1155.48
23.711
1949.69
157.387
1379.67
-142.797
393.435
994.284
1219.83
3060.53
4789.59
1599.78
-463.936
1484.35
-686.463
7444.81
6439.86
6164.52
2325.43
1732.28
-1309.93
182.9
-322.582
-1016.44
-764.89
-53.5242
2657.08
1124.93
-906.149
2705.88
271.206
1997.54
2285.13
-180.338
168.02
4048.73
4559.23
2805.11
6317.93
1568.93
-266.885
1980.64
5885.62
3102.26
-1211.16
-1202.67
-603.314
5209.2
421.009
2045.33
-2736.83
3351.52
8201.01
6760.89
498.899
7731.2
4678.06
11224.3
9599.76
9185.27
4510.32
5904.28
2205.81
1713.34
1638.84
1946.82
4630.94
2653.37
632.546
294.745
-1141.83
806.603
-104.508
1574.8
772.726
-1116.65
2377.7
2315.33
1181.01
532.227
5894.79
2433.1
-4214
80.7912
-164.878
-594.346
970.145
-673.916
983.881
1262.39
-2543.69
1890.3
2707.76
3040.45
3793.87
3297.19
-338.101
34.932
2896.42
7087.4
3338.81
3909.75
-372.158
2362.09
3680.91
252.541
1097.3
-1347.05
885.024
319.775
938.801
389.747
-36.8988
1252.38
-238.861
2423.68
3833.38
1539.23
-1454.53
1226.34
3867.2
1687.66
1862.69
5986.73
4205.82
4346.23
1824.17
554.532
791.384
-563.92
2456.09
2444.58
601.712
1283.43
1850.26
375.467
-329.473
-2734.92
751.047
19.3886
-1264.16
-812.608
9185.93
10371.3
1548.69
2297.11
-420.616
-5332.1
-702.614
325.832
-751.002
282.249
1085.66
668.184
-303.167
5200.05
2143.85
-1891.46
292.869
188.832
3209.78
1.82042
755.882
2570.79
1669.2
1355.81
2154.42
10746.9
6242.39
12544.3
4424.66
-174.996
556.988
239.222
-1626.7
3184.92
9495.88
12202.6
-1197.47
1169.04
873.198
293.172
271.392
204.169
192.751
279.056
87.0626
1191.01
477.911
857.053
18.4613
803.76
2932.08
1418.55
1965.52
-755.351
-44.3205
1162.74
2753.59
1538.84
246.11
2455.43
4280.31
3653.67
965.563
-449.505
1004.18
-619.664
825.353
3823.08
870.839
2248.08
-691.611
5021.28
354.668
155.477
2730.7
-764.709
1683.2
4828.64
-438.515
652.193
834.838
-213.641
-986.546
744.308
5621.54
831.883
-766.457
658.95
2496.04
2259.03
-765.539
-840.143
1505.78
840.745
214.564
704.357
2062.5
947.544
1607.33
2578.2
3340.15
1159.07
1395.97
1413.05
-770.773
1877.74
933.666
-594.27
1277.54
1858.59
5615.16
854.284
1665.19
1674.96
-1172.52
169.643
2396.85
7679.61
11997.3
4087.34
-289.285
-1183.61
3271.25
2423.24
112.015
446.741
3930.99
1233.75
248.741
-1146.43
562.388
368.668
273.151
-1467.02
-372.881
1592.93
815.455
-75.4007
254.491
3448.08
1230.39
2565.16
5312.05
-282.135
-1621.76
501.621
-36.5366
-2123.36
843.362
310.235
3082.34
6888.72
3512.36
1198.11
-416.77
-1980.17
612.305
-991.108
-567.041
3599.85
700.036
224.19
1250.93
-2205.77
1574.32
1180.28
-264.263
-1900.69
-1623.27
2922.45
3463.54
-2181.87
-997.83
333.438
259.531
-846.815
866.446
-55.928
75.6609
-560.751
-354.743
887.126
113.522
1646.9
2664.77
588.603
4508.77
-484.838
384.168
-47.9847
2858.71
1087.98
1589.47
1292.33
-1004.42
-18.4857
493.511
-411.273
2100.56
1604.05
-1530.52
-293.161
835.721
671.642
1449.07
6605.88
-1207.33
-2083.75
161.554
-774.341
4157.73
-86.9044
3189.75
6067.54
2491.87
3849.53
-1156.52
-2065.15
2701.82
-1051.48
-1061.46
-2444.94
3013.81
6157.7
2814.19
7135.9
5815.6
-1367.81
45.4669
-762.402
-1126.46
333.045
-279.538
-1085.73
1877.87
1314.11
2538.11
6502.75
472.984
6754.32
-1834.71
133.269
-214.329
1361.41
366.632
-952.917
1637.78
1085.16
-144.544
424.006
-468.45
-433.079
-2406.38
581.964
77.7676
311.838
5703.4
4346.7
-541.582
1486.96
8376.97
4966.79
1617.19
2830.32
2187.44
-2468.92
3477.95
6923.12
1827.91
1180.8
5298.99
1106.95
191.327
5430.11
9682.62
15103.1
2788.87
-84.8562
-3017.64
367.881
4347.79
4841.45
560.417
-87.0103
4485.83
1244.57
-35.243
-181.689
1240.67
-526.413
734.784
1777.99
1206.88
821.994
1037.98
299.572
-1647.43
503.823
102.839
-50.9219
1565.94
-1094.5
-525.148
808.761
2083.03
2749.26
4483.71
2190.56
5258.21
4695.6
-179.84
873.781
909.996
825.071
1558.11
-106.486
1145.81
732.542
325.56
971.097
2176.95
527.997
1427.27
522.386
684.341
4204.01
1765.58
354.733
170.128
1701.04
603.18
-437.16
2055.56
6871.77
4142
14400.4
3970.93
3369.13
-1096.23
2310.91
2675.81
299.69
6096.63
-223.579
1462.94
623.251
878.666
2572.43
429.093
1262.85
1643.99
94.4419
-50.3458
2008.73
-1904.16
-2106.41
567.557
202.42
165.453
1103.59
3061.34
2752.59
5366.18
1963.24
2470.03
2312.22
3637.09
688.433
-4137.95
3743.73
5370.74
7101.14
502.843
3227.04
2084.48
1954.21
3310.64
5673.68
1066.48
-1300
719.199
-1301.41
-1128.22
-1822.78
1830.98
1382.82
-1274.67
645.3
1578.72
-1295.51
-1629
1697.52
10997.2
3427.3
553.773
-1031.32
1975.05
141.722
-282.911
1250.42
179.498
1183.58
1464.11
-1107.32
-779.22
-698.971
-82.8634
-1018.07
744.467
-321.172
5896.69
4531.88
3705.24
3176.14
2555.67
2272.68
2861.19
3159.11
1278.49
-99.3755
2174.13
-996.127
413.554
495.682
4477.97
4383.9
3633.31
2187.99
1927.07
2365.77
990.136
6316.32
5433.92
3670.95
5065.76
-118.132
-1252.43
-511.168
407.375
1183.91
713.347
865.197
1680.1
-823.295
1966.79
1641.52
2883.91
3913.4
-890.035
1067.04
3154.23
1283.57
856.725
117.024
757.27
4503.44
1634.19
199.35
1533.95
-126.968
-924.518
2060.33
955.287
-2586.75
1012.38
-598.529
1945.82
-667.637
4013.32
5612.67
3066.7
1321.41
2752.53
1646.36
1264.83
2606.96
2652.35
3550.3
5038.26
1094.82
29.252
-2565.8
2115.8
-1026.83
271.624
-2171.48
-2004.07
-94.4596
2233.46
-298.372
630.715
-3460.83
2850.76
1376.56
675.906
2119.68
4731.16
3878.22
1985.26
3435.91
1475.27
605.053
1220.8
2190.02
-675.747
1393.15
