541.366
2279.06
706.359
617.444
965.548
3033.07
1716.17
1493.8
-810.518
390.676
1618.94
626.684
794.695
480.835
1292.9
1277.71
2067.24
2403.5
7544.6
2914.2
1010.65
2134.06
312.993
1227.44
803.751
2722.5
3440.53
4324.89
2247.77
1736.29
1494.7
1075.2
2399.77
4523.36
5261.72
2823.06
1976.53
-78.3316
-274.411
-373.994
1.021
-552.724
-133.524
-486.533
-507.68
1408.97
343.701
-156.181
-545.576
-350.451
32.5092
113.532
1971.24
341.031
1570.37
1482.41
4925.49
3952.13
3036.23
3929.4
3888.46
1829.1
1053.69
1502.82
292.683
51.292
-86.0246
452.447
619.568
369.843
31.0067
-115.378
-48.2746
135.457
1505.16
1230.51
-289.342
99.0683
2622.1
2255.06
3836.61
9850.63
10750.1
9843.56
3769.42
2515.41
1811.42
3303.91
7993
7945.97
3488.43
5551.75
4509.67
1582.44
2015.14
448.231
451.284
234.319
1068.88
645.427
1458.81
2756.91
4423.74
5385.04
3910.73
2823.9
1354.67
-333.35
148.898
25.0739
112.472
317.437
352.827
257.304
288.012
-6.56634
486.926
714.378
1306.32
-436.689
35.1007
1434.7
1195.15
2291.02
3868.96
3200.8
6265.46
4747.73
3404.91
2241.74
2243.22
4025.78
3907.65
1713.32
4154.03
2427.39
1285.43
266.575
-331.511
476.788
491.369
194.736
124.485
-225.731
109.135
1031.65
830.654
-252.969
-927.661
267.662
377.25
400.741
997.966
-44.4023
665.566
239.674
69.8201
830.58
1220.02
3843.62
2928.95
5073.82
2368.84
4885.08
1288.62
407.495
233.064
-687.006
-170.663
62.9267
549.529
579.566
1578.76
900.441
873.047
50.907
-214.297
428.88
-466.043
93.4471
884.917
1515.83
0.69828
-745.209
131.721
-210.841
-467.015
18.3993
-199.627
91.2154
-17.0005
24.5177
-97.1437
-856.551
530.799
35.3639
-522.8
2412.99
2550.69
2125.68
805.426
533.85
210.642
504.4
1311.22
-139.59
-5.22787
-90.5253
861.73
555.575
-5.01313
-116.718
-104.424
-987.202
-750.367
-56.6352
832.061
3017.14
911.904
1513.66
798.988
380.825
1583.36
3320.63
3977.85
1105.44
1892.79
1461.99
1049.72
1471.09
891.38
454.957
-9.98496
-106.166
-466.733
-638.759
749.67
119.449
-895.042
598.882
-101.775
184.131
-248.681
-106.709
-1296.63
333.219
911.81
246.55
-342.439
-500.939
-2129.87
-673.425
-1349.41
-1089.28
-654.632
419.894
642.482
178.571
-155.331
-115.799
129.579
-162.304
621.529
391.899
-296.809
-1679.72
-712.176
-556.012
359.272
-316.417
-608.374
791.31
-213.596
275.912
1275.23
-779.166
-717.147
-31.3006
-320.171
-1509.02
-2280
-429.757
-801.27
-27.1806
-140.418
328.705
-2583.95
-1557.26
-1155.28
331.341
1080.49
-519.613
195.147
-119.367
258.243
646.789
384.094
-252.652
754.647
-152.695
-455.508
-25.8568
5.46231
353.743
45.3786
47.2266
-344.944
347.737
1265.9
370.893
1914.28
3165.84
2923.12
3538.74
5278.52
3352.2
1739.79
1481.13
1134.99
303.113
-238.01
614.434
665.896
-529.485
-628.63
-380.505
-502.345
63.5029
317.389
715.963
509.559
983.965
-306.767
-407.601
544.48
-250.201
-251.288
-143.976
-335.476
-129.348
211.447
228.974
101.032
35.4981
-179.712
140.315
1451.8
298.779
-23.2392
-162.71
76.3676
-27.9037
310.846
-447.963
69.5067
2339.47
5232.97
5145.96
745.677
774.379
1794.76
203.608
2514.11
285.072
325.388
470.696
986.883
-708.621
-252.963
-39.4827
309.579
-495.287
138.427
1137.04
1885.16
1403.46
1786.92
4556.73
2926.16
1500.75
1055.97
509.323
1007.49
736.647
1840.09
54.9686
700.18
382.362
3010.58
4735.48
1233.87
1109.28
1316.95
517.299
1902.84
1262.63
3351.56
5937.82
4981.81
4372.82
3521.87
4534.46
3808.23
5375.76
-440.413
1574.59
568.074
927.998
21.6612
2553.61
1760.29
3443.76
4810.3
2436.72
2825.01
539.907
3609.25
6642.52
7693.55
10438.6
12190.3
12701.3
12941.1
11407.3
11921.1
12141.4
5734.81
1450.65
1432.62
1911.43
356.969
1068.67
-304.816
249.515
-184.888
-776.674
-199.815
-318.229
-829.899
-663.627
-57.3796
467.611
-59.6062
962.211
777.717
266.117
-662.296
-674.03
284.293
43.2945
470.081
567.435
679.53
502.648
-161.472
1340.61
1755.25
1313.54
279.427
1791.91
1527.28
4024.97
2248.8
433.126
983.373
319.509
-1.85523
1522.39
359.858
-328.188
-112.687
-159.315
550.7
-105.023
395.406
422.871
297.657
-348.905
135.566
8.44713
3455.89
971.023
2866.86
1704.77
1980.36
497.303
1245.1
-144.05
-587.097
40.8459
36.6202
248.485
283.204
465.766
-47.491
249.395
587.471
-50.5483
63.3712
189.857
-98.8102
-1126.27
954.434
-1015.28
148.288
475.546
-278.115
68.7197
-698.64
-516.928
18.0997
326.041
1812.05
1744.69
1076.55
4899.72
4758.79
1377.54
3495.03
1977.53
73.0742
595.836
366.224
378.984
-378.614
-585.63
70.8051
-741.063
-244.386
1415.08
453.176
320.653
-114.747
-324.643
1165.74
687.459
2108.94
1893.47
2640.7
3324.27
3846.62
1992.26
2538.13
939.9
410.915
161.803
815.576
1606.92
1368.37
400.699
360.515
454.66
1068.4
504.797
331.152
-119.228
-14.5471
365.685
-309.636
-194.065
-10.4934
-490.404
363.172
93.8416
-872.508
33.9297
1075.17
802.848
-104.436
687.422
326.156
1137.08
997.661
-41.3555
176.954
156.262
840.963
843.699
677.912
1461.82
282.735
493.807
1600.62
1303.04
639.521
577.517
2709.16
1014.85
1650.98
826.909
-88.9087
913.565
1126.4
7134.82
5005.96
6016.88
4948.37
3109
4986
5592.27
5877.39
15219.7
17840.3
19953.8
14543.8
16111.2
21364
15503.7
15481
13230.7
16093.9
14765.8
13946.9
8973.74
8127.38
11409.4
15881.2
17203.1
19976.9
26822.5
22804.1
19383.3
11056.7
7588.35
5446.54
2656.8
5143.14
4520.73
3743.47
2217.62
-126.151
353.912
1839.44
2684.23
2542.11
3762.81
299.74
-218.489
-132.477
919.189
1518.54
167.096
-1083.92
166.949
-14.2077
388.167
235.365
58.1495
-187.031
-234.944
763.802
299.124
-116.244
1038.36
3844.83
4027.97
1423.38
1000.61
-281.587
-1297.32
-32.4464
75.3689
-482.666
124.378
-119.949
-181.262
-968.778
-338.312
123.379
1152.05
1057.04
249.118
2649.74
949.889
429.731
765.68
108.185
1287.26
711.877
369.833
915.665
537.021
-526.174
376.404
1712.65
1533.9
1326.96
600.189
3881.73
969.622
1709.59
1531.67
-41.5268
-1455.03
124.605
1857.36
490.129
596.548
4212.37
2644.53
2108.59
3864.28
4883
7792.24
5062.07
3333.25
1940.77
5017.92
8187.82
7777.59
4137.25
5197.32
3659.79
2019.46
1824.35
1350.44
1156.29
571.815
829.021
1818.28
222.078
-205.689
-93.2712
-51.2974
122.259
1002.17
599.195
263.932
-151.452
-1648.76
-456.371
-111.097
202.919
129.846
696.288
-202.9
743.396
134.162
743.163
1653.27
527.352
623.284
361.691
-1868.17
-218.771
-278.011
2965.06
1900.71
4771.34
4733.5
4148.44
2902.13
2708.63
4592.11
1082.87
2832.16
2511.88
4854.49
5190.09
3446.41
4062.84
440.458
-112.11
-68.3863
266.69
-59.9393
1367.21
-46.8507
-203.675
816.03
-47.1135
381.102
1004.39
595.827
535.253
80.4527
-51.8538
494.455
-79.6683
187.706
-495.643
29.0403
522.117
336.148
-139.116
258.786
-132.515
2096.94
1422.77
913.386
1626.45
777.892
-191.359
-990.55
-348.718
-165.561
583.558
1233.03
-722.676
363.141
-1496.72
-357.757
-716.869
-431.752
-494.176
36.6547
395.215
-267.837
-40.5811
-138.497
389.267
1150.08
1210.04
351.44
385.05
-90.3932
316.342
1385.14
203.105
-9.08574
276.426
851.981
457.05
-706.498
-158.839
-248.39
-541.569
1279.6
-134.641
120.33
-128.146
161.261
-61.3966
-226.125
603.514
612.259
628.095
685.767
-445.67
1312.34
999.866
4382.99
3840.4
1182.6
2414.12
2055.54
1371.51
3181.52
3728.46
2667.42
2368.79
5072.42
3325.34
2683.68
1590.31
3927.67
3914.4
4660.18
3382.15
3051.44
3896.67
2775.26
5854.42
7172.09
6833.17
4815
3765.89
5582.49
2928.36
-590.45
-765.389
-326.925
361.494
-555.69
149.474
869.007
1366.05
727.594
1295.23
-35.4869
543.457
-124.125
428.238
3738.74
2122.44
1920.37
-64.7395
-842.468
-420.595
246.308
-261.006
443.868
988.384
842.817
2005.85
1106.16
1452.9
3198.47
6296.77
4633.67
4780.19
4422.31
2945.66
2859.35
4510.15
4123.48
4827.67
5788.55
3669.33
2353.09
4580.58
3169.98
6933.3
3090.71
3342.08
7751.59
3989.98
5657.06
3746.73
4665.4
5044.69
5569.42
3124.75
1890.75
2691.18
93.6536
-1342.01
-1584.1
322.115
1132.42
4914.3
5672.97
1173.6
1789.3
1692.53
3095.96
1668.05
48.816
660.988
368.15
1370.37
1829.28
4583.87
4836.28
32.7013
233.746
-82.3622
-149.676
112.517
43.5774
906.416
2544.83
2549.89
2683.24
2438.97
1629.89
3169.85
2420.67
2103.79
986.036
1102.49
805.854
1834.72
361.596
310.694
-952.796
1580.04
1277.74
1288.32
951.374
2034.62
1546.3
1159.95
205.437
-115.527
315.318
613.898
-922.877
-307.545
-60.5289
-134.548
-56.1677
629.679
-702.028
264.913
325.634
-386.594
-224.767
691.306
1372.83
-276.447
594.369
237.778
394.335
36.144
-659.958
-1743.84
1712.4
1217.45
322.653
148.301
-105.625
-138.822
132.947
-24.5157
-401.66
-1915.38
-2630.83
-1549.29
-540.475
-849.485
-1041.03
-509.562
-319.512
-1010.19
20.745
107.867
99.3465
544.296
-329.947
64.0279
-334.432
169.122
-1287.31
-1442.83
-207.317
-291.874
413.672
296.661
-553.455
53.1787
422.768
-702.467
-1731.98
-476.236
126.275
-156.4
184.925
695.205
176.718
-240.344
1515.14
30.6697
1186.28
980.441
-97.9502
-21.994
-121.934
47.8616
155.526
-839.057
172.959
-254.268
152.467
-446.61
86.5043
653.34
127.848
40.3309
22.8523
-1043.91
-1034.37
14.9033
9.20375
777.821
2343.32
2815
3479.73
4746.97
2779.62
1557.39
2618.45
3878.65
2314.01
821.525
-210.027
789.898
8.12649
-261.584
-192.795
905.69
1273.95
80.0516
1029.76
800.331
698.337
756.369
5393.31
6867.38
3268.13
3660.11
1320.34
-310.471
11.4002
-855.751
1079.33
374.141
336.255
-24.8626
92.2324
-2.30725
1613.47
2492.79
4684.77
1960.67
1124.23
1148.47
2296.49
2238.67
2228.17
813.258
145.072
310.972
131.467
55.6118
3425.2
3434.32
4155.4
3017.12
1693.21
706.326
620.2
220.04
250.196
1619.47
-536.026
-101.403
460.531
-153.269
-1373.8
879.416
1415.71
2800.39
4916.9
2227.93
932.101
1278.5
3610.38
3228.84
3200.12
4540.4
6168.01
8515.6
7494.04
6923.84
5207.11
4529.36
4415.72
3300.18
1224.86
167.795
288.076
128.677
681.347
3199.32
1888.06
1854.97
1007.43
849.453
1140.65
1835.91
5727.94
5526.79
9446.75
11083.4
9770.59
14086.7
12674.5
13069.4
8969.53
7470.24
8402.57
6145.13
2348.55
3558.77
4716.59
4465.24
5066.27
3799.88
2413.12
3697.01
2131.25
1468.28
24.2777
1102.37
992.923
572.144
-145.727
-234.734
-111.762
-204.354
-1240.06
-159.763
278.448
-9.23505
-738.051
-158.541
-357.963
-2.83376
257.338
200.708
-1266.88
-1555.9
-336.73
-352.836
95.4096
-113.415
-1132.07
-688.386
-542.437
-547.764
399.392
1698.84
1467.65
105.385
294.516
561.211
-648.481
-248.843
-297.889
-1125.96
-384.068
582.41
773.483
103.736
-153.564
-32.0801
-203.203
-1199.6
-119.577
44.7596
-190.52
-25.5858
-81.8313
794.005
-224.525
-11.5704
416.264
2586.41
4575.52
2659.4
2750.88
2127.13
608.692
241.384
130.328
544.75
635.736
2441.83
1782.06
2352.07
1185.89
403.474
-93.3335
-93.7491
-235.083
-119.216
252.916
1095.07
423.483
300.092
806.652
-3695.36
-2339.64
-1095.41
307.162
364.963
874.416
517.576
1273.25
896.41
-236.307
63.3702
19.1468
1207.92
2133.72
3907.73
6533.69
4178.53
4286.47
8423.36
10257.7
8605.99
5873.48
6053.29
3274.33
2491.65
902.563
1762.86
1552.03
918.73
1058.43
643.319
749.056
-77.9399
-1390.99
-2560.99
-791.593
-131.342
1734.11
1437.14
959.717
934.483
-7.13207
-544.85
66.2914
69.9847
-575.501
-90.4029
319.581
42.0301
230.732
1853.26
3731.07
3029.98
4890.6
8310.52
4258.76
4651.89
2888.14
1028.89
813.343
313.157
-209.874
358.002
-4.86292
912.676
953.428
640.361
2171.83
3290.95
2820.96
4343.97
5789.52
5446.03
5054.96
3312.3
3530.54
4312.23
2484.89
715.978
305.53
1268.45
2826.03
349.117
3915.32
4986.43
2701.18
2607.2
2884.38
2713
2871.28
5683.86
5003.92
3611.98
5815.21
3317
2389.31
1573.43
103.287
-1248.41
-475.685
227.646
60.6178
559.338
823.135
674.459
1639.42
2200.4
2499.91
1477.3
1918.22
1335.31
-250.998
-419.71
-318.423
54.2103
54.4652
644.16
-596.19
438.823
-395.976
-395.611
-71.0771
585.275
653.574
-402.839
-1277.59
-93.6015
-36.4703
-19.4317
306.048
404.718
-191.359
1144.54
946.165
1237.4
92.1609
372.402
-248.97
165.711
-778.969
801.535
1493.23
1381.22
505.026
64.9157
415.575
-152.652
-13.9109
-36.5438
-1054.49
-404.094
-98.357
-258.32
-140.209
570.705
-420.639
-227.235
-80.282
-1811.52
-51.1664
-310.154
-287.678
-496.208
98.2171
72.6657
-90.6332
-274.483
-162.337
-607.218
-67.9455
-101.52
673.084
781.29
423.051
-326.824
845.483
3425.79
3193.53
2367.81
2994.19
3874.99
4337.18
5119.92
3483.76
2807.37
4191.09
4552.8
1375.37
-41.9476
1089.2
1037
562.651
1216.12
1676.52
214.008
-739.527
-2.33184
-164.454
507.883
710.857
2319.18
1121.31
1406.36
761.839
411.816
119.35
-445.735
-300.987
-126.337
-42.0759
135.826
23.4966
272.489
164.455
6.14069
583.363
1079.19
-12.7528
568.916
416.769
1860.84
156.674
-3.76036
-243.588
505.897
496.16
706.554
1133.45
643.47
719.662
1886.18
1392.83
374.781
-1476.01
1534.56
2217.84
3352.38
4646.22
10013.8
14260.6
15129.5
10658.3
9399.96
7377.8
7499.28
5934.02
7275.24
5622.26
3748.56
7040.51
13036.1
11924.4
8963.29
4290.2
7417.38
6147.75
6591.1
6331.86
8006.84
10911.5
10075.2
3829.23
2161.47
574.209
32.8981
-505.322
38.9443
-480.601
-270.901
542.417
255.445
-309.697
-74.494
253.841
637.17
203.494
-224.757
23.6886
-902.31
-63.5009
933.928
1249.74
868.876
1066.36
146.858
44.643
161.185
-334.56
2261.92
847.99
1314.74
2914.05
847.093
513.749
351.405
3708.72
2671.64
965.829
1065.29
3089.47
4359.42
3923.44
2899.69
2867.78
3406.34
6392.47
7418.86
5990.38
3156.08
4148.34
5476.64
2538.08
507.11
390.522
-353.47
-561.251
710.982
-880.462
872.856
73.9035
205.35
-159.619
-235.595
-642.647
-217.889
261.411
293.375
177.903
-503.922
-9.47925
1132.49
-384.589
404.547
238.282
1157.36
2177.64
254.906
2938.5
3104.23
2604.24
1394.16
1075.35
-92.0716
-376.034
-581.64
556.282
451.785
-542.49
-561.039
1452.27
67.7287
1197.5
1634.22
1972.41
746.616
1674.65
1846.1
1240.27
409.281
-99.1282
185.467
1029.45
333.344
1315.99
3015.67
4833.86
3866.64
5514.23
6180.54
2542.98
1066.84
2430.63
1699.15
1720.23
3122.06
5299.81
3498.53
2857.93
2072.03
3963.68
-401.003
823.244
1273.19
2565.77
3720.83
3424.44
2001.06
3167.81
4536.22
2243.25
970.693
733.724
553.217
355.141
734.805
141.14
-184.366
-716.572
-206.561
125.671
228.741
895.266
2222.81
932.039
413.337
-457.613
-147.274
-665.259
294.283
-172.131
-122.186
-40.9686
-30.4515
116.094
33.4989
-482.079
-44.5344
-2.41393
98.9697
138.291
516.254
-15.8241
-667.076
-344.772
1657.57
419.42
100.795
298.747
-186.887
101.292
-228.035
-637.884
247.158
-348.233
21.4921
1910.3
3482.8
1468.82
2237.35
2440.62
3774.48
986.107
530.364
4187.04
6240.33
7699.84
5994.7
8365.13
10569.5
7267.02
7656.36
5974.42
4971.6
6598.86
7728.05
12622.8
9784.91
6863.45
9744.74
14342.8
17122.5
15825
7476.36
5317.75
7349.5
8750.36
3712.94
5969.61
2633.12
6159.06
9220.53
9362.52
11180.3
15152.4
10343.2
9651.28
12998.6
14088.5
12900.6
13847.5
19817.3
19689.5
10712.2
9520.83
5914.09
3535.09
4065.96
5078.13
3519.39
2106.67
2599.34
1017.52
2286.09
2070.04
2448.93
1035.7
1710.43
1056.56
1116.9
2147.78
9573.61
7232.43
7179.65
5029.84
3590.14
4566.56
843.734
-140.974
978.566
375.27
653.262
1854.78
615.393
491.815
-428.95
-980.031
236.007
-126.556
-597.637
-1048.39
-123.714
115.794
-372.565
-290.351
75.2398
121.482
386.055
-21.5661
-829.684
158.871
-20.4846
-963.621
-536.759
-487.463
-5.9291
-449.449
-942.461
160.029
-821.538
-507.484
1479.47
3340.87
1353.53
202.903
210.318
583.451
366.838
401.298
-69.4758
-114.065
1356.13
2139.63
-82.981
1054.34
-11.0456
181.221
103.49
347.048
375.619
1610.4
808.5
414.287
792.057
604.405
35.1592
7.35242
-610.831
-1014.83
-926.889
-1051.85
1062.96
-865.324
-694.555
-1659.26
-945.785
-696.713
1100.07
80.7997
-662.096
-130.245
1872.25
838.479
-199.945
176.26
-19.4213
-172.098
1174.48
359.622
349.554
194.8
-290.511
169.203
213.691
-1249.88
-112.345
89.2203
-86.1195
-211.13
-460.905
718.217
55.345
-247.242
198.059
431.75
-220.056
-250.346
-523.313
-211.673
-32.0082
-742.85
-619.619
679.62
-643.301
-109.205
-1404.08
787.661
3346.98
2287.46
4623.41
4623.23
7026.45
10080.8
9091.36
6577.39
5836.08
5724.64
4580.07
900.655
1326.82
555.446
-727.642
850.398
3239.66
8342.59
6382.5
7852.8
7117.18
5911.26
2197.35
884.361
-743.32
65.3567
344.598
1406.57
-400.327
-8.63677
-3.90564
-30.2575
-236.362
572.624
2896.44
4269.76
1940.62
450.435
592.802
2734.15
623.308
462.404
198.538
553.965
-334.241
-383.247
-358.706
-331.669
911.95
-316.029
-770.113
-321.414
119.963
1192.73
-683.107
-507.376
13.8776
-1197.37
712.13
3560.04
2354.64
3597.14
1719.79
5382.71
4112.09
4111.32
4564.28
6654.5
9726.02
11461.9
14667.4
22255.6
13860.1
10304
17077.4
19030.7
14630.4
13572.1
11095.3
6281.29
5198.63
2874.63
6821.47
7374.82
3407.22
3500.35
212.077
-149.375
-483.216
1869.63
1710.96
3001.07
8338.14
4466.99
6432.04
4748.38
4421.8
4635.67
7085.39
6853.21
5675.83
5289.35
5283.86
4374.68
5229.46
2923.38
4976.14
7950.87
5124.94
3484.79
3106.92
1833.99
354.055
33.7506
-71.8729
-305.725
-96.0995
628.766
3827.51
2449.57
3963.79
3140.11
2854.67
1521.19
158.697
905.084
1625.74
1387.33
980.313
943.821
202.677
-364.781
361.981
2476.01
1335.67
1636.66
2240.7
215.292
-164.815
1185.29
634.974
33.7999
0.687472
-195.697
431.437
260.476
-66.1588
516.167
811.728
4099.66
4217.51
1823.33
1210.08
1476.63
1230.73
2063.17
-112.881
-301.034
638.04
3378.19
4389.55
1646.08
2609.79
5782.89
2854.6
1022.93
1956.91
2691.41
6.77635
321.419
1332.43
1768.89
-155.86
-797.696
34.3434
86.6613
222.068
67.2903
-572.213
1047.14
1894.83
2315.76
1320.32
1884.07
3131.36
2163.47
975.991
1440.08
1388.18
2435.33
141.173
366.762
122.63
253.266
1099.99
1404.5
1999.57
2615.82
1760
1563.82
4511.22
5141.29
8117.58
8001.65
9968.24
5717.88
8009.38
5307.45
7132.59
8751.3
8078.44
6018.26
7732.72
10014
5083.79
9879.77
4174.63
4648.02
3762.03
1707.97
3588.94
4424.32
7068.83
6744.01
8352.81
5223.13
8297.39
5895.48
2742.75
2874.4
6053.01
2438.17
2919.7
2603.5
3980.43
4771.74
8421.37
7093.49
5778.06
5040.2
1261.5
2589.02
3922.99
155.121
109.237
-394.315
591.154
801.444
2863.67
2797
1810.86
1037.77
2776.33
784.096
941.502
343.177
-463.166
-640.608
-362.877
-213.786
148.224
1642.58
2431.67
-867.341
-491.575
-26.8492
731.213
329.093
-11.1232
-311.764
-1695.99
-171.662
184.97
-240.233
456.984
-317.073
163.546
476.23
513.189
1259.12
1036.28
-62.5684
-1181.43
-436.113
-233.083
444.524
660.466
-331.592
265.979
709.011
-662.622
-901.4
-506.398
732.314
59.3226
495.116
1119.66
640.911
445.637
21.8124
-564.727
-382.882
145.561
-240.819
413.855
881.255
1426.79
3969.42
3694.09
4444.6
1056.43
1082.18
491.982
2405.2
1873.44
3309.41
6029.83
3758.2
1219.67
-817.036
-315.6
323.558
-379.03
689.072
2454.43
2688.3
606.335
940.556
304.915
1750.66
759.604
4267.16
3674.85
2352.78
2532.89
896.942
-19.2995
180.464
739.283
500.939
1264.77
970.384
201.387
448.706
769.377
-154.316
-14.7483
704.188
340.426
693.32
142.247
82.0194
1603.92
2208.63
2434.68
2602.31
2306.8
2381.88
3425.59
5835.52
4155.47
3868.37
5195.43
3237.48
1505.19
-360.544
-832.391
497.849
616.867
145.133
-66.8459
-1739.18
-506.08
239.198
-317.764
7.32274
3014.27
2062.08
-136.015
-1370.15
717.278
3032.42
1994.8
1287.79
606.678
128.073
198.249
247.045
920.177
55.3482
754.062
1460.93
-167.309
2.94547
1608.03
1671.61
2025.52
825.593
239.541
275.737
387.065
2187.48
1926.58
1339.08
549.237
825.809
1107.93
1806.3
1010.84
449.477
-185.475
340.212
-730.222
-1046.18
-160.825
-173.45
-36.2617
1246.02
1739.76
791.873
1092.88
705.842
96.657
-8.82735
-861.778
-1479.45
-637.088
165.661
553.701
-110.144
-76.2629
-147.965
-476.813
295.75
456.473
3048.09
8035.45
8389.14
2421.49
5414.47
4508.35
1843.93
1384.53
688.846
4411.38
2745.26
3969.36
2937.61
1524.79
3050.4
2627.07
2164.28
881.286
1414.68
2010.34
675.272
2112.95
3369.63
817.829
795.621
-132.186
-163.001
-1795.25
724.814
541.635
1686.68
4053.42
1543.29
660.319
3873.68
4118.36
-511.98
446.286
-120.461
601.404
-95.8774
-108.067
735.861
1011.2
426.296
-78.9021
1163.23
1113.21
2538.19
838.814
4462.13
5519.21
5450.95
5883.7
5239.83
3307.06
4912.38
6762.96
5919.74
4179.75
2153.8
-32.8568
-822.047
941.193
2024.63
5457.54
9207.28
3312.55
796.806
1745.15
1941.15
793.257
2363.11
2294.07
6118.89
8103.34
17283.8
16585.2
17535.5
12341.4
7456.68
6415.64
2050.72
3772.62
4143.95
5796.13
3554.66
2102.44
3619.04
6126.43
7946.19
7836.34
7045.7
6593.01
4926.08
5093.89
4311.28
5924.22
4227.48
2462.88
3664.06
4689.34
4875.42
7738.16
4964.91
3679.68
2740.94
7218.07
10766.1
7045.68
4127.24
4474.15
4426.33
6747.23
8563.74
7704.6
5006.89
5154.98
2433.94
3533.01
1166.36
1019.82
858.329
120.653
164.66
1202.33
949.812
1410.28
2978.56
1848.9
1796.46
821.269
583.097
-123.521
-195.576
-319.617
339.6
347.281
-17.8533
-421.828
-84.4868
383.457
322.212
-376.946
-1125.96
-802.926
2598.92
3199.94
2280.61
2020.74
2829.64
2382.9
1037.43
1037.08
373.69
163.602
139.809
279.392
51.3125
71.0434
115.513
5.88752
46.5244
237.585
-160.329
-227.502
-1361.24
-183.914
1002.71
-943.123
-1166.02
-373.039
254.859
-132.061
317.272
426.28
-71.0488
194.458
-414.279
-491.641
26.9884
-686.517
-143.864
-1084.19
-951.773
-1331.63
-200.404
-269.225
-124.238
388.34
435.043
1228.81
1830.98
2013.07
524.223
2602.34
-250.456
-18.7584
9.37561
689.559
-795.968
140.506
4469.75
3416.42
2541.87
3896.91
6385.09
9423.11
7205.76
8517.53
7348.79
6452.47
3905.17
6078.9
4383.98
1845.52
4086.42
3613.81
4830.82
6081.36
2227.42
3478.31
1618.91
-894.378
413.04
1184.07
2567.84
2326.6
557.083
458.897
-390.343
-140.085
-259.557
-67.9975
1543.51
762.095
-587.895
-3.55541
-20.0327
-320.796
1036.21
-405.827
-25.9878
1421.91
1378.42
2623.99
4498.55
2317.06
3756.53
3468.8
4186.26
1630.16
3870.56
4154.31
4492.3
2660.31
1289.94
501.49
726.293
1085.97
237.975
-25.5765
319.814
476.032
-17.1898
-165.194
-75.7849
-28.0446
-142.513
41.6852
-396.125
240.316
-2.44743
544.774
30.8688
-31.6922
-8.5705
155.228
-138.133
-26.6316
527.792
-390.269
-124.665
-298.02
-115.192
162.907
-278.755
271.344
516.914
1355.32
497.507
403.368
-14.521
432.214
-211.274
21.7276
-75.4854
-142.759
-114.916
-342.099
-612.027
-69.9338
304.96
-581.127
-561.746
489.803
-732.245
127.1
1057.02
219.647
272.984
148.027
-354.651
62.2054
-33.586
-185
-599.565
0.85297
-48.5907
114.76
204.59
648.685
2831.46
1734.72
3991.75
4656.2
1873.86
2436.89
6029.98
5663.34
5106.98
4345.34
2870.52
4038.76
1603.47
3501.14
1978.37
2081
4869.93
2435.58
3120.62
4151.11
4756.18
6810.59
11801.4
15542.8
8572.18
8626.55
15124.9
19935.6
24866.9
20033.2
16792.6
21807.3
25641.4
22120.2
25399.6
29884.8
20994.4
20298.4
17040
17014.7
14575.2
16073.5
14974.8
17321.7
14312.1
9908.81
11089.2
9070.88
12073.8
14834.3
8823.26
13991.5
8015.93
8855.13
8779.9
12418.7
9063.67
6131.56
8888.48
7269.81
3783.77
5751.6
7071.38
8403.06
12271.6
10973.6
7702.5
8280.21
5642.6
8430.17
4297.43
2920.51
2370.13
-410.929
-98.1772
-44.4131
-109.521
-73.7487
-130.371
28.8267
522.738
1284.02
3305.37
1709.82
1658.44
720.796
1242.8
567.31
-531.659
3569.4
4457.84
4159.95
4165.01
7018.81
7011.96
8153.83
5603.3
6644.15
6175.03
4461.94
3101.52
2370.81
2239.07
1310.74
1949.24
2251.5
3488.15
1758.37
1973.25
770.95
1155.4
1396.9
883.369
1324.68
2916.69
3858.26
1962
1151.05
7353.47
6610.68
3223.02
5947.69
4105.29
3657.97
5904.96
1473.97
2710.56
2986.68
3757.45
1965.29
3863.96
1289.46
1737.31
1652.57
4630.04
1297.54
2167.25
1379.3
880.603
173.844
-156.954
682.554
651.029
-55.7417
329.687
332.566
771.313
114.806
-11.3381
436.985
-47.6402
33.6048
-952.907
841.359
1316.15
81.0952
-545.621
430.339
-143.47
86.5532
740.737
265.056
-167.917
-412.917
-77.2498
-322.597
166.311
246.007
2091.97
3874.77
923.697
2304.84
101.246
1.06604
-2142.8
1643.45
5194.74
4080.51
5792.78
3717.58
6041.33
2857.91
8619.1
6656.92
7330.07
4662.61
2409.68
4241.2
5041.54
2191.99
-92.8933
842.495
3489.77
2899.53
4.79066
155.217
3647.74
3118.49
5037.99
4895.19
4988.83
6291.83
6918.2
6462.82
5983.32
6319.91
8007.94
9384.02
6765.28
4302.04
2665.97
2256.15
3427.4
4070.43
3414.12
1313.79
3034.46
6251.36
6541.16
6625.4
7338.35
9115.75
3986.75
5689.76
6165.96
2597.92
344.824
33.0036
752.199
-268.88
835.485
457.076
913.731
410.655
1186.44
3100.72
4739.55
3164
3739.55
4542.26
4356.78
3186.95
1692.25
3774.27
1454.9
3906.66
3407.55
1308.88
283.707
2603.46
2223.41
874.386
1070.81
1884.25
-91.2425
826.428
-170.505
164.259
-1000.47
-148
-1024.3
489.497
-451.08
-237.196
796.288
457.468
18.5378
-548.206
589.509
209.297
-363.407
79.3123
-3.71615
178.888
279.548
-440.264
-526.276
772.744
4167.47
830.709
4195.91
7560.98
7482.52
7322.32
5814.43
7140.75
3558.62
5896.52
7625.3
8397.05
4365.72
4942.72
4243.91
4796.63
3247.26
372.594
624.397
75.4235
-356.758
-315.915
659.636
1756.64
292.553
-62.4669
1867.02
1937.87
175.411
1094.12
2418.41
2819.85
3527.24
3340.83
2174.88
1547.12
1004.61
-799.847
672.385
1607.14
-229.291
-528.688
429.932
1121.88
863.558
95.3989
-397.168
848.344
413.576
-1006.12
-1415.4
154.95
479.112
676.576
-252.707
100.512
209.178
1340.45
-407.984
-171.04
90.004
878.606
2153.19
-585.993
-2230.32
539.059
-323.561
144.109
2771.28
2566.64
2759.91
622.283
3854.98
8360.07
6969.71
10186.7
8779.61
8693.89
8844.83
7876.42
9155.16
9075.66
10958.7
11683.5
13070.3
19427.8
14298.1
