14070.817144
15261.5208848
15314.4394934
15782.4323772
15570.0548247
14932.9433888
16165.9714334
13832.1574988
15973.618646
16071.943318
14306.3645712
15751.6632352
14867.1495832
15853.5455424
15355.0488222
16199.661805
16690.5935423
15974.3416656
15407.2310404
13787.0977775
15774.4986004
16160.4113884
15043.5193328
18002.2498236
14822.211537
16441.8199064
15736.0193529
15452.9779098
14907.040188
15526.624094
14501.3485813
14867.7165108
15455.1686262
15768.742784
14704.0039731
16165.3323947
16040.2075898
14786.937361
14932.8236968
14844.01612
16480.9350557
15327.0127554
16887.2511872
15949.0759104
15431.7785876
14825.4559992
14371.0403132
17181.6488778
16735.5615158
16822.87964
14530.7469048
14907.5285696
14123.5653284
15200.6095542
16381.467354
16213.3571606
16101.2317206
17643.22217
15549.8012748
15293.9504192
15803.527772
15219.561962
14622.1989396
14234.7470972
13806.6452914
13909.2510166
14962.7217006
13574.4868184
16285.2246064
15966.2319656
15503.8062422
15727.3130383
15494.8752553
15226.264384
15089.6699954
14510.290029
14927.6137354
14722.0302705
14767.3482782
15809.2633226
17825.8050946
14129.019544
14711.7842279
15178.123898
15780.4255796
15311.925966
14420.357422
14614.6029852
14905.1569184
14540.8396884
15694.4291553
15028.8909652
15344.7425938
14989.0275698
14434.4253016
14499.457987
14791.6347426
14595.4015496
14877.1012148
15327.1617965
16006.2548102
15435.8232365
15384.4186292
15882.4090176
16996.7673509
13832.851547
15752.716544
16915.2543514
15167.9844012
15314.89858
13683.7650838
15281.1313568
15587.226036
17522.9881454
15913.0087638
14094.3102328
16259.9748676
15037.332313
15055.7574455
14530.4770766
15267.538114
16827.0292196
16194.260964
16290.2080997
16841.7379812
16126.59421
15800.1430172
16604.4446414
16288.723727
15381.8930494
14725.200266
15453.8155326
16281.1866894
16698.817087
15869.7766732
16230.8961054
14492.5260025
15475.8936878
15613.455556
15205.002225
16115.6105664
14409.4288786
14802.8314316
15440.412698
14338.0870036
15937.995534
16065.984104
14413.5999988
14650.2122399
15557.3773534
14764.4552248
15560.29429
14376.606583
15049.1268102
15481.3445291
14785.5162487
15772.92496
14455.45927
14965.00071
15405.7157672
14547.6289722
16138.8173297
14090.0733374
15239.8233664
17170.8696068
14935.8986658
16379.798014
13866.0254119
16208.7983196
14565.2983486
13640.6192774
15097.7166584
15214.1137536
15990.2499262
14233.2712242
15452.87929
16088.1462984
15464.042562
15370.541001
15716.271998
14895.2976422
15247.9703242
14770.7851848
14631.8129319
16354.3576932
14857.7368096
13831.9916104
15683.3582121
15834.0186254
15270.7334888
15744.4737886
15286.9532702
15281.0792264
15092.5750996
12995.6469908
16933.8158494
16351.644083
16168.5660738
16650.8909052
14564.090092
14765.0873942
15220.1847314
15613.6469106
15850.8547162
16510.1865122
16480.080122
15464.9364354
15471.8039274
16155.176043
14996.5517638
16823.6973048
15231.993198
15733.5659786
14150.5590984
15727.9266604
14525.8077662
15442.019806
16276.864564
16855.0636286
15688.3123393
13707.6859121
14469.6552488
15380.3496408
15727.8713564
14440.6032888
15166.3644608
16247.219508
14982.6512638
15567.5524744
14834.8460304
16375.120952
14188.7292138
14400.960815
15081.1634792
15652.2085634
14933.2539849
14688.6563454
16230.0673912
14986.912078
15640.31165
14740.762402
15029.6148642
15873.9700048
15942.221101
15234.8375401
13276.8187054
16227.671984
15070.655302
15741.4646054
16545.9055609
14840.3493518
15831.2533138
15086.9524652
14454.393786
15520.822651
15663.588828
14272.0412548
16115.712844
17738.1955408
14807.7391841
14418.7739852
15890.80468
14306.7084442
15300.7626074
16318.547731
15199.283706
14423.9940126
14719.089866
16532.0725516
14991.9461842
15564.2527526
14894.1877874
14703.0542164
15777.750393
16107.4936212
14768.4332007
14489.1570466
14630.9030287
14364.880803
15236.400957
15873.1189376
14180.7371852
14391.339092
15874.1068054
15494.5256704
16105.526655
15313.726333
15980.8961646
15450.593916
14228.242743
15766.7513049
13774.7306984
15483.3768237
15828.0244106
15135.7609352
14615.8197462
15231.8024354
15604.6366224
15625.9917744
15245.1094397
15493.1453118
14376.6012454
13881.8785468
14678.7036982
14868.0339304
14869.2907216
15825.2981519
14861.77941
15830.901822
15341.626422
14225.9607586
15256.7471666
15816.839827
16194.559291
15914.3460818
14268.1958216
15392.1999004
15775.5299512
15716.3233898
16334.305918
14523.7658072
15806.674274
14681.9922264
15575.0651374
14908.919477
14319.2563714
14763.1917294
14583.1485463
16001.3661174
14519.3015042
15570.1302658
15733.267354
14399.271438
16318.845119
15768.3106966
15169.7565716
15507.6156324
15339.381108
15527.6657774
15056.4066241
17805.9818186
14117.4090538
16925.0174666
16129.4399586
14783.5302244
15321.1270806
14426.7849466
15480.865128
13977.9296627
15262.710462
15003.452094
15606.1342326
15196.1760644
14619.5472018
14503.3872718
15573.7170436
15765.7441102
15034.675504
17217.0613404
13936.8770494
13807.16552
15646.0484276
15472.6635644
14821.9730551
14746.2357437
15109.514646
15279.5077745
14479.7422256
14998.8334036
15044.8361414
15504.1412846
14541.5722543
15759.658848
15149.9711458
15562.118972
15291.0693224
18016.0709314
15406.247798
18607.6371472
17230.3512112
16160.0225887
15446.7410341
15260.7108858
14828.0339746
15945.0875132
15618.683836
14945.3756992
14450.4279062
14870.3991269
14746.8135
15272.1401632
14188.8533938
16538.0368521
14493.4642892
16156.1833068
15351.1251006
14876.0497304
16210.8632475
15114.619145
15891.1958978
14960.7282846
16371.0730132
15109.4129546
15575.6305538
15655.4924647
15644.65765
16724.5287942
17570.7957654
15858.5460648
14939.2308025
15456.3336046
16757.8644964
16248.3050482
15878.9705702
14913.0173096
15533.6598022
15033.2399986
16191.3218269
15980.7801098
15762.0006312
15345.0691915
14999.3501718
15778.5749618
16042.8716268
15571.322027
15618.6747365
15349.3466821
13609.5244924
16126.581698
16127.8240516
15283.2505285
15030.8005
15568.8375096
15280.3221394
14742.725016
14660.9679912
15262.1730256
15339.0566813
16578.7362504
14914.456342
17116.6388563
14492.602798
14846.7645898
16530.8625966
16078.7954488
15598.3371092
16141.3806602
14478.72534
16187.6139514
15640.0148166
16266.748024
14179.4398667
16365.2573124
16005.6697
16301.876302
13904.549663
16891.6580506
16162.9282292
14121.941068
15429.3623752
15875.9110117
17728.0703542
16254.0608932
14139.7992022
13934.3009782
15137.2697732
17600.499332
14014.3241362
15541.645376
14323.5663788
16188.6801126
14919.2056874
16278.6146606
15579.8508466
16040.2723544
15706.218232
15082.4680842
15927.7052436
14940.1488142
15002.5490338
16164.882536
15233.8216068
14360.5795664
15617.4147816
15657.027725
14578.7947046
15832.009957
16089.3472038
16244.6479016
15678.7770628
15045.586196
14101.852328
14223.567582
15924.1551226
15139.8561376
15417.276817
15179.7437828
15446.3489872
16356.9155344
14928.6750409
14401.301108
15337.888252
16423.8346418
14952.4374864
15782.839483
14849.5856664
15647.8997037
15113.8051206
15508.011998
14961.268343
15702.683936
15766.6938712
15853.410842
14296.0823738
14088.0432276
16616.009212
15315.203352
15569.7703983
14389.9161648
15576.5300494
15661.6540904
15264.4476222
17199.7761428
14553.9422148
15521.7452348
16812.8828366
14576.4993692
14480.541754
14641.0989059
15087.869509
15757.7434708
15789.8621302
15112.159309
15143.522858
14196.360341
14785.738965
16471.11729
16378.3768746
15390.0378932
15164.9374534
15185.5990456
15018.0317766
14909.8010896
13605.5320164
15521.3730896
15381.4745416
15359.7863532
15970.3398366
16402.607836
15506.1435357
15277.5956275
15036.3845724
16588.9932335
15146.8319917
15402.283366
14121.026008
15030.5777178
15108.809681
15226.983846
15858.8750492
15532.21036
16359.1377924
15438.3799778
15859.7819382
15414.0548532
15350.0639028
15152.9981439
15936.718554
13853.365586
15757.725654
14451.6774074
15314.6293586
15807.575609
15856.551055
15405.1510628
14802.2499584
15170.2513716
14599.3916144
15259.4279624
17183.5317164
14007.3096444
16322.0601392
16421.2416531
13697.5988146
15599.2939516
14488.5868188
14855.0341431
15408.043602
15804.2046256
15703.8382042
15698.9084938
15088.6318778
13889.3663204
14891.4481581
15957.0224322
16000.4079974
16286.1888004
14802.4650688
16050.8824222
14965.93624
14945.5837126
14724.1852144
16954.1664472
14312.0595128
15155.3350228
13891.1585445
13387.0787908
15576.5564482
15280.3705918
15234.1358372
16907.1702128
15896.7206744
14394.8299945
15966.4066985
15470.708678
15588.964909
15228.475656
13700.4985316
16399.424806
16165.9336564
15053.6245652
15235.1246012
14665.5362514
15301.7033444
14582.5831404
14381.9543812
13832.171542
16622.8391278
13903.997208
15494.2283272
16874.1768794
14524.9111324
15764.102226
15513.4633002
15791.7514372
16388.787516
13866.0770164
16579.9200688
16551.6658871
15201.1625597
