3864.36
5039.07
9137.92
12306.8
2038.88
10750.5
9803.9
8495.23
2623.98
5689.87
2128.19
1738.46
4788.8
9110.41
12725.7
12554
7344.66
4172.83
2073.88
15371.4
28827.9
29912.2
30021.5
15375.8
21132.6
27566.5
34414.9
23330.5
14533.4
35264.1
57044.9
38231.5
8020
8650.11
14787.7
10936.3
12023.3
9529.67
1595.78
7461.36
4090.17
4145.85
9164.24
5033.7
1462.36
3736.78
4612.04
13755.2
6724.3
9029.81
9387.26
5267.95
4650.56
6147.74
7381.85
8608.57
6263.52
15216.8
19114.8
14479.2
28400.5
14254.4
7992.72
11644.4
20062.9
16603.8
14074.9
15590.5
24352.3
44801.8
78654.4
78246.3
82547.5
88039.8
119535
118752
159577
137391
116671
111893
111203
123487
107458
125371
102337
74303.6
57000.2
64293.6
61609.8
24850.8
18445.6
8346.62
12203.9
33125.2
27466.5
21118.8
12727.2
21281.2
12674
6407.72
