1042.83
2199.52
4989.26
4034.52
545.421
271.302
5065.57
1613.21
1377.44
1345.74
445.349
207.773
-2589.07
7993.47
7815.22
6361.35
6026.05
-62.0673
1182.65
10126.9
20050.9
22856.7
19944.8
9793.02
16016.6
23744.1
28427.9
17106.4
8077.66
31602.2
50440.4
29051.2
3252.93
4907.02
12556.4
7434.31
6844.63
4088.76
741.355
28.2779
1344.27
-173.465
4601.82
283.314
835.162
-415.392
1250.56
3400.22
-888.318
3549.45
2920.02
2789.35
1122.52
1774.82
4949.51
2282.8
754.544
9784.67
15115.4
11735.6
23794.2
7691.42
1132.17
3726.1
13752.9
10766.6
7124.5
11579.4
17016.8
38361
71889.4
75610.1
81308
83310.9
108356
114400
153219
131211
115184
110771
108613
117960
98907.4
117536
91999.5
65997
52184.1
62985.8
53341.4
16845.8
5619.74
4907.11
9410.38
20207.7
24128.7
16600
11044.8
17392.3
5605.02
1259.13
