2266.71
9448.69
16523.7
16479.1
24084
21787.7
18741.8
35818.2
36251.9
40874.1
25645
11964.8
2993.6
11757.4
11013.2
13707.2
7619.6
4258.02
7951.92
4838
13960.2
10058.9
12917.2
11060.8
8965.08
6155.06
2801.29
5775.66
2702.21
2837.23
4239.2
10753.1
12384.4
12906.6
5683.51
10541.7
19013
11601
13468.6
24624.5
28442.2
28948.8
29445.8
33460
18178.6
13101.7
8664.86
7574.28
11746.3
11161.6
38515.2
63953.7
32827.6
26481.7
38865.1
29995.4
42624.4
54953
64160.4
80261.1
68469.8
78126.6
102250
107934
162364
194443
164580
136593
120213
107669
106244
90269.6
105324
115963
114159
78072.6
70988
58322.8
75706
49238.6
46178.4
34171.2
15456.1
16624.2
3669.18
7298.26
8802.12
8910.49
14741.1
5580.94
1888.05
1471.57
2709.46
5609.18
9269.97
16327.5
29615.5
23343.3
23084.6
27314.1
37970.9
29560.6
11910.9
17216.7
19648.1
31984.3
52813.3
67406.8
89902
46028.7
42724.6
22049.6
58688.2
58538
34922.1
32197.5
26969.5
44601.1
39965.7
29199.2
15327
11308
19668.7
21458.9
15456
6563.95
15730.1
14539.9
25918.7
17666.8
44090.9
44130.3
29517
23395.5
16110.4
19322.6
19213.5
19989
32254
18408.1
25048.3
18237.2
11266.1
10400.8
3056.58
10153
5345.46
7099.11
11018.9
9111.64
16636.6
1014.89
4347.52
7381.82
2916.67
3994.55
707.606
5048.42
10492.2
10113.3
5847.39
4115.4
3152.68
11278.9
6671.56
2420.67
6260.3
9632.65
7004.72
11581.9
3510.38
6523.81
7466.44
7628
8381.84
4763.2
9427.34
7236.64
8138.55
11953.8
10496
2802.09
7187.04
18714.1
17917
10636.4
9374.17
7402.17
9937.97
9696.44
12272.6
23303
26831.8
24835.4
59972.6
59104.1
118994
100916
101279
100121
119741
162445
113034
85700.2
95050.1
73046
42398.7
67475.2
90422.2
78340.3
83988.7
91027.5
85172.2
84136
74307.8
86127.2
97909.8
131980
98062.4
75825.4
117298
86910.3
80786.2
129498
88548.3
87157.9
111718
140404
159980
161020
160648
147966
159973
171405
124411
110179
102542
126296
149587
108102
102088
59454
40710
41160.1
39625.3
19666.7
42256.4
50172
54020.4
80354.2
57922.8
55250
104559
76231.9
63615.4
54083.2
78819.3
58008.9
56788.8
33234.7
37144.8
37824.9
40360.8
35793.3
29025.3
30234.9
19580
27621.3
12910.4
23654.9
20628.1
6255.48
4569.21
2787.38
9712.46
7226.82
17218.2
13565.3
17387.7
14001.8
15510
6606.09
1720.6
2017.84
1995.8
5293.72
6153.63
2341.41
9066.96
1962.9
2237.8
9226.26
15629.8
9927.76
12046.8
17532.1
12471.7
14197.2
11706.7
10403.2
1792.77
7648.53
7748.29
4532.16
11295.5
18607.3
27573.8
15418.9
15154.2
15667.6
25164.4
15335.6
15487.5
9318.16
10366.4
9613.29
16356.9
17618.3
16153.3
37959.9
18339.3
27981.8
16065.4
35691.1
30507.9
34950.6
71721.3
60646
36471.1
48254.7
51065.7
44479
57730.8
58819.8
73676
65116.3
67002.7
42076.3
30927.4
15187.9
25958
15545
19834.9
22097
24262.8
32840.8
26811.7
16154.3
9138.75
12818.1
17431.6
18024.5
26648.2
38216.1
57407.9
107859
91608.4
50769.7
44444.1
26367
23026
14896
23073.2
17352
32504.6
37106.8
34414.7
18779.3
15543.6
9598.24
14125.4
12677.2
14178.5
16561.2
23903.2
17165.9
22112.7
17324.2
15095.9
22176.9
20707.7
26424.4
12402
12565.9
25965.6
9292.95
6373.72
19950.9
7735.12
6414.84
17830.5
34652.2
26902.6
19529.6
17118.2
24850.4
32750.3
10867.1
2693.26
3144.63
25655.2
12807.6
6244.22
4445.7
14070.9
4458.27
7464.52
3680.54
3263.04
11325.1
9063.45
3311.24
9977.03
21690
19761.3
14376
7388.08
11866.4
18569.2
11433.1
18379.3
27551.4
18052.2
14947.3
4321.95
16729.6
16009.1
21060.2
21722.6
30068.8
24516.7
15583.7
15466.8
15176
30074.6
20295.6
25616.8
39553.3
36069.5
25579.3
62635.9
79397
116252
136751
123624
107736
88892.2
81670.6
73427
69714.7
82738
52650.3
54228.1
96556.1
104192
61600.7
53678.6
49341.3
50205.5
34342
37766.3
39303
39086.7
26555.9
27324.6
17499.1
5364.35
23347.2
14502.4
21728.3
53855.7
50348
58113.7
51017.3
58951.6
59648.3
47759.1
31860.2
31687.6
36644.7
17341.5
30480.2
12880.1
20155.2
13269.6
14348.8
8719.04
22466.1
14324
17588.9
30564.4
20387.1
21308.7
49749.9
11378.2
13701
4001.31
3940.71
8793.69
6039.85
27011.3
49866
52495.2
62844.8
73504.6
75775.3
101157
80912.4
72194.8
74451.2
59094.6
68599.2
59294.2
63273.8
47551
66016.6
71132.7
93990.6
107173
136629
129403
95881.7
109351
167321
143871
121229
120856
76927
54978.5
36466.2
37708.4
22192.3
14594.5
14467.6
9257.45
8188.91
8590.24
2374.11
5456.33
15935
15765.6
8519.54
10403.3
9850.32
13372.6
21179.9
18012.7
9039.58
19592.1
10768.3
40352.9
42040.1
36116
27008.3
19801.9
13675.7
11548.2
20159.1
16312
15989.7
31661.4
17974.8
22285.1
59344.8
103225
89378.2
81000
64270.9
91489.3
110665
77591.6
67397.9
61876.9
45925.4
36937.9
24317.5
36764.4
15327.2
30180.7
34710.1
16955.4
19608.8
14826.8
25077.5
34287.8
56371.4
49949
73018.4
63417.3
64260.9
89309.2
91843.4
113008
56034.5
59147.8
43987
44917.3
35861.2
33670.1
33875.8
20629.6
28456.7
38441.3
22298.3
32673.4
40709.8
69579.7
106233
106676
81882.7
74098.2
72348.1
49168.5
35376.6
22758.4
48440.7
44866.6
51947.3
29004.4
26726.4
24418
19678.7
38474.1
34815.9
46854.3
45767.6
40752.9
25491.4
35638.6
47012.5
60080.5
77598.7
74840.9
44911.5
65356.4
49665.8
60178.1
36298.2
43299.4
32767.2
24556.4
24273.7
32420.4
42310.2
51038.1
37259.7
15989.3
13403.1
14630.8
17943.1
18305.3
23691.2
39392.9
55754.5
67608.2
43998
39242.6
29318.1
43258
44858.5
50972.4
67952.4
97993.8
73389.3
49214.2
52962.5
87284.1
108308
55423.5
55293
56556.1
44051
26437
29568.1
31262.3
31261.9
45279.9
74238.5
57994.3
70733.5
46494.4
44864.7
50888.7
39920.2
14915.4
11462.9
8080.85
3632.58
4253.8
5742.15
3548.68
13913
13010.7
18540.6
9738.07
6640.92
18433.3
18691.1
20350.4
31177.7
29890.4
29363.8
24290.8
24109.5
33760.1
27312.7
14341.7
14517
12083.2
2867.52
11094.8
8660.59
5873.12
1967.49
6056.67
8194.23
7557.52
4537.89
6175.97
9777.54
5283.98
2181.74
4360.96
3764.45
4689.28
4505.61
1578.52
4504.69
11997.5
13599.4
3864.61
2169.6
5388.85
9925.58
8808.84
6854.96
14314
9383.18
7467.7
5773.74
2327.93
2525.77
5513.45
12078.4
7677.3
16657.1
6374.7
10483.9
17709.1
15634.6
12788.6
23451.2
12027.5
7413.45
4806.02
5388.75
22115.9
12858.2
23323.8
14515.8
10315.9
11329.4
13988.8
16224.4
13579.1
6078.22
18883.5
17541.7
8634.83
10216.5
12538.4
7023.16
14327
29214.1
14109.7
9595.99
3776.67
8223.78
8122.3
3246.49
13302
12981.8
16115.1
6822.16
23535.3
15303
10315.2
9634.69
14425.7
9875.05
17513.9
19376.3
24157.1
22171.2
8130.97
3915.23
6223.83
3648.9
13365
26501.5
15069.9
2673.61
5116.64
4943.83
7062.6
6564.46
5396.89
14978.8
11941.4
7962.82
10889.4
19574.2
16499.4
17804.1
11090.5
2326.48
5896.65
17059.6
5916.3
3242.38
276.623
5027.7
2610.33
13953.3
6012.54
14925.3
4702.04
10907.5
8379.65
10554.9
19549.8
26101.9
29288.9
32825.7
27830.1
35032.7
25117.4
22067.2
16121.4
13972.5
16782.3
20348.5
11430
11256.7
17560.1
11366.6
9766.37
8591.07
12758.4
10926.4
16060.3
2960.99
6861.88
4714.76
14048.5
13604.2
8354.21
2779.92
3841.45
8123.47
2993.15
11081.2
9927.43
14068.9
5668.55
2777.81
4359.55
11700.1
9315.71
7689.17
5104.01
13146.7
20740.9
27698.1
20010.8
14011
14168.1
20759.9
16167.5
8624.56
13200.1
8891.02
12132.5
5512.36
7372.69
12325.3
11295.4
3395.17
6011.36
9803.99
13170
13128.4
5148.35
5025.62
1913.46
5353.3
7140.3
7018.27
12515.5
17722.5
10482.2
20199.9
15539.1
12996.7
11273.5
12152
9432.32
8538.21
18219.8
15912.1
5469.27
2178.8
1032.4
11236.2
16445.3
5931.25
2071.9
10346.7
14964.2
19572.9
9398.02
7911.29
3805.93
7800.51
15641.3
11238.3
9333.74
16380
11348.3
4552.56
3727.97
17204.5
12215.7
11122.6
19543.2
10025.9
16537.8
21724.5
7020.39
5660.57
5418.89
8188.07
9112.4
15150.4
5689.41
14331.7
20510.1
22907
34643.4
27144.2
23062.5
35118.2
63278.2
92403
83827.2
78739.3
70915.7
49778.3
84363.7
69641
58736.4
71760.7
53229.1
50984.1
21344.4
18118.2
11337.7
6473.79
26769.8
25624.1
15892.8
16230
23893.5
12796.1
13510.8
12774.3
11618.5
10920.6
17412.1
18692.3
13737.2
15344.4
25387.3
15439.8
26671.8
33075.3
41124.9
26232.1
16028.6
26642.4
38824
45390.6
38444.8
48503
41219.8
52504
57643.4
33040
58517.2
25742.1
11133.7
4876.14
14988.9
8487.49
6120.6
2023.93
12620.6
36633.8
11749.2
16977.4
11107.6
9673.49
23379.8
18901.6
12392
3558
3985.22
5630.5
14320.7
23008.6
33370.7
25422.2
10756.9
26691.4
25086.3
15021.2
16357.3
8072.64
3768.16
6792.86
3676.87
1951.36
7005.42
3450.78
8191.08
8194.42
12065.4
11851.2
14663.9
26887.2
18618.3
14749.1
12263.5
7169.28
13206.7
10708
16287.1
13405.8
32481.3
26361.4
25544.6
36216.9
20868.6
37687.8
34873.5
60409
64136.5
66384.5
30181
34758.6
35335.7
29066.5
38104.6
54496.2
58905.2
37933.6
34501
45921.6
70645.1
68154.8
53030.2
51057.5
58568.5
65818.9
55735.7
79816.6
62634.9
31429.6
57249.5
32864.2
22026.6
14857.6
18042.5
8015.73
15848.8
20382.8
13682.2
19702.8
13117.7
6023.45
2303.58
10216.7
37755.9
17475.2
31412.2
32767.4
30516.8
23807.5
24573.9
48447.9
26214.1
24396.4
10712.8
7762.71
8564.8
5190.7
9003.58
23824.1
24465
23687.6
28087.1
41181.8
72804.4
91734.9
98695
108569
114169
75141.3
86273.9
77165.8
26953.6
49193.4
39969.9
32336.5
28989.4
34881.6
54084.2
55784.6
29274.4
29796.8
16538.1
12343.1
46470.7
32995.3
28700
14957.8
6059.05
2744.35
5580.54
4443.88
6117.73
4706
1598.34
3582.3
4471.47
5026.48
1020.28
3386.36
2543.1
8672.7
7144.02
1410.46
5660.99
14320.5
32792.9
34961
34732.5
54210.2
97134.6
79261.6
92676.7
51265.7
54583.2
34067.8
42225
29262.2
21524.4
34150.3
43871.7
13363
23022.9
38677
36004.2
23705.3
16189.6
8747.03
13415.5
24610.4
33915.7
14172.5
11049.2
10549.5
8267.74
9261.99
17581.8
7770.27
7529.3
1887.64
4783.57
9502.18
6220.04
5603.02
4785.72
6310.24
23961
24334.5
15301.2
27756.5
16506
25928.5
18595.7
24342.7
16099.1
21174.8
8788.96
7948.03
5374.2
13435.4
2592.5
9127.41
21325.7
31833.3
46138.2
26785.6
10124.1
3773.55
10606.1
12843
7041.57
5139.34
11578.6
7973.4
13051.8
7903.58
9767.03
5194.94
3070
6330.97
6072.2
14734.2
17100.2
19406.2
16056.4
7888.74
6766.3
9404.49
19959.3
23322.2
35593.1
36350.3
51696.6
18948.3
14461.5
24957
18244.7
11946.8
14485.8
8448.35
9154.68
14742.7
6958.53
1760.46
2762.64
20463.6
11631.6
20903.4
24180.1
21756.7
17145.1
19069
35293.7
23720.7
15263.6
37205.6
40031.3
31475.1
23540.2
14363.9
10241.4
22679.9
31360.4
36126.2
29829.6
21637.5
23287.4
36335.7
57821.8
68568.8
40794.9
76654.3
84299.3
57802.9
38700.2
23917
20382.2
5457.35
23935.5
21882.6
22173.1
20154.1
17933.6
6112.67
10939.8
10393.2
14816.1
18322.3
5777.76
15086.8
8188.49
3050.61
6950.36
12991.1
16003.3
28567.2
29730.2
9799.39
4371.41
5438.09
8926.97
16687.7
32377.9
37866.1
25318
25376.4
25091
14551.1
7590.26
4110.12
4296.85
5438.29
9060.51
37474.1
35972
31616.5
36475
33228.3
3820.31
5016.09
7397.74
8478.65
13328.5
21683
19105.3
12631.3
4473.11
9320.64
9652.33
8367.51
13126.6
15450.8
22232.9
48733.9
49665.7
41134.2
50312.6
48438.1
65827.6
63826
74493
54932.2
76565.5
53386.1
41638.8
38867.9
58850.6
47000.4
34084.9
31010.2
35284.7
25291.3
27514.9
35744.2
45134.5
35015.5
46302.1
27449.5
37079.6
55431.4
50626.3
39520
39475.2
43232.3
32456.1
38136
43037.7
44716.2
59116.3
62832.4
46606.5
62865.6
25679.5
36769.1
25297
31226.7
18930.8
45562.6
29407.9
18001
10893.8
2700.62
14411.9
13933.3
8529.46
11478.1
10328.2
22539.3
17359.5
11523.3
23642.8
26580.1
47542.9
14009.1
7863.9
6815.43
3500.28
6124.74
9953.74
16968.2
6481.79
7962
3088.59
6280
3289.58
2511.91
9205.7
14586.7
28950.3
21006.6
26231
31114.7
27598.5
39930.8
25290.2
16322.5
9990.35
8222.37
9820.96
6244.25
4132.59
4781.45
3682.62
12422.4
14602.2
21497.1
4231.81
2786.1
5707.12
20623.6
4953.7
3993.2
2991.18
8766.27
14886.4
21254
20474.3
14559.2
6503.54
6335.8
9443.6
4068.58
12639.6
5978.62
13288.2
14844.1
23457.4
25411.6
11693.8
11172.7
9349.91
11451.2
9792.06
12027.6
18065.3
11742.5
26212.2
14624
38091.4
39039.1
31555.9
22520.7
17064.4
18729.8
19857.4
37435.9
41327.6
54956.7
49919.4
51963.6
45617.3
35617.9
20453.1
23409.7
23047.7
18690.4
25586
40503.5
58711.5
40255.9
42280.8
18412.9
21845.7
29702.4
38635.1
19067.6
16186
16819.9
40498
47091.5
32083.3
40750.1
17235.4
13047.7
21037
24896.4
29139.3
22172.2
24346.4
47020.6
50786.5
50960.6
47295.3
48816.1
39910.6
31415.7
42362.7
27947
46504
39653.8
37157.8
47423.2
32967
20126.9
17203.2
17320.7
16168.9
21830.9
32612.3
28846
11649.6
20045.1
16482.2
42555.9
46784.7
39188.1
51728.2
29901.1
21941.4
36896.4
38627.3
48851.1
54389.7
66222.4
63364.4
30155.1
18842.2
15476.4
10002.3
6712.65
9601.99
11204.8
12679.4
10201.8
3693.41
5593.3
4822.22
7326.2
5663.97
7754.71
13979.4
26436.5
13303.1
13714.6
8004.57
9418.08
3644.9
14857.8
15664.7
6335.97
7360.67
14961.1
19545.7
34095.5
33981.4
31009.1
34054.9
14822.7
19779.4
23842.2
6002.65
5059.56
6004.2
2720.13
5124.41
7662.54
8215.15
7642.84
6954.88
4355.1
2859.81
8438.71
5545.87
14673.7
10959
11666
15163.7
19252.3
18659.5
17930.2
12805.2
7238.58
3887.49
5947.28
10356.8
22654.2
40072
27543.4
19768.8
13208
9814.85
23320.7
19537.3
18373.2
18359.8
13408.1
8472.47
36551.9
36033.3
32493.2
18738.9
28007.6
38312.5
39783.7
19399
17428.4
13801.3
10673.2
24192.2
61835.5
29850.2
33202.7
33154.7
33621.5
35598.9
19127.1
6804.86
5604.01
4515.86
11298.5
12481.9
11201.8
9408.82
21101.1
27301.5
13914
5548.06
4379.79
4580.62
12083.6
5529.37
19908.3
35000.3
20635.5
28271.6
21815.7
18698
39461.8
47738
44892.4
44017.2
47454.6
61215.4
87893.7
82194.2
39610
49551.7
56282.4
51963.3
24779.8
11600.5
3790.47
3210.96
5024.71
3214.5
15803.4
14120.1
12971
11892.5
19270.7
13109.9
17121.4
18745.3
16231.2
8839.99
30162.6
28216.4
24851.5
10827
27821.7
21126.6
33531.7
38791
49971.3
70992.5
89719.9
116022
85742.2
98815.7
98126.2
93983.7
70891.7
43552.8
41259.4
42118.2
24323.4
30337.2
17338.4
9543.25
11245.2
27904.4
58048.2
49247.2
51267.7
73642.4
81095.6
43501.1
78124.1
64215.5
43333.1
39695.8
30150.9
59480.7
62488.5
59499.2
41116.7
38027.1
37571.7
22402.6
23416.6
17510.3
20411.7
16411.4
18389.7
24560.2
42648.6
48653.6
43450.8
15331.1
7914.67
817.156
6186.22
6426.05
6673.66
18580.8
29736.9
10296.1
17778.9
23160.3
23841.7
12906.1
14289.5
7955.94
5406.7
17775.3
15469.5
18943.6
7382.39
12873.9
4305.59
8643.96
6176.54
4407.36
4051.16
3425.23
8002.46
7102.33
4816.57
6167.02
9085.07
7594.31
2925.45
7120.71
9208.41
11474
8062.32
5664.86
11677.1
19588.4
19209.8
10137.6
5533.4
12276.2
14951.1
12183.2
13378.8
20167.9
40725.7
27004.7
17703.1
16917.1
13279.4
26487.9
16625.1
26510.5
39248.4
43668.6
82610
96945.9
100468
92996.2
97989.6
108693
61458.7
50585.6
39821.9
22660.8
28143.1
25717.3
24455.8
12187.9
18788.9
26884.5
10937.2
16486.7
19546.5
9003.19
9961.87
5018.67
17281.3
17464.3
6559.84
20130.1
20044.8
15369.1
12226
9989.45
18133.2
10362.9
9083.6
1962.03
3493.53
4727.98
7598.52
20091.4
19290.7
11939.8
15182.7
9348
14183.5
857.109
5498.37
18839.4
28721.2
25272.1
36905.1
41936.3
30801.2
35061.2
53659.5
73745.3
82457.9
87074.1
93745.4
93890
81271
88197.5
74049.7
56978.5
53258.6
61393.5
73027.6
48940
45787.7
35170.3
46307.8
73109.5
79115.4
77019.3
56841.4
91174.7
78511.7
90124.3
103194
102880
94204.5
90934.7
92536.2
64351.6
49069.9
59928.7
66857.3
57462.9
76469.5
42265.9
38934.5
38145.7
26341.3
22064.6
20602.7
18912.7
17963.8
12535
16472.4
31507.1
25480.2
44789.8
30802
14969.6
9189.35
10485
30455.1
21840.3
14853.2
12657
16377.8
12983.6
13221.6
32525.4
20480.8
21870.3
14638.8
30182.9
23978.2
33991
53514.4
35637.3
23718.7
29400.1
38406
27185.9
26575.3
23970.2
16546.1
10598.7
5699.68
2392.95
7700.94
19857.1
30074.2
8302.71
9867.56
4862.53
23909.3
32601.3
19201
17423.2
19617
15623.8
14372.5
22701.9
32312.8
28459.4
16337.9
16118.1
18198
23656.9
11975.8
4669.72
5322.33
12099.2
2287.85
4930.33
5165.83
8904.91
8781.58
10667.4
3467.32
2609.82
13538.7
17238.1
21567
29267.6
36612.2
29759.7
47885
72716.3
70263.4
60933.6
80298
129373
124757
81145
53634.5
65082.4
57413.1
52506.6
27382.2
20030.5
45778.2
45324
65636.2
66721.9
42722.6
44203
40712.2
35518.7
30712.4
38011.4
39539.7
21076.6
7300.85
9830.82
3495.44
7265.68
8007.63
2529.44
3279.96
5304.81
8288.47
3644.02
4555.82
14127.8
23332.5
21373.5
19085.2
29320.9
22230
24525.5
17498
19193.2
14427.1
5263.92
7195.42
4985.16
7891.72
11183.6
16656.1
31370.3
13244.8
16709.5
2730.67
3483.06
3562.46
3008.72
3964.95
7419.09
5353.78
3356.77
2984.47
10124.8
8013.96
9669.58
11128.8
13894.3
11204
6719.88
7355.8
5888.77
7928.1
14057.9
6711.66
15189.8
24200.1
49553.9
29197.1
34373.4
37090
13620.9
12598.1
9308.69
10574.8
15637.4
14573.4
11829
6971.42
12122.5
11874.3
10190.1
9602.09
8335.43
2576.9
6990.84
4818.99
7757.75
8395.31
1041.01
2660.14
3438.49
4836.14
11548.2
8064.62
3729.8
15476.9
23902.3
24896.2
10656.7
20560.3
36821.4
50188.1
30544.5
33286.5
52058.2
47677.6
55741.1
59611.5
54842.6
71983.1
66275.7
77852.5
78098.5
72370.7
45294.6
31655.3
21283.6
25014.8
20446.2
25773.6
24125.9
31626.7
13654.9
18906.2
34221.3
46911.5
55963.1
52226.1
32401
23750.4
12394.8
13132.3
23210.1
9545.13
13705
17040.5
8773.37
13556.9
9618.05
9743.52
4928.84
10032
6637.91
6052.62
6187.15
13363.6
7850.78
8742.11
21807.9
10845
32831.4
35672.8
26679.3
33006
36031.1
29084.4
26942.2
24667.6
45371.5
66671.3
98429.3
120074
94249.4
127222
125610
102421
124120
105698
66529.2
76042.7
60383.4
61618.4
33986.4
10895.7
13833.7
21752.2
33587.2
40072.1
70534.6
62831.2
68219.4
31844.5
18040.4
26457.6
14475.7
10399.9
15844.3
30928.1
15670.7
13521.4
26287.6
9698.58
35408.5
45457.4
53838.2
38844.7
31099.7
39203.1
45242.3
38192.4
33773.9
39391.6
35413
53041.2
48931.6
38552.6
40026.7
40000.8
28361.5
22044.8
9391.98
11960.7
16961.7
36333.6
22388.9
41643.8
34070.1
43808.6
41503.7
32891.9
7426.06
6134.72
4459.83
3924.07
5199.8
12658.3
6168.25
6276.6
5488.95
15193.8
25741.6
30452.1
19585.3
19688.4
5904.13
4350.05
9280.09
7352.99
22908.8
14425.2
19800.9
16403.9
21530.2
36420.7
33821.2
44476.4
39554.4
57632
22539.3
38951.3
23796.2
24994.4
23448.5
34737.3
7963.48
13201.5
18094.5
15036.7
17436
14949.1
15132.1
18684.6
13876.6
17586
12273.6
6303.99
2498.25
12698.4
17089.9
22364
13485
15453.6
5760.96
9254.41
7370.23
4673.02
2757.77
4742.7
14101.6
19255.3
8033.56
6272.91
5619.91
8415.99
11990.6
20331.6
25493.6
22604.6
30049.9
14895
18228.3
18630.4
21855.6
6709.37
30795.1
31035
21406.7
12074.4
19362.4
17673.9
13468
13859.5
27795.9
18397.4
32756.1
23152
13455
9326.42
7918.7
9451.51
24191
21529.8
40798.1
47505.4
38825.1
65671.9
105956
141156
118069
106883
101241
98089.7
108349
108627
138157
108239
125161
98239.2
107457
139007
156983
123769
86795.9
68532.7
94865.5
161274
140102
107026
61820.2
71515.2
59461.9
54541.1
54675.4
36783.8
32562.9
17523.5
30208
33189
11759.5
16237.1
15303.7
4755.99
6844.88
4486.82
4170.26
17356.7
16936.4
6708.53
6929.68
21127.2
10385.7
16089.7
3294.64
10389
5069.66
6213.66
7860.49
20639
26994.7
29243.9
25150.7
37104.4
32376.2
50427.6
48464.9
50212.5
40550.5
46082.3
79969
88006
93102.5
82072.3
97067.3
91813.1
82832.4
65599.5
83662.8
77601.1
82210.3
84660.5
84309
59211.6
42038.6
37837.4
36893.3
31245.4
29441.7
20436.7
22625.9
27215.8
52634.2
25310.7
17839.6
17193.9
10936
6389.93
3353.97
2451.67
5148.3
15435.5
23700.5
25276.8
13645.2
7870.2
11970.9
6854.06
5922.77
13813.6
5733.06
10330.1
18723
25806
6067.11
5610.18
19109.8
14098.2
9545.45
13165
7469.31
6917.21
11850.5
10337.7
18633.5
17365.1
16814.9
19609.4
17039.6
31785.3
49868.1
67092.4
59632
46902.9
68760.8
40337.9
66361.2
54450
41535
19069
23021.6
27192.8
16097.3
7317.98
8831.44
8464.07
9341.89
17835.2
3197.78
17913.6
19948.7
10820.1
7427.81
15040.2
7220.82
9955.53
12046.2
6991.27
11426.1
8599.78
8177.46
4431.24
3839.34
7799.7
2991.35
2519.01
4842.88
6589.1
8566.32
4891.02
11302.3
17558.4
3843.98
4923.46
8078.59
14557.3
20585.5
20634
14716.4
13563.9
7431.88
16742.8
2306.01
8661.09
7251.73
9653.14
6770.43
16783.4
31917.1
19437.3
12654.8
2707.76
5589.33
13857.7
28302.2
25057.4
22323.1
26878.5
31662.1
45166.6
36833.8
40661
16875.4
6284.19
10031.7
9517.55
12097.5
4961.85
2837.76
12410
18160
18467.6
18450.1
13850.1
8186.11
6269.45
6926.81
1833.29
12022.7
10748.9
18378.2
5237.65
9133.55
9576.49
13136.6
8199.8
15543.5
25157.9
25110.2
17035
29840
29203.8
25428.8
23238.4
36534.7
33455.3
18051.2
15500
14849.5
21914.1
26303.2
15288.4
12957.2
14630.4
11821.6
9601.38
8551.35
5643.07
6375.2
1778.45
1406.73
6474.74
5351.14
17614.3
10896.2
3538.68
11362.7
3868.65
3538.15
12490.3
21857.8
26118.1
43762.3
62614.1
75927.3
51017.3
60480.7
82846
95225.8
144721
105780
115330
129703
101945
66550.4
56141.8
56836.1
29006.9
12577.5
18892
32306.1
42760.9
66149.5
40592.9
39198.9
21108.4
32070.1
60488.7
54982.1
52868.4
67971.3
92073.7
101922
97605
92754.7
109852
112113
77102.8
62924.5
74342.2
93960.4
56665.7
43992.5
28090.2
63485.9
47595.6
28300.9
45733.8
28945.6
31388.4
41299.6
44563.3
25559.7
25778.8
46992.2
52083.4
22686.6
8828.24
20986.6
18106
16154.3
7975.42
14948.1
28736.2
22627.5
24071.8
16207.5
14675.2
1440.47
5607.02
16648
15922.2
14180.7
12573
2004.41
3292.29
8565.25
5282.23
17145.1
16166.1
9773.95
16296.6
18263.6
18528.7
13456.2
1037.36
7576.88
9223.93
9756.7
3778.16
1848.38
3362.72
6393.97
6848.43
7821.68
7216.05
11670.8
4920.97
21747.5
23336.3
41471.6
25786
22871.1
33978.6
43130.9
57476.4
37954.9
44841.5
39389.2
21278.6
15642.3
15813.4
17462.2
17775.8
12342.1
9218.36
20096.6
12204.1
15375.3
14827.6
46719.2
53820.6
64375.9
76018.8
89360.9
76180.9
56410.8
39096.2
32597.5
43931
61116.1
73806.3
31868.6
30513.7
25409.5
38767.7
39059.3
33013.1
28758.3
35347.8
38565.4
41783.1
35963.8
47570.4
34340.7
28074.8
18678.6
27567.4
41357.4
25581.9
29810.1
23067.6
18773.9
21344.4
15382.7
5939.67
10613.4
12746.7
5666.09
11803.9
13284
6716.48
11326.2
19339.7
22674
23099
29134.8
22068.8
27875.9
22358
13843.4
11980
3526.55
10096.6
13483.2
17204.3
14079.1
21408.2
11559.8
16672.5
23341
29578.4
37962.6
20086.2
15976.2
17914.6
16885.2
18285.3
13740.5
7792.27
10294.3
27392.2
22239.8
12488.3
7839.37
15964.8
23501.2
11928.1
30020.6
34290.4
21392.9
27691.7
22122.1
18103.3
25946.8
30862.3
27125.8
6119.67
13821.1
12428.6
4822.04
4350.94
7959.16
2241.82
6005.21
7966.16
8707.77
5615.51
7198.2
13734.6
35130.2
30479.8
37240.2
51220.2
43235.7
38258.4
35999.3
50685.7
62576.3
80796.4
78702.1
75099.3
74235.8
78425.4
75070
49332.2
24727
26770.9
22116.3
18644.3
6111.78
3623.73
10214.4
6748.56
2912.9
3777.1
2606.61
7402.37
8387.3
15527.6
12051
23252
17243.3
15405.3
16212.1
18352.9
13268.7
16614.6
23037.4
28325.7
30802.8
28879.1
30296.2
12371
14794.4
16627
5199.34
13449
20003.7
35798.8
29072.1
29254.1
23406.3
29326.1
32109.6
39347.4
25346.7
23465.4
33556.1
36059.3
22916.5
44750.4
22882
17876.5
9596.59
15473.9
20480
40484.8
14166.4
20233.5
11093.7
7600.59
11267.5
21585.8
10918.8
5163
15112.7
26031.8
27668.8
15847.7
13634.2
23350.6
29498.4
29036.4
26555.8
24028.7
39518.5
22500.7
8071.35
15912.1
21260.8
26404.2
18492.4
20299.1
14116.3
21136
13912.1
11291.5
10558.7
16796.2
24242.4
33699.5
46847.1
55566.6
55590.1
54021.2
46423.2
23078.1
14538.2
14809.3
17241.7
6177.15
7641.8
27087.2
11944.7
6212.19
4906.17
7369.53
18536.4
20412
15877.4
28601.8
22470.6
17919.1
11630.6
12967.1
16695.4
46166.1
32935.2
15069.4
11608.9
12160.7
10636.4
32374.4
15013.3
11698.5
24087.5
17268
16794.5
14943.4
4155.22
9736.78
5469.19
8769.82
6473.66
12642.7
7295.51
4628.17
7951.17
10785.9
14053.7
16090.9
9963.08
14295.6
7974.9
11267.9
3390.69
15400.4
12932
19878.2
30129.4
27620.4
29615.1
26205.6
17335.2
11618.8
8441.48
10158.3
13031.7
23896.2
21959.1
28801.8
16088.3
12296.5
22397.1
30844
28077.6
13470
8627.27
10389.1
21593.2
42018.4
43581
55489.5
53472
30822.3
76199
83377.6
57280
59274
56979.8
52308.3
45035.1
39418.4
51135.2
59326.5
29415.2
47214.8
42433.5
31796.6
30271
31513.1
57071.1
64634
40635
24600.7
50108.8
41494.1
42320.2
47347.8
43439.8
58993.5
77849.3
85826.8
55436.7
90395.4
120282
150559
127387
145302
115104
124932
129207
99261.1
76148.3
66466.5
64490.1
57805.8
59992.1
48083.4
35907
55787.5
50660.3
54137
23521.4
20899.6
20194
22208.6
18671.3
17948.8
25836.5
16788.6
10593.7
5411.17
2630.02
5781.49
3299.02
7548.81
4531.92
9819.01
9186.02
533.536
22476.4
22194.5
47986.9
55177.3
45554.1
58609.4
65589.1
59027.6
33082.2
58478.9
74391.6
73658.5
50384.5
35724.8
40633.4
34943.6
36140.6
24274.2
49189.9
56306.3
88645.4
92434.5
84180
57174.5
65493.6
60064.2
32076.7
26304.4
22597.3
33433.8
22420.7
36241.8
50608.2
54443.9
42741.8
24579.6
61450.1
52302.4
47489.6
48929.1
36479
41014.2
25546.8
24562.9
51065.8
42812.8
12399.4
17356.8
27614.5
10515.4
7587.19
9819.67
5970.22
12760.5
13452.2
11371.4
8426.34
6091.3
25746.3
23769.9
37572.7
21191
26941.3
35366
13381.3
29507.7
14830.9
28052.5
23491.7
24905.2
47639.1
33032
30453.2
15817.6
11302.1
27587.8
33515.6
40539.4
41299
70722.5
79876.8
47896.5
25517.4
11410.3
26223.9
11575.9
15401.2
5061.11
4662.63
6425.5
1817.19
7891.46
5086.02
20751.8
14185.5
7131.5
11558.6
24185.5
27752.7
43344.8
37870.9
57787.3
43787.8
40036.6
43384.6
11140.9
5594.88
4857.41
1658.98
7755.52
7289.21
10378.9
7753.11
7913.82
1554.88
7018.17
15490.8
16829.6
19083.3
11345.2
12149.7
17492.1
11509.6
17241.8
23569.2
20692.4
21241.9
51076.6
52999
53303.3
46928.6
38946
26800.2
37276.8
55405
54230.7
60600.2
51718.3
75163.4
68324.2
97383.5
113640
86871.1
122164
95184.9
53147.3
38505.1
29563.4
32627.5
19821.4
32787.6
32998.7
61508.2
56193.8
40405.2
48034.5
31189.4
36106
8536.7
12416.3
17317.2
14411.6
9164.83
14644.1
8471.96
12698.7
14934.8
6052.69
5555.87
12342.2
6326.46
11830
14309.2
11676.9
11240.5
4505.89
13649.7
18342.9
7961.99
17039.9
6019.84
7669.99
13374
7309.69
5123.52
6327.98
2466.41
8735.85
7440.17
11392.7
14311.5
15139.6
11761.1
13070.7
8663.85
4532.37
5441.45
4764.54
15240.6
22236.9
20093
33344.9
15278.3
15909
33190.2
25812.1
43400.7
28861.9
26788.7
38886
18950.8
33857.7
32022.8
62752.1
73696.9
59189.8
51914.5
60926.8
14504.7
49376.7
44458.3
43295.1
68938.9
60759.6
71499.8
68329.8
45673.4
48808.8
46726.6
64663.3
56595.3
67699.6
68503.6
82093
98687.1
90927.5
97022.1
98430.3
76737
74914.8
68689.8
83690.6
69117.9
81834.7
90878.7
96616.7
58346.1
68458.8
68154.8
96572.4
57815
52682.7
67133.4
75468
85158.6
53562.6
58719.8
56172.9
51414
77400.1
98245.1
91500.1
63375.8
42255
56983.6
61624.2
45008.2
38908
36965.7
71385.2
51630
75603.7
54156.3
60625.1
65118.9
65052.6
36001
51702.5
67781.3
58056.5
49006.6
46193.1
72514.3
81409.5
60529.4
40245.1
21218.3
14738.9
17558.1
6740.99
25079.9
31626.4
38590.2
37032.9
16961.5
9172.11
3903.12
3331.12
7780.39
2130.12
5426.27
4654.38
4357.79
2875.76
6756.74
6861.71
6147.62
8949.23
5157.99
12744.8
15395.4
28612.2
14796.7
23659.1
13321.8
17098.9
19720.2
16059
17922.2
17522.6
24611.4
12529.7
18563.8
5833.7
14512.6
6255.8
12070
6771.89
8586.74
15993.1
4518.9
1457.94
8136.86
7063.79
10451.6
7951.07
14550.6
7199.05
7054.52
6866.57
11038.7
6436.41
5405.74
6062.07
18562.6
16600.4
8792.44
13029
22628.1
16375.4
22215.8
44334.6
70898
58268.1
74590.2
88561.5
62734.2
57285.2
97781.8
149132
163008
175254
147862
172198
177435
166837
161977
150152
136712
134787
141846
66382.2
70621.1
51477.4
48787.8
17027.5
21635.5
7667.75
4987.45
3494.7
3394.2
5116.46
7101.95
9329.93
23516.6
27117.6
15331.4
2823.28
3124.57
4276.25
10561.4
5207.41
3645.29
4737.98
10933
10297.9
14490.9
13058.6
14530.3
15465.9
26298.3
57168.8
58895.4
29574.2
31511.2
36408.8
20492.9
10741.8
5192.09
11955.6
5848.76
10700
19390.3
17393.3
41089.9
50098.4
66435
80245.2
66395.9
65460.7
38339.1
20007.3
24568.9
31308.7
37925.4
22390.3
20674.2
12230.1
28205
26061
28020.4
24881.3
23991.2
23848
31974.4
16148.2
10184.8
6645.23
20839.1
10172.8
25267
16015.4
19890.1
13594.5
9554.91
23024.1
25134.6
26727.7
17219.7
10583.3
4461.43
9368.13
5147.4
6583.06
2572.8
3501.68
8353.21
8401.9
5753.37
7142.75
4398.35
8744.52
10448.2
7024.04
8276.4
17972.9
12979.8
17412.7
17693
6882.11
23319.7
57403.1
52570.6
40730.4
60575.7
62439
56808
49229.7
47680.5
42980.1
57013.7
73979
78453.6
48745.8
58670.4
63222
64357
83694.6
107419
110070
48341.1
44065.7
66196.2
80763
55213.9
44337.6
65685.5
47983.5
53679.7
56277.7
49140.1
47201.9
52312
32250.3
16119.1
5506.57
8123.95
16557.4
2241.4
2141.31
8315.22
16773.8
17761.5
10831.1
12986.4
12816.6
6202.6
6598.91
19548
14791.4
6921.36
5645.22
5106.5
3991.12
9410.07
4659
9070.06
10767.8
14909.1
4102.21
9461.16
12206.2
8418.6
1882.4
5702.73
5600.13
8345.22
16783.6
17923.4
40245.2
43013.7
46230.2
55302
54834.1
41278.9
57948.7
62745.4
76223.7
71821.5
48825.2
46865.7
55029.4
53860.1
50750.8
31183.9
51876.3
73000.7
103131
68245.4
85404.9
83943.5
43350.8
51767.8
46687.5
41706.4
44669.8
43273.2
41332.9
35928.9
38817.3
22254
14443
13792
8734.91
11440.8
14167.9
6252.61
12624.2
12592.1
22494.3
4520.92
7468.11
19876.2
27143
15827.6
10137.1
14806
4691.93
1874.88
8790.49
2561.54
12948.3
11493.5
8714.83
20550.3
31261.2
12860.4
14226
12808.9
5678.18
3740.52
2427.55
3211.43
5763.82
9376.98
8370.41
10838.9
6408.76
2974.58
6136.13
1743.09
3864.82
4452.03
1831.91
2686.42
5245.26
7491.03
15410.8
27478.6
28821.6
10760.7
11112.5
12642
17775.9
13559.1
7156.4
10986.6
8824.93
12768.2
11093.7
7642.37
11032.1
5052.74
9945.57
17806.5
19019.3
41926.5
48571.9
47084
27626
62794.8
51835.5
64266.9
61051.4
42727.5
36994.1
39418.4
32217
21400.7
15674.5
12814
22824.3
27248.2
37942.2
20760.8
18455.8
28660.9
24220.5
55177.2
44684.4
42990.9
43446.1
36388
37257.2
35304.1
34301.6
23079.2
22240.6
698.746
3355.61
5836.22
1367.05
4265.53
4129.31
9998.41
10175.4
3232.36
4897.18
19635.8
13334.6
18456
8817.67
3801.38
6623.57
15595.2
9459.53
7773.15
13804.8
26800.8
28068.3
27046.6
37958
35820.8
39248
32472
42884
24980.7
21793.6
15242.8
43451
52403.1
36539.4
18542.9
20147.6
30280.7
17144.1
6869.76
7339.99
28172.4
13538.7
23248.1
19601.2
34371.7
11017.7
19367.8
17749
9977.84
20849.9
17859.6
22170.5
13287.9
23451.9
26787.6
44155
23271.6
11202.3
27639.6
16142.1
8655.35
6940.06
4752.31
7687.35
5719.72
1845.57
5682.39
15225.6
17199.4
16769.2
18676.2
10797.1
11477.1
4280.49
1393.68
19768
27705.3
45915.5
48777.9
73256.2
50069.2
51783.6
68581.4
76494.8
81696.6
51930
74839.1
81479.9
67616.1
86215.1
58784.7
69256.6
84343.8
65473.9
71107.7
100261
87778.4
169891
124577
91829.8
104787
73435.8
86696
80734.9
82516.5
107940
101801
106613
93854.7
86744.1
78064.8
85036.9
66912.7
43830
17363.9
17685.5
22040.5
9665.35
12065.2
5073.9
2892.75
4971.11
3282.2
15423.2
32138.7
11417
28112.3
45819.9
30899.7
6694.98
9548.39
9345.83
5865.93
2461.64
5500.69
7350.15
11732.2
29023.9
43104.7
39810.6
39664.9
37944.1
33838.1
26079.3
16331.2
19158.3
14448.1
34049.8
28583.8
45893.8
60945.3
65239.7
64715.2
64193.7
47565.3
59361.9
50972.9
28522.2
28150.2
39486.9
45928.7
49081.6
29170.3
21670.2
30680.2
27463.7
50636.4
41091.4
37575
49094.1
42723.4
57835.1
48565.9
38939
45250.5
49944.3
33256.4
14325.9
4395.64
3265.69
8742.6
27037.9
29352
35322.4
44501.5
41205.2
57126.3
65883.8
70490.3
57003.6
53195
20246.1
20701.2
35012
23510.8
3624.01
5478.66
6444.3
16031.9
22190.7
31805.4
43052.8
38664.6
41216.6
16140.8
13143.2
14209.5
14387.8
9400.15
4932.29
1383.98
3055.53
5168.66
14393.4
27136.6
32421
43011.2
40948.6
49203.2
16472.2
22692.7
38755.3
35139.3
42586
56855.9
59570.7
65805.5
44285.2
23485
29910.1
42868.8
54842.5
90029.2
62354.3
65940.3
44922.7
37116
12335.1
15055.4
18007.6
17664.4
40095.9
19716.4
9081.75
1464.92
1789.78
6652.37
13941.1
12561.3
9662.54
2364.02
2693.15
1199.03
2609.71
6367.95
6841.79
5803.24
3754.45
10392.5
15930.9
8753.8
5618.06
12989.6
11052
6227.46
16406.8
17010.9
11078.6
18561.9
23056.5
36906.8
26273.8
46850.2
62544.9
62871.6
72788.8
87317.3
90027.2
59261
43216.4
47883.3
46337.5
46303.5
42577.7
46108.7
80241.3
48888.2
74625.9
58205.8
53445.1
44082.3
28629.9
21912.5
31442.6
48875.4
54570.6
37850.4
23610
23882.2
25254.7
18721.6
16174.1
20117
11715.4
15721.8
19481.4
15890
8512.44
6136.49
11151.9
5923.26
7691.56
4819.04
7723.36
5277.52
13509.7
29807.9
20757.3
11305.9
8406.17
4257.85
7795.2
9529.51
10814.6
8064.45
9638.59
13263.2
18983.7
8481.1
6338.21
7603.08
4691.58
3609.02
1056.25
8781.34
6834.17
2961.52
4562.96
7093.47
14799.6
8856.04
19008.9
18744.8
31248.9
58422.6
45289.7
48674.5
59455.5
61645.4
64371.7
58055.7
56809.8
40258.7
52280.9
45431
58768.9
79454.2
90876.8
93458
102273
70987.4
60427.5
59895.9
64662.1
75686.4
73678.4
87885.8
115904
83892.3
87193.6
49882.8
51749.4
30037.4
63971.3
43959.4
50082.3
39126.1
48847.4
45129.6
65969.3
28596.9
23592.5
15304
17035.8
32163.5
52174.4
36686.2
35554.1
28137.9
30972.6
8931.61
7553.2
7773
6400.25
4761.56
3879.6
8431.12
18841.4
35696.9
55604.6
35006.9
30840.8
37899.4
25553
36939.2
22644.5
29852.5
39368
54652.9
62503.1
81624.8
72250.1
72227.9
60105.6
36141.9
18755
13712.6
14706.9
7713.51
9895.7
4777.81
7556.23
9064.09
8057.13
14866.8
7655.79
3568.79
3370.48
5724.72
9980.55
9467.01
9360.13
7557.71
14212.8
33639.2
33787.6
30881.2
60102.9
37118.6
25756.1
21429
16025
17889.1
15363.5
10263.7
13208.9
23859.1
24094.8
26652.6
30674.7
27337.2
39466.8
35768.4
17598.7
24632
16778.8
7218.43
12106.3
8055.65
13687.4
19876.2
11951.8
14334.3
12294.7
20519.2
28231.8
31384.5
41438.6
17665.9
23382.7
37934
85322.6
68478.4
45394.5
34025.4
37120
21505.9
38441.5
26155.3
14308.6
3421.54
664.936
1920.58
1829.67
5641.88
3871.02
7756.22
7372.42
14694
15514.2
15272.2
17621.7
8930.59
7158.94
9763.45
15723
7002.83
16920.9
5717.04
5167.92
6581.14
11869.2
11534.8
5065.64
4717.81
3437.79
4218.79
9410.73
5721.05
4956.06
8639.16
17412
17733.3
22389.3
16914.8
29811.1
29347.8
12509.9
5520.83
20840.3
10764.2
14781
7925.42
18343.6
8791.95
8166.43
15687.2
30269.7
36208.8
45479
44781.9
44464.6
38975.7
26525.2
15097.3
3331.6
1218.89
4993.34
16443.4
22159.5
28774.9
30165.8
32731.4
64823.5
48239.4
24861.7
39680.6
30315.4
29726.4
49685.1
30620.1
29046.4
13491.7
8374.87
11381.2
2156.67
3885.91
19685.7
17175.8
26708.9
22132.5
10979.4
4539.02
4125.96
4949.48
5664.13
2007.58
3291.15
1849.25
1582.94
4130.19
2423.82
10285
19983.4
17715
23548.4
25693.1
7591.66
6147.99
1506.05
7054.96
4132.58
4131.83
2499.29
4950.2
3192.67
4478.89
5148.08
7947.01
22893
26815
27265.2
9639.99
9852.24
20747.1
23737
29064.9
26114.2
28473.2
27264.2
15719.7
5539.63
3694.6
8716.45
15587.2
19278.9
16275.8
17822
11824.2
9798.82
21526.2
25176.4
10664.8
5649.81
2259.29
3237.81
8030.69
9707.71
8531.34
1435.93
14563.1
20890.9
26263.4
50597.1
64773.6
73644.7
54883.5
27674.9
9139.76
21378.7
24795.3
13361.7
22201.7
16243.2
20094.2
15598.4
5447.74
5393.85
5172.93
6086.78
8117.33
7913.37
11938.8
16091.3
4538.41
8702.9
8337.61
8190.22
5863.19
3628.87
4411.44
10737.6
24949.5
23841.9
6394.75
6656.38
3367.46
14842.9
2025.45
4420.65
3833.02
3059.93
8076.32
8827.84
10920.7
1237.67
3443.89
6098.52
3015.07
7956.68
11702.1
16790.8
17720.6
25681.3
43635.4
57130.7
40372.7
42677.7
30100.3
27490.6
25065.5
29183.4
23114.3
28442.5
36793.4
30034
28395
23890.9
17404.2
12827.3
18502.7
31400.4
34191.2
14163.4
10198.1
19649.1
17404.1
12978.7
12306.7
16680.5
17354.1
6569.88
19951.3
12549.2
16546.7
11863.6
6645.93
5538.77
7955.67
2497.18
15947.2
14236.4
13203.3
10687.6
8977.86
11073.6
9770.29
5479.08
4335.91
5503.72
4790.77
7822.3
5045.5
5201.93
21576.8
15727.8
19530.6
13142.5
15007.7
28370.3
34157.4
38001.6
29515
19797.8
39305.8
22888.6
25179.2
15787.8
4537.95
2161.24
5380.72
13018.8
35770
39290.8
25206.3
28690.4
20191.7
25190.2
33220
50894.2
44714.9
49254.1
24434.7
38583.5
47804.8
33278.3
25519.5
15032.4
12024.7
3433.23
7796.38
5846.28
10109.4
3613.16
3770.37
8175.88
2926.56
3674.59
9861.05
12637.9
9440.73
7878.58
9080.66
8639.22
9422.31
7318.86
12959.5
26202.2
10131.4
12701.6
24724.8
18987.6
26823
11306.2
12067
19216
41498.1
25543.7
23332.2
35143.6
26638.7
35075.3
32015.9
37725
34808.8
25592
17440.3
14871.3
19500.5
25267
23833
22071.7
7546.63
8295.34
18652.9
7616.74
8996.46
14241
26099.2
14753.6
18911.1
38199.7
21085.6
21387.8
47442.1
44857.7
45416.3
35299.2
28336.9
26722.4
53049
40890.9
42168.9
29989.4
36367.1
17644.1
16116.5
17360.9
44996.9
35800.1
22311.6
58854.8
40090.6
62502.9
62285.5
93334.4
86755
87495.6
83434.8
82659.7
71713.3
87609.8
61427.6
83222.5
68816.5
90430.8
137549
94365.5
90379.7
84066.3
107457
102047
125216
124205
85509.9
97764.8
123828
98727.3
69608.8
136259
104024
96991.2
79925
62978.4
54065.9
49653
46303.1
37101.5
26857.8
51162.3
53151.5
53319.4
72274.5
58632.9
46836.2
78724.7
83261.6
57381.1
71183.9
64332.5
49571.2
36148.3
24990.1
13388.6
14317.1
13501.9
9904.6
6821.53
5045.44
1251.12
8280.3
13982.3
39354.9
42404.8
19029.8
31459.9
41321.2
33307.8
36488.5
40192.2
26202.2
25102.3
26937.6
69503.9
59393.3
82150.9
55471.3
34533.3
32110.8
56884.1
29141.4
48549.6
35374.8
33284
49434.7
69625.6
92153.6
64178.5
81365.2
83592.5
78580
120018
134587
114052
120515
64557.8
52998.2
42000.8
72151.4
28000.6
8051.89
5890.45
4672.19
17189.2
7672.31
13866
19496.7
19487.5
12748.6
14412.1
11659.8
3200.9
10354.4
4311.95
5699.45
4109.34
4065.35
8816.74
6153.87
22859.7
20829.5
22531.6
12886.7
12890.2
1847.97
5338.65
3189.13
2976.5
2654.24
13962.9
8935.23
14419.7
29132.2
15688.5
21946.5
26492.2
27613.7
19802.3
6891.62
30176.6
38122.4
22795
23172.2
24841
11270.5
13636.1
6582.38
7284.35
11132.3
16166
4062.22
3535.36
3772.24
12678
22169.1
24997.7
33777.3
28529.7
35801.2
44027.9
49910.6
60148.3
52264
42163.5
39314.9
25350.9
30335
19768.3
20694.7
12282.1
11525.5
6718.55
7069.46
4493.53
3525.33
5883.68
12908.4
18583
29160.2
11046.3
11300.1
19140.8
24485.1
33959.9
21398.9
23736.8
23767.5
18269.8
18675.7
9864.78
3496.41
9086.07
4248.33
2766.8
2981.16
1960.44
13962.8
9540.39
2439.78
11490.9
5513.43
5399.63
5292.8
5277.88
16090.7
11450.3
14902.3
12134
9595.86
3283.92
4076.19
11650.1
16954.8
12150.2
35332
11505.4
13499.7
19261.4
32491.5
38110.3
59313.1
60381.8
63942.7
51863.2
83333.1
100352
70373.8
56800.5
55883.6
56646.1
47019.5
26970.9
23061.6
19498.2
31096.1
22628.5
38537.5
31978.8
33779
64926
68806.5
53895.1
59095.9
71984.9
111195
84106.2
76773.9
68228.5
65537.3
39631.4
54411.1
50953.8
35973.4
44429.9
44352.8
33164.4
24803.7
22297.7
22493.9
39214
26088.6
19263.2
17900.8
14082.3
12487
13760.6
11932.3
6798.43
3366.36
12155.4
11664.5
7541.43
5988.14
7061.14
4623.83
10683.5
7255.83
15299.5
24372.1
28899.6
16017.7
32023.1
37523.8
6416.25
8449.47
11193.1
7619.03
21594.2
22589.1
34009.9
12638.6
32238.7
51557.9
30618.2
37635.9
39073.3
25501
25092.8
18428.9
18898.6
28727.6
32146.4
8485.35
2119.89
4519.66
17245.2
18687.2
14226.5
9957.32
16316.1
17925.4
7767.65
11088.4
18342.9
27131.9
50223.1
29648.8
38322.7
52120.8
28225.2
15153.4
15714.7
12924.7
13302.1
7458.52
8424.82
5786.01
7476.38
5880.44
10608.2
9821.85
2309.55
10217.6
4561.72
5868.62
2260.42
7260.46
14720.2
7756.93
17127.8
15128.8
14822.7
3842.34
4463.82
12564
23107.7
25995.4
40563.8
40620.5
23601
28427.8
23506
15416.5
15835
11029.4
22428.4
6249.08
6553.94
6761.08
14729.9
39715.8
82296
73028.2
56587.4
74362.5
90743.3
49223.7
41748.7
56558.5
69507.8
88097.5
73665.1
69819
65623.6
45190.4
36656.1
29616.3
30656.1
42921.3
77502.8
71849.1
73085.3
53547.4
43822.2
38781.9
43525.3
38821
77430.8
46190.7
44417
52275.3
66478.1
59474.9
57778.3
57397.2
40545
50981.7
53048
37258.9
53936.3
66463.2
79871.8
63499.2
60413.1
65495.5
63056.1
82457.5
45397.1
30946.8
51120.7
49285.8
39935.8
22273.6
38179
25723.1
34998.8
12880
21896.9
9325.62
4502.47
11906.5
7896.98
7237.48
5631.29
8382.96
4227.12
3825.96
8466.17
5603.33
10753.1
11639.6
6765.8
6232.55
21958.9
20095.3
16191.4
21446.4
53371.6
40294.9
35924.8
29239.6
24131.5
36749.3
28149.8
37278
32102.2
25542.5
5305.36
1472.14
4900.62
17938.8
7472.03
6603.98
8116.79
9330.75
5344.39
2195.1
4681.2
10857.4
1609.75
4291.62
6845.65
7227.29
8173.75
11217
14221.3
21052.8
28485.5
26818.9
33087.6
26820.6
36812.9
39350.4
32741.1
48721.6
50288.7
35560.6
14569.5
35878.8
34213.4
33551.2
28191.4
23230.8
33677.9
32476.9
29427.5
81800.9
67931.2
69085.7
43960.3
58155.7
63330
73636.8
68520.3
83089.1
72101.5
53919.8
47104.4
50502.7
32558.8
45476.9
52066.7
41702.9
23691.1
15862.1
7897.1
11769.1
11596
7138.06
9053.39
12821.2
13833
26223.8
42699.8
22666.1
17979.8
39600.2
10513.8
45893.6
50407.3
41661.7
31345.6
27061.8
12148.5
7659.35
4778.42
4422.92
4470.98
3928.06
6198.54
7875.38
12550.4
5097.69
12224.7
12651.9
12864.7
25316.7
67576.7
77081.8
107908
86170.7
76668.7
89341.4
70363.8
64357.4
67641.4
63145.3
46954.8
40769.7
51196.8
63464.1
63931.2
83884.3
86527.3
83018.1
83421.1
117701
149341
141109
130315
144754
153103
116166
77750.6
63224.2
60686
24190.2
31121.6
25120.3
6359.12
11097.1
9278.05
5074.97
7785.81
16358.1
8592.19
10655
8816.3
16357.4
12503.9
4437.93
9037.16
20428.5
42596.9
13049.3
23142.3
12740.4
12332.6
22985.6
29531.2
42338.5
46734.9
54554.2
43217.4
47831.1
50724.7
56779.7
45873.5
49034
62811.7
65861.8
54395.3
70137.6
50131.6
56445.6
36249.3
29175.3
30072.4
30434.3
14337.3
23347.4
8246.29
6647.73
18520.1
19834.1
14964.8
5222.28
19430.6
32847.1
35474.4
43077.4
51198.4
54018.7
37015.4
34805.2
39577.9
49234.8
38253.9
31858.9
19945.2
29954.9
38267
58859.1
34151.7
32663.6
24743.7
29189.1
26671.6
26657.5
13638.9
18306.3
22227.8
9498.95
14955.5
17416.8
29360.8
27472.6
22883.2
5104.93
4380.35
3383.44
5351.87
3310.84
6682.23
6313.73
5335.83
3151.39
8836.54
18878.5
10676.1
6481.52
8484.32
4779.67
13807.7
12679.4
7556.74
18743.7
20301.7
34834.7
55715.8
50445.5
33097.6
22892.9
11622.9
18645.5
15654.8
12930
13808.5
12858.6
11356.9
7212.85
12351.8
18228.4
10294.1
3838.69
6940.62
18031.6
16276.4
13563
3962.2
2620.13
6079.26
4811.92
4028.95
4182.97
1674.33
2565.25
2077.42
8825.25
20147.7
17241.2
8756.8
3861.17
1739.76
8219.24
15420.2
8132.41
18481.7
38841.7
38736.4
40643.6
40837.2
31127.9
42371.6
51181.1
61071.3
99317
105789
129728
157207
232880
178274
126680
131200
157970
172516
164357
195431
208977
192824
150540
119392
130293
131035
131349
179934
194953
118937
118797
133978
148160
124831
131189
105441
68617.1
89285.9
80530.8
80821.8
63053.2
88810.6
100940
72421.2
35309.9
33865.8
12876.2
27168.6
13378.6
12086.1
19877.2
15978.8
21938.3
29366.6
23364.2
30105.7
21199.8
27693.2
17522.4
22831.2
26451.4
21296.8
32198
47800.6
41626.8
40717.8
34120.1
51343
66464.5
68332.3
73902.6
68118.7
44310.7
69585.3
89169.1
79215.3
111209
110715
77444.2
53184.9
47077.4
43278.9
40745.1
41018
44395.6
31585.6
22078.5
20230.7
33517.5
36627.6
34317.6
47919.5
59046.1
52081.9
32512.2
18310.6
22292.3
13877.7
12853.3
20880.1
37097
39949.3
49343.5
19678.1
11624.5
7923.32
4594.69
5574.51
6730.03
14001.2
6964.7
14573.4
16370.6
6848.22
13369.7
23268
27655.7
26742.9
8040.46
20034
24661.3
9238.61
14566.8
26379
42206.3
24372.2
24276.6
6222.87
9235.88
13786.7
22988.2
18839.5
16341.7
26144.1
61001.9
51340.7
76647.7
67937.7
58164.1
42136.9
36474.6
18411.6
30123.5
29818.6
10249.3
15961.2
15861.8
23271
54010.3
70517.5
115133
88045.2
80023.9
83632.2
92602.5
79608.3
38842
49779.6
25909.9
27406.3
23040.6
43233.9
35816.5
14569
9471.4
9601.8
4063.64
2072.14
7849.73
10943.8
6428.77
7313.85
3827.25
7849.22
7337.86
11748.9
27734.8
22459.8
16761.3
33388.5
21076.8
37070.9
32130
41172.6
71262.7
54309.2
29640.3
38463
62920.2
62277.5
59874.9
56243.2
30855.2
15384.7
20868.8
20902.6
9572.87
5641.55
21598.2
21858.2
23419.7
14645.4
19537.8
13062
6809.24
6380.11
7071.67
9538.41
20038.9
16947.4
15792.4
16822.5
21121.7
16026.3
22521.2
33552.9
46162.5
36988.6
55784
49812.8
38795.5
56691.5
65836.7
55640.4
86776.6
60929.9
39647.6
43437.1
35896.5
61225.2
85445.7
53634.9
36891.2
41959.7
62071.9
64249.4
61027.2
61422.7
44730.1
25148
53353.5
60075.3
49375.9
46432.1
26862.1
23166.5
18316.7
12862.2
8324.57
9382
7453.16
7186.69
9893.22
6198.48
6499.7
15668.4
13795.9
6753.01
4042.28
5797.92
8139.76
10310.6
5893.45
8542.02
15127.5
26396
14299.8
17553.6
22604.9
5319.47
2228.28
4546.09
5595.39
14502.8
12472
12190.7
12399.2
14137.8
5740.23
25725.9
14952.9
41174.3
33708.6
41989.4
43632.5
53702.7
75779.3
100901
83291.8
84461.2
72337.1
33398.8
16911.6
23675
24888.3
18593.5
9084.88
3016.43
2173.65
7443.39
5712.79
34984.6
38143.4
51295
38508.5
29447.6
20984.4
13143.8
20005.3
11822
7451.35
3065.99
2915.98
5324.91
8975.2
7039.94
15964.7
21471.4
13373.8
29314.7
12120.2
12118.1
14313.1
55338.2
70610.3
54981.5
83670.5
82334.6
88502.5
77643.4
76720.6
67085.8
64622.9
116431
117938
157842
119364
125937
94356.8
83311.4
87138.6
113384
99736
82404.5
84431.8
54049.7
62419.1
29828.4
29776.7
23725.4
13585.4
35229.4
40787.2
33577.3
32157.1
45012.9
31425.6
23241.8
32768.2
54578.4
65023.6
58592.5
62215.1
41749.7
27143.8
23660.6
40448.9
50766
35831.6
31186.9
21483.7
24033.5
44096.3
56395.7
61608.2
60610.1
39563.8
48725.2
63669.3
64030.9
54639.9
55003.6
28083.3
70791.9
73286.4
78684.2
75015.9
69889.5
88599.4
71443.9
64755.3
78442.9
76170.6
46228.7
52123
57868.3
59729.6
45980.8
39907.4
35149.2
36935.5
38577
19669.7
33089.3
35008.5
11866.5
14551.6
14526.9
23323.5
25725.4
52580.2
46929.7
39902.6
41338.5
24685
7520.01
9812.57
4073.51
7060
3577.6
6586.61
2043.23
5469.91
5133.97
1975.39
5738.6
3126.21
14377.1
11564.9
14840.1
10563
36402.7
34291.9
24912.9
23549.1
12030.6
15809.4
20793.4
7745.93
4958.51
4980.59
6949.32
8077.19
30306.1
9816.1
6130.37
13192.3
9652.05
4820.07
3395.03
11795.2
34788.2
38814.9
30394.7
36425.6
39017.4
33565.9
12523.5
9809.55
15414.6
10871.3
17443.3
15521
52361.9
54501.2
63275
61465.1
69907.7
41444.7
33410.1
47678.1
35209.9
15923.2
29390.6
17865.1
8818.72
15594.6
11493.1
26227.9
30036
33382
19857.9
19431
28434.9
27625.2
36073.3
48176.5
13622.5
13169.7
4415.93
16861.5
12749.3
13686.8
8069.68
8367.36
13146.2
6496.39
15703.1
15399.2
3687.62
1658.24
4410.29
7452.75
9650.9
9830.83
8121.61
12193.5
2379.09
8783.51
7110.51
8157.13
6535.13
13445.8
21578.8
32607.1
35894.1
7147.29
3651.64
8227.17
8255.63
6184.8
15106.3
13484.1
15461.9
5912.55
13138.1
3337.32
4627.27
11904.5
15560.2
9464.27
5135.43
6654.06
1287.76
2638.43
6811.71
20941.5
15245.1
17758.7
23357.7
43596.8
55288.2
59736.6
72081.5
65432.5
45533.9
43349.3
35270.4
25676.9
28987.6
46940.1
52125.1
29068.9
32958.4
41711.1
32861.4
29306.8
37355.3
49543.3
48641
43380.9
25788.2
40611.9
34231.2
37482
18616.9
23327.3
12989.4
19622.1
22279.1
27407.4
25051.3
20148.7
19099.5
15918.5
17302.1
25073.5
33795
15040
30426.7
29202.4
23685.1
20324.4
4760.89
12346.8
2821.3
15160.6
43178.8
27373.2
16464.7
11803.7
6001.83
22599.4
20293.3
24322.7
30499.8
54914.1
70017.4
48329.2
63265.9
61278.2
35944.5
44296.1
76218.8
82891.8
82184.5
71454.3
79031.9
98234.8
70490
71474.3
44142.7
27672
13752.3
21462.7
29754.8
48447.7
71815.3
58438.2
56617.4
54744.3
57267.7
83922.8
77937.3
83248.2
84821.4
69453.5
61508.1
53886.2
24718.6
36469
44366.2
35320.8
31042.9
19760.7
19260.9
8732.04
22365.7
37871.8
26017.2
16853.9
25543.3
19208
17483.1
26564.8
19731.2
14673.9
14544.9
34269.7
23108.9
33853.8
18133.9
20252.9
45125.9
39567.4
29045.1
28808.5
17414.5
13785.9
5857.8
5354.89
11343.3
17575.8
9480.21
5903.29
5779.07
10669.4
5580.49
4532.81
10246.3
15497.6
11149.1
20616.9
42710.7
29561.4
17577.4
11150.7
16618
7105.1
16261.3
22833
18216.7
11155.1
8129.63
15279.3
18616.6
21735.1
27803.6
38140.2
36316.3
21470
17764.6
34201.8
58068.3
54459.5
43398.3
51816.5
73834.3
89529
80985.4
71088.8
68496.4
62912.3
26581.2
26234.5
48353.1
30159.8
29449.1
21465.4
30448.2
21805.3
25352.3
21857.8
39680.4
64462.1
71143.1
64931.3
40942.4
20168.7
20336.5
37922
35998.6
26180.5
35518.3
53503.5
44657.6
48518.2
44921.3
38078.2
55830
32688.3
32692.9
11455.3
9463.54
1507.2
4328.21
3378.32
5023.31
4754
4120.32
8419.32
16004.1
10477.3
20647.2
26278.3
11362.4
3775.1
16435.3
17627.8
19708.2
26323.2
34380.3
44236.7
53928.4
65080.5
65867.5
47263.1
46129.4
18645
14756.5
26827.1
15630.4
30910.8
34561.1
50905.8
62003.6
61439.4
44089.3
21599
22370.2
25978.4
61455.4
40489.5
48186.3
44355.2
17645.8
12355.9
14026
5439.11
8869.91
9906.21
11958.8
11158.8
11047
21418.5
20465.2
30294.5
30779.6
37951.6
27471.8
49056.1
33783.6
16826.8
33570.5
35151.5
31174
30710.7
14520.1
32359.8
30544.3
22600.3
16678.5
21048.9
27151.9
13132.5
15848.4
9308.92
8123.85
12176.3
8698.82
4474.21
6644.09
9114.32
15206.7
18185.4
7268.12
6194.15
15350
17753.6
30015.6
15117.7
28864.1
28922.1
32421.9
19027.8
6296.84
6869.67
9707.81
12199
17351.1
13398.8
15980.6
8513.58
11776.9
4008.77
2828.62
14326.9
15212.3
2673.86
1245.3
10018.8
6451.5
23706.8
16473.1
8386.68
22437.2
28820
20512.4
6980.38
4053.44
9199.33
6603.51
3025.44
2476.93
7019.77
8894.76
8352.46
11735.6
13387.9
3820.24
4585.47
12820.8
6937.82
14623.1
8711.4
21520.7
15097.6
20107.7
12764.6
3417.62
9642.55
18920.8
11783.9
11202.8
20225.7
3033.9
18021.5
10889.9
4324.75
2138.87
2858.76
1734.08
10747.7
6955.23
14597.6
13854.5
13707.5
6606.49
2430.23
2517.91
5590.85
4800.47
12400.2
16441.6
16171.6
14865.6
15155.5
11632.3
8776
19253.6
9825.11
19660.2
25230.1
39833
33567.8
50615.8
40334.2
31316.7
45244.9
71694.7
69347.7
81187
112548
152876
153791
177888
135316
112133
142585
146316
141742
162681
132619
114883
85043.2
76419.5
68398.6
93187.3
80049.4
114805
134742
132109
132032
151759
103117
78978.3
84791.7
87388.9
73716.4
73042.4
79281.2
54336.3
63136.6
86896.1
135643
161529
148023
175837
117063
139192
164177
142913
129018
122443
105721
130872
110643
98511.9
84270.9
72501.4
36879
49157.1
49283.3
65910.8
53358.4
39859.7
36813.8
45779.9
45311.8
54892.3
43074.2
42002
87574.3
80733.1
112092
99090.8
84005.7
86220.8
120487
95727
99031.7
97024.8
91768.8
57166.3
47320.3
43076.6
51535.3
54974.8
64198.5
45618.9
29581.7
28316.8
2572.17
9080.69
10558.4
14702.8
7649.19
3400.91
5422.64
6869.54
8413.67
5298.3
12932.3
20255.2
16452.5
16164.2
9053.52
5189.15
7772.25
3416.66
4893.21
12084.9
2979.06
4795.69
18550.7
28144.3
9968.61
7552.93
10964.8
28284.1
31756.4
18342.1
18589.7
14325.6
13537.7
3740.78
2845.8
3935.25
6965.1
6489.28
11297.7
10752.9
24403.3
4453.44
4586.75
5334.53
6158.57
3336.84
2385.5
8435.56
13596.6
7338.88
1551.17
3608.14
5212.37
1658.02
3384.01
5754.89
7611.46
10490
6843.63
11189.8
7997.16
11232.2
21589.8
28032.9
31495.8
33281.7
24093.1
27956.2
18491
30279.7
24119
22984
58505.1
48588.5
37498.5
42771.6
38526.9
42037
47834.5
63956.3
74033.9
74187.3
102916
69835.1
61322
34801.7
40989.2
27122.6
22757
11236.2
5025.12
9775.64
21733.5
18869.5
31279
13431.3
7668.06
6480.41
7138.21
10640.9
15190.7
8675
10736
23326.5
14938.6
17758.4
22949
17386.3
11579.7
10678.8
11999.7
15582.9
19453.1
21758.5
29213.1
34681.3
26860.7
34776.4
46240.6
52180.9
40174.2
54166.1
73421.2
45418.6
44945.6
24674
18264.8
23474.2
19980.5
7665.55
3484.34
7520.32
7551.3
17903.2
13065.8
8083.07
5229.17
19616.3
23616.8
26513.6
20451.8
30501.8
41339.1
70182.9
77035.6
78479.4
88598.9
78585.4
44788
29943.5
18440.9
17874.5
19935.5
15021.1
19685.2
19952.9
12512.5
6576.68
8553.75
11336.8
7231.65
8854.31
10012.6
11593.9
13992
5111.8
8868.56
6505.67
4907.99
5519.68
4251.28
11981
10294.1
27001.8
36045.2
46851.5
60338.1
68085.7
44171.3
31107.3
69422
59677.5
84530.8
94700.5
67962.5
54163
77028.2
84282
115823
112291
112059
154045
73258.7
65260.3
63445.5
63841
59533.4
55661
54535.7
54672.7
94855.2
76576
42276.6
66857.4
65425
47620.6
49271.1
58590.4
77778.1
53874.9
62643.7
51112.9
38854.5
42280.1
24559
18698.6
31467.6
28587
22486.4
28163.4
32456.5
36389
53029.5
46161.8
84768.6
99042.5
90308.7
88099.6
65024.1
80786.2
84740.6
75267.9
121937
111446
81700.4
85007.5
74460
88700
105697
106508
79668.1
64303.4
39108.7
55105.9
97302.6
123877
93681.3
74011.6
96749
117626
99556.8
105442
96662
114489
113608
108038
118379
74845.9
78598.8
90161.5
78682.9
91098.9
76493.7
60283.4
56737.9
79369.4
72067.9
54843.2
28068.4
17605.7
14449.5
13997
25892
15625.6
16480.6
34745
37239.5
42523.5
26457.9
25899.1
7933.03
6832.4
9800.91
23797.7
5963.98
6608.46
7641.19
9012.58
6615.36
11974.6
3703.88
5836.88
17238.8
6043.16
3866.79
8929.35
11290.7
13060.4
2853.14
7079.78
2240.18
1921.28
7187.72
4536.57
2500.16
16730.7
14745.9
10893.7
17789.5
16527.6
33126.3
43918.4
78949.9
29126.6
23399.2
20452.7
18562.6
17189.4
17287.4
21898.6
19175.3
31883.5
27345.6
30236.9
23075.3
41796.8
70068.6
103309
83722.6
70146.5
68264.6
79207.3
68998.9
56379.3
51112.1
35518
22359.2
37413.2
19824.6
9626.65
7089.59
3040.89
17526.5
12943.2
5009.86
10333.1
13908.4
4413.57
7950.6
6069.21
14961.1
9046.48
1133.38
1875.5
967.076
7666.71
18377.4
19307.6
15904.3
23911.6
21446.7
8229.67
11610.6
5533.76
16490.5
5058.99
1810.39
7741.62
10035.7
18030.6
39987.8
43045.7
39893.7
33607.2
14426.1
12265.1
11507
10998.4
14918.2
40921
25760.7
7029.1
11054.6
4891.38
19979.3
9303.05
6644.47
5439.11
13292
14202.2
14793.7
12945.9
4692.07
7662.1
13419.3
7940.93
6366.74
10085.6
4923.15
7207.19
4192.63
3168.27
7993.86
8192.81
12792
2829.68
6382.39
15752.4
18149.8
16680.6
7678.98
10482.7
2905.93
10587
12296.3
11043.2
8765.85
10752.3
7641.95
22222.5
17635.6
8406.51
3135.39
8356.97
12131.6
3594
10235.2
14889.9
7497.32
5538.11
2255.48
3309.31
10026.2
17865
18854.4
19020.4
8912.22
8194.95
10294.2
5781.34
5432.68
15253.2
24034.8
6762.1
7868.61
7919.59
11381
7302.27
14494.1
5745.36
9751.72
7750.37
20829.8
23708
32706.1
23073.5
24720
10925.7
7587.67
4109.49
10612.8
16540.5
15345.7
6635.19
6092.38
5002.39
3169.22
2917.5
7316.84
23883.6
33494.4
36260.5
33936.2
26073.5
34181.5
24160.3
36378.3
46362.1
38279.1
39377.7
20842.3
27838.8
38861
60133.5
68922.5
69619.8
90096
90864.2
59051.2
73545.5
60790.7
62794
47526
33564.6
20770.1
21606
18155.2
18940.4
18759.7
23384.4
25267.1
18741.6
17444.2
13895
16754.4
29400.1
28932.9
24841.3
15803.7
15211.2
27982
30259.8
17228.7
23710.4
14153.4
13050.7
12178.2
16262.7
22575.4
34091.9
18015.9
7653.41
16533.1
16383
16979.8
13897.9
11397.8
25123.6
32249.7
39658.8
43267.9
44722.3
49781.1
58290.3
69356.4
37880.2
20211.4
16107.1
21123.4
13656.4
34733.4
29511.6
54783.5
75757.6
103295
88144.3
73987.9
78914.3
78662.4
78113.5
109611
82952.8
72370.2
54571.7
46991
28009.2
27671.6
47362.1
34061.2
63448.4
45504.6
69776.5
79781.3
50330.7
47789.6
49643
60594.1
78714.2
49172.3
50196.4
51367.7
45443.9
48331.9
56934.6
57693.7
48893.2
52676.8
53785.1
53011
19962.4
15166.8
17193.5
9277.18
5912.65
3957.9
8780.08
3616.19
4879.93
18827.8
21828
24363.7
29232.1
30581.5
28527
39893.1
39916.9
25572.7
16753.2
19312.8
19424.7
8285.84
4341.1
1817.35
6709.72
17912.1
7668.82
6514.48
3926.48
4520.74
6381.55
6613.41
3573.23
11047.2
26042.5
31482.5
25990
15132.1
13294.9
9254.06
6210.38
5000.25
13476.8
11692
15943.6
4117.02
4529.3
7286.95
8618.17
7311.65
11693.9
20862.7
25076.1
31911.7
27163
43304.8
43569.6
38058.2
62803
125146
145394
175275
193492
196042
148117
129681
119808
100069
72024.4
69752.4
60977.3
27840.9
41213.6
41370.5
51058.9
57244.7
46092.7
53171.3
49620.9
48581.9
63450.2
80913.5
71595
58296.3
48922.1
64959.4
66738.7
68787.3
69100.4
49854.2
40147.2
24557.7
12580.7
25416
25516.9
17779.3
16564
12862.9
15150.5
13329.7
5542.06
4263.21
5386.25
8691.9
18584.1
10345.3
11464
12114.4
21231
23226.7
23075.8
34196.4
22294.5
12692.5
12604.6
10768.2
14011
9824.24
3508.8
5971.52
8480.83
4394.42
10628.6
8771.84
12359
9540.34
7195.36
27538.9
44919.4
35086.3
20682.2
8970.13
9268.81
7288.25
5816.92
4165.06
5914.42
12798.8
17400.1
11802.1
18746.8
15845.4
9479.8
16169.7
15815
21995.7
43733.7
31483
35021
65312.1
50816.2
46382.8
40547.1
36729.1
26570.7
30106.6
50487.6
49952.8
76147.4
51334.2
36179.9
55516.4
41053.5
47993.4
69986.1
52004.9
42112.7
18428.8
32823.3
48650.6
57707.3
78140.8
69096
81860.4
123773
102130
84178.8
105273
126347
112531
127315
112385
89194.6
67283.9
57548.7
41733
45544.3
20341.1
20864.2
13404.3
7144.99
14404.6
11430.3
26265.6
25183.8
10053.8
12319.5
15058.3
14471.3
5924.09
6727.06
2850.43
5965.15
7564.31
13796.4
15593.2
18706.1
24010.3
41742.5
14856
24441.4
42368.7
47143.7
61805.5
46696.3
50131.4
68899.1
135620
102708
113140
119243
135887
70805.8
14366.5
15253.6
13877.5
24299.5
18705.5
12950.2
15416.5
15510
13826.9
9815.73
12955.5
24731.4
24057.3
27365
37936.8
47692
61139.5
53459.5
69208.3
79327.8
41601.3
55569.8
34908.8
49748.6
59016.8
73203.3
55347
64829.6
81307.3
56614
46092.1
48282.7
43882.9
27142.3
7844.68
3750.38
8707.53
5799.72
7897.07
21312.9
38574.9
31548.7
21868.2
36102.4
18199.4
27105.6
23460.6
14871.7
13053.1
11804.6
8708.8
2432.41
2451.63
2902.95
5771.96
6381.34
3487.57
6549.03
2705.38
3519.07
5269.84
15349
9989.04
9195.07
13232.4
14618.5
8048.48
7597.35
4591.24
4676.88
10888.7
19098
18785.2
13611.9
17736.4
17607.5
31178.9
44010
110428
109237
83935.8
86721.8
55692.1
67243
51874.4
38135.1
42349.6
25254.2
25813.8
16457.8
18838.7
48387.1
44481.8
97636
88689.1
99839.1
90067
73655.3
97919.6
117583
108265
73805.6
72097.7
75697.3
53553.2
37889.7
39036
10916.4
8474.84
3511.57
9062.93
10512.1
8097.07
6200.74
14475.9
3502.8
5847.48
6952.72
4424.85
11775.3
16374.8
14547
7531.55
16087.9
20863.7
27412.5
32960.9
33185.2
17139.9
20168.2
11146.1
12539.2
25338.6
15079.3
20030.6
38673.6
29177.5
13717.2
16826.9
18401.1
16774.7
13743.2
22516
23162.6
12337
28187
22639.2
23396
16924.6
34503.8
23034
20529
20253.4
14754.3
31953
39471.3
8951.87
10590.6
11464.5
10536.5
5969.11
4646.46
8640.48
12330.1
7407.59
8327.04
1132.07
2289.72
3224.09
5734.91
5496.45
6214.12
10569.4
5843.74
7028.79
3662.06
5420.58
13211.7
7029.39
2567.97
3566.28
4452.84
11444.7
9610.6
20446.3
20281.4
14225.1
21343.5
25685.6
26672.1
22705.1
31792.4
75462.4
56254.3
62441.1
42238.7
35787.9
15914.3
20003.5
9824.81
1738.02
5396.41
4630.74
7804.56
4313.7
3562.41
6911.49
4912.83
18515.8
14059.9
19697.2
6858.78
8743.55
4309.13
8088.49
19581.4
8170.59
7268.36
7895.52
6023.75
1801.36
7220.5
6869.76
7914.08
26187.3
6779.21
16729.7
6786.39
1309.93
1388.1
2016.8
9294.85
27730.3
24349.8
14365.1
7435.45
5431.86
9636.09
22847.5
4976.03
10159.1
13096.1
11747.5
11370.1
14271.8
13534.8
7164.37
4798.88
3968.24
6378.54
6286.34
12132.7
38744.5
30792.3
45529.4
31579.9
22091.1
11123
10832.3
17521.6
18063
10476.7
16854.8
7442.17
5982.17
5148.7
4589.18
3766.68
6880.64
13695.8
5565.01
2734.5
6844.62
24262.1
15256
13165.3
16671.8
16623.6
26372.8
24080.8
6620.33
6820.27
6471.63
10828.3
13176.2
14815.2
8558.12
13246.7
7163.4
11391.3
8761.92
9966.32
9177.61
16324
11894.2
4191.63
7865.81
20222.6
29867
24993.6
16685.6
10902.6
23798
10620.7
11013.4
14070.9
7718.49
32597.8
16156
16277.2
26112.4
27629.2
25875
12538.5
9726.35
14961.2
5085.53
8401.83
6640.42
5028.5
10739
9644.18
4652.63
7871.11
8267.23
9975.85
7337.42
9269.89
16542.2
9415.11
19209.3
21133.5
22012.6
33064.1
31314.4
30109.5
59373.2
34553.9
23570.6
21118.6
13011.3
9716.08
3053.63
11412.9
15585.2
5555.26
6347.25
9388.56
11710.3
9062.34
9512.91
9941.46
16653.4
7597.83
5623.84
9465.53
6582.18
19343.7
7847.96
8215.92
7852.36
8808.99
9033.35
5808.15
5492.48
8243.35
1426.13
6092.34
8565.3
4117.58
4875.37
4782.19
2927.17
8938.96
7002.83
9551.23
3198.13
4086.06
9528.71
6537.14
8579.66
40904.2
28929.6
43980.5
16503.6
12779.6
12519
14750.2
9480.56
8966.88
3832.6
4486.78
6274.64
10042.3
8588.57
16966.7
20110.9
23324.7
33439.4
52411.6
56902.2
70220
68517.8
35851.3
33967.7
56436.8
56501.3
73096.5
84931.1
66157.6
75531.6
67913.3
70554.8
59551.3
77454.3
83337.6
97598.1
103764
89828
70969.8
87064.6
63883
58536.4
85436.6
81129.4
112681
80359.8
79025.3
84200.8
89471.7
82024.3
91226.3
64554.9
58040.6
75032.3
66962.9
67403.7
83919.9
108654
141969
130889
149751
115346
107137
121670
99768.4
112216
93072.8
85313
114920
145921
206270
226892
209853
225208
242904
195461
133138
117475
163166
133072
98038.4
86526.5
81033.2
92332.2
157540
129684
117437
109904
139945
157574
144810
192817
167001
162676
161113
143626
170156
173280
152601
96200.2
73990.4
52298.5
24396.3
12685
38621.2
36578
53307.6
66399.2
56012.6
61040.1
66984.5
39733.8
36176.9
28142.9
21830.9
18616.2
14589.5
15763
16526.6
39183
40682.6
47990.8
40412.8
31502.6
29157
17268.6
8069.24
11596.8
18171.8
26066.4
16677.6
12933
18843.5
21818.4
18491.7
18660.5
24298
17896.9
2802.03
5412.21
8257.94
10809.9
6424.7
10741.9
15638
15088.1
5958.35
566.703
5438.11
8014.78
8015.67
5522.98
6261.46
5830.23
10349.9
4910.95
8155.27
15305.5
945.944
3844.76
4540.14
5061.85
10832.5
11437.8
9408.75
11456.2
25385.7
25546.8
23215.4
14005
12557
10210.3
12677
5613.31
3714.94
4162.65
4042.76
5965.07
10857.3
11746.4
14465.4
10486.2
5338.68
6393.5
25167.6
25237.6
24243.6
33811.5
69486.5
59281.1
51044.4
14124.3
34117.5
42519.7
44826.6
57924.1
76232.5
79495.2
66076.9
62816.3
23987.9
24590.7
14581.7
1597.03
5538.53
9906.56
5587.32
7975.75
5202.32
7276.78
14208.1
26360.6
25138.4
16201
22454.9
9438.93
10110.1
1438.23
16910.4
18099.3
49337.8
50295.1
30046.4
35682.6
31678.6
21058
21874.7
18328.7
36289.6
69909.4
77573.5
79722.6
47963.8
32136.5
17189.4
27982.6
8663.86
4567.18
6248.9
11001.4
17837.7
35460.3
58691.2
60111.9
69868.3
107203
128392
133795
201143
126129
86058.3
140676
150103
162493
185442
154390
146729
175461
137049
92813
112780
115484
94044.3
136036
135855
95261.2
102552
70039
80468.2
63135.9
46784.5
38975.4
29688.3
35511.9
14111.4
12445
12635.9
13766.8
20547.8
18245.4
10013.8
9474.28
41271.4
30346
37334.7
48971.2
32423.1
14589.9
3146.94
2365.89
12763.8
8186.52
11577.7
18385
20095
15635
6360.04
3556.97
4934.19
12653.9
16019.8
5039.47
4645.12
2346.19
8334.73
11042.6
7508.86
3706.25
9585.77
16428.5
13037.7
20240.4
3513.14
10235.8
10014.1
8956.35
19714.1
22105.2
22262.7
19947.9
30230.4
23358.9
19008.5
18788.1
17184.6
14940.5
17783.6
12011.7
7270.01
4359.84
8057.18
14043.5
4041.32
10313.3
4720.57
4772.69
10400.8
14889.2
11456.2
17445.5
10306.6
9513.31
15563.8
21704.3
30296
21953
14870.4
30996.5
36420.4
49024.5
41806.5
25563.1
24824.9
20413.5
12356.9
19757.4
22373
17326.5
10022.5
17892.9
14290.1
6002.59
17551.5
13712.6
21775.2
24772.3
14716.6
30943.3
75377.9
54635.8
46932.9
51243
62211.7
105724
91072.4
81450.4
68751.6
87267
73149
82232.7
73079.7
52025.7
45027.5
19049.3
15801.8
9892.16
14778.5
12352.9
11168.6
7553.26
10278.9
5516.23
3601.88
4257.47
4886.64
16665
34875.1
49105.8
39032.9
30108.9
19944.7
14653
15432.8
30831.7
41985.3
34187.8
38924.1
41630.4
96598.4
61197.6
86775.4
75372.8
58857.2
62048.1
69546
71202.7
68276.7
77231.5
50018.8
57463.6
57398.6
39402.4
22666.9
28953.7
24671.8
14157.4
5968.84
9816.49
5131
6968.26
7897.55
5400.82
6431.59
7921.23
4116.53
7563.37
8112.73
5749.31
2727.79
3533.91
3476.32
9082.05
7695.24
6990.1
5067.07
13637.9
7752.28
10464.2
14654.9
10149.4
14167.9
10217.3
15757.3
20034.2
24100.5
26280.8
15870.9
24669.3
34835.5
29126.7
49315.7
36601
44242.4
18416.9
14196.4
15800.2
15077.4
19223
9091.75
5407.77
16588.4
8064.01
8338.44
6959.01
10401.1
13466.3
27187.1
18918.9
19822.7
6312.4
2198.07
7559.9
3707.6
7440.75
14995.9
12191.1
10618
12424.1
4649.26
5361.6
6223.82
3979.18
2739.57
5668.76
23558.4
4527
14389.2
30678.3
10583.3
16133.3
4801.11
3825.21
7518.05
23491.6
12020.5
18641
3124.92
6271.85
21351.8
35396.5
33526.8
48635
68327.6
51808.8
33953.2
26922.3
34474.6
54954.5
37855.4
23577.4
11260.7
10166.8
4700.24
14679.4
22459.6
28222.1
18220.4
21028.6
9703.47
6596.54
15643
15625.1
20863.3
25209.8
32799
39564.2
33458.5
28017.5
19883.9
7527.96
10104.4
33302
36377.4
30025.7
31738.2
32394.5
37834.2
37047.4
42400.2
42721
28834.6
25235.2
31432.7
56350.4
25667.3
40590.1
27657.9
19263.8
23790.9
28858.6
48433.3
78215.4
56231.6
43242.6
31299.5
23976.5
13708.1
2455.12
6021.18
5229.22
2021.35
9485.15
9785.29
11529.8
5198.84
6885.89
2627.16
7841.36
1929.05
5738.13
6828.78
7641.59
9694.18
11142.4
7396.17
13406.3
7643.02
12283.6
12196.1
21251.7
45762.5
30625.1
33150.7
29334
19142.9
9226.3
9246.49
22556.4
24300.2
4830.42
15692.7
16671.7
13874.6
18044.5
22147.7
4501.76
11433.6
7866.85
11032.4
20745.1
10689.6
11117.4
14332.7
16661.7
14732.9
23867.5
6076.9
7389.02
17533.1
10943.5
16070.9
12743.8
10025.3
9469.61
4002.17
4956.68
17863.2
51895.8
62636.7
38521.5
32210.8
48491.9
70108
82578.3
97741.5
139672
142719
142513
105634
115801
130190
143591
144194
150701
208593
158007
136735
107082
92991.2
34161.8
44002.5
45565.1
27042.4
37364.8
25353.7
12304.9
46101.9
58815
62219.4
78839.7
55541.8
43243.7
35870.8
26270.7
34971
12044.3
13324.3
19358.1
22188.6
23048.6
14940.7
5117.67
4293.91
4703.65
3603.92
6115.29
3056.96
17792.1
16896.8
21302.5
18740.5
40842.7
66879.1
27557.3
44843.5
38075.9
34549.7
32379
42424.2
40448.2
66141.6
64075.3
43621.5
31607.9
30614.8
36688.3
29180.5
41476.4
75327.7
47485.4
41538.1
54705.3
57532.8
70121.6
39057.4
43792.2
48086.8
59035.6
55260.1
48818
85356.9
77099.7
61398.9
79292.8
81129
67506.5
66259
65601.2
54999.9
84319
66228.9
49015.4
57058.5
71696.8
67147
43720.9
40699.6
33469.8
20374.4
22908.8
25272.6
25030
31009.3
27450.3
16160.6
9525.52
21675.8
9057.3
17530.1
13411.4
17523.1
20058.2
12300
5586.87
2629.31
4672.88
5663.54
3091.98
8808.29
10555.5
4917.81
6720.72
3636.89
2817.05
11545.1
11024.7
10836.9
9154.76
3674.37
6001.62
7727.15
4238.83
5636.63
6534.47
8148.26
8046.31
6488.41
10000.9
16749.1
12664.3
8739.85
8762.29
10184
3994.04
4896.66
4645.75
4888.03
10950
12577
20944.4
23346.3
11027.5
6908.99
4028.76
8579.74
12889.8
3844.63
6282.11
6187.35
5213.25
14238.7
11222.1
3574.68
7447.02
19114.5
11682.8
15581.8
23715.2
26928.8
35609.5
31812.5
19007.1
13644.7
17069.6
14300.8
17728.1
28985.8
33668.4
45194.1
20195.8
37664.2
42325.2
53032.7
29894
40250
44377.3
54102.4
49001.4
34692
15302.4
32531.8
15632.3
23908.4
14231.6
9337.06
12512.6
13789
26993.2
38351.3
21277.4
22972.1
11037.3
17247.8
6351.72
9037.91
19664.1
8427.62
16570.6
19601.7
21364.9
8155.79
11798.7
14728.2
10994.2
1900
10613.4
10382.7
14174.4
4831.99
13899.9
5875.38
9014.48
9911.12
3806.28
5232.42
4278.2
7719.7
5784.98
9929.1
9273.43
5422.93
6060.19
1761.63
4788.43
9484.35
9552.66
9757.07
15706.9
11471.7
10135.5
11617.9
16528.7
7877.72
12487
6320.79
6429.6
5785.62
7013.92
9479.93
8499.3
13303.7
13522.3
12532.5
9460.63
7290.48
14592.1
10058.1
19831.3
11794.9
10175.8
25980.2
41529.7
41458
36964.4
13140.4
14575.6
3143.67
930.865
2118.95
4403.42
6951.86
1830.28
9704.51
15220.2
8154.39
6610.7
8706.37
4261.67
9627.67
7516.8
9330.98
9003.93
16388.3
36709.1
13489.3
8743.25
14832.6
13869.1
6009.94
3145.1
19278.6
37476.9
20191.5
9703.09
23613
31729.7
31223.4
19364
8520.54
5120.37
12557.6
5808.03
14198.1
15606.9
17307.5
12019.8
19406.1
44813.5
56412.4
20757.1
20791.6
40311.4
55273.4
35176.4
33896.6
15750.8
32404.1
11715.6
18172.5
22150.7
34125.1
36108
15483
3061.02
8056.15
2072.23
15337.6
12228.7
8262.34
19771.5
18737.6
8347.06
27970.7
29064.8
24345.7
27320.4
41138.9
31487
16346.7
12700.2
8449.32
9122.01
12306
5643.84
15005.6
14953.5
23120.2
17916.8
14673.4
8269.1
5301.85
2994.1
8385.16
11617.2
28653.8
21290.7
26609.1
17968.5
32023.3
17832.5
21288.1
28122.4
39528.8
21998.6
22578.2
11875.9
19786.2
9811.3
23336.2
25152.2
26617
40276
33331.3
35726.6
68446.9
41460.5
47813.2
41062.9
37193.9
37836.2
26900.6
26620.2
18307.5
36440.7
36592.3
43251.1
27390.9
42989.7
42347.1
27164.8
23688.5
7734.96
3430.27
9333.71
5096.25
1956.4
11585.5
2941.82
7802.27
9829.11
15021.7
9156.48
4987.85
10535.7
9002.65
26346.6
28554.4
12524.6
17467.1
16876.8
6174.43
13135.6
24518.9
21512.5
18413.9
18073.8
15408.5
9056.5
20716.3
13613.1
16765.6
26773.7
22158.2
14438.3
12990.9
14526.7
4233.71
3344.11
11684.9
9849.19
11524.6
9469.62
1398.83
5571.75
3798.71
3448.93
3498.88
14966.9
17678.6
22907.5
24975.7
13191.9
5485.85
11032.7
3564.85
2407.09
1812.04
6667.5
3989.68
2792.26
12417.4
11536.8
17109.6
29002.7
20368.4
26507.7
23467.5
19940.1
22104.3
21936.6
28631.1
26889.1
20915.7
24549.1
54925
31640.3
16632.4
15543.7
2785.89
21040.3
19343.6
31827.5
13854.1
7290.72
3773.55
9881.13
5948.04
17767.4
4757.52
12730.2
18202
6125.93
9221.81
5736.07
1613.11
4680.63
5148.44
11608.8
4024.74
8462.18
20456.5
17427.7
15424.5
15733.2
17218
39200.6
27736
6545.46
16577.2
28086.9
32261.7
15912.7
18636
11065.8
4431.74
9824.78
5785.43
5606.08
4943.15
2948.42
5552.13
2498.57
2805.08
1703.41
9822.43
15665.7
19203.8
13583.1
7026.84
8556.39
2442.96
17722
23421.8
16186.2
17776.6
20901.7
6720.8
8360.14
7386.67
7191.07
5857.72
4941.36
11190
10305.3
10191.8
23760.8
16987.7
19401.2
23948.4
22287.2
12492.3
8186.04
2762.81
17591.1
27213.6
38738.1
55813.9
69732.8
45075.5
32876.6
26752.1
74726.4
74152.9
75866.5
61413.4
67586.1
66258.5
77479.2
62327.6
67087.5
53843.6
51926.9
61403.3
52144.1
29887.6
23829.1
21322.7
17838.2
6283.63
5635.07
4725.69
8031.74
19308.9
2008.94
3413.47
4111.85
6692.83
8772.48
13554.3
15497.5
8629.69
8295.48
10099.5
10791.1
12680.8
23519.8
12163.1
16454.5
14876.3
15466
13350.3
15109
20104.4
35049.9
43667.9
51751.4
35793.8
38201.6
24599.8
11345.1
20268
11154.4
9602.46
10532.9
11748.3
19226.9
37826.1
38481.9
27288
20460.4
23930.6
23939.1
12290.8
9446.21
13255.7
7949.12
2439.17
4442.56
799.942
7249.39
19745.4
11515.6
9511.53
9025.84
11804
12722.7
6388.62
14378
7460.79
4057.24
5104.03
3274.35
8829.29
6280.21
24261
53935.1
65266.7
66528.2
77645.1
67272.5
82693.3
88818.2
59540.4
46017.4
42239.1
37422.4
14568.2
18928.3
28972.2
41282.3
46718.4
39524.4
45658.6
45511.4
34075.6
29695.1
18301.3
14799.8
11258.8
5782.45
18946.3
10178.9
8382.9
17121
22792.2
5238.39
6587.39
4029.26
3064.92
3260.2
3461.72
6135.59
8941.84
21880.8
12113.3
13997.3
6939.83
10187.6
5023.73
2883.79
3168.55
11460.2
18690
18927.7
14979.3
29891.7
14540.8
6303.39
5498.65
6105.68
6617.42
10725.8
7097.89
10216.7
12712.1
9247.84
5895.81
7332.52
4721.33
6241.58
4895.5
7428.78
10637.3
14769.2
18943.4
14979.7
8635.74
5068.61
2209.26
5187.97
4863.87
10181.4
14333.3
7821.45
13497.4
25530.3
58916.1
59939.5
57075.4
83465.7
78491.8
72632.7
91168.5
55746.3
43292.8
42818.5
38338.4
53608.4
74411.4
60048.5
55274.9
37638.9
59003.1
45885
50023.5
39632
27859
47629
27094.8
46510.3
57865.1
63618.4
66498.6
91726.3
99578.7
56924.5
73098.1
60885.1
24934
17469.4
8469.71
11492.8
25524.8
10519.5
21941.3
30675
24513.9
10460.3
20343.7
4804.47
1422.24
4065.16
11463.6
14020.2
16908.8
8240.1
8984.27
6500.82
10628.4
7713.08
7848.07
3770.82
10647.9
14036.1
11183.9
10165.5
2500.18
6088.09
4176.76
4329.66
9563.91
7460.74
2828.53
9987.22
7461.11
5659.16
1998.79
11835
4317.62
6117.01
14660.5
27653.9
16744.8
21496.1
10878.2
20662.8
36405.8
45437.5
51262.6
65315.2
32029.7
67843.2
40273.4
40135.3
21773.3
26572.8
18158.7
9086.75
7475.79
10073.2
5968.72
11962
24134.6
13096.9
7033.86
19268
17188.7
3034.3
9362.53
5750.05
16913.8
11777.5
6245.58
12241.4
9731.8
10189.1
7533.16
789.94
6985.27
11809.3
32254.4
31292.8
31955.1
10352.8
13955.4
18162.3
12209.8
7957.44
4273.67
1640.65
15467.7
12728.2
5287.21
6877.61
12366.2
6645.74
6439.97
12636.6
18883
43385.3
29144.8
37732.1
24248.7
27082.6
21868.7
16411.6
15690.2
22535.2
9689.3
33310.8
25538.1
22440.5
8389.32
16807.4
14587.3
15216.5
28219.3
10185.5
14139.3
21770.1
7626.11
8047.54
12313.5
9474.08
7230.02
6977.84
4347.47
1023.88
1081.72
5154.75
14330.2
11387.2
2981.25
2007.26
3257.44
2167.01
1228.84
4635.15
9696.92
30835.4
28166.6
31859.1
22922.2
38642.9
21961.1
39828.2
32895.9
26271.4
24499
40650.6
34978.5
28966
23887.5
26405
32544.7
38918.3
58524.9
90589.6
113161
73362.6
106037
78207.1
71078.9
70356.5
65740.6
39858.5
45685.8
75455.7
82986.8
98283.4
99306
69726.1
70431.3
54579.5
37728
36632.9
37545
32978
45659.5
33428
40586.2
47034.1
52504.3
56459.3
61352.7
38657.2
21026.1
27339.1
20685.1
29361.9
16917.1
10616.6
30964.7
15832.6
12537.7
20785.9
19306.6
10334.2
7384.43
6137.54
710.097
4661.08
4864.42
877.513
2130.96
11655.6
20577.1
25970.1
23187.2
27919.7
14191.3
18191.9
17152.3
12370.1
8318.31
6918.53
14244.1
10027.2
20559.3
13305.8
7650.89
13447
23849.4
8339.87
6419.6
8573.33
10012.7
7149
6708.58
18854.2
7601.31
10031.6
16199.8
26321.1
38652.5
63418.5
34242.4
28623.6
33892.1
27127.1
39443.7
29495.3
18346.9
10137.2
8360.89
4516.32
3149.45
2921.46
3969.71
1736.08
8718.73
24618.7
26664.4
16328.7
43059.8
77257
109142
108249
152647
132390
136493
116271
141400
140100
111332
105605
99508.4
72956.7
37525.6
48566
36511.7
34192.7
22197.8
19172.1
25923.5
13441.7
7105.07
7754.95
4602.84
3977.02
6466.32
18329.1
8696.14
14047.6
6762.02
14170.7
9891.44
5387.82
4803.03
10643.3
7993.7
11801.1
13361.8
15427.6
31757.6
27465.5
25402.9
28321.3
60148.4
59032.4
36511.8
18950.9
35348.7
24119.8
49714.5
43189.1
51182.4
53183.2
32796.7
50052.1
34579.1
17821.6
17362.5
5868.58
7159.49
1739.38
9323.62
12000
12423.8
13510
23242.8
23230.2
17292.6
12001.3
11249.9
9708.65
2866.33
2285.01
4826.65
25497.6
10257.3
7752.81
18446.7
15568.7
12945.5
11095.1
4235.77
3552.19
13729.9
3805.76
8638.11
14960.7
31613
20602.8
10661.7
11133.9
9202.02
9389.26
32709.3
49558.4
38152.7
69399.3
44120.7
70487.7
50818.1
25038.7
34197.6
18669.2
49301.5
39084.5
30828.5
9258.36
3900.19
1639.87
3348.55
7056.79
7297.38
6505.38
2110.3
5332.84
2114.55
4301.35
8090.42
6935.33
5326.84
4802.19
9585.69
31195.8
38202.5
33152
27866.4
31388.1
27990
19116.4
11514.2
15358.2
18422.1
15051.8
15943.6
7820.09
5322.17
3300.38
13688
3922.77
6992.92
10221.5
22030.4
11729.6
10840
4226.37
2439.62
6254.9
6868.69
15382.3
25714.5
43190.4
38696.4
46945.7
73959.4
82001.3
89683.5
102942
101492
158676
139095
119408
151781
148588
119091
85227.6
107447
97724.2
76905.9
87459.5
52069.6
30495.6
38746.4
38162.3
32021.2
22640.9
37784.5
31226
45457.1
55473.2
50339.7
28960.8
21913.7
21327.8
17187.3
16230.9
15626.1
15674
3126.45
2995.47
2562.14
3818.31
5489.5
13052.1
11306
3861.48
903.873
4749.39
3296.46
1569.46
3209.31
4319.27
9321.82
12119.8
12354.8
10796.6
29084.2
26189.4
30957.8
53053
65555.3
54204.4
61085.7
61972.4
44933.5
35291.5
37535.4
36745.9
32310.7
18278.7
13258.2
25840.1
12158.5
17353.3
19332.9
17292.1
21963.5
28312.6
9178.68
16272.6
31182.1
11855.7
10247.2
15690.5
22374.7
15110.7
18288
13808.3
11043.7
11762.8
13860.2
14755.1
19617.1
22166.6
19459
13729.8
18504.6
10598
8132.27
12266.9
7387.04
24311.9
17339.4
16670.5
8925.18
19270.6
24045.9
24846.8
13368.4
20459.7
16263.5
13731.6
17226.5
8897.45
5972.47
13918.9
8838.3
9096.04
4250.84
8154.75
21360.4
6151.6
3889.36
1649.48
7932.2
5006.01
13600.8
22817.7
21832.8
18207.9
27691.8
31688.7
28189.5
42915.7
66408.7
55578.9
58108.7
62214
42068.9
44783.2
47186.7
105310
143224
117743
73583.1
41069
31526.1
26977.9
32323.3
26921.6
18482.2
3678.3
1977.07
6087
10451.6
6152.44
4871.4
3851.99
1975.24
6800.81
2752.5
4447.49
11733.3
10452.2
10451.6
4614.14
8769.95
13235.3
3880.3
3116.4
11342.7
4295.93
6576.16
16514.7
10467
22972.2
24679.8
35617.7
39093.9
33794.4
34382.3
37480.4
38645.6
39024
50790.9
59344.9
59198.5
55811.4
68031.8
89077
32292.5
42767.5
25070.8
25273.7
24219.4
13840.8
14433.9
3930.31
3127.81
2840.18
4872.91
11274.3
8705.64
3907.34
6038.31
5214.42
7325.31
10108.5
9385.88
4818.36
3519.31
1893.6
4592.98
13824.1
11542.9
20105.7
28757.7
49575.4
49447.5
61712
107798
91211.3
97745.6
112390
142798
79430
72515
64606.2
76969.2
93392.9
82637.5
106667
86238.5
85777.9
50908.3
45963.6
68194.7
77985.4
65502.4
85032.6
58788.9
51143.4
33383.3
47950.8
31406.5
20128.9
28692.2
36179.9
33850.5
23317.4
7541.69
11697.3
14863.2
7986.74
7272.93
6003.24
7285.12
6776.69
4466.7
4751.15
8807.46
5404.17
7814.47
5240.4
16200
7833.56
3561.88
7186.54
9490.89
20460.4
14736.4
9425.35
19757.2
10095.6
6544.62
9388.54
5932.91
6566.05
9495.9
11496.2
14593.7
6400.4
2680.7
7147.17
1481.24
4934.14
5607.92
6931.42
3679.42
7049.96
7328.7
11488.4
13948.9
24864.1
21399.9
16629.5
13572.3
6997.16
13388.5
12224.5
6221.13
7390.21
3042.92
5948.11
1669.44
1397.62
10306.6
20153.8
22648.9
18460.9
36374.6
13934.2
22120.8
20707.9
30558.9
13792.5
7295.57
7509.13
6877.74
6046.63
9884.1
5037.6
10962.5
24489.6
20954.1
21730.1
18471.2
7082.59
6289.7
10679
11680.9
7934.3
5045.34
4375.44
8735.54
1640.2
2576.69
3815.39
4291.26
2832.1
3328.84
11458.1
9537.9
8797.84
17761.1
36082
18492.4
34836.4
34180.4
11136.7
17629.3
42491.9
36735.8
51267.3
43091.6
42755.3
22982.6
30200.6
9558.07
2884.95
2692.68
17813
12016.5
20200.1
12570.7
20642.3
27203.8
65495.6
49953.2
31571.8
33088.8
21894.8
23143.7
28975.4
9051.62
8730.3
14953.9
14332.2
31153.6
10167.7
3464.96
7194.58
4443.75
7515.87
8510.16
4747.34
13631
10875.7
7457.05
11642.7
17294.3
25610.2
19157.6
21282.4
12726
22821.3
15587.1
12317.3
13461.5
33885.2
37744.6
13455.4
31112.9
29543.1
26175.8
8762.82
25120.7
11332
9226.93
2362.37
6702.91
4822.57
5367.75
22576.7
43566.6
20776
27094
35570.7
43314.7
62279.5
59588.7
50627
30361.8
24986.7
12222.2
11128
25373.4
33770.8
40759.4
34582.9
26955.3
26861.2
27287.8
11854
24401.7
41995.8
47507.2
47263.7
55774.3
75877.7
55914
17627.4
15292.2
28648.6
27773.7
24607.4
18404.6
20937.4
24230.4
18601.8
21657.9
29903.6
37716.7
33289.4
23857
34134.6
28049.5
13170.5
4779.83
7329.46
9435.55
6596.72
11268.7
18686.5
12556.9
11173.8
12502.1
4598.29
3716.99
5379.76
8783.28
12666.7
6069.28
1496.22
2336.27
5969.06
7239.34
7943.55
33311.1
38431.9
53819.8
35798.8
31704
23320.5
26423.3
30310.2
12603.8
10547.4
6298.45
12397.9
17904
3604.56
4677.47
12525.2
9884.54
16080.2
19929.5
8211.17
4332.08
9156.63
24770.7
17463.3
14752.9
19400.7
12670.1
20739.7
40100.8
57854.7
67148
53475.9
60659.8
71394.6
54631
60867.1
58687.7
95615.6
116573
76454.1
78341.4
88569.5
74309.4
35463.1
33152.7
32548
21090.8
22584.5
46370.6
48722.6
79089.7
60491
38931.3
33762.7
27400
24550.3
13360.9
18987.6
24638.2
46499.6
34453.9
36578.9
18247
24753.5
22195.9
17396.5
20509.7
12019.6
27768.2
29597.7
17540.4
10092.4
16394.3
7127.8
9782.42
15136.5
9740.68
6434.95
8289.98
9709.82
8816.11
11463
22580.1
14285.1
18902.7
16922.5
3503.59
3784.34
7843.17
5594.98
2272.52
11638.2
4131.13
8994.5
21265.3
14987.7
14114.6
12348.7
9217.09
11155.5
6006.31
19639.4
25893.8
9703.18
6889.79
5710.09
5640.51
10052.7
20414.4
24995.6
31740.5
8766.12
2683.53
6946.74
6087.11
7085.38
10712.2
11369.2
8183.16
5642.84
1426.87
2310.94
4168.56
7811.6
9188.33
17367.7
6432.92
3752.77
13065.6
14906.5
9791.93
6092.62
11951.5
14860
16673.4
30914
29534.6
42538.5
39517.7
61773.3
73769
63641.2
44565.7
54579
80123.8
91757.4
117037
135161
127167
102101
73809.4
125530
85399.5
60954.4
38255.2
45864.5
52204.8
28203.9
30892.8
28061.6
10560
12548.7
22335.1
6538.07
3433.68
1742.76
3729.2
16000.2
9232.81
6457.54
18506
18728.8
13349.6
12658.9
20593.6
22362.2
15093
6697.27
8941.6
9851.9
15530.6
5794.13
6636.69
10589
25901.2
30732
34821.2
16404.3
16288.7
11804.2
5807.98
19093.3
8150.77
2987.63
10443.1
10403.6
5033.02
21516.4
8289.91
19528.8
21558.7
16096.4
20828.2
40826.6
48966.1
37379.5
23251.7
12372.3
18610.9
20838.5
9086.21
2499.56
6458.42
16010
15667.8
19503.1
16259.9
12838.7
21038.1
15730.8
17414.8
10030.1
4787.92
7953
4499.37
1952.58
3741.29
3869.25
4312.49
5151.33
6668.45
3142.8
3455.8
3074.94
6884.41
3998.53
7164.7
9832.24
4468.26
5885.56
3420.92
9487.06
19502.3
22483.2
22395
19487.8
21579.7
15211
11049.8
6152.55
5270.42
7578.95
11929
8154.78
3321.07
4881.31
3904.24
4200.99
5412.42
3314.57
12574.5
12061.2
19116
21235.1
20229
14079.6
10197
8285.65
15468.1
6999.51
6582.59
6571
27554.8
5969.99
20395.5
11511
3599.31
4621.08
5984.19
11278.9
10438.2
11065.1
14490.1
22188.1
16434.6
6056.65
4769.45
10490.5
6304.45
7709.43
7434.6
7221.3
22021.6
13813.5
7464.98
19520.1
21300.8
14010.9
18635.3
15048.7
12470.8
20578.6
35395.3
38374.3
17096.3
11077.3
17632.1
9824.94
12003.2
5043.3
12860.1
7394.9
19872.1
15033
12747.6
9058.38
5050.66
5286.55
14755.3
12573.9
3774.88
4619.44
7013.94
18738.4
15784.9
41511.3
21003.3
16332.9
17640
27487.7
21200.2
6383.38
15995.1
7292.78
3857.69
7149.77
6606.26
14728
8532.49
21027
17122.2
