5160.33
17909
14679.5
51942
36548.6
61070
65578.6
74732.2
70230.9
102843
108666
128338
118724
149966
108447
131034
145585
165902
126306
74427
65389.7
58540.1
79483.4
93876.3
115138
78071.4
33991.4
17269.1
13359.3
6463.4
8143.63
6438.38
5275.85
7084.63
11850.8
22786.7
24646.8
35859.2
26972.3
29948.1
27080.7
32657.3
16520.4
22248.5
20727.9
17800.9
12975.1
8034.06
18370.8
24793.2
3357.55
4076.99
783.882
4185.49
7441.82
15037.7
7597.44
19149.8
13897.7
46423.7
46347.9
52100.9
25360.9
35979.6
50568
56514.1
51104.5
33105
55731.9
53489.8
38616.2
49126.1
50207
65164
47735.2
54699.4
45180.4
37556
41147.9
70565.1
94717
84569.7
71885.5
56955.8
60238.3
131769
114983
129837
124522
118076
122656
127928
136022
138387
108844
99795.3
104197
116469
114581
88131.9
86643.7
102312
101901
68782.6
37164
58281.5
46178
30859.1
28778.3
46955.4
14091.6
23059.5
23150.1
13853.4
22173.8
36793
17132.6
19257.2
23740.5
21748.5
31272
4949.36
21106.5
18587.5
27273.2
28919.1
34497.4
49917.4
43737.1
47363.6
57286.3
51663.7
43150.4
31094.3
30630.7
22726.2
11945.1
14076.4
18487.4
19013.6
5245.68
1301.88
5391.22
1522.55
10678.1
10692
9751.7
17121.2
28650.4
16258.1
7858.3
29635.5
24664.1
56412.2
23061.6
21730.3
21458.5
38646.7
65036.3
48285.2
52136.4
36569
43578.5
40355.5
60734.9
49271.1
21924.8
20394.7
4657.08
4199.51
6589.19
9137.15
24500.8
54265.8
61430.6
45104.2
16270.4
13837.9
31882.7
36043.6
43189.2
39863
60655.4
49437.1
53865.2
42832.1
48938.8
79903.1
75679.1
52965.6
68786.4
92882.8
96251.6
104788
76870.7
111683
129873
121740
96870.5
85300.8
92956.6
100823
77095.8
60763.2
41968.2
49348.7
38376.3
24185.8
23343.4
32646.8
28209.4
19558.9
13236.6
4584.96
4229.98
6675.83
9644.39
20999.5
22488.3
27366.3
36956.5
27839.6
39698.8
70669.8
53061.1
76237.3
20914.8
8979.95
24859.8
14543.4
13783.5
14504.7
18215.9
6291.74
-216.172
1198.81
8625.54
8218.95
4228.21
6721.36
15568.5
13075.7
6580.07
14393.6
2681.11
8529.33
1464.4
3039.44
12825.3
5131.05
3331.92
3924.61
14612.9
25779.3
23283.9
43499.4
41987.9
49506.1
56298
46353.3
61981.9
76808.7
78855
89656.2
42252.6
41384.6
29492.1
17438.4
18577.8
19970.3
30750.4
38056
45633.1
32798
39170.6
43790.2
43337.4
43861.2
36276
23032.4
10981.5
3746.09
5975.6
5037.04
19067
17835.2
10010.3
23593.9
23982.7
33119.7
27768.2
29787.9
18622.5
7359.07
4941.63
1112.63
6288.94
15484.9
6284.32
2878.95
1199.13
2102.55
3511.55
3668.4
7333.53
4151.12
6596.73
18087.4
19294.5
40699.8
27992
32869.7
33236.8
59435.5
28830.5
31439.1
13781.8
12404.8
10992.6
7312.01
7025.95
2826.67
1506.18
2758.47
3768.84
2461.51
9359.33
7713.86
3446.05
4403.05
6271.11
3629.98
7004.11
9327.79
11089.6
16614.8
19734.7
13523.6
4480.31
3398.09
6931.65
28000
23393.2
23338.5
33270.8
48648.1
69588.2
51302.6
20385.1
31032.8
45007.7
33082.6
11700.3
7207.76
32589
11653.9
13215.6
15884
7514.92
5033.37
1992.81
3681.97
4987.6
2747.66
13136
8568.32
17770.8
7941.33
2152.88
3544.25
6977.14
2491.53
5267.53
6382.28
2475.3
15589.5
7702.97
14389
14904.3
4810.09
5164.42
3650.31
4989.65
11284.4
12266.4
10489.8
9136.43
879.907
729.532
1979.04
8434.77
15112.8
21377.1
30082.9
47404.4
66849.1
63342.9
63824.1
12607
10226.5
3243.92
9316.06
10865.5
6856.17
3733.87
15788.3
12710.2
11717.8
1739.91
13129
11895.4
9809.42
5296.23
10418.5
4097.57
6278.59
1607.2
507.705
2309.62
703.592
7826.2
7006.04
28784.2
31212.1
24966
31285.4
21757
15082.6
14218
9186.19
5107
2461.13
4736.67
2658.29
2295.02
1964.21
5360.42
6780.62
4520.54
797.032
7957.68
7384.16
9730.86
13111.9
14941.2
15171.4
10114.6
22557.9
15763.8
15519.3
15422.5
21380.4
32184.7
53291
33709.7
48231.6
38021.6
40492.2
43506.2
25060.6
19529.6
22612.1
13672.5
10218.1
8223.15
6713.51
6884.39
6732.06
635.371
3580
3512.8
2720.13
10079
4683.51
14641.6
26296.6
7793.18
4423.53
3207
5718.42
7666.87
9470.76
7283.01
13687.6
6524.45
12296.1
8792.7
7342.85
12225.5
13957.1
5110.38
2568.18
4884.28
9943.22
12635.4
11926.2
11481.5
14704.8
11322.6
28732.5
