54621773.7
37965897.6
43060916.0
40469910.3
40191903.4
42860240.9
40830390.6
42885852.2
55369632.3
43248592.5
38142076.4
39619347.4
46387229.1
45847488.3
48734323.2
46267098.2
46559766.8
44515007.4
50654375.2
39863581.1
38058233.7
38552094.4
41847079.6
45745787.2
35876217.7
41977688.9
44092513.9
38521692.5
47058953.1
46584972.7
35185310.3
42781297.4
36357502.2
47915864.5
44605596.3
44494023.7
43544374.8
48107939.0
37410957.1
43585777.7
46780449.4
36793834.3
35218701.4
51247690.6
46773390.7
48992554.0
42800729.0
45713368.5
40461174.7
38742800.8
45393280.1
43518286.7
44673560.3
42812532.1
45806986.4
43848054.2
52124383.3
43179808.6
33250722.9
38459576.3
40317064.2
45614646.0
50173170.5
60058405.0
44456647.8
46528247.8
39071417.3
44936130.1
49031613.8
50124074.9
45458298.3
36664461.4
41944102.5
41015784.9
42527815.5
46391882.6
45371378.4
47850854.9
39703625.5
53463484.9
46824479.7
50506454.8
40157411.6
36511636.7
44443266.6
49331851.7
47733664.1
42198632.8
42898291.1
50945642.7
45703213.2
45548683.7
45562764.1
46320676.4
51823884.3
44470992.9
42311347.8
45068405.8
43434946.5
44133168.0
41120323.9
38751648.6
48217513.5
40475107.9
44881140.2
37959683.5
40583716.0
48344153.9
40770456.7
49398459.2
40478117.7
43157518.1
39531643.0
43092326.3
39159556.8
45694193.7
53241523.9
37243174.6
38598825.7
42560027.5
40448405.4
38243338.8
40771184.7
38421896.4
46239538.4
41506469.7
48128285.6
43162632.2
47162416.4
48430296.7
47784857.7
42218955.1
49345023.8
41141722.0
48628148.6
44982160.6
43034567.7
41525587.2
38783168.5
44830948.6
42528347.0
35119586.0
37721019.2
44104692.6
42189791.1
36128737.0
39969420.8
46789478.3
53335695.2
43692675.8
40236597.4
47124908.3
43851673.9
45179528.5
35374625.3
40438293.4
42270612.1
47291842.6
45157358.1
37727767.6
37933483.4
47075081.9
45891668.7
42412020.6
37239304.9
31589581.2
42820084.0
44083808.6
40604137.8
45528547.9
61829468.5
41596280.8
43701328.9
39284740.2
41574674.7
39603581.7
44178867.1
47554997.7
40023135.7
44419397.2
42931626.8
43547849.3
40979760.8
45168626.9
43566496.3
42520093.9
41977068.7
42203297.3
46851265.5
58294296.0
46174295.8
35190547.8
41268797.2
34512705.4
42759649.6
49580006.0
39785509.4
40031078.8
41534810.2
45848480.7
39767131.8
37810436.3
37733851.7
39252744.6
53461408.2
40470723.0
51201946.9
60818381.7
45573057.7
37266754.0
43179592.9
34883924.0
41671629.9
42162869.3
50653750.3
39945688.0
45383637.8
37945501.4
53493646.6
45353048.8
51948631.4
42115401.5
42396551.9
46584659.0
52029197.9
35971439.0
44349643.1
42482986.2
47897089.5
36116228.6
44620476.0
42036089.2
37470376.5
43148546.3
52306595.5
47762526.0
46428223.3
39526849.1
43937226.6
49334893.6
43129358.2
45800455.5
44204353.8
44169504.7
42040723.8
46858918.3
38316433.1
50080173.8
39129978.7
47608436.6
41124800.4
40487573.3
43895127.6
39739666.7
43888803.9
37853531.6
42388758.6
46891249.0
51851394.9
37785509.0
45819374.6
39824644.3
43567421.1
47658666.5
39571532.6
47880014.6
43668396.7
44700411.8
47343154.4
37006773.4
43938399.5
38928003.3
43905596.2
52699016.3
39591247.1
52945627.6
39410053.9
43266983.5
41244952.6
42009706.4
38760092.7
42613207.1
40934459.1
50609112.1
50911584.0
41172098.3
38126917.3
40533158.1
40554224.2
39987885.2
41775833.3
38069452.1
37349982.2
51553621.6
50349908.6
44573697.3
52019200.3
41630318.6
53488324.3
36368938.6
37748867.7
40351060.1
40139203.6
45734276.3
46267169.5
37465239.6
44714748.2
51795208.5
50295706.4
49933776.7
39733092.1
41791068.9
36720272.3
42981771.9
40263728.4
49970579.5
37847441.8
43282176.8
45273780.0
38626604.5
45071768.3
41807536.9
45474021.5
38065826.3
45583130.4
39143158.2
44929409.1
49384717.2
37824956.1
50712464.3
41157649.6
45017165.2
46533218.7
43503838.0
47317420.7
48062256.3
40193223.3
42803178.0
43407344.8
41155465.8
51161223.5
41435878.8
46915897.4
51878596.7
41284450.3
39637217.0
50020205.5
40198068.9
40931728.6
44727221.6
48342765.2
35916673.5
48572215.8
41789992.3
43312469.8
43644631.3
48310898.3
36747979.7
42077509.3
50570388.3
36461087.1
41917196.8
44715221.4
38715250.3
41867447.1
44920287.4
45961642.4
45369988.4
37897152.0
38057208.2
38180234.6
41084890.3
42248201.8
40789136.9
52413995.7
39106164.3
41913328.2
36092992.5
41388705.7
44357057.8
46106534.7
46278385.0
45204342.1
51378785.1
39930038.6
46065995.3
40315006.1
36791471.2
38667350.5
39158791.7
39537291.7
45569727.0
38345857.1
47265514.8
44117951.8
41846734.5
38714651.1
43260137.3
37270811.5
36564066.0
49024218.1
40494798.7
37280478.5
51662098.3
43532727.7
39595026.0
34859659.1
40645369.3
45995244.6
42370490.5
46943113.3
36986861.8
43324472.3
36900655.9
38210248.2
41893081.1
37152698.1
51072418.6
40572822.7
48564876.5
50813413.0
39681806.8
39989779.5
44924023.8
43011894.2
37606356.4
48617347.7
46820435.1
41306719.6
47140901.5
37239575.4
44677951.6
43822086.0
49077079.7
38720416.3
52882641.0
51676936.2
52282081.7
42366683.1
37456939.1
38030412.9
46011344.1
46174781.9
45193905.8
38705482.7
41292576.0
54015344.0
41940840.1
40564302.1
39354888.7
48446312.3
43214037.8
35668908.3
44344526.9
39570300.5
47728386.2
46068897.1
41432383.4
50482674.3
37242161.0
43622769.2
44320279.3
43011334.7
44716521.2
45404053.1
40072262.0
39828887.1
47003046.5
41206191.5
50060015.9
39375464.2
43136607.2
46470157.2
41616360.0
39687912.3
44298420.2
42543635.2
43639822.5
52258199.2
46234416.7
45080872.7
45467850.9
45700557.6
41310545.6
47972795.2
42491844.1
38716209.1
43341497.3
44635262.3
46578635.0
50223440.7
42123580.9
47822763.3
47598281.7
50574872.4
37365782.8
40901760.5
44502651.5
37900917.1
48929724.0
46349045.1
58489098.2
43076533.0
41566292.4
43570708.6
44800894.6
43553480.9
47050680.9
43742325.9
49670964.9
39916431.9
42175810.2
48414566.7
43640030.5
40019951.2
45102779.6
48873959.0
41657316.3
38623154.8
51168643.5
42780666.2
41490102.0
51214816.3
56206921.1
50505434.6
46476083.7
40909933.2
40144652.2
37055057.7
45584927.6
45112150.6
59231402.9
42724568.5
35498030.6
40460287.8
41083909.4
36654419.2
47298819.2
44591507.0
40256687.2
43451472.4
40233690.5
52566097.4
46906798.0
40026306.9
46396335.2
42015179.7
38616646.4
53633995.0
48256250.5
45929278.4
43206338.9
49364494.9
43877234.7
42145009.9
42576492.5
50049541.1
39718024.2
42334884.7
50491997.0
50816613.5
35129392.3
47383216.8
42115198.3
36763543.2
37395902.9
38254554.6
48809802.3
44768325.5
41423445.8
43537084.6
49362704.0
43543659.4
36018721.7
44932234.8
40563497.9
41565533.8
48449836.3
45446289.6
49795909.9
51976785.8
47282501.1
45832594.6
44328792.3
41797627.8
40856388.5
36770304.1
45140203.3
45078961.3
51023854.8
54704052.6
55650437.1
44346404.6
46040575.1
42715392.5
44440846.2
47405557.9
44212745.4
42769124.7
51201733.8
36136465.9
43968933.2
46838884.2
43244690.2
44147774.4
49521072.4
47262468.7
36319987.8
44297913.4
41301155.2
44063986.5
55772606.1
40198602.3
45141071.8
35044228.2
45687181.8
44953716.3
40937121.5
45315501.1
37492722.6
45532987.3
43991617.9
38920229.4
38756737.0
41461966.8
46719283.4
40924231.6
39160186.6
38440886.6
38392562.0
45658602.8
44815925.0
39059017.9
39971992.9
42325273.0
42596003.3
37748875.0
39036432.5
40889194.2
41688020.7
43602638.3
43553249.9
38590228.9
39052028.9
50277825.2
36714953.2
50483811.2
48503591.4
42530614.3
39701879.5
41957987.9
37775357.5
44559508.1
45413976.0
45484187.5
39636292.3
55054850.0
54343777.6
45076281.3
54733049.4
41787136.1
40623945.9
42471600.4
42857630.1
39111016.4
38261324.5
35049230.1
38815047.5
43871295.5
47144855.4
50798684.1
42473882.6
40051401.3
42078379.3
44801454.7
46213440.5
38216535.9
39450330.4
40856621.0
34646535.2
39918076.4
44824700.6
39442759.4
41369191.0
47760379.5
38775721.9
43944507.9
39047791.7
41908546.1
44625371.6
38988090.6
41883489.7
43113291.6
38691354.1
43416052.0
37580568.7
41484962.6
41731419.3
42084204.6
39074216.8
54481626.8
52389228.8
44345295.7
44146329.8
43120299.8
44121066.3
39424086.1
53625639.9
52086320.6
53883421.6
39195346.5
45072557.6
43732291.7
44741559.5
41983281.4
38614495.8
41988248.2
39257049.7
42560333.0
42623373.2
45120584.2
50356687.2
43832541.7
47195214.3
52726854.5
45190321.4
53700121.5
36596153.8
36431900.3
40138475.6
49893936.3
43708428.4
45975050.1
51011727.3
43173017.7
35321001.1
45807969.0
47571510.5
46102200.0
48659870.5
44234061.8
50715818.8
43721774.8
43882009.4
47904470.0
50258566.3
46271093.0
45347646.8
37767319.3
44669412.4
42847391.2
40159388.0
47833138.5
41800895.3
47862583.8
41692675.4
38090018.6
48845421.7
36480027.1
36777411.3
45073865.7
47410136.1
48546462.6
40073724.5
41504110.2
40706887.7
37992487.8
42917117.7
49014687.5
50474715.5
47372759.4
46136923.5
39935518.7
44447609.4
45301838.8
39608031.8
49760482.8
37218716.4
33492619.4
42738142.1
53031635.2
43901859.9
39849363.0
51056057.2
40128240.9
44721022.0
42105679.2
44583860.6
46051989.0
40973043.0
38532188.1
40045016.2
36108763.2
40344874.5
47162814.8
38112378.3
42171680.4
44813413.0
57558784.0
45665086.3
44177837.0
39412426.2
42873915.4
49139097.8
42754274.2
51400061.5
42179337.0
40553416.4
52751867.5
40644057.5
46629886.8
43206674.1
44405593.5
54741875.0
52838695.0
43766853.2
36202804.8
46710537.5
43938119.2
49114059.4
40886947.7
38425022.7
38503989.7
43684762.7
39979483.0
46614249.1
52361713.3
42452345.8
50845316.0
43960303.4
47195782.6
42144977.7
51247437.1
42551621.9
38487670.1
36390519.9
48672103.8
37322277.9
44761186.6
43877995.7
40377217.8
48138990.5
39833540.1
44238981.9
43514928.3
50204010.1
42916981.1
34147529.6
40701258.0
43469514.8
42344199.1
44908916.5
44302041.2
38335046.9
52415717.5
41434507.5
37670853.0
37656103.4
41931470.0
46481552.2
42504428.7
49275954.3
43586984.5
39035037.3
46015969.9
38443920.0
48351749.3
45191432.6
46157820.2
43999040.4
46541631.6
43023191.5
50094730.7
46126703.2
46569865.3
40689598.9
46026577.5
41001156.5
36309799.1
37808760.7
38307873.6
44017982.3
45770374.4
45549838.3
53754112.5
39671382.7
45210371.5
39988607.3
42099268.8
51351340.7
42942694.0
40694474.1
48303532.0
41282149.7
32678064.0
39636515.5
46768617.9
41640850.1
41604599.6
50279106.5
38040354.9
41808304.9
45752837.6
46026284.9
39357397.9
44181772.9
45980968.8
40675138.3
47606235.9
39669740.9
43831310.2
42154911.5
40151470.1
39443787.7
48906922.9
38409173.5
32705050.4
42022597.6
43650132.0
36232069.7
