41508929.22
41598627.3
42514612.3
45066050.3
43817841.94
41748864.22
43957379.14
39832731.56
45838640.54
42483824.04
41263089.3
44001508.94
40238036.74
43412402.04
43696892.3
45980679.2
41294870.38
45296334.62
43106198.78
37550962.02
42721114.18
45866913.8
41822673.56
47137114.12
40975082.8
43428861.16
40354332.8
44388825.24
41180771.54
43058783.52
42647445.06
39674472.04
42740768.72
42451948.56
40479029.66
46098613.38
44212329.96
42604430.2
41081725.86
40461742.76
44119469.16
43275630.02
42801749.44
45666510.18
43447008.28
40044121.76
38738060.58
44481494.1
47540060.88
44745033.12
40608349.1
39872407.38
39838288.42
41599177.38
43946452.32
43716632.04
43351644.36
48198082.86
43570773.94
42066883.26
43869090.46
40410837.22
43569072.3
40755231.36
38508616.52
38831302.38
40875965.4
38671324.2
42606126.52
44955622.0
41966818.42
43682346.84
43412714.64
41242902.82
42669259.52
39431630.42
42364467.34
43724241.06
39929275.28
45018756.78
47572208.1
39936649.64
40351535.18
39591813.14
43710665.76
43432283.34
38592592.5
40689025.0
42300370.78
41833536.56
41803619.68
42800915.52
41564783.02
41891380.66
39910166.94
39812860.94
42438372.08
40560523.12
41644659.4
43852965.22
41117937.36
42704014.12
42950998.26
42303118.06
44416281.86
41993712.24
43903300.84
45026937.76
43103820.6
41639049.64
38319349.5
41213924.04
43470087.34
46149719.84
43187042.86
42367850.28
41758427.64
41035111.32
41993382.72
42942481.08
40980324.54
46414592.62
45206436.32
43771749.06
43815340.76
43612976.38
43237292.96
45289487.46
45971882.5
42190069.08
40561335.52
40696829.9
42611900.06
43232136.62
43478642.38
41109287.66
40313727.86
44752986.58
42129612.6
41421136.52
42573124.56
44104018.84
40268323.94
44336352.68
40551646.62
43886497.92
41478110.12
40760002.2
41966465.86
43464232.88
41203126.9
43806029.36
41372829.22
42039496.14
39651266.3
43784413.0
42368057.16
41196050.52
43339403.5
43934976.62
45439628.24
40726539.34
41763311.38
38916692.68
45824818.82
40586462.36
43550862.52
39254802.34
44553437.88
41617030.26
39747514.64
42071486.0
43366411.64
43564903.34
39575110.52
44363642.32
43816573.9
41842203.48
41746366.34
42708998.52
40748134.98
41588951.92
41140655.46
41988497.94
43967587.84
41020404.16
41346254.36
43656228.24
42322036.9
40283428.0
41970774.98
42742921.52
41873726.38
43095355.06
40432852.78
43823370.74
46055552.36
42042789.28
46701020.52
41695412.14
40052380.88
40542626.76
41850502.24
44143609.5
43251368.34
42310399.1
40925742.2
44191519.56
43470048.54
42816724.18
44017255.04
44234628.86
43040789.36
39984784.14
43499920.9
40502277.28
42714629.28
43466650.24
45852172.08
43919372.08
39045844.48
40480974.34
43494440.7
44591774.38
41836381.0
41643577.36
44624554.68
43087924.78
43517636.14
41942231.64
45594629.08
40101670.7
41190019.86
40531778.4
42566690.66
41083304.24
42494789.48
43298216.04
41810820.08
42449188.16
41796192.36
39985181.08
45444053.36
43568723.64
41104057.32
39531128.76
43640750.94
42496754.2
46135756.94
43155546.84
41060521.28
42372425.88
42185837.1
40727832.7
43260586.8
44105658.7
39656193.18
43587820.22
47273038.48
38539757.44
40878974.86
41442870.9
39431686.92
43237312.96
43460004.04
40538162.16
41728713.68
40922611.44
44328339.24
41623455.5
43787924.02
40624207.34
40094106.86
46242094.92
43919136.06
40147610.52
40563512.5
40816373.42
38919418.72
43395296.12
43905350.78
39048126.686
36629750.26
43143303.52
42663549.4
42562004.88
47255008.4
45211441.9
42692101.16
41248878.32
42627946.2
38887561.64
41398113.56
44050701.56
42917190.14
40207647.5
42152832.94
42545221.76
43293404.6
43379551.46
42302682.18
40290740.62
40005234.88
41930634.44
40609247.46
42531671.76
40852392.64
43473164.78
42543137.08
43085143.72
39405895.2
43978683.3
43194704.26
46249480.86
43367524.44
40803135.4
43131971.2
43646645.92
41942874.06
46014207.28
41435391.96
42498742.96
40793582.68
41689658.56
41566698.38
39316235.86
40432594.06
41573550.98
44121858.96
39863874.86
41313380.18
41570620.22
43672250.48
43511780.96
41996721.04
40390475.68
42891169.08
41296361.36
41965655.72
40737434.8
46722115.76
40882451.48
44532755.0
43266770.5
41194822.26
41478742.84
43433839.18
40497884.3
40282286.3
42523437.04
40129005.98
44656845.42
43572892.38
39129055.74
41224299.62
41716386.46
43428192.98
43205929.98
44958590.38
39373563.02
38974005.04
44185996.62
43215301.76
40408060.82
39412023.38
41181944.3
40835782.68
41673145.76
41986667.74
39336866.82
43623840.08
41980569.78
42402164.06
44174156.5
42166813.28
41631215.16
46540759.5
42317709.0
46778441.68
47972371.9
43641821.68
42192380.22
42649538.5
39339524.5
46007710.18
43770168.68
41707449.72
41852996.08
42900952.08
40320319.52
40206690.16
40866384.74
44345470.42
40768377.64
45028922.72
41602862.94
42327345.78
43855871.32
42156858.26
43763019.22
40982886.42
42656192.96
44075868.74
45086753.44
41587060.12
45261612.2
44515569.06
45827124.28
44335723.12
44005732.38
41541820.92
43086751.86
43089988.7
44709563.48
43519795.84
40804265.42
40967714.08
41373700.08
44742400.92
44531388.36
41728042.62
39914506.9
40400170.92
43937551.1
43757201.24
40968541.38
41885182.76
39676495.86
42417041.92
44254758.74
41838272.8
41848292.36
40293447.74
44116806.3
40411030.82
40983690.4
40808694.54
42369700.7
46449649.04
43964998.7
45763445.78
40589051.82
39605139.36
44862903.2
42335334.22
43108533.98
42514340.26
39980333.64
44394566.08
41684385.84
40946855.02
42791516.14
44908972.46
44812901.24
43159571.54
40380535.68
44817917.9
43309573.08
40392261.48
41880156.84
41275562.26
48333312.14
47241987.34
39880842.98
41274928.52
41697090.68
42959978.84
39091638.16
42651704.1
42986379.82
42456515.08
42467438.5
43427949.56
42477054.56
44590286.54
42821059.34
43296517.54
42864596.94
40523795.44
43943424.9
44183155.38
44636988.52
41563866.46
41704675.94
44135996.86
41694597.4
40846001.08
45312526.88
43306058.22
45691773.4
41984842.66
39694006.36
40951532.42
44205179.96
43656191.22
41456551.0
42683532.6
42329085.94
43205583.88
41312654.44
42149390.28
42661502.08
44164773.96
40322941.36
44752907.22
42429720.84
43338781.38
42872440.22
43852060.44
41061691.96
44877404.96
44556858.5
44940542.02
41400552.08
38727649.42
45013822.22
41814862.42
43309191.52
42198917.9
42959129.58
41569737.18
41405568.88
48016230.2
41628098.36
43013598.8
43650806.34
40870316.58
42159279.18
40329336.62
41607975.4
44757433.84
42654573.42
41410962.92
43786846.3
39261012.02
42178120.72
44479564.62
42549501.38
41773606.12
41897632.26
42109794.4
40292724.14
43447328.16
39551234.2
41712317.86
43389450.28
40971529.12
44660057.28
45152021.22
42308693.72
42503897.78
45278963.5
44949050.88
40933985.08
42761315.88
38729647.96
42554337.34
42761774.72
42998783.92
42574525.92
42213526.46
44469701.44
41631240.98
42930372.12
42710118.68
41854093.4
42896747.04
45221003.84
39978037.32
43885758.46
42247506.7
41754206.7
42961138.64
41652268.28
44295277.34
40140884.06
41022103.64
39426262.24
43080637.26
47793159.54
38782582.32
42089453.34
46001842.7
41193392.18
41979479.88
41421461.76
39386788.64
42077077.36
42856500.9
41997648.18
43329452.14
42350878.22
39536278.8
40444115.32
44963273.92
41343891.7
43583390.34
40554812.52
41736180.98
41501352.6
40664676.76
40493138.1
47223105.96
40459290.5
42530691.22
40163106.0
37530031.4
42785850.28
43301392.16
41334486.48
47973923.72
43926860.9
42232167.92
42397112.48
42006866.64
41016243.88
43079598.82
39216592.02
44780675.02
43090509.2
41818760.38
40765511.54
39845193.14
40839280.04
40949944.38
39261229.54
40128860.72
41401402.16
39862324.64
43877663.68
44505613.9
39918455.36
42292316.3
43097333.7
44261259.2
43190571.52
41274516.78
43777660.74
42683892.72
43507760.28
