13.1062673
-4.15940706
-23.0337384
-46.6127973
108.2265379
-62.1992283
-4.7292009
3.9710738
-38.747309
-90.3984064
46.5405785
-72.697883
-22.9374368
10.4394807
-117.99197
-21.8336849
25.3891508
-26.3326325
-26.908189
-30.403133
27.4767339
-19.33266087
-4.707431
34.22542538
-22.907574
-25.7830686
-1.260782
-91.3885757
-33.67047
58.20618443
-141.06297866
141.0655586
45.97678045
64.2712022
2.3444875
64.98942749
46.500353
-52.1615351
-73.0207305
7.7271668
-29.03979979
-45.5181298
-8.7050054
51.8260375
-69.357213
47.100064
-41.1609236
-29.64780157
4.87706
85.3048228
-38.5731828
55.5485423
27.089954
25.5958501
-26.70245848
-129.2102349
23.6442736
10.848589
36.7246538
13.3698377
-49.4045657
-9.5010352
26.4606849
38.8907551
19.541425
35.693306
-63.258873
27.953918
64.4288717
33.2037435
150.3667889
-0.0555572
-77.801466
27.06270504
9.971644
127.2780874
48.4951862
-27.590784
14.332062
-37.759942
15.80882
82.8536257
5.712646
-30.534397
70.1889351
84.90946
-79.6493997
0.865995
-44.6658884
35.5210513
23.3568158
-118.2530132
58.476407
1.143871891
109.2795298
75.53143994
91.6714285
-20.4380482
-13.20506865
-1.80204811
-42.5201633
-2.2486608
-127.713796
-12.29819719
43.691286
-47.2576511
-88.8298159
80.2878587
-23.9805416
-3.7044197
26.2635159
-142.761921
68.4729994
-30.718337
82.823604
50.30003377
28.4591898
23.887699
-32.244993
-25.71906964
-68.5592745
17.57947
-11.1830183
106.4124429
6.06399
-34.171858
7.517614
-32.40722436
13.32559
35.812227
29.1348099
13.2770856
-31.557159
28.3939757
-69.1411623
-34.840288
-40.62940646
3.3893234
38.5470782
-22.35387834
110.7210647
54.2500669
32.5554055
-64.6377112
-47.52695317
11.5929983
13.4279468
-69.1612351
-58.326834
30.390891
94.6435591
132.0037274
-74.172679
8.3229041
-43.3102283
-50.5353883
-28.727098322
33.7165686
-49.6586177
-8.1446453
-101.83645905
56.5093485
30.284489
8.5100951
-24.309708
-32.52312844
51.7914594
42.72893683
-34.517019
35.26923186
63.1039262
-12.914841
59.2134358
59.313184
-6.7684313
32.0592103
-21.1363808
-9.11230622
5.478527
-34.218175
3.2337946
-165.0550697
-61.76963667
14.53557492
61.1072002
-64.0790717
78.5621378
7.104336
66.9431951
89.4725193
-93.297496
-68.18046692
18.04194844
-14.1562477
-45.2076569
23.2226346
-28.1373239
23.7316768
13.7936585
-7.854042
34.915151
0.00950359999999
-149.3394141
24.7091023
69.2131654
18.1938096
-38.425461
-23.7512022
-16.752397
47.4962414
39.3103253
-93.065888
13.876232
-21.725588
0.862771
-19.699402
-27.32963148
-37.24075454
-22.026185
-16.9124284
72.4905611
48.4686998
-59.2628129
9.0325898
-14.0179845
57.83425172
-28.74013782
-64.60733
-17.3611796
-60.7500835
22.4318409
-15.4314333
22.3178156
13.8813862
-5.622798
-47.9628562
28.2576832
-32.3019809
-94.6062461
-70.66829
-42.3262025
-44.0382166
-46.9741474
112.932562
-89.1015662
42.6133046
78.6459842
46.204221
-113.6252247
63.6007
