988.517858
1020.663646
1026.506953
835.594286
895.4436417
903.993537
891.090322
905.993051
1014.5716
915.56986799
905.728765
929.653248
861.9757598
1012.802392
963.9582388
944.003226
900.469322
929.5725238
929.409607
1000.0793028
983.3817418
902.134497
895.303383
980.577788
923.495933
963.627728
934.954021
978.2766139
934.115706
970.007063
946.683902
1020.6480346
819.8228585
980.152539
910.1784799
878.625331
864.00284
826.168635
966.154267
978.8728146
917.294158
946.2077824
871.271244
1026.8804131
933.135986
899.0584274
966.1548329
895.256505
878.229846
1006.607924
961.8952199
1016.977623
941.9095014
901.0402634
999.57043139
920.586677
941.16669926
920.233327
976.4689408
828.0333987
862.0923824
849.7272186
946.131417
883.805652
954.302786
1076.6661839
879.465028
871.838495
981.591568
1006.436853
997.124789
1102.248906
995.310767
933.386824
1003.85122
1016.560737
945.0225493
952.276705
909.3365145
900.602658
917.53099455
941.245995
897.498206
937.460494
1029.8261457
954.693029
976.098725
1121.508706
941.051338
892.7934597
865.905242
1017.5824116
952.009418
968.077576
978.64928
903.971343
903.5783223
868.184869
881.322116
984.618753
1047.742368
978.4462166
915.3554023
900.6127478
849.356988
1086.841888
920.3376323
1085.6509722
1004.160765
1028.69718
984.2532053
1043.8265312
951.52263
979.7822078
882.166453
1050.709514
1055.680014
983.26896
962.841503
984.829733
878.36743
907.1682626
826.967277
934.8864907
976.258384
973.168603
873.60048
1032.166144
891.581695
982.024906
998.967671
995.0752241
985.222375
894.4291532
974.880961
962.0324862
902.447894
972.369921
940.03283
921.225798
893.68648
883.891296
917.04453723
871.2249
956.7861366
879.076053
969.03514185
1005.1273391
848.9085437
936.383665
925.9547528
937.230038
999.7469318
863.3976802
1010.663444
908.8983688
880.685972
1043.0345254
1013.4290275
1064.048762
918.9691814
957.870948
984.79339
976.897543
1011.909873
1010.8160558
914.95926
921.879609
1002.365744
983.4593752
927.68861
1053.381238
886.1911286
960.14143
966.652636
871.467902
983.389639
849.745879
910.7733089
960.303092
854.5928891
1023.47087
920.5772577
960.893281
1032.872438
920.1639893
915.917718
810.8995684
963.68446
999.226681
938.23293961
1054.445059
1086.531157
948.017386
835.659592
973.805997
864.985191
1035.994081
972.208599
953.0287576
962.055547
909.6116479
940.912205
970.393542
889.160834
999.98757
879.822984
1001.568749
985.030131
939.6878962
962.412116
1055.583499
968.853775
1062.45121
980.6773534
928.530776
974.736745
1018.655833
959.6545335
967.8751327
977.624985
961.743648
913.2660471
989.62633
892.9006087
904.516469
1034.938829
805.584271
873.463093
967.799803
979.303534
949.080839
867.858876
868.7078964
932.9126199
973.681716
820.109069
907.0173533
976.029604
1005.048905
1059.499003
925.52739
984.7998009
1065.70547002
981.523361
906.82525
1001.761162
995.503257
850.825858
887.074641
