-15.8272179
-84.510482
-119.5745882
34.911282
6.063017
-8.5843
27.3374279
63.0316317
79.2357405
167.4995825
164.416668
11.2196865
-13.21860623
21.5140385
29.49511122
149.267276
-30.9462526
13.2700391
56.00638
-169.615206
27.4212998
-137.59353474
67.0366063
40.04891189
-30.2958679
95.10652726
-41.8658234
-87.52474774
81.1104151
103.4224402
-8.4647332
105.17300951
19.7988325
-129.1206007
72.9913076
-18.406512
-3.71440828
105.77081778
-47.743546
69.9945205
48.6146786
-14.29134
78.4323287
-105.4731621
-76.2433217
26.6677828
62.128693
17.6016171
-126.686494
55.7423589
-23.5677318
-11.37340183
19.674342
-97.7072586
96.57309792
81.8455111
65.2789896
-27.7031551
55.376857
22.6882745
-37.5620531
-122.6791443
-4.557962
-29.8681957
-65.203624
-38.0653849
34.7569823
-21.794661
16.4282765
39.6831853
-59.90611173
28.5337097
39.4338546
-18.727605
-54.7994341
-96.052715
18.971101
-103.5921261
14.27418454
-49.902744
111.0580439
1.4440586
124.7007582
58.69686961
84.8350489
31.0734447
-63.2069211
10.2311494
47.177471
106.1579112
-55.2126842
85.74454781
96.049465
22.1697584
-5.504451
19.081833
-68.134737
-103.35708231
-53.022332342
-50.4721486
21.8471954
-55.596254
35.88899313
-22.5695148
-23.4142323
43.2352128
76.7827589
110.0290233
37.858494
-110.9389994
57.7373605
-65.3609716
-39.0156163
-36.579569
49.4364142
-51.310328
16.288254
-135.1945671
-15.589407
58.1899773
-96.2058041
4.343483
51.86247
-15.2498581
-40.2775152
-59.2121474
28.20508
-69.7329005
46.16993184
23.7513497
32.1030483
9.6569742
-44.1535262
-22.16773647
-0.725427251
67.1383613
-9.96678671
2.6043387
41.02338
14.1514632
106.936247
0.00261705
116.8801054
26.2379798
62.104398
-22.15436397
-60.770669
108.2499898
70.7568454
84.27508124
-27.155354
-0.0682676
-38.5830284
3.0746193
13.9509392
-28.0383718
32.623673
3.4919687
171.23342307
-81.7644508
-59.0462457
-43.166727
-82.1841769
77.1288186
27.467347
138.8864633
78.8715294
-101.2401122
39.6065237
-72.2045107
53.7196616
62.69633
34.077455
-40.6019761
-46.24213
-45.90115906
-40.6864648
-71.565373
19.099194
24.3221069
-23.2417838
-42.414199
-34.8095839
133.957065
128.0777518
-7.0127514
125.694179
-25.9204282
66.970705
13.5677592
-40.925214
-115.88261
-48.2871936
-47.0793483
38.7965535
50.344781
-80.9651259
66.627303
-9.20604814
9.180771
44.9818289
-52.026356
11.71579369
-143.698039
-43.451572
-15.5370328
-45.8283919
-48.7118068
6.6749026
13.6500323
-28.3910666
15.00547572
-103.191789
57.157628
-76.2590592
7.128481
-102.1478089
58.943143
95.039244074
-67.9147191
13.709883
2.452808
-5.8253721
-93.5412518
15.5278622
-24.5933784
32.814818713
33.9700231
-34.6637391
35.9226257
14.9583578
29.0458925
-36.525482
49.856556
-51.6935502
58.0133532
51.56581682
110.7183861
63.3185984
-7.8317508
89.6026714
-21.3185086
-41.77351775
-3.4390056
-62.7392134
91.063166
93.5244869
-34.4793567
-88.0663697
-25.7429621
